// Created by Crowbar 0.68

// Stored modelname (without quotes): "valve/models/crossbow_bolt.mdl"
$modelname "crossbow_bolt.mdl"
$cd "."
$cdtexture "."
$cliptotextures
$scale 1.0

$bodygroup "body"
{
	studio "crossbow_bolt"
}

$flags 0


$cbox 0 0 0 0 0 0

$bbox 0 0 0 0 0 0

$hbox 0 "Crossbow03" -1.9 -0.14 -1.91 1.9 25 1.91

$sequence "idle" {
	"crossbow_bolt_anims\idle"
	fps 30
}
