version 1
nodes
  0 "Bip01" -1
  1 "Bip01 Pelvis" 0
  2 "Bip01 L Leg" 1
  3 "Bip01 L Leg1" 2
  4 "Bip01 L Foot" 3
  5 "Bip01 R Leg" 1
  6 "Bip01 R Leg1" 5
  7 "Bip01 R Foot" 6
  8 "Bip01 Spine" 1
  9 "Bip01 Spine1" 8
  10 "Bip01 Spine2" 9
  11 "Bip01 Spine3" 10
  12 "Bip01 Neck" 11
  13 "Bip01 L Arm" 12
  14 "Bip01 L Arm1" 13
  15 "Bip01 L Arm2" 14
  16 "Bip01 L Hand" 15
  17 "Bip01 R Arm" 12
  18 "Bip01 R Arm1" 17
  19 "Bip01 R Arm2" 18
  20 "Bip01 R Hand" 19
  21 "Bip01 Head" 12
  22 "Bone05" 21
  23 "Bone03" 1
end
skeleton
  time 0
    0 -0.241231 2.907255 32.313597 0.000000 0.000000 -1.570844
    1 -1.242225 0.000000 0.000000 -1.570795 -1.570796 0.000000
    2 -0.000007 0.000008 4.423487 -0.172475 3.461884 -0.881878
    3 18.273721 0.000000 0.000000 0.000000 0.000000 -1.414868
    4 17.079414 0.000000 0.000000 -0.253982 -0.064679 0.493347
    5 0.000006 -0.000004 -4.423487 0.238366 -3.576130 -0.651789
    6 18.105823 0.000000 0.000000 0.000000 0.000000 -1.439463
    7 17.348611 0.000000 0.000000 0.500624 0.183030 0.691901
    8 2.255203 -0.002685 0.000003 -0.000004 -0.000001 0.000796
    9 3.369870 -0.004248 0.000000 0.000000 0.000000 0.174529
    10 5.327697 -0.004100 0.000000 0.000000 0.000000 0.095944
    11 5.168660 -0.004197 0.000000 0.000000 0.000000 0.331616
    12 5.264157 -0.001935 0.000000 0.000000 0.000000 0.134667
    13 -3.125138 0.428427 2.526160 -0.672806 -1.317183 -2.620035
    14 6.056136 0.000000 0.000002 -0.613022 0.594721 -1.265039
    15 7.673502 0.000000 0.000000 0.000000 0.000000 -0.200000
    16 10.230629 0.000000 -0.000003 -1.569107 0.000000 0.000000
    17 -3.020187 0.414136 -2.427872 0.672786 1.317186 -2.620054
    18 6.261694 0.000000 -0.000001 0.077926 -0.541577 -1.065084
    19 8.562083 0.000000 -0.000004 0.000000 0.000000 -0.200000
    20 9.897832 0.000000 0.000003 1.568967 0.165722 0.000000
    21 2.448340 0.000000 0.000000 0.000000 0.000000 -0.580555
    22 0.946167 3.213873 -0.420090 -3.141592 -0.000002 1.413798
    23 1.827063 1.152534 -7.631906 -1.570796 -1.570796 0.000000
  time 1
    0 -0.202167 2.907255 32.296843 0.000000 0.000000 -1.570844
    1 -1.230506 -0.019532 0.000000 -1.570795 -1.570796 0.000000
    2 -0.000007 0.000008 4.423487 -0.172763 3.461884 -0.882262
    3 18.273721 0.000000 0.000000 0.000000 0.000000 -1.416615
    4 17.079414 0.000000 0.000000 -0.253798 -0.064279 0.494688
    5 0.000006 -0.000004 -4.423487 0.237887 -3.576989 -0.651968
    6 18.105823 0.000000 0.000000 0.000000 0.000000 -1.440567
    7 17.348611 0.000000 0.000000 0.500280 0.183810 0.692511
    8 2.255203 -0.002685 0.000003 -0.000004 -0.000001 0.000796
    9 3.369870 -0.004248 0.000000 0.015370 -0.002723 0.174504
    10 5.327697 -0.004100 0.000000 0.000000 0.000000 0.095944
    11 5.168660 -0.004197 0.000000 0.000000 0.000000 0.316794
    12 5.264157 -0.001935 0.000000 0.000000 0.000000 0.134667
    13 -3.125138 0.428427 2.526160 -0.695727 -1.312609 -2.597810
    14 6.056136 0.000000 0.000002 -0.594153 0.607656 -1.271685
    15 7.673502 0.000000 0.000000 0.000000 0.000000 -0.200000
    16 10.230629 0.000000 -0.000003 -1.569107 0.000000 0.000000
    17 -3.020187 0.414136 -2.427872 0.672786 1.317186 -2.620054
    18 6.261694 0.000000 -0.000001 0.076879 -0.556150 -1.048669
    19 8.562083 0.000000 -0.000004 0.000000 0.000000 -0.200000
    20 9.897832 0.000000 0.000003 1.568967 0.165722 0.000000
    21 2.448340 0.000000 0.000000 -0.023799 0.002425 -0.565738
    22 0.946167 3.213873 -0.420090 -3.141592 -0.000002 1.413798
    23 1.827063 1.152534 -7.631906 -1.570796 -1.570796 0.000000
  time 2
    0 -0.092789 2.907255 32.280089 0.000000 0.000000 -1.570844
    1 -1.207068 -0.070315 0.000000 -1.570795 -1.570796 0.000000
    2 -0.000007 0.000008 4.423487 -0.174296 3.460926 -0.882453
    3 18.273721 0.000000 0.000000 0.000000 0.000000 -1.419671
    4 17.079414 0.000000 0.000000 -0.253614 -0.062475 0.497772
    5 0.000006 -0.000004 -4.423487 0.236545 -3.579282 -0.651968
    6 18.105823 0.000000 0.000000 0.000000 0.000000 -1.441327
    7 17.348611 0.000000 0.000000 0.499677 0.186384 0.692663
    8 2.255203 -0.002685 0.000003 -0.000004 -0.000001 0.000796
    9 3.369870 -0.004248 0.000000 0.048358 -0.008559 0.174303
    10 5.327697 -0.004100 0.000000 0.000000 0.000000 0.095944
    11 5.168660 -0.004197 0.000000 0.000000 0.000000 0.285916
    12 5.264157 -0.001935 0.000000 0.000000 0.000000 0.134667
    13 -3.125138 0.428427 2.526160 -0.723879 -1.306570 -2.570625
    14 6.056136 0.000000 0.000002 -0.554705 0.633854 -1.280164
    15 7.673502 0.000000 0.000000 0.000000 0.000000 -0.200000
    16 10.230629 0.000000 -0.000003 -1.569107 0.000000 0.000000
    17 -3.020187 0.414136 -2.427872 0.672786 1.317186 -2.620054
    18 6.261694 0.000000 -0.000001 0.073640 -0.586047 -1.012667
    19 8.562083 0.000000 -0.000004 0.000000 0.000000 -0.200000
    20 9.897832 0.000000 0.000003 1.568967 0.165722 0.000000
    21 2.448340 0.000000 0.000000 -0.067322 0.007657 -0.535027
    22 0.946167 3.213873 -0.420090 -3.141592 -0.000002 1.413798
    23 1.827063 1.152534 -7.631906 -1.570796 -1.570796 0.000000
  time 3
    0 0.082998 2.907255 32.246581 0.000000 0.000000 -1.570844
    1 -1.179724 -0.117191 0.000000 -1.570795 -1.570796 0.000000
    2 -0.000007 0.000008 4.423487 -0.177269 3.458146 -0.882453
    3 18.273721 0.000000 0.000000 0.000000 0.000000 -1.423891
    4 17.079414 0.000000 0.000000 -0.253982 -0.058467 0.502420
    5 0.000006 -0.000004 -4.423487 0.233766 -3.583485 -0.652057
    6 18.105823 0.000000 0.000000 0.000000 0.000000 -1.441258
    7 17.348611 0.000000 0.000000 0.498988 0.191241 0.691444
    8 2.255203 -0.002685 0.000003 -0.000004 -0.000001 0.000796
    9 3.369870 -0.004248 0.000000 0.082106 -0.014528 0.173926
    10 5.327697 -0.004100 0.000000 0.000000 0.000000 0.095944
    11 5.168660 -0.004197 0.000000 0.000000 0.000000 0.254452
    12 5.264157 -0.001935 0.000000 0.000000 0.000000 0.134667
    13 -3.125138 0.428427 2.526160 -0.755360 -1.299244 -2.540291
    14 6.056136 0.000000 0.000002 -0.514616 0.661199 -1.290171
    15 7.673502 0.000000 0.000000 0.000000 0.000000 -0.200000
    16 10.230629 0.000000 -0.000003 -1.569107 0.000000 0.000000
    17 -3.020187 0.414136 -2.427872 0.672786 1.317186 -2.620054
    18 6.261694 0.000000 -0.000001 0.068306 -0.615757 -0.974112
    19 8.562083 0.000000 -0.000004 0.000000 0.000000 -0.200000
    20 9.897832 0.000000 0.000003 1.568967 0.165722 0.000000
    21 2.448340 0.000000 0.000000 -0.113013 0.013017 -0.503928
    22 0.946167 3.213873 -0.420090 -3.141592 -0.000002 1.413798
    23 1.827063 1.152534 -7.631906 -1.570796 -1.570796 0.000000
  time 4
    0 0.313473 2.895156 32.229827 0.000000 0.000000 -1.570844
    1 -1.148473 -0.164068 0.000000 -1.570795 -1.570796 0.000000
    2 -0.000007 0.000008 4.423487 -0.181487 3.453834 -0.882358
    3 18.273721 0.000000 0.000000 0.000000 0.000000 -1.428912
    4 17.079414 0.000000 0.000000 -0.254828 -0.052575 0.508454
    5 0.000006 -0.000004 -4.423487 0.229645 -3.589217 -0.652057
    6 18.105823 0.000000 0.000000 0.000000 0.000000 -1.440360
    7 17.348611 0.000000 0.000000 0.498128 0.198122 0.688955
    8 2.255203 -0.002685 0.000003 -0.000004 -0.000001 0.000796
    9 3.369870 -0.004248 0.000000 0.115702 -0.020449 0.173323
    10 5.327697 -0.004100 0.000000 0.000000 0.000000 0.095944
    11 5.168660 -0.004197 0.000000 0.000000 0.000000 0.223311
    12 5.264157 -0.001935 0.000000 0.000000 0.000000 0.134667
    13 -3.125138 0.428427 2.526160 -0.788552 -1.290775 -2.508337
    14 6.056136 0.000000 0.000002 -0.474954 0.689116 -1.301248
    15 7.673502 0.000000 0.000000 0.000000 0.000000 -0.200000
    16 10.230629 0.000000 -0.000003 -1.569107 0.000000 0.000000
    17 -3.020187 0.414136 -2.427872 0.672786 1.317186 -2.620054
    18 6.261694 0.000000 -0.000001 0.060782 -0.644338 -0.933902
    19 8.562083 0.000000 -0.000004 0.000000 0.000000 -0.200000
    20 9.897832 0.000000 0.000003 1.568967 0.165722 0.000000
    21 2.448340 0.000000 0.000000 -0.159428 0.018312 -0.473304
    22 0.946167 3.213873 -0.420090 -3.141592 -0.000002 1.413798
    23 1.827063 1.152534 -7.631906 -1.570796 -1.570796 0.000000
  time 5
    0 0.590826 2.883056 32.196318 0.000000 0.000000 -1.570844
    1 -1.117222 -0.207038 0.000000 -1.570795 -1.570796 0.000000
    2 -0.000007 0.000008 4.423487 -0.186856 3.447987 -0.881878
    3 18.273721 0.000000 0.000000 0.000000 0.000000 -1.434661
    4 17.079414 0.000000 0.000000 -0.256116 -0.045000 0.515695
    5 0.000006 -0.000004 -4.423487 0.224469 -3.596382 -0.652057
    6 18.105823 0.000000 0.000000 0.000000 0.000000 -1.438497
    7 17.348611 0.000000 0.000000 0.497181 0.206796 0.685399
    8 2.255203 -0.002685 0.000003 -0.000004 -0.000001 0.000796
    9 3.369870 -0.004248 0.000000 0.148963 -0.026284 0.172569
    10 5.327697 -0.004100 0.000000 0.000000 0.000000 0.095944
    11 5.168660 -0.004197 0.000000 0.000000 0.000000 0.192619
    12 5.264157 -0.001935 0.000000 0.000000 0.000000 0.134667
    13 -3.125138 0.428427 2.526160 -0.822411 -1.281270 -2.475905
    14 6.056136 0.000000 0.000002 -0.435862 0.717279 -1.313164
    15 7.673502 0.000000 0.000000 0.000000 0.000000 -0.200000
    16 10.230629 0.000000 -0.000003 -1.569107 0.000000 0.000000
    17 -3.020187 0.414136 -2.427872 0.672786 1.317186 -2.620054
    18 6.261694 0.000000 -0.000001 0.051257 -0.671416 -0.892105
    19 8.562083 0.000000 -0.000004 0.000000 0.000000 -0.200000
    20 9.897832 0.000000 0.000003 1.568967 0.165722 0.000000
    21 2.448340 0.000000 0.000000 -0.206501 0.023545 -0.443325
    22 0.946167 3.213873 -0.420090 -3.141592 -0.000002 1.413798
    23 1.827063 1.152534 -7.631906 -1.570796 -1.570796 0.000000
  time 6
    0 0.911148 2.870957 32.162810 0.000000 0.000000 -1.570844
    1 -1.085971 -0.246101 0.000000 -1.570795 -1.570796 0.000000
    2 -0.000007 0.000008 4.423487 -0.193183 3.440991 -0.881207
    3 18.273721 0.000000 0.000000 0.000000 0.000000 -1.440919
    4 17.079414 0.000000 0.000000 -0.257808 -0.035983 0.524008
    5 0.000006 -0.000004 -4.423487 0.218239 -3.604693 -0.651789
    6 18.105823 0.000000 0.000000 0.000000 0.000000 -1.435805
    7 17.348611 0.000000 0.000000 0.496148 0.217003 0.680827
    8 2.255203 -0.002685 0.000003 -0.000004 -0.000001 0.000796
    9 3.369870 -0.004248 0.000000 0.181891 -0.032035 0.171589
    10 5.327697 -0.004100 0.000000 0.000000 0.000000 0.095944
    11 5.168660 -0.004197 0.000000 0.000000 0.000000 0.162482
    12 5.264157 -0.001935 0.000000 0.000000 0.000000 0.134667
    13 -3.125138 0.428427 2.526160 -0.855889 -1.270907 -2.443855
    14 6.056136 0.000000 0.000002 -0.397411 0.745687 -1.325692
    15 7.673502 0.000000 0.000000 0.000000 0.000000 -0.200000
    16 10.230629 0.000000 -0.000003 -1.569107 0.000000 0.000000
    17 -3.020187 0.414136 -2.427872 0.672786 1.317186 -2.620054
    18 6.261694 0.000000 -0.000001 0.039541 -0.697082 -0.848861
    19 8.562083 0.000000 -0.000004 0.000000 0.000000 -0.200000
    20 9.897832 0.000000 0.000003 1.568967 0.165722 0.000000
    21 2.448340 0.000000 0.000000 -0.254034 0.028713 -0.414036
    22 0.946167 3.213873 -0.420090 -3.141592 -0.000002 1.413798
    23 1.827063 1.152534 -7.631906 -1.570796 -1.570796 0.000000
  time 7
    0 1.262721 2.846758 32.129302 0.000000 0.000000 -1.570844
    1 -1.050813 -0.285165 0.000000 -1.570795 -1.570796 0.000000
    2 -0.000007 0.000008 4.423487 -0.200374 3.432845 -0.880248
    3 18.273721 0.000000 0.000000 0.000000 0.000000 -1.447468
    4 17.079414 0.000000 0.000000 -0.259795 -0.025762 0.533125
    5 0.000006 -0.000004 -4.423487 0.211434 -3.613959 -0.651522
    6 18.105823 0.000000 0.000000 0.000000 0.000000 -1.432286
    7 17.348611 0.000000 0.000000 0.495029 0.228452 0.675442
    8 2.255203 -0.002685 0.000003 -0.000004 -0.000001 0.000796
    9 3.369870 -0.004248 0.000000 0.214332 -0.037664 0.170459
    10 5.327697 -0.004100 0.000000 0.000000 0.000000 0.095944
    11 5.168660 -0.004197 0.000000 0.000000 0.000000 0.133024
    12 5.264157 -0.001935 0.000000 0.000000 0.000000 0.134667
    13 -3.125138 0.428427 2.526160 -0.888225 -1.259865 -2.412950
    14 6.056136 0.000000 0.000002 -0.359815 0.774014 -1.338602
    15 7.673502 0.000000 0.000000 0.000000 0.000000 -0.200000
    16 10.230629 0.000000 -0.000003 -1.569107 0.000000 0.000000
    17 -3.020187 0.414136 -2.427872 0.672786 1.317186 -2.620054
    18 6.261694 0.000000 -0.000001 0.026016 -0.720963 -0.804305
    19 8.562083 0.000000 -0.000004 0.000000 0.000000 -0.200000
    20 9.897832 0.000000 0.000003 1.568967 0.165722 0.000000
    21 2.448340 0.000000 0.000000 -0.302158 0.033754 -0.385608
    22 0.946167 3.213873 -0.420090 -3.141592 -0.000002 1.413798
    23 1.827063 1.152534 -7.631906 -1.570796 -1.570796 0.000000
  time 8
    0 1.641639 2.822559 32.095794 0.000000 0.000000 -1.570844
    1 -1.019562 -0.320322 0.000000 -1.570795 -1.570796 0.000000
    2 -0.000007 0.000008 4.423487 -0.208236 3.423740 -0.879098
    3 18.273721 0.000000 0.000000 0.000000 0.000000 -1.454090
    4 17.079414 0.000000 0.000000 -0.262039 -0.014500 0.542690
    5 0.000006 -0.000004 -4.423487 0.203958 -3.623989 -0.651075
    6 18.105823 0.000000 0.000000 0.000000 0.000000 -1.428076
    7 17.348611 0.000000 0.000000 0.493737 0.240827 0.669143
    8 2.255203 -0.002685 0.000003 -0.000004 -0.000001 0.000796
    9 3.369870 -0.004248 0.000000 0.246197 -0.043147 0.169177
    10 5.327697 -0.004100 0.000000 0.000000 0.000000 0.095944
    11 5.168660 -0.004197 0.000000 0.000000 0.000000 0.104447
    12 5.264157 -0.001935 0.000000 0.000000 0.000000 0.134667
    13 -3.125138 0.428427 2.526160 -0.919040 -1.248287 -2.383762
    14 6.056136 0.000000 0.000002 -0.323215 0.802095 -1.351741
    15 7.673502 0.000000 0.000000 0.000000 0.000000 -0.200000
    16 10.230629 0.000000 -0.000003 -1.569107 0.000000 0.000000
    17 -3.020187 0.414136 -2.427872 0.672786 1.317186 -2.620054
    18 6.261694 0.000000 -0.000001 0.010681 -0.742963 -0.758854
    19 8.562083 0.000000 -0.000004 0.000000 0.000000 -0.200000
    20 9.897832 0.000000 0.000003 1.568967 0.165722 0.000000
    21 2.448340 0.000000 0.000000 -0.350677 0.038667 -0.358171
    22 0.946167 3.213873 -0.420090 -3.141592 -0.000002 1.413798
    23 1.827063 1.152534 -7.631906 -1.570796 -1.570796 0.000000
  time 9
    0 2.043995 2.798360 32.062286 0.000000 0.000000 -1.570844
    1 -0.984405 -0.355480 0.000000 -1.570795 -1.570796 0.000000
    2 -0.000007 0.000008 4.423487 -0.216577 3.413964 -0.878044
    3 18.273721 0.000000 0.000000 0.000000 0.000000 -1.460712
    4 17.079414 0.000000 0.000000 -0.264540 -0.002436 0.552433
    5 0.000006 -0.000004 -4.423487 0.196099 -3.634497 -0.650807
    6 18.105823 0.000000 0.000000 0.000000 0.000000 -1.423176
    7 17.348611 0.000000 0.000000 0.492360 0.253838 0.662132
    8 2.255203 -0.002685 0.000003 -0.000004 -0.000001 0.000796
    9 3.369870 -0.004248 0.000000 0.277210 -0.048435 0.167770
    10 5.327697 -0.004100 0.000000 0.000000 0.000000 0.095944
    11 5.164753 -0.004197 0.000000 0.000000 0.000000 0.076996
    12 5.264157 -0.001935 0.000000 0.000000 0.000000 0.134667
    13 -3.125138 0.428427 2.526160 -0.947763 -1.236459 -2.356576
    14 6.056136 0.000000 0.000002 -0.287897 0.829603 -1.364880
    15 7.673502 0.000000 0.000000 0.000000 0.000000 -0.200000
    16 10.230629 0.000000 -0.000003 -1.569107 0.000000 0.000000
    17 -3.020187 0.414136 -2.427872 0.672786 1.317186 -2.620054
    18 6.261694 0.000000 -0.000001 -0.005987 -0.762989 -0.712919
    19 8.562083 0.000000 -0.000004 0.000000 0.000000 -0.200000
    20 9.897832 0.000000 0.000003 1.568967 0.165722 0.000000
    21 2.448340 0.000000 0.000000 -0.399393 0.043420 -0.331983
    22 0.946167 3.213873 -0.420090 -3.141592 -0.000002 1.413798
    23 1.827063 1.152534 -7.631906 -1.570796 -1.570796 0.000000
  time 10
    0 2.454164 2.786261 32.012024 0.000000 0.000000 -1.570844
    1 -0.953154 -0.382824 0.000000 -1.570795 -1.570796 0.000000
    2 -0.000007 0.000008 4.423487 -0.225205 3.403518 -0.876893
    3 18.273721 0.000000 0.000000 0.000000 0.000000 -1.466824
    4 17.079414 0.000000 0.000000 -0.267226 0.010269 0.561864
    5 0.000006 -0.000004 -4.423487 0.188048 -3.645292 -0.650629
    6 18.105823 0.000000 0.000000 0.000000 0.000000 -1.417655
    7 17.348611 0.000000 0.000000 0.490810 0.267138 0.654207
    8 2.255203 -0.002685 0.000003 -0.000004 -0.000001 0.000796
    9 3.369870 -0.004248 0.000000 0.307070 -0.053493 0.166238
    10 5.327697 -0.004100 0.000000 0.000000 0.000000 0.095944
    11 5.164753 -0.004197 0.000000 0.000000 0.000000 0.051043
    12 5.264157 -0.001935 0.000000 0.000000 0.000000 0.134667
    13 -3.125138 0.428427 2.526160 -0.974012 -1.224595 -2.331776
    14 6.056136 0.000000 0.000002 -0.254359 0.856128 -1.377866
    15 7.673502 0.000000 0.000000 0.000000 0.000000 -0.200000
    16 10.230629 0.000000 -0.000003 -1.569107 0.000000 0.000000
    17 -3.020187 0.414136 -2.427872 0.672786 1.317186 -2.620054
    18 6.261694 0.000000 -0.000001 -0.023417 -0.780758 -0.667329
    19 8.562083 0.000000 -0.000004 0.000000 0.000000 -0.200000
    20 9.897832 0.000000 0.000003 1.568967 0.165722 0.000000
    21 2.448340 0.000000 0.000000 -0.447715 0.047919 -0.307431
    22 0.946167 3.213873 -0.420090 -3.141592 -0.000002 1.413798
    23 1.827063 1.152534 -7.631906 -1.570796 -1.570796 0.000000
  time 11
    0 2.868239 2.786261 31.978515 0.000000 0.000000 -1.570844
    1 -0.921903 -0.410169 0.000000 -1.570795 -1.570796 0.000000
    2 -0.000007 0.000008 4.423487 -0.233930 3.392592 -0.875935
    3 18.273721 0.000000 0.000000 0.000000 0.000000 -1.472064
    4 17.079414 0.000000 0.000000 -0.270132 0.023455 0.570445
    5 0.000006 -0.000004 -4.423487 0.179997 -3.656087 -0.650807
    6 18.105823 0.000000 0.000000 0.000000 0.000000 -1.411236
    7 17.348611 0.000000 0.000000 0.489175 0.280351 0.645267
    8 2.255203 -0.002685 0.000003 -0.000004 -0.000001 0.000796
    9 3.369870 -0.004248 0.000000 0.335137 -0.058198 0.164680
    10 5.327697 -0.004100 0.000000 0.000000 0.000000 0.095944
    11 5.164753 -0.004197 0.000000 0.000000 0.000000 0.027128
    12 5.264157 -0.001935 0.000000 0.000000 0.000000 0.134667
    13 -3.125138 0.428427 2.526160 -0.997599 -1.213088 -2.309646
    14 6.056136 0.000000 0.000002 -0.223171 0.880934 -1.390318
    15 7.673502 0.000000 0.000000 0.000000 0.000000 -0.200000
    16 10.230629 0.000000 -0.000003 -1.569107 0.000000 0.000000
    17 -3.020187 0.414136 -2.427872 0.672786 1.317186 -2.620054
    18 6.261694 0.000000 -0.000001 -0.040943 -0.796083 -0.623395
    19 8.562083 0.000000 -0.000004 0.000000 0.000000 -0.200000
    20 9.897832 0.000000 0.000003 1.568967 0.165722 0.000000
    21 2.448340 0.000000 0.000000 -0.494327 0.052162 -0.284904
    22 0.946167 3.213873 -0.420090 -3.141592 -0.000002 1.413798
    23 1.827063 1.152534 -7.631906 -1.570796 -1.570796 0.000000
  time 12
    0 3.278408 2.798360 31.961761 0.000000 0.000000 -1.570844
    1 -0.890652 -0.433607 0.000000 -1.570795 -1.570796 0.000000
    2 -0.000007 0.000008 4.423487 -0.242846 3.381187 -0.875072
    3 18.273721 0.000000 0.000000 0.000000 0.000000 -1.475629
    4 17.079414 0.000000 0.000000 -0.273222 0.036922 0.577417
    5 0.000006 -0.000004 -4.423487 0.172234 -3.666499 -0.651164
    6 18.105823 0.000000 0.000000 0.000000 0.000000 -1.403645
    7 17.348611 0.000000 0.000000 0.487453 0.292986 0.635005
    8 2.255203 -0.002685 0.000003 -0.000004 -0.000001 0.000796
    9 3.369870 -0.004248 0.000000 0.360046 -0.062331 0.163172
    10 5.327697 -0.004100 0.000000 0.000000 0.000000 0.095944
    11 5.164753 -0.004197 0.000000 0.000000 0.000000 0.006131
    12 5.264157 -0.001935 0.000000 0.000000 0.000000 0.134667
    13 -3.125138 0.428427 2.526160 -1.017952 -1.202368 -2.290569
    14 6.056136 0.000000 0.000002 -0.195685 0.903203 -1.401776
    15 7.673502 0.000000 0.000000 0.000000 0.000000 -0.200000
    16 10.230629 0.000000 -0.000003 -1.569107 0.000000 0.000000
    17 -3.020187 0.414136 -2.427872 0.672786 1.317186 -2.620054
    18 6.261694 0.000000 -0.000001 -0.057516 -0.808682 -0.583461
    19 8.562083 0.000000 -0.000004 0.000000 0.000000 -0.200000
    20 9.897832 0.000000 0.000003 1.568967 0.165722 0.000000
    21 2.448340 0.000000 0.000000 -0.536534 0.055863 -0.265263
    22 0.946167 3.213873 -0.420090 -3.141592 -0.000002 1.413798
    23 1.827063 1.152534 -7.631906 -1.570796 -1.570796 0.000000
  time 13
    0 3.676857 2.834659 31.945007 0.000000 0.000000 -1.570844
    1 -0.871120 -0.445326 0.000000 -1.570795 -1.570796 0.000000
    2 -0.000007 0.000008 4.423487 -0.251762 3.369590 -0.874113
    3 18.273721 0.000000 0.000000 0.000000 0.000000 -1.476357
    4 17.079414 0.000000 0.000000 -0.276422 0.050669 0.581842
    5 0.000006 -0.000004 -4.423487 0.164854 -3.676148 -0.651789
    6 18.105823 0.000000 0.000000 0.000000 0.000000 -1.393983
    7 17.348611 0.000000 0.000000 0.485990 0.304667 0.622813
    8 2.255203 -0.002685 0.000003 -0.000004 -0.000001 0.000796
    9 3.369870 -0.004248 0.000000 0.375993 -0.064957 0.162167
    10 5.327697 -0.004100 0.000000 0.000000 0.000000 0.095944
    11 5.164753 -0.004197 0.000000 0.000000 0.000000 -0.010219
    12 5.264157 -0.001935 0.000000 0.000000 0.000000 0.134667
    13 -3.125138 0.428427 2.526160 -1.034786 -1.192970 -2.275020
    14 6.056136 0.000000 0.000002 -0.175748 0.920641 -1.409415
    15 7.673502 0.000000 0.000000 0.000000 0.000000 -0.200000
    16 10.230629 0.000000 -0.000003 -1.569107 0.000000 0.000000
    17 -3.020187 0.414136 -2.427872 0.672786 1.317186 -2.620054
    18 6.261694 0.000000 -0.000001 -0.072660 -0.817237 -0.553872
    19 8.562083 0.000000 -0.000004 0.000000 0.000000 -0.200000
    20 9.897832 0.000000 0.000003 1.568967 0.165722 0.000000
    21 2.448340 0.000000 0.000000 -0.566316 0.058192 -0.249800
    22 0.946167 3.213873 -0.420090 -3.141592 -0.000002 1.413798
    23 1.827063 1.152534 -7.631906 -1.570796 -1.570796 0.000000
  time 14
    0 4.047962 2.907255 31.995269 0.000000 0.000000 -1.570844
    1 -0.878933 -0.406262 0.000000 -1.570795 -1.570796 0.000000
    2 -0.000007 0.000008 4.423487 -0.263075 3.357418 -0.872483
    3 18.273721 0.000000 0.000000 0.000000 0.000000 -1.471991
    4 17.079414 0.000000 0.000000 -0.278409 0.066260 0.581931
    5 0.000006 -0.000004 -4.423487 0.155748 -3.683694 -0.652861
    6 18.105823 0.000000 0.000000 0.000000 0.000000 -1.379697
    7 17.348611 0.000000 0.000000 0.486937 0.315828 0.606709
    8 2.255203 -0.002685 0.000003 -0.000004 -0.000001 0.000796
    9 3.369870 -0.004248 0.000000 0.344129 -0.059693 0.164152
    10 5.327697 -0.004100 0.000000 0.000000 0.000000 0.095944
    11 5.164753 -0.004197 0.000000 0.000000 0.000000 -0.017444
    12 5.264157 -0.001935 0.000000 0.000000 0.000000 0.134667
    13 -3.125138 0.428427 2.526160 -1.047341 -1.185537 -2.263288
    14 6.056136 0.000000 0.000002 -0.183295 0.926371 -1.391616
    15 7.673502 0.000000 0.000000 0.000000 0.000000 -0.200000
    16 10.230629 0.000000 -0.000003 -1.569107 0.000000 0.000000
    17 -3.020187 0.414136 -2.427872 0.672786 1.317186 -2.620054
    18 6.261694 0.000000 -0.000001 -0.094567 -0.815827 -0.567321
    19 8.562083 0.000000 -0.000004 0.000000 0.000000 -0.200000
    20 9.897832 0.000000 0.000003 1.568967 0.165722 0.000000
    21 2.448340 0.000000 0.000000 -0.540939 0.053502 -0.240798
    22 0.946167 3.213873 -0.420090 -3.141592 -0.000002 1.413798
    23 1.827063 1.152534 -7.631906 -1.570796 -1.570796 0.000000
  time 15
    0 3.911240 4.020404 33.369104 0.000000 0.000000 -1.570844
    1 -0.843776 -0.531266 0.000000 -1.570795 -1.570796 0.000000
    2 -0.000007 0.000008 4.423487 -0.271512 3.348218 -0.837109
    3 18.273721 0.000000 0.000000 0.000000 0.000000 -1.333296
    4 17.079414 0.000000 0.000000 -0.277563 0.066941 0.479045
    5 0.000006 -0.000004 -4.423487 0.190348 -3.647012 -0.627418
    6 18.105823 0.000000 0.000000 0.000000 0.000000 -1.269136
    7 17.348611 0.000000 0.000000 0.493651 0.277373 0.526191
    8 2.255203 -0.002685 0.000003 -0.000004 -0.000001 0.000796
    9 3.369870 -0.004248 0.000000 0.302483 -0.071218 0.160710
    10 5.327697 -0.004100 0.000000 -0.010135 -0.019337 0.096128
    11 5.164753 -0.004197 0.000000 0.000000 -0.020326 -0.017444
    12 5.264157 -0.001935 0.000000 0.000000 0.000000 0.134667
    13 -3.125138 0.428427 2.526160 -1.047341 -1.185537 -2.263288
    14 6.056136 0.000000 0.000002 -0.121275 0.889531 -1.294678
    15 7.673502 0.000000 0.000000 0.000000 0.000000 -0.200000
    16 10.230629 0.000000 -0.000003 -1.569107 0.000000 0.000000
    17 -3.020187 0.414136 -2.427872 0.691546 1.323119 -2.600632
    18 6.261694 0.000000 -0.000001 -0.010749 -0.788468 -0.688020
    19 8.562083 0.000000 -0.000004 0.000000 0.000000 -0.271786
    20 9.897832 0.000000 0.000003 1.568967 0.165722 0.000000
    21 2.448340 0.000000 0.000000 -0.471843 0.107291 -0.238429
    22 0.946167 3.213873 -0.420090 -3.141592 -0.000002 1.413798
    23 1.827063 1.152534 -7.631906 -1.570796 -1.570796 0.000000
  time 16
    0 3.872176 3.996205 34.206808 0.000000 0.000000 -1.570844
    1 -0.816431 -0.664083 0.000000 -1.570795 -1.570796 0.000000
    2 -0.000007 0.000008 4.423487 -0.276210 3.343713 -0.794161
    3 18.273721 0.000000 0.000000 0.000000 0.000000 -1.257181
    4 17.079414 0.000000 0.000000 -0.275061 0.059166 0.444854
    5 0.000006 -0.000004 -4.423487 0.218431 -3.628288 -0.582068
    6 18.105823 0.000000 0.000000 0.000000 0.000000 -1.195636
    7 17.348611 0.000000 0.000000 0.495631 0.265316 0.496016
    8 2.255203 -0.002685 0.000003 -0.000004 -0.000001 0.000796
    9 3.369870 -0.004248 0.000000 0.260899 -0.083959 0.158298
    10 5.327697 -0.004100 0.000000 -0.020753 -0.039587 0.096784
    11 5.164753 -0.004197 0.000000 -0.000022 -0.041599 -0.017444
    12 5.264157 -0.001935 0.000000 0.000000 0.000000 0.134667
    13 -3.125138 0.428427 2.526160 -1.047341 -1.185537 -2.263288
    14 6.056136 0.000000 0.000002 -0.067088 0.845403 -1.205837
    15 7.673502 0.000000 0.000000 0.000000 0.000000 -0.200000
    16 10.230629 0.000000 -0.000003 -1.569107 0.000000 0.000000
    17 -3.020187 0.414136 -2.427872 0.726002 1.333044 -2.565136
    18 6.261694 0.000000 -0.000001 0.111168 -0.698305 -0.832170
    19 8.562083 0.000000 -0.000004 0.000000 0.000000 -0.407612
    20 9.897832 0.000000 0.000003 1.568967 0.165722 0.000000
    21 2.448340 0.000000 0.000000 -0.335622 0.163728 -0.236318
    22 0.946167 3.213873 -0.420090 -3.141592 -0.000002 1.413798
    23 1.827063 1.152534 -7.631906 -1.570796 -1.570796 0.000000
  time 17
    0 3.794048 3.911509 35.094775 0.000000 0.000000 -1.570844
    1 -0.800806 -0.796899 0.000000 -1.570795 -1.570796 0.000000
    2 -0.000007 0.000008 4.423487 -0.280812 3.338825 -0.745845
    3 18.273721 0.000000 0.000000 0.000000 0.000000 -1.173062
    4 17.079414 0.000000 0.000000 -0.272670 0.049828 0.407713
    5 0.000006 -0.000004 -4.423487 0.248430 -3.606794 -0.531183
    6 18.105823 0.000000 0.000000 0.000000 0.000000 -1.113647
    7 17.348611 0.000000 0.000000 0.497009 0.253057 0.463352
    8 2.255203 -0.002685 0.000003 -0.000004 -0.000001 0.000796
    9 3.369870 -0.004248 0.000000 0.220134 -0.096701 0.157242
    10 5.327697 -0.004100 0.000000 -0.031178 -0.059435 0.097830
    11 5.164753 -0.004197 0.000000 -0.000043 -0.062488 -0.017444
    12 5.264157 -0.001935 0.000000 0.000000 0.000000 0.134667
    13 -3.125138 0.428427 2.526160 -1.047341 -1.185537 -2.263288
    14 6.056136 0.000000 0.000002 -0.024863 0.797428 -1.129142
    15 7.673502 0.000000 0.000000 0.000000 0.000000 -0.200000
    16 10.230629 0.000000 -0.000003 -1.569107 0.000000 0.000000
    17 -3.020187 0.414136 -2.427872 0.779984 1.346594 -2.509740
    18 6.261694 0.000000 -0.000001 0.244420 -0.535654 -0.962111
    19 8.562083 0.000000 -0.000004 0.000000 0.000000 -0.600191
    20 9.897832 0.000000 0.000003 1.568967 0.165722 0.000000
    21 2.448340 0.000000 0.000000 -0.224383 0.219016 -0.234466
    22 0.946167 3.213873 -0.420090 -3.141592 -0.000002 1.413798
    23 1.827063 1.152534 -7.631906 -1.570796 -1.570796 0.000000
  time 18
    0 3.700296 3.778415 35.882217 0.000000 0.000000 -1.570844
    1 -0.800806 -0.925810 0.000000 -1.570795 -1.570796 0.000000
    2 -0.000007 0.000008 4.423487 -0.284647 3.334513 -0.699926
    3 18.273721 0.000000 0.000000 0.000000 0.000000 -1.094327
    4 17.079414 0.000000 0.000000 -0.270647 0.040168 0.373522
    5 0.000006 -0.000004 -4.423487 0.275458 -3.585778 -0.482976
    6 18.105823 0.000000 0.000000 0.000000 0.000000 -1.036489
    7 17.348611 0.000000 0.000000 0.497611 0.242273 0.433583
    8 2.255203 -0.002685 0.000003 -0.000004 -0.000001 0.000796
    9 3.369870 -0.004248 0.000000 0.180494 -0.109198 0.157519
    10 5.327697 -0.004100 0.000000 -0.041377 -0.078711 0.099264
    11 5.164753 -0.004197 0.000000 -0.000065 -0.082778 -0.017444
    12 5.264157 -0.001935 0.000000 0.000000 0.000000 0.134667
    13 -3.125138 0.428427 2.526160 -1.047341 -1.185537 -2.263288
    14 6.056136 0.000000 0.000002 0.006824 0.747161 -1.063600
    15 7.673502 0.000000 0.000000 0.000000 0.000000 -0.200000
    16 10.230629 0.000000 -0.000003 -1.569107 0.000000 0.000000
    17 -3.020187 0.414136 -2.427872 0.854544 1.361976 -2.433391
    18 6.261694 0.000000 -0.000001 0.371099 -0.317250 -1.049428
    19 8.562083 0.000000 -0.000004 0.000000 0.000000 -0.815549
    20 9.897832 0.000000 0.000003 1.568967 0.165722 0.000000
    21 2.448340 0.000000 0.000000 -0.153446 0.278548 -0.233648
    22 0.946167 3.213873 -0.420090 -3.141592 -0.000002 1.413798
    23 1.827063 1.152534 -7.631906 -1.570796 -1.570796 0.000000
  time 19
    0 3.598730 3.609023 36.552380 0.000000 0.000000 -1.570844
    1 -0.812525 -1.050813 0.000000 -1.570795 -1.570796 0.000000
    2 -0.000007 0.000008 4.423487 -0.287714 3.331062 -0.658416
    3 18.273721 0.000000 0.000000 0.000000 0.000000 -1.023961
    4 17.079414 0.000000 0.000000 -0.269102 0.030790 0.343309
    5 0.000006 -0.000004 -4.423487 0.298748 -3.566195 -0.439590
    6 18.105823 0.000000 0.000000 0.000000 0.000000 -0.967268
    7 17.348611 0.000000 0.000000 0.497611 0.233165 0.407675
    8 2.255203 -0.002685 0.000003 -0.000004 -0.000001 0.000796
    9 3.369870 -0.004248 0.000000 0.142220 -0.121234 0.158976
    10 5.327697 -0.004100 0.000000 -0.051223 -0.097245 0.101027
    11 5.164753 -0.004197 0.000000 -0.000065 -0.102312 -0.017444
    12 5.264157 -0.001935 0.000000 0.000000 0.000000 0.134667
    13 -3.125138 0.428427 2.526160 -1.047341 -1.185537 -2.263288
    14 6.056136 0.000000 0.000002 0.029610 0.696157 -1.007759
    15 7.673502 0.000000 0.000000 0.000000 0.000000 -0.200000
    16 10.230629 0.000000 -0.000003 -1.569107 0.000000 0.000000
    17 -3.020187 0.414136 -2.427872 0.944132 1.376515 -2.342021
    18 6.261694 0.000000 -0.000001 0.490159 -0.081829 -1.086534
    19 8.562083 0.000000 -0.000004 0.000000 0.000000 -0.996471
    20 9.897832 0.000000 0.000003 1.568967 0.165722 0.000000
    21 2.448340 0.000000 0.000000 -0.089083 0.340600 -0.232700
    22 0.946167 3.213873 -0.420090 -3.141592 -0.000002 1.413798
    23 1.827063 1.152534 -7.631906 -1.570796 -1.570796 0.000000
  time 20
    0 3.501071 3.415432 37.122019 0.000000 0.000000 -1.570844
    1 -0.835963 -1.168004 0.000000 -1.570795 -1.570796 0.000000
    2 -0.000007 0.000008 4.423487 -0.290303 3.327708 -0.620357
    3 18.273721 0.000000 0.000000 0.000000 0.000000 -0.959707
    4 17.079414 0.000000 0.000000 -0.268072 0.022133 0.315822
    5 0.000006 -0.000004 -4.423487 0.319067 -3.547949 -0.399953
    6 18.105823 0.000000 0.000000 0.000000 0.000000 -0.903499
    7 17.348611 0.000000 0.000000 0.497181 0.225445 0.383900
    8 2.255203 -0.002685 0.000003 -0.000004 -0.000001 0.000796
    9 3.369870 -0.004248 0.000000 0.105769 -0.132602 0.161463
    10 5.327697 -0.004100 0.000000 -0.060650 -0.114842 0.103056
    11 5.164753 -0.004197 0.000000 -0.000086 -0.120901 -0.017444
    12 5.264157 -0.001935 0.000000 0.000000 0.000000 0.134667
    13 -3.125138 0.428427 2.526160 -1.047341 -1.185537 -2.263288
    14 6.056136 0.000000 0.000002 0.044919 0.645643 -0.960474
    15 7.673502 0.000000 0.000000 0.000000 0.000000 -0.200000
    16 10.230629 0.000000 -0.000003 -1.569107 0.000000 0.000000
    17 -3.020187 0.414136 -2.427872 1.033144 1.387722 -2.251321
    18 6.261694 0.000000 -0.000001 0.603123 0.121250 -1.083224
    19 8.562083 0.000000 -0.000004 0.000000 0.000000 -1.072628
    20 9.897832 0.000000 0.000003 1.568967 0.165722 0.000000
    21 2.448340 0.000000 0.000000 -0.030242 0.398663 -0.230891
    22 0.946167 3.213873 -0.420090 -3.141592 -0.000002 1.413798
    23 1.827063 1.152534 -7.631906 -1.570796 -1.570796 0.000000
  time 21
    0 3.422943 3.233940 37.641396 0.000000 0.000000 -1.570844
    1 -0.863308 -1.273476 0.000000 -1.570795 -1.570796 0.000000
    2 -0.000007 0.000008 4.423487 -0.293083 3.323587 -0.583929
    3 18.273721 0.000000 0.000000 0.000000 0.000000 -0.897127
    4 17.079414 0.000000 0.000000 -0.267520 0.014718 0.288782
    5 0.000006 -0.000004 -4.423487 0.337470 -3.530467 -0.362281
    6 18.105823 0.000000 0.000000 0.000000 0.000000 -0.840696
    7 17.348611 0.000000 0.000000 0.496320 0.218911 0.359466
    8 2.255203 -0.002685 0.000003 -0.000004 -0.000001 0.000796
    9 3.369870 -0.004248 0.000000 0.071626 -0.143020 0.164730
    10 5.327697 -0.004100 0.000000 -0.069499 -0.131222 0.105270
    11 5.164753 -0.004197 0.000000 -0.000108 -0.138230 -0.017444
    12 5.264157 -0.001935 0.000000 0.000000 0.000000 0.134667
    13 -3.125138 0.428427 2.526160 -1.047341 -1.185537 -2.263288
    14 6.056136 0.000000 0.000002 0.054318 0.597259 -0.920828
    15 7.673502 0.000000 0.000000 0.000000 0.000000 -0.200000
    16 10.230629 0.000000 -0.000003 -1.569107 0.000000 0.000000
    17 -3.020187 0.414136 -2.427872 1.130580 1.397060 -2.152392
    18 6.261694 0.000000 -0.000001 0.735136 0.305431 -1.028530
    19 8.562083 0.000000 -0.000004 0.000000 0.000000 -0.955976
    20 9.897832 0.000000 0.000003 1.568967 0.165722 0.000000
    21 2.448340 0.000000 0.000000 0.023536 0.449517 -0.228565
    22 0.946167 3.213873 -0.420090 -3.141592 -0.000002 1.413798
    23 1.827063 1.152534 -7.631906 -1.570796 -1.570796 0.000000
  time 22
    0 3.376067 3.064548 38.144018 0.000000 0.000000 -1.570844
    1 -0.898465 -1.367229 0.000000 -1.570795 -1.570796 0.000000
    2 -0.000007 0.000008 4.423487 -0.296535 3.317645 -0.547116
    3 18.273721 0.000000 0.000000 0.000000 0.000000 -0.831636
    4 17.079414 0.000000 0.000000 -0.267410 0.008987 0.259642
    5 0.000006 -0.000004 -4.423487 0.354913 -3.512890 -0.324251
    6 18.105823 0.000000 0.000000 0.000000 0.000000 -0.773545
    7 17.348611 0.000000 0.000000 0.495373 0.213446 0.331221
    8 2.255203 -0.002685 0.000003 -0.000004 -0.000001 0.000796
    9 3.369870 -0.004248 0.000000 0.040704 -0.152284 0.168474
    10 5.327697 -0.004100 0.000000 -0.077542 -0.146020 0.107524
    11 5.164753 -0.004197 0.000000 -0.000108 -0.153906 -0.017444
    12 5.264157 -0.001935 0.000000 0.000000 0.000000 0.134667
    13 -3.125138 0.428427 2.526160 -1.047341 -1.185537 -2.263288
    14 6.056136 0.000000 0.000002 0.059231 0.552477 -0.888133
    15 7.673502 0.000000 0.000000 0.000000 0.000000 -0.200000
    16 10.230629 0.000000 -0.000003 -1.569107 0.000000 0.000000
    17 -3.020187 0.414136 -2.427872 1.245531 1.405008 -2.035668
    18 6.261694 0.000000 -0.000001 0.909059 0.477108 -0.904451
    19 8.562083 0.000000 -0.000004 0.000000 0.000000 -0.641760
    20 9.897832 0.000000 0.000003 1.568967 0.165722 0.000000
    21 2.448340 0.000000 0.000000 0.071858 0.490322 -0.226498
    22 0.946167 3.213873 -0.420090 -3.141592 -0.000002 1.413798
    23 1.827063 1.152534 -7.631906 -1.570796 -1.570796 0.000000
  time 23
    0 3.368254 2.955653 38.646641 0.000000 0.000000 -1.570844
    1 -0.933622 -1.445357 0.000000 -1.570795 -1.570796 0.000000
    2 -0.000007 0.000008 4.423487 -0.300849 3.309211 -0.509441
    3 18.273721 0.000000 0.000000 0.000000 0.000000 -0.760906
    4 17.079414 0.000000 0.000000 -0.267704 0.005420 0.226926
    5 0.000006 -0.000004 -4.423487 0.371494 -3.495122 -0.285150
    6 18.105823 0.000000 0.000000 0.000000 0.000000 -0.699424
    7 17.348611 0.000000 0.000000 0.494340 0.208994 0.297337
    8 2.255203 -0.002685 0.000003 -0.000004 -0.000001 0.000796
    9 3.369870 -0.004248 0.000000 0.014489 -0.160503 0.172218
    10 5.327697 -0.004100 0.000000 -0.084364 -0.158494 0.109615
    11 5.164753 -0.004197 0.000000 -0.000129 -0.167149 -0.017444
    12 5.264157 -0.001935 0.000000 0.000000 0.000000 0.134667
    13 -3.125138 0.428427 2.526160 -1.047341 -1.185537 -2.263288
    14 6.056136 0.000000 0.000002 0.061225 0.513671 -0.862466
    15 7.673502 0.000000 0.000000 0.000000 0.000000 -0.200000
    16 10.230629 0.000000 -0.000003 -1.569107 0.000000 0.000000
    17 -3.020187 0.414136 -2.427872 1.347369 1.409732 -1.932530
    18 6.261694 0.000000 -0.000001 1.082220 0.607323 -0.765406
    19 8.562083 0.000000 -0.000004 0.000000 0.000000 -0.324322
    20 9.897832 0.000000 0.000003 1.568967 0.165722 0.000000
    21 2.448340 0.000000 0.000000 0.112816 0.516769 -0.225938
    22 0.946167 3.213873 -0.420090 -3.141592 -0.000002 1.413798
    23 1.827063 1.152534 -7.631906 -1.570796 -1.570796 0.000000
  time 24
    0 3.383880 2.907255 39.099001 0.000000 0.000000 -1.570844
    1 -0.949248 -1.539109 0.000000 -1.570795 -1.570796 0.000000
    2 -0.000007 0.000008 4.423487 -0.305163 3.300585 -0.474067
    3 18.273721 0.000000 0.000000 0.000000 0.000000 -0.690540
    4 17.079414 0.000000 0.000000 -0.267851 0.002814 0.192422
    5 0.000006 -0.000004 -4.423487 0.385871 -3.477354 -0.249263
    6 18.105823 0.000000 0.000000 0.000000 0.000000 -0.626545
    7 17.348611 0.000000 0.000000 0.493737 0.204425 0.262336
    8 2.255203 -0.002685 0.000003 -0.000004 -0.000001 0.000796
    9 3.369870 -0.004248 0.000000 -0.000122 -0.174533 0.174529
    10 5.327697 -0.004100 0.000000 -0.088192 -0.165442 0.110845
    11 5.164753 -0.004197 0.000000 -0.000129 -0.174532 -0.017444
    12 5.264157 -0.001935 0.000000 0.000000 0.000000 0.134667
    13 -3.125138 0.428427 2.526160 -1.047341 -1.185537 -2.263288
    14 6.056136 0.000000 0.000002 0.067135 0.483789 -0.845813
    15 7.673502 0.000000 0.000000 0.000000 0.000000 -0.200000
    16 10.230629 0.000000 -0.000003 -1.569107 0.000000 0.000000
    17 -3.020187 0.414136 -2.427872 1.411210 1.411746 -1.867853
    18 6.261694 0.000000 -0.000001 1.197184 0.704443 -0.674226
    19 8.562083 0.000000 -0.000004 0.000000 0.000000 -0.200000
    20 9.897832 0.000000 0.000003 1.568967 0.165722 0.000000
    21 2.448340 0.000000 0.000000 0.137470 0.522863 -0.228307
    22 0.946167 3.213873 -0.420090 -3.141592 -0.000002 1.413798
    23 1.827063 1.152534 -7.631906 -1.570796 -1.570796 0.000000
  time 25
    0 3.434662 2.870957 39.484345 0.000000 0.000000 -1.570844
    1 -0.945341 -1.925840 0.000000 -1.570795 -1.570796 0.000000
    2 -0.000007 0.000008 4.423487 -0.307464 3.299531 -0.439076
    3 18.273721 0.000000 0.000000 0.000000 0.000000 -0.620974
    4 17.079414 0.000000 0.000000 -0.266380 -0.007005 0.156175
    5 0.000006 -0.000004 -4.423487 0.398810 -3.454618 -0.218553
    6 18.105823 0.000000 0.000000 0.000000 0.000000 -0.566226
    7 17.348611 0.000000 0.000000 0.494082 0.194046 0.237698
    8 2.255203 -0.002685 0.000003 -0.000004 -0.036108 0.000796
    9 3.369870 -0.004248 0.000000 -0.000152 -0.197936 0.174529
    10 5.327697 -0.004100 0.000000 -0.088192 -0.165442 0.110845
    11 5.164753 -0.004197 0.000000 -0.000129 -0.174532 -0.017444
    12 5.264157 -0.001935 0.000000 0.000000 0.000000 0.134667
    13 -3.125138 0.428427 2.526160 -1.047341 -1.185537 -2.263288
    14 6.056136 0.000000 0.000002 0.096970 0.431393 -0.825188
    15 7.673502 0.000000 0.000000 0.000000 0.000000 -0.200000
    16 10.230629 0.000000 -0.000003 -1.569107 0.000000 0.000000
    17 -3.020187 0.414136 -2.427872 1.411210 1.411746 -1.867853
    18 6.261694 0.000000 -0.000001 1.247570 0.794700 -0.658501
    19 8.562083 0.000000 -0.000004 0.000000 0.000000 -0.268641
    20 9.897832 0.000000 0.000003 1.568967 0.165722 0.000000
    21 2.448340 0.000000 0.000000 0.145951 0.529020 -0.233734
    22 0.946167 3.213873 -0.420090 -3.141592 -0.000002 1.413798
    23 1.827063 1.152534 -7.631906 -1.570796 -1.570796 0.000000
  time 26
    0 3.606543 2.834659 39.785918 0.000000 0.000000 -1.570844
    1 -0.937529 -2.308664 0.000000 -1.570795 -1.570796 0.000000
    2 -0.000007 0.000008 4.423487 -0.310053 3.296368 -0.409837
    3 18.273721 0.000000 0.000000 0.000000 0.000000 -0.562978
    4 17.079414 0.000000 0.000000 -0.265607 -0.013137 0.126632
    5 0.000006 -0.000004 -4.423487 0.408778 -3.437041 -0.191950
    6 18.105823 0.000000 0.000000 0.000000 0.000000 -0.513016
    7 17.348611 0.000000 0.000000 0.494168 0.187540 0.214686
    8 2.255203 -0.002685 0.000003 -0.000004 -0.072876 0.000796
    9 3.369870 -0.004248 0.000000 -0.000152 -0.220172 0.174529
    10 5.327697 -0.004100 0.000000 -0.088192 -0.165442 0.110845
    11 5.164753 -0.004197 0.000000 -0.000129 -0.174532 -0.017444
    12 5.264157 -0.001935 0.000000 0.000000 0.000000 0.134667
    13 -3.125138 0.428427 2.526160 -1.047341 -1.185537 -2.263288
    14 6.056136 0.000000 0.000002 0.124456 0.378833 -0.807007
    15 7.673502 0.000000 0.000000 0.000000 0.000000 -0.200000
    16 10.230629 0.000000 -0.000003 -1.569107 0.000000 0.000000
    17 -3.020187 0.414136 -2.427872 1.411210 1.411746 -1.867853
    18 6.261694 0.000000 -0.000001 1.244141 0.911941 -0.707332
    19 8.562083 0.000000 -0.000004 0.000000 0.000000 -0.431310
    20 9.897832 0.000000 0.000003 1.568967 0.165722 0.000000
    21 2.448340 0.000000 0.000000 0.147134 0.502860 -0.245148
    22 0.946167 3.213873 -0.420090 -3.141592 -0.000002 1.413798
    23 1.827063 1.152534 -7.631906 -1.570796 -1.570796 0.000000
  time 27
    0 3.852644 2.834659 39.852935 0.000000 0.000000 -1.570844
    1 -0.929716 -2.648518 0.000000 -1.570795 -1.570796 0.000000
    2 -0.000007 0.000008 4.423487 -0.310436 3.296177 -0.401017
    3 18.273721 0.000000 0.000000 0.000000 0.000000 -0.545441
    4 17.079414 0.000000 0.000000 -0.265423 -0.015742 0.117425
    5 0.000006 -0.000004 -4.423487 0.411749 -3.431405 -0.184719
    6 18.105823 0.000000 0.000000 0.000000 0.000000 -0.498661
    7 17.348611 0.000000 0.000000 0.493996 0.184938 0.208945
    8 2.255203 -0.002685 0.000003 -0.000066 -0.106164 0.000796
    9 3.369870 -0.004248 0.000000 -0.000182 -0.240086 0.174554
    10 5.327697 -0.004100 0.000000 -0.088192 -0.165442 0.110845
    11 5.164753 -0.004197 0.000000 -0.000129 -0.174532 -0.017444
    12 5.264157 -0.001935 0.000000 0.000000 0.000000 0.134667
    13 -3.125138 0.428427 2.526160 -1.047341 -1.185537 -2.263288
    14 6.056136 0.000000 0.000002 0.147811 0.331022 -0.792264
    15 7.673502 0.000000 0.000000 0.000000 0.000000 -0.200000
    16 10.230629 0.000000 -0.000003 -1.569107 0.000000 0.000000
    17 -3.020187 0.414136 -2.427872 1.411210 1.411746 -1.867853
    18 6.261694 0.000000 -0.000001 1.202137 1.019215 -0.793339
    19 8.562083 0.000000 -0.000004 0.000000 0.000000 -0.622509
    20 9.897832 0.000000 0.000003 1.568967 0.165722 0.000000
    21 2.448340 0.000000 0.000000 0.143190 0.455707 -0.259362
    22 0.946167 3.213873 -0.420090 -3.141592 -0.000002 1.413798
    23 1.827063 1.152534 -7.631906 -1.570796 -1.570796 0.000000
  time 28
    0 4.133903 2.846758 39.702148 0.000000 0.000000 -1.570844
    1 -0.925810 -2.918058 0.000000 -1.570795 -1.570796 0.000000
    2 -0.000007 0.000008 4.423487 -0.307944 3.301064 -0.417219
    3 18.273721 0.000000 0.000000 0.000000 0.000000 -0.578186
    4 17.079414 0.000000 0.000000 -0.265533 -0.015462 0.133425
    5 0.000006 -0.000004 -4.423487 0.406669 -3.439334 -0.201324
    6 18.105823 0.000000 0.000000 0.000000 0.000000 -0.533790
    7 17.348611 0.000000 0.000000 0.493909 0.185921 0.226319
    8 2.255203 -0.002685 0.000003 -0.000066 -0.134280 0.000796
    9 3.369870 -0.004248 0.000000 -0.000182 -0.254808 0.174554
    10 5.327697 -0.004100 0.000000 -0.088192 -0.165442 0.110845
    11 5.164753 -0.004197 0.000000 -0.000129 -0.174532 -0.017444
    12 5.264157 -0.001935 0.000000 0.000000 0.000000 0.134667
    13 -3.125138 0.428427 2.526160 -1.047341 -1.185537 -2.263288
    14 6.056136 0.000000 0.000002 0.165684 0.292216 -0.781417
    15 7.673502 0.000000 0.000000 0.000000 0.000000 -0.200000
    16 10.230629 0.000000 -0.000003 -1.569107 0.000000 0.000000
    17 -3.020187 0.414136 -2.427872 1.411210 1.411746 -1.867853
    18 6.261694 0.000000 -0.000001 1.142226 1.091985 -0.888933
    19 8.562083 0.000000 -0.000004 0.000000 0.000000 -0.799366
    20 9.897832 0.000000 0.000003 1.568967 0.165722 0.000000
    21 2.448340 0.000000 0.000000 0.137667 0.403353 -0.272585
    22 0.946167 3.213873 -0.420090 -3.141592 -0.000002 1.413798
    23 1.827063 1.152534 -7.631906 -1.570796 -1.570796 0.000000
  time 29
    0 4.407348 2.870957 39.367066 0.000000 0.000000 -1.570844
    1 -0.917997 -3.277444 0.000000 -1.570795 -1.570796 0.000000
    2 -0.000007 0.000008 4.423487 -0.302767 3.312661 -0.446745
    3 18.273721 0.000000 0.000000 0.000000 0.000000 -0.636764
    4 17.079414 0.000000 0.000000 -0.264798 -0.017706 0.160734
    5 0.000006 -0.000004 -4.423487 0.396702 -3.451275 -0.233283
    6 18.105823 0.000000 0.000000 0.000000 0.000000 -0.601078
    7 17.348611 0.000000 0.000000 0.494684 0.185256 0.261015
    8 2.255203 -0.002685 0.000003 -0.000128 -0.173916 0.000796
    9 3.369870 -0.004248 0.000000 -0.000213 -0.272619 0.174554
    10 5.327697 -0.004100 0.000000 -0.088192 -0.165442 0.110845
    11 5.164753 -0.004197 0.000000 -0.000129 -0.174532 -0.017444
    12 5.264157 -0.001935 0.000000 0.000000 0.000000 0.134667
    13 -3.125138 0.428427 2.526160 -1.047341 -1.185537 -2.263288
    14 6.056136 0.000000 0.000002 0.188256 0.239820 -0.768049
    15 7.673502 0.000000 0.000000 0.000000 0.000000 -0.200000
    16 10.230629 0.000000 -0.000003 -1.569107 0.000000 0.000000
    17 -3.020187 0.414136 -2.427872 1.411210 1.411746 -1.867853
    18 6.261694 0.000000 -0.000001 1.150988 1.093960 -0.912659
    19 8.562083 0.000000 -0.000004 0.000000 0.000000 -0.930054
    20 9.897832 0.000000 0.000003 1.568967 0.165722 0.000000
    21 2.448340 0.000000 0.000000 0.134906 0.390560 -0.281889
    22 0.946167 3.213873 -0.420090 -3.141592 -0.000002 1.413798
    23 1.827063 1.152534 -7.631906 -1.570796 -1.570796 0.000000
  time 30
    0 4.575322 2.907255 39.065493 0.000000 0.000000 -1.570844
    1 -0.921903 -3.230567 0.000000 -1.570795 -1.570796 0.000000
    2 -0.000007 0.000008 4.423487 -0.300561 3.314770 -0.473875
    3 18.273721 0.000000 0.000000 0.000000 0.000000 -0.689957
    4 17.079414 0.000000 0.000000 -0.265423 -0.011374 0.187774
    5 0.000006 -0.000004 -4.423487 0.387117 -3.467705 -0.257386
    6 18.105823 0.000000 0.000000 0.000000 0.000000 -0.648353
    7 17.348611 0.000000 0.000000 0.494426 0.191935 0.280776
    8 2.255203 -0.002685 0.000003 -0.000128 -0.174529 0.000796
    9 3.369870 -0.004248 0.000000 -0.000213 -0.261799 0.174554
    10 5.327697 -0.004100 0.000000 -0.088192 -0.165442 0.110845
    11 5.164753 -0.004197 0.000000 -0.000129 -0.174532 -0.017444
    12 5.264157 -0.001935 0.000000 0.000000 0.000000 0.134667
    13 -3.125138 0.428427 2.526160 -1.047341 -1.185537 -2.263288
    14 6.056136 0.000000 0.000002 0.183414 0.248826 -0.769653
    15 7.673502 0.000000 0.000000 0.000000 0.000000 -0.200000
    16 10.230629 0.000000 -0.000003 -1.569107 0.000000 0.000000
    17 -3.020187 0.414136 -2.427872 1.411210 1.411746 -1.867853
    18 6.261694 0.000000 -0.000001 1.152131 1.064250 -0.907693
    19 8.562083 0.000000 -0.000004 0.000000 0.000000 -0.985350
    20 9.897832 0.000000 0.000003 1.568967 0.165722 0.000000
    21 2.448340 0.000000 0.000000 0.132868 0.350585 -0.286283
    22 0.946167 3.213873 -0.420090 -3.141592 -0.000002 1.413798
    23 1.827063 1.152534 -7.631906 -1.570796 -1.570796 0.000000
  time 31
    0 4.372191 2.907255 38.814181 0.000000 0.000000 -1.570844
    1 -0.765648 -2.750084 0.000000 -1.570795 -1.570796 0.000000
    2 -0.000007 0.000008 4.423487 -0.299986 3.314290 -0.491610
    3 18.273721 0.000000 0.000000 0.000000 0.000000 -0.736820
    4 17.079414 0.000000 0.000000 -0.266012 -0.005202 0.218076
    5 0.000006 -0.000004 -4.423487 0.380600 -3.483085 -0.268277
    6 18.105823 0.000000 0.000000 0.000000 0.000000 -0.680100
    7 17.348611 0.000000 0.000000 0.493307 0.202691 0.297083
    8 2.255203 -0.002685 0.000003 -0.000066 -0.140947 0.000796
    9 3.369870 -0.004248 0.000000 -0.000182 -0.227442 0.140910
    10 5.327697 -0.004100 0.000000 -0.087710 -0.131952 0.107873
    11 5.164753 -0.004197 0.000000 -0.000108 -0.157717 -0.017444
    12 5.264157 -0.001935 0.000000 0.000000 0.000000 0.134667
    13 -3.125138 0.428427 2.526160 -1.047341 -1.185537 -2.263288
    14 6.056136 0.000000 0.000002 0.154362 0.367863 -0.758500
    15 7.673502 0.000000 0.000000 0.000000 0.000000 -0.200000
    16 10.230629 0.000000 -0.000003 -1.569107 0.000000 0.000000
    17 -3.020187 0.414136 -2.427872 1.411210 1.411746 -1.867853
    18 6.261694 0.000000 -0.000001 1.082410 0.971172 -0.932591
    19 8.562083 0.000000 -0.000004 0.000000 0.000000 -0.947233
    20 9.897832 0.000000 0.000003 1.568967 0.165722 0.000000
    21 2.448340 0.000000 0.000000 0.157653 0.248527 -0.249283
    22 0.946167 3.213873 -0.420090 -3.141592 -0.000002 1.413798
    23 1.827063 1.152534 -7.631906 -1.570796 -1.570796 0.000000
  time 32
    0 4.157341 2.907255 38.529362 0.000000 0.000000 -1.570844
    1 -0.585955 -2.222724 0.000000 -1.570795 -1.570796 0.000000
    2 -0.000007 0.000008 4.423487 -0.299411 3.313428 -0.511071
    3 18.273721 0.000000 0.000000 0.000000 0.000000 -0.788412
    4 17.079414 0.000000 0.000000 -0.266858 0.001812 0.251597
    5 0.000006 -0.000004 -4.423487 0.372645 -3.500472 -0.280865
    6 18.105823 0.000000 0.000000 0.000000 0.000000 -0.716263
    7 17.348611 0.000000 0.000000 0.492102 0.214979 0.315574
    8 2.255203 -0.002685 0.000003 -0.000066 -0.105649 0.000796
    9 3.369870 -0.004248 0.000000 -0.000152 -0.192258 0.105632
    10 5.327697 -0.004100 0.000000 -0.087324 -0.096807 0.104757
    11 5.164753 -0.004197 0.000000 -0.000108 -0.140076 -0.017444
    12 5.264157 -0.001935 0.000000 0.000000 0.000000 0.134667
    13 -3.125138 0.428427 2.526160 -1.047341 -1.185537 -2.263288
    14 6.056136 0.000000 0.000002 0.124385 0.492794 -0.751625
    15 7.673502 0.000000 0.000000 0.000000 0.000000 -0.200000
    16 10.230629 0.000000 -0.000003 -1.569107 0.000000 0.000000
    17 -3.020187 0.414136 -2.427872 1.411210 1.411746 -1.867853
    18 6.261694 0.000000 -0.000001 1.084791 0.780598 -0.846860
    19 8.562083 0.000000 -0.000004 0.000000 0.000000 -0.843696
    20 9.897832 0.000000 0.000003 1.568967 0.165722 0.000000
    21 2.448340 0.000000 0.000000 0.177508 0.173969 -0.207890
    22 0.946167 3.213873 -0.420090 -3.141592 -0.000002 1.413798
    23 1.827063 1.152534 -7.631906 -1.570796 -1.570796 0.000000
  time 33
    0 3.926865 2.907255 38.194280 0.000000 0.000000 -1.570844
    1 -0.406262 -1.695364 0.000000 -1.570795 -1.570796 0.000000
    2 -0.000007 0.000008 4.423487 -0.298740 3.312853 -0.530819
    3 18.273721 0.000000 0.000000 0.000000 0.000000 -0.840805
    4 17.079414 0.000000 0.000000 -0.267814 0.008586 0.285564
    5 0.000006 -0.000004 -4.423487 0.363827 -3.518144 -0.294702
    6 18.105823 0.000000 0.000000 0.000000 0.000000 -0.754980
    7 17.348611 0.000000 0.000000 0.490810 0.227440 0.335539
    8 2.255203 -0.002685 0.000003 -0.000004 -0.071700 0.000796
    9 3.369870 -0.004248 0.000000 -0.000122 -0.158473 0.071661
    10 5.327697 -0.004100 0.000000 -0.087066 -0.062976 0.101806
    11 5.164753 -0.004197 0.000000 -0.000086 -0.123094 -0.017444
    12 5.264157 -0.001935 0.000000 0.000000 0.000000 0.134667
    13 -3.125138 0.428427 2.526160 -1.047341 -1.185537 -2.263288
    14 6.056136 0.000000 0.000002 0.094407 0.613387 -0.750174
    15 7.673502 0.000000 0.000000 0.000000 0.000000 -0.200000
    16 10.230629 0.000000 -0.000003 -1.569107 0.000000 0.000000
    17 -3.020187 0.414136 -2.427872 1.411210 1.411746 -1.867853
    18 6.261694 0.000000 -0.000001 1.094507 0.546211 -0.715402
    19 8.562083 0.000000 -0.000004 0.000000 0.000000 -0.705569
    20 9.897832 0.000000 0.000003 1.568967 0.165722 0.000000
    21 2.448340 0.000000 0.000000 0.189934 0.121232 -0.165636
    22 0.946167 3.213873 -0.420090 -3.141592 -0.000002 1.413798
    23 1.827063 1.152534 -7.631906 -1.570796 -1.570796 0.000000
  time 34
    0 3.688576 2.907255 37.842445 0.000000 0.000000 -1.570844
    1 -0.230476 -1.187536 0.000000 -1.570795 -1.570796 0.000000
    2 -0.000007 0.000008 4.423487 -0.297973 3.312757 -0.550184
    3 18.273721 0.000000 0.000000 0.000000 0.000000 -0.891960
    4 17.079414 0.000000 0.000000 -0.268771 0.014758 0.318504
    5 0.000006 -0.000004 -4.423487 0.354338 -3.535339 -0.309342
    6 18.105823 0.000000 0.000000 0.000000 0.000000 -0.794663
    7 17.348611 0.000000 0.000000 0.489777 0.239352 0.356265
    8 2.255203 -0.002685 0.000003 -0.000004 -0.039907 0.000796
    9 3.369870 -0.004248 0.000000 -0.000091 -0.126851 0.039901
    10 5.327697 -0.004100 0.000000 -0.086905 -0.031324 0.099039
    11 5.164753 -0.004197 0.000000 -0.000065 -0.107214 -0.017444
    12 5.264157 -0.001935 0.000000 0.000000 0.000000 0.134667
    13 -3.125138 0.428427 2.526160 -1.047341 -1.185537 -2.263288
    14 6.056136 0.000000 0.000002 0.064073 0.726448 -0.754222
    15 7.673502 0.000000 0.000000 0.000000 0.000000 -0.200000
    16 10.230629 0.000000 -0.000003 -1.569107 0.000000 0.000000
    17 -3.020187 0.414136 -2.427872 1.411210 1.411746 -1.867853
    18 6.261694 0.000000 -0.000001 1.086791 0.313893 -0.569942
    19 8.562083 0.000000 -0.000004 0.000000 0.000000 -0.558239
    20 9.897832 0.000000 0.000003 1.568967 0.165722 0.000000
    21 2.448340 0.000000 0.000000 0.195127 0.080779 -0.124760
    22 0.946167 3.213873 -0.420090 -3.141592 -0.000002 1.413798
    23 1.827063 1.152534 -7.631906 -1.570796 -1.570796 0.000000
  time 35
    0 3.446382 2.907255 37.490609 0.000000 0.000000 -1.570844
    1 -0.070315 -0.726585 0.000000 -1.570795 -1.570796 0.000000
    2 -0.000007 0.000008 4.423487 -0.296822 3.313620 -0.568974
    3 18.273721 0.000000 0.000000 0.000000 0.000000 -0.940715
    4 17.079414 0.000000 0.000000 -0.269543 0.019648 0.349343
    5 0.000006 -0.000004 -4.423487 0.344370 -3.550910 -0.324697
    6 18.105823 0.000000 0.000000 0.000000 0.000000 -0.834830
    7 17.348611 0.000000 0.000000 0.489003 0.249935 0.377652
    8 2.255203 -0.002685 0.000003 -0.000004 -0.011497 0.000796
    9 3.369870 -0.004248 0.000000 -0.000061 -0.098585 0.011483
    10 5.327697 -0.004100 0.000000 -0.086841 -0.003030 0.096559
    11 5.164753 -0.004197 0.000000 -0.000065 -0.093012 -0.017444
    12 5.264157 -0.001935 0.000000 0.000000 0.000000 0.134667
    13 -3.125138 0.428427 2.526160 -1.047341 -1.185537 -2.263288
    14 6.056136 0.000000 0.000002 0.033455 0.827638 -0.763465
    15 7.673502 0.000000 0.000000 0.000000 0.000000 -0.200000
    16 10.230629 0.000000 -0.000003 -1.569107 0.000000 0.000000
    17 -3.020187 0.414136 -2.427872 1.411210 1.411746 -1.867853
    18 6.261694 0.000000 -0.000001 1.062408 0.121344 -0.428552
    19 8.562083 0.000000 -0.000004 0.000000 0.000000 -0.424331
    20 9.897832 0.000000 0.000003 1.568967 0.165722 0.000000
    21 2.448340 0.000000 0.000000 0.194273 0.045941 -0.088321
    22 0.946167 3.213873 -0.420090 -3.141592 -0.000002 1.413798
    23 1.827063 1.152534 -7.631906 -1.570796 -1.570796 0.000000
  time 36
    0 3.196374 2.907255 37.138773 0.000000 0.000000 -1.570844
    1 0.050783 -0.375011 0.000000 -1.570795 -1.570796 0.000000
    2 -0.000007 0.000008 4.423487 -0.294617 3.317453 -0.587476
    3 18.273721 0.000000 0.000000 0.000000 0.000000 -0.986194
    4 17.079414 0.000000 0.000000 -0.269617 0.021572 0.376204
    5 0.000006 -0.000004 -4.423487 0.334115 -3.563233 -0.342105
    6 18.105823 0.000000 0.000000 0.000000 0.000000 -0.877066
    7 17.348611 0.000000 0.000000 0.489003 0.257047 0.400817
    8 2.255203 -0.002685 0.000003 -0.000004 0.009804 0.000796
    9 3.369870 -0.004248 0.000000 -0.000061 -0.077382 -0.009799
    10 5.327697 -0.004100 0.000000 -0.086841 0.018193 0.094735
    11 5.164753 -0.004197 0.000000 -0.000065 -0.082346 -0.017444
    12 5.264157 -0.001935 0.000000 0.000000 0.000000 0.134667
    13 -3.125138 0.428427 2.526160 -1.047341 -1.185537 -2.263288
    14 6.056136 0.000000 0.000002 0.007109 0.903448 -0.775077
    15 7.673502 0.000000 0.000000 0.000000 0.000000 -0.200000
    16 10.230629 0.000000 -0.000003 -1.569107 0.000000 0.000000
    17 -3.020187 0.414136 -2.427872 1.411210 1.411746 -1.867853
    18 6.261694 0.000000 -0.000001 1.035358 -0.006897 -0.316267
    19 8.562083 0.000000 -0.000004 0.000000 0.000000 -0.325932
    20 9.897832 0.000000 0.000003 1.568967 0.165722 0.000000
    21 2.448340 0.000000 0.000000 0.190262 0.018982 -0.061400
    22 0.946167 3.213873 -0.420090 -3.141592 -0.000002 1.413798
    23 1.827063 1.152534 -7.631906 -1.570796 -1.570796 0.000000
  time 37
    0 2.938554 2.907255 36.786937 0.000000 0.000000 -1.570844
    1 -0.003906 -0.535173 0.000000 -1.570795 -1.570796 0.000000
    2 -0.000007 0.000008 4.423487 -0.286180 3.335663 -0.609716
    3 18.273721 0.000000 0.000000 0.000000 0.000000 -1.024543
    4 17.079414 0.000000 0.000000 -0.266674 0.009989 0.388495
    5 0.000006 -0.000004 -4.423487 0.325777 -3.562756 -0.370315
    6 18.105823 0.000000 0.000000 0.000000 0.000000 -0.934417
    7 17.348611 0.000000 0.000000 0.490380 0.247766 0.434294
    8 2.255203 -0.002685 0.000003 -0.000004 -0.000001 0.000796
    9 3.369870 -0.004248 0.000000 -0.000061 -0.087254 0.000000
    10 5.327697 -0.004100 0.000000 -0.086841 0.008409 0.095596
    11 5.164753 -0.004197 0.000000 -0.000065 -0.087260 -0.017444
    12 5.264157 -0.001935 0.000000 0.000000 0.000000 0.134667
    13 -3.125138 0.428427 2.526160 -1.047341 -1.185537 -2.263288
    14 6.056136 0.000000 0.000002 0.019783 0.868408 -0.769118
    15 7.673502 0.000000 0.000000 0.000000 0.000000 -0.200000
    16 10.230629 0.000000 -0.000003 -1.569107 0.000000 0.000000
    17 -3.020187 0.414136 -2.427872 1.411210 1.411746 -1.867853
    18 6.261694 0.000000 -0.000001 1.045359 -0.117556 -0.271850
    19 8.562083 0.000000 -0.000004 0.000000 0.000000 -0.287201
    20 9.897832 0.000000 0.000003 1.568967 0.165722 0.000000
    21 2.448340 0.000000 0.000000 0.192958 0.073473 -0.065579
    22 0.946167 3.213873 -0.420090 -3.141592 -0.000002 1.413798
    23 1.827063 1.152534 -7.631906 -1.570796 -1.570796 0.000000
  time 38
    0 2.684640 2.907255 36.435102 0.000000 0.000000 -1.570844
    1 -0.183599 -1.121128 0.000000 -1.570795 -1.570796 0.000000
    2 -0.000007 0.000008 4.423487 -0.269978 3.364415 -0.634162
    3 18.273721 0.000000 0.000000 0.000000 0.000000 -1.055105
    4 17.079414 0.000000 0.000000 -0.262774 -0.013498 0.388137
    5 0.000006 -0.000004 -4.423487 0.321847 -3.550815 -0.403971
    6 18.105823 0.000000 0.000000 0.000000 0.000000 -0.999498
    7 17.348611 0.000000 0.000000 0.492446 0.224578 0.474477
    8 2.255203 -0.002685 0.000003 -0.000004 -0.035078 0.000796
    9 3.369870 -0.004248 0.000000 -0.000091 -0.124067 0.031634
    10 5.327697 -0.004100 0.000000 -0.086905 -0.026529 0.098608
    11 5.164753 -0.004197 0.000000 -0.000065 -0.106519 -0.017444
    12 5.264157 -0.001935 0.000000 0.000000 0.000000 0.134667
    13 -3.125138 0.428427 2.526160 -1.047341 -1.185537 -2.263288
    14 6.056136 0.000000 0.000002 0.065070 0.741757 -0.749944
    15 7.673502 0.000000 0.000000 0.000000 0.000000 -0.200000
    16 10.230629 0.000000 -0.000003 -1.569107 0.000000 0.000000
    17 -3.020187 0.414136 -2.427872 1.411210 1.411746 -1.867853
    18 6.261694 0.000000 -0.000001 1.115366 -0.146607 -0.303439
    19 8.562083 0.000000 -0.000004 0.000000 0.000000 -0.328693
    20 9.897832 0.000000 0.000003 1.568967 0.165722 0.000000
    21 2.448340 0.000000 0.000000 0.199992 0.181243 -0.094265
    22 0.946167 3.213873 -0.420090 -3.141592 -0.000002 1.413798
    23 1.827063 1.152534 -7.631906 -1.570796 -1.570796 0.000000
  time 39
    0 2.426819 2.907255 36.116774 0.000000 0.000000 -1.570844
    1 -0.363292 -1.710990 0.000000 -1.570795 -1.570796 0.000000
    2 -0.000007 0.000008 4.423487 -0.252529 3.392304 -0.657266
    3 18.273721 0.000000 0.000000 0.000000 0.000000 -1.080865
    4 17.079414 0.000000 0.000000 -0.258765 -0.037546 0.384919
    5 0.000006 -0.000004 -4.423487 0.321080 -3.537059 -0.433787
    6 18.105823 0.000000 0.000000 0.000000 0.000000 -1.057677
    7 17.348611 0.000000 0.000000 0.494168 0.200406 0.511358
    8 2.255203 -0.002685 0.000003 -0.000004 -0.071062 0.000796
    9 3.369870 -0.004248 0.000000 -0.000122 -0.161938 0.063847
    10 5.327697 -0.004100 0.000000 -0.087066 -0.062380 0.101744
    11 5.164753 -0.004197 0.000000 -0.000086 -0.126401 -0.017444
    12 5.264157 -0.001935 0.000000 0.000000 0.000000 0.134667
    13 -3.125138 0.428427 2.526160 -1.047341 -1.185537 -2.263288
    14 6.056136 0.000000 0.000002 0.104589 0.611586 -0.740396
    15 7.673502 0.000000 0.000000 0.000000 0.000000 -0.200000
    16 10.230629 0.000000 -0.000003 -1.569107 0.000000 0.000000
    17 -3.020187 0.414136 -2.427872 1.411210 1.411746 -1.867853
    18 6.261694 0.000000 -0.000001 1.225091 -0.011598 -0.362547
    19 8.562083 0.000000 -0.000004 0.000000 0.000000 -0.439593
    20 9.897832 0.000000 0.000003 1.568967 0.165722 0.000000
    21 2.448340 0.000000 0.000000 0.200518 0.258193 -0.131393
    22 0.946167 3.213873 -0.420090 -3.141592 -0.000002 1.413798
    23 1.827063 1.152534 -7.631906 -1.570796 -1.570796 0.000000
  time 40
    0 2.168999 2.907255 35.798446 0.000000 0.000000 -1.570844
    1 -0.527360 -2.257881 0.000000 -1.570795 -1.570796 0.000000
    2 -0.000007 0.000008 4.423487 -0.234697 3.418181 -0.678548
    3 18.273721 0.000000 0.000000 0.000000 0.000000 -1.102841
    4 17.079414 0.000000 0.000000 -0.254902 -0.060752 0.380450
    5 0.000006 -0.000004 -4.423487 0.322805 -3.523303 -0.459408
    6 18.105823 0.000000 0.000000 0.000000 0.000000 -1.108816
    7 17.348611 0.000000 0.000000 0.495373 0.176842 0.544530
    8 2.255203 -0.002685 0.000003 -0.000066 -0.105502 0.000796
    9 3.369870 -0.004248 0.000000 -0.000152 -0.198313 0.094451
    10 5.327697 -0.004100 0.000000 -0.087324 -0.096685 0.104757
    11 5.164753 -0.004197 0.000000 -0.000108 -0.145553 -0.017444
    12 5.264157 -0.001935 0.000000 0.000000 0.000000 0.134667
    13 -3.125138 0.428427 2.526160 -1.047341 -1.185537 -2.263288
    14 6.056136 0.000000 0.000002 0.138839 0.486900 -0.738333
    15 7.673502 0.000000 0.000000 0.000000 0.000000 -0.200000
    16 10.230629 0.000000 -0.000003 -1.569107 0.000000 0.000000
    17 -3.020187 0.414136 -2.427872 1.411210 1.411746 -1.867853
    18 6.261694 0.000000 -0.000001 1.334150 0.236046 -0.414137
    19 8.562083 0.000000 -0.000004 0.000000 0.000000 -0.590988
    20 9.897832 0.000000 0.000003 1.568967 0.165722 0.000000
    21 2.448340 0.000000 0.000000 0.192826 0.309494 -0.173088
    22 0.946167 3.213873 -0.420090 -3.141592 -0.000002 1.413798
    23 1.827063 1.152534 -7.631906 -1.570796 -1.570796 0.000000
  time 41
    0 1.918991 2.907255 35.480119 0.000000 0.000000 -1.570844
    1 -0.671896 -2.746178 0.000000 -1.570795 -1.570796 0.000000
    2 -0.000007 0.000008 4.423487 -0.217152 3.441566 -0.698200
    3 18.273721 0.000000 0.000000 0.000000 0.000000 -1.121760
    4 17.079414 0.000000 0.000000 -0.251370 -0.082635 0.375578
    5 0.000006 -0.000004 -4.423487 0.326448 -3.510215 -0.481459
    6 18.105823 0.000000 0.000000 0.000000 0.000000 -1.153744
    7 17.348611 0.000000 0.000000 0.495717 0.154579 0.574248
    8 2.255203 -0.002685 0.000003 -0.000066 -0.137491 0.000796
    9 3.369870 -0.004248 0.000000 -0.000182 -0.232220 0.122593
    10 5.327697 -0.004100 0.000000 -0.087678 -0.128557 0.107565
    11 5.164753 -0.004197 0.000000 -0.000129 -0.163470 -0.017444
    12 5.264157 -0.001935 0.000000 0.000000 0.000000 0.134667
    13 -3.125138 0.428427 2.526160 -1.047341 -1.185537 -2.263288
    14 6.056136 0.000000 0.000002 0.169316 0.371301 -0.741465
    15 7.673502 0.000000 0.000000 0.000000 0.000000 -0.200000
    16 10.230629 0.000000 -0.000003 -1.569107 0.000000 0.000000
    17 -3.020187 0.414136 -2.427872 1.411210 1.411746 -1.867853
    18 6.261694 0.000000 -0.000001 1.417968 0.520262 -0.453175
    19 8.562083 0.000000 -0.000004 0.000000 0.000000 -0.748441
    20 9.897832 0.000000 0.000003 1.568967 0.165722 0.000000
    21 2.448340 0.000000 0.000000 0.177705 0.348703 -0.214696
    22 0.946167 3.213873 -0.420090 -3.141592 -0.000002 1.413798
    23 1.827063 1.152534 -7.631906 -1.570796 -1.570796 0.000000
  time 42
    0 1.672890 2.907255 35.195299 0.000000 0.000000 -1.570844
    1 -0.789087 -3.156346 0.000000 -1.570795 -1.570796 0.000000
    2 -0.000007 0.000008 4.423487 -0.200374 3.462172 -0.716223
    3 18.273721 0.000000 0.000000 0.000000 0.000000 -1.138861
    4 17.079414 0.000000 0.000000 -0.248170 -0.102434 0.371332
    5 0.000006 -0.000004 -4.423487 0.331431 -3.498752 -0.500027
    6 18.105823 0.000000 0.000000 0.000000 0.000000 -1.193082
    7 17.348611 0.000000 0.000000 0.495201 0.134513 0.600715
    8 2.255203 -0.002685 0.000003 -0.000128 -0.165582 0.000796
    9 3.369870 -0.004248 0.000000 -0.000213 -0.262030 0.147242
    10 5.327697 -0.004100 0.000000 -0.088064 -0.156534 0.110066
    11 5.164753 -0.004197 0.000000 -0.000129 -0.179230 -0.017444
    12 5.264157 -0.001935 0.000000 0.000000 0.000000 0.134667
    13 -3.125138 0.428427 2.526160 -1.047341 -1.185537 -2.263288
    14 6.056136 0.000000 0.000002 0.195733 0.270111 -0.747958
    15 7.673502 0.000000 0.000000 0.000000 0.000000 -0.200000
    16 10.230629 0.000000 -0.000003 -1.569107 0.000000 0.000000
    17 -3.020187 0.414136 -2.427872 1.411210 1.411746 -1.867853
    18 6.261694 0.000000 -0.000001 1.454353 0.769692 -0.506627
    19 8.562083 0.000000 -0.000004 0.000000 0.000000 -0.879819
    20 9.897832 0.000000 0.000003 1.568967 0.165722 0.000000
    21 2.448340 0.000000 0.000000 0.157785 0.386413 -0.251308
    22 0.946167 3.213873 -0.420090 -3.141592 -0.000002 1.413798
    23 1.827063 1.152534 -7.631906 -1.570796 -1.570796 0.000000
  time 43
    0 1.430695 2.907255 34.910480 0.000000 0.000000 -1.570844
    1 -0.875027 -3.433699 0.000000 -1.570795 -1.570796 0.000000
    2 -0.000007 0.000008 4.423487 -0.186664 3.479327 -0.732712
    3 18.273721 0.000000 0.000000 0.000000 0.000000 -1.156179
    4 17.079414 0.000000 0.000000 -0.244418 -0.118145 0.369589
    5 0.000006 -0.000004 -4.423487 0.335553 -3.490632 -0.515828
    6 18.105823 0.000000 0.000000 0.000000 0.000000 -1.227175
    7 17.348611 0.000000 0.000000 0.494254 0.118727 0.623372
    8 2.255203 -0.002685 0.000003 -0.000128 -0.185486 0.000796
    9 3.369870 -0.004248 0.000000 -0.000213 -0.282369 0.166288
    10 5.327697 -0.004100 0.000000 -0.088353 -0.176370 0.111828
    11 5.164753 -0.004197 0.000000 -0.000151 -0.189620 -0.017444
    12 5.264157 -0.001935 0.000000 0.000000 0.000000 0.134667
    13 -3.125138 0.428427 2.526160 -1.047341 -1.185537 -2.263288
    14 6.056136 0.000000 0.000002 0.213036 0.199541 -0.756132
    15 7.673502 0.000000 0.000000 0.000000 0.000000 -0.200000
    16 10.230629 0.000000 -0.000003 -1.569107 0.000000 0.000000
    17 -3.020187 0.414136 -2.427872 1.411210 1.411746 -1.867853
    18 6.261694 0.000000 -0.000001 1.405110 0.939394 -0.623671
    19 8.562083 0.000000 -0.000004 0.000000 0.000000 -0.961882
    20 9.897832 0.000000 0.000003 1.568967 0.165722 0.000000
    21 2.448340 0.000000 0.000000 0.138128 0.417423 -0.278185
    22 0.946167 3.213873 -0.420090 -3.141592 -0.000002 1.413798
    23 1.827063 1.152534 -7.631906 -1.570796 -1.570796 0.000000
  time 44
    0 1.200219 2.907255 34.642415 0.000000 0.000000 -1.570844
    1 -0.921903 -3.230567 0.000000 -1.570795 -1.570796 0.000000
    2 -0.000007 0.000008 4.423487 -0.185130 3.486227 -0.748721
    3 18.273721 0.000000 0.000000 0.000000 0.000000 -1.181648
    4 17.079414 0.000000 0.000000 -0.238789 -0.118226 0.378305
    5 0.000006 -0.000004 -4.423487 0.329898 -3.494262 -0.530380
    6 18.105823 0.000000 0.000000 0.000000 0.000000 -1.253815
    7 17.348611 0.000000 0.000000 0.495373 0.118235 0.636072
    8 2.255203 -0.002685 0.000003 -0.000128 -0.174529 0.000796
    9 3.369870 -0.004248 0.000000 -0.000213 -0.261799 0.174554
    10 5.327697 -0.004100 0.000000 -0.088192 -0.165442 0.110845
    11 5.164753 -0.004197 0.000000 -0.000129 -0.174532 -0.017444
    12 5.264157 -0.001935 0.000000 0.000000 0.000000 0.134667
    13 -3.125138 0.428427 2.526160 -1.047341 -1.185537 -2.263288
    14 6.056136 0.000000 0.000002 0.183414 0.248826 -0.769653
    15 7.673502 0.000000 0.000000 0.000000 0.000000 -0.200000
    16 10.230629 0.000000 -0.000003 -1.569107 0.000000 0.000000
    17 -3.020187 0.414136 -2.427872 1.411210 1.411746 -1.867853
    18 6.261694 0.000000 -0.000001 1.152131 1.064250 -0.907693
    19 8.562083 0.000000 -0.000004 0.000000 0.000000 -0.985350
    20 9.897832 0.000000 0.000003 1.568967 0.165722 0.000000
    21 2.448340 0.000000 0.000000 0.132868 0.350585 -0.286283
    22 0.946167 3.213873 -0.420090 -3.141592 -0.000002 1.413798
    23 1.827063 1.152534 -7.631906 -1.570796 -1.570796 0.000000
  time 45
    0 0.985369 2.907255 34.374349 0.000000 0.000000 -1.570844
    1 -0.960967 -2.894620 0.000000 -1.570795 -1.570796 0.000000
    2 -0.000007 0.000008 4.423487 -0.179953 3.485461 -0.764731
    3 18.273721 0.000000 0.000000 0.000000 0.000000 -1.208427
    4 17.079414 0.000000 0.000000 -0.241181 -0.115620 0.390596
    5 0.000006 -0.000004 -4.423487 0.324818 -3.503242 -0.543413
    6 18.105823 0.000000 0.000000 0.000000 0.000000 -1.277418
    7 17.348611 0.000000 0.000000 0.493135 0.122254 0.644911
    8 2.255203 -0.002685 0.000003 -0.000128 -0.154993 0.000796
    9 3.369870 -0.004248 0.000000 -0.000182 -0.232256 0.174529
    10 5.327697 -0.004100 0.000000 -0.078379 -0.147018 0.107729
    11 5.164753 -0.004197 0.000000 -0.000108 -0.154757 0.020428
    12 5.264157 -0.001935 0.000000 0.000000 0.000000 0.134667
    13 -3.125138 0.428427 2.526160 -1.029746 -1.195864 -2.279694
    14 6.056136 0.000000 0.000002 0.112778 0.312601 -0.801584
    15 7.673502 0.000000 0.000000 0.000000 0.000000 -0.200000
    16 10.230629 0.000000 -0.000003 -1.569107 0.000000 0.000000
    17 -3.020187 0.414136 -2.427872 1.337128 1.409366 -1.942863
    18 6.261694 0.000000 -0.000001 0.799238 1.076096 -1.267997
    19 8.562083 0.000000 -0.000004 0.000000 0.000000 -0.960348
    20 9.897832 0.000000 0.000003 1.568967 0.165722 0.000000
    21 2.448340 0.000000 0.000000 0.118470 0.276570 -0.320525
    22 0.946167 3.213873 -0.420090 -3.141592 -0.000002 1.413798
    23 1.827063 1.152534 -7.631906 -1.570796 -1.570796 0.000000
  time 46
    0 0.774425 2.907255 34.123038 0.000000 0.000000 -1.570844
    1 -1.003937 -2.546953 0.000000 -1.570795 -1.570796 0.000000
    2 -0.000007 0.000008 4.423487 -0.175255 3.483544 -0.780165
    3 18.273721 0.000000 0.000000 0.000000 0.000000 -1.234186
    4 17.079414 0.000000 0.000000 -0.244197 -0.112254 0.402752
    5 0.000006 -0.000004 -4.423487 0.319355 -3.512795 -0.556090
    6 18.105823 0.000000 0.000000 0.000000 0.000000 -1.299364
    7 17.348611 0.000000 0.000000 0.490724 0.127054 0.652429
    8 2.255203 -0.002685 0.000003 -0.000066 -0.135260 0.000796
    9 3.369870 -0.004248 0.000000 -0.000152 -0.202677 0.174529
    10 5.327697 -0.004100 0.000000 -0.068244 -0.128399 0.104901
    11 5.164753 -0.004197 0.000000 -0.000108 -0.135042 0.059952
    12 5.264157 -0.001935 0.000000 0.000000 0.000000 0.134667
    13 -3.125138 0.428427 2.526160 -1.005398 -1.209086 -2.302301
    14 6.056136 0.000000 0.000002 0.036232 0.371792 -0.839167
    15 7.673502 0.000000 0.000000 0.000000 0.000000 -0.200000
    16 10.230629 0.000000 -0.000003 -1.569107 0.000000 0.000000
    17 -3.020187 0.414136 -2.427872 1.244861 1.404971 -2.036433
    18 6.261694 0.000000 -0.000001 0.508923 0.958480 -1.553605
    19 8.562083 0.000000 -0.000004 0.000000 0.000000 -0.904745
    20 9.897832 0.000000 0.000003 1.568967 0.165722 0.000000
    21 2.448340 0.000000 0.000000 0.103218 0.218282 -0.353562
    22 0.946167 3.213873 -0.420090 -3.141592 -0.000002 1.413798
    23 1.827063 1.152534 -7.631906 -1.570796 -1.570796 0.000000
  time 47
    0 0.583013 2.907255 33.888481 0.000000 0.000000 -1.570844
    1 -1.039094 -2.195379 0.000000 -1.570795 -1.570796 0.000000
    2 -0.000007 0.000008 4.423487 -0.171229 3.480956 -0.794832
    3 18.273721 0.000000 0.000000 0.000000 0.000000 -1.258855
    4 17.079414 0.000000 0.000000 -0.247324 -0.108286 0.414686
    5 0.000006 -0.000004 -4.423487 0.313509 -3.522443 -0.568231
    6 18.105823 0.000000 0.000000 0.000000 0.000000 -1.319931
    7 17.348611 0.000000 0.000000 0.488400 0.132432 0.658881
    8 2.255203 -0.002685 0.000003 -0.000066 -0.115920 0.000796
    9 3.369870 -0.004248 0.000000 -0.000122 -0.173718 0.174529
    10 5.327697 -0.004100 0.000000 -0.058366 -0.110120 0.102523
    11 5.168660 -0.004197 0.000000 -0.000086 -0.115747 0.098765
    12 5.264157 -0.001935 0.000000 0.000000 0.000000 0.134667
    13 -3.125138 0.428427 2.526160 -0.975819 -1.223773 -2.330059
    14 6.056136 0.000000 0.000002 -0.043661 0.424680 -0.881640
    15 7.673502 0.000000 0.000000 0.000000 0.000000 -0.200000
    16 10.230629 0.000000 -0.000003 -1.569107 0.000000 0.000000
    17 -3.020187 0.414136 -2.427872 1.147138 1.398415 -2.135553
    18 6.261694 0.000000 -0.000001 0.359669 0.769598 -1.677753
    19 8.562083 0.000000 -0.000004 0.000000 0.000000 -0.829891
    20 9.897832 0.000000 0.000003 1.568967 0.165722 0.000000
    21 2.448340 0.000000 0.000000 0.087965 0.172182 -0.384746
    22 0.946167 3.213873 -0.420090 -3.141592 -0.000002 1.413798
    23 1.827063 1.152534 -7.631906 -1.570796 -1.570796 0.000000
  time 48
    0 0.403320 2.907255 33.653924 0.000000 0.000000 -1.570844
    1 -1.078158 -1.847713 0.000000 -1.570795 -1.570796 0.000000
    2 -0.000007 0.000008 4.423487 -0.167873 3.477794 -0.808829
    3 18.273721 0.000000 0.000000 0.000000 0.000000 -1.282650
    4 17.079414 0.000000 0.000000 -0.250451 -0.103797 0.426306
    5 0.000006 -0.000004 -4.423487 0.307087 -3.532187 -0.580015
    6 18.105823 0.000000 0.000000 0.000000 0.000000 -1.339186
    7 17.348611 0.000000 0.000000 0.486162 0.138301 0.664469
    8 2.255203 -0.002685 0.000003 -0.000066 -0.097144 0.000796
    9 3.369870 -0.004248 0.000000 -0.000091 -0.145549 0.174529
    10 5.327697 -0.004100 0.000000 -0.048810 -0.092317 0.100556
    11 5.168660 -0.004197 0.000000 -0.000065 -0.096979 0.136513
    12 5.264157 -0.001935 0.000000 0.000000 0.000000 0.134667
    13 -3.125138 0.428427 2.526160 -0.941961 -1.238889 -2.362013
    14 6.056136 0.000000 0.000002 -0.125975 0.470690 -0.929154
    15 7.673502 0.000000 0.000000 0.000000 0.000000 -0.200000
    16 10.230629 0.000000 -0.000003 -1.569107 0.000000 0.000000
    17 -3.020187 0.414136 -2.427872 1.052861 1.389846 -2.231324
    18 6.261694 0.000000 -0.000001 0.289948 0.556271 -1.698031
    19 8.562083 0.000000 -0.000004 0.000000 0.000000 -0.743916
    20 9.897832 0.000000 0.000003 1.568967 0.165722 0.000000
    21 2.448340 0.000000 0.000000 0.073041 0.134536 -0.414768
    22 0.946167 3.213873 -0.420090 -3.141592 -0.000002 1.413798
    23 1.827063 1.152534 -7.631906 -1.570796 -1.570796 0.000000
  time 49
    0 0.243159 2.907255 33.436121 0.000000 0.000000 -1.570844
    1 -1.109409 -1.507859 0.000000 -1.570795 -1.570796 0.000000
    2 -0.000007 0.000008 4.423487 -0.165380 3.474247 -0.821962
    3 18.273721 0.000000 0.000000 0.000000 0.000000 -1.305353
    4 17.079414 0.000000 0.000000 -0.253504 -0.098787 0.437659
    5 0.000006 -0.000004 -4.423487 0.300282 -3.541835 -0.591352
    6 18.105823 0.000000 0.000000 0.000000 0.000000 -1.357129
    7 17.348611 0.000000 0.000000 0.484268 0.144575 0.669244
    8 2.255203 -0.002685 0.000003 -0.000066 -0.079004 0.000796
    9 3.369870 -0.004248 0.000000 -0.000091 -0.118402 0.174529
    10 5.327697 -0.004100 0.000000 -0.039640 -0.075121 0.098977
    11 5.168660 -0.004197 0.000000 -0.000043 -0.078895 0.172903
    12 5.264157 -0.001935 0.000000 0.000000 0.000000 0.134667
    13 -3.125138 0.428427 2.526160 -0.904679 -1.253790 -2.397306
    14 6.056136 0.000000 0.000002 -0.209855 0.509250 -0.981023
    15 7.673502 0.000000 0.000000 0.000000 0.000000 -0.200000
    16 10.230629 0.000000 -0.000003 -1.569107 0.000000 0.000000
    17 -3.020187 0.414136 -2.427872 0.967103 1.379701 -2.318580
    18 6.261694 0.000000 -0.000001 0.253468 0.342004 -1.659407
    19 8.562083 0.000000 -0.000004 0.000000 0.000000 -0.652727
    20 9.897832 0.000000 0.000003 1.568967 0.165722 0.000000
    21 2.448340 0.000000 0.000000 0.058775 0.103016 -0.443928
    22 0.946167 3.213873 -0.420090 -3.141592 -0.000002 1.413798
    23 1.827063 1.152534 -7.631906 -1.570796 -1.570796 0.000000
  time 50
    0 0.102530 2.907255 33.218318 0.000000 0.000000 -1.570844
    1 -1.140660 -1.179724 0.000000 -1.570795 -1.570796 0.000000
    2 -0.000007 0.000008 4.423487 -0.163655 3.470510 -0.834425
    3 18.273721 0.000000 0.000000 0.000000 0.000000 -1.327111
    4 17.079414 0.000000 0.000000 -0.256300 -0.093416 0.448653
    5 0.000006 -0.000004 -4.423487 0.292998 -3.551292 -0.602333
    6 18.105823 0.000000 0.000000 0.000000 0.000000 -1.373900
    7 17.348611 0.000000 0.000000 0.482632 0.151167 0.673359
    8 2.255203 -0.002685 0.000003 -0.000004 -0.061748 0.000796
    9 3.369870 -0.004248 0.000000 -0.000061 -0.092531 0.174529
    10 5.327697 -0.004100 0.000000 -0.030953 -0.058717 0.097789
    11 5.168660 -0.004197 0.000000 -0.000043 -0.061649 0.207595
    12 5.264157 -0.001935 0.000000 0.000000 0.000000 0.134667
    13 -3.125138 0.428427 2.526160 -0.864829 -1.267977 -2.435366
    14 6.056136 0.000000 0.000002 -0.293593 0.540115 -1.036100
    15 7.673502 0.000000 0.000000 0.000000 0.000000 -0.200000
    16 10.230629 0.000000 -0.000003 -1.569107 0.000000 0.000000
    17 -3.020187 0.414136 -2.427872 0.891968 1.368531 -2.395217
    18 6.261694 0.000000 -0.000001 0.228323 0.138925 -1.584573
    19 8.562083 0.000000 -0.000004 0.000000 0.000000 -0.560464
    20 9.897832 0.000000 0.000003 1.568967 0.165722 0.000000
    21 2.448340 0.000000 0.000000 0.045363 0.076089 -0.472270
    22 0.946167 3.213873 -0.420090 -3.141592 -0.000002 1.413798
    23 1.827063 1.152534 -7.631906 -1.570796 -1.570796 0.000000
  time 51
    0 -0.018568 2.907255 33.000514 0.000000 0.000000 -1.570844
    1 -1.168004 -0.871120 0.000000 -1.570795 -1.570796 0.000000
    2 -0.000007 0.000008 4.423487 -0.162888 3.466868 -0.846025
    3 18.273721 0.000000 0.000000 0.000000 0.000000 -1.347704
    4 17.079414 0.000000 0.000000 -0.258654 -0.087725 0.459201
    5 0.000006 -0.000004 -4.423487 0.285139 -3.560272 -0.612956
    6 18.105823 0.000000 0.000000 0.000000 0.000000 -1.389497
    7 17.348611 0.000000 0.000000 0.481513 0.157933 0.676966
    8 2.255203 -0.002685 0.000003 -0.000004 -0.045570 0.000796
    9 3.369870 -0.004248 0.000000 -0.000030 -0.068289 0.174529
    10 5.327697 -0.004100 0.000000 -0.022812 -0.043347 0.096948
    11 5.168660 -0.004197 0.000000 -0.000022 -0.045494 0.240078
    12 5.264157 -0.001935 0.000000 0.000000 0.000000 0.134667
    13 -3.125138 0.428427 2.526160 -0.823171 -1.281055 -2.475142
    14 6.056136 0.000000 0.000002 -0.374910 0.563202 -1.092093
    15 7.673502 0.000000 0.000000 0.000000 0.000000 -0.200000
    16 10.230629 0.000000 -0.000003 -1.569107 0.000000 0.000000
    17 -3.020187 0.414136 -2.427872 0.827841 1.356849 -2.460754
    18 6.261694 0.000000 -0.000001 0.204701 -0.045820 -1.486152
    19 8.562083 0.000000 -0.000004 0.000000 0.000000 -0.470578
    20 9.897832 0.000000 0.000003 1.568967 0.165722 0.000000
    21 2.448340 0.000000 0.000000 0.033135 0.053087 -0.499492
    22 0.946167 3.213873 -0.420090 -3.141592 -0.000002 1.413798
    23 1.827063 1.152534 -7.631906 -1.570796 -1.570796 0.000000
  time 52
    0 -0.112321 2.907255 32.816220 0.000000 0.000000 -1.570844
    1 -1.195349 -0.589862 0.000000 -1.570795 -1.570796 0.000000
    2 -0.000007 0.000008 4.423487 -0.162983 3.463513 -0.856857
    3 18.273721 0.000000 0.000000 0.000000 0.000000 -1.367060
    4 17.079414 0.000000 0.000000 -0.260236 -0.081873 0.469168
    5 0.000006 -0.000004 -4.423487 0.276896 -3.568583 -0.623044
    6 18.105823 0.000000 0.000000 0.000000 0.000000 -1.403921
    7 17.348611 0.000000 0.000000 0.481083 0.164699 0.680115
    8 2.255203 -0.002685 0.000003 -0.000004 -0.030813 0.000796
    9 3.369870 -0.004248 0.000000 -0.000030 -0.046174 0.174529
    10 5.327697 -0.004100 0.000000 -0.015412 -0.029316 0.096395
    11 5.168660 -0.004197 0.000000 -0.000022 -0.030764 0.269721
    12 5.264157 -0.001935 0.000000 0.000000 0.000000 0.134667
    13 -3.125138 0.428427 2.526160 -0.780944 -1.292776 -2.515682
    14 6.056136 0.000000 0.000002 -0.451029 0.579084 -1.146406
    15 7.673502 0.000000 0.000000 0.000000 0.000000 -0.200000
    16 10.230629 0.000000 -0.000003 -1.569107 0.000000 0.000000
    17 -3.020187 0.414136 -2.427872 0.774337 1.345276 -2.515576
    18 6.261694 0.000000 -0.000001 0.178413 -0.208001 -1.373729
    19 8.562083 0.000000 -0.000004 0.000000 0.000000 -0.386061
    20 9.897832 0.000000 0.000003 1.568967 0.165722 0.000000
    21 2.448340 0.000000 0.000000 0.022287 0.033754 -0.524991
    22 0.946167 3.213873 -0.420090 -3.141592 -0.000002 1.413798
    23 1.827063 1.152534 -7.631906 -1.570796 -1.570796 0.000000
  time 53
    0 -0.182635 2.907255 32.631925 0.000000 0.000000 -1.570844
    1 -1.214881 -0.339854 0.000000 -1.570795 -1.570796 0.000000
    2 -0.000007 0.000008 4.423487 -0.164517 3.461213 -0.866540
    3 18.273721 0.000000 0.000000 0.000000 0.000000 -1.384888
    4 17.079414 0.000000 0.000000 -0.260383 -0.075902 0.478330
    5 0.000006 -0.000004 -4.423487 0.267982 -3.575652 -0.632685
    6 18.105823 0.000000 0.000000 0.000000 0.000000 -1.417103
    7 17.348611 0.000000 0.000000 0.481772 0.171262 0.683163
    8 2.255203 -0.002685 0.000003 -0.000004 -0.017895 0.000796
    9 3.369870 -0.004248 0.000000 0.000000 -0.026807 0.174529
    10 5.327697 -0.004100 0.000000 -0.008945 -0.017025 0.096087
    11 5.168660 -0.004197 0.000000 0.000000 -0.017857 0.295674
    12 5.264157 -0.001935 0.000000 0.000000 0.000000 0.134667
    13 -3.125138 0.428427 2.526160 -0.740047 -1.302889 -2.555076
    14 6.056136 0.000000 0.000002 -0.518675 0.588663 -1.195830
    15 7.673502 0.000000 0.000000 0.000000 0.000000 -0.200000
    16 10.230629 0.000000 -0.000003 -1.569107 0.000000 0.000000
    17 -3.020187 0.414136 -2.427872 0.730788 1.334362 -2.560257
    18 6.261694 0.000000 -0.000001 0.148219 -0.345643 -1.257444
    19 8.562083 0.000000 -0.000004 0.000000 0.000000 -0.310056
    20 9.897832 0.000000 0.000003 1.568967 0.165722 0.000000
    21 2.448340 0.000000 0.000000 0.013017 0.018217 -0.547905
    22 0.946167 3.213873 -0.420090 -3.141592 -0.000002 1.413798
    23 1.827063 1.152534 -7.631906 -1.570796 -1.570796 0.000000
  time 54
    0 -0.225605 2.907255 32.464384 0.000000 0.000000 -1.570844
    1 -1.230506 -0.136723 0.000000 -1.570795 -1.570796 0.000000
    2 -0.000007 0.000008 4.423487 -0.168832 3.461213 -0.874784
    3 18.273721 0.000000 0.000000 0.000000 0.000000 -1.401042
    4 17.079414 0.000000 0.000000 -0.257220 -0.069689 0.486465
    5 0.000006 -0.000004 -4.423487 0.257919 -3.580524 -0.641702
    6 18.105823 0.000000 0.000000 0.000000 0.000000 -1.428973
    7 17.348611 0.000000 0.000000 0.484698 0.177392 0.686262
    8 2.255203 -0.002685 0.000003 -0.000004 -0.007281 0.000796
    9 3.369870 -0.004248 0.000000 0.000000 -0.010905 0.174529
    10 5.327697 -0.004100 0.000000 -0.003636 -0.006924 0.095964
    11 5.168660 -0.004197 0.000000 0.000000 -0.007263 0.316995
    12 5.264157 -0.001935 0.000000 0.000000 0.000000 0.134667
    13 -3.125138 0.428427 2.526160 -0.702860 -1.311144 -2.591037
    14 6.056136 0.000000 0.000002 -0.574642 0.593329 -1.237157
    15 7.673502 0.000000 0.000000 0.000000 0.000000 -0.200000
    16 10.230629 0.000000 -0.000003 -1.569107 0.000000 0.000000
    17 -3.020187 0.414136 -2.427872 0.696906 1.324730 -2.595178
    18 6.261694 0.000000 -0.000001 0.114121 -0.457055 -1.149229
    19 8.562083 0.000000 -0.000004 0.000000 0.000000 -0.246323
    20 9.897832 0.000000 0.000003 1.568967 0.165722 0.000000
    21 2.448340 0.000000 0.000000 0.005457 0.006381 -0.567159
    22 0.946167 3.213873 -0.420090 -3.141592 -0.000002 1.413798
    23 1.827063 1.152534 -7.631906 -1.570796 -1.570796 0.000000
  time 55
    0 -0.241231 2.907255 32.313597 0.000000 0.000000 -1.570844
    1 -1.242225 0.000000 0.000000 -1.570795 -1.570796 0.000000
    2 -0.000007 0.000008 4.423487 -0.184363 3.470893 -0.880153
    3 18.273721 0.000000 0.000000 0.000000 0.000000 -1.414868
    4 17.079414 0.000000 0.000000 -0.239819 -0.061192 0.492454
    5 0.000006 -0.000004 -4.423487 0.242200 -3.578996 -0.650986
    6 18.105823 0.000000 0.000000 0.000000 0.000000 -1.439463
    7 17.348611 0.000000 0.000000 0.495889 0.182798 0.691037
    8 2.255203 -0.002685 0.000003 -0.000004 -0.000001 0.000796
    9 3.369870 -0.004248 0.000000 0.000000 0.000000 0.174529
    10 5.327697 -0.004100 0.000000 0.000000 0.000000 0.095944
    11 5.168660 -0.004197 0.000000 0.000000 0.000000 0.331616
    12 5.264157 -0.001935 0.000000 0.000000 0.000000 0.134667
    13 -3.125138 0.428427 2.526160 -0.672806 -1.317183 -2.620035
    14 6.056136 0.000000 0.000002 -0.613022 0.594721 -1.265039
    15 7.673502 0.000000 0.000000 0.000000 0.000000 -0.200000
    16 10.230629 0.000000 -0.000003 -1.569107 0.000000 0.000000
    17 -3.020187 0.414136 -2.427872 0.672786 1.317186 -2.620054
    18 6.261694 0.000000 -0.000001 0.077926 -0.541577 -1.065084
    19 8.562083 0.000000 -0.000004 0.000000 0.000000 -0.200000
    20 9.897832 0.000000 0.000003 1.568967 0.165722 0.000000
    21 2.448340 0.000000 0.000000 0.000000 0.000000 -0.580555
    22 0.946167 3.213873 -0.420090 -3.141592 -0.000002 1.413798
    23 1.827063 1.152534 -7.631906 -1.570796 -1.570796 0.000000
end
