version 1
nodes
  0 "Bip01" -1
  1 "Bip01 Pelvis" 0
  2 "Bip01 L Leg" 1
  3 "Bip01 L Leg1" 2
  4 "Bip01 L Foot" 3
  5 "Bip01 R Leg" 1
  6 "Bip01 R Leg1" 5
  7 "Bip01 R Foot" 6
  8 "Bip01 Spine" 1
  9 "Bip01 Spine1" 8
  10 "Bip01 Spine2" 9
  11 "Bip01 Spine3" 10
  12 "Bip01 Neck" 11
  13 "Bip01 L Arm" 12
  14 "Bip01 L Arm1" 13
  15 "Bip01 L Arm2" 14
  16 "Bip01 L Hand" 15
  17 "Bip01 R Arm" 12
  18 "Bip01 R Arm1" 17
  19 "Bip01 R Arm2" 18
  20 "Bip01 R Hand" 19
  21 "Bip01 Head" 12
  22 "Bone05" 21
  23 "Bone03" 1
end
skeleton
  time 0
    0 -0.917033 0.475268 52.284464 0.369881 -0.005949 -5.042155
    1 -2.019593 -2.886807 0.000000 -1.570795 -1.570796 0.000000
    2 -0.000007 0.000008 4.427393 -0.725759 3.458434 -0.107573
    3 18.301065 0.000000 0.000000 0.000000 0.000000 -0.225482
    4 17.106758 0.000000 0.000000 0.766966 -0.161151 -0.068503
    5 0.000006 -0.000004 -4.427393 0.085398 -3.217135 0.422955
    6 18.133167 0.000000 0.000000 0.000000 0.000000 -0.227366
    7 17.375956 0.000000 0.000000 -0.047219 0.103837 0.644657
    8 2.255203 -0.002685 0.000003 0.263634 -0.470222 0.123736
    9 3.373776 -0.004248 0.000000 0.242946 0.109758 0.088395
    10 5.335510 -0.004100 0.000000 0.242505 0.169811 0.201785
    11 5.172566 -0.004197 0.000000 0.243281 0.113926 0.071500
    12 5.271970 -0.001935 0.000000 0.000000 0.000000 0.549148
    13 -2.695437 1.651121 2.530066 1.725432 -0.466058 -5.596202
    14 6.063949 0.000000 0.000002 -0.510486 0.464714 -0.008126
    15 7.685221 0.000000 0.000000 0.000000 0.000000 -1.058304
    16 10.246255 0.000000 -0.000003 -1.569107 0.000000 0.000000
    17 -2.602205 1.593859 -2.427872 -2.311729 0.987251 0.189458
    18 6.269507 0.000000 -0.000001 0.715515 -0.917649 0.370062
    19 8.573802 0.000000 -0.000004 0.000000 0.000000 -0.859265
    20 9.913458 0.000000 0.000003 1.568967 0.165722 0.000000
    21 2.452246 0.000000 0.000000 -0.219847 0.796689 0.377036
    22 0.946167 3.213873 -0.420090 -3.141592 -0.000002 1.413798
    23 1.827063 1.152534 -7.643625 -1.570796 -1.570460 0.000000
  time 1
    0 -0.639681 -1.630035 51.748334 0.355979 -0.030021 -5.038320
    1 -2.019593 -2.886807 0.000000 -1.570795 -1.570796 0.000000
    2 -0.000007 0.000008 4.427393 -0.686930 3.475973 -0.148029
    3 18.301065 0.000000 0.000000 0.000000 0.000000 -0.259828
    4 17.106758 0.000000 0.000000 0.714177 -0.153656 -0.062156
    5 0.000006 -0.000004 -4.427393 0.047252 -3.186948 0.368856
    6 18.133167 0.000000 0.000000 0.000000 0.000000 -0.246000
    7 17.375956 0.000000 0.000000 -0.019241 0.070876 0.606405
    8 2.255203 -0.002685 0.000003 0.263634 -0.470222 0.123736
    9 3.373776 -0.004248 0.000000 0.242946 0.109758 0.088395
    10 5.335510 -0.004100 0.000000 0.242505 0.169811 0.201785
    11 5.172566 -0.004197 0.000000 0.243281 0.113926 0.071500
    12 5.271970 -0.001935 0.000000 0.000000 0.000000 0.540019
    13 -2.711063 1.627682 2.530066 1.727144 -0.484068 -5.579986
    14 6.063949 0.000000 0.000002 -0.515898 0.455544 -0.027376
    15 7.685221 0.000000 0.000000 0.000000 0.000000 -1.058304
    16 10.246255 0.000000 -0.000003 -1.569107 0.000000 0.000000
    17 -2.617831 1.570421 -2.427872 -2.284068 0.994649 0.228876
    18 6.269507 0.000000 -0.000001 0.751138 -0.894050 0.326128
    19 8.573802 0.000000 -0.000004 0.000000 0.000000 -0.853743
    20 9.913458 0.000000 0.000003 1.568967 0.165722 0.000000
    21 2.452246 0.000000 0.000000 -0.245224 0.780035 0.348435
    22 0.946167 3.213873 -0.420090 -3.141592 -0.000002 1.413798
    23 1.827063 1.152534 -7.643625 -1.570796 -1.570460 0.000000
  time 2
    0 0.149406 -7.728153 51.128433 0.340544 -0.060322 -5.031992
    1 -2.019593 -2.886807 0.000000 -1.570795 -1.570796 0.000000
    2 -0.000007 0.000008 4.427393 -0.637076 3.496962 -0.202672
    3 18.301065 0.000000 0.000000 0.000000 0.000000 -0.302252
    4 17.106758 0.000000 0.000000 0.649836 -0.144077 -0.058715
    5 0.000006 -0.000004 -4.427393 -0.002491 -3.141382 0.300027
    6 18.133167 0.000000 0.000000 0.000000 0.000000 -0.269396
    7 17.375956 0.000000 0.000000 0.021993 0.025366 0.555655
    8 2.255203 -0.002685 0.000003 0.263634 -0.470222 0.123736
    9 3.373776 -0.004248 0.000000 0.242946 0.109758 0.088395
    10 5.335510 -0.004100 0.000000 0.242505 0.169811 0.201785
    11 5.172566 -0.004197 0.000000 0.243281 0.113926 0.071500
    12 5.271970 -0.001935 0.000000 0.000000 0.000000 0.529250
    13 -2.726688 1.596431 2.530066 1.728571 -0.503865 -5.560909
    14 6.063949 0.000000 0.000002 -0.521452 0.445065 -0.048154
    15 7.685221 0.000000 0.000000 0.000000 0.000000 -1.058304
    16 10.246255 0.000000 -0.000003 -1.569107 0.000000 0.000000
    17 -2.633456 1.543077 -2.427872 -2.248271 1.001094 0.278053
    18 6.269507 0.000000 -0.000001 0.789618 -0.865187 0.277917
    19 8.573802 0.000000 -0.000004 0.000000 0.000000 -0.847300
    20 9.913458 0.000000 0.000003 1.568967 0.165722 0.000000
    21 2.452246 0.000000 0.000000 -0.276124 0.758820 0.311694
    22 0.946167 3.213873 -0.420090 -3.141592 -0.000002 1.413798
    23 1.827063 1.152534 -7.643625 -1.570796 -1.570796 0.000000
  time 3
    0 1.395538 -17.335110 50.458269 0.323478 -0.096013 -5.023363
    1 -2.019593 -2.886807 0.000000 -1.570795 -1.570796 0.000000
    2 -0.000007 0.000008 4.427393 -0.578306 3.518238 -0.267860
    3 18.301065 0.000000 0.000000 0.000000 0.000000 -0.350496
    4 17.106758 0.000000 0.000000 0.576851 -0.133897 -0.056972
    5 0.000006 -0.000004 -4.427393 -0.057793 -3.082441 0.221646
    6 18.133167 0.000000 0.000000 0.000000 0.000000 -0.296726
    7 17.375956 0.000000 0.000000 0.077260 -0.026186 0.494492
    8 2.255203 -0.002685 0.000003 0.263634 -0.470222 0.123736
    9 3.373776 -0.004248 0.000000 0.242946 0.109758 0.088395
    10 5.335510 -0.004100 0.000000 0.242505 0.169811 0.201785
    11 5.172566 -0.004197 0.000000 0.243281 0.113926 0.071500
    12 5.271970 -0.001935 0.000000 0.000000 0.000000 0.517099
    13 -2.746220 1.565180 2.530066 1.729617 -0.525092 -5.539542
    14 6.063949 0.000000 0.000002 -0.526792 0.433522 -0.070154
    15 7.685221 0.000000 0.000000 0.000000 0.000000 -1.058304
    16 10.246255 0.000000 -0.000003 -1.569107 0.000000 0.000000
    17 -2.652988 1.511826 -2.427872 -2.206349 1.006332 0.335076
    18 6.269507 0.000000 -0.000001 0.828098 -0.831622 0.228189
    19 8.573802 0.000000 -0.000004 0.000000 0.000000 -0.840168
    20 9.913458 0.000000 0.000003 1.568967 0.165722 0.000000
    21 2.452246 0.000000 0.000000 -0.310047 0.733233 0.269914
    22 0.946167 3.213873 -0.420090 -3.141592 -0.000002 1.413798
    23 1.827063 1.152534 -7.643625 -1.570796 -1.570796 0.000000
  time 4
    0 3.044026 -30.027423 49.704336 0.304495 -0.136351 -5.012433
    1 -2.019593 -2.886807 0.000000 -1.570795 -1.570796 0.000000
    2 -0.000007 0.000008 4.427393 -0.511195 3.537310 -0.341773
    3 18.301065 0.000000 0.000000 0.000000 0.000000 -0.403762
    4 17.106758 0.000000 0.000000 0.496398 -0.124037 -0.056033
    5 0.000006 -0.000004 -4.427393 -0.113862 -3.012228 0.137731
    6 18.133167 0.000000 0.000000 0.000000 0.000000 -0.327299
    7 17.375956 0.000000 0.000000 0.146041 -0.077738 0.424794
    8 2.255203 -0.002685 0.000003 0.263634 -0.470222 0.123736
    9 3.373776 -0.004248 0.000000 0.242946 0.109758 0.088395
    10 5.335510 -0.004100 0.000000 0.242505 0.169811 0.201785
    11 5.172566 -0.004197 0.000000 0.243281 0.113926 0.071500
    12 5.271970 -0.001935 0.000000 0.000000 0.000000 0.503791
    13 -2.765752 1.526117 2.530066 1.729997 -0.547533 -5.516268
    14 6.063949 0.000000 0.000002 -0.531777 0.421077 -0.092995
    15 7.685221 0.000000 0.000000 0.000000 0.000000 -1.058304
    16 10.246255 0.000000 -0.000003 -1.569107 0.000000 0.000000
    17 -2.672520 1.476668 -2.427872 -2.159545 1.010177 0.398413
    18 6.269507 0.000000 -0.000001 0.864673 -0.793827 0.178668
    19 8.573802 0.000000 -0.000004 0.000000 0.000000 -0.832422
    20 9.913458 0.000000 0.000003 1.568967 0.165722 0.000000
    21 2.452246 0.000000 0.000000 -0.344826 0.703467 0.225635
    22 0.946167 3.213873 -0.420090 -3.141592 -0.000002 1.413798
    23 1.827063 1.152534 -7.643625 -1.570796 -1.570796 0.000000
  time 5
    0 5.032367 -45.369515 48.900140 0.283115 -0.180500 -4.999394
    1 -2.019593 -2.886807 0.000000 -1.570795 -1.570796 0.000000
    2 -0.000007 0.000008 4.427393 -0.436126 3.552357 -0.423258
    3 18.301065 0.000000 0.000000 0.000000 0.000000 -0.462049
    4 17.106758 0.000000 0.000000 0.408514 -0.115179 -0.055050
    5 0.000006 -0.000004 -4.427393 -0.166864 -2.933990 0.050959
    6 18.133167 0.000000 0.000000 0.000000 0.000000 -0.360495
    7 17.375956 0.000000 0.000000 0.227305 -0.123710 0.348544
    8 2.255203 -0.002685 0.000003 0.263634 -0.470222 0.123736
    9 3.373776 -0.004248 0.000000 0.242946 0.109758 0.088395
    10 5.335510 -0.004100 0.000000 0.242505 0.169811 0.201785
    11 5.172566 -0.004197 0.000000 0.243281 0.113926 0.071500
    12 5.271970 -0.001935 0.000000 0.000000 0.000000 0.489454
    13 -2.789190 1.487053 2.530066 1.729902 -0.571011 -5.491276
    14 6.063949 0.000000 0.000002 -0.536334 0.407897 -0.116599
    15 7.685221 0.000000 0.000000 0.000000 0.000000 -1.058304
    16 10.246255 0.000000 -0.000003 -1.569107 0.000000 0.000000
    17 -2.695958 1.437605 -2.427872 -2.109105 1.012484 0.467012
    18 6.269507 0.000000 -0.000001 0.898201 -0.752083 0.130388
    19 8.573802 0.000000 -0.000004 0.000000 0.000000 -0.824139
    20 9.913458 0.000000 0.000003 1.568967 0.165722 0.000000
    21 2.452246 0.000000 0.000000 -0.379012 0.669682 0.180624
    22 0.946167 3.213873 -0.420090 -3.141592 -0.000002 1.413798
    23 1.827063 1.152534 -7.643625 -1.570796 -1.570796 0.000000
  time 6
    0 7.309781 -62.901605 48.028927 0.259243 -0.227530 -4.984246
    1 -2.019593 -2.886807 0.000000 -1.570795 -1.570796 0.000000
    2 -0.000007 0.000008 4.427393 -0.353388 3.561654 -0.510975
    3 18.301065 0.000000 0.000000 0.000000 0.000000 -0.525575
    4 17.106758 0.000000 0.000000 0.312868 -0.108045 -0.052904
    5 0.000006 -0.000004 -4.427393 -0.213445 -2.851550 -0.036974
    6 18.133167 0.000000 0.000000 0.000000 0.000000 -0.395899
    7 17.375956 0.000000 0.000000 0.318211 -0.159186 0.268635
    8 2.255203 -0.002685 0.000003 0.263634 -0.470222 0.123736
    9 3.373776 -0.004248 0.000000 0.242946 0.109758 0.088395
    10 5.335510 -0.004100 0.000000 0.242505 0.169811 0.201785
    11 5.172566 -0.004197 0.000000 0.243281 0.113926 0.071500
    12 5.271970 -0.001935 0.000000 0.000000 0.000000 0.474185
    13 -2.808722 1.444083 2.530066 1.729046 -0.595453 -5.464663
    14 6.063949 0.000000 0.000002 -0.540321 0.394143 -0.140815
    15 7.685221 0.000000 0.000000 0.000000 0.000000 -1.058304
    16 10.246255 0.000000 -0.000003 -1.569107 0.000000 0.000000
    17 -2.715490 1.394635 -2.427872 -2.055601 1.013180 -5.742999
    18 6.269507 0.000000 -0.000001 0.928109 -0.706578 0.083557
    19 8.573802 0.000000 -0.000004 0.000000 0.000000 -0.815472
    20 9.913458 0.000000 0.000003 1.568967 0.165722 0.000000
    21 2.452246 0.000000 0.000000 -0.411490 0.632164 0.136389
    22 0.946167 3.213873 -0.420090 -3.141592 -0.000002 1.413798
    23 1.827063 1.152534 -7.643625 -1.570796 -1.570796 0.000000
  time 7
    0 9.817670 -82.212313 47.090699 0.232494 -0.276420 -4.967084
    1 -2.019593 -2.886807 0.000000 -1.570795 -1.570796 0.000000
    2 -0.000007 0.000008 4.427393 -0.264417 3.563187 -0.601664
    3 18.301065 0.000000 0.000000 0.000000 0.000000 -0.594268
    4 17.106758 0.000000 0.000000 0.209644 -0.103436 -0.047720
    5 0.000006 -0.000004 -4.427393 -0.251303 -2.769778 -0.124728
    6 18.133167 0.000000 0.000000 0.000000 0.000000 -0.432960
    7 17.375956 0.000000 0.000000 0.413937 -0.180119 0.189286
    8 2.255203 -0.002685 0.000003 0.263634 -0.470222 0.123736
    9 3.373776 -0.004248 0.000000 0.242946 0.109758 0.088395
    10 5.335510 -0.004100 0.000000 0.242505 0.169811 0.201785
    11 5.172566 -0.004197 0.000000 0.243281 0.113926 0.071500
    12 5.271970 -0.001935 0.000000 0.000000 0.000000 0.458048
    13 -2.832160 1.397207 2.530066 1.727525 -0.620824 -5.436524
    14 6.063949 0.000000 0.000002 -0.543668 0.379734 -0.165565
    15 7.685221 0.000000 0.000000 0.000000 0.000000 -1.058304
    16 10.246255 0.000000 -0.000003 -1.569107 0.000000 0.000000
    17 -2.738928 1.351665 -2.427872 -1.999897 1.012155 -5.666075
    18 6.269507 0.000000 -0.000001 0.953921 -0.657407 0.038381
    19 8.573802 0.000000 -0.000004 0.000000 0.000000 -0.806346
    20 9.913458 0.000000 0.000003 1.568967 0.165722 0.000000
    21 2.452246 0.000000 0.000000 -0.441469 0.591264 0.093962
    22 0.946167 3.213873 -0.420090 -3.141592 -0.000002 1.413798
    23 1.827063 1.152534 -7.643625 -1.570796 -1.570460 0.000000
  time 8
    0 12.493533 -102.829761 46.102208 0.202677 -0.326239 -4.948004
    1 -2.019593 -2.886807 0.000000 -1.570795 -1.570796 0.000000
    2 -0.000007 0.000008 4.427393 -0.172858 3.555712 -0.689189
    3 18.301065 0.000000 0.000000 0.000000 0.000000 -0.667181
    4 17.106758 0.000000 0.000000 0.100202 -0.102033 -0.036412
    5 0.000006 -0.000004 -4.427393 -0.278140 -2.694501 -0.211501
    6 18.133167 0.000000 0.000000 0.000000 0.000000 -0.471125
    7 17.375956 0.000000 0.000000 0.507683 -0.183993 0.116286
    8 2.255203 -0.002685 0.000003 0.263634 -0.470222 0.123736
    9 3.373776 -0.004248 0.000000 0.242946 0.109758 0.088395
    10 5.335510 -0.004100 0.000000 0.242505 0.169811 0.201785
    11 5.172566 -0.004197 0.000000 0.243281 0.113926 0.071500
    12 5.271970 -0.001935 0.000000 0.000000 0.000000 0.441108
    13 -2.855598 1.350330 2.530066 1.725147 -0.647089 -5.406859
    14 6.063949 0.000000 0.000002 -0.546445 0.364915 -0.190926
    15 7.685221 0.000000 0.000000 0.000000 0.000000 -1.058304
    16 10.246255 0.000000 -0.000003 -1.569107 0.000000 0.000000
    17 -2.762366 1.304788 -2.427872 -1.942373 1.009444 -5.585708
    18 6.269507 0.000000 -0.000001 0.975637 -0.604663 -0.005346
    19 8.573802 0.000000 -0.000004 0.000000 0.000000 -0.796682
    20 9.913458 0.000000 0.000003 1.568967 0.165722 0.000000
    21 2.452246 0.000000 0.000000 -0.468292 0.547397 0.054163
    22 0.946167 3.213873 -0.420090 -3.141592 -0.000002 1.413798
    23 1.827063 1.152534 -7.643625 -1.570796 -1.570796 0.000000
  time 9
    0 15.286587 -124.330468 45.063454 0.169601 -0.375964 -4.927007
    1 -2.019593 -2.886807 0.000000 -1.570795 -1.570796 0.000000
    2 -0.000007 0.000008 4.427393 -0.085518 3.539515 -0.762334
    3 18.301065 0.000000 0.000000 0.000000 0.000000 -0.741404
    4 17.106758 0.000000 0.000000 -0.011409 -0.104037 -0.013440
    5 0.000006 -0.000004 -4.427393 -0.292612 -2.633077 -0.295238
    6 18.133167 0.000000 0.000000 0.000000 0.000000 -0.509635
    7 17.375956 0.000000 0.000000 0.591013 -0.169913 0.056291
    8 2.255203 -0.002685 0.000003 0.263634 -0.470222 0.123736
    9 3.373776 -0.004248 0.000000 0.242946 0.109758 0.088395
    10 5.335510 -0.004100 0.000000 0.242505 0.169811 0.201785
    11 5.172566 -0.004197 0.000000 0.243281 0.113926 0.071500
    12 5.271970 -0.001935 0.000000 0.000000 0.000000 0.423364
    13 -2.879036 1.299547 2.530066 1.721723 -0.674355 -5.375572
    14 6.063949 0.000000 0.000002 -0.548439 0.349442 -0.216975
    15 7.685221 0.000000 0.000000 0.000000 0.000000 -1.058304
    16 10.246255 0.000000 -0.000003 -1.569107 0.000000 0.000000
    17 -2.781898 1.257912 -2.427872 -1.883606 1.005050 -5.502470
    18 6.269507 0.000000 -0.000001 0.992782 -0.548346 -0.047970
    19 8.573802 0.000000 -0.000004 0.000000 0.000000 -0.786558
    20 9.913458 0.000000 0.000003 1.568967 0.165722 0.000000
    21 2.452246 0.000000 0.000000 -0.491763 0.501073 0.017724
    22 0.946167 3.213873 -0.420090 -3.141592 -0.000002 1.413798
    23 1.827063 1.152534 -7.643625 -1.570796 -1.570460 0.000000
  time 10
    0 18.134330 -146.278854 43.974439 0.133073 -0.424761 -4.904380
    1 -2.019593 -2.886807 0.000000 -1.570795 -1.570796 0.000000
    2 -0.000007 0.000008 4.427393 -0.013901 3.518526 -0.802885
    3 18.301065 0.000000 0.000000 0.000000 0.000000 -0.810752
    4 17.106758 0.000000 0.000000 -0.117429 -0.108366 0.030405
    5 0.000006 -0.000004 -4.427393 -0.294529 -2.594293 -0.371922
    6 18.133167 0.000000 0.000000 0.000000 0.000000 -0.547661
    7 17.375956 0.000000 0.000000 0.654113 -0.138340 0.016464
    8 2.255203 -0.002685 0.000003 0.263634 -0.470222 0.123736
    9 3.373776 -0.004248 0.000000 0.242946 0.109758 0.088395
    10 5.335510 -0.004100 0.000000 0.242505 0.169811 0.201785
    11 5.172566 -0.004197 0.000000 0.243281 0.113926 0.071500
    12 5.271970 -0.001935 0.000000 0.000000 0.000000 0.404912
    13 -2.902475 1.244858 2.530066 1.717348 -0.702656 -5.342663
    14 6.063949 0.000000 0.000002 -0.549649 0.333560 -0.243711
    15 7.685221 0.000000 0.000000 0.000000 0.000000 -1.058304
    16 10.246255 0.000000 -0.000003 -1.569107 0.000000 0.000000
    17 -2.805336 1.203223 -2.427872 -1.823977 0.999044 -5.416554
    18 6.269507 0.000000 -0.000001 1.005355 -0.488645 -0.089767
    19 8.573802 0.000000 -0.000004 0.000000 0.000000 -0.775898
    20 9.913458 0.000000 0.000003 1.568967 0.165722 0.000000
    21 2.452246 0.000000 0.000000 -0.511486 0.452995 -0.014624
    22 0.946167 3.213873 -0.420090 -3.141592 -0.000002 1.413798
    23 1.827063 1.152534 -7.643625 -1.570796 -1.570796 0.000000
  time 11
    0 20.982073 -168.227240 42.818407 0.093093 -0.471512 -4.880315
    1 -2.019593 -2.886807 0.000000 -1.570795 -1.570796 0.000000
    2 -0.000007 0.000008 4.427393 0.040747 3.494661 -0.790998
    3 18.301065 0.000000 0.000000 0.000000 0.000000 -0.885993
    4 17.106758 0.000000 0.000000 -0.228636 -0.112374 0.125962
    5 0.000006 -0.000004 -4.427393 -0.288491 -2.585217 -0.443697
    6 18.133167 0.000000 0.000000 0.000000 0.000000 -0.587414
    7 17.375956 0.000000 0.000000 0.695348 -0.085313 -0.002230
    8 2.255203 -0.002685 0.000003 0.263634 -0.470222 0.123736
    9 3.373776 -0.004248 0.000000 0.242946 0.109758 0.088395
    10 5.335510 -0.004100 0.000000 0.242505 0.169811 0.201785
    11 5.172566 -0.004197 0.000000 0.243281 0.113926 0.071500
    12 5.271970 -0.001935 0.000000 0.000000 0.000000 0.385786
    13 -2.925913 1.190169 2.530066 1.711642 -0.732102 -5.308038
    14 6.063949 0.000000 0.000002 -0.550005 0.317104 -0.271288
    15 7.685221 0.000000 0.000000 0.000000 0.000000 -1.058304
    16 10.246255 0.000000 -0.000003 -1.569107 0.000000 0.000000
    17 -2.828774 1.152440 -2.427872 -1.763965 0.991756 -5.328532
    18 6.269507 0.000000 -0.000001 1.012974 -0.425653 -0.131149
    19 8.573802 0.000000 -0.000004 0.000000 0.000000 -0.764701
    20 9.913458 0.000000 0.000003 1.568967 0.165722 0.000000
    21 2.452246 0.000000 0.000000 -0.527396 0.404055 -0.042147
    22 0.946167 3.213873 -0.420090 -3.141592 -0.000002 1.413798
    23 1.827063 1.152534 -7.643625 -1.570796 -1.570460 0.000000
  time 12
    0 23.775127 -189.727947 41.628867 0.049758 -0.515568 -4.855004
    1 -2.019593 -2.886807 0.000000 -1.570795 -1.570796 0.000000
    2 -0.000007 0.000008 4.427393 0.084274 3.467922 -0.706732
    3 18.301065 0.000000 0.000000 0.000000 0.000000 -0.983939
    4 17.106758 0.000000 0.000000 -0.367470 -0.110731 0.310504
    5 0.000006 -0.000004 -4.427393 -0.280632 -2.603081 -0.514668
    6 18.133167 0.000000 0.000000 0.000000 0.000000 -0.631169
    7 17.375956 0.000000 0.000000 0.720054 -0.010341 -0.005380
    8 2.255203 -0.002685 0.000003 0.263634 -0.470222 0.123736
    9 3.373776 -0.004248 0.000000 0.242946 0.109758 0.088395
    10 5.335510 -0.004100 0.000000 0.242505 0.169811 0.201785
    11 5.172566 -0.004197 0.000000 0.243281 0.113926 0.071500
    12 5.271970 -0.001935 0.000000 0.000000 0.000000 0.366145
    13 -2.949351 1.131573 2.530066 1.704413 -0.762833 -5.271505
    14 6.063949 0.000000 0.000002 -0.549436 0.300157 -0.299858
    15 7.685221 0.000000 0.000000 0.000000 0.000000 -1.058304
    16 10.246255 0.000000 -0.000003 -1.569107 0.000000 0.000000
    17 -2.852213 1.093844 -2.427872 -1.703953 0.983515 -5.238884
    18 6.269507 0.000000 -0.000001 1.015356 -0.359840 -0.172463
    19 8.573802 0.000000 -0.000004 0.000000 0.000000 -0.752966
    20 9.913458 0.000000 0.000003 1.568967 0.165722 0.000000
    21 2.452246 0.000000 0.000000 -0.539493 0.355371 -0.063813
    22 0.946167 3.213873 -0.420090 -3.141592 -0.000002 1.413798
    23 1.827063 1.152534 -7.643625 -1.570796 -1.570796 0.000000
  time 13
    0 26.454896 -210.357494 40.405819 0.003451 -0.556186 -4.828925
    1 -2.019593 -2.886807 0.000000 -1.570795 -1.570796 0.000000
    2 -0.000007 0.000008 4.427393 0.111597 3.443387 -0.537530
    3 18.301065 0.000000 0.000000 0.000000 0.000000 -1.086104
    4 17.106758 0.000000 0.000000 -0.527714 -0.093977 0.576166
    5 0.000006 -0.000004 -4.427393 -0.272773 -2.643012 -0.581979
    6 18.133167 0.000000 0.000000 0.000000 0.000000 -0.677822
    7 17.375956 0.000000 0.000000 0.729351 0.080330 0.002951
    8 2.255203 -0.002685 0.000003 0.263634 -0.470222 0.123736
    9 3.373776 -0.004248 0.000000 0.242946 0.109758 0.088395
    10 5.335510 -0.004100 0.000000 0.242505 0.169811 0.201785
    11 5.172566 -0.004197 0.000000 0.243281 0.113926 0.071500
    12 5.271970 -0.001935 0.000000 0.000000 0.000000 0.346119
    13 -2.972789 1.072978 2.530066 1.695473 -0.794959 -5.233159
    14 6.063949 0.000000 0.000002 -0.547798 0.282719 -0.329573
    15 7.685221 0.000000 0.000000 0.000000 0.000000 -1.058304
    16 10.246255 0.000000 -0.000003 -1.569107 0.000000 0.000000
    17 -2.871745 1.039155 -2.427872 -1.644515 0.975129 -5.148280
    18 6.269507 0.000000 -0.000001 1.012308 -0.291959 -0.214052
    19 8.573802 0.000000 -0.000004 0.000000 0.000000 -0.740772
    20 9.913458 0.000000 0.000003 1.568967 0.165722 0.000000
    21 2.452246 0.000000 0.000000 -0.547777 0.308505 -0.078414
    22 0.946167 3.213873 -0.420090 -3.141592 -0.000002 1.413798
    23 1.827063 1.152534 -7.643625 -1.570796 -1.570796 0.000000
  time 14
    0 28.958879 -229.668202 39.132509 -0.045444 -0.592527 -4.802751
    1 -2.019593 -2.886807 0.000000 -1.570795 -1.570796 0.000000
    2 -0.000007 0.000008 4.427393 0.126937 3.427573 -0.340430
    3 18.301065 0.000000 0.000000 0.000000 0.000000 -1.117322
    4 17.106758 0.000000 0.000000 -0.671404 -0.065160 0.792843
    5 0.000006 -0.000004 -4.427393 -0.265105 -2.699278 -0.643666
    6 18.133167 0.000000 0.000000 0.000000 0.000000 -0.726270
    7 17.375956 0.000000 0.000000 0.725047 0.179994 0.017582
    8 2.255203 -0.002685 0.000003 0.263634 -0.470222 0.123736
    9 3.373776 -0.004248 0.000000 0.242946 0.109758 0.088395
    10 5.335510 -0.004100 0.000000 0.242505 0.169811 0.201785
    11 5.172566 -0.004197 0.000000 0.243281 0.113926 0.071500
    12 5.271970 -0.001935 0.000000 0.000000 0.000000 0.325996
    13 -2.992321 1.014382 2.530066 1.684441 -0.828549 -5.192906
    14 6.063949 0.000000 0.000002 -0.545092 0.264790 -0.360511
    15 7.685221 0.000000 0.000000 0.000000 0.000000 -1.058304
    16 10.246255 0.000000 -0.000003 -1.569107 0.000000 0.000000
    17 -2.891276 0.980560 -2.427872 -1.585748 0.967621 -5.057388
    18 6.269507 0.000000 -0.000001 1.003640 -0.223044 -0.256056
    19 8.573802 0.000000 -0.000004 0.000000 0.000000 -0.728194
    20 9.913458 0.000000 0.000003 1.568967 0.165722 0.000000
    21 2.452246 0.000000 0.000000 -0.552313 0.265340 -0.084186
    22 0.946167 3.213873 -0.420090 -3.141592 -0.000002 1.413798
    23 1.827063 1.152534 -7.643625 -1.570796 -1.570796 0.000000
  time 15
    0 31.240198 -247.224491 37.825690 -0.096449 -0.624315 -4.777056
    1 -2.019593 -2.886807 0.000000 -1.570795 -1.570796 0.000000
    2 -0.000007 0.000008 4.427393 0.053402 3.437541 -0.042193
    3 18.301065 0.000000 0.000000 0.000000 0.000000 -0.527831
    4 17.106758 0.000000 0.000000 -0.663421 -0.061794 0.493213
    5 0.000006 -0.000004 -4.427393 -0.256191 -2.765097 -0.698300
    6 18.133167 0.000000 0.000000 0.000000 0.000000 -0.774856
    7 17.375956 0.000000 0.000000 0.708863 0.281016 0.033228
    8 2.255203 -0.002685 0.000003 0.263634 -0.470222 0.123736
    9 3.373776 -0.004248 0.000000 0.242946 0.109758 0.088395
    10 5.335510 -0.004100 0.000000 0.242505 0.169811 0.201785
    11 5.172566 -0.004197 0.000000 0.243281 0.113926 0.071500
    12 5.271970 -0.001935 0.000000 0.000000 0.000000 0.306130
    13 -3.011853 0.955787 2.530066 1.670840 -0.863748 -5.150554
    14 6.063949 0.000000 0.000002 -0.541105 0.246369 -0.392900
    15 7.685221 0.000000 0.000000 0.000000 0.000000 -1.058304
    16 10.246255 0.000000 -0.000003 -1.569107 0.000000 0.000000
    17 -2.910808 0.921964 -2.427872 -1.527650 0.962714 -4.966783
    18 6.269507 0.000000 -0.000001 0.989353 -0.154881 -0.298473
    19 8.573802 0.000000 -0.000004 0.000000 0.000000 -0.715386
    20 9.913458 0.000000 0.000003 1.568967 0.165722 0.000000
    21 2.452246 0.000000 0.000000 -0.553365 0.228428 -0.078716
    22 0.946167 3.213873 -0.420090 -3.141592 -0.000002 1.413798
    23 1.827063 1.152534 -7.643625 -1.570796 -1.570796 0.000000
  time 16
    0 33.232447 -262.566583 36.485364 -0.148604 -0.651083 -4.752799
    1 -2.019593 -2.886807 0.000000 -1.570795 -1.570796 0.000000
    2 -0.000007 0.000008 4.427393 0.045445 3.471756 -0.198837
    3 18.301065 0.000000 0.000000 0.000000 0.000000 -0.584808
    4 17.106758 0.000000 0.000000 -0.445164 -0.161952 0.411557
    5 0.000006 -0.000004 -4.427393 -0.242869 -2.832157 -0.744900
    6 18.133167 0.000000 0.000000 0.000000 0.000000 -0.821855
    7 17.375956 0.000000 0.000000 0.683210 0.374377 0.044963
    8 2.255203 -0.002685 0.000003 0.263634 -0.470222 0.123736
    9 3.373776 -0.004248 0.000000 0.242946 0.109758 0.088395
    10 5.335510 -0.004100 0.000000 0.242505 0.169811 0.201785
    11 5.172566 -0.004197 0.000000 0.243281 0.113926 0.071500
    12 5.271970 -0.001935 0.000000 0.000000 0.000000 0.287068
    13 -3.031385 0.897191 2.530066 1.654006 -0.900626 -5.106390
    14 6.063949 0.000000 0.000002 -0.535693 0.227540 -0.426893
    15 7.685221 0.000000 0.000000 0.000000 0.000000 -1.058304
    16 10.246255 0.000000 -0.000003 -1.569107 0.000000 0.000000
    17 -2.930340 0.867275 -2.427872 -1.469648 0.962677 -4.877326
    18 6.269507 0.000000 -0.000001 0.970018 -0.089821 -0.340683
    19 8.573802 0.000000 -0.000004 0.000000 0.000000 -0.702808
    20 9.913458 0.000000 0.000003 1.568967 0.165722 0.000000
    21 2.452246 0.000000 0.000000 -0.550932 0.201023 -0.058859
    22 0.946167 3.213873 -0.420090 -3.141592 -0.000002 1.413798
    23 1.827063 1.152534 -7.643625 -1.570796 -1.570796 0.000000
  time 17
    0 34.880935 -275.283095 35.061267 -0.201143 -0.672646 -4.730939
    1 -1.953185 -3.031343 0.000000 -1.570795 -1.570796 0.000000
    2 -0.000007 0.000008 4.427393 0.049759 3.503958 -0.374271
    3 18.301065 0.000000 0.000000 0.000000 0.000000 -0.689375
    4 17.106758 0.000000 0.000000 -0.231432 -0.248283 0.340315
    5 0.000006 -0.000004 -4.427393 -0.220058 -2.890429 -0.782215
    6 18.133167 0.000000 0.000000 0.000000 0.000000 -0.864782
    7 17.375956 0.000000 0.000000 0.652047 0.449117 0.049687
    8 2.255203 -0.002685 0.000003 0.281812 -0.492749 0.106982
    9 3.373776 -0.004248 0.000000 0.256494 0.115301 0.090858
    10 5.335510 -0.004100 0.000000 0.256276 0.178208 0.206171
    11 5.172566 -0.004197 0.000000 0.256866 0.119678 0.074017
    12 5.271970 -0.001935 0.000000 0.000000 0.000000 0.267652
    13 -3.047010 0.838596 2.530066 1.633368 -0.939183 -5.058315
    14 6.063949 0.000000 0.000002 -0.533557 0.187097 -0.503588
    15 7.685221 0.000000 0.000000 0.000000 0.000000 -1.058304
    16 10.246255 0.000000 -0.000003 -1.569107 0.000000 0.000000
    17 -2.945966 0.808679 -2.427872 -1.410689 0.970771 -4.787583
    18 6.269507 0.000000 -0.000001 0.967636 -0.017051 -0.343856
    19 8.573802 0.000000 -0.000004 0.000000 0.000000 -0.690844
    20 9.913458 0.000000 0.000003 1.568967 0.165722 0.000000
    21 2.452246 0.000000 0.000000 -0.583804 0.200704 -0.047273
    22 0.946167 3.213873 -0.420090 -3.141592 -0.000002 1.413798
    23 1.827063 1.152534 -7.643625 -1.570796 -1.570796 0.000000
  time 18
    0 36.130973 -284.914251 33.586907 -0.252915 -0.689005 -4.712339
    1 -1.871151 -3.246193 0.000000 -1.570795 -1.570796 0.000000
    2 -0.000007 0.000008 4.427393 0.043048 3.542965 -0.530532
    3 18.301065 0.000000 0.000000 0.000000 0.000000 -0.730198
    4 17.106758 0.000000 0.000000 0.027475 -0.330967 0.198321
    5 0.000006 -0.000004 -4.427393 -0.181624 -2.927399 -0.809265
    6 18.133167 0.000000 0.000000 0.000000 0.000000 -0.901014
    7 17.375956 0.000000 0.000000 0.622692 0.492313 0.047350
    8 2.255203 -0.002685 0.000003 0.310933 -0.522630 0.083277
    9 3.373776 -0.004248 0.000000 0.278122 0.122025 0.095255
    10 5.335510 -0.004100 0.000000 0.278220 0.188211 0.213529
    11 5.172566 -0.004197 0.000000 0.278559 0.126773 0.078540
    12 5.271970 -0.001935 0.000000 0.000000 0.000000 0.246307
    13 -3.062636 0.772188 2.530066 1.607974 -0.979420 -5.004231
    14 6.063949 0.000000 0.000002 -0.531634 0.131016 -0.607096
    15 7.685221 0.000000 0.000000 0.000000 0.000000 -1.058304
    16 10.246255 0.000000 -0.000003 -1.569107 0.000000 0.000000
    17 -2.961591 0.746177 -2.427872 -1.348093 0.991280 -4.695160
    18 6.269507 0.000000 -0.000001 0.981733 0.058164 -0.319578
    19 8.573802 0.000000 -0.000004 0.000000 0.000000 -0.680183
    20 9.913458 0.000000 0.000003 1.568967 0.165722 0.000000
    21 2.452246 0.000000 0.000000 -0.637057 0.218761 -0.038270
    22 0.946167 3.213873 -0.420090 -3.141592 -0.000002 1.413798
    23 1.827063 1.152534 -7.643625 -1.570796 -1.570796 0.000000
  time 19
    0 37.142722 -292.694191 32.012024 -0.306317 -0.701181 -4.696903
    1 -1.765679 -3.500107 0.000000 -1.570795 -1.570796 0.000000
    2 -0.000007 0.000008 4.427393 -0.145151 3.569033 -0.177555
    3 18.301065 0.000000 0.000000 0.000000 0.000000 -0.001867
    4 17.106758 0.000000 0.000000 0.234916 -0.394653 -0.255235
    5 0.000006 -0.000004 -4.427393 -0.120955 -2.941155 -0.820335
    6 18.133167 0.000000 0.000000 0.000000 0.000000 -0.927171
    7 17.375956 0.000000 0.000000 0.595403 0.496477 0.043490
    8 2.255203 -0.002685 0.000003 0.348154 -0.556873 0.052761
    9 3.373776 -0.004248 0.000000 0.304792 0.129574 0.101160
    10 5.335510 -0.004100 0.000000 0.305311 0.199322 0.223244
    11 5.172566 -0.004197 0.000000 0.305297 0.134743 0.084577
    12 5.271970 -0.001935 0.000000 0.000000 0.000000 0.222681
    13 -3.082168 0.697966 2.530066 1.576493 -1.021158 -4.942515
    14 6.063949 0.000000 0.000002 -0.526792 0.065194 -0.726493
    15 7.685221 0.000000 0.000000 0.000000 0.000000 -1.058304
    16 10.246255 0.000000 -0.000003 -1.569107 0.000000 0.000000
    17 -2.977216 0.675863 -2.427872 -1.255539 1.038999 -4.574131
    18 6.269507 0.000000 -0.000001 1.008307 0.135164 -0.281920
    19 8.573802 0.000000 -0.000004 0.000000 0.000000 -0.669830
    20 9.913458 0.000000 0.000003 1.568967 0.165722 0.000000
    21 2.452246 0.000000 0.000000 -0.699645 0.250377 -0.028062
    22 0.946167 3.213873 -0.420090 -3.141592 -0.000002 1.413798
    23 1.827063 1.152534 -7.643625 -1.570796 -1.570796 0.000000
  time 20
    0 38.107596 -300.147447 30.252845 -0.363457 -0.710196 -4.683576
    1 -1.632862 -3.777459 0.000000 -1.570795 -1.570796 0.000000
    2 -0.000007 0.000008 4.427393 -0.084559 3.621266 -0.234020
    3 18.301065 0.000000 0.000000 0.000000 0.000000 0.079342
    4 17.106758 0.000000 0.000000 0.213506 -0.392329 -0.370903
    5 0.000006 -0.000004 -4.427393 -0.041404 -2.943352 -0.816674
    6 18.133167 0.000000 0.000000 0.000000 0.000000 -0.946150
    7 17.375956 0.000000 0.000000 0.565015 0.474272 0.042524
    8 2.255203 -0.002685 0.000003 0.391496 -0.593201 0.015525
    9 3.373776 -0.004248 0.000000 0.334165 0.137696 0.108195
    10 5.335510 -0.004100 0.000000 0.335234 0.211248 0.234784
    11 5.172566 -0.004197 0.000000 0.334753 0.143348 0.091771
    12 5.271970 -0.001935 0.000000 0.000000 0.000000 0.196129
    13 -3.097793 0.619839 2.530066 1.537499 -1.064183 -4.871357
    14 6.063949 0.000000 0.000002 -0.517678 -0.005541 -0.854140
    15 7.685221 0.000000 0.000000 0.000000 0.000000 -1.058304
    16 10.246255 0.000000 -0.000003 -1.569107 0.000000 0.000000
    17 -2.996748 0.597735 -2.427872 -1.064496 1.129567 -4.359244
    18 6.269507 0.000000 -0.000001 1.045454 0.207276 -0.243572
    19 8.573802 0.000000 -0.000004 0.000000 0.000000 -0.659092
    20 9.913458 0.000000 0.000003 1.568967 0.165722 0.000000
    21 2.452246 0.000000 0.000000 -0.761641 0.294116 -0.011221
    22 0.946167 3.213873 -0.420090 -3.141592 -0.000002 1.413798
    23 1.827063 1.152534 -7.643625 -1.570796 -1.570796 0.000000
  time 21
    0 39.033405 -307.261918 28.359633 -0.423187 -0.716610 -4.672455
    1 -1.480514 -4.062624 0.000000 -1.570795 -1.570796 0.000000
    2 -0.000007 0.000008 4.427393 0.012560 3.645226 -0.394307
    3 18.301065 0.000000 0.000000 0.000000 0.000000 -0.048074
    4 17.106758 0.000000 0.000000 0.187682 -0.373091 -0.369786
    5 0.000006 -0.000004 -4.427393 0.058466 -2.935614 -0.802748
    6 18.133167 0.000000 0.000000 0.000000 0.000000 -0.961195
    7 17.375956 0.000000 0.000000 0.531184 0.431046 0.045826
    8 2.255203 -0.002685 0.000003 0.438857 -0.629822 -0.028155
    9 3.373776 -0.004248 0.000000 0.364177 0.146303 0.115909
    10 5.335510 -0.004100 0.000000 0.365962 0.223892 0.247634
    11 5.172566 -0.004197 0.000000 0.364878 0.152420 0.099707
    12 5.271970 -0.001935 0.000000 0.000000 0.000000 0.166523
    13 -3.117325 0.526086 2.530066 1.489184 -1.108065 -4.788561
    14 6.063949 0.000000 0.000002 -0.504006 -0.076030 -0.983391
    15 7.685221 0.000000 0.000000 0.000000 0.000000 -1.058304
    16 10.246255 0.000000 -0.000003 -1.569107 0.000000 0.000000
    17 -3.012374 0.507889 -2.427872 -0.625557 1.237348 -3.907846
    18 6.269507 0.000000 -0.000001 1.094030 0.251559 -0.208742
    19 8.573802 0.000000 -0.000004 0.000000 0.000000 -0.649199
    20 9.913458 0.000000 0.000003 1.568967 0.165722 0.000000
    21 2.452246 0.000000 0.000000 -0.812789 0.350809 0.019533
    22 0.946167 3.213873 -0.420090 -3.141592 -0.000002 1.413798
    23 1.827063 1.152534 -7.643625 -1.570796 -1.570796 0.000000
  time 22
    0 39.916245 -314.061804 26.332389 -0.484546 -0.720792 -4.663442
    1 -1.308634 -4.332163 0.000000 -1.570795 -1.570796 0.000000
    2 -0.000007 0.000008 4.427393 0.122335 3.618391 -0.674521
    3 18.301065 0.000000 0.000000 0.000000 0.000000 -0.476530
    4 17.106758 0.000000 0.000000 0.202948 -0.352851 -0.194898
    5 0.000006 -0.000004 -4.427393 0.184885 -2.915935 -0.780430
    6 18.133167 0.000000 0.000000 0.000000 0.000000 -0.973548
    7 17.375956 0.000000 0.000000 0.492274 0.365703 0.055174
    8 2.255203 -0.002685 0.000003 0.487701 -0.665169 -0.077313
    9 3.373776 -0.004248 0.000000 0.392608 0.155409 0.123824
    10 5.335510 -0.004100 0.000000 0.395306 0.237327 0.261039
    11 5.172566 -0.004197 0.000000 0.393385 0.161972 0.107797
    12 5.271970 -0.001935 0.000000 0.000000 0.000000 0.134731
    13 -3.129044 0.428427 2.530066 1.428981 -1.152268 -4.692983
    14 6.063949 0.000000 0.000002 -0.486988 -0.140542 -1.107371
    15 7.685221 0.000000 0.000000 0.000000 0.000000 -1.058304
    16 10.246255 0.000000 -0.000003 -1.569107 0.000000 0.000000
    17 -3.024093 0.414136 -2.427872 0.170964 1.246870 -3.114888
    18 6.269507 0.000000 -0.000001 1.143273 0.247610 -0.182326
    19 8.573802 0.000000 -0.000004 0.000000 0.000000 -0.640839
    20 9.913458 0.000000 0.000003 1.568967 0.165722 0.000000
    21 2.452246 0.000000 0.000000 -0.841585 0.421123 0.072857
    22 0.946167 3.213873 -0.420090 -3.141592 -0.000002 1.413798
    23 1.827063 1.152534 -7.643625 -1.570796 -1.570460 0.000000
  time 23
    0 40.760020 -320.547105 24.221375 -0.546768 -0.723116 -4.656443
    1 -1.128941 -4.570452 0.000000 -1.570795 -1.570796 0.000000
    2 -0.000007 0.000008 4.427393 0.201335 3.549482 -0.943807
    3 18.301065 0.000000 0.000000 0.000000 0.000000 -0.922741
    4 17.106758 0.000000 0.000000 0.208540 -0.306920 -0.001819
    5 0.000006 -0.000004 -4.427393 0.335361 -2.883647 -0.754184
    6 18.133167 0.000000 0.000000 0.000000 0.000000 -0.983348
    7 17.375956 0.000000 0.000000 0.449059 0.282086 0.071887
    8 2.255203 -0.002685 0.000003 0.533949 -0.697942 -0.129554
    9 3.373776 -0.004248 0.000000 0.416575 0.165159 0.131060
    10 5.335510 -0.004100 0.000000 0.420467 0.251869 0.273849
    11 5.172566 -0.004197 0.000000 0.417450 0.172075 0.115223
    12 5.271970 -0.001935 0.000000 0.000000 0.000000 0.104225
    13 -3.136857 0.334674 2.530066 1.354131 -1.195972 -4.585101
    14 6.063949 0.000000 0.000002 -0.468902 -0.192120 -1.216761
    15 7.685221 0.000000 0.000000 0.000000 0.000000 -1.058304
    16 10.246255 0.000000 -0.000003 -1.569107 0.000000 0.000000
    17 -3.031906 0.324290 -2.427872 0.746868 1.107191 -2.554995
    18 6.269507 0.000000 -0.000001 1.174134 0.194960 -0.165704
    19 8.573802 0.000000 -0.000004 0.000000 0.000000 -0.633937
    20 9.913458 0.000000 0.000003 1.568967 0.165722 0.000000
    21 2.452246 0.000000 0.000000 -0.835142 0.501041 0.157882
    22 0.946167 3.213873 -0.420090 -3.141592 -0.000002 1.413798
    23 1.827063 1.152534 -7.643625 -1.570796 -1.570460 0.000000
  time 24
    0 41.560826 -326.729919 22.060098 -0.609374 -0.723859 -4.651266
    1 -0.964873 -4.746239 0.000000 -1.570795 -1.570796 0.000000
    2 -0.000007 0.000008 4.427393 0.215236 3.492457 -1.046383
    3 18.301065 0.000000 0.000000 0.000000 0.000000 -1.045645
    4 17.106758 0.000000 0.000000 0.191655 -0.266800 0.020886
    5 0.000006 -0.000004 -4.427393 0.472994 -2.853174 -0.738472
    6 18.133167 0.000000 0.000000 0.000000 0.000000 -0.991630
    7 17.375956 0.000000 0.000000 0.411785 0.210410 0.088498
    8 2.255203 -0.002685 0.000003 0.570861 -0.727112 -0.180415
    9 3.373776 -0.004248 0.000000 0.432097 0.175821 0.136312
    10 5.335510 -0.004100 0.000000 0.437455 0.268079 0.284158
    11 5.172566 -0.004197 0.000000 0.433062 0.182957 0.120596
    12 5.271970 -0.001935 0.000000 0.000000 0.000000 0.083010
    13 -3.144670 0.268266 2.530066 1.261306 -1.238103 -4.469873
    14 6.063949 0.000000 0.000002 -0.452667 -0.221674 -1.298574
    15 7.685221 0.000000 0.000000 0.000000 0.000000 -1.058304
    16 10.246255 0.000000 -0.000003 -1.569107 0.000000 0.000000
    17 -3.039718 0.257881 -2.427872 0.968443 0.993294 -2.341830
    18 6.269507 0.000000 -0.000001 1.188611 0.129147 -0.151427
    19 8.573802 0.000000 -0.000004 0.000000 0.000000 -0.626881
    20 9.913458 0.000000 0.000003 1.568967 0.165722 0.000000
    21 2.452246 0.000000 0.000000 -0.783073 0.574578 0.278701
    22 0.946167 3.213873 -0.420090 -3.141592 -0.000002 1.413798
    23 1.827063 1.152534 -7.643625 -1.570796 -1.570796 0.000000
  time 25
    0 42.322568 -332.598148 19.898821 -0.671883 -0.723395 -4.648006
    1 -0.835963 -4.824366 0.000000 -1.570795 -1.570796 0.000000
    2 -0.000007 0.000008 4.427393 0.205745 3.452875 -1.057983
    3 18.301065 0.000000 0.000000 0.000000 0.000000 -0.989178
    4 17.106758 0.000000 0.000000 0.186284 -0.196260 0.090162
    5 0.000006 -0.000004 -4.427393 0.516411 -2.842665 -0.766771
    6 18.133167 0.000000 0.000000 0.000000 0.000000 -0.963817
    7 17.375956 0.000000 0.000000 0.426419 0.210873 0.074833
    8 2.255203 -0.002685 0.000003 0.587988 -0.752066 -0.222116
    9 3.373776 -0.004248 0.000000 0.433312 0.187760 0.137468
    10 5.335510 -0.004100 0.000000 0.440319 0.286758 0.288934
    11 5.172566 -0.004197 0.000000 0.434269 0.194905 0.121769
    12 5.271970 -0.001935 0.000000 0.000000 0.000000 0.087638
    13 -3.144670 0.283891 2.530066 1.147652 -1.277482 -4.361037
    14 6.063949 0.000000 0.000002 -0.440420 -0.216271 -1.334171
    15 7.685221 0.000000 0.000000 0.000000 0.000000 -1.058304
    16 10.246255 0.000000 -0.000003 -1.569107 0.000000 0.000000
    17 -3.039718 0.273507 -2.427872 0.876463 1.258626 -2.377995
    18 6.269507 0.000000 -0.000001 1.279383 -0.009811 -0.061903
    19 8.573802 0.000000 -0.000004 0.000000 0.000000 -0.617831
    20 9.913458 0.000000 0.000003 1.568967 0.165722 0.000000
    21 2.452246 0.000000 0.000000 -0.693859 0.606003 0.412312
    22 0.946167 3.213873 -0.420090 -3.141592 -0.000002 1.413798
    23 1.827063 1.152534 -7.643625 -1.570796 -1.570460 0.000000
  time 26
    0 43.045246 -338.175990 17.838069 -0.733914 -0.722000 -4.646472
    1 -0.761742 -4.754051 0.000000 -1.570795 -1.570796 0.000000
    2 -0.000007 0.000008 4.427393 0.190597 3.414060 -1.044754
    3 18.301065 0.000000 0.000000 0.000000 0.000000 -0.877843
    4 17.106758 0.000000 0.000000 0.198865 -0.116743 0.147191
    5 0.000006 -0.000004 -4.427393 0.543535 -2.884029 -0.753202
    6 18.133167 0.000000 0.000000 0.000000 0.000000 -0.991216
    7 17.375956 0.000000 0.000000 0.407480 0.210468 0.129697
    8 2.255203 -0.002685 0.000003 0.569563 -0.772092 -0.243058
    9 3.373776 -0.004248 0.000000 0.411533 0.201158 0.131236
    10 5.335510 -0.004100 0.000000 0.420241 0.308663 0.283277
    11 5.172566 -0.004197 0.000000 0.412404 0.207945 0.115362
    12 5.271970 -0.001935 0.000000 0.000000 0.000000 0.549148
    13 -2.695437 1.651121 2.530066 1.012124 -1.312859 -4.688405
    14 6.063949 0.000000 0.000002 -0.429596 -0.157980 -1.297734
    15 7.685221 0.000000 0.000000 0.000000 0.000000 -1.058304
    16 10.246255 0.000000 -0.000003 -1.569107 0.000000 0.000000
    17 -2.602205 1.593859 -2.427872 -1.740898 1.464556 -5.433393
    18 6.269507 0.000000 -0.000001 1.266334 -0.199445 0.054520
    19 8.573802 0.000000 -0.000004 0.000000 0.000000 -0.615070
    20 9.913458 0.000000 0.000003 1.568967 0.165722 0.000000
    21 2.452246 0.000000 0.000000 -0.637780 0.516323 0.029052
    22 0.946167 3.213873 -0.420090 -3.141592 -0.000002 1.413798
    23 1.827063 1.152534 -7.643625 -1.570796 -1.570460 0.000000
  time 27
    0 43.732767 -343.451347 15.978366 -0.795273 -0.719770 -4.646568
    1 -0.699240 -4.336070 0.000000 -1.570795 -1.570796 0.000000
    2 -0.000007 0.000008 4.427393 0.174874 3.379366 -1.022513
    3 18.301065 0.000000 0.000000 0.000000 0.000000 -0.752756
    4 17.106758 0.000000 0.000000 0.229803 -0.041073 0.193584
    5 0.000006 -0.000004 -4.427393 0.584174 -2.935901 -0.731241
    6 18.133167 0.000000 0.000000 0.000000 0.000000 -1.027241
    7 17.375956 0.000000 0.000000 0.384496 0.214053 0.199954
    8 2.255203 -0.002685 0.000003 0.467669 -0.772509 -0.213831
    9 3.373776 -0.004248 0.000000 0.339754 0.213643 0.105959
    10 5.335510 -0.004100 0.000000 0.349005 0.331396 0.250381
    11 5.172566 -0.004197 0.000000 0.340338 0.219306 0.089594
    12 5.271970 -0.001935 0.000000 -0.016239 0.009937 0.549052
    13 -2.718875 1.608151 2.530066 0.762751 -1.379683 -4.445073
    14 6.063949 0.000000 0.000002 -0.394919 0.017055 -1.129677
    15 7.685221 0.000000 0.000000 0.000000 0.000000 -1.058304
    16 10.246255 0.000000 -0.000003 -1.569107 0.000000 0.000000
    17 -2.578767 1.632923 -2.427872 3.648304 1.462579 -0.045713
    18 6.269507 0.000000 -0.000001 1.001640 -0.285284 -0.052316
    19 8.573802 0.000000 -0.000004 0.000000 0.000000 -0.615070
    20 9.913458 0.000000 0.000003 1.568967 0.165722 0.000000
    21 2.452246 0.000000 0.000000 -0.804571 0.237073 -0.096892
    22 0.946167 3.213873 -0.420090 -3.141592 -0.000002 1.413798
    23 1.827063 1.152534 -7.643625 -1.570796 -1.570460 0.000000
  time 28
    0 44.381225 -348.448416 14.118663 -0.855673 -0.717074 -4.648198
    1 -0.339854 -3.687613 0.000000 -1.570795 -1.570796 0.000000
    2 -0.000007 0.000008 4.427393 0.159630 3.348601 -0.997588
    3 18.301065 0.000000 0.000000 0.000000 0.000000 -0.627523
    4 17.106758 0.000000 0.000000 0.275345 0.025539 0.234166
    5 0.000006 -0.000004 -4.427393 0.626633 -2.988346 -0.705977
    6 18.133167 0.000000 0.000000 0.000000 0.000000 -1.064716
    7 17.375956 0.000000 0.000000 0.361081 0.221715 0.272191
    8 2.255203 -0.002685 0.000003 0.265798 -0.778784 -0.146078
    9 3.373776 -0.004248 0.000000 0.194163 0.230202 0.055404
    10 5.335510 -0.004100 0.000000 0.201610 0.366979 0.181392
    11 5.172566 -0.004197 0.000000 0.194331 0.233472 0.038306
    12 5.271970 -0.001935 0.000000 -0.032322 0.019794 0.548827
    13 -2.746220 1.569087 2.530066 0.072173 -1.431462 -3.762961
    14 6.063949 0.000000 0.000002 -0.235632 0.297210 -0.715875
    15 7.685221 0.000000 0.000000 0.000000 0.000000 -1.058304
    16 10.246255 0.000000 -0.000003 -1.569107 0.000000 0.000000
    17 -2.555329 1.671987 -2.427872 2.743818 1.412662 -0.943341
    18 6.269507 0.000000 -0.000001 0.600265 -0.309823 -0.408068
    19 8.573802 0.000000 -0.000004 0.000000 0.000000 -0.615070
    20 9.913458 0.000000 0.000003 1.568967 0.165722 0.000000
    21 2.452246 0.000000 0.000000 -0.647575 -0.159389 -0.082248
    22 0.946167 3.213873 -0.420090 -3.141592 -0.000002 1.413798
    23 1.827063 1.152534 -7.643625 -1.570796 -1.570796 0.000000
  time 29
    0 44.990618 -353.155099 11.890369 -0.914923 -0.714007 -4.651170
    1 0.484390 -3.351665 0.000000 -1.570795 -1.570796 0.000000
    2 -0.000007 0.000008 4.427393 0.144770 3.320520 -0.971416
    3 18.301065 0.000000 0.000000 0.000000 0.000000 -0.503090
    4 17.106758 0.000000 0.000000 0.333579 0.082292 0.273229
    5 0.000006 -0.000004 -4.427393 0.665162 -3.036778 -0.680892
    6 18.133167 0.000000 0.000000 0.000000 0.000000 -1.099982
    7 17.375956 0.000000 0.000000 0.339387 0.232211 0.339400
    8 2.255203 -0.002685 0.000003 0.000738 -0.788565 -0.051906
    9 3.373776 -0.004248 0.000000 0.001306 0.236597 -0.012689
    10 5.335510 -0.004100 0.000000 0.001480 0.394214 0.083482
    11 5.172566 -0.004197 0.000000 0.001315 0.236612 -0.030135
    12 5.271970 -0.001935 0.000000 -0.045553 0.027908 0.548505
    13 -2.765752 1.533929 2.530066 -0.774952 -1.377467 -2.925941
    14 6.063949 0.000000 0.000002 0.150304 0.449240 -0.039140
    15 7.685221 0.000000 0.000000 0.000000 0.000000 -1.058304
    16 10.246255 0.000000 -0.000003 -1.569107 0.000000 0.000000
    17 -2.535797 1.707144 -2.427872 2.375037 1.312169 -1.299636
    18 6.269507 0.000000 -0.000001 0.204987 -0.355139 -0.949075
    19 8.573802 0.000000 -0.000004 0.000000 0.000000 -0.615070
    20 9.913458 0.000000 0.000003 1.568967 0.165722 0.000000
    21 2.452246 0.000000 0.000000 -0.151408 -0.490545 -0.160812
    22 0.946167 3.213873 -0.420090 -3.141592 -0.000002 1.413798
    23 1.827063 1.152534 -7.643625 -1.570796 -1.570796 0.000000
  time 30
    0 45.568761 -357.595593 9.444273 -0.972831 -0.710754 -4.655293
    1 1.265664 -3.671987 0.000000 -1.570795 -1.570796 0.000000
    2 -0.000007 0.000008 4.427393 0.129334 3.294068 -0.943807
    3 18.301065 0.000000 0.000000 0.000000 0.000000 -0.375820
    4 17.106758 0.000000 0.000000 0.405203 0.129185 0.314437
    5 0.000006 -0.000004 -4.427393 0.697174 -3.079575 -0.657949
    6 18.133167 0.000000 0.000000 0.000000 0.000000 -1.131522
    7 17.375956 0.000000 0.000000 0.320363 0.243979 0.398988
    8 2.255203 -0.002685 0.000003 -0.253873 -0.797021 0.043418
    9 3.373776 -0.004248 0.000000 -0.182012 0.226834 -0.076536
    10 5.335510 -0.004100 0.000000 -0.192183 0.398753 -0.013156
    11 5.172566 -0.004197 0.000000 -0.181738 0.223764 -0.093651
    12 5.271970 -0.001935 0.000000 -0.057969 0.035492 0.548119
    13 -2.785284 1.502679 2.526160 -1.136837 -1.249681 -2.575012
    14 6.063949 0.000000 0.000002 0.510890 0.294754 0.583740
    15 7.685221 0.000000 0.000000 0.000000 0.000000 -1.058304
    16 10.246255 0.000000 -0.000003 -1.569107 0.000000 0.000000
    17 -2.516265 1.734489 -2.423966 2.321055 1.243647 -1.343360
    18 6.269507 0.000000 -0.000001 -0.084281 -0.458089 -1.391110
    19 8.573802 0.000000 -0.000004 0.000000 0.000000 -0.615070
    20 9.913458 0.000000 0.000003 1.568967 0.165722 0.000000
    21 2.452246 0.000000 0.000000 0.467241 -0.543983 -0.365881
    22 0.946167 3.213873 -0.420090 -3.141592 -0.000002 1.413798
    23 1.827063 1.152534 -7.643625 -1.570796 -1.570796 0.000000
  time 31
    0 46.107840 -361.757801 7.366767 -1.029205 -0.707408 -4.660566
    1 1.589892 -4.203253 0.000000 -1.570795 -1.570796 0.000000
    2 -0.000007 0.000008 4.427393 0.112077 3.268862 -0.914760
    3 18.301065 0.000000 0.000000 0.000000 0.000000 -0.243310
    4 17.106758 0.000000 0.000000 0.491284 0.163693 0.360382
    5 0.000006 -0.000004 -4.427393 0.722190 -3.116449 -0.638131
    6 18.133167 0.000000 0.000000 0.000000 0.000000 -1.158989
    7 17.375956 0.000000 0.000000 0.304007 0.255746 0.450550
    8 2.255203 -0.002685 0.000003 -0.432682 -0.801483 0.113472
    9 3.373776 -0.004248 0.000000 -0.307981 0.211309 -0.118522
    10 5.335510 -0.004100 0.000000 -0.326032 0.389565 -0.079194
    11 5.172566 -0.004197 0.000000 -0.307324 0.206171 -0.135043
    12 5.271970 -0.001935 0.000000 -0.071764 0.043923 0.547573
    13 -2.804815 1.467521 2.522253 -1.283683 -1.112031 -2.438895
    14 6.063949 0.000000 0.000002 0.650880 0.060282 0.904194
    15 7.685221 0.000000 0.000000 0.000000 0.000000 -1.058304
    16 10.246255 0.000000 -0.000003 -1.569107 0.000000 0.000000
    17 -2.496733 1.769646 -2.420059 3.130306 1.343371 -0.561021
    18 6.269507 0.000000 -0.000001 -0.479559 -0.607953 -0.924108
    19 8.573802 0.000000 -0.000004 0.000000 0.000000 -0.292187
    20 9.913458 0.000000 0.000003 1.568967 0.165722 0.000000
    21 2.452246 0.000000 0.000000 0.792277 -0.346055 -0.450303
    22 0.946167 3.213873 -0.420090 -3.141592 -0.000002 1.413798
    23 1.827063 1.152534 -7.643625 -1.570796 -1.570796 0.000000
  time 32
    0 46.615668 -365.665921 5.875654 -1.083661 -0.704155 -4.666702
    1 1.648488 -4.519669 0.000000 -1.570795 -1.570796 0.000000
    2 -0.000007 0.000008 4.427393 0.091848 3.247298 -0.885809
    3 18.301065 0.000000 0.000000 0.000000 0.000000 -0.110582
    4 17.106758 0.000000 0.000000 0.587298 0.180607 0.411334
    5 0.000006 -0.000004 -4.427393 0.740304 -3.148451 -0.621794
    6 18.133167 0.000000 0.000000 0.000000 0.000000 -1.182592
    7 17.375956 0.000000 0.000000 0.290233 0.266820 0.494848
    8 2.255203 -0.002685 0.000003 -0.517944 -0.803223 0.147348
    9 3.373776 -0.004248 0.000000 -0.366971 0.201547 -0.137468
    10 5.335510 -0.004100 0.000000 -0.388710 0.381740 -0.109630
    11 5.172566 -0.004197 0.000000 -0.366085 0.195469 -0.153631
    12 5.271970 -0.001935 0.000000 -0.085438 0.052247 0.546898
    13 -2.828254 1.436270 2.518347 -1.350354 -1.001719 -2.380709
    14 6.063949 0.000000 0.000002 0.683991 -0.074310 1.002660
    15 7.685221 0.000000 0.000000 0.000000 0.000000 -1.058304
    16 10.246255 0.000000 -0.000003 -1.569107 0.000000 0.000000
    17 -2.477201 1.800897 -2.416153 -2.131884 1.160660 0.419940
    18 6.269507 0.000000 -0.000001 -0.938273 -0.453200 -0.001898
    19 8.573802 0.000000 -0.000004 0.000000 0.000000 -0.002512
    20 9.913458 0.000000 0.000003 1.568967 0.165722 0.000000
    21 2.452246 0.000000 0.000000 0.805426 -0.098900 -0.454610
    22 0.946167 3.213873 -0.420090 -3.141592 -0.000002 1.413798
    23 1.827063 1.152534 -7.643625 -1.570796 -1.570796 0.000000
  time 33
    0 47.088338 -369.295753 5.004441 -1.136104 -0.700995 -4.673413
    1 1.593799 -4.558733 0.000000 -1.570795 -1.570796 0.000000
    2 -0.000007 0.000008 4.427393 0.066825 3.236660 -0.863089
    3 18.301065 0.000000 0.000000 0.000000 0.000000 -0.001867
    4 17.106758 0.000000 0.000000 0.673932 0.176799 0.463134
    5 0.000006 -0.000004 -4.427393 0.752093 -3.176249 -0.608850
    6 18.133167 0.000000 0.000000 0.000000 0.000000 -1.202813
    7 17.375956 0.000000 0.000000 0.278526 0.276737 0.533151
    8 2.255203 -0.002685 0.000003 -0.517944 -0.803223 0.147348
    9 3.373776 -0.004248 0.000000 -0.366971 0.201547 -0.137468
    10 5.335510 -0.004100 0.000000 -0.385106 0.359032 -0.099690
    11 5.172566 -0.004197 0.000000 -0.366085 0.195469 -0.153631
    12 5.271970 -0.001935 0.000000 -0.085378 0.028093 0.548987
    13 -2.765752 1.436270 2.584755 -1.382310 -1.019050 -2.353715
    14 6.063949 0.000000 0.000002 0.652233 0.013944 0.801373
    15 7.685221 0.000000 0.000000 0.000000 0.000000 -0.757155
    16 10.246255 0.000000 -0.000003 -1.553438 0.027654 -0.081498
    17 -2.535797 1.800897 -2.357557 -2.105755 1.182670 0.444050
    18 6.269507 0.000000 -0.000001 -1.044760 -0.257172 0.219637
    19 8.573802 0.000000 -0.000004 0.000000 0.000000 -0.464212
    20 9.913458 0.000000 0.000003 1.590268 0.186151 0.235115
    21 2.452246 0.000000 0.000000 0.646195 -0.040007 -0.349599
    22 0.946167 3.213873 -0.420090 -3.141592 -0.000002 1.413798
    23 1.827063 1.152534 -7.643625 -1.570796 -1.570796 0.000000
  time 34
    0 47.525852 -372.683597 4.635851 -1.185958 -0.698113 -4.680604
    1 1.531297 -4.609516 0.000000 -1.570795 -1.570796 0.000000
    2 -0.000007 0.000008 4.427393 0.030393 3.251803 -0.848038
    3 18.301065 0.000000 0.000000 0.000000 0.000000 -0.001867
    4 17.106758 0.000000 0.000000 0.724551 0.158162 0.572546
    5 0.000006 -0.000004 -4.427393 0.757748 -3.200800 -0.599208
    6 18.133167 0.000000 0.000000 0.000000 0.000000 -1.220274
    7 17.375956 0.000000 0.000000 0.268454 0.285295 0.566628
    8 2.255203 -0.002685 0.000003 -0.517944 -0.803223 0.147348
    9 3.373776 -0.004248 0.000000 -0.366971 0.201547 -0.137468
    10 5.335510 -0.004100 0.000000 -0.381116 0.331140 -0.087741
    11 5.172566 -0.004197 0.000000 -0.366085 0.195469 -0.153631
    12 5.271970 -0.001935 0.000000 -0.085402 -0.020455 0.553134
    13 -2.636842 1.436270 2.713665 -1.452119 -1.052390 -2.293621
    14 6.063949 0.000000 0.000002 0.575188 0.144525 0.452121
    15 7.685221 0.000000 0.000000 0.000000 0.000000 -0.249252
    16 10.246255 0.000000 -0.000003 -1.532071 0.076806 -0.218181
    17 -2.645175 1.800897 -2.228647 -2.043637 1.226105 0.502029
    18 6.269507 0.000000 -0.000001 -1.217635 -0.297130 0.279572
    19 8.573802 0.000000 -0.000004 0.000000 0.000000 -0.853973
    20 9.913458 0.000000 0.000003 1.693531 0.255322 0.528783
    21 2.452246 0.000000 0.000000 0.561451 -0.281323 0.005922
    22 0.946167 3.213873 -0.420090 -3.141592 -0.000002 1.413798
    23 1.827063 1.152534 -7.643625 -1.570796 -1.570796 0.000000
  time 35
    0 47.932114 -375.829451 4.870409 -1.232841 -0.695511 -4.687987
    1 1.460982 -4.660298 0.000000 -1.570795 -1.570796 0.000000
    2 -0.000007 0.000008 4.427393 -0.026843 3.303940 -0.832028
    3 18.301065 0.000000 0.000000 0.000000 0.000000 -0.001867
    4 17.106758 0.000000 0.000000 0.730105 0.132271 0.635341
    5 0.000006 -0.000004 -4.427393 0.757077 -3.222963 -0.593048
    6 18.133167 0.000000 0.000000 0.000000 0.000000 -1.235319
    7 17.375956 0.000000 0.000000 0.259673 0.292379 0.596194
    8 2.255203 -0.002685 0.000003 -0.517944 -0.803223 0.147348
    9 3.373776 -0.004248 0.000000 -0.366971 0.201547 -0.137468
    10 5.335510 -0.004100 0.000000 -0.377127 0.300303 -0.074828
    11 5.172566 -0.004197 0.000000 -0.366085 0.195469 -0.153631
    12 5.271970 -0.001935 0.000000 -0.085642 -0.070535 0.557442
    13 -2.496212 1.436270 2.842576 -1.532866 -1.084265 -2.222844
    14 6.063949 0.000000 0.000002 0.518722 0.176372 0.273446
    15 7.685221 0.000000 0.000000 0.000000 0.000000 -0.002593
    16 10.246255 0.000000 -0.000003 -1.524194 0.101694 -0.284442
    17 -2.754553 1.800897 -2.095831 -1.961994 1.269210 -5.703676
    18 6.269507 0.000000 -0.000001 -1.383461 -0.439097 0.326059
    19 8.573802 0.000000 -0.000004 0.000000 0.000000 -0.927139
    20 9.913458 0.000000 0.000003 1.824287 0.310845 0.745408
    21 2.452246 0.000000 0.000000 0.433120 -0.372279 0.290761
    22 0.946167 3.213873 -0.420090 -3.141592 -0.000002 1.413798
    23 1.827063 1.152534 -7.643625 -1.570796 -1.570460 0.000000
  time 36
    0 48.311032 -378.721218 5.574080 -1.276175 -0.693280 -4.695081
    1 1.382855 -4.714988 0.000000 -1.570795 -1.570796 0.000000
    2 -0.000007 0.000008 4.427393 -0.107377 3.395467 -0.811417
    3 18.301065 0.000000 0.000000 0.000000 0.000000 -0.001867
    4 17.106758 0.000000 0.000000 0.689750 0.103213 0.640704
    5 0.000006 -0.000004 -4.427393 0.748930 -3.243023 -0.590906
    6 18.133167 0.000000 0.000000 0.000000 0.000000 -1.248156
    7 17.375956 0.000000 0.000000 0.251925 0.297583 0.622407
    8 2.255203 -0.002685 0.000003 -0.517944 -0.803223 0.147348
    9 3.373776 -0.004248 0.000000 -0.366971 0.201547 -0.137468
    10 5.335510 -0.004100 0.000000 -0.373426 0.268127 -0.061629
    11 5.172566 -0.004197 0.000000 -0.366085 0.195469 -0.153631
    12 5.271970 -0.001935 0.000000 -0.086121 -0.123496 0.562006
    13 -2.339957 1.436270 2.971486 1.512581 -2.026942 -5.278754
    14 6.063949 0.000000 0.000002 0.497218 0.156641 0.226542
    15 7.685221 0.000000 0.000000 0.000000 0.000000 -0.002593
    16 10.246255 0.000000 -0.000003 -1.524194 0.101694 -0.284442
    17 -2.863932 1.800897 -1.947389 -1.848000 1.312059 -5.594032
    18 6.269507 0.000000 -0.000001 -1.593864 -0.616321 0.408617
    19 8.573802 0.000000 -0.000004 0.000000 0.000000 -0.963109
    20 9.913458 0.000000 0.000003 1.992707 0.342633 0.997019
    21 2.452246 0.000000 0.000000 0.314781 -0.438798 0.561559
    22 0.946167 3.213873 -0.420090 -3.141592 -0.000002 1.413798
    23 1.827063 1.152534 -7.643625 -1.570796 -1.570460 0.000000
  time 37
    0 48.654792 -381.383095 6.428538 -1.315100 -0.691514 -4.701601
    1 1.304727 -4.769677 0.000000 -1.570795 -1.570796 0.000000
    2 -0.000007 0.000008 4.427393 -0.188677 3.490253 -0.789272
    3 18.301065 0.000000 0.000000 0.000000 0.000000 -0.001867
    4 17.106758 0.000000 0.000000 0.647923 0.070348 0.625597
    5 0.000006 -0.000004 -4.427393 0.731103 -3.260792 -0.594120
    6 18.133167 0.000000 0.000000 0.000000 0.000000 -1.258439
    7 17.375956 0.000000 0.000000 0.245211 0.300186 0.645013
    8 2.255203 -0.002685 0.000003 -0.517944 -0.803223 0.147348
    9 3.373776 -0.004248 0.000000 -0.366971 0.201547 -0.137468
    10 5.335510 -0.004100 0.000000 -0.370209 0.235708 -0.048573
    11 5.172566 -0.004197 0.000000 -0.366085 0.195469 -0.153631
    12 5.271970 -0.001935 0.000000 -0.086816 -0.173524 0.566410
    13 -2.187609 1.436270 3.084770 1.411006 -2.001964 -5.186897
    14 6.063949 0.000000 0.000002 0.482906 0.129215 0.202480
    15 7.685221 0.000000 0.000000 0.000000 0.000000 -0.002593
    16 10.246255 0.000000 -0.000003 -1.524194 0.101694 -0.284442
    17 -2.957685 1.800897 -1.798946 -1.702421 1.348499 -5.452623
    18 6.269507 0.000000 -0.000001 -1.836841 -0.774929 0.536765
    19 8.573802 0.000000 -0.000004 0.000000 0.000000 -0.980979
    20 9.913458 0.000000 0.000003 2.153240 0.337801 1.226606
    21 2.452246 0.000000 0.000000 0.269286 -0.456504 0.680913
    22 0.946167 3.213873 -0.420090 -3.141592 -0.000002 1.413798
    23 1.827063 1.152534 -7.643625 -1.570796 -1.570460 0.000000
  time 38
    0 48.971208 -383.802983 7.132210 -1.348752 -0.690120 -4.707066
    1 1.226600 -4.820460 0.000000 -1.570795 -1.570796 0.000000
    2 -0.000007 0.000008 4.427393 -0.202291 3.553891 -0.827906
    3 18.301065 0.000000 0.000000 0.000000 0.000000 -0.001867
    4 17.106758 0.000000 0.000000 0.671062 0.013676 0.597798
    5 0.000006 -0.000004 -4.427393 0.699570 -3.275312 -0.604743
    6 18.133167 0.000000 0.000000 0.000000 0.000000 -1.265340
    7 17.375956 0.000000 0.000000 0.239357 0.298913 0.662640
    8 2.255203 -0.002685 0.000003 -0.517944 -0.803223 0.147348
    9 3.373776 -0.004248 0.000000 -0.366971 0.201547 -0.137468
    10 5.335510 -0.004100 0.000000 -0.367474 0.203751 -0.035906
    11 5.172566 -0.004197 0.000000 -0.366085 0.195469 -0.153631
    12 5.271970 -0.001935 0.000000 -0.087631 -0.218266 0.570396
    13 -2.046980 1.432364 3.182430 1.311143 -1.983274 -5.095898
    14 6.063949 0.000000 0.000002 0.472225 0.098351 0.191174
    15 7.685221 0.000000 0.000000 0.000000 0.000000 -0.002593
    16 10.246255 0.000000 -0.000003 -1.524194 0.101694 -0.284442
    17 -3.031906 1.800897 -1.666130 -1.530330 1.375966 -5.284234
    18 6.269507 0.000000 -0.000001 -2.109631 -0.893862 0.709468
    19 8.573802 0.000000 -0.000004 0.000000 0.000000 -0.990412
    20 9.913458 0.000000 0.000003 2.285986 0.308641 1.413592
    21 2.452246 0.000000 0.000000 0.319580 -0.416561 0.586411
    22 0.946167 3.213873 -0.420090 -3.141592 -0.000002 1.413798
    23 1.827063 1.152534 -7.643625 -1.570796 -1.570796 0.000000
  time 39
    0 49.256373 -386.005081 7.484046 -1.375980 -0.689284 -4.710901
    1 1.152379 -4.867336 0.000000 -1.570795 -1.570796 0.000000
    2 -0.000007 0.000008 4.427393 -0.207852 3.536448 -0.835192
    3 18.301065 0.000000 0.000000 0.000000 0.000000 -0.001867
    4 17.106758 0.000000 0.000000 0.657635 0.020209 0.580680
    5 0.000006 -0.000004 -4.427393 0.649827 -3.285056 -0.625097
    6 18.133167 0.000000 0.000000 0.000000 0.000000 -1.267687
    7 17.375956 0.000000 0.000000 0.234622 0.292379 0.673613
    8 2.255203 -0.002685 0.000003 -0.517944 -0.803223 0.147348
    9 3.373776 -0.004248 0.000000 -0.366971 0.201547 -0.137468
    10 5.335510 -0.004100 0.000000 -0.365254 0.172695 -0.023773
    11 5.172566 -0.004197 0.000000 -0.366085 0.195469 -0.153631
    12 5.271970 -0.001935 0.000000 -0.088590 -0.261316 0.574318
    13 -1.906350 1.432364 3.268370 1.207665 -1.969052 -5.000701
    14 6.063949 0.000000 0.000002 0.463324 0.066504 0.187049
    15 7.685221 0.000000 0.000000 0.000000 0.000000 -0.002593
    16 10.246255 0.000000 -0.000003 -1.524194 0.101694 -0.284442
    17 -3.098314 1.800897 -1.533313 -1.320240 1.395559 -5.077671
    18 6.269507 0.000000 -0.000001 -2.403089 -0.968324 0.913553
    19 8.573802 0.000000 -0.000004 0.000000 0.000000 -0.996318
    20 9.913458 0.000000 0.000003 2.389102 0.269478 1.557797
    21 2.452246 0.000000 0.000000 0.394396 -0.325541 0.390173
    22 0.946167 3.213873 -0.420090 -3.141592 -0.000002 1.413798
    23 1.827063 1.152534 -7.643625 -1.570796 -1.570796 0.000000
  time 40
    0 49.514194 -387.989390 7.433783 -1.395538 -0.689005 -4.712339
    1 1.078158 -4.910306 0.000000 -1.570795 -1.570796 0.000000
    2 -0.000007 0.000008 4.427393 -0.214180 3.514500 -0.842765
    3 18.301065 0.000000 0.000000 0.000000 0.000000 -0.001867
    4 17.106758 0.000000 0.000000 0.641007 0.029467 0.561685
    5 0.000006 -0.000004 -4.427393 0.583886 -3.289546 -0.654110
    6 18.133167 0.000000 0.000000 0.000000 0.000000 -1.266030
    7 17.375956 0.000000 0.000000 0.230576 0.281074 0.678185
    8 2.255203 -0.002685 0.000003 -0.517944 -0.803223 0.147348
    9 3.373776 -0.004248 0.000000 -0.366971 0.201547 -0.137468
    10 5.335510 -0.004100 0.000000 -0.363452 0.142807 -0.012234
    11 5.172566 -0.004197 0.000000 -0.366085 0.195469 -0.153631
    12 5.271970 -0.001935 0.000000 -0.089813 -0.306877 0.578561
    13 -1.757908 1.432364 3.350404 1.091348 -1.958439 -4.893296
    14 6.063949 0.000000 0.000002 0.455278 0.034575 0.187431
    15 7.685221 0.000000 0.000000 0.000000 0.000000 -0.002593
    16 10.246255 0.000000 -0.000003 -1.524194 0.101694 -0.284442
    17 -3.164722 1.800897 -1.388778 -1.056360 1.406289 -4.817529
    18 6.269507 0.000000 -0.000001 -2.693595 -1.002171 1.121431
    19 8.573802 0.000000 -0.000004 0.000000 0.000000 -1.001609
    20 9.913458 0.000000 0.000003 -0.674888 2.910676 -1.477945
    21 2.452246 0.000000 0.000000 0.432396 -0.227694 0.226928
    22 0.946167 3.213873 -0.420090 -3.141592 -0.000002 1.413798
    23 1.827063 1.152534 -7.643625 -1.570796 -1.570460 0.000000
  time 41
    0 49.740763 -389.743809 7.165718 -1.405030 -0.689005 -4.712339
    1 1.003937 -4.953276 0.000000 -1.570795 -1.570796 0.000000
    2 -0.000007 0.000008 4.427393 -0.220603 3.491690 -0.849859
    3 18.301065 0.000000 0.000000 0.000000 0.000000 -0.001867
    4 17.106758 0.000000 0.000000 0.623570 0.039527 0.543271
    5 0.000006 -0.000004 -4.427393 0.505485 -3.288017 -0.689551
    6 18.133167 0.000000 0.000000 0.000000 0.000000 -1.260992
    7 17.375956 0.000000 0.000000 0.226703 0.265924 0.676559
    8 2.255203 -0.002685 0.000003 -0.517944 -0.803223 0.147348
    9 3.373776 -0.004248 0.000000 -0.366971 0.201547 -0.137468
    10 5.335510 -0.004100 0.000000 -0.362069 0.114185 -0.001289
    11 5.172566 -0.004197 0.000000 -0.366085 0.195469 -0.153631
    12 5.271970 -0.001935 0.000000 -0.091335 -0.354341 0.583093
    13 -1.593841 1.432364 3.428531 0.965236 -1.952650 -4.776351
    14 6.063949 0.000000 0.000002 0.447588 0.003056 0.191174
    15 7.685221 0.000000 0.000000 0.000000 0.000000 -0.002593
    16 10.246255 0.000000 -0.000003 -1.524194 0.101694 -0.284442
    17 -3.227224 1.800897 -1.236429 -0.766159 1.404422 -4.531268
    18 6.269507 0.000000 -0.000001 -2.945621 -1.006119 1.295031
    19 8.573802 0.000000 -0.000004 0.000000 0.000000 -1.008512
    20 9.913458 0.000000 0.000003 -0.621893 2.939327 -1.412232
    21 2.452246 0.000000 0.000000 0.436275 -0.167971 0.153489
    22 0.946167 3.213873 -0.420090 -3.141592 -0.000002 1.413798
    23 1.827063 1.152534 -7.643625 -1.570796 -1.570796 0.000000
  time 42
    0 49.943894 -391.304637 6.780374 -1.402729 -0.689005 -4.712339
    1 0.937529 -4.992340 0.000000 -1.570795 -1.570796 0.000000
    2 -0.000007 0.000008 4.427393 -0.226547 3.469935 -0.856474
    3 18.301065 0.000000 0.000000 0.000000 0.000000 -0.001867
    4 17.106758 0.000000 0.000000 0.606648 0.049307 0.526466
    5 0.000006 -0.000004 -4.427393 0.417979 -3.279897 -0.729277
    6 18.133167 0.000000 0.000000 0.000000 0.000000 -1.253332
    7 17.375956 0.000000 0.000000 0.222657 0.247853 0.668990
    8 2.255203 -0.002685 0.000003 -0.517944 -0.803223 0.147348
    9 3.373776 -0.004248 0.000000 -0.366971 0.201547 -0.137468
    10 5.335510 -0.004100 0.000000 -0.361039 0.086828 0.009103
    11 5.172566 -0.004197 0.000000 -0.366085 0.195469 -0.153631
    12 5.271970 -0.001935 0.000000 -0.093144 -0.402572 0.587915
    13 -1.425867 1.432364 3.502752 -2.306378 -1.189075 -1.514119
    14 6.063949 0.000000 0.000002 0.439897 -0.028055 0.198278
    15 7.685221 0.000000 0.000000 0.000000 0.000000 -0.002593
    16 10.246255 0.000000 -0.000003 -1.524194 0.101694 -0.284442
    17 -3.285820 1.800897 -1.076268 -0.499121 1.389333 -4.268160
    18 6.269507 0.000000 -0.000001 3.167385 -0.998786 1.393384
    19 8.573802 0.000000 -0.000004 0.000000 0.000000 -1.020553
    20 9.913458 0.000000 0.000003 -0.600960 2.943226 -1.402625
    21 2.452246 0.000000 0.000000 0.428452 -0.147170 0.151335
    22 0.946167 3.213873 -0.420090 -3.141592 -0.000002 1.413798
    23 1.827063 1.152534 -7.643625 -1.570796 -1.570796 0.000000
  time 43
    0 50.119681 -392.659774 6.344768 -1.388444 -0.689005 -4.712339
    1 0.871120 -5.027497 0.000000 -1.570795 -1.570796 0.000000
    2 -0.000007 0.000008 4.427393 -0.231916 3.450096 -0.862322
    3 18.301065 0.000000 0.000000 0.000000 0.000000 -0.001867
    4 17.106758 0.000000 0.000000 0.590940 0.058324 0.511627
    5 0.000006 -0.000004 -4.427393 0.324339 -3.264995 -0.771235
    6 18.133167 0.000000 0.000000 0.000000 0.000000 -1.243601
    7 17.375956 0.000000 0.000000 0.218352 0.227816 0.655884
    8 2.255203 -0.002685 0.000003 -0.517944 -0.803223 0.147348
    9 3.373776 -0.004248 0.000000 -0.366971 0.201547 -0.137468
    10 5.335510 -0.004100 0.000000 -0.360331 0.060749 0.018982
    11 5.172566 -0.004197 0.000000 -0.366085 0.195469 -0.153631
    12 5.271970 -0.001935 0.000000 -0.095182 -0.449058 0.592737
    13 -1.261800 1.432364 3.565254 -2.430018 -1.183715 -1.399369
    14 6.063949 0.000000 0.000002 0.431922 -0.059083 0.209202
    15 7.685221 0.000000 0.000000 0.000000 0.000000 -0.002593
    16 10.246255 0.000000 -0.000003 -1.524194 0.101694 -0.284442
    17 -3.332696 1.800897 -0.923920 -0.389434 1.357141 -4.169997
    18 6.269507 0.000000 -0.000001 3.112999 -0.997282 1.412765
    19 8.573802 0.000000 -0.000004 0.000000 0.000000 -1.036045
    20 9.913458 0.000000 0.000003 -0.625652 2.908048 -1.474682
    21 2.452246 0.000000 0.000000 0.420760 -0.141874 0.174207
    22 0.946167 3.213873 -0.420090 -3.141592 -0.000002 1.413798
    23 1.827063 1.152534 -7.643625 -1.570796 -1.570796 0.000000
  time 44
    0 50.268123 -393.809221 5.858899 -1.362366 -0.689005 -4.712339
    1 0.808618 -5.058748 0.000000 -1.570795 -1.570796 0.000000
    2 -0.000007 0.000008 4.427393 -0.236806 3.432365 -0.867498
    3 18.301065 0.000000 0.000000 0.000000 0.000000 -0.001867
    4 17.106758 0.000000 0.000000 0.576557 0.066501 0.498621
    5 0.000006 -0.000004 -4.427393 0.227153 -3.243406 -0.813550
    6 18.133167 0.000000 0.000000 0.000000 0.000000 -1.232282
    7 17.375956 0.000000 0.000000 0.213446 0.206854 0.637697
    8 2.255203 -0.002685 0.000003 -0.517944 -0.803223 0.147348
    9 3.373776 -0.004248 0.000000 -0.366971 0.201547 -0.137468
    10 5.335510 -0.004100 0.000000 -0.359913 0.035900 0.028348
    11 5.172566 -0.004197 0.000000 -0.366085 0.195469 -0.153616
    12 5.271970 -0.001935 0.000000 -0.097363 -0.492849 0.597462
    13 -1.105545 1.432364 3.619943 -2.542435 -1.173923 -1.295588
    14 6.063949 0.000000 0.000002 0.423235 -0.090275 0.224251
    15 7.685221 0.000000 0.000000 0.000000 0.000000 -0.002593
    16 10.246255 0.000000 -0.000003 -1.524194 0.101694 -0.284442
    17 -3.367853 1.800897 -0.775478 -0.336888 1.323229 -4.131823
    18 6.269507 0.000000 -0.000001 3.139478 -1.007060 1.369727
    19 8.573802 0.000000 -0.000004 0.000000 0.000000 -1.050080
    20 9.913458 0.000000 0.000003 2.453301 0.290076 1.533597
    21 2.452246 0.000000 0.000000 0.415763 -0.142991 0.205176
    22 0.946167 3.213873 -0.420090 -3.141592 -0.000002 1.413798
    23 1.827063 1.152534 -7.643625 -1.570796 -1.570796 0.000000
  time 45
    0 50.393127 -394.765077 5.373031 -1.325359 -0.689005 -4.712339
    1 0.746117 -5.089999 0.000000 -1.570795 -1.570796 0.000000
    2 -0.000007 0.000008 4.427393 -0.241216 3.416264 -0.872196
    3 18.301065 0.000000 0.000000 0.000000 0.000000 -0.001867
    4 17.106758 0.000000 0.000000 0.563387 0.073955 0.487135
    5 0.000006 -0.000004 -4.427393 0.128624 -3.215607 -0.854436
    6 18.133167 0.000000 0.000000 0.000000 0.000000 -1.219791
    7 17.375956 0.000000 0.000000 0.208022 0.185834 0.614939
    8 2.255203 -0.002685 0.000003 -0.517944 -0.803223 0.147348
    9 3.373776 -0.004248 0.000000 -0.366971 0.201547 -0.137468
    10 5.335510 -0.004100 0.000000 -0.359720 0.012267 0.037244
    11 5.172566 -0.004197 0.000000 -0.366085 0.195469 -0.153631
    12 5.271970 -0.001935 0.000000 -0.099868 -0.536877 0.602477
    13 -0.941477 1.432364 3.662913 -2.649146 -1.159772 -1.197435
    14 6.063949 0.000000 0.000002 0.413267 -0.122040 0.243043
    15 7.685221 0.000000 0.000000 0.000000 0.000000 -0.002593
    16 10.246255 0.000000 -0.000003 -1.524194 0.101694 -0.284442
    17 -3.399104 1.800897 -0.627036 -0.305685 1.288107 -4.117472
    18 6.269507 0.000000 -0.000001 -3.060585 -1.020410 1.282341
    19 8.573802 0.000000 -0.000004 0.000000 0.000000 -1.063195
    20 9.913458 0.000000 0.000003 2.356303 0.348821 1.353952
    21 2.452246 0.000000 0.000000 0.412279 -0.148574 0.239720
    22 0.946167 3.213873 -0.420090 -3.141592 -0.000002 1.413798
    23 1.827063 1.152534 -7.643625 -1.570796 -1.570796 0.000000
  time 46
    0 50.494692 -395.539441 4.903917 -1.278860 -0.689005 -4.712339
    1 0.687521 -5.117344 0.000000 -1.570795 -1.570796 0.000000
    2 -0.000007 0.000008 4.427393 -0.245339 3.401601 -0.876510
    3 18.301065 0.000000 0.000000 0.000000 0.000000 -0.001867
    4 17.106758 0.000000 0.000000 0.551137 0.080769 0.476766
    5 0.000006 -0.000004 -4.427393 0.030480 -3.182459 -0.892734
    6 18.133167 0.000000 0.000000 0.000000 0.000000 -1.206540
    7 17.375956 0.000000 0.000000 0.201910 0.165537 0.588371
    8 2.255203 -0.002685 0.000003 -0.517944 -0.803223 0.147348
    9 3.373776 -0.004248 0.000000 -0.366971 0.201547 -0.137468
    10 5.335510 -0.004100 0.000000 -0.359720 -0.010088 0.045647
    11 5.172566 -0.004197 0.000000 -0.366085 0.195469 -0.153631
    12 5.271970 -0.001935 0.000000 -0.102960 -0.584579 0.608199
    13 -0.765691 1.432364 3.705883 -2.756142 -1.140083 -1.099663
    14 6.063949 0.000000 0.000002 0.400022 -0.158881 0.276807
    15 7.685221 0.000000 0.000000 0.000000 0.000000 -0.054298
    16 10.246255 0.000000 -0.000003 -1.524194 0.101694 -0.284442
    17 -3.426449 1.800897 -0.462968 -0.279269 1.250239 -4.111157
    18 6.269507 0.000000 -0.000001 -2.926190 -1.028496 1.152882
    19 8.573802 0.000000 -0.000004 0.000000 0.000000 -1.075850
    20 9.913458 0.000000 0.000003 2.222230 0.394595 1.126904
    21 2.452246 0.000000 0.000000 0.408729 -0.158368 0.276289
    22 0.946167 3.213873 -0.420090 -3.141592 -0.000002 1.413798
    23 1.827063 1.152534 -7.643625 -1.570796 -1.570796 0.000000
  time 47
    0 50.568913 -396.132314 4.451556 -1.224595 -0.689005 -4.712339
    1 0.632832 -5.144688 0.000000 -1.570795 -1.570796 0.000000
    2 -0.000007 0.000008 4.427393 -0.249269 3.387512 -0.880632
    3 18.301065 0.000000 0.000000 0.000000 0.000000 -0.001867
    4 17.106758 0.000000 0.000000 0.539291 0.087302 0.467023
    5 0.000006 -0.000004 -4.427393 -0.065653 -3.145012 -0.927282
    6 18.133167 0.000000 0.000000 0.000000 0.000000 -1.192806
    7 17.375956 0.000000 0.000000 0.195282 0.146628 0.558856
    8 2.255203 -0.002685 0.000003 -0.517944 -0.803223 0.147348
    9 3.373776 -0.004248 0.000000 -0.366971 0.201547 -0.137468
    10 5.335510 -0.004100 0.000000 -0.359913 -0.031068 0.053538
    11 5.172566 -0.004197 0.000000 -0.366085 0.195469 -0.153631
    12 5.271970 -0.001935 0.000000 -0.106867 -0.637143 0.614982
    13 -0.570372 1.432364 3.741040 -2.862948 -1.113746 -1.003227
    14 6.063949 0.000000 0.000002 0.379942 -0.203909 0.339675
    15 7.685221 0.000000 0.000000 0.000000 0.000000 -0.149687
    16 10.246255 0.000000 -0.000003 -1.524194 0.101694 -0.284442
    17 -3.445981 1.804803 -0.279369 -0.254288 1.209149 -4.110583
    18 6.269507 0.000000 -0.000001 -2.744648 -1.020504 0.983903
    19 8.573802 0.000000 -0.000004 0.000000 0.000000 -1.088351
    20 9.913458 0.000000 0.000003 2.050788 0.409175 0.849914
    21 2.452246 0.000000 0.000000 0.404784 -0.169119 0.308765
    22 0.946167 3.213873 -0.420090 -3.141592 -0.000002 1.413798
    23 1.827063 1.152534 -7.643625 -1.570796 -1.570460 0.000000
  time 48
    0 50.623603 -396.555794 4.032704 -1.164770 -0.689005 -4.712339
    1 0.582049 -5.164220 0.000000 -1.570795 -1.570796 0.000000
    2 -0.000007 0.000008 4.427393 -0.253200 3.373615 -0.884754
    3 18.301065 0.000000 0.000000 0.000000 0.000000 -0.001867
    4 17.106758 0.000000 0.000000 0.527372 0.093755 0.457547
    5 0.000006 -0.000004 -4.427393 -0.158909 -3.104603 -0.957545
    6 18.133167 0.000000 0.000000 0.000000 0.000000 -1.179004
    7 17.375956 0.000000 0.000000 0.188137 0.129656 0.527309
    8 2.255203 -0.002685 0.000003 -0.517944 -0.803223 0.147348
    9 3.373776 -0.004248 0.000000 -0.366971 0.201547 -0.137468
    10 5.335510 -0.004100 0.000000 -0.360235 -0.050393 0.060834
    11 5.172566 -0.004197 0.000000 -0.366085 0.195469 -0.153631
    12 5.271970 -0.001935 0.000000 -0.111301 -0.688466 0.622086
    13 -0.375054 1.432364 3.764479 -2.956154 -1.084158 -0.920240
    14 6.063949 0.000000 0.000002 0.351816 -0.251556 0.423398
    15 7.685221 0.000000 0.000000 0.000000 0.000000 -0.272122
    16 10.246255 0.000000 -0.000003 -1.524194 0.101694 -0.284442
    17 -3.453794 1.804803 -0.103582 -0.241749 1.168717 -4.125987
    18 6.269507 0.000000 -0.000001 -2.536532 -0.985153 0.794302
    19 8.573802 0.000000 -0.000004 0.000000 0.000000 -1.100469
    20 9.913458 0.000000 0.000003 1.857234 0.371284 0.536215
    21 2.452246 0.000000 0.000000 0.401628 -0.165355 0.314020
    22 0.946167 3.213873 -0.420090 -3.141592 -0.000002 1.413798
    23 1.827063 1.152534 -7.643625 -1.570796 -1.570796 0.000000
  time 49
    0 50.654853 -396.797783 3.647360 -1.101973 -0.689005 -4.712339
    1 0.539079 -5.183752 0.000000 -1.570795 -1.570796 0.000000
    2 -0.000007 0.000008 4.427393 -0.257323 3.359239 -0.889068
    3 18.301065 0.000000 0.000000 0.000000 0.000000 -0.001867
    4 17.106758 0.000000 0.000000 0.514902 0.100448 0.447849
    5 0.000006 -0.000004 -4.427393 -0.248332 -3.062284 -0.983077
    6 18.133167 0.000000 0.000000 0.000000 0.000000 -1.165339
    7 17.375956 0.000000 0.000000 0.180561 0.114881 0.494797
    8 2.255203 -0.002685 0.000003 -0.517944 -0.803223 0.147348
    9 3.373776 -0.004248 0.000000 -0.366971 0.201547 -0.137468
    10 5.335510 -0.004100 0.000000 -0.360621 -0.067637 0.067332
    11 5.172566 -0.004197 0.000000 -0.366085 0.195469 -0.153631
    12 5.271970 -0.001935 0.000000 -0.116994 -0.744942 0.630701
    13 -0.160203 1.432364 3.780104 -3.046697 -1.047888 -0.840878
    14 6.063949 0.000000 0.000002 0.319560 -0.292900 0.508573
    15 7.685221 0.000000 0.000000 0.000000 0.000000 -0.387530
    16 10.246255 0.000000 -0.000003 -1.524194 0.101694 -0.284442
    17 -3.453794 1.804803 0.095643 -0.218108 1.126528 -4.133545
    18 6.269507 0.000000 -0.000001 -2.345750 -0.922444 0.622565
    19 8.573802 0.000000 -0.000004 0.000000 0.000000 -1.110515
    20 9.913458 0.000000 0.000003 1.680854 0.275327 0.228227
    21 2.452246 0.000000 0.000000 0.430621 -0.115937 0.160208
    22 0.946167 3.213873 -0.420090 -3.141592 -0.000002 1.413798
    23 1.827063 1.152534 -7.643625 -1.570796 -1.570796 0.000000
  time 50
    0 50.666573 -396.882479 3.295525 -1.038888 -0.689005 -4.712339
    1 0.500015 -5.199377 0.000000 -1.570795 -1.570796 0.000000
    2 -0.000007 0.000008 4.427393 -0.261733 3.343905 -0.893574
    3 18.301065 0.000000 0.000000 0.000000 0.000000 -0.001867
    4 17.106758 0.000000 0.000000 0.501401 0.107582 0.437659
    5 0.000006 -0.000004 -4.427393 -0.333059 -3.019679 -1.003878
    6 18.133167 0.000000 0.000000 0.000000 0.000000 -1.152157
    7 17.375956 0.000000 0.000000 0.172728 0.102507 0.462285
    8 2.255203 -0.002685 0.000003 -0.517944 -0.803223 0.147348
    9 3.373776 -0.004248 0.000000 -0.366971 0.201547 -0.137468
    10 5.335510 -0.004100 0.000000 -0.361039 -0.082192 0.072845
    11 5.172566 -0.004197 0.000000 -0.366085 0.195469 -0.153631
    12 5.271970 -0.001935 0.000000 -0.118719 -0.760375 0.633176
    13 -0.101608 1.432364 3.780104 -3.069427 -1.037417 -0.821229
    14 6.063949 0.000000 0.000002 0.291149 -0.321718 0.574267
    15 7.685221 0.000000 0.000000 0.000000 0.000000 -0.464624
    16 10.246255 0.000000 -0.000003 -1.524194 0.101694 -0.284442
    17 -3.453794 1.804803 0.146425 -0.253043 1.109754 -4.188271
    18 6.269507 0.000000 -0.000001 -2.224404 -0.866315 0.506901
    19 8.573802 0.000000 -0.000004 0.000000 0.000000 -1.114887
    20 9.913458 0.000000 0.000003 1.568967 0.165722 0.000000
    21 2.452246 0.000000 0.000000 0.345220 0.073218 -0.046153
    22 0.946167 3.213873 -0.420090 -3.141592 -0.000002 1.413798
    23 1.827063 1.152534 -7.643625 -1.570796 -1.570460 0.000000
  time 51
    0 50.666573 -396.882479 2.960443 -0.978200 -0.689005 -4.712339
    1 0.500015 -5.199377 0.000000 -1.570795 -1.570796 0.000000
    2 -0.000007 0.000008 4.427393 -0.266622 3.327325 -0.898655
    3 18.301065 0.000000 0.000000 0.000000 0.000000 -0.001867
    4 17.106758 0.000000 0.000000 0.486502 0.115317 0.426708
    5 0.000006 -0.000004 -4.427393 -0.412131 -2.978029 -1.020125
    6 18.133167 0.000000 0.000000 0.000000 0.000000 -1.139803
    7 17.375956 0.000000 0.000000 0.164722 0.092503 0.430890
    8 2.255203 -0.002685 0.000003 -0.517944 -0.803223 0.147348
    9 3.373776 -0.004248 0.000000 -0.366971 0.201547 -0.137468
    10 5.335510 -0.004100 0.000000 -0.361039 -0.082192 0.072845
    11 5.172566 -0.004197 0.000000 -0.366085 0.195469 -0.153631
    12 5.271970 -0.001935 0.000000 -0.132813 -0.777236 0.446830
    13 -0.257863 0.850315 3.944172 -2.893573 -0.931500 -0.832770
    14 6.063949 0.000000 0.000002 0.276907 -0.331133 0.622240
    15 7.685221 0.000000 0.000000 0.000000 0.000000 -0.507181
    16 10.246255 0.000000 -0.000003 -1.524194 0.101694 -0.284442
    17 -3.660831 1.281350 0.369088 -0.409821 0.981611 -4.195830
    18 6.269507 0.000000 -0.000001 -2.177352 -0.887751 0.434067
    19 8.573802 0.000000 -0.000004 0.000000 0.000000 -1.063732
    20 9.913458 0.000000 0.000003 1.568967 0.165722 0.000000
    21 2.452246 0.000000 0.000000 0.313663 0.241125 0.029009
    22 0.946167 3.213873 -0.420090 -3.141592 -0.000002 1.413798
    23 1.827063 1.152534 -7.643625 -1.570796 -1.570460 0.000000
  time 52
    0 50.666573 -396.882479 2.675624 -0.922689 -0.689005 -4.712339
    1 0.500015 -5.199377 0.000000 -1.570795 -1.570796 0.000000
    2 -0.000007 0.000008 4.427393 -0.271991 3.309211 -0.904215
    3 18.301065 0.000000 0.000000 0.000000 0.000000 -0.001867
    4 17.106758 0.000000 0.000000 0.470095 0.123654 0.415043
    5 0.000006 -0.000004 -4.427393 -0.484781 -2.938862 -1.032087
    6 18.133167 0.000000 0.000000 0.000000 0.000000 -1.128416
    7 17.375956 0.000000 0.000000 0.156802 0.084754 0.401782
    8 2.255203 -0.002685 0.000003 -0.517944 -0.803223 0.147348
    9 3.373776 -0.004248 0.000000 -0.366971 0.201547 -0.137468
    10 5.335510 -0.004100 0.000000 -0.361039 -0.082192 0.072845
    11 5.172566 -0.004197 0.000000 -0.366085 0.195469 -0.153631
    12 5.271970 -0.001935 0.000000 -0.143659 -0.799171 0.222938
    13 -0.335990 0.127637 4.030112 -2.714580 -0.807108 -0.810164
    14 6.063949 0.000000 0.000002 0.264446 -0.337764 0.664789
    15 7.685221 0.000000 0.000000 0.000000 0.000000 -0.534426
    16 10.246255 0.000000 -0.000003 -1.524194 0.101694 -0.284442
    17 -3.813179 0.605548 0.529250 -0.503045 0.868447 -4.063989
    18 6.269507 0.000000 -0.000001 -2.167256 -1.001043 0.349302
    19 8.573802 0.000000 -0.000004 0.000000 0.000000 -1.014571
    20 9.913458 0.000000 0.000003 1.568967 0.165722 0.000000
    21 2.452246 0.000000 0.000000 0.278688 0.407724 0.166367
    22 0.946167 3.213873 -0.420090 -3.141592 -0.000002 1.413798
    23 1.827063 1.152534 -7.643625 -1.570796 -1.570460 0.000000
  time 53
    0 50.666573 -396.882479 2.407558 -0.874848 -0.689005 -4.712339
    1 0.500015 -5.199377 0.000000 -1.570795 -1.570796 0.000000
    2 -0.000007 0.000008 4.427393 -0.277744 3.290139 -0.910158
    3 18.301065 0.000000 0.000000 0.000000 0.000000 -0.001867
    4 17.106758 0.000000 0.000000 0.452474 0.132391 0.402887
    5 0.000006 -0.000004 -4.427393 -0.549763 -2.903612 -1.040568
    6 18.133167 0.000000 0.000000 0.000000 0.000000 -1.118478
    7 17.375956 0.000000 0.000000 0.149226 0.078971 0.375976
    8 2.255203 -0.002685 0.000003 -0.517944 -0.803223 0.147348
    9 3.373776 -0.004248 0.000000 -0.366971 0.201547 -0.137468
    10 5.335510 -0.004100 0.000000 -0.361039 -0.082192 0.072845
    11 5.172566 -0.004197 0.000000 -0.366085 0.195469 -0.153631
    12 5.271970 -0.001935 0.000000 -0.147315 -0.820498 0.011390
    13 -0.304739 -0.552072 3.994954 -2.563264 -0.695831 -0.766000
    14 6.063949 0.000000 0.000002 0.253552 -0.342349 0.702144
    15 7.685221 0.000000 0.000000 0.000000 0.000000 -0.551462
    16 10.246255 0.000000 -0.000003 -1.524194 0.101694 -0.284442
    17 -3.856150 -0.042909 0.576126 -0.604405 0.787730 -3.937028
    18 6.269507 0.000000 -0.000001 -2.026289 -0.993521 0.103766
    19 8.573802 0.000000 -0.000004 0.000000 0.000000 -1.084209
    20 9.913458 0.000000 0.000003 1.615844 0.172673 0.052026
    21 2.452246 0.000000 0.000000 0.242660 0.533614 0.316519
    22 0.946167 3.213873 -0.420090 -3.141592 -0.000002 1.413798
    23 1.827063 1.152534 -7.643625 -1.570796 -1.570796 0.000000
  time 54
    0 50.666573 -396.882479 2.173001 -0.837074 -0.689005 -4.712339
    1 0.500015 -5.199377 0.000000 -1.570795 -1.570796 0.000000
    2 -0.000007 0.000008 4.427393 -0.283688 3.271162 -0.916198
    3 18.301065 0.000000 0.000000 0.000000 0.000000 -0.001867
    4 17.106758 0.000000 0.000000 0.434596 0.141048 0.390864
    5 0.000006 -0.000004 -4.427393 -0.605545 -2.873617 -1.046192
    6 18.133167 0.000000 0.000000 0.000000 0.000000 -1.110334
    7 17.375956 0.000000 0.000000 0.142340 0.074808 0.354741
    8 2.255203 -0.002685 0.000003 -0.517944 -0.803223 0.147348
    9 3.373776 -0.004248 0.000000 -0.366971 0.201547 -0.137468
    10 5.335510 -0.004100 0.000000 -0.361039 -0.082192 0.072845
    11 5.172566 -0.004197 0.000000 -0.366085 0.195469 -0.153631
    12 5.271970 -0.001935 0.000000 -0.145038 -0.839182 -0.177239
    13 -0.195361 -1.122402 3.877763 -2.436295 -0.603493 -0.714109
    14 6.063949 0.000000 0.000002 0.244295 -0.345542 0.734151
    15 7.685221 0.000000 0.000000 0.000000 0.000000 -0.562399
    16 10.246255 0.000000 -0.000003 -1.524194 0.101694 -0.284442
    17 -3.813179 -0.613239 0.529250 -0.702319 0.745028 -3.816955
    18 6.269507 0.000000 -0.000001 -1.882846 -0.953187 -0.152944
    19 8.573802 0.000000 -0.000004 0.000000 0.000000 -1.178313
    20 9.913458 0.000000 0.000003 1.672156 0.177590 0.114385
    21 2.452246 0.000000 0.000000 0.203674 0.620997 0.455643
    22 0.946167 3.213873 -0.420090 -3.141592 -0.000002 1.413798
    23 1.827063 1.152534 -7.643625 -1.570796 -1.570460 0.000000
  time 55
    0 50.666573 -396.882479 1.988706 -0.811092 -0.689005 -4.712339
    1 0.500015 -5.199377 0.000000 -1.570795 -1.570462 0.000000
    2 -0.000007 0.000008 4.427393 -0.288961 3.254678 -0.921854
    3 18.301065 0.000000 0.000000 0.000000 0.000000 -0.001867
    4 17.106758 0.000000 0.000000 0.418667 0.148423 0.380316
    5 0.000006 -0.000004 -4.427393 -0.650304 -2.850499 -1.049763
    6 18.133167 0.000000 0.000000 0.000000 0.000000 -1.104399
    7 17.375956 0.000000 0.000000 0.136486 0.071859 0.339247
    8 2.255203 -0.002685 0.000003 -0.517944 -0.803223 0.147348
    9 3.373776 -0.004248 0.000000 -0.366971 0.201547 -0.137468
    10 5.335510 -0.004100 0.000000 -0.361039 -0.082192 0.072845
    11 5.172566 -0.004197 0.000000 -0.366085 0.195469 -0.153631
    12 5.271970 -0.001935 0.000000 -0.138841 -0.854695 -0.341758
    13 -0.046919 -1.583353 3.721509 -2.329013 -0.529201 -0.661551
    14 6.063949 0.000000 0.000002 0.236605 -0.347916 0.760734
    15 7.685221 0.000000 0.000000 0.000000 0.000000 -0.570420
    16 10.246255 0.000000 -0.000003 -1.524194 0.101694 -0.284442
    17 -3.719427 -1.085910 0.427684 -0.791810 0.738692 -3.704153
    18 6.269507 0.000000 -0.000001 -1.753975 -0.900067 -0.395170
    19 8.573802 0.000000 -0.000004 0.000000 0.000000 -1.260453
    20 9.913458 0.000000 0.000003 1.724709 0.173605 0.169040
    21 2.452246 0.000000 0.000000 0.159954 0.679731 0.572757
    22 0.946167 3.213873 -0.420090 -3.141592 -0.000002 1.413798
    23 1.827063 1.152534 -7.643625 -1.570796 -1.570796 0.000000
  time 56
    0 50.666573 -396.882479 1.988706 -0.811092 -0.689005 -4.712339
    1 0.500015 -5.199377 0.000000 -1.570795 -1.570462 0.000000
    2 -0.000007 0.000008 4.427393 -0.294713 3.237906 -0.927894
    3 18.301065 0.000000 0.000000 0.000000 0.000000 -0.001867
    4 17.106758 0.000000 0.000000 0.431285 0.162651 0.381389
    5 0.000006 -0.000004 -4.427393 -0.650304 -2.850499 -1.049763
    6 18.133167 0.000000 0.000000 0.000000 0.000000 -1.104399
    7 17.375956 0.000000 0.000000 0.136486 0.071859 0.339247
    8 2.255203 -0.002685 0.000003 -0.517944 -0.803223 0.147348
    9 3.373776 -0.004248 0.000000 -0.366971 0.201547 -0.137468
    10 5.335510 -0.004100 0.000000 -0.361039 -0.082192 0.072845
    11 5.172566 -0.004197 0.000000 -0.366085 0.195469 -0.153631
    12 5.271970 -0.001935 0.000000 -0.131435 -0.865980 -0.469471
    13 0.101523 -1.907582 3.565254 -2.247125 -0.475921 -0.616910
    14 6.063949 0.000000 0.000002 0.230481 -0.349799 0.781359
    15 7.685221 0.000000 0.000000 0.000000 0.000000 -0.578706
    16 10.246255 0.000000 -0.000003 -1.524194 0.101694 -0.284442
    17 -3.610048 -1.429670 0.314399 -0.993764 0.819445 -3.810640
    18 6.269507 0.000000 -0.000001 -1.592721 -1.106907 -0.495523
    19 8.573802 0.000000 -0.000004 0.000000 0.000000 -1.083749
    20 9.913458 0.000000 0.000003 1.659553 0.121727 0.065985
    21 2.452246 0.000000 0.000000 0.115906 0.716165 0.654251
    22 0.946167 3.213873 -0.420090 -3.141592 -0.000002 1.413798
    23 1.827063 1.152534 -7.643625 -1.570796 -1.570796 0.000000
  time 57
    0 50.666573 -396.882479 1.988706 -0.811092 -0.689005 -4.712339
    1 0.500015 -5.199377 0.000000 -1.570795 -1.570462 0.000000
    2 -0.000007 0.000008 4.427393 -0.296055 3.233976 -0.929236
    3 18.301065 0.000000 0.000000 0.000000 0.000000 -0.001867
    4 17.106758 0.000000 0.000000 0.434228 0.165978 0.381657
    5 0.000006 -0.000004 -4.427393 -0.650304 -2.850499 -1.049763
    6 18.133167 0.000000 0.000000 0.000000 0.000000 -1.104399
    7 17.375956 0.000000 0.000000 0.136486 0.071859 0.339247
    8 2.255203 -0.002685 0.000003 -0.517944 -0.803223 0.147348
    9 3.373776 -0.004248 0.000000 -0.366971 0.201547 -0.137468
    10 5.335510 -0.004100 0.000000 -0.361039 -0.082192 0.072845
    11 5.172566 -0.004197 0.000000 -0.366085 0.195469 -0.153631
    12 5.271970 -0.001935 0.000000 -0.131435 -0.865980 -0.469471
    13 0.101523 -1.907582 3.565254 -2.247125 -0.475921 -0.616910
    14 6.063949 0.000000 0.000002 0.230481 -0.349799 0.781359
    15 7.685221 0.000000 0.000000 0.000000 0.000000 -0.578706
    16 10.246255 0.000000 -0.000003 -1.524194 0.101694 -0.284442
    17 -3.610048 -1.429670 0.314399 -0.993764 0.819445 -3.810640
    18 6.269507 0.000000 -0.000001 -1.592721 -1.106907 -0.495523
    19 8.573802 0.000000 -0.000004 0.000000 0.000000 -1.083749
    20 9.913458 0.000000 0.000003 1.659553 0.121727 0.065985
    21 2.452246 0.000000 0.000000 0.115906 0.716165 0.654251
    22 0.946167 3.213873 -0.420090 -3.141592 -0.000002 1.413798
    23 1.827063 1.152534 -7.643625 -1.570796 -1.570796 0.000000
  time 58
    0 50.666573 -396.882479 1.988706 -0.811092 -0.689005 -4.712339
    1 0.500015 -5.199377 0.000000 -1.570795 -1.570462 0.000000
    2 -0.000007 0.000008 4.427393 -0.291741 3.246436 -0.924826
    3 18.301065 0.000000 0.000000 0.000000 0.000000 -0.001867
    4 17.106758 0.000000 0.000000 0.424884 0.155437 0.380808
    5 0.000006 -0.000004 -4.427393 -0.650304 -2.850499 -1.049763
    6 18.133167 0.000000 0.000000 0.000000 0.000000 -1.104399
    7 17.375956 0.000000 0.000000 0.136486 0.071859 0.339247
    8 2.255203 -0.002685 0.000003 -0.517944 -0.803223 0.147348
    9 3.373776 -0.004248 0.000000 -0.366971 0.201547 -0.137468
    10 5.335510 -0.004100 0.000000 -0.361039 -0.082192 0.072845
    11 5.172566 -0.004197 0.000000 -0.366085 0.195469 -0.153631
    12 5.271970 -0.001935 0.000000 -0.131435 -0.865980 -0.469471
    13 0.101523 -1.907582 3.565254 -2.247125 -0.475921 -0.616910
    14 6.063949 0.000000 0.000002 0.230481 -0.349799 0.781359
    15 7.685221 0.000000 0.000000 0.000000 0.000000 -0.578706
    16 10.246255 0.000000 -0.000003 -1.524194 0.101694 -0.284442
    17 -3.610048 -1.429670 0.314399 -0.993764 0.819445 -3.810640
    18 6.269507 0.000000 -0.000001 -1.592721 -1.106907 -0.495523
    19 8.573802 0.000000 -0.000004 0.000000 0.000000 -1.083749
    20 9.913458 0.000000 0.000003 1.659553 0.121727 0.065985
    21 2.452246 0.000000 0.000000 0.115906 0.716165 0.654251
    22 0.946167 3.213873 -0.420090 -3.141592 -0.000002 1.413798
    23 1.827063 1.152534 -7.643625 -1.570796 -1.570796 0.000000
  time 59
    0 50.666573 -396.882479 1.988706 -0.811092 -0.689005 -4.712339
    1 0.500015 -5.199377 0.000000 -1.570795 -1.570462 0.000000
    2 -0.000007 0.000008 4.427393 -0.288961 3.254678 -0.921854
    3 18.301065 0.000000 0.000000 0.000000 0.000000 -0.001867
    4 17.106758 0.000000 0.000000 0.418667 0.148423 0.380316
    5 0.000006 -0.000004 -4.427393 -0.650304 -2.850499 -1.049763
    6 18.133167 0.000000 0.000000 0.000000 0.000000 -1.104399
    7 17.375956 0.000000 0.000000 0.136486 0.071859 0.339247
    8 2.255203 -0.002685 0.000003 -0.517944 -0.803223 0.147348
    9 3.373776 -0.004248 0.000000 -0.366971 0.201547 -0.137468
    10 5.335510 -0.004100 0.000000 -0.361039 -0.082192 0.072845
    11 5.172566 -0.004197 0.000000 -0.366085 0.195469 -0.153631
    12 5.271970 -0.001935 0.000000 -0.131435 -0.865980 -0.469471
    13 0.101523 -1.907582 3.565254 -2.247125 -0.475921 -0.616910
    14 6.063949 0.000000 0.000002 0.230481 -0.349799 0.781359
    15 7.685221 0.000000 0.000000 0.000000 0.000000 -0.578706
    16 10.246255 0.000000 -0.000003 -1.524194 0.101694 -0.284442
    17 -3.610048 -1.429670 0.314399 -0.993764 0.819445 -3.810640
    18 6.269507 0.000000 -0.000001 -1.592721 -1.106907 -0.495523
    19 8.573802 0.000000 -0.000004 0.000000 0.000000 -1.083749
    20 9.913458 0.000000 0.000003 1.659553 0.121727 0.065985
    21 2.452246 0.000000 0.000000 0.115906 0.716165 0.654251
    22 0.946167 3.213873 -0.420090 -3.141592 -0.000002 1.413798
    23 1.827063 1.152534 -7.643625 -1.570796 -1.570796 0.000000
  time 60
    0 50.666573 -396.882479 1.988706 -0.811092 -0.689005 -4.712339
    1 0.500015 -5.199377 0.000000 -1.570795 -1.570462 0.000000
    2 -0.000007 0.000008 4.427393 -0.288961 3.254678 -0.921854
    3 18.301065 0.000000 0.000000 0.000000 0.000000 -0.001867
    4 17.106758 0.000000 0.000000 0.418667 0.148423 0.380316
    5 0.000006 -0.000004 -4.427393 -0.650304 -2.850499 -1.049763
    6 18.133167 0.000000 0.000000 0.000000 0.000000 -1.104399
    7 17.375956 0.000000 0.000000 0.136486 0.071859 0.339247
    8 2.255203 -0.002685 0.000003 -0.517944 -0.803223 0.147348
    9 3.373776 -0.004248 0.000000 -0.366971 0.201547 -0.137468
    10 5.335510 -0.004100 0.000000 -0.361039 -0.082192 0.072845
    11 5.172566 -0.004197 0.000000 -0.366085 0.195469 -0.153631
    12 5.271970 -0.001935 0.000000 -0.131435 -0.865980 -0.469471
    13 0.101523 -1.907582 3.565254 -2.247125 -0.475921 -0.616910
    14 6.063949 0.000000 0.000002 0.230481 -0.349799 0.781359
    15 7.685221 0.000000 0.000000 0.000000 0.000000 -0.578706
    16 10.246255 0.000000 -0.000003 -1.524194 0.101694 -0.284442
    17 -3.610048 -1.429670 0.314399 -0.993764 0.819445 -3.810640
    18 6.269507 0.000000 -0.000001 -1.592721 -1.106907 -0.495523
    19 8.573802 0.000000 -0.000004 0.000000 0.000000 -1.083749
    20 9.913458 0.000000 0.000003 1.659553 0.121727 0.065985
    21 2.452246 0.000000 0.000000 0.115906 0.716165 0.654251
    22 0.946167 3.213873 -0.420090 -3.141592 -0.000002 1.413798
    23 1.827063 1.152534 -7.643625 -1.570796 -1.570796 0.000000
end
