version 1
nodes
  0 "Bip01" -1
  1 "Bip01 Pelvis" 0
  2 "Bip01 L Leg" 1
  3 "Bip01 L Leg1" 2
  4 "Bip01 L Foot" 3
  5 "Bip01 R Leg" 1
  6 "Bip01 R Leg1" 5
  7 "Bip01 R Foot" 6
  8 "Bip01 Spine" 1
  9 "Bip01 Spine1" 8
  10 "Bip01 Spine2" 9
  11 "Bip01 Spine3" 10
  12 "Bip01 Neck" 11
  13 "Bip01 L Arm" 12
  14 "Bip01 L Arm1" 13
  15 "Bip01 L Arm2" 14
  16 "Bip01 L Hand" 15
  17 "Bip01 R Arm" 12
  18 "Bip01 R Arm1" 17
  19 "Bip01 R Arm2" 18
  20 "Bip01 R Hand" 19
  21 "Bip01 Head" 12
  22 "Bone05" 21
  23 "Bone03" 1
end
skeleton
  time 0
    0 1.575231 12.465814 36.033004 0.018216 0.102984 -1.526261
    1 0.000000 0.000000 0.000000 -0.000025 -1.626185 -1.570793
    2 -0.000007 0.000008 4.427393 -0.111883 3.237523 -0.677493
    3 18.301065 0.000000 0.000000 0.000000 0.000000 -1.204570
    4 17.106758 0.000000 0.000000 0.172783 0.026301 0.612636
    5 0.000006 -0.000004 -4.427393 0.106005 -3.223631 -0.877111
    6 18.133167 0.000000 0.000000 0.000000 0.000000 -0.868716
    7 17.375956 0.000000 0.000000 0.159384 0.020914 0.086619
    8 2.255203 -0.002685 -0.125001 0.140842 0.051867 0.025007
    9 3.373776 -0.004248 0.000000 -0.017436 -0.070294 0.101511
    10 5.335510 -0.004100 0.000000 0.017310 -0.068672 0.105700
    11 5.172566 -0.004197 0.000000 -0.026135 -0.050335 0.090536
    12 5.271970 -0.001935 0.000000 0.000024 0.043606 0.596916
    13 -2.718875 1.776124 2.416781 1.260735 -1.153555 -4.988587
    14 6.063949 0.000000 0.000002 -0.725741 0.261351 -0.564165
    15 7.685221 0.000000 0.000000 0.000000 0.000000 -0.265228
    16 10.246255 0.000000 -0.000003 -1.516737 0.060927 0.003137
    17 -2.414699 1.718863 -2.533344 -1.518749 0.778025 -5.199944
    18 6.269507 0.000000 -0.000001 1.080315 -0.767878 -0.366616
    19 8.573802 0.000000 -0.000004 0.000000 0.000000 -0.848758
    20 9.913458 0.000000 0.000003 1.546560 0.097060 -0.254240
    21 2.452246 0.000000 0.000000 0.250221 -0.789670 0.293561
    22 0.946167 3.213873 -0.420090 -3.141592 -0.000002 1.413798
    23 1.827063 1.152534 -7.643625 -1.570796 -1.570796 0.000000
  time 1
    0 1.036152 11.788245 35.949233 0.018216 0.102984 -1.526261
    1 0.000000 0.000000 0.000000 -0.000025 -1.643239 -1.570793
    2 -0.000007 0.000008 4.427393 -0.086477 3.266179 -0.665318
    3 18.301065 0.000000 0.000000 0.000000 0.000000 -1.220360
    4 17.106758 0.000000 0.000000 0.168442 0.003536 0.640034
    5 0.000006 -0.000004 -4.427393 0.125845 -3.198890 -0.873541
    6 18.133167 0.000000 0.000000 0.000000 0.000000 -0.903637
    7 17.375956 0.000000 0.000000 0.164205 0.006804 0.125786
    8 2.251297 -0.002685 -0.160158 0.143439 0.064270 0.057456
    9 3.373776 -0.004248 0.000000 -0.017345 -0.058806 0.132719
    10 5.335510 -0.004100 0.000000 0.017182 -0.056162 0.156100
    11 5.172566 -0.004197 0.000000 -0.025919 -0.038291 0.147506
    12 5.271970 -0.001935 0.000000 0.000024 0.043606 0.596916
    13 -2.718875 1.776124 2.416781 1.153454 -1.252003 -4.884520
    14 6.063949 0.000000 0.000002 -0.800294 0.287386 -0.645596
    15 7.685221 0.000000 0.000000 0.000000 0.000000 -0.334698
    16 10.246255 0.000000 -0.000003 -1.516737 0.060927 0.003137
    17 -2.414699 1.718863 -2.533344 -1.481899 0.972016 -5.178609
    18 6.269507 0.000000 -0.000001 1.064599 -0.772109 -0.559252
    19 8.573802 0.000000 -0.000004 0.000000 0.000000 -1.101312
    20 9.913458 0.000000 0.000003 1.546560 0.097060 -0.254240
    21 2.452246 0.000000 0.000000 0.140692 -0.546408 0.129885
    22 0.946167 3.213873 -0.420090 -3.141592 -0.000002 1.413798
    23 1.827063 1.152534 -7.643625 -1.570796 -1.570796 0.000000
  time 2
    0 0.372069 10.917085 35.681168 0.018216 0.102984 -1.526261
    1 0.000000 0.000000 0.000000 -0.000025 -1.658287 -1.570793
    2 -0.000007 0.000008 4.427393 -0.060207 3.298956 -0.653143
    3 18.301065 0.000000 0.000000 0.000000 0.000000 -1.248813
    4 17.106758 0.000000 0.000000 0.164506 -0.025001 0.680303
    5 0.000006 -0.000004 -4.427393 0.144630 -3.172715 -0.879165
    6 18.133167 0.000000 0.000000 0.000000 0.000000 -0.963955
    7 17.375956 0.000000 0.000000 0.171092 -0.010659 0.182174
    8 2.247390 -0.002685 -0.195315 0.146592 0.075031 0.086730
    9 3.373776 -0.004248 0.000000 -0.017254 -0.047074 0.163398
    10 5.335510 -0.004100 0.000000 0.017053 -0.043274 0.203937
    11 5.172566 -0.004197 0.000000 -0.025661 -0.026055 0.202500
    12 5.271970 -0.001935 0.000000 0.000024 0.043606 0.596916
    13 -2.718875 1.776124 2.416781 0.965521 -1.341447 -4.699660
    14 6.063949 0.000000 0.000002 -0.877053 0.322835 -0.736118
    15 7.685221 0.000000 0.000000 0.000000 0.000000 -0.406621
    16 10.246255 0.000000 -0.000003 -1.516737 0.060927 0.003137
    17 -2.414699 1.718863 -2.533344 -1.422079 1.158023 -5.132876
    18 6.269507 0.000000 -0.000001 1.053455 -0.761673 -0.749267
    19 8.573802 0.000000 -0.000004 0.000000 0.000000 -1.263291
    20 9.913458 0.000000 0.000003 1.546560 0.097060 -0.254240
    21 2.452246 0.000000 0.000000 0.060681 -0.271561 -0.111925
    22 0.946167 3.213873 -0.420090 -3.141592 -0.000002 1.413798
    23 1.827063 1.152534 -7.643625 -1.570796 -1.570460 0.000000
  time 3
    0 -0.479519 9.719241 35.178545 0.018216 0.102984 -1.526261
    1 0.000000 0.000000 0.000000 -0.000025 -1.671663 -1.570793
    2 -0.000007 0.000008 4.427393 -0.032212 3.339209 -0.635888
    3 18.301065 0.000000 0.000000 0.000000 0.000000 -1.290363
    4 17.106758 0.000000 0.000000 0.160974 -0.062996 0.738987
    5 0.000006 -0.000004 -4.427393 0.164183 -3.142719 -0.891395
    6 18.133167 0.000000 0.000000 0.000000 0.000000 -1.053950
    7 17.375956 0.000000 0.000000 0.180819 -0.033703 0.262996
    8 2.247390 -0.002685 -0.226566 0.150178 0.084150 0.114944
    9 3.373776 -0.004248 0.000000 -0.017162 -0.035390 0.191917
    10 5.335510 -0.004100 0.000000 0.016892 -0.030314 0.246794
    11 5.172566 -0.004197 0.000000 -0.025337 -0.013962 0.253109
    12 5.271970 -0.001935 0.000000 0.000024 0.043606 0.596916
    13 -2.718875 1.776124 2.416781 0.550185 -1.416811 -4.287589
    14 6.063949 0.000000 0.000002 -0.948188 0.380389 -0.836188
    15 7.685221 0.000000 0.000000 0.000000 0.000000 -0.485969
    16 10.246255 0.000000 -0.000003 -1.516737 0.060927 0.003137
    17 -2.414699 1.718863 -2.533344 -1.287985 1.334618 -5.011846
    18 6.269507 0.000000 -0.000001 1.045359 -0.745314 -0.924315
    19 8.573802 0.000000 -0.000004 0.000000 0.000000 -1.366291
    20 9.913458 0.000000 0.000003 1.546560 0.097060 -0.254240
    21 2.452246 0.000000 0.000000 -0.013280 -0.052609 -0.352873
    22 0.946167 3.213873 -0.420090 -3.141592 -0.000002 1.413798
    23 1.827063 1.152534 -7.643625 -1.570796 -1.570796 0.000000
  time 4
    0 -1.495175 8.001120 34.324087 0.018216 0.102984 -1.526261
    1 0.000000 0.000000 0.000000 -0.000025 -1.683458 -1.570793
    2 -0.000007 0.000008 4.427393 -0.003834 3.388854 -0.605307
    3 18.301065 0.000000 0.000000 0.000000 0.000000 -1.345448
    4 17.106758 0.000000 0.000000 0.157259 -0.112494 0.825112
    5 0.000006 -0.000004 -4.427393 0.185460 -3.107947 -0.905946
    6 18.133167 0.000000 0.000000 0.000000 0.000000 -1.178865
    7 17.375956 0.000000 0.000000 0.193646 -0.062819 0.377906
    8 2.243484 -0.002685 -0.253911 0.154259 0.091332 0.144586
    9 3.373776 -0.004248 0.000000 -0.017041 -0.023464 0.216993
    10 5.335510 -0.004100 0.000000 0.016731 -0.016842 0.281740
    11 5.172566 -0.004197 0.000000 -0.025014 -0.001762 0.297141
    12 5.271970 -0.001935 0.000000 0.000024 0.043606 0.596916
    13 -2.718875 1.776124 2.416781 -0.255949 -1.435000 -3.484908
    14 6.063949 0.000000 0.000002 -1.011775 0.462994 -0.945349
    15 7.685221 0.000000 0.000000 0.000000 0.000000 -0.573602
    16 10.246255 0.000000 -0.000003 -1.516737 0.060927 0.003137
    17 -2.414699 1.718863 -2.533344 -0.882450 1.464190 -4.616419
    18 6.269507 0.000000 -0.000001 1.062979 -0.680253 -1.045911
    19 8.573802 0.000000 -0.000004 0.000000 0.000000 -1.309844
    20 9.913458 0.000000 0.000003 1.546560 0.097060 -0.254240
    21 2.452246 0.000000 0.000000 -0.086979 0.127135 -0.579090
    22 0.946167 3.213873 -0.420090 -3.141592 -0.000002 1.413798
    23 1.827063 1.152534 -7.643625 -1.570796 -1.570796 0.000000
  time 5
    0 -2.311607 5.448138 32.899990 0.018216 0.102984 -1.526261
    1 0.000000 0.000000 0.000000 -0.000025 -1.692897 -1.570793
    2 -0.000007 0.000008 4.427393 0.015053 3.440799 -0.544528
    3 18.301065 0.000000 0.000000 0.000000 0.000000 -1.416542
    4 17.106758 0.000000 0.000000 0.150968 -0.165319 0.957273
    5 0.000006 -0.000004 -4.427393 0.205300 -3.077378 -0.913445
    6 18.133167 0.000000 0.000000 0.000000 0.000000 -1.348986
    7 17.375956 0.000000 0.000000 0.203804 -0.089332 0.545089
    8 2.239578 -0.002685 -0.273443 0.158525 0.096014 0.174320
    9 3.373776 -0.004248 0.000000 -0.016980 -0.013507 0.227019
    10 5.335510 -0.004100 0.000000 0.016699 -0.004965 0.287786
    11 5.172566 -0.004197 0.000000 -0.024863 0.008090 0.313892
    12 5.271970 -0.001935 0.000000 0.000024 0.043606 0.596916
    13 -2.718875 1.776124 2.416781 -0.812519 -1.380397 -2.931282
    14 6.063949 0.000000 0.000002 -1.033991 0.576956 -1.022273
    15 7.685221 0.000000 0.000000 0.000000 0.000000 -0.655005
    16 10.246255 0.000000 -0.000003 -1.516737 0.060927 0.003137
    17 -2.414699 1.718863 -2.533344 0.388423 1.497334 -3.353311
    18 6.269507 0.000000 -0.000001 1.086696 -0.616509 -1.097570
    19 8.573802 0.000000 -0.000004 0.000000 0.000000 -1.072322
    20 9.913458 0.000000 0.000003 1.546560 0.097060 -0.254240
    21 2.452246 0.000000 0.000000 -0.154366 0.274464 -0.715372
    22 0.946167 3.213873 -0.420090 -3.141592 -0.000002 1.413798
    23 1.827063 1.152534 -7.643625 -1.570796 -1.570796 0.000000
  time 6
    0 -2.647554 1.951399 30.772221 0.067399 0.214890 -1.464516
    1 0.000000 0.000000 0.000000 -0.000025 -1.692897 -1.570793
    2 -0.000007 0.000008 4.427393 0.028667 3.462747 -0.527272
    3 18.301065 0.000000 0.000000 0.000000 0.000000 -1.446086
    4 17.106758 0.000000 0.000000 0.119368 -0.206721 1.132295
    5 0.000006 -0.000004 -4.427393 0.228111 -3.074512 -0.994415
    6 18.133167 0.000000 0.000000 0.000000 0.000000 -1.556649
    7 17.375956 0.000000 0.000000 0.195626 -0.105090 0.799953
    8 2.239578 -0.002685 -0.273443 0.160813 0.092117 0.198577
    9 3.373776 -0.004248 0.000000 -0.017102 -0.014042 0.195460
    10 5.335510 -0.004100 0.000000 0.017053 -0.003590 0.207012
    11 5.172566 -0.004197 0.000000 -0.025359 0.006448 0.248153
    12 5.271970 -0.001935 0.000000 0.000024 0.043606 0.538829
    13 -2.820441 1.623776 2.412875 -0.981050 -1.333835 -2.706265
    14 6.063949 0.000000 0.000002 -0.869790 0.742331 -0.901196
    15 7.685221 0.000000 0.000000 0.000000 0.000000 -0.724475
    16 10.246255 0.000000 -0.000003 -1.516737 0.060927 0.003137
    17 -2.512359 1.566515 -2.537250 0.637851 1.487958 -3.047245
    18 6.269507 0.000000 -0.000001 1.068790 -0.621586 -0.945558
    19 8.573802 0.000000 -0.000004 0.000000 0.000000 -0.506087
    20 9.913458 0.000000 0.000003 1.546560 0.097060 -0.254240
    21 2.452246 0.000000 0.000000 -0.172840 0.373268 -0.469083
    22 0.946167 3.213873 -0.420090 -3.141592 -0.000002 1.413798
    23 1.827063 1.152534 -7.643625 -1.570796 -1.570796 0.000000
  time 7
    0 -2.878030 -2.295504 28.326125 0.138538 0.345292 -1.379474
    1 0.000000 0.000000 0.000000 -0.000025 -1.692897 -1.570793
    2 -0.000007 0.000008 4.427393 0.022915 3.484407 -0.448183
    3 18.301065 0.000000 0.000000 0.000000 0.000000 -1.411958
    4 17.106758 0.000000 0.000000 0.067094 -0.241750 1.346559
    5 0.000006 -0.000004 -4.427393 0.247184 -3.060278 -0.994772
    6 18.133167 0.000000 0.000000 0.000000 0.000000 -1.712345
    7 17.375956 0.000000 0.000000 0.174535 -0.111017 1.124971
    8 2.239578 -0.002685 -0.273443 0.162544 0.088979 0.217816
    9 3.373776 -0.004248 0.000000 -0.017345 -0.015464 0.112919
    10 5.335510 -0.004100 0.000000 0.017439 -0.000329 0.018654
    11 5.172566 -0.004197 0.000000 -0.026070 0.002145 0.081551
    12 5.271970 -0.001935 0.000000 0.000024 0.043606 0.453162
    13 -2.949351 1.385487 2.405062 -0.934162 -1.345842 -2.666775
    14 6.063949 0.000000 0.000002 -0.410513 0.837216 -0.451643
    15 7.685221 0.000000 0.000000 0.000000 0.000000 -0.790233
    16 10.246255 0.000000 -0.000003 -1.516737 0.060927 0.003137
    17 -2.637362 1.339945 -2.545063 0.741603 1.483014 -2.858477
    18 6.269507 0.000000 -0.000001 0.766473 -0.728955 -0.568908
    19 8.573802 0.000000 -0.000004 0.000000 0.000000 -0.546198
    20 9.913458 0.000000 0.000003 1.546560 0.097060 -0.254240
    21 2.452246 0.000000 0.000000 -0.150290 0.420039 0.160553
    22 0.946167 3.213873 -0.420090 -3.141592 -0.000002 1.413798
    23 1.827063 1.152534 -7.643625 -1.570796 -1.570460 0.000000
  time 8
    0 -2.956158 -7.123181 25.662226 0.230480 0.474580 -1.274297
    1 0.000000 0.000000 0.000000 -0.000025 -1.692897 -1.570793
    2 -0.000007 0.000008 4.427393 0.010643 3.526960 -0.304577
    3 18.301065 0.000000 0.000000 0.000000 0.000000 -1.517107
    4 17.106758 0.000000 0.000000 0.195223 -0.199426 0.904042
    5 0.000006 -0.000004 -4.427393 0.254756 -3.004012 -0.826584
    6 18.133167 0.000000 0.000000 0.000000 0.000000 -1.938919
    7 17.375956 0.000000 0.000000 0.150345 -0.013117 0.943767
    8 2.239578 -0.002685 -0.273443 0.164028 0.086234 0.234616
    9 3.373776 -0.004248 0.000000 -0.017436 -0.017130 0.016960
    10 5.335510 -0.004100 0.000000 0.017214 0.002702 -0.156894
    11 5.172566 -0.004197 0.000000 -0.026092 -0.001953 -0.075911
    12 5.271970 -0.001935 0.000000 0.000024 0.043606 0.342390
    13 -3.082168 1.061259 2.401156 -0.834109 -1.368534 -2.654947
    14 6.063949 0.000000 0.000002 -0.033763 0.730296 -0.112169
    15 7.685221 0.000000 0.000000 0.000000 0.000000 -0.850423
    16 10.246255 0.000000 -0.000003 -1.516737 0.060927 0.003137
    17 -2.766273 1.027436 -2.548969 1.003761 1.454265 -2.488500
    18 6.269507 0.000000 -0.000001 0.403960 -0.679595 -0.215501
    19 8.573802 0.000000 -0.000004 0.000000 0.000000 -0.669676
    20 9.913458 0.000000 0.000003 1.546560 0.097060 -0.254240
    21 2.452246 0.000000 0.000000 -0.108937 0.438128 0.821459
    22 0.946167 3.213873 -0.420090 -3.141592 -0.000002 1.413798
    23 1.827063 1.152534 -7.643625 -1.570796 -1.570796 0.000000
  time 9
    0 -2.889749 -12.313842 22.663245 0.348789 0.596431 -1.143425
    1 0.000000 0.000000 0.000000 -0.000025 -1.692897 -1.570793
    2 -0.000007 0.000008 4.427393 -0.031925 3.509133 -0.202001
    3 18.301065 0.000000 0.000000 0.000000 0.000000 -1.258709
    4 17.106758 0.000000 0.000000 0.251066 -0.061954 0.225987
    5 0.000006 -0.000004 -4.427393 0.220060 -2.959019 -0.594120
    6 18.133167 0.000000 0.000000 0.000000 0.000000 -1.643193
    7 17.375956 0.000000 0.000000 0.044203 0.085274 -0.013152
    8 2.239578 -0.002685 -0.273443 0.165697 0.082998 0.254178
    9 3.373776 -0.004248 0.000000 -0.017436 -0.017397 0.001759
    10 5.335510 -0.004100 0.000000 0.017278 -0.002373 0.136137
    11 5.172566 -0.004197 0.000000 -0.025704 0.004842 0.185609
    12 5.271970 -0.001935 0.000000 0.000024 0.043606 0.215930
    13 -3.187640 0.678435 2.393343 -1.180777 -1.215054 -2.186501
    14 6.063949 0.000000 0.000002 -0.805492 0.415101 -0.760104
    15 7.685221 0.000000 0.000000 0.000000 0.000000 -0.926788
    16 10.246255 0.000000 -0.000003 -1.516737 0.060927 0.003137
    17 -2.875651 0.656331 -2.552876 1.409008 1.220502 -1.975201
    18 6.269507 0.000000 -0.000001 1.137654 -0.396507 -0.796926
    19 8.573802 0.000000 -0.000004 0.000000 0.000000 -0.770146
    20 9.913458 0.000000 0.000003 1.546560 0.097060 -0.254240
    21 2.452246 0.000000 0.000000 -0.083297 0.421857 0.374322
    22 0.946167 3.213873 -0.420090 -3.141592 -0.000002 1.413798
    23 1.827063 1.152534 -7.643625 -1.570796 -1.570796 0.000000
  time 10
    0 -2.721775 -17.673894 19.144888 0.505446 0.706850 -0.974491
    1 0.000000 0.000000 0.000000 -0.000025 -1.692897 -1.570793
    2 -0.000007 0.000008 4.427393 -0.070753 3.481723 -0.120228
    3 18.301065 0.000000 0.000000 0.000000 0.000000 -0.978990
    4 17.106758 0.000000 0.000000 0.236572 -0.007205 -0.102962
    5 0.000006 -0.000004 -4.427393 0.131404 -2.911446 -0.199627
    6 18.133167 0.000000 0.000000 0.000000 0.000000 -1.204263
    7 17.375956 0.000000 0.000000 -0.039213 0.090941 -0.209037
    8 2.239578 -0.002685 -0.273443 0.167676 0.078880 0.278665
    9 3.373776 -0.004248 0.000000 -0.017375 -0.018905 -0.085079
    10 5.335510 -0.004100 0.000000 0.017439 0.000097 -0.006659
    11 5.172566 -0.004197 0.000000 -0.026135 0.001210 0.045593
    12 5.271970 -0.001935 0.000000 0.000024 0.043606 0.009718
    13 -3.261861 0.037790 2.393343 1.192258 -1.202618 -4.335378
    14 6.063949 0.000000 0.000002 -0.660161 0.278626 0.027395
    15 7.685221 0.000000 0.000000 0.000000 0.000000 -1.016874
    16 10.246255 0.000000 -0.000003 -1.516737 0.060927 0.003137
    17 -2.945966 0.035218 -2.556782 1.392259 1.253572 -1.783085
    18 6.269507 0.000000 -0.000001 0.422724 -0.345455 -1.350072
    19 8.573802 0.000000 -0.000004 0.000000 0.000000 -0.873146
    20 9.913458 0.000000 0.000003 1.546560 0.097060 -0.254240
    21 2.452246 0.000000 0.000000 -0.460666 0.220803 0.021127
    22 0.946167 3.213873 -0.420090 -3.141592 -0.000002 1.413798
    23 1.827063 1.152534 -7.643625 -1.570796 -1.570796 0.000000
  time 11
    0 -2.522551 -23.021847 15.023383 0.713397 0.796171 -0.753974
    1 0.000000 0.000000 0.000000 -0.000025 -1.692897 -1.570793
    2 -0.000007 0.000008 4.427393 -0.372179 3.683466 -0.032319
    3 18.301065 0.000000 0.000000 0.000000 0.000000 -1.083266
    4 17.106758 0.000000 0.000000 0.058155 -0.229526 -0.288845
    5 0.000006 -0.000004 -4.427393 -0.133894 -2.708640 -0.325679
    6 18.133167 0.000000 0.000000 0.000000 0.000000 -1.327936
    7 17.375956 0.000000 0.000000 -0.028969 0.073218 0.056240
    8 2.239578 -0.002685 -0.273443 0.169036 0.075865 0.296431
    9 3.373776 -0.004248 0.000000 -0.017345 -0.019197 -0.101285
    10 5.335510 -0.004100 0.000000 0.017246 0.002495 -0.144699
    11 5.172566 -0.004197 0.000000 -0.026027 -0.002529 -0.097927
    12 5.271970 -0.001935 0.000000 0.000024 0.043606 -0.154480
    13 -3.226703 -0.477851 2.393343 0.963999 -1.329690 -3.946581
    14 6.063949 0.000000 0.000002 -0.504647 0.104655 -0.100557
    15 7.685221 0.000000 0.000000 0.000000 0.000000 -1.096221
    16 10.246255 0.000000 -0.000003 -1.516737 0.060927 0.003137
    17 -2.910808 -0.464797 -2.556782 2.256162 1.272726 -0.719460
    18 6.269507 0.000000 -0.000001 0.499684 0.047916 -1.372695
    19 8.573802 0.000000 -0.000004 0.000000 0.000000 -1.030447
    20 9.913458 0.000000 0.000003 1.546339 0.170808 -0.255962
    21 2.452246 0.000000 0.000000 -0.380985 -0.065976 -0.160252
    22 0.946167 3.213873 -0.420090 -3.141592 -0.000002 1.413798
    23 1.827063 1.152534 -7.643625 -1.570796 -1.570796 0.000000
  time 12
    0 -2.370202 -28.152010 10.550043 0.964586 0.847012 -0.490409
    1 0.000000 0.000000 0.000000 -0.000025 -1.692897 -1.570793
    2 -0.000007 0.000008 4.427393 -0.706776 3.842657 0.115985
    3 18.301065 0.000000 0.000000 0.000000 0.000000 -1.208936
    4 17.106758 0.000000 0.000000 -0.123940 -0.419342 -0.393966
    5 0.000006 -0.000004 -4.427393 -0.362962 -2.492173 -0.445214
    6 18.133167 0.000000 0.000000 0.000000 0.000000 -1.487704
    7 17.375956 0.000000 0.000000 0.001849 0.022128 0.305059
    8 2.239578 -0.002685 -0.273443 0.473914 -0.013851 0.268493
    9 3.373776 -0.004248 0.000000 -0.017314 -0.015294 0.122618
    10 5.335510 -0.004100 0.000000 0.017278 0.002178 -0.126150
    11 5.172566 -0.004197 0.000000 -0.025941 -0.003308 -0.127539
    12 5.271970 -0.001935 0.000000 0.000024 0.043606 -0.205848
    13 -3.195452 -0.638012 2.393343 -0.266981 -1.427710 -2.670304
    14 6.063949 0.000000 0.000002 -0.735283 -0.144718 -0.671340
    15 7.685221 0.000000 0.000000 0.000000 0.000000 -1.169536
    16 10.246255 0.000000 -0.000003 -1.516737 0.060927 0.003137
    17 -2.879557 -0.617145 -2.552876 2.787559 1.118910 -0.122253
    18 6.269507 0.000000 -0.000001 0.855149 0.594630 -0.697745
    19 8.573802 0.000000 -0.000004 0.000000 0.000000 -1.147405
    20 9.913458 0.000000 0.000003 1.546044 0.240148 -0.257594
    21 2.452246 0.000000 0.000000 -0.429109 -0.021279 -0.184976
    22 0.946167 3.213873 -0.420090 -3.141592 -0.000002 1.413798
    23 1.827063 1.152534 -7.643625 -1.570796 -1.570460 0.000000
  time 13
    0 -2.311607 -32.870792 6.797128 1.190656 0.852682 -0.254169
    1 0.000000 0.000000 0.000000 -0.000025 -1.692897 -1.570793
    2 -0.000007 0.000008 4.427393 -1.102637 3.933417 0.309154
    3 18.301065 0.000000 0.000000 0.000000 0.000000 -1.345739
    4 17.106758 0.000000 0.000000 -0.407936 -0.613848 -0.304756
    5 0.000006 -0.000004 -4.427393 -0.609762 -2.254977 -0.537254
    6 18.133167 0.000000 0.000000 0.000000 0.000000 -1.661896
    7 17.375956 0.000000 0.000000 0.022079 -0.053075 0.509072
    8 2.239578 -0.002685 -0.273443 0.746022 -0.080009 0.218507
    9 3.373776 -0.004248 0.000000 -0.016494 -0.011744 0.331671
    10 5.335510 -0.004100 0.000000 0.017375 0.001351 -0.078476
    11 5.172566 -0.004197 0.000000 -0.025963 -0.003164 -0.122059
    12 5.271970 -0.001935 0.000000 0.000024 0.043606 -0.233878
    13 -3.179827 -0.723952 2.397249 -0.462047 -1.417025 -2.448148
    14 6.063949 0.000000 0.000002 -0.828491 0.269538 -0.690819
    15 7.685221 0.000000 0.000000 0.000000 0.000000 -1.212160
    16 10.246255 0.000000 -0.000003 -1.513636 -0.339605 -0.018502
    17 -2.863932 -0.703086 -2.552876 2.968648 0.971100 0.085937
    18 6.269507 0.000000 -0.000001 1.142511 0.724657 -0.062730
    19 8.573802 0.000000 -0.000004 0.000000 0.000000 -1.148939
    20 9.913458 0.000000 0.000003 1.545676 0.288805 -0.258772
    21 2.452246 0.000000 0.000000 -0.393213 0.185932 -0.174681
    22 0.946167 3.213873 -0.420090 -3.141592 -0.000002 1.413798
    23 1.827063 1.152534 -7.643625 -1.570796 -1.570460 0.000000
  time 14
    0 -2.311607 -34.649410 9.159454 1.190656 0.852682 -0.254169
    1 0.000000 0.000000 0.000000 -0.000025 -1.692897 -1.570793
    2 -0.000007 0.000008 4.427393 -0.829110 3.695830 -0.122337
    3 18.301065 0.000000 0.000000 0.000000 0.000000 -1.345739
    4 17.106758 0.000000 0.000000 -0.531356 -0.350646 0.616301
    5 0.000006 -0.000004 -4.427393 -0.544684 -2.381838 -0.651254
    6 18.133167 0.000000 0.000000 0.000000 0.000000 -1.655616
    7 17.375956 0.000000 0.000000 -0.108167 -0.008115 0.205288
    8 2.239578 -0.002685 -0.273443 0.746022 -0.080009 0.218507
    9 3.373776 -0.004248 0.000000 -0.016494 -0.011744 0.331671
    10 5.335510 -0.004100 0.000000 0.017375 0.001351 -0.078476
    11 5.172566 -0.004197 0.000000 -0.025963 -0.003164 -0.122059
    12 5.271970 -0.001935 0.000000 0.000024 0.043606 -0.251140
    13 -3.164201 -0.778641 2.397249 -0.458338 -1.417490 -2.434603
    14 6.063949 0.000000 0.000002 -1.261778 0.729313 -1.532326
    15 7.685221 0.000000 0.000000 0.000000 0.000000 -1.212160
    16 10.246255 0.000000 -0.000003 -1.513636 -0.339605 -0.018502
    17 -2.848306 -0.753868 -2.552876 2.967308 0.971174 0.102106
    18 6.269507 0.000000 -0.000001 0.913536 0.790658 -0.594703
    19 8.573802 0.000000 -0.000004 0.000000 0.000000 -0.905742
    20 9.913458 0.000000 0.000003 1.545676 0.288805 -0.258772
    21 2.452246 0.000000 0.000000 -0.048913 0.367015 0.165506
    22 0.946167 3.213873 -0.420090 -3.141592 -0.000002 1.413798
    23 1.827063 1.152534 -7.643625 -1.570796 -1.570460 0.000000
  time 15
    0 -2.311607 -35.919851 8.053684 1.190656 0.852682 -0.254169
    1 0.000000 0.000000 0.000000 -0.000025 -1.692897 -1.570793
    2 -0.000007 0.000008 4.427393 -0.901303 3.739916 -0.219257
    3 18.301065 0.000000 0.000000 0.000000 0.000000 -1.345739
    4 17.106758 0.000000 0.000000 -0.463337 -0.238905 0.510063
    5 0.000006 -0.000004 -4.427393 -0.532320 -2.336749 -0.608850
    6 18.133167 0.000000 0.000000 0.000000 0.000000 -1.780462
    7 17.375956 0.000000 0.000000 -0.030088 -0.076437 -0.105507
    8 2.239578 -0.002685 -0.273443 0.746022 -0.080009 0.218507
    9 3.373776 -0.004248 0.000000 -0.016494 -0.011744 0.331671
    10 5.335510 -0.004100 0.000000 0.017375 0.001351 -0.078476
    11 5.172566 -0.004197 0.000000 -0.025963 -0.003164 -0.122059
    12 5.271970 -0.001935 0.000000 0.000024 0.043606 -0.263741
    13 -3.156389 -0.817705 2.397249 -0.455580 -1.417847 -2.424683
    14 6.063949 0.000000 0.000002 -1.103488 0.812738 -1.791057
    15 7.685221 0.000000 0.000000 0.000000 0.000000 -1.212160
    16 10.246255 0.000000 -0.000003 -1.513636 -0.339605 -0.018502
    17 -2.840494 -0.789026 -2.552876 2.966350 0.971247 0.113874
    18 6.269507 0.000000 -0.000001 0.724183 0.515091 -1.301448
    19 8.573802 0.000000 -0.000004 0.000000 0.000000 -0.533084
    20 9.913458 0.000000 0.000003 1.545676 0.288805 -0.258772
    21 2.452246 0.000000 0.000000 0.293283 0.426483 0.514006
    22 0.946167 3.213873 -0.420090 -3.141592 -0.000002 1.413798
    23 1.827063 1.152534 -7.643625 -1.570796 -1.570460 0.000000
  time 16
    0 -2.311607 -36.984602 6.730112 1.190656 0.852682 -0.254169
    1 0.000000 0.000000 0.000000 -0.000025 -1.692897 -1.570793
    2 -0.000007 0.000008 4.427393 -0.978481 3.807579 -0.257123
    3 18.301065 0.000000 0.000000 0.000000 0.000000 -1.345739
    4 17.106758 0.000000 0.000000 -0.386599 -0.171932 0.421658
    5 0.000006 -0.000004 -4.427393 -0.530882 -2.286692 -0.561803
    6 18.133167 0.000000 0.000000 0.000000 0.000000 -1.882396
    7 17.375956 0.000000 0.000000 0.065036 -0.075627 -0.330551
    8 2.239578 -0.002685 -0.273443 0.746022 -0.080009 0.218507
    9 3.373776 -0.004248 0.000000 -0.016494 -0.011744 0.331671
    10 5.335510 -0.004100 0.000000 0.017375 0.001351 -0.078476
    11 5.172566 -0.004197 0.000000 -0.025963 -0.003164 -0.122059
    12 5.271970 -0.001935 0.000000 0.000024 0.043606 -0.275249
    13 -3.144670 -0.852862 2.397249 -0.453107 -1.418205 -2.415621
    14 6.063949 0.000000 0.000002 -0.889799 0.871601 -1.871190
    15 7.685221 0.000000 0.000000 0.000000 0.000000 -1.212160
    16 10.246255 0.000000 -0.000003 -1.513636 -0.339605 -0.018502
    17 -2.832681 -0.824183 -2.552876 2.965489 0.971283 0.124685
    18 6.269507 0.000000 -0.000001 0.755329 0.269140 -1.717894
    19 8.573802 0.000000 -0.000004 0.000000 0.000000 -0.259285
    20 9.913458 0.000000 0.000003 1.545676 0.288805 -0.258772
    21 2.452246 0.000000 0.000000 0.547908 0.398791 0.767446
    22 0.946167 3.213873 -0.420090 -3.141592 -0.000002 1.413798
    23 1.827063 1.152534 -7.643625 -1.570796 -1.570460 0.000000
end
