version 1
nodes
  0 "Bip01" -1
  1 "Bip01 Pelvis" 0
  2 "Bip01 L Leg" 1
  3 "Bip01 L Leg1" 2
  4 "Bip01 L Foot" 3
  5 "Bip01 R Leg" 1
  6 "Bip01 R Leg1" 5
  7 "Bip01 R Foot" 6
  8 "Bip01 Spine" 1
  9 "Bip01 Spine1" 8
  10 "Bip01 Spine2" 9
  11 "Bip01 Spine3" 10
  12 "Bip01 Neck" 11
  13 "Bip01 L Arm" 12
  14 "Bip01 L Arm1" 13
  15 "Bip01 L Arm2" 14
  16 "Bip01 L Hand" 15
  17 "Bip01 R Arm" 12
  18 "Bip01 R Arm1" 17
  19 "Bip01 R Arm2" 18
  20 "Bip01 R Hand" 19
  21 "Bip01 Head" 12
  22 "Bone05" 21
  23 "Bone03" 1
end
skeleton
  time 0
    0 1.727579 6.791176 40.724147 0.000000 0.000000 -1.701715
    1 0.343760 -0.082034 0.000000 -1.570795 -1.570796 0.000000
    2 -0.000007 0.000008 4.427393 -0.170749 3.132003 0.002288
    3 18.301065 0.000000 0.000000 0.000000 0.000000 -0.394448
    4 17.106758 0.000000 0.000000 -0.011262 0.014437 0.380092
    5 0.000006 -0.000004 -4.427393 0.110606 -3.170995 -0.317377
    6 18.133167 0.000000 0.000000 0.000000 0.000000 -0.271398
    7 17.375956 0.000000 0.000000 -0.030691 -0.007276 -0.047900
    8 2.255203 -0.002685 0.000003 0.139544 -0.000099 0.000796
    9 3.373776 -0.004248 0.000000 -0.017436 -0.017422 0.000302
    10 5.335510 -0.004100 0.000000 0.017407 0.000438 -0.026150
    11 5.172566 -0.004197 0.000000 -0.026157 -0.000431 -0.017444
    12 5.271970 -0.001935 0.000000 0.000024 0.043606 0.335253
    13 -3.089980 1.041727 2.401156 -0.875956 -1.358599 -2.606395
    14 6.063949 0.000000 0.000002 0.688690 1.101734 0.397655
    15 7.685221 0.000000 0.000000 0.000000 0.000000 -0.470457
    16 10.246255 0.000000 -0.000003 -1.516737 0.060927 0.003137
    17 -2.774085 1.007904 -2.548969 1.160442 1.415262 -2.327861
    18 6.269507 0.000000 -0.000001 -0.534422 -1.198292 0.213636
    19 8.573802 0.000000 -0.000004 0.000000 0.000000 -0.234206
    20 9.913458 0.000000 0.000003 1.546560 0.097060 -0.254240
    21 2.452246 0.000000 0.000000 0.000855 -0.008359 -0.101243
    22 0.946167 3.213873 -0.420090 -3.141592 -0.000002 1.413798
    23 1.827063 1.152534 -7.643625 -1.570796 -1.570796 0.000000
  time 1
    0 1.379912 6.706480 40.673885 0.000479 -0.000651 -1.731533
    1 0.328135 0.011719 0.000000 -0.000025 -1.553286 -1.570793
    2 -0.000007 0.000008 4.427393 -0.171037 3.121173 -0.026184
    3 18.301065 0.000000 0.000000 0.000000 0.000000 -0.473255
    4 17.106758 0.000000 0.000000 -0.041758 0.010269 0.393858
    5 0.000006 -0.000004 -4.427393 0.105909 -3.178351 -0.340855
    6 18.133167 0.000000 0.000000 0.000000 0.000000 -0.317982
    7 17.375956 0.000000 0.000000 -0.058324 -0.019536 -0.024074
    8 2.255203 -0.002685 0.039067 0.139482 -0.010443 0.001763
    9 3.373776 -0.004248 0.000000 -0.031469 -0.012571 0.000377
    10 5.335510 -0.004100 0.000000 0.010425 0.005099 -0.026109
    11 5.172566 -0.004197 0.000000 -0.030491 0.004326 -0.017583
    12 5.271970 -0.001935 0.000000 0.052852 0.038426 0.098118
    13 -3.234516 0.440146 2.389437 -0.654070 -1.417597 -2.586077
    14 6.063949 0.000000 0.000002 0.528549 1.172060 0.268709
    15 7.685221 0.000000 0.000000 0.000000 0.000000 -0.515268
    16 10.246255 0.000000 -0.000003 -1.516737 0.060927 0.003137
    17 -2.942059 0.171941 -2.552876 1.703421 1.363294 -1.541217
    18 6.269507 0.000000 -0.000001 -1.152961 -1.111702 0.806924
    19 8.573802 0.000000 -0.000004 0.000000 0.000000 -0.578870
    20 9.913458 0.000000 0.000003 1.599187 0.133171 -0.131063
    21 2.452246 0.000000 0.000000 -0.013412 -0.022300 0.104860
    22 0.946167 3.213873 -0.420090 -3.141592 -0.000002 1.413798
    23 1.827063 1.152534 -7.643625 -1.570796 -1.570796 0.000000
  time 2
    0 0.571294 6.452392 40.606868 0.001630 -0.002045 -1.778129
    1 0.312510 0.148442 0.000000 -0.000025 -1.531398 -1.570793
    2 -0.000007 0.000008 4.427393 -0.166531 3.095871 0.055494
    3 18.301065 0.000000 0.000000 0.000000 0.000000 -0.330122
    4 17.106758 0.000000 0.000000 -0.089434 -0.000392 0.364852
    5 0.000006 -0.000004 -4.427393 0.102459 -3.177205 -0.364870
    6 18.133167 0.000000 0.000000 0.000000 0.000000 -0.379957
    7 17.375956 0.000000 0.000000 -0.101280 -0.045210 0.015245
    8 2.255203 -0.002685 0.085943 0.139420 -0.022601 0.003143
    9 3.373776 -0.004248 0.000000 -0.050151 -0.006006 0.000302
    10 5.335510 -0.004100 0.000000 0.001062 0.011415 -0.026150
    11 5.172566 -0.004197 0.000000 -0.036097 0.010774 -0.017830
    12 5.271970 -0.001935 0.000000 0.127912 -0.024736 0.490129
    13 -2.722782 1.807375 2.389437 -0.088178 -1.478346 -3.543571
    14 6.063949 0.000000 0.000002 0.192671 1.245905 -0.019661
    15 7.685221 0.000000 0.000000 0.000000 0.000000 -0.580563
    16 10.246255 0.000000 -0.000003 -1.516737 0.060927 0.003137
    17 -2.754553 1.125095 -2.521625 -1.111874 1.885536 -4.734483
    18 6.269507 0.000000 -0.000001 -1.584434 -0.839614 1.176815
    19 8.573802 0.000000 -0.000004 0.000000 0.000000 -1.058747
    20 9.913458 0.000000 0.000003 1.681075 0.172588 0.047313
    21 2.452246 0.000000 0.000000 -0.018277 -0.032573 -0.117653
    22 0.946167 3.213873 -0.420090 -3.141592 -0.000002 1.413798
    23 1.827063 1.152534 -7.643625 -1.570796 -1.570796 0.000000
  time 3
    0 -0.420924 6.428193 40.523098 0.002493 -0.002881 -1.826259
    1 0.296884 0.304697 0.000000 -0.000025 -1.504326 -1.570793
    2 -0.000007 0.000008 4.427393 -0.161162 3.078428 0.085787
    3 18.301065 0.000000 0.000000 0.000000 0.000000 -0.292064
    4 17.106758 0.000000 0.000000 -0.140016 -0.016143 0.353902
    5 0.000006 -0.000004 -4.427393 0.097954 -3.174052 -0.387545
    6 18.133167 0.000000 0.000000 0.000000 0.000000 -0.431856
    7 17.375956 0.000000 0.000000 -0.143978 -0.076639 0.046690
    8 2.251297 -0.002685 0.148445 0.139296 -0.038191 0.004754
    9 3.373776 -0.004248 0.000000 -0.072416 0.001714 -0.000101
    10 5.335510 -0.004100 0.000000 -0.010039 0.018850 -0.026355
    11 5.172566 -0.004197 0.000000 -0.042912 0.018372 -0.018247
    12 5.271970 -0.001935 0.000000 0.197206 -0.080102 0.556124
    13 -2.472774 2.174574 2.358186 0.969896 -1.463909 -4.673047
    14 6.063949 0.000000 0.000002 -0.345004 1.267109 -0.491901
    15 7.685221 0.000000 0.000000 0.000000 0.000000 -0.659844
    16 10.246255 0.000000 -0.000003 -1.516737 0.060927 0.003137
    17 -2.777992 1.148533 -2.482561 -1.063826 1.992804 -4.740702
    18 6.269507 0.000000 -0.000001 -1.731116 -0.583509 1.255718
    19 8.573802 0.000000 -0.000004 0.000000 0.000000 -1.452726
    20 9.913458 0.000000 0.000003 1.771661 0.197256 0.234390
    21 2.452246 0.000000 0.000000 -0.024194 -0.049482 -0.218831
    22 0.946167 3.213873 -0.420090 -3.141592 -0.000002 1.413798
    23 1.827063 1.152534 -7.643625 -1.570796 -1.570796 0.000000
  time 4
    0 -1.155321 7.638137 40.338803 0.002013 -0.002231 -1.861542
    1 0.281259 0.480483 0.000000 -0.000025 -1.469579 -1.570793
    2 -0.000007 0.000008 4.427393 -0.161258 3.067023 0.030089
    3 18.301065 0.000000 0.000000 0.000000 0.000000 -0.360175
    4 17.106758 0.000000 0.000000 -0.177466 -0.030411 0.363869
    5 0.000006 -0.000004 -4.427393 0.089424 -3.174243 -0.423521
    6 18.133167 0.000000 0.000000 0.000000 0.000000 -0.441932
    7 17.375956 0.000000 0.000000 -0.171525 -0.110785 0.024236
    8 2.247390 -0.002685 0.226572 0.138987 -0.060301 0.006549
    9 3.373776 -0.004248 0.000000 -0.097810 0.010200 -0.000980
    10 5.335510 -0.004100 0.000000 -0.022716 0.027028 -0.026786
    11 5.172566 -0.004197 0.000000 -0.051300 0.026726 -0.018834
    12 5.271970 -0.001935 0.000000 0.254852 -0.123761 0.572550
    13 -2.320426 2.373799 2.315216 1.419470 -1.397050 -5.149219
    14 6.063949 0.000000 0.000002 -0.860747 1.196457 -0.921744
    15 7.685221 0.000000 0.000000 0.000000 0.000000 -0.749134
    16 10.246255 0.000000 -0.000003 -1.516737 0.060927 0.003137
    17 -2.844400 1.074312 -2.439591 -1.354793 2.019026 -5.074705
    18 6.269507 0.000000 -0.000001 -1.621581 -0.573073 1.187712
    19 8.573802 0.000000 -0.000004 0.000000 0.000000 -1.476041
    20 9.913458 0.000000 0.000003 1.857308 0.206750 0.403521
    21 2.452246 0.000000 0.000000 -0.018211 -0.078546 -0.284301
    22 0.946167 3.213873 -0.420090 -3.141592 -0.000002 1.413798
    23 1.827063 1.152534 -7.643625 -1.570796 -1.570796 0.000000
  time 5
    0 -1.588928 8.884379 40.154508 0.000000 0.000000 -1.876115
    1 0.277352 0.628925 0.000000 -0.000025 -1.431245 -1.570793
    2 -0.000007 0.000008 4.427393 -0.164326 3.051497 -0.030018
    3 18.301065 0.000000 0.000000 0.000000 0.000000 -0.421663
    4 17.106758 0.000000 0.000000 -0.193799 -0.041954 0.365209
    5 0.000006 -0.000004 -4.427393 0.076102 -3.184942 -0.461462
    6 18.133167 0.000000 0.000000 0.000000 0.000000 -0.447867
    7 17.375956 0.000000 0.000000 -0.179015 -0.134841 -0.003754
    8 2.235671 -0.002685 0.312513 0.138616 -0.087829 0.008068
    9 3.373776 -0.004248 0.000000 -0.122111 0.017409 -0.002111
    10 5.335510 -0.004100 0.000000 -0.034846 0.033977 -0.027360
    11 5.172566 -0.004197 0.000000 -0.061047 0.033797 -0.019528
    12 5.271970 -0.001935 0.000000 0.289943 -0.151800 0.581068
    13 -2.226673 2.490990 2.283965 1.601697 -1.342412 -5.350676
    14 6.063949 0.000000 0.000002 -1.161378 1.062274 -1.125628
    15 7.685221 0.000000 0.000000 0.000000 0.000000 -0.835044
    16 10.246255 0.000000 -0.000003 -1.516737 0.060927 0.003137
    17 -2.891276 1.031342 -2.412246 1.449973 1.085950 -2.324130
    18 6.269507 0.000000 -0.000001 -1.427466 -0.677997 1.034597
    19 8.573802 0.000000 -0.000004 0.000000 0.000000 -1.320888
    20 9.913458 0.000000 0.000003 1.922538 0.200985 0.537937
    21 2.452246 0.000000 0.000000 0.000131 -0.108950 -0.321085
    22 0.946167 3.213873 -0.420090 -3.141592 -0.000002 1.413798
    23 1.827063 1.152534 -7.643625 -1.570796 -1.570796 0.000000
  time 6
    0 -1.635805 9.090070 40.003721 -0.003260 0.003625 -1.874773
    1 0.562517 0.632832 0.000000 -0.000025 -1.367846 -1.570793
    2 -0.000007 0.000008 4.427393 -0.162696 2.993035 -0.015447
    3 18.301065 0.000000 0.000000 0.000000 0.000000 -0.388117
    4 17.106758 0.000000 0.000000 -0.193578 -0.046523 0.349611
    5 0.000006 -0.000004 -4.427393 0.042748 -3.237483 -0.515114
    6 18.133167 0.000000 0.000000 0.000000 0.000000 -0.546143
    7 17.375956 0.000000 0.000000 -0.175227 -0.137039 0.046487
    8 2.212233 -0.002685 0.453142 0.124272 -0.149257 -0.007857
    9 3.373776 -0.004248 0.000000 -0.147232 0.014723 -0.020353
    10 5.335510 -0.004100 0.000000 -0.048842 0.032723 -0.045806
    11 5.172566 -0.004197 0.000000 -0.078556 0.033473 -0.020130
    12 5.271970 -0.001935 0.000000 0.292064 -0.193265 0.568467
    13 -2.125107 2.490990 2.377718 1.739223 -1.314360 -5.484218
    14 6.063949 0.000000 0.000002 -1.164226 0.996615 -1.059704
    15 7.685221 0.000000 0.000000 0.000000 0.000000 -0.804750
    16 10.246255 0.000000 -0.000003 -1.516737 0.060927 0.003137
    17 -2.992842 1.031342 -2.283336 1.389100 1.047825 -2.377612
    18 6.269507 0.000000 -0.000001 -1.455278 -0.754433 0.976868
    19 8.573802 0.000000 -0.000004 0.000000 0.000000 -1.236678
    20 9.913458 0.000000 0.000003 1.942808 0.175725 0.610266
    21 2.452246 0.000000 0.000000 0.066730 -0.073027 -0.279046
    22 0.946167 3.213873 -0.420090 -3.141592 -0.000002 1.413798
    23 1.827063 1.152534 -7.643625 -1.570796 -1.570796 0.000000
  time 7
    0 -1.588928 9.259462 39.970213 -0.007095 0.007900 -1.866719
    1 0.867214 0.628925 0.000000 -0.000025 -1.309128 -1.570793
    2 -0.000007 0.000008 4.427393 -0.156176 2.935530 0.015614
    3 18.301065 0.000000 0.000000 0.000000 0.000000 -0.318406
    4 17.106758 0.000000 0.000000 -0.186773 -0.049329 0.314705
    5 0.000006 -0.000004 -4.427393 0.007477 -3.286966 -0.551180
    6 18.133167 0.000000 0.000000 0.000000 0.000000 -0.606807
    7 17.375956 0.000000 0.000000 -0.165499 -0.133887 0.078643
    8 2.180982 -0.002685 0.582052 0.112277 -0.205930 -0.028984
    9 3.373776 -0.004248 0.000000 -0.156892 0.011890 -0.037187
    10 5.335510 -0.004100 0.000000 -0.052220 0.031689 -0.062777
    11 5.172566 -0.004197 0.000000 -0.095936 0.033125 -0.020702
    12 5.271970 -0.001935 0.000000 0.295864 -0.249635 0.550980
    13 -1.984478 2.490990 2.498815 1.882360 -1.270371 -5.621861
    14 6.063949 0.000000 0.000002 -1.129336 0.987527 -0.996759
    15 7.685221 0.000000 0.000000 0.000000 0.000000 -0.695242
    16 10.246255 0.000000 -0.000003 -1.516737 0.060927 0.003137
    17 -3.117846 1.031342 -2.103643 1.317890 0.994759 -2.438079
    18 6.269507 0.000000 -0.000001 -1.480804 -0.755844 0.936865
    19 8.573802 0.000000 -0.000004 0.000000 0.000000 -1.230235
    20 9.913458 0.000000 0.000003 1.940596 0.163942 0.637458
    21 2.452246 0.000000 0.000000 0.099733 -0.017738 -0.224387
    22 0.946167 3.213873 -0.420090 -3.141592 -0.000002 1.413798
    23 1.827063 1.152534 -7.643625 -1.570796 -1.570796 0.000000
  time 8
    0 -0.182635 8.593993 40.338803 -0.011025 0.012362 -1.855693
    1 0.652364 0.660176 0.000000 -0.000025 -1.453680 -1.570793
    2 -0.000007 0.000008 4.427393 -0.169119 3.044596 -0.030402
    3 18.301065 0.000000 0.000000 0.000000 0.000000 -0.405800
    4 17.106758 0.000000 0.000000 -0.169667 -0.003438 0.367846
    5 0.000006 -0.000004 -4.427393 0.075431 -3.198603 -0.451820
    6 18.133167 0.000000 0.000000 0.000000 0.000000 -0.419709
    7 17.375956 0.000000 0.000000 -0.164552 -0.086903 -0.013305
    8 2.243484 -0.002685 0.261730 0.132310 -0.060792 -0.027051
    9 3.373776 -0.004248 0.000000 -0.134656 0.015865 -0.013593
    10 5.335510 -0.004100 0.000000 -0.022973 0.034001 -0.039514
    11 5.172566 -0.004197 0.000000 -0.095936 0.033125 -0.020702
    12 5.271970 -0.001935 0.000000 0.299375 -0.291338 0.537704
    13 -1.871193 2.490990 2.580849 1.688055 -1.259222 -5.408576
    14 6.063949 0.000000 0.000002 -1.047805 0.881098 -0.995842
    15 7.685221 0.000000 0.000000 0.000000 0.000000 -0.757686
    16 10.246255 0.000000 -0.000003 -1.516737 0.060927 0.003137
    17 -3.203786 1.031342 -1.966920 1.557555 0.992195 -2.131439
    18 6.269507 0.000000 -0.000001 -1.679206 -0.329566 1.042874
    19 8.573802 0.000000 -0.000004 0.000000 0.000000 -1.840262
    20 9.913458 0.000000 0.000003 1.903522 0.288127 0.504492
    21 2.452246 0.000000 0.000000 0.002630 0.030500 -0.264445
    22 0.946167 3.213873 -0.420090 -3.141592 -0.000002 1.413798
    23 1.827063 1.152534 -7.643625 -1.570796 -1.570796 0.000000
  time 9
    0 1.004901 7.541341 40.623622 -0.015052 0.017102 -1.842366
    1 0.398450 0.664083 0.000000 -0.000025 -1.466144 -1.570793
    2 -0.000007 0.000008 4.427393 -0.168065 3.013928 0.025392
    3 18.301065 0.000000 0.000000 0.000000 0.000000 -0.299341
    4 17.106758 0.000000 0.000000 -0.151236 0.033155 0.328739
    5 0.000006 -0.000004 -4.427393 0.075527 -3.225542 -0.417451
    6 18.133167 0.000000 0.000000 0.000000 0.000000 -0.368362
    7 17.375956 0.000000 0.000000 -0.160937 -0.042146 -0.028900
    8 2.243484 -0.002685 0.234385 0.142450 -0.048045 -0.026452
    9 3.373776 -0.004248 0.000000 -0.104645 0.019245 0.015503
    10 5.335510 -0.004100 0.000000 0.000000 0.034877 -0.008708
    11 5.172566 -0.004197 0.000000 -0.095936 0.033125 -0.020702
    12 5.271970 -0.001935 0.000000 0.300382 -0.302041 0.534233
    13 -1.843849 2.490990 2.600381 1.319227 -1.244749 -5.017490
    14 6.063949 0.000000 0.000002 -0.916501 0.774505 -0.939849
    15 7.685221 0.000000 0.000000 0.000000 0.000000 -0.845982
    16 10.246255 0.000000 -0.000003 -1.516737 0.060927 0.003137
    17 -3.227224 1.031342 -1.931763 -1.399012 2.165004 -5.044567
    18 6.269507 0.000000 -0.000001 -1.521952 -0.299293 0.884171
    19 8.573802 0.000000 -0.000004 0.000000 0.000000 -2.108999
    20 9.913458 0.000000 0.000003 1.952684 0.131730 0.719395
    21 2.452246 0.000000 0.000000 -0.086782 0.039560 -0.319621
    22 0.946167 3.213873 -0.420090 -3.141592 -0.000002 1.413798
    23 1.827063 1.152534 -7.643625 -1.570796 -1.570796 0.000000
  time 10
    0 1.266628 6.512889 40.657131 -0.019271 0.022307 -1.826355
    1 0.093753 0.605487 0.000000 -0.000025 -1.477605 -1.570793
    2 -0.000007 0.000008 4.427393 -0.165189 3.015940 0.055781
    3 18.301065 0.000000 0.000000 0.000000 0.000000 -0.259464
    4 17.106758 0.000000 0.000000 -0.134314 0.041010 0.326057
    5 0.000006 -0.000004 -4.427393 0.078498 -3.228503 -0.410309
    6 18.133167 0.000000 0.000000 0.000000 0.000000 -0.382994
    7 17.375956 0.000000 0.000000 -0.148368 -0.023757 -0.003704
    8 2.247390 -0.002685 0.207041 0.127487 -0.039294 -0.008870
    9 3.373776 -0.004248 0.000000 -0.085660 0.020291 0.031660
    10 5.335510 -0.004100 0.000000 0.000000 0.022562 0.010230
    11 5.172566 -0.004197 0.000000 -0.077478 0.035630 0.007536
    12 5.271970 -0.001935 0.000000 0.257669 -0.259255 0.559049
    13 -1.941508 2.420675 2.600381 0.968850 -1.201225 -4.661124
    14 6.063949 0.000000 0.000002 -0.822866 0.663082 -0.770340
    15 7.685221 0.000000 0.000000 0.000000 0.000000 -0.770811
    16 10.246255 0.000000 -0.000003 -1.574805 -0.005798 -0.009795
    17 -3.121752 1.136814 -2.045048 -1.293919 2.045211 -4.973576
    18 6.269507 0.000000 -0.000001 -1.438705 -0.861332 0.955763
    19 8.573802 0.000000 -0.000004 0.000000 0.000000 -1.795243
    20 9.913458 0.000000 0.000003 1.916642 0.203020 0.591686
    21 2.452246 0.000000 0.000000 -0.094737 0.001818 -0.409341
    22 0.946167 3.213873 -0.420090 -3.141592 -0.000002 1.413798
    23 1.827063 1.152534 -7.643625 -1.570796 -1.570796 0.000000
  time 11
    0 1.325223 5.399740 40.623622 -0.023873 0.028255 -1.806700
    1 -0.226569 0.539079 0.000000 -0.000025 -1.489187 -1.570793
    2 -0.000007 0.000008 4.427393 -0.161929 3.026195 0.085308
    3 18.301065 0.000000 0.000000 0.000000 0.000000 -0.226428
    4 17.106758 0.000000 0.000000 -0.115112 0.041491 0.328962
    5 0.000006 -0.000004 -4.427393 0.082331 -3.225828 -0.405667
    6 18.133167 0.000000 0.000000 0.000000 0.000000 -0.409702
    7 17.375956 0.000000 0.000000 -0.130635 -0.010399 0.031958
    8 2.251297 -0.002685 0.179696 0.107640 -0.030249 0.011797
    9 3.373776 -0.004248 0.000000 -0.067252 0.020680 0.046761
    10 5.335510 -0.004100 0.000000 0.000000 0.008020 0.028615
    11 5.172566 -0.004197 0.000000 -0.055591 0.037260 0.040993
    12 5.271970 -0.001935 0.000000 0.202935 -0.189142 0.589940
    13 -2.101669 2.323016 2.561317 0.937940 -1.243856 -4.658072
    14 6.063949 0.000000 0.000002 -1.007004 0.551658 -1.053822
    15 7.685221 0.000000 0.000000 0.000000 0.000000 -0.644597
    16 10.246255 0.000000 -0.000003 -1.629940 -0.070562 -0.018694
    17 -2.949872 1.281350 -2.213022 -1.072249 1.905165 -4.792941
    18 6.269507 0.000000 -0.000001 -0.774542 -1.464081 0.441240
    19 8.573802 0.000000 -0.000004 0.000000 0.000000 -1.430484
    20 9.913458 0.000000 0.000003 1.860330 0.286431 0.428628
    21 2.452246 0.000000 0.000000 -0.080273 -0.048333 -0.510992
    22 0.946167 3.213873 -0.420090 -3.141592 -0.000002 1.413798
    23 1.827063 1.152534 -7.643625 -1.570796 -1.570796 0.000000
  time 12
    0 1.293972 4.359188 40.590114 -0.028666 0.034855 -1.783019
    1 -0.515641 0.484390 0.000000 -0.000025 -1.498733 -1.570793
    2 -0.000007 0.000008 4.427393 -0.158765 3.039038 0.115314
    3 18.301065 0.000000 0.000000 0.000000 0.000000 -0.190553
    4 17.106758 0.000000 0.000000 -0.092966 0.037603 0.329409
    5 0.000006 -0.000004 -4.427393 0.085782 -3.221625 -0.400668
    6 18.133167 0.000000 0.000000 0.000000 0.000000 -0.435858
    7 17.375956 0.000000 0.000000 -0.108081 -0.000048 0.068382
    8 2.251297 -0.002685 0.160164 0.088906 -0.022307 0.030990
    9 3.373776 -0.004248 0.000000 -0.051335 0.020570 0.059600
    10 5.335510 -0.004100 0.000000 0.000000 -0.005428 0.044499
    11 5.172566 -0.004197 0.000000 -0.035343 0.037488 0.071994
    12 5.271970 -0.001935 0.000000 0.148189 -0.108406 0.616525
    13 -2.289175 2.221450 2.494909 0.939176 -1.305069 -4.688882
    14 6.063949 0.000000 0.000002 -1.150768 0.384400 -1.324623
    15 7.685221 0.000000 0.000000 0.000000 0.000000 -0.509435
    16 10.246255 0.000000 -0.000003 -1.685160 -0.136128 -0.024008
    17 -2.738928 1.429792 -2.384902 2.520712 1.339013 -1.233429
    18 6.269507 0.000000 -0.000001 1.488928 -1.106437 -1.707549
    19 8.573802 0.000000 -0.000004 0.000000 0.000000 -1.118415
    20 9.913458 0.000000 0.000003 1.799448 0.351279 0.279890
    21 2.452246 0.000000 0.000000 -0.049045 -0.092647 -0.607216
    22 0.946167 3.213873 -0.420090 -3.141592 -0.000002 1.413798
    23 1.827063 1.152534 -7.643625 -1.570796 -1.570796 0.000000
  time 13
    0 1.262721 3.475929 40.556606 -0.032693 0.041175 -1.757707
    1 -0.761742 0.441420 0.000000 -0.000025 -1.506470 -1.570793
    2 -0.000007 0.000008 4.427393 -0.160491 3.064052 0.085116
    3 18.301065 0.000000 0.000000 0.000000 0.000000 -0.269433
    4 17.106758 0.000000 0.000000 -0.057135 0.028145 0.363913
    5 0.000006 -0.000004 -4.427393 0.088753 -3.217613 -0.394954
    6 18.133167 0.000000 0.000000 0.000000 0.000000 -0.455044
    7 17.375956 0.000000 0.000000 -0.083288 0.008250 0.098608
    8 2.251297 -0.002685 0.144539 0.072521 -0.015395 0.047744
    9 3.373776 -0.004248 0.000000 -0.037848 0.020157 0.070405
    10 5.335510 -0.004100 0.000000 0.000000 -0.017171 0.057986
    11 5.172566 -0.004197 0.000000 -0.017725 0.036673 0.099059
    12 5.271970 -0.001935 0.000000 0.098597 -0.028145 0.635458
    13 -2.468868 2.123791 2.405062 0.997858 -1.366425 -4.772059
    14 6.063949 0.000000 0.000002 -1.226175 0.175880 -1.546381
    15 7.685221 0.000000 0.000000 0.000000 0.000000 -0.362672
    16 10.246255 0.000000 -0.000003 -1.745490 -0.207492 -0.025672
    17 -2.524078 1.574328 -2.521625 3.185533 1.356702 -0.592690
    18 6.269507 0.000000 -0.000001 -1.566813 -2.478817 1.434146
    19 8.573802 0.000000 -0.000004 0.000000 0.000000 -0.861259
    20 9.913458 0.000000 0.000003 1.740483 0.397986 0.151003
    21 2.452246 0.000000 0.000000 -0.009993 -0.124455 -0.693491
    22 0.946167 3.213873 -0.420090 -3.141592 -0.000002 1.413798
    23 1.827063 1.152534 -7.643625 -1.570796 -1.570796 0.000000
  time 14
    0 1.266628 2.870957 40.506344 -0.034898 0.048518 -1.698935
    1 -0.972686 0.406262 0.000000 -0.000025 -1.513066 -1.570793
    2 -0.000007 0.000008 4.427393 -0.160970 3.088587 0.056261
    3 18.301065 0.000000 0.000000 0.000000 0.000000 -0.339581
    4 17.106758 0.000000 0.000000 -0.015493 0.017684 0.394752
    5 0.000006 -0.000004 -4.427393 0.090382 -3.217517 -0.389955
    6 18.133167 0.000000 0.000000 0.000000 0.000000 -0.469882
    7 17.375956 0.000000 0.000000 -0.025439 0.017791 0.124719
    8 2.255203 -0.002685 0.128913 0.058672 -0.009046 0.062105
    9 3.373776 -0.004248 0.000000 -0.026397 0.019574 0.079576
    10 5.335510 -0.004100 0.000000 0.000000 -0.027211 0.069463
    11 5.172566 -0.004197 0.000000 -0.002717 0.035223 0.122202
    12 5.271970 -0.001935 0.000000 0.057166 0.042337 0.646837
    13 -2.625122 2.041757 2.311309 1.200722 -1.418205 -4.993834
    14 6.063949 0.000000 0.000002 -1.237711 -0.049259 -1.733154
    15 7.685221 0.000000 0.000000 0.000000 0.000000 -0.210341
    16 10.246255 0.000000 -0.000003 -1.809089 -0.281622 -0.022663
    17 -2.332666 1.695425 -2.627097 3.662278 1.301365 -0.131629
    18 6.269507 0.000000 -0.000001 -1.538144 -2.860718 1.471390
    19 8.573802 0.000000 -0.000004 0.000000 0.000000 -0.641606
    20 9.913458 0.000000 0.000003 1.684392 0.431978 0.036708
    21 2.452246 0.000000 0.000000 0.027875 -0.142608 -0.767576
    22 0.946167 3.213873 -0.420090 -3.141592 -0.000002 1.413798
    23 1.827063 1.152534 -7.643625 -1.570796 -1.570796 0.000000
  time 15
    0 1.278347 2.653167 40.489590 -0.032789 0.051678 -1.633643
    1 -1.136753 0.382824 0.000000 -0.000025 -1.518462 -1.570793
    2 -0.000007 0.000008 4.427393 -0.157327 3.102771 0.096524
    3 18.301065 0.000000 0.000000 0.000000 0.000000 -0.233704
    4 17.106758 0.000000 0.000000 0.046567 0.001973 0.365075
    5 0.000006 -0.000004 -4.427393 0.091053 -3.220192 -0.385848
    6 18.133167 0.000000 0.000000 0.000000 0.000000 -0.478716
    7 17.375956 0.000000 0.000000 0.038694 0.024123 0.140010
    8 2.255203 -0.002685 0.117194 0.048470 -0.003604 0.073105
    9 3.373776 -0.004248 0.000000 -0.017345 0.018966 0.086888
    10 5.335510 -0.004100 0.000000 0.000000 -0.034877 0.078502
    11 5.172566 -0.004197 0.000000 0.008669 0.033665 0.139848
    12 5.271970 -0.001935 0.000000 0.027972 0.092206 0.652141
    13 -2.734501 1.983162 2.237088 1.321224 -1.453153 -5.124704
    14 6.063949 0.000000 0.000002 -1.293038 0.162290 -1.781356
    15 7.685221 0.000000 0.000000 0.000000 0.000000 -0.640620
    16 10.246255 0.000000 -0.000003 -1.933269 0.023996 -0.047439
    17 -2.192036 1.781365 -2.689599 -2.395860 1.236030 0.084789
    18 6.269507 0.000000 -0.000001 -1.526428 -3.167874 1.507944
    19 8.573802 0.000000 -0.000004 0.000000 0.000000 -0.465669
    20 9.913458 0.000000 0.000003 1.636261 0.454441 -0.056739
    21 2.452246 0.000000 0.000000 0.054962 -0.148701 -0.823398
    22 0.946167 3.213873 -0.420090 -3.141592 -0.000002 1.413798
    23 1.827063 1.152534 -7.643625 -1.570796 -1.570796 0.000000
end
