version 1
nodes
  0 "Bip01" -1
  1 "Bip01 Pelvis" 0
  2 "Bip01 L Leg" 1
  3 "Bip01 L Leg1" 2
  4 "Bip01 L Foot" 3
  5 "Bip01 R Leg" 1
  6 "Bip01 R Leg1" 5
  7 "Bip01 R Foot" 6
  8 "Bip01 Spine" 1
  9 "Bip01 Spine1" 8
  10 "Bip01 Spine2" 9
  11 "Bip01 Spine3" 10
  12 "Bip01 Neck" 11
  13 "Bip01 L Arm" 12
  14 "Bip01 L Arm1" 13
  15 "Bip01 L Arm2" 14
  16 "Bip01 L Hand" 15
  17 "Bip01 R Arm" 12
  18 "Bip01 R Arm1" 17
  19 "Bip01 R Arm2" 18
  20 "Bip01 R Hand" 19
  21 "Bip01 Head" 12
  22 "Bone05" 21
  23 "Bone03" 1
end
skeleton
  time 0
    0 0.422852 1.056041 39.953459 0.000000 0.000000 -1.570844
    1 0.539079 -0.089846 0.000000 -1.570795 -1.570796 0.000000
    2 -0.000007 0.000008 4.427393 -0.286276 3.286113 -0.254918
    3 18.301065 0.000000 0.000000 0.000000 0.000000 -0.587573
    4 17.106758 0.000000 0.000000 -0.096056 -0.062515 0.301788
    5 0.000006 -0.000004 -4.427393 0.394881 -3.173957 0.110324
    6 18.133167 0.000000 0.000000 0.000000 0.000000 -0.235234
    7 17.375956 0.000000 0.000000 0.107217 0.072177 0.324820
    8 2.255203 -0.002685 0.000003 -0.034875 0.000024 0.000796
    9 3.373776 -0.004248 0.000000 -0.348867 0.000267 -0.000025
    10 5.335510 -0.004100 0.000000 0.000000 0.000000 -0.069766
    11 5.172566 -0.004197 0.000000 0.216261 0.028056 -0.127786
    12 5.271970 -0.001935 0.000000 0.000000 0.000000 0.134667
    13 -3.129044 0.428427 2.530066 -1.779861 -1.401338 -1.494279
    14 6.063949 0.000000 0.000002 -1.460585 -0.213487 -0.939238
    15 7.685221 0.000000 0.000000 0.000000 0.000000 -1.831030
    16 10.246255 0.000000 -0.000003 -1.569107 0.000000 0.000000
    17 -3.024093 0.414136 -2.427872 0.672786 1.317186 -2.620054
    18 6.269507 0.000000 -0.000001 -0.667102 -0.707236 0.706295
    19 8.573802 0.000000 -0.000004 0.000000 0.000000 -0.438366
    20 9.913458 0.000000 0.000003 1.563955 0.179709 -0.137861
    21 2.452246 0.000000 0.000000 0.164754 0.026575 -0.005363
    22 0.946167 3.213873 -0.420090 -3.141592 -0.000002 1.413798
    23 1.827063 1.152534 -7.643625 -1.570796 -1.570796 0.000000
  time 1
    0 0.422852 1.056041 39.953459 0.000000 0.000000 -1.570844
    1 0.355480 -0.039064 0.000000 -1.570795 -1.570796 0.000000
    2 -0.000007 0.000008 4.427393 -0.286276 3.284676 -0.260862
    3 18.301065 0.000000 0.000000 0.000000 0.000000 -0.588665
    4 17.106758 0.000000 0.000000 -0.096093 -0.059389 0.297676
    5 0.000006 -0.000004 -4.427393 0.394497 -3.178924 0.096934
    6 18.133167 0.000000 0.000000 0.000000 0.000000 -0.253523
    7 17.375956 0.000000 0.000000 0.107131 0.071570 0.328884
    8 2.255203 -0.002685 0.000003 -0.034875 0.000440 0.012901
    9 3.373776 -0.004248 0.000000 -0.348806 0.006261 0.016408
    10 5.335510 -0.004100 0.000000 0.000000 0.000000 -0.069766
    11 5.172566 -0.004197 0.000000 0.316618 0.040688 -0.124328
    12 5.271970 -0.001935 0.000000 0.000000 0.000000 0.134667
    13 -3.129044 0.428427 2.530066 1.456848 -1.873569 -4.728467
    14 6.063949 0.000000 0.000002 -1.791905 -0.372395 -0.786459
    15 7.685221 0.000000 0.000000 0.000000 0.000000 -1.719135
    16 10.246255 0.000000 -0.000003 -1.569107 0.000000 0.000000
    17 -3.024093 0.414136 -2.427872 0.672786 1.317186 -2.620054
    18 6.269507 0.000000 -0.000001 -0.593285 -0.741177 0.738712
    19 8.573802 0.000000 -0.000004 0.000000 0.000000 -0.301927
    20 9.913458 0.000000 0.000003 1.564176 0.179200 -0.257231
    21 2.452246 0.000000 0.000000 0.063508 0.021216 -0.036806
    22 0.946167 3.213873 -0.420090 -3.141592 -0.000002 1.413798
    23 1.827063 1.152534 -7.643625 -1.570796 -1.570796 0.000000
  time 2
    0 0.422852 1.056041 39.953459 0.000000 0.000000 -1.570844
    1 0.109378 0.015625 0.000000 -1.570795 -1.570796 0.000000
    2 -0.000007 0.000008 4.427393 -0.286180 3.283142 -0.268531
    3 18.301065 0.000000 0.000000 0.000000 0.000000 -0.589684
    4 17.106758 0.000000 0.000000 -0.096203 -0.055581 0.291911
    5 0.000006 -0.000004 -4.427393 0.393922 -3.184560 0.080329
    6 18.133167 0.000000 0.000000 0.000000 0.000000 -0.275262
    7 17.375956 0.000000 0.000000 0.106873 0.070442 0.333100
    8 2.255203 -0.002685 0.000003 -0.034875 0.001004 0.028873
    9 3.373776 -0.004248 0.000000 -0.348594 0.014151 0.038117
    10 5.335510 -0.004100 0.000000 0.000000 0.000000 -0.069766
    11 5.172566 -0.004197 0.000000 0.354829 0.045398 -0.122676
    12 5.271970 -0.001935 0.000000 0.000000 0.000000 0.134667
    13 -3.129044 0.428427 2.530066 1.483098 -1.956116 -4.753268
    14 6.063949 0.000000 0.000002 -2.026386 -0.366173 -0.711750
    15 7.685221 0.000000 0.000000 0.000000 0.000000 -1.571709
    16 10.246255 0.000000 -0.000003 -1.569107 0.000000 0.000000
    17 -3.024093 0.414136 -2.427872 0.672786 1.317186 -2.620054
    18 6.269507 0.000000 -0.000001 -0.520611 -0.776058 0.703261
    19 8.573802 0.000000 -0.000004 0.000000 0.000000 -0.204448
    20 9.913458 0.000000 0.000003 1.565208 0.176827 -0.332642
    21 2.452246 0.000000 0.000000 0.025246 0.011740 -0.075184
    22 0.946167 3.213873 -0.420090 -3.141592 -0.000002 1.413798
    23 1.827063 1.152534 -7.643625 -1.570796 -1.570796 0.000000
  time 3
    0 0.422852 1.056041 39.953459 0.000000 0.000000 -1.570844
    1 -0.199225 0.066408 0.000000 -1.570795 -1.570796 0.000000
    2 -0.000007 0.000008 4.427393 -0.285989 3.281513 -0.278118
    3 18.301065 0.000000 0.000000 0.000000 0.000000 -0.590266
    4 17.106758 0.000000 0.000000 -0.096387 -0.051253 0.283821
    5 0.000006 -0.000004 -4.427393 0.393347 -3.190674 0.060332
    6 18.133167 0.000000 0.000000 0.000000 0.000000 -0.300038
    7 17.375956 0.000000 0.000000 0.106528 0.068447 0.337114
    8 2.255203 -0.002685 0.000003 -0.034814 0.001715 0.049401
    9 3.373776 -0.004248 0.000000 -0.348047 0.024278 0.066008
    10 5.335510 -0.004100 0.000000 0.000000 0.000000 -0.069766
    11 5.172566 -0.004197 0.000000 0.234828 0.030417 -0.127231
    12 5.271970 -0.001935 0.000000 0.000000 0.000000 0.134667
    13 -3.129044 0.428427 2.530066 1.463981 -1.892545 -4.735335
    14 6.063949 0.000000 0.000002 -1.878634 -0.251474 -0.934425
    15 7.685221 0.000000 0.000000 0.000000 0.000000 -1.382256
    16 10.246255 0.000000 -0.000003 -1.569107 0.000000 0.000000
    17 -3.024093 0.414136 -2.427872 0.672786 1.317186 -2.620054
    18 6.269507 0.000000 -0.000001 -0.545185 -0.783485 0.618082
    19 8.573802 0.000000 -0.000004 0.000000 0.000000 -0.350398
    20 9.913458 0.000000 0.000003 1.564250 0.178776 -0.227048
    21 2.452246 0.000000 0.000000 0.146148 0.015505 -0.122477
    22 0.946167 3.213873 -0.420090 -3.141592 -0.000002 1.413798
    23 1.827063 1.152534 -7.643625 -1.570796 -1.570796 0.000000
  time 4
    0 0.422852 1.056041 39.953459 0.000000 0.000000 -1.570844
    1 -0.488296 0.113285 0.000000 -1.570795 -1.570796 0.000000
    2 -0.000007 0.000008 4.427393 -0.285797 3.280076 -0.286554
    3 18.301065 0.000000 0.000000 0.000000 0.000000 -0.590266
    4 17.106758 0.000000 0.000000 -0.096534 -0.047325 0.276179
    5 0.000006 -0.000004 -4.427393 0.392676 -3.195737 0.043192
    6 18.133167 0.000000 0.000000 0.000000 0.000000 -0.320191
    7 17.375956 0.000000 0.000000 0.106184 0.066568 0.339400
    8 2.255203 -0.002685 0.000003 -0.034752 0.002352 0.068088
    9 3.373776 -0.004248 0.000000 -0.347318 0.033482 0.091411
    10 5.335510 -0.004100 0.000000 0.000000 0.000000 -0.069766
    11 5.172566 -0.004197 0.000000 0.112670 0.014693 -0.129994
    12 5.271970 -0.001935 0.000000 0.000000 0.000000 0.134667
    13 -3.129044 0.428427 2.530066 -1.709671 -1.319720 -1.562957
    14 6.063949 0.000000 0.000002 -1.758937 -0.095924 -1.130288
    15 7.685221 0.000000 0.000000 0.000000 0.000000 -1.209773
    16 10.246255 0.000000 -0.000003 -1.569107 0.000000 0.000000
    17 -3.024093 0.414136 -2.427872 0.672786 1.317186 -2.620054
    18 6.269507 0.000000 -0.000001 -0.512991 -0.822878 0.449172
    19 8.573802 0.000000 -0.000004 0.000000 0.000000 -0.376704
    20 9.913458 0.000000 0.000003 1.565282 0.176657 -0.172394
    21 2.452246 0.000000 0.000000 0.268366 0.031138 -0.164732
    22 0.946167 3.213873 -0.420090 -3.141592 -0.000002 1.413798
    23 1.827063 1.152534 -7.643625 -1.570796 -1.570796 0.000000
  time 5
    0 0.422852 1.056041 39.953459 0.000000 0.000000 -1.570844
    1 -0.703146 0.148442 0.000000 -1.570795 -1.570796 0.000000
    2 -0.000007 0.000008 4.427393 -0.285701 3.278925 -0.292785
    3 18.301065 0.000000 0.000000 0.000000 0.000000 -0.589902
    4 17.106758 0.000000 0.000000 -0.096681 -0.044439 0.270324
    5 0.000006 -0.000004 -4.427393 0.392197 -3.199272 0.030962
    6 18.133167 0.000000 0.000000 0.000000 0.000000 -0.333855
    7 17.375956 0.000000 0.000000 0.106012 0.065180 0.340466
    8 2.255203 -0.002685 0.000003 -0.034752 0.002842 0.081943
    9 3.373776 -0.004248 0.000000 -0.346619 0.040290 0.110255
    10 5.335510 -0.004100 0.000000 0.000000 0.000000 -0.069766
    11 5.172566 -0.004197 0.000000 0.017747 0.002313 -0.130812
    12 5.271970 -0.001935 0.000000 0.000000 0.000000 0.134667
    13 -3.129044 0.428427 2.530066 -1.752089 -1.376324 -1.521559
    14 6.063949 0.000000 0.000002 -1.696703 0.047428 -1.265268
    15 7.685221 0.000000 0.000000 0.000000 0.000000 -1.081969
    16 10.246255 0.000000 -0.000003 -1.569107 0.000000 0.000000
    17 -3.024093 0.414136 -2.427872 0.672786 1.317186 -2.620054
    18 6.269507 0.000000 -0.000001 -0.448508 -0.866973 0.268123
    19 8.573802 0.000000 -0.000004 0.000000 0.000000 -0.334292
    20 9.913458 0.000000 0.000003 1.567051 0.171825 -0.158435
    21 2.452246 0.000000 0.000000 0.362445 0.050343 -0.194236
    22 0.946167 3.213873 -0.420090 -3.141592 -0.000002 1.413798
    23 1.827063 1.152534 -7.643625 -1.570796 -1.570796 0.000000
  time 6
    0 0.422852 1.056041 39.953459 0.000000 0.000000 -1.570844
    1 -0.660176 0.136723 0.000000 -1.570795 -1.570796 0.000000
    2 -0.000007 0.000008 4.427393 -0.285701 3.279309 -0.291539
    3 18.301065 0.000000 0.000000 0.000000 0.000000 -0.589975
    4 17.106758 0.000000 0.000000 -0.096645 -0.045121 0.271396
    5 0.000006 -0.000004 -4.427393 0.392293 -3.198507 0.033283
    6 18.133167 0.000000 0.000000 0.000000 0.000000 -0.331302
    7 17.375956 0.000000 0.000000 0.106012 0.065324 0.340365
    8 2.255203 -0.002685 0.000003 -0.034752 0.002744 0.079227
    9 3.373776 -0.004248 0.000000 -0.346771 0.038953 0.106562
    10 5.335510 -0.004100 0.000000 0.000000 0.000000 -0.069766
    11 5.172566 -0.004197 0.000000 0.000000 0.000000 -0.130828
    12 5.271970 -0.001935 0.000000 0.000000 0.000000 0.134667
    13 -3.129044 0.428427 2.530066 -1.779861 -1.401338 -1.494279
    14 6.063949 0.000000 0.000002 -1.653695 0.091064 -1.277414
    15 7.685221 0.000000 0.000000 0.000000 0.000000 -1.107092
    16 10.246255 0.000000 -0.000003 -1.569107 0.000000 0.000000
    17 -3.024093 0.414136 -2.427872 0.672786 1.317186 -2.620054
    18 6.269507 0.000000 -0.000001 -0.448032 -0.869793 0.243432
    19 8.573802 0.000000 -0.000004 0.000000 0.000000 -0.328003
    20 9.913458 0.000000 0.000003 1.567419 0.170639 -0.150822
    21 2.452246 0.000000 0.000000 0.380196 0.052800 -0.186828
    22 0.946167 3.213873 -0.420090 -3.141592 -0.000002 1.413798
    23 1.827063 1.152534 -7.643625 -1.570796 -1.570796 0.000000
  time 7
    0 0.422852 1.056041 39.953459 0.000000 0.000000 -1.570844
    1 -0.515641 0.109378 0.000000 -1.570795 -1.570796 0.000000
    2 -0.000007 0.000008 4.427393 -0.285701 3.280171 -0.287321
    3 18.301065 0.000000 0.000000 0.000000 0.000000 -0.590120
    4 17.106758 0.000000 0.000000 -0.096534 -0.047245 0.275329
    5 0.000006 -0.000004 -4.427393 0.392676 -3.195928 0.041585
    6 18.133167 0.000000 0.000000 0.000000 0.000000 -0.321916
    7 17.375956 0.000000 0.000000 0.106184 0.066163 0.339654
    8 2.255203 -0.002685 0.000003 -0.034752 0.002426 0.069653
    9 3.373776 -0.004248 0.000000 -0.347257 0.034248 0.093521
    10 5.335510 -0.004100 0.000000 0.000000 0.000000 -0.069766
    11 5.172566 -0.004197 0.000000 0.024906 0.003248 -0.130782
    12 5.271970 -0.001935 0.000000 0.000000 0.000000 0.134667
    13 -3.129044 0.428427 2.530066 -1.779861 -1.401338 -1.494279
    14 6.063949 0.000000 0.000002 -1.624429 0.065603 -1.233032
    15 7.685221 0.000000 0.000000 0.000000 0.000000 -1.195389
    16 10.246255 0.000000 -0.000003 -1.569107 0.000000 0.000000
    17 -3.024093 0.414136 -2.427872 0.672786 1.317186 -2.620054
    18 6.269507 0.000000 -0.000001 -0.489465 -0.848639 0.314955
    19 8.573802 0.000000 -0.000004 0.000000 0.000000 -0.357684
    20 9.913458 0.000000 0.000003 1.566829 0.172334 -0.140852
    21 2.452246 0.000000 0.000000 0.355739 0.045526 -0.165162
    22 0.946167 3.213873 -0.420090 -3.141592 -0.000002 1.413798
    23 1.827063 1.152534 -7.643625 -1.570796 -1.570796 0.000000
  time 8
    0 0.422852 1.056041 39.953459 0.000000 0.000000 -1.570844
    1 -0.363292 0.082034 0.000000 -1.570795 -1.570796 0.000000
    2 -0.000007 0.000008 4.427393 -0.285797 3.281034 -0.282911
    3 18.301065 0.000000 0.000000 0.000000 0.000000 -0.590193
    4 17.106758 0.000000 0.000000 -0.096461 -0.049409 0.279307
    5 0.000006 -0.000004 -4.427393 0.392964 -3.193253 0.050423
    6 18.133167 0.000000 0.000000 0.000000 0.000000 -0.311771
    7 17.375956 0.000000 0.000000 0.106270 0.067030 0.338688
    8 2.255203 -0.002685 0.000003 -0.034814 0.002083 0.059849
    9 3.373776 -0.004248 0.000000 -0.347683 0.029421 0.080179
    10 5.335510 -0.004100 0.000000 0.000000 0.000000 -0.069766
    11 5.172566 -0.004197 0.000000 0.052076 0.006807 -0.130643
    12 5.271970 -0.001935 0.000000 0.000000 0.000000 0.134667
    13 -3.129044 0.428427 2.530066 -1.779861 -1.401338 -1.494279
    14 6.063949 0.000000 0.000002 -1.597300 0.033674 -1.185976
    15 7.685221 0.000000 0.000000 0.000000 0.000000 -1.285939
    16 10.246255 0.000000 -0.000003 -1.569107 0.000000 0.000000
    17 -3.024093 0.414136 -2.427872 0.672786 1.317186 -2.620054
    18 6.269507 0.000000 -0.000001 -0.526516 -0.826733 0.384201
    19 8.573802 0.000000 -0.000004 0.000000 0.000000 -0.382686
    20 9.913458 0.000000 0.000003 1.566314 0.174029 -0.133963
    21 2.452246 0.000000 0.000000 0.328981 0.039018 -0.142765
    22 0.946167 3.213873 -0.420090 -3.141592 -0.000002 1.413798
    23 1.827063 1.152534 -7.643625 -1.570796 -1.570796 0.000000
  time 9
    0 0.422852 1.056041 39.953459 0.000000 0.000000 -1.570844
    1 -0.218757 0.050783 0.000000 -1.570795 -1.570796 0.000000
    2 -0.000007 0.000008 4.427393 -0.285797 3.281896 -0.278597
    3 18.301065 0.000000 0.000000 0.000000 0.000000 -0.590047
    4 17.106758 0.000000 0.000000 -0.096350 -0.051533 0.283106
    5 0.000006 -0.000004 -4.427393 0.393347 -3.190483 0.059261
    6 18.133167 0.000000 0.000000 0.000000 0.000000 -0.301281
    7 17.375956 0.000000 0.000000 0.106442 0.067869 0.337418
    8 2.255203 -0.002685 0.000003 -0.034814 0.001739 0.050276
    9 3.373776 -0.004248 0.000000 -0.348047 0.024704 0.067189
    10 5.335510 -0.004100 0.000000 0.000000 0.000000 -0.069766
    11 5.172566 -0.004197 0.000000 0.078664 0.010271 -0.130426
    12 5.271970 -0.001935 0.000000 0.000000 0.000000 0.134667
    13 -3.129044 0.428427 2.530066 -1.779861 -1.401338 -1.494279
    14 6.063949 0.000000 0.000002 -1.571951 -0.000219 -1.141593
    15 7.685221 0.000000 0.000000 0.000000 0.000000 -1.374302
    16 10.246255 0.000000 -0.000003 -1.569107 0.000000 0.000000
    17 -3.024093 0.414136 -2.427872 0.672786 1.317186 -2.620054
    18 6.269507 0.000000 -0.000001 -0.557853 -0.805673 0.446344
    19 8.573802 0.000000 -0.000004 0.000000 0.000000 -0.402013
    20 9.913458 0.000000 0.000003 1.565724 0.175470 -0.129794
    21 2.452246 0.000000 0.000000 0.302553 0.033881 -0.120711
    22 0.946167 3.213873 -0.420090 -3.141592 -0.000002 1.413798
    23 1.827063 1.152534 -7.643625 -1.570796 -1.570796 0.000000
  time 10
    0 0.422852 1.056041 39.953459 0.000000 0.000000 -1.570844
    1 -0.074221 0.023438 0.000000 -1.570795 -1.570796 0.000000
    2 -0.000007 0.000008 4.427393 -0.285893 3.282759 -0.274283
    3 18.301065 0.000000 0.000000 0.000000 0.000000 -0.589902
    4 17.106758 0.000000 0.000000 -0.096277 -0.053577 0.286726
    5 0.000006 -0.000004 -4.427393 0.393635 -3.187713 0.068099
    6 18.133167 0.000000 0.000000 0.000000 0.000000 -0.290583
    7 17.375956 0.000000 0.000000 0.106528 0.068678 0.335894
    8 2.255203 -0.002685 0.000003 -0.034814 0.001421 0.041024
    9 3.373776 -0.004248 0.000000 -0.348320 0.020145 0.054625
    10 5.335510 -0.004100 0.000000 0.000000 0.000000 -0.069766
    11 5.172566 -0.004197 0.000000 0.104325 0.013614 -0.130118
    12 5.271970 -0.001935 0.000000 0.000000 0.000000 0.134667
    13 -3.129044 0.428427 2.530066 -1.779861 -1.401338 -1.494279
    14 6.063949 0.000000 0.000002 -1.548453 -0.035259 -1.100420
    15 7.685221 0.000000 0.000000 0.000000 0.000000 -1.459482
    16 10.246255 0.000000 -0.000003 -1.569107 0.000000 0.000000
    17 -3.024093 0.414136 -2.427872 0.672786 1.317186 -2.620054
    18 6.269507 0.000000 -0.000001 -0.584237 -0.785835 0.502004
    19 8.573802 0.000000 -0.000004 0.000000 0.000000 -0.416355
    20 9.913458 0.000000 0.000003 1.565282 0.176657 -0.127800
    21 2.452246 0.000000 0.000000 0.276912 0.030053 -0.099304
    22 0.946167 3.213873 -0.420090 -3.141592 -0.000002 1.413798
    23 1.827063 1.152534 -7.643625 -1.570796 -1.570796 0.000000
  time 11
    0 0.422852 1.056041 39.953459 0.000000 0.000000 -1.570844
    1 0.054689 0.000000 0.000000 -1.570795 -1.570796 0.000000
    2 -0.000007 0.000008 4.427393 -0.285989 3.283526 -0.270161
    3 18.301065 0.000000 0.000000 0.000000 0.000000 -0.589538
    4 17.106758 0.000000 0.000000 -0.096203 -0.055541 0.290123
    5 0.000006 -0.000004 -4.427393 0.393922 -3.184942 0.076758
    6 18.133167 0.000000 0.000000 0.000000 0.000000 -0.279748
    7 17.375956 0.000000 0.000000 0.106701 0.069430 0.334167
    8 2.255203 -0.002685 0.000003 -0.034814 0.001102 0.032233
    9 3.373776 -0.004248 0.000000 -0.348533 0.015805 0.042665
    10 5.335510 -0.004100 0.000000 0.000000 0.000000 -0.069766
    11 5.172566 -0.004197 0.000000 0.128778 0.016790 -0.129747
    12 5.271970 -0.001935 0.000000 0.000000 0.000000 0.134667
    13 -3.129044 0.428427 2.530066 -1.779861 -1.401338 -1.494279
    14 6.063949 0.000000 0.000002 -1.527091 -0.070708 -1.062683
    15 7.685221 0.000000 0.000000 0.000000 0.000000 -1.540686
    16 10.246255 0.000000 -0.000003 -1.569107 0.000000 0.000000
    17 -3.024093 0.414136 -2.427872 0.672786 1.317186 -2.620054
    18 6.269507 0.000000 -0.000001 -0.606429 -0.767502 0.551525
    19 8.573802 0.000000 -0.000004 0.000000 0.000000 -0.426632
    20 9.913458 0.000000 0.000003 1.564913 0.177674 -0.127528
    21 2.452246 0.000000 0.000000 0.252456 0.027437 -0.078802
    22 0.946167 3.213873 -0.420090 -3.141592 -0.000002 1.413798
    23 1.827063 1.152534 -7.643625 -1.570796 -1.570796 0.000000
  time 12
    0 0.422852 1.056041 39.953459 0.000000 0.000000 -1.570844
    1 0.183599 -0.019532 0.000000 -1.570795 -1.570796 0.000000
    2 -0.000007 0.000008 4.427393 -0.285989 3.284197 -0.266231
    3 18.301065 0.000000 0.000000 0.000000 0.000000 -0.589174
    4 17.106758 0.000000 0.000000 -0.096166 -0.057345 0.293252
    5 0.000006 -0.000004 -4.427393 0.394210 -3.182268 0.085061
    6 18.133167 0.000000 0.000000 0.000000 0.000000 -0.269051
    7 17.375956 0.000000 0.000000 0.106787 0.070153 0.332237
    8 2.255203 -0.002685 0.000003 -0.034875 0.000832 0.023994
    9 3.373776 -0.004248 0.000000 -0.348685 0.011732 0.031484
    10 5.335510 -0.004100 0.000000 0.000000 0.000000 -0.069766
    11 5.172566 -0.004197 0.000000 0.151700 0.019751 -0.129330
    12 5.271970 -0.001935 0.000000 0.000000 0.000000 0.134667
    13 -3.129044 0.428427 2.530066 -1.779861 -1.401338 -1.494279
    14 6.063949 0.000000 0.000002 -1.508150 -0.105666 -1.028613
    15 7.685221 0.000000 0.000000 0.000000 0.000000 -1.616719
    16 10.246255 0.000000 -0.000003 -1.569107 0.000000 0.000000
    17 -3.024093 0.414136 -2.427872 0.672786 1.317186 -2.620054
    18 6.269507 0.000000 -0.000001 -0.624907 -0.750861 0.595252
    19 8.573802 0.000000 -0.000004 0.000000 0.000000 -0.433304
    20 9.913458 0.000000 0.000003 1.564618 0.178352 -0.128615
    21 2.452246 0.000000 0.000000 0.229446 0.025937 -0.059548
    22 0.946167 3.213873 -0.420090 -3.141592 -0.000002 1.413798
    23 1.827063 1.152534 -7.643625 -1.570796 -1.570796 0.000000
  time 13
    0 0.422852 1.056041 39.953459 0.000000 0.000000 -1.570844
    1 0.296884 -0.042970 0.000000 -1.570795 -1.570796 0.000000
    2 -0.000007 0.000008 4.427393 -0.286085 3.284868 -0.262588
    3 18.301065 0.000000 0.000000 0.000000 0.000000 -0.588738
    4 17.106758 0.000000 0.000000 -0.096130 -0.059028 0.296067
    5 0.000006 -0.000004 -4.427393 0.394401 -3.179688 0.093006
    6 18.133167 0.000000 0.000000 0.000000 0.000000 -0.258768
    7 17.375956 0.000000 0.000000 0.106959 0.070818 0.330154
    8 2.255203 -0.002685 0.000003 -0.034875 0.000563 0.016491
    9 3.373776 -0.004248 0.000000 -0.348776 0.008024 0.021257
    10 5.335510 -0.004100 0.000000 0.000000 0.000000 -0.069766
    11 5.172566 -0.004197 0.000000 0.172595 0.022447 -0.128883
    12 5.271970 -0.001935 0.000000 0.000000 0.000000 0.134667
    13 -3.129044 0.428427 2.530066 -1.779861 -1.401338 -1.494279
    14 6.063949 0.000000 0.000002 -1.491702 -0.139151 -0.998669
    15 7.685221 0.000000 0.000000 0.000000 0.000000 -1.686123
    16 10.246255 0.000000 -0.000003 -1.569107 0.000000 0.000000
    17 -3.024093 0.414136 -2.427872 0.672786 1.317186 -2.620054
    18 6.269507 0.000000 -0.000001 -0.640052 -0.736100 0.633048
    19 8.573802 0.000000 -0.000004 0.000000 0.000000 -0.437139
    20 9.913458 0.000000 0.000003 1.564323 0.178946 -0.130610
    21 2.452246 0.000000 0.000000 0.208473 0.025363 -0.042018
    22 0.946167 3.213873 -0.420090 -3.141592 -0.000002 1.413798
    23 1.827063 1.152534 -7.643625 -1.570796 -1.570796 0.000000
  time 14
    0 0.422852 1.056041 39.953459 0.000000 0.000000 -1.570844
    1 0.398450 -0.062502 0.000000 -1.570795 -1.570796 0.000000
    2 -0.000007 0.000008 4.427393 -0.286180 3.285347 -0.259424
    3 18.301065 0.000000 0.000000 0.000000 0.000000 -0.588301
    4 17.106758 0.000000 0.000000 -0.096093 -0.060471 0.298481
    5 0.000006 -0.000004 -4.427393 0.394593 -3.177396 0.100058
    6 18.133167 0.000000 0.000000 0.000000 0.000000 -0.249244
    7 17.375956 0.000000 0.000000 0.107045 0.071396 0.328071
    8 2.255203 -0.002685 0.000003 -0.034875 0.000342 0.009909
    9 3.373776 -0.004248 0.000000 -0.348837 0.004766 0.012312
    10 5.335510 -0.004100 0.000000 0.000000 0.000000 -0.069766
    11 5.172566 -0.004197 0.000000 0.190903 0.024808 -0.128450
    12 5.271970 -0.001935 0.000000 0.000000 0.000000 0.134667
    13 -3.129044 0.428427 2.530066 -1.779861 -1.401338 -1.494279
    14 6.063949 0.000000 0.000002 -1.478101 -0.169606 -0.973231
    15 7.685221 0.000000 0.000000 0.000000 0.000000 -1.746909
    16 10.246255 0.000000 -0.000003 -1.569107 0.000000 0.000000
    17 -3.024093 0.414136 -2.427872 0.672786 1.317186 -2.620054
    18 6.269507 0.000000 -0.000001 -0.652053 -0.723690 0.664637
    19 8.573802 0.000000 -0.000004 0.000000 0.000000 -0.438750
    20 9.913458 0.000000 0.000003 1.564176 0.179285 -0.133147
    21 2.452246 0.000000 0.000000 0.190131 0.025459 -0.026641
    22 0.946167 3.213873 -0.420090 -3.141592 -0.000002 1.413798
    23 1.827063 1.152534 -7.643625 -1.570796 -1.570796 0.000000
  time 15
    0 0.422852 1.056041 39.953459 0.000000 0.000000 -1.570844
    1 0.480483 -0.078127 0.000000 -1.570795 -1.570796 0.000000
    2 -0.000007 0.000008 4.427393 -0.286180 3.285826 -0.256740
    3 18.301065 0.000000 0.000000 0.000000 0.000000 -0.587864
    4 17.106758 0.000000 0.000000 -0.096056 -0.061673 0.300448
    5 0.000006 -0.000004 -4.427393 0.394785 -3.175390 0.106039
    6 18.133167 0.000000 0.000000 0.000000 0.000000 -0.241031
    7 17.375956 0.000000 0.000000 0.107131 0.071859 0.326192
    8 2.255203 -0.002685 0.000003 -0.034875 0.000146 0.004478
    9 3.373776 -0.004248 0.000000 -0.348867 0.002103 0.004975
    10 5.335510 -0.004100 0.000000 0.000000 0.000000 -0.069766
    11 5.172566 -0.004197 0.000000 0.205932 0.026726 -0.128064
    12 5.271970 -0.001935 0.000000 0.000000 0.000000 0.134667
    13 -3.129044 0.428427 2.530066 -1.779861 -1.401338 -1.494279
    14 6.063949 0.000000 0.000002 -1.467492 -0.195394 -0.952911
    15 7.685221 0.000000 0.000000 0.000000 0.000000 -1.796758
    16 10.246255 0.000000 -0.000003 -1.569107 0.000000 0.000000
    17 -3.024093 0.414136 -2.427872 0.672786 1.317186 -2.620054
    18 6.269507 0.000000 -0.000001 -0.661197 -0.713818 0.689673
    19 8.573802 0.000000 -0.000004 0.000000 0.000000 -0.438903
    20 9.913458 0.000000 0.000003 1.564029 0.179539 -0.135776
    21 2.452246 0.000000 0.000000 0.175075 0.026001 -0.014021
    22 0.946167 3.213873 -0.420090 -3.141592 -0.000002 1.413798
    23 1.827063 1.152534 -7.643625 -1.570796 -1.570796 0.000000
  time 16
    0 0.422852 1.056041 39.953459 0.000000 0.000000 -1.570844
    1 0.539079 -0.089846 0.000000 -1.570795 -1.570796 0.000000
    2 -0.000007 0.000008 4.427393 -0.286276 3.286113 -0.254918
    3 18.301065 0.000000 0.000000 0.000000 0.000000 -0.587573
    4 17.106758 0.000000 0.000000 -0.096056 -0.062515 0.301788
    5 0.000006 -0.000004 -4.427393 0.394881 -3.173957 0.110324
    6 18.133167 0.000000 0.000000 0.000000 0.000000 -0.235234
    7 17.375956 0.000000 0.000000 0.107217 0.072177 0.324820
    8 2.255203 -0.002685 0.000003 -0.034875 0.000024 0.000796
    9 3.373776 -0.004248 0.000000 -0.348867 0.000267 -0.000025
    10 5.335510 -0.004100 0.000000 0.000000 0.000000 -0.069766
    11 5.172566 -0.004197 0.000000 0.216261 0.028056 -0.127786
    12 5.271970 -0.001935 0.000000 0.000000 0.000000 0.134667
    13 -3.129044 0.428427 2.530066 -1.779861 -1.401338 -1.494279
    14 6.063949 0.000000 0.000002 -1.460585 -0.213487 -0.939238
    15 7.685221 0.000000 0.000000 0.000000 0.000000 -1.831030
    16 10.246255 0.000000 -0.000003 -1.569107 0.000000 0.000000
    17 -3.024093 0.414136 -2.427872 0.672786 1.317186 -2.620054
    18 6.269507 0.000000 -0.000001 -0.667102 -0.707236 0.706295
    19 8.573802 0.000000 -0.000004 0.000000 0.000000 -0.438366
    20 9.913458 0.000000 0.000003 1.563955 0.179709 -0.137861
    21 2.452246 0.000000 0.000000 0.164754 0.026575 -0.005363
    22 0.946167 3.213873 -0.420090 -3.141592 -0.000002 1.413798
    23 1.827063 1.152534 -7.643625 -1.570796 -1.570796 0.000000
end
