version 1
nodes
  0 "Bip01" -1
  1 "Bip01 Pelvis" 0
  2 "Bip01 L Leg" 1
  3 "Bip01 L Leg1" 2
  4 "Bip01 L Foot" 3
  5 "Bip01 R Leg" 1
  6 "Bip01 R Leg1" 5
  7 "Bip01 R Foot" 6
  8 "Bip01 Spine" 1
  9 "Bip01 Spine1" 8
  10 "Bip01 Spine2" 9
  11 "Bip01 Spine3" 10
  12 "Bip01 Neck" 11
  13 "Bip01 L Arm" 12
  14 "Bip01 L Arm1" 13
  15 "Bip01 L Arm2" 14
  16 "Bip01 L Hand" 15
  17 "Bip01 R Arm" 12
  18 "Bip01 R Arm1" 17
  19 "Bip01 R Arm2" 18
  20 "Bip01 R Hand" 19
  21 "Bip01 Head" 12
  22 "Bone05" 21
  23 "Bone03" 1
end
skeleton
  time 0
    0 1.727579 6.791176 40.724147 0.000000 0.000000 -1.701715
    1 0.000000 0.000000 0.000000 -1.570795 -1.570796 0.000000
    2 -0.000007 0.000008 4.427393 -0.170941 3.132578 -0.013434
    3 18.301065 0.000000 0.000000 0.000000 0.000000 -0.414314
    4 17.106758 0.000000 0.000000 0.018462 0.017483 0.385277
    5 0.000006 -0.000004 -4.427393 0.109168 -3.179402 -0.288364
    6 18.133167 0.000000 0.000000 0.000000 0.000000 -0.213633
    7 17.375956 0.000000 0.000000 -0.002024 0.005098 -0.077110
    8 2.255203 -0.002685 0.000003 0.139544 -0.000099 0.000796
    9 3.373776 -0.004248 0.000000 -0.017436 -0.017422 0.000302
    10 5.335510 -0.004100 0.000000 0.017407 0.000438 -0.026150
    11 5.172566 -0.004197 0.000000 -0.026157 -0.000431 -0.017444
    12 5.271970 -0.001935 0.000000 0.000024 0.043606 0.335253
    13 -3.089980 1.041727 2.401156 -0.875956 -1.358599 -2.606395
    14 6.063949 0.000000 0.000002 0.688690 1.101734 0.397655
    15 7.685221 0.000000 0.000000 0.000000 0.000000 -0.470457
    16 10.246255 0.000000 -0.000003 -1.516737 0.060927 0.003137
    17 -2.774085 1.007904 -2.548969 1.160442 1.415262 -2.327861
    18 6.269507 0.000000 -0.000001 -0.534422 -1.198292 0.213636
    19 8.573802 0.000000 -0.000004 0.000000 0.000000 -0.234206
    20 9.913458 0.000000 0.000003 1.546560 0.097060 -0.254240
    21 2.452246 0.000000 0.000000 0.000855 -0.008359 -0.101243
    22 0.946167 3.213873 -0.420090 -3.141592 -0.000002 1.413798
    23 1.827063 1.152534 -7.643625 -1.570796 -1.570796 0.000000
  time 1
    0 1.676796 6.791176 40.724147 0.000000 0.000000 -1.690881
    1 0.000000 0.000000 0.000000 -1.570795 -1.570462 0.000000
    2 -0.000007 0.000008 4.427393 -0.170270 3.136124 -0.015447
    3 18.301065 0.000000 0.000000 0.000000 0.000000 -0.416861
    4 17.106758 0.000000 0.000000 0.028689 0.014558 0.385366
    5 0.000006 -0.000004 -4.427393 0.109072 -3.180357 -0.289256
    6 18.133167 0.000000 0.000000 0.000000 0.000000 -0.219292
    7 17.375956 0.000000 0.000000 0.008478 0.005879 -0.072538
    8 2.255203 -0.002685 0.000003 0.133793 -0.000271 0.002177
    9 3.373776 -0.004248 0.000000 -0.017436 -0.017324 0.006030
    10 5.335510 -0.004100 0.000000 0.017439 0.000292 -0.017563
    11 5.172566 -0.004197 0.000000 -0.026157 -0.000312 -0.013152
    12 5.271970 -0.001935 0.000000 0.000024 0.043606 0.349172
    13 -3.074355 1.084697 2.401156 -0.894502 -1.361065 -2.601530
    14 6.063949 0.000000 0.000002 0.694672 1.118108 0.380849
    15 7.685221 0.000000 0.000000 0.000000 0.000000 -0.485107
    16 10.246255 0.000000 -0.000003 -1.540282 0.047100 0.000128
    17 -2.758460 1.046968 -2.548969 1.188678 1.418338 -2.313127
    18 6.269507 0.000000 -0.000001 -0.557567 -1.202429 0.222671
    19 8.573802 0.000000 -0.000004 0.000000 0.000000 -0.277078
    20 9.913458 0.000000 0.000003 1.581792 0.115709 -0.220976
    21 2.452246 0.000000 0.000000 0.007495 -0.009252 -0.096418
    22 0.946167 3.213873 -0.420090 -3.141592 -0.000002 1.413798
    23 1.827063 1.152534 -7.643625 -1.570796 -1.570796 0.000000
  time 2
    0 1.543980 6.791176 40.724147 0.000000 0.000000 -1.675062
    1 0.000000 0.000000 0.000000 -1.570795 -1.570203 0.000000
    2 -0.000007 0.000008 4.427393 -0.169023 3.143503 -0.018323
    3 18.301065 0.000000 0.000000 0.000000 0.000000 -0.420936
    4 17.106758 0.000000 0.000000 0.043440 0.008425 0.385500
    5 0.000006 -0.000004 -4.427393 0.109264 -3.179306 -0.290149
    6 18.133167 0.000000 0.000000 0.000000 0.000000 -0.226745
    7 17.375956 0.000000 0.000000 0.024404 0.005272 -0.065832
    8 2.255203 -0.002685 0.000003 0.124766 -0.000050 0.004432
    9 3.373776 -0.004248 0.000000 -0.017436 -0.017166 0.015051
    10 5.335510 -0.004100 0.000000 0.017439 0.000049 -0.004015
    11 5.172566 -0.004197 0.000000 -0.026157 -0.000144 -0.006374
    12 5.271970 -0.001935 0.000000 0.000024 0.043606 0.370517
    13 -3.050917 1.147199 2.401156 -0.917709 -1.363817 -2.599241
    14 6.063949 0.000000 0.000002 0.683848 1.141604 0.344641
    15 7.685221 0.000000 0.000000 0.000000 0.000000 -0.501613
    16 10.246255 0.000000 -0.000003 -1.569107 0.030062 -0.003073
    17 -2.738928 1.105563 -2.548969 1.225049 1.422147 -2.297532
    18 6.269507 0.000000 -0.000001 -0.568711 -1.209292 0.215154
    19 8.573802 0.000000 -0.000004 0.000000 0.000000 -0.330534
    20 9.913458 0.000000 0.000003 1.626090 0.136986 -0.178013
    21 2.452246 0.000000 0.000000 0.017882 -0.011549 -0.091810
    22 0.946167 3.213873 -0.420090 -3.141592 -0.000002 1.413798
    23 1.827063 1.152534 -7.643625 -1.570796 -1.570796 0.000000
  time 3
    0 1.340849 6.791176 40.724147 0.000000 0.000000 -1.655790
    1 0.000000 0.000000 0.000000 -0.000025 -1.571875 -1.570697
    2 -0.000007 0.000008 4.427393 -0.167106 3.153758 -0.022061
    3 18.301065 0.000000 0.000000 0.000000 0.000000 -0.425738
    4 17.106758 0.000000 0.000000 0.061245 -0.000071 0.385232
    5 0.000006 -0.000004 -4.427393 0.109647 -3.176918 -0.290952
    6 18.133167 0.000000 0.000000 0.000000 0.000000 -0.235372
    7 17.375956 0.000000 0.000000 0.044117 0.003421 -0.057704
    8 2.255203 -0.002685 0.000003 0.113452 0.000342 0.007240
    9 3.373776 -0.004248 0.000000 -0.017436 -0.016972 0.026333
    10 5.335510 -0.004100 0.000000 0.017439 -0.000231 0.012915
    11 5.172566 -0.004197 0.000000 -0.026157 0.000072 0.002086
    12 5.271970 -0.001935 0.000000 0.000024 0.043606 0.396908
    13 -3.019666 1.221420 2.401156 -0.944719 -1.366640 -2.598287
    14 6.063949 0.000000 0.000002 0.657004 1.169112 0.290710
    15 7.685221 0.000000 0.000000 0.000000 0.000000 -0.519643
    16 10.246255 0.000000 -0.000003 -1.601283 0.010794 -0.006146
    17 -2.707677 1.183691 -2.545063 1.267832 1.426249 -2.280502
    18 6.269507 0.000000 -0.000001 -0.569378 -1.217472 0.194049
    19 8.573802 0.000000 -0.000004 0.000000 0.000000 -0.390585
    20 9.913458 0.000000 0.000003 1.676947 0.158517 -0.128253
    21 2.452246 0.000000 0.000000 0.030439 -0.015952 -0.086856
    22 0.946167 3.213873 -0.420090 -3.141592 -0.000002 1.413798
    23 1.827063 1.152534 -7.643625 -1.570796 -1.570796 0.000000
  time 4
    0 1.086935 6.791176 40.724147 0.000000 0.000000 -1.634697
    1 0.000000 0.000000 0.000000 -3.141565 -1.568881 1.570745
    2 -0.000007 0.000008 4.427393 -0.164901 3.165642 -0.026088
    3 18.301065 0.000000 0.000000 0.000000 0.000000 -0.430541
    4 17.106758 0.000000 0.000000 0.080595 -0.010211 0.384338
    5 0.000006 -0.000004 -4.427393 0.110126 -3.173192 -0.291577
    6 18.133167 0.000000 0.000000 0.000000 0.000000 -0.244275
    7 17.375956 0.000000 0.000000 0.065638 0.000414 -0.049170
    8 2.255203 -0.002685 -0.003903 0.101395 0.000857 0.010232
    9 3.373776 -0.004248 0.000000 -0.017436 -0.016753 0.038419
    10 5.335510 -0.004100 0.000000 0.017407 -0.000548 0.031033
    11 5.172566 -0.004197 0.000000 -0.026157 0.000312 0.011134
    12 5.271970 -0.001935 0.000000 0.000024 0.043606 0.425421
    13 -2.984508 1.307360 2.405062 -0.975439 -1.369677 -2.595520
    14 6.063949 0.000000 0.000002 0.622255 1.197193 0.225167
    15 7.685221 0.000000 0.000000 0.000000 0.000000 -0.539861
    16 10.246255 0.000000 -0.000003 -1.636979 -0.010526 -0.008835
    17 -2.672520 1.261818 -2.545063 1.317890 1.430424 -2.258114
    18 6.269507 0.000000 -0.000001 -0.571378 -1.224711 0.172530
    19 8.573802 0.000000 -0.000004 0.000000 0.000000 -0.457156
    20 9.913458 0.000000 0.000003 1.734733 0.179285 -0.071876
    21 2.452246 0.000000 0.000000 0.043128 -0.022492 -0.080525
    22 0.946167 3.213873 -0.420090 -3.141592 -0.000002 1.413798
    23 1.827063 1.152534 -7.643625 -1.570796 -1.570796 0.000000
  time 5
    0 0.805676 6.791176 40.724147 0.000000 0.000000 -1.613796
    1 0.000000 0.000000 0.000000 -0.000073 -1.573304 -1.570745
    2 -0.000007 0.000008 4.427393 -0.162408 3.178293 -0.030210
    3 18.301065 0.000000 0.000000 0.000000 0.000000 -0.434689
    4 17.106758 0.000000 0.000000 0.099761 -0.021153 0.382595
    5 0.000006 -0.000004 -4.427393 0.110797 -3.168607 -0.292202
    6 18.133167 0.000000 0.000000 0.000000 0.000000 -0.252626
    7 17.375956 0.000000 0.000000 0.087331 -0.003633 -0.041042
    8 2.255203 -0.002685 -0.003903 0.090081 0.001347 0.013085
    9 3.373776 -0.004248 0.000000 -0.017436 -0.016558 0.049776
    10 5.335510 -0.004100 0.000000 0.017407 -0.000852 0.048065
    11 5.172566 -0.004197 0.000000 -0.026157 0.000527 0.019656
    12 5.271970 -0.001935 0.000000 0.000024 0.043606 0.452937
    13 -2.949351 1.385487 2.405062 -1.010819 -1.373036 -2.587126
    14 6.063949 0.000000 0.000002 0.594058 1.223801 0.159396
    15 7.685221 0.000000 0.000000 0.000000 0.000000 -0.563062
    16 10.246255 0.000000 -0.000003 -1.676948 -0.034701 -0.010883
    17 -2.637362 1.336039 -2.545063 1.377615 1.434452 -2.225105
    18 6.269507 0.000000 -0.000001 -0.591952 -1.229130 0.168322
    19 8.573802 0.000000 -0.000004 0.000000 0.000000 -0.531550
    20 9.913458 0.000000 0.000003 1.801070 0.198866 -0.007432
    21 2.452246 0.000000 0.000000 0.054173 -0.030468 -0.071867
    22 0.946167 3.213873 -0.420090 -3.141592 -0.000002 1.413798
    23 1.827063 1.152534 -7.643625 -1.570796 -1.570796 0.000000
  time 6
    0 0.504886 6.791176 40.740901 0.000000 0.000000 -1.594621
    1 0.000000 0.000000 0.000000 -3.141565 -1.568014 1.570745
    2 -0.000007 0.000008 4.427393 -0.159820 3.190561 -0.033949
    3 18.301065 0.000000 0.000000 0.000000 0.000000 -0.437599
    4 17.106758 0.000000 0.000000 0.117124 -0.032175 0.380137
    5 0.000006 -0.000004 -4.427393 0.111468 -3.163449 -0.293006
    6 18.133167 0.000000 0.000000 0.000000 0.000000 -0.260286
    7 17.375956 0.000000 0.000000 0.107303 -0.008520 -0.033625
    8 2.255203 -0.002685 -0.003903 0.080744 0.001519 0.015433
    9 3.373776 -0.004248 0.000000 -0.017405 -0.016400 0.059123
    10 5.335510 -0.004100 0.000000 0.017407 -0.001095 0.062085
    11 5.172566 -0.004197 0.000000 -0.026157 0.000707 0.026665
    12 5.271970 -0.001935 0.000000 0.000024 0.043606 0.476628
    13 -2.914194 1.451896 2.408969 -1.051811 -1.376824 -2.569194
    14 6.063949 0.000000 0.000002 0.589928 1.247788 0.108139
    15 7.685221 0.000000 0.000000 0.000000 0.000000 -0.590572
    16 10.246255 0.000000 -0.000003 -1.722028 -0.061998 -0.012100
    17 -2.606111 1.402447 -2.541157 1.449112 1.438041 -2.176502
    18 6.269507 0.000000 -0.000001 -0.646243 -1.229036 0.197083
    19 8.573802 0.000000 -0.000004 0.000000 0.000000 -0.614686
    20 9.913458 0.000000 0.000003 1.877503 0.215905 0.065803
    21 2.452246 0.000000 0.000000 0.062259 -0.038571 -0.060194
    22 0.946167 3.213873 -0.420090 -3.141592 -0.000002 1.413798
    23 1.827063 1.152534 -7.643625 -1.570796 -1.570796 0.000000
  time 7
    0 0.208001 6.791176 40.724147 0.000000 0.000000 -1.578801
    1 0.000000 0.000000 0.000000 -3.141565 -1.568622 1.570745
    2 -0.000007 0.000008 4.427393 -0.157423 3.201199 -0.036825
    3 18.301065 0.000000 0.000000 0.000000 0.000000 -0.438982
    4 17.106758 0.000000 0.000000 0.131287 -0.042636 0.377053
    5 0.000006 -0.000004 -4.427393 0.111947 -3.158768 -0.294791
    6 18.133167 0.000000 0.000000 0.000000 0.000000 -0.268430
    7 17.375956 0.000000 0.000000 0.124004 -0.014013 -0.026614
    8 2.255203 -0.002685 -0.003903 0.074191 0.000881 0.017044
    9 3.373776 -0.004248 0.000000 -0.017405 -0.016279 0.065606
    10 5.335510 -0.004100 0.000000 0.017375 -0.001266 0.071820
    11 5.172566 -0.004197 0.000000 -0.026135 0.000839 0.031528
    12 5.271970 -0.001935 0.000000 0.000024 0.043606 0.494437
    13 -2.886849 1.502679 2.408969 -1.099555 -1.381041 -2.538479
    14 6.063949 0.000000 0.000002 0.625460 1.268829 0.086826
    15 7.685221 0.000000 0.000000 0.000000 0.000000 -0.623783
    16 10.246255 0.000000 -0.000003 -1.771801 -0.092060 -0.012036
    17 -2.578767 1.449324 -2.541157 1.530755 1.440861 -2.111826
    18 6.269507 0.000000 -0.000001 -0.738633 -1.222831 0.263433
    19 8.573802 0.000000 -0.000004 0.000000 0.000000 -0.705186
    20 9.913458 0.000000 0.000003 1.963446 0.228620 0.146290
    21 2.452246 0.000000 0.000000 0.067124 -0.045366 -0.045851
    22 0.946167 3.213873 -0.420090 -3.141592 -0.000002 1.413798
    23 1.827063 1.152534 -7.643625 -1.570796 -1.570796 0.000000
  time 8
    0 -0.069351 6.791176 40.724147 0.000000 0.000000 -1.567680
    1 0.000000 0.000000 0.000000 -1.570795 -1.570462 0.000000
    2 -0.000007 0.000008 4.427393 -0.155505 3.208291 -0.038454
    3 18.301065 0.000000 0.000000 0.000000 0.000000 -0.438545
    4 17.106758 0.000000 0.000000 0.141036 -0.051854 0.373657
    5 0.000006 -0.000004 -4.427393 0.111947 -3.155806 -0.299255
    6 18.133167 0.000000 0.000000 0.000000 0.000000 -0.280231
    7 17.375956 0.000000 0.000000 0.136055 -0.019796 -0.018639
    8 2.255203 -0.002685 0.000003 0.070666 -0.001643 0.017918
    9 3.373776 -0.004248 0.000000 -0.017405 -0.016218 0.069098
    10 5.335510 -0.004100 0.000000 0.017375 -0.001351 0.077047
    11 5.172566 -0.004197 0.000000 -0.026135 0.000911 0.034153
    12 5.271970 -0.001935 0.000000 0.000024 0.043606 0.505398
    13 -2.871224 1.530023 2.408969 -1.154051 -1.385472 -2.494029
    14 6.063949 0.000000 0.000002 0.707204 1.285284 0.106611
    15 7.685221 0.000000 0.000000 0.000000 0.000000 -0.663821
    16 10.246255 0.000000 -0.000003 -1.822747 -0.122747 -0.010371
    17 -2.563141 1.480575 -2.541157 -1.528320 1.699016 -5.181096
    18 6.269507 0.000000 -0.000001 -0.853502 -1.209762 0.352889
    19 8.573802 0.000000 -0.000004 0.000000 0.000000 -0.794918
    20 9.913458 0.000000 0.000003 2.052410 0.235571 0.225689
    21 2.452246 0.000000 0.000000 0.069031 -0.049897 -0.029914
    22 0.946167 3.213873 -0.420090 -3.141592 -0.000002 1.413798
    23 1.827063 1.152534 -7.643625 -1.570796 -1.570796 0.000000
  time 9
    0 -0.307639 6.791176 40.690639 0.000000 0.000000 -1.562119
    1 0.000000 0.000000 0.000000 -0.000025 -1.563926 -1.570793
    2 -0.000007 0.000008 4.427393 -0.154163 3.209250 -0.038359
    3 18.301065 0.000000 0.000000 0.000000 0.000000 -0.436144
    4 17.106758 0.000000 0.000000 0.145524 -0.059229 0.370260
    5 0.000006 -0.000004 -4.427393 0.110701 -3.157335 -0.309164
    6 18.133167 0.000000 0.000000 0.000000 0.000000 -0.301488
    7 17.375956 0.000000 0.000000 0.142598 -0.025492 -0.006752
    8 2.255203 -0.002685 0.011722 0.069615 -0.008139 0.018194
    9 3.373776 -0.004248 0.000000 -0.017405 -0.016206 0.070053
    10 5.335510 -0.004100 0.000000 0.017375 -0.001375 0.078502
    11 5.172566 -0.004197 0.000000 -0.026135 0.000923 0.034863
    12 5.271970 -0.001935 0.000000 0.000024 0.043606 0.509706
    13 -2.863411 1.541742 2.408969 -1.212162 -1.389688 -2.439277
    14 6.063949 0.000000 0.000002 0.820777 1.292407 0.167188
    15 7.685221 0.000000 0.000000 0.000000 0.000000 -0.710621
    16 10.246255 0.000000 -0.000003 -1.865062 -0.147992 -0.007810
    17 -2.555329 1.492294 -2.541157 -1.470605 1.698320 -5.127231
    18 6.269507 0.000000 -0.000001 -0.952084 -1.194814 0.430619
    19 8.573802 0.000000 -0.000004 0.000000 0.000000 -0.863023
    20 9.913458 0.000000 0.000003 2.126485 0.238707 0.282700
    21 2.452246 0.000000 0.000000 0.068965 -0.052034 -0.014451
    22 0.946167 3.213873 -0.420090 -3.141592 -0.000002 1.413798
    23 1.827063 1.152534 -7.643625 -1.570796 -1.570796 0.000000
  time 10
    0 -0.163104 6.791176 40.523098 0.000000 0.000000 -1.561831
    1 0.000000 0.000000 0.000000 -0.000025 -1.515286 -1.570793
    2 -0.000007 0.000008 4.427393 -0.156848 3.155963 -0.033949
    3 18.301065 0.000000 0.000000 0.000000 0.000000 -0.426611
    4 17.106758 0.000000 0.000000 0.146370 -0.055301 0.365790
    5 0.000006 -0.000004 -4.427393 0.091053 -3.213410 -0.370315
    6 18.133167 0.000000 0.000000 0.000000 0.000000 -0.421987
    7 17.375956 0.000000 0.000000 0.142167 -0.021444 0.052634
    8 2.255203 -0.002685 0.121100 0.069430 -0.056772 0.018010
    9 3.373776 -0.004248 0.000000 -0.017405 -0.016218 0.069349
    10 5.335510 -0.004100 0.000000 0.017375 -0.001363 0.077436
    11 5.172566 -0.004197 0.000000 -0.026135 0.000911 0.034338
    12 5.271970 -0.001935 0.000000 0.000024 0.043606 0.508934
    13 -2.867317 1.541742 2.408969 -1.375653 -1.398050 -2.272445
    14 6.063949 0.000000 0.000002 1.067007 1.254092 0.386044
    15 7.685221 0.000000 0.000000 0.000000 0.000000 -0.870973
    16 10.246255 0.000000 -0.000003 -1.865062 -0.147992 -0.007810
    17 -2.559235 1.488388 -2.541157 1.563106 1.443864 -2.093552
    18 6.269507 0.000000 -0.000001 -0.959799 -1.203369 0.420549
    19 8.573802 0.000000 -0.000004 0.000000 0.000000 -0.837330
    20 9.913458 0.000000 0.000003 2.185671 0.258373 0.245992
    21 2.452246 0.000000 0.000000 0.067650 -0.052481 0.001098
    22 0.946167 3.213873 -0.420090 -3.141592 -0.000002 1.413798
    23 1.827063 1.152534 -7.643625 -1.570796 -1.570796 0.000000
  time 11
    0 -0.030287 6.791176 40.338803 0.000000 0.000000 -1.565283
    1 0.000000 0.000000 0.000000 -0.000025 -1.466144 -1.570793
    2 -0.000007 0.000008 4.427393 -0.159149 3.102484 -0.030114
    3 18.301065 0.000000 0.000000 0.000000 0.000000 -0.419553
    4 17.106758 0.000000 0.000000 0.143427 -0.051573 0.363153
    5 0.000006 -0.000004 -4.427393 0.066421 -3.266141 -0.421914
    6 18.133167 0.000000 0.000000 0.000000 0.000000 -0.518261
    7 17.375956 0.000000 0.000000 0.138121 -0.018003 0.099116
    8 2.243484 -0.002685 0.234385 0.070481 -0.105919 0.017642
    9 3.373776 -0.004248 0.000000 -0.017405 -0.016255 0.067490
    10 5.335510 -0.004100 0.000000 0.017375 -0.001314 0.074628
    11 5.172566 -0.004197 0.000000 -0.026135 0.000875 0.032933
    12 5.271970 -0.001935 0.000000 0.000024 0.043606 0.505045
    13 -2.871224 1.530023 2.408969 -1.501005 -1.401088 -2.141288
    14 6.063949 0.000000 0.000002 1.174456 1.186223 0.529732
    15 7.685221 0.000000 0.000000 0.000000 0.000000 -1.018995
    16 10.246255 0.000000 -0.000003 -1.865062 -0.147992 -0.007810
    17 -2.563141 1.480575 -2.541157 1.400490 1.441850 -2.253712
    18 6.269507 0.000000 -0.000001 -0.847406 -1.233925 0.314748
    19 8.573802 0.000000 -0.000004 0.000000 0.000000 -0.728654
    20 9.913458 0.000000 0.000003 2.129802 0.296773 0.085653
    21 2.452246 0.000000 0.000000 0.065415 -0.051811 0.018284
    22 0.946167 3.213873 -0.420090 -3.141592 -0.000002 1.413798
    23 1.827063 1.152534 -7.643625 -1.570796 -1.570796 0.000000
  time 12
    0 0.114249 6.791176 40.288541 0.000000 0.000000 -1.571419
    1 0.000000 0.000000 0.000000 -0.000025 -1.554882 -1.570745
    2 -0.000007 0.000008 4.427393 -0.155314 3.193532 -0.076130
    3 18.301065 0.000000 0.000000 0.000000 0.000000 -0.522737
    4 17.106758 0.000000 0.000000 0.138056 -0.046724 0.420451
    5 0.000006 -0.000004 -4.427393 0.103992 -3.183223 -0.377011
    6 18.133167 0.000000 0.000000 0.000000 0.000000 -0.434202
    7 17.375956 0.000000 0.000000 0.131493 -0.015517 0.056748
    8 2.255203 -0.002685 0.035160 0.074747 -0.017184 0.016860
    9 3.373776 -0.004248 0.000000 -0.017405 -0.016303 0.064751
    10 5.335510 -0.004100 0.000000 0.017375 -0.001241 0.070550
    11 5.172566 -0.004197 0.000000 -0.026135 0.000827 0.030895
    12 5.271970 -0.001935 0.000000 0.000024 0.043606 0.499194
    13 -2.879036 1.514398 2.408969 -1.249825 -1.392547 -2.390439
    14 6.063949 0.000000 0.000002 0.998293 1.230923 0.345939
    15 7.685221 0.000000 0.000000 0.000000 0.000000 -0.828018
    16 10.246255 0.000000 -0.000003 -1.865062 -0.147992 -0.007810
    17 -2.570954 1.464949 -2.541157 -1.297078 1.703007 -4.941716
    18 6.269507 0.000000 -0.000001 -1.054189 -1.196882 0.533385
    19 8.573802 0.000000 -0.000004 0.000000 0.000000 -0.893470
    20 9.913458 0.000000 0.000003 1.991602 0.320084 0.057465
    21 2.452246 0.000000 0.000000 0.062457 -0.050343 0.036547
    22 0.946167 3.213873 -0.420090 -3.141592 -0.000002 1.413798
    23 1.827063 1.152534 -7.643625 -1.570796 -1.570796 0.000000
  time 13
    0 0.262691 6.791176 40.271787 0.000000 0.000000 -1.579472
    1 0.000000 0.000000 0.000000 -0.000025 -1.640564 -1.570793
    2 -0.000007 0.000008 4.427393 -0.144959 3.279692 -0.111983
    3 18.301065 0.000000 0.000000 0.000000 0.000000 -0.603218
    4 17.106758 0.000000 0.000000 0.130588 -0.042355 0.466173
    5 0.000006 -0.000004 -4.427393 0.132842 -3.099827 -0.324965
    6 18.133167 0.000000 0.000000 0.000000 0.000000 -0.328334
    7 17.375956 0.000000 0.000000 0.122971 -0.012365 0.002900
    8 2.251297 -0.002685 -0.156252 0.079508 0.068487 0.016031
    9 3.373776 -0.004248 0.000000 -0.017405 -0.016352 0.061435
    10 5.335510 -0.004100 0.000000 0.017375 -0.001156 0.065549
    11 5.172566 -0.004197 0.000000 -0.026135 0.000755 0.028394
    12 5.271970 -0.001935 0.000000 0.000024 0.043606 0.492187
    13 -2.890756 1.494866 2.408969 -1.043251 -1.375144 -2.593613
    14 6.063949 0.000000 0.000002 0.786100 1.264571 0.122271
    15 7.685221 0.000000 0.000000 0.000000 0.000000 -0.634853
    16 10.246255 0.000000 -0.000003 -1.865062 -0.147992 -0.007810
    17 -2.582673 1.445417 -2.541157 2.144369 1.418741 -1.490222
    18 6.269507 0.000000 -0.000001 -1.200014 -1.142257 0.686915
    19 8.573802 0.000000 -0.000004 0.000000 0.000000 -1.044712
    20 9.913458 0.000000 0.000003 1.878978 0.331274 0.051029
    21 2.452246 0.000000 0.000000 0.059104 -0.048302 0.055283
    22 0.946167 3.213873 -0.420090 -3.141592 -0.000002 1.413798
    23 1.827063 1.152534 -7.643625 -1.570796 -1.570796 0.000000
  time 14
    0 0.411133 6.791176 40.255033 0.000000 0.000000 -1.588868
    1 0.000000 0.000000 0.000000 -0.000025 -1.574596 -1.570745
    2 -0.000007 0.000008 4.427393 -0.155793 3.203787 -0.085141
    3 18.301065 0.000000 0.000000 0.000000 0.000000 -0.548424
    4 17.106758 0.000000 0.000000 0.122017 -0.036183 0.438597
    5 0.000006 -0.000004 -4.427393 0.110318 -3.169467 -0.371119
    6 18.133167 0.000000 0.000000 0.000000 0.000000 -0.418053
    7 17.375956 0.000000 0.000000 0.113243 -0.010283 0.045725
    8 2.255203 -0.002685 -0.007810 0.082166 0.002573 0.015065
    9 3.373776 -0.004248 0.000000 -0.017405 -0.016425 0.057691
    10 5.335510 -0.004100 0.000000 0.017407 -0.001059 0.059953
    11 5.172566 -0.004197 0.000000 -0.026157 0.000683 0.025600
    12 5.271970 -0.001935 0.000000 0.000024 0.043606 0.484375
    13 -2.902475 1.471428 2.408969 -1.197516 -1.389724 -2.428689
    14 6.063949 0.000000 0.000002 0.989464 1.230268 0.327911
    15 7.685221 0.000000 0.000000 0.000000 0.000000 -0.769684
    16 10.246255 0.000000 -0.000003 -1.865062 -0.147992 -0.007810
    17 -2.594392 1.421979 -2.541157 -1.425907 1.700004 -5.056909
    18 6.269507 0.000000 -0.000001 -1.080573 -1.150625 0.568009
    19 8.573802 0.000000 -0.000004 0.000000 0.000000 -0.915328
    20 9.913458 0.000000 0.000003 1.982093 0.308641 0.041603
    21 2.452246 0.000000 0.000000 0.055422 -0.045877 0.074192
    22 0.946167 3.213873 -0.420090 -3.141592 -0.000002 1.413798
    23 1.827063 1.152534 -7.643625 -1.570796 -1.570796 0.000000
  time 15
    0 0.555668 6.791176 40.238278 0.000000 0.000000 -1.599223
    1 0.000000 0.000000 0.000000 -0.000025 -1.518462 -1.570793
    2 -0.000007 0.000008 4.427393 -0.161929 3.137945 -0.059737
    3 18.301065 0.000000 0.000000 0.000000 0.000000 -0.495813
    4 17.106758 0.000000 0.000000 0.112526 -0.030532 0.412406
    5 0.000006 -0.000004 -4.427393 0.086644 -3.227070 -0.405399
    6 18.133167 0.000000 0.000000 0.000000 0.000000 -0.480166
    7 17.375956 0.000000 0.000000 0.102482 -0.007941 0.074478
    8 2.255203 -0.002685 0.117194 0.085382 -0.053536 0.014098
    9 3.373776 -0.004248 0.000000 -0.017405 -0.016486 0.053670
    10 5.335510 -0.004100 0.000000 0.017407 -0.000949 0.053927
    11 5.172566 -0.004197 0.000000 -0.026157 0.000611 0.022589
    12 5.271970 -0.001935 0.000000 0.000024 0.043606 0.476082
    13 -2.914194 1.447989 2.408969 -1.396006 -1.400016 -2.218838
    14 6.063949 0.000000 0.000002 1.171110 1.177545 0.508496
    15 7.685221 0.000000 0.000000 0.000000 0.000000 -0.925064
    16 10.246255 0.000000 -0.000003 -1.865062 -0.147992 -0.007810
    17 -2.606111 1.402447 -2.541157 1.278361 1.436869 -2.348049
    18 6.269507 0.000000 -0.000001 -0.980658 -1.151565 0.466691
    19 8.573802 0.000000 -0.000004 0.000000 0.000000 -0.802818
    20 9.913458 0.000000 0.000003 2.084841 0.297960 0.039881
    21 2.452246 0.000000 0.000000 0.051543 -0.043197 0.092972
    22 0.946167 3.213873 -0.420090 -3.141592 -0.000002 1.413798
    23 1.827063 1.152534 -7.643625 -1.570796 -1.570796 0.000000
  time 16
    0 0.696298 6.791176 40.238278 0.000000 0.000000 -1.610057
    1 0.000000 0.000000 0.000000 -0.000025 -1.568972 -1.570793
    2 -0.000007 0.000008 4.427393 -0.159340 3.186152 -0.080252
    3 18.301065 0.000000 0.000000 0.000000 0.000000 -0.544131
    4 17.106758 0.000000 0.000000 0.102520 -0.025161 0.440787
    5 0.000006 -0.000004 -4.427393 0.107155 -3.179593 -0.377278
    6 18.133167 0.000000 0.000000 0.000000 0.000000 -0.423712
    7 17.375956 0.000000 0.000000 0.091291 -0.006120 0.044810
    8 2.255203 -0.002685 0.000003 0.090266 -0.002992 0.013039
    9 3.373776 -0.004248 0.000000 -0.017436 -0.016558 0.049499
    10 5.335510 -0.004100 0.000000 0.017407 -0.000840 0.047676
    11 5.172566 -0.004197 0.000000 -0.026157 0.000527 0.019455
    12 5.271970 -0.001935 0.000000 0.000024 0.043606 0.467306
    13 -2.925913 1.424551 2.405062 -1.274173 -1.395227 -2.333683
    14 6.063949 0.000000 0.000002 1.131519 1.186632 0.461593
    15 7.685221 0.000000 0.000000 0.000000 0.000000 -0.851418
    16 10.246255 0.000000 -0.000003 -1.865062 -0.147992 -0.007810
    17 -2.617831 1.375103 -2.541157 1.441072 1.441154 -2.175163
    18 6.269507 0.000000 -0.000001 -1.077335 -1.120633 0.570009
    19 8.573802 0.000000 -0.000004 0.000000 0.000000 -0.887565
    20 9.913458 0.000000 0.000003 2.059485 0.327629 0.051664
    21 2.452246 0.000000 0.000000 0.047533 -0.040390 0.111321
    22 0.946167 3.213873 -0.420090 -3.141592 -0.000002 1.413798
    23 1.827063 1.152534 -7.643625 -1.570796 -1.570796 0.000000
  time 17
    0 0.825208 6.791176 40.238278 0.000000 0.000000 -1.621083
    1 0.000000 0.000000 0.000000 -0.000025 -1.642388 -1.570793
    2 -0.000007 0.000008 4.427393 -0.151575 3.258512 -0.107286
    3 18.301065 0.000000 0.000000 0.000000 0.000000 -0.606129
    4 17.106758 0.000000 0.000000 0.092220 -0.020432 0.476632
    5 0.000006 -0.000004 -4.427393 0.132266 -3.106800 -0.328268
    6 18.133167 0.000000 0.000000 0.000000 0.000000 -0.322744
    7 17.375956 0.000000 0.000000 0.079928 -0.004096 -0.007107
    8 2.251297 -0.002685 -0.160158 0.095398 0.070448 0.011981
    9 3.373776 -0.004248 0.000000 -0.017436 -0.016644 0.045278
    10 5.335510 -0.004100 0.000000 0.017407 -0.000730 0.041302
    11 5.172566 -0.004197 0.000000 -0.026157 0.000443 0.016275
    12 5.271970 -0.001935 0.000000 0.000024 0.043606 0.458048
    13 -2.941538 1.397207 2.405062 -1.098699 -1.382541 -2.502804
    14 6.063949 0.000000 0.000002 1.025707 1.218643 0.345405
    15 7.685221 0.000000 0.000000 0.000000 0.000000 -0.705649
    16 10.246255 0.000000 -0.000003 -1.865062 -0.147992 -0.007810
    17 -2.629550 1.351665 -2.541157 -1.394801 1.701689 -4.999217
    18 6.269507 0.000000 -0.000001 -1.198109 -1.076351 0.696088
    19 8.573802 0.000000 -0.000004 0.000000 0.000000 -1.015108
    20 9.913458 0.000000 0.000003 2.004427 0.366961 0.065350
    21 2.452246 0.000000 0.000000 0.043457 -0.037454 0.129153
    22 0.946167 3.213873 -0.420090 -3.141592 -0.000002 1.413798
    23 1.827063 1.152534 -7.643625 -1.570796 -1.570796 0.000000
  time 18
    0 0.946305 6.791176 40.255033 0.000000 0.000000 -1.631821
    1 0.000000 0.000000 0.000000 -0.000025 -1.692897 -1.570793
    2 -0.000007 0.000008 4.427393 -0.144863 3.306527 -0.122624
    3 18.301065 0.000000 0.000000 0.000000 0.000000 -0.641349
    4 17.106758 0.000000 0.000000 0.082140 -0.016223 0.497817
    5 0.000006 -0.000004 -4.427393 0.143960 -3.053687 -0.278722
    6 18.133167 0.000000 0.000000 0.000000 0.000000 -0.217842
    7 17.375956 0.000000 0.000000 0.068909 -0.002101 -0.061463
    8 2.239578 -0.002685 -0.273443 0.100097 0.121017 0.010968
    9 3.373776 -0.004248 0.000000 -0.017436 -0.016717 0.041007
    10 5.335510 -0.004100 0.000000 0.017407 -0.000621 0.034928
    11 5.172566 -0.004197 0.000000 -0.026157 0.000360 0.013094
    12 5.271970 -0.001935 0.000000 0.000024 0.043606 0.448276
    13 -2.953257 1.369862 2.405062 -1.200940 -1.391475 -2.388912
    14 6.063949 0.000000 0.000002 1.007265 1.273823 0.316071
    15 7.685221 0.000000 0.000000 0.000000 0.000000 -0.615828
    16 10.246255 0.000000 -0.000003 -1.865062 -0.147992 -0.007810
    17 -2.641269 1.324320 -2.545063 -1.210649 1.708940 -4.803656
    18 6.269507 0.000000 -0.000001 -1.273736 -1.038180 0.773887
    19 8.573802 0.000000 -0.000004 0.000000 0.000000 -1.102232
    20 9.913458 0.000000 0.000003 1.956959 0.397562 0.074051
    21 2.452246 0.000000 0.000000 0.039380 -0.034519 0.146166
    22 0.946167 3.213873 -0.420090 -3.141592 -0.000002 1.413798
    23 1.827063 1.152534 -7.643625 -1.570796 -1.570796 0.000000
  time 19
    0 0.977556 6.791176 40.472836 0.000000 0.000000 -1.641505
    1 0.000000 0.000000 0.000000 -0.000025 -1.632462 -1.570793
    2 -0.000007 0.000008 4.427393 -0.157423 3.236660 -0.079485
    3 18.301065 0.000000 0.000000 0.000000 0.000000 -0.550025
    4 17.106758 0.000000 0.000000 0.072870 -0.012977 0.449503
    5 0.000006 -0.000004 -4.427393 0.127953 -3.111768 -0.291399
    6 18.133167 0.000000 0.000000 0.000000 0.000000 -0.242412
    7 17.375956 0.000000 0.000000 0.059526 -0.003778 -0.050389
    8 2.251297 -0.002685 -0.136720 0.103621 0.060643 0.009863
    9 3.373776 -0.004248 0.000000 -0.017436 -0.016789 0.036785
    10 5.335510 -0.004100 0.000000 0.017407 -0.000511 0.028594
    11 5.172566 -0.004197 0.000000 -0.026157 0.000276 0.009929
    12 5.271970 -0.001935 0.000000 0.000024 0.043606 0.437893
    13 -2.968883 1.342517 2.405062 -1.299757 -1.397764 -2.278168
    14 6.063949 0.000000 0.000002 1.198951 1.204562 0.484586
    15 7.685221 0.000000 0.000000 0.000000 0.000000 -0.785593
    16 10.246255 0.000000 -0.000003 -1.865062 -0.147992 -0.007810
    17 -2.656894 1.296975 -2.545063 -1.556555 1.700480 -5.142252
    18 6.269507 0.000000 -0.000001 -1.225064 -1.041658 0.717676
    19 8.573802 0.000000 -0.000004 0.000000 0.000000 -1.017869
    20 9.913458 0.000000 0.000003 1.963888 0.397393 0.074323
    21 2.452246 0.000000 0.000000 0.035239 -0.031552 0.162189
    22 0.946167 3.213873 -0.420090 -3.141592 -0.000002 1.413798
    23 1.827063 1.152534 -7.643625 -1.570796 -1.570796 0.000000
  time 20
    0 0.993182 6.791176 40.673885 0.000000 0.000000 -1.649367
    1 0.000000 0.000000 0.000000 -1.570795 -1.570796 0.000000
    2 -0.000007 0.000008 4.427393 -0.164326 3.164492 -0.028101
    3 18.301065 0.000000 0.000000 0.000000 0.000000 -0.439200
    4 17.106758 0.000000 0.000000 0.065402 -0.010813 0.390730
    5 0.000006 -0.000004 -4.427393 0.109935 -3.171091 -0.305147
    6 18.133167 0.000000 0.000000 0.000000 0.000000 -0.267740
    7 17.375956 0.000000 0.000000 0.051951 -0.004963 -0.038806
    8 2.255203 -0.002685 0.000003 0.107145 -0.000932 0.008805
    9 3.373776 -0.004248 0.000000 -0.017436 -0.016862 0.032639
    10 5.335510 -0.004100 0.000000 0.017439 -0.000402 0.022384
    11 5.172566 -0.004197 0.000000 -0.026157 0.000192 0.006811
    12 5.271970 -0.001935 0.000000 0.000024 0.043606 0.426803
    13 -2.984508 1.311266 2.405062 -1.388492 -1.401731 -2.176963
    14 6.063949 0.000000 0.000002 1.277277 1.155522 0.581754
    15 7.685221 0.000000 0.000000 0.000000 0.000000 -0.868122
    16 10.246255 0.000000 -0.000003 -1.865062 -0.147992 -0.007810
    17 -2.672520 1.265724 -2.545063 1.289176 1.435295 -2.288060
    18 6.269507 0.000000 -0.000001 -1.148390 -1.074753 0.651188
    19 8.573802 0.000000 -0.000004 0.000000 0.000000 -0.881123
    20 9.913458 0.000000 0.000003 1.970079 0.364418 0.062359
    21 2.452246 0.000000 0.000000 0.031163 -0.028649 0.176920
    22 0.946167 3.213873 -0.420090 -3.141592 -0.000002 1.413798
    23 1.827063 1.152534 -7.643625 -1.570796 -1.570796 0.000000
  time 21
    0 1.047871 6.791176 40.690639 0.000000 0.000000 -1.655119
    1 0.000000 0.000000 0.000000 -0.000025 -1.564078 -1.570793
    2 -0.000007 0.000008 4.427393 -0.165189 3.154142 -0.021007
    3 18.301065 0.000000 0.000000 0.000000 0.000000 -0.424865
    4 17.106758 0.000000 0.000000 0.060068 -0.008528 0.383936
    5 0.000006 -0.000004 -4.427393 0.107826 -3.178064 -0.306754
    6 18.133167 0.000000 0.000000 0.000000 0.000000 -0.268844
    7 17.375956 0.000000 0.000000 0.046097 -0.004588 -0.039213
    8 2.255203 -0.002685 0.011722 0.111164 -0.007600 0.007792
    9 3.373776 -0.004248 0.000000 -0.017436 -0.016923 0.028594
    10 5.335510 -0.004100 0.000000 0.017439 -0.000292 0.016276
    11 5.172566 -0.004197 0.000000 -0.026157 0.000120 0.003769
    12 5.271970 -0.001935 0.000000 0.000024 0.043606 0.415038
    13 -3.000134 1.276109 2.405062 -1.474089 -1.404268 -2.078428
    14 6.063949 0.000000 0.000002 1.285181 1.150528 0.643094
    15 7.685221 0.000000 0.000000 0.000000 0.000000 -0.837762
    16 10.246255 0.000000 -0.000003 -1.863470 -0.106957 -0.020358
    17 -2.684239 1.234474 -2.545063 1.378093 1.437712 -2.186644
    18 6.269507 0.000000 -0.000001 -1.134579 -1.105873 0.666913
    19 8.573802 0.000000 -0.000004 0.000000 0.000000 -0.817926
    20 9.913458 0.000000 0.000003 1.948925 0.326188 0.047766
    21 2.452246 0.000000 0.000000 0.027218 -0.025778 0.190014
    22 0.946167 3.213873 -0.420090 -3.141592 -0.000002 1.413798
    23 1.827063 1.152534 -7.643625 -1.570796 -1.570796 0.000000
  time 22
    0 1.094747 6.791176 40.690639 0.000000 0.000000 -1.659913
    1 0.000000 0.000000 0.000000 -0.000025 -1.561904 -1.570745
    2 -0.000007 0.000008 4.427393 -0.165764 3.149350 -0.018802
    3 18.301065 0.000000 0.000000 0.000000 0.000000 -0.420863
    4 17.106758 0.000000 0.000000 0.055690 -0.006364 0.382595
    5 0.000006 -0.000004 -4.427393 0.106964 -3.180835 -0.308182
    6 18.133167 0.000000 0.000000 0.000000 0.000000 -0.270017
    7 17.375956 0.000000 0.000000 0.041190 -0.004038 -0.039568
    8 2.255203 -0.002685 0.019535 0.115121 -0.009683 0.006826
    9 3.373776 -0.004248 0.000000 -0.017436 -0.016996 0.024649
    10 5.335510 -0.004100 0.000000 0.017439 -0.000195 0.010373
    11 5.172566 -0.004197 0.000000 -0.026157 0.000036 0.000805
    12 5.271970 -0.001935 0.000000 0.000024 0.043606 0.402791
    13 -3.011853 1.240952 2.401156 -1.558069 -1.405519 -1.980943
    14 6.063949 0.000000 0.000002 1.281692 1.154458 0.698782
    15 7.685221 0.000000 0.000000 0.000000 0.000000 -0.784532
    16 10.246255 0.000000 -0.000003 -1.862297 -0.061641 -0.034123
    17 -2.699864 1.199316 -2.545063 1.533148 1.439616 -2.017968
    18 6.269507 0.000000 -0.000001 -1.133245 -1.137086 0.698226
    19 8.573802 0.000000 -0.000004 0.000000 0.000000 -0.765468
    20 9.913458 0.000000 0.000003 1.925339 0.285838 0.033627
    21 2.452246 0.000000 0.000000 0.023273 -0.023002 0.200912
    22 0.946167 3.213873 -0.420090 -3.141592 -0.000002 1.413798
    23 1.827063 1.152534 -7.643625 -1.570796 -1.570796 0.000000
  time 23
    0 1.149436 6.791176 40.690639 0.000000 0.000000 -1.664132
    1 0.000000 0.000000 0.000000 -0.000025 -1.561995 -1.570793
    2 -0.000007 0.000008 4.427393 -0.166243 3.147145 -0.018610
    3 18.301065 0.000000 0.000000 0.000000 0.000000 -0.421372
    4 17.106758 0.000000 0.000000 0.051901 -0.004200 0.383534
    5 0.000006 -0.000004 -4.427393 0.106868 -3.181503 -0.308807
    6 18.133167 0.000000 0.000000 0.000000 0.000000 -0.269741
    7 17.375956 0.000000 0.000000 0.036886 -0.003344 -0.040534
    8 2.255203 -0.002685 0.019535 0.118955 -0.009512 0.005859
    9 3.373776 -0.004248 0.000000 -0.017436 -0.017069 0.020830
    10 5.335510 -0.004100 0.000000 0.017439 -0.000085 0.004655
    11 5.172566 -0.004197 0.000000 -0.026157 -0.000024 -0.002051
    12 5.271970 -0.001935 0.000000 0.000024 0.043606 0.390383
    13 -3.027478 1.205794 2.401156 1.514293 -1.735777 -5.040001
    14 6.063949 0.000000 0.000002 1.274572 1.158961 0.747901
    15 7.685221 0.000000 0.000000 0.000000 0.000000 -0.728386
    16 10.246255 0.000000 -0.000003 -1.861794 -0.018466 -0.047183
    17 -2.715490 1.164159 -2.545063 -1.451558 1.703300 -4.988980
    18 6.269507 0.000000 -0.000001 -1.137436 -1.163976 0.734091
    19 8.573802 0.000000 -0.000004 0.000000 0.000000 -0.720141
    20 9.913458 0.000000 0.000003 1.903669 0.248710 0.021663
    21 2.452246 0.000000 0.000000 0.019394 -0.020354 0.208923
    22 0.946167 3.213873 -0.420090 -3.141592 -0.000002 1.413798
    23 1.827063 1.152534 -7.643625 -1.570796 -1.570796 0.000000
  time 24
    0 1.208032 6.791176 40.690639 0.000000 0.000000 -1.668063
    1 0.000000 0.000000 0.000000 -0.000025 -1.563120 -1.570793
    2 -0.000007 0.000008 4.427393 -0.166722 3.146187 -0.019377
    3 18.301065 0.000000 0.000000 0.000000 0.000000 -0.423701
    4 17.106758 0.000000 0.000000 0.048406 -0.002075 0.385411
    5 0.000006 -0.000004 -4.427393 0.107059 -3.181312 -0.308985
    6 18.133167 0.000000 0.000000 0.000000 0.000000 -0.268568
    7 17.375956 0.000000 0.000000 0.032840 -0.002535 -0.041956
    8 2.255203 -0.002685 0.015628 0.122602 -0.008286 0.004938
    9 3.373776 -0.004248 0.000000 -0.017436 -0.017130 0.017161
    10 5.335510 -0.004100 0.000000 0.017439 0.000000 -0.000858
    11 5.172566 -0.004197 0.000000 -0.026157 -0.000096 -0.004799
    12 5.271970 -0.001935 0.000000 0.000024 0.043606 0.378585
    13 -3.043104 1.170637 2.401156 1.461698 -1.736027 -4.974756
    14 6.063949 0.000000 0.000002 1.261327 1.162317 0.791672
    15 7.685221 0.000000 0.000000 0.000000 0.000000 -0.669919
    16 10.246255 0.000000 -0.000003 -1.861794 0.024888 -0.060243
    17 -2.727209 1.129002 -2.548969 -1.308563 1.707512 -4.832837
    18 6.269507 0.000000 -0.000001 -1.140960 -1.188608 0.769818
    19 8.573802 0.000000 -0.000004 0.000000 0.000000 -0.675965
    20 9.913458 0.000000 0.000003 1.883474 0.213446 0.011330
    21 2.452246 0.000000 0.000000 0.015713 -0.017834 0.213144
    22 0.946167 3.213873 -0.420090 -3.141592 -0.000002 1.413798
    23 1.827063 1.152534 -7.643625 -1.570796 -1.570796 0.000000
  time 25
    0 1.266628 6.791176 40.673885 0.000000 0.000000 -1.671802
    1 0.000000 0.000000 0.000000 -0.000025 -1.564640 -1.570793
    2 -0.000007 0.000008 4.427393 -0.167202 3.145612 -0.020623
    3 18.301065 0.000000 0.000000 0.000000 0.000000 -0.426757
    4 17.106758 0.000000 0.000000 0.045059 0.000129 0.387690
    5 0.000006 -0.000004 -4.427393 0.107443 -3.180739 -0.308985
    6 18.133167 0.000000 0.000000 0.000000 0.000000 -0.267188
    7 17.375956 0.000000 0.000000 0.028880 -0.001638 -0.043429
    8 2.255203 -0.002685 0.011722 0.126127 -0.006693 0.004064
    9 3.373776 -0.004248 0.000000 -0.017436 -0.017191 0.013669
    10 5.335510 -0.004100 0.000000 0.017439 0.000085 -0.006085
    11 5.172566 -0.004197 0.000000 -0.026157 -0.000168 -0.007409
    12 5.271970 -0.001935 0.000000 0.000024 0.043606 0.368717
    13 -3.054823 1.139386 2.401156 1.447813 -1.735920 -4.950814
    14 6.063949 0.000000 0.000002 1.236405 1.160189 0.823450
    15 7.685221 0.000000 0.000000 0.000000 0.000000 -0.614569
    16 10.246255 0.000000 -0.000003 -1.862381 0.067261 -0.073047
    17 -2.738928 1.101657 -2.548969 -1.212372 1.712273 -4.725968
    18 6.269507 0.000000 -0.000001 -1.132388 -1.208728 0.793613
    19 8.573802 0.000000 -0.000004 0.000000 0.000000 -0.630716
    20 9.913458 0.000000 0.000003 1.866742 0.183862 0.003263
    21 2.452246 0.000000 0.000000 0.012228 -0.015569 0.212240
    22 0.946167 3.213873 -0.420090 -3.141592 -0.000002 1.413798
    23 1.827063 1.152534 -7.643625 -1.570796 -1.570796 0.000000
  time 26
    0 1.329129 6.791176 40.673885 0.000000 0.000000 -1.675637
    1 0.000000 0.000000 0.000000 -0.000025 -1.566236 -1.570793
    2 -0.000007 0.000008 4.427393 -0.167681 3.145133 -0.021966
    3 18.301065 0.000000 0.000000 0.000000 0.000000 -0.430395
    4 17.106758 0.000000 0.000000 0.041748 0.002414 0.390193
    5 0.000006 -0.000004 -4.427393 0.107730 -3.180262 -0.309253
    6 18.133167 0.000000 0.000000 0.000000 0.000000 -0.266152
    7 17.375956 0.000000 0.000000 0.025006 -0.000655 -0.044801
    8 2.255203 -0.002685 0.007816 0.129404 -0.005002 0.003281
    9 3.373776 -0.004248 0.000000 -0.017436 -0.017251 0.010377
    10 5.335510 -0.004100 0.000000 0.017439 0.000170 -0.011004
    11 5.172566 -0.004197 0.000000 -0.026157 -0.000228 -0.009879
    12 5.271970 -0.001935 0.000000 0.000024 0.043606 0.358623
    13 -3.066542 1.112042 2.401156 1.538165 -1.734312 -5.032370
    14 6.063949 0.000000 0.000002 1.192827 1.141686 0.829943
    15 7.685221 0.000000 0.000000 0.000000 0.000000 -0.570288
    16 10.246255 0.000000 -0.000003 -1.873274 0.105262 -0.087068
    17 -2.750647 1.074312 -2.548969 -1.209979 1.712822 -4.713434
    18 6.269507 0.000000 -0.000001 -1.100099 -1.211643 0.792923
    19 8.573802 0.000000 -0.000004 0.000000 0.000000 -0.596893
    20 9.913458 0.000000 0.000003 1.869396 0.175640 0.008611
    21 2.452246 0.000000 0.000000 0.009138 -0.013367 0.192512
    22 0.946167 3.213873 -0.420090 -3.141592 -0.000002 1.413798
    23 1.827063 1.152534 -7.643625 -1.570796 -1.570796 0.000000
  time 27
    0 1.395538 6.791176 40.657131 0.000000 0.000000 -1.679568
    1 0.000000 0.000000 0.000000 -0.000025 -1.567786 -1.570793
    2 -0.000007 0.000008 4.427393 -0.168256 3.144366 -0.023404
    3 18.301065 0.000000 0.000000 0.000000 0.000000 -0.433888
    4 17.106758 0.000000 0.000000 0.038253 0.004858 0.392741
    5 0.000006 -0.000004 -4.427393 0.108018 -3.179879 -0.309521
    6 18.133167 0.000000 0.000000 0.000000 0.000000 -0.265186
    7 17.375956 0.000000 0.000000 0.020788 0.000386 -0.046223
    8 2.255203 -0.002685 0.003909 0.132433 -0.003335 0.002499
    9 3.373776 -0.004248 0.000000 -0.017436 -0.017300 0.007337
    10 5.335510 -0.004100 0.000000 0.017439 0.000256 -0.015574
    11 5.172566 -0.004197 0.000000 -0.026157 -0.000288 -0.012164
    12 5.271970 -0.001935 0.000000 0.000024 0.043606 0.348722
    13 -3.078261 1.080791 2.401156 -1.397432 -1.405233 -2.089588
    14 6.063949 0.000000 0.000002 1.126962 1.110003 0.807714
    15 7.685221 0.000000 0.000000 0.000000 0.000000 -0.532570
    16 10.246255 0.000000 -0.000003 -1.890200 0.137287 -0.101152
    17 -2.762366 1.046968 -2.548969 -1.297365 1.709197 -4.791793
    18 6.269507 0.000000 -0.000001 -1.044188 -1.196788 0.766921
    19 8.573802 0.000000 -0.000004 0.000000 0.000000 -0.575572
    20 9.913458 0.000000 0.000003 1.887306 0.188864 0.024110
    21 2.452246 0.000000 0.000000 0.006509 -0.011294 0.133374
    22 0.946167 3.213873 -0.420090 -3.141592 -0.000002 1.413798
    23 1.827063 1.152534 -7.643625 -1.570796 -1.570796 0.000000
  time 28
    0 1.465852 6.791176 40.657131 0.000000 0.000000 -1.684266
    1 0.000000 0.000000 0.000000 -0.000025 -1.569261 -1.570793
    2 -0.000007 0.000008 4.427393 -0.168832 3.143024 -0.023787
    3 18.301065 0.000000 0.000000 0.000000 0.000000 -0.435416
    4 17.106758 0.000000 0.000000 0.034096 0.007544 0.394216
    5 0.000006 -0.000004 -4.427393 0.108401 -3.179497 -0.308539
    6 18.133167 0.000000 0.000000 0.000000 0.000000 -0.261459
    7 17.375956 0.000000 0.000000 0.016053 0.001426 -0.049170
    8 2.255203 -0.002685 0.000003 0.135216 -0.001839 0.001855
    9 3.373776 -0.004248 0.000000 -0.017436 -0.017349 0.004598
    10 5.335510 -0.004100 0.000000 0.017439 0.000329 -0.019694
    11 5.172566 -0.004197 0.000000 -0.026157 -0.000348 -0.014217
    12 5.271970 -0.001935 0.000000 0.000024 0.043606 0.342068
    13 -3.082168 1.061259 2.401156 -1.182679 -1.394798 -2.300775
    14 6.063949 0.000000 0.000002 1.037385 1.087489 0.750422
    15 7.685221 0.000000 0.000000 0.000000 0.000000 -0.501812
    16 10.246255 0.000000 -0.000003 -1.865230 0.152452 -0.099039
    17 -2.766273 1.027436 -2.548969 -1.452994 1.705241 -4.942194
    18 6.269507 0.000000 -0.000001 -0.954179 -1.186728 0.694364
    19 8.573802 0.000000 -0.000004 0.000000 0.000000 -0.529479
    20 9.913458 0.000000 0.000003 1.867553 0.198103 0.007704
    21 2.452246 0.000000 0.000000 0.004405 -0.009699 0.043051
    22 0.946167 3.213873 -0.420090 -3.141592 -0.000002 1.413798
    23 1.827063 1.152534 -7.643625 -1.570796 -1.570796 0.000000
  time 29
    0 1.614294 6.791176 40.673885 0.000000 0.000000 -1.693757
    1 0.000000 0.000000 0.000000 -1.570795 -1.570203 0.000000
    2 -0.000007 0.000008 4.427393 -0.169982 3.137657 -0.019665
    3 18.301065 0.000000 0.000000 0.000000 0.000000 -0.427266
    4 17.106758 0.000000 0.000000 0.025562 0.013155 0.391177
    5 0.000006 -0.000004 -4.427393 0.108689 -3.179688 -0.300415
    6 18.133167 0.000000 0.000000 0.000000 0.000000 -0.241169
    7 17.375956 0.000000 0.000000 0.006068 0.003624 -0.061514
    8 2.255203 -0.002685 0.000003 0.137565 -0.000663 0.001256
    9 3.373776 -0.004248 0.000000 -0.017436 -0.017385 0.002211
    10 5.335510 -0.004100 0.000000 0.017439 0.000389 -0.023260
    11 5.172566 -0.004197 0.000000 -0.026157 -0.000395 -0.016008
    12 5.271970 -0.001935 0.000000 0.000024 0.043606 0.338307
    13 -3.086074 1.049540 2.401156 -0.999501 -1.377110 -2.483441
    14 6.063949 0.000000 0.000002 0.863429 1.096495 0.584351
    15 7.685221 0.000000 0.000000 0.000000 0.000000 -0.479738
    16 10.246255 0.000000 -0.000003 -1.700242 0.119714 -0.048207
    17 -2.770179 1.015717 -2.548969 1.405850 1.431120 -2.082453
    18 6.269507 0.000000 -0.000001 -0.746063 -1.199796 0.464139
    19 8.573802 0.000000 -0.000004 0.000000 0.000000 -0.384450
    20 9.913458 0.000000 0.000003 1.713137 0.162162 -0.119461
    21 2.452246 0.000000 0.000000 0.002564 -0.008773 -0.046713
    22 0.946167 3.213873 -0.420090 -3.141592 -0.000002 1.413798
    23 1.827063 1.152534 -7.643625 -1.570796 -1.570796 0.000000
  time 30
    0 1.727579 6.791176 40.724147 0.000000 0.000000 -1.701715
    1 0.000000 0.000000 0.000000 -1.570795 -1.570796 0.000000
    2 -0.000007 0.000008 4.427393 -0.170941 3.132578 -0.013434
    3 18.301065 0.000000 0.000000 0.000000 0.000000 -0.414314
    4 17.106758 0.000000 0.000000 0.018462 0.017483 0.385277
    5 0.000006 -0.000004 -4.427393 0.109168 -3.179402 -0.288364
    6 18.133167 0.000000 0.000000 0.000000 0.000000 -0.213633
    7 17.375956 0.000000 0.000000 -0.002024 0.005098 -0.077110
    8 2.255203 -0.002685 0.000003 0.139544 -0.000099 0.000796
    9 3.373776 -0.004248 0.000000 -0.017436 -0.017422 0.000302
    10 5.335510 -0.004100 0.000000 0.017407 0.000438 -0.026150
    11 5.172566 -0.004197 0.000000 -0.026157 -0.000431 -0.017444
    12 5.271970 -0.001935 0.000000 0.000024 0.043606 0.335253
    13 -3.089980 1.041727 2.401156 -0.875956 -1.358599 -2.606395
    14 6.063949 0.000000 0.000002 0.688690 1.101734 0.397655
    15 7.685221 0.000000 0.000000 0.000000 0.000000 -0.470457
    16 10.246255 0.000000 -0.000003 -1.516737 0.060927 0.003137
    17 -2.774085 1.007904 -2.548969 1.160442 1.415262 -2.327861
    18 6.269507 0.000000 -0.000001 -0.534422 -1.198292 0.213636
    19 8.573802 0.000000 -0.000004 0.000000 0.000000 -0.234206
    20 9.913458 0.000000 0.000003 1.546560 0.097060 -0.254240
    21 2.452246 0.000000 0.000000 0.000855 -0.008359 -0.101243
    22 0.946167 3.213873 -0.420090 -3.141592 -0.000002 1.413798
    23 1.827063 1.152534 -7.643625 -1.570796 -1.570796 0.000000
end
