version 1
nodes
  0 "Bip01" -1
  1 "Bip01 Pelvis" 0
  2 "Bip01 L Leg" 1
  3 "Bip01 L Leg1" 2
  4 "Bip01 L Foot" 3
  5 "Bip01 R Leg" 1
  6 "Bip01 R Leg1" 5
  7 "Bip01 R Foot" 6
  8 "Bip01 Spine" 1
  9 "Bip01 Spine1" 8
  10 "Bip01 Spine2" 9
  11 "Bip01 Spine3" 10
  12 "Bip01 Neck" 11
  13 "Bip01 L Arm" 12
  14 "Bip01 L Arm1" 13
  15 "Bip01 L Arm2" 14
  16 "Bip01 L Hand" 15
  17 "Bip01 R Arm" 12
  18 "Bip01 R Arm1" 17
  19 "Bip01 R Arm2" 18
  20 "Bip01 R Hand" 19
  21 "Bip01 Head" 12
  22 "Bone05" 21
  23 "Bone03" 1
end
skeleton
  time 0
    0 1.727579 6.791176 40.724147 0.000000 0.000000 -1.701715
    1 0.000000 0.000000 0.000000 -1.570795 -1.570796 0.000000
    2 -0.000007 0.000008 4.427393 -0.170941 3.132578 -0.013434
    3 18.301065 0.000000 0.000000 0.000000 0.000000 -0.414314
    4 17.106758 0.000000 0.000000 0.018462 0.017483 0.385277
    5 0.000006 -0.000004 -4.427393 0.106676 -3.185707 -0.350229
    6 18.133167 0.000000 0.000000 0.000000 0.000000 -0.336547
    7 17.375956 0.000000 0.000000 -0.219991 0.004636 -0.016353
    8 2.255203 -0.002685 0.000003 0.139544 -0.000099 0.000796
    9 3.373776 -0.004248 0.000000 -0.017436 -0.017422 0.000302
    10 5.335510 -0.004100 0.000000 0.017407 0.000438 -0.026150
    11 5.172566 -0.004197 0.000000 -0.026157 -0.000431 -0.017444
    12 5.271970 -0.001935 0.000000 0.000024 0.043606 0.335253
    13 -3.089980 1.041727 2.401156 -0.875956 -1.358599 -2.606395
    14 6.063949 0.000000 0.000002 0.688690 1.101734 0.397655
    15 7.685221 0.000000 0.000000 0.000000 0.000000 -0.470457
    16 10.246255 0.000000 -0.000003 -1.516737 0.060927 0.003137
    17 -2.774085 1.007904 -2.548969 1.160442 1.415262 -2.327861
    18 6.269507 0.000000 -0.000001 -0.534422 -1.198292 0.213636
    19 8.573802 0.000000 -0.000004 0.000000 0.000000 -0.234206
    20 9.913458 0.000000 0.000003 1.546560 0.097060 -0.254240
    21 2.452246 0.000000 0.000000 0.000855 -0.008359 -0.101243
    22 0.946167 3.213873 -0.420090 -3.141592 -0.000002 1.413798
    23 1.827063 1.152534 -7.643625 -1.570796 -1.570796 0.000000
  time 1
    0 1.586950 6.428193 40.874934 0.004123 -0.000093 -1.714850
    1 0.000000 0.000000 0.000000 -0.000025 -1.554410 -1.570793
    2 -0.000007 0.000008 4.427393 -0.168736 3.103442 0.054439
    3 18.301065 0.000000 0.000000 0.000000 0.000000 -0.296867
    4 17.106758 0.000000 0.000000 0.005108 0.014277 0.336024
    5 0.000006 -0.000004 -4.427393 0.101788 -3.200418 -0.340855
    6 18.133167 0.000000 0.000000 0.000000 0.000000 -0.335236
    7 17.375956 0.000000 0.000000 -0.233420 0.000732 -0.007564
    8 2.255203 -0.002685 0.035160 0.139358 -0.017650 0.008989
    9 3.373776 -0.004248 0.000000 -0.024361 -0.001666 0.005578
    10 5.335510 -0.004100 0.000000 0.011905 0.015759 -0.013504
    11 5.172566 -0.004197 0.000000 -0.030318 -0.000204 -0.007748
    12 5.271970 -0.001935 0.000000 0.000060 0.079494 0.335253
    13 -3.172014 1.041727 2.287871 -0.960697 -1.400373 -2.514346
    14 6.063949 0.000000 0.000002 0.764382 1.200223 0.523239
    15 7.685221 0.000000 0.000000 0.000000 0.000000 -0.508109
    16 10.246255 0.000000 -0.000003 -1.519502 0.100267 0.010563
    17 -2.680332 1.007904 -2.646629 -1.515399 1.719378 -5.004671
    18 6.269507 0.000000 -0.000001 -0.539565 -1.184848 0.196807
    19 8.573802 0.000000 -0.000004 0.000000 0.000000 -0.329537
    20 9.913458 0.000000 0.000003 1.546634 0.063322 -0.253515
    21 2.452246 0.000000 0.000000 -0.001118 -0.076759 -0.129929
    22 0.946167 3.213873 -0.420090 -3.141592 -0.000002 1.413798
    23 1.827063 1.152534 -7.643625 -1.570796 -1.570796 0.000000
  time 2
    0 1.247096 5.508635 41.075983 0.010163 -0.000186 -1.735080
    1 0.000000 0.000000 0.000000 -0.000025 -1.530638 -1.570793
    2 -0.000007 0.000008 4.427393 -0.154163 3.054660 0.224888
    3 18.301065 0.000000 0.000000 0.000000 0.000000 -0.001867
    4 17.106758 0.000000 0.000000 -0.016155 0.004858 0.167840
    5 0.000006 -0.000004 -4.427393 0.094887 -3.221721 -0.329518
    6 18.133167 0.000000 0.000000 0.000000 0.000000 -0.361392
    7 17.375956 0.000000 0.000000 -0.253822 -0.005281 0.031044
    8 2.255203 -0.002685 0.089849 0.138678 -0.042996 0.020266
    9 3.373776 -0.004248 0.000000 -0.033808 0.009179 0.012815
    10 5.335510 -0.004100 0.000000 0.004344 0.026140 0.003466
    11 5.172566 -0.004197 0.000000 -0.035990 0.000216 0.005498
    12 5.271970 -0.001935 0.000000 0.000084 0.104653 0.335253
    13 -3.226703 1.041727 2.205837 -0.946812 -1.447042 -2.526174
    14 6.063949 0.000000 0.000002 0.867702 1.249262 0.703748
    15 7.685221 0.000000 0.000000 0.000000 0.000000 -0.598129
    16 10.246255 0.000000 -0.000003 -1.522686 0.112220 0.018886
    17 -2.613924 1.007904 -2.713037 -1.238789 1.744611 -4.729891
    18 6.269507 0.000000 -0.000001 -0.547471 -1.161813 0.177358
    19 8.573802 0.000000 -0.000004 0.000000 0.000000 -0.459841
    20 9.913458 0.000000 0.000003 1.546634 0.057728 -0.253424
    21 2.452246 0.000000 0.000000 0.011505 -0.124423 -0.188766
    22 0.946167 3.213873 -0.420090 -3.141592 -0.000002 1.413798
    23 1.827063 1.152534 -7.643625 -1.570796 -1.570796 0.000000
  time 3
    0 0.801770 4.286592 41.327294 0.016970 -0.000093 -1.756653
    1 0.000000 0.000000 0.000000 -0.000025 -1.504068 -1.570793
    2 -0.000007 0.000008 4.427393 -0.152054 3.070569 0.074954
    3 18.301065 0.000000 0.000000 0.000000 0.000000 -0.286024
    4 17.106758 0.000000 0.000000 -0.044039 -0.015662 0.205964
    5 0.000006 -0.000004 -4.427393 0.088082 -3.246080 -0.306397
    6 18.133167 0.000000 0.000000 0.000000 0.000000 -0.381958
    7 17.375956 0.000000 0.000000 -0.275171 -0.010544 0.076306
    8 2.251297 -0.002685 0.148445 0.137318 -0.071160 0.031911
    9 3.373776 -0.004248 0.000000 -0.045716 0.003562 0.023518
    10 5.335510 -0.004100 0.000000 -0.004151 0.019994 0.023573
    11 5.172566 -0.004197 0.000000 -0.041833 0.000887 0.020520
    12 5.271970 -0.001935 0.000000 0.000072 0.094611 0.328857
    13 -3.211078 1.022195 2.237088 -0.488487 -1.464052 -2.982028
    14 6.063949 0.000000 0.000002 0.825263 1.177217 0.763255
    15 7.685221 0.000000 0.000000 0.000000 0.000000 -0.770744
    16 10.246255 0.000000 -0.000003 -1.525619 0.043354 0.024520
    17 -2.649081 0.988372 -2.689599 -1.418537 1.784090 -4.906890
    18 6.269507 0.000000 -0.000001 -0.567759 -1.131351 0.150321
    19 8.573802 0.000000 -0.000004 0.000000 0.000000 -0.604333
    20 9.913458 0.000000 0.000003 1.546486 0.130798 -0.255056
    21 2.452246 0.000000 0.000000 0.044180 -0.101389 -0.280597
    22 0.946167 3.213873 -0.420090 -3.141592 -0.000002 1.413798
    23 1.827063 1.152534 -7.643625 -1.570796 -1.570796 0.000000
  time 4
    0 0.317380 3.028250 41.595359 0.023106 0.000000 -1.772952
    1 0.000000 0.000000 0.000000 -0.000025 -1.479459 -1.570793
    2 -0.000007 0.000008 4.427393 -0.155889 3.087245 -0.082361
    3 18.301065 0.000000 0.000000 0.000000 0.000000 -0.573602
    4 17.106758 0.000000 0.000000 -0.058497 -0.035582 0.256290
    5 0.000006 -0.000004 -4.427393 0.084823 -3.268338 -0.265421
    6 18.133167 0.000000 0.000000 0.000000 0.000000 -0.371399
    7 17.375956 0.000000 0.000000 -0.290925 -0.014187 0.108056
    8 2.247390 -0.002685 0.203134 0.135401 -0.097315 0.043418
    9 3.373776 -0.004248 0.000000 -0.057137 -0.006212 0.034147
    10 5.335510 -0.004100 0.000000 -0.012387 0.009784 0.043187
    11 5.172566 -0.004197 0.000000 -0.047548 0.001702 0.035110
    12 5.271970 -0.001935 0.000000 0.000048 0.074552 0.321238
    13 -3.172014 0.998757 2.303497 0.025761 -1.442969 -3.490250
    14 6.063949 0.000000 0.000002 0.749571 1.085197 0.799082
    15 7.685221 0.000000 0.000000 0.000000 0.000000 -0.953369
    16 10.246255 0.000000 -0.000003 -1.528887 -0.039250 0.029577
    17 -2.707677 0.964934 -2.634910 1.525874 1.314293 -1.958649
    18 6.269507 0.000000 -0.000001 -0.591190 -1.097599 0.130733
    19 8.573802 0.000000 -0.000004 0.000000 0.000000 -0.744377
    20 9.913458 0.000000 0.000003 1.546118 0.217091 -0.257050
    21 2.452246 0.000000 0.000000 0.072515 -0.056118 -0.374883
    22 0.946167 3.213873 -0.420090 -3.141592 -0.000002 1.413798
    23 1.827063 1.152534 -7.643625 -1.570796 -1.570796 0.000000
  time 5
    0 -0.124040 1.975598 41.880179 0.026078 0.000000 -1.771418
    1 0.000000 0.000000 0.000000 -0.000025 -1.466129 -1.570793
    2 -0.000007 0.000008 4.427393 -0.170174 3.100567 -0.185800
    3 18.301065 0.000000 0.000000 0.000000 0.000000 -0.732090
    4 17.106758 0.000000 0.000000 -0.053089 -0.041433 0.276938
    5 0.000006 -0.000004 -4.427393 0.088082 -3.277318 -0.211233
    6 18.133167 0.000000 0.000000 0.000000 0.000000 -0.327230
    7 17.375956 0.000000 0.000000 -0.288945 -0.016355 0.118420
    8 2.243484 -0.002685 0.234385 0.133793 -0.111900 0.052899
    9 3.373776 -0.004248 0.000000 -0.061025 -0.015233 0.035881
    10 5.335510 -0.004100 0.000000 -0.017407 0.000925 0.052329
    11 5.172566 -0.004197 0.000000 -0.052270 0.002313 0.043540
    12 5.271970 -0.001935 0.000000 0.000036 0.051851 0.314616
    13 -3.129044 0.979225 2.373811 0.356451 -1.416489 -3.812562
    14 6.063949 0.000000 0.000002 0.694814 1.024532 0.829714
    15 7.685221 0.000000 0.000000 0.000000 0.000000 -1.059232
    16 10.246255 0.000000 -0.000003 -1.531484 -0.072702 0.034251
    17 -2.774085 0.945402 -2.572408 1.369096 1.311436 -2.107903
    18 6.269507 0.000000 -0.000001 -0.608430 -1.065915 0.159908
    19 8.573802 0.000000 -0.000004 0.000000 0.000000 -0.834262
    20 9.913458 0.000000 0.000003 1.545897 0.253965 -0.257865
    21 2.452246 0.000000 0.000000 0.079944 -0.011709 -0.429973
    22 0.946167 3.213873 -0.420090 -3.141592 -0.000002 1.413798
    23 1.827063 1.152534 -7.643625 -1.570796 -1.570796 0.000000
  time 6
    0 -0.526396 1.697311 41.846670 0.019942 -0.002138 -1.715521
    1 0.000000 0.000000 0.000000 -0.000025 -1.484718 -1.570793
    2 -0.000007 0.000008 4.427393 -0.199415 3.119352 -0.194140
    3 18.301065 0.000000 0.000000 0.000000 0.000000 -0.660559
    4 17.106758 0.000000 0.000000 -0.019686 -0.022756 0.243909
    5 0.000006 -0.000004 -4.427393 0.096708 -3.244743 -0.183380
    6 18.133167 0.000000 0.000000 0.000000 0.000000 -0.309217
    7 17.375956 0.000000 0.000000 -0.232301 -0.022427 0.126040
    8 2.247390 -0.002685 0.191415 0.088782 -0.090917 0.053083
    9 3.373776 -0.004248 0.000000 -0.041645 -0.017239 0.004297
    10 5.335510 -0.004100 0.000000 -0.012066 0.000280 0.022937
    11 5.172566 -0.004197 0.000000 -0.052292 0.001522 0.028317
    12 5.271970 -0.001935 0.000000 0.000012 0.028093 0.306001
    13 -3.082168 0.951880 2.448032 0.692086 -1.412523 -4.137164
    14 6.063949 0.000000 0.000002 0.769794 0.997515 0.951402
    15 7.685221 0.000000 0.000000 0.000000 0.000000 -1.013162
    16 10.246255 0.000000 -0.000003 -1.531233 -0.006780 0.050128
    17 -2.840494 0.921964 -2.505999 1.120243 1.395559 -2.338577
    18 6.269507 0.000000 -0.000001 -0.683104 -0.998316 0.319576
    19 8.573802 0.000000 -0.000004 0.000000 0.000000 -0.830351
    20 9.913458 0.000000 0.000003 1.546265 0.190983 -0.256415
    21 2.452246 0.000000 0.000000 0.090200 0.002457 -0.344387
    22 0.946167 3.213873 -0.420090 -3.141592 -0.000002 1.413798
    23 1.827063 1.152534 -7.643625 -1.570796 -1.570796 0.000000
  time 7
    0 -0.436549 1.564217 41.695884 0.005944 -0.003811 -1.614467
    1 0.000000 0.000000 0.000000 -0.000025 -1.531550 -1.570793
    2 -0.000007 0.000008 4.427393 -0.238436 3.150308 -0.153972
    3 18.301065 0.000000 0.000000 0.000000 0.000000 -0.465033
    4 17.106758 0.000000 0.000000 0.035053 0.001171 0.183930
    5 0.000006 -0.000004 -4.427393 0.108018 -3.187999 -0.147760
    6 18.133167 0.000000 0.000000 0.000000 0.000000 -0.271329
    7 17.375956 0.000000 0.000000 -0.131065 -0.015603 0.120604
    8 2.255203 -0.002685 0.085943 0.020770 -0.040397 0.053129
    9 3.373776 -0.004248 0.000000 -0.006804 -0.017665 -0.034750
    10 5.335510 -0.004100 0.000000 0.000161 0.000000 -0.017440
    11 5.172566 -0.004197 0.000000 -0.052313 0.000479 0.008493
    12 5.271970 -0.001935 0.000000 0.000000 0.001269 0.312559
    13 -3.007947 0.975319 2.530066 0.986635 -1.396871 -4.434771
    14 6.063949 0.000000 0.000002 0.823412 0.985644 1.038716
    15 7.685221 0.000000 0.000000 0.000000 0.000000 -0.888141
    16 10.246255 0.000000 -0.000003 -1.528049 0.109544 0.065493
    17 -2.902995 0.941496 -2.427872 0.106262 1.467376 -3.349293
    18 6.269507 0.000000 -0.000001 -0.735966 -0.933820 0.496624
    19 8.573802 0.000000 -0.000004 0.000000 0.000000 -0.774671
    20 9.913458 0.000000 0.000003 1.546634 0.077224 -0.253787
    21 2.452246 0.000000 0.000000 0.106965 0.014739 -0.207804
    22 0.946167 3.213873 -0.420090 -3.141592 -0.000002 1.413798
    23 1.827063 1.152534 -7.643625 -1.570796 -1.570796 0.000000
  time 8
    0 -0.331077 1.479521 41.528343 0.000000 0.000000 -1.562119
    1 0.000000 0.000000 0.000000 -0.000025 -1.553362 -1.570793
    2 -0.000007 0.000008 4.427393 -0.288290 3.151075 -0.106806
    3 18.301065 0.000000 0.000000 0.000000 0.000000 -0.241200
    4 17.106758 0.000000 0.000000 0.100497 0.015039 0.115905
    5 0.000006 -0.000004 -4.427393 0.111468 -3.168129 -0.153295
    6 18.133167 0.000000 0.000000 0.000000 0.000000 -0.284510
    7 17.375956 0.000000 0.000000 -0.068224 -0.011382 0.132948
    8 2.255203 -0.002685 0.039067 -0.027023 -0.016008 0.053083
    9 3.373776 -0.004248 0.000000 0.017405 -0.018054 0.034574
    10 5.335510 -0.004100 0.000000 0.008687 -0.000462 0.052349
    11 5.172566 -0.004197 0.000000 -0.052184 0.003679 0.069678
    12 5.271970 -0.001935 0.000000 -0.000012 -0.017442 0.431207
    13 -2.824347 1.322986 2.576942 1.164011 -1.372714 -4.727609
    14 6.063949 0.000000 0.000002 0.433560 1.157405 0.697942
    15 7.685221 0.000000 0.000000 0.000000 0.000000 -0.810053
    16 10.246255 0.000000 -0.000003 -1.530814 0.197412 0.044558
    17 -2.817055 1.277444 -2.380996 -0.727013 1.410794 -4.295906
    18 6.269507 0.000000 -0.000001 -0.345450 -0.997846 0.257502
    19 8.573802 0.000000 -0.000004 0.000000 0.000000 -0.741999
    20 9.913458 0.000000 0.000003 1.546634 -0.007544 -0.251974
    21 2.452246 0.000000 0.000000 0.117878 0.014420 -0.353906
    22 0.946167 3.213873 -0.420090 -3.141592 -0.000002 1.413798
    23 1.827063 1.152534 -7.643625 -1.570796 -1.570796 0.000000
  time 9
    0 -0.245137 1.419024 41.427818 0.002301 0.006506 -1.559051
    1 0.000000 0.000000 0.000000 -0.000025 -1.558332 -1.570793
    2 -0.000007 0.000008 4.427393 -0.299411 3.159125 -0.143523
    3 18.301065 0.000000 0.000000 0.000000 0.000000 -0.256408
    4 17.106758 0.000000 0.000000 0.111496 0.024417 0.095391
    5 0.000006 -0.000004 -4.427393 0.112331 -3.167270 -0.166418
    6 18.133167 0.000000 0.000000 0.000000 0.000000 -0.307147
    7 17.375956 0.000000 0.000000 -0.009772 -0.007999 0.148392
    8 2.255203 -0.002685 0.027348 -0.026776 -0.011032 0.053590
    9 3.373776 -0.004248 0.000000 0.017405 -0.018151 0.040027
    10 5.335510 -0.004100 0.000000 0.008687 -0.000499 0.056469
    11 5.172566 -0.004197 0.000000 -0.052184 0.003679 0.069678
    12 5.271970 -0.001935 0.000000 -0.000012 -0.017442 0.431207
    13 -2.824347 1.322986 2.576942 1.203861 -1.353168 -4.766145
    14 6.063949 0.000000 0.000002 0.431282 1.197112 0.716199
    15 7.685221 0.000000 0.000000 0.000000 0.000000 -0.842667
    16 10.246255 0.000000 -0.000003 -1.551343 0.237465 -0.054225
    17 -2.817055 1.277444 -2.380996 -0.959786 1.363367 -4.526006
    18 6.269507 0.000000 -0.000001 -0.324115 -1.024171 0.301436
    19 8.573802 0.000000 -0.000004 0.000000 0.000000 -0.763704
    20 9.913458 0.000000 0.000003 1.546634 -0.007544 -0.251974
    21 2.452246 0.000000 0.000000 0.119588 0.010369 -0.326728
    22 0.946167 3.213873 -0.420090 -3.141592 -0.000002 1.413798
    23 1.827063 1.152534 -7.643625 -1.570796 -1.570796 0.000000
  time 10
    0 -0.174823 1.346427 41.344048 0.007095 0.014221 -1.570460
    1 0.000000 0.000000 0.000000 -0.000025 -1.562162 -1.570793
    2 -0.000007 0.000008 4.427393 -0.292508 3.163917 -0.170269
    3 18.301065 0.000000 0.000000 0.000000 0.000000 -0.303852
    4 17.106758 0.000000 0.000000 0.093397 0.022974 0.122609
    5 0.000006 -0.000004 -4.427393 0.113002 -3.172046 -0.191057
    6 18.133167 0.000000 0.000000 0.000000 0.000000 -0.344898
    7 17.375956 0.000000 0.000000 0.055480 -0.005946 0.168407
    8 2.255203 -0.002685 0.019535 -0.026529 -0.007257 0.052071
    9 3.373776 -0.004248 0.000000 0.017405 -0.018078 0.035454
    10 5.335510 -0.004100 0.000000 0.008687 -0.000450 0.051324
    11 5.172566 -0.004197 0.000000 -0.052184 0.003679 0.069678
    12 5.271970 -0.001935 0.000000 -0.000012 -0.017442 0.431207
    13 -2.824347 1.322986 2.576942 1.226592 -1.340053 -4.788084
    14 6.063949 0.000000 0.000002 0.540582 1.220608 0.836971
    15 7.685221 0.000000 0.000000 0.000000 0.000000 -0.923208
    16 10.246255 0.000000 -0.000003 -1.580670 0.242460 -0.190396
    17 -2.817055 1.277444 -2.380996 -1.039802 1.336559 -4.604556
    18 6.269507 0.000000 -0.000001 -0.374406 -1.060838 0.375304
    19 8.573802 0.000000 -0.000004 0.000000 0.000000 -0.809490
    20 9.913458 0.000000 0.000003 1.546634 -0.007544 -0.251974
    21 2.452246 0.000000 0.000000 0.120968 0.007848 -0.298558
    22 0.946167 3.213873 -0.420090 -3.141592 -0.000002 1.413798
    23 1.827063 1.152534 -7.643625 -1.570796 -1.570796 0.000000
  time 11
    0 -0.124040 1.249632 41.293786 0.012272 0.022028 -1.586376
    1 0.000000 0.000000 0.000000 -0.000025 -1.565126 -1.570793
    2 -0.000007 0.000008 4.427393 -0.287906 3.163534 -0.180431
    3 18.301065 0.000000 0.000000 0.000000 0.000000 -0.321462
    4 17.106758 0.000000 0.000000 0.072686 0.020810 0.137135
    5 0.000006 -0.000004 -4.427393 0.109168 -3.175390 -0.203198
    6 18.133167 0.000000 0.000000 0.000000 0.000000 -0.357458
    7 17.375956 0.000000 0.000000 0.114793 -0.004472 0.175773
    8 2.255203 -0.002685 0.011722 -0.026343 -0.004511 0.044384
    9 3.373776 -0.004248 0.000000 0.017405 -0.017908 0.025855
    10 5.335510 -0.004100 0.000000 0.008687 -0.000377 0.043618
    11 5.172566 -0.004197 0.000000 -0.052184 0.003679 0.069678
    12 5.271970 -0.001935 0.000000 -0.000012 -0.017442 0.431207
    13 -2.824347 1.322986 2.576942 1.238861 -1.332227 -4.799912
    14 6.063949 0.000000 0.000002 0.638348 1.191544 0.914812
    15 7.685221 0.000000 0.000000 0.000000 0.000000 -0.982603
    16 10.246255 0.000000 -0.000003 -1.594412 0.199463 -0.275735
    17 -2.817055 1.277444 -2.380996 -1.077130 1.320995 -4.641104
    18 6.269507 0.000000 -0.000001 -0.465558 -1.062718 0.465587
    19 8.573802 0.000000 -0.000004 0.000000 0.000000 -0.857347
    20 9.913458 0.000000 0.000003 1.546634 -0.007544 -0.251974
    21 2.452246 0.000000 0.000000 0.119062 0.006221 -0.267115
    22 0.946167 3.213873 -0.420090 -3.141592 -0.000002 1.413798
    23 1.827063 1.152534 -7.643625 -1.570796 -1.570796 0.000000
  time 12
    0 -0.108414 1.019742 41.344048 0.016970 0.029743 -1.602483
    1 0.000000 0.000000 0.000000 -0.000025 -1.567437 -1.570745
    2 -0.000007 0.000008 4.427393 -0.205743 3.146474 -0.169982
    3 18.301065 0.000000 0.000000 0.000000 0.000000 -0.294465
    4 17.106758 0.000000 0.000000 -0.026823 0.015760 0.129671
    5 0.000006 -0.000004 -4.427393 0.073418 -3.170422 -0.199092
    6 18.133167 0.000000 0.000000 0.000000 0.000000 -0.341516
    7 17.375956 0.000000 0.000000 0.134764 -0.004241 0.172064
    8 2.255203 -0.002685 0.003909 -0.026219 -0.002673 0.025881
    9 3.373776 -0.004248 0.000000 0.017405 -0.017592 0.007588
    10 5.335510 -0.004100 0.000000 0.008687 -0.000280 0.032161
    11 5.172566 -0.004197 0.000000 -0.052249 0.002589 0.048836
    12 5.271970 -0.001935 0.000000 -0.000012 -0.017442 0.346440
    13 -2.925913 1.072978 2.580849 1.356224 -1.341482 -4.835777
    14 6.063949 0.000000 0.000002 0.795428 1.104600 1.003653
    15 7.685221 0.000000 0.000000 0.000000 0.000000 -1.010643
    16 10.246255 0.000000 -0.000003 -1.587793 0.116502 -0.292380
    17 -2.914715 1.039155 -2.380996 -1.144033 1.327770 -4.625317
    18 6.269507 0.000000 -0.000001 -0.651958 -1.022103 0.612564
    19 8.573802 0.000000 -0.000004 0.000000 0.000000 -0.905511
    20 9.913458 0.000000 0.000003 1.546634 0.038824 -0.253152
    21 2.452246 0.000000 0.000000 0.087899 0.015665 -0.204315
    22 0.946167 3.213873 -0.420090 -3.141592 -0.000002 1.413798
    23 1.827063 1.152534 -7.643625 -1.570796 -1.570796 0.000000
  time 13
    0 -0.163104 0.644660 41.494835 0.020517 0.037271 -1.616001
    1 0.000000 0.000000 0.000000 -0.000073 -1.569337 -1.570793
    2 -0.000007 0.000008 4.427393 -0.127414 3.129702 -0.130869
    3 18.301065 0.000000 0.000000 0.000000 0.000000 -0.214130
    4 17.106758 0.000000 0.000000 -0.119121 0.011512 0.096553
    5 0.000006 -0.000004 -4.427393 0.038818 -3.164404 -0.174542
    6 18.133167 0.000000 0.000000 0.000000 0.000000 -0.288513
    7 17.375956 0.000000 0.000000 0.156630 -0.004761 0.151440
    8 2.255203 -0.002685 0.000003 -0.026158 -0.001447 0.002315
    9 3.373776 -0.004248 0.000000 0.017405 -0.017179 -0.015654
    10 5.335510 -0.004100 0.000000 0.008720 -0.000158 0.018018
    11 5.172566 -0.004197 0.000000 -0.052313 0.001151 0.021323
    12 5.271970 -0.001935 0.000000 -0.000012 -0.017442 0.223999
    13 -3.035291 0.705779 2.580849 1.507350 -1.348415 -4.868400
    14 6.063949 0.000000 0.000002 0.938908 0.993749 1.054757
    15 7.685221 0.000000 0.000000 0.000000 0.000000 -1.031059
    16 10.246255 0.000000 -0.000003 -1.575224 0.017930 -0.286555
    17 -3.020187 0.679769 -2.377089 -1.229983 1.334069 -4.591257
    18 6.269507 0.000000 -0.000001 -0.843692 -0.952247 0.750782
    19 8.573802 0.000000 -0.000004 0.000000 0.000000 -0.954903
    20 9.913458 0.000000 0.000003 1.546560 0.094432 -0.254602
    21 2.452246 0.000000 0.000000 0.102231 0.032286 -0.159908
    22 0.946167 3.213873 -0.420090 -3.141592 -0.000002 1.413798
    23 1.827063 1.152534 -7.643625 -1.570796 -1.570796 0.000000
  time 14
    0 -0.202167 0.257478 41.695884 0.022051 0.044335 -1.622233
    1 0.000000 0.000000 0.000000 -1.570795 -1.570796 0.000000
    2 -0.000007 0.000008 4.427393 -0.074397 3.164301 -0.143139
    3 18.301065 0.000000 0.000000 0.000000 0.000000 -0.253934
    4 17.106758 0.000000 0.000000 -0.102494 0.000850 0.126587
    5 0.000006 -0.000004 -4.427393 0.011790 -3.158481 -0.041527
    6 18.133167 0.000000 0.000000 0.000000 0.000000 -0.020255
    7 17.375956 0.000000 0.000000 0.179959 -0.005166 0.023220
    8 2.255203 -0.002685 0.000003 -0.026158 -0.000516 -0.019456
    9 3.373776 -0.004248 0.000000 0.017405 -0.016802 -0.037413
    10 5.335510 -0.004100 0.000000 0.008720 -0.000037 0.003774
    11 5.172566 -0.004197 0.000000 -0.052313 -0.000240 -0.005541
    12 5.271970 -0.001935 0.000000 -0.000012 -0.017442 0.119430
    13 -3.093887 0.381551 2.580849 1.694047 -1.348951 -4.955106
    14 6.063949 0.000000 0.000002 1.056611 0.884782 1.049945
    15 7.685221 0.000000 0.000000 0.000000 0.000000 -1.045776
    16 10.246255 0.000000 -0.000003 -1.560309 -0.102586 -0.271382
    17 -3.070969 0.371166 -2.377089 -1.339670 1.339856 -4.599389
    18 6.269507 0.000000 -0.000001 -1.001708 -0.870546 0.842513
    19 8.573802 0.000000 -0.000004 0.000000 0.000000 -1.006441
    20 9.913458 0.000000 0.000003 1.546339 0.162247 -0.256325
    21 2.452246 0.000000 0.000000 0.115314 0.048748 -0.114294
    22 0.946167 3.213873 -0.420090 -3.141592 -0.000002 1.413798
    23 1.827063 1.152534 -7.643625 -1.570796 -1.570796 0.000000
  time 15
    0 -0.124040 0.015489 41.813162 0.020038 0.051399 -1.617344
    1 0.000000 0.000000 0.000000 -0.000073 -1.572027 -1.570745
    2 -0.000007 0.000008 4.427393 -0.031925 3.197461 -0.158382
    3 18.301065 0.000000 0.000000 0.000000 0.000000 -0.296212
    4 17.106758 0.000000 0.000000 -0.077074 -0.010292 0.157516
    5 0.000006 -0.000004 -4.427393 0.000001 -3.160392 -0.023940
    6 18.133167 0.000000 0.000000 0.000000 0.000000 0.005695
    7 17.375956 0.000000 0.000000 0.090603 0.000559 0.021036
    8 2.255203 -0.002685 0.000003 -0.026158 0.000293 -0.034047
    9 3.373776 -0.004248 0.000000 0.017405 -0.016534 -0.052615
    10 5.335510 -0.004100 0.000000 0.008720 0.000061 -0.008708
    11 5.172566 -0.004197 0.000000 -0.052313 -0.001318 -0.026121
    12 5.271970 -0.001935 0.000000 -0.000012 -0.017442 0.056168
    13 -3.109512 0.182326 2.580849 1.878461 -1.340804 -5.080922
    14 6.063949 0.000000 0.000002 1.143838 0.812574 1.007472
    15 7.685221 0.000000 0.000000 0.000000 0.000000 -1.039279
    16 10.246255 0.000000 -0.000003 -1.546148 -0.236484 -0.257489
    17 -3.086595 0.175847 -2.377089 -1.458162 1.343554 -4.657751
    18 6.269507 0.000000 -0.000001 -1.108957 -0.808870 0.888034
    19 8.573802 0.000000 -0.000004 0.000000 0.000000 -1.039266
    20 9.913458 0.000000 0.000003 1.546044 0.236503 -0.257503
    21 2.452246 0.000000 0.000000 0.116958 0.058160 -0.071910
    22 0.946167 3.213873 -0.420090 -3.141592 -0.000002 1.413798
    23 1.827063 1.152534 -7.643625 -1.570796 -1.570796 0.000000
  time 16
    0 0.067372 -0.214401 41.846670 0.015148 0.059299 -1.604209
    1 0.000000 0.000000 0.000000 -0.000025 -1.572970 -1.570697
    2 -0.000007 0.000008 4.427393 0.011410 3.231005 -0.160875
    3 18.301065 0.000000 0.000000 0.000000 0.000000 -0.309601
    4 17.106758 0.000000 0.000000 -0.046909 -0.029209 0.176287
    5 0.000006 -0.000004 -4.427393 -0.008433 -3.163449 -0.022423
    6 18.133167 0.000000 0.000000 0.000000 0.000000 -0.001897
    7 17.375956 0.000000 0.000000 0.000558 0.008394 0.036174
    8 2.255203 -0.002685 -0.003903 -0.026219 0.001225 -0.037775
    9 3.373776 -0.004248 0.000000 0.017405 -0.016534 -0.052615
    10 5.335510 -0.004100 0.000000 0.008720 0.000170 -0.020514
    11 5.172566 -0.004197 0.000000 -0.052292 -0.002001 -0.039167
    12 5.271970 -0.001935 0.000000 -0.000012 -0.017442 0.039388
    13 -3.113419 0.131543 2.580849 2.004383 -1.404089 -5.188804
    14 6.063949 0.000000 0.000002 1.139352 0.917366 0.987382
    15 7.685221 0.000000 0.000000 0.000000 0.000000 -0.814627
    16 10.246255 0.000000 -0.000003 -1.541623 -0.339694 -0.268565
    17 -3.090501 0.125065 -2.377089 -1.439211 1.388637 -4.621969
    18 6.269507 0.000000 -0.000001 -1.084954 -0.905332 0.899621
    19 8.573802 0.000000 -0.000004 0.000000 0.000000 -0.827283
    20 9.913458 0.000000 0.000003 1.546192 0.284906 -0.251068
    21 2.452246 0.000000 0.000000 0.105584 0.058255 -0.044042
    22 0.946167 3.213873 -0.420090 -3.141592 -0.000002 1.413798
    23 1.827063 1.152534 -7.643625 -1.570796 -1.570796 0.000000
  time 17
    0 0.458009 -0.528986 41.846670 0.008916 0.065991 -1.587143
    1 0.000000 0.000000 0.000000 -0.000025 -1.573912 -1.570793
    2 -0.000007 0.000008 4.427393 -0.002300 3.222284 -0.011804
    3 18.301065 0.000000 0.000000 0.000000 0.000000 -0.001867
    4 17.106758 0.000000 0.000000 -0.030134 -0.090851 0.026070
    5 0.000006 -0.000004 -4.427393 -0.008337 -3.166792 -0.017781
    6 18.133167 0.000000 0.000000 0.000000 0.000000 -0.001897
    7 17.375956 0.000000 0.000000 0.018205 0.018745 0.047604
    8 2.255203 -0.002685 -0.003903 -0.026219 0.002230 -0.034093
    9 3.373776 -0.004248 0.000000 0.017405 -0.016534 -0.052615
    10 5.335510 -0.004100 0.000000 0.008687 0.000268 -0.032053
    11 5.172566 -0.004197 0.000000 -0.052270 -0.002433 -0.047396
    12 5.271970 -0.001935 0.000000 -0.000012 -0.017442 0.043696
    13 -3.113419 0.143262 2.580849 -3.773796 -1.483599 -5.696263
    14 6.063949 0.000000 0.000002 1.147683 1.110658 1.025042
    15 7.685221 0.000000 0.000000 0.000000 0.000000 -0.479738
    16 10.246255 0.000000 -0.000003 -1.543634 -0.169044 -0.276952
    17 -3.090501 0.140690 -2.377089 -1.274681 1.454668 -4.460755
    18 6.269507 0.000000 -0.000001 -1.001708 -1.077761 0.892517
    19 8.573802 0.000000 -0.000004 0.000000 0.000000 -0.492512
    20 9.913458 0.000000 0.000003 1.547150 0.136308 -0.236384
    21 2.452246 0.000000 0.000000 0.090200 0.054363 -0.020525
    22 0.946167 3.213873 -0.420090 -3.141592 -0.000002 1.413798
    23 1.827063 1.152534 -7.643625 -1.570796 -1.570460 0.000000
  time 18
    0 0.989275 -0.855671 41.829916 0.003356 0.069895 -1.571611
    1 0.000000 0.000000 0.000000 -0.000025 -1.574702 -1.570745
    2 -0.000007 0.000008 4.427393 -0.000958 3.215479 -0.046603
    3 18.301065 0.000000 0.000000 0.000000 0.000000 -0.073689
    4 17.106758 0.000000 0.000000 -0.013028 -0.077024 0.067546
    5 0.000006 -0.000004 -4.427393 -0.008050 -3.174625 -0.010282
    6 18.133167 0.000000 0.000000 0.000000 0.000000 -0.001897
    7 17.375956 0.000000 0.000000 0.034734 0.032855 0.059187
    8 2.255203 -0.002685 -0.007810 -0.026219 0.003161 -0.028339
    9 3.373776 -0.004248 0.000000 0.017405 -0.016534 -0.052615
    10 5.335510 -0.004100 0.000000 0.008687 0.000341 -0.040293
    11 5.172566 -0.004197 0.000000 -0.052249 -0.002637 -0.051302
    12 5.271970 -0.001935 0.000000 -0.000012 -0.017442 0.058097
    13 -3.109512 0.190138 2.580849 -2.685192 -1.492425 -0.514655
    14 6.063949 0.000000 0.000002 1.224656 1.280945 1.129466
    15 7.685221 0.000000 0.000000 0.000000 0.000000 -0.192642
    16 10.246255 0.000000 -0.000003 -1.547153 -0.005531 -0.283290
    17 -3.086595 0.183660 -2.377089 -0.841581 1.505134 -4.041792
    18 6.269507 0.000000 -0.000001 -0.904555 -1.233549 0.857342
    19 8.573802 0.000000 -0.000004 0.000000 0.000000 -0.202301
    20 9.913458 0.000000 0.000003 1.546044 -0.001101 -0.223876
    21 2.452246 0.000000 0.000000 0.070937 0.048748 -0.000194
    22 0.946167 3.213873 -0.420090 -3.141592 -0.000002 1.413798
    23 1.827063 1.152534 -7.643625 -1.570796 -1.570796 0.000000
  time 19
    0 1.575231 -1.109759 41.796408 0.000000 0.069709 -1.562119
    1 0.000000 0.000000 0.000000 -3.141565 -1.566190 1.570793
    2 -0.000007 0.000008 4.427393 -0.000574 3.214617 -0.063667
    3 18.301065 0.000000 0.000000 0.000000 0.000000 -0.105561
    4 17.106758 0.000000 0.000000 -0.001992 -0.071533 0.085647
    5 0.000006 -0.000004 -4.427393 -0.007762 -3.186375 -0.001265
    6 18.133167 0.000000 0.000000 0.000000 0.000000 -0.001897
    7 17.375956 0.000000 0.000000 0.045150 0.048584 0.068178
    8 2.255203 -0.002685 -0.007810 -0.026219 0.003945 -0.025348
    9 3.373776 -0.004248 0.000000 0.017405 -0.016534 -0.052615
    10 5.335510 -0.004100 0.000000 0.008687 0.000365 -0.043592
    11 5.172566 -0.004197 0.000000 -0.052249 -0.002685 -0.052259
    12 5.271970 -0.001935 0.000000 -0.000012 -0.017442 0.073623
    13 -3.105606 0.237015 2.580849 -2.208607 -1.452867 -1.005707
    14 6.063949 0.000000 0.000002 1.426810 1.390076 1.354892
    15 7.685221 0.000000 0.000000 0.000000 0.000000 -0.002593
    16 10.246255 0.000000 -0.000003 -1.549500 0.078055 -0.285338
    17 -3.082688 0.230537 -2.377089 0.024811 1.519088 -3.191237
    18 6.269507 0.000000 -0.000001 -0.805212 -1.343456 0.794716
    19 8.573802 0.000000 -0.000004 0.000000 0.000000 -0.002512
    20 9.913458 0.000000 0.000003 1.544202 -0.067814 -0.215628
    21 2.452246 0.000000 0.000000 0.051149 0.043293 0.023108
    22 0.946167 3.213873 -0.420090 -3.141592 -0.000002 1.413798
    23 1.827063 1.152534 -7.643625 -1.570796 -1.570460 0.000000
  time 20
    0 2.493227 -0.879870 41.762900 -0.001246 0.064039 -1.558380
    1 0.000000 0.000000 0.000000 -0.000025 -1.576086 -1.570745
    2 -0.000007 0.000008 4.427393 0.000097 3.190848 -0.103547
    3 18.301065 0.000000 0.000000 0.000000 0.000000 -0.184732
    4 17.106758 0.000000 0.000000 0.002680 -0.045602 0.119615
    5 0.000006 -0.000004 -4.427393 -0.007571 -3.210066 -0.001622
    6 18.133167 0.000000 0.000000 0.000000 0.000000 -0.001897
    7 17.375956 0.000000 0.000000 0.049885 0.074316 0.062844
    8 2.255203 -0.002685 -0.011716 -0.022324 0.004730 -0.025348
    9 3.373776 -0.004248 0.000000 0.013426 -0.016802 -0.048570
    10 5.335510 -0.004100 0.000000 0.008687 0.000353 -0.041850
    11 5.172566 -0.004197 0.000000 -0.044335 -0.002181 -0.049974
    12 5.271970 -0.001935 0.000000 0.000000 -0.013716 0.073623
    13 -3.117325 0.237015 2.573036 -2.072603 -1.440646 -1.141347
    14 6.063949 0.000000 0.000002 1.533903 1.412836 1.475740
    15 7.685221 0.000000 0.000000 0.000000 0.000000 0.027569
    16 10.246255 0.000000 -0.000003 -1.547908 -0.006512 -0.279448
    17 -3.074876 0.230537 -2.388808 0.576786 1.507405 -2.639667
    18 6.269507 0.000000 -0.000001 -0.752921 -1.380029 0.749954
    19 8.573802 0.000000 -0.000004 0.000000 0.000000 0.050867
    20 9.913458 0.000000 0.000003 1.543833 0.016531 -0.215719
    21 2.452246 0.000000 0.000000 0.045955 0.036561 0.093359
    22 0.946167 3.213873 -0.420090 -3.141592 -0.000002 1.413798
    23 1.827063 1.152534 -7.643625 -1.570796 -1.570796 0.000000
  time 21
    0 2.247126 -0.649980 41.762900 -0.001534 0.053351 -1.557708
    1 0.000000 0.000000 0.000000 -0.000025 -1.576724 -1.570745
    2 -0.000007 0.000008 4.427393 0.000768 3.198516 -0.102972
    3 18.301065 0.000000 0.000000 0.000000 0.000000 -0.188079
    4 17.106758 0.000000 0.000000 0.003821 -0.052335 0.114341
    5 0.000006 -0.000004 -4.427393 -0.007475 -3.202424 0.000966
    6 18.133167 0.000000 0.000000 0.000000 0.000000 -0.001897
    7 17.375956 0.000000 0.000000 0.049799 0.067724 0.056139
    8 2.255203 -0.002685 -0.011716 -0.016636 0.005514 -0.025348
    9 3.373776 -0.004248 0.000000 0.007746 -0.017118 -0.042791
    10 5.335510 -0.004100 0.000000 0.008687 0.000304 -0.036460
    11 5.172566 -0.004197 0.000000 -0.032949 -0.001438 -0.044524
    12 5.271970 -0.001935 0.000000 0.000000 -0.007743 0.073623
    13 -3.129044 0.237015 2.553504 -2.020483 -1.452903 -1.193619
    14 6.063949 0.000000 0.000002 1.444896 1.390813 1.396295
    15 7.685221 0.000000 0.000000 0.000000 0.000000 -0.046277
    16 10.246255 0.000000 -0.000003 -1.545813 -0.176359 -0.268565
    17 -3.059250 0.230537 -2.404434 0.834062 1.495686 -2.382970
    18 6.269507 0.000000 -0.000001 -0.752254 -1.370627 0.737539
    19 8.573802 0.000000 -0.000004 0.000000 0.000000 0.008072
    20 9.913458 0.000000 0.000003 1.543759 0.176742 -0.220704
    21 2.452246 0.000000 0.000000 0.033398 0.032605 0.062347
    22 0.946167 3.213873 -0.420090 -3.141592 -0.000002 1.413798
    23 1.827063 1.152534 -7.643625 -1.570796 -1.570796 0.000000
  time 22
    0 1.977587 -0.492688 41.779654 -0.001150 0.040710 -1.558859
    1 0.000000 0.000000 0.000000 -0.000025 -1.577378 -1.570793
    2 -0.000007 0.000008 4.427393 0.000864 3.206470 -0.094440
    3 18.301065 0.000000 0.000000 0.000000 0.000000 -0.183495
    4 17.106758 0.000000 0.000000 0.003563 -0.059870 0.107458
    5 0.000006 -0.000004 -4.427393 -0.007283 -3.194686 0.007126
    6 18.133167 0.000000 0.000000 0.000000 0.000000 -0.001897
    7 17.375956 0.000000 0.000000 0.048077 0.060409 0.051313
    8 2.255203 -0.002685 -0.011716 -0.010639 0.006299 -0.025348
    9 3.373776 -0.004248 0.000000 0.001762 -0.017373 -0.036710
    10 5.335510 -0.004100 0.000000 0.008687 0.000243 -0.029758
    11 5.172566 -0.004197 0.000000 -0.021025 -0.000779 -0.038024
    12 5.271970 -0.001935 0.000000 0.000000 -0.001480 0.073623
    13 -3.144670 0.237015 2.533972 -1.966557 -1.467339 -1.247703
    14 6.063949 0.000000 0.000002 1.359734 1.366825 1.318607
    15 7.685221 0.000000 0.000000 0.000000 0.000000 -0.126884
    16 10.246255 0.000000 -0.000003 -1.546064 -0.269936 -0.256145
    17 -3.043625 0.230537 -2.423966 0.999836 1.483966 -2.217738
    18 6.269507 0.000000 -0.000001 -0.748730 -1.358311 0.722228
    19 8.573802 0.000000 -0.000004 0.000000 0.000000 -0.043313
    20 9.913458 0.000000 0.000003 1.543391 0.263459 -0.223967
    21 2.452246 0.000000 0.000000 0.020381 0.028011 0.019619
    22 0.946167 3.213873 -0.420090 -3.141592 -0.000002 1.413798
    23 1.827063 1.152534 -7.643625 -1.570796 -1.570796 0.000000
  time 23
    0 1.758830 -0.371693 41.779654 -0.000479 0.029464 -1.560585
    1 0.000000 0.000000 0.000000 -0.000025 -1.578046 -1.570745
    2 -0.000007 0.000008 4.427393 0.000672 3.212700 -0.083895
    3 18.301065 0.000000 0.000000 0.000000 0.000000 -0.177310
    4 17.106758 0.000000 0.000000 0.002717 -0.065962 0.100799
    5 0.000006 -0.000004 -4.427393 -0.007091 -3.188572 0.014179
    6 18.133167 0.000000 0.000000 0.000000 0.000000 -0.001897
    7 17.375956 0.000000 0.000000 0.045839 0.054482 0.047350
    8 2.255203 -0.002685 -0.015622 -0.005630 0.007108 -0.025348
    9 3.373776 -0.004248 0.000000 -0.003250 -0.017543 -0.031559
    10 5.335510 -0.004100 0.000000 0.008720 0.000195 -0.023732
    11 5.172566 -0.004197 0.000000 -0.010890 -0.000336 -0.032250
    12 5.271970 -0.001935 0.000000 0.000000 0.003330 0.073623
    13 -3.156389 0.237015 2.522253 -1.902835 -1.479168 -1.311613
    14 6.063949 0.000000 0.000002 1.301131 1.342838 1.270329
    15 7.685221 0.000000 0.000000 0.000000 0.000000 -0.201392
    16 10.246255 0.000000 -0.000003 -1.547237 -0.175378 -0.239372
    17 -3.031906 0.230537 -2.435685 1.117085 1.467999 -2.101397
    18 6.269507 0.000000 -0.000001 -0.749492 -1.347875 0.710434
    19 8.573802 0.000000 -0.000004 0.000000 0.000000 -0.088256
    20 9.913458 0.000000 0.000003 1.543907 0.169960 -0.221520
    21 2.452246 0.000000 0.000000 0.009664 0.023864 -0.017165
    22 0.946167 3.213873 -0.420090 -3.141592 -0.000002 1.413798
    23 1.827063 1.152534 -7.643625 -1.570796 -1.570796 0.000000
  time 24
    0 1.622107 -0.286997 41.779654 -0.000096 0.021470 -1.561735
    1 0.000000 0.000000 0.000000 -0.000025 -1.578746 -1.570745
    2 -0.000007 0.000008 4.427393 0.000289 3.216917 -0.074308
    3 18.301065 0.000000 0.000000 0.000000 0.000000 -0.172507
    4 17.106758 0.000000 0.000000 0.001834 -0.070010 0.096016
    5 0.000006 -0.000004 -4.427393 -0.006900 -3.184465 0.020963
    6 18.133167 0.000000 0.000000 0.000000 0.000000 -0.001897
    7 17.375956 0.000000 0.000000 0.043773 0.050579 0.044455
    8 2.255203 -0.002685 -0.015622 -0.002106 0.007892 -0.025348
    9 3.373776 -0.004248 0.000000 -0.006804 -0.017628 -0.027966
    10 5.335510 -0.004100 0.000000 0.008720 0.000158 -0.019551
    11 5.172566 -0.004197 0.000000 -0.003838 -0.000096 -0.028236
    12 5.271970 -0.001935 0.000000 0.000000 0.006633 0.073623
    13 -3.164201 0.237015 2.510534 -1.855376 -1.492568 -1.359306
    14 6.063949 0.000000 0.000002 1.249934 1.311073 1.229460
    15 7.685221 0.000000 0.000000 0.000000 0.000000 -0.279480
    16 10.246255 0.000000 -0.000003 -1.545813 -0.002587 -0.222534
    17 -3.024093 0.230537 -2.447404 1.180734 1.455217 -2.038347
    18 6.269507 0.000000 -0.000001 -0.768827 -1.329541 0.714503
    19 8.573802 0.000000 -0.000004 0.000000 0.000000 -0.140255
    20 9.913458 0.000000 0.000003 1.544275 0.001103 -0.217350
    21 2.452246 0.000000 0.000000 0.002433 0.020673 -0.042621
    22 0.946167 3.213873 -0.420090 -3.141592 -0.000002 1.413798
    23 1.827063 1.152534 -7.643625 -1.570796 -1.570796 0.000000
  time 25
    0 1.575231 -0.238599 41.779654 0.000000 0.017381 -1.562119
    1 0.000000 0.000000 0.000000 -0.000025 -1.579490 -1.570745
    2 -0.000007 0.000008 4.427393 0.000001 3.218834 -0.068269
    3 18.301065 0.000000 0.000000 0.000000 0.000000 -0.171561
    4 17.106758 0.000000 0.000000 0.001577 -0.071413 0.094631
    5 0.000006 -0.000004 -4.427393 -0.006708 -3.182554 0.026230
    6 18.133167 0.000000 0.000000 0.000000 0.000000 -0.002104
    7 17.375956 0.000000 0.000000 0.042740 0.049191 0.043439
    8 2.255203 -0.002685 -0.019529 -0.000189 0.008701 -0.025348
    9 3.373776 -0.004248 0.000000 -0.008718 -0.017665 -0.026006
    10 5.335510 -0.004100 0.000000 0.008720 0.000134 -0.017440
    11 5.172566 -0.004197 0.000000 0.000000 0.000000 -0.026152
    12 5.271970 -0.001935 0.000000 0.000000 0.008721 0.073623
    13 -3.168108 0.237015 2.502721 -1.821328 -1.498071 -1.393359
    14 6.063949 0.000000 0.000002 1.230923 1.299284 1.213800
    15 7.685221 0.000000 0.000000 0.000000 0.000000 -0.311365
    16 10.246255 0.000000 -0.000003 -1.544388 0.067796 -0.215620
    17 -3.024093 0.230537 -2.451310 1.208107 1.450163 -2.011271
    18 6.269507 0.000000 -0.000001 -0.772161 -1.323054 0.712641
    19 8.573802 0.000000 -0.000004 0.000000 0.000000 -0.161423
    20 9.913458 0.000000 0.000003 1.544202 -0.067814 -0.215628
    21 2.452246 0.000000 0.000000 -0.001446 0.018536 -0.056792
    22 0.946167 3.213873 -0.420090 -3.141592 -0.000002 1.413798
    23 1.827063 1.152534 -7.643625 -1.570796 -1.570796 0.000000
  time 26
    0 1.571324 -0.238599 41.779654 0.000000 0.017381 -1.562119
    1 0.000000 0.000000 0.000000 -0.000025 -1.579490 -1.570745
    2 -0.000007 0.000008 4.427393 0.000001 3.217875 -0.070186
    3 18.301065 0.000000 0.000000 0.000000 0.000000 -0.174472
    4 17.106758 0.000000 0.000000 0.001577 -0.070451 0.095614
    5 0.000006 -0.000004 -4.427393 -0.006996 -3.183509 0.021499
    6 18.133167 0.000000 0.000000 0.000000 0.000000 -0.010662
    7 17.375956 0.000000 0.000000 0.042826 0.050203 0.047350
    8 2.255203 -0.002685 -0.019529 -0.000189 0.008701 -0.025348
    9 3.373776 -0.004248 0.000000 -0.008718 -0.017665 -0.026006
    10 5.335510 -0.004100 0.000000 0.008720 0.000134 -0.017440
    11 5.172566 -0.004197 0.000000 0.000000 0.000000 -0.026152
    12 5.271970 -0.001935 0.000000 0.000000 0.008721 0.073623
    13 -3.168108 0.237015 2.502721 -1.821328 -1.498071 -1.393359
    14 6.063949 0.000000 0.000002 1.230923 1.299284 1.213800
    15 7.685221 0.000000 0.000000 0.000000 0.000000 -0.311365
    16 10.246255 0.000000 -0.000003 -1.544388 0.067796 -0.215620
    17 -3.024093 0.230537 -2.451310 1.208107 1.450163 -2.011271
    18 6.269507 0.000000 -0.000001 -0.772161 -1.323054 0.712641
    19 8.573802 0.000000 -0.000004 0.000000 0.000000 -0.161423
    20 9.913458 0.000000 0.000003 1.544202 -0.067814 -0.215628
    21 2.452246 0.000000 0.000000 -0.001446 0.018536 -0.056792
    22 0.946167 3.213873 -0.420090 -3.141592 -0.000002 1.413798
    23 1.827063 1.152534 -7.643625 -1.570796 -1.570796 0.000000
  time 27
    0 1.571324 -0.226500 41.779654 0.000000 0.017381 -1.562119
    1 0.000000 0.000000 0.000000 -0.000025 -1.579490 -1.570745
    2 -0.000007 0.000008 4.427393 0.000001 3.216534 -0.071624
    3 18.301065 0.000000 0.000000 0.000000 0.000000 -0.177673
    4 17.106758 0.000000 0.000000 0.001613 -0.069088 0.097357
    5 0.000006 -0.000004 -4.427393 -0.006804 -3.184847 0.025873
    6 18.133167 0.000000 0.000000 0.000000 0.000000 -0.001897
    7 17.375956 0.000000 0.000000 0.042826 0.051533 0.042931
    8 2.255203 -0.002685 -0.019529 -0.000189 0.008701 -0.025348
    9 3.373776 -0.004248 0.000000 -0.008718 -0.017665 -0.026006
    10 5.335510 -0.004100 0.000000 0.008720 0.000134 -0.017440
    11 5.172566 -0.004197 0.000000 0.000000 0.000000 -0.026152
    12 5.271970 -0.001935 0.000000 0.000000 0.008721 0.073623
    13 -3.168108 0.237015 2.502721 -1.821328 -1.498071 -1.393359
    14 6.063949 0.000000 0.000002 1.230923 1.299284 1.213800
    15 7.685221 0.000000 0.000000 0.000000 0.000000 -0.311365
    16 10.246255 0.000000 -0.000003 -1.544388 0.067796 -0.215620
    17 -3.024093 0.230537 -2.451310 1.208107 1.450163 -2.011271
    18 6.269507 0.000000 -0.000001 -0.772161 -1.323054 0.712641
    19 8.573802 0.000000 -0.000004 0.000000 0.000000 -0.161423
    20 9.913458 0.000000 0.000003 1.544202 -0.067814 -0.215628
    21 2.452246 0.000000 0.000000 -0.001446 0.018536 -0.056792
    22 0.946167 3.213873 -0.420090 -3.141592 -0.000002 1.413798
    23 1.827063 1.152534 -7.643625 -1.570796 -1.570796 0.000000
  time 28
    0 1.586950 -0.214401 41.779654 0.000000 0.017381 -1.562119
    1 0.000000 0.000000 0.000000 -0.000025 -1.579490 -1.570745
    2 -0.000007 0.000008 4.427393 0.000001 3.215383 -0.072870
    3 18.301065 0.000000 0.000000 0.000000 0.000000 -0.180584
    4 17.106758 0.000000 0.000000 0.001613 -0.067966 0.099011
    5 0.000006 -0.000004 -4.427393 -0.006804 -3.185993 0.026052
    6 18.133167 0.000000 0.000000 0.000000 0.000000 -0.001897
    7 17.375956 0.000000 0.000000 0.042912 0.052660 0.043083
    8 2.255203 -0.002685 -0.019529 -0.000189 0.008701 -0.025348
    9 3.373776 -0.004248 0.000000 -0.008718 -0.017665 -0.026006
    10 5.335510 -0.004100 0.000000 0.008720 0.000134 -0.017440
    11 5.172566 -0.004197 0.000000 0.000000 0.000000 -0.026152
    12 5.271970 -0.001935 0.000000 0.000000 0.008721 0.073623
    13 -3.168108 0.237015 2.502721 -1.821328 -1.498071 -1.393359
    14 6.063949 0.000000 0.000002 1.230923 1.299284 1.213800
    15 7.685221 0.000000 0.000000 0.000000 0.000000 -0.311365
    16 10.246255 0.000000 -0.000003 -1.544388 0.067796 -0.215620
    17 -3.024093 0.230537 -2.451310 1.208107 1.450163 -2.011271
    18 6.269507 0.000000 -0.000001 -0.772161 -1.323054 0.712641
    19 8.573802 0.000000 -0.000004 0.000000 0.000000 -0.161423
    20 9.913458 0.000000 0.000003 1.544202 -0.067814 -0.215628
    21 2.452246 0.000000 0.000000 -0.001446 0.018536 -0.056792
    22 0.946167 3.213873 -0.420090 -3.141592 -0.000002 1.413798
    23 1.827063 1.152534 -7.643625 -1.570796 -1.570796 0.000000
  time 29
    0 1.614294 -0.214401 41.762900 0.000000 0.017381 -1.562119
    1 0.000000 0.000000 0.000000 -0.000025 -1.579490 -1.570745
    2 -0.000007 0.000008 4.427393 0.000001 3.214425 -0.074116
    3 18.301065 0.000000 0.000000 0.000000 0.000000 -0.183277
    4 17.106758 0.000000 0.000000 0.001613 -0.067004 0.100531
    5 0.000006 -0.000004 -4.427393 -0.006804 -3.186948 0.025695
    6 18.133167 0.000000 0.000000 0.000000 0.000000 -0.002794
    7 17.375956 0.000000 0.000000 0.042912 0.053615 0.043642
    8 2.255203 -0.002685 -0.019529 -0.000189 0.008701 -0.025348
    9 3.373776 -0.004248 0.000000 -0.008718 -0.017665 -0.026006
    10 5.335510 -0.004100 0.000000 0.008720 0.000134 -0.017440
    11 5.172566 -0.004197 0.000000 0.000000 0.000000 -0.026152
    12 5.271970 -0.001935 0.000000 0.000000 0.008721 0.073623
    13 -3.168108 0.237015 2.502721 -1.821328 -1.498071 -1.393359
    14 6.063949 0.000000 0.000002 1.230923 1.299284 1.213800
    15 7.685221 0.000000 0.000000 0.000000 0.000000 -0.311365
    16 10.246255 0.000000 -0.000003 -1.544388 0.067796 -0.215620
    17 -3.024093 0.230537 -2.451310 1.208107 1.450163 -2.011271
    18 6.269507 0.000000 -0.000001 -0.772161 -1.323054 0.712641
    19 8.573802 0.000000 -0.000004 0.000000 0.000000 -0.161423
    20 9.913458 0.000000 0.000003 1.544202 -0.067814 -0.215628
    21 2.452246 0.000000 0.000000 -0.001446 0.018536 -0.056792
    22 0.946167 3.213873 -0.420090 -3.141592 -0.000002 1.413798
    23 1.827063 1.152534 -7.643625 -1.570796 -1.570796 0.000000
  time 30
    0 1.641639 -0.214401 41.762900 0.000000 0.017381 -1.562119
    1 0.000000 0.000000 0.000000 -0.000025 -1.579490 -1.570745
    2 -0.000007 0.000008 4.427393 0.000097 3.213658 -0.075171
    3 18.301065 0.000000 0.000000 0.000000 0.000000 -0.185751
    4 17.106758 0.000000 0.000000 0.001613 -0.066202 0.101871
    5 0.000006 -0.000004 -4.427393 -0.006996 -3.187713 0.021410
    6 18.133167 0.000000 0.000000 0.000000 0.000000 -0.011766
    7 17.375956 0.000000 0.000000 0.042998 0.054395 0.048316
    8 2.255203 -0.002685 -0.019529 -0.000189 0.008701 -0.025348
    9 3.373776 -0.004248 0.000000 -0.008718 -0.017665 -0.026006
    10 5.335510 -0.004100 0.000000 0.008720 0.000134 -0.017440
    11 5.172566 -0.004197 0.000000 0.000000 0.000000 -0.026152
    12 5.271970 -0.001935 0.000000 0.000000 0.008721 0.073623
    13 -3.168108 0.237015 2.502721 -1.821328 -1.498071 -1.393359
    14 6.063949 0.000000 0.000002 1.230923 1.299284 1.213800
    15 7.685221 0.000000 0.000000 0.000000 0.000000 -0.311365
    16 10.246255 0.000000 -0.000003 -1.544388 0.067796 -0.215620
    17 -3.024093 0.230537 -2.451310 1.208107 1.450163 -2.011271
    18 6.269507 0.000000 -0.000001 -0.772161 -1.323054 0.712641
    19 8.573802 0.000000 -0.000004 0.000000 0.000000 -0.161423
    20 9.913458 0.000000 0.000003 1.544202 -0.067814 -0.215628
    21 2.452246 0.000000 0.000000 -0.001446 0.018536 -0.056792
    22 0.946167 3.213873 -0.420090 -3.141592 -0.000002 1.413798
    23 1.827063 1.152534 -7.643625 -1.570796 -1.570796 0.000000
  time 31
    0 1.676796 -0.214401 41.762900 0.000000 0.017381 -1.562119
    1 0.000000 0.000000 0.000000 -0.000025 -1.579490 -1.570745
    2 -0.000007 0.000008 4.427393 0.000097 3.212987 -0.076130
    3 18.301065 0.000000 0.000000 0.000000 0.000000 -0.187934
    4 17.106758 0.000000 0.000000 0.001613 -0.065561 0.103078
    5 0.000006 -0.000004 -4.427393 -0.007091 -3.188381 0.018374
    6 18.133167 0.000000 0.000000 0.000000 0.000000 -0.017908
    7 17.375956 0.000000 0.000000 0.042998 0.055060 0.051567
    8 2.255203 -0.002685 -0.019529 -0.000189 0.008701 -0.025348
    9 3.373776 -0.004248 0.000000 -0.008718 -0.017665 -0.026006
    10 5.335510 -0.004100 0.000000 0.008720 0.000134 -0.017440
    11 5.172566 -0.004197 0.000000 0.000000 0.000000 -0.026152
    12 5.271970 -0.001935 0.000000 0.000000 0.008721 0.073623
    13 -3.168108 0.237015 2.502721 -1.821328 -1.498071 -1.393359
    14 6.063949 0.000000 0.000002 1.230923 1.299284 1.213800
    15 7.685221 0.000000 0.000000 0.000000 0.000000 -0.311365
    16 10.246255 0.000000 -0.000003 -1.544388 0.067796 -0.215620
    17 -3.024093 0.230537 -2.451310 1.208107 1.450163 -2.011271
    18 6.269507 0.000000 -0.000001 -0.772161 -1.323054 0.712641
    19 8.573802 0.000000 -0.000004 0.000000 0.000000 -0.161423
    20 9.913458 0.000000 0.000003 1.544202 -0.067814 -0.215628
    21 2.452246 0.000000 0.000000 -0.001446 0.018536 -0.056792
    22 0.946167 3.213873 -0.420090 -3.141592 -0.000002 1.413798
    23 1.827063 1.152534 -7.643625 -1.570796 -1.570796 0.000000
  time 32
    0 1.715860 -0.214401 41.762900 0.000000 0.017381 -1.562119
    1 0.000000 0.000000 0.000000 -0.000025 -1.579490 -1.570745
    2 -0.000007 0.000008 4.427393 0.000097 3.212508 -0.076992
    3 18.301065 0.000000 0.000000 0.000000 0.000000 -0.189826
    4 17.106758 0.000000 0.000000 0.001613 -0.065040 0.104151
    5 0.000006 -0.000004 -4.427393 -0.007283 -3.188859 0.015786
    6 18.133167 0.000000 0.000000 0.000000 0.000000 -0.023360
    7 17.375956 0.000000 0.000000 0.042998 0.055581 0.054361
    8 2.255203 -0.002685 -0.019529 -0.000189 0.008701 -0.025348
    9 3.373776 -0.004248 0.000000 -0.008718 -0.017665 -0.026006
    10 5.335510 -0.004100 0.000000 0.008720 0.000134 -0.017440
    11 5.172566 -0.004197 0.000000 0.000000 0.000000 -0.026152
    12 5.271970 -0.001935 0.000000 0.000000 0.008721 0.073623
    13 -3.168108 0.237015 2.502721 -1.821328 -1.498071 -1.393359
    14 6.063949 0.000000 0.000002 1.230923 1.299284 1.213800
    15 7.685221 0.000000 0.000000 0.000000 0.000000 -0.311365
    16 10.246255 0.000000 -0.000003 -1.544388 0.067796 -0.215620
    17 -3.024093 0.230537 -2.451310 1.208107 1.450163 -2.011271
    18 6.269507 0.000000 -0.000001 -0.772161 -1.323054 0.712641
    19 8.573802 0.000000 -0.000004 0.000000 0.000000 -0.161423
    20 9.913458 0.000000 0.000003 1.544202 -0.067814 -0.215628
    21 2.452246 0.000000 0.000000 -0.001446 0.018536 -0.056792
    22 0.946167 3.213873 -0.420090 -3.141592 -0.000002 1.413798
    23 1.827063 1.152534 -7.643625 -1.570796 -1.570796 0.000000
  time 33
    0 1.754924 -0.214401 41.762900 0.000000 0.017381 -1.562119
    1 0.000000 0.000000 0.000000 -0.000025 -1.579490 -1.570745
    2 -0.000007 0.000008 4.427393 0.000097 3.212029 -0.077855
    3 18.301065 0.000000 0.000000 0.000000 0.000000 -0.191499
    4 17.106758 0.000000 0.000000 0.001613 -0.064639 0.105045
    5 0.000006 -0.000004 -4.427393 -0.007379 -3.189241 0.013375
    6 18.133167 0.000000 0.000000 0.000000 0.000000 -0.028329
    7 17.375956 0.000000 0.000000 0.043084 0.055985 0.056952
    8 2.255203 -0.002685 -0.019529 -0.000189 0.008701 -0.025348
    9 3.373776 -0.004248 0.000000 -0.008718 -0.017665 -0.026006
    10 5.335510 -0.004100 0.000000 0.008720 0.000134 -0.017440
    11 5.172566 -0.004197 0.000000 0.000000 0.000000 -0.026152
    12 5.271970 -0.001935 0.000000 0.000000 0.008721 0.073623
    13 -3.168108 0.237015 2.502721 -1.821328 -1.498071 -1.393359
    14 6.063949 0.000000 0.000002 1.230923 1.299284 1.213800
    15 7.685221 0.000000 0.000000 0.000000 0.000000 -0.311365
    16 10.246255 0.000000 -0.000003 -1.544388 0.067796 -0.215620
    17 -3.024093 0.230537 -2.451310 1.208107 1.450163 -2.011271
    18 6.269507 0.000000 -0.000001 -0.772161 -1.323054 0.712641
    19 8.573802 0.000000 -0.000004 0.000000 0.000000 -0.161423
    20 9.913458 0.000000 0.000003 1.544202 -0.067814 -0.215628
    21 2.452246 0.000000 0.000000 -0.001446 0.018536 -0.056792
    22 0.946167 3.213873 -0.420090 -3.141592 -0.000002 1.413798
    23 1.827063 1.152534 -7.643625 -1.570796 -1.570796 0.000000
  time 34
    0 1.797894 -0.226500 41.762900 0.000000 0.017381 -1.562119
    1 0.000000 0.000000 0.000000 -0.000025 -1.579490 -1.570745
    2 -0.000007 0.000008 4.427393 0.000097 3.211742 -0.078526
    3 18.301065 0.000000 0.000000 0.000000 0.000000 -0.193027
    4 17.106758 0.000000 0.000000 0.001613 -0.064319 0.105849
    5 0.000006 -0.000004 -4.427393 -0.007475 -3.189528 0.011233
    6 18.133167 0.000000 0.000000 0.000000 0.000000 -0.032884
    7 17.375956 0.000000 0.000000 0.043084 0.056303 0.059339
    8 2.255203 -0.002685 -0.019529 -0.000189 0.008701 -0.025348
    9 3.373776 -0.004248 0.000000 -0.008718 -0.017665 -0.026006
    10 5.335510 -0.004100 0.000000 0.008720 0.000134 -0.017440
    11 5.172566 -0.004197 0.000000 0.000000 0.000000 -0.026152
    12 5.271970 -0.001935 0.000000 0.000000 0.008721 0.073623
    13 -3.168108 0.237015 2.502721 -1.821328 -1.498071 -1.393359
    14 6.063949 0.000000 0.000002 1.230923 1.299284 1.213800
    15 7.685221 0.000000 0.000000 0.000000 0.000000 -0.311365
    16 10.246255 0.000000 -0.000003 -1.544388 0.067796 -0.215620
    17 -3.024093 0.230537 -2.451310 1.208107 1.450163 -2.011271
    18 6.269507 0.000000 -0.000001 -0.772161 -1.323054 0.712641
    19 8.573802 0.000000 -0.000004 0.000000 0.000000 -0.161423
    20 9.913458 0.000000 0.000003 1.544202 -0.067814 -0.215628
    21 2.452246 0.000000 0.000000 -0.001446 0.018536 -0.056792
    22 0.946167 3.213873 -0.420090 -3.141592 -0.000002 1.413798
    23 1.827063 1.152534 -7.643625 -1.570796 -1.570796 0.000000
  time 35
    0 1.833051 -0.238599 41.762900 0.000000 0.017381 -1.562119
    1 0.000000 0.000000 0.000000 -0.000025 -1.579490 -1.570745
    2 -0.000007 0.000008 4.427393 0.000097 3.211550 -0.079101
    3 18.301065 0.000000 0.000000 0.000000 0.000000 -0.194337
    4 17.106758 0.000000 0.000000 0.001613 -0.064118 0.106564
    5 0.000006 -0.000004 -4.427393 -0.007571 -3.189719 0.009090
    6 18.133167 0.000000 0.000000 0.000000 0.000000 -0.037232
    7 17.375956 0.000000 0.000000 0.043084 0.056535 0.061524
    8 2.255203 -0.002685 -0.019529 -0.000189 0.008701 -0.025348
    9 3.373776 -0.004248 0.000000 -0.008718 -0.017665 -0.026006
    10 5.335510 -0.004100 0.000000 0.008720 0.000134 -0.017440
    11 5.172566 -0.004197 0.000000 0.000000 0.000000 -0.026152
    12 5.271970 -0.001935 0.000000 0.000000 0.008721 0.073623
    13 -3.168108 0.237015 2.502721 -1.821328 -1.498071 -1.393359
    14 6.063949 0.000000 0.000002 1.230923 1.299284 1.213800
    15 7.685221 0.000000 0.000000 0.000000 0.000000 -0.311365
    16 10.246255 0.000000 -0.000003 -1.544388 0.067796 -0.215620
    17 -3.024093 0.230537 -2.451310 1.208107 1.450163 -2.011271
    18 6.269507 0.000000 -0.000001 -0.772161 -1.323054 0.712641
    19 8.573802 0.000000 -0.000004 0.000000 0.000000 -0.161423
    20 9.913458 0.000000 0.000003 1.544202 -0.067814 -0.215628
    21 2.452246 0.000000 0.000000 -0.001446 0.018536 -0.056792
    22 0.946167 3.213873 -0.420090 -3.141592 -0.000002 1.413798
    23 1.827063 1.152534 -7.643625 -1.570796 -1.570796 0.000000
  time 36
    0 1.848677 -0.262798 41.746146 0.000000 0.017381 -1.562119
    1 0.000000 0.000000 0.000000 -0.000025 -1.579490 -1.570745
    2 -0.000007 0.000008 4.427393 0.000193 3.211358 -0.079677
    3 18.301065 0.000000 0.000000 0.000000 0.000000 -0.195501
    4 17.106758 0.000000 0.000000 0.001613 -0.063958 0.107145
    5 0.000006 -0.000004 -4.427393 -0.007667 -3.189910 0.007126
    6 18.133167 0.000000 0.000000 0.000000 0.000000 -0.041166
    7 17.375956 0.000000 0.000000 0.043084 0.056679 0.063556
    8 2.255203 -0.002685 -0.019529 -0.000189 0.008701 -0.025348
    9 3.373776 -0.004248 0.000000 -0.008718 -0.017665 -0.026006
    10 5.335510 -0.004100 0.000000 0.008720 0.000134 -0.017440
    11 5.172566 -0.004197 0.000000 0.000000 0.000000 -0.026152
    12 5.271970 -0.001935 0.000000 0.000000 0.008721 0.103325
    13 -3.160295 0.330768 2.502721 -1.820757 -1.497821 -1.423692
    14 6.063949 0.000000 0.000002 1.230923 1.299284 1.213800
    15 7.685221 0.000000 0.000000 0.000000 0.000000 -0.311365
    16 10.246255 0.000000 -0.000003 -1.544388 0.067796 -0.215620
    17 -3.016280 0.320383 -2.451310 1.207150 1.450383 -2.041887
    18 6.269507 0.000000 -0.000001 -0.772161 -1.323054 0.712641
    19 8.573802 0.000000 -0.000004 0.000000 0.000000 -0.161423
    20 9.913458 0.000000 0.000003 1.544202 -0.067814 -0.215628
    21 2.452246 0.000000 0.000000 -0.001446 0.018600 -0.064071
    22 0.946167 3.213873 -0.420090 -3.141592 -0.000002 1.413798
    23 1.827063 1.152534 -7.643625 -1.570796 -1.570796 0.000000
  time 37
    0 1.860396 -0.286997 41.746146 0.000000 0.017381 -1.562119
    1 0.000000 0.000000 0.000000 -0.000025 -1.579490 -1.570745
    2 -0.000007 0.000008 4.427393 0.000193 3.211262 -0.080156
    3 18.301065 0.000000 0.000000 0.000000 0.000000 -0.196520
    4 17.106758 0.000000 0.000000 0.001613 -0.063878 0.107682
    5 0.000006 -0.000004 -4.427393 -0.007762 -3.190005 0.005341
    6 18.133167 0.000000 0.000000 0.000000 0.000000 -0.044824
    7 17.375956 0.000000 0.000000 0.043084 0.056766 0.065435
    8 2.255203 -0.002685 -0.019529 -0.000189 0.008701 -0.025348
    9 3.373776 -0.004248 0.000000 -0.008718 -0.017665 -0.026006
    10 5.335510 -0.004100 0.000000 0.008720 0.000134 -0.017440
    11 5.172566 -0.004197 0.000000 0.000000 0.000000 -0.026152
    12 5.271970 -0.001935 0.000000 0.000000 0.008721 0.157362
    13 -3.136857 0.498742 2.506628 -1.819996 -1.497356 -1.478540
    14 6.063949 0.000000 0.000002 1.230923 1.299284 1.213800
    15 7.685221 0.000000 0.000000 0.000000 0.000000 -0.311365
    16 10.246255 0.000000 -0.000003 -1.544388 0.067796 -0.215620
    17 -2.992842 0.480544 -2.451310 1.205332 1.450823 -2.097857
    18 6.269507 0.000000 -0.000001 -0.772161 -1.323054 0.712641
    19 8.573802 0.000000 -0.000004 0.000000 0.000000 -0.161423
    20 9.913458 0.000000 0.000003 1.544202 -0.067814 -0.215628
    21 2.452246 0.000000 0.000000 -0.002104 0.018695 -0.077036
    22 0.946167 3.213873 -0.420090 -3.141592 -0.000002 1.413798
    23 1.827063 1.152534 -7.643625 -1.570796 -1.570796 0.000000
  time 38
    0 1.872115 -0.335395 41.729392 0.000000 0.017381 -1.562119
    1 0.000000 0.000000 0.000000 -0.000025 -1.579490 -1.570745
    2 -0.000007 0.000008 4.427393 0.000193 3.211262 -0.080635
    3 18.301065 0.000000 0.000000 0.000000 0.000000 -0.197393
    4 17.106758 0.000000 0.000000 0.001613 -0.063838 0.108129
    5 0.000006 -0.000004 -4.427393 -0.007858 -3.190005 0.003734
    6 18.133167 0.000000 0.000000 0.000000 0.000000 -0.048137
    7 17.375956 0.000000 0.000000 0.043084 0.056824 0.067112
    8 2.255203 -0.002685 -0.019529 -0.000189 0.008701 -0.025348
    9 3.373776 -0.004248 0.000000 -0.008718 -0.017665 -0.026006
    10 5.335510 -0.004100 0.000000 0.008720 0.000134 -0.017440
    11 5.172566 -0.004197 0.000000 0.000000 0.000000 -0.026152
    12 5.271970 -0.001935 0.000000 0.000000 0.008721 0.228338
    13 -3.097793 0.717498 2.506628 -1.819521 -1.496749 -1.549985
    14 6.063949 0.000000 0.000002 1.230923 1.299284 1.213800
    15 7.685221 0.000000 0.000000 0.000000 0.000000 -0.311365
    16 10.246255 0.000000 -0.000003 -1.544388 0.067796 -0.215620
    17 -2.953778 0.691488 -2.451310 1.202556 1.451335 -2.171527
    18 6.269507 0.000000 -0.000001 -0.772161 -1.323054 0.712641
    19 8.573802 0.000000 -0.000004 0.000000 0.000000 -0.161423
    20 9.913458 0.000000 0.000003 1.544202 -0.067814 -0.215628
    21 2.452246 0.000000 0.000000 -0.002498 0.018855 -0.094308
    22 0.946167 3.213873 -0.420090 -3.141592 -0.000002 1.413798
    23 1.827063 1.152534 -7.643625 -1.570796 -1.570796 0.000000
  time 39
    0 1.891647 -0.420091 41.729392 0.000000 0.017381 -1.562119
    1 0.000000 0.000000 0.000000 -0.000025 -1.579490 -1.570745
    2 -0.000007 0.000008 4.427393 0.000289 3.211262 -0.081019
    3 18.301065 0.000000 0.000000 0.000000 0.000000 -0.198194
    4 17.106758 0.000000 0.000000 0.001613 -0.063838 0.108531
    5 0.000006 -0.000004 -4.427393 -0.007954 -3.190005 0.002395
    6 18.133167 0.000000 0.000000 0.000000 0.000000 -0.050966
    7 17.375956 0.000000 0.000000 0.043084 0.056853 0.068585
    8 2.255203 -0.002685 -0.019529 -0.000189 0.008701 -0.025348
    9 3.373776 -0.004248 0.000000 -0.008718 -0.017665 -0.026006
    10 5.335510 -0.004100 0.000000 0.008720 0.000134 -0.017440
    11 5.172566 -0.004197 0.000000 0.000000 0.000000 -0.026152
    12 5.271970 -0.001935 0.000000 0.000000 0.008695 0.298126
    13 -3.043104 0.928442 2.506628 1.321890 -1.645440 -4.761090
    14 6.063949 0.000000 0.000002 1.230923 1.299284 1.213800
    15 7.685221 0.000000 0.000000 0.000000 0.000000 -0.311365
    16 10.246255 0.000000 -0.000003 -1.544388 0.067796 -0.215620
    17 -2.899089 0.898526 -2.451310 1.199493 1.451811 -2.244336
    18 6.269507 0.000000 -0.000001 -0.772161 -1.323054 0.712641
    19 8.573802 0.000000 -0.000004 0.000000 0.000000 -0.161423
    20 9.913458 0.000000 0.000003 1.544202 -0.067814 -0.215628
    21 2.452246 0.000000 0.000000 -0.000920 0.018887 -0.112355
    22 0.946167 3.213873 -0.420090 -3.141592 -0.000002 1.413798
    23 1.827063 1.152534 -7.643625 -1.570796 -1.570796 0.000000
  time 40
    0 1.844770 -0.553185 41.729392 0.000000 0.017381 -1.562119
    1 0.000000 0.000000 0.000000 -0.000025 -1.579490 -1.570745
    2 -0.000007 0.000008 4.427393 -0.000095 3.211454 -0.075171
    3 18.301065 0.000000 0.000000 0.000000 0.000000 -0.205180
    4 17.106758 0.000000 0.000000 0.001613 -0.063998 0.121313
    5 0.000006 -0.000004 -4.427393 -0.006612 -3.183987 0.028641
    6 18.133167 0.000000 0.000000 0.000000 0.000000 -0.001897
    7 17.375956 0.000000 0.000000 0.043600 0.050839 0.048366
    8 2.255203 -0.002685 -0.019529 -0.000189 0.008701 -0.025348
    9 3.373776 -0.004248 0.000000 -0.008718 -0.017665 -0.026006
    10 5.335510 -0.004100 0.000000 0.008720 0.000134 -0.017440
    11 5.172566 -0.004197 0.000000 0.000000 0.000000 -0.026152
    12 5.271970 -0.001935 0.000000 0.000000 0.008695 0.343997
    13 -2.996228 1.069072 2.506628 1.321509 -1.645833 -4.806589
    14 6.063949 0.000000 0.000002 1.230923 1.299284 1.213800
    15 7.685221 0.000000 0.000000 0.000000 0.000000 -0.311365
    16 10.246255 0.000000 -0.000003 -1.544388 0.067796 -0.215620
    17 -2.852213 1.031342 -2.451310 1.197292 1.452141 -2.292365
    18 6.269507 0.000000 -0.000001 -0.772161 -1.323054 0.712641
    19 8.573802 0.000000 -0.000004 0.000000 0.000000 -0.161423
    20 9.913458 0.000000 0.000003 1.544202 -0.067814 -0.215628
    21 2.452246 0.000000 0.000000 0.004602 0.018440 -0.126440
    22 0.946167 3.213873 -0.420090 -3.141592 -0.000002 1.413798
    23 1.827063 1.152534 -7.643625 -1.570796 -1.570796 0.000000
  time 41
    0 1.493197 -0.613682 41.762900 0.003451 0.014778 -1.590402
    1 0.000000 0.000000 0.000000 -0.000025 -1.563333 -1.570745
    2 -0.000007 0.000008 4.427393 -0.049278 3.207908 -0.024170
    3 18.301065 0.000000 0.000000 0.000000 0.000000 -0.117422
    4 17.106758 0.000000 0.000000 0.022067 -0.078667 0.078362
    5 0.000006 -0.000004 -4.427393 0.017253 -3.196215 -0.021798
    6 18.133167 0.000000 0.000000 0.000000 0.000000 -0.104038
    7 17.375956 0.000000 0.000000 -0.011235 0.043524 0.096372
    8 2.255203 -0.002685 0.015628 0.018359 -0.007208 -0.014393
    9 3.373776 -0.004248 0.000000 -0.016130 -0.017713 -0.017438
    10 5.335510 -0.004100 0.000000 0.004826 0.000024 -0.007274
    11 5.172566 -0.004197 0.000000 -0.007181 -0.000108 -0.016255
    12 5.271970 -0.001935 0.000000 0.000012 0.017363 0.356598
    13 -3.004040 1.104229 2.479283 -1.470475 -1.515760 -2.027873
    14 6.063949 0.000000 0.000002 1.121693 1.269074 1.124959
    15 7.685221 0.000000 0.000000 0.000000 0.000000 -0.416896
    16 10.246255 0.000000 -0.000003 -1.540701 0.047903 -0.182330
    17 -2.817055 1.066500 -2.474748 1.257495 1.434818 -2.246441
    18 6.269507 0.000000 -0.000001 -0.720251 -1.291276 0.605736
    19 8.573802 0.000000 -0.000004 0.000000 0.000000 -0.257214
    20 9.913458 0.000000 0.000003 1.545233 -0.023649 -0.221157
    21 2.452246 0.000000 0.000000 0.018737 0.008263 -0.178127
    22 0.946167 3.213873 -0.420090 -3.141592 -0.000002 1.413798
    23 1.827063 1.152534 -7.643625 -1.570796 -1.570796 0.000000
  time 42
    0 1.016620 -0.710478 41.829916 0.012464 0.009016 -1.658283
    1 0.000000 0.000000 0.000000 -0.000025 -1.523661 -1.570793
    2 -0.000007 0.000008 4.427393 -0.097023 3.175706 0.049838
    3 18.301065 0.000000 0.000000 0.000000 0.000000 -0.001867
    4 17.106758 0.000000 0.000000 0.007315 -0.099669 0.026294
    5 0.000006 -0.000004 -4.427393 0.040735 -3.238725 -0.082592
    6 18.133167 0.000000 0.000000 0.000000 0.000000 -0.224468
    7 17.375956 0.000000 0.000000 -0.109544 0.034185 0.149458
    8 2.255203 -0.002685 0.105475 0.060897 -0.047874 0.012165
    9 3.373776 -0.004248 0.000000 -0.034234 -0.017312 0.003292
    10 5.335510 -0.004100 0.000000 -0.004762 0.000085 0.017731
    11 5.172566 -0.004197 0.000000 -0.024539 0.000216 0.008015
    12 5.271970 -0.001935 0.000000 0.000024 0.031396 0.344093
    13 -3.050917 1.069072 2.436313 -0.116521 -1.513759 -3.370062
    14 6.063949 0.000000 0.000002 0.926304 1.186223 0.988299
    15 7.685221 0.000000 0.000000 0.000000 0.000000 -0.674096
    16 10.246255 0.000000 -0.000003 -1.534668 -0.001249 -0.103393
    17 -2.797523 1.031342 -2.513812 1.327461 1.387026 -2.168561
    18 6.269507 0.000000 -0.000001 -0.648434 -1.208446 0.405444
    19 8.573802 0.000000 -0.000004 0.000000 0.000000 -0.491669
    20 9.913458 0.000000 0.000003 1.546708 0.082904 -0.234390
    21 2.452246 0.000000 0.000000 0.044837 -0.004594 -0.286024
    22 0.946167 3.213873 -0.420090 -3.141592 -0.000002 1.413798
    23 1.827063 1.152534 -7.643625 -1.570796 -1.570796 0.000000
  time 43
    0 0.360350 -0.807273 41.846670 0.022339 0.003067 -1.734026
    1 0.000000 0.000000 0.000000 -0.000025 -1.481694 -1.570793
    2 -0.000007 0.000008 4.427393 -0.133167 3.132865 -0.014872
    3 18.301065 0.000000 0.000000 0.000000 0.000000 -0.095592
    4 17.106758 0.000000 0.000000 -0.043230 -0.084960 0.064999
    5 0.000006 -0.000004 -4.427393 0.063546 -3.282094 -0.129013
    6 18.133167 0.000000 0.000000 0.000000 0.000000 -0.318051
    7 17.375956 0.000000 0.000000 -0.218011 0.019931 0.191368
    8 2.247390 -0.002685 0.199228 0.107578 -0.093565 0.040840
    9 3.373776 -0.004248 0.000000 -0.053522 -0.016036 0.025880
    10 5.335510 -0.004100 0.000000 -0.014575 0.000645 0.043741
    11 5.172566 -0.004197 0.000000 -0.043558 0.001498 0.033752
    12 5.271970 -0.001935 0.000000 0.000036 0.044689 0.323842
    13 -3.105606 1.006570 2.397249 0.361301 -1.449972 -3.827252
    14 6.063949 0.000000 0.000002 0.768014 1.082577 0.894263
    15 7.685221 0.000000 0.000000 0.000000 0.000000 -0.949458
    16 10.246255 0.000000 -0.000003 -1.532155 -0.053523 -0.013892
    17 -2.781898 0.972747 -2.552876 1.362683 1.333373 -2.119767
    18 6.269507 0.000000 -0.000001 -0.615859 -1.111702 0.234741
    19 8.573802 0.000000 -0.000004 0.000000 0.000000 -0.740388
    20 9.913458 0.000000 0.000003 1.546708 0.199883 -0.249436
    21 2.452246 0.000000 0.000000 0.070609 -0.009858 -0.393706
    22 0.946167 3.213873 -0.420090 -3.141592 -0.000002 1.413798
    23 1.827063 1.152534 -7.643625 -1.570796 -1.570796 0.000000
  time 44
    0 -0.389673 -0.553185 41.779654 0.026078 0.000000 -1.771418
    1 0.000000 0.000000 0.000000 -0.000025 -1.466129 -1.570793
    2 -0.000007 0.000008 4.427393 -0.162025 3.113505 -0.073733
    3 18.301065 0.000000 0.000000 0.000000 0.000000 -0.205180
    4 17.106758 0.000000 0.000000 -0.079244 -0.065561 0.111257
    5 0.000006 -0.000004 -4.427393 0.092299 -3.287826 -0.159455
    6 18.133167 0.000000 0.000000 0.000000 0.000000 -0.370433
    7 17.375956 0.000000 0.000000 -0.288686 -0.001031 0.211790
    8 2.243484 -0.002685 0.234385 0.133793 -0.111900 0.052899
    9 3.373776 -0.004248 0.000000 -0.061025 -0.015233 0.035881
    10 5.335510 -0.004100 0.000000 -0.017407 0.000925 0.052329
    11 5.172566 -0.004197 0.000000 -0.052270 0.002313 0.043540
    12 5.271970 -0.001935 0.000000 0.000036 0.051851 0.314616
    13 -3.129044 0.979225 2.373811 0.356451 -1.416489 -3.812562
    14 6.063949 0.000000 0.000002 0.694814 1.024532 0.829714
    15 7.685221 0.000000 0.000000 0.000000 0.000000 -1.059232
    16 10.246255 0.000000 -0.000003 -1.531484 -0.072702 0.034251
    17 -2.774085 0.945402 -2.572408 1.369096 1.311436 -2.107903
    18 6.269507 0.000000 -0.000001 -0.608430 -1.065915 0.159908
    19 8.573802 0.000000 -0.000004 0.000000 0.000000 -0.834262
    20 9.913458 0.000000 0.000003 1.545897 0.253965 -0.257865
    21 2.452246 0.000000 0.000000 0.079944 -0.011709 -0.429973
    22 0.946167 3.213873 -0.420090 -3.141592 -0.000002 1.413798
    23 1.827063 1.152534 -7.643625 -1.570796 -1.570796 0.000000
  time 45
    0 -0.245137 0.693058 41.628867 0.024160 -0.001022 -1.774582
    1 0.000000 0.000000 0.000000 -0.000025 -1.473942 -1.570793
    2 -0.000007 0.000008 4.427393 -0.170941 3.109001 -0.094152
    3 18.301065 0.000000 0.000000 0.000000 0.000000 -0.330558
    4 17.106758 0.000000 0.000000 -0.072218 -0.052415 0.153225
    5 0.000006 -0.000004 -4.427393 0.102555 -3.278273 -0.210697
    6 18.133167 0.000000 0.000000 0.000000 0.000000 -0.403146
    7 17.375956 0.000000 0.000000 -0.306334 -0.008809 0.192689
    8 2.247390 -0.002685 0.214853 0.134474 -0.103762 0.050322
    9 3.373776 -0.004248 0.000000 -0.058079 -0.015404 0.034675
    10 5.335510 -0.004100 0.000000 -0.014093 0.000645 0.045524
    11 5.172566 -0.004197 0.000000 -0.051817 0.002073 0.039217
    12 5.271970 -0.001935 0.000000 0.000036 0.053357 0.315709
    13 -3.129044 0.983131 2.369905 0.208843 -1.421492 -3.666715
    14 6.063949 0.000000 0.000002 0.681784 1.019456 0.774943
    15 7.685221 0.000000 0.000000 0.000000 0.000000 -1.022111
    16 10.246255 0.000000 -0.000003 -1.529306 -0.062533 0.045262
    17 -2.770179 0.949309 -2.576314 1.368618 1.318395 -2.109147
    18 6.269507 0.000000 -0.000001 -0.603762 -1.069864 0.139561
    19 8.573802 0.000000 -0.000004 0.000000 0.000000 -0.790930
    20 9.913458 0.000000 0.000003 1.545749 0.251677 -0.260041
    21 2.452246 0.000000 0.000000 0.082574 -0.015377 -0.402148
    22 0.946167 3.213873 -0.420090 -3.141592 -0.000002 1.413798
    23 1.827063 1.152534 -7.643625 -1.570796 -1.570796 0.000000
  time 46
    0 0.176751 2.253885 41.444572 0.019462 -0.001301 -1.763747
    1 0.000000 0.000000 0.000000 -0.000025 -1.492455 -1.570793
    2 -0.000007 0.000008 4.427393 -0.169503 3.104017 -0.062996
    3 18.301065 0.000000 0.000000 0.000000 0.000000 -0.383024
    4 17.106758 0.000000 0.000000 -0.051397 -0.037265 0.187639
    5 0.000006 -0.000004 -4.427393 0.099967 -3.258021 -0.261404
    6 18.133167 0.000000 0.000000 0.000000 0.000000 -0.415568
    7 17.375956 0.000000 0.000000 -0.293335 -0.011295 0.153878
    8 2.251297 -0.002685 0.175790 0.136143 -0.084054 0.041300
    9 3.373776 -0.004248 0.000000 -0.050454 -0.015975 0.028669
    10 5.335510 -0.004100 0.000000 -0.007786 0.000243 0.031484
    11 5.172566 -0.004197 0.000000 -0.047483 0.001390 0.028487
    12 5.271970 -0.001935 0.000000 0.000036 0.052300 0.319277
    13 -3.129044 0.994851 2.369905 -0.059551 -1.425530 -3.402780
    14 6.063949 0.000000 0.000002 0.675660 1.028380 0.690838
    15 7.685221 0.000000 0.000000 0.000000 0.000000 -0.919231
    16 10.246255 0.000000 -0.000003 -1.526121 -0.038894 0.042125
    17 -2.766273 0.961028 -2.572408 1.345647 1.337109 -2.134022
    18 6.269507 0.000000 -0.000001 -0.595095 -1.092898 0.147355
    19 8.573802 0.000000 -0.000004 0.000000 0.000000 -0.685015
    20 9.913458 0.000000 0.000003 1.545897 0.225653 -0.259859
    21 2.452246 0.000000 0.000000 0.069754 -0.018089 -0.343483
    22 0.946167 3.213873 -0.420090 -3.141592 -0.000002 1.413798
    23 1.827063 1.152534 -7.643625 -1.570796 -1.570796 0.000000
  time 47
    0 0.735361 3.863111 41.226769 0.013902 -0.001115 -1.746777
    1 0.000000 0.000000 0.000000 -0.000025 -1.515027 -1.570793
    2 -0.000007 0.000008 4.427393 -0.164709 3.083220 0.077830
    3 18.301065 0.000000 0.000000 0.000000 0.000000 -0.205762
    4 17.106758 0.000000 0.000000 -0.032746 -0.015422 0.196042
    5 0.000006 -0.000004 -4.427393 0.099392 -3.236719 -0.302290
    6 18.133167 0.000000 0.000000 0.000000 0.000000 -0.404250
    7 17.375956 0.000000 0.000000 -0.272933 -0.008549 0.100894
    8 2.255203 -0.002685 0.125007 0.137812 -0.059909 0.029701
    9 3.373776 -0.004248 0.000000 -0.040977 -0.016571 0.020654
    10 5.335510 -0.004100 0.000000 -0.000450 0.000000 0.014780
    11 5.172566 -0.004197 0.000000 -0.041510 0.000659 0.015287
    12 5.271970 -0.001935 0.000000 0.000036 0.050027 0.323842
    13 -3.117325 1.006570 2.377718 -0.360948 -1.418276 -3.106985
    14 6.063949 0.000000 0.000002 0.675375 1.045572 0.600240
    15 7.685221 0.000000 0.000000 0.000000 0.000000 -0.790697
    16 10.246255 0.000000 -0.000003 -1.522854 -0.010169 0.032266
    17 -2.770179 0.972747 -2.568501 1.307266 1.360108 -2.174780
    18 6.269507 0.000000 -0.000001 -0.582332 -1.123454 0.166943
    19 8.573802 0.000000 -0.000004 0.000000 0.000000 -0.555325
    20 9.913458 0.000000 0.000003 1.546118 0.189627 -0.258500
    21 2.452246 0.000000 0.000000 0.050360 -0.018344 -0.273361
    22 0.946167 3.213873 -0.420090 -3.141592 -0.000002 1.413798
    23 1.827063 1.152534 -7.643625 -1.570796 -1.570796 0.000000
  time 48
    0 1.251002 5.315044 41.025720 0.008245 -0.000744 -1.728369
    1 0.000000 0.000000 0.000000 -0.000025 -1.537660 -1.570793
    2 -0.000007 0.000008 4.427393 -0.159053 3.061848 0.226230
    3 18.301065 0.000000 0.000000 0.000000 0.000000 -0.001867
    4 17.106758 0.000000 0.000000 -0.005928 0.006462 0.212623
    5 0.000006 -0.000004 -4.427393 0.101405 -3.216658 -0.328804
    6 18.133167 0.000000 0.000000 0.000000 0.000000 -0.374367
    7 17.375956 0.000000 0.000000 -0.251584 -0.003286 0.043693
    8 2.255203 -0.002685 0.074224 0.138925 -0.035642 0.017918
    9 3.373776 -0.004248 0.000000 -0.031439 -0.017033 0.012387
    10 5.335510 -0.004100 0.000000 0.006789 0.000000 -0.001842
    11 5.172566 -0.004197 0.000000 -0.035278 0.000096 0.001994
    12 5.271970 -0.001935 0.000000 0.000036 0.047385 0.328471
    13 -3.105606 1.022195 2.389437 -0.611461 -1.399837 -2.862222
    14 6.063949 0.000000 0.000002 0.679149 1.066613 0.515753
    15 7.685221 0.000000 0.000000 0.000000 0.000000 -0.660639
    16 10.246255 0.000000 -0.000003 -1.520088 0.018644 0.020294
    17 -2.770179 0.988372 -2.560688 1.257687 1.382961 -2.226828
    18 6.269507 0.000000 -0.000001 -0.566235 -1.154480 0.188531
    19 8.573802 0.000000 -0.000004 0.000000 0.000000 -0.424945
    20 9.913458 0.000000 0.000003 1.546339 0.151990 -0.256778
    21 2.452246 0.000000 0.000000 0.029848 -0.015888 -0.203497
    22 0.946167 3.213873 -0.420090 -3.141592 -0.000002 1.413798
    23 1.827063 1.152534 -7.643625 -1.570796 -1.570796 0.000000
  time 49
    0 1.602575 6.379795 40.841425 0.003260 -0.000279 -1.712070
    1 0.000000 0.000000 0.000000 -0.000025 -1.557405 -1.570793
    2 -0.000007 0.000008 4.427393 -0.170557 3.109193 0.039772
    3 18.301065 0.000000 0.000000 0.000000 0.000000 -0.327793
    4 17.106758 0.000000 0.000000 0.009008 0.014838 0.351980
    5 0.000006 -0.000004 -4.427393 0.104759 -3.198603 -0.342462
    6 18.133167 0.000000 0.000000 0.000000 0.000000 -0.342620
    7 17.375956 0.000000 0.000000 -0.232904 0.001629 -0.002281
    8 2.255203 -0.002685 0.027348 0.139420 -0.014463 0.007654
    9 3.373776 -0.004248 0.000000 -0.023086 -0.017300 0.005101
    10 5.335510 -0.004100 0.000000 0.013095 0.000195 -0.016271
    11 5.172566 -0.004197 0.000000 -0.029779 -0.000252 -0.009586
    12 5.271970 -0.001935 0.000000 0.000036 0.045033 0.332553
    13 -3.097793 1.033914 2.393343 -0.781704 -1.377110 -2.697108
    14 6.063949 0.000000 0.000002 0.684703 1.087325 0.445551
    15 7.685221 0.000000 0.000000 0.000000 0.000000 -0.547021
    16 10.246255 0.000000 -0.000003 -1.518077 0.043800 0.009411
    17 -2.774085 1.000091 -2.552876 1.203513 1.402407 -2.283276
    18 6.269507 0.000000 -0.000001 -0.548709 -1.180993 0.205774
    19 8.573802 0.000000 -0.000004 0.000000 0.000000 -0.311284
    20 9.913458 0.000000 0.000003 1.546486 0.118845 -0.255146
    21 2.452246 0.000000 0.000000 0.012031 -0.011836 -0.142765
    22 0.946167 3.213873 -0.420090 -3.141592 -0.000002 1.413798
    23 1.827063 1.152534 -7.643625 -1.570796 -1.570796 0.000000
  time 50
    0 1.727579 6.791176 40.724147 0.000000 0.000000 -1.701715
    1 0.000000 0.000000 0.000000 -1.570795 -1.570796 0.000000
    2 -0.000007 0.000008 4.427393 -0.170941 3.132578 -0.013434
    3 18.301065 0.000000 0.000000 0.000000 0.000000 -0.414314
    4 17.106758 0.000000 0.000000 0.018462 0.017483 0.385277
    5 0.000006 -0.000004 -4.427393 0.108305 -3.185993 -0.350229
    6 18.133167 0.000000 0.000000 0.000000 0.000000 -0.336547
    7 17.375956 0.000000 0.000000 -0.221626 0.004347 -0.016353
    8 2.255203 -0.002685 0.000003 0.139544 -0.000099 0.000796
    9 3.373776 -0.004248 0.000000 -0.017436 -0.017422 0.000302
    10 5.335510 -0.004100 0.000000 0.017407 0.000438 -0.026150
    11 5.172566 -0.004197 0.000000 -0.026157 -0.000431 -0.017444
    12 5.271970 -0.001935 0.000000 0.000024 0.043606 0.335253
    13 -3.089980 1.041727 2.401156 -0.875956 -1.358599 -2.606395
    14 6.063949 0.000000 0.000002 0.688690 1.101734 0.397655
    15 7.685221 0.000000 0.000000 0.000000 0.000000 -0.470457
    16 10.246255 0.000000 -0.000003 -1.516737 0.060927 0.003137
    17 -2.774085 1.007904 -2.548969 1.160442 1.415262 -2.327861
    18 6.269507 0.000000 -0.000001 -0.534422 -1.198292 0.213636
    19 8.573802 0.000000 -0.000004 0.000000 0.000000 -0.234206
    20 9.913458 0.000000 0.000003 1.546560 0.097060 -0.254240
    21 2.452246 0.000000 0.000000 0.000855 -0.008359 -0.101243
    22 0.946167 3.213873 -0.420090 -3.141592 -0.000002 1.413798
    23 1.827063 1.152534 -7.643625 -1.570796 -1.570796 0.000000
end
