version 1
nodes
  0 "Bip01" -1
  1 "Bip01 Pelvis" 0
  2 "Bip01 L Leg" 1
  3 "Bip01 L Leg1" 2
  4 "Bip01 L Foot" 3
  5 "Bip01 R Leg" 1
  6 "Bip01 R Leg1" 5
  7 "Bip01 R Foot" 6
  8 "Bip01 Spine" 1
  9 "Bip01 Spine1" 8
  10 "Bip01 Spine2" 9
  11 "Bip01 Spine3" 10
  12 "Bip01 Neck" 11
  13 "Bip01 L Arm" 12
  14 "Bip01 L Arm1" 13
  15 "Bip01 L Arm2" 14
  16 "Bip01 L Hand" 15
  17 "Bip01 R Arm" 12
  18 "Bip01 R Arm1" 17
  19 "Bip01 R Arm2" 18
  20 "Bip01 R Hand" 19
  21 "Bip01 Head" 12
  22 "Bone05" 21
  23 "Bone03" 1
end
skeleton
  time 0
    0 0.422852 -0.686279 36.033004 0.000000 0.000000 -1.570844
    1 0.000000 0.000000 0.000000 -1.570795 -1.570796 0.000000
    2 -0.000007 0.000008 4.071913 -0.132304 3.260332 -0.252043
    3 16.828364 0.000000 0.000000 0.000000 0.000000 -0.708950
    4 15.727810 0.000000 0.000000 -0.225472 -0.080912 0.442620
    5 0.000006 -0.000004 -4.071913 0.244117 -3.296424 -0.481012
    6 16.672185 0.000000 0.000000 0.000000 0.000000 -0.486377
    7 15.977475 0.000000 0.000000 0.253217 0.020798 -0.016708
    8 2.075510 -0.002685 0.000003 -0.000004 -0.000001 0.000796
    9 3.104236 -0.004248 0.000000 0.000000 0.000000 0.000000
    10 4.905809 -0.004100 0.000000 0.000000 0.000000 0.095944
    11 4.758491 -0.004197 0.000000 0.000000 0.000000 -0.017444
    12 4.850082 -0.001935 0.000000 0.000000 0.000000 0.134667
    13 -2.879036 0.397176 2.326935 0.915399 -1.249681 -4.167020
    14 5.575653 0.000000 0.000002 0.211683 0.230241 -1.399714
    15 7.068015 0.000000 0.000000 0.000000 0.000000 -0.200000
    16 9.422011 0.000000 -0.000003 -3.130330 0.000000 0.000000
    17 -2.781898 0.382885 -2.232553 -0.818897 1.282321 -4.074800
    18 5.765585 0.000000 -0.000001 -0.201721 -0.256514 -1.416491
    19 7.882375 0.000000 -0.000004 0.000000 0.000000 -0.200000
    20 9.116559 0.000000 0.000003 3.226190 0.165722 0.000000
    21 2.256927 0.000000 0.000000 0.000000 0.000000 -0.056964
    22 0.946167 3.213873 -0.420090 -3.141592 -0.000002 1.413798
    23 1.682527 1.062688 -7.030325 -1.570796 -1.570796 0.000000
  time 1
    0 0.422852 -0.698378 35.949233 0.000000 0.000000 -1.570844
    1 -0.078127 0.000000 0.000000 -1.570795 -1.570796 0.000000
    2 -0.000007 0.000008 4.071913 -0.131249 3.261291 -0.261054
    3 16.828364 0.000000 0.000000 0.000000 0.000000 -0.723212
    4 15.727810 0.000000 0.000000 -0.225509 -0.080711 0.447849
    5 0.000006 -0.000004 -4.071913 0.242775 -3.298048 -0.490475
    6 16.672185 0.000000 0.000000 0.000000 0.000000 -0.499973
    7 15.977475 0.000000 0.000000 0.253389 0.020220 -0.012543
    8 2.075510 -0.002685 0.000003 -0.000004 -0.000001 0.006688
    9 3.104236 -0.004248 0.000000 0.000000 0.000000 0.007513
    10 4.905809 -0.004100 0.000000 0.000000 0.000000 0.095944
    11 4.758491 -0.004197 0.000000 0.000000 0.000000 -0.017444
    12 4.850082 -0.001935 0.000000 0.000000 0.000000 0.134667
    13 -2.879036 0.397176 2.326935 0.915399 -1.249681 -4.167020
    14 5.575653 0.000000 0.000002 0.221652 0.200605 -1.343109
    15 7.068015 0.000000 0.000000 0.000000 0.000000 -0.307122
    16 9.422011 0.000000 -0.000003 -3.127816 0.004371 0.047247
    17 -2.781898 0.382885 -2.232553 -0.818897 1.282321 -4.074800
    18 5.765585 0.000000 -0.000001 -0.212675 -0.228685 -1.364349
    19 7.882375 0.000000 -0.000004 0.000000 0.000000 -0.304765
    20 9.116559 0.000000 0.000003 3.224347 0.161823 0.049488
    21 2.256927 0.000000 0.000000 0.000000 0.000000 -0.053389
    22 0.946167 3.213873 -0.420090 -3.141592 -0.000002 1.413798
    23 1.682527 1.062688 -7.030325 -1.570796 -1.570796 0.000000
  time 2
    0 0.422852 -0.940367 35.798446 0.000000 0.000000 -1.570844
    1 -0.250008 0.000000 0.000000 -1.570795 -1.570796 0.000000
    2 -0.000007 0.000008 4.071913 -0.129811 3.263304 -0.270449
    3 16.828364 0.000000 0.000000 0.000000 0.000000 -0.748535
    4 15.727810 0.000000 0.000000 -0.225656 -0.081473 0.463626
    5 0.000006 -0.000004 -4.071913 0.239612 -3.303206 -0.508687
    6 16.672185 0.000000 0.000000 0.000000 0.000000 -0.539725
    7 15.977475 0.000000 0.000000 0.253303 0.020943 0.008539
    8 2.075510 -0.002685 0.000003 -0.000004 -0.000001 0.019161
    9 3.104236 -0.004248 0.000000 0.000000 0.000000 0.023518
    10 4.905809 -0.004100 0.000000 0.000000 0.000000 0.095944
    11 4.758491 -0.004197 0.000000 0.000000 0.000000 -0.017444
    12 4.850082 -0.001935 0.000000 0.000000 0.000000 0.134667
    13 -2.879036 0.397176 2.326935 0.915399 -1.249681 -4.167020
    14 5.575653 0.000000 0.000002 0.236890 0.137975 -1.212483
    15 7.068015 0.000000 0.000000 0.000000 0.000000 -0.559814
    16 9.422011 0.000000 -0.000003 -3.122453 0.009456 0.161395
    17 -2.781898 0.382885 -2.232553 -0.818897 1.282321 -4.074800
    18 5.765585 0.000000 -0.000001 -0.231248 -0.170394 -1.244409
    19 7.882375 0.000000 -0.000004 0.000000 0.000000 -0.551567
    20 9.116559 0.000000 0.000003 3.220441 0.158008 0.168768
    21 2.256927 0.000000 0.000000 0.000000 0.000000 -0.044042
    22 0.946167 3.213873 -0.420090 -3.141592 -0.000002 1.413798
    23 1.682527 1.062688 -7.030325 -1.570796 -1.570796 0.000000
  time 3
    0 0.422852 -1.194455 35.647660 0.000000 0.000000 -1.570844
    1 -0.425794 0.000000 0.000000 -1.570795 -1.570796 0.000000
    2 -0.000007 0.000008 4.071913 -0.128373 3.265124 -0.279172
    3 16.828364 0.000000 0.000000 0.000000 0.000000 -0.773131
    4 15.727810 0.000000 0.000000 -0.225804 -0.082314 0.479492
    5 0.000006 -0.000004 -4.071913 0.236449 -3.308078 -0.525737
    6 16.672185 0.000000 0.000000 0.000000 0.000000 -0.577821
    7 15.977475 0.000000 0.000000 0.253131 0.021781 0.029164
    8 2.075510 -0.002685 0.000003 -0.000004 -0.000001 0.031911
    9 3.104236 -0.004248 0.000000 0.000000 0.000000 0.039775
    10 4.905809 -0.004100 0.000000 0.000000 0.000000 0.095944
    11 4.758491 -0.004197 0.000000 0.000000 0.000000 -0.017444
    12 4.850082 -0.001935 0.000000 0.000000 0.000000 0.134667
    13 -2.879036 0.397176 2.326935 0.915399 -1.249681 -4.167020
    14 5.575653 0.000000 0.000002 0.236534 0.084351 -1.126086
    15 7.068015 0.000000 0.000000 0.000000 0.000000 -0.737136
    16 9.422011 0.000000 -0.000003 -3.117928 0.015165 0.243469
    17 -2.781898 0.382885 -2.232553 -0.818897 1.282321 -4.074800
    18 5.765585 0.000000 -0.000001 -0.234487 -0.119436 -1.165230
    19 7.882375 0.000000 -0.000004 0.000000 0.000000 -0.725356
    20 9.116559 0.000000 0.000003 3.217124 0.153685 0.254602
    21 2.256927 0.000000 0.000000 0.000000 0.000000 -0.034308
    22 0.946167 3.213873 -0.420090 -3.141592 -0.000002 1.413798
    23 1.682527 1.062688 -7.030325 -1.570796 -1.570796 0.000000
  time 4
    0 0.422852 -1.448544 35.496873 0.000000 0.000000 -1.570844
    1 -0.597674 0.000000 0.000000 -1.570795 -1.570796 0.000000
    2 -0.000007 0.000008 4.071913 -0.126935 3.266945 -0.287033
    3 16.828364 0.000000 0.000000 0.000000 0.000000 -0.796562
    4 15.727810 0.000000 0.000000 -0.225914 -0.083196 0.494867
    5 0.000006 -0.000004 -4.071913 0.233574 -3.312663 -0.541449
    6 16.672185 0.000000 0.000000 0.000000 0.000000 -0.613363
    7 15.977475 0.000000 0.000000 0.252958 0.022649 0.048570
    8 2.075510 -0.002685 0.000003 -0.000004 -0.000001 0.044522
    9 3.104236 -0.004248 0.000000 0.000000 0.000000 0.055907
    10 4.905809 -0.004100 0.000000 0.000000 0.000000 0.095944
    11 4.758491 -0.004197 0.000000 0.000000 0.000000 -0.017444
    12 4.850082 -0.001935 0.000000 0.000000 0.000000 0.134667
    13 -2.879036 0.397176 2.326935 0.915399 -1.249681 -4.167020
    14 5.575653 0.000000 0.000002 0.228274 0.035967 -1.058787
    15 7.068015 0.000000 0.000000 0.000000 0.000000 -0.880452
    16 9.422011 0.000000 -0.000003 -3.114158 0.021409 0.310946
    17 -2.781898 0.382885 -2.232553 -0.818897 1.282321 -4.074800
    18 5.765585 0.000000 -0.000001 -0.229915 -0.073179 -1.104191
    19 7.882375 0.000000 -0.000004 0.000000 0.000000 -0.866014
    20 9.116559 0.000000 0.000003 3.214397 0.148768 0.325300
    21 2.256927 0.000000 0.000000 0.000000 0.000000 -0.024444
    22 0.946167 3.213873 -0.420090 -3.141592 -0.000002 1.413798
    23 1.682527 1.062688 -7.030325 -1.570796 -1.570796 0.000000
  time 5
    0 0.422852 -1.702632 35.346086 0.000000 0.000000 -1.570844
    1 -0.765648 0.000000 0.000000 -1.570795 -1.570796 0.000000
    2 -0.000007 0.000008 4.071913 -0.125689 3.268671 -0.294319
    3 16.828364 0.000000 0.000000 0.000000 0.000000 -0.818829
    4 15.727810 0.000000 0.000000 -0.226024 -0.084078 0.509795
    5 0.000006 -0.000004 -4.071913 0.230699 -3.316962 -0.555911
    6 16.672185 0.000000 0.000000 0.000000 0.000000 -0.646628
    7 15.977475 0.000000 0.000000 0.252786 0.023545 0.066959
    8 2.075510 -0.002685 0.000003 -0.000004 -0.000001 0.056996
    9 3.104236 -0.004248 0.000000 0.000000 0.000000 0.071837
    10 4.905809 -0.004100 0.000000 0.000000 0.000000 0.095944
    11 4.758491 -0.004197 0.000000 0.000000 0.000000 -0.017444
    12 4.850082 -0.001935 0.000000 0.000000 0.000000 0.134667
    13 -2.879036 0.397176 2.326935 0.915399 -1.249681 -4.167020
    14 5.575653 0.000000 0.000002 0.214887 -0.008815 -1.002412
    15 7.068015 0.000000 0.000000 0.000000 0.000000 -1.003881
    16 9.422011 0.000000 -0.000003 -3.111057 0.028367 0.370101
    17 -2.781898 0.382885 -2.232553 -0.818897 1.282321 -4.074800
    18 5.765585 0.000000 -0.000001 -0.220390 -0.029837 -1.053359
    19 7.882375 0.000000 -0.000004 0.000000 0.000000 -0.987344
    20 9.116559 0.000000 0.000003 3.212259 0.143259 0.387478
    21 2.256927 0.000000 0.000000 0.000000 0.000000 -0.014408
    22 0.946167 3.213873 -0.420090 -3.141592 -0.000002 1.413798
    23 1.682527 1.062688 -7.030325 -1.570796 -1.570796 0.000000
  time 6
    0 0.422852 -1.968819 35.195299 0.000000 0.000000 -1.570844
    1 -0.933622 0.000000 0.000000 -1.570795 -1.570796 0.000000
    2 -0.000007 0.000008 4.071913 -0.124442 3.270300 -0.300838
    3 16.828364 0.000000 0.000000 0.000000 0.000000 -0.839931
    4 15.727810 0.000000 0.000000 -0.226135 -0.084960 0.524276
    5 0.000006 -0.000004 -4.071913 0.228111 -3.320974 -0.569302
    6 16.672185 0.000000 0.000000 0.000000 0.000000 -0.677891
    7 15.977475 0.000000 0.000000 0.252528 0.024499 0.084485
    8 2.075510 -0.002685 0.000003 -0.000004 -0.000001 0.069239
    9 3.104236 -0.004248 0.000000 0.000000 0.000000 0.087491
    10 4.905809 -0.004100 0.000000 0.000000 0.000000 0.095944
    11 4.758491 -0.004197 0.000000 0.000000 0.000000 -0.017444
    12 4.850082 -0.001935 0.000000 0.000000 0.000000 0.134667
    13 -2.879036 0.397176 2.326935 0.915399 -1.249681 -4.167020
    14 5.575653 0.000000 0.000002 0.197655 -0.050732 -0.952911
    15 7.068015 0.000000 0.000000 0.000000 0.000000 -1.113986
    16 9.422011 0.000000 -0.000003 -3.108627 0.036039 0.423622
    17 -2.781898 0.382885 -2.232553 -0.818897 1.282321 -4.074800
    18 5.765585 0.000000 -0.000001 -0.207150 0.010967 -1.009218
    19 7.882375 0.000000 -0.000004 0.000000 0.000000 -1.095637
    20 9.116559 0.000000 0.000003 3.210564 0.137155 0.443764
    21 2.256927 0.000000 0.000000 0.000000 0.000000 -0.004200
    22 0.946167 3.213873 -0.420090 -3.141592 -0.000002 1.413798
    23 1.682527 1.062688 -7.030325 -1.570796 -1.570796 0.000000
  time 7
    0 0.422852 -2.222908 35.044513 0.000000 0.000000 -1.570844
    1 -1.093783 0.000000 0.000000 -1.570795 -1.570796 0.000000
    2 -0.000007 0.000008 4.071913 -0.123388 3.271929 -0.306686
    3 16.828364 0.000000 0.000000 0.000000 0.000000 -0.859797
    4 15.727810 0.000000 0.000000 -0.226245 -0.085881 0.538265
    5 0.000006 -0.000004 -4.071913 0.225523 -3.324700 -0.581532
    6 16.672185 0.000000 0.000000 0.000000 0.000000 -0.707291
    7 15.977475 0.000000 0.000000 0.252270 0.025453 0.101249
    8 2.075510 -0.002685 0.000003 -0.000004 -0.000001 0.081298
    9 3.104236 -0.004248 0.000000 0.000000 0.000000 0.102868
    10 4.905809 -0.004100 0.000000 0.000000 0.000000 0.095944
    11 4.758491 -0.004197 0.000000 0.000000 0.000000 -0.017444
    12 4.850082 -0.001935 0.000000 0.000000 0.000000 0.134667
    13 -2.879036 0.397176 2.326935 0.915399 -1.249681 -4.167020
    14 5.575653 0.000000 0.000002 0.177291 -0.090111 -0.908453
    15 7.068015 0.000000 0.000000 0.000000 0.000000 -1.213950
    16 9.422011 0.000000 -0.000003 -3.106784 0.044246 0.472853
    17 -2.781898 0.382885 -2.232553 -0.818897 1.282321 -4.074800
    18 5.765585 0.000000 -0.000001 -0.191054 0.049514 -0.969905
    19 7.882375 0.000000 -0.000004 0.000000 0.000000 -1.193959
    20 9.116559 0.000000 0.000003 3.209311 0.130459 0.495881
    21 2.256927 0.000000 0.000000 0.000000 0.000000 0.006224
    22 0.946167 3.213873 -0.420090 -3.141592 -0.000002 1.413798
    23 1.682527 1.062688 -7.030325 -1.570796 -1.570796 0.000000
  time 8
    0 0.422852 -2.489095 34.910480 0.000000 0.000000 -1.570844
    1 -1.253945 0.000000 0.000000 -1.570795 -1.570796 0.000000
    2 -0.000007 0.000008 4.071913 -0.122333 3.273367 -0.311671
    3 16.828364 0.000000 0.000000 0.000000 0.000000 -0.878425
    4 15.727810 0.000000 0.000000 -0.226355 -0.086843 0.551807
    5 0.000006 -0.000004 -4.071913 0.223127 -3.328234 -0.592781
    6 16.672185 0.000000 0.000000 0.000000 0.000000 -0.734897
    7 15.977475 0.000000 0.000000 0.251925 0.026465 0.117302
    8 2.075510 -0.002685 0.000003 -0.000004 -0.000001 0.093035
    9 3.104236 -0.004248 0.000000 0.000000 0.000000 0.117894
    10 4.905809 -0.004100 0.000000 0.000000 0.000000 0.095944
    11 4.758491 -0.004197 0.000000 0.000000 0.000000 -0.017444
    12 4.850082 -0.001935 0.000000 0.000000 0.000000 0.134667
    13 -2.879036 0.397176 2.326935 0.915399 -1.249681 -4.167020
    14 5.575653 0.000000 0.000002 0.154505 -0.127116 -0.867813
    15 7.068015 0.000000 0.000000 0.000000 0.000000 -1.305759
    16 9.422011 0.000000 -0.000003 -3.105527 0.053166 0.518820
    17 -2.781898 0.382885 -2.232553 -0.818897 1.282321 -4.074800
    18 5.765585 0.000000 -0.000001 -0.172575 0.085993 -0.934247
    19 7.882375 0.000000 -0.000004 0.000000 0.000000 -1.284458
    20 9.116559 0.000000 0.000003 3.208500 0.123253 0.544644
    21 2.256927 0.000000 0.000000 0.000000 0.000000 0.016906
    22 0.946167 3.213873 -0.420090 -3.141592 -0.000002 1.413798
    23 1.682527 1.062688 -7.030325 -1.570796 -1.570796 0.000000
  time 9
    0 0.422852 -2.743184 34.776447 0.000000 0.000000 -1.570844
    1 -1.402387 0.000000 0.000000 -1.570795 -1.570796 0.000000
    2 -0.000007 0.000008 4.071913 -0.121374 3.274804 -0.315889
    3 16.828364 0.000000 0.000000 0.000000 0.000000 -0.895744
    4 15.727810 0.000000 0.000000 -0.226429 -0.087805 0.564769
    5 0.000006 -0.000004 -4.071913 0.220923 -3.331578 -0.602958
    6 16.672185 0.000000 0.000000 0.000000 0.000000 -0.760777
    7 15.977475 0.000000 0.000000 0.251581 0.027535 0.132644
    8 2.075510 -0.002685 0.000003 -0.000004 -0.000001 0.104450
    9 3.104236 -0.004248 0.000000 0.000000 0.000000 0.132442
    10 4.905809 -0.004100 0.000000 0.000000 0.000000 0.095944
    11 4.758491 -0.004197 0.000000 0.000000 0.000000 -0.017444
    12 4.850082 -0.001935 0.000000 0.000000 0.000000 0.134667
    13 -2.879036 0.397176 2.326935 0.915399 -1.249681 -4.167020
    14 5.575653 0.000000 0.000002 0.129725 -0.161828 -0.830153
    15 7.068015 0.000000 0.000000 0.000000 0.000000 -1.390609
    16 9.422011 0.000000 -0.000003 -3.104773 0.062711 0.561906
    17 -2.781898 0.382885 -2.232553 -0.818897 1.282321 -4.074800
    18 5.765585 0.000000 -0.000001 -0.152288 0.120404 -0.901623
    19 7.882375 0.000000 -0.000004 0.000000 0.000000 -1.368055
    20 9.116559 0.000000 0.000003 3.208058 0.115539 0.590507
    21 2.256927 0.000000 0.000000 0.000000 0.000000 0.027846
    22 0.946167 3.213873 -0.420090 -3.141592 -0.000002 1.413798
    23 1.682527 1.062688 -7.030325 -1.570796 -1.570796 0.000000
  time 10
    0 0.422852 -2.997272 34.642415 0.000000 0.000000 -1.570844
    1 -1.550829 0.000000 0.000000 -1.570795 -1.570796 0.000000
    2 -0.000007 0.000008 4.071913 -0.120512 3.276050 -0.319244
    3 16.828364 0.000000 0.000000 0.000000 0.000000 -0.911535
    4 15.727810 0.000000 0.000000 -0.226539 -0.088767 0.577194
    5 0.000006 -0.000004 -4.071913 0.218814 -3.334730 -0.612063
    6 16.672185 0.000000 0.000000 0.000000 0.000000 -0.784863
    7 15.977475 0.000000 0.000000 0.251151 0.028634 0.147274
    8 2.075510 -0.002685 0.000003 -0.000004 -0.000001 0.115405
    9 3.104236 -0.004248 0.000000 0.000000 0.000000 0.146463
    10 4.905809 -0.004100 0.000000 0.000000 0.000000 0.095944
    11 4.758491 -0.004197 0.000000 0.000000 0.000000 -0.017444
    12 4.850082 -0.001935 0.000000 0.000000 0.000000 0.134667
    13 -2.879036 0.397176 2.326935 0.915399 -1.249681 -4.167020
    14 5.575653 0.000000 0.000002 0.103450 -0.194084 -0.795091
    15 7.068015 0.000000 0.000000 0.000000 0.000000 -1.469227
    16 9.422011 0.000000 -0.000003 -3.104521 0.072613 0.602430
    17 -2.781898 0.382885 -2.232553 -0.818897 1.282321 -4.074800
    18 5.765585 0.000000 -0.000001 -0.130666 0.152558 -0.871621
    19 7.882375 0.000000 -0.000004 0.000000 0.000000 -1.445593
    20 9.116559 0.000000 0.000003 3.207911 0.107486 0.633923
    21 2.256927 0.000000 0.000000 0.000000 0.000000 0.039131
    22 0.946167 3.213873 -0.420090 -3.141592 -0.000002 1.413798
    23 1.682527 1.062688 -7.030325 -1.570796 -1.570796 0.000000
  time 11
    0 0.422852 -3.251360 34.525136 0.000000 0.000000 -1.570844
    1 -1.687551 0.000000 0.000000 -1.570795 -1.570796 0.000000
    2 -0.000007 0.000008 4.071913 -0.119745 3.277200 -0.321641
    3 16.828364 0.000000 0.000000 0.000000 0.000000 -0.925797
    4 15.727810 0.000000 0.000000 -0.226613 -0.089729 0.588859
    5 0.000006 -0.000004 -4.071913 0.216897 -3.337692 -0.620009
    6 16.672185 0.000000 0.000000 0.000000 0.000000 -0.806948
    7 15.977475 0.000000 0.000000 0.250806 0.029761 0.161142
    8 2.075510 -0.002685 0.000003 -0.000004 -0.000001 0.125853
    9 3.104236 -0.004248 0.000000 0.000000 0.000000 0.159780
    10 4.905809 -0.004100 0.000000 0.000000 0.000000 0.095944
    11 4.758491 -0.004197 0.000000 0.000000 0.000000 -0.017444
    12 4.850082 -0.001935 0.000000 0.000000 0.000000 0.134667
    13 -2.879036 0.397176 2.326935 0.915399 -1.249681 -4.167020
    14 5.575653 0.000000 0.000002 0.076392 -0.223721 -0.762549
    15 7.068015 0.000000 0.000000 0.000000 0.000000 -1.541746
    16 9.422011 0.000000 -0.000003 -3.104605 0.082693 0.640330
    17 -2.781898 0.382885 -2.232553 -0.818897 1.282321 -4.074800
    18 5.765585 0.000000 -0.000001 -0.108283 0.182361 -0.843964
    19 7.882375 0.000000 -0.000004 0.000000 0.000000 -1.517226
    20 9.116559 0.000000 0.000003 3.208058 0.099264 0.674619
    21 2.256927 0.000000 0.000000 0.000000 0.000000 0.050761
    22 0.946167 3.213873 -0.420090 -3.141592 -0.000002 1.413798
    23 1.682527 1.062688 -7.030325 -1.570796 -1.570796 0.000000
  time 12
    0 0.422852 -3.493349 34.424612 0.000000 0.000000 -1.570844
    1 -1.812555 0.000000 0.000000 -1.570795 -1.570796 0.000000
    2 -0.000007 0.000008 4.071913 -0.119169 3.278255 -0.323175
    3 16.828364 0.000000 0.000000 0.000000 0.000000 -0.938168
    4 15.727810 0.000000 0.000000 -0.226686 -0.090651 0.599675
    5 0.000006 -0.000004 -4.071913 0.215268 -3.340271 -0.626704
    6 16.672185 0.000000 0.000000 0.000000 0.000000 -0.826962
    7 15.977475 0.000000 0.000000 0.250376 0.030918 0.174096
    8 2.075510 -0.002685 0.000003 -0.000004 -0.000001 0.135565
    9 3.104236 -0.004248 0.000000 0.000000 0.000000 0.172243
    10 4.905809 -0.004100 0.000000 0.000000 0.000000 0.095944
    11 4.758491 -0.004197 0.000000 0.000000 0.000000 -0.017444
    12 4.850082 -0.001935 0.000000 0.000000 0.000000 0.134667
    13 -2.879036 0.397176 2.326935 0.915399 -1.249681 -4.167020
    14 5.575653 0.000000 0.000002 0.049263 -0.250656 -0.732604
    15 7.068015 0.000000 0.000000 0.000000 0.000000 -1.607902
    16 9.422011 0.000000 -0.000003 -3.105108 0.092863 0.675542
    17 -2.781898 0.382885 -2.232553 -0.818897 1.282321 -4.074800
    18 5.765585 0.000000 -0.000001 -0.085900 0.209439 -0.818789
    19 7.882375 0.000000 -0.000004 0.000000 0.000000 -1.582569
    20 9.116559 0.000000 0.000003 3.208426 0.091041 0.712597
    21 2.256927 0.000000 0.000000 0.000000 0.000000 0.062778
    22 0.946167 3.213873 -0.420090 -3.141592 -0.000002 1.413798
    23 1.682527 1.062688 -7.030325 -1.570796 -1.570796 0.000000
  time 13
    0 0.422852 -3.723238 34.324087 0.000000 0.000000 -1.570844
    1 -1.929746 0.000000 0.000000 -1.570795 -1.570796 0.000000
    2 -0.000007 0.000008 4.071913 -0.118690 3.279213 -0.324037
    3 16.828364 0.000000 0.000000 0.000000 0.000000 -0.948865
    4 15.727810 0.000000 0.000000 -0.226760 -0.091573 0.609373
    5 0.000006 -0.000004 -4.071913 0.213830 -3.342659 -0.632328
    6 16.672185 0.000000 0.000000 0.000000 0.000000 -0.844492
    7 15.977475 0.000000 0.000000 0.249859 0.032016 0.185831
    8 2.075510 -0.002685 0.000003 -0.000004 -0.000001 0.144494
    9 3.104236 -0.004248 0.000000 0.000000 0.000000 0.183650
    10 4.905809 -0.004100 0.000000 0.000000 0.000000 0.095944
    11 4.758491 -0.004197 0.000000 0.000000 0.000000 -0.017444
    12 4.850082 -0.001935 0.000000 0.000000 0.000000 0.134667
    13 -2.879036 0.397176 2.326935 0.915399 -1.249681 -4.167020
    14 5.575653 0.000000 0.000002 0.022916 -0.274643 -0.705715
    15 7.068015 0.000000 0.000000 0.000000 0.000000 -1.666965
    16 9.422011 0.000000 -0.000003 -3.105946 0.102765 0.707360
    17 -2.781898 0.382885 -2.232553 -0.818897 1.282321 -4.074800
    18 5.765585 0.000000 -0.000001 -0.064088 0.233789 -0.796374
    19 7.882375 0.000000 -0.000004 0.000000 0.000000 -1.640934
    20 9.116559 0.000000 0.000003 3.209016 0.083073 0.747130
    21 2.256927 0.000000 0.000000 0.000000 0.000000 0.074795
    22 0.946167 3.213873 -0.420090 -3.141592 -0.000002 1.413798
    23 1.682527 1.062688 -7.030325 -1.570796 -1.570796 0.000000
  time 14
    0 0.422852 -3.904730 34.240317 0.000000 0.000000 -1.570844
    1 -2.031312 0.000000 0.000000 -1.570795 -1.570796 0.000000
    2 -0.000007 0.000008 4.071913 -0.118211 3.280076 -0.325571
    3 16.828364 0.000000 0.000000 0.000000 0.000000 -0.959198
    4 15.727810 0.000000 0.000000 -0.226797 -0.092334 0.618134
    5 0.000006 -0.000004 -4.071913 0.212488 -3.344761 -0.637774
    6 16.672185 0.000000 0.000000 0.000000 0.000000 -0.860365
    7 15.977475 0.000000 0.000000 0.249515 0.032884 0.195991
    8 2.075510 -0.002685 0.000003 -0.000004 -0.000001 0.152457
    9 3.104236 -0.004248 0.000000 0.000000 0.000000 0.193801
    10 4.905809 -0.004100 0.000000 0.000000 0.000000 0.095944
    11 4.758491 -0.004197 0.000000 0.000000 0.000000 -0.017444
    12 4.850082 -0.001935 0.000000 0.000000 0.000000 0.134667
    13 -2.879036 0.397176 2.326935 0.915399 -1.249681 -4.167020
    14 5.575653 0.000000 0.000002 -0.002006 -0.296666 -0.683104
    15 7.068015 0.000000 0.000000 0.000000 0.000000 -1.716152
    16 9.422011 0.000000 -0.000003 -3.107706 0.113291 0.734184
    17 -2.781898 0.382885 -2.232553 -0.818897 1.282321 -4.074800
    18 5.765585 0.000000 -0.000001 -0.043324 0.256072 -0.777821
    19 7.882375 0.000000 -0.000004 0.000000 0.000000 -1.689788
    20 9.116559 0.000000 0.000003 3.210195 0.074342 0.776587
    21 2.256927 0.000000 0.000000 0.000000 0.000000 0.083410
    22 0.946167 3.213873 -0.420090 -3.141592 -0.000002 1.413798
    23 1.682527 1.062688 -7.030325 -1.570796 -1.570796 0.000000
  time 15
    0 0.422852 -3.977327 33.921989 0.000000 0.000000 -1.570844
    1 -2.101627 0.000000 0.000000 -1.570795 -1.570796 0.000000
    2 -0.000007 0.000008 4.071913 -0.115047 3.283142 -0.343786
    3 16.828364 0.000000 0.000000 0.000000 0.000000 -1.000530
    4 15.727810 0.000000 0.000000 -0.227018 -0.093376 0.641196
    5 0.000006 -0.000004 -4.071913 0.206834 -3.349919 -0.661966
    6 16.672185 0.000000 0.000000 0.000000 0.000000 -0.905086
    7 15.977475 0.000000 0.000000 0.250032 0.033433 0.216413
    8 2.075510 -0.002685 0.000003 -0.000004 -0.000001 0.157750
    9 3.104236 -0.004248 0.000000 0.000000 0.000000 0.200611
    10 4.905809 -0.004100 0.000000 0.000000 0.000000 0.095944
    11 4.758491 -0.004197 0.000000 0.000000 0.000000 -0.017444
    12 4.850082 -0.001935 0.000000 0.000000 0.000000 0.134667
    13 -2.879036 0.397176 2.326935 0.915399 -1.249681 -4.167020
    14 5.575653 0.000000 0.000002 -0.033123 -0.337437 -0.667979
    15 7.068015 0.000000 0.000000 0.000000 0.000000 -1.748302
    16 9.422011 0.000000 -0.000003 -3.123710 0.146386 0.750317
    17 -2.781898 0.382885 -2.232553 -0.818897 1.282321 -4.074800
    18 5.765585 0.000000 -0.000001 -0.017036 0.295465 -0.765958
    19 7.882375 0.000000 -0.000004 0.000000 0.000000 -1.723457
    20 9.116559 0.000000 0.000003 3.223610 0.043911 0.798250
    21 2.256927 0.000000 0.000000 0.000000 0.000000 0.004070
    22 0.946167 3.213873 -0.420090 -3.141592 -0.000002 1.413798
    23 1.682527 1.062688 -7.030325 -1.570796 -1.570796 0.000000
  time 16
    0 0.422852 -0.323295 32.631925 0.000000 0.000000 -1.570844
    1 -2.160222 0.000000 0.000000 -1.570795 -1.570796 0.000000
    2 -0.000007 0.000008 4.071913 -0.091174 3.290522 -0.563701
    3 16.828364 0.000000 0.000000 0.000000 0.000000 -1.183904
    4 15.727810 0.000000 0.000000 -0.226613 -0.076343 0.607318
    5 0.000006 -0.000004 -4.071913 0.190061 -3.345621 -0.808908
    6 16.672185 0.000000 0.000000 0.000000 0.000000 -0.925445
    7 15.977475 0.000000 0.000000 0.262686 0.000675 0.096931
    8 2.075510 -0.002685 0.000003 -0.000004 -0.000001 0.162445
    9 3.104236 -0.004248 0.000000 0.000000 0.000000 0.206566
    10 4.905809 -0.004100 0.000000 0.000000 0.000000 0.095944
    11 4.758491 -0.004197 0.000000 0.000000 0.000000 -0.017444
    12 4.850082 -0.001935 0.000000 0.000000 0.000000 0.134667
    13 -2.879036 0.397176 2.326935 0.915399 -1.249681 -4.167020
    14 5.575653 0.000000 0.000002 0.004118 -0.473421 -0.995231
    15 7.068015 0.000000 0.000000 0.000000 0.000000 -1.126051
    16 9.422011 0.000000 -0.000003 -3.157981 0.291077 0.423878
    17 -2.781898 0.382885 -2.232553 -0.818897 1.282321 -4.074800
    18 5.765585 0.000000 -0.000001 -0.023608 0.428312 -1.044876
    19 7.882375 0.000000 -0.000004 0.000000 0.000000 -1.137435
    20 9.116559 0.000000 0.000003 3.253830 -0.107570 0.469959
    21 2.256927 0.000000 0.000000 0.000000 0.000000 -0.524819
    22 0.946167 3.213873 -0.420090 -3.141592 -0.000002 1.413798
    23 1.682527 1.062688 -7.030325 -1.570796 -1.570796 0.000000
  time 17
    0 0.422852 2.241786 31.810975 0.000000 0.000000 -1.570844
    1 -2.082095 0.000000 0.000000 -1.570795 -1.570796 0.000000
    2 -0.000007 0.000008 4.071913 -0.076218 3.289755 -0.695803
    3 16.828364 0.000000 0.000000 0.000000 0.000000 -1.260383
    4 15.727810 0.000000 0.000000 -0.229960 -0.064239 0.553908
    5 0.000006 -0.000004 -4.071913 0.181339 -3.336450 -0.883539
    6 16.672185 0.000000 0.000000 0.000000 0.000000 -0.893009
    7 15.977475 0.000000 0.000000 0.275943 -0.018639 -0.005837
    8 2.075510 -0.002685 0.000003 -0.000004 -0.000001 0.156185
    9 3.104236 -0.004248 0.000000 0.000000 0.000000 0.198575
    10 4.905809 -0.004100 0.000000 0.000000 0.000000 0.095944
    11 4.758491 -0.004197 0.000000 0.000000 0.000000 -0.017444
    12 4.850082 -0.001935 0.000000 0.000000 0.000000 0.134667
    13 -2.879036 0.397176 2.326935 0.915399 -1.249681 -4.167020
    14 5.575653 0.000000 0.000002 0.267864 -0.418569 -1.670514
    15 7.068015 0.000000 0.000000 0.000000 0.000000 -0.002659
    16 9.422011 0.000000 -0.000003 -3.140552 0.345671 -0.084699
    17 -2.781898 0.382885 -2.232553 -0.818897 1.282321 -4.074800
    18 5.765585 0.000000 -0.000001 -0.191244 0.414774 -1.532983
    19 7.882375 0.000000 -0.000004 0.000000 0.000000 -0.251769
    20 9.116559 0.000000 0.000003 3.241447 -0.166907 0.030182
    21 2.256927 0.000000 0.000000 0.000000 0.000000 -0.694266
    22 0.946167 3.213873 -0.420090 -3.141592 -0.000002 1.413798
    23 1.682527 1.062688 -7.030325 -1.570796 -1.570796 0.000000
  time 18
    0 0.422852 1.503720 31.609926 0.000000 -0.009109 -1.570844
    1 -2.003967 0.000000 0.000000 -1.570795 -1.570796 0.000000
    2 -0.000007 0.000008 4.071913 -0.075068 3.292343 -0.669249
    3 16.828364 0.000000 0.000000 0.000000 0.000000 -1.288471
    4 15.727810 0.000000 0.000000 -0.230328 -0.069609 0.598960
    5 0.000006 -0.000004 -4.071913 0.173575 -3.344570 -0.888092
    6 16.672185 0.000000 0.000000 0.000000 0.000000 -0.966854
    7 15.977475 0.000000 0.000000 0.274652 -0.011180 0.053294
    8 2.075510 -0.002685 0.000003 -0.000004 -0.000001 0.150340
    9 3.104236 -0.004248 0.000000 0.000000 0.000000 0.191088
    10 4.905809 -0.004100 0.000000 0.000000 0.000000 0.095944
    11 4.758491 -0.004197 0.000000 0.000000 0.000000 -0.017444
    12 4.850082 -0.001935 0.000000 0.000000 0.000000 0.134667
    13 -2.879036 0.397176 2.326935 0.915399 -1.249681 -4.167020
    14 5.575653 0.000000 0.000002 0.140050 -0.457784 -1.371297
    15 7.068015 0.000000 0.000000 0.000000 0.000000 -0.491670
    16 9.422011 0.000000 -0.000003 -3.144239 0.350667 0.131370
    17 -2.781898 0.382885 -2.232553 -0.818897 1.282321 -4.074800
    18 5.765585 0.000000 -0.000001 -0.120380 0.422483 -1.354211
    19 7.882375 0.000000 -0.000004 0.000000 0.000000 -0.565295
    20 9.116559 0.000000 0.000003 3.244764 -0.170891 0.181911
    21 2.256927 0.000000 0.000000 0.000000 0.000000 -0.643397
    22 0.946167 3.213873 -0.420090 -3.141592 -0.000002 1.413798
    23 1.682527 1.062688 -7.030325 -1.570796 -1.570796 0.000000
  time 19
    0 0.422852 0.862450 31.459139 0.000000 -0.019611 -1.570844
    1 -1.929746 0.000000 0.000000 -1.570795 -1.570796 0.000000
    2 -0.000007 0.000008 4.071913 -0.074397 3.294643 -0.641927
    3 16.828364 0.000000 0.000000 0.000000 0.000000 -1.310228
    4 15.727810 0.000000 0.000000 -0.230659 -0.074339 0.637129
    5 0.000006 -0.000004 -4.071913 0.167441 -3.351066 -0.886039
    6 16.672185 0.000000 0.000000 0.000000 0.000000 -1.025102
    7 15.977475 0.000000 0.000000 0.273274 -0.004645 0.102316
    8 2.075510 -0.002685 0.000003 -0.000004 -0.000001 0.144540
    9 3.104236 -0.004248 0.000000 0.000000 0.000000 0.183701
    10 4.905809 -0.004100 0.000000 0.000000 0.000000 0.095944
    11 4.758491 -0.004197 0.000000 0.000000 0.000000 -0.017444
    12 4.850082 -0.001935 0.000000 0.000000 0.000000 0.134667
    13 -2.879036 0.397176 2.326935 0.915399 -1.249681 -4.167020
    14 5.575653 0.000000 0.000002 0.097398 -0.450743 -1.262289
    15 7.068015 0.000000 0.000000 0.000000 0.000000 -0.668063
    16 9.422011 0.000000 -0.000003 -3.149518 0.353967 0.210819
    17 -2.781898 0.382885 -2.232553 -0.818897 1.282321 -4.074800
    18 5.765585 0.000000 -0.000001 -0.090758 0.411483 -1.266962
    19 7.882375 0.000000 -0.000004 0.000000 0.000000 -0.718531
    20 9.116559 0.000000 0.000003 3.249186 -0.173434 0.257503
    21 2.256927 0.000000 0.000000 0.000000 0.000000 -0.582320
    22 0.946167 3.213873 -0.420090 -3.141592 -0.000002 1.413798
    23 1.682527 1.062688 -7.030325 -1.570796 -1.570796 0.000000
  time 20
    0 0.422852 0.233279 31.291598 0.000000 -0.029928 -1.570844
    1 -1.855525 0.000000 0.000000 -1.570795 -1.570796 0.000000
    2 -0.000007 0.000008 4.071913 -0.073917 3.296752 -0.613647
    3 16.828364 0.000000 0.000000 0.000000 0.000000 -1.329585
    4 15.727810 0.000000 0.000000 -0.231101 -0.079028 0.674135
    5 0.000006 -0.000004 -4.071913 0.161882 -3.357179 -0.881575
    6 16.672185 0.000000 0.000000 0.000000 0.000000 -1.078519
    7 15.977475 0.000000 0.000000 0.271811 0.001889 0.149154
    8 2.075510 -0.002685 0.000003 -0.000004 -0.000001 0.138833
    9 3.104236 -0.004248 0.000000 0.000000 0.000000 0.176364
    10 4.905809 -0.004100 0.000000 0.000000 0.000000 0.095944
    11 4.758491 -0.004197 0.000000 0.000000 0.000000 -0.017444
    12 4.850082 -0.001935 0.000000 0.000000 0.000000 0.134667
    13 -2.879036 0.397176 2.326935 0.915399 -1.249681 -4.167020
    14 5.575653 0.000000 0.000002 0.067705 -0.439773 -1.179101
    15 7.068015 0.000000 0.000000 0.000000 0.000000 -0.805082
    16 9.422011 0.000000 -0.000003 -3.154713 0.357892 0.273430
    17 -2.781898 0.382885 -2.232553 -0.818897 1.282321 -4.074800
    18 5.765585 0.000000 -0.000001 -0.069994 0.398603 -1.197509
    19 7.882375 0.000000 -0.000004 0.000000 0.000000 -0.842929
    20 9.116559 0.000000 0.000003 3.253461 -0.176740 0.319862
    21 2.256927 0.000000 0.000000 0.000000 0.000000 -0.521330
    22 0.946167 3.213873 -0.420090 -3.141592 -0.000002 1.413798
    23 1.682527 1.062688 -7.030325 -1.570796 -1.570796 0.000000
  time 21
    0 0.422852 -0.432190 31.090549 0.000000 -0.039316 -1.570844
    1 -1.796930 0.000000 0.000000 -1.570795 -1.570796 0.000000
    2 -0.000007 0.000008 4.071913 -0.073630 3.299148 -0.584791
    3 16.828364 0.000000 0.000000 0.000000 0.000000 -1.350032
    4 15.727810 0.000000 0.000000 -0.231432 -0.084118 0.713600
    5 0.000006 -0.000004 -4.071913 0.156323 -3.363675 -0.877111
    6 16.672185 0.000000 0.000000 0.000000 0.000000 -1.133316
    7 15.977475 0.000000 0.000000 0.269917 0.008857 0.198176
    8 2.075510 -0.002685 0.000003 -0.000004 -0.000001 0.134230
    9 3.104236 -0.004248 0.000000 0.000000 0.000000 0.170484
    10 4.905809 -0.004100 0.000000 0.000000 0.000000 0.095944
    11 4.758491 -0.004197 0.000000 0.000000 0.000000 -0.017444
    12 4.850082 -0.001935 0.000000 0.000000 0.000000 0.134667
    13 -2.879036 0.397176 2.326935 0.915399 -1.249681 -4.167020
    14 5.575653 0.000000 0.000002 0.038867 -0.434369 -1.098281
    15 7.068015 0.000000 0.000000 0.000000 0.000000 -0.942829
    16 9.422011 0.000000 -0.000003 -3.161081 0.366010 0.337067
    17 -2.781898 0.382885 -2.232553 -0.818897 1.282321 -4.074800
    18 5.765585 0.000000 -0.000001 -0.049134 0.391739 -1.128607
    19 7.882375 0.000000 -0.000004 0.000000 0.000000 -0.971392
    20 9.116559 0.000000 0.000003 3.258694 -0.183691 0.385212
    21 2.256927 0.000000 0.000000 0.000000 0.000000 -0.473691
    22 0.946167 3.213873 -0.420090 -3.141592 -0.000002 1.413798
    23 1.682527 1.062688 -7.030325 -1.570796 -1.570796 0.000000
  time 22
    0 0.422852 -1.073461 30.906254 0.000000 -0.047681 -1.570844
    1 -1.703177 0.000000 0.000000 -1.570795 -1.570796 0.000000
    2 -0.000007 0.000008 4.071913 -0.073246 3.301064 -0.554690
    3 16.828364 0.000000 0.000000 0.000000 0.000000 -1.366478
    4 15.727810 0.000000 0.000000 -0.232462 -0.089168 0.751412
    5 0.000006 -0.000004 -4.071913 0.150956 -3.369407 -0.870148
    6 16.672185 0.000000 0.000000 0.000000 0.000000 -1.182592
    7 15.977475 0.000000 0.000000 0.268540 0.016201 0.245216
    8 2.075510 -0.002685 0.000003 -0.000004 -0.000001 0.127050
    9 3.104236 -0.004248 0.000000 0.000000 0.000000 0.161363
    10 4.905809 -0.004100 0.000000 0.000000 0.000000 0.095944
    11 4.758491 -0.004197 0.000000 0.000000 0.000000 -0.017444
    12 4.850082 -0.001935 0.000000 0.000000 0.000000 0.134667
    13 -2.879036 0.397176 2.326935 0.915399 -1.249681 -4.167020
    14 5.575653 0.000000 0.000002 0.019499 -0.420042 -1.035030
    15 7.068015 0.000000 0.000000 0.000000 0.000000 -1.051476
    16 9.422011 0.000000 -0.000003 -3.165439 0.372344 0.388219
    17 -2.781898 0.382885 -2.232553 -0.818897 1.282321 -4.074800
    18 5.765585 0.000000 -0.000001 -0.035704 0.376791 -1.074189
    19 7.882375 0.000000 -0.000004 0.000000 0.000000 -1.073549
    20 9.116559 0.000000 0.000003 3.262011 -0.189116 0.438145
    21 2.256927 0.000000 0.000000 0.000000 0.000000 -0.397151
    22 0.946167 3.213873 -0.420090 -3.141592 -0.000002 1.413798
    23 1.682527 1.062688 -7.030325 -1.570796 -1.570796 0.000000
  time 23
    0 0.422852 -1.702632 30.738713 0.000000 -0.055210 -1.570844
    1 -1.628956 0.000000 0.000000 -1.570795 -1.570796 0.000000
    2 -0.000007 0.000008 4.071913 -0.073342 3.302885 -0.525067
    3 16.828364 0.000000 0.000000 0.000000 0.000000 -1.378994
    4 15.727810 0.000000 0.000000 -0.233345 -0.093857 0.785603
    5 0.000006 -0.000004 -4.071913 0.146739 -3.374757 -0.861132
    6 16.672185 0.000000 0.000000 0.000000 0.000000 -1.224967
    7 15.977475 0.000000 0.000000 0.266818 0.023111 0.288142
    8 2.075510 -0.002685 0.000003 -0.000004 -0.000001 0.121526
    9 3.104236 -0.004248 0.000000 0.000000 0.000000 0.154302
    10 4.905809 -0.004100 0.000000 0.000000 0.000000 0.095944
    11 4.758491 -0.004197 0.000000 0.000000 0.000000 -0.017444
    12 4.850082 -0.001935 0.000000 0.000000 0.000000 0.134667
    13 -2.879036 0.397176 2.326935 0.915399 -1.249681 -4.167020
    14 5.575653 0.000000 0.000002 0.002124 -0.409891 -0.978425
    15 7.068015 0.000000 0.000000 0.000000 0.000000 -1.151439
    16 9.422011 0.000000 -0.000003 -3.169712 0.379569 0.435850
    17 -2.781898 0.382885 -2.232553 -0.818897 1.282321 -4.074800
    18 5.765585 0.000000 -0.000001 -0.023703 0.366073 -1.025288
    19 7.882375 0.000000 -0.000004 0.000000 0.000000 -1.168496
    20 9.116559 0.000000 0.000003 3.265254 -0.195304 0.488086
    21 2.256927 0.000000 0.000000 0.000000 0.000000 -0.338271
    22 0.946167 3.213873 -0.420090 -3.141592 -0.000002 1.413798
    23 1.682527 1.062688 -7.030325 -1.570796 -1.570796 0.000000
  time 24
    0 0.422852 -2.307604 30.571172 0.000000 -0.062181 -1.570844
    1 -1.558641 0.000000 0.000000 -1.570795 -1.570796 0.000000
    2 -0.000007 0.000008 4.071913 -0.073725 3.304611 -0.495061
    3 16.828364 0.000000 0.000000 0.000000 0.000000 -1.389400
    4 15.727810 0.000000 0.000000 -0.234301 -0.098547 0.818766
    5 0.000006 -0.000004 -4.071913 0.142905 -3.379915 -0.850866
    6 16.672185 0.000000 0.000000 0.000000 0.000000 -1.264374
    7 15.977475 0.000000 0.000000 0.265096 0.030108 0.329951
    8 2.075510 -0.002685 0.000003 -0.000004 -0.000001 0.116187
    9 3.104236 -0.004248 0.000000 0.000000 0.000000 0.147468
    10 4.905809 -0.004100 0.000000 0.000000 0.000000 0.095944
    11 4.758491 -0.004197 0.000000 0.000000 0.000000 -0.017444
    12 4.850082 -0.001935 0.000000 0.000000 0.000000 0.134667
    13 -2.879036 0.397176 2.326935 0.915399 -1.249681 -4.167020
    14 5.575653 0.000000 0.000002 -0.013470 -0.400803 -0.926633
    15 7.068015 0.000000 0.000000 0.000000 0.000000 -1.244973
    16 9.422011 0.000000 -0.000003 -3.173902 0.387865 0.481048
    17 -2.781898 0.382885 -2.232553 -0.818897 1.282321 -4.074800
    18 5.765585 0.000000 -0.000001 -0.013035 0.356577 -0.980319
    19 7.882375 0.000000 -0.000004 0.000000 0.000000 -1.257845
    20 9.116559 0.000000 0.000003 3.268350 -0.202340 0.535853
    21 2.256927 0.000000 0.000000 0.000000 0.000000 -0.281674
    22 0.946167 3.213873 -0.420090 -3.141592 -0.000002 1.413798
    23 1.682527 1.062688 -7.030325 -1.570796 -1.570796 0.000000
  time 25
    0 0.422852 -2.924675 30.403632 0.000000 -0.068873 -1.570844
    1 -1.492233 0.000000 0.000000 -1.570795 -1.570796 0.000000
    2 -0.000007 0.000008 4.071913 -0.074301 3.306240 -0.464097
    3 16.828364 0.000000 0.000000 0.000000 0.000000 -1.397986
    4 15.727810 0.000000 0.000000 -0.235368 -0.103236 0.851079
    5 0.000006 -0.000004 -4.071913 0.139551 -3.385074 -0.838903
    6 16.672185 0.000000 0.000000 0.000000 0.000000 -1.301228
    7 15.977475 0.000000 0.000000 0.263203 0.037221 0.370997
    8 2.075510 -0.002685 0.000003 -0.000004 -0.000001 0.110986
    9 3.104236 -0.004248 0.000000 0.000000 0.000000 0.140835
    10 4.905809 -0.004100 0.000000 0.000000 0.000000 0.095944
    11 4.758491 -0.004197 0.000000 0.000000 0.000000 -0.017444
    12 4.850082 -0.001935 0.000000 0.000000 0.000000 0.134667
    13 -2.879036 0.397176 2.326935 0.915399 -1.249681 -4.167020
    14 5.575653 0.000000 0.000002 -0.027640 -0.392616 -0.878966
    15 7.068015 0.000000 0.000000 0.000000 0.000000 -1.332871
    16 9.422011 0.000000 -0.000003 -3.178259 0.397232 0.524006
    17 -2.781898 0.382885 -2.232553 -0.818897 1.282321 -4.074800
    18 5.765585 0.000000 -0.000001 -0.003415 0.348115 -0.938937
    19 7.882375 0.000000 -0.000004 0.000000 0.000000 -1.342286
    20 9.116559 0.000000 0.000003 3.271446 -0.210393 0.581715
    21 2.256927 0.000000 0.000000 0.000000 0.000000 -0.226627
    22 0.946167 3.213873 -0.420090 -3.141592 -0.000002 1.413798
    23 1.682527 1.062688 -7.030325 -1.570796 -1.570796 0.000000
  time 26
    0 0.422852 -3.541747 30.236091 0.000000 -0.075843 -1.570844
    1 -1.425825 0.000000 0.000000 -1.570795 -1.570796 0.000000
    2 -0.000007 0.000008 4.071913 -0.075068 3.307773 -0.431886
    3 16.828364 0.000000 0.000000 0.000000 0.000000 -1.404608
    4 15.727810 0.000000 0.000000 -0.236509 -0.107885 0.882499
    5 0.000006 -0.000004 -4.071913 0.136579 -3.390137 -0.825066
    6 16.672185 0.000000 0.000000 0.000000 0.000000 -1.335804
    7 15.977475 0.000000 0.000000 0.261136 0.044507 0.411434
    8 2.075510 -0.002685 0.000003 -0.000004 -0.000001 0.105969
    9 3.104236 -0.004248 0.000000 0.000000 0.000000 0.134402
    10 4.905809 -0.004100 0.000000 0.000000 0.000000 0.095944
    11 4.758491 -0.004197 0.000000 0.000000 0.000000 -0.017444
    12 4.850082 -0.001935 0.000000 0.000000 0.000000 0.134667
    13 -2.879036 0.397176 2.326935 0.915399 -1.249681 -4.167020
    14 5.575653 0.000000 0.000002 -0.040457 -0.385166 -0.835119
    15 7.068015 0.000000 0.000000 0.000000 0.000000 -1.415400
    16 9.422011 0.000000 -0.000003 -3.182700 0.407758 0.564787
    17 -2.781898 0.382885 -2.232553 -0.818897 1.282321 -4.074800
    18 5.765585 0.000000 -0.000001 0.005157 0.340312 -0.900934
    19 7.882375 0.000000 -0.000004 0.000000 0.000000 -1.421895
    20 9.116559 0.000000 0.000003 3.274615 -0.219378 0.625675
    21 2.256927 0.000000 0.000000 0.000000 0.000000 -0.173389
    22 0.946167 3.213873 -0.420090 -3.141592 -0.000002 1.413798
    23 1.682527 1.062688 -7.030325 -1.570796 -1.570796 0.000000
  time 27
    0 0.422852 -4.158818 30.051796 0.000000 -0.083372 -1.570844
    1 -1.359416 0.000000 0.000000 -1.570795 -1.570796 0.000000
    2 -0.000007 0.000008 4.071913 -0.076218 3.309403 -0.398237
    3 16.828364 0.000000 0.000000 0.000000 0.000000 -1.409338
    4 15.727810 0.000000 0.000000 -0.237649 -0.112534 0.913026
    5 0.000006 -0.000004 -4.071913 0.134183 -3.395295 -0.808997
    6 16.672185 0.000000 0.000000 0.000000 0.000000 -1.368171
    7 15.977475 0.000000 0.000000 0.258984 0.051938 0.451210
    8 2.075510 -0.002685 0.000003 -0.000004 -0.000001 0.101136
    9 3.104236 -0.004248 0.000000 0.000000 0.000000 0.128246
    10 4.905809 -0.004100 0.000000 0.000000 0.000000 0.095944
    11 4.758491 -0.004197 0.000000 0.000000 0.000000 -0.017444
    12 4.850082 -0.001935 0.000000 0.000000 0.000000 0.134667
    13 -2.879036 0.397176 2.326935 0.915399 -1.249681 -4.167020
    14 5.575653 0.000000 0.000002 -0.051921 -0.378371 -0.795014
    15 7.068015 0.000000 0.000000 0.000000 0.000000 -1.492428
    16 9.422011 0.000000 -0.000003 -3.187644 0.419176 0.603199
    17 -2.781898 0.382885 -2.232553 -0.818897 1.282321 -4.074800
    18 5.765585 0.000000 -0.000001 0.012491 0.333072 -0.866310
    19 7.882375 0.000000 -0.000004 0.000000 0.000000 -1.496442
    20 9.116559 0.000000 0.000003 3.278079 -0.229381 0.667459
    21 2.256927 0.000000 0.000000 0.000000 0.000000 -0.122434
    22 0.946167 3.213873 -0.420090 -3.141592 -0.000002 1.413798
    23 1.682527 1.062688 -7.030325 -1.570796 -1.570796 0.000000
  time 28
    0 0.422852 -4.775890 29.884255 0.000000 -0.091737 -1.570844
    1 -1.300821 0.000000 0.000000 -1.570795 -1.570796 0.000000
    2 -0.000007 0.000008 4.071913 -0.077560 3.310840 -0.362863
    3 16.828364 0.000000 0.000000 0.000000 0.000000 -1.412176
    4 15.727810 0.000000 0.000000 -0.238789 -0.117143 0.942479
    5 0.000006 -0.000004 -4.071913 0.132266 -3.400549 -0.790429
    6 16.672185 0.000000 0.000000 0.000000 0.000000 -1.398262
    7 15.977475 0.000000 0.000000 0.256574 0.059484 0.490276
    8 2.075510 -0.002685 0.000003 -0.000004 -0.000001 0.096579
    9 3.104236 -0.004248 0.000000 0.000000 0.000000 0.122392
    10 4.905809 -0.004100 0.000000 0.000000 0.000000 0.095944
    11 4.758491 -0.004197 0.000000 0.000000 0.000000 -0.017444
    12 4.850082 -0.001935 0.000000 0.000000 0.000000 0.134667
    13 -2.879036 0.397176 2.326935 0.915399 -1.249681 -4.167020
    14 5.575653 0.000000 0.000002 -0.061961 -0.372149 -0.758577
    15 7.068015 0.000000 0.000000 0.000000 0.000000 -1.563887
    16 9.422011 0.000000 -0.000003 -3.193006 0.431754 0.639050
    17 -2.781898 0.382885 -2.232553 -0.818897 1.282321 -4.074800
    18 5.765585 0.000000 -0.000001 0.018682 0.326491 -0.834929
    19 7.882375 0.000000 -0.000004 0.000000 0.000000 -1.565773
    20 9.116559 0.000000 0.000003 3.281838 -0.240231 0.706977
    21 2.256927 0.000000 0.000000 0.000000 0.000000 -0.074236
    22 0.946167 3.213873 -0.420090 -3.141592 -0.000002 1.413798
    23 1.682527 1.062688 -7.030325 -1.570796 -1.570796 0.000000
  time 29
    0 0.422852 -5.392961 29.716714 0.000000 -0.101125 -1.570844
    1 -1.242225 0.000000 0.000000 -1.570795 -1.570796 0.000000
    2 -0.000007 0.000008 4.071913 -0.079286 3.312374 -0.325955
    3 16.828364 0.000000 0.000000 0.000000 0.000000 -1.413267
    4 15.727810 0.000000 0.000000 -0.239893 -0.121672 0.970592
    5 0.000006 -0.000004 -4.071913 0.130925 -3.405899 -0.769450
    6 16.672185 0.000000 0.000000 0.000000 0.000000 -1.426005
    7 15.977475 0.000000 0.000000 0.253991 0.067088 0.528274
    8 2.075510 -0.002685 0.000003 -0.000004 -0.000001 0.092299
    9 3.104236 -0.004248 0.000000 0.000000 0.000000 0.116914
    10 4.905809 -0.004100 0.000000 0.000000 0.000000 0.095944
    11 4.758491 -0.004197 0.000000 0.000000 0.000000 -0.017444
    12 4.850082 -0.001935 0.000000 0.000000 0.000000 0.134667
    13 -2.879036 0.397176 2.326935 0.915399 -1.249681 -4.167020
    14 5.575653 0.000000 0.000002 -0.070719 -0.366664 -0.726035
    15 7.068015 0.000000 0.000000 0.000000 0.000000 -1.629115
    16 9.422011 0.000000 -0.000003 -3.198956 0.445224 0.671892
    17 -2.781898 0.382885 -2.232553 -0.818897 1.282321 -4.074800
    18 5.765585 0.000000 -0.000001 0.023730 0.320568 -0.807064
    19 7.882375 0.000000 -0.000004 0.000000 0.000000 -1.629276
    20 9.116559 0.000000 0.000003 3.286040 -0.252014 0.743776
    21 2.256927 0.000000 0.000000 0.000000 0.000000 -0.029570
    22 0.946167 3.213873 -0.420090 -3.141592 -0.000002 1.413798
    23 1.682527 1.062688 -7.030325 -1.570796 -1.570796 0.000000
  time 30
    0 0.422852 -5.973734 29.565927 0.000000 -0.111256 -1.570844
    1 -1.191443 0.000000 0.000000 -1.570795 -1.570796 0.000000
    2 -0.000007 0.000008 4.071913 -0.081204 3.313811 -0.288567
    3 16.828364 0.000000 0.000000 0.000000 0.000000 -1.412758
    4 15.727810 0.000000 0.000000 -0.240886 -0.126081 0.996782
    5 0.000006 -0.000004 -4.071913 0.130062 -3.411153 -0.746685
    6 16.672185 0.000000 0.000000 0.000000 0.000000 -1.450989
    7 15.977475 0.000000 0.000000 0.251237 0.074605 0.564393
    8 2.075510 -0.002685 0.000003 -0.000004 -0.000001 0.088387
    9 3.104236 -0.004248 0.000000 0.000000 0.000000 0.111939
    10 4.905809 -0.004100 0.000000 0.000000 0.000000 0.095944
    11 4.758491 -0.004197 0.000000 0.000000 0.000000 -0.017444
    12 4.850082 -0.001935 0.000000 0.000000 0.000000 0.134667
    13 -2.879036 0.397176 2.326935 0.915399 -1.249681 -4.167020
    14 5.575653 0.000000 0.000002 -0.078125 -0.361834 -0.697618
    15 7.068015 0.000000 0.000000 0.000000 0.000000 -1.687183
    16 9.422011 0.000000 -0.000003 -3.205156 0.459408 0.701214
    17 -2.781898 0.382885 -2.232553 -0.818897 1.282321 -4.074800
    18 5.765585 0.000000 -0.000001 0.027731 0.315209 -0.782924
    19 7.882375 0.000000 -0.000004 0.000000 0.000000 -1.685953
    20 9.116559 0.000000 0.000003 3.290462 -0.264475 0.777041
    21 2.256927 0.000000 0.000000 0.000000 0.000000 0.011048
    22 0.946167 3.213873 -0.420090 -3.141592 -0.000002 1.413798
    23 1.682527 1.062688 -7.030325 -1.570796 -1.570796 0.000000
  time 31
    0 0.422852 -6.494010 29.431895 0.000000 -0.121759 -1.570844
    1 -1.144566 0.000000 0.000000 -1.570795 -1.570796 0.000000
    2 -0.000007 0.000008 4.071913 -0.083217 3.314865 -0.253097
    3 16.828364 0.000000 0.000000 0.000000 0.000000 -1.409411
    4 15.727810 0.000000 0.000000 -0.241806 -0.129849 1.018057
    5 0.000006 -0.000004 -4.071913 0.130062 -3.415834 -0.723118
    6 16.672185 0.000000 0.000000 0.000000 0.000000 -1.469967
    7 15.977475 0.000000 0.000000 0.248654 0.081284 0.595127
    8 2.075510 -0.002685 0.000003 -0.000004 -0.000001 0.084888
    9 3.104236 -0.004248 0.000000 0.000000 0.000000 0.107466
    10 4.905809 -0.004100 0.000000 0.000000 0.000000 0.095944
    11 4.758491 -0.004197 0.000000 0.000000 0.000000 -0.017444
    12 4.850082 -0.001935 0.000000 0.000000 0.000000 0.134667
    13 -2.879036 0.397176 2.326935 0.915399 -1.249681 -4.167020
    14 5.575653 0.000000 0.000002 -0.081970 -0.355366 -0.675694
    15 7.068015 0.000000 0.000000 0.000000 0.000000 -1.733121
    16 9.422011 0.000000 -0.000003 -3.210016 0.470826 0.724773
    17 -2.781898 0.382885 -2.232553 -0.818897 1.282321 -4.074800
    18 5.765585 0.000000 -0.000001 0.028969 0.308251 -0.764233
    19 7.882375 0.000000 -0.000004 0.000000 0.000000 -1.730819
    20 9.116559 0.000000 0.000003 3.293631 -0.274478 0.803869
    21 2.256927 0.000000 0.000000 0.000000 0.000000 0.047832
    22 0.946167 3.213873 -0.420090 -3.141592 -0.000002 1.413798
    23 1.682527 1.062688 -7.030325 -1.570796 -1.570796 0.000000
  time 32
    0 0.422852 -6.711800 30.102058 0.000000 -0.130774 -1.570844
    1 -1.097690 0.000000 0.000000 -1.570795 -1.570796 0.000000
    2 -0.000007 0.000008 4.071913 -0.089161 3.309498 -0.208903
    3 16.828364 0.000000 0.000000 0.000000 0.000000 -1.341009
    4 15.727810 0.000000 0.000000 -0.242652 -0.127644 0.984670
    5 0.000006 -0.000004 -4.071913 0.140126 -3.410102 -0.670983
    6 16.672185 0.000000 0.000000 0.000000 0.000000 -1.412686
    7 15.977475 0.000000 0.000000 0.249687 0.082354 0.579785
    8 2.075510 -0.002685 0.000003 -0.000004 -0.000001 0.081574
    9 3.104236 -0.004248 0.000000 0.000000 0.000000 0.103220
    10 4.905809 -0.004100 0.000000 0.000000 0.000000 0.095944
    11 4.758491 -0.004197 0.000000 0.000000 0.000000 -0.017444
    12 4.850082 -0.001935 0.000000 0.000000 0.000000 0.134667
    13 -2.879036 0.397176 2.326935 0.915399 -1.249681 -4.167020
    14 5.575653 0.000000 0.000002 -0.033336 -0.285286 -0.667444
    15 7.068015 0.000000 0.000000 0.000000 0.000000 -1.751417
    16 9.422011 0.000000 -0.000003 -3.181359 0.405974 0.744043
    17 -2.781898 0.382885 -2.232553 -0.818897 1.282321 -4.074800
    18 5.765585 0.000000 -0.000001 -0.015702 0.238678 -0.756233
    19 7.882375 0.000000 -0.000004 0.000000 0.000000 -1.742554
    20 9.116559 0.000000 0.000003 3.270340 -0.211241 0.813840
    21 2.256927 0.000000 0.000000 0.000000 0.000000 0.098313
    22 0.946167 3.213873 -0.420090 -3.141592 -0.000002 1.413798
    23 1.682527 1.062688 -7.030325 -1.570796 -1.570796 0.000000
  time 33
    0 0.422852 -3.493349 34.223563 0.000000 -0.141649 -1.570844
    1 -0.773461 0.000000 0.000000 -1.570795 -1.570796 0.000000
    2 -0.000007 0.000008 4.071913 -0.107569 3.274900 -0.154452
    3 16.828364 0.000000 0.000000 0.000000 0.000000 -0.959125
    4 15.727810 0.000000 0.000000 -0.241364 -0.095180 0.649017
    5 0.000006 -0.000004 -4.071913 0.195332 -3.344474 -0.491011
    6 16.672185 0.000000 0.000000 0.000000 0.000000 -0.903913
    7 15.977475 0.000000 0.000000 0.263461 0.044680 0.245013
    8 2.075510 -0.002685 0.000003 -0.000004 -0.000001 0.047330
    9 3.104236 -0.004248 0.000000 0.000000 0.000000 0.086787
    10 4.905809 -0.004100 0.000000 0.000000 0.000000 0.095944
    11 4.758491 -0.004197 0.000000 0.000000 0.000000 -0.017444
    12 4.850082 -0.001935 0.000000 0.000000 0.000000 0.134667
    13 -2.879036 0.397176 2.326935 0.915399 -1.249681 -4.167020
    14 5.575653 0.000000 0.000002 0.218804 0.065685 -0.998669
    15 7.068015 0.000000 0.000000 0.000000 0.000000 -0.980548
    16 9.422011 0.000000 -0.000003 -3.114828 0.095807 0.358257
    17 -2.781898 0.382885 -2.232553 -0.818897 1.282321 -4.074800
    18 5.765585 0.000000 -0.000001 -0.221723 -0.104675 -1.044807
    19 7.882375 0.000000 -0.000004 0.000000 0.000000 -0.969935
    20 9.116559 0.000000 0.000003 3.212112 0.075699 0.378686
    21 2.256927 0.000000 0.000000 0.000000 0.000000 0.274953
    22 0.946167 3.213873 -0.420090 -3.141592 -0.000002 1.413798
    23 1.682527 1.062688 -7.030325 -1.570796 -1.570796 0.000000
  time 34
    0 0.422852 -1.242853 36.234053 0.000000 -0.128265 -1.570844
    1 -1.000031 0.000000 0.000000 -1.570795 -1.570796 0.000000
    2 -0.000007 0.000008 4.071913 -0.118019 3.254870 -0.136429
    3 16.828364 0.000000 0.000000 0.000000 0.000000 -0.703783
    4 15.727810 0.000000 0.000000 -0.239746 -0.077585 0.426708
    5 0.000006 -0.000004 -4.071913 0.232712 -3.287253 -0.344248
    6 16.672185 0.000000 0.000000 0.000000 0.000000 -0.439999
    7 15.977475 0.000000 0.000000 0.267679 0.020769 -0.052421
    8 2.075510 -0.002685 0.000003 -0.000004 -0.000001 0.074210
    9 3.104236 -0.004248 0.000000 0.000000 0.000000 0.093848
    10 4.905809 -0.004100 0.000000 0.000000 0.000000 0.095944
    11 4.758491 -0.004197 0.000000 0.000000 0.000000 -0.017444
    12 4.850082 -0.001935 0.000000 0.000000 0.000000 0.134667
    13 -2.879036 0.397176 2.326935 0.915399 -1.249681 -4.167020
    14 5.575653 0.000000 0.000002 0.197086 0.202570 -1.514833
    15 7.068015 0.000000 0.000000 0.000000 0.000000 -0.002659
    16 9.422011 0.000000 -0.000003 -3.135189 0.010972 -0.091165
    17 -2.781898 0.382885 -2.232553 -0.818897 1.282321 -4.074800
    18 5.765585 0.000000 -0.000001 -0.182100 -0.226523 -1.526569
    19 7.882375 0.000000 -0.000004 0.000000 0.000000 -0.002742
    20 9.116559 0.000000 0.000003 3.228548 0.154702 -0.096620
    21 2.256927 0.000000 0.000000 0.000000 0.000000 0.302261
    22 0.946167 3.213873 -0.420090 -3.141592 -0.000002 1.413798
    23 1.682527 1.062688 -7.030325 -1.570796 -1.570460 0.000000
  time 35
    0 0.422852 -1.678433 36.200544 0.000000 -0.121387 -1.570844
    1 -1.535203 0.000000 0.000000 -1.570795 -1.570796 0.000000
    2 -0.000007 0.000008 4.071913 -0.118115 3.256211 -0.153301
    3 16.828364 0.000000 0.000000 0.000000 0.000000 -0.718410
    4 15.727810 0.000000 0.000000 -0.238532 -0.077385 0.431178
    5 0.000006 -0.000004 -4.071913 0.232999 -3.289163 -0.360942
    6 16.672185 0.000000 0.000000 0.000000 0.000000 -0.453250
    7 15.977475 0.000000 0.000000 0.266302 0.019584 -0.049170
    8 2.075510 -0.002685 0.000003 -0.000004 -0.000001 0.134644
    9 3.104236 -0.004248 0.000000 0.000000 0.000000 0.115432
    10 4.905809 -0.004100 0.000000 0.000000 0.000000 0.095944
    11 4.758491 -0.004197 0.000000 0.000000 0.000000 -0.017444
    12 4.850082 -0.001935 0.000000 0.000000 0.000000 0.134667
    13 -2.879036 0.397176 2.326935 0.915399 -1.249681 -4.167020
    14 5.575653 0.000000 0.000002 0.219729 0.052995 -1.211872
    15 7.068015 0.000000 0.000000 0.000000 0.000000 -0.592561
    16 9.422011 0.000000 -0.000003 -3.111811 0.010883 0.176568
    17 -2.781898 0.382885 -2.232553 -0.818897 1.282321 -4.074800
    18 5.765585 0.000000 -0.000001 -0.213437 -0.086906 -1.245099
    19 7.882375 0.000000 -0.000004 0.000000 0.000000 -0.584315
    20 9.116559 0.000000 0.000003 3.209090 0.157669 0.183089
    21 2.256927 0.000000 0.000000 0.000000 0.000000 0.222663
    22 0.946167 3.213873 -0.420090 -3.141592 -0.000002 1.413798
    23 1.682527 1.062688 -7.030325 -1.570796 -1.570796 0.000000
  time 36
    0 0.422852 -1.944621 36.049758 0.000000 -0.114044 -1.570844
    1 -2.070376 0.000000 0.000000 -1.570795 -1.570796 0.000000
    2 -0.000007 0.000008 4.071913 -0.116293 3.258991 -0.187238
    3 16.828364 0.000000 0.000000 0.000000 0.000000 -0.756904
    4 15.727810 0.000000 0.000000 -0.237428 -0.076743 0.443111
    5 0.000006 -0.000004 -4.071913 0.230795 -3.293462 -0.394776
    6 16.672185 0.000000 0.000000 0.000000 0.000000 -0.488033
    7 15.977475 0.000000 0.000000 0.265699 0.017242 -0.040788
    8 2.075510 -0.002685 0.000003 -0.000004 -0.000001 0.196413
    9 3.104236 -0.004248 0.000000 0.000000 0.000000 0.137719
    10 4.905809 -0.004100 0.000000 0.000000 0.000000 0.095944
    11 4.758491 -0.004197 0.000000 0.000000 0.000000 -0.017444
    12 4.850082 -0.001935 0.000000 0.000000 0.000000 0.134667
    13 -2.879036 0.397176 2.326935 0.915399 -1.249681 -4.167020
    14 5.575653 0.000000 0.000002 0.178857 -0.076767 -1.060315
    15 7.068015 0.000000 0.000000 0.000000 0.000000 -0.919164
    16 9.422011 0.000000 -0.000003 -3.094885 0.027921 0.329832
    17 -2.781898 0.382885 -2.232553 -0.818897 1.282321 -4.074800
    18 5.765585 0.000000 -0.000001 -0.182481 0.038702 -1.107846
    19 7.882375 0.000000 -0.000004 0.000000 0.000000 -0.905511
    20 9.116559 0.000000 0.000003 3.195233 0.143937 0.342793
    21 2.256927 0.000000 0.000000 0.000000 0.000000 0.137250
    22 0.946167 3.213873 -0.420090 -3.141592 -0.000002 1.413798
    23 1.682527 1.062688 -7.030325 -1.570796 -1.570796 0.000000
  time 37
    0 0.422852 -2.198709 35.882217 0.000000 -0.107445 -1.570844
    1 -2.582110 0.000000 0.000000 -1.570795 -1.570796 0.000000
    2 -0.000007 0.000008 4.071913 -0.114472 3.261674 -0.219448
    3 16.828364 0.000000 0.000000 0.000000 0.000000 -0.793506
    4 15.727810 0.000000 0.000000 -0.236361 -0.076102 0.454017
    5 0.000006 -0.000004 -4.071913 0.228494 -3.297570 -0.426556
    6 16.672185 0.000000 0.000000 0.000000 0.000000 -0.520401
    7 15.977475 0.000000 0.000000 0.265182 0.014900 -0.033625
    8 2.075510 -0.002685 0.000003 -0.000004 -0.000001 0.256986
    9 3.104236 -0.004248 0.000000 0.000000 0.000000 0.159629
    10 4.905809 -0.004100 0.000000 0.000000 0.000000 0.095944
    11 4.758491 -0.004197 0.000000 0.000000 0.000000 -0.017444
    12 4.850082 -0.001935 0.000000 0.000000 0.000000 0.134667
    13 -2.879036 0.397176 2.326935 0.915399 -1.249681 -4.167020
    14 5.575653 0.000000 0.000002 0.113205 -0.192120 -0.955891
    15 7.068015 0.000000 0.000000 0.000000 0.000000 -1.152964
    16 9.422011 0.000000 -0.000003 -3.085082 0.053434 0.443852
    17 -2.781898 0.382885 -2.232553 -0.818897 1.282321 -4.074800
    18 5.765585 0.000000 -0.000001 -0.127714 0.152558 -1.015218
    19 7.882375 0.000000 -0.000004 0.000000 0.000000 -1.136822
    20 9.116559 0.000000 0.000003 3.187494 0.122321 0.462708
    21 2.256927 0.000000 0.000000 0.000000 0.000000 0.053302
    22 0.946167 3.213873 -0.420090 -3.141592 -0.000002 1.413798
    23 1.682527 1.062688 -7.030325 -1.570796 -1.570796 0.000000
  time 38
    0 0.422852 -2.452797 35.714676 0.000000 -0.101589 -1.570844
    1 -3.062593 0.000000 0.000000 -1.570795 -1.570796 0.000000
    2 -0.000007 0.000008 4.071913 -0.112842 3.264070 -0.248400
    3 16.828364 0.000000 0.000000 0.000000 0.000000 -0.826324
    4 15.727810 0.000000 0.000000 -0.235295 -0.075541 0.463805
    5 0.000006 -0.000004 -4.071913 0.226482 -3.301200 -0.455302
    6 16.672185 0.000000 0.000000 0.000000 0.000000 -0.549663
    7 15.977475 0.000000 0.000000 0.264666 0.012760 -0.027173
    8 2.075510 -0.002685 0.000003 -0.000004 -0.000001 0.315947
    9 3.104236 -0.004248 0.000000 0.000000 0.000000 0.181037
    10 4.905809 -0.004100 0.000000 0.000000 0.000000 0.095944
    11 4.758491 -0.004197 0.000000 0.000000 0.000000 -0.017444
    12 4.850082 -0.001935 0.000000 0.000000 0.000000 0.134667
    13 -2.879036 0.397176 2.326935 0.915399 -1.249681 -4.167020
    14 5.575653 0.000000 0.000002 0.030037 -0.298713 -0.869418
    15 7.068015 0.000000 0.000000 0.000000 0.000000 -1.341820
    16 9.422011 0.000000 -0.000003 -3.081143 0.087243 0.539306
    17 -2.781898 0.382885 -2.232553 -0.818897 1.282321 -4.074800
    18 5.765585 0.000000 -0.000001 -0.056849 0.259456 -0.940109
    19 7.882375 0.000000 -0.000004 0.000000 0.000000 -1.324723
    20 9.116559 0.000000 0.000003 3.184840 0.092906 0.564675
    21 2.256927 0.000000 0.000000 0.000000 0.000000 -0.028192
    22 0.946167 3.213873 -0.420090 -3.141592 -0.000002 1.413798
    23 1.682527 1.062688 -7.030325 -1.570796 -1.570796 0.000000
  time 39
    0 0.422852 -2.706885 35.547135 0.000000 -0.095920 -1.570844
    1 -3.507920 0.000000 0.000000 -1.570795 -1.570796 0.000000
    2 -0.000007 0.000008 4.071913 -0.111404 3.266275 -0.274187
    3 16.828364 0.000000 0.000000 0.000000 0.000000 -0.855504
    4 15.727810 0.000000 0.000000 -0.234338 -0.075060 0.472654
    5 0.000006 -0.000004 -4.071913 0.224661 -3.304544 -0.481280
    6 16.672185 0.000000 0.000000 0.000000 0.000000 -0.576233
    7 15.977475 0.000000 0.000000 0.264149 0.010939 -0.021026
    8 2.075510 -0.002685 0.000003 -0.000004 -0.000001 0.372745
    9 3.104236 -0.004248 0.000000 0.000000 0.000000 0.201716
    10 4.905809 -0.004100 0.000000 0.000000 0.000000 0.095944
    11 4.758491 -0.004197 0.000000 0.000000 0.000000 -0.017444
    12 4.850082 -0.001935 0.000000 0.000000 0.000000 0.134667
    13 -2.879036 0.397176 2.326935 0.915399 -1.249681 -4.167020
    14 5.575653 0.000000 0.000002 -0.069010 -0.398838 -0.790813
    15 7.068015 0.000000 0.000000 0.000000 0.000000 -1.500449
    16 9.422011 0.000000 -0.000003 -3.082149 0.129972 0.622533
    17 -2.781898 0.382885 -2.232553 -0.818897 1.282321 -4.074800
    18 5.765585 0.000000 -0.000001 0.028207 0.361560 -0.873000
    19 7.882375 0.000000 -0.000004 0.000000 0.000000 -1.483864
    20 9.116559 0.000000 0.000003 3.186462 0.055100 0.655223
    21 2.256927 0.000000 0.000000 0.000000 0.000000 -0.106497
    22 0.946167 3.213873 -0.420090 -3.141592 -0.000002 1.413798
    23 1.682527 1.062688 -7.030325 -1.570796 -1.570460 0.000000
  time 40
    0 0.422852 -2.960974 35.396348 0.000000 -0.090064 -1.570844
    1 -3.914182 0.000000 0.000000 -1.570795 -1.570796 0.000000
    2 -0.000007 0.000008 4.071913 -0.110157 3.268191 -0.297387
    3 16.828364 0.000000 0.000000 0.000000 0.000000 -0.880900
    4 15.727810 0.000000 0.000000 -0.233492 -0.074739 0.480744
    5 0.000006 -0.000004 -4.071913 0.222840 -3.307505 -0.505205
    6 16.672185 0.000000 0.000000 0.000000 0.000000 -0.600112
    7 15.977475 0.000000 0.000000 0.263805 0.009435 -0.015083
    8 2.075510 -0.002685 0.000003 -0.000004 -0.000001 0.426874
    9 3.104236 -0.004248 0.000000 0.000000 0.000000 0.221516
    10 4.905809 -0.004100 0.000000 0.000000 0.000000 0.095944
    11 4.758491 -0.004197 0.000000 0.000000 0.000000 -0.017444
    12 4.850082 -0.001935 0.000000 0.000000 0.000000 0.134667
    13 -2.879036 0.397176 2.326935 0.915399 -1.249681 -4.167020
    14 5.575653 0.000000 0.000002 -0.184079 -0.492987 -0.714729
    15 7.068015 0.000000 0.000000 0.000000 0.000000 -1.635081
    16 9.422011 0.000000 -0.000003 -3.086841 0.181890 0.695900
    17 -2.781898 0.382885 -2.232553 -0.818897 1.282321 -4.074800
    18 5.765585 0.000000 -0.000001 0.127169 0.459338 -0.808995
    19 7.882375 0.000000 -0.000004 0.000000 0.000000 -1.620226
    20 9.116559 0.000000 0.000003 3.191253 0.008817 0.736707
    21 2.256927 0.000000 0.000000 0.000000 0.000000 -0.180712
    22 0.946167 3.213873 -0.420090 -3.141592 -0.000002 1.413798
    23 1.682527 1.062688 -7.030325 -1.570796 -1.570796 0.000000
  time 41
    0 0.422852 -3.202962 35.262316 0.000000 -0.083279 -1.570844
    1 -4.273568 0.000000 0.000000 -1.570795 -1.570796 0.000000
    2 -0.000007 0.000008 4.071913 -0.109007 3.269821 -0.318477
    3 16.828364 0.000000 0.000000 0.000000 0.000000 -0.902584
    4 15.727810 0.000000 0.000000 -0.232830 -0.074539 0.488074
    5 0.000006 -0.000004 -4.071913 0.221210 -3.310180 -0.527344
    6 16.672185 0.000000 0.000000 0.000000 0.000000 -0.621369
    7 15.977475 0.000000 0.000000 0.263547 0.008279 -0.009241
    8 2.075510 -0.002685 0.000003 -0.000004 -0.000001 0.477274
    9 3.104236 -0.004248 0.000000 0.000000 0.000000 0.240034
    10 4.905809 -0.004100 0.000000 0.000000 0.000000 0.095944
    11 4.758491 -0.004197 0.000000 0.000000 0.000000 -0.017444
    12 4.850082 -0.001935 0.000000 0.000000 0.000000 0.134667
    13 -2.879036 0.397176 2.326935 0.915399 -1.249681 -4.167020
    14 5.575653 0.000000 0.000002 -0.314243 -0.580423 -0.638492
    15 7.068015 0.000000 0.000000 0.000000 0.000000 -1.747705
    16 9.422011 0.000000 -0.000003 -3.094047 0.242550 0.760048
    17 -2.781898 0.382885 -2.232553 -0.818897 1.282321 -4.074800
    18 5.765585 0.000000 -0.000001 0.239752 0.552228 -0.744990
    19 7.882375 0.000000 -0.000004 0.000000 0.000000 -1.735881
    20 9.116559 0.000000 0.000003 3.198108 -0.045943 0.809580
    21 2.256927 0.000000 0.000000 0.000000 0.000000 -0.249671
    22 0.946167 3.213873 -0.420090 -3.141592 -0.000002 1.413798
    23 1.682527 1.062688 -7.030325 -1.570796 -1.570796 0.000000
  time 42
    0 0.422852 -3.408653 35.094775 0.000000 -0.075658 -1.570844
    1 -4.566546 0.000000 0.000000 -1.570795 -1.570796 0.000000
    2 -0.000007 0.000008 4.071913 -0.107856 3.271258 -0.338417
    3 16.828364 0.000000 0.000000 0.000000 0.000000 -0.922741
    4 15.727810 0.000000 0.000000 -0.232425 -0.074459 0.495895
    5 0.000006 -0.000004 -4.071913 0.219293 -3.312759 -0.549395
    6 16.672185 0.000000 0.000000 0.000000 0.000000 -0.643039
    7 15.977475 0.000000 0.000000 0.263461 0.007527 -0.002027
    8 2.075510 -0.002685 0.000003 -0.000004 -0.000001 0.520310
    9 3.104236 -0.004248 0.000000 0.000000 0.000000 0.255688
    10 4.905809 -0.004100 0.000000 0.000000 0.000000 0.095944
    11 4.758491 -0.004197 0.000000 0.000000 0.000000 -0.017444
    12 4.850082 -0.001935 0.000000 0.000000 0.000000 0.134667
    13 -2.879036 0.397176 2.326935 0.915399 -1.249681 -4.167020
    14 5.575653 0.000000 0.000002 -0.449890 -0.656725 -0.564776
    15 7.068015 0.000000 0.000000 0.000000 0.000000 -1.834278
    16 9.422011 0.000000 -0.000003 -3.102594 0.308026 0.811905
    17 -2.781898 0.382885 -2.232553 -0.818897 1.282321 -4.074800
    18 5.765585 0.000000 -0.000001 0.358050 0.635434 -0.682572
    19 7.882375 0.000000 -0.000004 0.000000 0.000000 -1.826611
    20 9.116559 0.000000 0.000003 3.205994 -0.105790 0.870035
    21 2.256927 0.000000 0.000000 0.000000 0.000000 -0.309068
    22 0.946167 3.213873 -0.420090 -3.141592 -0.000002 1.413798
    23 1.682527 1.062688 -7.030325 -1.570796 -1.570796 0.000000
  time 43
    0 0.422852 -3.505448 34.525136 0.000000 -0.068315 -1.570844
    1 -4.234504 0.000000 0.000000 -1.570795 -1.570796 0.000000
    2 -0.000007 0.000008 4.071913 -0.103926 3.276146 -0.362671
    3 16.828364 0.000000 0.000000 0.000000 0.000000 -0.989323
    4 15.727810 0.000000 0.000000 -0.232683 -0.077986 0.545327
    5 0.000006 -0.000004 -4.071913 0.209421 -3.326133 -0.602511
    6 16.672185 0.000000 0.000000 0.000000 0.000000 -0.753255
    7 15.977475 0.000000 0.000000 0.262686 0.011373 0.061422
    8 2.075510 -0.002685 0.000003 -0.000004 -0.000001 0.475617
    9 3.104236 -0.004248 0.000000 0.000000 0.000000 0.232622
    10 4.905809 -0.004100 0.000000 0.000000 0.000000 0.095944
    11 4.758491 -0.004197 0.000000 0.000000 0.000000 -0.017444
    12 4.850082 -0.001935 0.000000 0.000000 0.000000 0.134667
    13 -2.879036 0.397176 2.326935 0.915399 -1.249681 -4.167020
    14 5.575653 0.000000 0.000002 -0.393068 -0.625451 -0.583874
    15 7.068015 0.000000 0.000000 0.000000 0.000000 -1.820556
    16 9.422011 0.000000 -0.000003 -3.116169 0.308294 0.799933
    17 -2.781898 0.382885 -2.232553 -0.818897 1.282321 -4.074800
    18 5.765585 0.000000 -0.000001 0.305473 0.601117 -0.698642
    19 7.882375 0.000000 -0.000004 0.000000 0.000000 -1.811885
    20 9.116559 0.000000 0.000003 3.218893 -0.106892 0.859431
    21 2.256927 0.000000 0.000000 0.000000 0.000000 -0.270475
    22 0.946167 3.213873 -0.420090 -3.141592 -0.000002 1.413798
    23 1.682527 1.062688 -7.030325 -1.570796 -1.570796 0.000000
  time 44
    0 0.422852 -2.307604 31.609926 0.000000 -0.063110 -1.570844
    1 -0.601581 0.000000 0.000000 -1.570795 -1.570796 0.000000
    2 -0.000007 0.000008 4.071913 -0.085901 3.297614 -0.405235
    3 16.828364 0.000000 0.000000 0.000000 0.000000 -1.269842
    4 15.727810 0.000000 0.000000 -0.235994 -0.099589 0.787301
    5 0.000006 -0.000004 -4.071913 0.164087 -3.377145 -0.761504
    6 16.672185 0.000000 0.000000 0.000000 0.000000 -1.180039
    7 15.977475 0.000000 0.000000 0.256660 0.036325 0.330662
    8 2.075510 -0.002685 0.000003 -0.000004 -0.000001 0.054694
    9 3.104236 -0.004248 0.000000 0.000000 0.000000 0.042389
    10 4.905809 -0.004100 0.000000 0.000000 0.000000 0.095944
    11 4.758491 -0.004197 0.000000 0.000000 0.000000 -0.017444
    12 4.850082 -0.001935 0.000000 0.000000 0.000000 0.134667
    13 -2.879036 0.397176 2.326935 0.915399 -1.249681 -4.167020
    14 5.575653 0.000000 0.000002 0.102240 -0.121221 -1.006842
    15 7.068015 0.000000 0.000000 0.000000 0.000000 -1.036893
    16 9.422011 0.000000 -0.000003 -3.117928 0.275288 0.390780
    17 -2.781898 0.382885 -2.232553 -0.818897 1.282321 -4.074800
    18 5.765585 0.000000 -0.000001 -0.121808 0.086369 -1.049911
    19 7.882375 0.000000 -0.000004 0.000000 0.000000 -1.043331
    20 9.116559 0.000000 0.000003 3.225600 -0.096974 0.422736
    21 2.256927 0.000000 0.000000 0.000000 0.000000 0.201170
    22 0.946167 3.213873 -0.420090 -3.141592 -0.000002 1.413798
    23 1.682527 1.062688 -7.030325 -1.570796 -1.570796 0.000000
  time 45
    0 0.422852 -1.388046 30.772221 0.000000 -0.058184 -1.570844
    1 1.214881 0.000000 0.000000 -1.570795 -1.570796 0.000000
    2 -0.000007 0.000008 4.071913 -0.083505 3.303460 -0.398812
    3 16.828364 0.000000 0.000000 0.000000 0.000000 -1.327474
    4 15.727810 0.000000 0.000000 -0.236619 -0.107524 0.855728
    5 0.000006 -0.000004 -4.071913 0.153927 -3.390041 -0.787750
    6 16.672185 0.000000 0.000000 0.000000 0.000000 -1.276866
    7 15.977475 0.000000 0.000000 0.252786 0.046328 0.404932
    8 2.075510 -0.002685 0.000003 -0.000004 -0.000001 -0.135676
    9 3.104236 -0.004248 0.000000 0.000000 0.000000 -0.045303
    10 4.905809 -0.004100 0.000000 0.000000 0.000000 0.095944
    11 4.758491 -0.004197 0.000000 0.000000 0.000000 -0.017444
    12 4.850082 -0.001935 0.000000 0.000000 0.000000 0.134667
    13 -2.879036 0.397176 2.326935 0.915399 -1.249681 -4.167020
    14 5.575653 0.000000 0.000002 0.085506 0.167775 -1.521173
    15 7.068015 0.000000 0.000000 0.000000 0.000000 -0.002659
    16 9.422011 0.000000 -0.000003 -3.117761 0.320426 -0.082714
    17 -2.781898 0.382885 -2.232553 -0.818897 1.282321 -4.074800
    18 5.765585 0.000000 -0.000001 -0.088853 -0.198411 -1.533259
    19 7.882375 0.000000 -0.000004 0.000000 0.000000 -0.002742
    20 9.116559 0.000000 0.000003 3.223610 -0.148852 -0.087647
    21 2.256927 0.000000 0.000000 0.000000 0.000000 0.383626
    22 0.946167 3.213873 -0.420090 -3.141592 -0.000002 1.413798
    23 1.682527 1.062688 -7.030325 -1.570796 -1.570796 0.000000
  time 46
    0 0.422852 -1.291251 31.140811 0.000000 -0.053444 -1.570844
    1 1.203162 0.000000 0.000000 -1.570795 -1.570796 0.000000
    2 -0.000007 0.000008 4.071913 -0.086477 3.300969 -0.393348
    3 16.828364 0.000000 0.000000 0.000000 0.000000 -1.292619
    4 15.727810 0.000000 0.000000 -0.236104 -0.105440 0.830922
    5 0.000006 -0.000004 -4.071913 0.159582 -3.385647 -0.773288
    6 16.672185 0.000000 0.000000 0.000000 0.000000 -1.236906
    7 15.977475 0.000000 0.000000 0.253303 0.044594 0.383951
    8 2.075510 -0.002685 0.000003 -0.000004 -0.000001 -0.133789
    9 3.104236 -0.004248 0.000000 0.000000 0.000000 -0.045781
    10 4.905809 -0.004100 0.000000 0.000000 0.000000 0.095944
    11 4.758491 -0.004197 0.000000 0.000000 0.000000 -0.017444
    12 4.850082 -0.001935 0.000000 0.000000 0.000000 0.134667
    13 -2.879036 0.397176 2.326935 0.915399 -1.249681 -4.167020
    14 5.575653 0.000000 0.000002 0.090420 0.184067 -1.518117
    15 7.068015 0.000000 0.000000 0.000000 0.000000 -0.002659
    16 9.422011 0.000000 -0.000003 -3.118850 0.297768 -0.085019
    17 -2.781898 0.382885 -2.232553 -0.818897 1.282321 -4.074800
    18 5.765585 0.000000 -0.000001 -0.092758 -0.214206 -1.530224
    19 7.882375 0.000000 -0.000004 0.000000 0.000000 -0.002742
    20 9.116559 0.000000 0.000003 3.223610 -0.126727 -0.089550
    21 2.256927 0.000000 0.000000 0.000000 0.000000 0.357696
    22 0.946167 3.213873 -0.420090 -3.141592 -0.000002 1.413798
    23 1.682527 1.062688 -7.030325 -1.570796 -1.570796 0.000000
  time 47
    0 0.422852 -1.242853 31.576417 0.000000 -0.048053 -1.570844
    1 1.101596 0.000000 0.000000 -1.570795 -1.570796 0.000000
    2 -0.000007 0.000008 4.071913 -0.089736 3.297998 -0.387788
    3 16.828364 0.000000 0.000000 0.000000 0.000000 -1.252305
    4 15.727810 0.000000 0.000000 -0.235589 -0.102995 0.801648
    5 0.000006 -0.000004 -4.071913 0.166004 -3.380202 -0.756952
    6 16.672185 0.000000 0.000000 0.000000 0.000000 -1.189356
    7 15.977475 0.000000 0.000000 0.253991 0.042425 0.358196
    8 2.075510 -0.002685 0.000003 -0.000004 -0.000001 -0.122420
    9 3.104236 -0.004248 0.000000 0.000000 0.000000 -0.041961
    10 4.905809 -0.004100 0.000000 0.000000 0.000000 0.095944
    11 4.758491 -0.004197 0.000000 0.000000 0.000000 -0.017444
    12 4.850082 -0.001935 0.000000 0.000000 0.000000 0.134667
    13 -2.879036 0.397176 2.326935 0.915399 -1.249681 -4.167020
    14 5.575653 0.000000 0.000002 0.098608 0.190944 -1.518499
    15 7.068015 0.000000 0.000000 0.000000 0.000000 -0.002659
    16 9.422011 0.000000 -0.000003 -3.119939 0.270828 -0.085531
    17 -2.781898 0.382885 -2.232553 -0.818897 1.282321 -4.074800
    18 5.765585 0.000000 -0.000001 -0.099711 -0.220599 -1.530362
    19 7.882375 0.000000 -0.000004 0.000000 0.000000 -0.002742
    20 9.116559 0.000000 0.000003 3.223831 -0.100110 -0.090094
    21 2.256927 0.000000 0.000000 0.000000 0.000000 0.321687
    22 0.946167 3.213873 -0.420090 -3.141592 -0.000002 1.413798
    23 1.682527 1.062688 -7.030325 -1.570796 -1.570796 0.000000
  time 48
    0 0.422852 -1.194455 32.012024 0.000000 -0.042476 -1.570844
    1 0.996124 0.000000 0.000000 -1.570795 -1.570796 0.000000
    2 -0.000007 0.000008 4.071913 -0.093092 3.295027 -0.381557
    3 16.828364 0.000000 0.000000 0.000000 0.000000 -1.210755
    4 15.727810 0.000000 0.000000 -0.235037 -0.100591 0.771926
    5 0.000006 -0.000004 -4.071913 0.172425 -3.374566 -0.739990
    6 16.672185 0.000000 0.000000 0.000000 0.000000 -1.140218
    7 15.977475 0.000000 0.000000 0.254508 0.040286 0.331576
    8 2.075510 -0.002685 0.000003 -0.000004 -0.000001 -0.110637
    9 3.104236 -0.004248 0.000000 0.000000 0.000000 -0.037966
    10 4.905809 -0.004100 0.000000 0.000000 0.000000 0.095944
    11 4.758491 -0.004197 0.000000 0.000000 0.000000 -0.017444
    12 4.850082 -0.001935 0.000000 0.000000 0.000000 0.134667
    13 -2.879036 0.397176 2.326935 0.915399 -1.249681 -4.167020
    14 5.575653 0.000000 0.000002 0.106726 0.197003 -1.519034
    15 7.068015 0.000000 0.000000 0.000000 0.000000 -0.002659
    16 9.422011 0.000000 -0.000003 -3.120945 0.243888 -0.085723
    17 -2.781898 0.382885 -2.232553 -0.818897 1.282321 -4.074800
    18 5.765585 0.000000 -0.000001 -0.106664 -0.226335 -1.530638
    19 7.882375 0.000000 -0.000004 0.000000 0.000000 -0.002742
    20 9.116559 0.000000 0.000003 3.223979 -0.073578 -0.090366
    21 2.256927 0.000000 0.000000 0.000000 0.000000 0.285506
    22 0.946167 3.213873 -0.420090 -3.141592 -0.000002 1.413798
    23 1.682527 1.062688 -7.030325 -1.570796 -1.570796 0.000000
  time 49
    0 0.422852 -1.146057 32.430876 0.000000 -0.037178 -1.570844
    1 0.894559 0.000000 0.000000 -1.570795 -1.570796 0.000000
    2 -0.000007 0.000008 4.071913 -0.096447 3.292056 -0.374367
    3 16.828364 0.000000 0.000000 0.000000 0.000000 -1.168332
    4 15.727810 0.000000 0.000000 -0.234448 -0.098306 0.742070
    5 0.000006 -0.000004 -4.071913 0.178847 -3.368834 -0.722136
    6 16.672185 0.000000 0.000000 0.000000 0.000000 -1.089699
    7 15.977475 0.000000 0.000000 0.254938 0.038233 0.304297
    8 2.075510 -0.002685 0.000003 -0.000004 -0.000001 -0.098992
    9 3.104236 -0.004248 0.000000 0.000000 0.000000 -0.033996
    10 4.905809 -0.004100 0.000000 0.000000 0.000000 0.095944
    11 4.758491 -0.004197 0.000000 0.000000 0.000000 -0.017444
    12 4.850082 -0.001935 0.000000 0.000000 0.000000 0.134667
    13 -2.879036 0.397176 2.326935 0.915399 -1.249681 -4.167020
    14 5.575653 0.000000 0.000002 0.114772 0.203143 -1.519340
    15 7.068015 0.000000 0.000000 0.000000 0.000000 -0.002659
    16 9.422011 0.000000 -0.000003 -3.121783 0.217394 -0.085787
    17 -2.781898 0.382885 -2.232553 -0.818897 1.282321 -4.074800
    18 5.765585 0.000000 -0.000001 -0.131524 -0.222292 -1.450218
    19 7.882375 0.000000 -0.000004 0.000000 0.000000 -0.150072
    20 9.116559 0.000000 0.000003 3.223979 -0.047384 -0.022297
    21 2.256927 0.000000 0.000000 0.000000 0.000000 0.249756
    22 0.946167 3.213873 -0.420090 -3.141592 -0.000002 1.413798
    23 1.682527 1.062688 -7.030325 -1.570796 -1.570796 0.000000
  time 50
    0 0.422852 -1.097660 32.849728 0.000000 -0.032252 -1.570844
    1 0.792993 0.000000 0.000000 -1.570795 -1.570796 0.000000
    2 -0.000007 0.000008 4.071913 -0.099995 3.288989 -0.366026
    3 16.828364 0.000000 0.000000 0.000000 0.000000 -1.124962
    4 15.727810 0.000000 0.000000 -0.233786 -0.096142 0.712036
    5 0.000006 -0.000004 -4.071913 0.185460 -3.362816 -0.703210
    6 16.672185 0.000000 0.000000 0.000000 0.000000 -1.037731
    7 15.977475 0.000000 0.000000 0.255197 0.036209 0.276306
    8 2.075510 -0.002685 0.000003 -0.000004 -0.000001 -0.087531
    9 3.104236 -0.004248 0.000000 0.000000 0.000000 -0.030102
    10 4.905809 -0.004100 0.000000 0.000000 0.000000 0.095944
    11 4.758491 -0.004197 0.000000 0.000000 0.000000 -0.017444
    12 4.850082 -0.001935 0.000000 0.000000 0.000000 0.134667
    13 -2.879036 0.397176 2.326935 0.915399 -1.249681 -4.167020
    14 5.575653 0.000000 0.000002 0.137700 0.199704 -1.445089
    15 7.068015 0.000000 0.000000 0.000000 0.000000 -0.131192
    16 9.422011 0.000000 -0.000003 -3.122537 0.191435 -0.030730
    17 -2.781898 0.382885 -2.232553 -0.818897 1.282321 -4.074800
    18 5.765585 0.000000 -0.000001 -0.146763 -0.221822 -1.410008
    19 7.882375 0.000000 -0.000004 0.000000 0.000000 -0.223545
    20 9.116559 0.000000 0.000003 3.223168 -0.021869 0.011511
    21 2.256927 0.000000 0.000000 0.000000 0.000000 0.214480
    22 0.946167 3.213873 -0.420090 -3.141592 -0.000002 1.413798
    23 1.682527 1.062688 -7.030325 -1.570796 -1.570796 0.000000
  time 51
    0 0.422852 -1.061361 33.268580 0.000000 -0.027698 -1.570844
    1 0.691427 0.000000 0.000000 -1.570795 -1.570796 0.000000
    2 -0.000007 0.000008 4.071913 -0.103446 3.285922 -0.356536
    3 16.828364 0.000000 0.000000 0.000000 0.000000 -1.080719
    4 15.727810 0.000000 0.000000 -0.233051 -0.094058 0.681823
    5 0.000006 -0.000004 -4.071913 0.191978 -3.356702 -0.683124
    6 16.672185 0.000000 0.000000 0.000000 0.000000 -0.984176
    7 15.977475 0.000000 0.000000 0.255283 0.034243 0.247553
    8 2.075510 -0.002685 0.000003 -0.000004 -0.000001 -0.076254
    9 3.104236 -0.004248 0.000000 0.000000 0.000000 -0.026257
    10 4.905809 -0.004100 0.000000 0.000000 0.000000 0.095944
    11 4.758491 -0.004197 0.000000 0.000000 0.000000 -0.017444
    12 4.850082 -0.001935 0.000000 0.000000 0.000000 0.134667
    13 -2.879036 0.397176 2.326935 0.915399 -1.249681 -4.167020
    14 5.575653 0.000000 0.000002 0.153721 0.198967 -1.401852
    15 7.068015 0.000000 0.000000 0.000000 0.000000 -0.205701
    16 9.422011 0.000000 -0.000003 -3.122453 0.166101 0.001280
    17 -2.781898 0.382885 -2.232553 -0.818897 1.282321 -4.074800
    18 5.765585 0.000000 -0.000001 -0.157812 -0.223514 -1.387730
    19 7.882375 0.000000 -0.000004 0.000000 0.000000 -0.263733
    20 9.116559 0.000000 0.000003 3.222062 0.002968 0.029911
    21 2.256927 0.000000 0.000000 0.000000 0.000000 0.179892
    22 0.946167 3.213873 -0.420090 -3.141592 -0.000002 1.413798
    23 1.682527 1.062688 -7.030325 -1.570796 -1.570796 0.000000
  time 52
    0 0.422852 -1.012964 33.653924 0.000000 -0.023608 -1.570844
    1 0.589862 0.000000 0.000000 -1.570795 -1.570796 0.000000
    2 -0.000007 0.000008 4.071913 -0.107089 3.282855 -0.345895
    3 16.828364 0.000000 0.000000 0.000000 0.000000 -1.035604
    4 15.727810 0.000000 0.000000 -0.232278 -0.092054 0.651520
    5 0.000006 -0.000004 -4.071913 0.198687 -3.350301 -0.661788
    6 16.672185 0.000000 0.000000 0.000000 0.000000 -0.929034
    7 15.977475 0.000000 0.000000 0.255283 0.032306 0.218089
    8 2.075510 -0.002685 0.000003 -0.000004 -0.000001 -0.065254
    9 3.104236 -0.004248 0.000000 0.000000 0.000000 -0.022488
    10 4.905809 -0.004100 0.000000 0.000000 0.000000 0.095944
    11 4.758491 -0.004197 0.000000 0.000000 0.000000 -0.017444
    12 4.850082 -0.001935 0.000000 0.000000 0.000000 0.134667
    13 -2.879036 0.397176 2.326935 0.915399 -1.249681 -4.167020
    14 5.575653 0.000000 0.000002 0.165186 0.200769 -1.379470
    15 7.068015 0.000000 0.000000 0.000000 0.000000 -0.243817
    16 9.422011 0.000000 -0.000003 -3.122202 0.141658 0.017734
    17 -2.781898 0.382885 -2.232553 -0.818897 1.282321 -4.074800
    18 5.765585 0.000000 -0.000001 -0.166480 -0.226335 -1.375178
    19 7.882375 0.000000 -0.000004 0.000000 0.000000 -0.285744
    20 9.116559 0.000000 0.000003 3.221030 0.027042 0.039881
    21 2.256927 0.000000 0.000000 0.000000 0.000000 0.146037
    22 0.946167 3.213873 -0.420090 -3.141592 -0.000002 1.413798
    23 1.682527 1.062688 -7.030325 -1.570796 -1.570796 0.000000
  time 53
    0 0.422852 -0.964566 34.039268 0.000000 -0.019797 -1.570844
    1 0.496109 0.000000 0.000000 -1.570795 -1.570796 0.000000
    2 -0.000007 0.000008 4.071913 -0.110637 3.279692 -0.334199
    3 16.828364 0.000000 0.000000 0.000000 0.000000 -0.989833
    4 15.727810 0.000000 0.000000 -0.231469 -0.090170 0.621173
    5 0.000006 -0.000004 -4.071913 0.205300 -3.343710 -0.639381
    6 16.672185 0.000000 0.000000 0.000000 0.000000 -0.872373
    7 15.977475 0.000000 0.000000 0.255197 0.030455 0.187812
    8 2.075510 -0.002685 0.000003 -0.000004 -0.000001 -0.054529
    9 3.104236 -0.004248 0.000000 0.000000 0.000000 -0.018845
    10 4.905809 -0.004100 0.000000 0.000000 0.000000 0.095944
    11 4.758491 -0.004197 0.000000 0.000000 0.000000 -0.017444
    12 4.850082 -0.001935 0.000000 0.000000 0.000000 0.134667
    13 -2.879036 0.397176 2.326935 0.915399 -1.249681 -4.167020
    14 5.575653 0.000000 0.000002 0.174371 0.203880 -1.367630
    15 7.068015 0.000000 0.000000 0.000000 0.000000 -0.263239
    16 9.422011 0.000000 -0.000003 -3.121783 0.118019 0.026248
    17 -2.781898 0.382885 -2.232553 -0.818897 1.282321 -4.074800
    18 5.765585 0.000000 -0.000001 -0.173528 -0.230001 -1.369384
    19 7.882375 0.000000 -0.000004 0.000000 0.000000 -0.295024
    20 9.116559 0.000000 0.000003 3.219998 0.050099 0.043869
    21 2.256927 0.000000 0.000000 0.000000 0.000000 0.113130
    22 0.946167 3.213873 -0.420090 -3.141592 -0.000002 1.413798
    23 1.682527 1.062688 -7.030325 -1.570796 -1.570796 0.000000
  time 54
    0 0.422852 -0.916168 34.424612 0.000000 -0.016358 -1.570844
    1 0.402356 0.000000 0.000000 -1.570795 -1.570796 0.000000
    2 -0.000007 0.000008 4.071913 -0.114280 3.276529 -0.321737
    3 16.828364 0.000000 0.000000 0.000000 0.000000 -0.943625
    4 15.727810 0.000000 0.000000 -0.230586 -0.088366 0.590959
    5 0.000006 -0.000004 -4.071913 0.211913 -3.336832 -0.615902
    6 16.672185 0.000000 0.000000 0.000000 0.000000 -0.814125
    7 15.977475 0.000000 0.000000 0.254938 0.028663 0.156774
    8 2.075510 -0.002685 0.000003 -0.000004 -0.000001 -0.044219
    9 3.104236 -0.004248 0.000000 0.000000 0.000000 -0.015327
    10 4.905809 -0.004100 0.000000 0.000000 0.000000 0.095944
    11 4.758491 -0.004197 0.000000 0.000000 0.000000 -0.017444
    12 4.850082 -0.001935 0.000000 0.000000 0.000000 0.134667
    13 -2.879036 0.397176 2.326935 0.915399 -1.249681 -4.167020
    14 5.575653 0.000000 0.000002 0.181848 0.207809 -1.362970
    15 7.068015 0.000000 0.000000 0.000000 0.000000 -0.270067
    16 9.422011 0.000000 -0.000003 -3.121448 0.095628 0.029257
    17 -2.781898 0.382885 -2.232553 -0.818897 1.282321 -4.074800
    18 5.765585 0.000000 -0.000001 -0.179243 -0.234232 -1.368832
    19 7.882375 0.000000 -0.000004 0.000000 0.000000 -0.294487
    20 9.116559 0.000000 0.000003 3.219040 0.072138 0.043325
    21 2.256927 0.000000 0.000000 0.000000 0.000000 0.081385
    22 0.946167 3.213873 -0.420090 -3.141592 -0.000002 1.413798
    23 1.682527 1.062688 -7.030325 -1.570796 -1.570796 0.000000
  time 55
    0 0.422852 -0.879870 34.776447 0.000000 -0.013198 -1.570844
    1 0.312510 0.000000 0.000000 -1.570795 -1.570796 0.000000
    2 -0.000007 0.000008 4.071913 -0.117827 3.273367 -0.308603
    3 16.828364 0.000000 0.000000 0.000000 0.000000 -0.897491
    4 15.727810 0.000000 0.000000 -0.229740 -0.086683 0.561193
    5 0.000006 -0.000004 -4.071913 0.218431 -3.329667 -0.591620
    6 16.672185 0.000000 0.000000 0.000000 0.000000 -0.754566
    7 15.977475 0.000000 0.000000 0.254594 0.026957 0.125176
    8 2.075510 -0.002685 0.000003 -0.000004 -0.000001 -0.034369
    9 3.104236 -0.004248 0.000000 0.000000 0.000000 -0.011985
    10 4.905809 -0.004100 0.000000 0.000000 0.000000 0.095944
    11 4.758491 -0.004197 0.000000 0.000000 0.000000 -0.017444
    12 4.850082 -0.001935 0.000000 0.000000 0.000000 0.134667
    13 -2.879036 0.397176 2.326935 0.915399 -1.249681 -4.167020
    14 5.575653 0.000000 0.000002 0.187900 0.212312 -1.363734
    15 7.068015 0.000000 0.000000 0.000000 0.000000 -0.267217
    16 9.422011 0.000000 -0.000003 -3.121196 0.074397 0.028169
    17 -2.781898 0.382885 -2.232553 -0.818897 1.282321 -4.074800
    18 5.765585 0.000000 -0.000001 -0.183719 -0.238839 -1.372626
    19 7.882375 0.000000 -0.000004 0.000000 0.000000 -0.285898
    20 9.116559 0.000000 0.000003 3.218377 0.092822 0.039065
    21 2.256927 0.000000 0.000000 0.000000 0.000000 0.051148
    22 0.946167 3.213873 -0.420090 -3.141592 -0.000002 1.413798
    23 1.682527 1.062688 -7.030325 -1.570796 -1.570796 0.000000
  time 56
    0 0.422852 -0.831472 35.111529 0.000000 -0.010131 -1.570844
    1 0.230476 0.000000 0.000000 -1.570795 -1.570796 0.000000
    2 -0.000007 0.000008 4.071913 -0.121279 3.270204 -0.295182
    3 16.828364 0.000000 0.000000 0.000000 0.000000 -0.852084
    4 15.727810 0.000000 0.000000 -0.228894 -0.085160 0.532187
    5 0.000006 -0.000004 -4.071913 0.224756 -3.322407 -0.566803
    6 16.672185 0.000000 0.000000 0.000000 0.000000 -0.694317
    7 15.977475 0.000000 0.000000 0.254250 0.025338 0.093223
    8 2.075510 -0.002685 0.000003 -0.000004 -0.000001 -0.025164
    9 3.104236 -0.004248 0.000000 0.000000 0.000000 -0.008845
    10 4.905809 -0.004100 0.000000 0.000000 0.000000 0.095944
    11 4.758491 -0.004197 0.000000 0.000000 0.000000 -0.017444
    12 4.850082 -0.001935 0.000000 0.000000 0.000000 0.134667
    13 -2.879036 0.397176 2.326935 0.915399 -1.249681 -4.167020
    14 5.575653 0.000000 0.000002 0.192742 0.217142 -1.368929
    15 7.068015 0.000000 0.000000 0.000000 0.000000 -0.256876
    16 9.422011 0.000000 -0.000003 -3.121112 0.054772 0.023752
    17 -2.781898 0.382885 -2.232553 -0.818897 1.282321 -4.074800
    18 5.765585 0.000000 -0.000001 -0.187053 -0.243634 -1.379937
    19 7.882375 0.000000 -0.000004 0.000000 0.000000 -0.270789
    20 9.116559 0.000000 0.000003 3.217861 0.112064 0.031723
    21 2.256927 0.000000 0.000000 0.000000 0.000000 0.022806
    22 0.946167 3.213873 -0.420090 -3.141592 -0.000002 1.413798
    23 1.682527 1.062688 -7.030325 -1.570796 -1.570796 0.000000
  time 57
    0 0.422852 -0.783074 35.413102 0.000000 -0.007343 -1.570844
    1 0.156255 0.000000 0.000000 -1.570795 -1.570796 0.000000
    2 -0.000007 0.000008 4.071913 -0.124442 3.267137 -0.282048
    3 16.828364 0.000000 0.000000 0.000000 0.000000 -0.808423
    4 15.727810 0.000000 0.000000 -0.228084 -0.083757 0.504566
    5 0.000006 -0.000004 -4.071913 0.230795 -3.315052 -0.541985
    6 16.672185 0.000000 0.000000 0.000000 0.000000 -0.634412
    7 15.977475 0.000000 0.000000 0.253819 0.023834 0.061473
    8 2.075510 -0.002685 0.000003 -0.000004 -0.000001 -0.016741
    9 3.104236 -0.004248 0.000000 0.000000 0.000000 -0.005980
    10 4.905809 -0.004100 0.000000 0.000000 0.000000 0.095944
    11 4.758491 -0.004197 0.000000 0.000000 0.000000 -0.017444
    12 4.850082 -0.001935 0.000000 0.000000 0.000000 0.134667
    13 -2.879036 0.397176 2.326935 0.915399 -1.249681 -4.167020
    14 5.575653 0.000000 0.000002 0.196303 0.221973 -1.377408
    15 7.068015 0.000000 0.000000 0.000000 0.000000 -0.240635
    16 9.422011 0.000000 -0.000003 -3.121112 0.037109 0.016901
    17 -2.781898 0.382885 -2.232553 -0.818897 1.282321 -4.074800
    18 5.765585 0.000000 -0.000001 -0.189339 -0.248335 -1.390144
    19 7.882375 0.000000 -0.000004 0.000000 0.000000 -0.250542
    20 9.116559 0.000000 0.000003 3.217492 0.129272 0.022116
    21 2.256927 0.000000 0.000000 0.000000 0.000000 -0.003037
    22 0.946167 3.213873 -0.420090 -3.141592 -0.000002 1.413798
    23 1.682527 1.062688 -7.030325 -1.570796 -1.570796 0.000000
  time 58
    0 0.422852 -0.746776 35.664414 0.000000 -0.004647 -1.570844
    1 0.089846 0.000000 0.000000 -1.570795 -1.570796 0.000000
    2 -0.000007 0.000008 4.071913 -0.127319 3.264262 -0.269873
    3 16.828364 0.000000 0.000000 0.000000 0.000000 -0.768328
    4 15.727810 0.000000 0.000000 -0.227349 -0.082515 0.479403
    5 0.000006 -0.000004 -4.071913 0.236354 -3.307887 -0.518149
    6 16.672185 0.000000 0.000000 0.000000 0.000000 -0.576854
    7 15.977475 0.000000 0.000000 0.253475 0.022504 0.030993
    8 2.075510 -0.002685 0.000003 -0.000004 -0.000001 -0.009376
    9 3.104236 -0.004248 0.000000 0.000000 0.000000 -0.003467
    10 4.905809 -0.004100 0.000000 0.000000 0.000000 0.095944
    11 4.758491 -0.004197 0.000000 0.000000 0.000000 -0.017444
    12 4.850082 -0.001935 0.000000 0.000000 0.000000 0.134667
    13 -2.879036 0.397176 2.326935 0.915399 -1.249681 -4.167020
    14 5.575653 0.000000 0.000002 0.198724 0.226557 -1.388179
    15 7.068015 0.000000 0.000000 0.000000 0.000000 -0.220748
    16 9.422011 0.000000 -0.000003 -3.121280 0.021855 0.008515
    17 -2.781898 0.382885 -2.232553 -0.818897 1.282321 -4.074800
    18 5.765585 0.000000 -0.000001 -0.190577 -0.252754 -1.402145
    19 7.882375 0.000000 -0.000004 0.000000 0.000000 -0.227150
    20 9.116559 0.000000 0.000003 3.217345 0.144276 0.011148
    21 2.256927 0.000000 0.000000 0.000000 0.000000 -0.025650
    22 0.946167 3.213873 -0.420090 -3.141592 -0.000002 1.413798
    23 1.682527 1.062688 -7.030325 -1.570796 -1.570796 0.000000
  time 59
    0 0.422852 -0.710478 35.882217 0.000000 -0.002138 -1.570844
    1 0.035157 0.000000 0.000000 -1.570795 -1.570796 0.000000
    2 -0.000007 0.000008 4.071913 -0.129811 3.261866 -0.259424
    3 16.828364 0.000000 0.000000 0.000000 0.000000 -0.733763
    4 15.727810 0.000000 0.000000 -0.226760 -0.081513 0.457816
    5 0.000006 -0.000004 -4.071913 0.241050 -3.301391 -0.496724
    6 16.672185 0.000000 0.000000 0.000000 0.000000 -0.524887
    7 15.977475 0.000000 0.000000 0.253131 0.021405 0.003459
    8 2.075510 -0.002685 0.000003 -0.000004 -0.000001 -0.003346
    9 3.104236 -0.004248 0.000000 0.000000 0.000000 -0.001407
    10 4.905809 -0.004100 0.000000 0.000000 0.000000 0.095944
    11 4.758491 -0.004197 0.000000 0.000000 0.000000 -0.017444
    12 4.850082 -0.001935 0.000000 0.000000 0.000000 0.134667
    13 -2.879036 0.397176 2.326935 0.915399 -1.249681 -4.167020
    14 5.575653 0.000000 0.000002 0.200361 0.230323 -1.398721
    15 7.068015 0.000000 0.000000 0.000000 0.000000 -0.201525
    16 9.422011 0.000000 -0.000003 -3.121448 0.009367 0.000384
    17 -2.781898 0.382885 -2.232553 -0.818897 1.282321 -4.074800
    18 5.765585 0.000000 -0.000001 -0.191054 -0.256326 -1.413939
    19 7.882375 0.000000 -0.000004 0.000000 0.000000 -0.204678
    20 9.116559 0.000000 0.000003 3.217271 0.156482 0.000544
    21 2.256927 0.000000 0.000000 0.000000 0.000000 -0.044215
    22 0.946167 3.213873 -0.420090 -3.141592 -0.000002 1.413798
    23 1.682527 1.062688 -7.030325 -1.570796 -1.570796 0.000000
  time 60
    0 0.422852 -0.686279 36.033004 0.000000 0.000000 -1.570844
    1 0.000000 0.000000 0.000000 -1.570795 -1.570796 0.000000
    2 -0.000007 0.000008 4.071913 -0.132304 3.260332 -0.252043
    3 16.828364 0.000000 0.000000 0.000000 0.000000 -0.708950
    4 15.727810 0.000000 0.000000 -0.225472 -0.080912 0.442620
    5 0.000006 -0.000004 -4.071913 0.244117 -3.296424 -0.481012
    6 16.672185 0.000000 0.000000 0.000000 0.000000 -0.486377
    7 15.977475 0.000000 0.000000 0.253217 0.020798 -0.016708
    8 2.075510 -0.002685 0.000003 -0.000004 -0.000001 0.000796
    9 3.104236 -0.004248 0.000000 0.000000 0.000000 0.000000
    10 4.905809 -0.004100 0.000000 0.000000 0.000000 0.095944
    11 4.758491 -0.004197 0.000000 0.000000 0.000000 -0.017444
    12 4.850082 -0.001935 0.000000 0.000000 0.000000 0.134667
    13 -2.879036 0.397176 2.326935 0.915399 -1.249681 -4.167020
    14 5.575653 0.000000 0.000002 0.211683 0.230241 -1.399714
    15 7.068015 0.000000 0.000000 0.000000 0.000000 -0.200000
    16 9.422011 0.000000 -0.000003 -3.130330 0.000000 0.000000
    17 -2.781898 0.382885 -2.232553 -0.818897 1.282321 -4.074800
    18 5.765585 0.000000 -0.000001 -0.201721 -0.256514 -1.416491
    19 7.882375 0.000000 -0.000004 0.000000 0.000000 -0.200000
    20 9.116559 0.000000 0.000003 3.226190 0.165722 0.000000
    21 2.256927 0.000000 0.000000 0.000000 0.000000 -0.056964
    22 0.946167 3.213873 -0.420090 -3.141592 -0.000002 1.413798
    23 1.682527 1.062688 -7.030325 -1.570796 -1.570796 0.000000
end
