version 1
nodes
  0 "Bip01" -1
  1 "Bip01 Pelvis" 0
  2 "Bip01 L Leg" 1
  3 "Bip01 L Leg1" 2
  4 "Bip01 L Foot" 3
  5 "Bip01 R Leg" 1
  6 "Bip01 R Leg1" 5
  7 "Bip01 R Foot" 6
  8 "Bip01 Spine" 1
  9 "Bip01 Spine1" 8
  10 "Bip01 Spine2" 9
  11 "Bip01 Spine3" 10
  12 "Bip01 Neck" 11
  13 "Bip01 L Arm" 12
  14 "Bip01 L Arm1" 13
  15 "Bip01 L Arm2" 14
  16 "Bip01 L Hand" 15
  17 "Bip01 R Arm" 12
  18 "Bip01 R Arm1" 17
  19 "Bip01 R Arm2" 18
  20 "Bip01 R Hand" 19
  21 "Bip01 Head" 12
  22 "Bone05" 21
  23 "Bone03" 1
end
skeleton
  time 0
    0 1.278347 2.653167 40.489590 -0.032789 0.051678 -1.633643
    1 -1.136753 0.382824 0.000000 -0.000025 -1.518462 -1.570793
    2 -0.000007 0.000008 4.427393 -0.157327 3.102771 0.096524
    3 18.301065 0.000000 0.000000 0.000000 0.000000 -0.233704
    4 17.106758 0.000000 0.000000 0.046567 0.001973 0.365075
    5 0.000006 -0.000004 -4.427393 0.091053 -3.220192 -0.385848
    6 18.133167 0.000000 0.000000 0.000000 0.000000 -0.478716
    7 17.375956 0.000000 0.000000 0.038694 0.024123 0.140010
    8 2.255203 -0.002685 0.117194 0.048470 -0.003604 0.073105
    9 3.373776 -0.004248 0.000000 -0.017345 0.018966 0.086888
    10 5.335510 -0.004100 0.000000 0.000000 -0.034877 0.078502
    11 5.172566 -0.004197 0.000000 0.008669 0.033665 0.139848
    12 5.271970 -0.001935 0.000000 0.027972 0.092206 0.652141
    13 -2.734501 1.983162 2.237088 1.321224 -1.453153 -5.124704
    14 6.063949 0.000000 0.000002 -1.293038 0.162290 -1.781356
    15 7.685221 0.000000 0.000000 0.000000 0.000000 -0.640620
    16 10.246255 0.000000 -0.000003 -1.933269 0.023996 -0.047439
    17 -2.192036 1.781365 -2.689599 -2.395860 1.236030 0.084789
    18 6.269507 0.000000 -0.000001 -1.526428 -3.167874 1.507944
    19 8.573802 0.000000 -0.000004 0.000000 0.000000 -0.465669
    20 9.913458 0.000000 0.000003 1.636261 0.454441 -0.056739
    21 2.452246 0.000000 0.000000 0.054962 -0.148701 -0.823398
    22 0.946167 3.213873 -0.420090 -3.141592 -0.000002 1.413798
    23 1.827063 1.152534 -7.643625 -1.570796 -1.570796 0.000000
  time 1
    0 1.278347 3.851012 40.523098 -0.036336 0.044149 -1.686663
    1 -0.492203 0.312510 0.000000 -0.000025 -1.526594 -1.570793
    2 -0.000007 0.000008 4.427393 -0.159915 3.109001 0.066231
    3 18.301065 0.000000 0.000000 0.000000 0.000000 -0.291409
    4 17.106758 0.000000 0.000000 -0.004861 0.012193 0.386171
    5 0.000006 -0.000004 -4.427393 0.096708 -3.197743 -0.385759
    6 18.133167 0.000000 0.000000 0.000000 0.000000 -0.446556
    7 17.375956 0.000000 0.000000 -0.011752 0.011893 0.101351
    8 2.255203 -0.002685 0.097662 0.050696 0.006201 0.038493
    9 3.373776 -0.004248 0.000000 -0.017405 0.007355 0.038594
    10 5.335510 -0.004100 0.000000 0.016088 -0.049103 0.045729
    11 5.172566 -0.004197 0.000000 -0.010027 0.036050 0.114945
    12 5.271970 -0.001935 0.000000 0.031232 0.057216 0.469492
    13 -2.957164 1.502679 2.319122 0.695320 -1.450509 -4.307716
    14 6.063949 0.000000 0.000002 -1.344804 0.896080 -1.735904
    15 7.685221 0.000000 0.000000 0.000000 0.000000 -0.764977
    16 10.246255 0.000000 -0.000003 -1.961424 -0.029259 -0.029001
    17 -2.578767 1.300882 -2.619284 3.722290 1.385085 0.110047
    18 6.269507 0.000000 -0.000001 -1.554717 -2.741409 1.487529
    19 8.573802 0.000000 -0.000004 0.000000 0.000000 -0.444118
    20 9.913458 0.000000 0.000003 1.634197 0.384338 -0.061815
    21 2.452246 0.000000 0.000000 0.174287 -0.165068 -0.460425
    22 0.946167 3.213873 -0.420090 -3.141592 -0.000002 1.413798
    23 1.827063 1.152534 -7.643625 -1.570796 -1.570796 0.000000
  time 2
    0 1.278347 6.246701 40.539852 -0.040075 0.036342 -1.755406
    1 0.359386 0.222663 0.000000 -0.000025 -1.537341 -1.570793
    2 -0.000007 0.000008 4.427393 -0.162504 3.129223 -0.018227
    3 18.301065 0.000000 0.000000 0.000000 0.000000 -0.409147
    4 17.106758 0.000000 0.000000 -0.072954 0.020049 0.411602
    5 0.000006 -0.000004 -4.427393 0.105047 -3.156475 -0.385491
    6 18.133167 0.000000 0.000000 0.000000 0.000000 -0.356078
    7 17.375956 0.000000 0.000000 -0.073647 -0.016008 0.006050
    8 2.255203 -0.002685 0.074224 0.052612 0.019266 -0.006154
    9 3.373776 -0.004248 0.000000 -0.017436 -0.008364 -0.024549
    10 5.335510 -0.004100 0.000000 0.038128 -0.066822 0.002790
    11 5.172566 -0.004197 0.000000 -0.035602 0.037871 0.082292
    12 5.271970 -0.001935 0.000000 0.034012 0.010307 0.225220
    13 -3.105606 0.791719 2.475377 0.078546 -1.404697 -3.444941
    14 6.063949 0.000000 0.000002 1.281407 1.251063 1.053306
    15 7.685221 0.000000 0.000000 0.000000 0.000000 -0.930831
    16 10.246255 0.000000 -0.000003 -1.988489 -0.100891 -0.001088
    17 -2.949872 0.601642 -2.478655 1.951221 1.526339 -1.416360
    18 6.269507 0.000000 -0.000001 1.385393 -0.978384 -1.542501
    19 8.573802 0.000000 -0.000004 0.000000 0.000000 -0.423257
    20 9.913458 0.000000 0.000003 1.631986 0.284227 -0.068613
    21 2.452246 0.000000 0.000000 0.373884 -0.169056 0.008377
    22 0.946167 3.213873 -0.420090 -3.141592 -0.000002 1.413798
    23 1.827063 1.152534 -7.643625 -1.570796 -1.570796 0.000000
  time 3
    0 1.278347 8.001120 40.539852 -0.040075 0.046287 -1.781964
    1 0.695334 0.152348 0.000000 -0.000025 -1.549835 -1.570793
    2 -0.000007 0.000008 4.427393 -0.161258 3.155292 -0.104889
    3 18.301065 0.000000 0.000000 0.000000 0.000000 -0.493630
    4 17.106758 0.000000 0.000000 -0.099735 0.018566 0.417993
    5 0.000006 -0.000004 -4.427393 0.110797 -3.120939 -0.374243
    6 18.133167 0.000000 0.000000 0.000000 0.000000 -0.227573
    7 17.375956 0.000000 0.000000 -0.094135 -0.036652 -0.099004
    8 2.255203 -0.002685 0.046879 0.052860 0.032625 -0.022540
    9 3.373776 -0.004248 0.000000 -0.017436 -0.018333 -0.052012
    10 5.335510 -0.004100 0.000000 0.052414 -0.077969 -0.012807
    11 5.172566 -0.004197 0.000000 -0.052205 0.038518 0.067856
    12 5.271970 -0.001935 0.000000 0.034731 -0.020614 0.090403
    13 -3.093887 0.381551 2.580849 -0.034442 -1.361851 -3.199892
    14 6.063949 0.000000 0.000002 1.295649 0.785967 1.207842
    15 7.685221 0.000000 0.000000 0.000000 0.000000 -1.021448
    16 10.246255 0.000000 -0.000003 -1.937375 -0.146921 0.018118
    17 -3.086595 0.199286 -2.373183 0.852535 1.452727 -2.382874
    18 6.269507 0.000000 -0.000001 0.786189 -1.257994 -1.022047
    19 8.573802 0.000000 -0.000004 0.000000 0.000000 -0.456006
    20 9.913458 0.000000 0.000003 1.630586 0.193356 -0.074505
    21 2.452246 0.000000 0.000000 0.485583 -0.177542 0.271077
    22 0.946167 3.213873 -0.420090 -3.141592 -0.000002 1.413798
    23 1.827063 1.152534 -7.643625 -1.570796 -1.570460 0.000000
  time 4
    0 1.309598 7.783330 40.506344 -0.035282 0.078074 -1.752913
    1 0.371105 -0.003906 0.000000 -0.000025 -1.563774 -1.570793
    2 -0.000007 0.000008 4.427393 -0.158765 3.173310 -0.155218
    3 18.301065 0.000000 0.000000 0.000000 0.000000 -0.519827
    4 17.106758 0.000000 0.000000 -0.070342 0.013035 0.424608
    5 0.000006 -0.000004 -4.427393 0.114439 -3.116735 -0.403703
    6 18.133167 0.000000 0.000000 0.000000 0.000000 -0.222466
    7 17.375956 0.000000 0.000000 -0.065985 -0.032518 -0.102103
    8 2.255203 -0.002685 0.015628 0.052365 0.027355 -0.003116
    9 3.373776 -0.004248 0.000000 -0.017436 -0.018005 -0.032866
    10 5.335510 -0.004100 0.000000 0.052414 -0.079076 0.008180
    11 5.172566 -0.004197 0.000000 -0.052162 0.039022 0.077413
    12 5.271970 -0.001935 0.000000 0.034695 -0.021010 0.101686
    13 -3.089980 0.416708 2.580849 0.249454 -1.355526 -3.487770
    14 6.063949 0.000000 0.000002 1.148965 0.956417 1.023209
    15 7.685221 0.000000 0.000000 0.000000 0.000000 -1.008985
    16 10.246255 0.000000 -0.000003 -1.787387 -0.159589 0.021959
    17 -3.082688 0.234443 -2.373183 0.457049 1.484113 -2.788443
    18 6.269507 0.000000 -0.000001 0.633126 -1.252353 -0.918521
    19 8.573802 0.000000 -0.000004 0.000000 0.000000 -0.557396
    20 9.913458 0.000000 0.000003 1.629849 0.118845 -0.079127
    21 2.452246 0.000000 0.000000 0.423389 -0.177606 0.288220
    22 0.946167 3.213873 -0.420090 -3.141592 -0.000002 1.413798
    23 1.827063 1.152534 -7.643625 -1.570796 -1.570796 0.000000
  time 5
    0 1.301785 7.662336 40.422573 -0.026653 0.118505 -1.701619
    1 -0.207038 -0.214850 0.000000 -3.141565 -1.562846 1.570745
    2 -0.000007 0.000008 4.427393 -0.153013 3.195832 -0.231623
    3 18.301065 0.000000 0.000000 0.000000 0.000000 -0.557302
    4 17.106758 0.000000 0.000000 -0.019539 0.003095 0.424384
    5 0.000006 -0.000004 -4.427393 0.118944 -3.116258 -0.439858
    6 18.133167 0.000000 0.000000 0.000000 0.000000 -0.200796
    7 17.375956 0.000000 0.000000 -0.017175 -0.027834 -0.119934
    8 2.255203 -0.002685 -0.015622 0.052550 0.017672 0.030438
    9 3.373776 -0.004248 0.000000 -0.017436 -0.017349 0.004473
    10 5.335510 -0.004100 0.000000 0.052381 -0.080890 0.042941
    11 5.172566 -0.004197 0.000000 -0.052076 0.039993 0.096079
    12 5.271970 -0.001935 0.000000 0.034372 -0.023336 0.168709
    13 -3.054823 0.623745 2.580849 0.621040 -1.315968 -3.914912
    14 6.063949 0.000000 0.000002 0.373605 1.186469 0.154202
    15 7.685221 0.000000 0.000000 0.000000 0.000000 -0.956617
    16 10.246255 0.000000 -0.000003 -1.597261 -0.159143 0.020550
    17 -3.063157 0.433668 -2.377089 -0.551284 1.479681 -3.862018
    18 6.269507 0.000000 -0.000001 0.720849 -1.159181 -1.050945
    19 8.573802 0.000000 -0.000004 0.000000 0.000000 -0.686779
    20 9.913458 0.000000 0.000003 1.629480 0.049420 -0.083387
    21 2.452246 0.000000 0.000000 0.300712 -0.141970 0.211508
    22 0.946167 3.213873 -0.420090 -3.141592 -0.000002 1.413798
    23 1.827063 1.152534 -7.643625 -1.570796 -1.570796 0.000000
  time 6
    0 1.282253 7.613938 40.255033 -0.014573 0.161632 -1.642080
    1 -0.878933 -0.441420 0.000000 -0.000025 -1.593687 -1.570745
    2 -0.000007 0.000008 4.427393 -0.144480 3.216342 -0.316081
    3 18.301065 0.000000 0.000000 0.000000 0.000000 -0.592085
    4 17.106758 0.000000 0.000000 0.038253 -0.008007 0.416027
    5 0.000006 -0.000004 -4.427393 0.124216 -3.118646 -0.477174
    6 18.133167 0.000000 0.000000 0.000000 0.000000 -0.170016
    7 17.375956 0.000000 0.000000 0.038177 -0.023873 -0.145436
    8 2.255203 -0.002685 -0.050780 0.053725 0.005833 0.069469
    9 3.373776 -0.004248 0.000000 -0.017436 -0.016571 0.048871
    10 5.335510 -0.004100 0.000000 0.052220 -0.082983 0.082991
    11 5.172566 -0.004197 0.000000 -0.051947 0.041155 0.118249
    12 5.271970 -0.001935 0.000000 0.033713 -0.026348 0.257526
    13 -2.988415 0.893285 2.580849 0.901228 -1.241890 -4.270515
    14 6.063949 0.000000 0.000002 -0.500375 0.902793 -0.848563
    15 7.685221 0.000000 0.000000 0.000000 0.000000 -0.891986
    16 10.246255 0.000000 -0.000003 -1.392305 -0.152631 0.018694
    17 -3.016280 0.699301 -2.377089 -1.091966 1.403799 -4.489362
    18 6.269507 0.000000 -0.000001 0.770092 -1.012231 -1.145229
    19 8.573802 0.000000 -0.000004 0.000000 0.000000 -0.824062
    20 9.913458 0.000000 0.000003 1.629407 -0.017631 -0.087375
    21 2.452246 0.000000 0.000000 0.159691 -0.079886 0.092799
    22 0.946167 3.213873 -0.420090 -3.141592 -0.000002 1.413798
    23 1.827063 1.152534 -7.643625 -1.570796 -1.570460 0.000000
  time 7
    0 1.278347 7.613938 40.087492 -0.002493 0.198624 -1.592416
    1 -1.453169 -0.636738 0.000000 -0.000025 -1.605680 -1.570793
    2 -0.000007 0.000008 4.427393 -0.135851 3.229376 -0.386446
    3 18.301065 0.000000 0.000000 0.000000 0.000000 -0.614716
    4 17.106758 0.000000 0.000000 0.085083 -0.016704 0.404272
    5 0.000006 -0.000004 -4.427393 0.128816 -3.122563 -0.509669
    6 18.133167 0.000000 0.000000 0.000000 0.000000 -0.143859
    7 17.375956 0.000000 0.000000 0.083372 -0.021357 -0.167483
    8 2.255203 -0.002685 -0.078124 0.055642 -0.005639 0.103392
    9 3.373776 -0.004248 0.000000 -0.017375 -0.015902 0.087491
    10 5.335510 -0.004100 0.000000 0.052060 -0.084796 0.117854
    11 5.172566 -0.004197 0.000000 -0.051817 0.042150 0.137548
    12 5.271970 -0.001935 0.000000 0.032934 -0.028938 0.334482
    13 -2.910287 1.123761 2.576942 1.060724 -1.161666 -4.494865
    14 6.063949 0.000000 0.000002 -0.618719 0.485999 -1.123031
    15 7.685221 0.000000 0.000000 0.000000 0.000000 -0.846976
    16 10.246255 0.000000 -0.000003 -1.213492 -0.146921 0.018118
    17 -2.953778 0.925870 -2.377089 -1.262813 1.320299 -4.735248
    18 6.269507 0.000000 -0.000001 0.747804 -0.873930 -1.164541
    19 8.573802 0.000000 -0.000004 0.000000 0.000000 -0.935346
    20 9.913458 0.000000 0.000003 1.629628 -0.076460 -0.091001
    21 2.452246 0.000000 0.000000 0.039315 -0.013846 -0.015485
    22 0.946167 3.213873 -0.420090 -3.141592 -0.000002 1.413798
    23 1.827063 1.152534 -7.643625 -1.570796 -1.570796 0.000000
  time 8
    0 1.004901 7.577640 40.053984 -0.001917 0.209034 -1.594525
    1 -1.460982 -0.542985 0.000000 -0.000025 -1.605680 -1.570745
    2 -0.000007 0.000008 4.427393 -0.133359 3.233306 -0.396320
    3 18.301065 0.000000 0.000000 0.000000 0.000000 -0.615662
    4 17.106758 0.000000 0.000000 0.081588 -0.021794 0.405211
    5 0.000006 -0.000004 -4.427393 0.128624 -3.118741 -0.527880
    6 18.133167 0.000000 0.000000 0.000000 0.000000 -0.160768
    7 17.375956 0.000000 0.000000 0.083286 -0.026475 -0.157729
    8 2.255203 -0.002685 -0.078124 0.055642 -0.005639 0.103392
    9 3.373776 -0.004248 0.000000 -0.017375 -0.004206 0.087290
    10 5.335510 -0.004100 0.000000 0.051995 -0.073113 0.118469
    11 5.172566 -0.004197 0.000000 -0.051817 0.042150 0.137548
    12 5.271970 -0.001935 0.000000 0.032934 -0.028938 0.334482
    13 -2.910287 1.123761 2.576942 1.115221 -1.122966 -4.543703
    14 6.063949 0.000000 0.000002 -0.624344 0.445720 -1.157330
    15 7.685221 0.000000 0.000000 0.000000 0.000000 -0.892251
    16 10.246255 0.000000 -0.000003 -1.213492 -0.146921 0.018118
    17 -2.953778 0.925870 -2.377089 -1.305118 1.282907 -4.776676
    18 6.269507 0.000000 -0.000001 0.698276 -0.859075 -1.129503
    19 8.573802 0.000000 -0.000004 0.000000 0.000000 -0.924455
    20 9.913458 0.000000 0.000003 1.629628 -0.076460 -0.091001
    21 2.452246 0.000000 0.000000 -0.029387 -0.020578 0.013201
    22 0.946167 3.213873 -0.420090 -3.141592 -0.000002 1.413798
    23 1.827063 1.152534 -7.643625 -1.570796 -1.570796 0.000000
  time 9
    0 0.723642 7.613938 40.070738 -0.009492 0.198346 -1.627986
    1 -1.468795 -0.421888 0.000000 -0.000025 -1.605680 -1.570745
    2 -0.000007 0.000008 4.427393 -0.131441 3.240781 -0.384049
    3 18.301065 0.000000 0.000000 0.000000 0.000000 -0.618863
    4 17.106758 0.000000 0.000000 0.048554 -0.022756 0.409993
    5 0.000006 -0.000004 -4.427393 0.127474 -3.095815 -0.485744
    6 18.133167 0.000000 0.000000 0.000000 0.000000 -0.085404
    7 17.375956 0.000000 0.000000 0.056599 -0.036855 -0.199893
    8 2.255203 -0.002685 -0.078124 0.055642 -0.005639 0.103392
    9 3.373776 -0.004248 0.000000 -0.017345 0.010249 0.087039
    10 5.335510 -0.004100 0.000000 0.051963 -0.058668 0.119207
    11 5.172566 -0.004197 0.000000 -0.051817 0.042150 0.137548
    12 5.271970 -0.001935 0.000000 0.032934 -0.028938 0.334482
    13 -2.910287 1.123761 2.576942 1.113889 -1.124038 -4.542463
    14 6.063949 0.000000 0.000002 -0.637304 0.568687 -1.118218
    15 7.685221 0.000000 0.000000 0.000000 0.000000 -0.975974
    16 10.246255 0.000000 -0.000003 -1.213492 -0.146921 0.018118
    17 -2.953778 0.925870 -2.377089 -1.301098 1.286972 -4.772753
    18 6.269507 0.000000 -0.000001 0.726088 -0.835571 -1.143229
    19 8.573802 0.000000 -0.000004 0.000000 0.000000 -0.835029
    20 9.913458 0.000000 0.000003 1.629628 -0.076460 -0.091001
    21 2.452246 0.000000 0.000000 -0.047598 -0.059181 -0.013805
    22 0.946167 3.213873 -0.420090 -3.141592 -0.000002 1.413798
    23 1.827063 1.152534 -7.643625 -1.570796 -1.570796 0.000000
  time 10
    0 1.278347 7.613938 40.087492 -0.002493 0.198624 -1.592416
    1 -1.453169 -0.636738 0.000000 -0.000025 -1.605680 -1.570793
    2 -0.000007 0.000008 4.427393 -0.134988 3.229184 -0.386542
    3 18.301065 0.000000 0.000000 0.000000 0.000000 -0.614716
    4 17.106758 0.000000 0.000000 0.084163 -0.016624 0.404272
    5 0.000006 -0.000004 -4.427393 0.126037 -3.122372 -0.509669
    6 18.133167 0.000000 0.000000 0.000000 0.000000 -0.143859
    7 17.375956 0.000000 0.000000 0.086040 -0.020721 -0.167534
    8 2.255203 -0.002685 -0.078124 0.055642 -0.005639 0.103392
    9 3.373776 -0.004248 0.000000 -0.017375 -0.015902 0.087491
    10 5.335510 -0.004100 0.000000 0.052060 -0.084796 0.117854
    11 5.172566 -0.004197 0.000000 -0.051817 0.042150 0.137548
    12 5.271970 -0.001935 0.000000 0.032934 -0.028938 0.334482
    13 -2.910287 1.123761 2.576942 1.060724 -1.161666 -4.494865
    14 6.063949 0.000000 0.000002 -0.618719 0.485999 -1.123031
    15 7.685221 0.000000 0.000000 0.000000 0.000000 -0.846976
    16 10.246255 0.000000 -0.000003 -1.213492 -0.146921 0.018118
    17 -2.953778 0.925870 -2.377089 -1.262813 1.320299 -4.735248
    18 6.269507 0.000000 -0.000001 0.747804 -0.873930 -1.164541
    19 8.573802 0.000000 -0.000004 0.000000 0.000000 -0.935346
    20 9.913458 0.000000 0.000003 1.629628 -0.076460 -0.091001
    21 2.452246 0.000000 0.000000 0.039315 -0.013846 -0.015485
    22 0.946167 3.213873 -0.420090 -3.141592 -0.000002 1.413798
    23 1.827063 1.152534 -7.643625 -1.570796 -1.570796 0.000000
  time 11
    0 1.336942 7.444546 40.121000 -0.001630 0.194163 -1.589635
    1 -1.210974 -0.574236 0.000000 -0.000025 -1.599737 -1.570745
    2 -0.000007 0.000008 4.427393 -0.139878 3.219313 -0.365355
    3 18.301065 0.000000 0.000000 0.000000 0.000000 -0.604819
    4 17.106758 0.000000 0.000000 0.087474 -0.015181 0.411155
    5 0.000006 -0.000004 -4.427393 0.122490 -3.137369 -0.536093
    6 18.133167 0.000000 0.000000 0.000000 0.000000 -0.230127
    7 17.375956 0.000000 0.000000 0.087504 -0.015632 -0.113025
    8 2.255203 -0.002685 -0.062499 0.054714 -0.010885 0.091240
    9 3.373776 -0.004248 0.000000 -0.017405 -0.016242 0.068018
    10 5.335510 -0.004100 0.000000 0.052060 -0.065276 0.104224
    11 5.172566 -0.004197 0.000000 -0.051947 0.041275 0.120503
    12 5.271970 -0.001935 0.000000 0.033173 -0.028198 0.312559
    13 -2.933726 1.061259 2.576942 1.060534 -1.162059 -4.472735
    14 6.063949 0.000000 0.000002 -0.640009 0.510151 -1.097135
    15 7.685221 0.000000 0.000000 0.000000 0.000000 -0.760271
    16 10.246255 0.000000 -0.000003 -1.333901 -0.144067 -0.023944
    17 -2.973310 0.863368 -2.377089 -1.262717 1.319933 -4.713243
    18 6.269507 0.000000 -0.000001 0.640174 -0.957888 -1.039565
    19 8.573802 0.000000 -0.000004 0.000000 0.000000 -1.019172
    20 9.913458 0.000000 0.000003 1.629407 -0.015681 -0.087285
    21 2.452246 0.000000 0.000000 0.039052 -0.030149 0.054896
    22 0.946167 3.213873 -0.420090 -3.141592 -0.000002 1.413798
    23 1.827063 1.152534 -7.643625 -1.570796 -1.570796 0.000000
  time 12
    0 1.395538 7.069463 40.154508 -0.000767 0.189888 -1.588197
    1 -0.980499 -0.511734 0.000000 -0.000025 -1.592410 -1.570793
    2 -0.000007 0.000008 4.427393 -0.145343 3.207333 -0.334391
    3 18.301065 0.000000 0.000000 0.000000 0.000000 -0.586991
    4 17.106758 0.000000 0.000000 0.089461 -0.014460 0.420094
    5 0.000006 -0.000004 -4.427393 0.117506 -3.152558 -0.553144
    6 18.133167 0.000000 0.000000 0.000000 0.000000 -0.308113
    7 17.375956 0.000000 0.000000 0.087504 -0.010052 -0.057145
    8 2.255203 -0.002685 -0.046873 0.053849 -0.017552 0.079825
    9 3.373776 -0.004248 0.000000 -0.017436 -0.016558 0.049700
    10 5.335510 -0.004100 0.000000 0.052092 -0.044698 0.091578
    11 5.172566 -0.004197 0.000000 -0.052033 0.040436 0.104524
    12 5.271970 -0.001935 0.000000 0.033389 -0.027511 0.291986
    13 -2.953257 0.998757 2.576942 1.060343 -1.162381 -4.451941
    14 6.063949 0.000000 0.000002 -0.655888 0.541343 -1.072767
    15 7.685221 0.000000 0.000000 0.000000 0.000000 -0.689939
    16 10.246255 0.000000 -0.000003 -1.446854 -0.145940 -0.063508
    17 -2.988936 0.800867 -2.377089 -1.262813 1.319566 -4.692673
    18 6.269507 0.000000 -0.000001 0.510637 -1.023983 -0.897692
    19 8.573802 0.000000 -0.000004 0.000000 0.000000 -1.088734
    20 9.913458 0.000000 0.000003 1.629480 0.041452 -0.083840
    21 2.452246 0.000000 0.000000 0.031557 -0.046994 0.121184
    22 0.946167 3.213873 -0.420090 -3.141592 -0.000002 1.413798
    23 1.827063 1.152534 -7.643625 -1.570796 -1.570460 0.000000
  time 13
    0 1.360380 6.682281 40.188016 -0.000192 0.185705 -1.587526
    1 -0.773461 -0.449232 0.000000 -0.000025 -1.584598 -1.570745
    2 -0.000007 0.000008 4.427393 -0.149657 3.197078 -0.302084
    3 18.301065 0.000000 0.000000 0.000000 0.000000 -0.564433
    4 17.106758 0.000000 0.000000 0.090380 -0.016263 0.425546
    5 0.000006 -0.000004 -4.427393 0.112522 -3.163831 -0.559661
    6 18.133167 0.000000 0.000000 0.000000 0.000000 -0.363048
    7 17.375956 0.000000 0.000000 0.087418 -0.007219 -0.013152
    8 2.255203 -0.002685 -0.031248 0.053107 -0.024783 0.069607
    9 3.373776 -0.004248 0.000000 -0.017436 -0.016850 0.033318
    10 5.335510 -0.004100 0.000000 0.052124 -0.024996 0.080285
    11 5.172566 -0.004197 0.000000 -0.052119 0.039693 0.090181
    12 5.271970 -0.001935 0.000000 0.033569 -0.026903 0.273535
    13 -2.972789 0.944068 2.576942 1.060058 -1.162703 -4.433245
    14 6.063949 0.000000 0.000002 -0.665786 0.577856 -1.048169
    15 7.685221 0.000000 0.000000 0.000000 0.000000 -0.629483
    16 10.246255 0.000000 -0.000003 -1.548075 -0.151382 -0.098591
    17 -3.004561 0.746177 -2.377089 -1.262813 1.319237 -4.674303
    18 6.269507 0.000000 -0.000001 0.385101 -1.066667 -0.765199
    19 8.573802 0.000000 -0.000004 0.000000 0.000000 -1.132757
    20 9.913458 0.000000 0.000003 1.629701 0.092567 -0.080759
    21 2.452246 0.000000 0.000000 0.022156 -0.062754 0.182390
    22 0.946167 3.213873 -0.420090 -3.141592 -0.000002 1.413798
    23 1.827063 1.152534 -7.643625 -1.570796 -1.570796 0.000000
  time 14
    0 1.278347 6.524988 40.255033 0.000000 0.181801 -1.587334
    1 -0.570330 -0.382824 0.000000 -0.000025 -1.576846 -1.570745
    2 -0.000007 0.000008 4.427393 -0.153013 3.188261 -0.276776
    3 18.301065 0.000000 0.000000 0.000000 0.000000 -0.540784
    4 17.106758 0.000000 0.000000 0.090675 -0.018388 0.423088
    5 0.000006 -0.000004 -4.427393 0.108209 -3.171473 -0.557608
    6 18.133167 0.000000 0.000000 0.000000 0.000000 -0.386375
    7 17.375956 0.000000 0.000000 0.087331 -0.006640 0.008336
    8 2.255203 -0.002685 -0.011716 0.052550 -0.032014 0.059895
    9 3.373776 -0.004248 0.000000 -0.017436 -0.017118 0.017739
    10 5.335510 -0.004100 0.000000 0.052188 -0.003687 0.069689
    11 5.172566 -0.004197 0.000000 -0.052162 0.038974 0.076564
    12 5.271970 -0.001935 0.000000 0.033725 -0.026295 0.256015
    13 -2.988415 0.889379 2.580849 1.059868 -1.162989 -4.415598
    14 6.063949 0.000000 0.000002 -0.666213 0.634673 -1.016391
    15 7.685221 0.000000 0.000000 0.000000 0.000000 -0.572608
    16 10.246255 0.000000 -0.000003 -1.644101 -0.159767 -0.131306
    17 -3.016280 0.695395 -2.377089 -1.262908 1.318944 -4.656794
    18 6.269507 0.000000 -0.000001 0.315379 -1.083684 -0.698711
    19 8.573802 0.000000 -0.000004 0.000000 0.000000 -1.119105
    20 9.913458 0.000000 0.000003 1.629996 0.141224 -0.077767
    21 2.452246 0.000000 0.000000 0.010782 -0.079471 0.246224
    22 0.946167 3.213873 -0.420090 -3.141592 -0.000002 1.413798
    23 1.827063 1.152534 -7.643625 -1.570796 -1.570796 0.000000
  time 15
    0 0.747080 6.488690 40.439327 0.000096 0.177991 -1.587526
    1 -0.585955 -0.164068 0.000000 -0.000073 -1.569474 -1.570745
    2 -0.000007 0.000008 4.427393 -0.154259 3.186248 -0.248783
    3 18.301065 0.000000 0.000000 0.000000 0.000000 -0.490792
    4 17.106758 0.000000 0.000000 0.089681 -0.027446 0.396048
    5 0.000006 -0.000004 -4.427393 0.106580 -3.166697 -0.530647
    6 18.133167 0.000000 0.000000 0.000000 0.000000 -0.342344
    7 17.375956 0.000000 0.000000 0.088709 -0.015343 -0.011476
    8 2.255203 -0.002685 0.000003 0.052118 -0.025592 0.060632
    9 3.373776 -0.004248 0.000000 -0.017436 -0.006747 0.017563
    10 5.335510 -0.004100 0.000000 0.052220 0.015674 0.070713
    11 5.172566 -0.004197 0.000000 -0.052162 0.038974 0.076564
    12 5.271970 -0.001935 0.000000 0.033725 -0.026295 0.256015
    13 -2.988415 0.889379 2.580849 1.072517 -1.154734 -4.426949
    14 6.063949 0.000000 0.000002 -0.662012 0.739547 -0.979648
    15 7.685221 0.000000 0.000000 0.000000 0.000000 -0.552191
    16 10.246255 0.000000 -0.000003 -1.644101 -0.159767 -0.131306
    17 -3.016280 0.695395 -2.377089 -1.276595 1.307884 -4.670380
    18 6.269507 0.000000 -0.000001 0.536164 -0.972931 -0.958731
    19 8.573802 0.000000 -0.000004 0.000000 0.000000 -0.849448
    20 9.913458 0.000000 0.000003 1.629996 0.141224 -0.077767
    21 2.452246 0.000000 0.000000 -0.021038 -0.113767 0.303166
    22 0.946167 3.213873 -0.420090 -3.141592 -0.000002 1.413798
    23 1.827063 1.152534 -7.643625 -1.570796 -1.570796 0.000000
  time 16
    0 0.036121 6.524988 40.657131 0.000096 0.173994 -1.588005
    1 -0.601581 0.125004 0.000000 -0.000025 -1.562512 -1.570745
    2 -0.000007 0.000008 4.427393 -0.154930 3.186631 -0.217339
    3 18.301065 0.000000 0.000000 0.000000 0.000000 -0.428431
    4 17.106758 0.000000 0.000000 0.087989 -0.038788 0.359578
    5 0.000006 -0.000004 -4.427393 0.105718 -3.157048 -0.490743
    6 18.133167 0.000000 0.000000 0.000000 0.000000 -0.267464
    7 17.375956 0.000000 0.000000 0.090431 -0.027053 -0.048916
    8 2.255203 -0.002685 0.015628 0.051685 -0.011497 0.061737
    9 3.373776 -0.004248 0.000000 -0.017405 0.009033 0.017287
    10 5.335510 -0.004100 0.000000 0.052253 0.031141 0.071513
    11 5.172566 -0.004197 0.000000 -0.052162 0.038974 0.076564
    12 5.271970 -0.001935 0.000000 0.033725 -0.026295 0.256015
    13 -2.988415 0.889379 2.580849 1.122829 -1.117749 -4.471972
    14 6.063949 0.000000 0.000002 -0.643427 0.925471 -0.929689
    15 7.685221 0.000000 0.000000 0.000000 0.000000 -0.586131
    16 10.246255 0.000000 -0.000003 -1.644101 -0.159767 -0.131306
    17 -3.016280 0.695395 -2.377089 -1.301002 1.285581 -4.694204
    18 6.269507 0.000000 -0.000001 0.761425 -0.751895 -1.263376
    19 8.573802 0.000000 -0.000004 0.000000 0.000000 -0.395341
    20 9.913458 0.000000 0.000003 1.629996 0.141224 -0.077767
    21 2.452246 0.000000 0.000000 -0.057394 -0.152944 0.324530
    22 0.946167 3.213873 -0.420090 -3.141592 -0.000002 1.413798
    23 1.827063 1.152534 -7.643625 -1.570796 -1.570796 0.000000
  time 17
    0 -0.014662 6.391894 40.841425 -0.000192 0.169254 -1.588773
    1 -0.183599 0.144536 0.000000 -0.000025 -1.556082 -1.570745
    2 -0.000007 0.000008 4.427393 -0.157423 3.176472 -0.167010
    3 18.301065 0.000000 0.000000 0.000000 0.000000 -0.364977
    4 17.106758 0.000000 0.000000 0.086886 -0.041834 0.341834
    5 0.000006 -0.000004 -4.427393 0.102938 -3.162016 -0.475120
    6 18.133167 0.000000 0.000000 0.000000 0.000000 -0.277195
    7 17.375956 0.000000 0.000000 0.089656 -0.026301 -0.028240
    8 2.255203 -0.002685 0.031254 0.051870 -0.016106 0.026894
    9 3.373776 -0.004248 0.000000 -0.017436 0.008571 -0.008870
    10 5.335510 -0.004100 0.000000 0.052253 0.031141 0.071513
    11 5.172566 -0.004197 0.000000 -0.052162 0.038974 0.076564
    12 5.271970 -0.001935 0.000000 0.033725 -0.026295 0.256015
    13 -2.988415 0.889379 2.580849 1.294499 -0.918564 -4.615148
    14 6.063949 0.000000 0.000002 -0.815247 1.091091 -1.000884
    15 7.685221 0.000000 0.000000 0.000000 0.000000 -0.710554
    16 10.246255 0.000000 -0.000003 -1.644101 -0.159767 -0.131306
    17 -3.016280 0.695395 -2.377089 -1.337852 1.243428 -4.730082
    18 6.269507 0.000000 -0.000001 0.803048 -0.726886 -1.261514
    19 8.573802 0.000000 -0.000004 0.000000 0.000000 -0.311360
    20 9.913458 0.000000 0.000003 1.778294 0.141224 -0.077767
    21 2.452246 0.000000 0.000000 -0.038526 -0.160761 0.260739
    22 0.946167 3.213873 -0.420090 -3.141592 -0.000002 1.413798
    23 1.827063 1.152534 -7.643625 -1.570796 -1.570796 0.000000
  time 18
    0 -0.014662 6.355596 40.958704 -0.000959 0.163212 -1.590019
    1 0.269539 0.167974 0.000000 -0.000025 -1.550124 -1.570793
    2 -0.000007 0.000008 4.427393 -0.159149 3.166122 -0.121474
    3 18.301065 0.000000 0.000000 0.000000 0.000000 -0.310256
    4 17.106758 0.000000 0.000000 0.085524 -0.042956 0.326862
    5 0.000006 -0.000004 -4.427393 0.100254 -3.168225 -0.464943
    6 18.133167 0.000000 0.000000 0.000000 0.000000 -0.295898
    7 17.375956 0.000000 0.000000 0.088192 -0.024335 -0.005532
    8 2.255203 -0.002685 0.042973 0.052365 -0.020542 -0.002288
    9 3.373776 -0.004248 0.000000 -0.017405 0.008109 -0.035378
    10 5.335510 -0.004100 0.000000 0.052317 0.032139 0.052554
    11 5.172566 -0.004197 0.000000 -0.052270 0.037476 0.047724
    12 5.271970 -0.001935 0.000000 0.033725 -0.026295 0.256015
    13 -2.988415 0.889379 2.580849 1.294499 -0.918564 -4.615148
    14 6.063949 0.000000 0.000002 -0.952745 1.191708 -1.151982
    15 7.685221 0.000000 0.000000 0.000000 0.000000 -0.502872
    16 10.246255 0.000000 -0.000003 -1.644101 -0.159767 -0.131306
    17 -3.016280 0.695395 -2.377089 -1.337852 1.243428 -4.730082
    18 6.269507 0.000000 -0.000001 0.855149 -0.791853 -1.318966
    19 8.573802 0.000000 -0.000004 0.000000 0.000000 -0.176685
    20 9.913458 0.000000 0.000003 1.778294 0.141224 -0.077767
    21 2.452246 0.000000 0.000000 -0.015318 -0.163377 0.205520
    22 0.946167 3.213873 -0.420090 -3.141592 -0.000002 1.413798
    23 1.827063 1.152534 -7.643625 -1.570796 -1.570796 0.000000
  time 19
    0 0.036121 6.149906 40.958704 -0.002493 0.154940 -1.592320
    1 0.335948 0.171880 0.000000 -0.000025 -1.544591 -1.570793
    2 -0.000007 0.000008 4.427393 -0.160011 3.158263 -0.093481
    3 18.301065 0.000000 0.000000 0.000000 0.000000 -0.285297
    4 17.106758 0.000000 0.000000 0.083538 -0.042235 0.322035
    5 0.000006 -0.000004 -4.427393 0.097954 -3.174243 -0.460658
    6 18.133167 0.000000 0.000000 0.000000 0.000000 -0.318672
    7 17.375956 0.000000 0.000000 0.085954 -0.022253 0.013060
    8 2.255203 -0.002685 0.058599 0.052489 -0.025788 -0.007903
    9 3.373776 -0.004248 0.000000 -0.017405 0.008121 -0.035026
    10 5.335510 -0.004100 0.000000 0.052317 0.032516 0.045381
    11 5.172566 -0.004197 0.000000 -0.052270 0.037152 0.041718
    12 5.271970 -0.001935 0.000000 0.033725 -0.026295 0.256015
    13 -2.988415 0.889379 2.580849 1.294499 -0.918564 -4.615148
    14 6.063949 0.000000 0.000002 -0.872923 1.183358 -1.044350
    15 7.685221 0.000000 0.000000 0.000000 0.000000 -0.655203
    16 10.246255 0.000000 -0.000003 -1.644101 -0.159767 -0.131306
    17 -3.016280 0.695395 -2.377089 -1.337852 1.243428 -4.730082
    18 6.269507 0.000000 -0.000001 0.843624 -0.807836 -1.297723
    19 8.573802 0.000000 -0.000004 0.000000 0.000000 -0.220094
    20 9.913458 0.000000 0.000003 1.778294 0.141224 -0.077767
    21 2.452246 0.000000 0.000000 -0.003090 -0.155784 0.119978
    22 0.946167 3.213873 -0.420090 -3.141592 -0.000002 1.413798
    23 1.827063 1.152534 -7.643625 -1.570796 -1.570796 0.000000
  time 20
    0 0.227533 5.593331 40.874934 -0.005752 0.142485 -1.596539
    1 0.109378 0.210944 0.000000 -0.000025 -1.539408 -1.570793
    2 -0.000007 0.000008 4.427393 -0.160778 3.147625 -0.065393
    3 18.301065 0.000000 0.000000 0.000000 0.000000 -0.274018
    4 17.106758 0.000000 0.000000 0.080264 -0.036303 0.327487
    5 0.000006 -0.000004 -4.427393 0.095270 -3.184083 -0.456730
    6 18.133167 0.000000 0.000000 0.000000 0.000000 -0.354008
    7 17.375956 0.000000 0.000000 0.081219 -0.014967 0.039172
    8 2.255203 -0.002685 0.070318 0.052179 -0.022356 0.004018
    9 3.373776 -0.004248 0.000000 -0.017405 0.010006 -0.015252
    10 5.335510 -0.004100 0.000000 0.043051 0.020445 0.048947
    11 5.172566 -0.004197 0.000000 -0.041467 0.037296 0.056694
    12 5.271970 -0.001935 0.000000 0.033125 -0.007823 0.318377
    13 -2.980602 1.076884 2.522253 1.283181 -1.003684 -4.696131
    14 6.063949 0.000000 0.000002 -1.056065 0.962721 -1.284595
    15 7.685221 0.000000 0.000000 0.000000 0.000000 -0.680658
    16 10.246255 0.000000 -0.000003 -1.719934 -0.102943 -0.089756
    17 -2.918621 0.878994 -2.431778 -1.508795 1.275839 -4.966018
    18 6.269507 0.000000 -0.000001 1.042977 -0.573919 -1.447252
    19 8.573802 0.000000 -0.000004 0.000000 0.000000 -0.191640
    20 9.913458 0.000000 0.000003 1.783085 0.235740 -0.092451
    21 2.452246 0.000000 0.000000 -0.002301 -0.159835 -0.049556
    22 0.946167 3.213873 -0.420090 -3.141592 -0.000002 1.413798
    23 1.827063 1.152534 -7.643625 -1.570796 -1.570796 0.000000
  time 21
    0 0.497073 4.855265 40.774409 -0.010834 0.124826 -1.603442
    1 -0.195318 0.253914 0.000000 -0.000025 -1.534529 -1.570793
    2 -0.000007 0.000008 4.427393 -0.160874 3.136315 -0.030306
    3 18.301065 0.000000 0.000000 0.000000 0.000000 -0.264995
    4 17.106758 0.000000 0.000000 0.074525 -0.027806 0.337410
    5 0.000006 -0.000004 -4.427393 0.093066 -3.194209 -0.446643
    6 18.133167 0.000000 0.000000 0.000000 0.000000 -0.391758
    7 17.375956 0.000000 0.000000 0.073558 -0.005281 0.068432
    8 2.255203 -0.002685 0.078130 0.051561 -0.017160 0.020818
    9 3.373776 -0.004248 0.000000 -0.017405 0.012267 0.010026
    10 5.335510 -0.004100 0.000000 0.032111 0.006206 0.055403
    11 5.172566 -0.004197 0.000000 -0.028723 0.037140 0.077012
    12 5.271970 -0.001935 0.000000 0.032191 0.015487 0.396812
    13 -2.953257 1.303454 2.444126 1.261211 -1.083193 -4.775493
    14 6.063949 0.000000 0.000002 -1.138663 0.732834 -1.417130
    15 7.685221 0.000000 0.000000 0.000000 0.000000 -0.691596
    16 10.246255 0.000000 -0.000003 -1.784873 -0.050133 -0.056722
    17 -2.777992 1.101657 -2.505999 -1.709791 1.289426 -5.246443
    18 6.269507 0.000000 -0.000001 1.170514 -0.331071 -1.522982
    19 8.573802 0.000000 -0.000004 0.000000 0.000000 -0.162727
    20 9.913458 0.000000 0.000003 1.786402 0.319745 -0.105503
    21 2.452246 0.000000 0.000000 0.001907 -0.164398 -0.241315
    22 0.946167 3.213873 -0.420090 -3.141592 -0.000002 1.413798
    23 1.827063 1.152534 -7.643625 -1.570796 -1.570460 0.000000
  time 22
    0 0.790051 4.068802 40.673885 -0.017257 0.103820 -1.612071
    1 -0.488296 0.292978 0.000000 -0.000025 -1.529938 -1.570793
    2 -0.000007 0.000008 4.427393 -0.160107 3.124335 0.013025
    3 18.301065 0.000000 0.000000 0.000000 0.000000 -0.249058
    4 17.106758 0.000000 0.000000 0.066689 -0.018067 0.345589
    5 0.000006 -0.000004 -4.427393 0.091820 -3.203761 -0.429592
    6 18.133167 0.000000 0.000000 0.000000 0.000000 -0.424885
    7 17.375956 0.000000 0.000000 0.063744 0.005445 0.096576
    8 2.255203 -0.002685 0.089849 0.050819 -0.012478 0.037066
    9 3.373776 -0.004248 0.000000 -0.017405 0.014370 0.034021
    10 5.335510 -0.004100 0.000000 0.022040 -0.006815 0.062249
    11 5.172566 -0.004197 0.000000 -0.016949 0.036541 0.096557
    12 5.271970 -0.001935 0.000000 0.031100 0.038796 0.474892
    13 -2.906381 1.522210 2.373811 1.240953 -1.169457 -4.850562
    14 6.063949 0.000000 0.000002 -1.198120 0.497461 -1.520103
    15 7.685221 0.000000 0.000000 0.000000 0.000000 -0.698954
    16 10.246255 0.000000 -0.000003 -1.848136 0.004014 -0.027785
    17 -2.617831 1.316507 -2.572408 -1.914999 1.288217 -5.531173
    18 6.269507 0.000000 -0.000001 1.283288 -0.088410 -1.565606
    19 8.573802 0.000000 -0.000004 0.000000 0.000000 -0.138108
    20 9.913458 0.000000 0.000003 1.786697 0.403157 -0.117376
    21 2.452246 0.000000 0.000000 0.012097 -0.166025 -0.422004
    22 0.946167 3.213873 -0.420090 -3.141592 -0.000002 1.413798
    23 1.827063 1.152534 -7.643625 -1.570796 -1.570460 0.000000
  time 23
    0 1.059590 3.367034 40.590114 -0.023777 0.082536 -1.620987
    1 -0.750023 0.328135 0.000000 -0.000025 -1.525652 -1.570793
    2 -0.000007 0.000008 4.427393 -0.158286 3.113122 0.057219
    3 18.301065 0.000000 0.000000 0.000000 0.000000 -0.229411
    4 17.106758 0.000000 0.000000 0.057934 -0.008448 0.350639
    5 0.000006 -0.000004 -4.427393 0.091437 -3.212072 -0.409773
    6 18.133167 0.000000 0.000000 0.000000 0.000000 -0.450627
    7 17.375956 0.000000 0.000000 0.053156 0.015363 0.119842
    8 2.255203 -0.002685 0.101569 0.049954 -0.008678 0.051472
    9 3.373776 -0.004248 0.000000 -0.017405 0.016206 0.055128
    10 5.335510 -0.004100 0.000000 0.013224 -0.018096 0.068602
    11 5.172566 -0.004197 0.000000 -0.006706 0.035654 0.113880
    12 5.271970 -0.001935 0.000000 0.029949 0.060229 0.546223
    13 -2.847785 1.713622 2.315216 1.242570 -1.278483 -4.936029
    14 6.063949 0.000000 0.000002 -1.261992 0.239247 -1.621243
    15 7.685221 0.000000 0.000000 0.000000 0.000000 -0.704257
    16 10.246255 0.000000 -0.000003 -1.918606 0.064763 -0.001857
    17 -2.457669 1.507919 -2.623190 -2.130832 1.276718 0.461367
    18 6.269507 0.000000 -0.000001 1.423493 0.157353 -1.582297
    19 8.573802 0.000000 -0.000004 0.000000 0.000000 -0.133659
    20 9.913458 0.000000 0.000003 1.777631 0.494960 -0.125715
    21 2.452246 0.000000 0.000000 0.026297 -0.163313 -0.582579
    22 0.946167 3.213873 -0.420090 -3.141592 -0.000002 1.413798
    23 1.827063 1.152534 -7.643625 -1.570796 -1.570796 0.000000
  time 24
    0 1.251002 2.846758 40.523098 -0.029241 0.064132 -1.628657
    1 -0.968780 0.359386 0.000000 -0.000025 -1.521776 -1.570793
    2 -0.000007 0.000008 4.427393 -0.155985 3.104497 0.089526
    3 18.301065 0.000000 0.000000 0.000000 0.000000 -0.219078
    4 17.106758 0.000000 0.000000 0.049767 -0.000552 0.355600
    5 0.000006 -0.000004 -4.427393 0.091820 -3.218473 -0.393258
    6 18.133167 0.000000 0.000000 0.000000 0.000000 -0.468709
    7 17.375956 0.000000 0.000000 0.043428 0.022620 0.135133
    8 2.255203 -0.002685 0.109381 0.049150 -0.005614 0.063854
    9 3.373776 -0.004248 0.000000 -0.017375 0.017774 0.073219
    10 5.335510 -0.004100 0.000000 0.005695 -0.027649 0.074259
    11 5.172566 -0.004197 0.000000 0.002005 0.034623 0.128717
    12 5.271970 -0.001935 0.000000 0.028847 0.078649 0.607331
    13 -2.785284 1.869877 2.268339 1.286224 -1.391046 -5.045438
    14 6.063949 0.000000 0.000002 -1.284066 0.201014 -1.730022
    15 7.685221 0.000000 0.000000 0.000000 0.000000 -0.666539
    16 10.246255 0.000000 -0.000003 -1.928242 0.035147 -0.031626
    17 -2.309227 1.668081 -2.666160 -2.316419 1.255440 0.210985
    18 6.269507 0.000000 -0.000001 1.551887 0.035223 -1.608713
    19 8.573802 0.000000 -0.000004 0.000000 0.000000 -0.403547
    20 9.913458 0.000000 0.000003 1.683360 0.469784 -0.059368
    21 2.452246 0.000000 0.000000 0.041747 -0.156709 -0.719722
    22 0.946167 3.213873 -0.420090 -3.141592 -0.000002 1.413798
    23 1.827063 1.152534 -7.643625 -1.570796 -1.570460 0.000000
  time 25
    0 1.321317 2.641068 40.489590 -0.032789 0.051678 -1.633643
    1 -1.136753 0.382824 0.000000 -0.000025 -1.518462 -1.570793
    2 -0.000007 0.000008 4.427393 -0.153780 3.100950 0.097099
    3 18.301065 0.000000 0.000000 0.000000 0.000000 -0.232540
    4 17.106758 0.000000 0.000000 0.043293 0.004137 0.364762
    5 0.000006 -0.000004 -4.427393 0.093066 -3.222007 -0.385581
    6 18.133167 0.000000 0.000000 0.000000 0.000000 -0.478371
    7 17.375956 0.000000 0.000000 0.036283 0.025222 0.139654
    8 2.255203 -0.002685 0.117194 0.048470 -0.003604 0.073105
    9 3.373776 -0.004248 0.000000 -0.017345 0.018966 0.086888
    10 5.335510 -0.004100 0.000000 0.000000 -0.034877 0.078502
    11 5.172566 -0.004197 0.000000 0.008669 0.033665 0.139848
    12 5.271970 -0.001935 0.000000 0.027972 0.092206 0.652141
    13 -2.734501 1.983162 2.237088 1.321224 -1.453153 -5.124704
    14 6.063949 0.000000 0.000002 -1.293038 0.162290 -1.781356
    15 7.685221 0.000000 0.000000 0.000000 0.000000 -0.640620
    16 10.246255 0.000000 -0.000003 -1.933269 0.023996 -0.047439
    17 -2.192036 1.781365 -2.689599 -2.395860 1.236030 0.084789
    18 6.269507 0.000000 -0.000001 -1.526428 -3.167874 1.507944
    19 8.573802 0.000000 -0.000004 0.000000 0.000000 -0.465669
    20 9.913458 0.000000 0.000003 1.636261 0.454441 -0.056739
    21 2.452246 0.000000 0.000000 0.054962 -0.148701 -0.823398
    22 0.946167 3.213873 -0.420090 -3.141592 -0.000002 1.413798
    23 1.827063 1.152534 -7.643625 -1.570796 -1.570796 0.000000
end
