version 1
nodes
  0 "Bip01" -1
  1 "Bip01 Pelvis" 0
  2 "Bip01 L Leg" 1
  3 "Bip01 L Leg1" 2
  4 "Bip01 L Foot" 3
  5 "Bip01 R Leg" 1
  6 "Bip01 R Leg1" 5
  7 "Bip01 R Foot" 6
  8 "Bip01 Spine" 1
  9 "Bip01 Spine1" 8
  10 "Bip01 Spine2" 9
  11 "Bip01 Spine3" 10
  12 "Bip01 Neck" 11
  13 "Bip01 L Arm" 12
  14 "Bip01 L Arm1" 13
  15 "Bip01 L Arm2" 14
  16 "Bip01 L Hand" 15
  17 "Bip01 R Arm" 12
  18 "Bip01 R Arm1" 17
  19 "Bip01 R Arm2" 18
  20 "Bip01 R Hand" 19
  21 "Bip01 Head" 12
  22 "Bone05" 21
  23 "Bone03" 1
end
skeleton
  time 0
    0 1.727579 6.791176 40.724147 0.000000 0.000000 -1.701715
    1 0.000000 0.000000 0.000000 -1.570795 -1.570796 0.000000
    2 -0.000007 0.000008 4.427393 -0.170941 3.132578 -0.013434
    3 18.301065 0.000000 0.000000 0.000000 0.000000 -0.414314
    4 17.106758 0.000000 0.000000 0.018462 0.017483 0.385277
    5 0.000006 -0.000004 -4.427393 0.105430 -3.188859 -0.375582
    6 18.133167 0.000000 0.000000 0.000000 0.000000 -0.392656
    7 17.375956 0.000000 0.000000 -0.002024 0.005069 0.014330
    8 2.255203 -0.002685 0.000003 0.139544 -0.000099 0.000796
    9 3.373776 -0.004248 0.000000 -0.017436 -0.017422 0.000302
    10 5.335510 -0.004100 0.000000 0.017407 0.000438 -0.026150
    11 5.172566 -0.004197 0.000000 -0.026157 -0.000431 -0.017444
    12 5.271970 -0.001935 0.000000 0.000024 0.043606 0.335253
    13 -3.089980 1.041727 2.401156 -0.875956 -1.358599 -2.606395
    14 6.063949 0.000000 0.000002 0.688690 1.101734 0.397655
    15 7.685221 0.000000 0.000000 0.000000 0.000000 -0.470457
    16 10.246255 0.000000 -0.000003 -1.516737 0.060927 0.003137
    17 -2.774085 1.007904 -2.548969 1.160442 1.415262 -2.327861
    18 6.269507 0.000000 -0.000001 -0.534422 -1.198292 0.213636
    19 8.573802 0.000000 -0.000004 0.000000 0.000000 -0.234206
    20 9.913458 0.000000 0.000003 1.546560 0.097060 -0.254240
    21 2.452246 0.000000 0.000000 0.000855 -0.008359 -0.101243
    22 0.946167 3.213873 -0.420090 -3.141592 -0.000002 1.413798
    23 1.827063 1.152534 -7.643625 -1.570796 -1.570796 0.000000
  time 1
    0 1.727579 6.791176 40.925196 0.008725 0.000000 -1.701715
    1 0.000000 0.000000 0.000000 -0.000025 -1.669034 -1.570793
    2 -0.000007 0.000008 4.427393 -0.169503 3.226597 -0.035195
    3 18.301065 0.000000 0.000000 0.000000 0.000000 -0.461904
    4 17.106758 0.000000 0.000000 0.020080 0.016722 0.410887
    5 0.000006 -0.000004 -4.427393 0.195045 -3.093140 -0.248638
    6 18.133167 0.000000 0.000000 0.000000 0.000000 -0.139442
    7 17.375956 0.000000 0.000000 -0.063661 -0.005946 -0.111958
    8 2.247390 -0.002685 -0.218754 0.098613 0.050396 -0.003945
    9 3.373776 -0.004248 0.000000 -0.012819 -0.035962 0.000452
    10 5.335510 -0.004100 0.000000 -0.005727 -0.014043 -0.026068
    11 5.172566 -0.004197 0.000000 -0.035429 -0.014477 -0.016950
    12 5.271970 -0.001935 0.000000 0.000024 0.043606 0.335253
    13 -3.089980 1.041727 2.401156 -1.449171 -1.407055 -2.023676
    14 6.063949 0.000000 0.000002 0.891129 0.959938 0.713526
    15 7.685221 0.000000 0.000000 0.000000 0.000000 -0.835906
    16 10.246255 0.000000 -0.000003 -1.516737 0.060927 0.003137
    17 -2.774085 1.007904 -2.548969 -1.332492 1.717473 -4.813894
    18 6.269507 0.000000 -0.000001 -0.951131 -1.129283 0.599322
    19 8.573802 0.000000 -0.000004 0.000000 0.000000 -0.628031
    20 9.913458 0.000000 0.000003 1.546560 0.097060 -0.254240
    21 2.452246 0.000000 0.000000 -0.038986 0.055416 -0.271595
    22 0.946167 3.213873 -0.420090 -3.141592 -0.000002 1.413798
    23 1.827063 1.152534 -7.643625 -1.570796 -1.570796 0.000000
  time 2
    0 1.727579 6.791176 40.724147 0.022147 0.000000 -1.701715
    1 0.000000 0.000000 0.000000 -0.000025 -1.727781 -1.570793
    2 -0.000007 0.000008 4.427393 -0.164613 3.279884 -0.076609
    3 18.301065 0.000000 0.000000 0.000000 0.000000 -0.552718
    4 17.106758 0.000000 0.000000 0.022398 0.015800 0.460140
    5 0.000006 -0.000004 -4.427393 -0.199931 -3.021494 -0.253280
    6 18.133167 0.000000 0.000000 0.000000 0.000000 -0.147172
    7 17.375956 0.000000 0.000000 0.337408 0.067435 -0.095499
    8 2.227858 -0.002685 -0.351570 0.051870 0.078561 -0.003300
    9 3.373776 -0.004248 0.000000 -0.008748 -0.052314 0.000452
    10 5.335510 -0.004100 0.000000 -0.026159 -0.026809 -0.025453
    11 5.172566 -0.004197 0.000000 -0.043623 -0.026857 -0.016302
    12 5.271970 -0.001935 0.000000 0.000024 0.043606 0.335253
    13 -3.089980 1.041727 2.401156 1.296686 -1.739637 -4.764142
    14 6.063949 0.000000 0.000002 0.991101 0.797101 0.930013
    15 7.685221 0.000000 0.000000 0.000000 0.000000 -1.176364
    16 10.246255 0.000000 -0.000003 -1.516737 0.060927 0.003137
    17 -2.774085 1.007904 -2.548969 2.268987 1.384279 -1.206257
    18 6.269507 0.000000 -0.000001 -1.230493 -1.069864 0.806372
    19 8.573802 0.000000 -0.000004 0.000000 0.000000 -0.932278
    20 9.913458 0.000000 0.000003 1.546560 0.097060 -0.254240
    21 2.452246 0.000000 0.000000 -0.075277 0.111247 -0.331595
    22 0.946167 3.213873 -0.420090 -3.141592 -0.000002 1.413798
    23 1.827063 1.152534 -7.643625 -1.570796 -1.570796 0.000000
  time 3
    0 0.684579 6.791176 39.702148 0.036336 0.000000 -1.701715
    1 0.000000 0.000000 0.000000 -0.000025 -1.659093 -1.570793
    2 -0.000007 0.000008 4.427393 -0.160778 3.235510 -0.126267
    3 18.301065 0.000000 0.000000 0.000000 0.000000 -0.674312
    4 17.106758 0.000000 0.000000 0.019565 -0.014259 0.525751
    5 0.000006 -0.000004 -4.427393 0.023675 -3.091898 -0.470835
    6 18.133167 0.000000 0.000000 0.000000 0.000000 -0.583618
    7 17.375956 0.000000 0.000000 0.114706 -0.003200 0.113441
    8 2.247390 -0.002685 -0.195315 0.010012 0.038508 0.031681
    9 3.373776 -0.004248 0.000000 -0.008748 -0.051864 0.052590
    10 5.335510 -0.004100 0.000000 -0.026191 -0.025629 0.019699
    11 5.172566 -0.004197 0.000000 -0.043580 -0.023981 0.049685
    12 5.271970 -0.001935 0.000000 -0.000012 -0.022411 0.387393
    13 -2.867317 1.194075 2.592568 1.423465 -1.712085 -4.954820
    14 6.063949 0.000000 0.000002 0.827186 0.895753 0.863478
    15 7.685221 0.000000 0.000000 0.000000 0.000000 -1.276725
    16 10.246255 0.000000 -0.000003 -1.516737 0.060927 0.003137
    17 -2.879557 1.156346 -2.365370 -2.315940 1.484919 0.434100
    18 6.269507 0.000000 -0.000001 -1.096956 -1.279900 0.885827
    19 8.573802 0.000000 -0.000004 0.000000 0.000000 -0.880586
    20 9.913458 0.000000 0.000003 1.546560 0.097060 -0.254240
    21 2.452246 0.000000 0.000000 -0.056737 0.164812 -0.323799
    22 0.946167 3.213873 -0.420090 -3.141592 -0.000002 1.413798
    23 1.827063 1.152534 -7.643625 -1.570796 -1.570796 0.000000
  time 4
    0 -0.670932 6.791176 38.479100 0.047649 0.000000 -1.701715
    1 0.000000 0.000000 0.000000 -0.000025 -1.560718 -1.570793
    2 -0.000007 0.000008 4.427393 -0.161641 3.174364 -0.167489
    3 18.301065 0.000000 0.000000 0.000000 0.000000 -0.781790
    4 17.106758 0.000000 0.000000 0.014084 -0.055822 0.584211
    5 0.000006 -0.000004 -4.427393 -0.090955 -3.114156 -0.603850
    6 18.133167 0.000000 0.000000 0.000000 0.000000 -0.852773
    7 17.375956 0.000000 0.000000 0.203804 -0.028499 0.243692
    8 2.255203 -0.002685 0.019535 -0.029929 -0.014390 0.066523
    9 3.373776 -0.004248 0.000000 -0.008718 -0.051365 0.109728
    10 5.335510 -0.004100 0.000000 -0.026126 -0.024339 0.069217
    11 5.172566 -0.004197 0.000000 -0.043300 -0.020841 0.122001
    12 5.271970 -0.001935 0.000000 -0.000072 -0.094822 0.444547
    13 -2.597778 1.362049 2.787886 -1.225097 -1.457012 -2.374891
    14 6.063949 0.000000 0.000002 0.549910 1.012579 0.633546
    15 7.685221 0.000000 0.000000 0.000000 0.000000 -1.308875
    16 10.246255 0.000000 -0.000003 -1.516737 0.060927 0.003137
    17 -2.973310 1.316507 -2.158332 -1.536838 1.272653 -5.150289
    18 6.269507 0.000000 -0.000001 0.147172 -1.475175 -0.127908
    19 8.573802 0.000000 -0.000004 0.000000 0.000000 -0.731645
    20 9.913458 0.000000 0.000003 1.546560 0.097060 -0.254240
    21 2.452246 0.000000 0.000000 -0.024720 0.195089 -0.280468
    22 0.946167 3.213873 -0.420090 -3.141592 -0.000002 1.413798
    23 1.827063 1.152534 -7.643625 -1.570796 -1.570796 0.000000
  time 5
    0 -1.752996 6.791176 37.507363 0.052251 0.000000 -1.701715
    1 0.000000 0.000000 0.000000 -0.000025 -1.501028 -1.570793
    2 -0.000007 0.000008 4.427393 -0.159149 3.149637 -0.198837
    3 18.301065 0.000000 0.000000 0.000000 0.000000 -0.864600
    4 17.106758 0.000000 0.000000 0.007941 -0.090931 0.630201
    5 0.000006 -0.000004 -4.427393 0.019649 -3.196692 -0.681338
    6 18.133167 0.000000 0.000000 0.000000 0.000000 -1.001844
    7 17.375956 0.000000 0.000000 0.063056 -0.091558 0.325328
    8 2.251297 -0.002685 0.156258 -0.040255 -0.049344 0.078721
    9 3.373776 -0.004248 0.000000 -0.008688 -0.051183 0.131261
    10 5.335510 -0.004100 0.000000 -0.026062 -0.023852 0.087889
    11 5.172566 -0.004197 0.000000 -0.043149 -0.019667 0.149266
    12 5.271970 -0.001935 0.000000 -0.000096 -0.122096 0.466117
    13 -2.492306 1.420645 2.854295 -0.730061 -1.431641 -2.896371
    14 6.063949 0.000000 0.000002 0.408709 1.023140 0.483288
    15 7.685221 0.000000 0.000000 0.000000 0.000000 -1.322530
    16 10.246255 0.000000 -0.000003 -1.516737 0.060927 0.003137
    17 -3.004561 1.375103 -2.080205 -1.486876 1.086426 -5.144931
    18 6.269507 0.000000 -0.000001 1.343961 -1.404097 -1.171024
    19 8.573802 0.000000 -0.000004 0.000000 0.000000 -0.581094
    20 9.913458 0.000000 0.000003 1.546560 0.097060 -0.254240
    21 2.452246 0.000000 0.000000 -0.003287 0.196237 -0.240669
    22 0.946167 3.213873 -0.420090 -3.141592 -0.000002 1.413798
    23 1.827063 1.152534 -7.643625 -1.570796 -1.570796 0.000000
  time 6
    0 -1.370172 6.791176 36.870708 0.047649 0.000000 -1.701715
    1 0.000000 0.000000 0.000000 -0.000025 -1.520150 -1.570793
    2 -0.000007 0.000008 4.427393 -0.155505 3.169093 -0.241114
    3 18.301065 0.000000 0.000000 0.000000 0.000000 -0.961308
    4 17.106758 0.000000 0.000000 0.007536 -0.080431 0.685890
    5 0.000006 -0.000004 -4.427393 -0.011980 -3.165455 -0.715976
    6 18.133167 0.000000 0.000000 0.000000 0.000000 -1.063129
    7 17.375956 0.000000 0.000000 0.106787 -0.072447 0.347883
    8 2.255203 -0.002685 0.113288 -0.012184 -0.029122 0.070022
    9 3.373776 -0.004248 0.000000 -0.010297 -0.044691 0.116135
    10 5.335510 -0.004100 0.000000 -0.018083 -0.019982 0.074464
    11 5.172566 -0.004197 0.000000 -0.040065 -0.016095 0.129828
    12 5.271970 -0.001935 0.000000 -0.000072 -0.102909 0.450944
    13 -2.566527 1.377675 2.807418 -0.992558 -1.447864 -2.615933
    14 6.063949 0.000000 0.000002 0.594414 1.052695 0.610476
    15 7.685221 0.000000 0.000000 0.000000 0.000000 -1.322663
    16 10.246255 0.000000 -0.000003 -1.516737 0.060927 0.003137
    17 -2.981123 1.332133 -2.134894 -1.459502 1.121474 -5.087239
    18 6.269507 0.000000 -0.000001 1.274049 -1.399397 -1.131503
    19 8.573802 0.000000 -0.000004 0.000000 0.000000 -0.481622
    20 9.913458 0.000000 0.000003 1.546560 0.097060 -0.254240
    21 2.452246 0.000000 0.000000 0.006377 0.168545 -0.207029
    22 0.946167 3.213873 -0.420090 -3.141592 -0.000002 1.413798
    23 1.827063 1.152534 -7.643625 -1.570796 -1.570796 0.000000
  time 7
    0 -1.210011 6.791176 36.468610 0.036336 0.000000 -1.701715
    1 0.000000 0.000000 0.000000 -0.000025 -1.576998 -1.570793
    2 -0.000007 0.000008 4.427393 -0.134221 3.234935 -0.277543
    3 18.301065 0.000000 0.000000 0.000000 0.000000 -1.044918
    4 17.106758 0.000000 0.000000 0.004483 -0.075982 0.734785
    5 0.000006 -0.000004 -4.427393 0.089616 -3.151985 -0.721511
    6 18.133167 0.000000 0.000000 0.000000 0.000000 -1.075896
    7 17.375956 0.000000 0.000000 0.038952 -0.081468 0.358043
    8 2.255203 -0.002685 -0.011716 0.032642 0.021276 0.052255
    9 3.373776 -0.004248 0.000000 -0.012363 -0.036606 0.085380
    10 5.335510 -0.004100 0.000000 -0.007819 -0.014786 0.047553
    11 5.172566 -0.004197 0.000000 -0.036141 -0.011865 0.090598
    12 5.271970 -0.001935 0.000000 -0.000048 -0.063955 0.420181
    13 -2.714969 1.291735 2.705853 1.394267 -1.694647 -4.963501
    14 6.063949 0.000000 0.000002 0.917332 1.089863 0.839874
    15 7.685221 0.000000 0.000000 0.000000 0.000000 -1.264329
    16 10.246255 0.000000 -0.000003 -1.516737 0.060927 0.003137
    17 -2.938153 1.246193 -2.248179 -1.362258 1.295359 -4.933775
    18 6.269507 0.000000 -0.000001 0.679321 -1.427038 -0.681882
    19 8.573802 0.000000 -0.000004 0.000000 0.000000 -0.408149
    20 9.913458 0.000000 0.000003 1.546560 0.097060 -0.254240
    21 2.452246 0.000000 0.000000 0.012097 0.126050 -0.173174
    22 0.946167 3.213873 -0.420090 -3.141592 -0.000002 1.413798
    23 1.827063 1.152534 -7.643625 -1.570796 -1.570796 0.000000
  time 8
    0 -0.799842 6.791176 36.602642 0.022147 0.000000 -1.701715
    1 0.000000 0.000000 0.000000 -0.000025 -1.623114 -1.570793
    2 -0.000007 0.000008 4.427393 -0.118594 3.280363 -0.288184
    3 18.301065 0.000000 0.000000 0.000000 0.000000 -1.062382
    4 17.106758 0.000000 0.000000 0.002459 -0.062355 0.745512
    5 0.000006 -0.000004 -4.427393 0.096133 -3.102120 -0.701782
    6 18.133167 0.000000 0.000000 0.000000 0.000000 -1.033176
    7 17.375956 0.000000 0.000000 0.065294 -0.062096 0.334015
    8 2.255203 -0.002685 -0.117188 0.076787 0.060177 0.032187
    9 3.373776 -0.004248 0.000000 -0.014429 -0.028789 0.051560
    10 5.335510 -0.004100 0.000000 0.002284 -0.009115 0.018162
    11 5.172566 -0.004197 0.000000 -0.032173 -0.007514 0.047616
    12 5.271970 -0.001935 0.000000 -0.000012 -0.021169 0.386429
    13 -2.871224 1.194075 2.588662 -0.380159 -1.545276 -3.149051
    14 6.063949 0.000000 0.000002 0.866776 1.092647 0.839186
    15 7.685221 0.000000 0.000000 0.000000 0.000000 -0.997053
    16 10.246255 0.000000 -0.000003 -1.516737 0.060927 0.003137
    17 -2.879557 1.152440 -2.369276 -1.245680 1.389003 -4.772945
    18 6.269507 0.000000 -0.000001 -0.489560 -1.429482 0.418894
    19 8.573802 0.000000 -0.000004 0.000000 0.000000 -0.463215
    20 9.913458 0.000000 0.000003 1.546560 0.097060 -0.254240
    21 2.452246 0.000000 0.000000 0.010979 0.077142 -0.143540
    22 0.946167 3.213873 -0.420090 -3.141592 -0.000002 1.413798
    23 1.827063 1.152534 -7.643625 -1.570796 -1.570796 0.000000
  time 9
    0 0.641608 6.791176 38.479100 0.008725 0.000000 -1.701715
    1 0.000000 0.000000 0.000000 -0.000025 -1.606577 -1.570793
    2 -0.000007 0.000008 4.427393 -0.147644 3.220080 -0.199317
    3 18.301065 0.000000 0.000000 0.000000 0.000000 -0.841314
    4 17.106758 0.000000 0.000000 0.008529 -0.014139 0.619296
    5 0.000006 -0.000004 -4.427393 0.153352 -3.170613 -0.579301
    6 18.133167 0.000000 0.000000 0.000000 0.000000 -0.801565
    7 17.375956 0.000000 0.000000 -0.030777 -0.032951 0.220375
    8 2.255203 -0.002685 -0.078124 0.113575 0.038189 0.013638
    9 3.373776 -0.004248 0.000000 -0.016190 -0.022114 0.021157
    10 5.335510 -0.004100 0.000000 0.011133 -0.003687 -0.008155
    11 5.172566 -0.004197 0.000000 -0.028680 -0.003488 0.009018
    12 5.271970 -0.001935 0.000000 0.000012 0.017231 0.356084
    13 -3.004040 1.104229 2.479283 -0.785128 -1.445827 -2.715803
    14 6.063949 0.000000 0.000002 0.756194 1.097313 0.587712
    15 7.685221 0.000000 0.000000 0.000000 0.000000 -0.691132
    16 10.246255 0.000000 -0.000003 -1.516737 0.060927 0.003137
    17 -2.820962 1.066500 -2.474748 0.496005 1.501509 -3.004096
    18 6.269507 0.000000 -0.000001 -0.822642 -1.332268 0.580975
    19 8.573802 0.000000 -0.000004 0.000000 0.000000 -0.419116
    20 9.913458 0.000000 0.000003 1.546560 0.097060 -0.254240
    21 2.452246 0.000000 0.000000 0.005654 0.028585 -0.119118
    22 0.946167 3.213873 -0.420090 -3.141592 -0.000002 1.413798
    23 1.827063 1.152534 -7.643625 -1.570796 -1.570796 0.000000
  time 10
    0 1.727579 6.791176 40.724147 0.000000 0.000000 -1.701715
    1 0.000000 0.000000 0.000000 -1.570795 -1.570796 0.000000
    2 -0.000007 0.000008 4.427393 -0.169119 3.132194 -0.013529
    3 18.301065 0.000000 0.000000 0.000000 0.000000 -0.414314
    4 17.106758 0.000000 0.000000 0.016696 0.017804 0.385232
    5 0.000006 -0.000004 -4.427393 0.105047 -3.188764 -0.375582
    6 18.133167 0.000000 0.000000 0.000000 0.000000 -0.392656
    7 17.375956 0.000000 0.000000 -0.001594 0.005156 0.014330
    8 2.255203 -0.002685 0.000003 0.139544 -0.000099 0.000796
    9 3.373776 -0.004248 0.000000 -0.017436 -0.017422 0.000302
    10 5.335510 -0.004100 0.000000 0.017407 0.000438 -0.026150
    11 5.172566 -0.004197 0.000000 -0.026157 -0.000431 -0.017444
    12 5.271970 -0.001935 0.000000 0.000024 0.043606 0.335253
    13 -3.089980 1.041727 2.401156 -0.875956 -1.358599 -2.606395
    14 6.063949 0.000000 0.000002 0.688690 1.101734 0.397655
    15 7.685221 0.000000 0.000000 0.000000 0.000000 -0.470457
    16 10.246255 0.000000 -0.000003 -1.516737 0.060927 0.003137
    17 -2.774085 1.007904 -2.548969 1.160442 1.415262 -2.327861
    18 6.269507 0.000000 -0.000001 -0.534422 -1.198292 0.213636
    19 8.573802 0.000000 -0.000004 0.000000 0.000000 -0.234206
    20 9.913458 0.000000 0.000003 1.546560 0.097060 -0.254240
    21 2.452246 0.000000 0.000000 0.000855 -0.008359 -0.101243
    22 0.946167 3.213873 -0.420090 -3.141592 -0.000002 1.413798
    23 1.827063 1.152534 -7.643625 -1.570796 -1.570796 0.000000
end
