version 1
nodes
  0 "Bip01" -1
  1 "Bip01 Pelvis" 0
  2 "Bip01 L Leg" 1
  3 "Bip01 L Leg1" 2
  4 "Bip01 L Foot" 3
  5 "Bip01 R Leg" 1
  6 "Bip01 R Leg1" 5
  7 "Bip01 R Foot" 6
  8 "Bip01 Spine" 1
  9 "Bip01 Spine1" 8
  10 "Bip01 Spine2" 9
  11 "Bip01 Spine3" 10
  12 "Bip01 Neck" 11
  13 "Bip01 L Arm" 12
  14 "Bip01 L Arm1" 13
  15 "Bip01 L Arm2" 14
  16 "Bip01 L Hand" 15
  17 "Bip01 R Arm" 12
  18 "Bip01 R Arm1" 17
  19 "Bip01 R Arm2" 18
  20 "Bip01 R Hand" 19
  21 "Bip01 Head" 12
  22 "Bone05" 21
  23 "Bone03" 1
end
skeleton
  time 0
    0 1.278347 6.972668 40.238278 -0.032789 -0.017938 -1.631342
    1 1.089877 0.480483 0.000000 -0.000025 -1.518462 -1.570793
    2 -0.000007 0.000008 4.427393 -0.159532 3.126156 -0.008161
    3 18.301065 0.000000 0.000000 0.000000 0.000000 -0.480387
    4 17.106758 0.000000 0.000000 0.047855 0.006622 0.435960
    5 0.000006 -0.000004 -4.427393 0.091820 -3.215989 -0.379867
    6 18.133167 0.000000 0.000000 0.000000 0.000000 -0.485411
    7 17.375956 0.000000 0.000000 0.040760 0.012818 0.083774
    8 2.255203 -0.002685 0.117194 0.054467 0.002205 -0.039938
    9 3.373776 -0.004248 0.000000 -0.017405 0.016692 -0.043896
    10 5.335510 -0.004100 0.000000 0.000000 -0.034877 -0.078497
    11 5.172566 -0.004197 0.000000 0.008712 0.035558 -0.078181
    12 5.271970 -0.001935 0.000000 0.033761 0.103543 0.286586
    13 -3.273580 0.967506 2.174586 2.182901 -1.471592 -5.621193
    14 6.063949 0.000000 0.000002 -1.094231 0.462339 -1.644160
    15 7.685221 0.000000 0.000000 0.000000 0.000000 -1.259357
    16 10.246255 0.000000 -0.000003 -1.796771 0.278945 -0.055185
    17 -2.660801 0.773522 -2.744288 3.391124 1.188420 -0.043225
    18 6.269507 0.000000 -0.000001 1.394632 0.150395 -1.693272
    19 8.573802 0.000000 -0.000004 0.000000 0.000000 -0.379465
    20 9.913458 0.000000 0.000003 1.846989 0.525901 0.016405
    21 2.452246 0.000000 0.000000 0.014135 -0.168832 -0.286283
    22 0.946167 3.213873 -0.420090 -3.141592 -0.000002 1.413798
    23 1.827063 1.152534 -7.643625 -1.570796 -1.570796 0.000000
  time 1
    0 1.278347 6.996866 40.171262 -0.032789 -0.021563 -1.631246
    1 1.128941 0.480483 0.000000 -0.000025 -1.508932 -1.570793
    2 -0.000007 0.000008 4.427393 -0.159436 3.116668 -0.005189
    3 18.301065 0.000000 0.000000 0.000000 0.000000 -0.482497
    4 17.106758 0.000000 0.000000 0.047891 0.006622 0.437480
    5 0.000006 -0.000004 -4.427393 0.087411 -3.226115 -0.387455
    6 18.133167 0.000000 0.000000 0.000000 0.000000 -0.507702
    7 17.375956 0.000000 0.000000 0.040760 0.013021 0.095153
    8 2.251297 -0.002685 0.136726 0.055024 -0.007159 -0.042700
    9 3.373776 -0.004248 0.000000 -0.017405 0.016644 -0.046509
    10 5.335510 -0.004100 0.000000 0.000000 -0.034877 -0.080936
    11 5.172566 -0.004197 0.000000 0.008712 0.035558 -0.078181
    12 5.271970 -0.001935 0.000000 0.033952 0.104231 0.266238
    13 -3.289205 0.908910 2.170680 2.254327 -1.481347 -5.670508
    14 6.063949 0.000000 0.000002 -1.102064 0.446948 -1.667688
    15 7.685221 0.000000 0.000000 0.000000 0.000000 -1.212756
    16 10.246255 0.000000 -0.000003 -1.801631 0.283763 -0.079001
    17 -2.676426 0.711020 -2.744288 3.314075 1.193730 -0.097378
    18 6.269507 0.000000 -0.000001 1.386632 0.302798 -1.746310
    19 8.573802 0.000000 -0.000004 0.000000 0.000000 -0.074451
    20 9.913458 0.000000 0.000003 1.852738 0.523103 -0.127437
    21 2.452246 0.000000 0.000000 0.010716 -0.169406 -0.257682
    22 0.946167 3.213873 -0.420090 -3.141592 -0.000002 1.413798
    23 1.827063 1.152534 -7.643625 -1.570796 -1.570796 0.000000
  time 2
    0 1.290066 7.069463 40.087492 -0.032789 -0.027233 -1.631054
    1 1.183630 0.484390 0.000000 -0.000025 -1.493823 -1.570793
    2 -0.000007 0.000008 4.427393 -0.159340 3.101813 -0.002217
    3 18.301065 0.000000 0.000000 0.000000 0.000000 -0.486645
    4 17.106758 0.000000 0.000000 0.048002 0.006822 0.438999
    5 0.000006 -0.000004 -4.427393 0.080319 -3.241877 -0.398614
    6 18.133167 0.000000 0.000000 0.000000 0.000000 -0.538483
    7 17.375956 0.000000 0.000000 0.040760 0.013310 0.109631
    8 2.251297 -0.002685 0.171883 0.055889 -0.022062 -0.046198
    9 3.373776 -0.004248 0.000000 -0.017405 0.016595 -0.049675
    10 5.335510 -0.004100 0.000000 0.000000 -0.034877 -0.083764
    11 5.172566 -0.004197 0.000000 0.008712 0.035558 -0.078181
    12 5.271970 -0.001935 0.000000 0.034168 0.105050 0.241582
    13 -3.312643 0.830783 2.170680 2.396323 -1.494641 0.497877
    14 6.063949 0.000000 0.000002 -1.003159 0.665701 -1.634764
    15 7.685221 0.000000 0.000000 0.000000 0.000000 -1.563423
    16 10.246255 0.000000 -0.000003 -1.796771 0.278945 -0.055185
    17 -2.692052 0.640705 -2.748194 3.210801 1.197503 -0.172866
    18 6.269507 0.000000 -0.000001 1.368154 -0.280677 -1.737551
    19 8.573802 0.000000 -0.000004 0.000000 0.000000 -1.088274
    20 9.913458 0.000000 0.000003 1.537199 0.587951 -0.557787
    21 2.452246 0.000000 0.000000 0.006640 -0.169981 -0.223095
    22 0.946167 3.213873 -0.420090 -3.141592 -0.000002 1.413798
    23 1.827063 1.152534 -7.643625 -1.570796 -1.570796 0.000000
  time 3
    0 1.301785 7.166259 39.986967 -0.032789 -0.033553 -1.630766
    1 1.242225 0.484390 0.000000 -0.000025 -1.476830 -1.570793
    2 -0.000007 0.000008 4.427393 -0.159149 3.085233 0.000275
    3 18.301065 0.000000 0.000000 0.000000 0.000000 -0.492466
    4 17.106758 0.000000 0.000000 0.048112 0.007183 0.440877
    5 0.000006 -0.000004 -4.427393 0.071980 -3.259359 -0.410666
    6 18.133167 0.000000 0.000000 0.000000 0.000000 -0.570988
    7 17.375956 0.000000 0.000000 0.040760 0.013657 0.124414
    8 2.247390 -0.002685 0.210947 0.057064 -0.038804 -0.050295
    9 3.373776 -0.004248 0.000000 -0.017405 0.016522 -0.053369
    10 5.335510 -0.004100 0.000000 0.000000 -0.034877 -0.087085
    11 5.172566 -0.004197 0.000000 0.008712 0.035558 -0.078181
    12 5.271970 -0.001935 0.000000 0.034408 0.106054 0.212684
    13 -3.336082 0.744843 2.166774 -3.551719 -1.510400 0.195787
    14 6.063949 0.000000 0.000002 -1.023524 0.636965 -1.676244
    15 7.685221 0.000000 0.000000 0.000000 0.000000 -1.537172
    16 10.246255 0.000000 -0.000003 -1.796771 0.278945 -0.055185
    17 -2.711583 0.550859 -2.748194 3.102167 1.197356 -0.249310
    18 6.269507 0.000000 -0.000001 1.371868 -0.272685 -1.772036
    19 8.573802 0.000000 -0.000004 0.000000 0.000000 -1.090498
    20 9.913458 0.000000 0.000003 1.436295 0.578457 -0.762448
    21 2.452246 0.000000 0.000000 0.001841 -0.170523 -0.182564
    22 0.946167 3.213873 -0.420090 -3.141592 -0.000002 1.413798
    23 1.827063 1.152534 -7.643625 -1.570796 -1.570796 0.000000
  time 4
    0 1.313504 7.275154 39.886443 -0.032789 -0.039223 -1.630671
    1 1.316446 0.488296 0.000000 -0.000025 -1.461843 -1.570793
    2 -0.000007 0.000008 4.427393 -0.158957 3.070569 0.001426
    3 18.301065 0.000000 0.000000 0.000000 0.000000 -0.499816
    4 17.106758 0.000000 0.000000 0.048222 0.007504 0.443737
    5 0.000006 -0.000004 -4.427393 0.064313 -3.274739 -0.421736
    6 18.133167 0.000000 0.000000 0.000000 0.000000 -0.600112
    7 17.375956 0.000000 0.000000 0.040760 0.014033 0.137622
    8 2.243484 -0.002685 0.242198 0.058362 -0.053487 -0.055266
    9 3.373776 -0.004248 0.000000 -0.017375 0.016449 -0.057967
    10 5.335510 -0.004100 0.000000 0.000000 -0.034877 -0.091348
    11 5.172566 -0.004197 0.000000 0.008712 0.035558 -0.078181
    12 5.271970 -0.001935 0.000000 0.034647 0.107270 0.176842
    13 -3.359520 0.631558 2.162867 -3.182891 -1.516081 -0.133966
    14 6.063949 0.000000 0.000002 -1.049443 0.599306 -1.716348
    15 7.685221 0.000000 0.000000 0.000000 0.000000 -1.487058
    16 10.246255 0.000000 -0.000003 -1.796771 0.278945 -0.055185
    17 -2.727209 0.445387 -2.752101 2.999563 1.193254 -0.312935
    18 6.269507 0.000000 -0.000001 1.379107 -0.212702 -1.809350
    19 8.573802 0.000000 -0.000004 0.000000 0.000000 -0.996931
    20 9.913458 0.000000 0.000003 1.535062 0.592274 -0.621052
    21 2.452246 0.000000 0.000000 -0.004142 -0.170906 -0.132212
    22 0.946167 3.213873 -0.420090 -3.141592 -0.000002 1.413798
    23 1.827063 1.152534 -7.643625 -1.570796 -1.570796 0.000000
  time 5
    0 1.321317 7.371949 39.802672 -0.032789 -0.042848 -1.630479
    1 1.410199 0.492203 0.000000 -0.000025 -1.451978 -1.570793
    2 -0.000007 0.000008 4.427393 -0.158861 3.061177 0.001426
    3 18.301065 0.000000 0.000000 0.000000 0.000000 -0.507311
    4 17.106758 0.000000 0.000000 0.048296 0.007624 0.447581
    5 0.000006 -0.000004 -4.427393 0.058850 -3.284865 -0.430038
    6 18.133167 0.000000 0.000000 0.000000 0.000000 -0.621921
    7 17.375956 0.000000 0.000000 0.040760 0.014379 0.148087
    8 2.239578 -0.002685 0.265636 0.059537 -0.062998 -0.061065
    9 3.373776 -0.004248 0.000000 -0.017375 0.016340 -0.063746
    10 5.335510 -0.004100 0.000000 0.000000 -0.034877 -0.097128
    11 5.172566 -0.004197 0.000000 0.008712 0.035558 -0.078181
    12 5.271970 -0.001935 0.000000 0.034887 0.108802 0.132545
    13 -3.382958 0.494835 2.162867 -2.853438 -1.514581 -0.416216
    14 6.063949 0.000000 0.000002 -1.076572 0.561237 -1.754161
    15 7.685221 0.000000 0.000000 0.000000 0.000000 -1.430183
    16 10.246255 0.000000 -0.000003 -1.796771 0.278945 -0.055185
    17 -2.746741 0.312570 -2.752101 2.915718 1.186845 -0.349674
    18 6.269507 0.000000 -0.000001 1.386441 -0.162308 -1.840662
    19 8.573802 0.000000 -0.000004 0.000000 0.000000 -0.908196
    20 9.913458 0.000000 0.000003 1.639799 0.593376 -0.465699
    21 2.452246 0.000000 0.000000 -0.011637 -0.171002 -0.069670
    22 0.946167 3.213873 -0.420090 -3.141592 -0.000002 1.413798
    23 1.827063 1.152534 -7.643625 -1.570796 -1.570796 0.000000
  time 6
    0 1.325223 7.444546 39.752410 -0.032789 -0.044149 -1.630479
    1 1.503952 0.496109 0.000000 -0.000025 -1.448695 -1.570793
    2 -0.000007 0.000008 4.427393 -0.158861 3.058206 0.001042
    3 18.301065 0.000000 0.000000 0.000000 0.000000 -0.512332
    4 17.106758 0.000000 0.000000 0.048296 0.007584 0.450977
    5 0.000006 -0.000004 -4.427393 0.056741 -3.288399 -0.433877
    6 18.133167 0.000000 0.000000 0.000000 0.000000 -0.632825
    7 17.375956 0.000000 0.000000 0.040760 0.014611 0.154081
    8 2.239578 -0.002685 0.273449 0.060341 -0.065964 -0.066174
    9 3.373776 -0.004248 0.000000 -0.017375 0.016230 -0.070053
    10 5.335510 -0.004100 0.000000 0.000000 -0.034877 -0.104650
    11 5.172566 -0.004197 0.000000 0.008712 0.035558 -0.078181
    12 5.271970 -0.001935 0.000000 0.035067 0.110415 0.086256
    13 -3.402490 0.354206 2.158961 -2.677678 -1.511221 -0.543843
    14 6.063949 0.000000 0.000002 -1.105838 0.519320 -1.784258
    15 7.685221 0.000000 0.000000 0.000000 0.000000 -1.365353
    16 10.246255 0.000000 -0.000003 -1.796771 0.278945 -0.055185
    17 -2.754553 0.171941 -2.752101 2.866139 1.181645 -0.351205
    18 6.269507 0.000000 -0.000001 1.395299 -0.109094 -1.860043
    19 8.573802 0.000000 -0.000004 0.000000 0.000000 -0.806806
    20 9.913458 0.000000 0.000003 1.752055 0.578965 -0.295390
    21 2.452246 0.000000 0.000000 -0.019526 -0.170523 -0.003597
    22 0.946167 3.213873 -0.420090 -3.141592 -0.000002 1.413798
    23 1.827063 1.152534 -7.643625 -1.570796 -1.570796 0.000000
  time 7
    0 1.309598 7.444546 39.752410 -0.032789 -0.043127 -1.630479
    1 1.640675 0.496109 0.000000 -0.000025 -1.451355 -1.570793
    2 -0.000007 0.000008 4.427393 -0.158190 3.060889 0.006315
    3 18.301065 0.000000 0.000000 0.000000 0.000000 -0.507893
    4 17.106758 0.000000 0.000000 0.048112 0.006542 0.452586
    5 0.000006 -0.000004 -4.427393 0.058179 -3.285724 -0.431288
    6 18.133167 0.000000 0.000000 0.000000 0.000000 -0.634274
    7 17.375956 0.000000 0.000000 0.040846 0.014640 0.158958
    8 2.239578 -0.002685 0.265636 0.059846 -0.063488 -0.063136
    9 3.373776 -0.004248 0.000000 -0.017345 0.015987 -0.084476
    10 5.335510 -0.004100 0.000000 0.000000 -0.034877 -0.136521
    11 5.172566 -0.004197 0.000000 0.008712 0.035558 -0.078181
    12 5.271970 -0.001935 0.000000 0.035199 0.113242 0.004897
    13 -3.422022 0.096386 2.155055 2.044899 -1.456512 -5.202540
    14 6.063949 0.000000 0.000002 -1.117302 0.580722 -1.680445
    15 7.685221 0.000000 0.000000 0.000000 0.000000 -1.353089
    16 10.246255 0.000000 -0.000003 -1.796771 0.278945 -0.055185
    17 -2.758460 -0.074160 -2.756007 3.195104 1.194646 0.050345
    18 6.269507 0.000000 -0.000001 1.414539 -0.146983 -1.747276
    19 8.573802 0.000000 -0.000004 0.000000 0.000000 -0.742076
    20 9.913458 0.000000 0.000003 1.764437 0.573710 -0.255056
    21 2.452246 0.000000 0.000000 -0.018803 -0.169917 0.034178
    22 0.946167 3.213873 -0.420090 -3.141592 -0.000002 1.413798
    23 1.827063 1.152534 -7.643625 -1.570796 -1.570796 0.000000
  time 8
    0 1.305691 7.444546 39.802672 -0.032789 -0.040710 -1.630575
    1 1.566454 0.496109 0.000000 -0.000025 -1.457906 -1.570793
    2 -0.000007 0.000008 4.427393 -0.158765 3.067694 0.001426
    3 18.301065 0.000000 0.000000 0.000000 0.000000 -0.508621
    4 17.106758 0.000000 0.000000 0.048112 0.006742 0.450977
    5 0.000006 -0.000004 -4.427393 0.061629 -3.278846 -0.428074
    6 18.133167 0.000000 0.000000 0.000000 0.000000 -0.619850
    7 17.375956 0.000000 0.000000 0.040846 0.014090 0.149814
    8 2.243484 -0.002685 0.253917 0.059042 -0.057188 -0.059408
    9 3.373776 -0.004248 0.000000 -0.017375 0.016072 -0.079249
    10 5.335510 -0.004100 0.000000 0.000000 -0.034877 -0.129757
    11 5.172566 -0.004197 0.000000 0.008712 0.035558 -0.078181
    12 5.271970 -0.001935 0.000000 0.035007 0.109833 0.102490
    13 -3.398584 0.404989 2.158961 2.056598 -1.457798 -5.312235
    14 6.063949 0.000000 0.000002 -1.114169 0.566804 -1.667994
    15 7.685221 0.000000 0.000000 0.000000 0.000000 -1.338108
    16 10.246255 0.000000 -0.000003 -1.796771 0.278945 -0.055185
    17 -2.754553 0.222724 -2.752101 3.264878 1.192961 0.019729
    18 6.269507 0.000000 -0.000001 1.412825 -0.104393 -1.731137
    19 8.573802 0.000000 -0.000004 0.000000 0.000000 -0.683021
    20 9.913458 0.000000 0.000003 1.778810 0.567352 -0.210643
    21 2.452246 0.000000 0.000000 -0.016567 -0.169502 -0.015313
    22 0.946167 3.213873 -0.420090 -3.141592 -0.000002 1.413798
    23 1.827063 1.152534 -7.643625 -1.570796 -1.570796 0.000000
  time 9
    0 1.305691 7.444546 39.869689 -0.032789 -0.037364 -1.630671
    1 1.472701 0.492203 0.000000 -0.000025 -1.466676 -1.570793
    2 -0.000007 0.000008 4.427393 -0.159244 3.076320 -0.004039
    3 18.301065 0.000000 0.000000 0.000000 0.000000 -0.507311
    4 17.106758 0.000000 0.000000 0.048112 0.007143 0.447581
    5 0.000006 -0.000004 -4.427393 0.066325 -3.269676 -0.422450
    6 18.133167 0.000000 0.000000 0.000000 0.000000 -0.597904
    7 17.375956 0.000000 0.000000 0.040846 0.013512 0.136301
    8 2.243484 -0.002685 0.230479 0.058115 -0.048658 -0.055312
    9 3.373776 -0.004248 0.000000 -0.017375 0.016194 -0.072264
    10 5.335510 -0.004100 0.000000 0.000000 -0.034877 -0.119899
    11 5.172566 -0.004197 0.000000 0.008712 0.035558 -0.078181
    12 5.271970 -0.001935 0.000000 0.034635 0.107217 0.178513
    13 -3.359520 0.639371 2.162867 2.090171 -1.461944 -5.421548
    14 6.063949 0.000000 0.000002 -1.110039 0.546582 -1.660355
    15 7.685221 0.000000 0.000000 0.000000 0.000000 -1.321536
    16 10.246255 0.000000 -0.000003 -1.796771 0.278945 -0.055185
    17 -2.727209 0.449293 -2.752101 3.310916 1.191716 -0.012035
    18 6.269507 0.000000 -0.000001 1.409682 -0.052683 -1.719963
    19 8.573802 0.000000 -0.000004 0.000000 0.000000 -0.618751
    20 9.913458 0.000000 0.000003 1.794215 0.559723 -0.161970
    21 2.452246 0.000000 0.000000 -0.012360 -0.169279 -0.070704
    22 0.946167 3.213873 -0.420090 -3.141592 -0.000002 1.413798
    23 1.827063 1.152534 -7.643625 -1.570796 -1.570796 0.000000
  time 10
    0 1.301785 7.444546 39.953459 -0.032789 -0.033646 -1.630766
    1 1.382855 0.488296 0.000000 -0.000025 -1.476541 -1.570793
    2 -0.000007 0.000008 4.427393 -0.159628 3.086191 -0.008928
    3 18.301065 0.000000 0.000000 0.000000 0.000000 -0.504618
    4 17.106758 0.000000 0.000000 0.048112 0.007383 0.443692
    5 0.000006 -0.000004 -4.427393 0.071597 -3.259168 -0.415397
    6 18.133167 0.000000 0.000000 0.000000 0.000000 -0.572852
    7 17.375956 0.000000 0.000000 0.040932 0.012847 0.121569
    8 2.247390 -0.002685 0.210947 0.057188 -0.039025 -0.051629
    9 3.373776 -0.004248 0.000000 -0.017375 0.016315 -0.065656
    10 5.335510 -0.004100 0.000000 0.000000 -0.034877 -0.110348
    11 5.172566 -0.004197 0.000000 0.008712 0.035558 -0.078181
    12 5.271970 -0.001935 0.000000 0.034432 0.106160 0.209308
    13 -3.336082 0.733124 2.166774 2.109192 -1.464052 -5.471150
    14 6.063949 0.000000 0.000002 -1.106194 0.527179 -1.655542
    15 7.685221 0.000000 0.000000 0.000000 0.000000 -1.306754
    16 10.246255 0.000000 -0.000003 -1.796771 0.278945 -0.055185
    17 -2.711583 0.543046 -2.748194 3.334270 1.190874 -0.020455
    18 6.269507 0.000000 -0.000001 1.406348 -0.004922 -1.712239
    19 8.573802 0.000000 -0.000004 0.000000 0.000000 -0.561691
    20 9.913458 0.000000 0.000003 1.807482 0.552433 -0.118917
    21 2.452246 0.000000 0.000000 -0.006903 -0.169502 -0.118170
    22 0.946167 3.213873 -0.420090 -3.141592 -0.000002 1.413798
    23 1.827063 1.152534 -7.643625 -1.570796 -1.570796 0.000000
  time 11
    0 1.290066 7.420347 40.020475 -0.032789 -0.029835 -1.630958
    1 1.304727 0.484390 0.000000 -0.000025 -1.486710 -1.570793
    2 -0.000007 0.000008 4.427393 -0.159820 3.096446 -0.014009
    3 18.301065 0.000000 0.000000 0.000000 0.000000 -0.503527
    4 17.106758 0.000000 0.000000 0.048039 0.007343 0.441368
    5 0.000006 -0.000004 -4.427393 0.076772 -3.248277 -0.408524
    6 18.133167 0.000000 0.000000 0.000000 0.000000 -0.549456
    7 17.375956 0.000000 0.000000 0.040932 0.012124 0.108361
    8 2.247390 -0.002685 0.187509 0.056446 -0.029024 -0.048546
    9 3.373776 -0.004248 0.000000 -0.017375 0.016413 -0.059977
    10 5.335510 -0.004100 0.000000 0.000000 -0.034877 -0.102047
    11 5.172566 -0.004197 0.000000 0.008712 0.035558 -0.078181
    12 5.271970 -0.001935 0.000000 0.034252 0.105367 0.232549
    13 -3.320456 0.803438 2.166774 2.128499 -1.466232 -5.513501
    14 6.063949 0.000000 0.000002 -1.102989 0.510314 -1.652334
    15 7.685221 0.000000 0.000000 0.000000 0.000000 -1.294291
    16 10.246255 0.000000 -0.000003 -1.796771 0.278945 -0.055185
    17 -2.699864 0.613361 -2.748194 3.350637 1.190251 -0.028013
    18 6.269507 0.000000 -0.000001 1.403395 0.035693 -1.706790
    19 8.573802 0.000000 -0.000004 0.000000 0.000000 -0.513910
    20 9.913458 0.000000 0.000003 1.818317 0.545906 -0.083115
    21 2.452246 0.000000 0.000000 -0.001446 -0.169566 -0.162664
    22 0.946167 3.213873 -0.420090 -3.141592 -0.000002 1.413798
    23 1.827063 1.152534 -7.643625 -1.570796 -1.570796 0.000000
  time 12
    0 1.282253 7.323551 40.087492 -0.032789 -0.026211 -1.631054
    1 1.242225 0.484390 0.000000 -0.000025 -1.496574 -1.570793
    2 -0.000007 0.000008 4.427393 -0.159820 3.106126 -0.014776
    3 18.301065 0.000000 0.000000 0.000000 0.000000 -0.499816
    4 17.106758 0.000000 0.000000 0.047965 0.007103 0.440474
    5 0.000006 -0.000004 -4.427393 0.081565 -3.238152 -0.401203
    6 18.133167 0.000000 0.000000 0.000000 0.000000 -0.530753
    7 17.375956 0.000000 0.000000 0.040932 0.012038 0.100284
    8 2.251297 -0.002685 0.164071 0.055766 -0.019317 -0.045968
    9 3.373776 -0.004248 0.000000 -0.017405 0.016498 -0.055128
    10 5.335510 -0.004100 0.000000 0.000000 -0.034877 -0.094935
    11 5.172566 -0.004197 0.000000 0.008712 0.035558 -0.078181
    12 5.271970 -0.001935 0.000000 0.034096 0.104759 0.250326
    13 -3.304831 0.858128 2.170680 2.146189 -1.468161 -5.548604
    14 6.063949 0.000000 0.000002 -1.100284 0.495824 -1.649966
    15 7.685221 0.000000 0.000000 0.000000 0.000000 -1.283818
    16 10.246255 0.000000 -0.000003 -1.796771 0.278945 -0.055185
    17 -2.688145 0.664144 -2.744288 3.362793 1.189775 -0.034040
    18 6.269507 0.000000 -0.000001 1.400824 0.070104 -1.702721
    19 8.573802 0.000000 -0.000004 0.000000 0.000000 -0.473645
    20 9.913458 0.000000 0.000003 1.827162 0.540227 -0.053114
    21 2.452246 0.000000 0.000000 0.003353 -0.169502 -0.201171
    22 0.946167 3.213873 -0.420090 -3.141592 -0.000002 1.413798
    23 1.827063 1.152534 -7.643625 -1.570796 -1.570796 0.000000
  time 13
    0 1.278347 7.166259 40.137754 -0.032789 -0.022772 -1.631150
    1 1.183630 0.480483 0.000000 -0.000025 -1.505588 -1.570793
    2 -0.000007 0.000008 4.427393 -0.159628 3.114368 -0.011612
    3 18.301065 0.000000 0.000000 0.000000 0.000000 -0.491738
    4 17.106758 0.000000 0.000000 0.047928 0.006822 0.438955
    5 0.000006 -0.000004 -4.427393 0.085878 -3.229172 -0.392722
    6 18.133167 0.000000 0.000000 0.000000 0.000000 -0.513430
    7 17.375956 0.000000 0.000000 0.040846 0.012384 0.094544
    8 2.251297 -0.002685 0.144539 0.055209 -0.010443 -0.043713
    9 3.373776 -0.004248 0.000000 -0.017405 0.016571 -0.050856
    10 5.335510 -0.004100 0.000000 0.000000 -0.034877 -0.088663
    11 5.172566 -0.004197 0.000000 0.008712 0.035558 -0.078181
    12 5.271970 -0.001935 0.000000 0.033964 0.104283 0.264502
    13 -3.293112 0.901098 2.170680 2.161597 -1.469769 -5.578078
    14 6.063949 0.000000 0.000002 -1.097934 0.483052 -1.647979
    15 7.685221 0.000000 0.000000 0.000000 0.000000 -1.274604
    16 10.246255 0.000000 -0.000003 -1.796771 0.278945 -0.055185
    17 -2.680332 0.707114 -2.744288 3.372842 1.189372 -0.038633
    18 6.269507 0.000000 -0.000001 1.398538 0.100472 -1.699341
    19 8.573802 0.000000 -0.000004 0.000000 0.000000 -0.438289
    20 9.913458 0.000000 0.000003 1.834754 0.534971 -0.026829
    21 2.452246 0.000000 0.000000 0.007561 -0.169311 -0.234337
    22 0.946167 3.213873 -0.420090 -3.141592 -0.000002 1.413798
    23 1.827063 1.152534 -7.643625 -1.570796 -1.570796 0.000000
  time 14
    0 1.278347 7.033165 40.204770 -0.032789 -0.019983 -1.631246
    1 1.128941 0.480483 0.000000 -0.000025 -1.513142 -1.570793
    2 -0.000007 0.000008 4.427393 -0.159532 3.121077 -0.008257
    3 18.301065 0.000000 0.000000 0.000000 0.000000 -0.483807
    4 17.106758 0.000000 0.000000 0.047891 0.006622 0.437256
    5 0.000006 -0.000004 -4.427393 0.089328 -3.221625 -0.384956
    6 18.133167 0.000000 0.000000 0.000000 0.000000 -0.498040
    7 17.375956 0.000000 0.000000 0.040760 0.012760 0.089464
    8 2.255203 -0.002685 0.128913 0.054776 -0.002992 -0.041641
    9 3.373776 -0.004248 0.000000 -0.017405 0.016631 -0.047037
    10 5.335510 -0.004100 0.000000 0.000000 -0.034877 -0.083047
    11 5.172566 -0.004197 0.000000 0.008712 0.035558 -0.078181
    12 5.271970 -0.001935 0.000000 0.033856 0.103887 0.276460
    13 -3.281392 0.940161 2.174586 2.174626 -1.471020 -5.602879
    14 6.063949 0.000000 0.000002 -1.095940 0.471590 -1.646146
    15 7.685221 0.000000 0.000000 0.000000 0.000000 -1.266318
    16 10.246255 0.000000 -0.000003 -1.796771 0.278945 -0.055185
    17 -2.668613 0.742271 -2.744288 3.381935 1.188933 -0.041886
    18 6.269507 0.000000 -0.000001 1.396347 0.127737 -1.696237
    19 8.573802 0.000000 -0.000004 0.000000 0.000000 -0.406385
    20 9.913458 0.000000 0.000003 1.841461 0.530139 -0.003263
    21 2.452246 0.000000 0.000000 0.011242 -0.169087 -0.263196
    22 0.946167 3.213873 -0.420090 -3.141592 -0.000002 1.413798
    23 1.827063 1.152534 -7.643625 -1.570796 -1.570796 0.000000
  time 15
    0 1.278347 6.972668 40.238278 -0.032789 -0.017938 -1.631342
    1 1.089877 0.480483 0.000000 -0.000025 -1.518462 -1.570793
    2 -0.000007 0.000008 4.427393 -0.159532 3.126156 -0.008161
    3 18.301065 0.000000 0.000000 0.000000 0.000000 -0.480387
    4 17.106758 0.000000 0.000000 0.047855 0.006622 0.435960
    5 0.000006 -0.000004 -4.427393 0.091820 -3.215989 -0.379867
    6 18.133167 0.000000 0.000000 0.000000 0.000000 -0.485411
    7 17.375956 0.000000 0.000000 0.040760 0.012818 0.083774
    8 2.255203 -0.002685 0.117194 0.054467 0.002205 -0.039938
    9 3.373776 -0.004248 0.000000 -0.017405 0.016692 -0.043896
    10 5.335510 -0.004100 0.000000 0.000000 -0.034877 -0.078497
    11 5.172566 -0.004197 0.000000 0.008712 0.035558 -0.078181
    12 5.271970 -0.001935 0.000000 0.033761 0.103543 0.286586
    13 -3.273580 0.967506 2.174586 2.182901 -1.471592 -5.621193
    14 6.063949 0.000000 0.000002 -1.094231 0.462339 -1.644160
    15 7.685221 0.000000 0.000000 0.000000 0.000000 -1.259357
    16 10.246255 0.000000 -0.000003 -1.796771 0.278945 -0.055185
    17 -2.660801 0.773522 -2.744288 3.391124 1.188420 -0.043225
    18 6.269507 0.000000 -0.000001 1.394632 0.150395 -1.693272
    19 8.573802 0.000000 -0.000004 0.000000 0.000000 -0.379465
    20 9.913458 0.000000 0.000003 1.846989 0.525901 0.016405
    21 2.452246 0.000000 0.000000 0.014135 -0.168832 -0.286283
    22 0.946167 3.213873 -0.420090 -3.141592 -0.000002 1.413798
    23 1.827063 1.152534 -7.643625 -1.570796 -1.570796 0.000000
end
