version 1
nodes
  0 "Bip01" -1
  1 "Bip01 Pelvis" 0
  2 "Bip01 L Leg" 1
  3 "Bip01 L Leg1" 2
  4 "Bip01 L Foot" 3
  5 "Bip01 R Leg" 1
  6 "Bip01 R Leg1" 5
  7 "Bip01 R Foot" 6
  8 "Bip01 Spine" 1
  9 "Bip01 Spine1" 8
  10 "Bip01 Spine2" 9
  11 "Bip01 Spine3" 10
  12 "Bip01 Neck" 11
  13 "Bip01 L Arm" 12
  14 "Bip01 L Arm1" 13
  15 "Bip01 L Arm2" 14
  16 "Bip01 L Hand" 15
  17 "Bip01 R Arm" 12
  18 "Bip01 R Arm1" 17
  19 "Bip01 R Arm2" 18
  20 "Bip01 R Hand" 19
  21 "Bip01 Head" 12
  22 "Bone05" 21
  23 "Bone03" 1
end
skeleton
  time 0
    0 0.458009 1.152836 41.293786 0.000000 0.000000 -1.570844
    1 0.000000 0.000000 0.000000 -1.570795 -1.570796 0.000000
    2 -0.000007 0.000008 4.435206 0.000001 3.089258 -0.100000
    3 18.336223 0.000000 0.000000 0.000000 0.000000 -0.252333
    4 17.141915 0.000000 0.000000 -0.005229 0.052072 0.152197
    5 0.000006 -0.000004 -4.435206 0.000001 -3.106705 -0.100000
    6 18.168325 0.000000 0.000000 0.000000 0.000000 -0.234889
    7 17.411113 0.000000 0.000000 0.003485 -0.034715 0.134828
    8 2.259109 -0.002685 0.000003 -0.000004 -0.000001 0.000796
    9 3.377682 -0.004248 0.000000 0.000000 0.000000 -0.122090
    10 5.343323 -0.004100 0.000000 0.000000 0.000000 0.095944
    11 5.180379 -0.004197 0.000000 0.000000 0.000000 -0.017444
    12 5.279783 -0.001935 0.000000 0.000000 0.000000 0.134667
    13 -3.132950 0.428427 2.533972 -0.672806 -1.317183 -2.620035
    14 6.075668 0.000000 0.000002 0.951226 1.092483 0.446162
    15 7.700847 0.000000 0.000000 0.000000 0.000000 -0.548877
    16 10.265787 0.000000 -0.000003 -1.569107 0.000000 0.000000
    17 -3.027999 0.414136 -2.431778 0.672786 1.317186 -2.620054
    18 6.281226 0.000000 -0.000001 -1.245352 -0.278232 0.743540
    19 8.589427 0.000000 -0.000004 0.000000 0.000000 -1.612940
    20 9.932990 0.000000 0.000003 1.568967 0.165722 0.000000
    21 2.456152 0.000000 0.000000 0.000000 0.000000 0.065147
    22 0.946167 3.213873 -0.420090 -3.141592 -0.000002 1.413798
    23 1.827063 1.152534 -7.659250 -1.570796 -1.570796 0.000000
  time 1
    0 0.458009 1.152836 41.293786 0.000000 0.000929 -1.570844
    1 0.000000 0.000000 0.000000 -1.570795 -1.570796 0.000000
    2 -0.000007 0.000008 4.435206 0.000001 3.089258 -0.100863
    3 18.336223 0.000000 0.000000 0.000000 0.000000 -0.252333
    4 17.141915 0.000000 0.000000 -0.005192 0.052072 0.152197
    5 0.000006 -0.000004 -4.435206 0.000001 -3.106705 -0.100893
    6 18.168325 0.000000 0.000000 0.000000 0.000000 -0.234889
    7 17.411113 0.000000 0.000000 0.003485 -0.034715 0.134828
    8 2.259109 -0.002685 0.000003 -0.000004 -0.000001 0.000796
    9 3.377682 -0.004248 0.000000 0.000000 0.000000 -0.121462
    10 5.343323 -0.004100 0.000000 0.000000 0.000000 0.095944
    11 5.180379 -0.004197 0.000000 0.000000 0.000000 -0.017444
    12 5.279783 -0.001935 0.000000 0.000000 0.000000 0.134667
    13 -3.132950 0.428427 2.533972 -0.672806 -1.317183 -2.620035
    14 6.075668 0.000000 0.000002 0.950158 1.092893 0.445093
    15 7.700847 0.000000 0.000000 0.000000 0.000000 -0.548877
    16 10.265787 0.000000 -0.000003 -1.569107 0.000000 0.000000
    17 -3.027999 0.414136 -2.431778 0.672786 1.317186 -2.620054
    18 6.281226 0.000000 -0.000001 -1.244876 -0.278703 0.743333
    19 8.589427 0.000000 -0.000004 0.000000 0.000000 -1.612940
    20 9.932990 0.000000 0.000003 1.568967 0.165722 0.000000
    21 2.456152 0.000000 0.000000 0.000000 0.000000 0.062950
    22 0.946167 3.213873 -0.420090 -3.141592 -0.000002 1.413798
    23 1.827063 1.152534 -7.659250 -1.570796 -1.570796 0.000000
  time 2
    0 0.458009 1.152836 41.293786 0.000000 0.002231 -1.570844
    1 0.000000 0.000000 0.000000 -1.570795 -1.570796 0.000000
    2 -0.000007 0.000008 4.435206 -0.000095 3.089258 -0.102301
    3 18.336223 0.000000 0.000000 0.000000 0.000000 -0.252333
    4 17.141915 0.000000 0.000000 -0.005119 0.052072 0.152197
    5 0.000006 -0.000004 -4.435206 0.000001 -3.106705 -0.102232
    6 18.168325 0.000000 0.000000 0.000000 0.000000 -0.234889
    7 17.411113 0.000000 0.000000 0.003485 -0.034715 0.134828
    8 2.259109 -0.002685 0.000003 -0.000004 -0.000001 0.000796
    9 3.377682 -0.004248 0.000000 0.000000 0.000000 -0.120557
    10 5.343323 -0.004100 0.000000 0.000000 0.000000 0.095944
    11 5.180379 -0.004197 0.000000 0.000000 0.000000 -0.017444
    12 5.279783 -0.001935 0.000000 0.000000 0.000000 0.134667
    13 -3.132950 0.428427 2.533972 -0.672806 -1.317183 -2.620035
    14 6.075668 0.000000 0.000002 0.948520 1.093384 0.443489
    15 7.700847 0.000000 0.000000 0.000000 0.000000 -0.548877
    16 10.265787 0.000000 -0.000003 -1.569107 0.000000 0.000000
    17 -3.027999 0.414136 -2.431778 0.672786 1.317186 -2.620054
    18 6.281226 0.000000 -0.000001 -1.244304 -0.279455 0.742988
    19 8.589427 0.000000 -0.000004 0.000000 0.000000 -1.612940
    20 9.932990 0.000000 0.000003 1.568967 0.165722 0.000000
    21 2.456152 0.000000 0.000000 0.000000 0.000000 0.059720
    22 0.946167 3.213873 -0.420090 -3.141592 -0.000002 1.413798
    23 1.827063 1.152534 -7.659250 -1.570796 -1.570796 0.000000
  time 3
    0 0.458009 1.152836 41.293786 0.000000 0.003625 -1.570844
    1 0.000000 0.000000 0.000000 -1.570795 -1.570796 0.000000
    2 -0.000007 0.000008 4.435206 -0.000095 3.089258 -0.103643
    3 18.336223 0.000000 0.000000 0.000000 0.000000 -0.252333
    4 17.141915 0.000000 0.000000 -0.005045 0.052072 0.152197
    5 0.000006 -0.000004 -4.435206 0.000097 -3.106705 -0.103660
    6 18.168325 0.000000 0.000000 0.000000 0.000000 -0.234889
    7 17.411113 0.000000 0.000000 0.003399 -0.034715 0.134828
    8 2.259109 -0.002685 0.000003 -0.000004 -0.000001 0.000796
    9 3.377682 -0.004248 0.000000 0.000000 0.000000 -0.119653
    10 5.343323 -0.004100 0.000000 0.000000 0.000000 0.095944
    11 5.180379 -0.004197 0.000000 0.000000 0.000000 -0.017444
    12 5.279783 -0.001935 0.000000 0.000000 0.000000 0.134667
    13 -3.132950 0.428427 2.533972 -0.672806 -1.317183 -2.620035
    14 6.075668 0.000000 0.000002 0.946954 1.093875 0.441884
    15 7.700847 0.000000 0.000000 0.000000 0.000000 -0.548877
    16 10.265787 0.000000 -0.000003 -1.569107 0.000000 0.000000
    17 -3.027999 0.414136 -2.431778 0.672786 1.317186 -2.620054
    18 6.281226 0.000000 -0.000001 -1.243733 -0.280113 0.742643
    19 8.589427 0.000000 -0.000004 0.000000 0.000000 -1.612940
    20 9.932990 0.000000 0.000003 1.568967 0.165722 0.000000
    21 2.456152 0.000000 0.000000 0.000000 0.000000 0.056575
    22 0.946167 3.213873 -0.420090 -3.141592 -0.000002 1.413798
    23 1.827063 1.152534 -7.659250 -1.570796 -1.570796 0.000000
  time 4
    0 0.458009 1.152836 41.293786 0.000000 0.006413 -1.570844
    1 0.000000 0.000000 0.000000 -1.570795 -1.570796 0.000000
    2 -0.000007 0.000008 4.435206 -0.000287 3.089258 -0.106423
    3 18.336223 0.000000 0.000000 0.000000 0.000000 -0.252333
    4 17.141915 0.000000 0.000000 -0.004898 0.052072 0.152197
    5 0.000006 -0.000004 -4.435206 0.000193 -3.106705 -0.106428
    6 18.168325 0.000000 0.000000 0.000000 0.000000 -0.234889
    7 17.411113 0.000000 0.000000 0.003313 -0.034715 0.134828
    8 2.259109 -0.002685 0.000003 -0.000004 -0.000001 0.000796
    9 3.377682 -0.004248 0.000000 0.000000 0.000000 -0.117793
    10 5.343323 -0.004100 0.000000 0.000000 0.000000 0.095944
    11 5.180379 -0.004197 0.000000 0.000000 0.000000 -0.017444
    12 5.279783 -0.001935 0.000000 0.000000 0.000000 0.134667
    13 -3.132950 0.428427 2.533972 -0.672806 -1.317183 -2.620035
    14 6.075668 0.000000 0.000002 0.943678 1.094939 0.438600
    15 7.700847 0.000000 0.000000 0.000000 0.000000 -0.548877
    16 10.265787 0.000000 -0.000003 -1.569107 0.000000 0.000000
    17 -3.027999 0.414136 -2.431778 0.672786 1.317186 -2.620054
    18 6.281226 0.000000 -0.000001 -1.242590 -0.281617 0.741953
    19 8.589427 0.000000 -0.000004 0.000000 0.000000 -1.612940
    20 9.932990 0.000000 0.000003 1.568967 0.165722 0.000000
    21 2.456152 0.000000 0.000000 0.000000 0.000000 0.050028
    22 0.946167 3.213873 -0.420090 -3.141592 -0.000002 1.413798
    23 1.827063 1.152534 -7.659250 -1.570796 -1.570796 0.000000
  time 5
    0 0.458009 1.152836 41.293786 0.000000 0.009016 -1.570844
    1 0.000000 0.000000 0.000000 -1.570795 -1.570796 0.000000
    2 -0.000007 0.000008 4.435206 -0.000382 3.089258 -0.109011
    3 18.336223 0.000000 0.000000 0.000000 0.000000 -0.252333
    4 17.141915 0.000000 0.000000 -0.004788 0.052072 0.152197
    5 0.000006 -0.000004 -4.435206 0.000289 -3.106705 -0.109016
    6 18.168325 0.000000 0.000000 0.000000 0.000000 -0.234889
    7 17.411113 0.000000 0.000000 0.003227 -0.034715 0.134828
    8 2.259109 -0.002685 0.000003 -0.000004 -0.000001 0.000796
    9 3.377682 -0.004248 0.000000 0.000000 0.000000 -0.116060
    10 5.343323 -0.004100 0.000000 0.000000 0.000000 0.095944
    11 5.180379 -0.004197 0.000000 0.000000 0.000000 -0.017444
    12 5.279783 -0.001935 0.000000 0.000000 0.000000 0.134667
    13 -3.132950 0.428427 2.533972 -0.672806 -1.317183 -2.620035
    14 6.075668 0.000000 0.000002 0.940617 1.095840 0.435544
    15 7.700847 0.000000 0.000000 0.000000 0.000000 -0.548877
    16 10.265787 0.000000 -0.000003 -1.569107 0.000000 0.000000
    17 -3.027999 0.414136 -2.431778 0.672786 1.317186 -2.620054
    18 6.281226 0.000000 -0.000001 -1.241542 -0.282933 0.741333
    19 8.589427 0.000000 -0.000004 0.000000 0.000000 -1.612940
    20 9.932990 0.000000 0.000003 1.568967 0.165722 0.000000
    21 2.456152 0.000000 0.000000 0.000000 0.000000 0.044041
    22 0.946167 3.213873 -0.420090 -3.141592 -0.000002 1.413798
    23 1.827063 1.152534 -7.659250 -1.570796 -1.570796 0.000000
  time 6
    0 0.458009 1.152836 41.293786 0.000000 0.011525 -1.570844
    1 0.000000 0.000000 0.000000 -1.570795 -1.570796 0.000000
    2 -0.000007 0.000008 4.435206 -0.000574 3.089258 -0.111504
    3 18.336223 0.000000 0.000000 0.000000 0.000000 -0.252333
    4 17.141915 0.000000 0.000000 -0.004640 0.052072 0.152197
    5 0.000006 -0.000004 -4.435206 0.000384 -3.106705 -0.111516
    6 18.168325 0.000000 0.000000 0.000000 0.000000 -0.234889
    7 17.411113 0.000000 0.000000 0.003141 -0.034715 0.134828
    8 2.259109 -0.002685 0.000003 -0.000004 -0.000001 0.000796
    9 3.377682 -0.004248 0.000000 0.000000 0.000000 -0.114376
    10 5.343323 -0.004100 0.000000 0.000000 0.000000 0.095944
    11 5.180379 -0.004197 0.000000 0.000000 0.000000 -0.017444
    12 5.279783 -0.001935 0.000000 0.000000 0.000000 0.134667
    13 -3.132950 0.428427 2.533972 -0.672806 -1.317183 -2.620035
    14 6.075668 0.000000 0.000002 0.937626 1.096822 0.432489
    15 7.700847 0.000000 0.000000 0.000000 0.000000 -0.548877
    16 10.265787 0.000000 -0.000003 -1.569107 0.000000 0.000000
    17 -3.027999 0.414136 -2.431778 0.672786 1.317186 -2.620054
    18 6.281226 0.000000 -0.000001 -1.240399 -0.284156 0.740712
    19 8.589427 0.000000 -0.000004 0.000000 0.000000 -1.612940
    20 9.932990 0.000000 0.000003 1.568967 0.165722 0.000000
    21 2.456152 0.000000 0.000000 0.000000 0.000000 0.038097
    22 0.946167 3.213873 -0.420090 -3.141592 -0.000002 1.413798
    23 1.827063 1.152534 -7.659250 -1.570796 -1.570796 0.000000
  time 7
    0 0.458009 1.152836 41.293786 0.000000 0.014035 -1.570844
    1 0.000000 0.000000 0.000000 -1.570795 -1.570796 0.000000
    2 -0.000007 0.000008 4.435206 -0.000670 3.089258 -0.114092
    3 18.336223 0.000000 0.000000 0.000000 0.000000 -0.252333
    4 17.141915 0.000000 0.000000 -0.004530 0.052072 0.152197
    5 0.000006 -0.000004 -4.435206 0.000480 -3.106705 -0.114016
    6 18.168325 0.000000 0.000000 0.000000 0.000000 -0.234889
    7 17.411113 0.000000 0.000000 0.003055 -0.034715 0.134828
    8 2.259109 -0.002685 0.000003 -0.000004 -0.000001 0.000796
    9 3.377682 -0.004248 0.000000 0.000000 0.000000 -0.112693
    10 5.343323 -0.004100 0.000000 0.000000 0.000000 0.095944
    11 5.180379 -0.004197 0.000000 0.000000 0.000000 -0.017444
    12 5.279783 -0.001935 0.000000 0.000000 0.000000 0.134667
    13 -3.132950 0.428427 2.533972 -0.672806 -1.317183 -2.620035
    14 6.075668 0.000000 0.000002 0.934635 1.097723 0.429509
    15 7.700847 0.000000 0.000000 0.000000 0.000000 -0.548877
    16 10.265787 0.000000 -0.000003 -1.569107 0.000000 0.000000
    17 -3.027999 0.414136 -2.431778 0.672786 1.317186 -2.620054
    18 6.281226 0.000000 -0.000001 -1.239351 -0.285472 0.740091
    19 8.589427 0.000000 -0.000004 0.000000 0.000000 -1.612940
    20 9.932990 0.000000 0.000003 1.568967 0.165722 0.000000
    21 2.456152 0.000000 0.000000 0.000000 0.000000 0.032239
    22 0.946167 3.213873 -0.420090 -3.141592 -0.000002 1.413798
    23 1.827063 1.152534 -7.659250 -1.570796 -1.570796 0.000000
  time 8
    0 0.458009 1.152836 41.293786 0.000000 0.016544 -1.570844
    1 0.000000 0.000000 0.000000 -1.570795 -1.570796 0.000000
    2 -0.000007 0.000008 4.435206 -0.000766 3.089354 -0.116489
    3 18.336223 0.000000 0.000000 0.000000 0.000000 -0.252333
    4 17.141915 0.000000 0.000000 -0.004383 0.052072 0.152242
    5 0.000006 -0.000004 -4.435206 0.000480 -3.106705 -0.116515
    6 18.168325 0.000000 0.000000 0.000000 0.000000 -0.234889
    7 17.411113 0.000000 0.000000 0.002968 -0.034715 0.134828
    8 2.259109 -0.002685 0.000003 -0.000004 -0.000001 0.000796
    9 3.377682 -0.004248 0.000000 0.000000 0.000000 -0.111060
    10 5.343323 -0.004100 0.000000 0.000000 0.000000 0.095944
    11 5.180379 -0.004197 0.000000 0.000000 0.000000 -0.017444
    12 5.279783 -0.001935 0.000000 0.000000 0.000000 0.134667
    13 -3.132950 0.428427 2.533972 -0.672806 -1.317183 -2.620035
    14 6.075668 0.000000 0.000002 0.931645 1.098623 0.426607
    15 7.700847 0.000000 0.000000 0.000000 0.000000 -0.548877
    16 10.265787 0.000000 -0.000003 -1.569107 0.000000 0.000000
    17 -3.027999 0.414136 -2.431778 0.672786 1.317186 -2.620054
    18 6.281226 0.000000 -0.000001 -1.238304 -0.286788 0.739470
    19 8.589427 0.000000 -0.000004 0.000000 0.000000 -1.612940
    20 9.932990 0.000000 0.000003 1.568967 0.165722 0.000000
    21 2.456152 0.000000 0.000000 0.000000 0.000000 0.026468
    22 0.946167 3.213873 -0.420090 -3.141592 -0.000002 1.413798
    23 1.827063 1.152534 -7.659250 -1.570796 -1.570796 0.000000
  time 9
    0 0.458009 1.152836 41.293786 0.000000 0.018961 -1.570844
    1 0.000000 0.000000 0.000000 -1.570795 -1.570796 0.000000
    2 -0.000007 0.000008 4.435206 -0.000958 3.089354 -0.118981
    3 18.336223 0.000000 0.000000 0.000000 0.000000 -0.252333
    4 17.141915 0.000000 0.000000 -0.004273 0.052072 0.152242
    5 0.000006 -0.000004 -4.435206 0.000576 -3.106705 -0.118926
    6 18.168325 0.000000 0.000000 0.000000 0.000000 -0.234889
    7 17.411113 0.000000 0.000000 0.002882 -0.034715 0.134828
    8 2.259109 -0.002685 0.000003 -0.000004 -0.000001 0.000796
    9 3.377682 -0.004248 0.000000 0.000000 0.000000 -0.109451
    10 5.343323 -0.004100 0.000000 0.000000 0.000000 0.095944
    11 5.180379 -0.004197 0.000000 0.000000 0.000000 -0.017444
    12 5.279783 -0.001935 0.000000 0.000000 0.000000 0.134667
    13 -3.132950 0.428427 2.533972 -0.672806 -1.317183 -2.620035
    14 6.075668 0.000000 0.000002 0.928796 1.099442 0.423704
    15 7.700847 0.000000 0.000000 0.000000 0.000000 -0.548877
    16 10.265787 0.000000 -0.000003 -1.569107 0.000000 0.000000
    17 -3.027999 0.414136 -2.431778 0.672786 1.317186 -2.620054
    18 6.281226 0.000000 -0.000001 -1.237256 -0.288010 0.738850
    19 8.589427 0.000000 -0.000004 0.000000 0.000000 -1.612940
    20 9.932990 0.000000 0.000003 1.568967 0.165722 0.000000
    21 2.456152 0.000000 0.000000 0.000000 0.000000 0.020825
    22 0.946167 3.213873 -0.420090 -3.141592 -0.000002 1.413798
    23 1.827063 1.152534 -7.659250 -1.570796 -1.570796 0.000000
  time 10
    0 0.458009 1.152836 41.293786 0.000000 0.021285 -1.570844
    1 0.000000 0.000000 0.000000 -1.570795 -1.570796 0.000000
    2 -0.000007 0.000008 4.435206 -0.001054 3.089354 -0.121282
    3 18.336223 0.000000 0.000000 0.000000 0.000000 -0.252333
    4 17.141915 0.000000 0.000000 -0.004125 0.052072 0.152242
    5 0.000006 -0.000004 -4.435206 0.000672 -3.106705 -0.121336
    6 18.168325 0.000000 0.000000 0.000000 0.000000 -0.234889
    7 17.411113 0.000000 0.000000 0.002796 -0.034715 0.134828
    8 2.259109 -0.002685 0.000003 -0.000004 -0.000001 0.000796
    9 3.377682 -0.004248 0.000000 0.000000 0.000000 -0.107868
    10 5.343323 -0.004100 0.000000 0.000000 0.000000 0.095944
    11 5.180379 -0.004197 0.000000 0.000000 0.000000 -0.017444
    12 5.279783 -0.001935 0.000000 0.000000 0.000000 0.134667
    13 -3.132950 0.428427 2.533972 -0.672806 -1.317183 -2.620035
    14 6.075668 0.000000 0.000002 0.925948 1.100343 0.420877
    15 7.700847 0.000000 0.000000 0.000000 0.000000 -0.548877
    16 10.265787 0.000000 -0.000003 -1.569107 0.000000 0.000000
    17 -3.027999 0.414136 -2.431778 0.672786 1.317186 -2.620054
    18 6.281226 0.000000 -0.000001 -1.236303 -0.289233 0.738229
    19 8.589427 0.000000 -0.000004 0.000000 0.000000 -1.612940
    20 9.932990 0.000000 0.000003 1.568967 0.165722 0.000000
    21 2.456152 0.000000 0.000000 0.000000 0.000000 0.015312
    22 0.946167 3.213873 -0.420090 -3.141592 -0.000002 1.413798
    23 1.827063 1.152534 -7.659250 -1.570796 -1.570796 0.000000
  time 11
    0 0.458009 1.152836 41.293786 0.000000 0.023515 -1.570844
    1 0.000000 0.000000 0.000000 -1.570795 -1.570796 0.000000
    2 -0.000007 0.000008 4.435206 -0.001149 3.089354 -0.123583
    3 18.336223 0.000000 0.000000 0.000000 0.000000 -0.252333
    4 17.141915 0.000000 0.000000 -0.004015 0.052072 0.152242
    5 0.000006 -0.000004 -4.435206 0.000768 -3.106705 -0.123568
    6 18.168325 0.000000 0.000000 0.000000 0.000000 -0.234889
    7 17.411113 0.000000 0.000000 0.002710 -0.034715 0.134828
    8 2.259109 -0.002685 0.000003 -0.000004 -0.000001 0.000796
    9 3.377682 -0.004248 0.000000 0.000000 0.000000 -0.106361
    10 5.343323 -0.004100 0.000000 0.000000 0.000000 0.095944
    11 5.180379 -0.004197 0.000000 0.000000 0.000000 -0.017444
    12 5.279783 -0.001935 0.000000 0.000000 0.000000 0.134667
    13 -3.132950 0.428427 2.533972 -0.672806 -1.317183 -2.620035
    14 6.075668 0.000000 0.000002 0.923242 1.101161 0.418127
    15 7.700847 0.000000 0.000000 0.000000 0.000000 -0.548877
    16 10.265787 0.000000 -0.000003 -1.569107 0.000000 0.000000
    17 -3.027999 0.414136 -2.431778 0.672786 1.317186 -2.620054
    18 6.281226 0.000000 -0.000001 -1.235351 -0.290361 0.737677
    19 8.589427 0.000000 -0.000004 0.000000 0.000000 -1.612940
    20 9.932990 0.000000 0.000003 1.568967 0.165722 0.000000
    21 2.456152 0.000000 0.000000 0.000000 0.000000 0.010057
    22 0.946167 3.213873 -0.420090 -3.141592 -0.000002 1.413798
    23 1.827063 1.152534 -7.659250 -1.570796 -1.570796 0.000000
  time 12
    0 0.458009 1.152836 41.293786 0.000000 0.025653 -1.570844
    1 0.000000 0.000000 0.000000 -1.570795 -1.570796 0.000000
    2 -0.000007 0.000008 4.435206 -0.001245 3.089354 -0.125692
    3 18.336223 0.000000 0.000000 0.000000 0.000000 -0.252333
    4 17.141915 0.000000 0.000000 -0.003905 0.052072 0.152242
    5 0.000006 -0.000004 -4.435206 0.000864 -3.106800 -0.125621
    6 18.168325 0.000000 0.000000 0.000000 0.000000 -0.234889
    7 17.411113 0.000000 0.000000 0.002624 -0.034715 0.134828
    8 2.259109 -0.002685 0.000003 -0.000004 -0.000001 0.000796
    9 3.377682 -0.004248 0.000000 0.000000 0.000000 -0.104954
    10 5.343323 -0.004100 0.000000 0.000000 0.000000 0.095944
    11 5.180379 -0.004197 0.000000 0.000000 0.000000 -0.017444
    12 5.279783 -0.001935 0.000000 0.000000 0.000000 0.134667
    13 -3.132950 0.428427 2.533972 -0.672806 -1.317183 -2.620035
    14 6.075668 0.000000 0.000002 0.920679 1.101898 0.415607
    15 7.700847 0.000000 0.000000 0.000000 0.000000 -0.548877
    16 10.265787 0.000000 -0.000003 -1.569107 0.000000 0.000000
    17 -3.027999 0.414136 -2.431778 0.672786 1.317186 -2.620054
    18 6.281226 0.000000 -0.000001 -1.234398 -0.291395 0.737125
    19 8.589427 0.000000 -0.000004 0.000000 0.000000 -1.612940
    20 9.932990 0.000000 0.000003 1.568967 0.165722 0.000000
    21 2.456152 0.000000 0.000000 0.000000 0.000000 0.005147
    22 0.946167 3.213873 -0.420090 -3.141592 -0.000002 1.413798
    23 1.827063 1.152534 -7.659250 -1.570796 -1.570796 0.000000
  time 13
    0 0.458009 1.152836 41.293786 0.000000 0.027512 -1.570844
    1 0.000000 0.000000 0.000000 -1.570795 -1.570796 0.000000
    2 -0.000007 0.000008 4.435206 -0.001341 3.089354 -0.127513
    3 18.336223 0.000000 0.000000 0.000000 0.000000 -0.252333
    4 17.141915 0.000000 0.000000 -0.003831 0.052072 0.152242
    5 0.000006 -0.000004 -4.435206 0.000864 -3.106800 -0.127496
    6 18.168325 0.000000 0.000000 0.000000 0.000000 -0.234889
    7 17.411113 0.000000 0.000000 0.002538 -0.034715 0.134828
    8 2.259109 -0.002685 0.000003 -0.000004 -0.000001 0.000796
    9 3.377682 -0.004248 0.000000 0.000000 0.000000 -0.103748
    10 5.343323 -0.004100 0.000000 0.000000 0.000000 0.095944
    11 5.180379 -0.004197 0.000000 0.000000 0.000000 -0.017444
    12 5.279783 -0.001935 0.000000 0.000000 0.000000 0.134667
    13 -3.132950 0.428427 2.533972 -0.672806 -1.317183 -2.620035
    14 6.075668 0.000000 0.000002 0.918472 1.102553 0.413315
    15 7.700847 0.000000 0.000000 0.000000 0.000000 -0.548877
    16 10.265787 0.000000 -0.000003 -1.569107 0.000000 0.000000
    17 -3.027999 0.414136 -2.431778 0.672786 1.317186 -2.620054
    18 6.281226 0.000000 -0.000001 -1.233636 -0.292335 0.736643
    19 8.589427 0.000000 -0.000004 0.000000 0.000000 -1.612940
    20 9.932990 0.000000 0.000003 1.568967 0.165722 0.000000
    21 2.456152 0.000000 0.000000 0.000000 0.000000 0.000883
    22 0.946167 3.213873 -0.420090 -3.141592 -0.000002 1.413798
    23 1.827063 1.152534 -7.659250 -1.570796 -1.570796 0.000000
  time 14
    0 0.458009 1.152836 41.293786 0.000000 0.028534 -1.570844
    1 0.000000 0.000000 0.000000 -1.570795 -1.570796 0.000000
    2 -0.000007 0.000008 4.435206 -0.001437 3.089354 -0.128568
    3 18.336223 0.000000 0.000000 0.000000 0.000000 -0.252333
    4 17.141915 0.000000 0.000000 -0.003758 0.052072 0.152242
    5 0.000006 -0.000004 -4.435206 0.000959 -3.106800 -0.128567
    6 18.168325 0.000000 0.000000 0.000000 0.000000 -0.234889
    7 17.411113 0.000000 0.000000 0.002538 -0.034715 0.134828
    8 2.259109 -0.002685 0.000003 -0.000004 -0.000001 0.000796
    9 3.377682 -0.004248 0.000000 0.000000 0.000000 -0.103019
    10 5.343323 -0.004100 0.000000 0.000000 0.000000 0.095944
    11 5.180379 -0.004197 0.000000 0.000000 0.000000 -0.017444
    12 5.279783 -0.001935 0.000000 0.000000 0.000000 0.134667
    13 -3.132950 0.428427 2.533972 -0.672806 -1.317183 -2.620035
    14 6.075668 0.000000 0.000002 0.917119 1.102881 0.412016
    15 7.700847 0.000000 0.000000 0.000000 0.000000 -0.548877
    16 10.265787 0.000000 -0.000003 -1.569107 0.000000 0.000000
    17 -3.027999 0.414136 -2.431778 0.672786 1.317186 -2.620054
    18 6.281226 0.000000 -0.000001 -1.233160 -0.292899 0.736367
    19 8.589427 0.000000 -0.000004 0.000000 0.000000 -1.612940
    20 9.932990 0.000000 0.000003 1.568967 0.165722 0.000000
    21 2.456152 0.000000 0.000000 0.000000 0.000000 -0.001659
    22 0.946167 3.213873 -0.420090 -3.141592 -0.000002 1.413798
    23 1.827063 1.152534 -7.659250 -1.570796 -1.570796 0.000000
  time 15
    0 0.458009 1.152836 41.293786 0.000000 0.026118 -1.570844
    1 0.000000 0.000000 0.000000 -1.570795 -1.570796 0.000000
    2 -0.000007 0.000008 4.435206 -0.001341 3.089354 -0.126075
    3 18.336223 0.000000 0.000000 0.000000 0.000000 -0.252333
    4 17.141915 0.000000 0.000000 -0.003905 0.052072 0.152242
    5 0.000006 -0.000004 -4.435206 0.000864 -3.106800 -0.126157
    6 18.168325 0.000000 0.000000 0.000000 0.000000 -0.234889
    7 17.411113 0.000000 0.000000 0.002624 -0.034715 0.134828
    8 2.259109 -0.002685 0.000003 -0.000004 -0.000001 0.000796
    9 3.377682 -0.004248 0.000000 0.000000 0.000000 -0.104652
    10 5.343323 -0.004100 0.000000 0.000000 0.000000 0.095944
    11 5.180379 -0.004197 0.000000 0.000000 0.000000 -0.017444
    12 5.279783 -0.001935 0.000000 0.000000 0.000000 0.134667
    13 -3.132950 0.428427 2.533972 -0.672806 -1.317183 -2.620035
    14 6.075668 0.000000 0.000002 0.920109 1.102062 0.414995
    15 7.700847 0.000000 0.000000 0.000000 0.000000 -0.548877
    16 10.265787 0.000000 -0.000003 -1.569107 0.000000 0.000000
    17 -3.027999 0.414136 -2.431778 0.672786 1.317186 -2.620054
    18 6.281226 0.000000 -0.000001 -1.234208 -0.291677 0.737057
    19 8.589427 0.000000 -0.000004 0.000000 0.000000 -1.612940
    20 9.932990 0.000000 0.000003 1.568967 0.165722 0.000000
    21 2.456152 0.000000 0.000000 0.000000 0.000000 0.004070
    22 0.946167 3.213873 -0.420090 -3.141592 -0.000002 1.413798
    23 1.827063 1.152534 -7.659250 -1.570796 -1.570796 0.000000
  time 16
    0 0.458009 1.152836 41.293786 0.000000 0.023980 -1.570844
    1 0.000000 0.000000 0.000000 -1.570795 -1.570796 0.000000
    2 -0.000007 0.000008 4.435206 -0.001149 3.089354 -0.123966
    3 18.336223 0.000000 0.000000 0.000000 0.000000 -0.252333
    4 17.141915 0.000000 0.000000 -0.004015 0.052072 0.152242
    5 0.000006 -0.000004 -4.435206 0.000768 -3.106800 -0.124014
    6 18.168325 0.000000 0.000000 0.000000 0.000000 -0.234889
    7 17.411113 0.000000 0.000000 0.002710 -0.034715 0.134828
    8 2.259109 -0.002685 0.000003 -0.000004 -0.000001 0.000796
    9 3.377682 -0.004248 0.000000 0.000000 0.000000 -0.106084
    10 5.343323 -0.004100 0.000000 0.000000 0.000000 0.095944
    11 5.180379 -0.004197 0.000000 0.000000 0.000000 -0.017444
    12 5.279783 -0.001935 0.000000 0.000000 0.000000 0.134667
    13 -3.132950 0.428427 2.533972 -0.672806 -1.317183 -2.620035
    14 6.075668 0.000000 0.000002 0.922673 1.101243 0.417593
    15 7.700847 0.000000 0.000000 0.000000 0.000000 -0.548877
    16 10.265787 0.000000 -0.000003 -1.569107 0.000000 0.000000
    17 -3.027999 0.414136 -2.431778 0.672786 1.317186 -2.620054
    18 6.281226 0.000000 -0.000001 -1.235160 -0.290549 0.737539
    19 8.589427 0.000000 -0.000004 0.000000 0.000000 -1.612940
    20 9.932990 0.000000 0.000003 1.568967 0.165722 0.000000
    21 2.456152 0.000000 0.000000 0.000000 0.000000 0.009066
    22 0.946167 3.213873 -0.420090 -3.141592 -0.000002 1.413798
    23 1.827063 1.152534 -7.659250 -1.570796 -1.570796 0.000000
  time 17
    0 0.458009 1.152836 41.293786 0.000000 0.021842 -1.570844
    1 0.000000 0.000000 0.000000 -1.570795 -1.570796 0.000000
    2 -0.000007 0.000008 4.435206 -0.001054 3.089354 -0.121857
    3 18.336223 0.000000 0.000000 0.000000 0.000000 -0.252333
    4 17.141915 0.000000 0.000000 -0.004125 0.052072 0.152242
    5 0.000006 -0.000004 -4.435206 0.000672 -3.106705 -0.121872
    6 18.168325 0.000000 0.000000 0.000000 0.000000 -0.234889
    7 17.411113 0.000000 0.000000 0.002796 -0.034715 0.134828
    8 2.259109 -0.002685 0.000003 -0.000004 -0.000001 0.000796
    9 3.377682 -0.004248 0.000000 0.000000 0.000000 -0.107492
    10 5.343323 -0.004100 0.000000 0.000000 0.000000 0.095944
    11 5.180379 -0.004197 0.000000 0.000000 0.000000 -0.017444
    12 5.279783 -0.001935 0.000000 0.000000 0.000000 0.134667
    13 -3.132950 0.428427 2.533972 -0.672806 -1.317183 -2.620035
    14 6.075668 0.000000 0.000002 0.925236 1.100506 0.420190
    15 7.700847 0.000000 0.000000 0.000000 0.000000 -0.548877
    16 10.265787 0.000000 -0.000003 -1.569107 0.000000 0.000000
    17 -3.027999 0.414136 -2.431778 0.672786 1.317186 -2.620054
    18 6.281226 0.000000 -0.000001 -1.236018 -0.289515 0.738091
    19 8.589427 0.000000 -0.000004 0.000000 0.000000 -1.612940
    20 9.932990 0.000000 0.000003 1.568967 0.165722 0.000000
    21 2.456152 0.000000 0.000000 0.000000 0.000000 0.014020
    22 0.946167 3.213873 -0.420090 -3.141592 -0.000002 1.413798
    23 1.827063 1.152534 -7.659250 -1.570796 -1.570796 0.000000
  time 18
    0 0.458009 1.152836 41.293786 0.000000 0.019797 -1.570844
    1 0.000000 0.000000 0.000000 -1.570795 -1.570796 0.000000
    2 -0.000007 0.000008 4.435206 -0.000958 3.089354 -0.119748
    3 18.336223 0.000000 0.000000 0.000000 0.000000 -0.252333
    4 17.141915 0.000000 0.000000 -0.004236 0.052072 0.152242
    5 0.000006 -0.000004 -4.435206 0.000672 -3.106705 -0.119729
    6 18.168325 0.000000 0.000000 0.000000 0.000000 -0.234889
    7 17.411113 0.000000 0.000000 0.002882 -0.034715 0.134828
    8 2.259109 -0.002685 0.000003 -0.000004 -0.000001 0.000796
    9 3.377682 -0.004248 0.000000 0.000000 0.000000 -0.108899
    10 5.343323 -0.004100 0.000000 0.000000 0.000000 0.095944
    11 5.180379 -0.004197 0.000000 0.000000 0.000000 -0.017444
    12 5.279783 -0.001935 0.000000 0.000000 0.000000 0.134667
    13 -3.132950 0.428427 2.533972 -0.672806 -1.317183 -2.620035
    14 6.075668 0.000000 0.000002 0.927800 1.099770 0.422711
    15 7.700847 0.000000 0.000000 0.000000 0.000000 -0.548877
    16 10.265787 0.000000 -0.000003 -1.569107 0.000000 0.000000
    17 -3.027999 0.414136 -2.431778 0.672786 1.317186 -2.620054
    18 6.281226 0.000000 -0.000001 -1.236970 -0.288386 0.738643
    19 8.589427 0.000000 -0.000004 0.000000 0.000000 -1.612940
    20 9.932990 0.000000 0.000003 1.568967 0.165722 0.000000
    21 2.456152 0.000000 0.000000 0.000000 0.000000 0.018887
    22 0.946167 3.213873 -0.420090 -3.141592 -0.000002 1.413798
    23 1.827063 1.152534 -7.659250 -1.570796 -1.570796 0.000000
  time 19
    0 0.458009 1.152836 41.293786 0.000000 0.017660 -1.570844
    1 0.000000 0.000000 0.000000 -1.570795 -1.570796 0.000000
    2 -0.000007 0.000008 4.435206 -0.000862 3.089354 -0.117735
    3 18.336223 0.000000 0.000000 0.000000 0.000000 -0.252333
    4 17.141915 0.000000 0.000000 -0.004309 0.052072 0.152242
    5 0.000006 -0.000004 -4.435206 0.000576 -3.106705 -0.117676
    6 18.168325 0.000000 0.000000 0.000000 0.000000 -0.234889
    7 17.411113 0.000000 0.000000 0.002882 -0.034715 0.134828
    8 2.259109 -0.002685 0.000003 -0.000004 -0.000001 0.000796
    9 3.377682 -0.004248 0.000000 0.000000 0.000000 -0.110281
    10 5.343323 -0.004100 0.000000 0.000000 0.000000 0.095944
    11 5.180379 -0.004197 0.000000 0.000000 0.000000 -0.017444
    12 5.279783 -0.001935 0.000000 0.000000 0.000000 0.134667
    13 -3.132950 0.428427 2.533972 -0.672806 -1.317183 -2.620035
    14 6.075668 0.000000 0.000002 0.930292 1.099033 0.425155
    15 7.700847 0.000000 0.000000 0.000000 0.000000 -0.548877
    16 10.265787 0.000000 -0.000003 -1.569107 0.000000 0.000000
    17 -3.027999 0.414136 -2.431778 0.672786 1.317186 -2.620054
    18 6.281226 0.000000 -0.000001 -1.237827 -0.287352 0.739126
    19 8.589427 0.000000 -0.000004 0.000000 0.000000 -1.612940
    20 9.932990 0.000000 0.000003 1.568967 0.165722 0.000000
    21 2.456152 0.000000 0.000000 0.000000 0.000000 0.023754
    22 0.946167 3.213873 -0.420090 -3.141592 -0.000002 1.413798
    23 1.827063 1.152534 -7.659250 -1.570796 -1.570796 0.000000
  time 20
    0 0.458009 1.152836 41.293786 0.000000 0.015615 -1.570844
    1 0.000000 0.000000 0.000000 -1.570795 -1.570796 0.000000
    2 -0.000007 0.000008 4.435206 -0.000766 3.089354 -0.115626
    3 18.336223 0.000000 0.000000 0.000000 0.000000 -0.252333
    4 17.141915 0.000000 0.000000 -0.004420 0.052072 0.152197
    5 0.000006 -0.000004 -4.435206 0.000480 -3.106705 -0.115623
    6 18.168325 0.000000 0.000000 0.000000 0.000000 -0.234889
    7 17.411113 0.000000 0.000000 0.002968 -0.034715 0.134828
    8 2.259109 -0.002685 0.000003 -0.000004 -0.000001 0.000796
    9 3.377682 -0.004248 0.000000 0.000000 0.000000 -0.111637
    10 5.343323 -0.004100 0.000000 0.000000 0.000000 0.095944
    11 5.180379 -0.004197 0.000000 0.000000 0.000000 -0.017444
    12 5.279783 -0.001935 0.000000 0.000000 0.000000 0.134667
    13 -3.132950 0.428427 2.533972 -0.672806 -1.317183 -2.620035
    14 6.075668 0.000000 0.000002 0.932713 1.098296 0.427600
    15 7.700847 0.000000 0.000000 0.000000 0.000000 -0.548877
    16 10.265787 0.000000 -0.000003 -1.569107 0.000000 0.000000
    17 -3.027999 0.414136 -2.431778 0.672786 1.317186 -2.620054
    18 6.281226 0.000000 -0.000001 -1.238684 -0.286318 0.739677
    19 8.589427 0.000000 -0.000004 0.000000 0.000000 -1.612940
    20 9.932990 0.000000 0.000003 1.568967 0.165722 0.000000
    21 2.456152 0.000000 0.000000 0.000000 0.000000 0.028492
    22 0.946167 3.213873 -0.420090 -3.141592 -0.000002 1.413798
    23 1.827063 1.152534 -7.659250 -1.570796 -1.570796 0.000000
  time 21
    0 0.458009 1.152836 41.293786 0.000000 0.013663 -1.570844
    1 0.000000 0.000000 0.000000 -1.570795 -1.570796 0.000000
    2 -0.000007 0.000008 4.435206 -0.000670 3.089258 -0.113613
    3 18.336223 0.000000 0.000000 0.000000 0.000000 -0.252333
    4 17.141915 0.000000 0.000000 -0.004530 0.052072 0.152197
    5 0.000006 -0.000004 -4.435206 0.000384 -3.106705 -0.113659
    6 18.168325 0.000000 0.000000 0.000000 0.000000 -0.234889
    7 17.411113 0.000000 0.000000 0.003055 -0.034715 0.134828
    8 2.259109 -0.002685 0.000003 -0.000004 -0.000001 0.000796
    9 3.377682 -0.004248 0.000000 0.000000 0.000000 -0.112969
    10 5.343323 -0.004100 0.000000 0.000000 0.000000 0.095944
    11 5.180379 -0.004197 0.000000 0.000000 0.000000 -0.017444
    12 5.279783 -0.001935 0.000000 0.000000 0.000000 0.134667
    13 -3.132950 0.428427 2.533972 -0.672806 -1.317183 -2.620035
    14 6.075668 0.000000 0.000002 0.935134 1.097559 0.430044
    15 7.700847 0.000000 0.000000 0.000000 0.000000 -0.548877
    16 10.265787 0.000000 -0.000003 -1.569107 0.000000 0.000000
    17 -3.027999 0.414136 -2.431778 0.672786 1.317186 -2.620054
    18 6.281226 0.000000 -0.000001 -1.239542 -0.285284 0.740160
    19 8.589427 0.000000 -0.000004 0.000000 0.000000 -1.612940
    20 9.932990 0.000000 0.000003 1.568967 0.165722 0.000000
    21 2.456152 0.000000 0.000000 0.000000 0.000000 0.033144
    22 0.946167 3.213873 -0.420090 -3.141592 -0.000002 1.413798
    23 1.827063 1.152534 -7.659250 -1.570796 -1.570796 0.000000
  time 22
    0 0.458009 1.152836 41.293786 0.000000 0.011711 -1.570844
    1 0.000000 0.000000 0.000000 -1.570795 -1.570796 0.000000
    2 -0.000007 0.000008 4.435206 -0.000574 3.089258 -0.111696
    3 18.336223 0.000000 0.000000 0.000000 0.000000 -0.252333
    4 17.141915 0.000000 0.000000 -0.004640 0.052072 0.152197
    5 0.000006 -0.000004 -4.435206 0.000384 -3.106705 -0.111695
    6 18.168325 0.000000 0.000000 0.000000 0.000000 -0.234889
    7 17.411113 0.000000 0.000000 0.003141 -0.034715 0.134828
    8 2.259109 -0.002685 0.000003 -0.000004 -0.000001 0.000796
    9 3.377682 -0.004248 0.000000 0.000000 0.000000 -0.114276
    10 5.343323 -0.004100 0.000000 0.000000 0.000000 0.095944
    11 5.180379 -0.004197 0.000000 0.000000 0.000000 -0.017444
    12 5.279783 -0.001935 0.000000 0.000000 0.000000 0.134667
    13 -3.132950 0.428427 2.533972 -0.672806 -1.317183 -2.620035
    14 6.075668 0.000000 0.000002 0.937412 1.096822 0.432336
    15 7.700847 0.000000 0.000000 0.000000 0.000000 -0.548877
    16 10.265787 0.000000 -0.000003 -1.569107 0.000000 0.000000
    17 -3.027999 0.414136 -2.431778 0.672786 1.317186 -2.620054
    18 6.281226 0.000000 -0.000001 -1.240399 -0.284250 0.740643
    19 8.589427 0.000000 -0.000004 0.000000 0.000000 -1.612940
    20 9.932990 0.000000 0.000003 1.568967 0.165722 0.000000
    21 2.456152 0.000000 0.000000 0.000000 0.000000 0.037710
    22 0.946167 3.213873 -0.420090 -3.141592 -0.000002 1.413798
    23 1.827063 1.152534 -7.659250 -1.570796 -1.570796 0.000000
  time 23
    0 0.458009 1.152836 41.293786 0.000000 0.009759 -1.570844
    1 0.000000 0.000000 0.000000 -1.570795 -1.570796 0.000000
    2 -0.000007 0.000008 4.435206 -0.000478 3.089258 -0.109778
    3 18.336223 0.000000 0.000000 0.000000 0.000000 -0.252333
    4 17.141915 0.000000 0.000000 -0.004751 0.052072 0.152197
    5 0.000006 -0.000004 -4.435206 0.000289 -3.106705 -0.109820
    6 18.168325 0.000000 0.000000 0.000000 0.000000 -0.234889
    7 17.411113 0.000000 0.000000 0.003227 -0.034715 0.134828
    8 2.259109 -0.002685 0.000003 -0.000004 -0.000001 0.000796
    9 3.377682 -0.004248 0.000000 0.000000 0.000000 -0.115532
    10 5.343323 -0.004100 0.000000 0.000000 0.000000 0.095944
    11 5.180379 -0.004197 0.000000 0.000000 0.000000 -0.017444
    12 5.279783 -0.001935 0.000000 0.000000 0.000000 0.134667
    13 -3.132950 0.428427 2.533972 -0.672806 -1.317183 -2.620035
    14 6.075668 0.000000 0.000002 0.939691 1.096167 0.434627
    15 7.700847 0.000000 0.000000 0.000000 0.000000 -0.548877
    16 10.265787 0.000000 -0.000003 -1.569107 0.000000 0.000000
    17 -3.027999 0.414136 -2.431778 0.672786 1.317186 -2.620054
    18 6.281226 0.000000 -0.000001 -1.241161 -0.283309 0.741126
    19 8.589427 0.000000 -0.000004 0.000000 0.000000 -1.612940
    20 9.932990 0.000000 0.000003 1.568967 0.165722 0.000000
    21 2.456152 0.000000 0.000000 0.000000 0.000000 0.042189
    22 0.946167 3.213873 -0.420090 -3.141592 -0.000002 1.413798
    23 1.827063 1.152534 -7.659250 -1.570796 -1.570796 0.000000
  time 24
    0 0.458009 1.152836 41.293786 0.000000 0.007993 -1.570844
    1 0.000000 0.000000 0.000000 -1.570795 -1.570796 0.000000
    2 -0.000007 0.000008 4.435206 -0.000382 3.089258 -0.107957
    3 18.336223 0.000000 0.000000 0.000000 0.000000 -0.252333
    4 17.141915 0.000000 0.000000 -0.004824 0.052072 0.152197
    5 0.000006 -0.000004 -4.435206 0.000193 -3.106705 -0.107945
    6 18.168325 0.000000 0.000000 0.000000 0.000000 -0.234889
    7 17.411113 0.000000 0.000000 0.003227 -0.034715 0.134828
    8 2.259109 -0.002685 0.000003 -0.000004 -0.000001 0.000796
    9 3.377682 -0.004248 0.000000 0.000000 0.000000 -0.116763
    10 5.343323 -0.004100 0.000000 0.000000 0.000000 0.095944
    11 5.180379 -0.004197 0.000000 0.000000 0.000000 -0.017444
    12 5.279783 -0.001935 0.000000 0.000000 0.000000 0.134667
    13 -3.132950 0.428427 2.533972 -0.672806 -1.317183 -2.620035
    14 6.075668 0.000000 0.000002 0.941827 1.095431 0.436766
    15 7.700847 0.000000 0.000000 0.000000 0.000000 -0.548877
    16 10.265787 0.000000 -0.000003 -1.569107 0.000000 0.000000
    17 -3.027999 0.414136 -2.431778 0.672786 1.317186 -2.620054
    18 6.281226 0.000000 -0.000001 -1.241923 -0.282369 0.741609
    19 8.589427 0.000000 -0.000004 0.000000 0.000000 -1.612940
    20 9.932990 0.000000 0.000003 1.568967 0.165722 0.000000
    21 2.456152 0.000000 0.000000 0.000000 0.000000 0.046453
    22 0.946167 3.213873 -0.420090 -3.141592 -0.000002 1.413798
    23 1.827063 1.152534 -7.659250 -1.570796 -1.570796 0.000000
  time 25
    0 0.458009 1.152836 41.293786 0.000000 0.006227 -1.570844
    1 0.000000 0.000000 0.000000 -1.570795 -1.570796 0.000000
    2 -0.000007 0.000008 4.435206 -0.000287 3.089258 -0.106231
    3 18.336223 0.000000 0.000000 0.000000 0.000000 -0.252333
    4 17.141915 0.000000 0.000000 -0.004935 0.052072 0.152197
    5 0.000006 -0.000004 -4.435206 0.000193 -3.106705 -0.106249
    6 18.168325 0.000000 0.000000 0.000000 0.000000 -0.234889
    7 17.411113 0.000000 0.000000 0.003313 -0.034715 0.134828
    8 2.259109 -0.002685 0.000003 -0.000004 -0.000001 0.000796
    9 3.377682 -0.004248 0.000000 0.000000 0.000000 -0.117919
    10 5.343323 -0.004100 0.000000 0.000000 0.000000 0.095944
    11 5.180379 -0.004197 0.000000 0.000000 0.000000 -0.017444
    12 5.279783 -0.001935 0.000000 0.000000 0.000000 0.134667
    13 -3.132950 0.428427 2.533972 -0.672806 -1.317183 -2.620035
    14 6.075668 0.000000 0.000002 0.943892 1.094857 0.438829
    15 7.700847 0.000000 0.000000 0.000000 0.000000 -0.548877
    16 10.265787 0.000000 -0.000003 -1.569107 0.000000 0.000000
    17 -3.027999 0.414136 -2.431778 0.672786 1.317186 -2.620054
    18 6.281226 0.000000 -0.000001 -1.242685 -0.281429 0.742022
    19 8.589427 0.000000 -0.000004 0.000000 0.000000 -1.612940
    20 9.932990 0.000000 0.000003 1.568967 0.165722 0.000000
    21 2.456152 0.000000 0.000000 0.000000 0.000000 0.050545
    22 0.946167 3.213873 -0.420090 -3.141592 -0.000002 1.413798
    23 1.827063 1.152534 -7.659250 -1.570796 -1.570796 0.000000
  time 26
    0 0.458009 1.152836 41.293786 0.000000 0.004554 -1.570844
    1 0.000000 0.000000 0.000000 -1.570795 -1.570796 0.000000
    2 -0.000007 0.000008 4.435206 -0.000191 3.089258 -0.104602
    3 18.336223 0.000000 0.000000 0.000000 0.000000 -0.252333
    4 17.141915 0.000000 0.000000 -0.005008 0.052072 0.152197
    5 0.000006 -0.000004 -4.435206 0.000097 -3.106705 -0.104553
    6 18.168325 0.000000 0.000000 0.000000 0.000000 -0.234889
    7 17.411113 0.000000 0.000000 0.003399 -0.034715 0.134828
    8 2.259109 -0.002685 0.000003 -0.000004 -0.000001 0.000796
    9 3.377682 -0.004248 0.000000 0.000000 0.000000 -0.119025
    10 5.343323 -0.004100 0.000000 0.000000 0.000000 0.095944
    11 5.180379 -0.004197 0.000000 0.000000 0.000000 -0.017444
    12 5.279783 -0.001935 0.000000 0.000000 0.000000 0.134667
    13 -3.132950 0.428427 2.533972 -0.672806 -1.317183 -2.620035
    14 6.075668 0.000000 0.000002 0.945886 1.094202 0.440739
    15 7.700847 0.000000 0.000000 0.000000 0.000000 -0.548877
    16 10.265787 0.000000 -0.000003 -1.569107 0.000000 0.000000
    17 -3.027999 0.414136 -2.431778 0.672786 1.317186 -2.620054
    18 6.281226 0.000000 -0.000001 -1.243352 -0.280583 0.742436
    19 8.589427 0.000000 -0.000004 0.000000 0.000000 -1.612940
    20 9.932990 0.000000 0.000003 1.568967 0.165722 0.000000
    21 2.456152 0.000000 0.000000 0.000000 0.000000 0.054336
    22 0.946167 3.213873 -0.420090 -3.141592 -0.000002 1.413798
    23 1.827063 1.152534 -7.659250 -1.570796 -1.570796 0.000000
  time 27
    0 0.458009 1.152836 41.293786 0.000000 0.003067 -1.570844
    1 0.000000 0.000000 0.000000 -1.570795 -1.570796 0.000000
    2 -0.000007 0.000008 4.435206 -0.000095 3.089258 -0.103068
    3 18.336223 0.000000 0.000000 0.000000 0.000000 -0.252333
    4 17.141915 0.000000 0.000000 -0.005082 0.052072 0.152197
    5 0.000006 -0.000004 -4.435206 0.000097 -3.106705 -0.103035
    6 18.168325 0.000000 0.000000 0.000000 0.000000 -0.234889
    7 17.411113 0.000000 0.000000 0.003399 -0.034715 0.134828
    8 2.259109 -0.002685 0.000003 -0.000004 -0.000001 0.000796
    9 3.377682 -0.004248 0.000000 0.000000 0.000000 -0.120030
    10 5.343323 -0.004100 0.000000 0.000000 0.000000 0.095944
    11 5.180379 -0.004197 0.000000 0.000000 0.000000 -0.017444
    12 5.279783 -0.001935 0.000000 0.000000 0.000000 0.134667
    13 -3.132950 0.428427 2.533972 -0.672806 -1.317183 -2.620035
    14 6.075668 0.000000 0.000002 0.947595 1.093629 0.442496
    15 7.700847 0.000000 0.000000 0.000000 0.000000 -0.548877
    16 10.265787 0.000000 -0.000003 -1.569107 0.000000 0.000000
    17 -3.027999 0.414136 -2.431778 0.672786 1.317186 -2.620054
    18 6.281226 0.000000 -0.000001 -1.244018 -0.279831 0.742781
    19 8.589427 0.000000 -0.000004 0.000000 0.000000 -1.612940
    20 9.932990 0.000000 0.000003 1.568967 0.165722 0.000000
    21 2.456152 0.000000 0.000000 0.000000 0.000000 0.057824
    22 0.946167 3.213873 -0.420090 -3.141592 -0.000002 1.413798
    23 1.827063 1.152534 -7.659250 -1.570796 -1.570796 0.000000
  time 28
    0 0.458009 1.152836 41.293786 0.000000 0.001766 -1.570844
    1 0.000000 0.000000 0.000000 -1.570795 -1.570796 0.000000
    2 -0.000007 0.000008 4.435206 0.000001 3.089258 -0.101726
    3 18.336223 0.000000 0.000000 0.000000 0.000000 -0.252333
    4 17.141915 0.000000 0.000000 -0.005155 0.052072 0.152197
    5 0.000006 -0.000004 -4.435206 0.000001 -3.106705 -0.101785
    6 18.168325 0.000000 0.000000 0.000000 0.000000 -0.234889
    7 17.411113 0.000000 0.000000 0.003485 -0.034715 0.134828
    8 2.259109 -0.002685 0.000003 -0.000004 -0.000001 0.000796
    9 3.377682 -0.004248 0.000000 0.000000 0.000000 -0.120884
    10 5.343323 -0.004100 0.000000 0.000000 0.000000 0.095944
    11 5.180379 -0.004197 0.000000 0.000000 0.000000 -0.017444
    12 5.279783 -0.001935 0.000000 0.000000 0.000000 0.134667
    13 -3.132950 0.428427 2.533972 -0.672806 -1.317183 -2.620035
    14 6.075668 0.000000 0.000002 0.949161 1.093220 0.444023
    15 7.700847 0.000000 0.000000 0.000000 0.000000 -0.548877
    16 10.265787 0.000000 -0.000003 -1.569107 0.000000 0.000000
    17 -3.027999 0.414136 -2.431778 0.672786 1.317186 -2.620054
    18 6.281226 0.000000 -0.000001 -1.244590 -0.279173 0.743126
    19 8.589427 0.000000 -0.000004 0.000000 0.000000 -1.612940
    20 9.932990 0.000000 0.000003 1.568967 0.165722 0.000000
    21 2.456152 0.000000 0.000000 0.000000 0.000000 0.060883
    22 0.946167 3.213873 -0.420090 -3.141592 -0.000002 1.413798
    23 1.827063 1.152534 -7.659250 -1.570796 -1.570796 0.000000
  time 29
    0 0.458009 1.152836 41.293786 0.000000 0.000651 -1.570844
    1 0.000000 0.000000 0.000000 -1.570795 -1.570796 0.000000
    2 -0.000007 0.000008 4.435206 0.000001 3.089258 -0.100671
    3 18.336223 0.000000 0.000000 0.000000 0.000000 -0.252333
    4 17.141915 0.000000 0.000000 -0.005192 0.052072 0.152197
    5 0.000006 -0.000004 -4.435206 0.000001 -3.106705 -0.100714
    6 18.168325 0.000000 0.000000 0.000000 0.000000 -0.234889
    7 17.411113 0.000000 0.000000 0.003485 -0.034715 0.134828
    8 2.259109 -0.002685 0.000003 -0.000004 -0.000001 0.000796
    9 3.377682 -0.004248 0.000000 0.000000 0.000000 -0.121613
    10 5.343323 -0.004100 0.000000 0.000000 0.000000 0.095944
    11 5.180379 -0.004197 0.000000 0.000000 0.000000 -0.017444
    12 5.279783 -0.001935 0.000000 0.000000 0.000000 0.134667
    13 -3.132950 0.428427 2.533972 -0.672806 -1.317183 -2.620035
    14 6.075668 0.000000 0.000002 0.950372 1.092811 0.445322
    15 7.700847 0.000000 0.000000 0.000000 0.000000 -0.548877
    16 10.265787 0.000000 -0.000003 -1.569107 0.000000 0.000000
    17 -3.027999 0.414136 -2.431778 0.672786 1.317186 -2.620054
    18 6.281226 0.000000 -0.000001 -1.244971 -0.278609 0.743402
    19 8.589427 0.000000 -0.000004 0.000000 0.000000 -1.612940
    20 9.932990 0.000000 0.000003 1.568967 0.165722 0.000000
    21 2.456152 0.000000 0.000000 0.000000 0.000000 0.063424
    22 0.946167 3.213873 -0.420090 -3.141592 -0.000002 1.413798
    23 1.827063 1.152534 -7.659250 -1.570796 -1.570796 0.000000
  time 30
    0 0.458009 1.152836 41.293786 0.000000 0.000000 -1.570844
    1 0.000000 0.000000 0.000000 -1.570795 -1.570796 0.000000
    2 -0.000007 0.000008 4.435206 0.000001 3.089258 -0.100000
    3 18.336223 0.000000 0.000000 0.000000 0.000000 -0.252333
    4 17.141915 0.000000 0.000000 -0.005229 0.052072 0.152197
    5 0.000006 -0.000004 -4.435206 0.000001 -3.106705 -0.100000
    6 18.168325 0.000000 0.000000 0.000000 0.000000 -0.234889
    7 17.411113 0.000000 0.000000 0.003485 -0.034715 0.134828
    8 2.259109 -0.002685 0.000003 -0.000004 -0.000001 0.000796
    9 3.377682 -0.004248 0.000000 0.000000 0.000000 -0.122090
    10 5.343323 -0.004100 0.000000 0.000000 0.000000 0.095944
    11 5.180379 -0.004197 0.000000 0.000000 0.000000 -0.017444
    12 5.279783 -0.001935 0.000000 0.000000 0.000000 0.134667
    13 -3.132950 0.428427 2.533972 -0.672806 -1.317183 -2.620035
    14 6.075668 0.000000 0.000002 0.951226 1.092483 0.446162
    15 7.700847 0.000000 0.000000 0.000000 0.000000 -0.548877
    16 10.265787 0.000000 -0.000003 -1.569107 0.000000 0.000000
    17 -3.027999 0.414136 -2.431778 0.672786 1.317186 -2.620054
    18 6.281226 0.000000 -0.000001 -1.245352 -0.278232 0.743540
    19 8.589427 0.000000 -0.000004 0.000000 0.000000 -1.612940
    20 9.932990 0.000000 0.000003 1.568967 0.165722 0.000000
    21 2.456152 0.000000 0.000000 0.000000 0.000000 0.065147
    22 0.946167 3.213873 -0.420090 -3.141592 -0.000002 1.413798
    23 1.827063 1.152534 -7.659250 -1.570796 -1.570796 0.000000
end
