version 1
nodes
  0 "Bip01" -1
  1 "Bip01 Pelvis" 0
  2 "Bip01 L Leg" 1
  3 "Bip01 L Leg1" 2
  4 "Bip01 L Foot" 3
  5 "Bip01 R Leg" 1
  6 "Bip01 R Leg1" 5
  7 "Bip01 R Foot" 6
  8 "Bip01 Spine" 1
  9 "Bip01 Spine1" 8
  10 "Bip01 Spine2" 9
  11 "Bip01 Spine3" 10
  12 "Bip01 Neck" 11
  13 "Bip01 L Arm" 12
  14 "Bip01 L Arm1" 13
  15 "Bip01 L Arm2" 14
  16 "Bip01 L Hand" 15
  17 "Bip01 R Arm" 12
  18 "Bip01 R Arm1" 17
  19 "Bip01 R Arm2" 18
  20 "Bip01 R Hand" 19
  21 "Bip01 Head" 12
  22 "Bone05" 21
  23 "Bone03" 1
end
skeleton
  time 0
    0 1.727579 6.791176 40.724147 0.000000 0.000000 -1.701715
    1 0.000000 0.000000 0.000000 -1.570795 -1.570796 0.000000
    2 -0.000007 0.000008 4.427393 -0.170941 3.132578 -0.013434
    3 18.301065 0.000000 0.000000 0.000000 0.000000 -0.414314
    4 17.106758 0.000000 0.000000 0.018462 0.017483 0.385277
    5 0.000006 -0.000004 -4.427393 0.109168 -3.179402 -0.288364
    6 18.133167 0.000000 0.000000 0.000000 0.000000 -0.213633
    7 17.375956 0.000000 0.000000 -0.002024 0.005098 -0.077110
    8 2.255203 -0.002685 0.000003 0.139544 -0.000099 0.000796
    9 3.373776 -0.004248 0.000000 -0.017436 -0.017422 0.000302
    10 5.335510 -0.004100 0.000000 0.017407 0.000438 -0.026150
    11 5.172566 -0.004197 0.000000 -0.026157 -0.000431 -0.017444
    12 5.271970 -0.001935 0.000000 0.000024 0.043606 0.335253
    13 -3.089980 1.041727 2.401156 -0.875956 -1.358599 -2.606395
    14 6.063949 0.000000 0.000002 0.688690 1.101734 0.397655
    15 7.685221 0.000000 0.000000 0.000000 0.000000 -0.470457
    16 10.246255 0.000000 -0.000003 -1.516737 0.060927 0.003137
    17 -2.774085 1.007904 -2.548969 1.160442 1.415262 -2.327861
    18 6.269507 0.000000 -0.000001 -0.534422 -1.198292 0.213636
    19 8.573802 0.000000 -0.000004 0.000000 0.000000 -0.234206
    20 9.913458 0.000000 0.000003 1.546560 0.097060 -0.254240
    21 2.452246 0.000000 0.000000 0.000855 -0.008359 -0.101243
    22 0.946167 3.213873 -0.420090 -3.141592 -0.000002 1.413798
    23 1.827063 1.152534 -7.643625 -1.570796 -1.570796 0.000000
  time 1
    0 1.563512 6.476590 40.740901 0.003547 -0.000744 -1.753009
    1 0.000000 0.000000 0.000000 -0.000025 -1.552480 -1.570793
    2 -0.000007 0.000008 4.427393 -0.171133 3.099513 0.029610
    3 18.301065 0.000000 0.000000 0.000000 0.000000 -0.352680
    4 17.106758 0.000000 0.000000 -0.031311 0.020369 0.366908
    5 0.000006 -0.000004 -4.427393 0.102746 -3.190579 -0.310503
    6 18.133167 0.000000 0.000000 0.000000 0.000000 -0.263461
    7 17.375956 0.000000 0.000000 -0.050748 -0.006814 -0.048763
    8 2.255203 -0.002685 0.039067 0.126683 -0.018410 0.000796
    9 3.373776 -0.004248 0.000000 -0.032107 -0.016935 0.015202
    10 5.335510 -0.004100 0.000000 0.006435 0.000061 -0.011496
    11 5.172566 -0.004197 0.000000 -0.029822 -0.000216 -0.008289
    12 5.271970 -0.001935 0.000000 0.000024 0.043606 0.335253
    13 -3.089980 1.041727 2.401156 -0.669192 -1.397085 -2.811667
    14 6.063949 0.000000 0.000002 0.557885 1.133090 0.345863
    15 7.685221 0.000000 0.000000 0.000000 0.000000 -0.603299
    16 10.246255 0.000000 -0.000003 -1.517910 0.061909 -0.015813
    17 -2.774085 1.007904 -2.548969 1.203130 1.398818 -2.286529
    18 6.269507 0.000000 -0.000001 -0.543852 -1.157018 0.263847
    19 8.573802 0.000000 -0.000004 0.000000 0.000000 -0.405771
    20 9.913458 0.000000 0.000003 1.546560 0.097060 -0.254240
    21 2.452246 0.000000 0.000000 0.043720 -0.015473 -0.138888
    22 0.946167 3.213873 -0.420090 -3.141592 -0.000002 1.413798
    23 1.827063 1.152534 -7.643625 -1.570796 -1.570796 0.000000
  time 2
    0 1.106466 5.593331 40.757655 0.008916 -0.001580 -1.828081
    1 0.000000 0.000000 0.000000 -0.000025 -1.525652 -1.570793
    2 -0.000007 0.000008 4.427393 -0.161929 3.045555 0.147141
    3 18.301065 0.000000 0.000000 0.000000 0.000000 -0.174253
    4 17.106758 0.000000 0.000000 -0.104517 0.021251 0.306302
    5 0.000006 -0.000004 -4.427393 0.093929 -3.205576 -0.335142
    6 18.133167 0.000000 0.000000 0.000000 0.000000 -0.349453
    7 17.375956 0.000000 0.000000 -0.122715 -0.024682 0.014026
    8 2.255203 -0.002685 0.097662 0.107887 -0.045226 0.000796
    9 3.373776 -0.004248 0.000000 -0.053522 -0.015440 0.036986
    10 5.335510 -0.004100 0.000000 -0.009620 0.000097 0.009964
    11 5.172566 -0.004197 0.000000 -0.035192 0.000204 0.005112
    12 5.271970 -0.001935 0.000000 0.000024 0.043606 0.335253
    13 -3.089980 1.041727 2.401156 -0.207824 -1.431283 -3.270860
    14 6.063949 0.000000 0.000002 0.339355 1.165592 0.241438
    15 7.685221 0.000000 0.000000 0.000000 0.000000 -0.786190
    16 10.246255 0.000000 -0.000003 -1.519586 0.063247 -0.042958
    17 -2.774085 1.007904 -2.548969 1.252231 1.374574 -2.239265
    18 6.269507 0.000000 -0.000001 -0.538708 -1.099103 0.320541
    19 8.573802 0.000000 -0.000004 0.000000 0.000000 -0.637925
    20 9.913458 0.000000 0.000003 1.546560 0.097060 -0.254240
    21 2.452246 0.000000 0.000000 0.106636 -0.024853 -0.194624
    22 0.946167 3.213873 -0.420090 -3.141592 -0.000002 1.413798
    23 1.827063 1.152534 -7.643625 -1.570796 -1.570796 0.000000
  time 3
    0 0.438477 4.298691 40.774409 0.015244 -0.002045 -1.916287
    1 0.000000 0.000000 0.000000 -0.000025 -1.494173 -1.570793
    2 -0.000007 0.000008 4.427393 -0.141028 2.983546 0.275217
    3 18.301065 0.000000 0.000000 0.000000 0.000000 -0.001867
    4 17.106758 0.000000 0.000000 -0.189421 0.014758 0.210210
    5 0.000006 -0.000004 -4.427393 0.085015 -3.225828 -0.346569
    6 18.133167 0.000000 0.000000 0.000000 0.000000 -0.435651
    7 17.375956 0.000000 0.000000 -0.209747 -0.041538 0.090683
    8 2.251297 -0.002685 0.171883 0.085814 -0.076700 0.000796
    9 3.373776 -0.004248 0.000000 -0.078613 -0.012498 0.062465
    10 5.335510 -0.004100 0.000000 -0.028507 0.001022 0.035133
    11 5.172566 -0.004197 0.000000 -0.041467 0.000899 0.020845
    12 5.271970 -0.001935 0.000000 0.000024 0.043606 0.335253
    13 -3.089980 1.041727 2.401156 0.412659 -1.421849 -3.889062
    14 6.063949 0.000000 0.000002 0.057665 1.179837 0.091028
    15 7.685221 0.000000 0.000000 0.000000 0.000000 -0.911342
    16 10.246255 0.000000 -0.000003 -1.521513 0.064763 -0.073431
    17 -2.774085 1.007904 -2.548969 1.289942 1.350586 -2.203387
    18 6.269507 0.000000 -0.000001 -0.502704 -1.050308 0.338336
    19 8.573802 0.000000 -0.000004 0.000000 0.000000 -0.783184
    20 9.913458 0.000000 0.000003 1.546560 0.097060 -0.254240
    21 2.452246 0.000000 0.000000 0.180664 -0.034200 -0.260913
    22 0.946167 3.213873 -0.420090 -3.141592 -0.000002 1.413798
    23 1.827063 1.152534 -7.643625 -1.570796 -1.570796 0.000000
  time 4
    0 -0.377954 2.725764 40.791163 0.021859 -0.001952 -2.008329
    1 0.000000 0.000000 0.000000 -0.000025 -1.461265 -1.570793
    2 -0.000007 0.000008 4.427393 -0.160011 2.951536 0.148867
    3 18.301065 0.000000 0.000000 0.000000 0.000000 -0.477330
    4 17.106758 0.000000 0.000000 -0.128318 -0.057906 0.241138
    5 0.000006 -0.000004 -4.427393 0.075335 -3.252958 -0.341034
    6 18.133167 0.000000 0.000000 0.000000 0.000000 -0.508737
    7 17.375956 0.000000 0.000000 -0.301599 -0.051542 0.171353
    8 2.243484 -0.002685 0.246104 0.062752 -0.109571 0.000796
    9 3.373776 -0.004248 0.000000 -0.104675 -0.008085 0.088948
    10 5.335510 -0.004100 0.000000 -0.048166 0.002994 0.061408
    11 5.172566 -0.004197 0.000000 -0.048022 0.001822 0.037272
    12 5.271970 -0.001935 0.000000 0.000024 0.043606 0.335253
    13 -3.089980 1.041727 2.401156 0.876120 -1.358528 -4.349686
    14 6.063949 0.000000 0.000002 -0.246455 1.163300 -0.069238
    15 7.685221 0.000000 0.000000 0.000000 0.000000 -0.787913
    16 10.246255 0.000000 -0.000003 -1.523859 0.066369 -0.109026
    17 -2.774085 1.007904 -2.548969 1.327748 1.319750 -2.167987
    18 6.269507 0.000000 -0.000001 -0.455081 -1.008470 0.335370
    19 8.573802 0.000000 -0.000004 0.000000 0.000000 -0.815626
    20 9.913458 0.000000 0.000003 1.546560 0.097060 -0.254240
    21 2.452246 0.000000 0.000000 0.257978 -0.042017 -0.331078
    22 0.946167 3.213873 -0.420090 -3.141592 -0.000002 1.413798
    23 1.827063 1.152534 -7.643625 -1.570796 -1.570796 0.000000
  time 5
    0 -1.276419 0.995544 40.807917 0.028091 -0.001301 -2.094618
    1 0.000000 0.000000 0.000000 -0.000025 -1.430470 -1.570793
    2 -0.000007 0.000008 4.427393 -0.208619 2.988243 -0.161737
    3 18.301065 0.000000 0.000000 0.000000 0.000000 -0.961744
    4 17.106758 0.000000 0.000000 -0.144504 -0.097184 -0.111052
    5 0.000006 -0.000004 -4.427393 0.067667 -3.286775 -0.319519
    6 18.133167 0.000000 0.000000 0.000000 0.000000 -0.562223
    7 17.375956 0.000000 0.000000 -0.389406 -0.051514 0.248468
    8 2.235671 -0.002685 0.312513 0.041174 -0.140359 0.000796
    9 3.373776 -0.004248 0.000000 -0.128885 -0.002699 0.113547
    10 5.335510 -0.004100 0.000000 -0.066474 0.005780 0.085921
    11 5.172566 -0.004197 0.000000 -0.054146 0.002888 0.052634
    12 5.271970 -0.001935 0.000000 0.000024 0.043606 0.335253
    13 -3.089980 1.041727 2.401156 1.091919 -1.278197 -4.562780
    14 6.063949 0.000000 0.000002 -0.494394 1.121301 -0.181607
    15 7.685221 0.000000 0.000000 0.000000 0.000000 -0.628158
    16 10.246255 0.000000 -0.000003 -1.526121 0.067885 -0.142317
    17 -2.774085 1.007904 -2.548969 1.360578 1.285104 -2.137849
    18 6.269507 0.000000 -0.000001 -0.409743 -0.968418 0.341163
    19 8.573802 0.000000 -0.000004 0.000000 0.000000 -0.805579
    20 9.913458 0.000000 0.000003 1.546560 0.097060 -0.254240
    21 2.452246 0.000000 0.000000 0.330362 -0.047472 -0.397582
    22 0.946167 3.213873 -0.420090 -3.141592 -0.000002 1.413798
    23 1.827063 1.152534 -7.643625 -1.570796 -1.570796 0.000000
  time 6
    0 -2.182696 -0.746776 40.824671 0.032885 -0.000465 -2.161732
    1 0.000000 0.000000 0.000000 -0.000025 -1.406499 -1.570793
    2 -0.000007 0.000008 4.427393 -0.215905 3.037888 -0.331898
    3 18.301065 0.000000 0.000000 0.000000 0.000000 -1.100439
    4 17.106758 0.000000 0.000000 -0.052868 -0.045241 0.067055
    5 0.000006 -0.000004 -4.427393 0.062971 -3.321070 -0.283811
    6 18.133167 0.000000 0.000000 0.000000 0.000000 -0.591485
    7 17.375956 0.000000 0.000000 -0.457240 -0.041972 0.314812
    8 2.227858 -0.002685 0.367202 0.024357 -0.164308 0.000796
    9 3.373776 -0.004248 0.000000 -0.147596 0.002298 0.132543
    10 5.335510 -0.004100 0.000000 -0.080663 0.008579 0.104921
    11 5.172566 -0.004197 0.000000 -0.058890 0.003859 0.064583
    12 5.271970 -0.001935 0.000000 0.000024 0.043606 0.335253
    13 -3.089980 1.041727 2.401156 1.207760 -1.195042 -4.676100
    14 6.063949 0.000000 0.000002 -0.655746 1.077338 -0.217051
    15 7.685221 0.000000 0.000000 0.000000 0.000000 -0.787714
    16 10.246255 0.000000 -0.000003 -1.527714 0.068867 -0.166004
    17 -2.774085 1.007904 -2.548969 1.381060 1.258297 -2.119384
    18 6.269507 0.000000 -0.000001 -0.376025 -0.931093 0.375649
    19 8.573802 0.000000 -0.000004 0.000000 0.000000 -0.773674
    20 9.913458 0.000000 0.000003 1.546560 0.097060 -0.254240
    21 2.452246 0.000000 0.000000 0.386639 -0.050407 -0.449786
    22 0.946167 3.213873 -0.420090 -3.141592 -0.000002 1.413798
    23 1.827063 1.152534 -7.643625 -1.570796 -1.570796 0.000000
  time 7
    0 -3.030379 -2.368101 40.841425 0.034802 0.000000 -2.190111
    1 0.000000 0.000000 0.000000 -0.000025 -1.396361 -1.570793
    2 -0.000007 0.000008 4.427393 -0.208811 3.085904 -0.443390
    3 18.301065 0.000000 0.000000 0.000000 0.000000 -1.145701
    4 17.106758 0.000000 0.000000 0.021957 -0.020632 0.307196
    5 0.000006 -0.000004 -4.427393 0.064696 -3.342277 -0.233104
    6 18.133167 0.000000 0.000000 0.000000 0.000000 -0.591209
    7 17.375956 0.000000 0.000000 -0.484185 -0.028470 0.364546
    8 2.223952 -0.002685 0.390640 0.017246 -0.174456 0.000796
    9 3.373776 -0.004248 0.000000 -0.155433 0.004632 0.140533
    10 5.335510 -0.004100 0.000000 -0.086648 0.009918 0.112956
    11 5.172566 -0.004197 0.000000 -0.060896 0.004290 0.069632
    12 5.271970 -0.001935 0.000000 0.000024 0.043606 0.335253
    13 -3.089980 1.041727 2.401156 1.200437 -1.201796 -4.669041
    14 6.063949 0.000000 0.000002 -0.704664 1.062356 -0.253718
    15 7.685221 0.000000 0.000000 0.000000 0.000000 -0.957943
    16 10.246255 0.000000 -0.000003 -1.528133 0.069134 -0.171382
    17 -2.774085 1.007904 -2.548969 1.375892 1.265475 -2.123976
    18 6.269507 0.000000 -0.000001 -0.363262 -0.903546 0.448344
    19 8.573802 0.000000 -0.000004 0.000000 0.000000 -0.729421
    20 9.913458 0.000000 0.000003 1.546560 0.097060 -0.254240
    21 2.452246 0.000000 0.000000 0.410372 -0.051300 -0.472012
    22 0.946167 3.213873 -0.420090 -3.141592 -0.000002 1.413798
    23 1.827063 1.152534 -7.643625 -1.570796 -1.570796 0.000000
  time 8
    0 -2.026442 -0.444290 40.824671 0.032405 -0.000558 -2.155308
    1 0.000000 0.000000 0.000000 -0.000025 -1.408795 -1.570793
    2 -0.000007 0.000008 4.427393 -0.195484 3.051305 -0.288567
    3 18.301065 0.000000 0.000000 0.000000 0.000000 -0.882573
    4 17.106758 0.000000 0.000000 -0.156718 -0.013819 0.387869
    5 0.000006 -0.000004 -4.427393 0.062971 -3.316867 -0.291934
    6 18.133167 0.000000 0.000000 0.000000 0.000000 -0.589346
    7 17.375956 0.000000 0.000000 -0.450956 -0.044170 0.304500
    8 2.227858 -0.002685 0.363295 0.025964 -0.162028 0.000796
    9 3.373776 -0.004248 0.000000 -0.145804 0.001787 0.130734
    10 5.335510 -0.004100 0.000000 -0.079312 0.008287 0.103097
    11 5.172566 -0.004197 0.000000 -0.058437 0.003763 0.063441
    12 5.271970 -0.001935 0.000000 0.000024 0.043606 0.335253
    13 -3.089980 1.041727 2.401156 0.214074 -1.431105 -3.691230
    14 6.063949 0.000000 0.000002 -0.555346 1.116143 -0.415970
    15 7.685221 0.000000 0.000000 0.000000 0.000000 -0.890992
    16 10.246255 0.000000 -0.000003 -1.525870 0.067707 -0.138604
    17 -2.774085 1.007904 -2.548969 1.074875 1.439799 -2.411386
    18 6.269507 0.000000 -0.000001 -0.353451 -0.936358 0.557732
    19 8.573802 0.000000 -0.000004 0.000000 0.000000 -0.648048
    20 9.913458 0.000000 0.000003 1.546560 0.097060 -0.254240
    21 2.452246 0.000000 0.000000 0.381248 -0.050152 -0.444790
    22 0.946167 3.213873 -0.420090 -3.141592 -0.000002 1.413798
    23 1.827063 1.152534 -7.643625 -1.570796 -1.570460 0.000000
  time 9
    0 -0.784216 1.939300 40.807917 0.025311 -0.001673 -2.056459
    1 0.000000 0.000000 0.000000 -0.000025 -1.444104 -1.570793
    2 -0.000007 0.000008 4.427393 -0.168256 3.004248 -0.016597
    3 18.301065 0.000000 0.000000 0.000000 0.000000 -0.471145
    4 17.106758 0.000000 0.000000 -0.230954 0.013395 0.397791
    5 0.000006 -0.000004 -4.427393 0.072364 -3.270822 -0.334874
    6 18.133167 0.000000 0.000000 0.000000 0.000000 -0.537930
    7 17.375956 0.000000 0.000000 -0.352217 -0.053537 0.208031
    8 2.239578 -0.002685 0.281262 0.050757 -0.126730 0.000796
    9 3.373776 -0.004248 0.000000 -0.118193 -0.005228 0.102692
    10 5.335510 -0.004100 0.000000 -0.058398 0.004442 0.075079
    11 5.172566 -0.004197 0.000000 -0.051429 0.002397 0.045840
    12 5.271970 -0.001935 0.000000 0.000024 0.043606 0.335253
    13 -3.089980 1.041727 2.401156 -1.070166 -1.289524 -2.414476
    14 6.063949 0.000000 0.000002 -0.223242 1.176644 -0.399393
    15 7.685221 0.000000 0.000000 0.000000 0.000000 -0.759542
    16 10.246255 0.000000 -0.000003 -1.522937 0.065744 -0.094366
    17 -2.774085 1.007904 -2.548969 -0.842060 1.476678 -4.314850
    18 6.269507 0.000000 -0.000001 -0.360404 -1.016555 0.573044
    19 8.573802 0.000000 -0.000004 0.000000 0.000000 -0.529709
    20 9.913458 0.000000 0.000003 1.546560 0.097060 -0.254240
    21 2.452246 0.000000 0.000000 0.298345 -0.045271 -0.368034
    22 0.946167 3.213873 -0.420090 -3.141592 -0.000002 1.413798
    23 1.827063 1.152534 -7.643625 -1.570796 -1.570796 0.000000
  time 10
    0 0.434571 4.286592 40.774409 0.015532 -0.002045 -1.919547
    1 0.000000 0.000000 0.000000 -0.000025 -1.492972 -1.570793
    2 -0.000007 0.000008 4.427393 -0.138248 2.981342 0.275601
    3 18.301065 0.000000 0.000000 0.000000 0.000000 -0.001867
    4 17.106758 0.000000 0.000000 -0.195160 0.012393 0.193539
    5 0.000006 -0.000004 -4.427393 0.087315 -3.227357 -0.347194
    6 18.133167 0.000000 0.000000 0.000000 0.000000 -0.436894
    7 17.375956 0.000000 0.000000 -0.215859 -0.042406 0.091394
    8 2.251297 -0.002685 0.171883 0.085011 -0.077877 0.000796
    9 3.373776 -0.004248 0.000000 -0.079554 -0.012364 0.063445
    10 5.335510 -0.004100 0.000000 -0.029215 0.001071 0.036096
    11 5.172566 -0.004197 0.000000 -0.041704 0.000923 0.021447
    12 5.271970 -0.001935 0.000000 0.000024 0.043606 0.335253
    13 -3.089980 1.041727 2.401156 -1.096416 -1.275695 -2.388722
    14 6.063949 0.000000 0.000002 0.172306 1.182130 -0.096280
    15 7.685221 0.000000 0.000000 0.000000 0.000000 -0.649171
    16 10.246255 0.000000 -0.000003 -1.520424 0.063960 -0.056338
    17 -2.774085 1.007904 -2.548969 -0.404939 1.502388 -3.880962
    18 6.269507 0.000000 -0.000001 -0.437079 -1.076915 0.481795
    19 8.573802 0.000000 -0.000004 0.000000 0.000000 -0.417045
    20 9.913458 0.000000 0.000003 1.546560 0.097060 -0.254240
    21 2.452246 0.000000 0.000000 0.183425 -0.034519 -0.263411
    22 0.946167 3.213873 -0.420090 -3.141592 -0.000002 1.413798
    23 1.827063 1.152534 -7.643625 -1.570796 -1.570796 0.000000
  time 11
    0 1.356474 6.077309 40.740901 0.005944 -0.001208 -1.786662
    1 0.000000 0.000000 0.000000 -0.000025 -1.540457 -1.570793
    2 -0.000007 0.000008 4.427393 -0.167873 3.076990 0.074667
    3 18.301065 0.000000 0.000000 0.000000 0.000000 -0.288644
    4 17.106758 0.000000 0.000000 -0.065081 0.020409 0.348002
    5 0.000006 -0.000004 -4.427393 0.101213 -3.197457 -0.323447
    6 18.133167 0.000000 0.000000 0.000000 0.000000 -0.305629
    7 17.375956 0.000000 0.000000 -0.085268 -0.015661 -0.018893
    8 2.255203 -0.002685 0.066411 0.118274 -0.030445 0.000796
    9 3.373776 -0.004248 0.000000 -0.041706 -0.016376 0.024976
    10 5.335510 -0.004100 0.000000 -0.000740 0.000000 -0.001863
    11 5.172566 -0.004197 0.000000 -0.032216 -0.000036 -0.002267
    12 5.271970 -0.001935 0.000000 0.000024 0.043606 0.335253
    13 -3.089980 1.041727 2.401156 -0.990942 -1.323544 -2.492693
    14 6.063949 0.000000 0.000002 0.507116 1.143815 0.218292
    15 7.685221 0.000000 0.000000 0.000000 0.000000 -0.544303
    16 10.246255 0.000000 -0.000003 -1.518245 0.062176 -0.021319
    17 -2.774085 1.007904 -2.548969 0.843538 1.476495 -2.639380
    18 6.269507 0.000000 -0.000001 -0.507562 -1.143950 0.340336
    19 8.573802 0.000000 -0.000004 0.000000 0.000000 -0.309750
    20 9.913458 0.000000 0.000003 1.546560 0.097060 -0.254240
    21 2.452246 0.000000 0.000000 0.071924 -0.019844 -0.163827
    22 0.946167 3.213873 -0.420090 -3.141592 -0.000002 1.413798
    23 1.827063 1.152534 -7.643625 -1.570796 -1.570796 0.000000
  time 12
    0 1.727579 6.791176 40.724147 0.000000 0.000000 -1.701715
    1 0.000000 0.000000 0.000000 -1.570795 -1.570796 0.000000
    2 -0.000007 0.000008 4.427393 -0.170941 3.132578 -0.013434
    3 18.301065 0.000000 0.000000 0.000000 0.000000 -0.414314
    4 17.106758 0.000000 0.000000 0.018462 0.017483 0.385277
    5 0.000006 -0.000004 -4.427393 0.109168 -3.179402 -0.288364
    6 18.133167 0.000000 0.000000 0.000000 0.000000 -0.213633
    7 17.375956 0.000000 0.000000 -0.002024 0.005098 -0.077110
    8 2.255203 -0.002685 0.000003 0.139544 -0.000099 0.000796
    9 3.373776 -0.004248 0.000000 -0.017436 -0.017422 0.000302
    10 5.335510 -0.004100 0.000000 0.017407 0.000438 -0.026150
    11 5.172566 -0.004197 0.000000 -0.026157 -0.000431 -0.017444
    12 5.271970 -0.001935 0.000000 0.000024 0.043606 0.335253
    13 -3.089980 1.041727 2.401156 -0.875956 -1.358599 -2.606395
    14 6.063949 0.000000 0.000002 0.688690 1.101734 0.397655
    15 7.685221 0.000000 0.000000 0.000000 0.000000 -0.470457
    16 10.246255 0.000000 -0.000003 -1.516737 0.060927 0.003137
    17 -2.774085 1.007904 -2.548969 1.160442 1.415262 -2.327861
    18 6.269507 0.000000 -0.000001 -0.534422 -1.198292 0.213636
    19 8.573802 0.000000 -0.000004 0.000000 0.000000 -0.234206
    20 9.913458 0.000000 0.000003 1.546560 0.097060 -0.254240
    21 2.452246 0.000000 0.000000 0.000855 -0.008359 -0.101243
    22 0.946167 3.213873 -0.420090 -3.141592 -0.000002 1.413798
    23 1.827063 1.152534 -7.643625 -1.570796 -1.570796 0.000000
end
