version 1
nodes
  0 "Bip01" -1
  1 "Bip01 Pelvis" 0
  2 "Bip01 L Leg" 1
  3 "Bip01 L Leg1" 2
  4 "Bip01 L Foot" 3
  5 "Bip01 R Leg" 1
  6 "Bip01 R Leg1" 5
  7 "Bip01 R Foot" 6
  8 "Bip01 Spine" 1
  9 "Bip01 Spine1" 8
  10 "Bip01 Spine2" 9
  11 "Bip01 Spine3" 10
  12 "Bip01 Neck" 11
  13 "Bip01 L Arm" 12
  14 "Bip01 L Arm1" 13
  15 "Bip01 L Arm2" 14
  16 "Bip01 L Hand" 15
  17 "Bip01 R Arm" 12
  18 "Bip01 R Arm1" 17
  19 "Bip01 R Arm2" 18
  20 "Bip01 R Hand" 19
  21 "Bip01 Head" 12
  22 "Bone05" 21
  23 "Bone03" 1
end
skeleton
  time 0
    0 0.422852 6.028911 39.668640 0.000000 0.000000 -1.570844
    1 0.000000 0.000000 0.000000 -1.570795 -1.570796 0.000000
    2 -0.000007 0.000008 4.427393 -0.085134 3.065585 0.344624
    3 18.301065 0.000000 0.000000 0.000000 0.000000 -0.210128
    4 17.106758 0.000000 0.000000 0.095935 0.061932 0.369098
    5 0.000006 -0.000004 -4.427393 0.007956 -3.089605 -0.331303
    6 18.133167 0.000000 0.000000 0.000000 0.000000 -0.001897
    7 17.375956 0.000000 0.000000 0.009339 -0.051832 -0.329484
    8 2.255203 -0.002685 0.000003 -0.034875 -0.033313 0.045581
    9 3.373776 -0.004248 0.000000 -0.034841 0.036412 0.042363
    10 5.335510 -0.004100 0.000000 -0.034814 0.037019 0.059810
    11 5.172566 -0.004197 0.000000 0.000000 -0.017438 -0.008736
    12 5.271970 -0.001935 0.000000 0.000000 0.000000 0.256755
    13 -3.054823 0.803438 2.530066 -0.043953 -1.370606 -3.356136
    14 6.063949 0.000000 0.000002 -0.783845 1.002673 -0.852688
    15 7.685221 0.000000 0.000000 0.000000 0.000000 -0.191316
    16 10.246255 0.000000 -0.000003 -1.585111 0.121052 -0.131754
    17 -2.953778 0.777428 -2.427872 -0.173889 1.367799 -3.569538
    18 6.269507 0.000000 -0.000001 -0.873314 -0.820246 1.149089
    19 8.573802 0.000000 -0.000004 0.000000 0.000000 -0.632556
    20 9.913458 0.000000 0.000003 1.568967 0.165722 0.000000
    21 2.452246 0.000000 0.000000 0.103086 -0.036689 -0.170159
    22 0.946167 3.213873 -0.420090 -3.141592 -0.000002 1.413798
    23 1.827063 1.152534 -7.643625 -1.570796 -1.570796 0.000000
  time 1
    0 -0.292014 3.056539 40.439327 0.000000 0.012083 -1.570844
    1 0.000000 0.000000 0.000000 -0.000025 -1.519739 -1.570793
    2 -0.000007 0.000008 4.427393 -0.004505 3.055139 0.044948
    3 18.301065 0.000000 0.000000 0.000000 0.000000 -0.789503
    4 17.106758 0.000000 0.000000 -0.020937 0.029467 -0.019563
    5 0.000006 -0.000004 -4.427393 -0.001724 -3.117882 -0.378617
    6 18.133167 0.000000 0.000000 0.000000 0.000000 -0.248899
    7 17.375956 0.000000 0.000000 0.009511 -0.072504 -0.118258
    8 2.255203 -0.002685 0.113288 -0.033268 -0.067974 0.026571
    9 3.373776 -0.004248 0.000000 -0.033201 0.026139 0.048218
    10 5.335510 -0.004100 0.000000 -0.017729 0.021759 0.035460
    11 5.172566 -0.004197 0.000000 0.000000 -0.015268 -0.015993
    12 5.271970 -0.001935 0.000000 0.000000 0.000000 0.184010
    13 -3.105606 0.580775 2.530066 0.159007 -1.431676 -3.483859
    14 6.063949 0.000000 0.000002 -0.775443 1.068086 -0.764840
    15 7.685221 0.000000 0.000000 0.000000 0.000000 -0.172159
    16 10.246255 0.000000 -0.000003 -1.578408 0.090097 -0.088348
    17 -3.000655 0.562578 -2.427872 0.390816 1.426835 -2.939228
    18 6.269507 0.000000 -0.000001 -0.866646 -0.959957 0.994939
    19 8.573802 0.000000 -0.000004 0.000000 0.000000 -0.483539
    20 9.913458 0.000000 0.000003 1.568967 0.165722 0.000000
    21 2.452246 0.000000 0.000000 0.079944 -0.027214 -0.076002
    22 0.946167 3.213873 -0.420090 -3.141592 -0.000002 1.413798
    23 1.827063 1.152534 -7.643625 -1.570796 -1.570796 0.000000
  time 2
    0 -0.999067 -1.149977 41.142999 0.000000 0.027977 -1.570844
    1 0.000000 0.000000 0.000000 -0.000025 -1.451233 -1.570793
    2 -0.000007 0.000008 4.427393 -0.024159 3.051018 -0.137579
    3 18.301065 0.000000 0.000000 0.000000 0.000000 -1.042516
    4 17.106758 0.000000 0.000000 0.028394 0.005179 -0.433118
    5 0.000006 -0.000004 -4.427393 -0.016388 -3.164308 -0.331571
    6 18.133167 0.000000 0.000000 0.000000 0.000000 -0.365533
    7 17.375956 0.000000 0.000000 0.005551 -0.092888 0.061371
    8 2.239578 -0.002685 0.265636 -0.026281 -0.113788 0.001671
    9 3.373776 -0.004248 0.000000 -0.028644 0.011185 0.056057
    10 5.335510 -0.004100 0.000000 0.005695 0.003091 0.002605
    11 5.172566 -0.004197 0.000000 0.000000 -0.012967 -0.025874
    12 5.271970 -0.001935 0.000000 0.000000 0.000000 0.088892
    13 -3.144670 0.287798 2.530066 0.393638 -1.481490 -3.623505
    14 6.063949 0.000000 0.000002 -0.616511 1.170914 -0.565311
    15 7.685221 0.000000 0.000000 0.000000 0.000000 -0.166524
    16 10.246255 0.000000 -0.000003 -1.571872 0.043354 -0.033675
    17 -3.039718 0.277413 -2.427872 0.366601 1.492170 -2.865749
    18 6.269507 0.000000 -0.000001 -0.705678 -1.163506 0.776025
    19 8.573802 0.000000 -0.000004 0.000000 0.000000 -0.303154
    20 9.913458 0.000000 0.000003 1.568967 0.165722 0.000000
    21 2.452246 0.000000 0.000000 0.045100 -0.014006 0.047789
    22 0.946167 3.213873 -0.420090 -3.141592 -0.000002 1.413798
    23 1.827063 1.152534 -7.643625 -1.570796 -1.570796 0.000000
  time 3
    0 -1.135790 -5.913066 41.427818 0.000000 0.034855 -1.570844
    1 0.000000 0.000000 0.000000 -0.000025 -1.413795 -1.570793
    2 -0.000007 0.000008 4.427393 -0.055318 3.043063 -0.292114
    3 18.301065 0.000000 0.000000 0.000000 0.000000 -1.173644
    4 17.106758 0.000000 0.000000 0.052490 -0.005602 -0.094738
    5 0.000006 -0.000004 -4.427393 -0.014951 -3.200227 -0.220696
    6 18.133167 0.000000 0.000000 0.000000 0.000000 -0.403698
    7 17.375956 0.000000 0.000000 -0.001508 -0.096473 0.218191
    8 2.227858 -0.002685 0.351576 -0.011257 -0.134917 -0.009008
    9 3.373776 -0.004248 0.000000 -0.012667 -0.003951 0.060354
    10 5.335510 -0.004100 0.000000 0.022169 -0.004442 -0.013545
    11 5.172566 -0.004197 0.000000 0.000000 -0.015077 -0.032512
    12 5.271970 -0.001935 0.000000 0.000000 0.000000 0.047457
    13 -3.152482 0.154981 2.530066 0.598595 -1.497642 -3.787189
    14 6.063949 0.000000 0.000002 -0.274154 1.239601 -0.206510
    15 7.685221 0.000000 0.000000 0.000000 0.000000 -0.200000
    16 10.246255 0.000000 -0.000003 -1.569107 0.000000 0.000000
    17 -3.047531 0.152409 -2.427872 -0.110049 1.527511 -3.299733
    18 6.269507 0.000000 -0.000001 -0.287159 -1.298233 0.333646
    19 8.573802 0.000000 -0.000004 0.000000 0.000000 -0.200000
    20 9.913458 0.000000 0.000003 1.568967 0.165722 0.000000
    21 2.452246 0.000000 0.000000 0.002695 0.000670 0.103998
    22 0.946167 3.213873 -0.420090 -3.141592 -0.000002 1.413798
    23 1.827063 1.152534 -7.643625 -1.570796 -1.570796 0.000000
  time 4
    0 -0.780310 -8.534555 41.193261 0.000000 0.029092 -1.570844
    1 0.000000 0.000000 0.000000 -0.000025 -1.432370 -1.570793
    2 -0.000007 0.000008 4.427393 -0.067494 3.052455 -0.448087
    3 18.301065 0.000000 0.000000 0.000000 0.000000 -1.130929
    4 17.106758 0.000000 0.000000 0.029608 -0.021193 0.394350
    5 0.000006 -0.000004 -4.427393 -0.004887 -3.193062 -0.146778
    6 18.133167 0.000000 0.000000 0.000000 0.000000 -0.419502
    7 17.375956 0.000000 0.000000 -0.005123 -0.086643 0.302316
    8 2.235671 -0.002685 0.308606 0.008590 -0.109669 -0.002380
    9 3.373776 -0.004248 0.000000 0.015006 -0.017738 0.060329
    10 5.335510 -0.004100 0.000000 0.028700 0.000426 -0.007970
    11 5.172566 -0.004197 0.000000 0.006749 -0.021908 -0.034782
    12 5.271970 -0.001935 0.000000 -0.065100 0.019371 0.081145
    13 -3.195452 0.100292 2.483190 -0.222376 -1.475094 -3.002918
    14 6.063949 0.000000 0.000002 0.237887 1.219462 0.311411
    15 7.685221 0.000000 0.000000 0.000000 0.000000 -0.288097
    16 10.246255 0.000000 -0.000003 -1.568772 -0.040678 0.009027
    17 -2.996748 0.414136 -2.463029 -1.175906 1.443315 -4.395983
    18 6.269507 0.000000 -0.000001 0.203844 -1.304250 -0.148116
    19 8.573802 0.000000 -0.000004 0.000000 0.000000 -0.235433
    20 9.913458 0.000000 0.000003 1.568967 0.063577 0.000000
    21 2.452246 0.000000 0.000000 0.014792 -0.006157 0.068593
    22 0.946167 3.213873 -0.420090 -3.141592 -0.000002 1.413798
    23 1.827063 1.152534 -7.643625 -1.570796 -1.570796 0.000000
  time 5
    0 -0.229512 -11.168143 40.791163 0.000000 0.017102 -1.570844
    1 0.000000 0.000000 0.000000 -0.000025 -1.479079 -1.570793
    2 -0.000007 0.000008 4.427393 -0.080724 3.090025 -0.829823
    3 18.301065 0.000000 0.000000 0.000000 0.000000 -1.165057
    4 17.106758 0.000000 0.000000 0.015960 0.005179 0.177494
    5 0.000006 -0.000004 -4.427393 0.003164 -3.161920 -0.046437
    6 18.133167 0.000000 0.000000 0.000000 0.000000 -0.394657
    7 17.375956 0.000000 0.000000 -0.005296 -0.071377 0.365765
    8 2.247390 -0.002685 0.203134 0.030787 -0.060179 0.010002
    9 3.373776 -0.004248 0.000000 0.046505 -0.030807 0.058319
    10 5.335510 -0.004100 0.000000 0.031821 0.009346 0.005045
    11 5.172566 -0.004197 0.000000 0.014879 -0.030309 -0.035616
    12 5.271970 -0.001935 0.000000 -0.152947 0.056476 0.147204
    13 -3.257954 0.108105 2.393343 -0.657494 -1.385507 -2.643595
    14 6.063949 0.000000 0.000002 0.601535 1.106319 0.681442
    15 7.685221 0.000000 0.000000 0.000000 0.000000 -0.394159
    16 10.246255 0.000000 -0.000003 -1.568939 -0.079393 0.008963
    17 -2.879557 0.839930 -2.494280 -1.156763 1.371864 -4.439898
    18 6.269507 0.000000 -0.000001 0.514828 -1.223395 -0.456623
    19 8.573802 0.000000 -0.000004 0.000000 0.000000 -0.209510
    20 9.913458 0.000000 0.000003 1.572136 0.001611 -0.052570
    21 2.452246 0.000000 0.000000 0.052529 -0.019876 -0.004545
    22 0.946167 3.213873 -0.420090 -3.141592 -0.000002 1.413798
    23 1.827063 1.152534 -7.643625 -1.570796 -1.570796 0.000000
  time 6
    0 0.250972 -14.684990 40.238278 0.000000 0.006041 -1.570844
    1 0.000000 0.000000 0.000000 -0.000025 -1.536505 -1.570793
    2 -0.000007 0.000008 4.427393 -0.056564 3.098363 -0.722358
    3 18.301065 0.000000 0.000000 0.000000 0.000000 -0.583353
    4 17.106758 0.000000 0.000000 0.019565 0.032794 0.025802
    5 0.000006 -0.000004 -4.427393 0.000001 -3.117309 0.141213
    6 18.133167 0.000000 0.000000 0.000000 0.000000 -0.238685
    7 17.375956 0.000000 0.000000 -0.003746 -0.058308 0.386237
    8 2.255203 -0.002685 0.074224 0.058177 -0.002183 0.027078
    9 3.373776 -0.004248 0.000000 0.083746 -0.044922 0.053922
    10 5.335510 -0.004100 0.000000 0.033623 0.021162 0.023552
    11 5.172566 -0.004197 0.000000 0.024690 -0.040508 -0.036063
    12 5.271970 -0.001935 0.000000 -0.217185 0.094664 0.204937
    13 -3.316550 0.154981 2.315216 -0.744232 -1.293169 -2.629383
    14 6.063949 0.000000 0.000002 0.802549 0.927518 0.897242
    15 7.685221 0.000000 0.000000 0.000000 0.000000 -0.518583
    16 10.246255 0.000000 -0.000003 -1.569107 -0.122033 0.004673
    17 -2.746741 1.191503 -2.498187 -1.082011 1.321068 -4.421528
    18 6.269507 0.000000 -0.000001 0.698561 -1.118941 -0.629464
    19 8.573802 0.000000 -0.000004 0.000000 0.000000 -0.180520
    20 9.913458 0.000000 0.000003 1.578549 -0.055607 -0.108313
    21 2.452246 0.000000 0.000000 0.058709 -0.019812 -0.080180
    22 0.946167 3.213873 -0.420090 -3.141592 -0.000002 1.413798
    23 1.827063 1.152534 -7.643625 -1.570796 -1.570796 0.000000
  time 7
    0 0.422852 -19.956256 39.417328 0.000000 0.000000 -1.570844
    1 0.000000 0.000000 0.000000 -1.570795 -1.570796 0.000000
    2 -0.000007 0.000008 4.427393 -0.010545 3.058781 -0.380790
    3 18.301065 0.000000 0.000000 0.000000 0.000000 -0.001867
    4 17.106758 0.000000 0.000000 -0.020974 0.080849 -0.379395
    5 0.000006 -0.000004 -4.427393 -0.019072 -3.089223 0.277263
    6 18.133167 0.000000 0.000000 0.000000 0.000000 -0.324884
    7 17.375956 0.000000 0.000000 0.014590 -0.053798 0.409402
    8 2.255203 -0.002685 0.000003 0.087175 0.030885 0.047238
    9 3.373776 -0.004248 0.000000 0.122081 -0.058404 0.045555
    10 5.335510 -0.004100 0.000000 0.034878 0.033308 0.044807
    11 5.172566 -0.004197 0.000000 0.034868 -0.051102 -0.036681
    12 5.271970 -0.001935 0.000000 -0.237487 0.112502 0.237114
    13 -3.332175 0.217483 2.283965 -0.736718 -1.236387 -2.679556
    14 6.063949 0.000000 0.000002 0.889135 0.740284 1.000674
    15 7.685221 0.000000 0.000000 0.000000 0.000000 -0.632533
    16 10.246255 0.000000 -0.000003 -1.569107 -0.165655 0.000000
    17 -2.676426 1.343852 -2.498187 -1.044875 1.282504 -4.413109
    18 6.269507 0.000000 -0.000001 0.813335 -1.028402 -0.701539
    19 8.573802 0.000000 -0.000004 0.000000 0.000000 -0.191334
    20 9.913458 0.000000 0.000003 1.584961 -0.121048 -0.131788
    21 2.452246 0.000000 0.000000 0.012820 -0.000925 -0.136175
    22 0.946167 3.213873 -0.420090 -3.141592 -0.000002 1.413798
    23 1.827063 1.152534 -7.643625 -1.570796 -1.570796 0.000000
  time 8
    0 0.938493 -23.654595 40.523098 0.000000 -0.002045 -1.570844
    1 0.000000 0.000000 0.000000 -0.000025 -1.635852 -1.570793
    2 -0.000007 0.000008 4.427393 0.008342 3.104497 -0.406194
    3 18.301065 0.000000 0.000000 0.000000 0.000000 -0.283332
    4 17.106758 0.000000 0.000000 -0.022629 0.095719 -0.126963
    5 0.000006 -0.000004 -4.427393 -0.005558 -3.065246 0.043817
    6 18.133167 0.000000 0.000000 0.000000 0.000000 -0.792317
    7 17.375956 0.000000 0.000000 0.010114 -0.005802 -0.017724
    8 2.251297 -0.002685 -0.144533 0.091193 0.088685 0.073151
    9 3.373776 -0.004248 0.000000 0.122202 -0.051864 0.015830
    10 5.335510 -0.004100 0.000000 0.029987 0.032894 0.065876
    11 5.172566 -0.004197 0.000000 0.035451 -0.052169 -0.036758
    12 5.271970 -0.001935 0.000000 -0.223872 0.106318 0.239268
    13 -3.316550 0.248734 2.303497 -1.034311 -1.223130 -2.378038
    14 6.063949 0.000000 0.000002 0.830461 0.938161 0.774943
    15 7.685221 0.000000 0.000000 0.000000 0.000000 -0.483516
    16 10.246255 0.000000 -0.000003 -1.569107 -0.165655 0.000000
    17 -2.692052 1.312601 -2.498187 -1.257453 1.292356 -4.632206
    18 6.269507 0.000000 -0.000001 0.889343 -1.060462 -0.679744
    19 8.573802 0.000000 -0.000004 0.000000 0.000000 -0.172160
    20 9.913458 0.000000 0.000003 1.578328 -0.090107 -0.088372
    21 2.452246 0.000000 0.000000 0.003550 0.006476 -0.148321
    22 0.946167 3.213873 -0.420090 -3.141592 -0.000002 1.413798
    23 1.827063 1.152534 -7.643625 -1.570796 -1.570796 0.000000
  time 9
    0 1.508822 -28.006304 41.260278 0.000000 -0.002788 -1.570844
    1 0.000000 0.000000 0.000000 -0.000025 -1.689234 -1.570793
    2 -0.000007 0.000008 4.427393 0.018505 3.139957 -0.336883
    3 18.301065 0.000000 0.000000 0.000000 0.000000 -0.401798
    4 17.106758 0.000000 0.000000 -0.018509 0.113714 0.059859
    5 0.000006 -0.000004 -4.427393 0.024058 -3.052063 -0.137583
    6 18.133167 0.000000 0.000000 0.000000 0.000000 -1.042493
    7 17.375956 0.000000 0.000000 -0.028366 -0.005195 -0.433116
    8 2.239578 -0.002685 -0.265630 0.077344 0.133150 0.072369
    9 3.373776 -0.004248 0.000000 0.099572 -0.037080 0.000075
    10 5.335510 -0.004100 0.000000 0.019949 0.034378 0.024721
    11 5.172566 -0.004197 0.000000 0.030534 -0.047699 -0.036357
    12 5.271970 -0.001935 0.000000 -0.197985 0.094452 0.243029
    13 -3.289205 0.311236 2.338654 -1.130750 -1.301639 -2.272445
    14 6.063949 0.000000 0.000002 0.650595 1.153885 0.555094
    15 7.685221 0.000000 0.000000 0.000000 0.000000 -0.303145
    16 10.246255 0.000000 -0.000003 -1.569107 -0.165655 0.000000
    17 -2.723302 1.254005 -2.498187 -1.512049 1.287192 -4.896749
    18 6.269507 0.000000 -0.000001 0.717230 -1.192369 -0.456899
    19 8.573802 0.000000 -0.000004 0.000000 0.000000 -0.191717
    20 9.913458 0.000000 0.000003 1.568967 -0.049927 0.000000
    21 2.452246 0.000000 0.000000 0.024194 -0.010911 -0.090130
    22 0.946167 3.213873 -0.420090 -3.141592 -0.000002 1.413798
    23 1.827063 1.152534 -7.643625 -1.570796 -1.570796 0.000000
  time 10
    0 1.692422 -32.188620 41.628867 0.000000 -0.003067 -1.570844
    1 0.000000 0.000000 0.000000 -0.000025 -1.710347 -1.570793
    2 -0.000007 0.000008 4.427393 0.014574 3.158167 -0.221941
    3 18.301065 0.000000 0.000000 0.000000 0.000000 -0.414750
    4 17.106758 0.000000 0.000000 -0.011041 0.120087 0.188399
    5 0.000006 -0.000004 -4.427393 0.050319 -3.059801 -0.291667
    6 18.133167 0.000000 0.000000 0.000000 0.000000 -1.173620
    7 17.375956 0.000000 0.000000 -0.052470 0.005590 -0.094737
    8 2.235671 -0.002685 -0.312507 0.058548 0.144720 0.071633
    9 3.373776 -0.004248 0.000000 0.073540 -0.022649 -0.001658
    10 5.335510 -0.004100 0.000000 0.009009 0.034877 0.000330
    11 5.172566 -0.004197 0.000000 0.024777 -0.042366 -0.035940
    12 5.271970 -0.001935 0.000000 -0.168431 0.080710 0.246822
    13 -3.254048 0.385457 2.373811 -1.155288 -1.375716 -2.244687
    14 6.063949 0.000000 0.000002 0.198724 1.284384 0.094541
    15 7.685221 0.000000 0.000000 0.000000 0.000000 -0.200000
    16 10.246255 0.000000 -0.000003 -1.569107 -0.165655 0.000000
    17 -2.754553 1.183691 -2.494280 -1.468021 1.345386 -4.856469
    18 6.269507 0.000000 -0.000001 0.399483 -1.249626 -0.174256
    19 8.573802 0.000000 -0.000004 0.000000 0.000000 -0.200000
    20 9.913458 0.000000 0.000003 1.568967 0.000001 0.000000
    21 2.452246 0.000000 0.000000 0.048716 -0.022651 -0.063253
    22 0.946167 3.213873 -0.420090 -3.141592 -0.000002 1.413798
    23 1.827063 1.152534 -7.643625 -1.570796 -1.570796 0.000000
  time 11
    0 1.344755 -34.979501 41.478081 0.000000 -0.002881 -1.570844
    1 0.000000 0.000000 0.000000 -0.000025 -1.694007 -1.570793
    2 -0.000007 0.000008 4.427393 0.006137 3.152704 -0.151096
    3 18.301065 0.000000 0.000000 0.000000 0.000000 -0.434907
    4 17.106758 0.000000 0.000000 -0.004788 0.111229 0.280290
    5 0.000006 -0.000004 -4.427393 0.060958 -3.066106 -0.447535
    6 18.133167 0.000000 0.000000 0.000000 0.000000 -1.130901
    7 17.375956 0.000000 0.000000 -0.029572 0.021232 0.394314
    8 2.239578 -0.002685 -0.273443 0.036784 0.118614 0.070942
    9 3.373776 -0.004248 0.000000 0.047174 -0.008887 0.014071
    10 5.335510 -0.004100 0.000000 -0.002252 0.034914 0.012259
    11 5.172566 -0.004197 0.000000 0.018976 -0.037032 -0.035585
    12 5.271970 -0.001935 0.000000 -0.134659 0.064827 0.250390
    13 -3.214984 0.463584 2.412875 -0.804435 -1.438144 -2.596570
    14 6.063949 0.000000 0.000002 -0.306125 1.270712 -0.400004
    15 7.685221 0.000000 0.000000 0.000000 0.000000 -0.235464
    16 10.246255 0.000000 -0.000003 -1.569107 -0.063514 0.000000
    17 -2.793617 1.101657 -2.486467 -1.187965 1.405484 -4.578053
    18 6.269507 0.000000 -0.000001 -0.156479 -1.245207 0.355096
    19 8.573802 0.000000 -0.000004 0.000000 0.000000 -0.297172
    20 9.913458 0.000000 0.000003 1.568967 0.046708 0.000000
    21 2.452246 0.000000 0.000000 0.071924 -0.024885 -0.090087
    22 0.946167 3.213873 -0.420090 -3.141592 -0.000002 1.413798
    23 1.827063 1.152534 -7.643625 -1.570796 -1.570796 0.000000
  time 12
    0 0.930680 -37.310603 41.193261 0.000000 -0.002417 -1.570844
    1 0.000000 0.000000 0.000000 -0.000025 -1.662893 -1.570793
    2 -0.000007 0.000008 4.427393 0.000480 3.133536 -0.082265
    3 18.301065 0.000000 0.000000 0.000000 0.000000 -0.431269
    4 17.106758 0.000000 0.000000 -0.001477 0.100007 0.346482
    5 0.000006 -0.000004 -4.427393 0.059233 -3.077760 -0.587424
    6 18.133167 0.000000 0.000000 0.000000 0.000000 -0.792593
    7 17.375956 0.000000 0.000000 -0.013990 0.005937 0.198379
    8 2.247390 -0.002685 -0.207035 0.014217 0.077850 0.070666
    9 3.373776 -0.004248 0.000000 0.020990 0.005410 0.034499
    10 5.335510 -0.004100 0.000000 -0.013417 0.035352 0.034210
    11 5.172566 -0.004197 0.000000 0.013197 -0.031711 -0.035307
    12 5.271970 -0.001935 0.000000 -0.093420 0.045138 0.253669
    13 -3.164201 0.569056 2.455845 -0.536802 -1.414881 -2.866133
    14 6.063949 0.000000 0.000002 -0.588314 1.171732 -0.684631
    15 7.685221 0.000000 0.000000 0.000000 0.000000 -0.209479
    16 10.246255 0.000000 -0.000003 -1.572207 -0.001516 -0.052625
    17 -2.844400 1.003998 -2.474748 -0.581817 1.436210 -3.975393
    18 6.269507 0.000000 -0.000001 -0.583856 -1.135394 0.762990
    19 8.573802 0.000000 -0.000004 0.000000 0.000000 -0.422874
    20 9.913458 0.000000 0.000003 1.568967 0.088583 0.000000
    21 2.452246 0.000000 0.000000 0.086190 -0.024342 -0.131910
    22 0.946167 3.213873 -0.420090 -3.141592 -0.000002 1.413798
    23 1.827063 1.152534 -7.643625 -1.570796 -1.570796 0.000000
  time 13
    0 0.575200 -41.626013 40.472836 0.000000 -0.001394 -1.570844
    1 0.000000 0.000000 0.000000 -0.000025 -1.620044 -1.570745
    2 -0.000007 0.000008 4.427393 0.002110 3.099705 0.074379
    3 18.301065 0.000000 0.000000 0.000000 0.000000 -0.364177
    4 17.106758 0.000000 0.000000 0.000841 0.091069 0.437212
    5 0.000006 -0.000004 -4.427393 0.044089 -3.088077 -0.654646
    6 18.133167 0.000000 0.000000 0.000000 0.000000 -0.586240
    7 17.375956 0.000000 0.000000 -0.006587 -0.019102 0.146360
    8 2.255203 -0.002685 -0.109375 -0.011875 0.024266 0.070942
    9 3.373776 -0.004248 0.000000 -0.008809 0.022807 0.054474
    10 5.335510 -0.004100 0.000000 -0.025869 0.036435 0.058805
    11 5.172566 -0.004197 0.000000 0.006534 -0.025359 -0.035044
    12 5.271970 -0.001935 0.000000 -0.044187 0.021406 0.256080
    13 -3.109512 0.694060 2.498815 -0.330798 -1.384721 -3.073123
    14 6.063949 0.000000 0.000002 -0.744753 1.056788 -0.836570
    15 7.685221 0.000000 0.000000 0.000000 0.000000 -0.180511
    16 10.246255 0.000000 -0.000003 -1.578659 0.055575 -0.108322
    17 -2.902995 0.882900 -2.451310 0.105688 1.399807 -3.295140
    18 6.269507 0.000000 -0.000001 -0.813117 -0.946512 0.981489
    19 8.573802 0.000000 -0.000004 0.000000 0.000000 -0.565219
    20 9.913458 0.000000 0.000003 1.568967 0.134273 0.000000
    21 2.452246 0.000000 0.000000 0.098944 -0.026958 -0.177266
    22 0.946167 3.213873 -0.420090 -3.141592 -0.000002 1.413798
    23 1.827063 1.152534 -7.643625 -1.570796 -1.570796 0.000000
  time 14
    0 0.422852 -47.272362 39.668640 0.000000 0.000000 -1.570844
    1 0.000000 0.000000 0.000000 -1.570795 -1.570796 0.000000
    2 -0.000007 0.000008 4.427393 -0.085134 3.065585 0.344624
    3 18.301065 0.000000 0.000000 0.000000 0.000000 -0.210128
    4 17.106758 0.000000 0.000000 0.095935 0.061932 0.369098
    5 0.000006 -0.000004 -4.427393 0.007956 -3.089605 -0.331303
    6 18.133167 0.000000 0.000000 0.000000 0.000000 -0.001897
    7 17.375956 0.000000 0.000000 0.009339 -0.051832 -0.329484
    8 2.255203 -0.002685 0.000003 -0.034875 -0.033313 0.045581
    9 3.373776 -0.004248 0.000000 -0.034841 0.036412 0.042363
    10 5.335510 -0.004100 0.000000 -0.034814 0.037019 0.059810
    11 5.172566 -0.004197 0.000000 0.000000 -0.017438 -0.008736
    12 5.271970 -0.001935 0.000000 0.000000 0.000000 0.256755
    13 -3.054823 0.803438 2.530066 -0.043953 -1.370606 -3.356136
    14 6.063949 0.000000 0.000002 -0.783845 1.002673 -0.852688
    15 7.685221 0.000000 0.000000 0.000000 0.000000 -0.191316
    16 10.246255 0.000000 -0.000003 -1.585111 0.121052 -0.131754
    17 -2.953778 0.777428 -2.427872 -0.173889 1.367799 -3.569538
    18 6.269507 0.000000 -0.000001 -0.873314 -0.820246 1.149089
    19 8.573802 0.000000 -0.000004 0.000000 0.000000 -0.632556
    20 9.913458 0.000000 0.000003 1.568967 0.165722 0.000000
    21 2.452246 0.000000 0.000000 0.103086 -0.036689 -0.170159
    22 0.946167 3.213873 -0.420090 -3.141592 -0.000002 1.413798
    23 1.827063 1.152534 -7.643625 -1.570796 -1.570796 0.000000
end
