version 1
nodes
0 "Cylinder01" -1
1 "unnamed_bone_001" 0
end
skeleton
time 0
0  -10.125000 -1.515625 15.921875  1.569925 0.000001 1.569050
1  1.515625 0.000003 -0.015625  0.000047 -1.569924 -0.000049
end
triangles
back.bmp
0  -10.137974 0.000025 15.921861  0.000873 1.000000 -0.000001  0.500000 0.500000
0  -9.897724 -0.000184 16.663971  0.000873 1.000000 -0.000001  0.333333 0.083333
0  -9.357974 -0.000656 15.922545  0.000873 1.000000 -0.000001  0.000000 0.500000
back.bmp
0  -10.137974 0.000025 15.921861  0.000873 1.000000 -0.000001  0.500000 0.500000
0  -10.769575 0.000577 16.379707  0.000873 1.000000 -0.000001  0.916667 0.250000
0  -9.897724 -0.000184 16.663971  0.000873 1.000000 -0.000001  0.333333 0.083333
back.bmp
0  -10.137974 0.000025 15.921861  0.000873 1.000000 -0.000001  0.500000 0.500000
0  -10.768772 0.000575 15.462909  0.000873 1.000000 -0.000001  0.916667 0.750000
0  -10.769575 0.000577 16.379707  0.000873 1.000000 -0.000001  0.916667 0.250000
back.bmp
0  -10.137974 0.000025 15.921861  0.000873 1.000000 -0.000001  0.500000 0.500000
0  -9.896424 -0.000186 15.180172  0.000873 1.000000 -0.000000  0.333333 1.000000
0  -10.768772 0.000575 15.462909  0.000873 1.000000 -0.000001  0.916667 0.750000
back.bmp
0  -10.137974 0.000025 15.921861  0.000873 1.000000 -0.000001  0.500000 0.500000
0  -9.357974 -0.000656 15.922545  0.000873 1.000000 -0.000001  0.000000 0.500000
0  -9.896424 -0.000186 15.180172  0.000873 1.000000 -0.000000  0.333333 1.000000
Untitled-1.bmp
0  -9.357974 -0.000656 15.922545  0.971694 -0.000847 0.236240  0.958333 0.500000
0  -9.900342 -3.000183 16.663973  0.523460 -0.000456 0.852050  0.000000 1.000000
0  -9.360592 -3.000655 15.922547  0.972108 -0.000848 -0.234534  0.000000 0.500000
Untitled-1.bmp
0  -9.357974 -0.000656 15.922545  0.971694 -0.000847 0.236240  0.958333 0.500000
0  -9.897724 -0.000184 16.663971  0.075608 -0.000065 0.997138  0.958333 1.000000
0  -9.900342 -3.000183 16.663973  0.523460 -0.000456 0.852050  0.000000 1.000000
Untitled-1.bmp
0  -9.897724 -0.000184 16.663971  0.075608 -0.000065 0.997138  0.958333 1.000000
0  -10.772193 -2.999422 16.379709  -0.648568 0.000566 0.761156  0.000000 0.750000
0  -9.900342 -3.000183 16.663973  0.523460 -0.000456 0.852050  0.000000 1.000000
Untitled-1.bmp
0  -9.897724 -0.000184 16.663971  0.075608 -0.000065 0.997138  0.958333 1.000000
0  -10.769575 0.000577 16.379707  -0.924975 0.000807 0.380028  0.958333 0.750000
0  -10.772193 -2.999422 16.379709  -0.648568 0.000566 0.761156  0.000000 0.750000
Untitled-1.bmp
0  -10.769575 0.000577 16.379707  -0.924975 0.000807 0.380028  0.958333 0.750000
0  -10.771390 -2.999424 15.462911  -0.924307 0.000807 -0.381648  0.000000 0.250000
0  -10.772193 -2.999422 16.379709  -0.648568 0.000566 0.761156  0.000000 0.750000
Untitled-1.bmp
0  -10.769575 0.000577 16.379707  -0.924975 0.000807 0.380028  0.958333 0.750000
0  -10.768772 0.000575 15.462909  -0.647233 0.000564 -0.762292  0.958333 0.250000
0  -10.771390 -2.999424 15.462911  -0.924307 0.000807 -0.381648  0.000000 0.250000
Untitled-1.bmp
0  -10.768772 0.000575 15.462909  -0.647233 0.000564 -0.762292  0.958333 0.250000
0  -9.899042 -3.000185 15.180175  0.077357 -0.000068 -0.997003  0.000000 0.083333
0  -10.771390 -2.999424 15.462911  -0.924307 0.000807 -0.381648  0.000000 0.250000
Untitled-1.bmp
0  -10.768772 0.000575 15.462909  -0.647233 0.000564 -0.762292  0.958333 0.250000
0  -9.896424 -0.000186 15.180172  0.524954 -0.000459 -0.851131  0.958333 0.083333
0  -9.899042 -3.000185 15.180175  0.077357 -0.000068 -0.997003  0.000000 0.083333
Untitled-1.bmp
0  -9.896424 -0.000186 15.180172  0.524954 -0.000459 -0.851131  0.958333 0.083333
0  -9.360592 -3.000655 15.922547  0.972108 -0.000848 -0.234534  0.000000 0.500000
0  -9.899042 -3.000185 15.180175  0.077357 -0.000068 -0.997003  0.000000 0.083333
Untitled-1.bmp
0  -9.896424 -0.000186 15.180172  0.524954 -0.000459 -0.851131  0.958333 0.083333
0  -9.357974 -0.000656 15.922545  0.971694 -0.000847 0.236240  0.958333 0.500000
0  -9.360592 -3.000655 15.922547  0.972108 -0.000848 -0.234534  0.000000 0.500000
front.bmp
0  -10.140592 -2.999974 15.921864  -0.000873 -1.000000 0.000001  0.500000 0.500000
0  -9.360592 -3.000655 15.922547  -0.000873 -1.000000 0.000001  0.000000 0.500000
0  -9.900342 -3.000183 16.663973  -0.000873 -1.000000 0.000001  0.333333 0.083333
front.bmp
0  -10.140592 -2.999974 15.921864  -0.000873 -1.000000 0.000001  0.500000 0.500000
0  -9.900342 -3.000183 16.663973  -0.000873 -1.000000 0.000001  0.333333 0.083333
0  -10.772193 -2.999422 16.379709  -0.000873 -1.000000 0.000001  0.916667 0.250000
front.bmp
0  -10.140592 -2.999974 15.921864  -0.000873 -1.000000 0.000001  0.500000 0.500000
0  -10.772193 -2.999422 16.379709  -0.000873 -1.000000 0.000001  0.916667 0.250000
0  -10.771390 -2.999424 15.462911  -0.000873 -1.000000 0.000001  0.916667 0.750000
front.bmp
0  -10.140592 -2.999974 15.921864  -0.000873 -1.000000 0.000001  0.500000 0.500000
0  -10.771390 -2.999424 15.462911  -0.000873 -1.000000 0.000001  0.916667 0.750000
0  -9.899042 -3.000185 15.180175  -0.000873 -1.000000 0.000000  0.333333 1.000000
front.bmp
0  -10.140592 -2.999974 15.921864  -0.000873 -1.000000 0.000001  0.500000 0.500000
0  -9.899042 -3.000185 15.180175  -0.000873 -1.000000 0.000000  0.333333 1.000000
0  -9.360592 -3.000655 15.922547  -0.000873 -1.000000 0.000001  0.000000 0.500000
end
