version 1
nodes
  0 "Bone01" -1
  1 "Bone02" 0
  2 "Bone03" 1
  3 "Bone04" 2
  4 "Bone05" 3
  5 "Bone06" 4
  6 "Bone08" 4
  7 "Bone09" 6
  8 "Bone10" 7
  9 "Bone11" 8
  10 "Bone12" 9
  11 "Bone16" 8
  12 "Bone17" 11
  13 "Bone26" 4
  14 "Bone27" 13
  15 "Bone29" 4
  16 "Bone30" 15
  17 "Bone32" 4
  18 "Bone33" 17
  19 "Bone19" 1
  20 "Bone20" 19
  21 "Bone21" 20
  22 "Bone22" 21
  23 "Bone23" 22
  24 "Bone24" 23
end
skeleton
  time 0
    0 0.203377 13.230874 -11.035233 -1.570796 -2.581652 -1.570705
    1 0.000000 0.000000 0.000000 0.174196 0.114345 0.009983
    2 -8.878141 -0.048395 -1.142586 0.000000 0.000000 -0.113374
    3 -11.856706 1.258262 0.000004 0.000000 0.000000 0.218048
    4 -1.905335 1.742211 1.054457 -0.579415 0.106495 0.327801
    5 -0.970945 0.822710 0.686170 -0.126285 0.391026 -0.025030
    6 -1.880297 3.401037 0.088129 0.000000 0.000000 0.000000
    7 0.000000 0.000000 0.000000 0.000000 0.000000 0.000000
    8 -2.717426 0.092903 0.000000 0.000000 0.000000 0.000000
    9 -0.348388 -1.695488 0.000000 0.000000 0.000000 0.000000
    10 -0.278710 -0.859357 0.000000 0.000000 0.000000 0.000000
    11 -4.733719 0.512310 0.000000 0.000000 0.000000 0.000000
    12 1.323730 -3.668185 0.000000 0.000000 0.000000 0.000000
    13 -1.841841 -0.252357 -0.413176 0.000000 1.570796 0.000000
    14 0.000000 0.000000 0.000000 0.000000 0.000000 0.000000
    15 -1.655434 -1.018065 -0.614096 0.000000 1.570795 0.000000
    16 0.000000 0.000000 0.000000 0.000000 0.000000 0.000001
    17 -1.431746 -1.846478 -1.038432 0.000000 1.570796 0.000000
    18 0.000000 0.000000 0.000000 0.000000 0.000000 0.000000
    19 -13.236908 -3.969946 9.111434 0.000001 -0.000001 1.079269
    20 0.000000 0.000000 0.000002 -0.000009 0.000000 0.000000
    21 -13.544953 3.169003 -6.601957 0.000000 0.000000 0.000000
    22 -3.124473 1.877202 -0.786218 0.000000 0.000000 0.000000
    23 -1.143314 1.676258 -0.050264 0.000000 0.000000 0.000000
    24 -0.625989 1.347690 -0.418034 0.000000 0.000000 0.000000
  time 1
    0 0.203377 13.230874 -11.035233 1.570796 -0.451691 1.570704
    1 0.000000 0.000000 0.000000 0.140364 0.092425 0.006496
    2 -8.878141 -0.048395 -1.142586 0.000000 0.000000 -0.113374
    3 -11.856706 1.258262 0.000004 0.000000 0.000000 0.218048
    4 -1.905335 1.742211 1.054457 -0.579415 0.106495 0.327801
    5 -0.970945 0.822710 0.686170 -0.126285 0.391026 -0.025030
    6 -1.880297 3.401037 0.088129 0.000000 0.000000 0.000000
    7 0.000000 0.000000 0.000000 0.000000 0.000000 0.000000
    8 -2.717426 0.092903 0.000000 0.000000 0.000000 0.000000
    9 -0.348388 -1.695488 0.000000 0.000000 0.000000 0.000000
    10 -0.278710 -0.859357 0.000000 0.000000 0.000000 0.000000
    11 -4.733719 0.512310 0.000000 0.000000 0.000000 0.000000
    12 1.323730 -3.668185 0.000000 0.000000 0.000000 0.000000
    13 -1.841841 -0.252357 -0.413176 0.000000 1.570796 0.000000
    14 0.000000 0.000000 0.000000 0.000000 0.000000 0.000000
    15 -1.655434 -1.018065 -0.614096 0.000000 1.570795 0.000000
    16 0.000000 0.000000 0.000000 0.000000 0.000000 0.000001
    17 -1.431746 -1.846478 -1.038432 0.000000 1.570796 0.000000
    18 0.000000 0.000000 0.000000 0.000000 0.000000 0.000000
    19 -13.236908 -3.969946 9.111434 0.000001 -0.000001 1.027725
    20 0.000000 0.000000 0.000002 -0.000009 0.000000 0.000000
    21 -13.544953 3.169003 -6.601957 0.000000 0.000000 0.000000
    22 -3.124473 1.877202 -0.786218 0.000000 0.000000 0.000000
    23 -1.143314 1.676258 -0.050264 0.000000 0.000000 0.000000
    24 -0.625989 1.347690 -0.418034 0.000000 0.000000 0.000000
  time 2
    0 0.203377 13.230874 -11.035233 1.570796 -0.346865 1.570704
    1 0.000000 0.000000 0.000000 0.107670 0.071081 0.003811
    2 -8.878141 -0.048395 -1.142586 0.000000 0.000000 -0.113374
    3 -11.856706 1.258262 0.000004 0.000000 0.000000 0.128451
    4 -1.905335 1.742211 1.054457 -0.579415 0.106495 0.327801
    5 -0.970945 0.822710 0.686170 -0.126285 0.391026 -0.025030
    6 -1.880297 3.401037 0.088129 0.000000 0.000000 0.000000
    7 0.000000 0.000000 0.000000 0.000000 0.000000 0.000000
    8 -2.717426 0.092903 0.000000 0.000000 0.000000 0.000000
    9 -0.348388 -1.695488 0.000000 0.000000 0.000000 0.000000
    10 -0.278710 -0.859357 0.000000 0.000000 0.000000 0.000000
    11 -4.733719 0.512310 0.000000 0.000000 0.000000 0.000000
    12 1.323730 -3.668185 0.000000 0.000000 0.000000 0.000000
    13 -1.841841 -0.252357 -0.413176 0.000000 1.570796 0.000000
    14 0.000000 0.000000 0.000000 0.000000 0.000000 0.000000
    15 -1.655434 -1.018065 -0.614096 0.000000 1.570795 0.000000
    16 0.000000 0.000000 0.000000 0.000000 0.000000 0.000001
    17 -1.431746 -1.846478 -1.038432 0.000000 1.570796 0.000000
    18 0.000000 0.000000 0.000000 0.000000 0.000000 0.000000
    19 -13.236908 -3.969946 9.111434 0.000001 -0.000001 0.973510
    20 0.000000 0.000000 0.000002 -0.000009 0.000000 0.000000
    21 -13.544953 3.169003 -6.601957 0.000000 0.000000 0.000000
    22 -3.124473 1.877202 -0.786218 0.000000 0.000000 0.000000
    23 -1.143314 1.676258 -0.050264 0.000000 0.000000 0.000000
    24 -0.625989 1.347690 -0.418034 0.000000 0.000000 0.000000
  time 3
    0 0.203377 13.230874 -11.035233 1.570796 -0.247309 1.570704
    1 0.000000 0.000000 0.000000 0.076701 0.050731 0.001942
    2 -8.878141 -0.048395 -1.142586 0.000000 0.000000 -0.113374
    3 -11.856706 1.258262 0.000004 0.000000 0.000000 0.029494
    4 -1.905335 1.742211 1.054457 -0.579415 0.106495 0.327801
    5 -0.970945 0.822710 0.686170 -0.126285 0.391026 -0.025030
    6 -1.880297 3.401037 0.088129 0.000000 0.000000 0.000000
    7 0.000000 0.000000 0.000000 0.000000 0.000000 0.000000
    8 -2.717426 0.092903 0.000000 0.000000 0.000000 0.000000
    9 -0.348388 -1.695488 0.000000 0.000000 0.000000 0.000000
    10 -0.278710 -0.859357 0.000000 0.000000 0.000000 0.000000
    11 -4.733719 0.512310 0.000000 0.000000 0.000000 0.000000
    12 1.323730 -3.668185 0.000000 0.000000 0.000000 0.000000
    13 -1.841841 -0.252357 -0.413176 0.000000 1.570796 0.000000
    14 0.000000 0.000000 0.000000 0.000000 0.000000 0.000000
    15 -1.655434 -1.018065 -0.614096 0.000000 1.570795 0.000000
    16 0.000000 0.000000 0.000000 0.000000 0.000000 0.000001
    17 -1.431746 -1.846478 -1.038432 0.000000 1.570796 0.000000
    18 0.000000 0.000000 0.000000 0.000000 0.000000 0.000000
    19 -13.236908 -3.969946 9.111434 0.000001 -0.000001 0.914974
    20 0.000000 0.000000 0.000002 -0.000009 0.000000 0.000000
    21 -13.544953 3.169003 -6.601957 0.000000 0.000000 0.000000
    22 -3.124473 1.877202 -0.786218 0.000000 0.000000 0.000000
    23 -1.143314 1.676258 -0.050264 0.000000 0.000000 0.000000
    24 -0.625989 1.347690 -0.418034 0.000000 0.000000 0.000000
  time 4
    0 0.203377 13.230874 -11.035233 1.570796 -0.155035 1.570704
    1 0.000000 0.000000 0.000000 0.048046 0.031807 0.000743
    2 -8.878141 -0.048395 -1.142586 0.000000 0.000000 -0.113374
    3 -11.856706 1.258262 0.000004 0.000000 0.000000 -0.064753
    4 -1.905335 1.742211 1.054457 -0.407048 0.061205 0.404822
    5 -0.970945 0.822710 0.686170 -0.126285 0.391026 -0.025030
    6 -1.880297 3.401037 0.088129 0.000000 0.000000 0.000000
    7 0.000000 0.000000 0.000000 0.000000 0.000000 0.000000
    8 -2.717426 0.092903 0.000000 0.000000 0.000000 0.000000
    9 -0.348388 -1.695488 0.000000 0.000000 0.000000 0.000000
    10 -0.278710 -0.859357 0.000000 0.000000 0.000000 0.000000
    11 -4.733719 0.512310 0.000000 0.000000 0.000000 0.000000
    12 1.323730 -3.668185 0.000000 0.000000 0.000000 0.000000
    13 -1.841841 -0.252357 -0.413176 0.000000 1.570796 0.000000
    14 0.000000 0.000000 0.000000 0.000000 0.000000 0.000000
    15 -1.655434 -1.018065 -0.614096 0.000000 1.570795 0.000000
    16 0.000000 0.000000 0.000000 0.000000 0.000000 0.000001
    17 -1.431746 -1.846478 -1.038432 0.000000 1.570796 0.000000
    18 0.000000 0.000000 0.000000 0.000000 0.000000 0.000000
    19 -13.236908 -3.969946 9.111434 0.000001 -0.000001 0.850605
    20 0.000000 0.000000 0.000002 -0.000009 0.000000 0.000000
    21 -13.544953 3.169003 -6.601957 0.000000 0.000000 0.000000
    22 -3.124473 1.877202 -0.786218 0.000000 0.000000 0.000000
    23 -1.143314 1.676258 -0.050264 0.000000 0.000000 0.000000
    24 -0.625989 1.347690 -0.418034 0.000000 0.000000 0.000000
  time 5
    0 0.203377 13.230874 -11.035233 1.570796 -0.071864 1.570704
    1 0.000000 0.000000 0.000000 0.022279 0.014753 0.000156
    2 -8.878141 -0.048395 -1.142586 0.000000 0.000000 -0.113374
    3 -11.856706 1.258262 0.000004 0.000000 0.000000 -0.140316
    4 -1.905335 1.742211 1.054457 -0.251531 -0.006604 0.243664
    5 -0.970945 0.822710 0.686170 -0.126285 0.391026 -0.025030
    6 -1.880297 3.401037 0.088129 0.000000 0.000000 0.000000
    7 0.000000 0.000000 0.000000 0.000000 0.000000 0.000000
    8 -2.717426 0.092903 0.000000 0.000000 0.000000 0.000000
    9 -0.348388 -1.695488 0.000000 0.000000 0.000000 0.000000
    10 -0.278710 -0.859357 0.000000 0.000000 0.000000 0.000000
    11 -4.733719 0.512310 0.000000 0.000000 0.000000 0.000000
    12 1.323730 -3.668185 0.000000 0.000000 0.000000 0.000000
    13 -1.841841 -0.252357 -0.413176 0.000000 1.570796 0.000000
    14 0.000000 0.000000 0.000000 0.000000 0.000000 0.000000
    15 -1.655434 -1.018065 -0.614096 0.000000 1.570795 0.000000
    16 0.000000 0.000000 0.000000 0.000000 0.000000 0.000001
    17 -1.431746 -1.846478 -1.038432 0.000000 1.570796 0.000000
    18 0.000000 0.000000 0.000000 0.000000 0.000000 0.000000
    19 -13.236908 -3.969946 9.111434 0.000001 -0.000001 0.778717
    20 0.000000 0.000000 0.000002 -0.000009 0.000000 0.000000
    21 -13.544953 3.169003 -6.601957 0.000000 0.000000 0.000000
    22 -3.124473 1.877202 -0.786218 0.000000 0.000000 0.000000
    23 -1.143314 1.676258 -0.050264 0.000000 0.000000 0.000000
    24 -0.625989 1.347690 -0.418034 0.000000 0.000000 0.000000
  time 6
    0 0.203377 13.230874 -11.035233 1.570796 0.000000 1.570704
    1 0.000000 0.000000 0.000000 0.000000 0.000000 0.000000
    2 -8.878141 -0.048395 -1.142586 0.000000 0.000000 -0.113374
    3 -11.856706 1.258262 0.000004 0.000000 0.000000 -0.183161
    4 -1.905335 1.742211 1.054457 -0.141865 -0.043168 0.107723
    5 -0.970945 0.822710 0.686170 -0.126285 0.391026 -0.025030
    6 -1.880297 3.401037 0.088129 0.000000 0.000000 0.000000
    7 0.000000 0.000000 0.000000 0.000000 0.000000 0.000000
    8 -2.717426 0.092903 0.000000 0.000000 0.000000 0.000000
    9 -0.348388 -1.695488 0.000000 0.000000 0.000000 0.000000
    10 -0.278710 -0.859357 0.000000 0.000000 0.000000 0.000000
    11 -4.733719 0.512310 0.000000 0.000000 0.000000 0.000000
    12 1.323730 -3.668185 0.000000 0.000000 0.000000 0.000000
    13 -1.841841 -0.252357 -0.413176 0.000000 1.570796 0.000000
    14 0.000000 0.000000 0.000000 0.000000 0.000000 0.000000
    15 -1.655434 -1.018065 -0.614096 0.000000 1.570795 0.000000
    16 0.000000 0.000000 0.000000 0.000000 0.000000 0.000001
    17 -1.431746 -1.846478 -1.038432 0.000000 1.570796 0.000000
    18 0.000000 0.000000 0.000000 0.000000 0.000000 0.000000
    19 -13.236908 -3.969946 9.111434 0.000001 -0.000001 0.697729
    20 0.000000 0.000000 0.000002 -0.000009 0.000000 0.000000
    21 -13.544953 3.169003 -6.601957 0.000000 0.000000 0.000000
    22 -3.124473 1.877202 -0.786218 0.000000 0.000000 0.000000
    23 -1.143314 1.676258 -0.050264 0.000000 0.000000 0.000000
    24 -0.625989 1.347690 -0.418034 0.000000 0.000000 0.000000
  time 7
    0 0.203377 13.230874 -11.035233 1.570796 0.041969 1.570704
    1 0.000000 0.000000 0.000000 -0.013015 -0.008629 0.000048
    2 -8.878141 -0.048395 -1.142586 0.000000 0.000000 -0.090687
    3 -11.856706 1.258262 0.000004 0.000000 0.000000 -0.183928
    4 -1.905335 1.742211 1.054457 -0.104220 -0.039285 0.073314
    5 -0.970945 0.822710 0.686170 -0.099055 0.313112 -0.015639
    6 -1.880297 3.401037 0.088129 0.000000 0.000000 0.000000
    7 0.000000 0.000000 0.000000 0.000000 0.000000 0.000000
    8 -2.717426 0.092903 0.000000 0.000000 0.000000 0.000000
    9 -0.348388 -1.695488 0.000000 0.000000 0.000000 0.000000
    10 -0.278710 -0.859357 0.000000 0.000000 0.000000 0.000000
    11 -4.733719 0.512310 0.000000 0.000000 0.000000 0.000000
    12 1.323730 -3.668185 0.000000 0.000000 0.000000 0.000000
    13 -1.841841 -0.252357 -0.413176 0.000000 1.570796 0.000000
    14 0.000000 0.000000 0.000000 0.000000 0.000000 0.000000
    15 -1.655434 -1.018065 -0.614096 0.000000 1.570795 0.000000
    16 0.000000 0.000000 0.000000 0.000000 0.000000 0.000001
    17 -1.431746 -1.846478 -1.038432 0.000000 1.570796 0.000000
    18 0.000000 0.000000 0.000000 0.000000 0.000000 0.000000
    19 -13.236908 -3.969946 9.111434 0.000001 -0.000001 0.592426
    20 0.000000 0.000000 0.000002 -0.000009 0.000000 0.000000
    21 -13.544953 3.169003 -6.601957 0.000000 0.000000 0.000000
    22 -3.124473 1.877202 -0.786218 0.000000 0.000000 0.000000
    23 -1.143314 1.676258 -0.050264 0.000000 0.000000 0.000000
    24 -0.625989 1.347690 -0.418034 0.000000 0.000000 0.000000
  time 8
    0 0.203377 13.230874 -11.035233 1.570796 0.047239 1.570704
    1 0.000000 0.000000 0.000000 -0.014645 -0.009708 0.000060
    2 -8.878141 -0.048395 -1.142586 0.000000 0.000000 -0.068025
    3 -11.856706 1.258262 0.000004 0.000000 0.000000 -0.151965
    4 -1.905335 1.742211 1.054457 -0.074549 -0.031400 0.049939
    5 -0.970945 0.822710 0.686170 -0.073185 0.234996 -0.008630
    6 -1.880297 3.401037 0.088129 0.000000 0.000000 0.000000
    7 0.000000 0.000000 0.000000 0.000000 0.000000 0.000000
    8 -2.717426 0.092903 0.000000 0.000000 0.000000 0.000000
    9 -0.348388 -1.695488 0.000000 0.000000 0.000000 0.000000
    10 -0.278710 -0.859357 0.000000 0.000000 0.000000 0.000000
    11 -4.733719 0.512310 0.000000 0.000000 0.000000 0.000000
    12 1.323730 -3.668185 0.000000 0.000000 0.000000 0.000000
    13 -1.841841 -0.252357 -0.413176 0.000000 1.570796 0.000000
    14 0.000000 0.000000 0.000000 0.000000 0.000000 0.000000
    15 -1.655434 -1.018065 -0.614096 0.000000 1.570795 0.000000
    16 0.000000 0.000000 0.000000 0.000000 0.000000 0.000001
    17 -1.431746 -1.846478 -1.038432 0.000000 1.570796 0.000000
    18 0.000000 0.000000 0.000000 0.000000 0.000000 0.000000
    19 -13.236908 -3.969946 9.111434 0.000001 -0.000001 0.457153
    20 0.000000 0.000000 0.000002 -0.000009 0.000000 0.000000
    21 -13.544953 3.169003 -6.601957 0.000000 0.000000 0.000000
    22 -3.124473 1.877202 -0.786218 0.000000 0.000000 0.000000
    23 -1.143314 1.676258 -0.050264 0.000000 0.000000 0.000000
    24 -0.625989 1.347690 -0.418034 0.000000 0.000000 0.000000
  time 9
    0 0.203377 13.230874 -11.035233 1.570796 0.031524 1.570704
    1 0.000000 0.000000 0.000000 -0.009755 -0.006472 0.000024
    2 -8.878141 -0.048395 -1.142586 0.000000 0.000000 -0.045350
    3 -11.856706 1.258262 0.000004 0.000000 0.000000 -0.101306
    4 -1.905335 1.742211 1.054457 -0.049511 -0.021345 0.033037
    5 -0.970945 0.822710 0.686170 -0.048274 0.156746 -0.003788
    6 -1.880297 3.401037 0.088129 0.000000 0.000000 0.000000
    7 0.000000 0.000000 0.000000 0.000000 0.000000 0.000000
    8 -2.717426 0.092903 0.000000 0.000000 0.000000 0.000000
    9 -0.348388 -1.695488 0.000000 0.000000 0.000000 0.000000
    10 -0.278710 -0.859357 0.000000 0.000000 0.000000 0.000000
    11 -4.733719 0.512310 0.000000 0.000000 0.000000 0.000000
    12 1.323730 -3.668185 0.000000 0.000000 0.000000 0.000000
    13 -1.841841 -0.252357 -0.413176 0.000000 1.570796 0.000000
    14 0.000000 0.000000 0.000000 0.000000 0.000000 0.000000
    15 -1.655434 -1.018065 -0.614096 0.000000 1.570795 0.000000
    16 0.000000 0.000000 0.000000 0.000000 0.000000 0.000001
    17 -1.431746 -1.846478 -1.038432 0.000000 1.570796 0.000000
    18 0.000000 0.000000 0.000000 0.000000 0.000000 0.000000
    19 -13.236908 -3.969946 9.111434 0.000001 -0.000001 0.304769
    20 0.000000 0.000000 0.000002 -0.000009 0.000000 0.000000
    21 -13.544953 3.169003 -6.601957 0.000000 0.000000 0.000000
    22 -3.124473 1.877202 -0.786218 0.000000 0.000000 0.000000
    23 -1.143314 1.676258 -0.050264 0.000000 0.000000 0.000000
    24 -0.625989 1.347690 -0.418034 0.000000 0.000000 0.000000
  time 10
    0 0.203377 13.230874 -11.035233 1.570796 0.010444 1.570704
    1 0.000000 0.000000 0.000000 -0.003248 -0.002145 0.000000
    2 -8.878141 -0.048395 -1.142586 0.000000 0.000000 -0.022675
    3 -11.856706 1.258262 0.000004 0.000000 0.000000 -0.045973
    4 -1.905335 1.742211 1.054457 -0.025781 -0.010522 0.017927
    5 -0.970945 0.822710 0.686170 -0.023978 0.078384 -0.000918
    6 -1.880297 3.401037 0.088129 0.000000 0.000000 0.000000
    7 0.000000 0.000000 0.000000 0.000000 0.000000 0.000000
    8 -2.717426 0.092903 0.000000 0.000000 0.000000 0.000000
    9 -0.348388 -1.695488 0.000000 0.000000 0.000000 0.000000
    10 -0.278710 -0.859357 0.000000 0.000000 0.000000 0.000000
    11 -4.733719 0.512310 0.000000 0.000000 0.000000 0.000000
    12 1.323730 -3.668185 0.000000 0.000000 0.000000 0.000000
    13 -1.841841 -0.252357 -0.413176 0.000000 1.570796 0.000000
    14 0.000000 0.000000 0.000000 0.000000 0.000000 0.000000
    15 -1.655434 -1.018065 -0.614096 0.000000 1.570795 0.000000
    16 0.000000 0.000000 0.000000 0.000000 0.000000 0.000001
    17 -1.431746 -1.846478 -1.038432 0.000000 1.570796 0.000000
    18 0.000000 0.000000 0.000000 0.000000 0.000000 0.000000
    19 -13.236908 -3.969946 9.111434 0.000001 -0.000001 0.148098
    20 0.000000 0.000000 0.000002 -0.000009 0.000000 0.000000
    21 -13.544953 3.169003 -6.601957 0.000000 0.000000 0.000000
    22 -3.124473 1.877202 -0.786218 0.000000 0.000000 0.000000
    23 -1.143314 1.676258 -0.050264 0.000000 0.000000 0.000000
    24 -0.625989 1.347690 -0.418034 0.000000 0.000000 0.000000
  time 11
    0 0.203377 13.230874 -11.035233 1.570796 0.000000 1.570704
    1 0.000000 0.000000 0.000000 0.000000 0.000000 0.000000
    2 -8.878141 -0.048395 -1.142586 0.000000 0.000000 0.000000
    3 -11.856706 1.258262 0.000004 0.000000 0.000000 0.000000
    4 -1.905335 1.742211 1.054457 0.000000 0.000000 0.000000
    5 -0.970945 0.822710 0.686170 -0.000001 0.000000 0.000000
    6 -1.880297 3.401037 0.088129 0.000000 0.000000 0.000000
    7 0.000000 0.000000 0.000000 0.000000 0.000000 0.000000
    8 -2.717426 0.092903 0.000000 0.000000 0.000000 0.000000
    9 -0.348388 -1.695488 0.000000 0.000000 0.000000 0.000000
    10 -0.278710 -0.859357 0.000000 0.000000 0.000000 0.000000
    11 -4.733719 0.512310 0.000000 0.000000 0.000000 0.000000
    12 1.323730 -3.668185 0.000000 0.000000 0.000000 0.000000
    13 -1.841841 -0.252357 -0.413176 0.000000 1.570796 0.000000
    14 0.000000 0.000000 0.000000 0.000000 0.000000 0.000000
    15 -1.655434 -1.018065 -0.614096 0.000000 1.570795 0.000000
    16 0.000000 0.000000 0.000000 0.000000 0.000000 0.000001
    17 -1.431746 -1.846478 -1.038432 0.000000 1.570796 0.000000
    18 0.000000 0.000000 0.000000 0.000000 0.000000 0.000000
    19 -13.236908 -3.969946 9.111434 0.000001 -0.000001 0.000000
    20 0.000000 0.000000 0.000002 -0.000009 0.000000 0.000000
    21 -13.544953 3.169003 -6.601957 0.000000 0.000000 0.000000
    22 -3.124473 1.877202 -0.786218 0.000000 0.000000 0.000000
    23 -1.143314 1.676258 -0.050264 0.000000 0.000000 0.000000
    24 -0.625989 1.347690 -0.418034 0.000000 0.000000 0.000000
end
