version 1
nodes
  0 "Bone01" -1
  1 "Bone02" 0
  2 "Bone03" 1
  3 "Bone04" 2
  4 "Bone05" 3
  5 "Bone06" 4
  6 "Bone08" 4
  7 "Bone09" 6
  8 "Bone10" 7
  9 "Bone11" 8
  10 "Bone12" 9
  11 "Bone16" 8
  12 "Bone17" 11
  13 "Bone26" 4
  14 "Bone27" 13
  15 "Bone29" 4
  16 "Bone30" 15
  17 "Bone32" 4
  18 "Bone33" 17
  19 "Bone19" 1
  20 "Bone20" 19
  21 "Bone21" 20
  22 "Bone22" 21
  23 "Bone23" 22
  24 "Bone24" 23
end
skeleton
  time 0
    0 0.203377 13.230874 -11.035233 1.570796 0.000000 1.570704
    1 0.000000 0.000000 0.000000 0.000000 0.000000 0.000000
    2 -8.878141 -0.048395 -1.142586 0.000000 0.000000 0.000000
    3 -11.856706 1.258262 0.000004 0.000000 0.000000 0.000000
    4 -1.905335 1.742211 1.054457 0.000000 0.000000 0.000000
    5 -0.970945 0.822710 0.686170 -0.000001 0.000000 0.000000
    6 -1.880297 3.401037 0.088129 0.000000 0.000000 0.000000
    7 0.000000 0.000000 0.000000 0.000000 0.000000 0.000000
    8 -2.717426 0.092903 0.000000 0.000000 0.000000 0.000000
    9 -0.348388 -1.695488 0.000000 0.000000 0.000000 0.000000
    10 -0.278710 -0.859357 0.000000 0.000000 0.000000 0.000000
    11 -4.733719 0.512310 0.000000 0.000000 0.000000 0.000000
    12 1.323730 -3.668185 0.000000 0.000000 0.000000 0.000000
    13 -1.841841 -0.252357 -0.413176 0.000000 1.570796 0.000000
    14 0.000000 0.000000 0.000000 0.000000 0.000000 0.000000
    15 -1.655434 -1.018065 -0.614096 0.000000 1.570795 0.000000
    16 0.000000 0.000000 0.000000 0.000000 0.000000 0.000001
    17 -1.431746 -1.846478 -1.038432 0.000000 1.570796 0.000000
    18 0.000000 0.000000 0.000000 0.000000 0.000000 0.000000
    19 -13.236908 -3.969946 9.111434 0.000001 -0.000001 0.000000
    20 0.000000 0.000000 0.000002 -0.000009 0.000000 0.000000
    21 -13.544953 3.169003 -6.601957 0.000000 0.000000 0.000000
    22 -3.124473 1.877202 -0.786218 0.000000 0.000000 0.000000
    23 -1.143314 1.676258 -0.050264 0.000000 0.000000 0.000000
    24 -0.625989 1.347690 -0.418034 0.000000 0.000000 0.000000
  time 1
    0 -0.222417 14.473099 -11.519623 1.570796 0.000000 1.570704
    1 0.000000 0.000000 0.000000 0.000000 0.000000 0.000000
    2 -8.878141 -0.048395 -1.142586 0.000000 0.032706 0.000000
    3 -11.856706 1.258262 0.000004 0.000000 0.000000 -0.017438
    4 -1.905335 1.742211 1.054457 0.000000 0.000000 0.000000
    5 -0.970945 0.822710 0.686170 -0.000001 0.000000 0.000000
    6 -1.880297 3.401037 0.088129 0.000000 0.000000 0.000000
    7 0.000000 0.000000 0.000000 0.000000 0.000000 0.000000
    8 -2.717426 0.092903 0.000000 0.000000 0.000000 0.000000
    9 -0.348388 -1.695488 0.000000 0.000000 0.000000 0.000000
    10 -0.278710 -0.859357 0.000000 0.000000 0.000000 0.000000
    11 -4.733719 0.512310 0.000000 0.000000 0.000000 0.000000
    12 1.323730 -3.668185 0.000000 0.000000 0.000000 0.000000
    13 -1.841841 -0.252357 -0.413176 0.000000 1.570796 0.000000
    14 0.000000 0.000000 0.000000 0.000000 0.000000 0.000000
    15 -1.655434 -1.018065 -0.614096 0.000000 1.570795 0.000000
    16 0.000000 0.000000 0.000000 0.000000 0.000000 0.000001
    17 -1.431746 -1.846478 -1.038432 0.000000 1.570796 0.000000
    18 0.000000 0.000000 0.000000 0.000000 0.000000 0.000000
    19 -13.236908 -3.969946 9.111434 -0.001613 0.038122 -0.032712
    20 0.000000 0.000000 0.000002 -0.000009 0.000000 0.000000
    21 -13.544953 3.169003 -6.601957 0.000000 0.000000 0.078491
    22 -3.124473 1.877202 -0.786218 0.000000 0.000000 0.000000
    23 -1.143314 1.676258 -0.050264 0.000000 0.512395 0.000000
    24 -0.625989 1.347690 -0.418034 0.000000 0.000000 0.000000
  time 2
    0 -0.480237 15.219215 -11.804788 1.570796 0.000000 1.570704
    1 0.000000 0.000000 0.000000 0.000000 0.000000 0.000000
    2 -8.878141 -0.048395 -1.142586 0.000000 0.052325 0.000000
    3 -11.856706 1.258262 0.000004 0.002732 -0.034755 -0.079086
    4 -1.905335 1.742211 1.054457 0.000000 0.000000 0.000000
    5 -0.970945 0.822710 0.686170 -0.000001 0.000000 0.000000
    6 -1.880297 3.401037 0.088129 0.000000 0.000000 0.000000
    7 0.000000 0.000000 0.000000 0.000000 0.000000 0.000000
    8 -2.717426 0.092903 0.000000 0.000000 0.000000 0.000000
    9 -0.348388 -1.695488 0.000000 0.000000 0.000000 0.000000
    10 -0.278710 -0.859357 0.000000 0.000000 0.000000 0.000000
    11 -4.733719 0.512310 0.000000 0.000000 0.000000 0.000000
    12 1.323730 -3.668185 0.000000 0.000000 0.000000 0.000000
    13 -1.841841 -0.252357 -0.413176 0.000000 1.570796 0.000000
    14 0.000000 0.000000 0.000000 0.000000 0.000000 0.000000
    15 -1.655434 -1.018065 -0.614096 0.000000 1.570795 0.000000
    16 0.000000 0.000000 0.000000 0.000000 0.000000 0.000001
    17 -1.431746 -1.846478 -1.038432 0.000000 1.570796 0.000000
    18 0.000000 0.000000 0.000000 0.000000 0.000000 0.000000
    19 -13.236908 -3.969946 9.111434 -0.003184 0.060965 -0.052423
    20 0.000000 0.000000 0.000002 -0.000009 0.000000 0.000000
    21 -13.544953 3.169003 -6.601957 0.000000 0.000000 0.132951
    22 -3.124473 1.877202 -0.786218 0.000000 0.000000 0.000000
    23 -1.143314 1.676258 -0.050264 0.000000 0.819833 0.000000
    24 -0.625989 1.347690 -0.418034 0.000000 0.000000 0.000000
  time 3
    0 -0.562271 15.469223 -11.902447 1.570796 0.000000 1.570704
    1 0.000000 0.000000 0.000000 0.000000 0.000000 0.000000
    2 -8.878141 -0.048395 -1.142586 0.000000 0.046596 0.000000
    3 -11.856706 1.258262 0.000004 0.001774 -0.018061 -0.030213
    4 -1.905335 1.742211 1.054457 0.000000 0.000000 0.000000
    5 -0.970945 0.822710 0.686170 -0.000001 0.000000 0.000000
    6 -1.880297 3.401037 0.088129 0.000000 0.000000 0.000000
    7 0.000000 0.000000 0.000000 0.000000 0.000000 0.000000
    8 -2.717426 0.092903 0.000000 0.000000 0.000000 0.000000
    9 -0.348388 -1.695488 0.000000 0.000000 0.000000 0.000000
    10 -0.278710 -0.859357 0.000000 0.000000 0.000000 0.000000
    11 -4.733719 0.512310 0.000000 0.000000 0.000000 0.000000
    12 1.323730 -3.668185 0.000000 0.000000 0.000000 0.000000
    13 -1.841841 -0.252357 -0.413176 0.000000 1.570796 0.000000
    14 0.000000 0.000000 0.000000 0.000000 0.000000 0.000000
    15 -1.655434 -1.018065 -0.614096 0.000000 1.570795 0.000000
    16 0.000000 0.000000 0.000000 0.000000 0.000000 0.000001
    17 -1.431746 -1.846478 -1.038432 0.000000 1.570796 0.000000
    18 0.000000 0.000000 0.000000 0.000000 0.000000 0.000000
    19 -13.236908 -3.969946 9.111434 -0.002681 0.054301 -0.046660
    20 0.000000 0.000000 0.000002 -0.000009 0.000000 0.000000
    21 -13.544953 3.169003 -6.601957 0.000000 0.000000 0.189506
    22 -3.124473 1.877202 -0.786218 0.000000 0.000000 0.000000
    23 -1.143314 1.676258 -0.050264 0.000000 0.730153 0.000000
    24 -0.625989 1.347690 -0.418034 0.000000 0.000000 0.000000
  time 4
    0 -0.480237 15.219215 -11.804788 1.570796 0.000000 1.570704
    1 0.000000 0.000000 0.000000 0.000000 0.000000 0.000000
    2 -8.878141 -0.048395 -1.142586 0.000000 0.032706 0.000000
    3 -11.856706 1.258262 0.000004 0.001510 0.007874 0.037871
    4 -1.905335 1.742211 1.054457 0.000000 0.000000 0.000000
    5 -0.970945 0.822710 0.686170 -0.000001 0.000000 0.000000
    6 -1.880297 3.401037 0.088129 0.000000 0.000000 0.000000
    7 0.000000 0.000000 0.000000 0.000000 0.000000 0.000000
    8 -2.717426 0.092903 0.000000 0.000000 0.000000 0.000000
    9 -0.348388 -1.695488 0.000000 0.000000 0.000000 0.000000
    10 -0.278710 -0.859357 0.000000 0.000000 0.000000 0.000000
    11 -4.733719 0.512310 0.000000 0.000000 0.000000 0.000000
    12 1.323730 -3.668185 0.000000 0.000000 0.000000 0.000000
    13 -1.841841 -0.252357 -0.413176 0.000000 1.570796 0.000000
    14 0.000000 0.000000 0.000000 0.000000 0.000000 0.000000
    15 -1.655434 -1.018065 -0.614096 0.000000 1.570795 0.000000
    16 0.000000 0.000000 0.000000 0.000000 0.000000 0.000001
    17 -1.431746 -1.846478 -1.038432 0.000000 1.570796 0.000000
    18 0.000000 0.000000 0.000000 0.000000 0.000000 0.000000
    19 -13.236908 -3.969946 9.111434 -0.001613 0.038122 -0.032712
    20 0.000000 0.000000 0.000002 -0.000009 0.000000 0.000000
    21 -13.544953 3.169003 -6.601957 0.000000 0.000000 0.230275
    22 -3.124473 1.877202 -0.786218 0.000000 0.000000 0.000000
    23 -1.143314 1.676258 -0.050264 0.000000 0.512395 0.000000
    24 -0.625989 1.347690 -0.418034 0.000000 0.000000 0.000000
  time 5
    0 -0.222417 14.473099 -11.519623 1.570796 0.000000 1.570704
    1 0.000000 0.000000 0.000000 0.000000 0.000000 0.000000
    2 -8.878141 -0.048395 -1.142586 0.000000 0.015520 0.000000
    3 -11.856706 1.258262 0.000004 0.002157 0.026055 0.083137
    4 -1.905335 1.742211 1.054457 0.000000 0.000000 0.000000
    5 -0.970945 0.822710 0.686170 -0.000001 0.000000 0.000000
    6 -1.880297 3.401037 0.088129 0.000000 0.000000 0.000000
    7 0.000000 0.000000 0.000000 0.000000 0.000000 0.000000
    8 -2.717426 0.092903 0.000000 0.000000 0.000000 0.000000
    9 -0.348388 -1.695488 0.000000 0.000000 0.000000 0.000000
    10 -0.278710 -0.859357 0.000000 0.000000 0.000000 0.000000
    11 -4.733719 0.512310 0.000000 0.000000 0.000000 0.000000
    12 1.323730 -3.668185 0.000000 0.000000 0.000000 0.000000
    13 -1.841841 -0.252357 -0.413176 0.000000 1.570796 0.000000
    14 0.000000 0.000000 0.000000 0.000000 0.000000 0.000000
    15 -1.655434 -1.018065 -0.614096 0.000000 1.570795 0.000000
    16 0.000000 0.000000 0.000000 0.000000 0.000000 0.000001
    17 -1.431746 -1.846478 -1.038432 0.000000 1.570796 0.000000
    18 0.000000 0.000000 0.000000 0.000000 0.000000 0.000000
    19 -13.236908 -3.969946 9.111434 -0.000607 0.018108 -0.015530
    20 0.000000 0.000000 0.000002 -0.000009 0.000000 0.000000
    21 -13.544953 3.169003 -6.601957 0.000000 0.000000 0.237372
    22 -3.124473 1.877202 -0.786218 0.000000 0.000000 0.000000
    23 -1.143314 1.676258 -0.050264 0.000000 0.243356 0.000000
    24 -0.625989 1.347690 -0.418034 0.000000 0.000000 0.000000
  time 6
    0 0.203377 13.230874 -11.035233 1.570796 0.000000 1.570704
    1 0.000000 0.000000 0.000000 0.000000 0.000000 0.000000
    2 -8.878141 -0.048395 -1.142586 0.000000 0.000000 0.000000
    3 -11.856706 1.258262 0.000004 0.000000 0.000000 0.000000
    4 -1.905335 1.742211 1.054457 0.000000 0.000000 0.000000
    5 -0.970945 0.822710 0.686170 -0.000001 0.000000 0.000000
    6 -1.880297 3.401037 0.088129 0.000000 0.000000 0.000000
    7 0.000000 0.000000 0.000000 0.000000 0.000000 0.000000
    8 -2.717426 0.092903 0.000000 0.000000 0.000000 0.000000
    9 -0.348388 -1.695488 0.000000 0.000000 0.000000 0.000000
    10 -0.278710 -0.859357 0.000000 0.000000 0.000000 0.000000
    11 -4.733719 0.512310 0.000000 0.000000 0.000000 0.000000
    12 1.323730 -3.668185 0.000000 0.000000 0.000000 0.000000
    13 -1.841841 -0.252357 -0.413176 0.000000 1.570796 0.000000
    14 0.000000 0.000000 0.000000 0.000000 0.000000 0.000000
    15 -1.655434 -1.018065 -0.614096 0.000000 1.570795 0.000000
    16 0.000000 0.000000 0.000000 0.000000 0.000000 0.000001
    17 -1.431746 -1.846478 -1.038432 0.000000 1.570796 0.000000
    18 0.000000 0.000000 0.000000 0.000000 0.000000 0.000000
    19 -13.236908 -3.969946 9.111434 0.000001 -0.000001 0.000000
    20 0.000000 0.000000 0.000002 -0.000009 0.000000 0.000000
    21 -13.544953 3.169003 -6.601957 0.000000 0.000000 0.000000
    22 -3.124473 1.877202 -0.786218 0.000000 0.000000 0.000000
    23 -1.143314 1.676258 -0.050264 0.000000 0.000000 0.000000
    24 -0.625989 1.347690 -0.418034 0.000000 0.000000 0.000000
end
