version 1
nodes
  0 "Bip01" -1
  1 "Bip01 Pelvis" 0
  2 "Bip01 L Leg" 1
  3 "Bip01 L Leg1" 2
  4 "Bip01 L Foot" 3
  5 "Bip01 L Toe0" 4
  6 "Bip01 L Toe01" 5
  7 "Bip01 L Toe02" 6
  8 "Bip01 L Toe1" 4
  9 "Bip01 L Toe11" 8
  10 "Bip01 L Toe12" 9
  11 "Bip01 R Leg" 1
  12 "Bip01 R Leg1" 11
  13 "Bip01 R Foot" 12
  14 "Bip01 R Toe0" 13
  15 "Bip01 R Toe01" 14
  16 "Bip01 R Toe02" 15
  17 "Bip01 R Toe1" 13
  18 "Bip01 R Toe11" 17
  19 "Bip01 R Toe12" 18
  20 "Bip01 Spine" 1
  21 "Bip01 Spine1" 20
  22 "Bip01 Neck" 21
  23 "Bip01 Head" 22
  24 "Bone13" 23
  25 "Bone14" 24
  26 "Bone15" 25
  27 "Bone16" 26
  28 "Bone17" 27
  29 "Bone07" 23
  30 "Bone08" 29
  31 "Bone09" 30
  32 "Bone10" 31
  33 "Bone11" 32
  34 "Bone31" 23
  35 "Bone32" 34
  36 "Bone33" 35
  37 "Bone34" 36
  38 "Bone35" 37
  39 "Bone01" 23
  40 "Bone02" 39
  41 "Bone03" 40
  42 "Bone04" 41
  43 "Bone05" 42
  44 "Bone19" 23
  45 "Bone20" 44
  46 "Bone21" 45
  47 "Bone22" 46
  48 "Bone23" 47
  49 "Bone25" 23
  50 "Bone26" 49
  51 "Bone27" 50
  52 "Bone28" 51
  53 "Bone29" 52
  54 "Bip01 Tail" 1
  55 "Bip01 Tail1" 54
  56 "Bip01 Tail2" 55
  57 "Bip01 Tail3" 56
end
skeleton
  time 0
    0 0.152748 4.421663 34.202477 0.000000 0.000000 -1.570831
    1 0.000000 0.000000 0.000000 -1.570795 -1.570796 0.000000
    2 -0.000020 0.000021 14.561969 0.060711 -0.415458 -2.363137
    3 17.731709 0.000001 -0.000001 0.000000 0.000000 -1.360542
    4 21.987318 0.000000 0.000001 2.685254 0.246733 0.526347
    5 4.324764 6.780501 -1.982552 0.000000 0.000000 1.832463
    6 1.707564 0.000000 -0.000001 0.000000 0.000000 -0.130833
    7 1.707564 0.000000 -0.000001 0.000000 0.000000 -0.479722
    8 4.324764 6.333147 1.238804 0.000000 -0.331445 1.832463
    9 1.821401 0.000000 0.000000 0.000000 0.000000 -0.130833
    10 1.821401 0.000000 0.000002 0.000000 0.000000 -0.479722
    11 0.000020 -0.000019 -14.561969 -0.060707 0.415458 -2.363135
    12 17.731709 0.000001 0.000000 0.000000 0.000000 -1.360542
    13 21.987318 0.000000 0.000000 -2.685254 -0.246733 0.526347
    14 4.324764 6.904406 1.903420 0.000000 -0.069778 1.832463
    15 1.707564 0.000000 0.000000 0.000000 0.000000 -0.130833
    16 1.707564 0.000000 0.000000 0.000000 0.000000 -0.479722
    17 4.324764 7.017686 -1.342621 0.000000 0.366333 1.832463
    18 1.821401 0.000000 -0.000001 0.000000 0.000000 -0.130833
    19 1.821401 0.000000 0.000000 0.000000 0.000000 -0.479722
    20 1.249477 0.004294 0.000002 -0.000003 0.000002 2.050519
    21 11.689317 -0.009310 0.000000 0.000000 0.000000 0.000000
    22 11.689319 -0.001413 0.000000 0.000000 0.000000 0.000000
    23 1.773171 0.000000 0.000000 -0.000004 0.000002 -2.050520
    24 4.327651 4.634944 -2.428680 -3.141591 -1.570796 0.000000
    25 0.000000 0.000000 -0.346258 0.000000 0.000000 0.000000
    26 0.827268 -7.688719 -2.908663 0.000000 0.000000 0.000000
    27 1.167906 -7.494068 0.088223 0.000000 0.000000 0.000000
    28 1.508547 -6.764126 -3.865246 0.000000 0.000000 0.000000
    29 2.243070 5.364873 3.362189 -3.141591 -1.570796 0.000000
    30 0.000000 0.000000 0.000000 0.000000 0.000000 0.000000
    31 1.021918 -6.472149 -0.595725 0.000000 0.000000 0.000000
    32 0.973257 -7.396744 -2.793420 0.000000 0.000000 0.000000
    33 1.021919 -5.839535 -3.557765 0.000000 0.000000 0.000000
    34 -3.776780 2.834425 -11.528622 -3.141591 -1.570796 0.000000
    35 -0.145987 0.000000 0.730172 0.000000 0.000000 0.000000
    36 -2.384475 -6.374823 -2.048884 0.000000 0.000000 0.000000
    37 -1.021918 -3.601046 -1.439223 0.000000 0.000000 0.000000
    38 -0.243313 -4.720289 -1.673704 0.000000 0.000000 0.000000
    39 -2.264709 4.780907 8.909744 -3.141591 -1.570796 0.000000
    40 0.000000 0.000000 -0.000001 0.000000 0.000000 0.000000
    41 1.946511 -7.250753 -2.204917 0.000000 0.000000 0.000000
    42 1.605872 -3.649708 -1.822482 0.000000 0.000000 0.000000
    43 -0.729940 -3.941685 -1.419925 0.000000 0.000000 0.000000
    44 -4.189922 3.272375 -1.309439 -3.141591 -1.570796 0.000000
    45 0.000000 0.000000 0.000000 0.000000 0.000000 0.000000
    46 -1.265231 -7.396742 -6.605809 0.000000 0.000000 0.000000
    47 0.000001 -5.742207 -3.281358 0.000000 0.000000 0.000000
    48 0.048663 -5.596218 0.775174 0.000000 0.000000 0.000000
    49 0.256295 2.737098 -7.294960 -3.141591 -1.570796 0.000000
    50 0.000000 0.000000 1.089263 0.000000 0.000000 0.000000
    51 -2.335813 -8.126684 -0.811257 0.000000 0.000000 0.000000
    52 0.145988 -7.348078 -0.880992 0.000000 0.000000 0.000000
    53 0.048664 -7.299416 -5.811587 0.000000 0.000000 0.000000
    54 -0.388542 -14.131889 0.000034 -0.000002 -0.000001 -1.554463
    55 15.490297 -0.012333 0.000000 0.000000 0.000000 -0.009833
    56 15.491476 -0.012288 0.000000 0.000000 0.000000 0.086111
    57 15.487943 -0.014717 0.000000 0.000000 0.000001 -0.166833
  time 1
    0 -0.526960 4.421663 32.885371 0.000000 0.000000 -1.570831
    1 0.148442 1.804743 0.000000 -1.570795 -1.570796 0.000000
    2 -0.000020 0.000021 14.561969 0.049286 -0.401520 -2.287867
    3 17.731709 0.000001 -0.000001 0.000000 0.000000 -1.483131
    4 21.987318 0.000000 0.000001 2.686855 0.221239 0.581070
    5 4.324764 6.780501 -1.982552 0.000000 0.000000 1.832463
    6 1.707564 0.000000 -0.000001 0.000000 0.000000 -0.130833
    7 1.707564 0.000000 -0.000001 0.000000 0.000000 -0.479722
    8 4.324764 6.333147 1.238804 0.000000 -0.331445 1.832463
    9 1.821401 0.000000 0.000000 0.000000 0.000000 -0.130833
    10 1.821401 0.000000 0.000002 0.000000 0.000000 -0.479722
    11 0.000020 -0.000019 -14.561969 -0.000515 0.448321 -2.292329
    12 17.731709 0.000001 0.000000 0.000000 0.000000 -1.437752
    13 21.987318 0.000000 0.000000 -2.681385 -0.289917 0.537130
    14 4.324764 6.904406 1.903420 0.000000 -0.069778 1.832463
    15 1.707564 0.000000 0.000000 0.000000 0.000000 -0.130833
    16 1.707564 0.000000 0.000000 0.000000 0.000000 -0.479722
    17 4.324764 7.017686 -1.342621 0.000000 0.366333 1.832463
    18 1.821401 0.000000 -0.000001 0.000000 0.000000 -0.130833
    19 1.821401 0.000000 0.000000 0.000000 0.000000 -0.479722
    20 1.249477 0.004294 0.000002 0.000064 0.092902 2.050519
    21 11.689317 -0.009310 0.000000 0.000126 0.165574 0.000000
    22 11.689319 -0.001413 0.000000 0.000000 0.000000 0.000000
    23 1.773171 0.000000 0.000000 -0.004722 0.122623 -2.032527
    24 4.327651 4.634944 -2.428680 -6.274456 -1.559030 3.135259
    25 0.000000 0.000000 -0.346258 0.006096 -0.098475 0.063870
    26 0.827268 -7.688719 -2.908663 0.122897 -0.218410 0.097135
    27 1.167906 -7.494068 0.088223 -0.125951 0.207398 0.085076
    28 1.508547 -6.764126 -3.865246 0.159848 0.187442 -0.025057
    29 2.243070 5.364873 3.362189 -6.276408 -1.560731 3.136388
    30 0.000000 0.000000 0.000000 0.092519 -0.100472 0.045601
    31 1.021918 -6.472149 -0.595725 0.048200 -0.158861 0.137458
    32 0.973257 -7.396744 -2.793420 0.050473 -0.094816 0.128239
    33 1.021919 -5.839535 -3.557765 -0.137144 0.341686 0.064522
    34 -3.776780 2.834425 -11.528622 -0.346111 -1.556663 -2.777200
    35 -0.145987 0.000000 0.730172 -0.065892 -0.424875 0.043973
    36 -2.384475 -6.374823 -2.048884 0.007944 -0.097326 -0.000955
    37 -1.021918 -3.601046 -1.439223 0.215193 0.113440 0.091612
    38 -0.243313 -4.720289 -1.673704 0.071891 0.526305 0.169059
    39 -2.264709 4.780907 8.909744 -0.032318 -1.549121 -3.105265
    40 0.000000 0.000000 -0.000001 0.073350 -0.231270 0.152184
    41 1.946511 -7.250753 -2.204917 -0.125323 0.348373 0.084805
    42 1.605872 -3.649708 -1.822482 -0.014318 -0.188429 0.342826
    43 -0.729940 -3.941685 -1.419925 -0.295280 0.278492 0.256946
    44 -4.189922 3.272375 -1.309439 -6.273400 -1.566845 3.132565
    45 0.000000 0.000000 0.000000 -0.023018 -0.078542 0.003927
    46 -1.265231 -7.396742 -6.605809 -0.077158 -0.122107 0.015688
    47 0.000001 -5.742207 -3.281358 0.152659 0.073592 0.134199
    48 0.048663 -5.596218 0.775174 0.147429 0.043595 0.101710
    49 0.256295 2.737098 -7.294960 -6.232630 -1.507481 3.112699
    50 0.000000 0.000000 1.089263 0.018985 -0.336741 0.086138
    51 -2.335813 -8.126684 -0.811257 0.103768 -0.038111 0.036222
    52 0.145988 -7.348078 -0.880992 -0.091248 0.112260 0.160919
    53 0.048664 -7.299416 -5.811587 0.107652 -0.108175 0.281495
    54 -0.388542 -14.131889 0.000034 -0.000002 -0.000001 -1.401343
    55 15.490297 -0.012333 0.000000 0.014435 -0.068431 0.014002
    56 15.491476 -0.012288 0.000000 -0.000017 -0.041338 0.012500
    57 15.487943 -0.014717 0.000000 0.000096 0.138112 -0.392808
  time 2
    0 -2.023099 4.421663 31.047928 0.000000 0.000000 -1.570831
    1 0.753929 3.929807 0.000000 -1.570795 -1.570796 0.000000
    2 -0.000020 0.000021 14.561969 0.016281 -0.396207 -2.176259
    3 17.731709 0.000001 -0.000001 0.000000 0.000000 -1.623925
    4 21.987318 0.000000 0.000001 2.687984 0.207713 0.619463
    5 4.324764 6.780501 -1.982552 0.000000 0.000000 1.832463
    6 1.707564 0.000000 -0.000001 0.000000 0.000000 -0.130833
    7 1.707564 0.000000 -0.000001 0.000000 0.000000 -0.479722
    8 4.324764 6.333147 1.238804 0.000000 -0.331445 1.832463
    9 1.821401 0.000000 0.000000 0.000000 0.000000 -0.130833
    10 1.821401 0.000000 0.000002 0.000000 0.000000 -0.479722
    11 0.000020 -0.000019 -14.561969 0.073112 0.465752 -2.178064
    12 17.731709 0.000001 0.000000 0.000000 0.000000 -1.553634
    13 21.987318 0.000000 0.000000 -2.677422 -0.321017 0.550040
    14 4.324764 6.904406 1.903420 0.000000 -0.069778 1.832463
    15 1.707564 0.000000 0.000000 0.000000 0.000000 -0.130833
    16 1.707564 0.000000 0.000000 0.000000 0.000000 -0.479722
    17 4.324764 7.017686 -1.342621 0.000000 0.366333 1.832463
    18 1.821401 0.000000 -0.000001 0.000000 0.000000 -0.130833
    19 1.821401 0.000000 0.000000 0.000000 0.000000 -0.479722
    20 1.249477 0.004294 0.000002 0.000149 0.205797 2.050519
    21 11.689317 -0.009310 0.000000 0.000305 0.378855 0.000047
    22 11.689319 -0.001413 0.000000 0.000000 0.000000 0.000000
    23 1.773171 0.000000 0.000000 0.004822 0.265881 -1.968577
    24 4.327651 4.634944 -2.428680 -6.273306 -1.547265 3.136314
    25 0.000000 0.000000 -0.346258 0.005858 -0.197110 0.128145
    26 0.827268 -7.688719 -2.908663 0.232070 -0.446613 0.171830
    27 1.167906 -7.494068 0.088223 -0.241469 0.423797 0.147304
    28 1.508547 -6.764126 -3.865246 0.323736 0.376513 -0.019240
    29 2.243070 5.364873 3.362189 -6.275545 -1.550635 3.137059
    30 0.000000 0.000000 0.000000 0.181884 -0.204732 0.082337
    31 1.021918 -6.472149 -0.595725 0.075034 -0.322990 0.272397
    32 0.973257 -7.396744 -2.793420 0.088997 -0.195533 0.253396
    33 1.021919 -5.839535 -3.557765 -0.276013 0.688924 0.083406
    34 -3.776780 2.834425 -11.528622 -0.336910 -1.542444 -2.768097
    35 -0.145987 0.000000 0.730172 -0.183916 -0.844337 0.145206
    36 -2.384475 -6.374823 -2.048884 0.016040 -0.194735 -0.002713
    37 -1.021918 -3.601046 -1.439223 0.443652 0.204173 0.207248
    38 -0.243313 -4.720289 -1.673704 0.354682 1.020756 0.522637
    39 -2.264709 4.780907 8.909744 -0.030304 -1.527446 -3.103251
    40 0.000000 0.000000 -0.000001 0.113806 -0.470685 0.299521
    41 1.946511 -7.250753 -2.204917 -0.241624 0.704230 0.132094
    42 1.605872 -3.649708 -1.822482 -0.095874 -0.360607 0.706495
    43 -0.729940 -3.941685 -1.419925 -0.543760 0.615559 0.446568
    44 -4.189922 3.272375 -1.309439 -6.272824 -1.562894 3.132756
    45 0.000000 0.000000 0.000000 -0.046665 -0.156985 0.009692
    46 -1.265231 -7.396742 -6.605809 -0.158083 -0.242553 0.041415
    47 0.000001 -5.742207 -3.281358 0.314940 0.125210 0.278946
    48 0.048663 -5.596218 0.775174 0.299030 0.071415 0.209078
    49 0.256295 2.737098 -7.294960 -6.221796 -1.444166 3.123533
    50 0.000000 0.000000 1.089263 0.005565 -0.673853 0.182115
    51 -2.335813 -8.126684 -0.811257 0.206366 -0.079765 0.068402
    52 0.145988 -7.348078 -0.880992 -0.164856 0.237430 0.314261
    53 0.048664 -7.299416 -5.811587 0.182469 -0.241645 0.555899
    54 -0.388542 -14.135796 0.000034 -0.000002 -0.000001 -1.183548
    55 15.490297 -0.012333 0.000000 0.035351 -0.167081 0.044402
    56 15.491476 -0.012288 0.000000 -0.000068 -0.100240 -0.091739
    57 15.484036 -0.014717 0.000000 0.000257 0.334897 -0.712438
  time 3
    0 -3.527051 4.421663 29.812125 0.000000 0.000000 -1.570831
    1 0.980499 4.343883 0.000000 -1.570795 -1.570796 0.000000
    2 -0.000020 0.000021 14.561969 -0.047787 -0.421896 -2.105253
    3 17.731709 0.000001 -0.000001 0.000000 0.000000 -1.689077
    4 21.987318 0.000000 0.000001 2.683089 0.252143 0.618699
    5 4.324764 6.780501 -1.982552 0.000000 0.000000 1.832463
    6 1.707564 0.000000 -0.000001 0.000000 0.000000 -0.130833
    7 1.707564 0.000000 -0.000001 0.000000 0.000000 -0.479722
    8 4.324764 6.333147 1.238804 0.000000 -0.331445 1.832463
    9 1.821401 0.000000 0.000000 0.000000 0.000000 -0.130833
    10 1.821401 0.000000 0.000002 0.000000 0.000000 -0.479722
    11 0.000020 -0.000019 -14.561969 0.086368 0.445462 -2.104820
    12 17.731709 0.000001 0.000000 0.000000 0.000000 -1.662333
    13 21.987318 0.000000 0.000000 -2.680819 -0.297037 0.592586
    14 4.324764 6.904406 1.903420 0.000000 -0.069778 1.832463
    15 1.707564 0.000000 0.000000 0.000000 0.000000 -0.130833
    16 1.707564 0.000000 0.000000 0.000000 0.000000 -0.479722
    17 4.324764 7.017686 -1.342621 0.000000 0.366333 1.832463
    18 1.821401 0.000000 -0.000001 0.000000 0.000000 -0.130833
    19 1.821401 0.000000 0.000000 0.000000 0.000000 -0.479722
    20 1.249477 0.004294 0.000002 0.000166 0.218318 2.050519
    21 11.689317 -0.009310 0.000000 0.000395 0.462265 0.000094
    22 11.689319 -0.001413 0.000000 0.000000 0.000000 0.000000
    23 1.773171 0.000000 0.000000 0.030861 0.304059 -1.940102
    24 4.327651 4.634944 -2.428680 -6.272922 -1.541323 3.137081
    25 0.000000 0.000000 -0.346258 -0.000237 -0.251090 0.169027
    26 0.827268 -7.688719 -2.908663 0.327615 -0.522056 0.156097
    27 1.167906 -7.494068 0.088223 -0.291179 0.657750 0.116935
    28 1.508547 -6.764126 -3.865246 0.434772 0.539819 0.055125
    29 2.243070 5.364873 3.362189 -6.275066 -1.549142 3.139264
    30 0.000000 0.000000 0.000000 0.246118 -0.161067 0.097523
    31 1.021918 -6.472149 -0.595725 0.069266 -0.437898 0.316248
    32 0.973257 -7.396744 -2.793420 0.115514 -0.308722 0.219848
    33 1.021919 -5.839535 -3.557765 -0.326484 0.933177 0.125424
    34 -3.776780 2.834425 -11.528622 -0.545562 -1.544499 -2.544641
    35 -0.145987 0.000000 0.730172 -0.352053 -1.078089 0.287268
    36 -2.384475 -6.374823 -2.048884 -0.013241 -0.248519 -0.020652
    37 -1.021918 -3.601046 -1.439223 0.552047 0.331410 0.242648
    38 -0.243313 -4.720289 -1.673704 0.849388 1.230042 0.990982
    39 -2.264709 4.780907 8.909744 -6.279625 -1.526615 -3.135464
    40 0.000000 0.000000 -0.000001 0.146606 -0.442582 0.387428
    41 1.946511 -7.250753 -2.204917 -0.292366 0.743349 0.092162
    42 1.605872 -3.649708 -1.822482 -0.178627 -0.479630 0.929585
    43 -0.729940 -3.941685 -1.419925 -0.632167 1.022416 0.581615
    44 -4.189922 3.272375 -1.309439 -6.279152 -1.566004 -3.140906
    45 0.000000 0.000000 0.000000 -0.088769 -0.160781 0.012366
    46 -1.265231 -7.396742 -6.605809 -0.161265 -0.231458 0.057591
    47 0.000001 -5.742207 -3.281358 0.491960 0.137553 0.358013
    48 0.048663 -5.596218 0.775174 0.355915 0.000191 0.225189
    49 0.256295 2.737098 -7.294960 -6.209908 -1.407358 3.128135
    50 0.000000 0.000000 1.089263 -0.011784 -0.872045 0.227112
    51 -2.335813 -8.126684 -0.811257 0.232101 -0.112286 0.033121
    52 0.145988 -7.348078 -0.880992 -0.207252 0.422363 0.385870
    53 0.048664 -7.299416 -5.811587 0.200972 -0.284378 0.712073
    54 -0.388542 -14.135796 0.000034 -0.000002 -0.000001 -0.952640
    55 15.490297 -0.012333 0.000000 0.059534 -0.277865 0.069842
    56 15.491476 -0.012288 0.000000 -0.000119 -0.165695 -0.184262
    57 15.480130 -0.010811 0.000000 0.000482 0.552218 -0.986561
  time 4
    0 -2.183260 4.421663 31.194273 0.000000 0.000000 -1.570831
    1 0.523453 2.925871 0.000000 -1.570795 -1.570796 0.000000
    2 -0.000020 0.000021 14.561969 -0.009256 -0.421333 -2.190349
    3 17.731709 0.000001 -0.000001 0.000000 0.000000 -1.594771
    4 21.987318 0.000000 0.000001 2.683654 0.247553 0.602177
    5 4.324764 6.780501 -1.982552 0.000000 0.000000 1.832463
    6 1.707564 0.000000 -0.000001 0.000000 0.000000 -0.130833
    7 1.707564 0.000000 -0.000001 0.000000 0.000000 -0.479722
    8 4.324764 6.333147 1.238804 0.000000 -0.331445 1.832463
    9 1.821401 0.000000 0.000000 0.000000 0.000000 -0.130833
    10 1.821401 0.000000 0.000002 0.000000 0.000000 -0.479722
    11 0.000020 -0.000019 -14.561969 0.040508 0.443214 -2.190996
    12 17.731709 0.000001 0.000000 0.000000 0.000000 -1.571064
    13 21.987318 0.000000 0.000000 -2.682518 -0.285889 0.579309
    14 4.324764 6.904406 1.903420 0.000000 -0.069778 1.832463
    15 1.707564 0.000000 0.000000 0.000000 0.000000 -0.130833
    16 1.707564 0.000000 0.000000 0.000000 0.000000 -0.479722
    17 4.324764 7.017686 -1.342621 0.000000 0.366333 1.832463
    18 1.821401 0.000000 -0.000001 0.000000 0.000000 -0.130833
    19 1.821401 0.000000 0.000000 0.000000 0.000000 -0.479722
    20 1.249477 0.004294 0.000002 0.000081 0.109766 2.050519
    21 11.689317 -0.009310 0.000000 0.000341 0.410228 0.000071
    22 11.689319 -0.001413 0.000000 0.000000 0.000000 0.000000
    23 1.773171 0.000000 0.000000 0.063166 0.240763 -1.982064
    24 4.327651 4.634944 -2.428680 -6.274265 -1.546259 3.137273
    25 0.000000 0.000000 -0.346258 -0.006927 -0.222914 0.161274
    26 0.827268 -7.688719 -2.908663 0.392507 -0.269245 0.001135
    27 1.167906 -7.494068 0.088223 -0.251157 0.907726 -0.107569
    28 1.508547 -6.764126 -3.865246 0.507598 0.693547 0.202781
    29 2.243070 5.364873 3.362189 -0.000351 -1.564224 -3.129869
    30 0.000000 0.000000 0.000000 0.270628 0.185424 0.093112
    31 1.021918 -6.472149 -0.595725 0.043285 -0.465285 0.174381
    32 0.973257 -7.396744 -2.793420 0.164645 -0.405632 -0.157515
    33 1.021919 -5.839535 -3.557765 -0.228989 1.075116 0.270363
    34 -3.776780 2.834425 -11.528622 -2.065264 -1.552037 -1.016956
    35 -0.145987 0.000000 0.730172 -0.348582 -1.007926 0.235434
    36 -2.384475 -6.374823 -2.048884 -0.128624 -0.223625 -0.075121
    37 -1.021918 -3.601046 -1.439223 0.367008 0.592494 0.036872
    38 -0.243313 -4.720289 -1.673704 0.519763 1.149504 0.440013
    39 -2.264709 4.780907 8.909744 -5.567808 -1.562072 2.432346
    40 0.000000 0.000000 -0.000001 0.214946 0.064799 0.384013
    41 1.946511 -7.250753 -2.204917 -0.175397 0.239193 -0.043975
    42 1.605872 -3.649708 -1.822482 -0.179008 -0.589667 0.868652
    43 -0.729940 -3.941685 -1.419925 0.276697 1.451036 1.473158
    44 -4.189922 3.272375 -1.309439 -3.112924 -1.558145 -0.015915
    45 0.000000 0.000000 0.000000 -0.170931 -0.016961 -0.001504
    46 -1.265231 -7.396742 -6.605809 -0.002338 0.048099 0.066585
    47 0.000001 -5.742207 -3.281358 0.733816 0.136151 0.298870
    48 0.048663 -5.596218 0.775174 0.258487 -0.249141 0.066598
    49 0.256295 2.737098 -7.294960 -6.193130 -1.418607 3.119890
    50 0.000000 0.000000 1.089263 0.044976 -0.820829 0.113284
    51 -2.335813 -8.126684 -0.811257 0.107667 -0.135121 -0.137357
    52 0.145988 -7.348078 -0.880992 -0.250663 0.748338 0.278993
    53 0.048664 -7.299416 -5.811587 0.181191 -0.126476 0.640310
    54 -0.388542 -14.135796 0.000034 -0.000002 -0.000001 -0.964547
    55 15.490297 -0.012333 0.000000 0.066569 -0.314584 0.049754
    56 15.491476 -0.012288 0.000000 -0.000136 -0.188974 -0.022272
    57 15.487943 -0.014717 0.000000 0.000546 0.617749 -0.406447
  time 5
    0 -1.034788 4.421663 32.739026 0.000000 0.000000 -1.570831
    1 0.125004 0.621113 0.000000 -1.570795 -1.570796 0.000000
    2 -0.000020 0.000021 14.561969 0.009113 -0.438709 -2.284159
    3 17.731709 0.000001 -0.000001 0.000000 0.000000 -1.460736
    4 21.987318 0.000000 0.000001 2.681488 0.274522 0.552801
    5 4.324764 6.780501 -1.982552 0.000000 0.000000 1.832463
    6 1.707564 0.000000 -0.000001 0.000000 0.000000 -0.130833
    7 1.707564 0.000000 -0.000001 0.000000 0.000000 -0.479722
    8 4.324764 6.333147 1.238804 0.000000 -0.331445 1.832463
    9 1.821401 0.000000 0.000000 0.000000 0.000000 -0.130833
    10 1.821401 0.000000 0.000002 0.000000 0.000000 -0.479722
    11 0.000020 -0.000019 -14.561969 -0.032641 0.414070 -2.282047
    12 17.731709 0.000001 0.000000 0.000000 0.000000 -1.483431
    13 21.987318 0.000000 0.000000 -2.686009 -0.240082 0.575348
    14 4.324764 6.904406 1.903420 0.000000 -0.069778 1.832463
    15 1.707564 0.000000 0.000000 0.000000 0.000000 -0.130833
    16 1.707564 0.000000 0.000000 0.000000 0.000000 -0.479722
    17 4.324764 7.017686 -1.342621 0.000000 0.366333 1.832463
    18 1.821401 0.000000 -0.000001 0.000000 0.000000 -0.130833
    19 1.821401 0.000000 0.000000 0.000000 0.000000 -0.479722
    20 1.249477 0.004294 0.000002 -0.000037 -0.050336 2.050519
    21 11.689317 -0.009310 0.000000 0.000251 0.306553 0.000024
    22 11.689319 -0.001413 0.000000 0.000000 0.000000 0.000000
    23 1.773171 0.000000 0.000000 0.109806 0.125462 -2.028149
    24 4.327651 4.634944 -2.428680 -6.277908 -1.557050 3.138615
    25 0.000000 0.000000 -0.346258 -0.015279 -0.150525 0.128550
    26 0.827268 -7.688719 -2.908663 0.354155 0.143563 -0.194889
    27 1.167906 -7.494068 0.088223 -0.286707 1.179486 -0.507119
    28 1.508547 -6.764126 -3.865246 0.618634 0.854841 0.423640
    29 2.243070 5.364873 3.362189 -3.117240 -1.553714 -0.006136
    30 0.000000 0.000000 0.000000 0.260091 0.682439 0.071335
    31 1.021918 -6.472149 -0.595725 0.002909 -0.449294 -0.061644
    32 0.973257 -7.396744 -2.793420 0.269431 -0.471793 -0.720338
    33 1.021919 -5.839535 -3.557765 -0.017813 1.178771 0.518773
    34 -3.776780 2.834425 -11.528622 -2.817447 -1.509466 -0.260348
    35 -0.145987 0.000000 0.730172 -0.280355 -0.766958 0.103212
    36 -2.384475 -6.374823 -2.048884 -0.284486 -0.166179 -0.153810
    37 -1.021918 -3.601046 -1.439223 -0.144875 0.778559 -0.463547
    38 -0.243313 -4.720289 -1.673704 0.267339 0.787128 -0.138785
    39 -2.264709 4.780907 8.909744 -3.399187 -1.517281 0.257702
    40 0.000000 0.000000 -0.000001 0.280640 0.845604 0.370794
    41 1.946511 -7.250753 -2.204917 0.204361 -0.514496 -0.408019
    42 1.605872 -3.649708 -1.822482 -0.078724 -0.669589 0.602342
    43 -0.729940 -3.941685 -1.419925 -1.033616 2.063527 0.005497
    44 -4.189922 3.272375 -1.309439 -3.111773 -1.533641 -0.006615
    45 0.000000 0.000000 0.000000 -0.276897 0.198253 -0.042945
    46 -1.265231 -7.396742 -6.605809 0.262259 0.446905 0.160013
    47 0.000001 -5.742207 -3.281358 0.983232 0.152608 0.166204
    48 0.048663 -5.596218 0.775174 0.134563 -0.616256 -0.149798
    49 0.256295 2.737098 -7.294960 -6.164750 -1.456320 3.094771
    50 0.000000 0.000000 1.089263 0.093355 -0.624305 -0.042129
    51 -2.335813 -8.126684 -0.811257 -0.085978 -0.190949 -0.365270
    52 0.145988 -7.348078 -0.880992 -0.451457 1.106252 -0.053505
    53 0.048664 -7.299416 -5.811587 0.093590 0.124368 0.438434
    54 -0.388542 -14.135796 0.000034 -0.000002 -0.000001 -1.027880
    55 15.490297 -0.012333 0.000000 0.068419 -0.331986 0.022529
    56 15.491476 -0.012288 0.000000 -0.000153 -0.201242 0.173284
    57 15.487943 -0.014717 0.000000 0.000643 0.693263 -0.187919
  time 6
    0 -0.312110 4.421663 32.690244 0.000000 0.000000 -1.570831
    1 0.152348 -1.734428 0.000000 -1.570795 -1.570796 0.000000
    2 -0.000020 0.000021 14.561969 -0.025684 -0.472711 -2.286662
    3 17.731709 0.000001 -0.000001 0.000000 0.000000 -1.425735
    4 21.987318 0.000000 0.000001 2.676592 0.323707 0.518993
    5 4.324764 6.780501 -1.982552 0.000000 0.000000 1.832463
    6 1.707564 0.000000 -0.000001 0.000000 0.000000 -0.130833
    7 1.707564 0.000000 -0.000001 0.000000 0.000000 -0.479722
    8 4.324764 6.333147 1.238804 0.000000 -0.331445 1.832463
    9 1.821401 0.000000 0.000000 0.000000 0.000000 -0.130833
    10 1.821401 0.000000 0.000002 0.000000 0.000000 -0.479722
    11 0.000020 -0.000019 -14.561969 -0.070321 0.380513 -2.278496
    12 17.731709 0.000001 0.000000 0.000000 0.000000 -1.514569
    13 21.987318 0.000000 0.000000 -2.688557 -0.188561 0.605496
    14 4.324764 6.904406 1.903420 0.000000 -0.069778 1.832463
    15 1.707564 0.000000 0.000000 0.000000 0.000000 -0.130833
    16 1.707564 0.000000 0.000000 0.000000 0.000000 -0.479722
    17 4.324764 7.017686 -1.342621 0.000000 0.366333 1.832463
    18 1.821401 0.000000 -0.000001 0.000000 0.000000 -0.130833
    19 1.821401 0.000000 0.000000 0.000000 0.000000 -0.479722
    20 1.249477 0.004294 0.000002 -0.000155 -0.206121 2.050519
    21 11.689317 -0.009310 0.000000 0.000143 0.190898 0.000000
    22 11.689319 -0.001413 0.000000 0.000000 0.000000 0.000000
    23 1.773171 0.000000 0.000000 0.161127 -0.001129 -2.045375
    24 4.327651 4.634944 -2.428680 -0.002014 -1.564292 -3.138903
    25 0.000000 0.000000 -0.346258 -0.025016 -0.101730 0.118048
    26 0.827268 -7.688719 -2.908663 0.281038 0.367764 -0.309614
    27 1.167906 -7.494068 0.088223 -0.988457 1.416049 -1.353263
    28 1.508547 -6.764126 -3.865246 0.802327 0.993914 0.734523
    29 2.243070 5.364873 3.362189 -3.117719 -1.536728 -0.000959
    30 0.000000 0.000000 0.000000 0.227411 1.021059 0.033462
    31 1.021918 -6.472149 -0.595725 -0.038971 -0.451783 -0.212564
    32 0.973257 -7.396744 -2.793420 0.439989 -0.550044 -1.115630
    33 1.021919 -5.839535 -3.557765 0.316524 1.225956 0.882378
    34 -3.776780 2.834425 -11.528622 -2.908690 -1.452590 -0.162322
    35 -0.145987 0.000000 0.730172 -0.273980 -0.585045 0.037937
    36 -2.384475 -6.374823 -2.048884 -0.372934 -0.137872 -0.204411
    37 -1.021918 -3.601046 -1.439223 -0.504390 0.754510 -0.798208
    38 -0.243313 -4.720289 -1.673704 0.260776 0.520220 -0.346243
    39 -2.264709 4.780907 8.909744 -3.337065 -1.470094 0.192317
    40 0.000000 0.000000 -0.000001 0.957240 1.529032 1.009494
    41 1.946511 -7.250753 -2.204917 1.140444 -0.881849 -1.330147
    42 1.605872 -3.649708 -1.822482 0.056675 -0.632878 0.326577
    43 -0.729940 -3.941685 -1.419925 -0.841910 2.575262 0.023344
    44 -4.189922 3.272375 -1.309439 -3.109185 -1.516996 -0.002397
    45 0.000000 0.000000 0.000000 -0.358745 0.338819 -0.086976
    46 -1.265231 -7.396742 -6.605809 0.489251 0.670989 0.300923
    47 0.000001 -5.742207 -3.281358 1.085412 0.134467 0.079744
    48 0.048663 -5.596218 0.775174 0.073506 -0.906315 -0.273462
    49 0.256295 2.737098 -7.294960 -6.133591 -1.482396 3.065146
    50 0.000000 0.000000 1.089263 0.098724 -0.486867 -0.125498
    51 -2.335813 -8.126684 -0.811257 -0.197398 -0.257092 -0.498640
    52 0.145988 -7.348078 -0.880992 -0.787209 1.270531 -0.444135
    53 0.048664 -7.299416 -5.811587 -0.032632 0.272881 0.300274
    54 -0.388542 -14.135796 0.000034 -0.000002 -0.000001 -1.097560
    55 15.490297 -0.012333 0.000000 0.068487 -0.334371 -0.000592
    56 15.491476 -0.012288 0.000000 -0.000153 -0.204100 0.317908
    57 15.487943 -0.014717 0.000000 0.000579 0.644800 0.045070
  time 7
    0 0.273846 4.421663 32.381294 0.000000 0.000000 -1.570831
    1 0.496109 -3.632923 0.000000 -1.570795 -1.570796 0.000000
    2 -0.000020 0.000021 14.561969 -0.062572 -0.498463 -2.265712
    3 17.731709 0.000001 -0.000001 0.000000 0.000000 -1.412588
    4 21.987318 0.000000 0.000001 2.671697 0.361415 0.486904
    5 4.324764 6.780501 -1.982552 0.000000 0.000000 1.832463
    6 1.707564 0.000000 -0.000001 0.000000 0.000000 -0.130833
    7 1.707564 0.000000 -0.000001 0.000000 0.000000 -0.479722
    8 4.324764 6.333147 1.238804 0.000000 -0.331445 1.832463
    9 1.821401 0.000000 0.000000 0.000000 0.000000 -0.130833
    10 1.821401 0.000000 0.000002 0.000000 0.000000 -0.479722
    11 0.000020 -0.000019 -14.561969 -0.095640 0.353979 -2.253746
    12 17.731709 0.000001 0.000000 0.000000 0.000000 -1.554072
    13 21.987318 0.000000 0.000000 -2.690350 -0.144159 0.624422
    14 4.324764 6.904406 1.903420 0.000000 -0.069778 1.832463
    15 1.707564 0.000000 0.000000 0.000000 0.000000 -0.130833
    16 1.707564 0.000000 0.000000 0.000000 0.000000 -0.479722
    17 4.324764 7.017686 -1.342621 0.000000 0.366333 1.832463
    18 1.821401 0.000000 -0.000001 0.000000 0.000000 -0.130833
    19 1.821401 0.000000 0.000000 0.000000 0.000000 -0.479722
    20 1.249477 0.004294 0.000002 -0.000273 -0.327699 2.050549
    21 11.689317 -0.009310 0.000000 0.000054 0.080892 0.000000
    22 11.689319 -0.001413 0.000000 0.000000 0.000000 0.000000
    23 1.773171 0.000000 0.000000 0.203265 -0.110135 -2.036075
    24 4.327651 4.634944 -2.428680 -0.004124 -1.564972 -3.136793
    25 0.000000 0.000000 -0.346258 -0.033843 -0.096827 0.143019
    26 0.827268 -7.688719 -2.908663 0.278791 0.307733 -0.251529
    27 1.167906 -7.494068 0.088223 0.441724 1.830305 0.239333
    28 1.508547 -6.764126 -3.865246 1.065805 1.079446 1.128095
    29 2.243070 5.364873 3.362189 -3.117527 -1.530822 0.000096
    30 0.000000 0.000000 0.000000 0.215240 1.107422 0.015913
    31 1.021918 -6.472149 -0.595725 -0.067560 -0.490469 -0.225633
    32 0.973257 -7.396744 -2.793420 0.697350 -0.701026 -1.267542
    33 1.021919 -5.839535 -3.557765 0.671643 1.205761 1.259989
    34 -3.776780 2.834425 -11.528622 -2.909265 -1.386034 -0.149865
    35 -0.145987 0.000000 0.730172 -0.309956 -0.540326 0.031851
    36 -2.384475 -6.374823 -2.048884 -0.361206 -0.143283 -0.201597
    37 -1.021918 -3.601046 -1.439223 -0.481544 0.724905 -0.742130
    38 -0.243313 -4.720289 -1.673704 0.229156 0.499300 -0.320859
    39 -2.264709 4.780907 8.909744 -3.299964 -1.491158 0.167774
    40 0.000000 0.000000 -0.000001 0.099250 1.664805 0.227092
    41 1.946511 -7.250753 -2.204917 -1.467956 -2.402729 1.297629
    42 1.605872 -3.649708 -1.822482 0.147758 -0.114243 0.243334
    43 -0.729940 -3.941685 -1.419925 -0.796067 3.044625 -0.054815
    44 -4.189922 3.272375 -1.309439 -3.109472 -1.512163 -0.001055
    45 0.000000 0.000000 0.000000 -0.388684 0.374762 -0.104021
    46 -1.265231 -7.396742 -6.605809 0.515100 0.679493 0.319538
    47 0.000001 -5.742207 -3.281358 0.981705 0.037123 0.083125
    48 0.048663 -5.596218 0.775174 -0.013839 -1.047616 -0.192475
    49 0.256295 2.737098 -7.294960 -6.128413 -1.485801 3.060736
    50 0.000000 0.000000 1.089263 0.092242 -0.473901 -0.133162
    51 -2.335813 -8.126684 -0.811257 -0.197008 -0.274573 -0.501298
    52 0.145988 -7.348078 -0.880992 -0.653925 1.259439 -0.243993
    53 0.048664 -7.299416 -5.811587 -0.151452 0.258700 0.352012
    54 -0.388542 -14.135796 0.000034 -0.000002 -0.000001 -1.153758
    55 15.490297 -0.012333 0.000000 0.069040 -0.342391 -0.021608
    56 15.491476 -0.012288 0.000000 -0.000170 -0.210272 0.354789
    57 15.499662 -0.014717 0.000000 0.000129 0.190614 0.672033
  time 8
    0 0.793393 4.421663 31.844695 0.000000 0.000000 -1.570831
    1 0.722678 -4.394665 0.000000 -1.570795 -1.570796 0.000000
    2 -0.000020 0.000021 14.561969 -0.087064 -0.503650 -2.231322
    3 17.731709 0.000001 -0.000001 0.000000 0.000000 -1.442945
    4 21.987318 0.000000 0.000001 2.670379 0.372153 0.487095
    5 4.324764 6.780501 -1.982552 0.000000 0.000000 1.832463
    6 1.707564 0.000000 -0.000001 0.000000 0.000000 -0.130833
    7 1.707564 0.000000 -0.000001 0.000000 0.000000 -0.479722
    8 4.324764 6.333147 1.238804 0.000000 -0.331445 1.832463
    9 1.821401 0.000000 0.000000 0.000000 0.000000 -0.130833
    10 1.821401 0.000000 0.000002 0.000000 0.000000 -0.479722
    11 0.000020 -0.000019 -14.561969 -0.091221 0.352091 -2.221629
    12 17.731709 0.000001 0.000000 0.000000 0.000000 -1.593881
    13 21.987318 0.000000 0.000000 -2.690255 -0.136009 0.634398
    14 4.324764 6.904406 1.903420 0.000000 -0.069778 1.832463
    15 1.707564 0.000000 0.000000 0.000000 0.000000 -0.130833
    16 1.707564 0.000000 0.000000 0.000000 0.000000 -0.479722
    17 4.324764 7.017686 -1.342621 0.000000 0.366333 1.832463
    18 1.821401 0.000000 -0.000001 0.000000 0.000000 -0.130833
    19 1.821401 0.000000 0.000000 0.000000 0.000000 -0.479722
    20 1.249477 0.004294 0.000002 -0.000307 -0.366323 2.050549
    21 11.689317 -0.009310 0.000000 0.000000 0.000000 0.000000
    22 11.689319 -0.001413 0.000000 0.000000 0.000000 0.000000
    23 1.773171 0.000000 0.000000 0.221308 -0.165812 -2.023003
    24 4.327651 4.634944 -2.428680 -0.001247 -1.563228 -3.139286
    25 0.000000 0.000000 -0.346258 -0.042987 -0.106835 0.182323
    26 0.827268 -7.688719 -2.908663 0.285390 0.123468 -0.117459
    27 1.167906 -7.494068 0.088223 -0.053436 2.120878 0.061306
    28 1.508547 -6.764126 -3.865246 1.331807 1.099943 1.513075
    29 2.243070 5.364873 3.362189 -3.117719 -1.529235 0.000288
    30 0.000000 0.000000 0.000000 0.215522 1.087447 0.012230
    31 1.021918 -6.472149 -0.595725 -0.095849 -0.538827 -0.180049
    32 0.973257 -7.396744 -2.793420 1.060654 -0.892751 -1.395291
    33 1.021919 -5.839535 -3.557765 0.928502 1.134074 1.534207
    34 -3.776780 2.834425 -11.528622 -2.898339 -1.310914 -0.146607
    35 -0.145987 0.000000 0.730172 -0.357860 -0.536719 0.044733
    36 -2.384475 -6.374823 -2.048884 -0.304082 -0.159435 -0.174814
    37 -1.021918 -3.601046 -1.439223 -0.312104 0.679874 -0.528258
    38 -0.243313 -4.720289 -1.673704 0.169675 0.569189 -0.202784
    39 -2.264709 4.780907 8.909744 -3.243690 -1.541033 0.124632
    40 0.000000 0.000000 -0.000001 -0.770272 1.499676 -0.533994
    41 1.946511 -7.250753 -2.204917 -1.261534 -2.475490 1.109429
    42 1.605872 -3.649708 -1.822482 0.184016 -0.208984 0.248862
    43 -0.729940 -3.941685 -1.419925 -1.087521 3.110868 -0.296544
    44 -4.189922 3.272375 -1.309439 -3.111486 -1.512205 -0.000767
    45 0.000000 0.000000 0.000000 -0.392669 0.371015 -0.106193
    46 -1.265231 -7.396742 -6.605809 0.440800 0.602429 0.268014
    47 0.000001 -5.742207 -3.281358 0.762453 -0.094352 0.145829
    48 0.048663 -5.596218 0.775174 -0.185955 -1.116642 0.040032
    49 0.256295 2.737098 -7.294960 -6.137522 -1.482138 3.069269
    50 0.000000 0.000000 1.089263 0.080524 -0.501129 -0.110169
    51 -2.335813 -8.126684 -0.811257 -0.153288 -0.266069 -0.446688
    52 0.145988 -7.348078 -0.880992 -0.386877 1.134269 0.142480
    53 0.048664 -7.299416 -5.811587 -0.282854 0.188084 0.496975
    54 -0.388542 -14.131889 0.000034 -0.000002 -0.000001 -1.257953
    55 15.490297 -0.012333 0.000000 0.063113 -0.269321 -0.026674
    56 15.491476 -0.012288 0.000000 -0.000119 -0.165695 0.339042
    57 15.499662 -0.010811 0.000000 -0.000161 -0.200594 0.993222
  time 9
    0 1.305127 4.421663 30.917843 0.000000 0.000000 -1.570831
    1 0.285165 -2.800867 0.000000 -1.570795 -1.570796 0.000000
    2 -0.000020 0.000021 14.561969 -0.071458 -0.468774 -2.188032
    3 17.731709 0.000001 -0.000001 0.000000 0.000000 -1.565368
    4 21.987318 0.000000 0.000001 2.676969 0.324772 0.570661
    5 4.324764 6.780501 -1.982552 0.000000 0.000000 1.832463
    6 1.707564 0.000000 -0.000001 0.000000 0.000000 -0.130833
    7 1.707564 0.000000 -0.000001 0.000000 0.000000 -0.479722
    8 4.324764 6.333147 1.238804 0.000000 -0.331445 1.832463
    9 1.821401 0.000000 0.000000 0.000000 0.000000 -0.130833
    10 1.821401 0.000000 0.000002 0.000000 0.000000 -0.479722
    11 0.000020 -0.000019 -14.561969 -0.014250 0.404383 -2.187127
    12 17.731709 0.000001 0.000000 0.000000 0.000000 -1.631632
    13 21.987318 0.000000 0.000000 -2.684310 -0.217506 0.636305
    14 4.324764 6.904406 1.903420 0.000000 -0.069778 1.832463
    15 1.707564 0.000000 0.000000 0.000000 0.000000 -0.130833
    16 1.707564 0.000000 0.000000 0.000000 0.000000 -0.479722
    17 4.324764 7.017686 -1.342621 0.000000 0.366333 1.832463
    18 1.821401 0.000000 -0.000001 0.000000 0.000000 -0.130833
    19 1.821401 0.000000 0.000000 0.000000 0.000000 -0.479722
    20 1.249477 0.004294 0.000002 -0.000188 -0.230280 2.050519
    21 11.689317 -0.009310 0.000000 0.000000 0.000000 0.000000
    22 11.689319 -0.001413 0.000000 0.000000 0.000000 0.000000
    23 1.773171 0.000000 0.000000 0.225882 -0.106443 -2.040485
    24 4.327651 4.634944 -2.428680 -6.281264 -1.560361 3.141491
    25 0.000000 0.000000 -0.346258 -0.052012 -0.125284 0.231589
    26 0.827268 -7.688719 -2.908663 0.272383 -0.109929 0.043589
    27 1.167906 -7.494068 0.088223 -0.371966 2.385976 0.141201
    28 1.508547 -6.764126 -3.865246 1.493620 1.081649 1.767313
    29 2.243070 5.364873 3.362189 -3.117815 -1.530346 -0.000192
    30 0.000000 0.000000 0.000000 0.217719 1.014005 0.013685
    31 1.021918 -6.472149 -0.595725 -0.134369 -0.579236 -0.099984
    32 0.973257 -7.396744 -2.793420 1.555383 -1.062391 -1.611357
    33 1.021919 -5.839535 -3.557765 1.082885 1.035683 1.702200
    34 -3.776780 2.834425 -11.528622 -2.886838 -1.238705 -0.144212
    35 -0.145987 0.000000 0.730172 -0.406269 -0.554188 0.064818
    36 -2.384475 -6.374823 -2.048884 -0.220552 -0.188658 -0.140344
    37 -1.021918 -3.601046 -1.439223 -0.098200 0.586267 -0.268010
    38 -0.243313 -4.720289 -1.673704 0.128867 0.683864 -0.035379
    39 -2.264709 4.780907 8.909744 -0.247924 -1.545407 -2.858109
    40 0.000000 0.000000 -0.000001 -0.422615 1.305549 -0.070612
    41 1.946511 -7.250753 -2.204917 -1.109419 -2.528344 0.978740
    42 1.605872 -3.649708 -1.822482 0.215484 -0.418732 0.258584
    43 -0.729940 -3.941685 -1.419925 -1.429463 -3.104637 -0.547196
    44 -4.189922 3.272375 -1.309439 -3.113307 -1.515861 -0.001055
    45 0.000000 0.000000 0.000000 -0.380399 0.330783 -0.097420
    46 -1.265231 -7.396742 -6.605809 0.332727 0.466570 0.209098
    47 0.000001 -5.742207 -3.281358 0.503491 -0.222928 0.257038
    48 0.048663 -5.596218 0.775174 -0.321978 -1.133085 0.260241
    49 0.256295 2.737098 -7.294960 -6.151136 -1.473345 3.082020
    50 0.000000 0.000000 1.089263 0.067300 -0.551974 -0.069622
    51 -2.335813 -8.126684 -0.811257 -0.080665 -0.270084 -0.365049
    52 0.145988 -7.348078 -0.880992 -0.246956 0.933845 0.418992
    53 0.048664 -7.299416 -5.811587 -0.381490 0.143914 0.637148
    54 -0.388542 -14.131889 0.000034 0.000052 0.087035 -1.413343
    55 15.490297 -0.012333 0.000000 0.052877 -0.109553 -0.015613
    56 15.491476 -0.012288 0.000000 -0.000051 -0.066903 0.333354
    57 15.499662 -0.010811 0.000000 -0.000225 -0.305558 0.796820
  time 10
    0 0.851988 4.421663 27.421823 0.000000 0.000000 -1.570831
    1 0.015625 0.671896 0.000000 -1.570795 -1.570796 0.000000
    2 -0.000020 0.000021 14.561969 -0.088035 -0.422271 -2.031188
    3 17.731709 0.000001 -0.000001 0.000000 0.000000 -1.854049
    4 21.987318 0.000000 0.000001 2.683089 0.263210 0.716303
    5 4.324764 6.780501 -1.982552 0.000000 0.000000 1.832463
    6 1.707564 0.000000 -0.000001 0.000000 0.000000 -0.130833
    7 1.707564 0.000000 -0.000001 0.000000 0.000000 -0.479722
    8 4.324764 6.333147 1.238804 0.000000 -0.331445 1.832463
    9 1.821401 0.000000 0.000000 0.000000 0.000000 -0.130833
    10 1.821401 0.000000 0.000002 0.000000 0.000000 -0.479722
    11 0.000020 -0.000019 -14.561969 0.175462 0.475855 -2.024209
    12 17.731709 0.000001 0.000000 0.000000 0.000000 -1.797177
    13 21.987318 0.000000 0.000000 -2.668646 -0.362328 0.655818
    14 4.324764 6.904406 1.903420 0.000000 -0.069778 1.832463
    15 1.707564 0.000000 0.000000 0.000000 0.000000 -0.130833
    16 1.707564 0.000000 0.000000 0.000000 0.000000 -0.479722
    17 4.324764 7.017686 -1.342621 0.000000 0.366333 1.832463
    18 1.821401 0.000000 -0.000001 0.000000 0.000000 -0.130833
    19 1.821401 0.000000 0.000000 0.000000 0.000000 -0.479722
    20 1.249477 0.004294 0.000002 0.000031 0.054909 2.050519
    21 11.689317 -0.009310 0.000000 0.000000 0.000000 0.000000
    22 11.689319 -0.001413 0.000000 0.000000 0.000000 0.000000
    23 1.773171 0.000000 0.000000 0.158966 0.024330 -2.050776
    24 4.327651 4.634944 -2.428680 -6.279634 -1.557759 3.140341
    25 0.000000 0.000000 -0.346258 -0.060047 -0.145823 0.286264
    26 0.827268 -7.688719 -2.908663 0.242878 -0.315652 0.195095
    27 1.167906 -7.494068 0.088223 -0.623422 2.588783 0.267928
    28 1.508547 -6.764126 -3.865246 1.514828 1.060673 1.836040
    29 2.243070 5.364873 3.362189 -3.116952 -1.532632 -0.001246
    30 0.000000 0.000000 0.000000 0.210564 0.939820 0.011321
    31 1.021918 -6.472149 -0.595725 -0.187634 -0.594749 -0.013462
    32 0.973257 -7.396744 -2.793420 -1.014205 -2.011974 1.208150
    33 1.021919 -5.839535 -3.557765 1.173867 0.927052 1.804334
    34 -3.776780 2.834425 -11.528622 -2.878404 -1.180715 -0.141624
    35 -0.145987 0.000000 0.730172 -0.442812 -0.574032 0.077954
    36 -2.384475 -6.374823 -2.048884 -0.128927 -0.230952 -0.114717
    37 -1.021918 -3.601046 -1.439223 0.074556 0.454048 -0.055543
    38 -0.243313 -4.720289 -1.673704 0.143245 0.783515 0.144394
    39 -2.264709 4.780907 8.909744 -0.178803 -1.495655 -2.916015
    40 0.000000 0.000000 -0.000001 -0.361080 1.081528 0.117649
    41 1.946511 -7.250753 -2.204917 -0.985544 -2.501570 0.926172
    42 1.605872 -3.649708 -1.822482 0.276569 -0.614140 0.238540
    43 -0.729940 -3.941685 -1.419925 1.515342 -0.030198 2.485565
    44 -4.189922 3.272375 -1.309439 -3.113116 -1.522082 -0.001822
    45 0.000000 0.000000 0.000000 -0.363097 0.256876 -0.083300
    46 -1.265231 -7.396742 -6.605809 0.236799 0.306861 0.186647
    47 0.000001 -5.742207 -3.281358 0.290960 -0.334485 0.376180
    48 0.048663 -5.596218 0.775174 -0.298473 -1.151441 0.301380
    49 0.256295 2.737098 -7.294960 -6.160915 -1.461449 3.091703
    50 0.000000 0.000000 1.089263 0.057414 -0.610320 -0.025713
    51 -2.335813 -8.126684 -0.811257 0.002583 -0.321897 -0.290167
    52 0.145988 -7.348078 -0.880992 -0.187399 0.736481 0.595399
    53 0.048664 -7.299416 -5.811587 -0.382768 0.176970 0.661005
    54 -0.388542 -14.131889 0.000034 0.000141 0.183956 -1.571420
    55 15.490297 -0.012333 0.000000 0.043857 0.062508 -0.007121
    56 15.491476 -0.012288 0.000000 0.000017 0.039395 0.326347
    57 15.495755 -0.014717 0.000000 -0.000257 -0.345677 0.493773
  time 11
    0 0.512134 4.421663 25.096563 0.000000 0.000000 -1.570831
    1 0.683615 4.285287 0.000000 -1.570795 -1.570796 0.000000
    2 -0.000020 0.000021 14.561969 -0.021428 -0.363705 -1.914761
    3 17.731709 0.000001 -0.000001 0.000000 0.000000 -2.039176
    4 21.987318 0.000000 0.000001 2.690997 0.140577 0.792228
    5 4.324764 6.780501 -1.982552 0.000000 0.000000 1.832463
    6 1.707564 0.000000 -0.000001 0.000000 0.000000 -0.130833
    7 1.707564 0.000000 -0.000001 0.000000 0.000000 -0.479722
    8 4.324764 6.333147 1.238804 0.000000 -0.331445 1.832463
    9 1.821401 0.000000 0.000000 0.000000 0.000000 -0.130833
    10 1.821401 0.000000 0.000002 0.000000 0.000000 -0.479722
    11 0.000020 -0.000019 -14.561969 0.363859 0.519848 -1.886042
    12 17.731709 0.000001 0.000000 0.000000 0.000000 -1.839220
    13 21.987318 0.000000 0.000000 -2.640808 -0.503216 0.580629
    14 4.324764 6.904406 1.903420 0.000000 -0.069778 1.832463
    15 1.707564 0.000000 0.000000 0.000000 0.000000 -0.130833
    16 1.707564 0.000000 0.000000 0.000000 0.000000 -0.479722
    17 4.324764 7.017686 -1.342621 0.000000 0.366333 1.832463
    18 1.821401 0.000000 -0.000001 0.000000 0.000000 -0.130833
    19 1.821401 0.000000 0.000000 0.000000 0.000000 -0.479722
    20 1.249477 0.004294 0.000002 0.000284 0.356734 2.050549
    21 11.689317 -0.009310 0.000000 0.000000 0.000000 0.000000
    22 11.689319 -0.001413 0.000000 0.000000 0.000000 0.000000
    23 1.773171 0.000000 0.000000 0.068965 0.161292 -2.024825
    24 4.327651 4.634944 -2.428680 -6.278100 -1.554034 3.138998
    25 0.000000 0.000000 -0.346258 -0.059810 -0.202777 0.396740
    26 0.827268 -7.688719 -2.908663 0.323646 -0.498128 0.292178
    27 1.167906 -7.494068 0.088223 -0.757497 2.488685 0.248273
    28 1.508547 -6.764126 -3.865246 1.237997 1.028874 1.507080
    29 2.243070 5.364873 3.362189 -3.104680 -1.548507 -0.012272
    30 0.000000 0.000000 0.000000 0.159853 0.736277 0.008820
    31 1.021918 -6.472149 -0.595725 -0.298179 -0.446134 0.144071
    32 0.973257 -7.396744 -2.793420 1.997383 -1.175484 -1.547413
    33 1.021919 -5.839535 -3.557765 0.927735 0.638580 1.450958
    34 -3.776780 2.834425 -11.528622 -2.875241 -1.216777 -0.153315
    35 -0.145987 0.000000 0.730172 -0.401346 -0.663469 0.057616
    36 -2.384475 -6.374823 -2.048884 0.083454 -0.365743 -0.128586
    37 -1.021918 -3.601046 -1.439223 0.331634 0.188268 0.185901
    38 -0.243313 -4.720289 -1.673704 0.431227 0.819553 0.481289
    39 -2.264709 4.780907 8.909744 -0.130869 -1.475250 -2.963280
    40 0.000000 0.000000 -0.000001 -0.224966 0.721735 0.433474
    41 1.946511 -7.250753 -2.204917 -1.097221 -1.998956 1.332000
    42 1.605872 -3.649708 -1.822482 0.504575 -0.677141 0.075518
    43 -0.729940 -3.941685 -1.419925 -0.859400 2.664801 0.110586
    44 -4.189922 3.272375 -1.309439 -3.082243 -1.552260 -0.024257
    45 0.000000 0.000000 0.000000 -0.291369 -0.112019 -0.027739
    46 -1.265231 -7.396742 -6.605809 0.029032 -0.096662 0.299598
    47 0.000001 -5.742207 -3.281358 0.421320 -0.555450 0.382761
    48 0.048663 -5.596218 0.775174 0.632691 -0.891019 -0.627972
    49 0.256295 2.737098 -7.294960 -6.166093 -1.418693 3.100523
    50 0.000000 0.000000 1.089263 0.070311 -0.774338 0.073133
    51 -2.335813 -8.126684 -0.811257 0.223377 -0.671904 -0.234726
    52 0.145988 -7.348078 -0.880992 -0.028283 0.485760 0.730504
    53 0.048664 -7.299416 -5.811587 0.181931 0.830331 0.059020
    54 -0.388542 -14.131889 0.000034 0.000213 0.277259 -1.723010
    55 15.490297 -0.012333 0.000000 0.035661 0.229720 -0.001769
    56 15.491476 -0.012288 0.000000 0.000102 0.142683 0.307511
    57 15.491849 -0.014717 0.000000 -0.000289 -0.361489 0.159855
  time 12
    0 0.328535 4.421663 27.763295 0.000000 0.000000 -1.570831
    1 1.433637 6.086123 0.000000 -1.570795 -1.570796 0.000000
    2 -0.000020 0.000021 14.561969 0.098271 -0.325578 -2.021270
    3 17.731709 0.000001 -0.000001 0.000000 0.000000 -1.884904
    4 21.987318 0.000000 0.000001 2.692127 0.050241 0.739797
    5 4.324764 6.780501 -1.982552 0.000000 0.000000 1.832463
    6 1.707564 0.000000 -0.000001 0.000000 0.000000 -0.130833
    7 1.707564 0.000000 -0.000001 0.000000 0.000000 -0.479722
    8 4.324764 6.333147 1.238804 0.000000 -0.331445 1.832463
    9 1.821401 0.000000 0.000000 0.000000 0.000000 -0.130833
    10 1.821401 0.000000 0.000002 0.000000 0.000000 -0.479722
    11 0.000020 -0.000019 -14.561969 0.299905 0.544939 -2.006455
    12 17.731709 0.000001 0.000000 0.000000 0.000000 -1.628742
    13 21.987318 0.000000 0.000000 -2.650339 -0.497033 0.481087
    14 4.324764 6.904406 1.903420 0.000000 -0.069778 1.832463
    15 1.707564 0.000000 0.000000 0.000000 0.000000 -0.130833
    16 1.707564 0.000000 0.000000 0.000000 0.000000 -0.479722
    17 4.324764 7.017686 -1.342621 0.000000 0.366333 1.832463
    18 1.821401 0.000000 -0.000001 0.000000 0.000000 -0.130833
    19 1.821401 0.000000 0.000000 0.000000 0.000000 -0.479722
    20 1.249477 0.004294 0.000002 0.000435 0.518906 2.050609
    21 11.689317 -0.009310 0.000000 0.000000 0.000000 0.000000
    22 11.689319 -0.001413 0.000000 0.000000 0.000000 0.000000
    23 1.773171 0.000000 0.000000 0.013430 0.230584 -1.995199
    24 4.327651 4.634944 -2.428680 -3.114841 -1.554419 -0.021572
    25 0.000000 0.000000 -0.346258 0.009223 0.182399 0.214551
    26 0.827268 -7.688719 -2.908663 0.473035 -0.210236 0.166620
    27 1.167906 -7.494068 0.088223 -0.709128 1.531810 0.224716
    28 1.508547 -6.764126 -3.865246 0.804572 0.858481 0.926029
    29 2.243070 5.364873 3.362189 -3.084931 -1.509486 -0.019175
    30 0.000000 0.000000 0.000000 0.194449 0.926305 -0.120437
    31 1.021918 -6.472149 -0.595725 -0.278919 -0.391552 0.101952
    32 0.973257 -7.396744 -2.793420 1.397199 -1.176627 -1.189590
    33 1.021919 -5.839535 -3.557765 0.664652 0.718882 1.175953
    34 -3.776780 2.834425 -11.528622 -2.884633 -1.281362 -0.164622
    35 -0.145987 0.000000 0.730172 -0.306484 -0.558935 0.014201
    36 -2.384475 -6.374823 -2.048884 0.110995 -0.307630 -0.131098
    37 -1.021918 -3.601046 -1.439223 0.211693 0.402789 0.008499
    38 -0.243313 -4.720289 -1.673704 0.480089 0.949726 0.297633
    39 -2.264709 4.780907 8.909744 -6.005635 -1.542083 2.918029
    40 0.000000 0.000000 -0.000001 -0.115980 0.997308 0.208971
    41 1.946511 -7.250753 -2.204917 0.878044 -1.132539 -0.763301
    42 1.605872 -3.649708 -1.822482 0.409028 -0.742150 0.121068
    43 -0.729940 -3.941685 -1.419925 -0.523948 2.343936 0.264037
    44 -4.189922 3.272375 -1.309439 -3.089722 -1.534187 -0.015148
    45 0.000000 0.000000 0.000000 -0.322723 0.042599 -0.170527
    46 -1.265231 -7.396742 -6.605809 0.088134 -0.056469 0.201638
    47 0.000001 -5.742207 -3.281358 0.580393 -0.531044 0.161606
    48 0.048663 -5.596218 0.775174 0.576223 -1.028974 -0.583328
    49 0.256295 2.737098 -7.294960 -6.158998 -1.453734 3.084033
    50 0.000000 0.000000 1.089263 0.129624 -0.620507 0.017900
    51 -2.335813 -8.126684 -0.811257 0.229225 -0.508593 -0.341122
    52 0.145988 -7.348078 -0.880992 -0.181958 0.703683 0.411482
    53 0.048664 -7.299416 -5.811587 0.191822 0.554480 -0.064673
    54 -0.388542 -14.131889 0.000034 0.000284 0.348858 -1.850927
    55 15.490297 -0.012333 0.000000 0.027154 0.368862 -0.000092
    56 15.491476 -0.012288 0.000000 0.000170 0.228522 0.251831
    57 15.487943 -0.014717 0.000000 -0.000289 -0.363660 -0.166790
  time 13
    0 0.223063 4.421663 31.617047 0.000000 0.000000 -1.570831
    1 1.207068 5.621265 0.000000 -1.570795 -1.570796 0.000000
    2 -0.000020 0.000021 14.561969 0.146359 -0.318015 -2.203142
    3 17.731709 0.000001 -0.000001 0.000000 0.000000 -1.625460
    4 21.987318 0.000000 0.000001 2.685160 0.065243 0.652125
    5 4.324764 6.780501 -1.982552 0.000000 0.000000 1.832463
    6 1.707564 0.000000 -0.000001 0.000000 0.000000 -0.130833
    7 1.707564 0.000000 -0.000001 0.000000 0.000000 -0.479722
    8 4.324764 6.333147 1.238804 0.000000 -0.331445 1.832463
    9 1.821401 0.000000 0.000000 0.000000 0.000000 -0.130833
    10 1.821401 0.000000 0.000002 0.000000 0.000000 -0.479722
    11 0.000020 -0.000019 -14.561969 0.136886 0.533670 -2.218979
    12 17.731709 0.000001 0.000000 0.000000 0.000000 -1.396498
    13 21.987318 0.000000 0.000000 -2.669967 -0.425746 0.433114
    14 4.324764 6.904406 1.903420 0.000000 -0.069778 1.832463
    15 1.707564 0.000000 0.000000 0.000000 0.000000 -0.130833
    16 1.707564 0.000000 0.000000 0.000000 0.000000 -0.479722
    17 4.324764 7.017686 -1.342621 0.000000 0.366333 1.832463
    18 1.821401 0.000000 -0.000001 0.000000 0.000000 -0.130833
    19 1.821401 0.000000 0.000000 0.000000 0.000000 -0.479722
    20 1.249477 0.004294 0.000002 0.000402 0.475763 2.050609
    21 11.689317 -0.009310 0.000000 0.000000 0.000000 0.000000
    22 11.689319 -0.001413 0.000000 0.000000 0.000000 0.000000
    23 1.773171 0.000000 0.000000 -0.004902 0.212658 -2.004052
    24 4.327651 4.634944 -2.428680 -3.120690 -1.515485 -0.012751
    25 0.000000 0.000000 -0.346258 -0.013735 0.642898 -0.028396
    26 0.827268 -7.688719 -2.908663 0.570684 0.174047 0.058498
    27 1.167906 -7.494068 0.088223 -0.665530 0.432799 0.142337
    28 1.508547 -6.764126 -3.865246 0.555570 0.554378 0.496394
    29 2.243070 5.364873 3.362189 -3.075631 -1.461861 -0.013997
    30 0.000000 0.000000 0.000000 0.173883 1.178785 -0.323529
    31 1.021918 -6.472149 -0.595725 -0.241201 -0.352196 0.028972
    32 0.973257 -7.396744 -2.793420 0.794881 -1.097042 -0.918754
    33 1.021919 -5.839535 -3.557765 0.304552 0.796790 0.820295
    34 -3.776780 2.834425 -11.528622 -2.896614 -1.351429 -0.175450
    35 -0.145987 0.000000 0.730172 -0.216104 -0.415190 -0.014505
    36 -2.384475 -6.374823 -2.048884 0.102143 -0.214134 -0.127932
    37 -1.021918 -3.601046 -1.439223 -0.073942 0.645669 -0.328772
    38 -0.243313 -4.720289 -1.673704 0.390717 1.087602 -0.057240
    39 -2.264709 4.780907 8.909744 -3.655825 -1.508606 0.575035
    40 0.000000 0.000000 -0.000001 -0.348225 1.375807 -0.406761
    41 1.946511 -7.250753 -2.204917 0.313977 -0.769583 -0.401448
    42 1.605872 -3.649708 -1.822482 0.235628 -0.793392 0.223622
    43 -0.729940 -3.941685 -1.419925 -0.194371 1.983286 0.404899
    44 -4.189922 3.272375 -1.309439 -3.095570 -1.507960 -0.009204
    45 0.000000 0.000000 0.000000 -0.409500 0.278569 -0.358934
    46 -1.265231 -7.396742 -6.605809 0.182828 0.074739 0.069932
    47 0.000001 -5.742207 -3.281358 0.705789 -0.430520 -0.068023
    48 0.048663 -5.596218 0.775174 0.227054 -1.237866 -0.247450
    49 0.256295 2.737098 -7.294960 -6.131098 -1.502826 3.044246
    50 0.000000 0.000000 1.089263 0.172177 -0.405367 -0.042080
    51 -2.335813 -8.126684 -0.811257 0.162646 -0.256620 -0.459925
    52 0.145988 -7.348078 -0.880992 -0.586894 0.895596 -0.163936
    53 0.048664 -7.299416 -5.811587 0.150174 0.087287 -0.074925
    54 -0.388542 -14.131889 0.000034 0.000248 0.315118 -1.851575
    55 15.490297 -0.012333 0.000000 0.018026 0.359899 -0.003553
    56 15.491476 -0.012288 0.000000 0.000170 0.222807 0.016267
    57 15.487943 -0.014717 0.000000 -0.000225 -0.308644 -0.416536
  time 14
    0 0.144936 4.421663 34.836638 0.000000 0.000000 -1.570831
    1 0.535173 3.796991 0.000000 -1.570795 -1.570796 0.000000
    2 -0.000020 0.000021 14.561969 0.157411 -0.331828 -2.375188
    3 17.731709 0.000001 -0.000001 0.000000 0.000000 -1.368256
    4 21.987318 0.000000 0.000001 2.682806 0.123444 0.553947
    5 4.324764 6.780501 -1.982552 0.000000 0.000000 1.832463
    6 1.707564 0.000000 -0.000001 0.000000 0.000000 -0.130833
    7 1.707564 0.000000 -0.000001 0.000000 0.000000 -0.479722
    8 4.324764 6.333147 1.238804 0.000000 -0.331445 1.832463
    9 1.821401 0.000000 0.000000 0.000000 0.000000 -0.130833
    10 1.821401 0.000000 0.000002 0.000000 0.000000 -0.479722
    11 0.000020 -0.000019 -14.561969 -0.013115 0.483127 -2.406647
    12 17.731709 0.000001 0.000000 0.000000 0.000000 -1.209888
    13 21.987318 0.000000 0.000000 -2.680253 -0.342469 0.411034
    14 4.324764 6.904406 1.903420 0.000000 -0.069778 1.832463
    15 1.707564 0.000000 0.000000 0.000000 0.000000 -0.130833
    16 1.707564 0.000000 0.000000 0.000000 0.000000 -0.479722
    17 4.324764 7.017686 -1.342621 0.000000 0.366333 1.832463
    18 1.821401 0.000000 -0.000001 0.000000 0.000000 -0.130833
    19 1.821401 0.000000 0.000000 0.000000 0.000000 -0.479722
    20 1.249477 0.004294 0.000002 0.000250 0.314778 2.050549
    21 11.689317 -0.009310 0.000000 0.000000 0.000000 0.000000
    22 11.689319 -0.001413 0.000000 0.000000 0.000000 0.000000
    23 1.773171 0.000000 0.000000 -0.009332 0.143153 -2.030226
    24 4.327651 4.634944 -2.428680 -3.121169 -1.494910 -0.011025
    25 0.000000 0.000000 -0.346258 -0.122549 0.875941 -0.261924
    26 0.827268 -7.688719 -2.908663 0.545770 0.425580 -0.023059
    27 1.167906 -7.494068 0.088223 -0.494266 -0.360426 0.025899
    28 1.508547 -6.764126 -3.865246 0.437521 0.271250 0.239024
    29 2.243070 5.364873 3.362189 -3.072947 -1.441065 -0.012463
    30 0.000000 0.000000 0.000000 0.108240 1.219256 -0.470200
    31 1.021918 -6.472149 -0.595725 -0.189691 -0.286698 -0.027476
    32 0.973257 -7.396744 -2.793420 0.300031 -0.913504 -0.653732
    33 1.021919 -5.839535 -3.557765 -0.023177 0.707396 0.451497
    34 -3.776780 2.834425 -11.528622 -2.909074 -1.422953 -0.185798
    35 -0.145987 0.000000 0.730172 -0.136643 -0.269356 -0.025359
    36 -2.384475 -6.374823 -2.048884 0.081790 -0.125883 -0.111501
    37 -1.021918 -3.601046 -1.439223 -0.312780 0.688880 -0.577108
    38 -0.243313 -4.720289 -1.673704 0.222415 1.040154 -0.369973
    39 -2.264709 4.780907 8.909744 -3.531005 -1.458096 0.448197
    40 0.000000 0.000000 -0.000001 -0.991930 1.423600 -1.309732
    41 1.946511 -7.250753 -2.204917 0.067953 -0.409251 -0.313048
    42 1.605872 -3.649708 -1.822482 0.093424 -0.730965 0.276032
    43 -0.729940 -3.941685 -1.419925 -1.352057 1.434738 -0.927874
    44 -4.189922 3.272375 -1.309439 -3.099693 -1.496611 -0.009108
    45 0.000000 0.000000 0.000000 -0.443319 0.415241 -0.457357
    46 -1.265231 -7.396742 -6.605809 0.219069 0.167747 -0.024263
    47 0.000001 -5.742207 -3.281358 0.684864 -0.308957 -0.188428
    48 0.048663 -5.596218 0.775174 -0.246595 -1.190829 0.218917
    49 0.256295 2.737098 -7.294960 -6.035510 -1.544117 2.934568
    50 0.000000 0.000000 1.089263 0.170475 -0.211899 -0.068633
    51 -2.335813 -8.126684 -0.811257 0.078179 -0.060631 -0.497643
    52 0.145988 -7.348078 -0.880992 -0.820994 0.843196 -0.551213
    53 0.048664 -7.299416 -5.811587 0.096079 -0.249693 -0.048577
    54 -0.388542 -14.131889 0.000034 0.000141 0.196241 -1.739782
    55 15.490297 -0.012333 0.000000 0.010708 0.224399 -0.007478
    56 15.491476 -0.012288 0.000000 0.000102 0.138911 -0.221859
    57 15.484036 -0.014717 0.000000 -0.000129 -0.192021 -0.506943
  time 15
    0 0.152748 4.421663 35.178110 0.000000 0.000000 -1.570831
    1 0.085940 1.543016 0.000000 -1.570795 -1.570796 0.000000
    2 -0.000020 0.000021 14.561969 0.116715 -0.375268 -2.407724
    3 17.731709 0.000001 -0.000001 0.000000 0.000000 -1.310320
    4 21.987318 0.000000 0.000001 2.684972 0.193614 0.520712
    5 4.324764 6.780501 -1.982552 0.000000 0.000000 1.832463
    6 1.707564 0.000000 -0.000001 0.000000 0.000000 -0.130833
    7 1.707564 0.000000 -0.000001 0.000000 0.000000 -0.479722
    8 4.324764 6.333147 1.238804 0.000000 -0.331445 1.832463
    9 1.821401 0.000000 0.000000 0.000000 0.000000 -0.130833
    10 1.821401 0.000000 0.000002 0.000000 0.000000 -0.479722
    11 0.000020 -0.000019 -14.561969 -0.060886 0.438301 -2.421115
    12 17.731709 0.000001 0.000000 0.000000 0.000000 -1.245668
    13 21.987318 0.000000 0.000000 -2.682801 -0.281861 0.462162
    14 4.324764 6.904406 1.903420 0.000000 -0.069778 1.832463
    15 1.707564 0.000000 0.000000 0.000000 0.000000 -0.130833
    16 1.707564 0.000000 0.000000 0.000000 0.000000 -0.479722
    17 4.324764 7.017686 -1.342621 0.000000 0.366333 1.832463
    18 1.821401 0.000000 -0.000001 0.000000 0.000000 -0.130833
    19 1.821401 0.000000 0.000000 0.000000 0.000000 -0.479722
    20 1.249477 0.004294 0.000002 0.000081 0.126150 2.050519
    21 11.689317 -0.009310 0.000000 0.000000 0.000000 0.000000
    22 11.689319 -0.001413 0.000000 0.000000 0.000000 0.000000
    23 1.773171 0.000000 0.000000 -0.004002 0.058005 -2.047292
    24 4.327651 4.634944 -2.428680 -3.123183 -1.522551 -0.012655
    25 0.000000 0.000000 -0.346258 -0.043818 0.559858 -0.157353
    26 0.827268 -7.688719 -2.908663 0.310352 0.289851 -0.061335
    27 1.167906 -7.494068 0.088223 -0.240202 -0.345843 -0.054139
    28 1.508547 -6.764126 -3.865246 0.246982 0.120875 0.096916
    29 2.243070 5.364873 3.362189 -3.083876 -1.490849 -0.023872
    30 0.000000 0.000000 0.000000 0.145372 0.718974 -0.255150
    31 1.021918 -6.472149 -0.595725 -0.105027 -0.155606 -0.029601
    32 0.973257 -7.396744 -2.793420 0.029930 -0.513394 -0.305504
    33 1.021919 -5.839535 -3.557765 -0.087439 0.386479 0.210247
    34 -3.776780 2.834425 -11.528622 -2.920767 -1.496103 -0.197297
    35 -0.145987 0.000000 0.730172 -0.067470 -0.134441 -0.018816
    36 -2.384475 -6.374823 -2.048884 0.045548 -0.061443 -0.062157
    37 -1.021918 -3.601046 -1.439223 -0.149726 0.435652 -0.322817
    38 -0.243313 -4.720289 -1.673704 0.164126 0.595909 -0.255709
    39 -2.264709 4.780907 8.909744 -3.526499 -1.495728 0.419244
    40 0.000000 0.000000 -0.000001 -0.013044 0.898141 -0.275452
    41 1.946511 -7.250753 -2.204917 -0.007464 -0.175768 -0.174103
    42 1.605872 -3.649708 -1.822482 0.059288 -0.419401 0.163755
    43 -0.729940 -3.941685 -1.419925 -0.263511 0.804320 -0.015616
    44 -4.189922 3.272375 -1.309439 -3.107076 -1.525360 -0.015724
    45 0.000000 0.000000 0.000000 -0.233588 0.291241 -0.254329
    46 -1.265231 -7.396742 -6.605809 0.133792 0.109750 -0.034443
    47 0.000001 -5.742207 -3.281358 0.389856 -0.182158 -0.108053
    48 0.048663 -5.596218 0.775174 -0.102365 -0.695607 0.082586
    49 0.256295 2.737098 -7.294960 -5.923143 -1.561572 2.803126
    50 0.000000 0.000000 1.089263 0.098527 -0.095114 -0.040794
    51 -2.335813 -8.126684 -0.811257 0.033046 -0.009134 -0.300967
    52 0.145988 -7.348078 -0.880992 -0.394173 0.543038 -0.248820
    53 0.048664 -7.299416 -5.811587 0.050731 -0.198337 -0.026636
    54 -0.388542 -14.131889 0.000034 0.000052 0.088575 -1.640173
    55 15.490297 -0.012333 0.000000 0.004307 0.103158 -0.009405
    56 15.491476 -0.012288 0.000000 0.000051 0.063855 -0.097466
    57 15.487943 -0.014717 0.000000 -0.000064 -0.085266 -0.358169
  time 16
    0 0.152748 4.421663 34.202477 0.000000 0.000000 -1.570831
    1 0.000000 0.000000 0.000000 -1.570795 -1.570796 0.000000
    2 -0.000020 0.000021 14.561969 0.060711 -0.415458 -2.363137
    3 17.731709 0.000001 -0.000001 0.000000 0.000000 -1.360542
    4 21.987318 0.000000 0.000001 2.685254 0.246733 0.526347
    5 4.324764 6.780501 -1.982552 0.000000 0.000000 1.832463
    6 1.707564 0.000000 -0.000001 0.000000 0.000000 -0.130833
    7 1.707564 0.000000 -0.000001 0.000000 0.000000 -0.479722
    8 4.324764 6.333147 1.238804 0.000000 -0.331445 1.832463
    9 1.821401 0.000000 0.000000 0.000000 0.000000 -0.130833
    10 1.821401 0.000000 0.000002 0.000000 0.000000 -0.479722
    11 0.000020 -0.000019 -14.561969 -0.060707 0.415458 -2.363135
    12 17.731709 0.000001 0.000000 0.000000 0.000000 -1.360542
    13 21.987318 0.000000 0.000000 -2.685254 -0.246733 0.526347
    14 4.324764 6.904406 1.903420 0.000000 -0.069778 1.832463
    15 1.707564 0.000000 0.000000 0.000000 0.000000 -0.130833
    16 1.707564 0.000000 0.000000 0.000000 0.000000 -0.479722
    17 4.324764 7.017686 -1.342621 0.000000 0.366333 1.832463
    18 1.821401 0.000000 -0.000001 0.000000 0.000000 -0.130833
    19 1.821401 0.000000 0.000000 0.000000 0.000000 -0.479722
    20 1.249477 0.004294 0.000002 -0.000003 0.000002 2.050519
    21 11.689317 -0.009310 0.000000 0.000000 0.000000 0.000000
    22 11.689319 -0.001413 0.000000 0.000000 0.000000 0.000000
    23 1.773171 0.000000 0.000000 -0.000004 0.000002 -2.050520
    24 4.327651 4.634944 -2.428680 -3.141591 -1.570796 0.000000
    25 0.000000 0.000000 -0.346258 0.000000 0.000000 0.000000
    26 0.827268 -7.688719 -2.908663 0.000000 0.000000 0.000000
    27 1.167906 -7.494068 0.088223 0.000000 0.000000 0.000000
    28 1.508547 -6.764126 -3.865246 0.000000 0.000000 0.000000
    29 2.243070 5.364873 3.362189 -3.141591 -1.570796 0.000000
    30 0.000000 0.000000 0.000000 0.000000 0.000000 0.000000
    31 1.021918 -6.472149 -0.595725 0.000000 0.000000 0.000000
    32 0.973257 -7.396744 -2.793420 0.000000 0.000000 0.000000
    33 1.021919 -5.839535 -3.557765 0.000000 0.000000 0.000000
    34 -3.776780 2.834425 -11.528622 -3.141591 -1.570796 0.000000
    35 -0.145987 0.000000 0.730172 0.000000 0.000000 0.000000
    36 -2.384475 -6.374823 -2.048884 0.000000 0.000000 0.000000
    37 -1.021918 -3.601046 -1.439223 0.000000 0.000000 0.000000
    38 -0.243313 -4.720289 -1.673704 0.000000 0.000000 0.000000
    39 -2.264709 4.780907 8.909744 -3.141591 -1.570796 0.000000
    40 0.000000 0.000000 -0.000001 0.000000 0.000000 0.000000
    41 1.946511 -7.250753 -2.204917 0.000000 0.000000 0.000000
    42 1.605872 -3.649708 -1.822482 0.000000 0.000000 0.000000
    43 -0.729940 -3.941685 -1.419925 0.000000 0.000000 0.000000
    44 -4.189922 3.272375 -1.309439 -3.141591 -1.570796 0.000000
    45 0.000000 0.000000 0.000000 0.000000 0.000000 0.000000
    46 -1.265231 -7.396742 -6.605809 0.000000 0.000000 0.000000
    47 0.000001 -5.742207 -3.281358 0.000000 0.000000 0.000000
    48 0.048663 -5.596218 0.775174 0.000000 0.000000 0.000000
    49 0.256295 2.737098 -7.294960 -3.141591 -1.570796 0.000000
    50 0.000000 0.000000 1.089263 0.000000 0.000000 0.000000
    51 -2.335813 -8.126684 -0.811257 0.000000 0.000000 0.000000
    52 0.145988 -7.348078 -0.880992 0.000000 0.000000 0.000000
    53 0.048664 -7.299416 -5.811587 0.000000 0.000000 0.000000
    54 -0.388542 -14.131889 0.000034 -0.000002 -0.000001 -1.554463
    55 15.490297 -0.012333 0.000000 0.000000 0.000000 -0.009833
    56 15.491476 -0.012288 0.000000 0.000000 0.000000 0.086111
    57 15.487943 -0.014717 0.000000 0.000000 0.000001 -0.166833
end
