version 1
nodes
  0 "Bip01" -1
  1 "Bip01 Pelvis" 0
  2 "Bip01 L Leg" 1
  3 "Bip01 L Leg1" 2
  4 "Bip01 L Foot" 3
  5 "Bip01 L Toe0" 4
  6 "Bip01 L Toe01" 5
  7 "Bip01 L Toe02" 6
  8 "Bip01 L Toe1" 4
  9 "Bip01 L Toe11" 8
  10 "Bip01 L Toe12" 9
  11 "Bip01 R Leg" 1
  12 "Bip01 R Leg1" 11
  13 "Bip01 R Foot" 12
  14 "Bip01 R Toe0" 13
  15 "Bip01 R Toe01" 14
  16 "Bip01 R Toe02" 15
  17 "Bip01 R Toe1" 13
  18 "Bip01 R Toe11" 17
  19 "Bip01 R Toe12" 18
  20 "Bip01 Spine" 1
  21 "Bip01 Spine1" 20
  22 "Bip01 Neck" 21
  23 "Bip01 Head" 22
  24 "Bone13" 23
  25 "Bone14" 24
  26 "Bone15" 25
  27 "Bone16" 26
  28 "Bone17" 27
  29 "Bone07" 23
  30 "Bone08" 29
  31 "Bone09" 30
  32 "Bone10" 31
  33 "Bone11" 32
  34 "Bone31" 23
  35 "Bone32" 34
  36 "Bone33" 35
  37 "Bone34" 36
  38 "Bone35" 37
  39 "Bone01" 23
  40 "Bone02" 39
  41 "Bone03" 40
  42 "Bone04" 41
  43 "Bone05" 42
  44 "Bone19" 23
  45 "Bone20" 44
  46 "Bone21" 45
  47 "Bone22" 46
  48 "Bone23" 47
  49 "Bone25" 23
  50 "Bone26" 49
  51 "Bone27" 50
  52 "Bone28" 51
  53 "Bone29" 52
  54 "Bip01 Tail" 1
  55 "Bip01 Tail1" 54
  56 "Bip01 Tail2" 55
  57 "Bip01 Tail3" 56
end
skeleton
  time 0
    0 0.652764 1701.952438 523.938041 0.000000 0.333815 -1.570831
    1 0.554704 0.093753 0.000000 -1.570795 -1.570796 0.000000
    2 -0.000020 0.000021 14.561969 0.026511 -0.304077 -1.982615
    3 17.731709 0.000001 -0.000001 0.000000 0.000000 -1.044283
    4 21.987318 0.000000 0.000001 2.755677 0.154430 0.008910
    5 4.324764 6.780501 -1.982552 0.000000 0.000000 1.858172
    6 1.707564 0.000000 -0.000001 0.000000 0.000000 -0.130833
    7 1.707564 0.000000 -0.000001 0.000000 0.000000 -0.479722
    8 4.324764 6.333147 1.238804 0.000000 -0.331445 1.832463
    9 1.821401 0.000000 0.000000 0.000000 0.000000 -0.130833
    10 1.821401 0.000000 0.000002 0.000000 0.000000 -0.479722
    11 0.000020 -0.000019 -14.561969 -0.095043 0.408214 -2.405004
    12 17.731709 0.000001 0.000000 0.000000 0.000000 -1.297039
    13 21.987318 0.000000 0.000000 -2.681763 -0.242705 0.523633
    14 4.324764 6.904406 1.903420 0.000000 -0.069778 1.832463
    15 1.707564 0.000000 0.000000 0.000000 0.000000 -0.130833
    16 1.707564 0.000000 0.000000 0.000000 0.000000 -0.479722
    17 4.324764 7.017686 -1.342621 0.000000 0.366333 1.832463
    18 1.821401 0.000000 -0.000001 0.000000 0.000000 -0.130833
    19 1.821401 0.000000 0.000000 0.000000 0.000000 -0.479722
    20 1.249477 0.004294 0.000002 0.011480 0.006566 2.133966
    21 11.689317 -0.009310 0.000000 -0.021521 0.003954 0.020780
    22 11.689319 -0.001413 0.000000 0.000000 0.000000 0.000000
    23 1.773171 0.000000 0.000000 -0.021001 -0.004309 -2.150008
    24 4.327651 4.634944 -2.428680 -1.570844 -1.554478 -1.570794
    25 0.000000 0.000000 -0.346258 -0.008352 -0.004220 -0.007798
    26 0.827268 -7.688719 -2.908663 -0.004782 -0.008345 0.012019
    27 1.167906 -7.494068 0.088223 -0.014086 -0.002430 0.008373
    28 1.508547 -6.764126 -3.865246 -0.002861 0.001532 -0.003669
    29 2.243070 5.364873 3.362189 -3.141591 -1.570796 0.000000
    30 0.000000 0.000000 0.000000 -0.004170 0.000668 0.026006
    31 1.021918 -6.472149 -0.595725 -0.012138 0.001915 -0.000630
    32 0.973257 -7.396744 -2.793420 -0.014630 0.003046 0.000000
    33 1.021919 -5.839535 -3.557765 0.088780 0.000000 0.000000
    34 -3.776780 2.834425 -11.528622 -4.712377 -1.588013 1.570709
    35 -0.145987 0.000000 0.730172 -0.007069 0.003798 -0.009079
    36 -2.384475 -6.374823 -2.048884 0.008323 0.004246 -0.000502
    37 -1.021918 -3.601046 -1.439223 -0.007492 -0.002779 0.016730
    38 -0.243313 -4.720289 -1.673704 -0.008770 -0.001712 0.011649
    39 -2.264709 4.780907 8.909744 -4.712382 -1.577931 1.570752
    40 0.000000 0.000000 -0.000001 -0.000662 -0.000090 -0.001983
    41 1.946511 -7.250753 -2.204917 0.007241 -0.004552 0.012580
    42 1.605872 -3.649708 -1.822482 0.000926 -0.003250 0.002797
    43 -0.729940 -3.941685 -1.419925 0.004714 0.002876 -0.845891
    44 -4.189922 3.272375 -1.309439 -3.141591 -1.570796 0.000000
    45 0.000000 0.000000 0.000000 0.009333 0.001726 -0.009191
    46 -1.265231 -7.396742 -6.605809 0.008638 -0.004584 0.009691
    47 0.000001 -5.742207 -3.281358 -0.007331 0.003086 0.009557
    48 0.048663 -5.596218 0.775174 0.017942 -0.003059 0.006149
    49 0.256295 2.737098 -7.294960 -3.141591 -1.570796 0.000000
    50 0.000000 0.000000 1.089263 -0.009100 0.004538 -0.008406
    51 -2.335813 -8.126684 -0.811257 -0.011162 0.001339 0.005594
    52 0.145988 -7.348078 -0.880992 0.009209 -0.004590 0.009722
    53 0.048664 -7.299416 -5.811587 0.014533 -0.000575 0.007761
    54 -0.388542 -14.131889 0.000034 -0.000002 0.018731 -1.632297
    55 15.490297 -0.012333 0.000000 0.000014 0.018739 -0.087653
    56 15.491476 -0.012288 0.000000 0.000000 0.018745 0.008280
    57 15.487943 -0.014717 0.000000 0.000000 0.018746 -0.244684
  time 1
    0 0.652764 1701.952438 523.938041 0.000000 0.333815 -1.570831
    1 0.554704 0.093753 0.000000 -1.570795 -1.570796 0.000000
    2 -0.000020 0.000021 14.561969 0.026511 -0.304077 -1.982615
    3 17.731709 0.000001 -0.000001 0.000000 0.000000 -1.044283
    4 21.987318 0.000000 0.000001 2.755677 0.154430 0.008910
    5 4.324764 6.780501 -1.982552 0.000000 0.000000 1.858172
    6 1.707564 0.000000 -0.000001 0.000000 0.000000 -0.130833
    7 1.707564 0.000000 -0.000001 0.000000 0.000000 -0.479722
    8 4.324764 6.333147 1.238804 0.000000 -0.331445 1.832463
    9 1.821401 0.000000 0.000000 0.000000 0.000000 -0.130833
    10 1.821401 0.000000 0.000002 0.000000 0.000000 -0.479722
    11 0.000020 -0.000019 -14.561969 -0.095043 0.408214 -2.405004
    12 17.731709 0.000001 0.000000 0.000000 0.000000 -1.297039
    13 21.987318 0.000000 0.000000 -2.681763 -0.242705 0.523633
    14 4.324764 6.904406 1.903420 0.000000 -0.069778 1.832463
    15 1.707564 0.000000 0.000000 0.000000 0.000000 -0.130833
    16 1.707564 0.000000 0.000000 0.000000 0.000000 -0.479722
    17 4.324764 7.017686 -1.342621 0.000000 0.366333 1.832463
    18 1.821401 0.000000 -0.000001 0.000000 0.000000 -0.130833
    19 1.821401 0.000000 0.000000 0.000000 0.000000 -0.479722
    20 1.249477 0.004294 0.000002 0.011480 0.006566 2.133966
    21 11.689317 -0.009310 0.000000 -0.021521 0.003954 0.020780
    22 11.689319 -0.001413 0.000000 0.000000 0.000000 0.000000
    23 1.773171 0.000000 0.000000 -0.021001 -0.004309 -2.150008
    24 4.327651 4.634944 -2.428680 -1.570844 -1.554478 -1.570794
    25 0.000000 0.000000 -0.346258 -0.008352 -0.004220 -0.007798
    26 0.827268 -7.688719 -2.908663 -0.004782 -0.008345 0.012019
    27 1.167906 -7.494068 0.088223 -0.014086 -0.002430 0.008373
    28 1.508547 -6.764126 -3.865246 -0.002861 0.001532 -0.003669
    29 2.243070 5.364873 3.362189 -3.141591 -1.570796 0.000000
    30 0.000000 0.000000 0.000000 -0.004170 0.000668 0.026006
    31 1.021918 -6.472149 -0.595725 -0.012138 0.001915 -0.000630
    32 0.973257 -7.396744 -2.793420 -0.014630 0.003046 0.000000
    33 1.021919 -5.839535 -3.557765 0.088780 0.000000 0.000000
    34 -3.776780 2.834425 -11.528622 -4.712377 -1.588013 1.570709
    35 -0.145987 0.000000 0.730172 -0.007069 0.003798 -0.009079
    36 -2.384475 -6.374823 -2.048884 0.008323 0.004246 -0.000502
    37 -1.021918 -3.601046 -1.439223 -0.007492 -0.002779 0.016730
    38 -0.243313 -4.720289 -1.673704 -0.008770 -0.001712 0.011649
    39 -2.264709 4.780907 8.909744 -4.712382 -1.577931 1.570752
    40 0.000000 0.000000 -0.000001 -0.000662 -0.000090 -0.001983
    41 1.946511 -7.250753 -2.204917 0.007241 -0.004552 0.012580
    42 1.605872 -3.649708 -1.822482 0.000926 -0.003250 0.002797
    43 -0.729940 -3.941685 -1.419925 0.004714 0.002876 -0.845891
    44 -4.189922 3.272375 -1.309439 -3.141591 -1.570796 0.000000
    45 0.000000 0.000000 0.000000 0.009333 0.001726 -0.009191
    46 -1.265231 -7.396742 -6.605809 0.008638 -0.004584 0.009691
    47 0.000001 -5.742207 -3.281358 -0.007331 0.003086 0.009557
    48 0.048663 -5.596218 0.775174 0.017942 -0.003059 0.006149
    49 0.256295 2.737098 -7.294960 -3.141591 -1.570796 0.000000
    50 0.000000 0.000000 1.089263 -0.009100 0.004538 -0.008406
    51 -2.335813 -8.126684 -0.811257 -0.011162 0.001339 0.005594
    52 0.145988 -7.348078 -0.880992 0.009209 -0.004590 0.009722
    53 0.048664 -7.299416 -5.811587 0.014533 -0.000575 0.007761
    54 -0.388542 -14.131889 0.000034 -0.000002 0.018731 -1.632297
    55 15.490297 -0.012333 0.000000 0.000014 0.018739 -0.087653
    56 15.491476 -0.012288 0.000000 0.000000 0.018745 0.008280
    57 15.487943 -0.014717 0.000000 0.000000 0.018746 -0.244684
end
