version 1
nodes
  0 "Bip01" -1
  1 "Bip01 Pelvis" 0
  2 "Bip01 L Leg" 1
  3 "Bip01 L Leg1" 2
  4 "Bip01 L Foot" 3
  5 "Bip01 L Toe0" 4
  6 "Bip01 L Toe01" 5
  7 "Bip01 L Toe02" 6
  8 "Bip01 L Toe1" 4
  9 "Bip01 L Toe11" 8
  10 "Bip01 L Toe12" 9
  11 "Bip01 R Leg" 1
  12 "Bip01 R Leg1" 11
  13 "Bip01 R Foot" 12
  14 "Bip01 R Toe0" 13
  15 "Bip01 R Toe01" 14
  16 "Bip01 R Toe02" 15
  17 "Bip01 R Toe1" 13
  18 "Bip01 R Toe11" 17
  19 "Bip01 R Toe12" 18
  20 "Bip01 Spine" 1
  21 "Bip01 Spine1" 20
  22 "Bip01 Neck" 21
  23 "Bip01 Head" 22
  24 "Bone13" 23
  25 "Bone14" 24
  26 "Bone15" 25
  27 "Bone16" 26
  28 "Bone17" 27
  29 "Bone07" 23
  30 "Bone08" 29
  31 "Bone09" 30
  32 "Bone10" 31
  33 "Bone11" 32
  34 "Bone31" 23
  35 "Bone32" 34
  36 "Bone33" 35
  37 "Bone34" 36
  38 "Bone35" 37
  39 "Bone01" 23
  40 "Bone02" 39
  41 "Bone03" 40
  42 "Bone04" 41
  43 "Bone05" 42
  44 "Bone19" 23
  45 "Bone20" 44
  46 "Bone21" 45
  47 "Bone22" 46
  48 "Bone23" 47
  49 "Bone25" 23
  50 "Bone26" 49
  51 "Bone27" 50
  52 "Bone28" 51
  53 "Bone29" 52
  54 "Bip01 Tail" 1
  55 "Bip01 Tail1" 54
  56 "Bip01 Tail2" 55
  57 "Bip01 Tail3" 56
end
skeleton
  time 0
    0 0.152748 4.421663 34.202477 0.000000 0.000000 -1.570831
    1 0.000000 0.000000 0.000000 -1.570795 -1.570796 0.000000
    2 -0.000020 0.000021 14.561969 0.060711 -0.415458 -2.363137
    3 17.731709 0.000001 -0.000001 0.000000 0.000000 -1.360542
    4 21.987318 0.000000 0.000001 2.685254 0.246733 0.526347
    5 4.324764 6.780501 -1.982552 0.000000 0.000000 1.832463
    6 1.707564 0.000000 -0.000001 0.000000 0.000000 -0.130833
    7 1.707564 0.000000 -0.000001 0.000000 0.000000 -0.479722
    8 4.324764 6.333147 1.238804 0.000000 -0.331445 1.832463
    9 1.821401 0.000000 0.000000 0.000000 0.000000 -0.130833
    10 1.821401 0.000000 0.000002 0.000000 0.000000 -0.479722
    11 0.000020 -0.000019 -14.561969 -0.060707 0.415458 -2.363135
    12 17.731709 0.000001 0.000000 0.000000 0.000000 -1.360542
    13 21.987318 0.000000 0.000000 -2.685254 -0.246733 0.526347
    14 4.324764 6.904406 1.903420 0.000000 -0.069778 1.832463
    15 1.707564 0.000000 0.000000 0.000000 0.000000 -0.130833
    16 1.707564 0.000000 0.000000 0.000000 0.000000 -0.479722
    17 4.324764 7.017686 -1.342621 0.000000 0.366333 1.832463
    18 1.821401 0.000000 -0.000001 0.000000 0.000000 -0.130833
    19 1.821401 0.000000 0.000000 0.000000 0.000000 -0.479722
    20 1.249477 0.004294 0.000002 -0.000003 0.000002 2.050519
    21 11.689317 -0.009310 0.000000 0.000000 0.000000 0.000000
    22 11.689319 -0.001413 0.000000 0.000000 0.000000 0.000000
    23 1.773171 0.000000 0.000000 -0.000004 0.000002 -2.050520
    24 4.327651 4.634944 -2.428680 -3.141591 -1.570796 0.000000
    25 0.000000 0.000000 -0.346258 0.000000 0.000000 0.000000
    26 0.827268 -7.688719 -2.908663 0.000000 0.000000 0.000000
    27 1.167906 -7.494068 0.088223 0.000000 0.000000 0.000000
    28 1.508547 -6.764126 -3.865246 0.000000 0.000000 0.000000
    29 2.243070 5.364873 3.362189 -3.141591 -1.570796 0.000000
    30 0.000000 0.000000 0.000000 0.000000 0.000000 0.000000
    31 1.021918 -6.472149 -0.595725 0.000000 0.000000 0.000000
    32 0.973257 -7.396744 -2.793420 0.000000 0.000000 0.000000
    33 1.021919 -5.839535 -3.557765 0.000000 0.000000 0.000000
    34 -3.776780 2.834425 -11.528622 -3.141591 -1.570796 0.000000
    35 -0.145987 0.000000 0.730172 0.000000 0.000000 0.000000
    36 -2.384475 -6.374823 -2.048884 0.000000 0.000000 0.000000
    37 -1.021918 -3.601046 -1.439223 0.000000 0.000000 0.000000
    38 -0.243313 -4.720289 -1.673704 0.000000 0.000000 0.000000
    39 -2.264709 4.780907 8.909744 -3.141591 -1.570796 0.000000
    40 0.000000 0.000000 -0.000001 0.000000 0.000000 0.000000
    41 1.946511 -7.250753 -2.204917 0.000000 0.000000 0.000000
    42 1.605872 -3.649708 -1.822482 0.000000 0.000000 0.000000
    43 -0.729940 -3.941685 -1.419925 0.000000 0.000000 0.000000
    44 -4.189922 3.272375 -1.309439 -3.141591 -1.570796 0.000000
    45 0.000000 0.000000 0.000000 0.000000 0.000000 0.000000
    46 -1.265231 -7.396742 -6.605809 0.000000 0.000000 0.000000
    47 0.000001 -5.742207 -3.281358 0.000000 0.000000 0.000000
    48 0.048663 -5.596218 0.775174 0.000000 0.000000 0.000000
    49 0.256295 2.737098 -7.294960 -3.141591 -1.570796 0.000000
    50 0.000000 0.000000 1.089263 0.000000 0.000000 0.000000
    51 -2.335813 -8.126684 -0.811257 0.000000 0.000000 0.000000
    52 0.145988 -7.348078 -0.880992 0.000000 0.000000 0.000000
    53 0.048664 -7.299416 -5.811587 0.000000 0.000000 0.000000
    54 -0.388542 -14.131889 0.000034 -0.000002 -0.000001 -1.554463
    55 15.490297 -0.012333 0.000000 0.000000 0.000000 -0.009833
    56 15.491476 -0.012288 0.000000 0.000000 0.000000 0.086111
    57 15.487943 -0.014717 0.000000 0.000000 0.000001 -0.166833
  time 1
    0 0.152748 4.421663 34.202477 0.000000 0.000000 -1.570831
    1 0.039064 1.011750 0.000000 -1.570795 -1.570796 0.000000
    2 -0.000020 0.000021 14.561969 0.141580 -0.348767 -2.566515
    3 17.731709 0.000001 -0.000001 0.000000 0.000000 -1.476371
    4 21.987318 0.000000 0.000001 2.747204 0.268456 0.984190
    5 4.324764 6.780501 -1.982552 0.000000 -0.031501 1.832463
    6 1.707564 0.000000 -0.000001 0.000000 0.000000 -0.153041
    7 1.707564 0.000000 -0.000001 0.000000 0.000000 -0.479722
    8 4.324764 6.333147 1.238804 0.000000 -0.248064 1.832463
    9 1.821401 0.000000 0.000000 0.000000 0.000000 -0.130833
    10 1.821401 0.000000 0.000002 0.000000 0.000000 -0.479722
    11 0.000020 -0.000019 -14.561969 -0.117734 0.362361 -2.388892
    12 17.731709 0.000001 0.000000 0.000000 0.000000 -1.388790
    13 21.987318 0.000000 0.000000 -2.690161 -0.177601 0.584150
    14 4.324764 6.904406 1.903420 0.000000 -0.069778 1.832463
    15 1.707564 0.000000 0.000000 0.000000 0.000000 -0.130833
    16 1.707564 0.000000 0.000000 0.000000 0.000000 -0.479722
    17 4.324764 7.017686 -1.342621 0.000000 0.366333 1.832463
    18 1.821401 0.000000 -0.000001 0.000000 0.000000 -0.130833
    19 1.821401 0.000000 0.000000 0.000000 0.000000 -0.479722
    20 1.249477 0.004294 0.000002 0.000048 0.067077 2.050519
    21 11.689317 -0.009310 0.000000 0.000036 0.047307 0.000000
    22 11.689319 -0.001413 0.000000 0.000000 0.000000 0.000000
    23 1.773171 0.000000 0.000000 -0.012213 0.049704 -2.048538
    24 4.327651 4.634944 -2.428680 -3.141591 -1.570796 0.000000
    25 0.000000 0.000000 -0.346258 0.000000 0.000000 0.000000
    26 0.827268 -7.688719 -2.908663 0.000000 0.000000 0.000000
    27 1.167906 -7.494068 0.088223 0.000000 0.000000 0.000000
    28 1.508547 -6.764126 -3.865246 0.000000 0.000000 0.000000
    29 2.243070 5.364873 3.362189 -3.141591 -1.570796 0.000000
    30 0.000000 0.000000 0.000000 0.000000 0.000000 0.000000
    31 1.021918 -6.472149 -0.595725 0.000000 0.000000 0.000000
    32 0.973257 -7.396744 -2.793420 0.000000 0.000000 0.000000
    33 1.021919 -5.839535 -3.557765 0.000000 0.000000 0.000000
    34 -3.776780 2.834425 -11.528622 -3.141591 -1.570796 0.000000
    35 -0.145987 0.000000 0.730172 0.000000 0.000000 0.000000
    36 -2.384475 -6.374823 -2.048884 0.000000 0.000000 0.000000
    37 -1.021918 -3.601046 -1.439223 0.000000 0.000000 0.000000
    38 -0.243313 -4.720289 -1.673704 0.000000 0.000000 0.000000
    39 -2.264709 4.780907 8.909744 -3.141591 -1.570796 0.000000
    40 0.000000 0.000000 -0.000001 0.000000 0.000000 0.000000
    41 1.946511 -7.250753 -2.204917 0.000000 0.000000 0.000000
    42 1.605872 -3.649708 -1.822482 0.000000 0.000000 0.000000
    43 -0.729940 -3.941685 -1.419925 0.000000 0.000000 0.000000
    44 -4.189922 3.272375 -1.309439 -3.141591 -1.570796 0.000000
    45 0.000000 0.000000 0.000000 0.000000 0.000000 0.000000
    46 -1.265231 -7.396742 -6.605809 0.000000 0.000000 0.000000
    47 0.000001 -5.742207 -3.281358 0.000000 0.000000 0.000000
    48 0.048663 -5.596218 0.775174 0.000000 0.000000 0.000000
    49 0.256295 2.737098 -7.294960 -3.141591 -1.570796 0.000000
    50 0.000000 0.000000 1.089263 0.000000 0.000000 0.000000
    51 -2.335813 -8.126684 -0.811257 0.000000 0.000000 0.000000
    52 0.145988 -7.348078 -0.880992 0.000000 0.000000 0.000000
    53 0.048664 -7.299416 -5.811587 0.000000 0.000000 0.000000
    54 -0.388542 -14.131889 0.000034 0.000052 0.080480 -1.554463
    55 15.490297 -0.012333 0.000000 0.000054 0.080644 -0.009833
    56 15.491476 -0.012288 0.000000 0.000051 0.080657 0.086111
    57 15.487943 -0.014717 0.000000 0.000064 0.080658 -0.166833
  time 2
    0 0.152748 4.421663 34.202477 0.000000 0.000000 -1.570831
    1 0.257820 2.578204 0.000000 -1.570795 -1.570796 0.000000
    2 -0.000020 0.000021 14.561969 0.218642 -0.245698 -2.805303
    3 17.731709 0.000001 -0.000001 0.000000 0.000000 -1.545379
    4 21.987318 0.000000 0.000001 2.807647 0.276981 1.484532
    5 4.324764 6.780501 -1.982552 0.000000 -0.058418 1.832463
    6 1.707564 0.000000 -0.000001 0.000000 0.000000 -0.172041
    7 1.707564 0.000000 -0.000001 0.000000 0.000000 -0.479722
    8 4.324764 6.333147 1.238804 0.000000 -0.176814 1.832463
    9 1.821401 0.000000 0.000000 0.000000 0.000000 -0.130833
    10 1.821401 0.000000 0.000002 0.000000 0.000000 -0.479722
    11 0.000020 -0.000019 -14.561969 -0.195123 0.284145 -2.419473
    12 17.731709 0.000001 0.000000 0.000000 0.000000 -1.426891
    13 21.987318 0.000000 0.000000 -2.693653 -0.078305 0.663593
    14 4.324764 6.904406 1.903420 0.000000 -0.069778 1.832463
    15 1.707564 0.000000 0.000000 0.000000 0.000000 -0.130833
    16 1.707564 0.000000 0.000000 0.000000 0.000000 -0.479722
    17 4.324764 7.017686 -1.342621 0.000000 0.366333 1.832463
    18 1.821401 0.000000 -0.000001 0.000000 0.000000 -0.130833
    19 1.821401 0.000000 0.000000 0.000000 0.000000 -0.479722
    20 1.249477 0.004294 0.000002 0.000132 0.171842 2.050519
    21 11.689317 -0.009310 0.000000 0.000090 0.120809 0.000000
    22 11.689319 -0.001413 0.000000 0.000000 0.000000 0.000000
    23 1.773171 0.000000 0.000000 -0.028564 0.124757 -2.035723
    24 4.327651 4.634944 -2.428680 -3.141591 -1.570796 0.000000
    25 0.000000 0.000000 -0.346258 0.000000 0.000000 0.000000
    26 0.827268 -7.688719 -2.908663 0.000000 0.000000 0.000000
    27 1.167906 -7.494068 0.088223 0.000000 0.000000 0.000000
    28 1.508547 -6.764126 -3.865246 0.000000 0.000000 0.000000
    29 2.243070 5.364873 3.362189 -3.141591 -1.570796 0.000000
    30 0.000000 0.000000 0.000000 0.000000 0.000000 0.000000
    31 1.021918 -6.472149 -0.595725 0.000000 0.000000 0.000000
    32 0.973257 -7.396744 -2.793420 0.000000 0.000000 0.000000
    33 1.021919 -5.839535 -3.557765 0.000000 0.000000 0.000000
    34 -3.776780 2.834425 -11.528622 -3.141591 -1.570796 0.000000
    35 -0.145987 0.000000 0.730172 0.000000 0.000000 0.000000
    36 -2.384475 -6.374823 -2.048884 0.000000 0.000000 0.000000
    37 -1.021918 -3.601046 -1.439223 0.000000 0.000000 0.000000
    38 -0.243313 -4.720289 -1.673704 0.000000 0.000000 0.000000
    39 -2.264709 4.780907 8.909744 -3.141591 -1.570796 0.000000
    40 0.000000 0.000000 -0.000001 0.000000 0.000000 0.000000
    41 1.946511 -7.250753 -2.204917 0.000000 0.000000 0.000000
    42 1.605872 -3.649708 -1.822482 0.000000 0.000000 0.000000
    43 -0.729940 -3.941685 -1.419925 0.000000 0.000000 0.000000
    44 -4.189922 3.272375 -1.309439 -3.141591 -1.570796 0.000000
    45 0.000000 0.000000 0.000000 0.000000 0.000000 0.000000
    46 -1.265231 -7.396742 -6.605809 0.000000 0.000000 0.000000
    47 0.000001 -5.742207 -3.281358 0.000000 0.000000 0.000000
    48 0.048663 -5.596218 0.775174 0.000000 0.000000 0.000000
    49 0.256295 2.737098 -7.294960 -3.141591 -1.570796 0.000000
    50 0.000000 0.000000 1.089263 0.000000 0.000000 0.000000
    51 -2.335813 -8.126684 -0.811257 0.000000 0.000000 0.000000
    52 0.145988 -7.348078 -0.880992 0.000000 0.000000 0.000000
    53 0.048664 -7.299416 -5.811587 0.000000 0.000000 0.000000
    54 -0.388542 -14.131889 0.000034 0.000159 0.203691 -1.554463
    55 15.490297 -0.012333 0.000000 0.000162 0.204140 -0.009833
    56 15.491476 -0.012288 0.000000 0.000153 0.204138 0.086111
    57 15.487943 -0.014717 0.000000 0.000161 0.204139 -0.166833
  time 3
    0 0.152748 4.421663 34.202477 0.000000 0.000000 -1.570831
    1 0.691427 4.152470 0.000000 -1.570795 -1.570796 0.000000
    2 -0.000020 0.000021 14.561969 0.270464 -0.117816 -3.050765
    3 17.731709 0.000001 -0.000001 0.000000 0.000000 -1.442240
    4 21.987318 0.000000 0.000001 -0.296521 2.863260 -1.295856
    5 4.324764 6.780501 -1.982552 0.000000 -0.089836 1.832463
    6 1.707564 0.000000 -0.000001 0.000000 0.000000 -0.194249
    7 1.707564 0.000000 -0.000001 0.000000 0.000000 -0.479722
    8 4.324764 6.333147 1.238804 0.000000 -0.093622 1.832463
    9 1.821401 0.000000 0.000000 0.000000 0.000000 -0.130833
    10 1.821401 0.000000 0.000002 0.000000 0.000000 -0.479722
    11 0.000020 -0.000019 -14.561969 -0.279200 0.192024 -2.446131
    12 17.731709 0.000001 0.000000 0.000000 0.000000 -1.444103
    13 21.987318 0.000000 0.000000 -2.692520 0.035698 0.727705
    14 4.324764 6.904406 1.903420 0.000000 -0.069778 1.832463
    15 1.707564 0.000000 0.000000 0.000000 0.000000 -0.130833
    16 1.707564 0.000000 0.000000 0.000000 0.000000 -0.479722
    17 4.324764 7.017686 -1.342621 0.000000 0.366333 1.832463
    18 1.821401 0.000000 -0.000001 0.000000 0.000000 -0.130833
    19 1.821401 0.000000 0.000000 0.000000 0.000000 -0.479722
    20 1.249477 0.004294 0.000002 0.000216 0.280798 2.050549
    21 11.689317 -0.009310 0.000000 0.000143 0.197982 0.000000
    22 11.689319 -0.001413 0.000000 0.000000 0.000000 0.000000
    23 1.773171 0.000000 0.000000 -0.045347 0.202287 -2.008238
    24 4.327651 4.634944 -2.428680 -3.141591 -1.570796 0.000000
    25 0.000000 0.000000 -0.346258 0.000000 0.000000 0.000000
    26 0.827268 -7.688719 -2.908663 0.000000 0.000000 0.000000
    27 1.167906 -7.494068 0.088223 0.000000 0.000000 0.000000
    28 1.508547 -6.764126 -3.865246 0.000000 0.000000 0.000000
    29 2.243070 5.364873 3.362189 -3.141591 -1.570796 0.000000
    30 0.000000 0.000000 0.000000 0.000000 0.000000 0.000000
    31 1.021918 -6.472149 -0.595725 0.000000 0.000000 0.000000
    32 0.973257 -7.396744 -2.793420 0.000000 0.000000 0.000000
    33 1.021919 -5.839535 -3.557765 0.000000 0.000000 0.000000
    34 -3.776780 2.834425 -11.528622 -3.141591 -1.570796 0.000000
    35 -0.145987 0.000000 0.730172 0.000000 0.000000 0.000000
    36 -2.384475 -6.374823 -2.048884 0.000000 0.000000 0.000000
    37 -1.021918 -3.601046 -1.439223 0.000000 0.000000 0.000000
    38 -0.243313 -4.720289 -1.673704 0.000000 0.000000 0.000000
    39 -2.264709 4.780907 8.909744 -3.141591 -1.570796 0.000000
    40 0.000000 0.000000 -0.000001 0.000000 0.000000 0.000000
    41 1.946511 -7.250753 -2.204917 0.000000 0.000000 0.000000
    42 1.605872 -3.649708 -1.822482 0.000000 0.000000 0.000000
    43 -0.729940 -3.941685 -1.419925 0.000000 0.000000 0.000000
    44 -4.189922 3.272375 -1.309439 -3.141591 -1.570796 0.000000
    45 0.000000 0.000000 0.000000 0.000000 0.000000 0.000000
    46 -1.265231 -7.396742 -6.605809 0.000000 0.000000 0.000000
    47 0.000001 -5.742207 -3.281358 0.000000 0.000000 0.000000
    48 0.048663 -5.596218 0.775174 0.000000 0.000000 0.000000
    49 0.256295 2.737098 -7.294960 -3.141591 -1.570796 0.000000
    50 0.000000 0.000000 1.089263 0.000000 0.000000 0.000000
    51 -2.335813 -8.126684 -0.811257 0.000000 0.000000 0.000000
    52 0.145988 -7.348078 -0.880992 0.000000 0.000000 0.000000
    53 0.048664 -7.299416 -5.811587 0.000000 0.000000 0.000000
    54 -0.388542 -14.131889 0.000034 0.000266 0.336573 -1.554417
    55 15.490297 -0.012333 0.000000 0.000270 0.337228 -0.009797
    56 15.491476 -0.012288 0.000000 0.000272 0.337220 0.086149
    57 15.487943 -0.014717 0.000000 0.000257 0.337221 -0.166790
  time 4
    0 0.152748 4.421663 34.202477 0.000000 0.000000 -1.570831
    1 1.144566 5.273598 0.000000 -1.570795 -1.570796 0.000000
    2 -0.000020 0.000021 14.561969 0.289281 0.004066 -3.258407
    3 17.731709 0.000001 -0.000001 0.000000 0.000000 -1.311357
    4 21.987318 0.000000 0.000001 -0.285129 2.853833 -1.017082
    5 4.324764 6.780501 -1.982552 0.000000 -0.136205 1.832463
    6 1.707564 0.000000 -0.000001 0.000000 0.000000 -0.226960
    7 1.707564 0.000000 -0.000001 0.000000 0.000000 -0.479722
    8 4.324764 6.333147 1.238804 0.000000 0.029126 1.832463
    9 1.821401 0.000000 0.000000 0.000000 0.000000 -0.130833
    10 1.821401 0.000000 0.000002 0.000000 0.000000 -0.479722
    11 0.000020 -0.000019 -14.561969 -0.374265 0.080445 -2.467171
    12 17.731709 0.000001 0.000000 0.000000 0.000000 -1.390498
    13 21.987318 0.000000 0.000000 -2.684310 0.170683 0.730566
    14 4.324764 6.904406 1.903420 0.000000 -0.069778 1.832463
    15 1.707564 0.000000 0.000000 0.000000 0.000000 -0.130833
    16 1.707564 0.000000 0.000000 0.000000 0.000000 -0.479722
    17 4.324764 7.017686 -1.342621 0.000000 0.366333 1.832463
    18 1.821401 0.000000 -0.000001 0.000000 0.000000 -0.130833
    19 1.821401 0.000000 0.000000 0.000000 0.000000 -0.479722
    20 1.249477 0.004294 0.000002 0.000284 0.362263 2.050549
    21 11.689317 -0.009310 0.000000 0.000197 0.257222 0.000024
    22 11.689319 -0.001413 0.000000 0.000000 0.000000 0.000000
    23 1.773171 0.000000 0.000000 -0.060509 0.262168 -1.975832
    24 4.327651 4.634944 -2.428680 -3.141591 -1.570796 0.000000
    25 0.000000 0.000000 -0.346258 0.000000 0.000000 0.000000
    26 0.827268 -7.688719 -2.908663 0.000000 0.000000 0.000000
    27 1.167906 -7.494068 0.088223 0.000000 0.000000 0.000000
    28 1.508547 -6.764126 -3.865246 0.000000 0.000000 0.000000
    29 2.243070 5.364873 3.362189 -3.141591 -1.570796 0.000000
    30 0.000000 0.000000 0.000000 0.000000 0.000000 0.000000
    31 1.021918 -6.472149 -0.595725 0.000000 0.000000 0.000000
    32 0.973257 -7.396744 -2.793420 0.000000 0.000000 0.000000
    33 1.021919 -5.839535 -3.557765 0.000000 0.000000 0.000000
    34 -3.776780 2.834425 -11.528622 -3.141591 -1.570796 0.000000
    35 -0.145987 0.000000 0.730172 0.000000 0.000000 0.000000
    36 -2.384475 -6.374823 -2.048884 0.000000 0.000000 0.000000
    37 -1.021918 -3.601046 -1.439223 0.000000 0.000000 0.000000
    38 -0.243313 -4.720289 -1.673704 0.000000 0.000000 0.000000
    39 -2.264709 4.780907 8.909744 -3.141591 -1.570796 0.000000
    40 0.000000 0.000000 -0.000001 0.000000 0.000000 0.000000
    41 1.946511 -7.250753 -2.204917 0.000000 0.000000 0.000000
    42 1.605872 -3.649708 -1.822482 0.000000 0.000000 0.000000
    43 -0.729940 -3.941685 -1.419925 0.000000 0.000000 0.000000
    44 -4.189922 3.272375 -1.309439 -3.141591 -1.570796 0.000000
    45 0.000000 0.000000 0.000000 0.000000 0.000000 0.000000
    46 -1.265231 -7.396742 -6.605809 0.000000 0.000000 0.000000
    47 0.000001 -5.742207 -3.281358 0.000000 0.000000 0.000000
    48 0.048663 -5.596218 0.775174 0.000000 0.000000 0.000000
    49 0.256295 2.737098 -7.294960 -3.141591 -1.570796 0.000000
    50 0.000000 0.000000 1.089263 0.000000 0.000000 0.000000
    51 -2.335813 -8.126684 -0.811257 0.000000 0.000000 0.000000
    52 0.145988 -7.348078 -0.880992 0.000000 0.000000 0.000000
    53 0.048664 -7.299416 -5.811587 0.000000 0.000000 0.000000
    54 -0.388542 -14.131889 0.000034 0.000373 0.446388 -1.554417
    55 15.490297 -0.012333 0.000000 0.000378 0.446886 -0.009762
    56 15.491476 -0.012288 0.000000 0.000374 0.446871 0.086186
    57 15.487943 -0.014717 0.000000 0.000354 0.446872 -0.166746
  time 5
    0 0.152748 4.421663 34.202477 0.000000 0.000000 -1.570831
    1 1.402387 5.793146 0.000000 -1.570795 -1.570796 0.000000
    2 -0.000020 0.000021 14.561969 0.290700 0.053006 -3.329320
    3 17.731709 0.000001 -0.000001 0.000000 0.000000 -1.276148
    4 21.987318 0.000000 0.000001 -0.284658 2.844078 -0.892641
    5 4.324764 6.780501 -1.982552 0.000000 -0.148275 1.832463
    6 1.707564 0.000000 -0.000001 0.000000 0.000000 -0.235493
    7 1.707564 0.000000 -0.000001 0.000000 0.000000 -0.479722
    8 4.324764 6.333147 1.238804 0.000000 0.061036 1.832463
    9 1.821401 0.000000 0.000000 0.000000 0.000000 -0.130833
    10 1.821401 0.000000 0.000002 0.000000 0.000000 -0.479722
    11 0.000020 -0.000019 -14.561969 -0.471001 -0.037656 -2.477188
    12 17.731709 0.000001 0.000000 0.000000 0.000000 -1.302032
    13 21.987318 0.000000 0.000000 -2.666853 0.311196 0.703938
    14 4.324764 6.904406 1.903420 0.000000 -0.069778 1.832463
    15 1.707564 0.000000 0.000000 0.000000 0.000000 -0.130833
    16 1.707564 0.000000 0.000000 0.000000 0.000000 -0.479722
    17 4.324764 7.017686 -1.342621 0.000000 0.366333 1.832463
    18 1.821401 0.000000 -0.000001 0.000000 0.000000 -0.130833
    19 1.821401 0.000000 0.000000 0.000000 0.000000 -0.479722
    20 1.249477 0.004294 0.000002 0.000317 0.401215 2.050579
    21 11.689317 -0.009310 0.000000 0.000233 0.287818 0.000024
    22 11.689319 -0.001413 0.000000 0.000000 0.000000 0.000000
    23 1.773171 0.000000 0.000000 -0.075203 0.297358 -1.952790
    24 4.327651 4.634944 -2.428680 -3.141591 -1.570796 0.000000
    25 0.000000 0.000000 -0.346258 0.000000 0.000000 0.000000
    26 0.827268 -7.688719 -2.908663 0.000000 0.000000 0.000000
    27 1.167906 -7.494068 0.088223 0.000000 0.000000 0.000000
    28 1.508547 -6.764126 -3.865246 0.000000 0.000000 0.000000
    29 2.243070 5.364873 3.362189 -3.141591 -1.570796 0.000000
    30 0.000000 0.000000 0.000000 0.000000 0.000000 0.000000
    31 1.021918 -6.472149 -0.595725 0.000000 0.000000 0.000000
    32 0.973257 -7.396744 -2.793420 0.000000 0.000000 0.000000
    33 1.021919 -5.839535 -3.557765 0.000000 0.000000 0.000000
    34 -3.776780 2.834425 -11.528622 -3.141591 -1.570796 0.000000
    35 -0.145987 0.000000 0.730172 0.000000 0.000000 0.000000
    36 -2.384475 -6.374823 -2.048884 0.000000 0.000000 0.000000
    37 -1.021918 -3.601046 -1.439223 0.000000 0.000000 0.000000
    38 -0.243313 -4.720289 -1.673704 0.000000 0.000000 0.000000
    39 -2.264709 4.780907 8.909744 -3.141591 -1.570796 0.000000
    40 0.000000 0.000000 -0.000001 0.000000 0.000000 0.000000
    41 1.946511 -7.250753 -2.204917 0.000000 0.000000 0.000000
    42 1.605872 -3.649708 -1.822482 0.000000 0.000000 0.000000
    43 -0.729940 -3.941685 -1.419925 0.000000 0.000000 0.000000
    44 -4.189922 3.272375 -1.309439 -3.141591 -1.570796 0.000000
    45 0.000000 0.000000 0.000000 0.000000 0.000000 0.000000
    46 -1.265231 -7.396742 -6.605809 0.000000 0.000000 0.000000
    47 0.000001 -5.742207 -3.281358 0.000000 0.000000 0.000000
    48 0.048663 -5.596218 0.775174 0.000000 0.000000 0.000000
    49 0.256295 2.737098 -7.294960 -3.141591 -1.570796 0.000000
    50 0.000000 0.000000 1.089263 0.000000 0.000000 0.000000
    51 -2.335813 -8.126684 -0.811257 0.000000 0.000000 0.000000
    52 0.145988 -7.348078 -0.880992 0.000000 0.000000 0.000000
    53 0.048664 -7.299416 -5.811587 0.000000 0.000000 0.000000
    54 -0.388542 -14.131889 0.000034 0.000445 0.514584 -1.554370
    55 15.490297 -0.012333 0.000000 0.000446 0.514609 -0.009726
    56 15.491476 -0.012288 0.000000 0.000442 0.514574 0.086224
    57 15.487943 -0.014717 0.000000 0.000450 0.514575 -0.166746
  time 6
    0 0.152748 4.421663 34.202477 0.000000 0.000000 -1.570831
    1 1.476608 5.925962 0.000000 -1.570795 -1.570796 0.000000
    2 -0.000020 0.000021 14.561969 0.291745 0.064132 -3.333862
    3 17.731709 0.000001 -0.000001 0.000000 0.000000 -1.290456
    4 21.987318 0.000000 0.000001 -0.293508 2.848341 -0.873445
    5 4.324764 6.780501 -1.982552 0.000000 -0.148275 1.832463
    6 1.707564 0.000000 -0.000001 0.000000 0.000000 -0.235493
    7 1.707564 0.000000 -0.000001 0.000000 0.000000 -0.479722
    8 4.324764 6.333147 1.238804 0.000000 0.061036 1.832463
    9 1.821401 0.000000 0.000000 0.000000 0.000000 -0.130833
    10 1.821401 0.000000 0.000002 0.000000 0.000000 -0.479722
    11 0.000020 -0.000019 -14.561969 -0.469031 -0.033270 -2.473054
    12 17.731709 0.000001 0.000000 0.000000 0.000000 -1.305798
    13 21.987318 0.000000 0.000000 -2.667514 0.308292 0.701811
    14 4.324764 6.904406 1.903420 0.000000 -0.069778 1.832463
    15 1.707564 0.000000 0.000000 0.000000 0.000000 -0.130833
    16 1.707564 0.000000 0.000000 0.000000 0.000000 -0.479722
    17 4.324764 7.017686 -1.342621 0.000000 0.366333 1.832463
    18 1.821401 0.000000 -0.000001 0.000000 0.000000 -0.130833
    19 1.821401 0.000000 0.000000 0.000000 0.000000 -0.479722
    20 1.249477 0.004294 0.000002 0.000334 0.410304 2.050579
    21 11.689317 -0.009310 0.000000 0.000233 0.298998 0.000024
    22 11.689319 -0.001413 0.000000 0.000012 0.016455 0.000000
    23 1.773171 0.000000 0.000000 -0.077688 0.325356 -1.934030
    24 4.327651 4.634944 -2.428680 -3.141591 -1.570796 0.000000
    25 0.000000 0.000000 -0.346258 0.000000 0.000000 0.000000
    26 0.827268 -7.688719 -2.908663 0.000000 0.000000 0.000000
    27 1.167906 -7.494068 0.088223 0.000000 0.000000 0.000000
    28 1.508547 -6.764126 -3.865246 0.000000 0.000000 0.000000
    29 2.243070 5.364873 3.362189 -3.141591 -1.570796 0.000000
    30 0.000000 0.000000 0.000000 0.000000 0.000000 0.000000
    31 1.021918 -6.472149 -0.595725 0.000000 0.000000 0.000000
    32 0.973257 -7.396744 -2.793420 0.000000 0.000000 0.000000
    33 1.021919 -5.839535 -3.557765 0.000000 0.000000 0.000000
    34 -3.776780 2.834425 -11.528622 -3.141591 -1.570796 0.000000
    35 -0.145987 0.000000 0.730172 0.000000 0.000000 0.000000
    36 -2.384475 -6.374823 -2.048884 0.000000 0.000000 0.000000
    37 -1.021918 -3.601046 -1.439223 0.000000 0.000000 0.000000
    38 -0.243313 -4.720289 -1.673704 0.000000 0.000000 0.000000
    39 -2.264709 4.780907 8.909744 -3.141591 -1.570796 0.000000
    40 0.000000 0.000000 -0.000001 0.000000 0.000000 0.000000
    41 1.946511 -7.250753 -2.204917 0.000000 0.000000 0.000000
    42 1.605872 -3.649708 -1.822482 0.000000 0.000000 0.000000
    43 -0.729940 -3.941685 -1.419925 0.000000 0.000000 0.000000
    44 -4.189922 3.272375 -1.309439 -3.141591 -1.570796 0.000000
    45 0.000000 0.000000 0.000000 0.000000 0.000000 0.000000
    46 -1.265231 -7.396742 -6.605809 0.000000 0.000000 0.000000
    47 0.000001 -5.742207 -3.281358 0.000000 0.000000 0.000000
    48 0.048663 -5.596218 0.775174 0.000000 0.000000 0.000000
    49 0.256295 2.737098 -7.294960 -3.141591 -1.570796 0.000000
    50 0.000000 0.000000 1.089263 0.000000 0.000000 0.000000
    51 -2.335813 -8.126684 -0.811257 0.000000 0.000000 0.000000
    52 0.145988 -7.348078 -0.880992 0.000000 0.000000 0.000000
    53 0.048664 -7.299416 -5.811587 0.000000 0.000000 0.000000
    54 -0.388542 -14.131889 0.000034 0.000481 0.557994 -1.554324
    55 15.490297 -0.012333 0.000000 0.000486 0.557120 -0.009690
    56 15.491476 -0.012288 0.000000 0.000493 0.557093 0.086224
    57 15.487943 -0.014717 0.000000 0.000482 0.557094 -0.166703
  time 7
    0 0.152748 4.421663 34.202477 0.000000 0.000000 -1.570831
    1 1.460982 5.894711 0.000000 -1.570795 -1.570796 0.000000
    2 -0.000020 0.000021 14.561969 0.293313 0.066507 -3.321348
    3 17.731709 0.000001 -0.000001 0.000000 0.000000 -1.317536
    4 21.987318 0.000000 0.000001 -0.298969 2.850964 -0.859215
    5 4.324764 6.780501 -1.982552 0.000000 -0.148275 1.832463
    6 1.707564 0.000000 -0.000001 0.000000 0.000000 -0.235493
    7 1.707564 0.000000 -0.000001 0.000000 0.000000 -0.479722
    8 4.324764 6.333147 1.238804 0.000000 0.061036 1.832463
    9 1.821401 0.000000 0.000000 0.000000 0.000000 -0.130833
    10 1.821401 0.000000 0.000002 0.000000 0.000000 -0.479722
    11 0.000020 -0.000019 -14.561969 -0.469329 -0.034575 -2.473849
    12 17.731709 0.000001 0.000000 0.000000 0.000000 -1.304879
    13 21.987318 0.000000 0.000000 -2.667702 0.309135 0.702104
    14 4.324764 6.904406 1.903420 0.000000 -0.069778 1.832463
    15 1.707564 0.000000 0.000000 0.000000 0.000000 -0.130833
    16 1.707564 0.000000 0.000000 0.000000 0.000000 -0.479722
    17 4.324764 7.017686 -1.342621 0.000000 0.366333 1.832463
    18 1.821401 0.000000 -0.000001 0.000000 0.000000 -0.130833
    19 1.821401 0.000000 0.000000 0.000000 0.000000 -0.479722
    20 1.249477 0.004294 0.000002 0.000334 0.406239 2.050579
    21 11.689317 -0.009310 0.000000 0.000233 0.302199 0.000024
    22 11.689319 -0.001413 0.000000 0.000024 0.038135 0.000000
    23 1.773171 0.000000 0.000000 -0.079021 0.351754 -1.916708
    24 4.327651 4.634944 -2.428680 -3.141591 -1.570796 0.000000
    25 0.000000 0.000000 -0.346258 0.000000 0.000000 0.000000
    26 0.827268 -7.688719 -2.908663 0.000000 0.000000 0.000000
    27 1.167906 -7.494068 0.088223 0.000000 0.000000 0.000000
    28 1.508547 -6.764126 -3.865246 0.000000 0.000000 0.000000
    29 2.243070 5.364873 3.362189 -3.141591 -1.570796 0.000000
    30 0.000000 0.000000 0.000000 0.000000 0.000000 0.000000
    31 1.021918 -6.472149 -0.595725 0.000000 0.000000 0.000000
    32 0.973257 -7.396744 -2.793420 0.000000 0.000000 0.000000
    33 1.021919 -5.839535 -3.557765 0.000000 0.000000 0.000000
    34 -3.776780 2.834425 -11.528622 -3.141591 -1.570796 0.000000
    35 -0.145987 0.000000 0.730172 0.000000 0.000000 0.000000
    36 -2.384475 -6.374823 -2.048884 0.000000 0.000000 0.000000
    37 -1.021918 -3.601046 -1.439223 0.000000 0.000000 0.000000
    38 -0.243313 -4.720289 -1.673704 0.000000 0.000000 0.000000
    39 -2.264709 4.780907 8.909744 -3.141591 -1.570796 0.000000
    40 0.000000 0.000000 -0.000001 0.000000 0.000000 0.000000
    41 1.946511 -7.250753 -2.204917 0.000000 0.000000 0.000000
    42 1.605872 -3.649708 -1.822482 0.000000 0.000000 0.000000
    43 -0.729940 -3.941685 -1.419925 0.000000 0.000000 0.000000
    44 -4.189922 3.272375 -1.309439 -3.141591 -1.570796 0.000000
    45 0.000000 0.000000 0.000000 0.000000 0.000000 0.000000
    46 -1.265231 -7.396742 -6.605809 0.000000 0.000000 0.000000
    47 0.000001 -5.742207 -3.281358 0.000000 0.000000 0.000000
    48 0.048663 -5.596218 0.775174 0.000000 0.000000 0.000000
    49 0.256295 2.737098 -7.294960 -3.141591 -1.570796 0.000000
    50 0.000000 0.000000 1.089263 0.000000 0.000000 0.000000
    51 -2.335813 -8.126684 -0.811257 0.000000 0.000000 0.000000
    52 0.145988 -7.348078 -0.880992 0.000000 0.000000 0.000000
    53 0.048664 -7.299416 -5.811587 0.000000 0.000000 0.000000
    54 -0.388542 -14.131889 0.000034 0.000534 0.594563 -1.554324
    55 15.490297 -0.012333 0.000000 0.000527 0.592554 -0.009690
    56 15.491476 -0.012288 0.000000 0.000527 0.592564 0.086262
    57 15.487943 -0.014717 0.000000 0.000514 0.592565 -0.166703
  time 8
    0 0.152748 4.421663 34.202477 0.000000 0.000000 -1.570831
    1 1.398480 5.761895 0.000000 -1.570795 -1.570796 0.000000
    2 -0.000020 0.000021 14.561969 0.294956 0.064257 -3.301974
    3 17.731709 0.000001 -0.000001 0.000000 0.000000 -1.347645
    4 21.987318 0.000000 0.000001 -0.302170 2.852686 -0.849187
    5 4.324764 6.780501 -1.982552 0.000000 -0.148275 1.832463
    6 1.707564 0.000000 -0.000001 0.000000 0.000000 -0.235493
    7 1.707564 0.000000 -0.000001 0.000000 0.000000 -0.479722
    8 4.324764 6.333147 1.238804 0.000000 0.061036 1.832463
    9 1.821401 0.000000 0.000000 0.000000 0.000000 -0.130833
    10 1.821401 0.000000 0.000002 0.000000 0.000000 -0.479722
    11 0.000020 -0.000019 -14.561969 -0.471061 -0.039044 -2.477559
    12 17.731709 0.000001 0.000000 0.000000 0.000000 -1.301156
    13 21.987318 0.000000 0.000000 -2.667419 0.312133 0.703865
    14 4.324764 6.904406 1.903420 0.000000 -0.069778 1.832463
    15 1.707564 0.000000 0.000000 0.000000 0.000000 -0.130833
    16 1.707564 0.000000 0.000000 0.000000 0.000000 -0.479722
    17 4.324764 7.017686 -1.342621 0.000000 0.366333 1.832463
    18 1.821401 0.000000 -0.000001 0.000000 0.000000 -0.130833
    19 1.821401 0.000000 0.000000 0.000000 0.000000 -0.479722
    20 1.249477 0.004294 0.000002 0.000317 0.394551 2.050579
    21 11.689317 -0.009310 0.000000 0.000233 0.300386 0.000024
    22 11.689319 -0.001413 0.000000 0.000048 0.061373 0.000000
    23 1.773171 0.000000 0.000000 -0.079525 0.375421 -1.901719
    24 4.327651 4.634944 -2.428680 -3.141591 -1.570796 0.000000
    25 0.000000 0.000000 -0.346258 0.000000 0.000000 0.000000
    26 0.827268 -7.688719 -2.908663 0.000000 0.000000 0.000000
    27 1.167906 -7.494068 0.088223 0.000000 0.000000 0.000000
    28 1.508547 -6.764126 -3.865246 0.000000 0.000000 0.000000
    29 2.243070 5.364873 3.362189 -3.141591 -1.570796 0.000000
    30 0.000000 0.000000 0.000000 0.000000 0.000000 0.000000
    31 1.021918 -6.472149 -0.595725 0.000000 0.000000 0.000000
    32 0.973257 -7.396744 -2.793420 0.000000 0.000000 0.000000
    33 1.021919 -5.839535 -3.557765 0.000000 0.000000 0.000000
    34 -3.776780 2.834425 -11.528622 -3.141591 -1.570796 0.000000
    35 -0.145987 0.000000 0.730172 0.000000 0.000000 0.000000
    36 -2.384475 -6.374823 -2.048884 0.000000 0.000000 0.000000
    37 -1.021918 -3.601046 -1.439223 0.000000 0.000000 0.000000
    38 -0.243313 -4.720289 -1.673704 0.000000 0.000000 0.000000
    39 -2.264709 4.780907 8.909744 -3.141591 -1.570796 0.000000
    40 0.000000 0.000000 -0.000001 0.000000 0.000000 0.000000
    41 1.946511 -7.250753 -2.204917 0.000000 0.000000 0.000000
    42 1.605872 -3.649708 -1.822482 0.000000 0.000000 0.000000
    43 -0.729940 -3.941685 -1.419925 0.000000 0.000000 0.000000
    44 -4.189922 3.272375 -1.309439 -3.141591 -1.570796 0.000000
    45 0.000000 0.000000 0.000000 0.000000 0.000000 0.000000
    46 -1.265231 -7.396742 -6.605809 0.000000 0.000000 0.000000
    47 0.000001 -5.742207 -3.281358 0.000000 0.000000 0.000000
    48 0.048663 -5.596218 0.775174 0.000000 0.000000 0.000000
    49 0.256295 2.737098 -7.294960 -3.141591 -1.570796 0.000000
    50 0.000000 0.000000 1.089263 0.000000 0.000000 0.000000
    51 -2.335813 -8.126684 -0.811257 0.000000 0.000000 0.000000
    52 0.145988 -7.348078 -0.880992 0.000000 0.000000 0.000000
    53 0.048664 -7.299416 -5.811587 0.000000 0.000000 0.000000
    54 -0.388542 -14.131889 0.000034 0.000570 0.624399 -1.554278
    55 15.490297 -0.012333 0.000000 0.000567 0.621174 -0.009655
    56 15.491476 -0.012288 0.000000 0.000561 0.621139 0.086262
    57 15.487943 -0.014717 0.000000 0.000546 0.621140 -0.166660
  time 9
    0 0.152748 4.421663 34.202477 0.000000 0.000000 -1.570831
    1 1.304727 5.570482 0.000000 -1.570795 -1.570796 0.000000
    2 -0.000020 0.000021 14.561969 0.296449 0.059631 -3.279912
    3 17.731709 0.000001 -0.000001 0.000000 0.000000 -1.377338
    4 21.987318 0.000000 0.000001 -0.303959 2.853751 -0.842311
    5 4.324764 6.780501 -1.982552 0.000000 -0.148275 1.832463
    6 1.707564 0.000000 -0.000001 0.000000 0.000000 -0.235493
    7 1.707564 0.000000 -0.000001 0.000000 0.000000 -0.479722
    8 4.324764 6.333147 1.238804 0.000000 0.061036 1.832463
    9 1.821401 0.000000 0.000000 0.000000 0.000000 -0.130833
    10 1.821401 0.000000 0.000002 0.000000 0.000000 -0.479722
    11 0.000020 -0.000019 -14.561969 -0.473748 -0.045538 -2.483124
    12 17.731709 0.000001 0.000000 0.000000 0.000000 -1.295594
    13 21.987318 0.000000 0.000000 -2.666759 0.316442 0.706432
    14 4.324764 6.904406 1.903420 0.000000 -0.069778 1.832463
    15 1.707564 0.000000 0.000000 0.000000 0.000000 -0.130833
    16 1.707564 0.000000 0.000000 0.000000 0.000000 -0.479722
    17 4.324764 7.017686 -1.342621 0.000000 0.366333 1.832463
    18 1.821401 0.000000 -0.000001 0.000000 0.000000 -0.130833
    19 1.821401 0.000000 0.000000 0.000000 0.000000 -0.479722
    20 1.249477 0.004294 0.000002 0.000301 0.378268 2.050549
    21 11.689317 -0.009310 0.000000 0.000233 0.295209 0.000024
    22 11.689319 -0.001413 0.000000 0.000060 0.084431 0.000000
    23 1.773171 0.000000 0.000000 -0.079489 0.396100 -1.889351
    24 4.327651 4.634944 -2.428680 -3.141591 -1.570796 0.000000
    25 0.000000 0.000000 -0.346258 0.000000 0.000000 0.000000
    26 0.827268 -7.688719 -2.908663 0.000000 0.000000 0.000000
    27 1.167906 -7.494068 0.088223 0.000000 0.000000 0.000000
    28 1.508547 -6.764126 -3.865246 0.000000 0.000000 0.000000
    29 2.243070 5.364873 3.362189 -3.141591 -1.570796 0.000000
    30 0.000000 0.000000 0.000000 0.000000 0.000000 0.000000
    31 1.021918 -6.472149 -0.595725 0.000000 0.000000 0.000000
    32 0.973257 -7.396744 -2.793420 0.000000 0.000000 0.000000
    33 1.021919 -5.839535 -3.557765 0.000000 0.000000 0.000000
    34 -3.776780 2.834425 -11.528622 -3.141591 -1.570796 0.000000
    35 -0.145987 0.000000 0.730172 0.000000 0.000000 0.000000
    36 -2.384475 -6.374823 -2.048884 0.000000 0.000000 0.000000
    37 -1.021918 -3.601046 -1.439223 0.000000 0.000000 0.000000
    38 -0.243313 -4.720289 -1.673704 0.000000 0.000000 0.000000
    39 -2.264709 4.780907 8.909744 -3.141591 -1.570796 0.000000
    40 0.000000 0.000000 -0.000001 0.000000 0.000000 0.000000
    41 1.946511 -7.250753 -2.204917 0.000000 0.000000 0.000000
    42 1.605872 -3.649708 -1.822482 0.000000 0.000000 0.000000
    43 -0.729940 -3.941685 -1.419925 0.000000 0.000000 0.000000
    44 -4.189922 3.272375 -1.309439 -3.141591 -1.570796 0.000000
    45 0.000000 0.000000 0.000000 0.000000 0.000000 0.000000
    46 -1.265231 -7.396742 -6.605809 0.000000 0.000000 0.000000
    47 0.000001 -5.742207 -3.281358 0.000000 0.000000 0.000000
    48 0.048663 -5.596218 0.775174 0.000000 0.000000 0.000000
    49 0.256295 2.737098 -7.294960 -3.141591 -1.570796 0.000000
    50 0.000000 0.000000 1.089263 0.000000 0.000000 0.000000
    51 -2.335813 -8.126684 -0.811257 0.000000 0.000000 0.000000
    52 0.145988 -7.348078 -0.880992 0.000000 0.000000 0.000000
    53 0.048664 -7.299416 -5.811587 0.000000 0.000000 0.000000
    54 -0.388542 -14.131889 0.000034 0.000588 0.647967 -1.554278
    55 15.490297 -0.012333 0.000000 0.000594 0.643504 -0.009655
    56 15.491476 -0.012288 0.000000 0.000595 0.643503 0.086299
    57 15.487943 -0.014717 0.000000 0.000579 0.643504 -0.166660
  time 10
    0 0.152748 4.421663 34.202477 0.000000 0.000000 -1.570831
    1 1.191443 5.336100 0.000000 -1.570795 -1.570796 0.000000
    2 -0.000020 0.000021 14.561969 0.297719 0.053256 -3.255997
    3 17.731709 0.000001 -0.000001 0.000000 0.000000 -1.406617
    4 21.987318 0.000000 0.000001 -0.304618 2.854325 -0.837918
    5 4.324764 6.780501 -1.982552 0.000000 -0.148275 1.832463
    6 1.707564 0.000000 -0.000001 0.000000 0.000000 -0.235493
    7 1.707564 0.000000 -0.000001 0.000000 0.000000 -0.479722
    8 4.324764 6.333147 1.238804 0.000000 0.061036 1.832463
    9 1.821401 0.000000 0.000000 0.000000 0.000000 -0.130833
    10 1.821401 0.000000 0.000002 0.000000 0.000000 -0.479722
    11 0.000020 -0.000019 -14.561969 -0.477152 -0.053504 -2.490014
    12 17.731709 0.000001 0.000000 0.000000 0.000000 -1.288499
    13 21.987318 0.000000 0.000000 -2.665815 0.321781 0.709366
    14 4.324764 6.904406 1.903420 0.000000 -0.069778 1.832463
    15 1.707564 0.000000 0.000000 0.000000 0.000000 -0.130833
    16 1.707564 0.000000 0.000000 0.000000 0.000000 -0.479722
    17 4.324764 7.017686 -1.342621 0.000000 0.366333 1.832463
    18 1.821401 0.000000 -0.000001 0.000000 0.000000 -0.130833
    19 1.821401 0.000000 0.000000 0.000000 0.000000 -0.479722
    20 1.249477 0.004294 0.000002 0.000284 0.358754 2.050549
    21 11.689317 -0.009310 0.000000 0.000233 0.287489 0.000024
    22 11.689319 -0.001413 0.000000 0.000084 0.106567 0.000000
    23 1.773171 0.000000 0.000000 -0.079129 0.413769 -1.879763
    24 4.327651 4.634944 -2.428680 -3.141591 -1.570796 0.000000
    25 0.000000 0.000000 -0.346258 0.000000 0.000000 0.000000
    26 0.827268 -7.688719 -2.908663 0.000000 0.000000 0.000000
    27 1.167906 -7.494068 0.088223 0.000000 0.000000 0.000000
    28 1.508547 -6.764126 -3.865246 0.000000 0.000000 0.000000
    29 2.243070 5.364873 3.362189 -3.141591 -1.570796 0.000000
    30 0.000000 0.000000 0.000000 0.000000 0.000000 0.000000
    31 1.021918 -6.472149 -0.595725 0.000000 0.000000 0.000000
    32 0.973257 -7.396744 -2.793420 0.000000 0.000000 0.000000
    33 1.021919 -5.839535 -3.557765 0.000000 0.000000 0.000000
    34 -3.776780 2.834425 -11.528622 -3.141591 -1.570796 0.000000
    35 -0.145987 0.000000 0.730172 0.000000 0.000000 0.000000
    36 -2.384475 -6.374823 -2.048884 0.000000 0.000000 0.000000
    37 -1.021918 -3.601046 -1.439223 0.000000 0.000000 0.000000
    38 -0.243313 -4.720289 -1.673704 0.000000 0.000000 0.000000
    39 -2.264709 4.780907 8.909744 -3.141591 -1.570796 0.000000
    40 0.000000 0.000000 -0.000001 0.000000 0.000000 0.000000
    41 1.946511 -7.250753 -2.204917 0.000000 0.000000 0.000000
    42 1.605872 -3.649708 -1.822482 0.000000 0.000000 0.000000
    43 -0.729940 -3.941685 -1.419925 0.000000 0.000000 0.000000
    44 -4.189922 3.272375 -1.309439 -3.141591 -1.570796 0.000000
    45 0.000000 0.000000 0.000000 0.000000 0.000000 0.000000
    46 -1.265231 -7.396742 -6.605809 0.000000 0.000000 0.000000
    47 0.000001 -5.742207 -3.281358 0.000000 0.000000 0.000000
    48 0.048663 -5.596218 0.775174 0.000000 0.000000 0.000000
    49 0.256295 2.737098 -7.294960 -3.141591 -1.570796 0.000000
    50 0.000000 0.000000 1.089263 0.000000 0.000000 0.000000
    51 -2.335813 -8.126684 -0.811257 0.000000 0.000000 0.000000
    52 0.145988 -7.348078 -0.880992 0.000000 0.000000 0.000000
    53 0.048664 -7.299416 -5.811587 0.000000 0.000000 0.000000
    54 -0.388542 -14.131889 0.000034 0.000624 0.665625 -1.554278
    55 15.490297 -0.012333 0.000000 0.000608 0.660015 -0.009655
    56 15.491476 -0.012288 0.000000 0.000612 0.660001 0.086299
    57 15.487943 -0.014717 0.000000 0.000611 0.660002 -0.166660
  time 11
    0 0.152748 4.421663 34.202477 0.000000 0.000000 -1.570831
    1 1.070345 5.058748 0.000000 -1.570795 -1.570796 0.000000
    2 -0.000020 0.000021 14.561969 0.298764 0.045006 -3.229392
    3 17.731709 0.000001 -0.000001 0.000000 0.000000 -1.436559
    4 21.987318 0.000000 0.000001 -0.304430 2.854571 -0.835721
    5 4.324764 6.780501 -1.982552 0.000000 -0.148275 1.832463
    6 1.707564 0.000000 -0.000001 0.000000 0.000000 -0.235493
    7 1.707564 0.000000 -0.000001 0.000000 0.000000 -0.479722
    8 4.324764 6.333147 1.238804 0.000000 0.061036 1.832463
    9 1.821401 0.000000 0.000000 0.000000 0.000000 -0.130833
    10 1.821401 0.000000 0.000002 0.000000 0.000000 -0.479722
    11 0.000020 -0.000019 -14.561969 -0.481153 -0.062719 -2.497910
    12 17.731709 0.000001 0.000000 0.000000 0.000000 -1.280003
    13 21.987318 0.000000 0.000000 -2.664399 0.328058 0.712594
    14 4.324764 6.904406 1.903420 0.000000 -0.069778 1.832463
    15 1.707564 0.000000 0.000000 0.000000 0.000000 -0.130833
    16 1.707564 0.000000 0.000000 0.000000 0.000000 -0.479722
    17 4.324764 7.017686 -1.342621 0.000000 0.366333 1.832463
    18 1.821401 0.000000 -0.000001 0.000000 0.000000 -0.130833
    19 1.821401 0.000000 0.000000 0.000000 0.000000 -0.479722
    20 1.249477 0.004294 0.000002 0.000267 0.336614 2.050549
    21 11.689317 -0.009310 0.000000 0.000215 0.277439 0.000024
    22 11.689319 -0.001413 0.000000 0.000096 0.127240 0.000000
    23 1.773171 0.000000 0.000000 -0.078625 0.428174 -1.873308
    24 4.327651 4.634944 -2.428680 -3.141591 -1.570796 0.000000
    25 0.000000 0.000000 -0.346258 0.000000 0.000000 0.000000
    26 0.827268 -7.688719 -2.908663 0.000000 0.000000 0.000000
    27 1.167906 -7.494068 0.088223 0.000000 0.000000 0.000000
    28 1.508547 -6.764126 -3.865246 0.000000 0.000000 0.000000
    29 2.243070 5.364873 3.362189 -3.141591 -1.570796 0.000000
    30 0.000000 0.000000 0.000000 0.000000 0.000000 0.000000
    31 1.021918 -6.472149 -0.595725 0.000000 0.000000 0.000000
    32 0.973257 -7.396744 -2.793420 0.000000 0.000000 0.000000
    33 1.021919 -5.839535 -3.557765 0.000000 0.000000 0.000000
    34 -3.776780 2.834425 -11.528622 -3.141591 -1.570796 0.000000
    35 -0.145987 0.000000 0.730172 0.000000 0.000000 0.000000
    36 -2.384475 -6.374823 -2.048884 0.000000 0.000000 0.000000
    37 -1.021918 -3.601046 -1.439223 0.000000 0.000000 0.000000
    38 -0.243313 -4.720289 -1.673704 0.000000 0.000000 0.000000
    39 -2.264709 4.780907 8.909744 -3.141591 -1.570796 0.000000
    40 0.000000 0.000000 -0.000001 0.000000 0.000000 0.000000
    41 1.946511 -7.250753 -2.204917 0.000000 0.000000 0.000000
    42 1.605872 -3.649708 -1.822482 0.000000 0.000000 0.000000
    43 -0.729940 -3.941685 -1.419925 0.000000 0.000000 0.000000
    44 -4.189922 3.272375 -1.309439 -3.141591 -1.570796 0.000000
    45 0.000000 0.000000 0.000000 0.000000 0.000000 0.000000
    46 -1.265231 -7.396742 -6.605809 0.000000 0.000000 0.000000
    47 0.000001 -5.742207 -3.281358 0.000000 0.000000 0.000000
    48 0.048663 -5.596218 0.775174 0.000000 0.000000 0.000000
    49 0.256295 2.737098 -7.294960 -3.141591 -1.570796 0.000000
    50 0.000000 0.000000 1.089263 0.000000 0.000000 0.000000
    51 -2.335813 -8.126684 -0.811257 0.000000 0.000000 0.000000
    52 0.145988 -7.348078 -0.880992 0.000000 0.000000 0.000000
    53 0.048664 -7.299416 -5.811587 0.000000 0.000000 0.000000
    54 -0.388542 -14.131889 0.000034 0.000624 0.677086 -1.554278
    55 15.490297 -0.012333 0.000000 0.000621 0.670368 -0.009619
    56 15.491476 -0.012288 0.000000 0.000629 0.670364 0.086299
    57 15.487943 -0.014717 0.000000 0.000611 0.670365 -0.166617
  time 12
    0 0.152748 4.421663 34.202477 0.000000 0.000000 -1.570831
    1 0.937529 4.742332 0.000000 -1.570795 -1.570796 0.000000
    2 -0.000020 0.000021 14.561969 0.299511 0.034255 -3.198339
    3 17.731709 0.000001 -0.000001 0.000000 0.000000 -1.468740
    4 21.987318 0.000000 0.000001 -0.303206 2.854161 -0.836103
    5 4.324764 6.780501 -1.982552 0.000000 -0.148275 1.832463
    6 1.707564 0.000000 -0.000001 0.000000 0.000000 -0.235493
    7 1.707564 0.000000 -0.000001 0.000000 0.000000 -0.479722
    8 4.324764 6.333147 1.238804 0.000000 0.061036 1.832463
    9 1.821401 0.000000 0.000000 0.000000 0.000000 -0.130833
    10 1.821401 0.000000 0.000002 0.000000 0.000000 -0.479722
    11 0.000020 -0.000019 -14.561969 -0.485870 -0.073156 -2.506814
    12 17.731709 0.000001 0.000000 0.000000 0.000000 -1.270018
    13 21.987318 0.000000 0.000000 -2.662607 0.335177 0.715895
    14 4.324764 6.904406 1.903420 0.000000 -0.069778 1.832463
    15 1.707564 0.000000 0.000000 0.000000 0.000000 -0.130833
    16 1.707564 0.000000 0.000000 0.000000 0.000000 -0.479722
    17 4.324764 7.017686 -1.342621 0.000000 0.366333 1.832463
    18 1.821401 0.000000 -0.000001 0.000000 0.000000 -0.130833
    19 1.821401 0.000000 0.000000 0.000000 0.000000 -0.479722
    20 1.249477 0.004294 0.000002 0.000250 0.312077 2.050549
    21 11.689317 -0.009310 0.000000 0.000215 0.265012 0.000024
    22 11.689319 -0.001413 0.000000 0.000108 0.145577 0.000000
    23 1.773171 0.000000 0.000000 -0.078085 0.438311 -1.870815
    24 4.327651 4.634944 -2.428680 -3.141591 -1.570796 0.000000
    25 0.000000 0.000000 -0.346258 0.000000 0.000000 0.000000
    26 0.827268 -7.688719 -2.908663 0.000000 0.000000 0.000000
    27 1.167906 -7.494068 0.088223 0.000000 0.000000 0.000000
    28 1.508547 -6.764126 -3.865246 0.000000 0.000000 0.000000
    29 2.243070 5.364873 3.362189 -3.141591 -1.570796 0.000000
    30 0.000000 0.000000 0.000000 0.000000 0.000000 0.000000
    31 1.021918 -6.472149 -0.595725 0.000000 0.000000 0.000000
    32 0.973257 -7.396744 -2.793420 0.000000 0.000000 0.000000
    33 1.021919 -5.839535 -3.557765 0.000000 0.000000 0.000000
    34 -3.776780 2.834425 -11.528622 -3.141591 -1.570796 0.000000
    35 -0.145987 0.000000 0.730172 0.000000 0.000000 0.000000
    36 -2.384475 -6.374823 -2.048884 0.000000 0.000000 0.000000
    37 -1.021918 -3.601046 -1.439223 0.000000 0.000000 0.000000
    38 -0.243313 -4.720289 -1.673704 0.000000 0.000000 0.000000
    39 -2.264709 4.780907 8.909744 -3.141591 -1.570796 0.000000
    40 0.000000 0.000000 -0.000001 0.000000 0.000000 0.000000
    41 1.946511 -7.250753 -2.204917 0.000000 0.000000 0.000000
    42 1.605872 -3.649708 -1.822482 0.000000 0.000000 0.000000
    43 -0.729940 -3.941685 -1.419925 0.000000 0.000000 0.000000
    44 -4.189922 3.272375 -1.309439 -3.141591 -1.570796 0.000000
    45 0.000000 0.000000 0.000000 0.000000 0.000000 0.000000
    46 -1.265231 -7.396742 -6.605809 0.000000 0.000000 0.000000
    47 0.000001 -5.742207 -3.281358 0.000000 0.000000 0.000000
    48 0.048663 -5.596218 0.775174 0.000000 0.000000 0.000000
    49 0.256295 2.737098 -7.294960 -3.141591 -1.570796 0.000000
    50 0.000000 0.000000 1.089263 0.000000 0.000000 0.000000
    51 -2.335813 -8.126684 -0.811257 0.000000 0.000000 0.000000
    52 0.145988 -7.348078 -0.880992 0.000000 0.000000 0.000000
    53 0.048664 -7.299416 -5.811587 0.000000 0.000000 0.000000
    54 -0.388542 -14.131889 0.000034 0.000642 0.680954 -1.554278
    55 15.490297 -0.012333 0.000000 0.000635 0.673277 -0.009619
    56 15.491476 -0.012288 0.000000 0.000629 0.673297 0.086299
    57 15.487943 -0.014717 0.000000 0.000611 0.673298 -0.166617
  time 13
    0 0.152748 4.421663 34.202477 0.000000 0.000000 -1.570831
    1 0.800806 4.390759 0.000000 -1.570795 -1.570796 0.000000
    2 -0.000020 0.000021 14.561969 0.299586 0.019629 -3.160426
    3 17.731709 0.000001 -0.000001 0.000000 0.000000 -1.503825
    4 21.987318 0.000000 0.000001 -0.300381 2.852932 -0.840783
    5 4.324764 6.780501 -1.982552 0.000000 -0.148275 1.832463
    6 1.707564 0.000000 -0.000001 0.000000 0.000000 -0.235493
    7 1.707564 0.000000 -0.000001 0.000000 0.000000 -0.479722
    8 4.324764 6.333147 1.238804 0.000000 0.061036 1.832463
    9 1.821401 0.000000 0.000000 0.000000 0.000000 -0.130833
    10 1.821401 0.000000 0.000002 0.000000 0.000000 -0.479722
    11 0.000020 -0.000019 -14.561969 -0.491125 -0.084702 -2.516566
    12 17.731709 0.000001 0.000000 0.000000 0.000000 -1.258544
    13 21.987318 0.000000 0.000000 -2.660153 0.343139 0.719196
    14 4.324764 6.904406 1.903420 0.000000 -0.069778 1.832463
    15 1.707564 0.000000 0.000000 0.000000 0.000000 -0.130833
    16 1.707564 0.000000 0.000000 0.000000 0.000000 -0.479722
    17 4.324764 7.017686 -1.342621 0.000000 0.366333 1.832463
    18 1.821401 0.000000 -0.000001 0.000000 0.000000 -0.130833
    19 1.821401 0.000000 0.000000 0.000000 0.000000 -0.479722
    20 1.249477 0.004294 0.000002 0.000216 0.285544 2.050549
    21 11.689317 -0.009310 0.000000 0.000197 0.249973 0.000024
    22 11.689319 -0.001413 0.000000 0.000120 0.159683 0.000000
    23 1.773171 0.000000 0.000000 -0.077616 0.441853 -1.873883
    24 4.327651 4.634944 -2.428680 -3.141591 -1.570796 0.000000
    25 0.000000 0.000000 -0.346258 0.000000 0.000000 0.000000
    26 0.827268 -7.688719 -2.908663 0.000000 0.000000 0.000000
    27 1.167906 -7.494068 0.088223 0.000000 0.000000 0.000000
    28 1.508547 -6.764126 -3.865246 0.000000 0.000000 0.000000
    29 2.243070 5.364873 3.362189 -3.141591 -1.570796 0.000000
    30 0.000000 0.000000 0.000000 0.000000 0.000000 0.000000
    31 1.021918 -6.472149 -0.595725 0.000000 0.000000 0.000000
    32 0.973257 -7.396744 -2.793420 0.000000 0.000000 0.000000
    33 1.021919 -5.839535 -3.557765 0.000000 0.000000 0.000000
    34 -3.776780 2.834425 -11.528622 -3.141591 -1.570796 0.000000
    35 -0.145987 0.000000 0.730172 0.000000 0.000000 0.000000
    36 -2.384475 -6.374823 -2.048884 0.000000 0.000000 0.000000
    37 -1.021918 -3.601046 -1.439223 0.000000 0.000000 0.000000
    38 -0.243313 -4.720289 -1.673704 0.000000 0.000000 0.000000
    39 -2.264709 4.780907 8.909744 -3.141591 -1.570796 0.000000
    40 0.000000 0.000000 -0.000001 0.000000 0.000000 0.000000
    41 1.946511 -7.250753 -2.204917 0.000000 0.000000 0.000000
    42 1.605872 -3.649708 -1.822482 0.000000 0.000000 0.000000
    43 -0.729940 -3.941685 -1.419925 0.000000 0.000000 0.000000
    44 -4.189922 3.272375 -1.309439 -3.141591 -1.570796 0.000000
    45 0.000000 0.000000 0.000000 0.000000 0.000000 0.000000
    46 -1.265231 -7.396742 -6.605809 0.000000 0.000000 0.000000
    47 0.000001 -5.742207 -3.281358 0.000000 0.000000 0.000000
    48 0.048663 -5.596218 0.775174 0.000000 0.000000 0.000000
    49 0.256295 2.737098 -7.294960 -3.141591 -1.570796 0.000000
    50 0.000000 0.000000 1.089263 0.000000 0.000000 0.000000
    51 -2.335813 -8.126684 -0.811257 0.000000 0.000000 0.000000
    52 0.145988 -7.348078 -0.880992 0.000000 0.000000 0.000000
    53 0.048664 -7.299416 -5.811587 0.000000 0.000000 0.000000
    54 -0.388542 -14.131889 0.000034 0.000624 0.674077 -1.554278
    55 15.490297 -0.012333 0.000000 0.000621 0.665703 -0.009619
    56 15.491476 -0.012288 0.000000 0.000612 0.665677 0.086299
    57 15.487943 -0.014717 0.000000 0.000611 0.665678 -0.166617
  time 14
    0 0.152748 4.421663 34.202477 0.000000 0.000000 -1.570831
    1 0.667989 4.015748 0.000000 -1.570795 -1.570796 0.000000
    2 -0.000020 0.000021 14.561969 0.298466 -0.000560 -3.114077
    3 17.731709 0.000001 -0.000001 0.000000 0.000000 -1.539988
    4 21.987318 0.000000 0.000001 -0.295109 2.849980 -0.853294
    5 4.324764 6.780501 -1.982552 0.000000 -0.148275 1.832463
    6 1.707564 0.000000 -0.000001 0.000000 0.000000 -0.235493
    7 1.707564 0.000000 -0.000001 0.000000 0.000000 -0.479722
    8 4.324764 6.333147 1.238804 0.000000 0.061036 1.832463
    9 1.821401 0.000000 0.000000 0.000000 0.000000 -0.130833
    10 1.821401 0.000000 0.000002 0.000000 0.000000 -0.479722
    11 0.000020 -0.000019 -14.561969 -0.496857 -0.096831 -2.526848
    12 17.731709 0.000001 0.000000 0.000000 0.000000 -1.245799
    13 21.987318 0.000000 0.000000 -2.657228 0.351570 0.722277
    14 4.324764 6.904406 1.903420 0.000000 -0.069778 1.832463
    15 1.707564 0.000000 0.000000 0.000000 0.000000 -0.130833
    16 1.707564 0.000000 0.000000 0.000000 0.000000 -0.479722
    17 4.324764 7.017686 -1.342621 0.000000 0.366333 1.832463
    18 1.821401 0.000000 -0.000001 0.000000 0.000000 -0.130833
    19 1.821401 0.000000 0.000000 0.000000 0.000000 -0.479722
    20 1.249477 0.004294 0.000002 0.000199 0.258305 2.050519
    21 11.689317 -0.009310 0.000000 0.000179 0.232133 0.000000
    22 11.689319 -0.001413 0.000000 0.000132 0.165711 0.000000
    23 1.773171 0.000000 0.000000 -0.077148 0.434299 -1.884973
    24 4.327651 4.634944 -2.428680 -3.141591 -1.570796 0.000000
    25 0.000000 0.000000 -0.346258 0.000000 0.000000 0.000000
    26 0.827268 -7.688719 -2.908663 0.000000 0.000000 0.000000
    27 1.167906 -7.494068 0.088223 0.000000 0.000000 0.000000
    28 1.508547 -6.764126 -3.865246 0.000000 0.000000 0.000000
    29 2.243070 5.364873 3.362189 -3.141591 -1.570796 0.000000
    30 0.000000 0.000000 0.000000 0.000000 0.000000 0.000000
    31 1.021918 -6.472149 -0.595725 0.000000 0.000000 0.000000
    32 0.973257 -7.396744 -2.793420 0.000000 0.000000 0.000000
    33 1.021919 -5.839535 -3.557765 0.000000 0.000000 0.000000
    34 -3.776780 2.834425 -11.528622 -3.141591 -1.570796 0.000000
    35 -0.145987 0.000000 0.730172 0.000000 0.000000 0.000000
    36 -2.384475 -6.374823 -2.048884 0.000000 0.000000 0.000000
    37 -1.021918 -3.601046 -1.439223 0.000000 0.000000 0.000000
    38 -0.243313 -4.720289 -1.673704 0.000000 0.000000 0.000000
    39 -2.264709 4.780907 8.909744 -3.141591 -1.570796 0.000000
    40 0.000000 0.000000 -0.000001 0.000000 0.000000 0.000000
    41 1.946511 -7.250753 -2.204917 0.000000 0.000000 0.000000
    42 1.605872 -3.649708 -1.822482 0.000000 0.000000 0.000000
    43 -0.729940 -3.941685 -1.419925 0.000000 0.000000 0.000000
    44 -4.189922 3.272375 -1.309439 -3.141591 -1.570796 0.000000
    45 0.000000 0.000000 0.000000 0.000000 0.000000 0.000000
    46 -1.265231 -7.396742 -6.605809 0.000000 0.000000 0.000000
    47 0.000001 -5.742207 -3.281358 0.000000 0.000000 0.000000
    48 0.048663 -5.596218 0.775174 0.000000 0.000000 0.000000
    49 0.256295 2.737098 -7.294960 -3.141591 -1.570796 0.000000
    50 0.000000 0.000000 1.089263 0.000000 0.000000 0.000000
    51 -2.335813 -8.126684 -0.811257 0.000000 0.000000 0.000000
    52 0.145988 -7.348078 -0.880992 0.000000 0.000000 0.000000
    53 0.048664 -7.299416 -5.811587 0.000000 0.000000 0.000000
    54 -0.388542 -14.131889 0.000034 0.000588 0.650796 -1.554278
    55 15.490297 -0.012333 0.000000 0.000594 0.642089 -0.009655
    56 15.491476 -0.012288 0.000000 0.000595 0.642094 0.086299
    57 15.487943 -0.014717 0.000000 0.000579 0.642095 -0.166660
  time 15
    0 0.152748 4.421663 34.202477 0.000000 0.000000 -1.570831
    1 0.492203 3.457137 0.000000 -1.570795 -1.570796 0.000000
    2 -0.000020 0.000021 14.561969 0.294807 -0.028124 -3.059571
    3 17.731709 0.000001 -0.000001 0.000000 0.000000 -1.570054
    4 21.987318 0.000000 0.000001 -0.285694 2.844078 -0.880608
    5 4.324764 6.780501 -1.982552 0.000000 -0.148275 1.832463
    6 1.707564 0.000000 -0.000001 0.000000 0.000000 -0.235493
    7 1.707564 0.000000 -0.000001 0.000000 0.000000 -0.479722
    8 4.324764 6.333147 1.238804 0.000000 0.061036 1.832463
    9 1.821401 0.000000 0.000000 0.000000 0.000000 -0.130833
    10 1.821401 0.000000 0.000002 0.000000 0.000000 -0.479722
    11 0.000020 -0.000019 -14.561969 -0.505576 -0.114817 -2.541846
    12 17.731709 0.000001 0.000000 0.000000 0.000000 -1.226092
    13 21.987318 0.000000 0.000000 -2.652132 0.364029 0.726018
    14 4.324764 6.904406 1.903420 0.000000 -0.069778 1.832463
    15 1.707564 0.000000 0.000000 0.000000 0.000000 -0.130833
    16 1.707564 0.000000 0.000000 0.000000 0.000000 -0.479722
    17 4.324764 7.017686 -1.342621 0.000000 0.366333 1.832463
    18 1.821401 0.000000 -0.000001 0.000000 0.000000 -0.130833
    19 1.821401 0.000000 0.000000 0.000000 0.000000 -0.479722
    20 1.249477 0.004294 0.000002 0.000166 0.219807 2.050519
    21 11.689317 -0.009310 0.000000 0.000161 0.201701 0.000000
    22 11.689319 -0.001413 0.000000 0.000120 0.155740 0.000000
    23 1.773171 0.000000 0.000000 -0.075275 0.397636 -1.915717
    24 4.327651 4.634944 -2.428680 -3.141591 -1.570796 0.000000
    25 0.000000 0.000000 -0.346258 0.000000 0.000000 0.000000
    26 0.827268 -7.688719 -2.908663 0.000000 0.000000 0.000000
    27 1.167906 -7.494068 0.088223 0.000000 0.000000 0.000000
    28 1.508547 -6.764126 -3.865246 0.000000 0.000000 0.000000
    29 2.243070 5.364873 3.362189 -3.141591 -1.570796 0.000000
    30 0.000000 0.000000 0.000000 0.000000 0.000000 0.000000
    31 1.021918 -6.472149 -0.595725 0.000000 0.000000 0.000000
    32 0.973257 -7.396744 -2.793420 0.000000 0.000000 0.000000
    33 1.021919 -5.839535 -3.557765 0.000000 0.000000 0.000000
    34 -3.776780 2.834425 -11.528622 -3.141591 -1.570796 0.000000
    35 -0.145987 0.000000 0.730172 0.000000 0.000000 0.000000
    36 -2.384475 -6.374823 -2.048884 0.000000 0.000000 0.000000
    37 -1.021918 -3.601046 -1.439223 0.000000 0.000000 0.000000
    38 -0.243313 -4.720289 -1.673704 0.000000 0.000000 0.000000
    39 -2.264709 4.780907 8.909744 -3.141591 -1.570796 0.000000
    40 0.000000 0.000000 -0.000001 0.000000 0.000000 0.000000
    41 1.946511 -7.250753 -2.204917 0.000000 0.000000 0.000000
    42 1.605872 -3.649708 -1.822482 0.000000 0.000000 0.000000
    43 -0.729940 -3.941685 -1.419925 0.000000 0.000000 0.000000
    44 -4.189922 3.272375 -1.309439 -3.141591 -1.570796 0.000000
    45 0.000000 0.000000 0.000000 0.000000 0.000000 0.000000
    46 -1.265231 -7.396742 -6.605809 0.000000 0.000000 0.000000
    47 0.000001 -5.742207 -3.281358 0.000000 0.000000 0.000000
    48 0.048663 -5.596218 0.775174 0.000000 0.000000 0.000000
    49 0.256295 2.737098 -7.294960 -3.141591 -1.570796 0.000000
    50 0.000000 0.000000 1.089263 0.000000 0.000000 0.000000
    51 -2.335813 -8.126684 -0.811257 0.000000 0.000000 0.000000
    52 0.145988 -7.348078 -0.880992 0.000000 0.000000 0.000000
    53 0.048664 -7.299416 -5.811587 0.000000 0.000000 0.000000
    54 -0.388542 -14.131889 0.000034 0.000516 0.582171 -1.554324
    55 15.490297 -0.012333 0.000000 0.000513 0.573998 -0.009690
    56 15.491476 -0.012288 0.000000 0.000510 0.573972 0.086262
    57 15.487943 -0.014717 0.000000 0.000514 0.573972 -0.166703
  time 16
    0 0.152748 4.421663 34.202477 0.000000 0.000000 -1.570831
    1 0.265633 2.558672 0.000000 -1.570795 -1.570796 0.000000
    2 -0.000020 0.000021 14.561969 0.279126 -0.094065 -2.952506
    3 17.731709 0.000001 -0.000001 0.000000 0.000000 -1.593817
    4 21.987318 0.000000 0.000001 -0.290966 2.853013 -1.081260
    5 4.324764 6.780501 -1.982552 0.000000 -0.132609 1.832463
    6 1.707564 0.000000 -0.000001 0.000000 0.000000 -0.224407
    7 1.707564 0.000000 -0.000001 0.000000 0.000000 -0.479722
    8 4.324764 6.333147 1.238804 0.000000 0.019561 1.832463
    9 1.821401 0.000000 0.000000 0.000000 0.000000 -0.130833
    10 1.821401 0.000000 0.000002 0.000000 0.000000 -0.479722
    11 0.000020 -0.000019 -14.561969 -0.519310 -0.143572 -2.564954
    12 17.731709 0.000001 0.000000 0.000000 0.000000 -1.192413
    13 21.987318 0.000000 0.000000 -2.643073 0.384075 0.729759
    14 4.324764 6.904406 1.903420 0.000000 -0.069778 1.832463
    15 1.707564 0.000000 0.000000 0.000000 0.000000 -0.130833
    16 1.707564 0.000000 0.000000 0.000000 0.000000 -0.479722
    17 4.324764 7.017686 -1.342621 0.000000 0.366333 1.832463
    18 1.821401 0.000000 -0.000001 0.000000 0.000000 -0.130833
    19 1.821401 0.000000 0.000000 0.000000 0.000000 -0.479722
    20 1.249477 0.004294 0.000002 0.000115 0.160861 2.050519
    21 11.689317 -0.009310 0.000000 0.000108 0.149899 0.000000
    22 11.689319 -0.001413 0.000000 0.000096 0.122111 0.000000
    23 1.773171 0.000000 0.000000 -0.065695 0.310760 -1.968194
    24 4.327651 4.634944 -2.428680 -3.141591 -1.570796 0.000000
    25 0.000000 0.000000 -0.346258 0.000000 0.000000 0.000000
    26 0.827268 -7.688719 -2.908663 0.000000 0.000000 0.000000
    27 1.167906 -7.494068 0.088223 0.000000 0.000000 0.000000
    28 1.508547 -6.764126 -3.865246 0.000000 0.000000 0.000000
    29 2.243070 5.364873 3.362189 -3.141591 -1.570796 0.000000
    30 0.000000 0.000000 0.000000 0.000000 0.000000 0.000000
    31 1.021918 -6.472149 -0.595725 0.000000 0.000000 0.000000
    32 0.973257 -7.396744 -2.793420 0.000000 0.000000 0.000000
    33 1.021919 -5.839535 -3.557765 0.000000 0.000000 0.000000
    34 -3.776780 2.834425 -11.528622 -3.141591 -1.570796 0.000000
    35 -0.145987 0.000000 0.730172 0.000000 0.000000 0.000000
    36 -2.384475 -6.374823 -2.048884 0.000000 0.000000 0.000000
    37 -1.021918 -3.601046 -1.439223 0.000000 0.000000 0.000000
    38 -0.243313 -4.720289 -1.673704 0.000000 0.000000 0.000000
    39 -2.264709 4.780907 8.909744 -3.141591 -1.570796 0.000000
    40 0.000000 0.000000 -0.000001 0.000000 0.000000 0.000000
    41 1.946511 -7.250753 -2.204917 0.000000 0.000000 0.000000
    42 1.605872 -3.649708 -1.822482 0.000000 0.000000 0.000000
    43 -0.729940 -3.941685 -1.419925 0.000000 0.000000 0.000000
    44 -4.189922 3.272375 -1.309439 -3.141591 -1.570796 0.000000
    45 0.000000 0.000000 0.000000 0.000000 0.000000 0.000000
    46 -1.265231 -7.396742 -6.605809 0.000000 0.000000 0.000000
    47 0.000001 -5.742207 -3.281358 0.000000 0.000000 0.000000
    48 0.048663 -5.596218 0.775174 0.000000 0.000000 0.000000
    49 0.256295 2.737098 -7.294960 -3.141591 -1.570796 0.000000
    50 0.000000 0.000000 1.089263 0.000000 0.000000 0.000000
    51 -2.335813 -8.126684 -0.811257 0.000000 0.000000 0.000000
    52 0.145988 -7.348078 -0.880992 0.000000 0.000000 0.000000
    53 0.048664 -7.299416 -5.811587 0.000000 0.000000 0.000000
    54 -0.388542 -14.131889 0.000034 0.000373 0.441732 -1.554417
    55 15.490297 -0.012333 0.000000 0.000365 0.435328 -0.009762
    56 15.491476 -0.012288 0.000000 0.000357 0.435327 0.086186
    57 15.487943 -0.014717 0.000000 0.000354 0.435328 -0.166790
  time 17
    0 0.152748 4.421663 34.202477 0.000000 0.000000 -1.570831
    1 0.093753 1.527390 0.000000 -1.570795 -1.570796 0.000000
    2 -0.000020 0.000021 14.561969 0.226258 -0.221322 -2.753578
    3 17.731709 0.000001 -0.000001 0.000000 0.000000 -1.595725
    4 21.987318 0.000000 0.000001 -0.320623 2.861293 -1.537289
    5 4.324764 6.780501 -1.982552 0.000000 -0.072340 1.832463
    6 1.707564 0.000000 -0.000001 0.000000 0.000000 -0.181887
    7 1.707564 0.000000 -0.000001 0.000000 0.000000 -0.479722
    8 4.324764 6.333147 1.238804 0.000000 -0.139960 1.832463
    9 1.821401 0.000000 0.000000 0.000000 0.000000 -0.130833
    10 1.821401 0.000000 0.000002 0.000000 0.000000 -0.479722
    11 0.000020 -0.000019 -14.561969 -0.376474 0.058296 -2.527431
    12 17.731709 0.000001 0.000000 0.000000 0.000000 -1.387958
    13 21.987318 0.000000 0.000000 -2.685065 0.168342 0.791963
    14 4.324764 6.904406 1.903420 0.000000 -0.069778 1.832463
    15 1.707564 0.000000 0.000000 0.000000 0.000000 -0.130833
    16 1.707564 0.000000 0.000000 0.000000 0.000000 -0.479722
    17 4.324764 7.017686 -1.342621 0.000000 0.366333 1.832463
    18 1.821401 0.000000 -0.000001 0.000000 0.000000 -0.130833
    19 1.821401 0.000000 0.000000 0.000000 0.000000 -0.479722
    20 1.249477 0.004294 0.000002 0.000064 0.095376 2.050519
    21 11.689317 -0.009310 0.000000 0.000054 0.089412 0.000000
    22 11.689319 -0.001413 0.000000 0.000048 0.074257 0.000000
    23 1.773171 0.000000 0.000000 -0.044483 0.191083 -2.015461
    24 4.327651 4.634944 -2.428680 -3.141591 -1.570796 0.000000
    25 0.000000 0.000000 -0.346258 0.000000 0.000000 0.000000
    26 0.827268 -7.688719 -2.908663 0.000000 0.000000 0.000000
    27 1.167906 -7.494068 0.088223 0.000000 0.000000 0.000000
    28 1.508547 -6.764126 -3.865246 0.000000 0.000000 0.000000
    29 2.243070 5.364873 3.362189 -3.141591 -1.570796 0.000000
    30 0.000000 0.000000 0.000000 0.000000 0.000000 0.000000
    31 1.021918 -6.472149 -0.595725 0.000000 0.000000 0.000000
    32 0.973257 -7.396744 -2.793420 0.000000 0.000000 0.000000
    33 1.021919 -5.839535 -3.557765 0.000000 0.000000 0.000000
    34 -3.776780 2.834425 -11.528622 -3.141591 -1.570796 0.000000
    35 -0.145987 0.000000 0.730172 0.000000 0.000000 0.000000
    36 -2.384475 -6.374823 -2.048884 0.000000 0.000000 0.000000
    37 -1.021918 -3.601046 -1.439223 0.000000 0.000000 0.000000
    38 -0.243313 -4.720289 -1.673704 0.000000 0.000000 0.000000
    39 -2.264709 4.780907 8.909744 -3.141591 -1.570796 0.000000
    40 0.000000 0.000000 -0.000001 0.000000 0.000000 0.000000
    41 1.946511 -7.250753 -2.204917 0.000000 0.000000 0.000000
    42 1.605872 -3.649708 -1.822482 0.000000 0.000000 0.000000
    43 -0.729940 -3.941685 -1.419925 0.000000 0.000000 0.000000
    44 -4.189922 3.272375 -1.309439 -3.141591 -1.570796 0.000000
    45 0.000000 0.000000 0.000000 0.000000 0.000000 0.000000
    46 -1.265231 -7.396742 -6.605809 0.000000 0.000000 0.000000
    47 0.000001 -5.742207 -3.281358 0.000000 0.000000 0.000000
    48 0.048663 -5.596218 0.775174 0.000000 0.000000 0.000000
    49 0.256295 2.737098 -7.294960 -3.141591 -1.570796 0.000000
    50 0.000000 0.000000 1.089263 0.000000 0.000000 0.000000
    51 -2.335813 -8.126684 -0.811257 0.000000 0.000000 0.000000
    52 0.145988 -7.348078 -0.880992 0.000000 0.000000 0.000000
    53 0.048664 -7.299416 -5.811587 0.000000 0.000000 0.000000
    54 -0.388542 -14.131889 0.000034 0.000213 0.265511 -1.554463
    55 15.490297 -0.012333 0.000000 0.000203 0.261616 -0.009833
    56 15.491476 -0.012288 0.000000 0.000204 0.261592 0.086111
    57 15.487943 -0.014717 0.000000 0.000193 0.261593 -0.166833
  time 18
    0 0.152748 4.421663 34.202477 0.000000 0.000000 -1.570831
    1 0.015625 0.671896 0.000000 -1.570795 -1.570796 0.000000
    2 -0.000020 0.000021 14.561969 0.149720 -0.332016 -2.553908
    3 17.731709 0.000001 -0.000001 0.000000 0.000000 -1.564829
    4 21.987318 0.000000 0.000001 2.761420 0.271653 1.126490
    5 4.324764 6.780501 -1.982552 0.000000 -0.031480 1.832463
    6 1.707564 0.000000 -0.000001 0.000000 0.000000 -0.153041
    7 1.707564 0.000000 -0.000001 0.000000 0.000000 -0.479722
    8 4.324764 6.333147 1.238804 0.000000 -0.248091 1.832463
    9 1.821401 0.000000 0.000000 0.000000 0.000000 -0.130833
    10 1.821401 0.000000 0.000002 0.000000 0.000000 -0.479722
    11 0.000020 -0.000019 -14.561969 -0.228205 0.244732 -2.461076
    12 17.731709 0.000001 0.000000 0.000000 0.000000 -1.623355
    13 21.987318 0.000000 0.000000 -2.697522 -0.041116 0.907790
    14 4.324764 6.904406 1.903420 0.000000 -0.069778 1.832463
    15 1.707564 0.000000 0.000000 0.000000 0.000000 -0.130833
    16 1.707564 0.000000 0.000000 0.000000 0.000000 -0.479722
    17 4.324764 7.017686 -1.342621 0.000000 0.366333 1.832463
    18 1.821401 0.000000 -0.000001 0.000000 0.000000 -0.130833
    19 1.821401 0.000000 0.000000 0.000000 0.000000 -0.479722
    20 1.249477 0.004294 0.000002 0.000014 0.041883 2.050519
    21 11.689317 -0.009310 0.000000 0.000018 0.038999 0.000000
    22 11.689319 -0.001413 0.000000 0.000024 0.031747 0.000000
    23 1.773171 0.000000 0.000000 -0.020497 0.083443 -2.040549
    24 4.327651 4.634944 -2.428680 -3.141591 -1.570796 0.000000
    25 0.000000 0.000000 -0.346258 0.000000 0.000000 0.000000
    26 0.827268 -7.688719 -2.908663 0.000000 0.000000 0.000000
    27 1.167906 -7.494068 0.088223 0.000000 0.000000 0.000000
    28 1.508547 -6.764126 -3.865246 0.000000 0.000000 0.000000
    29 2.243070 5.364873 3.362189 -3.141591 -1.570796 0.000000
    30 0.000000 0.000000 0.000000 0.000000 0.000000 0.000000
    31 1.021918 -6.472149 -0.595725 0.000000 0.000000 0.000000
    32 0.973257 -7.396744 -2.793420 0.000000 0.000000 0.000000
    33 1.021919 -5.839535 -3.557765 0.000000 0.000000 0.000000
    34 -3.776780 2.834425 -11.528622 -3.141591 -1.570796 0.000000
    35 -0.145987 0.000000 0.730172 0.000000 0.000000 0.000000
    36 -2.384475 -6.374823 -2.048884 0.000000 0.000000 0.000000
    37 -1.021918 -3.601046 -1.439223 0.000000 0.000000 0.000000
    38 -0.243313 -4.720289 -1.673704 0.000000 0.000000 0.000000
    39 -2.264709 4.780907 8.909744 -3.141591 -1.570796 0.000000
    40 0.000000 0.000000 -0.000001 0.000000 0.000000 0.000000
    41 1.946511 -7.250753 -2.204917 0.000000 0.000000 0.000000
    42 1.605872 -3.649708 -1.822482 0.000000 0.000000 0.000000
    43 -0.729940 -3.941685 -1.419925 0.000000 0.000000 0.000000
    44 -4.189922 3.272375 -1.309439 -3.141591 -1.570796 0.000000
    45 0.000000 0.000000 0.000000 0.000000 0.000000 0.000000
    46 -1.265231 -7.396742 -6.605809 0.000000 0.000000 0.000000
    47 0.000001 -5.742207 -3.281358 0.000000 0.000000 0.000000
    48 0.048663 -5.596218 0.775174 0.000000 0.000000 0.000000
    49 0.256295 2.737098 -7.294960 -3.141591 -1.570796 0.000000
    50 0.000000 0.000000 1.089263 0.000000 0.000000 0.000000
    51 -2.335813 -8.126684 -0.811257 0.000000 0.000000 0.000000
    52 0.145988 -7.348078 -0.880992 0.000000 0.000000 0.000000
    53 0.048664 -7.299416 -5.811587 0.000000 0.000000 0.000000
    54 -0.388542 -14.131889 0.000034 0.000087 0.114936 -1.554463
    55 15.490297 -0.012333 0.000000 0.000081 0.113248 -0.009833
    56 15.491476 -0.012288 0.000000 0.000085 0.113232 0.086111
    57 15.487943 -0.014717 0.000000 0.000064 0.113233 -0.166833
  time 19
    0 0.152748 4.421663 34.202477 0.000000 0.000000 -1.570831
    1 0.000000 0.171880 0.000000 -1.570795 -1.570796 0.000000
    2 -0.000020 0.000021 14.561969 0.084009 -0.396644 -2.409671
    3 17.731709 0.000001 -0.000001 0.000000 0.000000 -1.438591
    4 21.987318 0.000000 0.000001 2.705402 0.255094 0.700068
    5 4.324764 6.780501 -1.982552 0.000000 -0.011166 1.832463
    6 1.707564 0.000000 -0.000001 0.000000 0.000000 -0.138710
    7 1.707564 0.000000 -0.000001 0.000000 0.000000 -0.479722
    8 4.324764 6.333147 1.238804 0.000000 -0.301886 1.832463
    9 1.821401 0.000000 0.000000 0.000000 0.000000 -0.130833
    10 1.821401 0.000000 0.000002 0.000000 0.000000 -0.479722
    11 0.000020 -0.000019 -14.561969 -0.107762 0.371854 -2.392602
    12 17.731709 0.000001 0.000000 0.000000 0.000000 -1.449227
    13 21.987318 0.000000 0.000000 -2.690916 -0.192495 0.647088
    14 4.324764 6.904406 1.903420 0.000000 -0.069778 1.832463
    15 1.707564 0.000000 0.000000 0.000000 0.000000 -0.130833
    16 1.707564 0.000000 0.000000 0.000000 0.000000 -0.479722
    17 4.324764 7.017686 -1.342621 0.000000 0.366333 1.832463
    18 1.821401 0.000000 -0.000001 0.000000 0.000000 -0.130833
    19 1.821401 0.000000 0.000000 0.000000 0.000000 -0.479722
    20 1.249477 0.004294 0.000002 -0.000003 0.010807 2.050519
    21 11.689317 -0.009310 0.000000 0.000000 0.009885 0.000000
    22 11.689319 -0.001413 0.000000 0.000000 0.007550 0.000000
    23 1.773171 0.000000 0.000000 -0.005190 0.020595 -2.048858
    24 4.327651 4.634944 -2.428680 -3.141591 -1.570796 0.000000
    25 0.000000 0.000000 -0.346258 0.000000 0.000000 0.000000
    26 0.827268 -7.688719 -2.908663 0.000000 0.000000 0.000000
    27 1.167906 -7.494068 0.088223 0.000000 0.000000 0.000000
    28 1.508547 -6.764126 -3.865246 0.000000 0.000000 0.000000
    29 2.243070 5.364873 3.362189 -3.141591 -1.570796 0.000000
    30 0.000000 0.000000 0.000000 0.000000 0.000000 0.000000
    31 1.021918 -6.472149 -0.595725 0.000000 0.000000 0.000000
    32 0.973257 -7.396744 -2.793420 0.000000 0.000000 0.000000
    33 1.021919 -5.839535 -3.557765 0.000000 0.000000 0.000000
    34 -3.776780 2.834425 -11.528622 -3.141591 -1.570796 0.000000
    35 -0.145987 0.000000 0.730172 0.000000 0.000000 0.000000
    36 -2.384475 -6.374823 -2.048884 0.000000 0.000000 0.000000
    37 -1.021918 -3.601046 -1.439223 0.000000 0.000000 0.000000
    38 -0.243313 -4.720289 -1.673704 0.000000 0.000000 0.000000
    39 -2.264709 4.780907 8.909744 -3.141591 -1.570796 0.000000
    40 0.000000 0.000000 -0.000001 0.000000 0.000000 0.000000
    41 1.946511 -7.250753 -2.204917 0.000000 0.000000 0.000000
    42 1.605872 -3.649708 -1.822482 0.000000 0.000000 0.000000
    43 -0.729940 -3.941685 -1.419925 0.000000 0.000000 0.000000
    44 -4.189922 3.272375 -1.309439 -3.141591 -1.570796 0.000000
    45 0.000000 0.000000 0.000000 0.000000 0.000000 0.000000
    46 -1.265231 -7.396742 -6.605809 0.000000 0.000000 0.000000
    47 0.000001 -5.742207 -3.281358 0.000000 0.000000 0.000000
    48 0.048663 -5.596218 0.775174 0.000000 0.000000 0.000000
    49 0.256295 2.737098 -7.294960 -3.141591 -1.570796 0.000000
    50 0.000000 0.000000 1.089263 0.000000 0.000000 0.000000
    51 -2.335813 -8.126684 -0.811257 0.000000 0.000000 0.000000
    52 0.145988 -7.348078 -0.880992 0.000000 0.000000 0.000000
    53 0.048664 -7.299416 -5.811587 0.000000 0.000000 0.000000
    54 -0.388542 -14.131889 0.000034 0.000016 0.028402 -1.554463
    55 15.490297 -0.012333 0.000000 0.000014 0.028017 -0.009833
    56 15.491476 -0.012288 0.000000 0.000017 0.028003 0.086111
    57 15.487943 -0.014717 0.000000 0.000000 0.028004 -0.166833
  time 20
    0 0.152748 4.421663 34.202477 0.000000 0.000000 -1.570831
    1 0.000000 0.000000 0.000000 -1.570795 -1.570796 0.000000
    2 -0.000020 0.000021 14.561969 0.060711 -0.415458 -2.363137
    3 17.731709 0.000001 -0.000001 0.000000 0.000000 -1.360542
    4 21.987318 0.000000 0.000001 2.685254 0.246733 0.526347
    5 4.324764 6.780501 -1.982552 0.000000 0.000000 1.832463
    6 1.707564 0.000000 -0.000001 0.000000 0.000000 -0.130833
    7 1.707564 0.000000 -0.000001 0.000000 0.000000 -0.479722
    8 4.324764 6.333147 1.238804 0.000000 -0.331445 1.832463
    9 1.821401 0.000000 0.000000 0.000000 0.000000 -0.130833
    10 1.821401 0.000000 0.000002 0.000000 0.000000 -0.479722
    11 0.000020 -0.000019 -14.561969 -0.060707 0.415458 -2.363135
    12 17.731709 0.000001 0.000000 0.000000 0.000000 -1.360542
    13 21.987318 0.000000 0.000000 -2.685254 -0.246733 0.526347
    14 4.324764 6.904406 1.903420 0.000000 -0.069778 1.832463
    15 1.707564 0.000000 0.000000 0.000000 0.000000 -0.130833
    16 1.707564 0.000000 0.000000 0.000000 0.000000 -0.479722
    17 4.324764 7.017686 -1.342621 0.000000 0.366333 1.832463
    18 1.821401 0.000000 -0.000001 0.000000 0.000000 -0.130833
    19 1.821401 0.000000 0.000000 0.000000 0.000000 -0.479722
    20 1.249477 0.004294 0.000002 -0.000003 0.000002 2.050519
    21 11.689317 -0.009310 0.000000 0.000000 0.000000 0.000000
    22 11.689319 -0.001413 0.000000 0.000000 0.000000 0.000000
    23 1.773171 0.000000 0.000000 -0.000004 0.000002 -2.050520
    24 4.327651 4.634944 -2.428680 -3.141591 -1.570796 0.000000
    25 0.000000 0.000000 -0.346258 0.000000 0.000000 0.000000
    26 0.827268 -7.688719 -2.908663 0.000000 0.000000 0.000000
    27 1.167906 -7.494068 0.088223 0.000000 0.000000 0.000000
    28 1.508547 -6.764126 -3.865246 0.000000 0.000000 0.000000
    29 2.243070 5.364873 3.362189 -3.141591 -1.570796 0.000000
    30 0.000000 0.000000 0.000000 0.000000 0.000000 0.000000
    31 1.021918 -6.472149 -0.595725 0.000000 0.000000 0.000000
    32 0.973257 -7.396744 -2.793420 0.000000 0.000000 0.000000
    33 1.021919 -5.839535 -3.557765 0.000000 0.000000 0.000000
    34 -3.776780 2.834425 -11.528622 -3.141591 -1.570796 0.000000
    35 -0.145987 0.000000 0.730172 0.000000 0.000000 0.000000
    36 -2.384475 -6.374823 -2.048884 0.000000 0.000000 0.000000
    37 -1.021918 -3.601046 -1.439223 0.000000 0.000000 0.000000
    38 -0.243313 -4.720289 -1.673704 0.000000 0.000000 0.000000
    39 -2.264709 4.780907 8.909744 -3.141591 -1.570796 0.000000
    40 0.000000 0.000000 -0.000001 0.000000 0.000000 0.000000
    41 1.946511 -7.250753 -2.204917 0.000000 0.000000 0.000000
    42 1.605872 -3.649708 -1.822482 0.000000 0.000000 0.000000
    43 -0.729940 -3.941685 -1.419925 0.000000 0.000000 0.000000
    44 -4.189922 3.272375 -1.309439 -3.141591 -1.570796 0.000000
    45 0.000000 0.000000 0.000000 0.000000 0.000000 0.000000
    46 -1.265231 -7.396742 -6.605809 0.000000 0.000000 0.000000
    47 0.000001 -5.742207 -3.281358 0.000000 0.000000 0.000000
    48 0.048663 -5.596218 0.775174 0.000000 0.000000 0.000000
    49 0.256295 2.737098 -7.294960 -3.141591 -1.570796 0.000000
    50 0.000000 0.000000 1.089263 0.000000 0.000000 0.000000
    51 -2.335813 -8.126684 -0.811257 0.000000 0.000000 0.000000
    52 0.145988 -7.348078 -0.880992 0.000000 0.000000 0.000000
    53 0.048664 -7.299416 -5.811587 0.000000 0.000000 0.000000
    54 -0.388542 -14.131889 0.000034 -0.000002 -0.000001 -1.554463
    55 15.490297 -0.012333 0.000000 0.000000 0.000000 -0.009833
    56 15.491476 -0.012288 0.000000 0.000000 0.000000 0.086111
    57 15.487943 -0.014717 0.000000 0.000000 0.000001 -0.166833
end
