version 1
nodes
  0 "Hands biped" -1
  1 "Bip01 Pelvis" 0
  2 "Bip01 Spine" 1
  3 "Bip01 Spine1" 2
  4 "Bip01 Spine2" 3
  5 "Bip01 Spine3" 4
  6 "Bip01 Neck" 5
  7 "Bip01 R Arm" 6
  8 "Bip01 R Arm1" 7
  9 "Bip01 R Arm2" 8
  10 "Bip01 R Hand" 9
  11 "Dummy22" 10
  12 "Dummy23" 11
  13 "Bone03" 12
  14 "Bone04" 13
  15 "Bip01 L Arm" 6
  16 "Bip01 L Arm1" 15
  17 "Bip01 L Arm2" 16
  18 "Bip01 L Hand" 17
  19 "Bip01 L Finger0" 18
  20 "Bip01 L Finger01" 19
  21 "Bip01 L Finger02" 20
  22 "Bip01 L Finger1" 18
  23 "Bip01 L Finger11" 22
  24 "Bip01 L Finger12" 23
  25 "Bip01 L Finger2" 18
  26 "Bip01 L Finger21" 25
  27 "Bip01 L Finger22" 26
  28 "Bip01 L Finger3" 18
  29 "Bip01 L Finger31" 28
  30 "Bip01 L Finger32" 29
  31 "Bip01 L Finger4" 18
  32 "Bip01 L Finger41" 31
  33 "Bip01 L Finger42" 32
  34 "Bip01 R Finger0" 10
  35 "Bip01 R Finger01" 34
  36 "Bip01 R Finger02" 35
  37 "Bip01 R Finger1" 10
  38 "Bip01 R Finger11" 37
  39 "Bip01 R Finger12" 38
  40 "Bip01 R Finger2" 10
  41 "Bip01 R Finger21" 40
  42 "Bip01 R Finger22" 41
  43 "Bip01 R Finger3" 10
  44 "Bip01 R Finger31" 43
  45 "Bip01 R Finger32" 44
  46 "Bip01 R Finger4" 10
  47 "Bip01 R Finger41" 46
  48 "Bip01 R Finger42" 47
end
skeleton
  time 0
    0 0.001747 1.140660 -24.602341 0.000000 0.000000 -1.570795
    1 0.000000 0.000000 0.000000 -1.570795 -1.570796 0.000000
    2 1.326317 -0.003921 0.000002 -0.000004 0.000006 0.000793
    3 4.926311 -0.003899 0.000102 0.000000 -0.000001 0.000000
    4 4.926307 -0.003899 0.000040 0.000000 0.000000 -0.000003
    5 4.926314 -0.003884 0.000040 0.000000 0.000001 0.000003
    6 4.926305 -0.001485 0.000165 0.000000 -0.000002 -0.000003
    7 -0.000004 0.001514 -1.894737 3.142341 1.570798 -0.000022
    8 4.926327 0.000464 -0.000031 0.811261 -1.319434 -0.812095
    9 11.368442 0.000012 0.000013 -0.000004 -0.000001 -1.334739
    10 11.368369 0.000090 -0.000135 2.122279 -0.209263 0.767935
    11 3.671029 0.966001 0.311074 -0.025348 -0.035794 1.366912
    12 0.468048 0.919459 2.661563 0.000001 0.000000 -0.000001
    13 -0.492027 -0.160314 0.005983 -0.000002 0.000000 0.000000
    14 0.383202 0.108206 0.000005 0.000000 0.000000 0.000000
    15 0.000002 0.001503 1.894737 -0.000014 -1.370797 3.140810
    16 4.926316 0.000000 0.000000 2.549027 0.486899 1.417178
    17 11.368423 0.000000 0.000000 0.000000 0.000000 -0.002385
    18 11.368422 0.000000 0.000000 -1.632105 0.145718 0.200311
    19 1.126229 0.104083 -1.358370 2.108798 0.482283 0.315505
    20 2.373624 0.000000 0.000001 0.000000 0.000000 0.113389
    21 1.071901 0.000000 -0.000001 0.000000 0.000000 0.017444
    22 3.789474 -0.000905 -1.136842 0.055869 0.146797 0.370353
    23 1.136843 0.000000 0.000000 0.000000 0.000000 0.200610
    24 1.136842 0.000000 0.000000 0.000000 0.000000 0.540751
    25 3.789474 -0.000302 -0.378947 0.069525 0.099197 0.719050
    26 1.326316 0.000000 0.000000 0.000000 0.000000 -0.104618
    27 1.326316 0.000000 0.000000 0.000000 0.000000 0.924519
    28 3.789474 0.000302 0.378947 -0.007937 0.043290 0.383571
    29 1.136841 -0.000001 0.000000 0.000000 0.000000 0.357607
    30 1.136842 0.000000 0.000000 0.000000 0.000000 0.915797
    31 3.789474 0.000904 1.136842 -0.063498 -0.094196 0.385109
    32 0.947368 0.000000 0.000000 0.000000 0.000000 0.950659
    33 0.947368 0.000000 0.000000 0.000000 0.000000 0.069768
    34 1.126229 0.104084 1.358370 -2.374981 -1.083006 0.431341
    35 2.373624 0.000000 0.000000 0.000000 0.000000 0.941977
    36 1.071901 0.000000 -0.000001 0.000000 0.000000 0.418665
    37 3.789474 -0.000905 1.136842 -0.098283 -0.272467 0.674683
    38 1.136843 0.000000 0.000000 0.000000 0.000000 0.279092
    39 1.136842 0.000000 0.000000 0.000000 0.000000 1.360667
    40 3.789475 -0.000301 0.378947 -0.047821 -0.175994 0.661009
    41 1.326315 0.000000 0.000000 0.000000 0.000000 0.279101
    42 1.326317 0.000000 0.000000 0.000000 0.000000 1.369348
    43 3.789474 0.000302 -0.378947 0.000638 -0.000469 0.654149
    44 1.136842 0.000000 0.000000 0.000000 0.000000 0.218045
    45 1.136843 -0.000001 0.000000 0.000000 0.000000 1.308254
    46 3.789474 0.000905 -1.136842 0.105732 0.104131 0.790521
    47 0.947368 0.000000 0.000000 0.000000 0.000000 0.279105
    48 0.947368 0.000000 0.000000 0.000000 0.000000 0.837281
  time 1
    0 0.001747 1.140660 -24.602341 0.000000 0.000000 -1.570795
    1 0.000000 0.000000 0.000000 -1.570795 -1.570796 0.000000
    2 1.326317 -0.003921 0.000002 -0.000004 0.000006 0.000793
    3 4.926311 -0.003899 0.000102 0.000000 -0.000001 0.000000
    4 4.926307 -0.003899 0.000040 0.000000 0.000000 -0.000003
    5 4.926314 -0.003884 0.000040 0.000000 0.000001 0.000003
    6 4.926305 -0.001485 0.000165 0.000000 -0.000002 -0.000003
    7 -0.000004 0.001514 -1.894737 3.142341 1.570798 -0.000022
    8 4.926327 0.000464 -0.000031 0.840563 -1.310782 -0.841574
    9 11.368442 0.000012 0.000013 -0.000004 -0.000001 -1.401633
    10 11.368369 0.000090 -0.000135 2.129603 -0.237717 0.710573
    11 3.671029 0.966001 0.311074 -0.025348 -0.035794 1.366912
    12 0.468048 0.919459 2.661563 0.000001 0.000000 -0.000001
    13 -0.492027 -0.160314 0.005983 -0.000002 0.000000 0.000000
    14 0.383202 0.108206 0.000005 -0.157698 -0.028148 0.197251
    15 0.000002 0.001503 1.894737 -0.000014 -1.370797 3.140810
    16 4.926316 0.000000 0.000000 2.549027 0.486899 1.417178
    17 11.368423 0.000000 0.000000 0.000000 0.000000 -0.002385
    18 11.368422 0.000000 0.000000 -1.632105 0.145718 0.200311
    19 1.126229 0.104083 -1.358370 2.108798 0.482283 0.315505
    20 2.373624 0.000000 0.000001 0.000000 0.000000 0.113389
    21 1.071901 0.000000 -0.000001 0.000000 0.000000 0.017444
    22 3.789474 -0.000905 -1.136842 0.055869 0.146797 0.370353
    23 1.136843 0.000000 0.000000 0.000000 0.000000 0.200610
    24 1.136842 0.000000 0.000000 0.000000 0.000000 0.540751
    25 3.789474 -0.000302 -0.378947 0.069525 0.099197 0.719050
    26 1.326316 0.000000 0.000000 0.000000 0.000000 -0.104618
    27 1.326316 0.000000 0.000000 0.000000 0.000000 0.924519
    28 3.789474 0.000302 0.378947 -0.007937 0.043290 0.383571
    29 1.136841 -0.000001 0.000000 0.000000 0.000000 0.357607
    30 1.136842 0.000000 0.000000 0.000000 0.000000 0.915797
    31 3.789474 0.000904 1.136842 -0.063498 -0.094196 0.385109
    32 0.947368 0.000000 0.000000 0.000000 0.000000 0.950659
    33 0.947368 0.000000 0.000000 0.000000 0.000000 0.069768
    34 1.126229 0.104084 1.358370 -2.374981 -1.083006 0.431341
    35 2.373624 0.000000 0.000000 0.000000 0.000000 0.941977
    36 1.071901 0.000000 -0.000001 0.000000 0.000000 0.418665
    37 3.789474 -0.000905 1.136842 -0.098283 -0.272467 0.674683
    38 1.136843 0.000000 0.000000 0.000000 0.000000 0.279092
    39 1.136842 0.000000 0.000000 0.000000 0.000000 1.360667
    40 3.789475 -0.000301 0.378947 -0.047821 -0.175994 0.661009
    41 1.326315 0.000000 0.000000 0.000000 0.000000 0.279101
    42 1.326317 0.000000 0.000000 0.000000 0.000000 1.369348
    43 3.789474 0.000302 -0.378947 0.000638 -0.000469 0.654149
    44 1.136842 0.000000 0.000000 0.000000 0.000000 0.218045
    45 1.136843 -0.000001 0.000000 0.000000 0.000000 1.308254
    46 3.789474 0.000905 -1.136842 0.105732 0.104131 0.790521
    47 0.947368 0.000000 0.000000 0.000000 0.000000 0.279105
    48 0.947368 0.000000 0.000000 0.000000 0.000000 0.837281
  time 2
    0 0.001747 1.140660 -24.602341 0.000000 0.000000 -1.570795
    1 0.000000 0.000000 0.000000 -1.570795 -1.570796 0.000000
    2 1.326317 -0.003921 0.000002 -0.000004 0.000006 0.000793
    3 4.926311 -0.003899 0.000102 0.000000 -0.000001 0.000000
    4 4.926307 -0.003899 0.000040 0.000000 0.000000 -0.000003
    5 4.926314 -0.003884 0.000040 0.000000 0.000001 0.000003
    6 4.926305 -0.001485 0.000165 0.000000 -0.000002 -0.000003
    7 -0.000004 0.001514 -1.894737 3.142341 1.570798 -0.000022
    8 4.926327 0.000464 -0.000031 0.882545 -1.296751 -0.883919
    9 11.368442 0.000012 0.000013 -0.000004 -0.000001 -1.504361
    10 11.368369 0.000090 -0.000135 2.144674 -0.279956 0.620560
    11 3.671029 0.966001 0.311074 -0.025348 -0.035794 1.366912
    12 0.468048 0.919459 2.661563 0.000001 0.000000 -0.000001
    13 -0.492027 -0.160314 0.005983 -0.000002 0.000000 0.000000
    14 0.383202 0.108206 0.000005 -0.280427 -0.050034 0.350781
    15 0.000002 0.001503 1.894737 -0.000014 -1.370797 3.140810
    16 4.926316 0.000000 0.000000 2.549027 0.486899 1.417178
    17 11.368423 0.000000 0.000000 0.000000 0.000000 -0.002385
    18 11.368422 0.000000 0.000000 -1.632105 0.145718 0.200311
    19 1.126229 0.104083 -1.358370 2.108798 0.482283 0.315505
    20 2.373624 0.000000 0.000001 0.000000 0.000000 0.113389
    21 1.071901 0.000000 -0.000001 0.000000 0.000000 0.017444
    22 3.789474 -0.000905 -1.136842 0.055869 0.146797 0.370353
    23 1.136843 0.000000 0.000000 0.000000 0.000000 0.200610
    24 1.136842 0.000000 0.000000 0.000000 0.000000 0.540751
    25 3.789474 -0.000302 -0.378947 0.069525 0.099197 0.719050
    26 1.326316 0.000000 0.000000 0.000000 0.000000 -0.104618
    27 1.326316 0.000000 0.000000 0.000000 0.000000 0.924519
    28 3.789474 0.000302 0.378947 -0.007937 0.043290 0.383571
    29 1.136841 -0.000001 0.000000 0.000000 0.000000 0.357607
    30 1.136842 0.000000 0.000000 0.000000 0.000000 0.915797
    31 3.789474 0.000904 1.136842 -0.063498 -0.094196 0.385109
    32 0.947368 0.000000 0.000000 0.000000 0.000000 0.950659
    33 0.947368 0.000000 0.000000 0.000000 0.000000 0.069768
    34 1.126229 0.104084 1.358370 -2.374981 -1.083006 0.431341
    35 2.373624 0.000000 0.000000 0.000000 0.000000 0.941977
    36 1.071901 0.000000 -0.000001 0.000000 0.000000 0.418665
    37 3.789474 -0.000905 1.136842 -0.098283 -0.272467 0.674683
    38 1.136843 0.000000 0.000000 0.000000 0.000000 0.279092
    39 1.136842 0.000000 0.000000 0.000000 0.000000 1.360667
    40 3.789475 -0.000301 0.378947 -0.047821 -0.175994 0.661009
    41 1.326315 0.000000 0.000000 0.000000 0.000000 0.279101
    42 1.326317 0.000000 0.000000 0.000000 0.000000 1.369348
    43 3.789474 0.000302 -0.378947 0.000638 -0.000469 0.654149
    44 1.136842 0.000000 0.000000 0.000000 0.000000 0.218045
    45 1.136843 -0.000001 0.000000 0.000000 0.000000 1.308254
    46 3.789474 0.000905 -1.136842 0.105732 0.104131 0.790521
    47 0.947368 0.000000 0.000000 0.000000 0.000000 0.279105
    48 0.947368 0.000000 0.000000 0.000000 0.000000 0.837281
  time 3
    0 0.001747 1.140660 -24.602341 0.000000 0.000000 -1.570795
    1 0.000000 0.000000 0.000000 -1.570795 -1.570796 0.000000
    2 1.326317 -0.003921 0.000002 -0.000004 0.000006 0.000793
    3 4.926311 -0.003899 0.000102 0.000000 -0.000001 0.000000
    4 4.926307 -0.003899 0.000040 0.000000 0.000000 -0.000003
    5 4.926314 -0.003884 0.000040 0.000000 0.000001 0.000003
    6 4.926305 -0.001485 0.000165 0.000000 -0.000002 -0.000003
    7 -0.000004 0.001514 -1.894737 3.142341 1.570798 -0.000022
    8 4.926327 0.000464 -0.000031 0.928535 -1.278999 -0.930260
    9 11.368442 0.000012 0.000013 -0.000004 -0.000001 -1.630565
    10 11.368369 0.000090 -0.000135 2.168829 -0.329812 0.507457
    11 3.671029 0.966001 0.311074 -0.025348 -0.035794 1.366912
    12 0.468048 0.919459 2.661563 0.000001 0.000000 -0.000001
    13 -0.492027 -0.160314 0.005983 -0.000002 0.000000 0.000000
    14 0.383202 0.108206 0.000005 -0.368131 -0.065689 0.460349
    15 0.000002 0.001503 1.894737 -0.000014 -1.370797 3.140810
    16 4.926316 0.000000 0.000000 2.549027 0.486899 1.417178
    17 11.368423 0.000000 0.000000 0.000000 0.000000 -0.002385
    18 11.368422 0.000000 0.000000 -1.632105 0.145718 0.200311
    19 1.126229 0.104083 -1.358370 2.108798 0.482283 0.315505
    20 2.373624 0.000000 0.000001 0.000000 0.000000 0.113389
    21 1.071901 0.000000 -0.000001 0.000000 0.000000 0.017444
    22 3.789474 -0.000905 -1.136842 0.055869 0.146797 0.370353
    23 1.136843 0.000000 0.000000 0.000000 0.000000 0.200610
    24 1.136842 0.000000 0.000000 0.000000 0.000000 0.540751
    25 3.789474 -0.000302 -0.378947 0.069525 0.099197 0.719050
    26 1.326316 0.000000 0.000000 0.000000 0.000000 -0.104618
    27 1.326316 0.000000 0.000000 0.000000 0.000000 0.924519
    28 3.789474 0.000302 0.378947 -0.007937 0.043290 0.383571
    29 1.136841 -0.000001 0.000000 0.000000 0.000000 0.357607
    30 1.136842 0.000000 0.000000 0.000000 0.000000 0.915797
    31 3.789474 0.000904 1.136842 -0.063498 -0.094196 0.385109
    32 0.947368 0.000000 0.000000 0.000000 0.000000 0.950659
    33 0.947368 0.000000 0.000000 0.000000 0.000000 0.069768
    34 1.126229 0.104084 1.358370 -2.374981 -1.083006 0.431341
    35 2.373624 0.000000 0.000000 0.000000 0.000000 0.941977
    36 1.071901 0.000000 -0.000001 0.000000 0.000000 0.418665
    37 3.789474 -0.000905 1.136842 -0.098283 -0.272467 0.674683
    38 1.136843 0.000000 0.000000 0.000000 0.000000 0.279092
    39 1.136842 0.000000 0.000000 0.000000 0.000000 1.360667
    40 3.789475 -0.000301 0.378947 -0.047821 -0.175994 0.661009
    41 1.326315 0.000000 0.000000 0.000000 0.000000 0.279101
    42 1.326317 0.000000 0.000000 0.000000 0.000000 1.369348
    43 3.789474 0.000302 -0.378947 0.000638 -0.000469 0.654149
    44 1.136842 0.000000 0.000000 0.000000 0.000000 0.218045
    45 1.136843 -0.000001 0.000000 0.000000 0.000000 1.308254
    46 3.789474 0.000905 -1.136842 0.105732 0.104131 0.790521
    47 0.947368 0.000000 0.000000 0.000000 0.000000 0.279105
    48 0.947368 0.000000 0.000000 0.000000 0.000000 0.837281
  time 4
    0 0.001747 1.140660 -24.602341 0.000000 0.000000 -1.570795
    1 0.000000 0.000000 0.000000 -1.570795 -1.570796 0.000000
    2 1.326317 -0.003921 0.000002 -0.000004 0.000006 0.000793
    3 4.926311 -0.003899 0.000102 0.000000 -0.000001 0.000000
    4 4.926307 -0.003899 0.000040 0.000000 0.000000 -0.000003
    5 4.926314 -0.003884 0.000040 0.000000 0.000001 0.000003
    6 4.926305 -0.001485 0.000165 0.000000 -0.000002 -0.000003
    7 -0.000004 0.001514 -1.894737 3.142341 1.570798 -0.000022
    8 4.926327 0.000464 -0.000031 0.970582 -1.260036 -0.972730
    9 11.368442 0.000012 0.000013 -0.000004 -0.000001 -1.762980
    10 11.368369 0.000090 -0.000135 2.200590 -0.379385 0.385847
    11 3.671029 0.966001 0.311074 -0.025348 -0.035794 1.366912
    12 0.468048 0.919459 2.661563 0.000001 0.000000 -0.000001
    13 -0.492027 -0.160314 0.005983 -0.000002 0.000000 0.000000
    14 0.383202 0.108206 0.000005 -0.420697 -0.075051 0.526195
    15 0.000002 0.001503 1.894737 -0.000014 -1.370797 3.140810
    16 4.926316 0.000000 0.000000 2.549027 0.486899 1.417178
    17 11.368423 0.000000 0.000000 0.000000 0.000000 -0.002385
    18 11.368422 0.000000 0.000000 -1.632105 0.145718 0.200311
    19 1.126229 0.104083 -1.358370 2.108798 0.482283 0.315505
    20 2.373624 0.000000 0.000001 0.000000 0.000000 0.113389
    21 1.071901 0.000000 -0.000001 0.000000 0.000000 0.017444
    22 3.789474 -0.000905 -1.136842 0.055869 0.146797 0.370353
    23 1.136843 0.000000 0.000000 0.000000 0.000000 0.200610
    24 1.136842 0.000000 0.000000 0.000000 0.000000 0.540751
    25 3.789474 -0.000302 -0.378947 0.069525 0.099197 0.719050
    26 1.326316 0.000000 0.000000 0.000000 0.000000 -0.104618
    27 1.326316 0.000000 0.000000 0.000000 0.000000 0.924519
    28 3.789474 0.000302 0.378947 -0.007937 0.043290 0.383571
    29 1.136841 -0.000001 0.000000 0.000000 0.000000 0.357607
    30 1.136842 0.000000 0.000000 0.000000 0.000000 0.915797
    31 3.789474 0.000904 1.136842 -0.063498 -0.094196 0.385109
    32 0.947368 0.000000 0.000000 0.000000 0.000000 0.950659
    33 0.947368 0.000000 0.000000 0.000000 0.000000 0.069768
    34 1.126229 0.104084 1.358370 -2.374981 -1.083006 0.431341
    35 2.373624 0.000000 0.000000 0.000000 0.000000 0.941977
    36 1.071901 0.000000 -0.000001 0.000000 0.000000 0.418665
    37 3.789474 -0.000905 1.136842 -0.098283 -0.272467 0.674683
    38 1.136843 0.000000 0.000000 0.000000 0.000000 0.279092
    39 1.136842 0.000000 0.000000 0.000000 0.000000 1.360667
    40 3.789475 -0.000301 0.378947 -0.047821 -0.175994 0.661009
    41 1.326315 0.000000 0.000000 0.000000 0.000000 0.279101
    42 1.326317 0.000000 0.000000 0.000000 0.000000 1.369348
    43 3.789474 0.000302 -0.378947 0.000638 -0.000469 0.654149
    44 1.136842 0.000000 0.000000 0.000000 0.000000 0.218045
    45 1.136843 -0.000001 0.000000 0.000000 0.000000 1.308254
    46 3.789474 0.000905 -1.136842 0.105732 0.104131 0.790521
    47 0.947368 0.000000 0.000000 0.000000 0.000000 0.279105
    48 0.947368 0.000000 0.000000 0.000000 0.000000 0.837281
  time 5
    0 0.001747 1.140660 -24.602341 0.000000 0.000000 -1.570795
    1 0.000000 0.000000 0.000000 -1.570795 -1.570796 0.000000
    2 1.326317 -0.003921 0.000002 -0.000004 0.000006 0.000793
    3 4.926311 -0.003899 0.000102 0.000000 -0.000001 0.000000
    4 4.926307 -0.003899 0.000040 0.000000 0.000000 -0.000003
    5 4.926314 -0.003884 0.000040 0.000000 0.000001 0.000003
    6 4.926305 -0.001485 0.000165 0.000000 -0.000002 -0.000003
    7 -0.000004 0.001514 -1.894737 3.142341 1.570798 -0.000022
    8 4.926327 0.000464 -0.000031 1.003892 -1.242777 -1.006519
    9 11.368442 0.000012 0.000013 -0.000004 -0.000001 -1.884214
    10 11.368369 0.000090 -0.000135 2.235309 -0.422097 0.271933
    11 3.671029 0.966001 0.311074 -0.025348 -0.035794 1.366912
    12 0.468048 0.919459 2.661563 0.000001 0.000000 -0.000001
    13 -0.492027 -0.160314 0.005983 -0.000002 0.000000 0.000000
    14 0.383202 0.108206 0.000005 -0.438238 -0.078182 0.548080
    15 0.000002 0.001503 1.894737 -0.000014 -1.370797 3.140810
    16 4.926316 0.000000 0.000000 2.549027 0.486899 1.417178
    17 11.368423 0.000000 0.000000 0.000000 0.000000 -0.002385
    18 11.368422 0.000000 0.000000 -1.632105 0.145718 0.200311
    19 1.126229 0.104083 -1.358370 2.108798 0.482283 0.315505
    20 2.373624 0.000000 0.000001 0.000000 0.000000 0.113389
    21 1.071901 0.000000 -0.000001 0.000000 0.000000 0.017444
    22 3.789474 -0.000905 -1.136842 0.055869 0.146797 0.370353
    23 1.136843 0.000000 0.000000 0.000000 0.000000 0.200610
    24 1.136842 0.000000 0.000000 0.000000 0.000000 0.540751
    25 3.789474 -0.000302 -0.378947 0.069525 0.099197 0.719050
    26 1.326316 0.000000 0.000000 0.000000 0.000000 -0.104618
    27 1.326316 0.000000 0.000000 0.000000 0.000000 0.924519
    28 3.789474 0.000302 0.378947 -0.007937 0.043290 0.383571
    29 1.136841 -0.000001 0.000000 0.000000 0.000000 0.357607
    30 1.136842 0.000000 0.000000 0.000000 0.000000 0.915797
    31 3.789474 0.000904 1.136842 -0.063498 -0.094196 0.385109
    32 0.947368 0.000000 0.000000 0.000000 0.000000 0.950659
    33 0.947368 0.000000 0.000000 0.000000 0.000000 0.069768
    34 1.126229 0.104084 1.358370 -2.374981 -1.083006 0.431341
    35 2.373624 0.000000 0.000000 0.000000 0.000000 0.941977
    36 1.071901 0.000000 -0.000001 0.000000 0.000000 0.418665
    37 3.789474 -0.000905 1.136842 -0.098283 -0.272467 0.674683
    38 1.136843 0.000000 0.000000 0.000000 0.000000 0.279092
    39 1.136842 0.000000 0.000000 0.000000 0.000000 1.360667
    40 3.789475 -0.000301 0.378947 -0.047821 -0.175994 0.661009
    41 1.326315 0.000000 0.000000 0.000000 0.000000 0.279101
    42 1.326317 0.000000 0.000000 0.000000 0.000000 1.369348
    43 3.789474 0.000302 -0.378947 0.000638 -0.000469 0.654149
    44 1.136842 0.000000 0.000000 0.000000 0.000000 0.218045
    45 1.136843 -0.000001 0.000000 0.000000 0.000000 1.308254
    46 3.789474 0.000905 -1.136842 0.105732 0.104131 0.790521
    47 0.947368 0.000000 0.000000 0.000000 0.000000 0.279105
    48 0.947368 0.000000 0.000000 0.000000 0.000000 0.837281
  time 6
    0 0.001747 1.140660 -24.602341 0.000000 0.000000 -1.570795
    1 0.000000 0.000000 0.000000 -1.570795 -1.570796 0.000000
    2 1.326317 -0.003921 0.000002 -0.000004 0.000006 0.000793
    3 4.926311 -0.003899 0.000102 0.000000 -0.000001 0.000000
    4 4.926307 -0.003899 0.000040 0.000000 0.000000 -0.000003
    5 4.926314 -0.003884 0.000040 0.000000 0.000001 0.000003
    6 4.926305 -0.001485 0.000165 0.000000 -0.000002 -0.000003
    7 -0.000004 0.001514 -1.894737 3.142341 1.570798 -0.000022
    8 4.926327 0.000464 -0.000031 1.027150 -1.229329 -1.030127
    9 11.368442 0.000012 0.000013 -0.000004 -0.000001 -1.980992
    10 11.368369 0.000090 -0.000135 2.266507 -0.454610 0.179706
    11 3.671029 0.966001 0.311074 -0.025348 -0.035794 1.366912
    12 0.468048 0.919459 2.661563 0.000001 0.000000 -0.000001
    13 -0.492027 -0.160314 0.005983 -0.000002 0.000000 0.000000
    14 0.383202 0.108206 0.000005 -0.420697 -0.075051 0.526195
    15 0.000002 0.001503 1.894737 -0.000014 -1.370797 3.140810
    16 4.926316 0.000000 0.000000 2.549027 0.486899 1.417178
    17 11.368423 0.000000 0.000000 0.000000 0.000000 -0.002385
    18 11.368422 0.000000 0.000000 -1.632105 0.145718 0.200311
    19 1.126229 0.104083 -1.358370 2.108798 0.482283 0.315505
    20 2.373624 0.000000 0.000001 0.000000 0.000000 0.113389
    21 1.071901 0.000000 -0.000001 0.000000 0.000000 0.017444
    22 3.789474 -0.000905 -1.136842 0.055869 0.146797 0.370353
    23 1.136843 0.000000 0.000000 0.000000 0.000000 0.200610
    24 1.136842 0.000000 0.000000 0.000000 0.000000 0.540751
    25 3.789474 -0.000302 -0.378947 0.069525 0.099197 0.719050
    26 1.326316 0.000000 0.000000 0.000000 0.000000 -0.104618
    27 1.326316 0.000000 0.000000 0.000000 0.000000 0.924519
    28 3.789474 0.000302 0.378947 -0.007937 0.043290 0.383571
    29 1.136841 -0.000001 0.000000 0.000000 0.000000 0.357607
    30 1.136842 0.000000 0.000000 0.000000 0.000000 0.915797
    31 3.789474 0.000904 1.136842 -0.063498 -0.094196 0.385109
    32 0.947368 0.000000 0.000000 0.000000 0.000000 0.950659
    33 0.947368 0.000000 0.000000 0.000000 0.000000 0.069768
    34 1.126229 0.104084 1.358370 -2.374981 -1.083006 0.431341
    35 2.373624 0.000000 0.000000 0.000000 0.000000 0.941977
    36 1.071901 0.000000 -0.000001 0.000000 0.000000 0.418665
    37 3.789474 -0.000905 1.136842 -0.098283 -0.272467 0.674683
    38 1.136843 0.000000 0.000000 0.000000 0.000000 0.279092
    39 1.136842 0.000000 0.000000 0.000000 0.000000 1.360667
    40 3.789475 -0.000301 0.378947 -0.047821 -0.175994 0.661009
    41 1.326315 0.000000 0.000000 0.000000 0.000000 0.279101
    42 1.326317 0.000000 0.000000 0.000000 0.000000 1.369348
    43 3.789474 0.000302 -0.378947 0.000638 -0.000469 0.654149
    44 1.136842 0.000000 0.000000 0.000000 0.000000 0.218045
    45 1.136843 -0.000001 0.000000 0.000000 0.000000 1.308254
    46 3.789474 0.000905 -1.136842 0.105732 0.104131 0.790521
    47 0.947368 0.000000 0.000000 0.000000 0.000000 0.279105
    48 0.947368 0.000000 0.000000 0.000000 0.000000 0.837281
  time 7
    0 0.001747 1.140660 -24.602341 0.000000 0.000000 -1.570795
    1 0.000000 0.000000 0.000000 -1.570795 -1.570796 0.000000
    2 1.326317 -0.003921 0.000002 -0.000004 0.000006 0.000793
    3 4.926311 -0.003899 0.000102 0.000000 -0.000001 0.000000
    4 4.926307 -0.003899 0.000040 0.000000 0.000000 -0.000003
    5 4.926314 -0.003884 0.000040 0.000000 0.000001 0.000003
    6 4.926305 -0.001485 0.000165 0.000000 -0.000002 -0.000003
    7 -0.000004 0.001514 -1.894737 3.142341 1.570798 -0.000022
    8 4.926327 0.000464 -0.000031 1.040881 -1.220811 -1.044304
    9 11.368442 0.000012 0.000013 -0.000004 -0.000001 -2.047232
    10 11.368369 0.000090 -0.000135 2.289113 -0.476769 0.116808
    11 3.671029 0.966001 0.311074 -0.025348 -0.035794 1.366912
    12 0.468048 0.919459 2.661563 0.000001 0.000000 -0.000001
    13 -0.492027 -0.160314 0.005983 -0.000002 0.000000 0.000000
    14 0.383202 0.108206 0.000005 -0.368131 -0.065689 0.460349
    15 0.000002 0.001503 1.894737 -0.000014 -1.370797 3.140810
    16 4.926316 0.000000 0.000000 2.549027 0.486899 1.417178
    17 11.368423 0.000000 0.000000 0.000000 0.000000 -0.002385
    18 11.368422 0.000000 0.000000 -1.632105 0.145718 0.200311
    19 1.126229 0.104083 -1.358370 2.108798 0.482283 0.315505
    20 2.373624 0.000000 0.000001 0.000000 0.000000 0.113389
    21 1.071901 0.000000 -0.000001 0.000000 0.000000 0.017444
    22 3.789474 -0.000905 -1.136842 0.055869 0.146797 0.370353
    23 1.136843 0.000000 0.000000 0.000000 0.000000 0.200610
    24 1.136842 0.000000 0.000000 0.000000 0.000000 0.540751
    25 3.789474 -0.000302 -0.378947 0.069525 0.099197 0.719050
    26 1.326316 0.000000 0.000000 0.000000 0.000000 -0.104618
    27 1.326316 0.000000 0.000000 0.000000 0.000000 0.924519
    28 3.789474 0.000302 0.378947 -0.007937 0.043290 0.383571
    29 1.136841 -0.000001 0.000000 0.000000 0.000000 0.357607
    30 1.136842 0.000000 0.000000 0.000000 0.000000 0.915797
    31 3.789474 0.000904 1.136842 -0.063498 -0.094196 0.385109
    32 0.947368 0.000000 0.000000 0.000000 0.000000 0.950659
    33 0.947368 0.000000 0.000000 0.000000 0.000000 0.069768
    34 1.126229 0.104084 1.358370 -2.374981 -1.083006 0.431341
    35 2.373624 0.000000 0.000000 0.000000 0.000000 0.941977
    36 1.071901 0.000000 -0.000001 0.000000 0.000000 0.418665
    37 3.789474 -0.000905 1.136842 -0.098283 -0.272467 0.674683
    38 1.136843 0.000000 0.000000 0.000000 0.000000 0.279092
    39 1.136842 0.000000 0.000000 0.000000 0.000000 1.360667
    40 3.789475 -0.000301 0.378947 -0.047821 -0.175994 0.661009
    41 1.326315 0.000000 0.000000 0.000000 0.000000 0.279101
    42 1.326317 0.000000 0.000000 0.000000 0.000000 1.369348
    43 3.789474 0.000302 -0.378947 0.000638 -0.000469 0.654149
    44 1.136842 0.000000 0.000000 0.000000 0.000000 0.218045
    45 1.136843 -0.000001 0.000000 0.000000 0.000000 1.308254
    46 3.789474 0.000905 -1.136842 0.105732 0.104131 0.790521
    47 0.947368 0.000000 0.000000 0.000000 0.000000 0.279105
    48 0.947368 0.000000 0.000000 0.000000 0.000000 0.837281
  time 8
    0 0.001747 1.140660 -24.602341 0.000000 0.000000 -1.570795
    1 0.000000 0.000000 0.000000 -1.570795 -1.570796 0.000000
    2 1.326317 -0.003921 0.000002 -0.000004 0.000006 0.000793
    3 4.926311 -0.003899 0.000102 0.000000 -0.000001 0.000000
    4 4.926307 -0.003899 0.000040 0.000000 0.000000 -0.000003
    5 4.926314 -0.003884 0.000040 0.000000 0.000001 0.000003
    6 4.926305 -0.001485 0.000165 0.000000 -0.000002 -0.000003
    7 -0.000004 0.001514 -1.894737 3.142341 1.570798 -0.000022
    8 4.926327 0.000464 -0.000031 1.047319 -1.216732 -1.050924
    9 11.368442 0.000012 0.000013 -0.000004 -0.000001 -2.084701
    10 11.368369 0.000090 -0.000135 2.302001 -0.490209 0.082213
    11 3.671029 0.966001 0.311074 -0.025348 -0.035794 1.366912
    12 0.468048 0.919459 2.661563 0.000001 0.000000 -0.000001
    13 -0.492027 -0.160314 0.005983 -0.000002 0.000000 0.000000
    14 0.383202 0.108206 0.000005 -0.280427 -0.050034 0.350781
    15 0.000002 0.001503 1.894737 -0.000014 -1.370797 3.140810
    16 4.926316 0.000000 0.000000 2.549027 0.486899 1.417178
    17 11.368423 0.000000 0.000000 0.000000 0.000000 -0.002385
    18 11.368422 0.000000 0.000000 -1.632105 0.145718 0.200311
    19 1.126229 0.104083 -1.358370 2.108798 0.482283 0.315505
    20 2.373624 0.000000 0.000001 0.000000 0.000000 0.113389
    21 1.071901 0.000000 -0.000001 0.000000 0.000000 0.017444
    22 3.789474 -0.000905 -1.136842 0.055869 0.146797 0.370353
    23 1.136843 0.000000 0.000000 0.000000 0.000000 0.200610
    24 1.136842 0.000000 0.000000 0.000000 0.000000 0.540751
    25 3.789474 -0.000302 -0.378947 0.069525 0.099197 0.719050
    26 1.326316 0.000000 0.000000 0.000000 0.000000 -0.104618
    27 1.326316 0.000000 0.000000 0.000000 0.000000 0.924519
    28 3.789474 0.000302 0.378947 -0.007937 0.043290 0.383571
    29 1.136841 -0.000001 0.000000 0.000000 0.000000 0.357607
    30 1.136842 0.000000 0.000000 0.000000 0.000000 0.915797
    31 3.789474 0.000904 1.136842 -0.063498 -0.094196 0.385109
    32 0.947368 0.000000 0.000000 0.000000 0.000000 0.950659
    33 0.947368 0.000000 0.000000 0.000000 0.000000 0.069768
    34 1.126229 0.104084 1.358370 -2.374981 -1.083006 0.431341
    35 2.373624 0.000000 0.000000 0.000000 0.000000 0.941977
    36 1.071901 0.000000 -0.000001 0.000000 0.000000 0.418665
    37 3.789474 -0.000905 1.136842 -0.098283 -0.272467 0.674683
    38 1.136843 0.000000 0.000000 0.000000 0.000000 0.279092
    39 1.136842 0.000000 0.000000 0.000000 0.000000 1.360667
    40 3.789475 -0.000301 0.378947 -0.047821 -0.175994 0.661009
    41 1.326315 0.000000 0.000000 0.000000 0.000000 0.279101
    42 1.326317 0.000000 0.000000 0.000000 0.000000 1.369348
    43 3.789474 0.000302 -0.378947 0.000638 -0.000469 0.654149
    44 1.136842 0.000000 0.000000 0.000000 0.000000 0.218045
    45 1.136843 -0.000001 0.000000 0.000000 0.000000 1.308254
    46 3.789474 0.000905 -1.136842 0.105732 0.104131 0.790521
    47 0.947368 0.000000 0.000000 0.000000 0.000000 0.279105
    48 0.947368 0.000000 0.000000 0.000000 0.000000 0.837281
  time 9
    0 0.001747 1.140660 -24.602341 0.000000 0.000000 -1.570795
    1 0.000000 0.000000 0.000000 -1.570795 -1.570796 0.000000
    2 1.326317 -0.003921 0.000002 -0.000004 0.000006 0.000793
    3 4.926311 -0.003899 0.000102 0.000000 -0.000001 0.000000
    4 4.926307 -0.003899 0.000040 0.000000 0.000000 -0.000003
    5 4.926314 -0.003884 0.000040 0.000000 0.000001 0.000003
    6 4.926305 -0.001485 0.000165 0.000000 -0.000002 -0.000003
    7 -0.000004 0.001514 -1.894737 3.142341 1.570798 -0.000022
    8 4.926327 0.000464 -0.000031 1.050276 -1.214939 -1.054359
    9 11.368442 0.000012 0.000013 -0.000004 -0.000001 -2.117200
    10 11.368369 0.000090 -0.000135 2.311790 -0.505128 0.055800
    11 3.671029 0.966001 0.311074 -0.025348 -0.035794 1.366912
    12 0.468048 0.919459 2.661563 0.000001 0.000000 -0.000001
    13 -0.492027 -0.160314 0.005983 -0.000002 0.000000 0.000000
    14 0.383202 0.108206 0.000005 -0.157698 -0.028148 0.197251
    15 0.000002 0.001503 1.894737 -0.000014 -1.370797 3.140810
    16 4.926316 0.000000 0.000000 2.549027 0.486899 1.417178
    17 11.368423 0.000000 0.000000 0.000000 0.000000 -0.002385
    18 11.368422 0.000000 0.000000 -1.632105 0.145718 0.200311
    19 1.126229 0.104083 -1.358370 2.108798 0.482283 0.315505
    20 2.373624 0.000000 0.000001 0.000000 0.000000 0.113389
    21 1.071901 0.000000 -0.000001 0.000000 0.000000 0.017444
    22 3.789474 -0.000905 -1.136842 0.055869 0.146797 0.370353
    23 1.136843 0.000000 0.000000 0.000000 0.000000 0.200610
    24 1.136842 0.000000 0.000000 0.000000 0.000000 0.540751
    25 3.789474 -0.000302 -0.378947 0.069525 0.099197 0.719050
    26 1.326316 0.000000 0.000000 0.000000 0.000000 -0.104618
    27 1.326316 0.000000 0.000000 0.000000 0.000000 0.924519
    28 3.789474 0.000302 0.378947 -0.007937 0.043290 0.383571
    29 1.136841 -0.000001 0.000000 0.000000 0.000000 0.357607
    30 1.136842 0.000000 0.000000 0.000000 0.000000 0.915797
    31 3.789474 0.000904 1.136842 -0.063498 -0.094196 0.385109
    32 0.947368 0.000000 0.000000 0.000000 0.000000 0.950659
    33 0.947368 0.000000 0.000000 0.000000 0.000000 0.069768
    34 1.126229 0.104084 1.358370 -2.374981 -1.083006 0.431341
    35 2.373624 0.000000 0.000000 0.000000 0.000000 0.941977
    36 1.071901 0.000000 -0.000001 0.000000 0.000000 0.418665
    37 3.789474 -0.000905 1.136842 -0.098283 -0.272467 0.674683
    38 1.136843 0.000000 0.000000 0.000000 0.000000 0.279092
    39 1.136842 0.000000 0.000000 0.000000 0.000000 1.360667
    40 3.789475 -0.000301 0.378947 -0.047821 -0.175994 0.661009
    41 1.326315 0.000000 0.000000 0.000000 0.000000 0.279101
    42 1.326317 0.000000 0.000000 0.000000 0.000000 1.369348
    43 3.789474 0.000302 -0.378947 0.000638 -0.000469 0.654149
    44 1.136842 0.000000 0.000000 0.000000 0.000000 0.218045
    45 1.136843 -0.000001 0.000000 0.000000 0.000000 1.308254
    46 3.789474 0.000905 -1.136842 0.105732 0.104131 0.790521
    47 0.947368 0.000000 0.000000 0.000000 0.000000 0.279105
    48 0.947368 0.000000 0.000000 0.000000 0.000000 0.837281
  time 10
    0 0.001747 1.140660 -24.602341 0.000000 0.000000 -1.570795
    1 0.000000 0.000000 0.000000 -1.570795 -1.570796 0.000000
    2 1.326317 -0.003921 0.000002 -0.000004 0.000006 0.000793
    3 4.926311 -0.003899 0.000102 0.000000 -0.000001 0.000000
    4 4.926307 -0.003899 0.000040 0.000000 0.000000 -0.000003
    5 4.926314 -0.003884 0.000040 0.000000 0.000001 0.000003
    6 4.926305 -0.001485 0.000165 0.000000 -0.000002 -0.000003
    7 -0.000004 0.001514 -1.894737 3.142341 1.570798 -0.000022
    8 4.926327 0.000464 -0.000031 1.044888 -1.219018 -1.049738
    9 11.368442 0.000012 0.000013 -0.000004 -0.000001 -2.137340
    10 11.368369 0.000090 -0.000135 2.312565 -0.524862 0.050939
    11 3.671029 0.966001 0.311074 -0.025348 -0.035794 1.366912
    12 0.468048 0.919459 2.661563 0.000001 0.000000 -0.000001
    13 -0.492027 -0.160314 0.005983 -0.000002 0.000000 0.000000
    14 0.383202 0.108206 0.000005 0.000000 0.000000 0.000000
    15 0.000002 0.001503 1.894737 -0.000014 -1.370797 3.140810
    16 4.926316 0.000000 0.000000 2.549027 0.486899 1.417178
    17 11.368423 0.000000 0.000000 0.000000 0.000000 -0.002385
    18 11.368422 0.000000 0.000000 -1.632105 0.145718 0.200311
    19 1.126229 0.104083 -1.358370 2.108798 0.482283 0.315505
    20 2.373624 0.000000 0.000001 0.000000 0.000000 0.113389
    21 1.071901 0.000000 -0.000001 0.000000 0.000000 0.017444
    22 3.789474 -0.000905 -1.136842 0.055869 0.146797 0.370353
    23 1.136843 0.000000 0.000000 0.000000 0.000000 0.200610
    24 1.136842 0.000000 0.000000 0.000000 0.000000 0.540751
    25 3.789474 -0.000302 -0.378947 0.069525 0.099197 0.719050
    26 1.326316 0.000000 0.000000 0.000000 0.000000 -0.104618
    27 1.326316 0.000000 0.000000 0.000000 0.000000 0.924519
    28 3.789474 0.000302 0.378947 -0.007937 0.043290 0.383571
    29 1.136841 -0.000001 0.000000 0.000000 0.000000 0.357607
    30 1.136842 0.000000 0.000000 0.000000 0.000000 0.915797
    31 3.789474 0.000904 1.136842 -0.063498 -0.094196 0.385109
    32 0.947368 0.000000 0.000000 0.000000 0.000000 0.950659
    33 0.947368 0.000000 0.000000 0.000000 0.000000 0.069768
    34 1.126229 0.104084 1.358370 -2.374981 -1.083006 0.431341
    35 2.373624 0.000000 0.000000 0.000000 0.000000 0.941977
    36 1.071901 0.000000 -0.000001 0.000000 0.000000 0.418665
    37 3.789474 -0.000905 1.136842 -0.098283 -0.272467 0.674683
    38 1.136843 0.000000 0.000000 0.000000 0.000000 0.279092
    39 1.136842 0.000000 0.000000 0.000000 0.000000 1.360667
    40 3.789475 -0.000301 0.378947 -0.047821 -0.175994 0.661009
    41 1.326315 0.000000 0.000000 0.000000 0.000000 0.279101
    42 1.326317 0.000000 0.000000 0.000000 0.000000 1.369348
    43 3.789474 0.000302 -0.378947 0.000638 -0.000469 0.654149
    44 1.136842 0.000000 0.000000 0.000000 0.000000 0.218045
    45 1.136843 -0.000001 0.000000 0.000000 0.000000 1.308254
    46 3.789474 0.000905 -1.136842 0.105732 0.104131 0.790521
    47 0.947368 0.000000 0.000000 0.000000 0.000000 0.279105
    48 0.947368 0.000000 0.000000 0.000000 0.000000 0.837281
  time 11
    0 0.001747 1.140660 -24.602341 0.000000 0.000000 -1.570795
    1 0.000000 0.000000 0.000000 -1.570795 -1.570796 0.000000
    2 1.326317 -0.003921 0.000002 -0.000004 0.000006 0.000793
    3 4.926311 -0.003899 0.000102 0.000000 -0.000001 0.000000
    4 4.926307 -0.003899 0.000040 0.000000 0.000000 -0.000003
    5 4.926314 -0.003884 0.000040 0.000000 0.000001 0.000003
    6 4.926305 -0.001485 0.000165 0.000000 -0.000002 -0.000003
    7 -0.000004 0.001514 -1.894737 3.142341 1.570798 -0.000022
    8 4.926327 0.000464 -0.000031 1.027412 -1.230763 -1.033249
    9 11.368442 0.000012 0.000013 -0.000004 -0.000001 -2.127204
    10 11.368369 0.000090 -0.000135 2.296790 -0.542709 0.084805
    11 3.671029 0.966001 0.311074 -0.025348 -0.035794 1.366912
    12 0.468048 0.919459 2.661563 0.000001 0.000000 -0.000001
    13 -0.492027 -0.160314 0.005983 -0.000002 0.000000 0.000000
    14 0.383202 0.108206 0.000005 0.280427 0.050034 -0.350781
    15 0.000002 0.001503 1.894737 -0.000014 -1.370797 3.140810
    16 4.926316 0.000000 0.000000 2.549027 0.486899 1.417178
    17 11.368423 0.000000 0.000000 0.000000 0.000000 -0.002385
    18 11.368422 0.000000 0.000000 -1.632105 0.145718 0.200311
    19 1.126229 0.104083 -1.358370 2.108798 0.482283 0.315505
    20 2.373624 0.000000 0.000001 0.000000 0.000000 0.113389
    21 1.071901 0.000000 -0.000001 0.000000 0.000000 0.017444
    22 3.789474 -0.000905 -1.136842 0.055869 0.146797 0.370353
    23 1.136843 0.000000 0.000000 0.000000 0.000000 0.200610
    24 1.136842 0.000000 0.000000 0.000000 0.000000 0.540751
    25 3.789474 -0.000302 -0.378947 0.069525 0.099197 0.719050
    26 1.326316 0.000000 0.000000 0.000000 0.000000 -0.104618
    27 1.326316 0.000000 0.000000 0.000000 0.000000 0.924519
    28 3.789474 0.000302 0.378947 -0.007937 0.043290 0.383571
    29 1.136841 -0.000001 0.000000 0.000000 0.000000 0.357607
    30 1.136842 0.000000 0.000000 0.000000 0.000000 0.915797
    31 3.789474 0.000904 1.136842 -0.063498 -0.094196 0.385109
    32 0.947368 0.000000 0.000000 0.000000 0.000000 0.950659
    33 0.947368 0.000000 0.000000 0.000000 0.000000 0.069768
    34 1.126229 0.104084 1.358370 -2.374981 -1.083006 0.431341
    35 2.373624 0.000000 0.000000 0.000000 0.000000 0.941977
    36 1.071901 0.000000 -0.000001 0.000000 0.000000 0.418665
    37 3.789474 -0.000905 1.136842 -0.098283 -0.272467 0.674683
    38 1.136843 0.000000 0.000000 0.000000 0.000000 0.279092
    39 1.136842 0.000000 0.000000 0.000000 0.000000 1.360667
    40 3.789475 -0.000301 0.378947 -0.047821 -0.175994 0.661009
    41 1.326315 0.000000 0.000000 0.000000 0.000000 0.279101
    42 1.326317 0.000000 0.000000 0.000000 0.000000 1.369348
    43 3.789474 0.000302 -0.378947 0.000638 -0.000469 0.654149
    44 1.136842 0.000000 0.000000 0.000000 0.000000 0.218045
    45 1.136843 -0.000001 0.000000 0.000000 0.000000 1.308254
    46 3.789474 0.000905 -1.136842 0.105732 0.104131 0.790521
    47 0.947368 0.000000 0.000000 0.000000 0.000000 0.279105
    48 0.947368 0.000000 0.000000 0.000000 0.000000 0.837281
  time 12
    0 0.001747 1.140660 -24.602341 0.000000 0.000000 -1.570795
    1 0.000000 0.000000 0.000000 -1.570795 -1.570796 0.000000
    2 1.326317 -0.003921 0.000002 -0.000004 0.000006 0.000793
    3 4.926311 -0.003899 0.000102 0.000000 -0.000001 0.000000
    4 4.926307 -0.003899 0.000040 0.000000 0.000000 -0.000003
    5 4.926314 -0.003884 0.000040 0.000000 0.000001 0.000003
    6 4.926305 -0.001485 0.000165 0.000000 -0.000002 -0.000003
    7 -0.000004 0.001514 -1.894737 3.142341 1.570798 -0.000022
    8 4.926327 0.000464 -0.000031 1.004483 -1.244750 -1.011265
    9 11.368442 0.000012 0.000013 -0.000004 -0.000001 -2.100460
    10 11.368369 0.000090 -0.000135 2.273338 -0.554638 0.135821
    11 3.671029 0.966001 0.311074 -0.025348 -0.035794 1.366912
    12 0.468048 0.919459 2.661563 0.000001 0.000000 -0.000001
    13 -0.492027 -0.160314 0.005983 -0.000002 0.000000 0.000000
    14 0.383202 0.108206 0.000005 0.595992 0.106330 -0.745427
    15 0.000002 0.001503 1.894737 -0.000014 -1.370797 3.140810
    16 4.926316 0.000000 0.000000 2.549027 0.486899 1.417178
    17 11.368423 0.000000 0.000000 0.000000 0.000000 -0.002385
    18 11.368422 0.000000 0.000000 -1.632105 0.145718 0.200311
    19 1.126229 0.104083 -1.358370 2.108798 0.482283 0.315505
    20 2.373624 0.000000 0.000001 0.000000 0.000000 0.113389
    21 1.071901 0.000000 -0.000001 0.000000 0.000000 0.017444
    22 3.789474 -0.000905 -1.136842 0.055869 0.146797 0.370353
    23 1.136843 0.000000 0.000000 0.000000 0.000000 0.200610
    24 1.136842 0.000000 0.000000 0.000000 0.000000 0.540751
    25 3.789474 -0.000302 -0.378947 0.069525 0.099197 0.719050
    26 1.326316 0.000000 0.000000 0.000000 0.000000 -0.104618
    27 1.326316 0.000000 0.000000 0.000000 0.000000 0.924519
    28 3.789474 0.000302 0.378947 -0.007937 0.043290 0.383571
    29 1.136841 -0.000001 0.000000 0.000000 0.000000 0.357607
    30 1.136842 0.000000 0.000000 0.000000 0.000000 0.915797
    31 3.789474 0.000904 1.136842 -0.063498 -0.094196 0.385109
    32 0.947368 0.000000 0.000000 0.000000 0.000000 0.950659
    33 0.947368 0.000000 0.000000 0.000000 0.000000 0.069768
    34 1.126229 0.104084 1.358370 -2.374981 -1.083006 0.431341
    35 2.373624 0.000000 0.000000 0.000000 0.000000 0.941977
    36 1.071901 0.000000 -0.000001 0.000000 0.000000 0.418665
    37 3.789474 -0.000905 1.136842 -0.098283 -0.272467 0.674683
    38 1.136843 0.000000 0.000000 0.000000 0.000000 0.279092
    39 1.136842 0.000000 0.000000 0.000000 0.000000 1.360667
    40 3.789475 -0.000301 0.378947 -0.047821 -0.175994 0.661009
    41 1.326315 0.000000 0.000000 0.000000 0.000000 0.279101
    42 1.326317 0.000000 0.000000 0.000000 0.000000 1.369348
    43 3.789474 0.000302 -0.378947 0.000638 -0.000469 0.654149
    44 1.136842 0.000000 0.000000 0.000000 0.000000 0.218045
    45 1.136843 -0.000001 0.000000 0.000000 0.000000 1.308254
    46 3.789474 0.000905 -1.136842 0.105732 0.104131 0.790521
    47 0.947368 0.000000 0.000000 0.000000 0.000000 0.279105
    48 0.947368 0.000000 0.000000 0.000000 0.000000 0.837281
  time 13
    0 0.001747 1.140660 -24.602341 0.000000 0.000000 -1.570795
    1 0.000000 0.000000 0.000000 -1.570795 -1.570796 0.000000
    2 1.326317 -0.003921 0.000002 -0.000004 0.000006 0.000793
    3 4.926311 -0.003899 0.000102 0.000000 -0.000001 0.000000
    4 4.926307 -0.003899 0.000040 0.000000 0.000000 -0.000003
    5 4.926314 -0.003884 0.000040 0.000000 0.000001 0.000003
    6 4.926305 -0.001485 0.000165 0.000000 -0.000002 -0.000003
    7 -0.000004 0.001514 -1.894737 3.142341 1.570798 -0.000022
    8 4.926327 0.000464 -0.000031 0.987270 -1.254433 -0.994777
    9 11.368442 0.000012 0.000013 -0.000004 -0.000001 -2.080777
    10 11.368369 0.000090 -0.000135 2.257000 -0.560901 0.171334
    11 3.671029 0.966001 0.311074 -0.025348 -0.035794 1.366912
    12 0.468048 0.919459 2.661563 0.000001 0.000000 -0.000001
    13 -0.492027 -0.160314 0.005983 -0.000002 0.000000 0.000000
    14 0.383202 0.108206 0.000005 0.683696 0.121985 -0.855042
    15 0.000002 0.001503 1.894737 -0.000014 -1.370797 3.140810
    16 4.926316 0.000000 0.000000 2.549027 0.486899 1.417178
    17 11.368423 0.000000 0.000000 0.000000 0.000000 -0.002385
    18 11.368422 0.000000 0.000000 -1.632105 0.145718 0.200311
    19 1.126229 0.104083 -1.358370 2.108798 0.482283 0.315505
    20 2.373624 0.000000 0.000001 0.000000 0.000000 0.113389
    21 1.071901 0.000000 -0.000001 0.000000 0.000000 0.017444
    22 3.789474 -0.000905 -1.136842 0.055869 0.146797 0.370353
    23 1.136843 0.000000 0.000000 0.000000 0.000000 0.200610
    24 1.136842 0.000000 0.000000 0.000000 0.000000 0.540751
    25 3.789474 -0.000302 -0.378947 0.069525 0.099197 0.719050
    26 1.326316 0.000000 0.000000 0.000000 0.000000 -0.104618
    27 1.326316 0.000000 0.000000 0.000000 0.000000 0.924519
    28 3.789474 0.000302 0.378947 -0.007937 0.043290 0.383571
    29 1.136841 -0.000001 0.000000 0.000000 0.000000 0.357607
    30 1.136842 0.000000 0.000000 0.000000 0.000000 0.915797
    31 3.789474 0.000904 1.136842 -0.063498 -0.094196 0.385109
    32 0.947368 0.000000 0.000000 0.000000 0.000000 0.950659
    33 0.947368 0.000000 0.000000 0.000000 0.000000 0.069768
    34 1.126229 0.104084 1.358370 -2.374981 -1.083006 0.431341
    35 2.373624 0.000000 0.000000 0.000000 0.000000 0.941977
    36 1.071901 0.000000 -0.000001 0.000000 0.000000 0.418665
    37 3.789474 -0.000905 1.136842 -0.098283 -0.272467 0.674683
    38 1.136843 0.000000 0.000000 0.000000 0.000000 0.279092
    39 1.136842 0.000000 0.000000 0.000000 0.000000 1.360667
    40 3.789475 -0.000301 0.378947 -0.047821 -0.175994 0.661009
    41 1.326315 0.000000 0.000000 0.000000 0.000000 0.279101
    42 1.326317 0.000000 0.000000 0.000000 0.000000 1.369348
    43 3.789474 0.000302 -0.378947 0.000638 -0.000469 0.654149
    44 1.136842 0.000000 0.000000 0.000000 0.000000 0.218045
    45 1.136843 -0.000001 0.000000 0.000000 0.000000 1.308254
    46 3.789474 0.000905 -1.136842 0.105732 0.104131 0.790521
    47 0.947368 0.000000 0.000000 0.000000 0.000000 0.279105
    48 0.947368 0.000000 0.000000 0.000000 0.000000 0.837281
  time 14
    0 0.001747 1.140660 -24.602341 0.000000 0.000000 -1.570795
    1 0.000000 0.000000 0.000000 -1.570795 -1.570796 0.000000
    2 1.326317 -0.003921 0.000002 -0.000004 0.000006 0.000793
    3 4.926311 -0.003899 0.000102 0.000000 -0.000001 0.000000
    4 4.926307 -0.003899 0.000040 0.000000 0.000000 -0.000003
    5 4.926314 -0.003884 0.000040 0.000000 0.000001 0.000003
    6 4.926305 -0.001485 0.000165 0.000000 -0.000002 -0.000003
    7 -0.000004 0.001514 -1.894737 3.142341 1.570798 -0.000022
    8 4.926327 0.000464 -0.000031 0.980700 -1.257974 -0.988406
    9 11.368442 0.000012 0.000013 -0.000004 -0.000001 -2.076069
    10 11.368369 0.000090 -0.000135 2.251929 -0.563860 0.181894
    11 3.671029 0.966001 0.311074 -0.025348 -0.035794 1.366912
    12 0.468048 0.919459 2.661563 0.000001 0.000000 -0.000001
    13 -0.492027 -0.160314 0.005983 -0.000002 0.000000 0.000000
    14 0.383202 0.108206 0.000005 0.455722 0.081313 -0.570012
    15 0.000002 0.001503 1.894737 -0.000014 -1.370797 3.140810
    16 4.926316 0.000000 0.000000 2.549027 0.486899 1.417178
    17 11.368423 0.000000 0.000000 0.000000 0.000000 -0.002385
    18 11.368422 0.000000 0.000000 -1.632105 0.145718 0.200311
    19 1.126229 0.104083 -1.358370 2.108798 0.482283 0.315505
    20 2.373624 0.000000 0.000001 0.000000 0.000000 0.113389
    21 1.071901 0.000000 -0.000001 0.000000 0.000000 0.017444
    22 3.789474 -0.000905 -1.136842 0.055869 0.146797 0.370353
    23 1.136843 0.000000 0.000000 0.000000 0.000000 0.200610
    24 1.136842 0.000000 0.000000 0.000000 0.000000 0.540751
    25 3.789474 -0.000302 -0.378947 0.069525 0.099197 0.719050
    26 1.326316 0.000000 0.000000 0.000000 0.000000 -0.104618
    27 1.326316 0.000000 0.000000 0.000000 0.000000 0.924519
    28 3.789474 0.000302 0.378947 -0.007937 0.043290 0.383571
    29 1.136841 -0.000001 0.000000 0.000000 0.000000 0.357607
    30 1.136842 0.000000 0.000000 0.000000 0.000000 0.915797
    31 3.789474 0.000904 1.136842 -0.063498 -0.094196 0.385109
    32 0.947368 0.000000 0.000000 0.000000 0.000000 0.950659
    33 0.947368 0.000000 0.000000 0.000000 0.000000 0.069768
    34 1.126229 0.104084 1.358370 -2.374981 -1.083006 0.431341
    35 2.373624 0.000000 0.000000 0.000000 0.000000 0.941977
    36 1.071901 0.000000 -0.000001 0.000000 0.000000 0.418665
    37 3.789474 -0.000905 1.136842 -0.098283 -0.272467 0.674683
    38 1.136843 0.000000 0.000000 0.000000 0.000000 0.279092
    39 1.136842 0.000000 0.000000 0.000000 0.000000 1.360667
    40 3.789475 -0.000301 0.378947 -0.047821 -0.175994 0.661009
    41 1.326315 0.000000 0.000000 0.000000 0.000000 0.279101
    42 1.326317 0.000000 0.000000 0.000000 0.000000 1.369348
    43 3.789474 0.000302 -0.378947 0.000638 -0.000469 0.654149
    44 1.136842 0.000000 0.000000 0.000000 0.000000 0.218045
    45 1.136843 -0.000001 0.000000 0.000000 0.000000 1.308254
    46 3.789474 0.000905 -1.136842 0.105732 0.104131 0.790521
    47 0.947368 0.000000 0.000000 0.000000 0.000000 0.279105
    48 0.947368 0.000000 0.000000 0.000000 0.000000 0.837281
  time 15
    0 0.001747 1.140660 -24.602341 0.000000 0.000000 -1.570795
    1 0.000000 0.000000 0.000000 -1.570795 -1.570796 0.000000
    2 1.326317 -0.003921 0.000002 -0.000004 0.000006 0.000793
    3 4.926311 -0.003899 0.000102 0.000000 -0.000001 0.000000
    4 4.926307 -0.003899 0.000040 0.000000 0.000000 -0.000003
    5 4.926314 -0.003884 0.000040 0.000000 0.000001 0.000003
    6 4.926305 -0.001485 0.000165 0.000000 -0.000002 -0.000003
    7 -0.000004 0.001514 -1.894737 3.142341 1.570798 -0.000022
    8 4.926327 0.000464 -0.000031 0.980700 -1.257974 -0.988406
    9 11.368442 0.000012 0.000013 -0.000004 -0.000001 -2.076069
    10 11.368369 0.000090 -0.000135 2.268479 -0.541670 0.150296
    11 3.671029 0.966001 0.311074 -0.025348 -0.035794 1.366912
    12 0.468048 0.919459 2.661563 0.000001 0.000000 -0.000001
    13 -0.492027 -0.160314 0.005983 -0.000002 0.000000 0.000000
    14 0.383202 0.108206 0.000005 0.000000 0.000000 0.000000
    15 0.000002 0.001503 1.894737 -0.000014 -1.370797 3.140810
    16 4.926316 0.000000 0.000000 2.549027 0.486899 1.417178
    17 11.368423 0.000000 0.000000 0.000000 0.000000 -0.002385
    18 11.368422 0.000000 0.000000 -1.632105 0.145718 0.200311
    19 1.126229 0.104083 -1.358370 2.108798 0.482283 0.315505
    20 2.373624 0.000000 0.000001 0.000000 0.000000 0.113389
    21 1.071901 0.000000 -0.000001 0.000000 0.000000 0.017444
    22 3.789474 -0.000905 -1.136842 0.055869 0.146797 0.370353
    23 1.136843 0.000000 0.000000 0.000000 0.000000 0.200610
    24 1.136842 0.000000 0.000000 0.000000 0.000000 0.540751
    25 3.789474 -0.000302 -0.378947 0.069525 0.099197 0.719050
    26 1.326316 0.000000 0.000000 0.000000 0.000000 -0.104618
    27 1.326316 0.000000 0.000000 0.000000 0.000000 0.924519
    28 3.789474 0.000302 0.378947 -0.007937 0.043290 0.383571
    29 1.136841 -0.000001 0.000000 0.000000 0.000000 0.357607
    30 1.136842 0.000000 0.000000 0.000000 0.000000 0.915797
    31 3.789474 0.000904 1.136842 -0.063498 -0.094196 0.385109
    32 0.947368 0.000000 0.000000 0.000000 0.000000 0.950659
    33 0.947368 0.000000 0.000000 0.000000 0.000000 0.069768
    34 1.126229 0.104084 1.358370 -2.374981 -1.083006 0.431341
    35 2.373624 0.000000 0.000000 0.000000 0.000000 0.941977
    36 1.071901 0.000000 -0.000001 0.000000 0.000000 0.418665
    37 3.789474 -0.000905 1.136842 -0.098283 -0.272467 0.674683
    38 1.136843 0.000000 0.000000 0.000000 0.000000 0.279092
    39 1.136842 0.000000 0.000000 0.000000 0.000000 1.360667
    40 3.789475 -0.000301 0.378947 -0.047821 -0.175994 0.661009
    41 1.326315 0.000000 0.000000 0.000000 0.000000 0.279101
    42 1.326317 0.000000 0.000000 0.000000 0.000000 1.369348
    43 3.789474 0.000302 -0.378947 0.000638 -0.000469 0.654149
    44 1.136842 0.000000 0.000000 0.000000 0.000000 0.218045
    45 1.136843 -0.000001 0.000000 0.000000 0.000000 1.308254
    46 3.789474 0.000905 -1.136842 0.105732 0.104131 0.790521
    47 0.947368 0.000000 0.000000 0.000000 0.000000 0.279105
    48 0.947368 0.000000 0.000000 0.000000 0.000000 0.837281
end
