version 1
nodes
  0 "Hands biped" -1
  1 "Bip01 Pelvis" 0
  2 "Bip01 Spine" 1
  3 "Bip01 Spine1" 2
  4 "Bip01 Spine2" 3
  5 "Bip01 Spine3" 4
  6 "Bip01 Neck" 5
  7 "Bip01 R Arm" 6
  8 "Bip01 R Arm1" 7
  9 "Bip01 R Arm2" 8
  10 "Bip01 R Hand" 9
  11 "Dummy22" 10
  12 "Dummy23" 11
  13 "Bone03" 12
  14 "Bone04" 13
  15 "Bip01 L Arm" 6
  16 "Bip01 L Arm1" 15
  17 "Bip01 L Arm2" 16
  18 "Bip01 L Hand" 17
  19 "Bip01 L Finger0" 18
  20 "Bip01 L Finger01" 19
  21 "Bip01 L Finger02" 20
  22 "Bip01 L Finger1" 18
  23 "Bip01 L Finger11" 22
  24 "Bip01 L Finger12" 23
  25 "Bip01 L Finger2" 18
  26 "Bip01 L Finger21" 25
  27 "Bip01 L Finger22" 26
  28 "Bip01 L Finger3" 18
  29 "Bip01 L Finger31" 28
  30 "Bip01 L Finger32" 29
  31 "Bip01 L Finger4" 18
  32 "Bip01 L Finger41" 31
  33 "Bip01 L Finger42" 32
  34 "Bip01 R Finger0" 10
  35 "Bip01 R Finger01" 34
  36 "Bip01 R Finger02" 35
  37 "Bip01 R Finger1" 10
  38 "Bip01 R Finger11" 37
  39 "Bip01 R Finger12" 38
  40 "Bip01 R Finger2" 10
  41 "Bip01 R Finger21" 40
  42 "Bip01 R Finger22" 41
  43 "Bip01 R Finger3" 10
  44 "Bip01 R Finger31" 43
  45 "Bip01 R Finger32" 44
  46 "Bip01 R Finger4" 10
  47 "Bip01 R Finger41" 46
  48 "Bip01 R Finger42" 47
end
skeleton
  time 0
    0 -3.111629 5.152501 -20.602219 0.000000 0.000000 -1.570795
    1 0.000000 0.000000 0.000000 -1.570795 -1.570796 0.000000
    2 1.326317 -0.003921 0.000002 -0.000004 0.000006 0.000793
    3 4.926311 -0.003899 0.000102 0.000000 -0.000001 0.000000
    4 4.926307 -0.003899 0.000040 0.000000 0.000000 -0.000003
    5 4.926314 -0.003884 0.000040 0.000000 0.000001 0.000003
    6 4.926305 -0.001485 0.000165 0.000000 -0.000002 -0.000003
    7 -0.000004 0.001514 -1.894737 3.142341 1.570798 -0.000022
    8 4.926327 0.000464 -0.000031 1.532905 0.210923 -1.617707
    9 11.368442 0.000012 0.000013 -0.000004 -0.000001 -1.121043
    10 11.368369 0.000090 -0.000135 0.818308 0.489638 -0.506421
    11 -62.795843 -39.757898 0.369670 -0.025348 -0.035794 1.366912
    12 0.468048 0.919459 2.661563 0.000001 0.000000 -0.000001
    13 -0.492027 -0.160314 0.005983 -0.000002 0.000000 0.000000
    14 0.383202 0.108206 0.000005 0.000000 0.000000 0.000000
    15 0.000002 0.001503 1.894737 -0.000014 -1.370797 3.140810
    16 4.926316 0.000000 0.000000 0.000000 1.270796 0.000000
    17 11.368423 0.000000 0.000000 0.000000 0.000000 -0.200000
    18 11.368422 0.000000 0.000000 -1.570000 0.000000 0.000000
    19 1.126229 0.104083 -1.358370 1.823541 0.487125 0.071487
    20 2.373624 0.000000 0.000001 0.000000 0.000000 0.113389
    21 1.071901 0.000000 -0.000001 0.000000 0.000000 0.017444
    22 3.789474 -0.000905 -1.136842 0.011610 0.156576 0.079348
    23 1.136843 0.000000 0.000000 0.000000 0.000000 0.000000
    24 1.136842 0.000000 0.000000 0.000000 0.000000 0.000000
    25 3.789474 -0.000302 -0.378947 0.005372 0.078320 0.078679
    26 1.326316 0.000000 0.000000 0.000000 0.000000 0.000000
    27 1.326316 0.000000 0.000000 0.000000 0.000000 0.008722
    28 3.789474 0.000302 0.378947 -0.000794 0.000062 0.078500
    29 1.136841 -0.000001 0.000000 0.000000 0.000000 0.000000
    30 1.136842 0.000000 0.000000 0.000000 0.000000 0.000000
    31 3.789474 0.000904 1.136842 -0.012516 -0.147755 0.079485
    32 0.947368 0.000000 0.000000 0.000000 0.000000 0.000000
    33 0.947368 0.000000 0.000000 0.000000 0.000000 0.000000
    34 1.126229 0.104084 1.358370 -2.374981 -1.083006 0.431341
    35 2.373624 0.000000 0.000000 0.000000 0.000000 0.941977
    36 1.071901 0.000000 -0.000001 0.000000 0.000000 0.418665
    37 3.789474 -0.000905 1.136842 -0.098283 -0.272467 0.674683
    38 1.136843 0.000000 0.000000 0.000000 0.000000 0.279092
    39 1.136842 0.000000 0.000000 0.000000 0.000000 1.360667
    40 3.789475 -0.000301 0.378947 -0.047821 -0.175994 0.661009
    41 1.326315 0.000000 0.000000 0.000000 0.000000 0.279101
    42 1.326317 0.000000 0.000000 0.000000 0.000000 1.369348
    43 3.789474 0.000302 -0.378947 0.000638 -0.000469 0.654149
    44 1.136842 0.000000 0.000000 0.000000 0.000000 0.218045
    45 1.136843 -0.000001 0.000000 0.000000 0.000000 1.308254
    46 3.789474 0.000905 -1.136842 0.105732 0.104131 0.790521
    47 0.947368 0.000000 0.000000 0.000000 0.000000 0.279105
    48 0.947368 0.000000 0.000000 0.000000 0.000000 0.837281
  time 1
    0 -3.943686 6.761925 -20.602219 0.000000 0.000000 -1.570795
    1 0.000000 0.000000 0.000000 -1.570795 -1.570796 0.000000
    2 1.326317 -0.003921 0.000002 -0.000004 0.000006 0.000793
    3 4.926311 -0.003899 0.000102 0.000000 -0.000001 0.000000
    4 4.926307 -0.003899 0.000040 0.000000 0.000000 -0.000003
    5 4.926314 -0.003884 0.000040 0.000000 0.000001 0.000003
    6 4.926305 -0.001485 0.000165 0.000000 -0.000002 -0.000003
    7 -0.000004 0.001514 -1.894737 4.031495 1.234595 0.860734
    8 4.926327 0.000464 -0.000031 1.679480 0.114990 -1.333160
    9 11.368442 0.000012 0.000013 -0.000004 -0.000001 -0.771924
    10 11.368369 0.000090 -0.000135 0.343157 0.128872 -0.509203
    11 -63.166948 -34.679618 -1.243661 -0.025348 -0.035794 1.366912
    12 0.468048 0.919459 2.661563 0.000001 0.000000 -0.000001
    13 -0.492027 -0.160314 0.005983 -0.000002 0.000000 0.000000
    14 0.383202 0.108206 0.000005 0.000000 0.000000 0.000000
    15 0.000002 0.001503 1.894737 -0.000014 -1.370797 3.140810
    16 4.926316 0.000000 0.000000 0.000000 1.270796 0.000000
    17 11.368423 0.000000 0.000000 0.000000 0.000000 -0.200000
    18 11.368422 0.000000 0.000000 -1.570000 0.000000 0.000000
    19 1.126229 0.104083 -1.358370 1.823541 0.487125 0.071487
    20 2.373624 0.000000 0.000001 0.000000 0.000000 0.113389
    21 1.071901 0.000000 -0.000001 0.000000 0.000000 0.017444
    22 3.789474 -0.000905 -1.136842 0.011610 0.156576 0.079348
    23 1.136843 0.000000 0.000000 0.000000 0.000000 0.000000
    24 1.136842 0.000000 0.000000 0.000000 0.000000 0.000000
    25 3.789474 -0.000302 -0.378947 0.005372 0.078320 0.078679
    26 1.326316 0.000000 0.000000 0.000000 0.000000 0.000000
    27 1.326316 0.000000 0.000000 0.000000 0.000000 0.008722
    28 3.789474 0.000302 0.378947 -0.000794 0.000062 0.078500
    29 1.136841 -0.000001 0.000000 0.000000 0.000000 0.000000
    30 1.136842 0.000000 0.000000 0.000000 0.000000 0.000000
    31 3.789474 0.000904 1.136842 -0.012516 -0.147755 0.079485
    32 0.947368 0.000000 0.000000 0.000000 0.000000 0.000000
    33 0.947368 0.000000 0.000000 0.000000 0.000000 0.000000
    34 1.126229 0.104084 1.358370 -1.961880 -1.110910 0.314591
    35 2.373624 0.000000 0.000000 0.000000 0.000000 0.556424
    36 1.071901 0.000000 -0.000001 0.000000 0.000000 0.418665
    37 3.789474 -0.000905 1.136842 -0.009537 -0.428063 0.320670
    38 1.136843 0.000000 0.000000 0.000000 0.000000 0.073459
    39 1.136842 0.000000 0.000000 0.000000 0.000000 0.589538
    40 3.789475 -0.000301 0.378947 0.018873 -0.224904 0.285943
    41 1.326315 0.000000 0.000000 0.000000 0.000000 0.022061
    42 1.326317 0.000000 0.000000 0.000000 0.000000 0.713909
    43 3.789474 0.000302 -0.378947 0.001537 -0.017787 0.165782
    44 1.136842 0.000000 0.000000 0.000000 0.000000 0.218045
    45 1.136843 -0.000001 0.000000 0.000000 0.000000 0.537220
    46 3.789474 0.000905 -1.136842 0.042010 0.285338 0.265166
    47 0.947368 0.000000 0.000000 0.000000 0.000000 0.279105
    48 0.947368 0.000000 0.000000 0.000000 0.000000 0.374663
  time 2
    0 -4.717147 8.121342 -20.602219 0.000000 0.000000 -1.570795
    1 0.000000 0.000000 0.000000 -1.570795 -1.570796 0.000000
    2 1.326317 -0.003921 0.000002 -0.000004 0.000006 0.000793
    3 4.926311 -0.003899 0.000102 0.000000 -0.000001 0.000000
    4 4.926307 -0.003899 0.000040 0.000000 0.000000 -0.000003
    5 4.926314 -0.003884 0.000040 0.000000 0.000001 0.000003
    6 4.926305 -0.001485 0.000165 0.000000 -0.000002 -0.000003
    7 -0.000004 0.001514 -1.894737 4.098529 0.959363 0.859355
    8 4.926327 0.000464 -0.000031 1.519239 -0.054462 -1.199506
    9 11.368442 0.000012 0.000013 -0.000004 -0.000001 -0.295687
    10 11.368369 0.000090 -0.000135 -0.039105 -0.221381 -0.172810
    11 -68.354606 -4.838864 10.998900 -0.025348 -0.035794 1.366912
    12 0.468048 0.919459 2.661563 0.000001 0.000000 -0.000001
    13 -0.492027 -0.160314 0.005983 -0.000002 0.000000 0.000000
    14 0.383202 0.108206 0.000005 0.000000 0.000000 0.000000
    15 0.000002 0.001503 1.894737 -0.000014 -1.370797 3.140810
    16 4.926316 0.000000 0.000000 0.000000 1.270796 0.000000
    17 11.368423 0.000000 0.000000 0.000000 0.000000 -0.200000
    18 11.368422 0.000000 0.000000 -1.570000 0.000000 0.000000
    19 1.126229 0.104083 -1.358370 1.823541 0.487125 0.071487
    20 2.373624 0.000000 0.000001 0.000000 0.000000 0.113389
    21 1.071901 0.000000 -0.000001 0.000000 0.000000 0.017444
    22 3.789474 -0.000905 -1.136842 0.011610 0.156576 0.079348
    23 1.136843 0.000000 0.000000 0.000000 0.000000 0.000000
    24 1.136842 0.000000 0.000000 0.000000 0.000000 0.000000
    25 3.789474 -0.000302 -0.378947 0.005372 0.078320 0.078679
    26 1.326316 0.000000 0.000000 0.000000 0.000000 0.000000
    27 1.326316 0.000000 0.000000 0.000000 0.000000 0.008722
    28 3.789474 0.000302 0.378947 -0.000794 0.000062 0.078500
    29 1.136841 -0.000001 0.000000 0.000000 0.000000 0.000000
    30 1.136842 0.000000 0.000000 0.000000 0.000000 0.000000
    31 3.789474 0.000904 1.136842 -0.012516 -0.147755 0.079485
    32 0.947368 0.000000 0.000000 0.000000 0.000000 0.000000
    33 0.947368 0.000000 0.000000 0.000000 0.000000 0.000000
    34 1.126229 0.104084 1.358370 -1.515451 -1.114192 0.173906
    35 2.373624 0.000000 0.000000 0.000000 0.000000 0.156965
    36 1.071901 0.000000 -0.000001 0.000000 0.000000 0.418665
    37 3.789474 -0.000905 1.136842 0.149055 -0.545596 -0.088892
    38 1.136843 0.000000 0.000000 0.000000 0.000000 -0.139533
    39 1.136842 0.000000 0.000000 0.000000 0.000000 -0.209289
    40 3.789475 -0.000301 0.378947 0.102957 -0.246416 -0.108501
    41 1.326315 0.000000 0.000000 0.000000 0.000000 -0.244198
    42 1.326317 0.000000 0.000000 0.000000 0.000000 0.034842
    43 3.789474 0.000302 -0.378947 0.010945 -0.033092 -0.340319
    44 1.136842 0.000000 0.000000 0.000000 0.000000 0.218045
    45 1.136843 -0.000001 0.000000 0.000000 0.000000 -0.261643
    46 3.789474 0.000905 -1.136842 -0.121807 0.410625 -0.322493
    47 0.947368 0.000000 0.000000 0.000000 0.000000 0.279105
    48 0.947368 0.000000 0.000000 0.000000 0.000000 -0.104641
  time 3
    0 -5.299196 8.578387 -20.602219 0.000000 0.000000 -1.570795
    1 0.000000 0.000000 0.000000 -1.570795 -1.570796 0.000000
    2 1.326317 -0.003921 0.000002 -0.000004 0.000006 0.000793
    3 4.926311 -0.003899 0.000102 0.000000 -0.000001 0.000000
    4 4.926307 -0.003899 0.000040 0.000000 0.000000 -0.000003
    5 4.926314 -0.003884 0.000040 0.000000 0.000001 0.000003
    6 4.926305 -0.001485 0.000165 0.000000 -0.000002 -0.000003
    7 -0.000004 0.001514 -1.894737 4.152779 1.142067 0.966874
    8 4.926327 0.000464 -0.000031 1.060459 -0.087501 -1.434900
    9 11.368442 0.000012 0.000013 -0.000004 -0.000001 -0.168175
    10 11.368369 0.000090 -0.000135 0.202943 -0.221224 -0.049552
    11 -47.154741 44.963437 -1.407728 -0.025348 -0.035794 1.366912
    12 0.468048 0.919459 2.661563 0.000001 0.000000 -0.000001
    13 -0.492027 -0.160314 0.005983 -0.000002 0.000000 0.000000
    14 0.383202 0.108206 0.000005 0.000000 0.000000 0.000000
    15 0.000002 0.001503 1.894737 -0.000014 -1.370797 3.140810
    16 4.926316 0.000000 0.000000 0.000000 1.270796 0.000000
    17 11.368423 0.000000 0.000000 0.000000 0.000000 -0.200000
    18 11.368422 0.000000 0.000000 -1.570000 0.000000 0.000000
    19 1.126229 0.104083 -1.358370 1.823541 0.487125 0.071487
    20 2.373624 0.000000 0.000001 0.000000 0.000000 0.113389
    21 1.071901 0.000000 -0.000001 0.000000 0.000000 0.017444
    22 3.789474 -0.000905 -1.136842 0.011610 0.156576 0.079348
    23 1.136843 0.000000 0.000000 0.000000 0.000000 0.000000
    24 1.136842 0.000000 0.000000 0.000000 0.000000 0.000000
    25 3.789474 -0.000302 -0.378947 0.005372 0.078320 0.078679
    26 1.326316 0.000000 0.000000 0.000000 0.000000 0.000000
    27 1.326316 0.000000 0.000000 0.000000 0.000000 0.008722
    28 3.789474 0.000302 0.378947 -0.000794 0.000062 0.078500
    29 1.136841 -0.000001 0.000000 0.000000 0.000000 0.000000
    30 1.136842 0.000000 0.000000 0.000000 0.000000 0.000000
    31 3.789474 0.000904 1.136842 -0.012516 -0.147755 0.079485
    32 0.947368 0.000000 0.000000 0.000000 0.000000 0.000000
    33 0.947368 0.000000 0.000000 0.000000 0.000000 0.000000
    34 1.126229 0.104084 1.358370 -1.624702 -1.115996 0.208391
    35 2.373624 0.000000 0.000000 0.000000 0.000000 0.254589
    36 1.071901 0.000000 -0.000001 0.000000 0.000000 0.418665
    37 3.789474 -0.000905 1.136842 0.104461 -0.522370 0.015520
    38 1.136843 0.000000 0.000000 0.000000 0.000000 -0.087454
    39 1.136842 0.000000 0.000000 0.000000 0.000000 -0.014036
    40 3.789475 -0.000301 0.378947 0.081660 -0.244175 -0.011782
    41 1.326315 0.000000 0.000000 0.000000 0.000000 -0.179111
    42 1.326317 0.000000 0.000000 0.000000 0.000000 0.200778
    43 3.789474 0.000302 -0.378947 0.007949 -0.029832 -0.216568
    44 1.136842 0.000000 0.000000 0.000000 0.000000 0.218045
    45 1.136843 -0.000001 0.000000 0.000000 0.000000 -0.066399
    46 3.789474 0.000905 -1.136842 -0.074157 0.388777 -0.174417
    47 0.947368 0.000000 0.000000 0.000000 0.000000 0.279105
    48 0.947368 0.000000 0.000000 0.000000 0.000000 0.012444
  time 4
    0 -5.639050 1.043001 -20.602219 0.000000 0.000000 -1.570795
    1 0.000000 0.000000 0.000000 -1.570795 -1.570796 0.000000
    2 1.326317 -0.003921 0.000002 -0.000004 0.000006 0.000793
    3 4.926311 -0.003899 0.000102 0.000000 -0.000001 0.000000
    4 4.926307 -0.003899 0.000040 0.000000 0.000000 -0.000003
    5 4.926314 -0.003884 0.000040 0.000000 0.000001 0.000003
    6 4.926305 -0.001485 0.000165 0.000000 -0.000002 -0.000003
    7 -0.000004 0.001514 -1.894737 4.453914 1.382513 1.307020
    8 4.926327 0.000464 -0.000031 0.537163 -0.212348 -1.646999
    9 11.368442 0.000012 0.000013 -0.000004 -0.000001 -0.090295
    10 11.368369 0.000090 -0.000135 0.546260 -0.211215 0.042162
    11 -0.422846 57.346628 -20.716911 -0.025348 -0.035794 1.366912
    12 0.468048 0.919459 2.661563 0.000001 0.000000 -0.000001
    13 -0.492027 -0.160314 0.005983 -0.000002 0.000000 0.000000
    14 0.383202 0.108206 0.000005 0.000000 0.000000 0.000000
    15 0.000002 0.001503 1.894737 -0.000014 -1.370797 3.140810
    16 4.926316 0.000000 0.000000 0.000000 1.270796 0.000000
    17 11.368423 0.000000 0.000000 0.000000 0.000000 -0.200000
    18 11.368422 0.000000 0.000000 -1.570000 0.000000 0.000000
    19 1.126229 0.104083 -1.358370 1.823541 0.487125 0.071487
    20 2.373624 0.000000 0.000001 0.000000 0.000000 0.113389
    21 1.071901 0.000000 -0.000001 0.000000 0.000000 0.017444
    22 3.789474 -0.000905 -1.136842 0.011610 0.156576 0.079348
    23 1.136843 0.000000 0.000000 0.000000 0.000000 0.000000
    24 1.136842 0.000000 0.000000 0.000000 0.000000 0.000000
    25 3.789474 -0.000302 -0.378947 0.005372 0.078320 0.078679
    26 1.326316 0.000000 0.000000 0.000000 0.000000 0.000000
    27 1.326316 0.000000 0.000000 0.000000 0.000000 0.008722
    28 3.789474 0.000302 0.378947 -0.000794 0.000062 0.078500
    29 1.136841 -0.000001 0.000000 0.000000 0.000000 0.000000
    30 1.136842 0.000000 0.000000 0.000000 0.000000 0.000000
    31 3.789474 0.000904 1.136842 -0.012516 -0.147755 0.079485
    32 0.947368 0.000000 0.000000 0.000000 0.000000 0.000000
    33 0.947368 0.000000 0.000000 0.000000 0.000000 0.000000
    34 1.126229 0.104084 1.358370 -1.811573 -1.115152 0.267696
    35 2.373624 0.000000 0.000000 0.000000 0.000000 0.421302
    36 1.071901 0.000000 -0.000001 0.000000 0.000000 0.418665
    37 3.789474 -0.000905 1.136842 0.036784 -0.474084 0.187390
    38 1.136843 0.000000 0.000000 0.000000 0.000000 0.001394
    39 1.136842 0.000000 0.000000 0.000000 0.000000 0.319290
    40 3.789475 -0.000301 0.378947 0.046210 -0.235774 0.152985
    41 1.326315 0.000000 0.000000 0.000000 0.000000 -0.067982
    42 1.326317 0.000000 0.000000 0.000000 0.000000 0.484231
    43 3.789474 0.000302 -0.378947 0.003826 -0.023480 -0.005321
    44 1.136842 0.000000 0.000000 0.000000 0.000000 0.218045
    45 1.136843 -0.000001 0.000000 0.000000 0.000000 0.266993
    46 3.789474 0.000905 -1.136842 -0.003424 0.337579 0.071980
    47 0.947368 0.000000 0.000000 0.000000 0.000000 0.279105
    48 0.947368 0.000000 0.000000 0.000000 0.000000 0.212527
  time 5
    0 -5.396855 0.769555 -20.602219 0.000000 0.000000 -1.570795
    1 0.000000 0.000000 0.000000 -1.570795 -1.570796 0.000000
    2 1.326317 -0.003921 0.000002 -0.000004 0.000006 0.000793
    3 4.926311 -0.003899 0.000102 0.000000 -0.000001 0.000000
    4 4.926307 -0.003899 0.000040 0.000000 0.000000 -0.000003
    5 4.926314 -0.003884 0.000040 0.000000 0.000001 0.000003
    6 4.926305 -0.001485 0.000165 0.000000 -0.000002 -0.000003
    7 -0.000004 0.001514 -1.894737 -0.290486 1.457909 -3.431060
    8 4.926327 0.000464 -0.000031 0.106305 -0.366603 -1.739433
    9 11.368442 0.000012 0.000013 -0.000004 -0.000001 -0.042364
    10 11.368369 0.000090 -0.000135 0.837041 -0.212442 0.104844
    11 27.511600 46.045502 -22.150549 -0.025348 -0.035794 1.366912
    12 0.468048 0.919459 2.661563 0.000001 0.000000 -0.000001
    13 -0.492027 -0.160314 0.005983 -0.000002 0.000000 0.000000
    14 0.383202 0.108206 0.000005 0.000000 0.000000 0.000000
    15 0.000002 0.001503 1.894737 -0.000014 -1.370797 3.140810
    16 4.926316 0.000000 0.000000 0.000000 1.270796 0.000000
    17 11.368423 0.000000 0.000000 0.000000 0.000000 -0.200000
    18 11.368422 0.000000 0.000000 -1.570000 0.000000 0.000000
    19 1.126229 0.104083 -1.358370 1.823541 0.487125 0.071487
    20 2.373624 0.000000 0.000001 0.000000 0.000000 0.113389
    21 1.071901 0.000000 -0.000001 0.000000 0.000000 0.017444
    22 3.789474 -0.000905 -1.136842 0.011610 0.156576 0.079348
    23 1.136843 0.000000 0.000000 0.000000 0.000000 0.000000
    24 1.136842 0.000000 0.000000 0.000000 0.000000 0.000000
    25 3.789474 -0.000302 -0.378947 0.005372 0.078320 0.078679
    26 1.326316 0.000000 0.000000 0.000000 0.000000 0.000000
    27 1.326316 0.000000 0.000000 0.000000 0.000000 0.008722
    28 3.789474 0.000302 0.378947 -0.000794 0.000062 0.078500
    29 1.136841 -0.000001 0.000000 0.000000 0.000000 0.000000
    30 1.136842 0.000000 0.000000 0.000000 0.000000 0.000000
    31 3.789474 0.000904 1.136842 -0.012516 -0.147755 0.079485
    32 0.947368 0.000000 0.000000 0.000000 0.000000 0.000000
    33 0.947368 0.000000 0.000000 0.000000 0.000000 0.000000
    34 1.126229 0.104084 1.358370 -1.973534 -1.110469 0.318159
    35 2.373624 0.000000 0.000000 0.000000 0.000000 0.566966
    36 1.071901 0.000000 -0.000001 0.000000 0.000000 0.418665
    37 3.789474 -0.000905 1.136842 -0.012784 -0.424252 0.330859
    38 1.136843 0.000000 0.000000 0.000000 0.000000 0.079088
    39 1.136842 0.000000 0.000000 0.000000 0.000000 0.610633
    40 3.789475 -0.000301 0.378947 0.016799 -0.223909 0.296297
    41 1.326315 0.000000 0.000000 0.000000 0.000000 0.029090
    42 1.326317 0.000000 0.000000 0.000000 0.000000 0.731848
    43 3.789474 0.000302 -0.378947 0.001405 -0.017332 0.179164
    44 1.136842 0.000000 0.000000 0.000000 0.000000 0.218045
    45 1.136843 -0.000001 0.000000 0.000000 0.000000 0.558302
    46 3.789474 0.000905 -1.136842 0.045066 0.280940 0.279978
    47 0.947368 0.000000 0.000000 0.000000 0.000000 0.279105
    48 0.947368 0.000000 0.000000 0.000000 0.000000 0.387312
  time 6
    0 -4.861683 0.589862 -20.602219 0.000000 0.000000 -1.570795
    1 0.000000 0.000000 0.000000 -1.570795 -1.570796 0.000000
    2 1.326317 -0.003921 0.000002 -0.000004 0.000006 0.000793
    3 4.926311 -0.003899 0.000102 0.000000 -0.000001 0.000000
    4 4.926307 -0.003899 0.000040 0.000000 0.000000 -0.000003
    5 4.926314 -0.003884 0.000040 0.000000 0.000001 0.000003
    6 4.926305 -0.001485 0.000165 0.000000 -0.000002 -0.000003
    7 -0.000004 0.001514 -1.894737 0.328026 1.340262 -2.822504
    8 4.926327 0.000464 -0.000031 -0.210367 -0.484054 -1.752798
    9 11.368442 0.000012 0.000013 -0.000004 -0.000001 -0.012677
    10 11.368369 0.000090 -0.000135 1.043453 -0.219619 0.144463
    11 37.140800 38.588243 -16.880857 -0.025348 -0.035794 1.366912
    12 0.468048 0.919459 2.661563 0.000001 0.000000 -0.000001
    13 -0.492027 -0.160314 0.005983 -0.000002 0.000000 0.000000
    14 0.383202 0.108206 0.000005 0.000000 0.000000 0.000000
    15 0.000002 0.001503 1.894737 -0.000014 -1.370797 3.140810
    16 4.926316 0.000000 0.000000 0.000000 1.270796 0.000000
    17 11.368423 0.000000 0.000000 0.000000 0.000000 -0.200000
    18 11.368422 0.000000 0.000000 -1.570000 0.000000 0.000000
    19 1.126229 0.104083 -1.358370 1.823541 0.487125 0.071487
    20 2.373624 0.000000 0.000001 0.000000 0.000000 0.113389
    21 1.071901 0.000000 -0.000001 0.000000 0.000000 0.017444
    22 3.789474 -0.000905 -1.136842 0.011610 0.156576 0.079348
    23 1.136843 0.000000 0.000000 0.000000 0.000000 0.000000
    24 1.136842 0.000000 0.000000 0.000000 0.000000 0.000000
    25 3.789474 -0.000302 -0.378947 0.005372 0.078320 0.078679
    26 1.326316 0.000000 0.000000 0.000000 0.000000 0.000000
    27 1.326316 0.000000 0.000000 0.000000 0.000000 0.008722
    28 3.789474 0.000302 0.378947 -0.000794 0.000062 0.078500
    29 1.136841 -0.000001 0.000000 0.000000 0.000000 0.000000
    30 1.136842 0.000000 0.000000 0.000000 0.000000 0.000000
    31 3.789474 0.000904 1.136842 -0.012516 -0.147755 0.079485
    32 0.947368 0.000000 0.000000 0.000000 0.000000 0.000000
    33 0.947368 0.000000 0.000000 0.000000 0.000000 0.000000
    34 1.126229 0.104084 1.358370 -2.088031 -1.104961 0.352583
    35 2.373624 0.000000 0.000000 0.000000 0.000000 0.671355
    36 1.071901 0.000000 -0.000001 0.000000 0.000000 0.418665
    37 3.789474 -0.000905 1.136842 -0.042674 -0.384906 0.429986
    38 1.136843 0.000000 0.000000 0.000000 0.000000 0.134756
    39 1.136842 0.000000 0.000000 0.000000 0.000000 0.819382
    40 3.789475 -0.000301 0.378947 -0.002987 -0.212955 0.398483
    41 1.326315 0.000000 0.000000 0.000000 0.000000 0.098701
    42 1.326317 0.000000 0.000000 0.000000 0.000000 0.909328
    43 3.789474 0.000302 -0.378947 0.000410 -0.012706 0.311371
    44 1.136842 0.000000 0.000000 0.000000 0.000000 0.218045
    45 1.136843 -0.000001 0.000000 0.000000 0.000000 0.767081
    46 3.789474 0.000905 -1.136842 0.071444 0.235123 0.425234
    47 0.947368 0.000000 0.000000 0.000000 0.000000 0.279105
    48 0.947368 0.000000 0.000000 0.000000 0.000000 0.512575
  time 7
    0 -4.158536 0.558611 -20.602219 0.000000 0.000000 -1.570795
    1 0.000000 0.000000 0.000000 -1.570795 -1.570796 0.000000
    2 1.326317 -0.003921 0.000002 -0.000004 0.000006 0.000793
    3 4.926311 -0.003899 0.000102 0.000000 -0.000001 0.000000
    4 4.926307 -0.003899 0.000040 0.000000 0.000000 -0.000003
    5 4.926314 -0.003884 0.000040 0.000000 0.000001 0.000003
    6 4.926305 -0.001485 0.000165 0.000000 -0.000002 -0.000003
    7 -0.000004 0.001514 -1.894737 0.465204 1.247883 -2.698171
    8 4.926327 0.000464 -0.000031 -0.428752 -0.557618 -1.736497
    9 11.368442 0.000012 0.000013 -0.000004 -0.000001 0.005763
    10 11.368369 0.000090 -0.000135 1.178456 -0.227424 0.168444
    11 39.195551 36.279579 -10.431441 -0.025348 -0.035794 1.366912
    12 0.468048 0.919459 2.661563 0.000001 0.000000 -0.000001
    13 -0.492027 -0.160314 0.005983 -0.000002 0.000000 0.000000
    14 0.383202 0.108206 0.000005 0.000000 0.000000 0.000000
    15 0.000002 0.001503 1.894737 -0.000014 -1.370797 3.140810
    16 4.926316 0.000000 0.000000 0.000000 1.270796 0.000000
    17 11.368423 0.000000 0.000000 0.000000 0.000000 -0.200000
    18 11.368422 0.000000 0.000000 -1.570000 0.000000 0.000000
    19 1.126229 0.104083 -1.358370 1.823541 0.487125 0.071487
    20 2.373624 0.000000 0.000001 0.000000 0.000000 0.113389
    21 1.071901 0.000000 -0.000001 0.000000 0.000000 0.017444
    22 3.789474 -0.000905 -1.136842 0.011610 0.156576 0.079348
    23 1.136843 0.000000 0.000000 0.000000 0.000000 0.000000
    24 1.136842 0.000000 0.000000 0.000000 0.000000 0.000000
    25 3.789474 -0.000302 -0.378947 0.005372 0.078320 0.078679
    26 1.326316 0.000000 0.000000 0.000000 0.000000 0.000000
    27 1.326316 0.000000 0.000000 0.000000 0.000000 0.008722
    28 3.789474 0.000302 0.378947 -0.000794 0.000062 0.078500
    29 1.136841 -0.000001 0.000000 0.000000 0.000000 0.000000
    30 1.136842 0.000000 0.000000 0.000000 0.000000 0.000000
    31 3.789474 0.000904 1.136842 -0.012516 -0.147755 0.079485
    32 0.947368 0.000000 0.000000 0.000000 0.000000 0.000000
    33 0.947368 0.000000 0.000000 0.000000 0.000000 0.000000
    34 1.126229 0.104084 1.358370 -2.162101 -1.100374 0.374079
    35 2.373624 0.000000 0.000000 0.000000 0.000000 0.739792
    36 1.071901 0.000000 -0.000001 0.000000 0.000000 0.418665
    37 3.789474 -0.000905 1.136842 -0.059704 -0.357737 0.493431
    38 1.136843 0.000000 0.000000 0.000000 0.000000 0.171266
    39 1.136842 0.000000 0.000000 0.000000 0.000000 0.956333
    40 3.789475 -0.000301 0.378947 -0.015259 -0.204709 0.465222
    41 1.326315 0.000000 0.000000 0.000000 0.000000 0.144306
    42 1.326317 0.000000 0.000000 0.000000 0.000000 1.025641
    43 3.789474 0.000302 -0.378947 0.000075 -0.009614 0.398083
    44 1.136842 0.000000 0.000000 0.000000 0.000000 0.218045
    45 1.136843 -0.000001 0.000000 0.000000 0.000000 0.903951
    46 3.789474 0.000905 -1.136842 0.084783 0.203292 0.518949
    47 0.947368 0.000000 0.000000 0.000000 0.000000 0.279105
    48 0.947368 0.000000 0.000000 0.000000 0.000000 0.594703
  time 8
    0 -3.404607 0.609394 -20.602219 0.000000 0.000000 -1.570795
    1 0.000000 0.000000 0.000000 -1.570795 -1.570796 0.000000
    2 1.326317 -0.003921 0.000002 -0.000004 0.000006 0.000793
    3 4.926311 -0.003899 0.000102 0.000000 -0.000001 0.000000
    4 4.926307 -0.003899 0.000040 0.000000 0.000000 -0.000003
    5 4.926314 -0.003884 0.000040 0.000000 0.000001 0.000003
    6 4.926305 -0.001485 0.000165 0.000000 -0.000002 -0.000003
    7 -0.000004 0.001514 -1.894737 0.520490 1.187230 -2.653767
    8 4.926327 0.000464 -0.000031 -0.575590 -0.601505 -1.715200
    9 11.368442 0.000012 0.000013 -0.000004 -0.000001 0.017599
    10 11.368369 0.000090 -0.000135 1.265148 -0.233845 0.183082
    11 37.203302 36.607714 -3.294505 -0.025348 -0.035794 1.366912
    12 0.468048 0.919459 2.661563 0.000001 0.000000 -0.000001
    13 -0.492027 -0.160314 0.005983 -0.000002 0.000000 0.000000
    14 0.383202 0.108206 0.000005 0.000000 0.000000 0.000000
    15 0.000002 0.001503 1.894737 -0.000014 -1.370797 3.140810
    16 4.926316 0.000000 0.000000 0.000000 1.270796 0.000000
    17 11.368423 0.000000 0.000000 0.000000 0.000000 -0.200000
    18 11.368422 0.000000 0.000000 -1.570000 0.000000 0.000000
    19 1.126229 0.104083 -1.358370 1.823541 0.487125 0.071487
    20 2.373624 0.000000 0.000001 0.000000 0.000000 0.113389
    21 1.071901 0.000000 -0.000001 0.000000 0.000000 0.017444
    22 3.789474 -0.000905 -1.136842 0.011610 0.156576 0.079348
    23 1.136843 0.000000 0.000000 0.000000 0.000000 0.000000
    24 1.136842 0.000000 0.000000 0.000000 0.000000 0.000000
    25 3.789474 -0.000302 -0.378947 0.005372 0.078320 0.078679
    26 1.326316 0.000000 0.000000 0.000000 0.000000 0.000000
    27 1.326316 0.000000 0.000000 0.000000 0.000000 0.008722
    28 3.789474 0.000302 0.378947 -0.000794 0.000062 0.078500
    29 1.136841 -0.000001 0.000000 0.000000 0.000000 0.000000
    30 1.136842 0.000000 0.000000 0.000000 0.000000 0.000000
    31 3.789474 0.000904 1.136842 -0.012516 -0.147755 0.079485
    32 0.947368 0.000000 0.000000 0.000000 0.000000 0.000000
    33 0.947368 0.000000 0.000000 0.000000 0.000000 0.000000
    34 1.126229 0.104084 1.358370 -2.209125 -1.097073 0.387343
    35 2.373624 0.000000 0.000000 0.000000 0.000000 0.783745
    36 1.071901 0.000000 -0.000001 0.000000 0.000000 0.418665
    37 3.789474 -0.000905 1.136842 -0.069567 -0.339784 0.533570
    38 1.136843 0.000000 0.000000 0.000000 0.000000 0.194711
    39 1.136842 0.000000 0.000000 0.000000 0.000000 1.044201
    40 3.789475 -0.000301 0.378947 -0.022846 -0.199017 0.507968
    41 1.326315 0.000000 0.000000 0.000000 0.000000 0.173614
    42 1.326317 0.000000 0.000000 0.000000 0.000000 1.100387
    43 3.789474 0.000302 -0.378947 -0.000009 -0.007612 0.453749
    44 1.136842 0.000000 0.000000 0.000000 0.000000 0.218045
    45 1.136843 -0.000001 0.000000 0.000000 0.000000 0.991871
    46 3.789474 0.000905 -1.136842 0.091698 0.182271 0.578552
    47 0.947368 0.000000 0.000000 0.000000 0.000000 0.279105
    48 0.947368 0.000000 0.000000 0.000000 0.000000 0.647446
  time 9
    0 -2.685835 0.675802 -20.602219 0.000000 0.000000 -1.570795
    1 0.000000 0.000000 0.000000 -1.570795 -1.570796 0.000000
    2 1.326317 -0.003921 0.000002 -0.000004 0.000006 0.000793
    3 4.926311 -0.003899 0.000102 0.000000 -0.000001 0.000000
    4 4.926307 -0.003899 0.000040 0.000000 0.000000 -0.000003
    5 4.926314 -0.003884 0.000040 0.000000 0.000001 0.000003
    6 4.926305 -0.001485 0.000165 0.000000 -0.000002 -0.000003
    7 -0.000004 0.001514 -1.894737 0.550897 1.144979 -2.632298
    8 4.926327 0.000464 -0.000031 -0.680907 -0.629747 -1.695464
    9 11.368442 0.000012 0.000013 -0.000004 -0.000001 0.025707
    10 11.368369 0.000090 -0.000135 1.325220 -0.239039 0.192885
    11 33.621162 36.971006 2.873652 -0.025348 -0.035794 1.366912
    12 0.468048 0.919459 2.661563 0.000001 0.000000 -0.000001
    13 -0.492027 -0.160314 0.005983 -0.000002 0.000000 0.000000
    14 0.383202 0.108206 0.000005 0.000000 0.000000 0.000000
    15 0.000002 0.001503 1.894737 -0.000014 -1.370797 3.140810
    16 4.926316 0.000000 0.000000 0.000000 1.270796 0.000000
    17 11.368423 0.000000 0.000000 0.000000 0.000000 -0.200000
    18 11.368422 0.000000 0.000000 -1.570000 0.000000 0.000000
    19 1.126229 0.104083 -1.358370 1.823541 0.487125 0.071487
    20 2.373624 0.000000 0.000001 0.000000 0.000000 0.113389
    21 1.071901 0.000000 -0.000001 0.000000 0.000000 0.017444
    22 3.789474 -0.000905 -1.136842 0.011610 0.156576 0.079348
    23 1.136843 0.000000 0.000000 0.000000 0.000000 0.000000
    24 1.136842 0.000000 0.000000 0.000000 0.000000 0.000000
    25 3.789474 -0.000302 -0.378947 0.005372 0.078320 0.078679
    26 1.326316 0.000000 0.000000 0.000000 0.000000 0.000000
    27 1.326316 0.000000 0.000000 0.000000 0.000000 0.008722
    28 3.789474 0.000302 0.378947 -0.000794 0.000062 0.078500
    29 1.136841 -0.000001 0.000000 0.000000 0.000000 0.000000
    30 1.136842 0.000000 0.000000 0.000000 0.000000 0.000000
    31 3.789474 0.000904 1.136842 -0.012516 -0.147755 0.079485
    32 0.947368 0.000000 0.000000 0.000000 0.000000 0.000000
    33 0.947368 0.000000 0.000000 0.000000 0.000000 0.000000
    34 1.126229 0.104084 1.358370 -2.241448 -1.094655 0.396277
    35 2.373624 0.000000 0.000000 0.000000 0.000000 0.814169
    36 1.071901 0.000000 -0.000001 0.000000 0.000000 0.418665
    37 3.789474 -0.000905 1.136842 -0.075907 -0.327165 0.561101
    38 1.136843 0.000000 0.000000 0.000000 0.000000 0.210927
    39 1.136842 0.000000 0.000000 0.000000 0.000000 1.105036
    40 3.789475 -0.000301 0.378947 -0.027927 -0.194882 0.537470
    41 1.326315 0.000000 0.000000 0.000000 0.000000 0.193875
    42 1.326317 0.000000 0.000000 0.000000 0.000000 1.152086
    43 3.789474 0.000302 -0.378947 0.000003 -0.006234 0.492288
    44 1.136842 0.000000 0.000000 0.000000 0.000000 0.218045
    45 1.136843 -0.000001 0.000000 0.000000 0.000000 1.052680
    46 3.789474 0.000905 -1.136842 0.095701 0.167518 0.619612
    47 0.947368 0.000000 0.000000 0.000000 0.000000 0.279105
    48 0.947368 0.000000 0.000000 0.000000 0.000000 0.683936
  time 10
    0 -2.072535 0.718772 -20.602219 0.000000 0.000000 -1.570795
    1 0.000000 0.000000 0.000000 -1.570795 -1.570796 0.000000
    2 1.326317 -0.003921 0.000002 -0.000004 0.000006 0.000793
    3 4.926311 -0.003899 0.000102 0.000000 -0.000001 0.000000
    4 4.926307 -0.003899 0.000040 0.000000 0.000000 -0.000003
    5 4.926314 -0.003884 0.000040 0.000000 0.000001 0.000003
    6 4.926305 -0.001485 0.000165 0.000000 -0.000002 -0.000003
    7 -0.000004 0.001514 -1.894737 0.573444 1.108811 -2.618243
    8 4.926327 0.000464 -0.000031 -0.773477 -0.652206 -1.675291
    9 11.368442 0.000012 0.000013 -0.000004 -0.000001 0.032900
    10 11.368369 0.000090 -0.000135 1.376629 -0.244043 0.201095
    11 31.007801 36.201451 6.697988 -0.025348 -0.035794 1.366912
    12 0.468048 0.919459 2.661563 0.000001 0.000000 -0.000001
    13 -0.492027 -0.160314 0.005983 -0.000002 0.000000 0.000000
    14 0.383202 0.108206 0.000005 0.000000 0.000000 0.000000
    15 0.000002 0.001503 1.894737 -0.000014 -1.370797 3.140810
    16 4.926316 0.000000 0.000000 0.000000 1.270796 0.000000
    17 11.368423 0.000000 0.000000 0.000000 0.000000 -0.200000
    18 11.368422 0.000000 0.000000 -1.570000 0.000000 0.000000
    19 1.126229 0.104083 -1.358370 1.823541 0.487125 0.071487
    20 2.373624 0.000000 0.000001 0.000000 0.000000 0.113389
    21 1.071901 0.000000 -0.000001 0.000000 0.000000 0.017444
    22 3.789474 -0.000905 -1.136842 0.011610 0.156576 0.079348
    23 1.136843 0.000000 0.000000 0.000000 0.000000 0.000000
    24 1.136842 0.000000 0.000000 0.000000 0.000000 0.000000
    25 3.789474 -0.000302 -0.378947 0.005372 0.078320 0.078679
    26 1.326316 0.000000 0.000000 0.000000 0.000000 0.000000
    27 1.326316 0.000000 0.000000 0.000000 0.000000 0.008722
    28 3.789474 0.000302 0.378947 -0.000794 0.000062 0.078500
    29 1.136841 -0.000001 0.000000 0.000000 0.000000 0.000000
    30 1.136842 0.000000 0.000000 0.000000 0.000000 0.000000
    31 3.789474 0.000904 1.136842 -0.012516 -0.147755 0.079485
    32 0.947368 0.000000 0.000000 0.000000 0.000000 0.000000
    33 0.947368 0.000000 0.000000 0.000000 0.000000 0.000000
    34 1.126229 0.104084 1.358370 -2.268902 -1.092448 0.403747
    35 2.373624 0.000000 0.000000 0.000000 0.000000 0.840129
    36 1.071901 0.000000 -0.000001 0.000000 0.000000 0.418665
    37 3.789474 -0.000905 1.136842 -0.081025 -0.316259 0.584450
    38 1.136843 0.000000 0.000000 0.000000 0.000000 0.224792
    39 1.136842 0.000000 0.000000 0.000000 0.000000 1.156943
    40 3.789475 -0.000301 0.378947 -0.032170 -0.191263 0.562648
    41 1.326315 0.000000 0.000000 0.000000 0.000000 0.211193
    42 1.326317 0.000000 0.000000 0.000000 0.000000 1.196228
    43 3.789474 0.000302 -0.378947 0.000063 -0.005060 0.525152
    44 1.136842 0.000000 0.000000 0.000000 0.000000 0.218045
    45 1.136843 -0.000001 0.000000 0.000000 0.000000 1.104586
    46 3.789474 0.000905 -1.136842 0.098637 0.154790 0.654516
    47 0.947368 0.000000 0.000000 0.000000 0.000000 0.279105
    48 0.947368 0.000000 0.000000 0.000000 0.000000 0.715085
  time 11
    0 -1.650647 0.726585 -20.602219 0.000000 0.000000 -1.570795
    1 0.000000 0.000000 0.000000 -1.570795 -1.570796 0.000000
    2 1.326317 -0.003921 0.000002 -0.000004 0.000006 0.000793
    3 4.926311 -0.003899 0.000102 0.000000 -0.000001 0.000000
    4 4.926307 -0.003899 0.000040 0.000000 0.000000 -0.000003
    5 4.926314 -0.003884 0.000040 0.000000 0.000001 0.000003
    6 4.926305 -0.001485 0.000165 0.000000 -0.000002 -0.000003
    7 -0.000004 0.001514 -1.894737 0.595472 1.068948 -2.606431
    8 4.926327 0.000464 -0.000031 -0.878597 -0.674844 -1.649622
    9 11.368442 0.000012 0.000013 -0.000004 -0.000001 0.041204
    10 11.368369 0.000090 -0.000135 1.433250 -0.250307 0.209953
    11 30.257778 34.795158 8.530075 -0.025348 -0.035794 1.366912
    12 0.468048 0.919459 2.661563 0.000001 0.000000 -0.000001
    13 -0.492027 -0.160314 0.005983 -0.000002 0.000000 0.000000
    14 0.383202 0.108206 0.000005 0.000000 0.000000 0.000000
    15 0.000002 0.001503 1.894737 -0.000014 -1.370797 3.140810
    16 4.926316 0.000000 0.000000 0.000000 1.270796 0.000000
    17 11.368423 0.000000 0.000000 0.000000 0.000000 -0.200000
    18 11.368422 0.000000 0.000000 -1.570000 0.000000 0.000000
    19 1.126229 0.104083 -1.358370 1.823541 0.487125 0.071487
    20 2.373624 0.000000 0.000001 0.000000 0.000000 0.113389
    21 1.071901 0.000000 -0.000001 0.000000 0.000000 0.017444
    22 3.789474 -0.000905 -1.136842 0.011610 0.156576 0.079348
    23 1.136843 0.000000 0.000000 0.000000 0.000000 0.000000
    24 1.136842 0.000000 0.000000 0.000000 0.000000 0.000000
    25 3.789474 -0.000302 -0.378947 0.005372 0.078320 0.078679
    26 1.326316 0.000000 0.000000 0.000000 0.000000 0.000000
    27 1.326316 0.000000 0.000000 0.000000 0.000000 0.008722
    28 3.789474 0.000302 0.378947 -0.000794 0.000062 0.078500
    29 1.136841 -0.000001 0.000000 0.000000 0.000000 0.000000
    30 1.136842 0.000000 0.000000 0.000000 0.000000 0.000000
    31 3.789474 0.000904 1.136842 -0.012516 -0.147755 0.079485
    32 0.947368 0.000000 0.000000 0.000000 0.000000 0.000000
    33 0.947368 0.000000 0.000000 0.000000 0.000000 0.000000
    34 1.126229 0.104084 1.358370 -2.298932 -1.089934 0.411736
    35 2.373624 0.000000 0.000000 0.000000 0.000000 0.868664
    36 1.071901 0.000000 -0.000001 0.000000 0.000000 0.418665
    37 3.789474 -0.000905 1.136842 -0.086298 -0.304118 0.609921
    38 1.136843 0.000000 0.000000 0.000000 0.000000 0.240000
    39 1.136842 0.000000 0.000000 0.000000 0.000000 1.214082
    40 3.789475 -0.000301 0.378947 -0.036724 -0.187128 0.590279
    41 1.326315 0.000000 0.000000 0.000000 0.000000 0.230237
    42 1.326317 0.000000 0.000000 0.000000 0.000000 1.244771
    43 3.789474 0.000302 -0.378947 0.000171 -0.003765 0.561300
    44 1.136842 0.000000 0.000000 0.000000 0.000000 0.218045
    45 1.136843 -0.000001 0.000000 0.000000 0.000000 1.161681
    46 3.789474 0.000905 -1.136842 0.101346 0.140696 0.692796
    47 0.947368 0.000000 0.000000 0.000000 0.000000 0.279105
    48 0.947368 0.000000 0.000000 0.000000 0.000000 0.749352
  time 12
    0 -1.490486 0.718772 -20.602219 0.000000 0.000000 -1.570795
    1 0.000000 0.000000 0.000000 -1.570795 -1.570796 0.000000
    2 1.326317 -0.003921 0.000002 -0.000004 0.000006 0.000793
    3 4.926311 -0.003899 0.000102 0.000000 -0.000001 0.000000
    4 4.926307 -0.003899 0.000040 0.000000 0.000000 -0.000003
    5 4.926314 -0.003884 0.000040 0.000000 0.000001 0.000003
    6 4.926305 -0.001485 0.000165 0.000000 -0.000002 -0.000003
    7 -0.000004 0.001514 -1.894737 0.619746 1.019829 -2.596170
    8 4.926327 0.000464 -0.000031 -1.013149 -0.699321 -1.612960
    9 11.368442 0.000012 0.000013 -0.000004 -0.000001 0.051994
    10 11.368369 0.000090 -0.000135 1.503111 -0.259434 0.220756
    11 30.257778 34.795158 8.530075 -0.025348 -0.035794 1.366912
    12 0.468048 0.919459 2.661563 0.000001 0.000000 -0.000001
    13 -0.492027 -0.160314 0.005983 -0.000002 0.000000 0.000000
    14 0.383202 0.108206 0.000005 0.000000 0.000000 0.000000
    15 0.000002 0.001503 1.894737 -0.000014 -1.370797 3.140810
    16 4.926316 0.000000 0.000000 0.000000 1.270796 0.000000
    17 11.368423 0.000000 0.000000 0.000000 0.000000 -0.200000
    18 11.368422 0.000000 0.000000 -1.570000 0.000000 0.000000
    19 1.126229 0.104083 -1.358370 1.823541 0.487125 0.071487
    20 2.373624 0.000000 0.000001 0.000000 0.000000 0.113389
    21 1.071901 0.000000 -0.000001 0.000000 0.000000 0.017444
    22 3.789474 -0.000905 -1.136842 0.011610 0.156576 0.079348
    23 1.136843 0.000000 0.000000 0.000000 0.000000 0.000000
    24 1.136842 0.000000 0.000000 0.000000 0.000000 0.000000
    25 3.789474 -0.000302 -0.378947 0.005372 0.078320 0.078679
    26 1.326316 0.000000 0.000000 0.000000 0.000000 0.000000
    27 1.326316 0.000000 0.000000 0.000000 0.000000 0.008722
    28 3.789474 0.000302 0.378947 -0.000794 0.000062 0.078500
    29 1.136841 -0.000001 0.000000 0.000000 0.000000 0.000000
    30 1.136842 0.000000 0.000000 0.000000 0.000000 0.000000
    31 3.789474 0.000904 1.136842 -0.012516 -0.147755 0.079485
    32 0.947368 0.000000 0.000000 0.000000 0.000000 0.000000
    33 0.947368 0.000000 0.000000 0.000000 0.000000 0.000000
    34 1.126229 0.104084 1.358370 -2.335370 -1.086710 0.421279
    35 2.373624 0.000000 0.000000 0.000000 0.000000 0.903655
    36 1.071901 0.000000 -0.000001 0.000000 0.000000 0.418665
    37 3.789474 -0.000905 1.136842 -0.092290 -0.289114 0.640933
    38 1.136843 0.000000 0.000000 0.000000 0.000000 0.258668
    39 1.136842 0.000000 0.000000 0.000000 0.000000 1.284011
    40 3.789475 -0.000301 0.378947 -0.042129 -0.181927 0.624064
    41 1.326315 0.000000 0.000000 0.000000 0.000000 0.253563
    42 1.326317 0.000000 0.000000 0.000000 0.000000 1.304236
    43 3.789474 0.000302 -0.378947 0.000363 -0.002183 0.605619
    44 1.136842 0.000000 0.000000 0.000000 0.000000 0.218045
    45 1.136843 -0.000001 0.000000 0.000000 0.000000 1.231674
    46 3.789474 0.000905 -1.136842 0.103899 0.123306 0.739534
    47 0.947368 0.000000 0.000000 0.000000 0.000000 0.279105
    48 0.947368 0.000000 0.000000 0.000000 0.000000 0.791336
  time 13
    0 -1.490486 0.718772 -20.602219 0.000000 0.000000 -1.570795
    1 0.000000 0.000000 0.000000 -1.570795 -1.570796 0.000000
    2 1.326317 -0.003921 0.000002 -0.000004 0.000006 0.000793
    3 4.926311 -0.003899 0.000102 0.000000 -0.000001 0.000000
    4 4.926307 -0.003899 0.000040 0.000000 0.000000 -0.000003
    5 4.926314 -0.003884 0.000040 0.000000 0.000001 0.000003
    6 4.926305 -0.001485 0.000165 0.000000 -0.000002 -0.000003
    7 -0.000004 0.001514 -1.894737 0.644020 0.964999 -2.589445
    8 4.926327 0.000464 -0.000031 -1.172142 -0.721197 -1.564870
    9 11.368442 0.000012 0.000013 -0.000004 -0.000001 0.066576
    10 11.368369 0.000090 -0.000135 1.580789 -0.273189 0.233125
    11 -25.435328 -17.296275 -49.647482 -0.025348 -0.035794 1.366912
    12 0.468048 0.919459 2.661563 0.000001 0.000000 -0.000001
    13 -0.492027 -0.160314 0.005983 -0.000002 0.000000 0.000000
    14 0.383202 0.108206 0.000005 0.000000 0.000000 0.000000
    15 0.000002 0.001503 1.894737 -0.000014 -1.370797 3.140810
    16 4.926316 0.000000 0.000000 0.000000 1.270796 0.000000
    17 11.368423 0.000000 0.000000 0.000000 0.000000 -0.200000
    18 11.368422 0.000000 0.000000 -1.570000 0.000000 0.000000
    19 1.126229 0.104083 -1.358370 1.823541 0.487125 0.071487
    20 2.373624 0.000000 0.000001 0.000000 0.000000 0.113389
    21 1.071901 0.000000 -0.000001 0.000000 0.000000 0.017444
    22 3.789474 -0.000905 -1.136842 0.011610 0.156576 0.079348
    23 1.136843 0.000000 0.000000 0.000000 0.000000 0.000000
    24 1.136842 0.000000 0.000000 0.000000 0.000000 0.000000
    25 3.789474 -0.000302 -0.378947 0.005372 0.078320 0.078679
    26 1.326316 0.000000 0.000000 0.000000 0.000000 0.000000
    27 1.326316 0.000000 0.000000 0.000000 0.000000 0.008722
    28 3.789474 0.000302 0.378947 -0.000794 0.000062 0.078500
    29 1.136841 -0.000001 0.000000 0.000000 0.000000 0.000000
    30 1.136842 0.000000 0.000000 0.000000 0.000000 0.000000
    31 3.789474 0.000904 1.136842 -0.012516 -0.147755 0.079485
    32 0.947368 0.000000 0.000000 0.000000 0.000000 0.000000
    33 0.947368 0.000000 0.000000 0.000000 0.000000 0.000000
    34 1.126229 0.104084 1.358370 -2.374981 -1.083006 0.431341
    35 2.373624 0.000000 0.000000 0.000000 0.000000 0.941977
    36 1.071901 0.000000 -0.000001 0.000000 0.000000 0.418665
    37 3.789474 -0.000905 1.136842 -0.098283 -0.272467 0.674683
    38 1.136843 0.000000 0.000000 0.000000 0.000000 0.279092
    39 1.136842 0.000000 0.000000 0.000000 0.000000 1.360667
    40 3.789475 -0.000301 0.378947 -0.047821 -0.175994 0.661009
    41 1.326315 0.000000 0.000000 0.000000 0.000000 0.279101
    42 1.326317 0.000000 0.000000 0.000000 0.000000 1.369348
    43 3.789474 0.000302 -0.378947 0.000638 -0.000469 0.654149
    44 1.136842 0.000000 0.000000 0.000000 0.000000 0.218045
    45 1.136843 -0.000001 0.000000 0.000000 0.000000 1.308254
    46 3.789474 0.000905 -1.136842 0.105732 0.104131 0.790521
    47 0.947368 0.000000 0.000000 0.000000 0.000000 0.279105
    48 0.947368 0.000000 0.000000 0.000000 0.000000 0.837281
  time 14
    0 -1.490486 0.718772 -20.602219 0.000000 0.000000 -1.570795
    1 0.000000 0.000000 0.000000 -1.570795 -1.570796 0.000000
    2 1.326317 -0.003921 0.000002 -0.000004 0.000006 0.000793
    3 4.926311 -0.003899 0.000102 0.000000 -0.000001 0.000000
    4 4.926307 -0.003899 0.000040 0.000000 0.000000 -0.000003
    5 4.926314 -0.003884 0.000040 0.000000 0.000001 0.000003
    6 4.926305 -0.001485 0.000165 0.000000 -0.000002 -0.000003
    7 -0.000004 0.001514 -1.894737 0.644020 0.964999 -2.589445
    8 4.926327 0.000464 -0.000031 -1.172142 -0.721197 -1.564870
    9 11.368442 0.000012 0.000013 -0.000004 -0.000001 0.066576
    10 11.368369 0.000090 -0.000135 1.580789 -0.273189 0.233125
    11 -25.907999 -12.753168 -50.780329 -0.025348 -0.035794 1.366912
    12 0.468048 0.919459 2.661563 0.000001 0.000000 -0.000001
    13 -0.492027 -0.160314 0.005983 -0.000002 0.000000 0.000000
    14 0.383202 0.108206 0.000005 0.000000 0.000000 0.000000
    15 0.000002 0.001503 1.894737 -0.000014 -1.370797 3.140810
    16 4.926316 0.000000 0.000000 0.000000 1.270796 0.000000
    17 11.368423 0.000000 0.000000 0.000000 0.000000 -0.200000
    18 11.368422 0.000000 0.000000 -1.570000 0.000000 0.000000
    19 1.126229 0.104083 -1.358370 1.823541 0.487125 0.071487
    20 2.373624 0.000000 0.000001 0.000000 0.000000 0.113389
    21 1.071901 0.000000 -0.000001 0.000000 0.000000 0.017444
    22 3.789474 -0.000905 -1.136842 0.011610 0.156576 0.079348
    23 1.136843 0.000000 0.000000 0.000000 0.000000 0.000000
    24 1.136842 0.000000 0.000000 0.000000 0.000000 0.000000
    25 3.789474 -0.000302 -0.378947 0.005372 0.078320 0.078679
    26 1.326316 0.000000 0.000000 0.000000 0.000000 0.000000
    27 1.326316 0.000000 0.000000 0.000000 0.000000 0.008722
    28 3.789474 0.000302 0.378947 -0.000794 0.000062 0.078500
    29 1.136841 -0.000001 0.000000 0.000000 0.000000 0.000000
    30 1.136842 0.000000 0.000000 0.000000 0.000000 0.000000
    31 3.789474 0.000904 1.136842 -0.012516 -0.147755 0.079485
    32 0.947368 0.000000 0.000000 0.000000 0.000000 0.000000
    33 0.947368 0.000000 0.000000 0.000000 0.000000 0.000000
    34 1.126229 0.104084 1.358370 -2.374981 -1.083006 0.431341
    35 2.373624 0.000000 0.000000 0.000000 0.000000 0.941977
    36 1.071901 0.000000 -0.000001 0.000000 0.000000 0.418665
    37 3.789474 -0.000905 1.136842 -0.098283 -0.272467 0.674683
    38 1.136843 0.000000 0.000000 0.000000 0.000000 0.279092
    39 1.136842 0.000000 0.000000 0.000000 0.000000 1.360667
    40 3.789475 -0.000301 0.378947 -0.047821 -0.175994 0.661009
    41 1.326315 0.000000 0.000000 0.000000 0.000000 0.279101
    42 1.326317 0.000000 0.000000 0.000000 0.000000 1.369348
    43 3.789474 0.000302 -0.378947 0.000638 -0.000469 0.654149
    44 1.136842 0.000000 0.000000 0.000000 0.000000 0.218045
    45 1.136843 -0.000001 0.000000 0.000000 0.000000 1.308254
    46 3.789474 0.000905 -1.136842 0.105732 0.104131 0.790521
    47 0.947368 0.000000 0.000000 0.000000 0.000000 0.279105
    48 0.947368 0.000000 0.000000 0.000000 0.000000 0.837281
  time 15
    0 -1.490486 0.718772 -20.602219 0.000000 0.000000 -1.570795
    1 0.000000 0.000000 0.000000 -1.570795 -1.570796 0.000000
    2 1.326317 -0.003921 0.000002 -0.000004 0.000006 0.000793
    3 4.926311 -0.003899 0.000102 0.000000 -0.000001 0.000000
    4 4.926307 -0.003899 0.000040 0.000000 0.000000 -0.000003
    5 4.926314 -0.003884 0.000040 0.000000 0.000001 0.000003
    6 4.926305 -0.001485 0.000165 0.000000 -0.000002 -0.000003
    7 -0.000004 0.001514 -1.894737 0.644020 0.964999 -2.589445
    8 4.926327 0.000464 -0.000031 -1.172142 -0.721197 -1.564870
    9 11.368442 0.000012 0.000013 -0.000004 -0.000001 0.066576
    10 11.368369 0.000090 -0.000135 1.580789 -0.273189 0.233125
    11 -26.630677 3.969999 -51.960052 -0.025348 -0.035794 1.366912
    12 0.468048 0.919459 2.661563 0.000001 0.000000 -0.000001
    13 -0.492027 -0.160314 0.005983 -0.000002 0.000000 0.000000
    14 0.383202 0.108206 0.000005 0.000000 0.000000 0.000000
    15 0.000002 0.001503 1.894737 -0.000014 -1.370797 3.140810
    16 4.926316 0.000000 0.000000 0.000000 1.270796 0.000000
    17 11.368423 0.000000 0.000000 0.000000 0.000000 -0.200000
    18 11.368422 0.000000 0.000000 -1.570000 0.000000 0.000000
    19 1.126229 0.104083 -1.358370 1.823541 0.487125 0.071487
    20 2.373624 0.000000 0.000001 0.000000 0.000000 0.113389
    21 1.071901 0.000000 -0.000001 0.000000 0.000000 0.017444
    22 3.789474 -0.000905 -1.136842 0.011610 0.156576 0.079348
    23 1.136843 0.000000 0.000000 0.000000 0.000000 0.000000
    24 1.136842 0.000000 0.000000 0.000000 0.000000 0.000000
    25 3.789474 -0.000302 -0.378947 0.005372 0.078320 0.078679
    26 1.326316 0.000000 0.000000 0.000000 0.000000 0.000000
    27 1.326316 0.000000 0.000000 0.000000 0.000000 0.008722
    28 3.789474 0.000302 0.378947 -0.000794 0.000062 0.078500
    29 1.136841 -0.000001 0.000000 0.000000 0.000000 0.000000
    30 1.136842 0.000000 0.000000 0.000000 0.000000 0.000000
    31 3.789474 0.000904 1.136842 -0.012516 -0.147755 0.079485
    32 0.947368 0.000000 0.000000 0.000000 0.000000 0.000000
    33 0.947368 0.000000 0.000000 0.000000 0.000000 0.000000
    34 1.126229 0.104084 1.358370 -2.374981 -1.083006 0.431341
    35 2.373624 0.000000 0.000000 0.000000 0.000000 0.941977
    36 1.071901 0.000000 -0.000001 0.000000 0.000000 0.418665
    37 3.789474 -0.000905 1.136842 -0.098283 -0.272467 0.674683
    38 1.136843 0.000000 0.000000 0.000000 0.000000 0.279092
    39 1.136842 0.000000 0.000000 0.000000 0.000000 1.360667
    40 3.789475 -0.000301 0.378947 -0.047821 -0.175994 0.661009
    41 1.326315 0.000000 0.000000 0.000000 0.000000 0.279101
    42 1.326317 0.000000 0.000000 0.000000 0.000000 1.369348
    43 3.789474 0.000302 -0.378947 0.000638 -0.000469 0.654149
    44 1.136842 0.000000 0.000000 0.000000 0.000000 0.218045
    45 1.136843 -0.000001 0.000000 0.000000 0.000000 1.308254
    46 3.789474 0.000905 -1.136842 0.105732 0.104131 0.790521
    47 0.947368 0.000000 0.000000 0.000000 0.000000 0.279105
    48 0.947368 0.000000 0.000000 0.000000 0.000000 0.837281
  time 16
    0 -1.490486 0.718772 -20.602219 0.000000 0.000000 -1.570795
    1 0.000000 0.000000 0.000000 -1.570795 -1.570796 0.000000
    2 1.326317 -0.003921 0.000002 -0.000004 0.000006 0.000793
    3 4.926311 -0.003899 0.000102 0.000000 -0.000001 0.000000
    4 4.926307 -0.003899 0.000040 0.000000 0.000000 -0.000003
    5 4.926314 -0.003884 0.000040 0.000000 0.000001 0.000003
    6 4.926305 -0.001485 0.000165 0.000000 -0.000002 -0.000003
    7 -0.000004 0.001514 -1.894737 0.644020 0.964999 -2.589445
    8 4.926327 0.000464 -0.000031 -1.172142 -0.721197 -1.564870
    9 11.368442 0.000012 0.000013 -0.000004 -0.000001 0.066576
    10 11.368369 0.000090 -0.000135 1.580789 -0.273189 0.233125
    11 -26.927561 19.407970 -48.428695 -0.025348 -0.035794 1.366912
    12 0.468048 0.919459 2.661563 0.000001 0.000000 -0.000001
    13 -0.492027 -0.160314 0.005983 -0.000002 0.000000 0.000000
    14 0.383202 0.108206 0.000005 0.000000 0.000000 0.000000
    15 0.000002 0.001503 1.894737 -0.000014 -1.370797 3.140810
    16 4.926316 0.000000 0.000000 0.000000 1.270796 0.000000
    17 11.368423 0.000000 0.000000 0.000000 0.000000 -0.200000
    18 11.368422 0.000000 0.000000 -1.570000 0.000000 0.000000
    19 1.126229 0.104083 -1.358370 1.823541 0.487125 0.071487
    20 2.373624 0.000000 0.000001 0.000000 0.000000 0.113389
    21 1.071901 0.000000 -0.000001 0.000000 0.000000 0.017444
    22 3.789474 -0.000905 -1.136842 0.011610 0.156576 0.079348
    23 1.136843 0.000000 0.000000 0.000000 0.000000 0.000000
    24 1.136842 0.000000 0.000000 0.000000 0.000000 0.000000
    25 3.789474 -0.000302 -0.378947 0.005372 0.078320 0.078679
    26 1.326316 0.000000 0.000000 0.000000 0.000000 0.000000
    27 1.326316 0.000000 0.000000 0.000000 0.000000 0.008722
    28 3.789474 0.000302 0.378947 -0.000794 0.000062 0.078500
    29 1.136841 -0.000001 0.000000 0.000000 0.000000 0.000000
    30 1.136842 0.000000 0.000000 0.000000 0.000000 0.000000
    31 3.789474 0.000904 1.136842 -0.012516 -0.147755 0.079485
    32 0.947368 0.000000 0.000000 0.000000 0.000000 0.000000
    33 0.947368 0.000000 0.000000 0.000000 0.000000 0.000000
    34 1.126229 0.104084 1.358370 -2.374981 -1.083006 0.431341
    35 2.373624 0.000000 0.000000 0.000000 0.000000 0.941977
    36 1.071901 0.000000 -0.000001 0.000000 0.000000 0.418665
    37 3.789474 -0.000905 1.136842 -0.098283 -0.272467 0.674683
    38 1.136843 0.000000 0.000000 0.000000 0.000000 0.279092
    39 1.136842 0.000000 0.000000 0.000000 0.000000 1.360667
    40 3.789475 -0.000301 0.378947 -0.047821 -0.175994 0.661009
    41 1.326315 0.000000 0.000000 0.000000 0.000000 0.279101
    42 1.326317 0.000000 0.000000 0.000000 0.000000 1.369348
    43 3.789474 0.000302 -0.378947 0.000638 -0.000469 0.654149
    44 1.136842 0.000000 0.000000 0.000000 0.000000 0.218045
    45 1.136843 -0.000001 0.000000 0.000000 0.000000 1.308254
    46 3.789474 0.000905 -1.136842 0.105732 0.104131 0.790521
    47 0.947368 0.000000 0.000000 0.000000 0.000000 0.279105
    48 0.947368 0.000000 0.000000 0.000000 0.000000 0.837281
  time 17
    0 -1.490486 0.718772 -20.602219 0.000000 0.000000 -1.570795
    1 0.000000 0.000000 0.000000 -1.570795 -1.570796 0.000000
    2 1.326317 -0.003921 0.000002 -0.000004 0.000006 0.000793
    3 4.926311 -0.003899 0.000102 0.000000 -0.000001 0.000000
    4 4.926307 -0.003899 0.000040 0.000000 0.000000 -0.000003
    5 4.926314 -0.003884 0.000040 0.000000 0.000001 0.000003
    6 4.926305 -0.001485 0.000165 0.000000 -0.000002 -0.000003
    7 -0.000004 0.001514 -1.894737 0.644020 0.964999 -2.589445
    8 4.926327 0.000464 -0.000031 -1.172142 -0.721197 -1.564870
    9 11.368442 0.000012 0.000013 -0.000004 -0.000001 0.066576
    10 11.368369 0.000090 -0.000135 1.580789 -0.273189 0.233125
    11 -27.189288 21.435376 -47.819301 -0.025348 -0.035794 1.366912
    12 0.468048 0.919459 2.661563 0.000001 0.000000 -0.000001
    13 -0.492027 -0.160314 0.005983 -0.000002 0.000000 0.000000
    14 0.383202 0.108206 0.000005 0.000000 0.000000 0.000000
    15 0.000002 0.001503 1.894737 -0.000014 -1.370797 3.140810
    16 4.926316 0.000000 0.000000 0.000000 1.270796 0.000000
    17 11.368423 0.000000 0.000000 0.000000 0.000000 -0.200000
    18 11.368422 0.000000 0.000000 -1.570000 0.000000 0.000000
    19 1.126229 0.104083 -1.358370 1.823541 0.487125 0.071487
    20 2.373624 0.000000 0.000001 0.000000 0.000000 0.113389
    21 1.071901 0.000000 -0.000001 0.000000 0.000000 0.017444
    22 3.789474 -0.000905 -1.136842 0.011610 0.156576 0.079348
    23 1.136843 0.000000 0.000000 0.000000 0.000000 0.000000
    24 1.136842 0.000000 0.000000 0.000000 0.000000 0.000000
    25 3.789474 -0.000302 -0.378947 0.005372 0.078320 0.078679
    26 1.326316 0.000000 0.000000 0.000000 0.000000 0.000000
    27 1.326316 0.000000 0.000000 0.000000 0.000000 0.008722
    28 3.789474 0.000302 0.378947 -0.000794 0.000062 0.078500
    29 1.136841 -0.000001 0.000000 0.000000 0.000000 0.000000
    30 1.136842 0.000000 0.000000 0.000000 0.000000 0.000000
    31 3.789474 0.000904 1.136842 -0.012516 -0.147755 0.079485
    32 0.947368 0.000000 0.000000 0.000000 0.000000 0.000000
    33 0.947368 0.000000 0.000000 0.000000 0.000000 0.000000
    34 1.126229 0.104084 1.358370 -2.374981 -1.083006 0.431341
    35 2.373624 0.000000 0.000000 0.000000 0.000000 0.941977
    36 1.071901 0.000000 -0.000001 0.000000 0.000000 0.418665
    37 3.789474 -0.000905 1.136842 -0.098283 -0.272467 0.674683
    38 1.136843 0.000000 0.000000 0.000000 0.000000 0.279092
    39 1.136842 0.000000 0.000000 0.000000 0.000000 1.360667
    40 3.789475 -0.000301 0.378947 -0.047821 -0.175994 0.661009
    41 1.326315 0.000000 0.000000 0.000000 0.000000 0.279101
    42 1.326317 0.000000 0.000000 0.000000 0.000000 1.369348
    43 3.789474 0.000302 -0.378947 0.000638 -0.000469 0.654149
    44 1.136842 0.000000 0.000000 0.000000 0.000000 0.218045
    45 1.136843 -0.000001 0.000000 0.000000 0.000000 1.308254
    46 3.789474 0.000905 -1.136842 0.105732 0.104131 0.790521
    47 0.947368 0.000000 0.000000 0.000000 0.000000 0.279105
    48 0.947368 0.000000 0.000000 0.000000 0.000000 0.837281
  time 18
    0 -1.490486 0.718772 -20.602219 0.000000 0.000000 -1.570795
    1 0.000000 0.000000 0.000000 -1.570795 -1.570796 0.000000
    2 1.326317 -0.003921 0.000002 -0.000004 0.000006 0.000793
    3 4.926311 -0.003899 0.000102 0.000000 -0.000001 0.000000
    4 4.926307 -0.003899 0.000040 0.000000 0.000000 -0.000003
    5 4.926314 -0.003884 0.000040 0.000000 0.000001 0.000003
    6 4.926305 -0.001485 0.000165 0.000000 -0.000002 -0.000003
    7 -0.000004 0.001514 -1.894737 0.644020 0.964999 -2.589445
    8 4.926327 0.000464 -0.000031 -1.172142 -0.721197 -1.564870
    9 11.368442 0.000012 0.000013 -0.000004 -0.000001 0.066576
    10 11.368369 0.000090 -0.000135 1.580789 -0.273189 0.233125
    11 -28.271352 16.841485 -49.495133 -0.025348 -0.035794 1.366912
    12 0.468048 0.919459 2.661563 0.000001 0.000000 -0.000001
    13 -0.492027 -0.160314 0.005983 -0.000002 0.000000 0.000000
    14 0.383202 0.108206 0.000005 0.000000 0.000000 0.000000
    15 0.000002 0.001503 1.894737 -0.000014 -1.370797 3.140810
    16 4.926316 0.000000 0.000000 0.000000 1.270796 0.000000
    17 11.368423 0.000000 0.000000 0.000000 0.000000 -0.200000
    18 11.368422 0.000000 0.000000 -1.570000 0.000000 0.000000
    19 1.126229 0.104083 -1.358370 1.823541 0.487125 0.071487
    20 2.373624 0.000000 0.000001 0.000000 0.000000 0.113389
    21 1.071901 0.000000 -0.000001 0.000000 0.000000 0.017444
    22 3.789474 -0.000905 -1.136842 0.011610 0.156576 0.079348
    23 1.136843 0.000000 0.000000 0.000000 0.000000 0.000000
    24 1.136842 0.000000 0.000000 0.000000 0.000000 0.000000
    25 3.789474 -0.000302 -0.378947 0.005372 0.078320 0.078679
    26 1.326316 0.000000 0.000000 0.000000 0.000000 0.000000
    27 1.326316 0.000000 0.000000 0.000000 0.000000 0.008722
    28 3.789474 0.000302 0.378947 -0.000794 0.000062 0.078500
    29 1.136841 -0.000001 0.000000 0.000000 0.000000 0.000000
    30 1.136842 0.000000 0.000000 0.000000 0.000000 0.000000
    31 3.789474 0.000904 1.136842 -0.012516 -0.147755 0.079485
    32 0.947368 0.000000 0.000000 0.000000 0.000000 0.000000
    33 0.947368 0.000000 0.000000 0.000000 0.000000 0.000000
    34 1.126229 0.104084 1.358370 -2.374981 -1.083006 0.431341
    35 2.373624 0.000000 0.000000 0.000000 0.000000 0.941977
    36 1.071901 0.000000 -0.000001 0.000000 0.000000 0.418665
    37 3.789474 -0.000905 1.136842 -0.098283 -0.272467 0.674683
    38 1.136843 0.000000 0.000000 0.000000 0.000000 0.279092
    39 1.136842 0.000000 0.000000 0.000000 0.000000 1.360667
    40 3.789475 -0.000301 0.378947 -0.047821 -0.175994 0.661009
    41 1.326315 0.000000 0.000000 0.000000 0.000000 0.279101
    42 1.326317 0.000000 0.000000 0.000000 0.000000 1.369348
    43 3.789474 0.000302 -0.378947 0.000638 -0.000469 0.654149
    44 1.136842 0.000000 0.000000 0.000000 0.000000 0.218045
    45 1.136843 -0.000001 0.000000 0.000000 0.000000 1.308254
    46 3.789474 0.000905 -1.136842 0.105732 0.104131 0.790521
    47 0.947368 0.000000 0.000000 0.000000 0.000000 0.279105
    48 0.947368 0.000000 0.000000 0.000000 0.000000 0.837281
end
