version 1
nodes
  0 "Bip02" -1
  1 "Bip02 Pelvis" 0
  2 "Bip02 L Leg" 1
  3 "Bip02 L Leg1" 2
  4 "Bip02 L Foot" 3
  5 "Bip02 R Leg" 1
  6 "Bip02 R Leg1" 5
  7 "Bip02 R Foot" 6
  8 "Bip02 Spine" 1
  9 "Bip02 Spine1" 8
  10 "Bip02 Spine2" 9
  11 "Bip02 Neck" 10
  12 "Bip02 L Arm" 11
  13 "Bip02 L Arm1" 12
  14 "Bip02 L Arm2" 13
  15 "Bip02 L Hand" 14
  16 "Bip02 R Arm" 11
  17 "Bip02 R Arm1" 16
  18 "Bip02 R Arm2" 17
  19 "Bip02 R Hand" 18
  20 "Bip02 Head" 11
  21 "Bone01" 20
end
skeleton
  time 0
    0 -0.202733 -0.578294 36.821262 0.000000 0.000000 -1.570839
    1 0.000000 0.000000 0.000000 -1.570795 -1.570796 0.000000
    2 -0.000004 0.000006 3.319508 -0.000732 -3.100711 -0.021168
    3 16.897085 0.000000 0.000000 0.000000 0.000000 -0.157678
    4 16.589727 0.000000 0.000000 0.001600 -0.040858 0.136462
    5 0.000005 -0.000003 -3.319508 0.001962 3.115348 -0.024688
    6 16.897085 0.000000 0.000000 0.000000 0.000000 -0.164609
    7 16.589727 0.000000 0.000000 -0.002609 0.026187 0.139861
    8 3.488968 -0.004234 0.000004 -0.000004 -0.000001 0.000796
    9 5.318531 -0.004538 0.000000 0.000000 0.000000 -0.026167
    10 5.701826 -0.005492 0.000000 0.000000 0.000000 -0.026167
    11 6.899484 -0.001818 0.000000 0.000000 -0.000001 0.348889
    12 0.000003 0.001927 2.008302 -0.000013 -1.292336 2.791920
    13 4.746895 0.000000 0.000000 0.117714 1.128249 0.120920
    14 10.950472 0.000000 0.000000 0.000000 0.000000 -0.104118
    15 10.950467 0.000000 0.000000 -1.568795 0.000000 0.000000
    16 0.000003 0.001941 -2.008302 -0.000013 1.318476 2.791894
    17 4.746896 0.000000 -0.000003 -0.427069 -1.150817 0.444804
    18 10.950466 0.000000 0.000000 0.000000 0.000000 -0.363444
    19 10.950471 0.000000 0.000000 1.568795 0.000000 0.000000
    20 2.428221 0.000000 0.000000 0.000000 0.000000 -0.122909
    21 1.681022 0.975106 0.213387 0.000000 0.000001 -1.745239
  time 1
    0 -0.110781 -0.492242 36.821262 0.000000 0.000000 -1.536078
    1 -0.085940 -0.085940 0.000000 -0.000019 -1.580843 -1.570740
    2 -0.000004 0.000006 3.319508 0.001185 -3.088824 -0.052854
    3 16.897085 0.000000 0.000000 0.000000 0.000000 -0.201164
    4 16.589727 0.000000 0.000000 0.036308 -0.042705 0.148311
    5 0.000005 -0.000003 -3.319508 0.002345 3.127325 -0.020799
    6 16.897085 0.000000 0.000000 0.000000 0.000000 -0.154839
    7 16.589727 0.000000 0.000000 0.032089 0.024225 0.133985
    8 3.488968 -0.004234 -0.031247 0.000053 0.002732 0.009026
    9 5.318531 -0.004538 0.000000 0.015556 -0.005177 -0.020767
    10 5.701826 -0.005492 0.000000 0.014623 -0.005113 -0.026226
    11 6.899484 -0.001818 0.000000 0.000000 -0.000001 0.348889
    12 0.000003 0.001927 2.008302 -0.123018 -1.312315 2.910806
    13 4.746895 0.000000 0.000000 0.219809 1.127614 0.167745
    14 10.950472 0.000000 0.000000 0.000000 0.000000 -0.191152
    15 10.950467 0.000000 0.000000 -1.568795 0.000000 0.000000
    16 0.000003 0.001941 -2.008302 -0.075657 1.339703 2.718263
    17 4.746896 0.000000 -0.000003 -0.481720 -1.160309 0.558051
    18 10.950466 0.000000 0.000000 0.000000 0.000000 -0.441539
    19 10.950471 0.000000 0.000000 1.568795 0.000000 0.000000
    20 2.428221 0.000000 0.000000 -0.001760 0.014011 -0.135682
    21 1.681022 0.975106 0.213387 0.000000 0.000001 -1.745239
  time 2
    0 0.136339 -0.234085 36.774332 0.000000 0.000000 -1.485038
    1 -0.214850 -0.214850 0.000000 -3.141571 -1.545978 1.570788
    2 -0.000004 0.000006 3.319508 0.004733 -3.075979 -0.096652
    3 16.897085 0.000000 0.000000 0.000000 0.000000 -0.253243
    4 16.589727 0.000000 0.000000 0.087345 -0.040969 0.156695
    5 0.000005 -0.000003 -3.319508 0.002536 3.141122 -0.018369
    6 16.897085 0.000000 0.000000 0.000000 0.000000 -0.141004
    7 16.589727 0.000000 0.000000 0.083205 0.025233 0.122586
    8 3.488968 -0.004234 -0.085936 0.000480 0.006760 0.021076
    9 5.318531 -0.004538 0.000000 0.038355 -0.013076 -0.013158
    10 5.701826 -0.005492 0.000000 0.036087 -0.012607 -0.026635
    11 6.899484 -0.001818 0.000000 0.000000 -0.000001 0.348889
    12 0.000003 0.001927 2.008302 -0.321093 -1.330704 3.104379
    13 4.746895 0.000000 0.000000 0.340970 1.119350 0.208716
    14 10.950472 0.000000 0.000000 0.000000 0.000000 -0.303816
    15 10.950467 0.000000 0.000000 -1.568795 0.000000 0.000000
    16 0.000003 0.001941 -2.008302 -0.209592 1.364308 2.586629
    17 4.746896 0.000000 -0.000003 -0.564747 -1.173503 0.722999
    18 10.950466 0.000000 0.000000 0.000000 0.000000 -0.542708
    19 10.950471 0.000000 0.000000 1.568795 0.000000 0.000000
    20 2.428221 0.000000 0.000000 -0.005834 0.034453 -0.155289
    21 1.681022 0.975106 0.213387 0.000000 0.000001 -1.745239
  time 3
    0 0.504145 0.144545 36.727401 0.000000 0.000000 -1.425188
    1 -0.359386 -0.371105 0.000000 -0.000019 -1.612923 -1.570788
    2 -0.000004 0.000006 3.319508 0.009239 -3.064955 -0.141768
    3 16.897085 0.000000 0.000000 0.000000 0.000000 -0.299643
    4 16.589727 0.000000 0.000000 0.147214 -0.035132 0.158220
    5 0.000005 -0.000003 -3.319508 0.002440 3.154344 -0.014383
    6 16.897085 0.000000 0.000000 0.000000 0.000000 -0.120680
    7 16.589727 0.000000 0.000000 0.143281 0.029321 0.106192
    8 3.485062 -0.004234 -0.144531 0.001449 0.011450 0.035258
    9 5.318531 -0.004538 0.000000 0.065115 -0.022767 -0.004669
    10 5.701826 -0.005492 0.000000 0.061263 -0.021380 -0.027514
    11 6.899484 -0.001818 0.000000 0.000000 -0.000001 0.348889
    12 0.000003 0.001927 2.008302 -0.576691 -1.338650 3.356245
    13 4.746895 0.000000 0.000000 0.463083 1.104368 0.237145
    14 10.950472 0.000000 0.000000 0.000000 0.000000 -0.433718
    15 10.950467 0.000000 0.000000 -1.568795 0.000000 0.000000
    16 0.000003 0.001941 -2.008302 -0.404694 1.386725 2.393349
    17 4.746896 0.000000 -0.000003 -0.684272 -1.181571 0.935540
    18 10.950466 0.000000 0.000000 0.000000 0.000000 -0.659233
    19 10.950471 0.000000 0.000000 1.568795 0.000000 0.000000
    20 2.428221 0.000000 0.000000 -0.012317 0.056990 -0.179302
    21 1.681022 0.975106 0.213387 0.000000 0.000001 -1.745239
  time 4
    0 0.946662 0.574806 36.727401 0.000000 0.000000 -1.362752
    1 -0.507828 -0.535173 0.000000 -0.000019 -1.631008 -1.570788
    2 -0.000004 0.000006 3.319508 0.014032 -3.057478 -0.183021
    3 16.897085 0.000000 0.000000 0.000000 0.000000 -0.336255
    4 16.589727 0.000000 0.000000 0.209582 -0.025083 0.153785
    5 0.000005 -0.000003 -3.319508 0.002153 3.165171 -0.004563
    6 16.897085 0.000000 0.000000 0.000000 0.000000 -0.087947
    7 16.589727 0.000000 0.000000 0.205973 0.036543 0.083275
    8 3.485062 -0.004234 -0.207033 0.002958 0.016341 0.050028
    9 5.318531 -0.004538 0.000000 0.093123 -0.033409 0.003593
    10 5.701826 -0.005492 0.000000 0.087601 -0.030504 -0.028919
    11 6.899484 -0.001818 0.000000 0.000000 -0.000001 0.348889
    12 0.000003 0.001927 2.008302 -0.860380 -1.330250 3.637833
    13 4.746895 0.000000 0.000000 0.582623 1.084663 0.257213
    14 10.950472 0.000000 0.000000 0.000000 0.000000 -0.581013
    15 10.950467 0.000000 0.000000 -1.568795 0.000000 0.000000
    16 0.000003 0.001941 -2.008302 -0.668729 1.402540 2.130081
    17 4.746896 0.000000 -0.000003 -0.839435 -1.172554 1.186881
    18 10.950466 0.000000 0.000000 0.000000 0.000000 -0.791346
    19 10.950471 0.000000 0.000000 1.568795 0.000000 0.000000
    20 2.428221 0.000000 0.000000 -0.019725 0.077732 -0.205359
    21 1.681022 0.975106 0.213387 0.000000 0.000001 -1.745239
  time 5
    0 1.435155 1.073908 36.680471 0.000000 0.000000 -1.304243
    1 -0.644551 -0.687521 0.000000 -0.000019 -1.647965 -1.570788
    2 -0.000004 0.000006 3.319508 0.017963 -3.054889 -0.217076
    3 16.897085 0.000000 0.000000 0.000000 0.000000 -0.361809
    4 16.589727 0.000000 0.000000 0.267697 -0.011413 0.145539
    5 0.000005 -0.000003 -3.319508 0.006938 3.178010 -0.128326
    6 16.897085 0.000000 0.000000 0.000000 0.000000 -0.357869
    7 16.589727 0.000000 0.000000 0.259378 0.053548 0.178936
    8 3.477249 -0.004234 -0.265629 0.004867 0.020887 0.063842
    9 5.318531 -0.004538 0.000000 0.119312 -0.043786 0.010776
    10 5.701826 -0.005492 0.000000 0.112251 -0.038989 -0.030706
    11 6.899484 -0.001818 0.000000 0.000000 -0.000001 0.348889
    12 0.000003 0.001927 2.008302 -1.123744 -1.304596 3.901587
    13 4.746895 0.000000 0.000000 0.698636 1.061418 0.276909
    14 10.950472 0.000000 0.000000 0.000000 0.000000 -0.745394
    15 10.950467 0.000000 0.000000 -1.568795 0.000000 0.000000
    16 0.000003 0.001941 -2.008302 -0.981947 1.407645 1.816192
    17 4.746896 0.000000 -0.000003 -1.004152 -1.134966 1.441471
    18 10.950466 0.000000 0.000000 0.000000 0.000000 -0.938816
    19 10.950471 0.000000 0.000000 1.568795 0.000000 0.000000
    20 2.428221 0.000000 0.000000 -0.026300 0.093438 -0.230394
    21 1.681022 0.975106 0.213387 0.000000 0.000001 -1.745239
  time 6
    0 1.929395 1.573011 36.680471 0.000000 0.000000 -1.258661
    1 -0.746117 -0.808618 0.000000 -0.000019 -1.661149 -1.570788
    2 -0.000004 0.000006 3.319508 0.019976 -3.058245 -0.241038
    3 16.897085 0.000000 0.000000 0.000000 0.000000 -0.375408
    4 16.589727 0.000000 0.000000 0.312636 0.004658 0.135284
    5 0.000005 -0.000003 -3.319508 0.011340 3.185483 -0.213588
    6 16.897085 0.000000 0.000000 0.000000 0.000000 -0.552699
    7 16.589727 0.000000 0.000000 0.295646 0.092709 0.183931
    8 3.477249 -0.004234 -0.312505 0.006661 0.024368 0.074570
    9 5.318531 -0.004538 0.000000 0.139756 -0.052127 0.016025
    10 5.701826 -0.005492 0.000000 0.131499 -0.045540 -0.032404
    11 6.899484 -0.001818 0.000000 0.000000 -0.000001 0.348889
    12 0.000003 0.001927 2.008302 -1.323448 -1.273220 4.104460
    13 4.746895 0.000000 0.000000 0.804639 1.036810 0.307846
    14 10.950472 0.000000 0.000000 0.000000 0.000000 -0.914123
    15 10.950467 0.000000 0.000000 -1.568795 0.000000 0.000000
    16 0.000003 0.001941 -2.008302 -1.273594 1.405610 1.522149
    17 4.746896 0.000000 -0.000003 -1.134760 -1.068997 1.638339
    18 10.950466 0.000000 0.000000 0.000000 0.000000 -1.090144
    19 10.950471 0.000000 0.000000 1.568795 0.000000 0.000000
    20 2.428221 0.000000 0.000000 -0.032598 0.101814 -0.249809
    21 1.681022 0.975106 0.213387 0.000000 0.000001 -1.745239
  time 7
    0 2.389153 2.037693 36.633540 0.000000 0.000000 -1.239413
    1 -0.785180 -0.859401 0.000000 -0.000019 -1.666719 -1.570788
    2 -0.000004 0.000006 3.319508 0.018634 -3.069652 -0.252010
    3 16.897085 0.000000 0.000000 0.000000 0.000000 -0.374661
    4 16.589727 0.000000 0.000000 0.331254 0.021505 0.123297
    5 0.000005 -0.000003 -3.319508 0.023016 3.200238 -0.330448
    6 16.897085 0.000000 0.000000 0.000000 0.000000 -0.791671
    7 16.589727 0.000000 0.000000 0.264316 0.066956 0.343816
    8 3.473343 -0.004234 -0.332037 0.007516 0.025864 0.079126
    9 5.318531 -0.004538 0.000000 0.148391 -0.055733 0.018134
    10 5.701826 -0.005492 0.000000 0.139614 -0.048289 -0.033194
    11 6.899484 -0.001818 0.000000 0.000000 -0.000001 0.348889
    12 0.000003 0.001927 2.008302 -1.431018 -1.271268 4.216443
    13 4.746895 0.000000 0.000000 0.883283 1.018104 0.371115
    14 10.950472 0.000000 0.000000 0.000000 0.000000 -1.041203
    15 10.950467 0.000000 0.000000 -1.568795 0.000000 0.000000
    16 0.000003 0.001941 -2.008302 -1.458533 1.421540 1.334621
    17 4.746896 0.000000 -0.000003 -1.200112 -1.003787 1.712308
    18 10.950466 0.000000 0.000000 0.000000 0.000000 -1.204123
    19 10.950471 0.000000 0.000000 1.568795 0.000000 0.000000
    20 2.428221 0.000000 0.000000 -0.044822 0.101814 -0.257090
    21 1.681022 0.975106 0.213387 0.000000 0.000001 -1.745239
  time 8
    0 1.843191 1.486959 36.680471 0.000000 0.000000 -1.262970
    1 -0.734397 -0.796899 0.000000 -0.000019 -1.659880 -1.570788
    2 -0.000004 0.000006 3.319508 0.018730 -3.056231 -0.238405
    3 16.897085 0.000000 0.000000 0.000000 0.000000 -0.374810
    4 16.589727 0.000000 0.000000 0.309692 0.001665 0.137224
    5 0.000005 -0.000003 -3.319508 0.025695 3.201484 -0.364961
    6 16.897085 0.000000 0.000000 0.000000 0.000000 -0.859990
    7 16.589727 0.000000 0.000000 0.218858 0.042947 0.422730
    8 3.477249 -0.004234 -0.308599 0.006490 0.024051 0.073541
    9 5.318531 -0.004538 0.000000 0.137794 -0.051330 0.015523
    10 5.701826 -0.005492 0.000000 0.129643 -0.044917 -0.032228
    11 6.899484 -0.001818 0.000000 0.000000 -0.000001 0.348889
    12 0.000003 0.001927 2.008302 -0.757796 -1.507377 3.548668
    13 4.746895 0.000000 0.000000 0.878803 1.027911 0.640263
    14 10.950472 0.000000 0.000000 0.000000 0.000000 -1.028922
    15 10.950467 0.000000 0.000000 -1.568795 0.000000 0.000000
    16 0.000003 0.001941 -2.008302 1.341734 1.483225 4.132872
    17 4.746896 0.000000 -0.000003 -1.177851 -0.996288 1.437457
    18 10.950466 0.000000 0.000000 0.000000 0.000000 -1.193088
    19 10.950471 0.000000 0.000000 1.568795 0.000000 0.000000
    20 2.428221 0.000000 0.000000 -0.104460 0.093338 -0.244444
    21 1.681022 0.975106 0.213387 0.000000 0.000001 -1.745239
  time 9
    0 1.165048 0.798541 36.680471 0.000000 0.000000 -1.330098
    1 -0.585955 -0.621113 0.000000 -3.141571 -1.501136 1.570788
    2 -0.000004 0.000006 3.319508 0.014799 -3.053643 -0.201628
    3 16.897085 0.000000 0.000000 0.000000 0.000000 -0.351423
    4 16.589727 0.000000 0.000000 0.243755 -0.019578 0.150528
    5 0.000005 -0.000003 -3.319508 0.015456 3.186250 -0.276490
    6 16.897085 0.000000 0.000000 0.000000 0.000000 -0.677640
    7 16.589727 0.000000 0.000000 0.167939 0.033191 0.355274
    8 3.481155 -0.004234 -0.242191 0.003955 0.018873 0.057743
    9 5.318531 -0.004538 0.000000 0.107716 -0.039139 0.007662
    10 5.701826 -0.005492 0.000000 0.101338 -0.035234 -0.029856
    11 6.899484 -0.001818 0.000000 0.000000 -0.000001 0.348889
    12 0.000003 0.001927 2.008302 1.215948 -1.269769 1.591267
    13 4.746895 0.000000 0.000000 0.660219 1.093471 0.793371
    14 10.950472 0.000000 0.000000 0.000000 0.000000 -0.784677
    15 10.950467 0.000000 0.000000 -1.568795 0.000000 0.000000
    16 0.000003 0.001941 -2.008302 1.354868 1.207428 4.132201
    17 4.746896 0.000000 -0.000003 -1.042083 -1.063207 0.968511
    18 10.950466 0.000000 0.000000 0.000000 0.000000 -0.974005
    19 10.950471 0.000000 0.000000 1.568795 0.000000 0.000000
    20 2.428221 0.000000 0.000000 -0.242629 0.079976 -0.215003
    21 1.681022 0.975106 0.213387 0.000000 0.000001 -1.745239
  time 10
    0 0.504145 0.144545 36.727401 0.000000 0.000000 -1.422986
    1 -0.367199 -0.378918 0.000000 -0.000019 -1.613593 -1.570788
    2 -0.000004 0.000006 3.319508 0.008184 -3.063900 -0.142909
    3 16.897085 0.000000 0.000000 0.000000 0.000000 -0.300913
    4 16.589727 0.000000 0.000000 0.150724 -0.035316 0.158289
    5 0.000005 -0.000003 -3.319508 0.005694 3.160476 -0.153068
    6 16.897085 0.000000 0.000000 0.000000 0.000000 -0.423121
    7 16.589727 0.000000 0.000000 0.115483 0.027986 0.246921
    8 3.485062 -0.004234 -0.148438 0.001477 0.011622 0.035772
    9 5.318531 -0.004538 0.000000 0.066114 -0.023143 -0.004368
    10 5.701826 -0.005492 0.000000 0.062232 -0.021715 -0.027543
    11 6.899484 -0.001818 0.000000 0.000000 -0.000001 0.348889
    12 0.000003 0.001927 2.008302 0.950379 -1.285571 1.861157
    13 4.746895 0.000000 0.000000 0.454599 1.132245 0.599570
    14 10.950472 0.000000 0.000000 0.000000 0.000000 -0.540280
    15 10.950467 0.000000 0.000000 -1.568795 0.000000 0.000000
    16 0.000003 0.001941 -2.008302 1.102530 1.262587 3.874782
    17 4.746896 0.000000 -0.000003 -0.857302 -1.105541 0.770783
    18 10.950466 0.000000 0.000000 0.000000 0.000000 -0.754845
    19 10.950471 0.000000 0.000000 1.568795 0.000000 0.000000
    20 2.428221 0.000000 0.000000 -0.319585 0.052453 -0.179557
    21 1.681022 0.975106 0.213387 0.000000 0.000001 -1.745239
  time 11
    0 -0.001589 -0.371768 36.774332 0.000000 0.000000 -1.513191
    1 -0.144536 -0.144536 0.000000 -0.000019 -1.587471 -1.570788
    2 -0.000004 0.000006 3.319508 0.002240 -3.082881 -0.073656
    3 16.897085 0.000000 0.000000 0.000000 0.000000 -0.226718
    4 16.589727 0.000000 0.000000 0.059745 -0.042040 0.153092
    5 0.000005 -0.000003 -3.319508 0.002536 3.133553 -0.019973
    6 16.897085 0.000000 0.000000 0.000000 0.000000 -0.148991
    7 16.589727 0.000000 0.000000 0.054916 0.024661 0.128990
    8 3.488968 -0.004234 -0.054685 0.000224 0.004545 0.014427
    9 5.318531 -0.004538 0.000000 0.025761 -0.008673 -0.017302
    10 5.701826 -0.005492 0.000000 0.024261 -0.008485 -0.026372
    11 6.899484 -0.001818 0.000000 0.000000 -0.000001 0.348889
    12 0.000003 0.001927 2.008302 0.404860 -1.318172 2.398541
    13 4.746895 0.000000 0.000000 0.248217 1.139237 0.317137
    14 10.950472 0.000000 0.000000 0.000000 0.000000 -0.285127
    15 10.950467 0.000000 0.000000 -1.568795 0.000000 0.000000
    16 0.000003 0.001941 -2.008302 0.517415 1.333907 3.297242
    17 4.746896 0.000000 -0.000003 -0.619589 -1.138383 0.591308
    18 10.950466 0.000000 0.000000 0.000000 0.000000 -0.525885
    19 10.950471 0.000000 0.000000 1.568795 0.000000 0.000000
    20 2.428221 0.000000 0.000000 -0.180583 0.018947 -0.146092
    21 1.681022 0.975106 0.213387 0.000000 0.000001 -1.745239
  time 12
    0 -0.202733 -0.578294 36.821262 0.000000 0.000000 -1.570839
    1 0.000000 0.000000 0.000000 -1.570795 -1.570796 0.000000
    2 -0.000004 0.000006 3.319508 -0.000732 -3.100711 -0.021168
    3 16.897085 0.000000 0.000000 0.000000 0.000000 -0.157678
    4 16.589727 0.000000 0.000000 0.001600 -0.040858 0.136462
    5 0.000005 -0.000003 -3.319508 0.001962 3.115348 -0.024688
    6 16.897085 0.000000 0.000000 0.000000 0.000000 -0.164609
    7 16.589727 0.000000 0.000000 -0.002609 0.026187 0.139861
    8 3.488968 -0.004234 0.000004 -0.000004 -0.000001 0.000796
    9 5.318531 -0.004538 0.000000 0.000000 0.000000 -0.026167
    10 5.701826 -0.005492 0.000000 0.000000 0.000000 -0.026167
    11 6.899484 -0.001818 0.000000 0.000000 -0.000001 0.348889
    12 0.000003 0.001927 2.008302 -0.000013 -1.292336 2.791920
    13 4.746895 0.000000 0.000000 0.117714 1.128249 0.120920
    14 10.950472 0.000000 0.000000 0.000000 0.000000 -0.104118
    15 10.950467 0.000000 0.000000 -1.568795 0.000000 0.000000
    16 0.000003 0.001941 -2.008302 -0.000013 1.318476 2.791894
    17 4.746896 0.000000 -0.000003 -0.427069 -1.150817 0.444804
    18 10.950466 0.000000 0.000000 0.000000 0.000000 -0.363444
    19 10.950471 0.000000 0.000000 1.568795 0.000000 0.000000
    20 2.428221 0.000000 0.000000 0.000000 0.000000 -0.122909
    21 1.681022 0.975106 0.213387 0.000000 0.000001 -1.745239
end
