version 1
nodes
  0 "Bip02" -1
  1 "Bip02 Pelvis" 0
  2 "Bip02 L Leg" 1
  3 "Bip02 L Leg1" 2
  4 "Bip02 L Foot" 3
  5 "Bip02 R Leg" 1
  6 "Bip02 R Leg1" 5
  7 "Bip02 R Foot" 6
  8 "Bip02 Spine" 1
  9 "Bip02 Spine1" 8
  10 "Bip02 Spine2" 9
  11 "Bip02 Neck" 10
  12 "Bip02 L Arm" 11
  13 "Bip02 L Arm1" 12
  14 "Bip02 L Arm2" 13
  15 "Bip02 L Hand" 14
  16 "Bip02 R Arm" 11
  17 "Bip02 R Arm1" 16
  18 "Bip02 R Arm2" 17
  19 "Bip02 R Hand" 18
  20 "Bip02 Head" 11
  21 "Bone01" 20
end
skeleton
  time 0
    0 -0.013083 0.006861 43.156891 0.000000 0.000000 -1.570839
    1 0.316416 0.519547 0.000000 -1.570795 -1.570796 0.000000
    2 -0.000004 0.000006 3.319508 0.111245 -3.138864 -0.080414
    3 16.904898 0.000000 0.000000 0.000000 0.000000 -0.217602
    4 16.597540 0.000000 0.000000 -0.076144 -0.081275 -0.574816
    5 0.000005 -0.000003 -3.319508 0.077373 3.104905 0.013471
    6 16.904898 0.000000 0.000000 0.000000 0.000000 -0.208681
    7 16.597540 0.000000 0.000000 -0.074295 -0.042596 -0.754460
    8 3.488968 -0.004234 0.000004 -0.000004 -0.000001 -0.060229
    9 5.318531 -0.004538 0.000000 0.000071 0.122109 0.011630
    10 5.701826 -0.005492 0.000000 0.000000 0.000000 -0.023268
    11 6.899484 -0.001818 0.000000 0.000000 -0.000001 0.348889
    12 0.000003 0.001927 2.008302 -0.000013 -1.370797 2.791920
    13 4.746895 0.000000 0.000000 -0.229084 1.255193 -0.272535
    14 10.954378 0.000000 0.000000 0.000000 0.000000 -0.261023
    15 10.954373 0.000000 0.000000 -1.568795 0.000000 0.000000
    16 0.000003 0.001941 -2.008302 -0.000013 1.370795 2.791894
    17 4.746896 0.000000 -0.000003 -0.251078 -1.041850 0.262558
    18 10.954372 0.000000 0.000000 0.000000 0.000000 -0.356962
    19 10.954377 0.000000 0.000000 1.568795 0.165665 0.000000
    20 2.428221 0.000000 0.000000 -0.002778 -0.122057 -0.302945
    21 1.681022 0.975106 0.213387 0.000000 0.000001 -1.745239
  time 1
    0 -0.013083 0.006861 43.532335 0.000000 0.000000 -1.570839
    1 0.316416 0.519547 0.000000 -1.570795 -1.570796 0.000000
    2 -0.000004 0.000006 3.319508 0.111245 -3.138864 -0.080414
    3 16.904898 0.000000 0.000000 0.000000 0.000000 -0.217602
    4 16.597540 0.000000 0.000000 -0.076144 -0.081275 -0.574816
    5 0.000005 -0.000003 -3.319508 0.077373 3.104905 0.013471
    6 16.904898 0.000000 0.000000 0.000000 0.000000 -0.208681
    7 16.597540 0.000000 0.000000 -0.074295 -0.042596 -0.754460
    8 3.488968 -0.004234 0.000004 -0.000004 -0.000001 -0.060229
    9 5.318531 -0.004538 0.000000 0.000071 0.122109 0.011630
    10 5.701826 -0.005492 0.000000 0.000000 0.000000 -0.023268
    11 6.899484 -0.001818 0.000000 0.000000 -0.000001 0.348889
    12 0.000003 0.001927 2.008302 -0.000013 -1.370797 2.791920
    13 4.746895 0.000000 0.000000 -0.229084 1.255193 -0.272535
    14 10.954378 0.000000 0.000000 0.000000 0.000000 -0.261023
    15 10.954373 0.000000 0.000000 -1.568795 0.000000 0.000000
    16 0.000003 0.001941 -2.008302 -0.000013 1.370795 2.791894
    17 4.746896 0.000000 -0.000003 -0.251078 -1.041850 0.262558
    18 10.954372 0.000000 0.000000 0.000000 0.000000 -0.356962
    19 10.954377 0.000000 0.000000 1.568795 0.165665 0.000000
    20 2.428221 0.000000 0.000000 -0.002778 -0.122057 -0.302945
    21 1.681022 0.975106 0.213387 0.000000 0.000001 -1.745239
  time 2
    0 -0.013083 0.006861 44.048572 0.000000 0.000000 -1.570839
    1 0.316416 0.519547 0.000000 -1.570795 -1.570796 0.000000
    2 -0.000004 0.000006 3.319508 0.111245 -3.138864 -0.080414
    3 16.904898 0.000000 0.000000 0.000000 0.000000 -0.217602
    4 16.597540 0.000000 0.000000 -0.076144 -0.081275 -0.574816
    5 0.000005 -0.000003 -3.319508 0.077373 3.104905 0.013471
    6 16.904898 0.000000 0.000000 0.000000 0.000000 -0.208681
    7 16.597540 0.000000 0.000000 -0.074295 -0.042596 -0.754460
    8 3.488968 -0.004234 0.000004 -0.000004 -0.000001 -0.060229
    9 5.318531 -0.004538 0.000000 0.000071 0.122109 0.011630
    10 5.701826 -0.005492 0.000000 0.000000 0.000000 -0.023268
    11 6.899484 -0.001818 0.000000 0.000000 -0.000001 0.348889
    12 0.000003 0.001927 2.008302 -0.000013 -1.370797 2.791920
    13 4.746895 0.000000 0.000000 -0.229084 1.255193 -0.272535
    14 10.954378 0.000000 0.000000 0.000000 0.000000 -0.261023
    15 10.954373 0.000000 0.000000 -1.568795 0.000000 0.000000
    16 0.000003 0.001941 -2.008302 -0.000013 1.370795 2.791894
    17 4.746896 0.000000 -0.000003 -0.251078 -1.041850 0.262558
    18 10.954372 0.000000 0.000000 0.000000 0.000000 -0.356962
    19 10.954377 0.000000 0.000000 1.568795 0.165665 0.000000
    20 2.428221 0.000000 0.000000 -0.002778 -0.122057 -0.302945
    21 1.681022 0.975106 0.213387 0.000000 0.000001 -1.745239
  time 3
    0 -0.013083 0.006861 44.611739 0.000000 0.000000 -1.570839
    1 0.316416 0.519547 0.000000 -1.570795 -1.570796 0.000000
    2 -0.000004 0.000006 3.319508 0.111245 -3.145287 -0.137379
    3 16.904898 0.000000 0.000000 0.000000 0.000000 -0.381759
    4 16.597540 0.000000 0.000000 -0.076144 -0.081275 -0.467899
    5 0.000005 -0.000003 -3.319508 0.074310 3.099060 -0.063479
    6 16.904898 0.000000 0.000000 0.000000 0.000000 -0.459848
    7 16.597540 0.000000 0.000000 -0.074295 -0.042596 -0.580473
    8 3.488968 -0.004234 0.000004 -0.000004 -0.000001 -0.060229
    9 5.318531 -0.004538 0.000000 0.000071 0.122109 0.011630
    10 5.701826 -0.005492 0.000000 0.000000 0.000000 -0.023268
    11 6.899484 -0.001818 0.000000 0.000000 -0.000001 0.348889
    12 0.000003 0.001927 2.008302 -0.000013 -1.370797 2.791920
    13 4.746895 0.000000 0.000000 -0.229084 1.255193 -0.272535
    14 10.954378 0.000000 0.000000 0.000000 0.000000 -0.261023
    15 10.954373 0.000000 0.000000 -1.568795 0.000000 0.000000
    16 0.000003 0.001941 -2.008302 -0.000013 1.370795 2.791894
    17 4.746896 0.000000 -0.000003 -0.251078 -1.041850 0.262558
    18 10.954372 0.000000 0.000000 0.000000 0.000000 -0.356962
    19 10.954377 0.000000 0.000000 1.568795 0.165665 0.000000
    20 2.428221 0.000000 0.000000 -0.002778 -0.122057 -0.302945
    21 1.681022 0.975106 0.213387 0.000000 0.000001 -1.745239
  time 4
    0 -0.013083 0.006861 45.127975 0.000000 0.000000 -1.570839
    1 0.316416 0.519547 0.000000 -1.570795 -1.570796 0.000000
    2 -0.000004 0.000006 3.319508 0.110765 -3.152572 -0.203033
    3 16.904898 0.000000 0.000000 0.000000 0.000000 -0.570498
    4 16.597540 0.000000 0.000000 -0.076144 -0.081275 -0.345184
    5 0.000005 -0.000003 -3.319508 0.070195 3.092640 -0.151999
    6 16.904898 0.000000 0.000000 0.000000 0.000000 -0.748455
    7 16.597540 0.000000 0.000000 -0.074295 -0.042596 -0.380514
    8 3.488968 -0.004234 0.000004 -0.000004 -0.000001 -0.060229
    9 5.318531 -0.004538 0.000000 0.000071 0.122109 0.011630
    10 5.701826 -0.005492 0.000000 0.000000 0.000000 -0.023268
    11 6.899484 -0.001818 0.000000 0.000000 -0.000001 0.348889
    12 0.000003 0.001927 2.008302 -0.000013 -1.370797 2.791920
    13 4.746895 0.000000 0.000000 -0.229084 1.255193 -0.272535
    14 10.954378 0.000000 0.000000 0.000000 0.000000 -0.261023
    15 10.954373 0.000000 0.000000 -1.568795 0.000000 0.000000
    16 0.000003 0.001941 -2.008302 -0.000013 1.370795 2.791894
    17 4.746896 0.000000 -0.000003 -0.251078 -1.041850 0.262558
    18 10.954372 0.000000 0.000000 0.000000 0.000000 -0.356962
    19 10.954377 0.000000 0.000000 1.568795 0.165665 0.000000
    20 2.428221 0.000000 0.000000 -0.002778 -0.122057 -0.302945
    21 1.681022 0.975106 0.213387 0.000000 0.000001 -1.745239
  time 5
    0 -0.013083 0.006861 45.503420 0.000000 0.000000 -1.570839
    1 0.316416 0.519547 0.000000 -1.570795 -1.570796 0.000000
    2 -0.000004 0.000006 3.319508 0.109998 -3.158324 -0.254819
    3 16.904898 0.000000 0.000000 0.000000 0.000000 -0.729350
    4 16.597540 0.000000 0.000000 -0.076144 -0.081275 -0.238544
    5 0.000005 -0.000003 -3.319508 0.066367 3.087562 -0.226665
    6 16.904898 0.000000 0.000000 0.000000 0.000000 -0.991350
    7 16.597540 0.000000 0.000000 -0.074295 -0.042596 -0.212344
    8 3.488968 -0.004234 0.000004 -0.000004 -0.000001 -0.060229
    9 5.318531 -0.004538 0.000000 0.000071 0.122109 0.011630
    10 5.701826 -0.005492 0.000000 0.000000 0.000000 -0.023268
    11 6.899484 -0.001818 0.000000 0.000000 -0.000001 0.348889
    12 0.000003 0.001927 2.008302 -0.000013 -1.370797 2.791920
    13 4.746895 0.000000 0.000000 -0.229084 1.255193 -0.272535
    14 10.954378 0.000000 0.000000 0.000000 0.000000 -0.261023
    15 10.954373 0.000000 0.000000 -1.568795 0.000000 0.000000
    16 0.000003 0.001941 -2.008302 -0.000013 1.370795 2.791894
    17 4.746896 0.000000 -0.000003 -0.251078 -1.041850 0.262558
    18 10.954372 0.000000 0.000000 0.000000 0.000000 -0.356962
    19 10.954377 0.000000 0.000000 1.568795 0.165665 0.000000
    20 2.428221 0.000000 0.000000 -0.002778 -0.122057 -0.302945
    21 1.681022 0.975106 0.213387 0.000000 0.000001 -1.745239
  time 6
    0 -0.013083 0.006861 45.362628 0.000000 0.000000 -1.570839
    1 0.316416 0.519547 0.000000 -1.570795 -1.570796 0.000000
    2 -0.000004 0.000006 3.319508 0.109711 -3.160145 -0.271144
    3 16.904898 0.000000 0.000000 0.000000 0.000000 -0.810718
    4 16.597540 0.000000 0.000000 -0.076144 -0.081275 -0.173549
    5 0.000005 -0.000003 -3.319508 0.064262 3.084975 -0.265164
    6 16.904898 0.000000 0.000000 0.000000 0.000000 -1.115792
    7 16.597540 0.000000 0.000000 -0.074295 -0.042596 -0.126496
    8 3.488968 -0.004234 0.000004 -0.000004 -0.000001 -0.060229
    9 5.318531 -0.004538 0.000000 0.000071 0.122109 0.011630
    10 5.701826 -0.005492 0.000000 0.000000 0.000000 -0.023268
    11 6.899484 -0.001818 0.000000 0.000000 -0.000001 0.348889
    12 0.000003 0.001927 2.008302 -0.000013 -1.370797 2.791920
    13 4.746895 0.000000 0.000000 -0.229084 1.255193 -0.272535
    14 10.954378 0.000000 0.000000 0.000000 0.000000 -0.261023
    15 10.954373 0.000000 0.000000 -1.568795 0.000000 0.000000
    16 0.000003 0.001941 -2.008302 -0.000013 1.370795 2.791894
    17 4.746896 0.000000 -0.000003 -0.251078 -1.041850 0.262558
    18 10.954372 0.000000 0.000000 0.000000 0.000000 -0.356962
    19 10.954377 0.000000 0.000000 1.568795 0.165665 0.000000
    20 2.428221 0.000000 0.000000 -0.002778 -0.122057 -0.302945
    21 1.681022 0.975106 0.213387 0.000000 0.000001 -1.745239
  time 7
    0 -0.013083 0.006861 44.799461 0.000000 0.000000 -1.570839
    1 0.332041 0.519547 0.000000 -1.570795 -1.570796 0.000000
    2 -0.000004 0.000006 3.319508 0.110861 -3.152093 -0.198381
    3 16.904898 0.000000 0.000000 0.000000 0.000000 -0.687806
    4 16.597540 0.000000 0.000000 -0.076174 -0.081275 -0.223231
    5 0.000005 -0.000003 -3.319508 0.067133 3.088521 -0.212325
    6 16.904898 0.000000 0.000000 0.000000 0.000000 -0.933728
    7 16.597540 0.000000 0.000000 -0.074327 -0.042596 -0.255650
    8 3.488968 -0.004234 0.000004 -0.000004 -0.000001 -0.060229
    9 5.318531 -0.004538 0.000000 0.000071 0.122109 0.009445
    10 5.701826 -0.005492 0.000000 0.000000 0.000000 -0.025464
    11 6.899484 -0.001818 0.000000 0.000000 -0.000001 0.348889
    12 0.000003 0.001927 2.008302 -0.000013 -1.370797 2.791920
    13 4.746895 0.000000 0.000000 -0.215643 1.256373 -0.259157
    14 10.954378 0.000000 0.000000 0.000000 0.000000 -0.261023
    15 10.954373 0.000000 0.000000 -1.568795 0.000000 0.000000
    16 0.000003 0.001941 -2.008302 -0.000013 1.370795 2.791894
    17 4.746896 0.000000 -0.000003 -0.259103 -1.040711 0.270586
    18 10.954372 0.000000 0.000000 0.000000 0.000000 -0.356962
    19 10.954377 0.000000 0.000000 1.568795 0.165665 0.000000
    20 2.428221 0.000000 0.000000 -0.003056 -0.122057 -0.298602
    21 1.681022 0.975106 0.213387 0.000000 0.000001 -1.745239
  time 8
    0 -0.013083 0.006861 44.048572 0.000000 0.000000 -1.570839
    1 0.343760 0.519547 0.000000 -1.570795 -1.570796 0.000000
    2 -0.000004 0.000006 3.319508 0.111245 -3.136276 -0.056804
    3 16.904898 0.000000 0.000000 0.000000 0.000000 -0.411721
    4 16.597540 0.000000 0.000000 -0.076204 -0.081275 -0.356894
    5 0.000005 -0.000003 -3.319508 0.073162 3.097048 -0.089437
    6 16.904898 0.000000 0.000000 0.000000 0.000000 -0.519395
    7 16.597540 0.000000 0.000000 -0.074360 -0.042569 -0.546921
    8 3.488968 -0.004234 0.000004 -0.000004 -0.000001 -0.060229
    9 5.318531 -0.004538 0.000000 0.000071 0.122109 0.006959
    10 5.701826 -0.005492 0.000000 0.000000 0.000000 -0.027895
    11 6.899484 -0.001818 0.000000 0.000000 -0.000001 0.348889
    12 0.000003 0.001927 2.008302 -0.000013 -1.370797 2.791920
    13 4.746895 0.000000 0.000000 -0.200295 1.257554 -0.243920
    14 10.954378 0.000000 0.000000 0.000000 0.000000 -0.261023
    15 10.954373 0.000000 0.000000 -1.568795 0.000000 0.000000
    16 0.000003 0.001941 -2.008302 -0.000013 1.370795 2.791894
    17 4.746896 0.000000 -0.000003 -0.268180 -1.039382 0.279664
    18 10.954372 0.000000 0.000000 0.000000 0.000000 -0.356962
    19 10.954377 0.000000 0.000000 1.568795 0.165665 0.000000
    20 2.428221 0.000000 0.000000 -0.003334 -0.122057 -0.293621
    21 1.681022 0.975106 0.213387 0.000000 0.000001 -1.745239
  time 9
    0 -0.013083 0.006861 43.438474 0.000000 0.000000 -1.570839
    1 0.359386 0.519547 0.000000 -1.570795 -1.570796 0.000000
    2 -0.000004 0.000006 3.319508 0.109902 -3.123430 0.058705
    3 16.904898 0.000000 0.000000 0.000000 0.000000 -0.217602
    4 16.597540 0.000000 0.000000 -0.076233 -0.081275 -0.434709
    5 0.000005 -0.000003 -3.319508 0.077181 3.104521 0.009582
    6 16.904898 0.000000 0.000000 0.000000 0.000000 -0.208681
    7 16.597540 0.000000 0.000000 -0.074393 -0.042542 -0.758338
    8 3.488968 -0.004234 0.000004 -0.000004 -0.000001 -0.060229
    9 5.318531 -0.004538 0.000000 0.000071 0.122109 0.004497
    10 5.701826 -0.005492 0.000000 0.000000 0.000000 -0.030354
    11 6.899484 -0.001818 0.000000 0.000000 -0.000001 0.348889
    12 0.000003 0.001927 2.008302 -0.000013 -1.370797 2.791920
    13 4.746895 0.000000 0.000000 -0.184948 1.258734 -0.228591
    14 10.954378 0.000000 0.000000 0.000000 0.000000 -0.261023
    15 10.954373 0.000000 0.000000 -1.568795 0.000000 0.000000
    16 0.000003 0.001941 -2.008302 -0.000013 1.370795 2.791894
    17 4.746896 0.000000 -0.000003 -0.277161 -1.038053 0.288648
    18 10.954372 0.000000 0.000000 0.000000 0.000000 -0.356962
    19 10.954377 0.000000 0.000000 1.568795 0.165665 0.000000
    20 2.428221 0.000000 0.000000 -0.003704 -0.122008 -0.288703
    21 1.681022 0.975106 0.213387 0.000000 0.000001 -1.745239
  time 10
    0 -0.013083 0.006861 43.156891 0.000000 0.000000 -1.570839
    1 0.375011 0.519547 0.000000 -1.570795 -1.570796 0.000000
    2 -0.000004 0.000006 3.319508 0.110094 -3.124772 0.047382
    3 16.904898 0.000000 0.000000 0.000000 0.000000 -0.436677
    4 16.597540 0.000000 0.000000 -0.076293 -0.081238 -0.227042
    5 0.000005 -0.000003 -3.319508 0.076320 3.102605 -0.013799
    6 16.904898 0.000000 0.000000 0.000000 0.000000 -0.444016
    7 16.597540 0.000000 0.000000 -0.074458 -0.042515 -0.546451
    8 3.488968 -0.004234 0.000004 -0.000004 -0.000001 -0.060229
    9 5.318531 -0.004538 0.000000 0.000071 0.122109 0.002162
    10 5.701826 -0.005492 0.000000 0.000000 0.000000 -0.032726
    11 6.899484 -0.001818 0.000000 0.000000 -0.000001 0.348889
    12 0.000003 0.001927 2.008302 -0.000013 -1.370797 2.791920
    13 4.746895 0.000000 0.000000 -0.170077 1.259733 -0.213819
    14 10.954378 0.000000 0.000000 0.000000 0.000000 -0.261023
    15 10.954373 0.000000 0.000000 -1.568795 0.000000 0.000000
    16 0.000003 0.001941 -2.008302 -0.000013 1.370795 2.791894
    17 4.746896 0.000000 -0.000003 -0.285665 -1.036724 0.297249
    18 10.954372 0.000000 0.000000 0.000000 0.000000 -0.356962
    19 10.954377 0.000000 0.000000 1.568795 0.165665 0.000000
    20 2.428221 0.000000 0.000000 -0.003982 -0.122008 -0.283913
    21 1.681022 0.975106 0.213387 0.000000 0.000001 -1.745239
  time 11
    0 -0.013083 0.006861 43.016099 0.000000 0.000000 -1.570839
    1 0.386731 0.519547 0.000000 -1.570795 -1.570796 0.000000
    2 -0.000004 0.000006 3.319508 0.111053 -3.133016 -0.026522
    3 16.904898 0.000000 0.000000 0.000000 0.000000 -0.706037
    4 16.597540 0.000000 0.000000 -0.076352 -0.081202 -0.032124
    5 0.000005 -0.000003 -3.319508 0.072971 3.096665 -0.093326
    6 16.904898 0.000000 0.000000 0.000000 0.000000 -0.766925
    7 16.597540 0.000000 0.000000 -0.074524 -0.042460 -0.303304
    8 3.488968 -0.004234 0.000004 -0.000004 -0.000001 -0.060229
    9 5.318531 -0.004538 0.000000 0.000071 0.122109 -0.000098
    10 5.701826 -0.005492 0.000000 0.000000 0.000000 -0.034951
    11 6.899484 -0.001818 0.000000 0.000000 -0.000001 0.348889
    12 0.000003 0.001927 2.008302 -0.000013 -1.370797 2.791920
    13 4.746895 0.000000 0.000000 -0.155873 1.260641 -0.199697
    14 10.954378 0.000000 0.000000 0.000000 0.000000 -0.261023
    15 10.954373 0.000000 0.000000 -1.568795 0.000000 0.000000
    16 0.000003 0.001941 -2.008302 -0.000013 1.370795 2.791894
    17 4.746896 0.000000 -0.000003 -0.293786 -1.035395 0.305372
    18 10.954372 0.000000 0.000000 0.000000 0.000000 -0.356962
    19 10.954377 0.000000 0.000000 1.568795 0.165665 0.000000
    20 2.428221 0.000000 0.000000 -0.004260 -0.122008 -0.279442
    21 1.681022 0.975106 0.213387 0.000000 0.000001 -1.745239
  time 12
    0 -0.013083 0.006861 42.969169 0.000000 0.000000 -1.570839
    1 0.398450 0.519547 0.000000 -1.570795 -1.570796 0.000000
    2 -0.000004 0.000006 3.319508 0.111436 -3.140685 -0.093931
    3 16.904898 0.000000 0.000000 0.000000 0.000000 -0.460736
    4 16.597540 0.000000 0.000000 -0.076412 -0.081165 -0.345322
    5 0.000005 -0.000003 -3.319508 0.069525 3.091395 -0.165756
    6 16.904898 0.000000 0.000000 0.000000 0.000000 -0.501995
    7 16.597540 0.000000 0.000000 -0.074589 -0.042433 -0.640819
    8 3.488968 -0.004234 0.000004 -0.000004 -0.000001 -0.060229
    9 5.318531 -0.004538 0.000000 0.000071 0.122109 -0.002283
    10 5.701826 -0.005492 0.000000 0.000000 0.000000 -0.037147
    11 6.899484 -0.001818 0.000000 0.000000 -0.000001 0.348889
    12 0.000003 0.001927 2.008302 -0.000013 -1.370797 2.791920
    13 4.746895 0.000000 0.000000 -0.141956 1.261549 -0.185761
    14 10.954378 0.000000 0.000000 0.000000 0.000000 -0.261023
    15 10.954373 0.000000 0.000000 -1.568795 0.000000 0.000000
    16 0.000003 0.001941 -2.008302 -0.000013 1.370795 2.791894
    17 4.746896 0.000000 -0.000003 -0.301716 -1.034161 0.313304
    18 10.954372 0.000000 0.000000 0.000000 0.000000 -0.356962
    19 10.954377 0.000000 0.000000 1.568795 0.165665 0.000000
    20 2.428221 0.000000 0.000000 -0.004538 -0.122008 -0.275036
    21 1.681022 0.975106 0.213387 0.000000 0.000001 -1.745239
  time 13
    0 -0.013083 0.006861 42.922238 0.000000 0.000000 -1.570839
    1 0.414075 0.519547 0.000000 -1.570795 -1.570796 0.000000
    2 -0.000004 0.000006 3.319508 0.111341 -3.146629 -0.146419
    3 16.904898 0.000000 0.000000 0.000000 0.000000 -0.217602
    4 16.597540 0.000000 0.000000 -0.076471 -0.081165 -0.641198
    5 0.000005 -0.000003 -3.319508 0.067229 3.088329 -0.209311
    6 16.904898 0.000000 0.000000 0.000000 0.000000 -0.208681
    7 16.597540 0.000000 0.000000 -0.074655 -0.042406 -0.977688
    8 3.488968 -0.004234 0.000004 -0.000004 -0.000001 -0.060229
    9 5.318531 -0.004538 0.000000 0.000071 0.122109 -0.004519
    10 5.701826 -0.005492 0.000000 0.000000 0.000000 -0.039402
    11 6.899484 -0.001818 0.000000 0.000000 -0.000001 0.348889
    12 0.000003 0.001927 2.008302 -0.000013 -1.370797 2.791920
    13 4.746895 0.000000 0.000000 -0.127657 1.262367 -0.171547
    14 10.954378 0.000000 0.000000 0.000000 0.000000 -0.261023
    15 10.954373 0.000000 0.000000 -1.568795 0.000000 0.000000
    16 0.000003 0.001941 -2.008302 -0.000013 1.370795 2.791894
    17 4.746896 0.000000 -0.000003 -0.309646 -1.032737 0.321332
    18 10.954372 0.000000 0.000000 0.000000 0.000000 -0.356962
    19 10.954377 0.000000 0.000000 1.568795 0.165665 0.000000
    20 2.428221 0.000000 0.000000 -0.004816 -0.122008 -0.270565
    21 1.681022 0.975106 0.213387 0.000000 0.000001 -1.745239
  time 14
    0 -0.013083 0.006861 42.922238 0.000000 0.000000 -1.570839
    1 0.425794 0.519547 0.000000 -1.570795 -1.570796 0.000000
    2 -0.000004 0.000006 3.319508 0.111436 -3.145958 -0.140012
    3 16.904898 0.000000 0.000000 0.000000 0.000000 -0.440114
    4 16.597540 0.000000 0.000000 -0.076561 -0.081128 -0.412189
    5 0.000005 -0.000003 -3.319508 0.069717 3.091491 -0.162013
    6 16.904898 0.000000 0.000000 0.000000 0.000000 -0.338472
    7 16.597540 0.000000 0.000000 -0.074753 -0.042351 -0.800528
    8 3.488968 -0.004234 0.000004 -0.000004 -0.000001 -0.060229
    9 5.318531 -0.004538 0.000000 0.000071 0.122109 -0.006904
    10 5.701826 -0.005492 0.000000 0.000000 0.000000 -0.041774
    11 6.899484 -0.001818 0.000000 0.000000 -0.000001 0.348889
    12 0.000003 0.001927 2.008302 -0.000013 -1.370797 2.791920
    13 4.746895 0.000000 0.000000 -0.112309 1.263093 -0.156310
    14 10.954378 0.000000 0.000000 0.000000 0.000000 -0.261023
    15 10.954373 0.000000 0.000000 -1.568795 0.000000 0.000000
    16 0.000003 0.001941 -2.008302 -0.000013 1.370795 2.791894
    17 4.746896 0.000000 -0.000003 -0.318149 -1.031314 0.329837
    18 10.954372 0.000000 0.000000 0.000000 0.000000 -0.356962
    19 10.954377 0.000000 0.000000 1.568795 0.165665 0.000000
    20 2.428221 0.000000 0.000000 -0.005093 -0.121958 -0.265775
    21 1.681022 0.975106 0.213387 0.000000 0.000001 -1.745239
  time 15
    0 -0.013083 0.006861 42.922238 0.000000 0.000000 -1.570839
    1 0.441420 0.519547 0.000000 -1.570795 -1.570796 0.000000
    2 -0.000004 0.000006 3.319508 0.111532 -3.142890 -0.111662
    3 16.904898 0.000000 0.000000 0.000000 0.000000 -0.723447
    4 16.597540 0.000000 0.000000 -0.076650 -0.081091 -0.100377
    5 0.000005 -0.000003 -3.319508 0.073545 3.097144 -0.080930
    6 16.904898 0.000000 0.000000 0.000000 0.000000 -0.540147
    7 16.597540 0.000000 0.000000 -0.074851 -0.042324 -0.517659
    8 3.488968 -0.004234 0.000004 -0.000004 -0.000001 -0.060229
    9 5.318531 -0.004538 0.000000 0.000071 0.122109 -0.009516
    10 5.701826 -0.005492 0.000000 0.000000 0.000000 -0.044409
    11 6.899484 -0.001818 0.000000 0.000000 -0.000001 0.348889
    12 0.000003 0.001927 2.008302 -0.000013 -1.370797 2.791920
    13 4.746895 0.000000 0.000000 -0.095436 1.263910 -0.139401
    14 10.954378 0.000000 0.000000 0.000000 0.000000 -0.261023
    15 10.954373 0.000000 0.000000 -1.568795 0.000000 0.000000
    16 0.000003 0.001941 -2.008302 -0.000013 1.370795 2.791894
    17 4.746896 0.000000 -0.000003 -0.327417 -1.029605 0.339107
    18 10.954372 0.000000 0.000000 0.000000 0.000000 -0.356962
    19 10.954377 0.000000 0.000000 1.568795 0.165665 0.000000
    20 2.428221 0.000000 0.000000 -0.005371 -0.121958 -0.260475
    21 1.681022 0.975106 0.213387 0.000000 0.000001 -1.745239
  time 16
    0 -0.013083 0.006861 42.922238 0.000000 0.000000 -1.570839
    1 0.457045 0.519547 0.000000 -1.570795 -1.570796 0.000000
    2 -0.000004 0.000006 3.319508 0.111532 -3.140781 -0.092790
    3 16.904898 0.000000 0.000000 0.000000 0.000000 -0.217602
    4 16.597540 0.000000 0.000000 -0.076680 -0.081091 -0.587219
    5 0.000005 -0.000003 -3.319508 0.075363 3.100306 -0.038202
    6 16.904898 0.000000 0.000000 0.000000 0.000000 -0.208681
    7 16.597540 0.000000 0.000000 -0.074851 -0.042324 -0.806345
    8 3.488968 -0.004234 0.000004 -0.000004 -0.000001 -0.060229
    9 5.318531 -0.004538 0.000000 0.000071 0.122109 -0.012480
    10 5.701826 -0.005492 0.000000 0.000000 0.000000 -0.047337
    11 6.899484 -0.001818 0.000000 0.000000 -0.000001 0.348889
    12 0.000003 0.001927 2.008302 -0.000013 -1.370797 2.791920
    13 4.746895 0.000000 0.000000 -0.076180 1.264637 -0.120263
    14 10.954378 0.000000 0.000000 0.000000 0.000000 -0.261023
    15 10.954373 0.000000 0.000000 -1.568795 0.000000 0.000000
    16 0.000003 0.001941 -2.008302 -0.000013 1.370795 2.791894
    17 4.746896 0.000000 -0.000003 -0.337736 -1.027707 0.349524
    18 10.954372 0.000000 0.000000 0.000000 0.000000 -0.356962
    19 10.954377 0.000000 0.000000 1.568795 0.165665 0.000000
    20 2.428221 0.000000 0.000000 -0.005742 -0.121958 -0.254599
    21 1.681022 0.975106 0.213387 0.000000 0.000001 -1.745239
  time 17
    0 -0.013083 0.006861 42.969169 0.000000 0.000000 -1.570839
    1 0.476577 0.519547 0.000000 -1.570795 -1.570796 0.000000
    2 -0.000004 0.000006 3.319508 0.111532 -3.140206 -0.087085
    3 16.904898 0.000000 0.000000 0.000000 0.000000 -0.217602
    4 16.597540 0.000000 0.000000 -0.076739 -0.081091 -0.581468
    5 0.000005 -0.000003 -3.319508 0.074789 3.099252 -0.051813
    6 16.904898 0.000000 0.000000 0.000000 0.000000 -0.208681
    7 16.597540 0.000000 0.000000 -0.074916 -0.042269 -0.819977
    8 3.488968 -0.004234 0.000004 -0.000004 -0.000001 -0.060229
    9 5.318531 -0.004538 0.000000 0.000071 0.122109 -0.015795
    10 5.701826 -0.005492 0.000000 0.000000 0.000000 -0.050675
    11 6.899484 -0.001818 0.000000 0.000000 -0.000001 0.348889
    12 0.000003 0.001927 2.008302 -0.000013 -1.370797 2.791920
    13 4.746895 0.000000 0.000000 -0.054541 1.265363 -0.098709
    14 10.954378 0.000000 0.000000 0.000000 0.000000 -0.261023
    15 10.954373 0.000000 0.000000 -1.568795 0.000000 0.000000
    16 0.000003 0.001941 -2.008302 -0.000013 1.370795 2.791894
    17 4.746896 0.000000 -0.000003 -0.349392 -1.025429 0.361087
    18 10.954372 0.000000 0.000000 0.000000 0.000000 -0.356962
    19 10.954377 0.000000 0.000000 1.568795 0.165665 0.000000
    20 2.428221 0.000000 0.000000 -0.006205 -0.121908 -0.247893
    21 1.681022 0.975106 0.213387 0.000000 0.000001 -1.745239
  time 18
    0 -0.013083 0.006861 43.016099 0.000000 0.000000 -1.570839
    1 0.500015 0.519547 0.000000 -1.570795 -1.570796 0.000000
    2 -0.000004 0.000006 3.319508 0.111532 -3.139823 -0.083487
    3 16.904898 0.000000 0.000000 0.000000 0.000000 -0.217602
    4 16.597540 0.000000 0.000000 -0.076798 -0.081054 -0.577865
    5 0.000005 -0.000003 -3.319508 0.074119 3.098006 -0.067125
    6 16.904898 0.000000 0.000000 0.000000 0.000000 -0.208681
    7 16.597540 0.000000 0.000000 -0.074982 -0.042242 -0.835314
    8 3.488968 -0.004234 0.000004 -0.000004 -0.000001 -0.060229
    9 5.318531 -0.004538 0.000000 0.000071 0.122109 -0.019411
    10 5.701826 -0.005492 0.000000 0.000000 0.000000 -0.054277
    11 6.899484 -0.001818 0.000000 0.000000 -0.000001 0.348889
    12 0.000003 0.001927 2.008302 -0.000013 -1.370797 2.791920
    13 4.746895 0.000000 0.000000 -0.030900 1.265999 -0.075111
    14 10.954378 0.000000 0.000000 0.000000 0.000000 -0.261023
    15 10.954373 0.000000 0.000000 -1.568795 0.000000 0.000000
    16 0.000003 0.001941 -2.008302 -0.000013 1.370795 2.791894
    17 4.746896 0.000000 -0.000003 -0.361813 -1.022961 0.373702
    18 10.954372 0.000000 0.000000 0.000000 0.000000 -0.356962
    19 10.954377 0.000000 0.000000 1.568795 0.165665 0.000000
    20 2.428221 0.000000 0.000000 -0.006575 -0.121908 -0.240676
    21 1.681022 0.975106 0.213387 0.000000 0.000001 -1.745239
  time 19
    0 -0.007336 0.006861 43.063030 0.000000 0.000000 -1.570839
    1 0.519547 0.519547 0.000000 -1.570795 -1.570796 0.000000
    2 -0.000004 0.000006 3.319508 0.111532 -3.139343 -0.079537
    3 16.904898 0.000000 0.000000 0.000000 0.000000 -0.217602
    4 16.597540 0.000000 0.000000 -0.076739 -0.081091 -0.573915
    5 0.000005 -0.000003 -3.319508 0.073449 3.096952 -0.083021
    6 16.904898 0.000000 0.000000 0.000000 0.000000 -0.208681
    7 16.597540 0.000000 0.000000 -0.074916 -0.042269 -0.851237
    8 3.488968 -0.004234 0.000004 -0.000004 -0.000001 -0.060229
    9 5.318531 -0.004538 0.000000 0.000071 0.122109 -0.023053
    10 5.701826 -0.005492 0.000000 0.000000 0.000000 -0.057937
    11 6.899484 -0.001818 0.000000 0.000000 -0.000001 0.348889
    12 0.000003 0.001927 2.008302 -0.000013 -1.370797 2.791920
    13 4.746895 0.000000 0.000000 -0.006782 1.266544 -0.051141
    14 10.954378 0.000000 0.000000 0.000000 0.000000 -0.261023
    15 10.954373 0.000000 0.000000 -1.568795 0.000000 0.000000
    16 0.000003 0.001941 -2.008302 -0.000013 1.370795 2.791894
    17 4.746896 0.000000 -0.000003 -0.374329 -1.020303 0.386222
    18 10.954372 0.000000 0.000000 0.000000 0.000000 -0.356962
    19 10.954377 0.000000 0.000000 1.568795 0.165665 0.000000
    20 2.428221 0.000000 0.000000 -0.007038 -0.121858 -0.233332
    21 1.681022 0.975106 0.213387 0.000000 0.000001 -1.745239
  time 20
    0 -0.007336 0.006861 43.156891 0.000000 0.000000 -1.570839
    1 0.539079 0.519547 0.000000 -1.570795 -1.570796 0.000000
    2 -0.000004 0.000006 3.319508 0.111245 -3.137905 -0.071725
    3 16.904898 0.000000 0.000000 0.000000 0.000000 -0.217602
    4 16.597540 0.000000 0.000000 -0.076144 -0.081275 -0.566085
    5 0.000005 -0.000003 -3.319508 0.072683 3.096377 -0.099645
    6 16.904898 0.000000 0.000000 0.000000 0.000000 -0.208681
    7 16.597540 0.000000 0.000000 -0.074295 -0.042596 -0.867866
    8 3.488968 -0.004234 0.000004 -0.000004 -0.000001 -0.060229
    9 5.318531 -0.004538 0.000000 0.000071 0.122109 -0.026167
    10 5.701826 -0.005492 0.000000 0.000000 0.000000 -0.061040
    11 6.899484 -0.001818 0.000000 0.000000 -0.000001 0.348889
    12 0.000003 0.001927 2.008302 -0.000013 -1.370797 2.791920
    13 4.746895 0.000000 0.000000 0.013713 1.266816 -0.030795
    14 10.954378 0.000000 0.000000 0.000000 0.000000 -0.261023
    15 10.954373 0.000000 0.000000 -1.568795 0.000000 0.000000
    16 0.000003 0.001941 -2.008302 -0.000013 1.370795 2.791894
    17 4.746896 0.000000 -0.000003 -0.384934 -1.017930 0.396829
    18 10.954372 0.000000 0.000000 0.000000 0.000000 -0.356962
    19 10.954377 0.000000 0.000000 1.568795 0.165665 0.000000
    20 2.428221 0.000000 0.000000 -0.007409 -0.121858 -0.227073
    21 1.681022 0.975106 0.213387 0.000000 0.000001 -1.745239
  time 21
    0 -0.007336 0.006861 43.297683 0.000000 0.000000 -1.570839
    1 0.539079 0.472671 0.000000 -1.570795 -1.570796 0.000000
    2 -0.000004 0.000006 3.319508 0.108177 -3.127840 -0.033281
    3 16.904898 0.000000 0.000000 0.000000 0.000000 -0.284924
    4 16.597540 0.000000 0.000000 -0.070136 -0.083566 -0.459792
    5 0.000005 -0.000003 -3.319508 0.073258 3.104617 -0.085257
    6 16.904898 0.000000 0.000000 0.000000 0.000000 -0.265019
    7 16.597540 0.000000 0.000000 -0.067983 -0.046003 -0.796943
    8 3.488968 -0.004234 0.000004 -0.000004 -0.000001 -0.060229
    9 5.318531 -0.004538 0.000000 0.000071 0.111356 -0.026167
    10 5.701826 -0.005492 0.000000 0.000000 0.000000 -0.061040
    11 6.899484 -0.001818 0.000000 0.000000 -0.000001 0.348889
    12 0.000003 0.001927 2.008302 -0.000013 -1.370797 2.791920
    13 4.746895 0.000000 0.000000 0.015143 1.256101 -0.029959
    14 10.954378 0.000000 0.000000 0.000000 0.000000 -0.261023
    15 10.954373 0.000000 0.000000 -1.568795 0.000000 0.000000
    16 0.000003 0.001941 -2.008302 -0.000013 1.370795 2.791894
    17 4.746896 0.000000 -0.000003 -0.392673 -1.027897 0.404093
    18 10.954372 0.000000 0.000000 0.000000 0.000000 -0.356962
    19 10.954377 0.000000 0.000000 1.568795 0.165665 0.000000
    20 2.428221 0.000000 0.000000 -0.006760 -0.111138 -0.227137
    21 1.681022 0.975106 0.213387 0.000000 0.000001 -1.745239
  time 22
    0 -0.007336 0.006861 43.485405 0.000000 0.000000 -1.570839
    1 0.539079 0.359386 0.000000 -1.570795 -1.570796 0.000000
    2 -0.000004 0.000006 3.319508 0.103096 -3.113844 0.022455
    3 16.904898 0.000000 0.000000 0.000000 0.000000 -0.378322
    4 16.597540 0.000000 0.000000 -0.061957 -0.087039 -0.310192
    5 0.000005 -0.000003 -3.319508 0.073832 3.116115 -0.064208
    6 16.904898 0.000000 0.000000 0.000000 0.000000 -0.343036
    7 16.597540 0.000000 0.000000 -0.059284 -0.050854 -0.697463
    8 3.488968 -0.004234 0.000004 -0.000004 -0.000001 -0.060229
    9 5.318531 -0.004538 0.000000 0.000036 0.084894 -0.026167
    10 5.701826 -0.005492 0.000000 0.000000 0.000000 -0.061040
    11 6.899484 -0.001818 0.000000 0.000000 -0.000001 0.348889
    12 0.000003 0.001927 2.008302 -0.000013 -1.370797 2.791920
    13 4.746895 0.000000 0.000000 0.018575 1.229677 -0.028379
    14 10.954378 0.000000 0.000000 0.000000 0.000000 -0.261023
    15 10.954373 0.000000 0.000000 -1.568795 0.000000 0.000000
    16 0.000003 0.001941 -2.008302 -0.000013 1.370795 2.791894
    17 4.746896 0.000000 -0.000003 -0.413120 -1.052196 0.423301
    18 10.954372 0.000000 0.000000 0.000000 0.000000 -0.356962
    19 10.954377 0.000000 0.000000 1.568795 0.165665 0.000000
    20 2.428221 0.000000 0.000000 -0.005186 -0.084712 -0.227329
    21 1.681022 0.975106 0.213387 0.000000 0.000001 -1.745239
  time 23
    0 -0.007336 0.006861 43.720058 0.000000 0.000000 -1.570839
    1 0.539079 0.246101 0.000000 -1.570795 -1.570796 0.000000
    2 -0.000004 0.000006 3.319508 0.097535 -3.100711 0.077401
    3 16.904898 0.000000 0.000000 0.000000 0.000000 -0.467984
    4 16.597540 0.000000 0.000000 -0.054284 -0.090807 -0.165234
    5 0.000005 -0.000003 -3.319508 0.074119 3.127229 -0.043354
    6 16.904898 0.000000 0.000000 0.000000 0.000000 -0.417987
    7 16.597540 0.000000 0.000000 -0.051010 -0.055650 -0.601333
    8 3.488968 -0.004234 0.000004 -0.000004 -0.000001 -0.060229
    9 5.318531 -0.004538 0.000000 0.000036 0.057902 -0.026167
    10 5.701826 -0.005492 0.000000 0.000000 0.000000 -0.061040
    11 6.899484 -0.001818 0.000000 0.000000 -0.000001 0.348889
    12 0.000003 0.001927 2.008302 -0.000013 -1.370797 2.791920
    13 4.746895 0.000000 0.000000 0.021625 1.202799 -0.027079
    14 10.954378 0.000000 0.000000 0.000000 0.000000 -0.261023
    15 10.954373 0.000000 0.000000 -1.568795 0.000000 0.000000
    16 0.000003 0.001941 -2.008302 -0.000013 1.370795 2.791894
    17 4.746896 0.000000 -0.000003 -0.435859 -1.076780 0.444804
    18 10.954372 0.000000 0.000000 0.000000 0.000000 -0.356962
    19 10.954377 0.000000 0.000000 1.568795 0.165665 0.000000
    20 2.428221 0.000000 0.000000 -0.003519 -0.057788 -0.227456
    21 1.681022 0.975106 0.213387 0.000000 0.000001 -1.745239
  time 24
    0 -0.007336 0.006861 44.001641 0.000000 0.000000 -1.570839
    1 0.539079 0.132817 0.000000 -1.570795 -1.570796 0.000000
    2 -0.000004 0.000006 3.319508 0.091687 -3.088920 0.128484
    3 16.904898 0.000000 0.000000 0.000000 0.000000 -0.549651
    4 16.597540 0.000000 0.000000 -0.047473 -0.094575 -0.032332
    5 0.000005 -0.000003 -3.319508 0.074119 3.137385 -0.023959
    6 16.904898 0.000000 0.000000 0.000000 0.000000 -0.486305
    7 16.597540 0.000000 0.000000 -0.043586 -0.060201 -0.513311
    8 3.488968 -0.004234 0.000004 -0.000004 -0.000001 -0.060229
    9 5.318531 -0.004538 0.000000 0.000000 0.031683 -0.026167
    10 5.701826 -0.005492 0.000000 0.000000 0.000000 -0.061040
    11 6.899484 -0.001818 0.000000 0.000000 -0.000001 0.348889
    12 0.000003 0.001927 2.008302 -0.000013 -1.370797 2.791920
    13 4.746895 0.000000 0.000000 0.024390 1.176648 -0.026057
    14 10.954378 0.000000 0.000000 0.000000 0.000000 -0.261023
    15 10.954373 0.000000 0.000000 -1.568795 0.000000 0.000000
    16 0.000003 0.001941 -2.008302 -0.000013 1.370795 2.791894
    17 4.746896 0.000000 -0.000003 -0.460127 -1.100415 0.467836
    18 10.954372 0.000000 0.000000 0.000000 0.000000 -0.356962
    19 10.954377 0.000000 0.000000 1.568795 0.165665 0.000000
    20 2.428221 0.000000 0.000000 -0.001852 -0.031611 -0.227520
    21 1.681022 0.975106 0.213387 0.000000 0.000001 -1.745239
  time 25
    0 -0.007336 0.006861 44.283225 0.000000 0.000000 -1.570839
    1 0.539079 0.027345 0.000000 -1.570795 -1.570796 0.000000
    2 -0.000004 0.000006 3.319508 0.086318 -3.079046 0.170001
    3 16.904898 0.000000 0.000000 0.000000 0.000000 -0.621307
    4 16.597540 0.000000 0.000000 -0.041644 -0.098196 0.080959
    5 0.000005 -0.000003 -3.319508 0.074119 3.146200 -0.008549
    6 16.904898 0.000000 0.000000 0.000000 0.000000 -0.546138
    7 16.597540 0.000000 0.000000 -0.037144 -0.064316 -0.437805
    8 3.488968 -0.004234 0.000004 -0.000004 -0.000001 -0.060229
    9 5.318531 -0.004538 0.000000 0.000000 0.006593 -0.026167
    10 5.701826 -0.005492 0.000000 0.000000 0.000000 -0.061040
    11 6.899484 -0.001818 0.000000 0.000000 -0.000001 0.348889
    12 0.000003 0.001927 2.008302 -0.000013 -1.370797 2.791920
    13 4.746895 0.000000 0.000000 0.026773 1.151586 -0.025406
    14 10.954378 0.000000 0.000000 0.000000 0.000000 -0.261023
    15 10.954373 0.000000 0.000000 -1.568795 0.000000 0.000000
    16 0.000003 0.001941 -2.008302 -0.000013 1.370795 2.791894
    17 4.746896 0.000000 -0.000003 -0.485637 -1.122816 0.492205
    18 10.954372 0.000000 0.000000 0.000000 0.000000 -0.356962
    19 10.954377 0.000000 0.000000 1.568795 0.165665 0.000000
    20 2.428221 0.000000 0.000000 -0.000370 -0.006582 -0.227520
    21 1.681022 0.975106 0.213387 0.000000 0.000001 -1.745239
  time 26
    0 -0.001589 0.006861 44.564808 0.000000 0.000000 -1.570839
    1 0.539079 -0.070315 0.000000 -1.570795 -1.570796 0.000000
    2 -0.000004 0.000006 3.319508 0.086318 -3.076266 0.126027
    3 16.904898 0.000000 0.000000 0.000000 0.000000 -0.689002
    4 16.597540 0.000000 0.000000 -0.035696 -0.102223 0.104519
    5 0.000005 -0.000003 -3.319508 0.074310 3.152140 -0.035577
    6 16.904898 0.000000 0.000000 0.000000 0.000000 -0.601477
    7 16.597540 0.000000 0.000000 -0.030440 -0.068704 -0.409541
    8 3.488968 -0.004234 0.000004 -0.000004 -0.000001 -0.060229
    9 5.318531 -0.004538 0.000000 0.000000 -0.016970 -0.026167
    10 5.701826 -0.005492 0.000000 0.000000 0.000000 -0.061040
    11 6.899484 -0.001818 0.000000 0.000000 -0.000001 0.348889
    12 0.000003 0.001927 2.008302 -0.000013 -1.370797 2.791920
    13 4.746895 0.000000 0.000000 0.028870 1.128158 -0.024849
    14 10.954378 0.000000 0.000000 0.000000 0.000000 -0.261023
    15 10.954373 0.000000 0.000000 -1.568795 0.000000 0.000000
    16 0.000003 0.001941 -2.008302 -0.000013 1.370795 2.791894
    17 4.746896 0.000000 -0.000003 -0.511912 -1.143509 0.517435
    18 10.954372 0.000000 0.000000 0.000000 0.000000 -0.356962
    19 10.954377 0.000000 0.000000 1.568795 0.165665 0.000000
    20 2.428221 0.000000 0.000000 0.001019 0.016903 -0.227520
    21 1.681022 0.975106 0.213387 0.000000 0.000001 -1.745239
  time 27
    0 -0.001589 0.006861 44.799461 0.000000 0.000000 -1.570839
    1 0.539079 -0.164068 0.000000 -1.570795 -1.570796 0.000000
    2 -0.000004 0.000006 3.319508 0.096193 -3.088153 -0.108677
    3 16.904898 0.000000 0.000000 0.000000 0.000000 -0.796148
    4 16.597540 0.000000 0.000000 -0.026387 -0.106841 -0.023740
    5 0.000005 -0.000003 -3.319508 0.075937 3.153769 -0.166533
    6 16.904898 0.000000 0.000000 0.000000 0.000000 -0.691119
    7 16.597540 0.000000 0.000000 -0.020400 -0.074236 -0.451084
    8 3.488968 -0.004234 0.000004 -0.000004 -0.000001 -0.060229
    9 5.318531 -0.004538 0.000000 0.000000 -0.038454 -0.026167
    10 5.701826 -0.005492 0.000000 0.000000 0.000000 -0.061040
    11 6.899484 -0.001818 0.000000 0.000000 -0.000001 0.348889
    12 0.000003 0.001927 2.008302 -0.000013 -1.370797 2.791920
    13 4.746895 0.000000 0.000000 0.030681 1.106729 -0.024570
    14 10.954378 0.000000 0.000000 0.000000 0.000000 -0.261023
    15 10.954373 0.000000 0.000000 -1.568795 0.000000 0.000000
    16 0.000003 0.001941 -2.008302 -0.000013 1.370795 2.791894
    17 4.746896 0.000000 -0.000003 -0.537995 -1.162018 0.542569
    18 10.954372 0.000000 0.000000 0.000000 0.000000 -0.356962
    19 10.954377 0.000000 0.000000 1.568795 0.165665 0.000000
    20 2.428221 0.000000 0.000000 0.002315 0.038342 -0.227520
    21 1.681022 0.975106 0.213387 0.000000 0.000001 -1.745239
  time 28
    0 0.004158 0.006861 44.987184 0.000000 0.000000 -1.570839
    1 0.539079 -0.238289 0.000000 -1.570795 -1.570796 0.000000
    2 -0.000004 0.000006 3.319508 0.103000 -3.102341 -0.339168
    3 16.904898 0.000000 0.000000 0.000000 0.000000 -0.894926
    4 16.597540 0.000000 0.000000 -0.016988 -0.108947 -0.156434
    5 0.000005 -0.000003 -3.319508 0.077660 3.154631 -0.294573
    6 16.904898 0.000000 0.000000 0.000000 0.000000 -0.773629
    7 16.597540 0.000000 0.000000 -0.010425 -0.078106 -0.496858
    8 3.488968 -0.004234 0.000004 -0.000004 -0.000001 -0.060229
    9 5.318531 -0.004538 0.000000 -0.000036 -0.055910 -0.026167
    10 5.701826 -0.005492 0.000000 0.000000 0.000000 -0.061040
    11 6.899484 -0.001818 0.000000 0.000000 -0.000001 0.348889
    12 0.000003 0.001927 2.008302 -0.000013 -1.370797 2.791920
    13 4.746895 0.000000 0.000000 0.032111 1.089294 -0.024384
    14 10.954378 0.000000 0.000000 0.000000 0.000000 -0.261023
    15 10.954373 0.000000 0.000000 -1.568795 0.000000 0.000000
    16 0.000003 0.001941 -2.008302 -0.000013 1.370795 2.791894
    17 4.746896 0.000000 -0.000003 -0.561021 -1.177015 0.564836
    18 10.954372 0.000000 0.000000 0.000000 0.000000 -0.356962
    19 10.954377 0.000000 0.000000 1.568795 0.165665 0.000000
    20 2.428221 0.000000 0.000000 0.003334 0.055793 -0.227456
    21 1.681022 0.975106 0.213387 0.000000 0.000001 -1.745239
  time 29
    0 0.004158 0.006861 45.034114 0.000000 0.000000 -1.570839
    1 0.539079 -0.222663 0.000000 -1.570795 -1.570796 0.000000
    2 -0.000004 0.000006 3.319508 0.104917 -3.109434 -0.451956
    3 16.904898 0.000000 0.000000 0.000000 0.000000 -0.889173
    4 16.597540 0.000000 0.000000 -0.011843 -0.109058 -0.275615
    5 0.000005 -0.000003 -3.319508 0.078330 3.156739 -0.340219
    6 16.904898 0.000000 0.000000 0.000000 0.000000 -0.758154
    7 16.597540 0.000000 0.000000 -0.004996 -0.079686 -0.558086
    8 3.488968 -0.004234 0.000004 -0.000004 -0.000001 -0.060229
    9 5.318531 -0.004538 0.000000 -0.000036 -0.052326 -0.026167
    10 5.701826 -0.005492 0.000000 0.000000 0.000000 -0.061040
    11 6.899484 -0.001818 0.000000 0.000000 -0.000001 0.348889
    12 0.000003 0.001927 2.008302 -0.000013 -1.370797 2.791920
    13 4.746895 0.000000 0.000000 0.031825 1.092836 -0.024384
    14 10.954378 0.000000 0.000000 0.000000 0.000000 -0.261023
    15 10.954373 0.000000 0.000000 -1.568795 0.000000 0.000000
    16 0.000003 0.001941 -2.008302 -0.000013 1.370795 2.791894
    17 4.746896 0.000000 -0.000003 -0.556148 -1.173978 0.560153
    18 10.954372 0.000000 0.000000 0.000000 0.000000 -0.356962
    19 10.954377 0.000000 0.000000 1.568795 0.165665 0.000000
    20 2.428221 0.000000 0.000000 0.003149 0.052203 -0.227456
    21 1.681022 0.975106 0.213387 0.000000 0.000001 -1.745239
  time 30
    0 -0.001589 0.006861 44.940253 0.000000 0.000000 -1.570839
    1 0.539079 -0.093753 0.000000 -1.570795 -1.570796 0.000000
    2 -0.000004 0.000006 3.319508 0.097631 -3.090454 -0.221202
    3 16.904898 0.000000 0.000000 0.000000 0.000000 -0.516850
    4 16.597540 0.000000 0.000000 -0.016869 -0.108910 -0.416208
    5 0.000005 -0.000003 -3.319508 0.074884 3.168141 -0.119867
    6 16.904898 0.000000 0.000000 0.000000 0.000000 -0.377409
    7 16.597540 0.000000 0.000000 -0.010589 -0.078814 -0.717912
    8 3.488968 -0.004234 0.000004 -0.000004 -0.000001 -0.060229
    9 5.318531 -0.004538 0.000000 0.000000 -0.022656 -0.026167
    10 5.701826 -0.005492 0.000000 0.000000 0.000000 -0.061040
    11 6.899484 -0.001818 0.000000 0.000000 -0.000001 0.348889
    12 0.000003 0.001927 2.008302 -0.000013 -1.370797 2.791920
    13 4.746895 0.000000 0.000000 0.029347 1.122438 -0.024756
    14 10.954378 0.000000 0.000000 0.000000 0.000000 -0.261023
    15 10.954373 0.000000 0.000000 -1.568795 0.000000 0.000000
    16 0.000003 0.001941 -2.008302 -0.000013 1.370795 2.791894
    17 4.746896 0.000000 -0.000003 -0.518600 -1.148444 0.523838
    18 10.954372 0.000000 0.000000 0.000000 0.000000 -0.356962
    19 10.954377 0.000000 0.000000 1.568795 0.165665 0.000000
    20 2.428221 0.000000 0.000000 0.001296 0.022587 -0.227520
    21 1.681022 0.975106 0.213387 0.000000 0.000001 -1.745239
  time 31
    0 -0.007336 0.006861 44.705600 0.000000 0.000000 -1.570839
    1 0.539079 0.027345 0.000000 -1.570795 -1.570796 0.000000
    2 -0.000004 0.000006 3.319508 0.090441 -3.081539 -0.041443
    3 16.904898 0.000000 0.000000 0.000000 0.000000 -0.274089
    4 16.597540 0.000000 0.000000 -0.024721 -0.105696 -0.478501
    5 0.000005 -0.000003 -3.319508 0.071057 3.169386 0.026985
    6 16.904898 0.000000 0.000000 0.000000 0.000000 -0.157478
    7 16.597540 0.000000 0.000000 -0.018732 -0.073991 -0.790715
    8 3.488968 -0.004234 0.000004 -0.000004 -0.000001 -0.060229
    9 5.318531 -0.004538 0.000000 0.000000 0.007102 -0.026167
    10 5.701826 -0.005492 0.000000 0.000000 0.000000 -0.061040
    11 6.899484 -0.001818 0.000000 0.000000 -0.000001 0.348889
    12 0.000003 0.001927 2.008302 -0.000013 -1.370797 2.791920
    13 4.746895 0.000000 0.000000 0.026773 1.152040 -0.025406
    14 10.954378 0.000000 0.000000 0.000000 0.000000 -0.261023
    15 10.954373 0.000000 0.000000 -1.568795 0.000000 0.000000
    16 0.000003 0.001941 -2.008302 -0.000013 1.370795 2.791894
    17 4.746896 0.000000 -0.000003 -0.485064 -1.122342 0.491727
    18 10.954372 0.000000 0.000000 0.000000 0.000000 -0.356962
    19 10.954377 0.000000 0.000000 1.568795 0.165665 0.000000
    20 2.428221 0.000000 0.000000 -0.000370 -0.007080 -0.227520
    21 1.681022 0.975106 0.213387 0.000000 0.000001 -1.745239
  time 32
    0 -0.018829 0.006861 44.283225 0.000000 0.000000 -1.570839
    1 0.539079 0.144536 0.000000 -1.570795 -1.570796 0.000000
    2 -0.000004 0.000006 3.319508 0.098782 -3.105696 -0.127373
    3 16.904898 0.000000 0.000000 0.000000 0.000000 -0.563400
    4 16.597540 0.000000 0.000000 -0.039205 -0.097531 -0.275477
    5 0.000005 -0.000003 -3.319508 0.071057 3.138631 -0.142714
    6 16.904898 0.000000 0.000000 0.000000 0.000000 -0.586073
    7 16.597540 0.000000 0.000000 -0.033677 -0.062736 -0.532466
    8 3.488968 -0.004234 0.000004 -0.000004 -0.000001 -0.060229
    9 5.318531 -0.004538 0.000000 0.000000 0.034117 -0.026167
    10 5.701826 -0.005492 0.000000 0.000000 0.000000 -0.061040
    11 6.899484 -0.001818 0.000000 0.000000 -0.000001 0.348889
    12 0.000003 0.001927 2.008302 -0.000013 -1.370797 2.791920
    13 4.746895 0.000000 0.000000 0.024199 1.179009 -0.026150
    14 10.954378 0.000000 0.000000 0.000000 0.000000 -0.261023
    15 10.954373 0.000000 0.000000 -1.568795 0.000000 0.000000
    16 0.000003 0.001941 -2.008302 -0.000013 1.370795 2.791894
    17 4.746896 0.000000 -0.000003 -0.457739 -1.098232 0.465638
    18 10.954372 0.000000 0.000000 0.000000 0.000000 -0.356962
    19 10.954377 0.000000 0.000000 1.568795 0.165665 0.000000
    20 2.428221 0.000000 0.000000 -0.002037 -0.034054 -0.227520
    21 1.681022 0.975106 0.213387 0.000000 0.000001 -1.745239
  time 33
    0 -0.024576 0.006861 43.813919 0.000000 0.000000 -1.570839
    1 0.539079 0.257820 0.000000 -1.570795 -1.570796 0.000000
    2 -0.000004 0.000006 3.319508 0.105013 -3.128127 -0.199873
    3 16.904898 0.000000 0.000000 0.000000 0.000000 -0.757369
    4 16.597540 0.000000 0.000000 -0.053570 -0.091361 -0.154493
    5 0.000005 -0.000003 -3.319508 0.067707 3.111899 -0.274351
    6 16.904898 0.000000 0.000000 0.000000 0.000000 -0.875465
    7 16.597540 0.000000 0.000000 -0.049473 -0.054996 -0.375402
    8 3.488968 -0.004234 0.000004 -0.000004 -0.000001 -0.060229
    9 5.318531 -0.004538 0.000000 0.000036 0.060490 -0.026167
    10 5.701826 -0.005492 0.000000 0.000000 0.000000 -0.061040
    11 6.899484 -0.001818 0.000000 0.000000 -0.000001 0.348889
    12 0.000003 0.001927 2.008302 -0.000013 -1.370797 2.791920
    13 4.746895 0.000000 0.000000 0.021339 1.205342 -0.027171
    14 10.954378 0.000000 0.000000 0.000000 0.000000 -0.261023
    15 10.954373 0.000000 0.000000 -1.568795 0.000000 0.000000
    16 0.000003 0.001941 -2.008302 -0.000013 1.370795 2.791894
    17 4.746896 0.000000 -0.000003 -0.433566 -1.074407 0.442606
    18 10.954372 0.000000 0.000000 0.000000 0.000000 -0.356962
    19 10.954377 0.000000 0.000000 1.568795 0.165665 0.000000
    20 2.428221 0.000000 0.000000 -0.003612 -0.060381 -0.227456
    21 1.681022 0.975106 0.213387 0.000000 0.000001 -1.745239
  time 34
    0 -0.036070 0.006861 43.438474 0.000000 0.000000 -1.570839
    1 0.539079 0.406262 0.000000 -1.570795 -1.570796 0.000000
    2 -0.000004 0.000006 3.319508 0.108656 -3.134934 -0.133254
    3 16.904898 0.000000 0.000000 0.000000 0.000000 -0.470450
    4 16.597540 0.000000 0.000000 -0.067043 -0.085820 -0.374771
    5 0.000005 -0.000003 -3.319508 0.069908 3.101743 -0.185443
    6 16.904898 0.000000 0.000000 0.000000 0.000000 -0.523888
    7 16.597540 0.000000 0.000000 -0.064386 -0.048319 -0.638234
    8 3.488968 -0.004234 0.000004 -0.000004 -0.000001 -0.060229
    9 5.318531 -0.004538 0.000000 0.000071 0.096001 -0.026167
    10 5.701826 -0.005492 0.000000 0.000000 0.000000 -0.061040
    11 6.899484 -0.001818 0.000000 0.000000 -0.000001 0.348889
    12 0.000003 0.001927 2.008302 -0.000013 -1.370797 2.791920
    13 4.746895 0.000000 0.000000 0.017240 1.240755 -0.028937
    14 10.954378 0.000000 0.000000 0.000000 0.000000 -0.261023
    15 10.954373 0.000000 0.000000 -1.568795 0.000000 0.000000
    16 0.000003 0.001941 -2.008302 -0.000013 1.370795 2.791894
    17 4.746896 0.000000 -0.000003 -0.404330 -1.042040 0.414987
    18 10.954372 0.000000 0.000000 0.000000 0.000000 -0.356962
    19 10.954377 0.000000 0.000000 1.568795 0.165665 0.000000
    20 2.428221 0.000000 0.000000 -0.005834 -0.095781 -0.227265
    21 1.681022 0.975106 0.213387 0.000000 0.000001 -1.745239
  time 35
    0 -0.013083 0.006861 43.156891 0.000000 0.000000 -1.570839
    1 0.316416 0.519547 0.000000 -1.570795 -1.570796 0.000000
    2 -0.000004 0.000006 3.319508 0.111245 -3.138864 -0.080414
    3 16.904898 0.000000 0.000000 0.000000 0.000000 -0.217602
    4 16.597540 0.000000 0.000000 -0.076144 -0.081275 -0.574816
    5 0.000005 -0.000003 -3.319508 0.077373 3.104905 0.013471
    6 16.904898 0.000000 0.000000 0.000000 0.000000 -0.208681
    7 16.597540 0.000000 0.000000 -0.074295 -0.042596 -0.754460
    8 3.488968 -0.004234 0.000004 -0.000004 -0.000001 -0.060229
    9 5.318531 -0.004538 0.000000 0.000071 0.122109 0.011630
    10 5.701826 -0.005492 0.000000 0.000000 0.000000 -0.023268
    11 6.899484 -0.001818 0.000000 0.000000 -0.000001 0.348889
    12 0.000003 0.001927 2.008302 -0.000013 -1.370797 2.791920
    13 4.746895 0.000000 0.000000 -0.229084 1.255193 -0.272535
    14 10.954378 0.000000 0.000000 0.000000 0.000000 -0.261023
    15 10.954373 0.000000 0.000000 -1.568795 0.000000 0.000000
    16 0.000003 0.001941 -2.008302 -0.000013 1.370795 2.791894
    17 4.746896 0.000000 -0.000003 -0.251078 -1.041850 0.262558
    18 10.954372 0.000000 0.000000 0.000000 0.000000 -0.356962
    19 10.954377 0.000000 0.000000 1.568795 0.165665 0.000000
    20 2.428221 0.000000 0.000000 -0.002778 -0.122057 -0.302945
    21 1.681022 0.975106 0.213387 0.000000 0.000001 -1.745239
end
