version 1
nodes
  0 "Bip02" -1
  1 "Bip02 Pelvis" 0
  2 "Bip02 L Leg" 1
  3 "Bip02 L Leg1" 2
  4 "Bip02 L Foot" 3
  5 "Bip02 R Leg" 1
  6 "Bip02 R Leg1" 5
  7 "Bip02 R Foot" 6
  8 "Bip02 Spine" 1
  9 "Bip02 Spine1" 8
  10 "Bip02 Spine2" 9
  11 "Bip02 Neck" 10
  12 "Bip02 L Arm" 11
  13 "Bip02 L Arm1" 12
  14 "Bip02 L Arm2" 13
  15 "Bip02 L Hand" 14
  16 "Bip02 R Arm" 11
  17 "Bip02 R Arm1" 16
  18 "Bip02 R Arm2" 17
  19 "Bip02 R Hand" 18
  20 "Bip02 Head" 11
  21 "Bone01" 20
end
skeleton
  time 0
    0 -0.208480 -1.180659 36.962054 0.000000 -0.026148 -1.570839
    1 -0.585955 0.050783 0.000000 -1.570795 -1.570796 0.000000
    2 -0.000004 0.000006 3.077313 0.003103 -3.057765 -0.077694
    3 16.897085 0.000000 0.000000 0.000000 0.000000 -0.149608
    4 16.589727 0.000000 0.000000 -0.074836 -0.090622 -0.033025
    5 0.000005 -0.000003 -3.077313 0.611181 2.998936 0.021541
    6 16.897085 0.000000 0.000000 0.000000 0.000000 -0.272578
    7 16.589727 0.000000 0.000000 -0.103466 0.089493 0.076812
    8 3.488968 -0.004234 0.000004 -0.000004 -0.000001 0.035662
    9 5.318531 -0.004538 0.000000 -0.313943 0.011018 0.033128
    10 5.701826 -0.005492 0.000000 -0.209407 0.001965 0.008502
    11 6.899484 -0.001818 0.000000 0.000000 -0.026147 0.099378
    12 0.050786 0.001927 2.008302 -0.571514 -1.365031 3.600345
    13 4.746895 0.000000 0.000000 0.083492 1.054516 0.394620
    14 10.950472 0.000000 0.000000 0.000000 0.000000 -0.722739
    15 10.950467 0.000000 0.000000 -1.574103 0.019392 0.236566
    16 -0.050780 0.001941 -2.008302 -0.529234 1.350105 2.519998
    17 4.746896 0.000000 -0.000003 -0.600958 -0.761647 0.702070
    18 10.950466 0.000000 0.000000 0.000000 0.000000 -0.672043
    19 10.950471 0.000000 0.000000 1.767889 -0.169629 0.443611
    20 2.428221 0.000000 0.000000 -0.115758 -0.060979 -0.119716
    21 1.681022 0.975106 0.213387 0.000000 0.000001 -1.745239
  time 1
    0 -0.208480 -1.180659 36.962054 -0.000096 -0.026148 -1.567200
    1 -0.585955 0.050783 0.000000 -1.570795 -1.570796 0.000000
    2 -0.000004 0.000006 3.077313 0.003199 -3.057669 -0.078220
    3 16.897085 0.000000 0.000000 0.000000 0.000000 -0.149310
    4 16.589727 0.000000 0.000000 -0.071148 -0.090327 -0.033857
    5 0.000005 -0.000003 -3.077313 0.611372 2.999606 0.022318
    6 16.897085 0.000000 0.000000 0.000000 0.000000 -0.272079
    7 16.589727 0.000000 0.000000 -0.099803 0.089820 0.077223
    8 3.488968 -0.004234 0.000004 -0.000004 -0.000001 0.035662
    9 5.318531 -0.004538 0.000000 -0.304702 0.010709 0.033228
    10 5.701826 -0.005492 0.000000 -0.203868 0.001917 0.008502
    11 6.899484 -0.001818 0.000000 0.000000 -0.026147 0.099378
    12 0.050786 0.001927 2.008302 -0.571514 -1.365031 3.600345
    13 4.746895 0.000000 0.000000 0.100937 1.053881 0.407069
    14 10.950472 0.000000 0.000000 0.000000 0.000000 -0.722739
    15 10.950467 0.000000 0.000000 -1.574103 0.019392 0.236566
    16 -0.050780 0.001941 -2.008302 -0.529234 1.350105 2.519998
    17 4.746896 0.000000 -0.000003 -0.603825 -0.771234 0.703504
    18 10.950466 0.000000 0.000000 0.000000 0.000000 -0.672043
    19 10.950471 0.000000 0.000000 1.767889 -0.169629 0.443611
    20 2.428221 0.000000 0.000000 -0.161135 -0.060779 -0.118375
    21 1.681022 0.975106 0.213387 0.000000 0.000001 -1.745239
  time 2
    0 -0.208480 -1.180659 36.962054 -0.000287 -0.026148 -1.559252
    1 -0.585955 0.046876 0.000000 -1.570795 -1.570796 0.000000
    2 -0.000004 0.000006 3.077313 0.003295 -3.057574 -0.079361
    3 16.897085 0.000000 0.000000 0.000000 0.000000 -0.148786
    4 16.589727 0.000000 0.000000 -0.063326 -0.089662 -0.035589
    5 0.000005 -0.000003 -3.077313 0.611659 3.001235 0.024020
    6 16.897085 0.000000 0.000000 0.000000 0.000000 -0.270867
    7 16.589727 0.000000 0.000000 -0.092053 0.090528 0.077987
    8 3.488968 -0.004234 0.000004 -0.000004 -0.000001 0.035662
    9 5.318531 -0.004538 0.000000 -0.293392 0.010310 0.033354
    10 5.701826 -0.005492 0.000000 -0.197082 0.001854 0.008531
    11 6.899484 -0.001818 0.000000 0.000000 -0.026147 0.099378
    12 0.050786 0.001927 2.008302 -0.571514 -1.365031 3.600345
    13 4.746895 0.000000 0.000000 0.122290 1.052791 0.422306
    14 10.950472 0.000000 0.000000 0.000000 0.000000 -0.722739
    15 10.950467 0.000000 0.000000 -1.574103 0.019392 0.236566
    16 -0.050780 0.001941 -2.008302 -0.529234 1.350105 2.519998
    17 4.746896 0.000000 -0.000003 -0.607169 -0.783099 0.705128
    18 10.950466 0.000000 0.000000 0.000000 0.000000 -0.672043
    19 10.950471 0.000000 0.000000 1.767889 -0.169629 0.443611
    20 2.428221 0.000000 0.000000 -0.241333 -0.060580 -0.116778
    21 1.681022 0.975106 0.213387 0.000000 0.000001 -1.745239
  time 3
    0 -0.208480 -1.180659 36.962054 -0.000479 -0.026148 -1.551304
    1 -0.585955 0.046876 0.000000 -1.570795 -1.570796 0.000000
    2 -0.000004 0.000006 3.077313 0.003390 -3.057382 -0.080502
    3 16.897085 0.000000 0.000000 0.000000 0.000000 -0.148189
    4 16.589727 0.000000 0.000000 -0.055355 -0.088960 -0.037391
    5 0.000005 -0.000003 -3.077313 0.611946 3.002768 0.025721
    6 16.897085 0.000000 0.000000 0.000000 0.000000 -0.269654
    7 16.589727 0.000000 0.000000 -0.084139 0.091210 0.078810
    8 3.488968 -0.004234 0.000004 -0.000004 -0.000001 0.035662
    9 5.318531 -0.004538 0.000000 -0.280155 0.009868 0.033479
    10 5.701826 -0.005492 0.000000 -0.189134 0.001790 0.008531
    11 6.899484 -0.001818 0.000000 0.000000 -0.026147 0.099378
    12 0.050786 0.001927 2.008302 -0.571514 -1.365031 3.600345
    13 4.746895 0.000000 0.000000 0.146980 1.051066 0.439958
    14 10.950472 0.000000 0.000000 0.000000 0.000000 -0.722739
    15 10.950467 0.000000 0.000000 -1.574103 0.019392 0.236566
    16 -0.050780 0.001941 -2.008302 -0.529234 1.350105 2.519998
    17 4.746896 0.000000 -0.000003 -0.610799 -0.797052 0.706848
    18 10.950466 0.000000 0.000000 0.000000 0.000000 -0.672043
    19 10.950471 0.000000 0.000000 1.767889 -0.169629 0.443611
    20 2.428221 0.000000 0.000000 -0.287729 -0.060281 -0.114862
    21 1.681022 0.975106 0.213387 0.000000 0.000001 -1.745239
  time 4
    0 -0.208480 -1.180659 36.962054 -0.000671 -0.026148 -1.543260
    1 -0.585955 0.042970 0.000000 -1.570795 -1.570796 0.000000
    2 -0.000004 0.000006 3.077313 0.003486 -3.057286 -0.081643
    3 16.897085 0.000000 0.000000 0.000000 0.000000 -0.147516
    4 16.589727 0.000000 0.000000 -0.047384 -0.088295 -0.039192
    5 0.000005 -0.000003 -3.077313 0.612233 3.004493 0.027422
    6 16.897085 0.000000 0.000000 0.000000 0.000000 -0.268442
    7 16.589727 0.000000 0.000000 -0.076224 0.091891 0.079574
    8 3.488968 -0.004234 0.000004 -0.000004 -0.000001 0.035662
    9 5.318531 -0.004538 0.000000 -0.265241 0.009359 0.033630
    10 5.701826 -0.005492 0.000000 -0.180188 0.001694 0.008560
    11 6.899484 -0.001818 0.000000 0.000000 -0.026147 0.099378
    12 0.050786 0.001927 2.008302 -0.571514 -1.365031 3.600345
    13 4.746895 0.000000 0.000000 0.174625 1.048614 0.459654
    14 10.950472 0.000000 0.000000 0.000000 0.000000 -0.722739
    15 10.950467 0.000000 0.000000 -1.574103 0.019392 0.236566
    16 -0.050780 0.001941 -2.008302 -0.529234 1.350105 2.519998
    17 4.746896 0.000000 -0.000003 -0.614430 -0.812809 0.708473
    18 10.950466 0.000000 0.000000 0.000000 0.000000 -0.672043
    19 10.950471 0.000000 0.000000 1.767889 -0.169629 0.443611
    20 2.428221 0.000000 0.000000 -0.265133 -0.059882 -0.112691
    21 1.681022 0.975106 0.213387 0.000000 0.000001 -1.745239
  time 5
    0 -0.208480 -1.180659 36.962054 -0.000862 -0.026148 -1.535312
    1 -0.585955 0.039064 0.000000 -1.570795 -1.570796 0.000000
    2 -0.000004 0.000006 3.077313 0.003582 -3.057094 -0.082784
    3 16.897085 0.000000 0.000000 0.000000 0.000000 -0.146769
    4 16.589727 0.000000 0.000000 -0.039413 -0.087593 -0.040994
    5 0.000005 -0.000003 -3.077313 0.612520 3.006122 0.029124
    6 16.897085 0.000000 0.000000 0.000000 0.000000 -0.267230
    7 16.589727 0.000000 0.000000 -0.068310 0.092545 0.080396
    8 3.488968 -0.004234 0.000004 -0.000004 -0.000001 0.035662
    9 5.318531 -0.004538 0.000000 -0.248864 0.008784 0.033781
    10 5.701826 -0.005492 0.000000 -0.170328 0.001614 0.008560
    11 6.899484 -0.001818 0.000000 0.000000 -0.026147 0.099378
    12 0.050786 0.001927 2.008302 -0.571514 -1.365031 3.600345
    13 4.746895 0.000000 0.000000 0.204652 1.045255 0.480929
    14 10.950472 0.000000 0.000000 0.000000 0.000000 -0.722739
    15 10.950467 0.000000 0.000000 -1.574103 0.019392 0.236566
    16 -0.050780 0.001941 -2.008302 -0.529234 1.350105 2.519998
    17 4.746896 0.000000 -0.000003 -0.617870 -0.830179 0.709811
    18 10.950466 0.000000 0.000000 0.000000 0.000000 -0.672043
    19 10.950471 0.000000 0.000000 1.767889 -0.169629 0.443611
    20 2.428221 0.000000 0.000000 -0.220033 -0.059383 -0.110328
    21 1.681022 0.975106 0.213387 0.000000 0.000001 -1.745239
  time 6
    0 -0.208480 -1.180659 36.962054 -0.001054 -0.026053 -1.527268
    1 -0.589862 0.039064 0.000000 -1.570795 -1.570796 0.000000
    2 -0.000004 0.000006 3.077313 0.003678 -3.056998 -0.083838
    3 16.897085 0.000000 0.000000 0.000000 0.000000 -0.146022
    4 16.589727 0.000000 0.000000 -0.031443 -0.086891 -0.042865
    5 0.000005 -0.000003 -3.077313 0.612808 3.007750 0.030825
    6 16.897085 0.000000 0.000000 0.000000 0.000000 -0.265946
    7 16.589727 0.000000 0.000000 -0.060396 0.093199 0.081219
    8 3.488968 -0.004234 0.000004 -0.000004 -0.000001 0.035662
    9 5.318531 -0.004538 0.000000 -0.231131 0.008164 0.033931
    10 5.701826 -0.005492 0.000000 -0.159693 0.001502 0.008589
    11 6.899484 -0.001818 0.000000 0.000000 -0.026147 0.099378
    12 0.050786 0.001927 2.008302 -0.571514 -1.365031 3.600345
    13 4.746895 0.000000 0.000000 0.236492 1.040805 0.503413
    14 10.950472 0.000000 0.000000 0.000000 0.000000 -0.722739
    15 10.950467 0.000000 0.000000 -1.574103 0.019392 0.236566
    16 -0.050780 0.001941 -2.008302 -0.529234 1.350105 2.519998
    17 4.746896 0.000000 -0.000003 -0.620927 -0.848973 0.710767
    18 10.950466 0.000000 0.000000 0.000000 0.000000 -0.672043
    19 10.950471 0.000000 0.000000 1.767889 -0.169629 0.443611
    20 2.428221 0.000000 0.000000 -0.186695 -0.058735 -0.107837
    21 1.681022 0.975106 0.213387 0.000000 0.000001 -1.745239
  time 7
    0 -0.208480 -1.180659 36.962054 -0.001342 -0.026053 -1.519320
    1 -0.589862 0.035157 0.000000 -1.570795 -1.570796 0.000000
    2 -0.000004 0.000006 3.077313 0.003774 -3.056902 -0.084891
    3 16.897085 0.000000 0.000000 0.000000 0.000000 -0.145200
    4 16.589727 0.000000 0.000000 -0.023472 -0.086189 -0.044736
    5 0.000005 -0.000003 -3.077313 0.613095 3.009475 0.032527
    6 16.897085 0.000000 0.000000 0.000000 0.000000 -0.264662
    7 16.589727 0.000000 0.000000 -0.052514 0.093826 0.081983
    8 3.488968 -0.004234 0.000004 -0.000004 -0.000001 0.035662
    9 5.318531 -0.004538 0.000000 -0.212328 0.007523 0.034082
    10 5.701826 -0.005492 0.000000 -0.148393 0.001406 0.008589
    11 6.899484 -0.001818 0.000000 0.000000 -0.026147 0.099378
    12 0.050786 0.001927 2.008302 -0.571514 -1.365031 3.600345
    13 4.746895 0.000000 0.000000 0.269475 1.035266 0.526546
    14 10.950472 0.000000 0.000000 0.000000 0.000000 -0.722739
    15 10.950467 0.000000 0.000000 -1.574103 0.019392 0.236566
    16 -0.050780 0.001941 -2.008302 -0.529234 1.350105 2.519998
    17 4.746896 0.000000 -0.000003 -0.623411 -0.869096 0.711149
    18 10.950466 0.000000 0.000000 0.000000 0.000000 -0.672043
    19 10.950471 0.000000 0.000000 1.767889 -0.169629 0.443611
    20 2.428221 0.000000 0.000000 -0.139836 -0.058037 -0.105154
    21 1.681022 0.975106 0.213387 0.000000 0.000001 -1.745239
  time 8
    0 -0.208480 -1.180659 36.962054 -0.001533 -0.026053 -1.511372
    1 -0.589862 0.031251 0.000000 -1.570795 -1.570796 0.000000
    2 -0.000004 0.000006 3.077313 0.003870 -3.056711 -0.085856
    3 16.897085 0.000000 0.000000 0.000000 0.000000 -0.144303
    4 16.589727 0.000000 0.000000 -0.015501 -0.085487 -0.046606
    5 0.000005 -0.000003 -3.077313 0.613382 3.011200 0.034228
    6 16.897085 0.000000 0.000000 0.000000 0.000000 -0.263379
    7 16.589727 0.000000 0.000000 -0.044600 0.094425 0.082805
    8 3.488968 -0.004234 0.000004 -0.000004 -0.000001 0.035662
    9 5.318531 -0.004538 0.000000 -0.192526 0.006815 0.034207
    10 5.701826 -0.005492 0.000000 -0.136540 0.001294 0.008619
    11 6.899484 -0.001818 0.000000 0.000000 -0.026147 0.099378
    12 0.050786 0.001927 2.008302 -0.571514 -1.365031 3.600345
    13 4.746895 0.000000 0.000000 0.303220 1.028547 0.549958
    14 10.950472 0.000000 0.000000 0.000000 0.000000 -0.722739
    15 10.950467 0.000000 0.000000 -1.574103 0.019392 0.236566
    16 -0.050780 0.001941 -2.008302 -0.529234 1.350105 2.519998
    17 4.746896 0.000000 -0.000003 -0.625035 -0.890168 0.710767
    18 10.950466 0.000000 0.000000 0.000000 0.000000 -0.672043
    19 10.950471 0.000000 0.000000 1.767889 -0.169629 0.443611
    20 2.428221 0.000000 0.000000 -0.085383 -0.057189 -0.102408
    21 1.681022 0.975106 0.213387 0.000000 0.000001 -1.745239
  time 9
    0 -0.208480 -1.180659 36.962054 -0.001725 -0.026053 -1.503328
    1 -0.589862 0.027345 0.000000 -1.570795 -1.570796 0.000000
    2 -0.000004 0.000006 3.077313 0.003966 -3.056615 -0.086910
    3 16.897085 0.000000 0.000000 0.000000 0.000000 -0.143407
    4 16.589727 0.000000 0.000000 -0.007560 -0.084748 -0.048477
    5 0.000005 -0.000003 -3.077313 0.613669 3.012924 0.035929
    6 16.897085 0.000000 0.000000 0.000000 0.000000 -0.262024
    7 16.589727 0.000000 0.000000 -0.036686 0.095025 0.083628
    8 3.488968 -0.004234 0.000004 -0.000004 -0.000001 0.035662
    9 5.318531 -0.004538 0.000000 -0.172010 0.006107 0.034358
    10 5.701826 -0.005492 0.000000 -0.124187 0.001166 0.008648
    11 6.899484 -0.001818 0.000000 0.000000 -0.026147 0.099378
    12 0.050786 0.001927 2.008302 -0.571514 -1.365031 3.600345
    13 4.746895 0.000000 0.000000 0.337061 1.020647 0.573092
    14 10.950472 0.000000 0.000000 0.000000 0.000000 -0.722739
    15 10.950467 0.000000 0.000000 -1.574103 0.019392 0.236566
    16 -0.050780 0.001941 -2.008302 -0.529234 1.350105 2.519998
    17 4.746896 0.000000 -0.000003 -0.625609 -0.912095 0.709429
    18 10.950466 0.000000 0.000000 0.000000 0.000000 -0.672043
    19 10.950471 0.000000 0.000000 1.767889 -0.169629 0.443611
    20 2.428221 0.000000 0.000000 -0.027504 -0.056242 -0.099598
    21 1.681022 0.975106 0.213387 0.000000 0.000001 -1.745239
  time 10
    0 -0.208480 -1.180659 36.962054 -0.001917 -0.026053 -1.495380
    1 -0.589862 0.023438 0.000000 -1.570795 -1.570796 0.000000
    2 -0.000004 0.000006 3.077313 0.004062 -3.056519 -0.087875
    3 16.897085 0.000000 0.000000 0.000000 0.000000 -0.142510
    4 16.589727 0.000000 0.000000 0.000410 -0.084046 -0.050417
    5 0.000005 -0.000003 -3.077313 0.613956 3.014745 0.037631
    6 16.897085 0.000000 0.000000 0.000000 0.000000 -0.260740
    7 16.589727 0.000000 0.000000 -0.028804 0.095597 0.084392
    8 3.488968 -0.004234 0.000004 -0.000004 -0.000001 0.035662
    9 5.318531 -0.004538 0.000000 -0.150853 0.005354 0.034459
    10 5.701826 -0.005492 0.000000 -0.111503 0.001055 0.008648
    11 6.899484 -0.001818 0.000000 0.000000 -0.026147 0.099378
    12 0.050786 0.001927 2.008302 -0.571514 -1.365031 3.600345
    13 4.746895 0.000000 0.000000 0.370616 1.011566 0.595668
    14 10.950472 0.000000 0.000000 0.000000 0.000000 -0.722739
    15 10.950467 0.000000 0.000000 -1.574103 0.019392 0.236566
    16 -0.050780 0.001941 -2.008302 -0.529234 1.350105 2.519998
    17 4.746896 0.000000 -0.000003 -0.624844 -0.934685 0.706944
    18 10.950466 0.000000 0.000000 0.000000 0.000000 -0.672043
    19 10.950471 0.000000 0.000000 1.767889 -0.169629 0.443611
    20 2.428221 0.000000 0.000000 0.030653 -0.055145 -0.096788
    21 1.681022 0.975106 0.213387 0.000000 0.000001 -1.745239
  time 11
    0 -0.208480 -1.180659 36.962054 -0.002108 -0.026053 -1.487336
    1 -0.589862 0.019532 0.000000 -1.570795 -1.570796 0.000000
    2 -0.000004 0.000006 3.077313 0.004157 -3.056423 -0.088841
    3 16.897085 0.000000 0.000000 0.000000 0.000000 -0.141539
    4 16.589727 0.000000 0.000000 0.008322 -0.083307 -0.052358
    5 0.000005 -0.000003 -3.077313 0.614243 3.016469 0.039332
    6 16.897085 0.000000 0.000000 0.000000 0.000000 -0.259314
    7 16.589727 0.000000 0.000000 -0.020890 0.096170 0.085215
    8 3.488968 -0.004234 0.000004 -0.000004 -0.000001 0.035662
    9 5.318531 -0.004538 0.000000 -0.129302 0.004602 0.034584
    10 5.701826 -0.005492 0.000000 -0.098569 0.000927 0.008648
    11 6.899484 -0.001818 0.000000 0.000000 -0.026147 0.099378
    12 0.050786 0.001927 2.008302 -0.571514 -1.365031 3.600345
    13 4.746895 0.000000 0.000000 0.403218 1.001305 0.617315
    14 10.950472 0.000000 0.000000 0.000000 0.000000 -0.722739
    15 10.950467 0.000000 0.000000 -1.574103 0.019392 0.236566
    16 -0.050780 0.001941 -2.008302 -0.529234 1.350105 2.519998
    17 4.746896 0.000000 -0.000003 -0.622647 -0.957751 0.703121
    18 10.950466 0.000000 0.000000 0.000000 0.000000 -0.672043
    19 10.950471 0.000000 0.000000 1.767889 -0.169629 0.443611
    20 2.428221 0.000000 0.000000 0.087421 -0.053899 -0.093914
    21 1.681022 0.975106 0.213387 0.000000 0.000001 -1.745239
  time 12
    0 -0.208480 -1.180659 36.962054 -0.002300 -0.026053 -1.479388
    1 -0.593768 0.015625 0.000000 -1.570795 -1.570796 0.000000
    2 -0.000004 0.000006 3.077313 0.004253 -3.056327 -0.089718
    3 16.897085 0.000000 0.000000 0.000000 0.000000 -0.140493
    4 16.589727 0.000000 0.000000 0.016263 -0.082568 -0.054228
    5 0.000005 -0.000003 -3.077313 0.614530 3.018290 0.041033
    6 16.897085 0.000000 0.000000 0.000000 0.000000 -0.257959
    7 16.589727 0.000000 0.000000 -0.013009 0.096742 0.085978
    8 3.488968 -0.004234 0.000004 -0.000004 -0.000001 0.035662
    9 5.318531 -0.004538 0.000000 -0.107502 0.003828 0.034660
    10 5.701826 -0.005492 0.000000 -0.085469 0.000799 0.008677
    11 6.899484 -0.001818 0.000000 0.000000 -0.026147 0.099378
    12 0.050786 0.001927 2.008302 -0.571514 -1.365031 3.600345
    13 4.746895 0.000000 0.000000 0.434676 0.990046 0.637661
    14 10.950472 0.000000 0.000000 0.000000 0.000000 -0.722739
    15 10.950467 0.000000 0.000000 -1.574103 0.019392 0.236566
    16 -0.050780 0.001941 -2.008302 -0.529234 1.350105 2.519998
    17 4.746896 0.000000 -0.000003 -0.618634 -0.980911 0.697674
    18 10.950466 0.000000 0.000000 0.000000 0.000000 -0.672043
    19 10.950471 0.000000 0.000000 1.767889 -0.169629 0.443611
    20 2.428221 0.000000 0.000000 0.141318 -0.052552 -0.091104
    21 1.681022 0.975106 0.213387 0.000000 0.000001 -1.745239
  time 13
    0 -0.208480 -1.180659 36.962054 -0.002587 -0.025957 -1.471440
    1 -0.593768 0.011719 0.000000 -1.570795 -1.570796 0.000000
    2 -0.000004 0.000006 3.077313 0.004349 -3.056231 -0.090684
    3 16.897085 0.000000 0.000000 0.000000 0.000000 -0.139447
    4 16.589727 0.000000 0.000000 0.024204 -0.081830 -0.056169
    5 0.000005 -0.000003 -3.077313 0.614817 3.020110 0.042735
    6 16.897085 0.000000 0.000000 0.000000 0.000000 -0.256532
    7 16.589727 0.000000 0.000000 -0.005094 0.097287 0.086742
    8 3.488968 -0.004234 0.000004 -0.000004 -0.000001 0.035662
    9 5.318531 -0.004538 0.000000 -0.085559 0.003031 0.034735
    10 5.701826 -0.005492 0.000000 -0.072313 0.000687 0.008677
    11 6.899484 -0.001818 0.000000 0.000000 -0.026147 0.099378
    12 0.050786 0.001927 2.008302 -0.571514 -1.365031 3.600345
    13 4.746895 0.000000 0.000000 0.464608 0.977878 0.656614
    14 10.950472 0.000000 0.000000 0.000000 0.000000 -0.722739
    15 10.950467 0.000000 0.000000 -1.574103 0.019392 0.236566
    16 -0.050780 0.001941 -2.008302 -0.529234 1.350105 2.519998
    17 4.746896 0.000000 -0.000003 -0.612710 -1.004167 0.690602
    18 10.950466 0.000000 0.000000 0.000000 0.000000 -0.672043
    19 10.950471 0.000000 0.000000 1.767889 -0.169629 0.443611
    20 2.428221 0.000000 0.000000 0.191696 -0.051156 -0.088294
    21 1.681022 0.975106 0.213387 0.000000 0.000001 -1.745239
  time 14
    0 -0.208480 -1.180659 36.962054 -0.002779 -0.025957 -1.463396
    1 -0.593768 0.007813 0.000000 -1.570795 -1.570796 0.000000
    2 -0.000004 0.000006 3.077313 0.004445 -3.056136 -0.091562
    3 16.897085 0.000000 0.000000 0.000000 0.000000 -0.138326
    4 16.589727 0.000000 0.000000 0.032144 -0.081054 -0.058109
    5 0.000005 -0.000003 -3.077313 0.615104 3.021931 0.044436
    6 16.897085 0.000000 0.000000 0.000000 0.000000 -0.255035
    7 16.589727 0.000000 0.000000 0.002754 0.097832 0.087506
    8 3.488968 -0.004234 0.000004 -0.000004 -0.000001 0.035662
    9 5.318531 -0.004538 0.000000 -0.063759 0.002257 0.034810
    10 5.701826 -0.005492 0.000000 -0.059213 0.000559 0.008677
    11 6.899484 -0.001818 0.000000 0.000000 -0.026147 0.099378
    12 0.050786 0.001927 2.008302 -0.571514 -1.365031 3.600345
    13 4.746895 0.000000 0.000000 0.492730 0.964893 0.673894
    14 10.950472 0.000000 0.000000 0.000000 0.000000 -0.722739
    15 10.950467 0.000000 0.000000 -1.574103 0.019392 0.236566
    16 -0.050780 0.001941 -2.008302 -0.529234 1.350105 2.519998
    17 4.746896 0.000000 -0.000003 -0.604685 -1.027042 0.681523
    18 10.950466 0.000000 0.000000 0.000000 0.000000 -0.672043
    19 10.950471 0.000000 0.000000 1.767889 -0.169629 0.443611
    20 2.428221 0.000000 0.000000 0.238462 -0.049611 -0.085548
    21 1.681022 0.975106 0.213387 0.000000 0.000001 -1.745239
  time 15
    0 -0.208480 -1.180659 36.962054 -0.002971 -0.025957 -1.455448
    1 -0.593768 0.003906 0.000000 -1.570795 -1.570796 0.000000
    2 -0.000004 0.000006 3.077313 0.004445 -3.056136 -0.092439
    3 16.897085 0.000000 0.000000 0.000000 0.000000 -0.137280
    4 16.589727 0.000000 0.000000 0.040056 -0.080315 -0.060049
    5 0.000005 -0.000003 -3.077313 0.615296 3.023751 0.046137
    6 16.897085 0.000000 0.000000 0.000000 0.000000 -0.253537
    7 16.589727 0.000000 0.000000 0.010603 0.098350 0.088270
    8 3.488968 -0.004234 0.000004 -0.000004 -0.000001 0.035662
    9 5.318531 -0.004538 0.000000 -0.042173 0.001505 0.034835
    10 5.701826 -0.005492 0.000000 -0.046252 0.000431 0.008706
    11 6.899484 -0.001818 0.000000 0.000000 -0.026147 0.099378
    12 0.050786 0.001927 2.008302 -0.571514 -1.365031 3.600345
    13 4.746895 0.000000 0.000000 0.518849 0.951363 0.689317
    14 10.950472 0.000000 0.000000 0.000000 0.000000 -0.722739
    15 10.950467 0.000000 0.000000 -1.574103 0.019392 0.236566
    16 -0.050780 0.001941 -2.008302 -0.529234 1.350105 2.519998
    17 4.746896 0.000000 -0.000003 -0.594557 -1.049538 0.670342
    18 10.950466 0.000000 0.000000 0.000000 0.000000 -0.672043
    19 10.950471 0.000000 0.000000 1.767889 -0.169629 0.443611
    20 2.428221 0.000000 0.000000 0.281524 -0.048015 -0.082929
    21 1.681022 0.975106 0.213387 0.000000 0.000001 -1.745239
  time 16
    0 -0.208480 -1.180659 36.962054 -0.003162 -0.025957 -1.447500
    1 -0.593768 0.000000 0.000000 -1.570795 -1.570796 0.000000
    2 -0.000004 0.000006 3.077313 0.004541 -3.056040 -0.093317
    3 16.897085 0.000000 0.000000 0.000000 0.000000 -0.136084
    4 16.589727 0.000000 0.000000 0.047967 -0.079502 -0.061989
    5 0.000005 -0.000003 -3.077313 0.615583 3.025667 0.047839
    6 16.897085 0.000000 0.000000 0.000000 0.000000 -0.252040
    7 16.589727 0.000000 0.000000 0.018485 0.098867 0.089034
    8 3.488968 -0.004234 0.000004 -0.000004 -0.000001 0.035662
    9 5.318531 -0.004538 0.000000 -0.021051 0.000730 0.034860
    10 5.701826 -0.005492 0.000000 -0.033567 0.000320 0.008706
    11 6.899484 -0.001818 0.000000 0.000000 -0.026147 0.099378
    12 0.050786 0.001927 2.008302 -0.571514 -1.365031 3.600345
    13 4.746895 0.000000 0.000000 0.542967 0.937380 0.703067
    14 10.950472 0.000000 0.000000 0.000000 0.000000 -0.722739
    15 10.950467 0.000000 0.000000 -1.574103 0.019392 0.236566
    16 -0.050780 0.001941 -2.008302 -0.529234 1.350105 2.519998
    17 4.746896 0.000000 -0.000003 -0.582041 -1.071275 0.657154
    18 10.950466 0.000000 0.000000 0.000000 0.000000 -0.672043
    19 10.950471 0.000000 0.000000 1.767889 -0.169629 0.443611
    20 2.428221 0.000000 0.000000 0.321345 -0.046370 -0.080439
    21 1.681022 0.975106 0.213387 0.000000 0.000001 -1.745239
  time 17
    0 -0.208480 -1.180659 36.962054 -0.003354 -0.025861 -1.439648
    1 -0.593768 0.000000 0.000000 -1.570795 -1.570796 0.000000
    2 -0.000004 0.000006 3.077313 0.004637 -3.056040 -0.094107
    3 16.897085 0.000000 0.000000 0.000000 0.000000 -0.134964
    4 16.589727 0.000000 0.000000 0.055848 -0.078726 -0.063929
    5 0.000005 -0.000003 -3.077313 0.615870 3.027488 0.049540
    6 16.897085 0.000000 0.000000 0.000000 0.000000 -0.250471
    7 16.589727 0.000000 0.000000 0.026301 0.099385 0.089739
    8 3.488968 -0.004234 0.000004 -0.000004 -0.000001 0.035662
    9 5.318531 -0.004538 0.000000 -0.000535 0.000000 0.034886
    10 5.701826 -0.005492 0.000000 -0.021270 0.000192 0.008706
    11 6.899484 -0.001818 0.000000 0.000000 -0.026147 0.099378
    12 0.050786 0.001927 2.008302 -0.571514 -1.365031 3.600345
    13 4.746895 0.000000 0.000000 0.564797 0.923305 0.715052
    14 10.950472 0.000000 0.000000 0.000000 0.000000 -0.722739
    15 10.950467 0.000000 0.000000 -1.574103 0.019392 0.236566
    16 -0.050780 0.001941 -2.008302 -0.529234 1.350105 2.519998
    17 4.746896 0.000000 -0.000003 -0.567231 -1.092157 0.641767
    18 10.950466 0.000000 0.000000 0.000000 0.000000 -0.672043
    19 10.950471 0.000000 0.000000 1.767889 -0.169629 0.443611
    20 2.428221 0.000000 0.000000 0.358295 -0.044675 -0.078076
    21 1.681022 0.975106 0.213387 0.000000 0.000001 -1.745239
  time 18
    0 -0.208480 -1.180659 36.962054 -0.003546 -0.025861 -1.431700
    1 -0.593768 0.000000 0.000000 -1.570795 -1.570796 0.000000
    2 -0.000004 0.000006 3.077313 0.004733 -3.056040 -0.094897
    3 16.897085 0.000000 0.000000 0.000000 0.000000 -0.133768
    4 16.589727 0.000000 0.000000 0.063700 -0.077913 -0.065869
    5 0.000005 -0.000003 -3.077313 0.616157 3.029404 0.051290
    6 16.897085 0.000000 0.000000 0.000000 0.000000 -0.248902
    7 16.589727 0.000000 0.000000 0.034117 0.099876 0.090444
    8 3.488968 -0.004234 0.000004 -0.000004 -0.000001 0.035662
    9 5.318531 -0.004538 0.000000 0.019124 -0.000664 0.034860
    10 5.701826 -0.005492 0.000000 -0.009444 0.000080 0.008706
    11 6.899484 -0.001818 0.000000 0.000000 -0.026147 0.099378
    12 0.050786 0.001927 2.008302 -0.571514 -1.365031 3.600345
    13 4.746895 0.000000 0.000000 0.584529 0.909230 0.725271
    14 10.950472 0.000000 0.000000 0.000000 0.000000 -0.722739
    15 10.950467 0.000000 0.000000 -1.574103 0.019392 0.236566
    16 -0.050780 0.001941 -2.008302 -0.529234 1.350105 2.519998
    17 4.746896 0.000000 -0.000003 -0.550416 -1.111711 0.624470
    18 10.950466 0.000000 0.000000 0.000000 0.000000 -0.672043
    19 10.950471 0.000000 0.000000 1.767889 -0.169629 0.443611
    20 2.428221 0.000000 0.000000 0.393022 -0.042979 -0.075904
    21 1.681022 0.975106 0.213387 0.000000 0.000001 -1.745239
  time 19
    0 -0.208480 -1.180659 36.962054 -0.003737 -0.025861 -1.423847
    1 -0.593768 -0.003906 0.000000 -1.570795 -1.570796 0.000000
    2 -0.000004 0.000006 3.077313 0.004733 -3.056040 -0.095775
    3 16.897085 0.000000 0.000000 0.000000 0.000000 -0.132573
    4 16.589727 0.000000 0.000000 0.071522 -0.077101 -0.067810
    5 0.000005 -0.000003 -3.077313 0.616444 3.031225 0.052992
    6 16.897085 0.000000 0.000000 0.000000 0.000000 -0.247262
    7 16.589727 0.000000 0.000000 0.041900 0.100366 0.091149
    8 3.488968 -0.004234 0.000004 -0.000004 -0.000001 0.035662
    9 5.318531 -0.004538 0.000000 0.037784 -0.001328 0.034860
    10 5.701826 -0.005492 0.000000 0.001745 -0.000016 0.008706
    11 6.899484 -0.001818 0.000000 0.000000 -0.026147 0.099378
    12 0.050786 0.001927 2.008302 -0.571514 -1.365031 3.600345
    13 4.746895 0.000000 0.000000 0.601974 0.895519 0.734004
    14 10.950472 0.000000 0.000000 0.000000 0.000000 -0.722739
    15 10.950467 0.000000 0.000000 -1.574103 0.019392 0.236566
    16 -0.050780 0.001941 -2.008302 -0.529234 1.350105 2.519998
    17 4.746896 0.000000 -0.000003 -0.531689 -1.129935 0.605452
    18 10.950466 0.000000 0.000000 0.000000 0.000000 -0.672043
    19 10.950471 0.000000 0.000000 1.767889 -0.169629 0.443611
    20 2.428221 0.000000 0.000000 0.426175 -0.041284 -0.073861
    21 1.681022 0.975106 0.213387 0.000000 0.000001 -1.745239
  time 20
    0 -0.208480 -1.180659 36.962054 -0.004025 -0.025765 -1.415995
    1 -0.593768 -0.007813 0.000000 -1.570795 -1.570796 0.000000
    2 -0.000004 0.000006 3.077313 0.004828 -3.056040 -0.096477
    3 16.897085 0.000000 0.000000 0.000000 0.000000 -0.131302
    4 16.589727 0.000000 0.000000 0.079285 -0.076288 -0.069750
    5 0.000005 -0.000003 -3.077313 0.616731 3.033141 0.054693
    6 16.897085 0.000000 0.000000 0.000000 0.000000 -0.245621
    7 16.589727 0.000000 0.000000 0.049651 0.100857 0.091796
    8 3.488968 -0.004234 0.000004 -0.000004 -0.000001 0.035662
    9 5.318531 -0.004538 0.000000 0.055232 -0.001969 0.034810
    10 5.701826 -0.005492 0.000000 0.012214 -0.000112 0.008706
    11 6.899484 -0.001818 0.000000 0.000000 -0.026147 0.099378
    12 0.050786 0.001927 2.008302 -0.571514 -1.365031 3.600345
    13 4.746895 0.000000 0.000000 0.617322 0.882352 0.741158
    14 10.950472 0.000000 0.000000 0.000000 0.000000 -0.722739
    15 10.950467 0.000000 0.000000 -1.574103 0.019392 0.236566
    16 -0.050780 0.001941 -2.008302 -0.529234 1.350105 2.519998
    17 4.746896 0.000000 -0.000003 -0.511625 -1.146546 0.585192
    18 10.950466 0.000000 0.000000 0.000000 0.000000 -0.672043
    19 10.950471 0.000000 0.000000 1.767889 -0.169629 0.443611
    20 2.428221 0.000000 0.000000 0.458310 -0.039689 -0.072008
    21 1.681022 0.975106 0.213387 0.000000 0.000001 -1.745239
  time 21
    0 -0.208480 -1.180659 36.962054 -0.004216 -0.025765 -1.408334
    1 -0.593768 -0.011719 0.000000 -1.570795 -1.570796 0.000000
    2 -0.000004 0.000006 3.077313 0.004924 -3.056040 -0.097267
    3 16.897085 0.000000 0.000000 0.000000 0.000000 -0.130107
    4 16.589727 0.000000 0.000000 0.086958 -0.075438 -0.071621
    5 0.000005 -0.000003 -3.077313 0.616923 3.035057 0.056346
    6 16.897085 0.000000 0.000000 0.000000 0.000000 -0.243981
    7 16.589727 0.000000 0.000000 0.057304 0.101320 0.092442
    8 3.488968 -0.004234 0.000004 -0.000004 -0.000001 0.035662
    9 5.318531 -0.004538 0.000000 0.071216 -0.002522 0.034785
    10 5.701826 -0.005492 0.000000 0.021796 -0.000208 0.008706
    11 6.899484 -0.001818 0.000000 0.000000 -0.026147 0.099378
    12 0.050786 0.001927 2.008302 -0.571514 -1.365031 3.600345
    13 4.746895 0.000000 0.000000 0.630668 0.870003 0.747011
    14 10.950472 0.000000 0.000000 0.000000 0.000000 -0.722739
    15 10.950467 0.000000 0.000000 -1.574103 0.019392 0.236566
    16 -0.050780 0.001941 -2.008302 -0.529234 1.350105 2.519998
    17 4.746896 0.000000 -0.000003 -0.490797 -1.161354 0.564167
    18 10.950466 0.000000 0.000000 0.000000 0.000000 -0.672043
    19 10.950471 0.000000 0.000000 1.767889 -0.169629 0.443611
    20 2.428221 0.000000 0.000000 0.490074 -0.038143 -0.070348
    21 1.681022 0.975106 0.213387 0.000000 0.000001 -1.745239
  time 22
    0 -0.208480 -1.180659 36.962054 -0.004408 -0.025765 -1.400673
    1 -0.593768 -0.011719 0.000000 -1.570795 -1.570796 0.000000
    2 -0.000004 0.000006 3.077313 0.004924 -3.056136 -0.097969
    3 16.897085 0.000000 0.000000 0.000000 0.000000 -0.128911
    4 16.589727 0.000000 0.000000 0.094512 -0.074588 -0.073492
    5 0.000005 -0.000003 -3.077313 0.617210 3.036877 0.058047
    6 16.897085 0.000000 0.000000 0.000000 0.000000 -0.242341
    7 16.589727 0.000000 0.000000 0.064825 0.101783 0.093088
    8 3.488968 -0.004234 0.000004 -0.000004 -0.000001 0.035662
    9 5.318531 -0.004538 0.000000 0.085488 -0.003031 0.034735
    10 5.701826 -0.005492 0.000000 0.030382 -0.000288 0.008706
    11 6.899484 -0.001818 0.000000 0.000000 -0.026147 0.099378
    12 0.050786 0.001927 2.008302 -0.571514 -1.365031 3.600345
    13 4.746895 0.000000 0.000000 0.641821 0.858743 0.751564
    14 10.950472 0.000000 0.000000 0.000000 0.000000 -0.722739
    15 10.950467 0.000000 0.000000 -1.574103 0.019392 0.236566
    16 -0.050780 0.001941 -2.008302 -0.529234 1.350105 2.519998
    17 4.746896 0.000000 -0.000003 -0.470064 -1.174358 0.543334
    18 10.950466 0.000000 0.000000 0.000000 0.000000 -0.672043
    19 10.950471 0.000000 0.000000 1.767889 -0.169629 0.443611
    20 2.428221 0.000000 0.000000 0.522116 -0.036747 -0.068879
    21 1.681022 0.975106 0.213387 0.000000 0.000001 -1.745239
  time 23
    0 -0.208480 -1.180659 36.962054 -0.004600 -0.025670 -1.393300
    1 -0.593768 -0.015625 0.000000 -1.570795 -1.570796 0.000000
    2 -0.000004 0.000006 3.077313 0.005020 -3.056231 -0.098759
    3 16.897085 0.000000 0.000000 0.000000 0.000000 -0.127641
    4 16.589727 0.000000 0.000000 0.101858 -0.073776 -0.075362
    5 0.000005 -0.000003 -3.077313 0.617497 3.038698 0.059651
    6 16.897085 0.000000 0.000000 0.000000 0.000000 -0.240701
    7 16.589727 0.000000 0.000000 0.072151 0.102247 0.093676
    8 3.488968 -0.004234 0.000004 -0.000004 -0.000001 0.035662
    9 5.318531 -0.004538 0.000000 0.097833 -0.003474 0.034710
    10 5.701826 -0.005492 0.000000 0.037805 -0.000352 0.008706
    11 6.899484 -0.001818 0.000000 0.000000 -0.026147 0.099378
    12 0.050786 0.001927 2.008302 -0.571514 -1.365031 3.600345
    13 4.746895 0.000000 0.000000 0.651067 0.848937 0.755187
    14 10.950472 0.000000 0.000000 0.000000 0.000000 -0.722739
    15 10.950467 0.000000 0.000000 -1.574103 0.019392 0.236566
    16 -0.050780 0.001941 -2.008302 -0.529234 1.350105 2.519998
    17 4.746896 0.000000 -0.000003 -0.450382 -1.185178 0.523647
    18 10.950466 0.000000 0.000000 0.000000 0.000000 -0.672043
    19 10.950471 0.000000 0.000000 1.767889 -0.169629 0.443611
    20 2.428221 0.000000 0.000000 0.554899 -0.035550 -0.067666
    21 1.681022 0.975106 0.213387 0.000000 0.000001 -1.745239
  time 24
    0 -0.208480 -1.180659 36.962054 -0.004791 -0.025670 -1.386309
    1 -0.593768 -0.015625 0.000000 -1.570795 -1.570796 0.000000
    2 -0.000004 0.000006 3.077313 0.005020 -3.056327 -0.099373
    3 16.897085 0.000000 0.000000 0.000000 0.000000 -0.126520
    4 16.589727 0.000000 0.000000 0.108818 -0.072963 -0.077095
    5 0.000005 -0.000003 -3.077313 0.617688 3.040423 0.061207
    6 16.897085 0.000000 0.000000 0.000000 0.000000 -0.239061
    7 16.589727 0.000000 0.000000 0.079084 0.102655 0.094205
    8 3.488968 -0.004234 0.000004 -0.000004 -0.000001 0.035662
    9 5.318531 -0.004538 0.000000 0.107966 -0.003828 0.034660
    10 5.701826 -0.005492 0.000000 0.043870 -0.000415 0.008706
    11 6.899484 -0.001818 0.000000 0.000000 -0.026147 0.099378
    12 0.050786 0.001927 2.008302 -0.571514 -1.365031 3.600345
    13 4.746895 0.000000 0.000000 0.658312 0.840764 0.757788
    14 10.950472 0.000000 0.000000 0.000000 0.000000 -0.722739
    15 10.950467 0.000000 0.000000 -1.574103 0.019392 0.236566
    16 -0.050780 0.001941 -2.008302 -0.529234 1.350105 2.519998
    17 4.746896 0.000000 -0.000003 -0.432993 -1.193911 0.506254
    18 10.950466 0.000000 0.000000 0.000000 0.000000 -0.672043
    19 10.950471 0.000000 0.000000 1.767889 -0.169629 0.443611
    20 2.428221 0.000000 0.000000 0.588793 -0.034503 -0.066708
    21 1.681022 0.975106 0.213387 0.000000 0.000001 -1.745239
  time 25
    0 -0.208480 -1.180659 36.962054 -0.004887 -0.025670 -1.380277
    1 -0.593768 -0.015625 0.000000 -1.570795 -1.570796 0.000000
    2 -0.000004 0.000006 3.077313 0.005116 -3.056327 -0.099900
    3 16.897085 0.000000 0.000000 0.000000 0.000000 -0.125549
    4 16.589727 0.000000 0.000000 0.114766 -0.072261 -0.078550
    5 0.000005 -0.000003 -3.077313 0.617880 3.041860 0.062519
    6 16.897085 0.000000 0.000000 0.000000 0.000000 -0.237706
    7 16.589727 0.000000 0.000000 0.085036 0.103010 0.094675
    8 3.488968 -0.004234 0.000004 -0.000004 -0.000001 0.035662
    9 5.318531 -0.004538 0.000000 0.115601 -0.004115 0.034634
    10 5.701826 -0.005492 0.000000 0.048467 -0.000447 0.008706
    11 6.899484 -0.001818 0.000000 0.000000 -0.026147 0.099378
    12 0.050786 0.001927 2.008302 -0.571514 -1.365031 3.600345
    13 4.746895 0.000000 0.000000 0.663555 0.834590 0.759646
    14 10.950472 0.000000 0.000000 0.000000 0.000000 -0.722739
    15 10.950467 0.000000 0.000000 -1.574103 0.019392 0.236566
    16 -0.050780 0.001941 -2.008302 -0.529234 1.350105 2.519998
    17 4.746896 0.000000 -0.000003 -0.419139 -1.200271 0.492301
    18 10.950466 0.000000 0.000000 0.000000 0.000000 -0.672043
    19 10.950471 0.000000 0.000000 1.767889 -0.169629 0.443611
    20 2.428221 0.000000 0.000000 0.623983 -0.033705 -0.066005
    21 1.681022 0.975106 0.213387 0.000000 0.000001 -1.745239
  time 26
    0 -0.208480 -1.180659 36.962054 -0.004983 -0.025670 -1.377978
    1 -0.593768 -0.019532 0.000000 -1.570795 -1.570796 0.000000
    2 -0.000004 0.000006 3.077313 0.005116 -3.056423 -0.100163
    3 16.897085 0.000000 0.000000 0.000000 0.000000 -0.125101
    4 16.589727 0.000000 0.000000 0.117027 -0.072002 -0.079104
    5 0.000005 -0.000003 -3.077313 0.617975 3.042435 0.063005
    6 16.897085 0.000000 0.000000 0.000000 0.000000 -0.237206
    7 16.589727 0.000000 0.000000 0.087260 0.103146 0.094851
    8 3.488968 -0.004234 0.000004 -0.000004 -0.000001 0.035662
    9 5.318531 -0.004538 0.000000 0.120418 -0.004270 0.034609
    10 5.701826 -0.005492 0.000000 0.051348 -0.000479 0.008706
    11 6.899484 -0.001818 0.000000 0.000000 -0.026147 0.099378
    12 0.050786 0.001927 2.008302 -0.571514 -1.365031 3.600345
    13 4.746895 0.000000 0.000000 0.666796 0.830594 0.760668
    14 10.950472 0.000000 0.000000 0.000000 0.000000 -0.722739
    15 10.950467 0.000000 0.000000 -1.574103 0.019392 0.236566
    16 -0.050780 0.001941 -2.008302 -0.529234 1.350105 2.519998
    17 4.746896 0.000000 -0.000003 -0.409967 -1.204257 0.483222
    18 10.950466 0.000000 0.000000 0.000000 0.000000 -0.672043
    19 10.950471 0.000000 0.000000 1.767889 -0.169629 0.443611
    20 2.428221 0.000000 0.000000 0.660470 -0.033207 -0.065558
    21 1.681022 0.975106 0.213387 0.000000 0.000001 -1.745239
  time 27
    0 -0.208480 -1.180659 36.962054 -0.004504 -0.025765 -1.396268
    1 -0.593768 -0.019532 0.000000 -1.570795 -1.570796 0.000000
    2 -0.000004 0.000006 3.077313 0.005020 -3.056040 -0.098232
    3 16.897085 0.000000 0.000000 0.000000 0.000000 -0.127791
    4 16.589727 0.000000 0.000000 0.098944 -0.074256 -0.074739
    5 0.000005 -0.000003 -3.077313 0.617401 3.038123 0.059019
    6 16.897085 0.000000 0.000000 0.000000 0.000000 -0.241414
    7 16.589727 0.000000 0.000000 0.069208 0.101947 0.093558
    8 3.488968 -0.004234 0.000004 -0.000004 -0.000001 0.035662
    9 5.318531 -0.004538 0.000000 0.122095 -0.004337 0.034609
    10 5.701826 -0.005492 0.000000 0.052373 -0.000495 0.008706
    11 6.899484 -0.001818 0.000000 0.000000 -0.026147 0.099378
    12 0.050786 0.001927 2.008302 -0.571514 -1.365031 3.600345
    13 4.746895 0.000000 0.000000 0.667940 0.829232 0.761040
    14 10.950472 0.000000 0.000000 0.000000 0.000000 -0.722739
    15 10.950467 0.000000 0.000000 -1.574103 0.019392 0.236566
    16 -0.050780 0.001941 -2.008302 -0.529234 1.350105 2.519998
    17 4.746896 0.000000 -0.000003 -0.406718 -1.205681 0.479973
    18 10.950466 0.000000 0.000000 0.000000 0.000000 -0.672043
    19 10.950471 0.000000 0.000000 1.767889 -0.169629 0.443611
    20 2.428221 0.000000 0.000000 0.698068 -0.033057 -0.065367
    21 1.681022 0.975106 0.213387 0.000000 0.000001 -1.745239
  time 28
    0 -0.208480 -1.180659 36.962054 -0.004216 -0.025765 -1.405461
    1 -0.593768 -0.019532 0.000000 -1.570795 -1.570796 0.000000
    2 -0.000004 0.000006 3.077313 0.004924 -3.055848 -0.097267
    3 16.897085 0.000000 0.000000 0.000000 0.000000 -0.129136
    4 16.589727 0.000000 0.000000 0.089843 -0.075327 -0.072591
    5 0.000005 -0.000003 -3.077313 0.617114 3.035919 0.056978
    6 16.897085 0.000000 0.000000 0.000000 0.000000 -0.243482
    7 16.589727 0.000000 0.000000 0.060149 0.101347 0.092912
    8 3.488968 -0.004234 0.000004 -0.000004 -0.000001 0.035662
    9 5.318531 -0.004538 0.000000 0.120382 -0.004270 0.034609
    10 5.701826 -0.005492 0.000000 0.051320 -0.000479 0.008706
    11 6.899484 -0.001818 0.000000 0.000000 -0.026147 0.099378
    12 0.050786 0.001927 2.008302 -0.571514 -1.365031 3.600345
    13 4.746895 0.000000 0.000000 0.666796 0.830685 0.760668
    14 10.950472 0.000000 0.000000 0.000000 0.000000 -0.722739
    15 10.950467 0.000000 0.000000 -1.574103 0.019392 0.236566
    16 -0.050780 0.001941 -2.008302 -0.529234 1.350105 2.519998
    17 4.746896 0.000000 -0.000003 -0.410062 -1.204257 0.483317
    18 10.950466 0.000000 0.000000 0.000000 0.000000 -0.672043
    19 10.950471 0.000000 0.000000 1.767889 -0.169629 0.443611
    20 2.428221 0.000000 0.000000 0.735852 -0.033207 -0.065558
    21 1.681022 0.975106 0.213387 0.000000 0.000001 -1.745239
  time 29
    0 -0.208480 -1.180659 36.962054 -0.004025 -0.025765 -1.414271
    1 -0.593768 -0.015625 0.000000 -1.570795 -1.570796 0.000000
    2 -0.000004 0.000006 3.077313 0.004828 -3.055752 -0.096301
    3 16.897085 0.000000 0.000000 0.000000 0.000000 -0.130406
    4 16.589727 0.000000 0.000000 0.081069 -0.076362 -0.070512
    5 0.000005 -0.000003 -3.077313 0.616827 3.033811 0.055033
    6 16.897085 0.000000 0.000000 0.000000 0.000000 -0.245408
    7 16.589727 0.000000 0.000000 0.051417 0.100748 0.092207
    8 3.488968 -0.004234 0.000004 -0.000004 -0.000001 0.035662
    9 5.318531 -0.004538 0.000000 0.115280 -0.004093 0.034634
    10 5.701826 -0.005492 0.000000 0.048274 -0.000447 0.008706
    11 6.899484 -0.001818 0.000000 0.000000 -0.026147 0.099378
    12 0.050786 0.001927 2.008302 -0.571514 -1.365031 3.600345
    13 4.746895 0.000000 0.000000 0.663365 0.834862 0.759553
    14 10.950472 0.000000 0.000000 0.000000 0.000000 -0.722739
    15 10.950467 0.000000 0.000000 -1.574103 0.019392 0.236566
    16 -0.050780 0.001941 -2.008302 -0.529234 1.350105 2.519998
    17 4.746896 0.000000 -0.000003 -0.419712 -1.200081 0.492970
    18 10.950466 0.000000 0.000000 0.000000 0.000000 -0.672043
    19 10.950471 0.000000 0.000000 1.767889 -0.169629 0.443611
    20 2.428221 0.000000 0.000000 0.772339 -0.033755 -0.066005
    21 1.681022 0.975106 0.213387 0.000000 0.000001 -1.745239
  time 30
    0 -0.208480 -1.180659 36.962054 -0.003833 -0.025861 -1.423081
    1 -0.593768 -0.015625 0.000000 -1.570795 -1.570796 0.000000
    2 -0.000004 0.000006 3.077313 0.004733 -3.055656 -0.095424
    3 16.897085 0.000000 0.000000 0.000000 0.000000 -0.131601
    4 16.589727 0.000000 0.000000 0.072355 -0.077359 -0.068433
    5 0.000005 -0.000003 -3.077313 0.616444 3.031704 0.053089
    6 16.897085 0.000000 0.000000 0.000000 0.000000 -0.247333
    7 16.589727 0.000000 0.000000 0.042718 0.100148 0.091502
    8 3.488968 -0.004234 0.000004 -0.000004 -0.000001 0.035662
    9 5.318531 -0.004538 0.000000 0.106931 -0.003806 0.034685
    10 5.701826 -0.005492 0.000000 0.043261 -0.000399 0.008706
    11 6.899484 -0.001818 0.000000 0.000000 -0.026147 0.099378
    12 0.050786 0.001927 2.008302 -0.571514 -1.365031 3.600345
    13 4.746895 0.000000 0.000000 0.657550 0.841581 0.757510
    14 10.950472 0.000000 0.000000 0.000000 0.000000 -0.722739
    15 10.950467 0.000000 0.000000 -1.574103 0.019392 0.236566
    16 -0.050780 0.001941 -2.008302 -0.529234 1.350105 2.519998
    17 4.746896 0.000000 -0.000003 -0.434808 -1.193057 0.508069
    18 10.950466 0.000000 0.000000 0.000000 0.000000 -0.672043
    19 10.950471 0.000000 0.000000 1.767889 -0.169629 0.443611
    20 2.428221 0.000000 0.000000 0.804844 -0.034603 -0.066835
    21 1.681022 0.975106 0.213387 0.000000 0.000001 -1.745239
  time 31
    0 -0.208480 -1.180659 36.962054 -0.003546 -0.025861 -1.431795
    1 -0.593768 -0.015625 0.000000 -1.570795 -1.570796 0.000000
    2 -0.000004 0.000006 3.077313 0.004637 -3.055656 -0.094458
    3 16.897085 0.000000 0.000000 0.000000 0.000000 -0.132871
    4 16.589727 0.000000 0.000000 0.063641 -0.078320 -0.066285
    5 0.000005 -0.000003 -3.077313 0.616157 3.029692 0.051193
    6 16.897085 0.000000 0.000000 0.000000 0.000000 -0.249187
    7 16.589727 0.000000 0.000000 0.034051 0.099576 0.090797
    8 3.488968 -0.004234 0.000004 -0.000004 -0.000001 0.035662
    9 5.318531 -0.004538 0.000000 0.095549 -0.003385 0.034710
    10 5.701826 -0.005492 0.000000 0.036420 -0.000336 0.008706
    11 6.899484 -0.001818 0.000000 0.000000 -0.026147 0.099378
    12 0.050786 0.001927 2.008302 -0.571514 -1.365031 3.600345
    13 4.746895 0.000000 0.000000 0.649352 0.850753 0.754537
    14 10.950472 0.000000 0.000000 0.000000 0.000000 -0.722739
    15 10.950467 0.000000 0.000000 -1.574103 0.019392 0.236566
    16 -0.050780 0.001941 -2.008302 -0.529234 1.350105 2.519998
    17 4.746896 0.000000 -0.000003 -0.454203 -1.183185 0.527374
    18 10.950466 0.000000 0.000000 0.000000 0.000000 -0.672043
    19 10.950471 0.000000 0.000000 1.767889 -0.169629 0.443611
    20 2.428221 0.000000 0.000000 0.830311 -0.035750 -0.067921
    21 1.681022 0.975106 0.213387 0.000000 0.000001 -1.745239
  time 32
    0 -0.208480 -1.180659 36.962054 -0.003354 -0.025861 -1.440510
    1 -0.593768 -0.011719 0.000000 -1.570795 -1.570796 0.000000
    2 -0.000004 0.000006 3.077313 0.004637 -3.055656 -0.093493
    3 16.897085 0.000000 0.000000 0.000000 0.000000 -0.134067
    4 16.589727 0.000000 0.000000 0.054986 -0.079243 -0.064206
    5 0.000005 -0.000003 -3.077313 0.615870 3.027679 0.049249
    6 16.897085 0.000000 0.000000 0.000000 0.000000 -0.250970
    7 16.589727 0.000000 0.000000 0.025418 0.098976 0.090092
    8 3.488968 -0.004234 0.000004 -0.000004 -0.000001 0.035662
    9 5.318531 -0.004538 0.000000 0.081278 -0.002898 0.034760
    10 5.701826 -0.005492 0.000000 0.027862 -0.000256 0.008706
    11 6.899484 -0.001818 0.000000 0.000000 -0.026147 0.099378
    12 0.050786 0.001927 2.008302 -0.571514 -1.365031 3.600345
    13 4.746895 0.000000 0.000000 0.638580 0.862103 0.750263
    14 10.950472 0.000000 0.000000 0.000000 0.000000 -0.722739
    15 10.950467 0.000000 0.000000 -1.574103 0.019392 0.236566
    16 -0.050780 0.001941 -2.008302 -0.529234 1.350105 2.519998
    17 4.746896 0.000000 -0.000003 -0.476370 -1.170561 0.549641
    18 10.950466 0.000000 0.000000 0.000000 0.000000 -0.672043
    19 10.950471 0.000000 0.000000 1.767889 -0.169629 0.443611
    20 2.428221 0.000000 0.000000 0.845128 -0.037196 -0.069326
    21 1.681022 0.975106 0.213387 0.000000 0.000001 -1.745239
  time 33
    0 -0.208480 -1.180659 36.962054 -0.003162 -0.025957 -1.449224
    1 -0.593768 -0.007813 0.000000 -1.570795 -1.570796 0.000000
    2 -0.000004 0.000006 3.077313 0.004541 -3.055656 -0.092527
    3 16.897085 0.000000 0.000000 0.000000 0.000000 -0.135262
    4 16.589727 0.000000 0.000000 0.046361 -0.080130 -0.062128
    5 0.000005 -0.000003 -3.077313 0.615583 3.025572 0.047353
    6 16.897085 0.000000 0.000000 0.000000 0.000000 -0.252682
    7 16.589727 0.000000 0.000000 0.016817 0.098377 0.089269
    8 3.488968 -0.004234 0.000004 -0.000004 -0.000001 0.035662
    9 5.318531 -0.004538 0.000000 0.064401 -0.002279 0.034810
    10 5.701826 -0.005492 0.000000 0.017725 -0.000160 0.008706
    11 6.899484 -0.001818 0.000000 0.000000 -0.026147 0.099378
    12 0.050786 0.001927 2.008302 -0.571514 -1.365031 3.600345
    13 4.746895 0.000000 0.000000 0.625043 0.875270 0.744596
    14 10.950472 0.000000 0.000000 0.000000 0.000000 -0.722739
    15 10.950467 0.000000 0.000000 -1.574103 0.019392 0.236566
    16 -0.050780 0.001941 -2.008302 -0.529234 1.350105 2.519998
    17 4.746896 0.000000 -0.000003 -0.499969 -1.155089 0.573342
    18 10.950466 0.000000 0.000000 0.000000 0.000000 -0.672043
    19 10.950471 0.000000 0.000000 1.767889 -0.169629 0.443611
    20 2.428221 0.000000 0.000000 0.847906 -0.038791 -0.071051
    21 1.681022 0.975106 0.213387 0.000000 0.000001 -1.745239
  time 34
    0 -0.208480 -1.180659 36.962054 -0.002875 -0.025957 -1.457842
    1 -0.593768 -0.003906 0.000000 -1.570795 -1.570796 0.000000
    2 -0.000004 0.000006 3.077313 0.004445 -3.055656 -0.091562
    3 16.897085 0.000000 0.000000 0.000000 0.000000 -0.136383
    4 16.589727 0.000000 0.000000 0.037766 -0.081017 -0.060118
    5 0.000005 -0.000003 -3.077313 0.615296 3.023560 0.045506
    6 16.897085 0.000000 0.000000 0.000000 0.000000 -0.254393
    7 16.589727 0.000000 0.000000 0.008281 0.097805 0.088505
    8 3.488968 -0.004234 0.000004 -0.000004 -0.000001 0.035662
    9 5.318531 -0.004538 0.000000 0.045170 -0.001593 0.034835
    10 5.701826 -0.005492 0.000000 0.006176 -0.000048 0.008706
    11 6.899484 -0.001818 0.000000 0.000000 -0.026147 0.099378
    12 0.050786 0.001927 2.008302 -0.571514 -1.365031 3.600345
    13 4.746895 0.000000 0.000000 0.608647 0.889980 0.737070
    14 10.950472 0.000000 0.000000 0.000000 0.000000 -0.722739
    15 10.950467 0.000000 0.000000 -1.574103 0.019392 0.236566
    16 -0.050780 0.001941 -2.008302 -0.529234 1.350105 2.519998
    17 4.746896 0.000000 -0.000003 -0.523568 -1.137054 0.597138
    18 10.950466 0.000000 0.000000 0.000000 0.000000 -0.672043
    19 10.950471 0.000000 0.000000 1.767889 -0.169629 0.443611
    20 2.428221 0.000000 0.000000 0.838460 -0.040636 -0.073030
    21 1.681022 0.975106 0.213387 0.000000 0.000001 -1.745239
  time 35
    0 -0.208480 -1.180659 36.962054 -0.002683 -0.025957 -1.466461
    1 -0.593768 0.000000 0.000000 -1.570795 -1.570796 0.000000
    2 -0.000004 0.000006 3.077313 0.004349 -3.055752 -0.090684
    3 16.897085 0.000000 0.000000 0.000000 0.000000 -0.137579
    4 16.589727 0.000000 0.000000 0.029230 -0.081830 -0.058039
    5 0.000005 -0.000003 -3.077313 0.615009 3.021643 0.043610
    6 16.897085 0.000000 0.000000 0.000000 0.000000 -0.256033
    7 16.589727 0.000000 0.000000 -0.000189 0.097205 0.087741
    8 3.488968 -0.004234 0.000004 -0.000004 -0.000001 0.035662
    9 5.318531 -0.004538 0.000000 0.023834 -0.000841 0.034860
    10 5.701826 -0.005492 0.000000 -0.006592 0.000048 0.008706
    11 6.899484 -0.001818 0.000000 0.000000 -0.026147 0.099378
    12 0.050786 0.001927 2.008302 -0.571514 -1.365031 3.600345
    13 4.746895 0.000000 0.000000 0.589010 0.905780 0.727594
    14 10.950472 0.000000 0.000000 0.000000 0.000000 -0.722739
    15 10.950467 0.000000 0.000000 -1.574103 0.019392 0.236566
    16 -0.050780 0.001941 -2.008302 -0.529234 1.350105 2.519998
    17 4.746896 0.000000 -0.000003 -0.545925 -1.116362 0.619883
    18 10.950466 0.000000 0.000000 0.000000 0.000000 -0.672043
    19 10.950471 0.000000 0.000000 1.767889 -0.169629 0.443611
    20 2.428221 0.000000 0.000000 0.816697 -0.042531 -0.075329
    21 1.681022 0.975106 0.213387 0.000000 0.000001 -1.745239
  time 36
    0 -0.208480 -1.180659 36.962054 -0.002491 -0.025957 -1.474983
    1 -0.593768 0.000000 0.000000 -1.570795 -1.570796 0.000000
    2 -0.000004 0.000006 3.077313 0.004253 -3.055752 -0.089718
    3 16.897085 0.000000 0.000000 0.000000 0.000000 -0.138699
    4 16.589727 0.000000 0.000000 0.020753 -0.082642 -0.055961
    5 0.000005 -0.000003 -3.077313 0.614722 3.019631 0.041763
    6 16.897085 0.000000 0.000000 0.000000 0.000000 -0.257602
    7 16.589727 0.000000 0.000000 -0.008594 0.096633 0.086919
    8 3.488968 -0.004234 0.000004 -0.000004 -0.000001 0.035662
    9 5.318531 -0.004538 0.000000 0.000749 -0.000022 0.034886
    10 5.701826 -0.005492 0.000000 -0.020467 0.000192 0.008706
    11 6.899484 -0.001818 0.000000 0.000000 -0.026147 0.099378
    12 0.050786 0.001927 2.008302 -0.571514 -1.365031 3.600345
    13 4.746895 0.000000 0.000000 0.566131 0.922306 0.715795
    14 10.950472 0.000000 0.000000 0.000000 0.000000 -0.722739
    15 10.950467 0.000000 0.000000 -1.574103 0.019392 0.236566
    16 -0.050780 0.001941 -2.008302 -0.529234 1.350105 2.519998
    17 4.746896 0.000000 -0.000003 -0.566276 -1.093391 0.640716
    18 10.950466 0.000000 0.000000 0.000000 0.000000 -0.672043
    19 10.950471 0.000000 0.000000 1.767889 -0.169629 0.443611
    20 2.428221 0.000000 0.000000 0.783081 -0.044525 -0.077948
    21 1.681022 0.975106 0.213387 0.000000 0.000001 -1.745239
  time 37
    0 -0.208480 -1.180659 36.962054 -0.002204 -0.026053 -1.483410
    1 -0.593768 0.003906 0.000000 -1.570795 -1.570796 0.000000
    2 -0.000004 0.000006 3.077313 0.004157 -3.055848 -0.088753
    3 16.897085 0.000000 0.000000 0.000000 0.000000 -0.139820
    4 16.589727 0.000000 0.000000 0.012337 -0.083418 -0.053951
    5 0.000005 -0.000003 -3.077313 0.614339 3.017715 0.039964
    6 16.897085 0.000000 0.000000 0.000000 0.000000 -0.259100
    7 16.589727 0.000000 0.000000 -0.016933 0.096033 0.086096
    8 3.488968 -0.004234 0.000004 -0.000004 -0.000001 0.035662
    9 5.318531 -0.004538 0.000000 -0.023798 0.000841 0.034860
    10 5.701826 -0.005492 0.000000 -0.035229 0.000320 0.008706
    11 6.899484 -0.001818 0.000000 0.000000 -0.026147 0.099378
    12 0.050786 0.001927 2.008302 -0.571514 -1.365031 3.600345
    13 4.746895 0.000000 0.000000 0.539917 0.939196 0.701395
    14 10.950472 0.000000 0.000000 0.000000 0.000000 -0.722739
    15 10.950467 0.000000 0.000000 -1.574103 0.019392 0.236566
    16 -0.050780 0.001941 -2.008302 -0.529234 1.350105 2.519998
    17 4.746896 0.000000 -0.000003 -0.583761 -1.068522 0.658969
    18 10.950466 0.000000 0.000000 0.000000 0.000000 -0.672043
    19 10.950471 0.000000 0.000000 1.767889 -0.169629 0.443611
    20 2.428221 0.000000 0.000000 0.738260 -0.046569 -0.080758
    21 1.681022 0.975106 0.213387 0.000000 0.000001 -1.745239
  time 38
    0 -0.208480 -1.180659 36.962054 -0.002012 -0.026053 -1.491741
    1 -0.593768 0.007813 0.000000 -1.570795 -1.570796 0.000000
    2 -0.000004 0.000006 3.077313 0.004062 -3.056040 -0.087787
    3 16.897085 0.000000 0.000000 0.000000 0.000000 -0.140866
    4 16.589727 0.000000 0.000000 0.004009 -0.084194 -0.051942
    5 0.000005 -0.000003 -3.077313 0.614052 3.015799 0.038165
    6 16.897085 0.000000 0.000000 0.000000 0.000000 -0.260597
    7 16.589727 0.000000 0.000000 -0.025207 0.095461 0.085215
    8 3.488968 -0.004234 0.000004 -0.000004 -0.000001 0.035662
    9 5.318531 -0.004538 0.000000 -0.049487 0.001748 0.034835
    10 5.701826 -0.005492 0.000000 -0.050655 0.000479 0.008706
    11 6.899484 -0.001818 0.000000 0.000000 -0.026147 0.099378
    12 0.050786 0.001927 2.008302 -0.571514 -1.365031 3.600345
    13 4.746895 0.000000 0.000000 0.510175 0.955994 0.684300
    14 10.950472 0.000000 0.000000 0.000000 0.000000 -0.722739
    15 10.950467 0.000000 0.000000 -1.574103 0.019392 0.236566
    16 -0.050780 0.001941 -2.008302 -0.529234 1.350105 2.519998
    17 4.746896 0.000000 -0.000003 -0.598283 -1.041945 0.674356
    18 10.950466 0.000000 0.000000 0.000000 0.000000 -0.672043
    19 10.950471 0.000000 0.000000 1.767889 -0.169629 0.443611
    20 2.428221 0.000000 0.000000 0.683251 -0.048564 -0.083824
    21 1.681022 0.975106 0.213387 0.000000 0.000001 -1.745239
  time 39
    0 -0.208480 -1.180659 36.962054 -0.001821 -0.026053 -1.499977
    1 -0.593768 0.011719 0.000000 -1.570795 -1.570796 0.000000
    2 -0.000004 0.000006 3.077313 0.003966 -3.056136 -0.086822
    3 16.897085 0.000000 0.000000 0.000000 0.000000 -0.141912
    4 16.589727 0.000000 0.000000 -0.004170 -0.084896 -0.049932
    5 0.000005 -0.000003 -3.077313 0.613765 3.013978 0.036367
    6 16.897085 0.000000 0.000000 0.000000 0.000000 -0.261952
    7 16.589727 0.000000 0.000000 -0.033383 0.094861 0.084392
    8 3.488968 -0.004234 0.000004 -0.000004 -0.000001 0.035662
    9 5.318531 -0.004538 0.000000 -0.075961 0.002699 0.034785
    10 5.701826 -0.005492 0.000000 -0.066553 0.000623 0.008677
    11 6.899484 -0.001818 0.000000 0.000000 -0.026147 0.099378
    12 0.050786 0.001927 2.008302 -0.571514 -1.365031 3.600345
    13 4.746895 0.000000 0.000000 0.477192 0.972248 0.664418
    14 10.950472 0.000000 0.000000 0.000000 0.000000 -0.722739
    15 10.950467 0.000000 0.000000 -1.574103 0.019392 0.236566
    16 -0.050780 0.001941 -2.008302 -0.529234 1.350105 2.519998
    17 4.746896 0.000000 -0.000003 -0.609462 -1.014228 0.686779
    18 10.950466 0.000000 0.000000 0.000000 0.000000 -0.672043
    19 10.950471 0.000000 0.000000 1.767889 -0.169629 0.443611
    20 2.428221 0.000000 0.000000 0.619631 -0.050458 -0.087081
    21 1.681022 0.975106 0.213387 0.000000 0.000001 -1.745239
  time 40
    0 -0.208480 -1.180659 36.962054 -0.001629 -0.026053 -1.508116
    1 -0.593768 0.015625 0.000000 -1.570795 -1.570796 0.000000
    2 -0.000004 0.000006 3.077313 0.003870 -3.056231 -0.085856
    3 16.897085 0.000000 0.000000 0.000000 0.000000 -0.142958
    4 16.589727 0.000000 0.000000 -0.012289 -0.085598 -0.047923
    5 0.000005 -0.000003 -3.077313 0.613477 3.012158 0.034665
    6 16.897085 0.000000 0.000000 0.000000 0.000000 -0.263307
    7 16.589727 0.000000 0.000000 -0.041428 0.094289 0.083569
    8 3.488968 -0.004234 0.000004 -0.000004 -0.000001 0.035662
    9 5.318531 -0.004538 0.000000 -0.102828 0.003651 0.034685
    10 5.701826 -0.005492 0.000000 -0.082672 0.000783 0.008677
    11 6.899484 -0.001818 0.000000 0.000000 -0.026147 0.099378
    12 0.050786 0.001927 2.008302 -0.571514 -1.365031 3.600345
    13 4.746895 0.000000 0.000000 0.441158 0.987503 0.641842
    14 10.950472 0.000000 0.000000 0.000000 0.000000 -0.722739
    15 10.950467 0.000000 0.000000 -1.574103 0.019392 0.236566
    16 -0.050780 0.001941 -2.008302 -0.529234 1.350105 2.519998
    17 4.746896 0.000000 -0.000003 -0.617583 -0.985847 0.696336
    18 10.950466 0.000000 0.000000 0.000000 0.000000 -0.672043
    19 10.950471 0.000000 0.000000 1.767889 -0.169629 0.443611
    20 2.428221 0.000000 0.000000 0.548787 -0.052253 -0.090466
    21 1.681022 0.975106 0.213387 0.000000 0.000001 -1.745239
  time 41
    0 -0.208480 -1.180659 36.962054 -0.001342 -0.026053 -1.516160
    1 -0.589862 0.019532 0.000000 -1.570795 -1.570796 0.000000
    2 -0.000004 0.000006 3.077313 0.003870 -3.056423 -0.084891
    3 16.897085 0.000000 0.000000 0.000000 0.000000 -0.143930
    4 16.589727 0.000000 0.000000 -0.020260 -0.086263 -0.046052
    5 0.000005 -0.000003 -3.077313 0.613190 3.010433 0.032964
    6 16.897085 0.000000 0.000000 0.000000 0.000000 -0.264591
    7 16.589727 0.000000 0.000000 -0.049342 0.093717 0.082688
    8 3.488968 -0.004234 0.000004 -0.000004 -0.000001 0.035662
    9 5.318531 -0.004538 0.000000 -0.129766 0.004602 0.034584
    10 5.701826 -0.005492 0.000000 -0.098846 0.000927 0.008648
    11 6.899484 -0.001818 0.000000 0.000000 -0.026147 0.099378
    12 0.050786 0.001927 2.008302 -0.571514 -1.365031 3.600345
    13 4.746895 0.000000 0.000000 0.402551 1.001578 0.616850
    14 10.950472 0.000000 0.000000 0.000000 0.000000 -0.722739
    15 10.950467 0.000000 0.000000 -1.574103 0.019392 0.236566
    16 -0.050780 0.001941 -2.008302 -0.529234 1.350105 2.519998
    17 4.746896 0.000000 -0.000003 -0.622647 -0.957181 0.703217
    18 10.950466 0.000000 0.000000 0.000000 0.000000 -0.672043
    19 10.950471 0.000000 0.000000 1.767889 -0.169629 0.443611
    20 2.428221 0.000000 0.000000 0.472571 -0.053949 -0.093978
    21 1.681022 0.975106 0.213387 0.000000 0.000001 -1.745239
  time 42
    0 -0.208480 -1.180659 36.962054 -0.001150 -0.026053 -1.524012
    1 -0.589862 0.023438 0.000000 -1.570795 -1.570796 0.000000
    2 -0.000004 0.000006 3.077313 0.003774 -3.056615 -0.083925
    3 16.897085 0.000000 0.000000 0.000000 0.000000 -0.144826
    4 16.589727 0.000000 0.000000 -0.028052 -0.086928 -0.044112
    5 0.000005 -0.000003 -3.077313 0.612903 3.008709 0.031311
    6 16.897085 0.000000 0.000000 0.000000 0.000000 -0.265803
    7 16.589727 0.000000 0.000000 -0.057093 0.093145 0.081865
    8 3.488968 -0.004234 0.000004 -0.000004 -0.000001 0.035662
    9 5.318531 -0.004538 0.000000 -0.156383 0.005553 0.034433
    10 5.701826 -0.005492 0.000000 -0.114826 0.001087 0.008648
    11 6.899484 -0.001818 0.000000 0.000000 -0.026147 0.099378
    12 0.050786 0.001927 2.008302 -0.571514 -1.365031 3.600345
    13 4.746895 0.000000 0.000000 0.361942 1.014018 0.589908
    14 10.950472 0.000000 0.000000 0.000000 0.000000 -0.722739
    15 10.950467 0.000000 0.000000 -1.574103 0.019392 0.236566
    16 -0.050780 0.001941 -2.008302 -0.529138 1.350105 2.519998
    17 4.746896 0.000000 -0.000003 -0.625226 -0.928800 0.707709
    18 10.950466 0.000000 0.000000 0.000000 0.000000 -0.672043
    19 10.950471 0.000000 0.000000 1.767889 -0.169629 0.443611
    20 2.428221 0.000000 0.000000 0.393022 -0.055395 -0.097491
    21 1.681022 0.975106 0.213387 0.000000 0.000001 -1.745239
  time 43
    0 -0.208480 -1.180659 36.962054 -0.000958 -0.026053 -1.531577
    1 -0.589862 0.031251 0.000000 -1.570795 -1.570796 0.000000
    2 -0.000004 0.000006 3.077313 0.003678 -3.056807 -0.082960
    3 16.897085 0.000000 0.000000 0.000000 0.000000 -0.145723
    4 16.589727 0.000000 0.000000 -0.035636 -0.087556 -0.042310
    5 0.000005 -0.000003 -3.077313 0.612616 3.007080 0.029707
    6 16.897085 0.000000 0.000000 0.000000 0.000000 -0.267016
    7 16.589727 0.000000 0.000000 -0.064615 0.092572 0.081101
    8 3.488968 -0.004234 0.000004 -0.000004 -0.000001 0.035662
    9 5.318531 -0.004538 0.000000 -0.182286 0.006461 0.034283
    10 5.701826 -0.005492 0.000000 -0.130364 0.001230 0.008619
    11 6.899484 -0.001818 0.000000 0.000000 -0.026147 0.099378
    12 0.050786 0.001927 2.008302 -0.571514 -1.365031 3.600345
    13 4.746895 0.000000 0.000000 0.320284 1.024733 0.561664
    14 10.950472 0.000000 0.000000 0.000000 0.000000 -0.722739
    15 10.950467 0.000000 0.000000 -1.574103 0.019392 0.236566
    16 -0.050780 0.001941 -2.008302 -0.529234 1.350105 2.519998
    17 4.746896 0.000000 -0.000003 -0.625513 -0.901084 0.710289
    18 10.950466 0.000000 0.000000 0.000000 0.000000 -0.672043
    19 10.950471 0.000000 0.000000 1.767889 -0.169629 0.443611
    20 2.428221 0.000000 0.000000 0.312177 -0.056691 -0.101003
    21 1.681022 0.975106 0.213387 0.000000 0.000001 -1.745239
  time 44
    0 -0.208480 -1.180659 36.962054 -0.000767 -0.026148 -1.538855
    1 -0.589862 0.035157 0.000000 -1.570795 -1.570796 0.000000
    2 -0.000004 0.000006 3.077313 0.003582 -3.056902 -0.081994
    3 16.897085 0.000000 0.000000 0.000000 0.000000 -0.146470
    4 16.589727 0.000000 0.000000 -0.042953 -0.088147 -0.040578
    5 0.000005 -0.000003 -3.077313 0.612329 3.005547 0.028200
    6 16.897085 0.000000 0.000000 0.000000 0.000000 -0.268085
    7 16.589727 0.000000 0.000000 -0.071842 0.092027 0.080279
    8 3.488968 -0.004234 0.000004 -0.000004 -0.000001 0.035662
    9 5.318531 -0.004538 0.000000 -0.207119 0.007323 0.034107
    10 5.701826 -0.005492 0.000000 -0.145292 0.001374 0.008619
    11 6.899484 -0.001818 0.000000 0.000000 -0.026147 0.099378
    12 0.050786 0.001927 2.008302 -0.571514 -1.365031 3.600345
    13 4.746895 0.000000 0.000000 0.278435 1.033632 0.532771
    14 10.950472 0.000000 0.000000 0.000000 0.000000 -0.722739
    15 10.950467 0.000000 0.000000 -1.574103 0.019392 0.236566
    16 -0.050780 0.001941 -2.008302 -0.529234 1.350105 2.519998
    17 4.746896 0.000000 -0.000003 -0.623984 -0.874601 0.711149
    18 10.950466 0.000000 0.000000 0.000000 0.000000 -0.672043
    19 10.950471 0.000000 0.000000 1.767889 -0.169629 0.443611
    20 2.428221 0.000000 0.000000 0.232165 -0.057838 -0.104452
    21 1.681022 0.975106 0.213387 0.000000 0.000001 -1.745239
  time 45
    0 -0.208480 -1.180659 36.962054 -0.000575 -0.026148 -1.545846
    1 -0.589862 0.039064 0.000000 -1.570795 -1.570796 0.000000
    2 -0.000004 0.000006 3.077313 0.003486 -3.057094 -0.081117
    3 16.897085 0.000000 0.000000 0.000000 0.000000 -0.147217
    4 16.589727 0.000000 0.000000 -0.049912 -0.088701 -0.038915
    5 0.000005 -0.000003 -3.077313 0.612138 3.004014 0.026742
    6 16.897085 0.000000 0.000000 0.000000 0.000000 -0.269084
    7 16.589727 0.000000 0.000000 -0.078742 0.091482 0.079515
    8 3.488968 -0.004234 0.000004 -0.000004 -0.000001 0.035662
    9 5.318531 -0.004538 0.000000 -0.230525 0.008142 0.033931
    10 5.701826 -0.005492 0.000000 -0.159333 0.001502 0.008589
    11 6.899484 -0.001818 0.000000 0.000000 -0.026147 0.099378
    12 0.050786 0.001927 2.008302 -0.571514 -1.365031 3.600345
    13 4.746895 0.000000 0.000000 0.237540 1.040624 0.504156
    14 10.950472 0.000000 0.000000 0.000000 0.000000 -0.722739
    15 10.950467 0.000000 0.000000 -1.574103 0.019392 0.236566
    16 -0.050780 0.001941 -2.008302 -0.529234 1.350105 2.519998
    17 4.746896 0.000000 -0.000003 -0.621023 -0.849637 0.710862
    18 10.950466 0.000000 0.000000 0.000000 0.000000 -0.672043
    19 10.950471 0.000000 0.000000 1.767889 -0.169629 0.443611
    20 2.428221 0.000000 0.000000 0.155209 -0.058735 -0.107709
    21 1.681022 0.975106 0.213387 0.000000 0.000001 -1.745239
  time 46
    0 -0.208480 -1.180659 36.962054 -0.000479 -0.026148 -1.552453
    1 -0.585955 0.039064 0.000000 -1.570795 -1.570796 0.000000
    2 -0.000004 0.000006 3.077313 0.003390 -3.057286 -0.080239
    3 16.897085 0.000000 0.000000 0.000000 0.000000 -0.147890
    4 16.589727 0.000000 0.000000 -0.056426 -0.089218 -0.037321
    5 0.000005 -0.000003 -3.077313 0.611851 3.002672 0.025332
    6 16.897085 0.000000 0.000000 0.000000 0.000000 -0.270082
    7 16.589727 0.000000 0.000000 -0.085218 0.090964 0.078810
    8 3.488968 -0.004234 0.000004 -0.000004 -0.000001 0.035662
    9 5.318531 -0.004538 0.000000 -0.252146 0.008894 0.033755
    10 5.701826 -0.005492 0.000000 -0.172295 0.001630 0.008560
    11 6.899484 -0.001818 0.000000 0.000000 -0.026147 0.099378
    12 0.050786 0.001927 2.008302 -0.571514 -1.365031 3.600345
    13 4.746895 0.000000 0.000000 0.198647 1.045981 0.476749
    14 10.950472 0.000000 0.000000 0.000000 0.000000 -0.722739
    15 10.950467 0.000000 0.000000 -1.574103 0.019392 0.236566
    16 -0.050780 0.001941 -2.008302 -0.529234 1.350105 2.519998
    17 4.746896 0.000000 -0.000003 -0.617201 -0.826667 0.709620
    18 10.950466 0.000000 0.000000 0.000000 0.000000 -0.672043
    19 10.950471 0.000000 0.000000 1.767889 -0.169629 0.443611
    20 2.428221 0.000000 0.000000 0.083346 -0.059483 -0.110775
    21 1.681022 0.975106 0.213387 0.000000 0.000001 -1.745239
  time 47
    0 -0.208480 -1.180659 36.962054 -0.000287 -0.026148 -1.558390
    1 -0.585955 0.042970 0.000000 -1.570795 -1.570796 0.000000
    2 -0.000004 0.000006 3.077313 0.003295 -3.057478 -0.079449
    3 16.897085 0.000000 0.000000 0.000000 0.000000 -0.148488
    4 16.589727 0.000000 0.000000 -0.062404 -0.089662 -0.035935
    5 0.000005 -0.000003 -3.077313 0.611659 3.001427 0.024117
    6 16.897085 0.000000 0.000000 0.000000 0.000000 -0.270867
    7 16.589727 0.000000 0.000000 -0.091137 0.090501 0.078163
    8 3.488968 -0.004234 0.000004 -0.000004 -0.000001 0.035662
    9 5.318531 -0.004538 0.000000 -0.271627 0.009558 0.033580
    10 5.701826 -0.005492 0.000000 -0.183982 0.001742 0.008560
    11 6.899484 -0.001818 0.000000 0.000000 -0.026147 0.099378
    12 0.050786 0.001927 2.008302 -0.571514 -1.365031 3.600345
    13 4.746895 0.000000 0.000000 0.162899 1.049704 0.451293
    14 10.950472 0.000000 0.000000 0.000000 0.000000 -0.722739
    15 10.950467 0.000000 0.000000 -1.574103 0.019392 0.236566
    16 -0.050780 0.001941 -2.008302 -0.529234 1.350105 2.519998
    17 4.746896 0.000000 -0.000003 -0.612901 -0.806069 0.707804
    18 10.950466 0.000000 0.000000 0.000000 0.000000 -0.672043
    19 10.950471 0.000000 0.000000 1.767889 -0.169629 0.443611
    20 2.428221 0.000000 0.000000 0.018521 -0.060031 -0.113585
    21 1.681022 0.975106 0.213387 0.000000 0.000001 -1.745239
  time 48
    0 -0.208480 -1.180659 36.962054 -0.000096 -0.026148 -1.563561
    1 -0.585955 0.046876 0.000000 -1.570795 -1.570796 0.000000
    2 -0.000004 0.000006 3.077313 0.003199 -3.057574 -0.078747
    3 16.897085 0.000000 0.000000 0.000000 0.000000 -0.148936
    4 16.589727 0.000000 0.000000 -0.067608 -0.090068 -0.034688
    5 0.000005 -0.000003 -3.077313 0.611468 3.000373 0.022999
    6 16.897085 0.000000 0.000000 0.000000 0.000000 -0.271651
    7 16.589727 0.000000 0.000000 -0.096304 0.090092 0.077635
    8 3.488968 -0.004234 0.000004 -0.000004 -0.000001 0.035662
    9 5.318531 -0.004538 0.000000 -0.288611 0.010155 0.033404
    10 5.701826 -0.005492 0.000000 -0.194202 0.001822 0.008531
    11 6.899484 -0.001818 0.000000 0.000000 -0.026147 0.099378
    12 0.050786 0.001927 2.008302 -0.571514 -1.365031 3.600345
    13 4.746895 0.000000 0.000000 0.131156 1.052246 0.428716
    14 10.950472 0.000000 0.000000 0.000000 0.000000 -0.722739
    15 10.950467 0.000000 0.000000 -1.574103 0.019392 0.236566
    16 -0.050780 0.001941 -2.008302 -0.529234 1.350105 2.519998
    17 4.746896 0.000000 -0.000003 -0.608506 -0.788129 0.705797
    18 10.950466 0.000000 0.000000 0.000000 0.000000 -0.672043
    19 10.950471 0.000000 0.000000 1.767889 -0.169629 0.443611
    20 2.428221 0.000000 0.000000 -0.037228 -0.060480 -0.116075
    21 1.681022 0.975106 0.213387 0.000000 0.000001 -1.745239
  time 49
    0 -0.208480 -1.180659 36.962054 0.000000 -0.026148 -1.567870
    1 -0.585955 0.050783 0.000000 -1.570795 -1.570796 0.000000
    2 -0.000004 0.000006 3.077313 0.003199 -3.057669 -0.078132
    3 16.897085 0.000000 0.000000 0.000000 0.000000 -0.149310
    4 16.589727 0.000000 0.000000 -0.071891 -0.090401 -0.033718
    5 0.000005 -0.000003 -3.077313 0.611276 2.999511 0.022124
    6 16.897085 0.000000 0.000000 0.000000 0.000000 -0.272222
    7 16.589727 0.000000 0.000000 -0.100556 0.089738 0.077164
    8 3.488968 -0.004234 0.000004 -0.000004 -0.000001 0.035662
    9 5.318531 -0.004538 0.000000 -0.302811 0.010642 0.033253
    10 5.701826 -0.005492 0.000000 -0.202732 0.001902 0.008502
    11 6.899484 -0.001818 0.000000 0.000000 -0.026147 0.099378
    12 0.050786 0.001927 2.008302 -0.571514 -1.365031 3.600345
    13 4.746895 0.000000 0.000000 0.104559 1.053699 0.409671
    14 10.950472 0.000000 0.000000 0.000000 0.000000 -0.722739
    15 10.950467 0.000000 0.000000 -1.574103 0.019392 0.236566
    16 -0.050780 0.001941 -2.008302 -0.529234 1.350105 2.519998
    17 4.746896 0.000000 -0.000003 -0.604398 -0.773227 0.703790
    18 10.950466 0.000000 0.000000 0.000000 0.000000 -0.672043
    19 10.950471 0.000000 0.000000 1.767889 -0.169629 0.443611
    20 2.428221 0.000000 0.000000 -0.082420 -0.060779 -0.118119
    21 1.681022 0.975106 0.213387 0.000000 0.000001 -1.745239
end
