version 1
nodes
  0 "Bip02" -1
  1 "Bip02 Pelvis" 0
  2 "Bip02 L Leg" 1
  3 "Bip02 L Leg1" 2
  4 "Bip02 L Foot" 3
  5 "Bip02 R Leg" 1
  6 "Bip02 R Leg1" 5
  7 "Bip02 R Foot" 6
  8 "Bip02 Spine" 1
  9 "Bip02 Spine1" 8
  10 "Bip02 Spine2" 9
  11 "Bip02 Neck" 10
  12 "Bip02 L Arm" 11
  13 "Bip02 L Arm1" 12
  14 "Bip02 L Arm2" 13
  15 "Bip02 L Hand" 14
  16 "Bip02 R Arm" 11
  17 "Bip02 R Arm1" 16
  18 "Bip02 R Arm2" 17
  19 "Bip02 R Hand" 18
  20 "Bip02 Head" 11
  21 "Bone01" 20
end
skeleton
  time 0
    0 -0.214227 -0.251295 34.521664 0.000000 0.000000 -1.570839
    1 -1.734428 0.000000 0.000000 -1.570795 -1.570796 0.000000
    2 -0.000004 0.000006 3.319508 3.128191 -0.171573 1.425939
    3 16.904898 0.000000 0.000000 0.000000 0.000000 -1.961309
    4 16.597540 0.000000 0.000000 0.167825 0.037797 0.247744
    5 0.000005 -0.000003 -3.319508 0.023877 3.188070 -0.461648
    6 16.904898 0.000000 0.000000 0.000000 0.000000 -0.164609
    7 16.597540 0.000000 0.000000 -0.000680 -0.052271 -0.296488
    8 3.488968 -0.004234 0.000004 -0.000004 -0.000001 0.140335
    9 5.318531 -0.004538 0.000000 0.000000 0.000000 0.122107
    10 5.701826 -0.005492 0.000000 0.000000 0.000000 -0.026167
    11 6.899484 -0.001818 0.000000 0.000000 -0.000001 0.348889
    12 0.000003 0.001927 2.008302 -0.000013 -1.492893 2.791920
    13 4.746895 0.000000 0.000000 -1.184830 0.693208 -1.263095
    14 10.954378 0.000000 0.000000 0.000000 0.000000 -1.774014
    15 10.954373 0.000000 0.000000 -0.243118 0.058864 0.835746
    16 0.000003 0.001941 -2.008302 -0.000013 1.510325 2.791894
    17 4.746896 0.000000 -0.000003 1.517434 0.761719 -1.449236
    18 10.954372 0.000000 0.000000 0.000000 0.000000 -0.629986
    19 10.954377 0.000000 0.000000 0.054164 -0.089332 1.009225
    20 2.428221 0.000000 0.000000 1.254819 -0.439367 -0.856528
    21 1.681022 0.975106 0.213387 0.000000 0.000001 -1.745239
  time 1
    0 -0.214227 -0.251295 35.929581 0.000000 0.000000 -1.570839
    1 -1.734428 0.000000 0.000000 -1.570795 -1.570796 0.000000
    2 -0.000004 0.000006 3.319508 3.115153 -0.171668 1.514764
    3 16.904898 0.000000 0.000000 0.000000 0.000000 -1.882854
    4 16.597540 0.000000 0.000000 0.169847 0.035876 0.256891
    5 0.000005 -0.000003 -3.319508 0.020336 3.189699 -0.387906
    6 16.904898 0.000000 0.000000 0.000000 0.000000 -0.342822
    7 16.597540 0.000000 0.000000 0.015476 -0.049927 -0.358303
    8 3.488968 -0.004234 0.000004 -0.000004 -0.000001 0.140335
    9 5.318531 -0.004538 0.000000 0.000000 0.000000 0.122107
    10 5.701826 -0.005492 0.000000 0.000000 0.000000 -0.026167
    11 6.899484 -0.001818 0.000000 0.000000 -0.000001 0.348889
    12 0.000003 0.001927 2.008302 -0.000013 -1.465786 2.791920
    13 4.746895 0.000000 0.000000 -1.230777 0.436687 -1.306111
    14 10.954378 0.000000 0.000000 0.000000 0.000000 -1.758758
    15 10.954373 0.000000 0.000000 -0.243118 0.058864 0.835746
    16 0.000003 0.001941 -2.008302 -0.000013 1.510325 2.791894
    17 4.746896 0.000000 -0.000003 1.523262 0.584789 -1.439297
    18 10.954372 0.000000 0.000000 0.000000 0.000000 -0.886881
    19 10.954377 0.000000 0.000000 0.054805 -0.088381 1.088905
    20 2.428221 0.000000 0.000000 1.254819 -0.439367 -0.856528
    21 1.681022 0.975106 0.213387 0.000000 0.000001 -1.745239
  time 2
    0 -0.214227 -0.251295 37.572152 0.000000 0.000000 -1.570839
    1 -1.734428 0.000000 0.000000 -1.570795 -1.570796 0.000000
    2 -0.000004 0.000006 3.319508 -0.041189 -2.971490 -1.526731
    3 16.904898 0.000000 0.000000 0.000000 0.000000 -1.784973
    4 16.597540 0.000000 0.000000 0.171751 0.033770 0.257584
    5 0.000005 -0.000003 -3.319508 0.017561 3.190753 -0.330691
    6 16.904898 0.000000 0.000000 0.000000 0.000000 -0.548348
    7 16.597540 0.000000 0.000000 0.029800 -0.042951 -0.401785
    8 3.488968 -0.004234 0.000004 -0.000004 -0.000001 0.140335
    9 5.318531 -0.004538 0.000000 0.000000 0.000000 0.122107
    10 5.701826 -0.005492 0.000000 0.000000 0.000000 -0.026167
    11 6.899484 -0.001818 0.000000 0.000000 -0.000001 0.348889
    12 0.000003 0.001927 2.008302 -0.000013 -1.417565 2.791920
    13 4.746895 0.000000 0.000000 -1.248127 0.135491 -1.343087
    14 10.954378 0.000000 0.000000 0.000000 0.000000 -1.745257
    15 10.954373 0.000000 0.000000 -0.243118 0.058864 0.835746
    16 0.000003 0.001941 -2.008302 -0.000013 1.510325 2.791894
    17 4.746896 0.000000 -0.000003 1.526129 0.412889 -1.431843
    18 10.954372 0.000000 0.000000 0.000000 0.000000 -1.104961
    19 10.954377 0.000000 0.000000 0.055720 -0.087113 1.134836
    20 2.428221 0.000000 0.000000 1.254819 -0.439367 -0.856528
    21 1.681022 0.975106 0.213387 0.000000 0.000001 -1.745239
  time 3
    0 -0.214227 -0.251295 39.355514 0.000000 0.000000 -1.570839
    1 -1.734428 0.000000 0.000000 -1.570795 -1.570796 0.000000
    2 -0.000004 0.000006 3.319508 -0.057104 -2.974845 -1.419824
    3 16.904898 0.000000 0.000000 0.000000 0.000000 -1.668860
    4 16.597540 0.000000 0.000000 0.173357 0.031553 0.246982
    5 0.000005 -0.000003 -3.319508 0.023877 3.188070 -0.462960
    6 16.904898 0.000000 0.000000 0.000000 0.000000 -0.766925
    7 16.597540 0.000000 0.000000 0.027184 -0.044640 -0.255767
    8 3.488968 -0.004234 0.000004 -0.000004 -0.000001 0.140335
    9 5.318531 -0.004538 0.000000 0.000000 0.000000 0.122107
    10 5.701826 -0.005492 0.000000 0.000000 0.000000 -0.026167
    11 6.899484 -0.001818 0.000000 0.000000 -0.000001 0.348889
    12 0.000003 0.001927 2.008302 -0.000013 -1.370797 2.791920
    13 4.746895 0.000000 0.000000 -1.254132 -0.175603 -1.391677
    14 10.954378 0.000000 0.000000 0.000000 0.000000 -1.722831
    15 10.954373 0.000000 0.000000 -0.243118 0.058864 0.835746
    16 0.000003 0.001941 -2.008302 -0.000013 1.510325 2.791894
    17 4.746896 0.000000 -0.000003 1.527180 0.241844 -1.425536
    18 10.954372 0.000000 0.000000 0.000000 0.000000 -1.291324
    19 10.954377 0.000000 0.000000 0.056636 -0.085448 1.150087
    20 2.428221 0.000000 0.000000 1.254819 -0.439367 -0.856528
    21 1.681022 0.975106 0.213387 0.000000 0.000001 -1.745239
  time 4
    0 -0.214227 -0.251295 41.373529 0.000000 0.000000 -1.570839
    1 -1.734428 0.000000 0.000000 -1.570795 -1.570796 0.000000
    2 -0.000004 0.000006 3.319508 -0.074073 -2.980693 -1.304052
    3 16.904898 0.000000 0.000000 0.000000 0.000000 -1.529959
    4 16.597540 0.000000 0.000000 0.174666 0.029300 0.222522
    5 0.000005 -0.000003 -3.319508 0.033160 3.181938 -0.676020
    6 16.904898 0.000000 0.000000 0.000000 0.000000 -1.013671
    7 16.597540 0.000000 0.000000 0.018027 -0.049028 -0.027486
    8 3.488968 -0.004234 0.000004 -0.000004 -0.000001 0.140335
    9 5.318531 -0.004538 0.000000 0.000000 0.000000 0.122107
    10 5.701826 -0.005492 0.000000 0.000000 0.000000 -0.026167
    11 6.899484 -0.001818 0.000000 0.000000 -0.000001 0.348889
    12 0.000003 0.001927 2.008302 -0.000013 -1.370797 2.791920
    13 4.746895 0.000000 0.000000 -1.271673 -0.372648 -1.428746
    14 10.954378 0.000000 0.000000 0.000000 0.000000 -1.633127
    15 10.954373 0.000000 0.000000 -0.243118 0.058864 0.835746
    16 0.000003 0.001941 -2.008302 -0.000013 1.510325 2.791894
    17 4.746896 0.000000 -0.000003 1.526702 0.064249 -1.419515
    18 10.954372 0.000000 0.000000 0.000000 0.000000 -1.452607
    19 10.954377 0.000000 0.000000 0.057552 -0.083308 1.133573
    20 2.428221 0.000000 0.000000 1.254819 -0.439367 -0.856528
    21 1.681022 0.975106 0.213387 0.000000 0.000001 -1.745239
  time 5
    0 -0.214227 -0.251295 43.485405 0.000000 0.000000 -1.570839
    1 -1.734428 0.000000 0.000000 -1.570795 -1.570796 0.000000
    2 -0.000004 0.000006 3.319508 -0.091905 -2.989416 -1.178186
    3 16.904898 0.000000 0.000000 0.000000 0.000000 -1.364084
    4 16.597540 0.000000 0.000000 0.175558 0.027046 0.181155
    5 0.000005 -0.000003 -3.319508 0.041773 3.172836 -0.915524
    6 16.904898 0.000000 0.000000 0.000000 0.000000 -1.289370
    7 16.597540 0.000000 0.000000 0.006875 -0.051780 0.228882
    8 3.488968 -0.004234 0.000004 -0.000004 -0.000001 0.140335
    9 5.318531 -0.004538 0.000000 0.000000 0.000000 0.122107
    10 5.701826 -0.005492 0.000000 0.000000 0.000000 -0.026167
    11 6.899484 -0.001818 0.000000 0.000000 -0.000001 0.348889
    12 0.000003 0.001927 2.008302 -0.000013 -1.370797 2.791920
    13 4.746895 0.000000 0.000000 -1.271577 -0.529648 -1.466280
    14 10.954378 0.000000 0.000000 0.000000 0.000000 -1.494986
    15 10.954373 0.000000 0.000000 -0.243118 0.058864 0.835746
    16 0.000003 0.001941 -2.008302 -0.000013 1.510325 2.791894
    17 4.746896 0.000000 -0.000003 1.524600 -0.120749 -1.413303
    18 10.954372 0.000000 0.000000 0.000000 0.000000 -1.585724
    19 10.954377 0.000000 0.000000 0.058376 -0.080613 1.081505
    20 2.428221 0.000000 0.000000 1.254819 -0.439367 -0.856528
    21 1.681022 0.975106 0.213387 0.000000 0.000001 -1.745239
  time 6
    0 -0.214227 -0.251295 45.738073 0.000000 0.000000 -1.570839
    1 -1.734428 0.000000 0.000000 -1.570795 -1.570796 0.000000
    2 -0.000004 0.000006 3.319508 -0.110312 -3.001974 -1.039242
    3 16.904898 0.000000 0.000000 0.000000 0.000000 -1.163315
    4 16.597540 0.000000 0.000000 0.176034 0.024866 0.118515
    5 0.000005 -0.000003 -3.319508 0.048472 3.160955 -1.176125
    6 16.904898 0.000000 0.000000 0.000000 0.000000 -1.589316
    7 16.597540 0.000000 0.000000 -0.005421 -0.051944 0.504699
    8 3.488968 -0.004234 0.000004 -0.000004 -0.000001 0.140335
    9 5.318531 -0.004538 0.000000 0.000000 0.000000 0.122107
    10 5.701826 -0.005492 0.000000 0.000000 0.000000 -0.026167
    11 6.899484 -0.001818 0.000000 0.000000 -0.000001 0.348889
    12 0.000003 0.001927 2.008302 -0.000013 -1.370797 2.791920
    13 4.746895 0.000000 0.000000 -1.260519 -0.702447 -1.515055
    14 10.954378 0.000000 0.000000 0.000000 0.000000 -1.327859
    15 10.954373 0.000000 0.000000 -0.243118 0.058864 0.835746
    16 0.000003 0.001941 -2.008302 -0.000013 1.510325 2.791894
    17 4.746896 0.000000 -0.000003 1.520778 -0.310873 -1.406422
    18 10.954372 0.000000 0.000000 0.000000 0.000000 -1.684963
    19 10.954377 0.000000 0.000000 0.059017 -0.077363 0.990455
    20 2.428221 0.000000 0.000000 1.254819 -0.439367 -0.856528
    21 1.681022 0.975106 0.213387 0.000000 0.000001 -1.745239
  time 7
    0 -0.214227 -0.251295 48.084602 0.000000 0.000000 -1.570839
    1 -1.734428 0.000000 0.000000 -1.570795 -1.570796 0.000000
    2 -0.000004 0.000006 3.319508 -0.129582 -3.019996 -0.878706
    3 16.904898 0.000000 0.000000 0.000000 0.000000 -0.909944
    4 16.597540 0.000000 0.000000 0.176063 0.022761 0.025388
    5 0.000005 -0.000003 -3.319508 0.051917 3.147350 -1.446837
    6 16.904898 0.000000 0.000000 0.000000 0.000000 -1.891544
    7 16.597540 0.000000 0.000000 -0.016770 -0.049518 0.759246
    8 3.488968 -0.004234 0.000004 -0.000004 -0.000001 0.140335
    9 5.318531 -0.004538 0.000000 0.000000 0.000000 0.122107
    10 5.701826 -0.005492 0.000000 0.000000 0.000000 -0.026167
    11 6.899484 -0.001818 0.000000 0.000000 -0.000001 0.348889
    12 0.000003 0.001927 2.008302 -0.000013 -1.370797 2.791920
    13 4.746895 0.000000 0.000000 -1.222770 -0.862353 -1.587429
    14 10.954378 0.000000 0.000000 0.000000 0.000000 -1.083004
    15 10.954373 0.000000 0.000000 -0.243118 0.058864 0.835746
    16 0.000003 0.001941 -2.008302 -0.000013 1.510325 2.791894
    17 4.746896 0.000000 -0.000003 1.514855 -0.499669 -1.398395
    18 10.954372 0.000000 0.000000 0.000000 0.000000 -1.743843
    19 10.954377 0.000000 0.000000 0.059109 -0.073559 0.860422
    20 2.428221 0.000000 0.000000 1.254819 -0.439367 -0.856528
    21 1.681022 0.975106 0.213387 0.000000 0.000001 -1.745239
  time 8
    0 -0.214227 -0.251295 50.384200 0.000000 0.000000 -1.570839
    1 -1.734428 0.000000 0.000000 -1.570795 -1.570796 0.000000
    2 -0.000004 0.000006 3.319508 -0.150002 -3.047604 -0.674284
    3 16.904898 0.000000 0.000000 0.000000 0.000000 -0.556600
    4 16.597540 0.000000 0.000000 0.175617 0.020766 -0.122827
    5 0.000005 -0.000003 -3.319508 -3.088727 0.004309 1.490453
    6 16.904898 0.000000 0.000000 0.000000 0.000000 -2.008712
    7 16.597540 0.000000 0.000000 -0.012911 -0.051372 0.603416
    8 3.488968 -0.004234 0.000004 -0.000004 -0.000001 0.140335
    9 5.318531 -0.004538 0.000000 0.000000 0.000000 0.122107
    10 5.701826 -0.005492 0.000000 0.000000 0.000000 -0.026167
    11 6.899484 -0.001818 0.000000 0.000000 -0.000001 0.348889
    12 0.000003 0.001927 2.008302 -0.000013 -1.370797 2.791920
    13 4.746895 0.000000 0.000000 -1.158710 -0.865894 -1.654692
    14 10.954378 0.000000 0.000000 0.000000 0.000000 -0.728689
    15 10.954373 0.000000 0.000000 -0.243118 0.058864 0.835746
    16 0.000003 0.001941 -2.008302 -0.000013 1.510325 2.791894
    17 4.746896 0.000000 -0.000003 1.506829 -0.671188 -1.389125
    18 10.954372 0.000000 0.000000 0.000000 0.000000 -1.756885
    19 10.954377 0.000000 0.000000 0.058651 -0.069754 0.701873
    20 2.428221 0.000000 0.000000 1.254819 -0.439367 -0.856528
    21 1.681022 0.975106 0.213387 0.000000 0.000001 -1.745239
  time 9
    0 -0.214227 -0.251295 51.510534 0.000000 0.000000 -1.570839
    1 -1.734428 0.000000 0.000000 -1.570795 -1.570796 0.000000
    2 -0.000004 0.000006 3.319508 -0.162561 -3.073103 -0.508832
    3 16.904898 0.000000 0.000000 0.000000 0.000000 -0.246444
    4 16.597540 0.000000 0.000000 0.175231 0.019842 -0.266191
    5 0.000005 -0.000003 -3.319508 -3.088344 0.008429 1.399308
    6 16.904898 0.000000 0.000000 0.000000 0.000000 -1.949950
    7 16.597540 0.000000 0.000000 0.000334 -0.053797 0.216131
    8 3.488968 -0.004234 0.000004 -0.000004 -0.000001 0.140335
    9 5.318531 -0.004538 0.000000 0.000000 0.000000 0.122107
    10 5.701826 -0.005492 0.000000 0.000000 0.000000 -0.026167
    11 6.899484 -0.001818 0.000000 0.000000 -0.000001 0.348889
    12 0.000003 0.001927 2.008302 -0.000013 -1.370797 2.791920
    13 4.746895 0.000000 0.000000 -1.112954 -0.859447 -1.701331
    14 10.954378 0.000000 0.000000 0.000000 0.000000 -0.469112
    15 10.954373 0.000000 0.000000 -0.243118 0.058864 0.835746
    16 0.000003 0.001941 -2.008302 -0.000013 1.510325 2.791894
    17 4.746896 0.000000 -0.000003 1.501670 -0.745890 -1.383868
    18 10.954372 0.000000 0.000000 0.000000 0.000000 -1.746853
    19 10.954377 0.000000 0.000000 0.058559 -0.067851 0.617049
    20 2.428221 0.000000 0.000000 1.254819 -0.439367 -0.856528
    21 1.681022 0.975106 0.213387 0.000000 0.000001 -1.745239
  time 10
    0 -0.214227 -0.251295 53.716272 0.000000 0.000000 -1.570839
    1 -1.734428 0.000000 0.000000 -1.570795 -1.570796 0.000000
    2 -0.000004 0.000006 3.319508 -0.172724 -3.105888 -0.330040
    3 16.904898 0.000000 0.000000 0.000000 0.000000 -0.399392
    4 16.597540 0.000000 0.000000 0.149415 0.093990 -0.362784
    5 0.000005 -0.000003 -3.319508 -3.092172 0.004980 1.531577
    6 16.904898 0.000000 0.000000 0.000000 0.000000 -1.832139
    7 16.597540 0.000000 0.000000 -0.003427 -0.049491 0.230821
    8 3.488968 -0.004234 0.000004 -0.000004 -0.000001 0.140335
    9 5.318531 -0.004538 0.000000 0.000000 0.000000 0.122107
    10 5.701826 -0.005492 0.000000 0.000000 0.000000 -0.026167
    11 6.899484 -0.001818 0.000000 0.000000 -0.000001 0.348889
    12 0.000003 0.001927 2.008302 -0.000013 -1.370797 2.791920
    13 4.746895 0.000000 0.000000 -1.193695 -0.591394 -1.561880
    14 10.954378 0.000000 0.000000 0.000000 0.000000 -0.902376
    15 10.954373 0.000000 0.000000 -0.258188 0.049125 0.981252
    16 0.000003 0.001941 -2.008302 -0.000013 1.510325 2.791894
    17 4.746896 0.000000 -0.000003 1.533581 -0.568390 -1.369438
    18 10.954372 0.000000 0.000000 0.000000 0.000000 -1.908753
    19 10.954377 0.000000 0.000000 0.058468 -0.070705 0.662619
    20 2.428221 0.000000 0.000000 1.254819 -0.439367 -0.856528
    21 1.681022 0.975106 0.213387 0.000000 0.000001 -1.745239
  time 11
    0 -0.214227 -0.251295 55.875078 0.000000 0.000000 -1.570839
    1 -1.734428 0.000000 0.000000 -1.570795 -1.570796 0.000000
    2 -0.000004 0.000006 3.319508 -0.171573 -3.096877 -0.396220
    3 16.904898 0.000000 0.000000 0.000000 0.000000 -0.675253
    4 16.597540 0.000000 0.000000 0.125592 0.125467 -0.362368
    5 0.000005 -0.000003 -3.319508 0.045696 3.139876 -1.480815
    6 16.904898 0.000000 0.000000 0.000000 0.000000 -1.699567
    7 16.597540 0.000000 0.000000 -0.006108 -0.045376 0.227530
    8 3.488968 -0.004234 0.000004 -0.000004 -0.000001 0.140335
    9 5.318531 -0.004538 0.000000 0.000000 0.000000 0.122107
    10 5.701826 -0.005492 0.000000 0.000000 0.000000 -0.026167
    11 6.899484 -0.001818 0.000000 0.000000 -0.000001 0.348889
    12 0.000003 0.001927 2.008302 -0.000013 -1.370797 2.791920
    13 4.746895 0.000000 0.000000 -1.214572 -0.380729 -1.488763
    14 10.954378 0.000000 0.000000 0.000000 0.000000 -1.175911
    15 10.954373 0.000000 0.000000 -0.271173 0.033698 1.034450
    16 0.000003 0.001941 -2.008302 -0.000013 1.510325 2.791894
    17 4.746896 0.000000 -0.000003 1.563964 -0.372002 -1.353383
    18 10.954372 0.000000 0.000000 0.000000 0.000000 -2.035619
    19 10.954377 0.000000 0.000000 0.058193 -0.073876 0.720101
    20 2.428221 0.000000 0.000000 1.254819 -0.439367 -0.856528
    21 1.681022 0.975106 0.213387 0.000000 0.000001 -1.745239
  time 12
    0 -0.214227 -0.251295 58.033885 0.000000 0.000000 -1.570839
    1 -1.734428 0.000000 0.000000 -1.570795 -1.570796 0.000000
    2 -0.000004 0.000006 3.319508 -0.154988 -3.053643 -0.666999
    3 16.904898 0.000000 0.000000 0.000000 0.000000 -0.965908
    4 16.597540 0.000000 0.000000 0.132135 0.119777 -0.285662
    5 0.000005 -0.000003 -3.319508 0.042251 3.143134 -1.356859
    6 16.904898 0.000000 0.000000 0.000000 0.000000 -1.556012
    7 16.597540 0.000000 0.000000 -0.007776 -0.041588 0.208081
    8 3.488968 -0.004234 0.000004 -0.000004 -0.000001 0.140335
    9 5.318531 -0.004538 0.000000 0.000000 0.000000 0.122107
    10 5.701826 -0.005492 0.000000 0.000000 0.000000 -0.026167
    11 6.899484 -0.001818 0.000000 0.000000 -0.000001 0.348889
    12 0.000003 0.001927 2.008302 -0.000013 -1.370797 2.791920
    13 4.746895 0.000000 0.000000 -1.214858 -0.193129 -1.435156
    14 10.954378 0.000000 0.000000 0.000000 0.000000 -1.375228
    15 10.954373 0.000000 0.000000 -0.281599 0.013617 1.039722
    16 0.000003 0.001941 -2.008302 -0.000013 1.510325 2.791894
    17 4.746896 0.000000 -0.000003 1.582786 -0.196590 -1.345164
    18 10.954372 0.000000 0.000000 0.000000 0.000000 -2.037857
    19 10.954377 0.000000 0.000000 0.057827 -0.076491 0.768108
    20 2.428221 0.000000 0.000000 1.254819 -0.439367 -0.856528
    21 1.681022 0.975106 0.213387 0.000000 0.000001 -1.745239
  time 13
    0 -0.214227 -0.251295 60.098831 0.000000 0.000000 -1.570839
    1 -1.734428 0.000000 0.000000 -1.570795 -1.570796 0.000000
    2 -0.000004 0.000006 3.319508 -0.126706 -3.015682 -0.944097
    3 16.904898 0.000000 0.000000 0.000000 0.000000 -1.244609
    4 16.597540 0.000000 0.000000 0.140106 0.110763 -0.206531
    5 0.000005 -0.000003 -3.319508 0.038902 3.146200 -1.236353
    6 16.904898 0.000000 0.000000 0.000000 0.000000 -1.401689
    7 16.597540 0.000000 0.000000 -0.008692 -0.038236 0.174294
    8 3.488968 -0.004234 0.000004 -0.000004 -0.000001 0.140335
    9 5.318531 -0.004538 0.000000 0.000000 0.000000 0.122107
    10 5.701826 -0.005492 0.000000 0.000000 0.000000 -0.026167
    11 6.899484 -0.001818 0.000000 0.000000 -0.000001 0.348889
    12 0.000003 0.001927 2.008302 -0.000013 -1.370797 2.791920
    13 4.746895 0.000000 0.000000 -1.202942 -0.019239 -1.389354
    14 10.954378 0.000000 0.000000 0.000000 0.000000 -1.523896
    15 10.954373 0.000000 0.000000 -0.288991 -0.010428 1.009624
    16 0.000003 0.001941 -2.008302 -0.000013 1.510325 2.791894
    17 4.746896 0.000000 -0.000003 1.591098 -0.027158 -1.345928
    18 10.954372 0.000000 0.000000 0.000000 0.000000 -1.924264
    19 10.954377 0.000000 0.000000 0.057369 -0.078790 0.810159
    20 2.428221 0.000000 0.000000 1.254819 -0.439367 -0.856528
    21 1.681022 0.975106 0.213387 0.000000 0.000001 -1.745239
  time 14
    0 -0.214227 -0.251295 62.069915 0.000000 0.000000 -1.570839
    1 -1.734428 0.000000 0.000000 -1.570795 -1.570796 0.000000
    2 -0.000004 0.000006 3.319508 -0.091234 -2.988362 -1.206976
    3 16.904898 0.000000 0.000000 0.000000 0.000000 -1.505451
    4 16.597540 0.000000 0.000000 0.146798 0.101342 -0.132389
    5 0.000005 -0.000003 -3.319508 0.035648 3.149170 -1.117452
    6 16.904898 0.000000 0.000000 0.000000 0.000000 -1.235813
    7 16.597540 0.000000 0.000000 -0.009052 -0.035293 0.127404
    8 3.488968 -0.004234 0.000004 -0.000004 -0.000001 0.140335
    9 5.318531 -0.004538 0.000000 0.000000 0.000000 0.122107
    10 5.701826 -0.005492 0.000000 0.000000 0.000000 -0.026167
    11 6.899484 -0.001818 0.000000 0.000000 -0.000001 0.348889
    12 0.000003 0.001927 2.008302 -0.000013 -1.370797 2.791920
    13 4.746895 0.000000 0.000000 -1.182161 0.142482 -1.346710
    14 10.954378 0.000000 0.000000 0.000000 0.000000 -1.631449
    15 10.954373 0.000000 0.000000 -0.292688 -0.037146 0.951250
    16 0.000003 0.001941 -2.008302 -0.000013 1.510325 2.791894
    17 4.746896 0.000000 -0.000003 1.594060 0.130693 -1.350420
    18 10.954372 0.000000 0.000000 0.000000 0.000000 -1.773785
    19 10.954377 0.000000 0.000000 0.056911 -0.080851 0.848059
    20 2.428221 0.000000 0.000000 1.254819 -0.439367 -0.856528
    21 1.681022 0.975106 0.213387 0.000000 0.000001 -1.745239
  time 15
    0 -0.214227 -0.251295 63.900208 0.000000 0.000000 -1.570839
    1 -1.734428 0.000000 0.000000 -1.570795 -1.570796 0.000000
    2 -0.000004 0.000006 3.319508 -0.053269 -2.972161 -1.449403
    3 16.904898 0.000000 0.000000 0.000000 0.000000 -1.744401
    4 16.597540 0.000000 0.000000 0.152032 0.092106 -0.064969
    5 0.000005 -0.000003 -3.319508 0.032394 3.151949 -0.998405
    6 16.904898 0.000000 0.000000 0.000000 0.000000 -1.056958
    7 16.597540 0.000000 0.000000 -0.009117 -0.032786 0.067645
    8 3.488968 -0.004234 0.000004 -0.000004 -0.000001 0.140335
    9 5.318531 -0.004538 0.000000 0.000000 0.000000 0.122107
    10 5.701826 -0.005492 0.000000 0.000000 0.000000 -0.026167
    11 6.899484 -0.001818 0.000000 0.000000 -0.000001 0.348889
    12 0.000003 0.001927 2.008302 -0.000013 -1.370797 2.791920
    13 4.746895 0.000000 0.000000 -1.154325 0.289857 -1.305089
    14 10.954378 0.000000 0.000000 0.000000 0.000000 -1.703227
    15 10.954373 0.000000 0.000000 -0.292498 -0.064811 0.871595
    16 0.000003 0.001941 -2.008302 -0.000013 1.510325 2.791894
    17 4.746896 0.000000 -0.000003 1.593678 0.283039 -1.357205
    18 10.954372 0.000000 0.000000 0.000000 0.000000 -1.605556
    19 10.954377 0.000000 0.000000 0.056453 -0.082833 0.884245
    20 2.428221 0.000000 0.000000 1.254819 -0.439367 -0.856528
    21 1.681022 0.975106 0.213387 0.000000 0.000001 -1.745239
  time 16
    0 -0.214227 -0.251295 65.589709 0.000000 0.000000 -1.570839
    1 -1.734428 0.000000 0.000000 -1.570795 -1.570796 0.000000
    2 -0.000004 0.000006 3.319508 3.124452 -0.175982 1.475706
    3 16.904898 0.000000 0.000000 0.000000 0.000000 -1.956676
    4 16.597540 0.000000 0.000000 0.156077 0.083276 -0.004477
    5 0.000005 -0.000003 -3.319508 0.029236 3.154536 -0.877024
    6 16.904898 0.000000 0.000000 0.000000 0.000000 -0.862486
    7 16.597540 0.000000 0.000000 -0.009019 -0.030742 -0.005510
    8 3.488968 -0.004234 0.000004 -0.000004 -0.000001 0.140335
    9 5.318531 -0.004538 0.000000 0.000000 0.000000 0.122107
    10 5.701826 -0.005492 0.000000 0.000000 0.000000 -0.026167
    11 6.899484 -0.001818 0.000000 0.000000 -0.000001 0.348889
    12 0.000003 0.001927 2.008302 -0.000013 -1.370797 2.791920
    13 4.746895 0.000000 0.000000 -1.121914 0.418617 -1.264489
    14 10.954378 0.000000 0.000000 0.000000 0.000000 -1.744265
    15 10.954373 0.000000 0.000000 -0.288707 -0.091184 0.779384
    16 0.000003 0.001941 -2.008302 -0.000013 1.510325 2.791894
    17 4.746896 0.000000 -0.000003 1.589665 0.443738 -1.367240
    18 10.954372 0.000000 0.000000 0.000000 0.000000 -1.409393
    19 10.954377 0.000000 0.000000 0.055812 -0.084814 0.922415
    20 2.428221 0.000000 0.000000 1.254819 -0.439367 -0.856528
    21 1.681022 0.975106 0.213387 0.000000 0.000001 -1.745239
  time 17
    0 -0.214227 -0.251295 67.044557 0.000000 0.000000 -1.570839
    1 -1.734428 0.000000 0.000000 -1.570795 -1.570796 0.000000
    2 -0.000004 0.000006 3.319508 -3.135408 -0.175503 1.336059
    3 16.904898 0.000000 0.000000 0.000000 0.000000 -2.088853
    4 16.597540 0.000000 0.000000 0.159944 0.072673 0.060518
    5 0.000005 -0.000003 -3.319508 0.026365 3.156931 -0.750151
    6 16.904898 0.000000 0.000000 0.000000 0.000000 -0.646619
    7 16.597540 0.000000 0.000000 -0.009084 -0.029216 -0.094414
    8 3.488968 -0.004234 0.000004 -0.000004 -0.000001 0.140335
    9 5.318531 -0.004538 0.000000 0.000000 0.000000 0.122107
    10 5.701826 -0.005492 0.000000 0.000000 0.000000 -0.026167
    11 6.899484 -0.001818 0.000000 0.000000 -0.000001 0.348889
    12 0.000003 0.001927 2.008302 -0.000013 -1.370797 2.791920
    13 4.746895 0.000000 0.000000 -1.088169 0.524767 -1.226490
    14 10.954378 0.000000 0.000000 0.000000 0.000000 -1.760665
    15 10.954373 0.000000 0.000000 -0.282452 -0.114281 0.685160
    16 0.000003 0.001941 -2.008302 -0.000013 1.510325 2.791894
    17 4.746896 0.000000 -0.000003 1.580971 0.601969 -1.381384
    18 10.954372 0.000000 0.000000 0.000000 0.000000 -1.194708
    19 10.954377 0.000000 0.000000 0.055079 -0.086875 0.960857
    20 2.428221 0.000000 0.000000 1.254819 -0.439367 -0.856528
    21 1.681022 0.975106 0.213387 0.000000 0.000001 -1.745239
  time 18
    0 -0.214227 -0.251295 68.264752 0.000000 0.000000 -1.570839
    1 -1.734428 0.000000 0.000000 -1.570795 -1.570796 0.000000
    2 -0.000004 0.000006 3.319508 3.138258 -0.173490 1.377751
    3 16.904898 0.000000 0.000000 0.000000 0.000000 -2.025940
    4 16.597540 0.000000 0.000000 0.165297 0.052834 0.167574
    5 0.000005 -0.000003 -3.319508 0.023877 3.159518 -0.607576
    6 16.904898 0.000000 0.000000 0.000000 0.000000 -0.389533
    7 16.597540 0.000000 0.000000 -0.009608 -0.028262 -0.208877
    8 3.488968 -0.004234 0.000004 -0.000004 -0.000001 0.140335
    9 5.318531 -0.004538 0.000000 0.000000 0.000000 0.122107
    10 5.701826 -0.005492 0.000000 0.000000 0.000000 -0.026167
    11 6.899484 -0.001818 0.000000 0.000000 -0.000001 0.348889
    12 0.000003 0.001927 2.008302 -0.000013 -1.370797 2.791920
    13 4.746895 0.000000 0.000000 -1.057283 0.605673 -1.193695
    14 10.954378 0.000000 0.000000 0.000000 0.000000 -1.760436
    15 10.954373 0.000000 0.000000 -0.275343 -0.132553 0.599755
    16 0.000003 0.001941 -2.008302 -0.000013 1.510325 2.791894
    17 4.746896 0.000000 -0.000003 1.552881 0.726124 -1.413016
    18 10.954372 0.000000 0.000000 0.000000 0.000000 -0.892437
    19 10.954377 0.000000 0.000000 0.054438 -0.088619 0.994967
    20 2.428221 0.000000 0.000000 1.254819 -0.439367 -0.856528
    21 1.681022 0.975106 0.213387 0.000000 0.000001 -1.745239
end
