version 1
nodes
  0 "Bip02" -1
  1 "Bip02 Pelvis" 0
  2 "Bip02 L Leg" 1
  3 "Bip02 L Leg1" 2
  4 "Bip02 L Foot" 3
  5 "Bip02 R Leg" 1
  6 "Bip02 R Leg1" 5
  7 "Bip02 R Foot" 6
  8 "Bip02 Spine" 1
  9 "Bip02 Spine1" 8
  10 "Bip02 Spine2" 9
  11 "Bip02 Neck" 10
  12 "Bip02 L Arm" 11
  13 "Bip02 L Arm1" 12
  14 "Bip02 L Arm2" 13
  15 "Bip02 L Hand" 14
  16 "Bip02 R Arm" 11
  17 "Bip02 R Arm1" 16
  18 "Bip02 R Arm2" 17
  19 "Bip02 R Hand" 18
  20 "Bip02 Head" 11
  21 "Bone01" 20
end
skeleton
  time 0
    0 -0.001589 0.024072 37.196707 0.000000 -0.026148 -1.570839
    1 0.000000 0.000000 0.000000 -1.570795 -1.570796 0.000000
    2 -0.000004 0.000006 3.319508 -0.171477 -3.093234 -0.055399
    3 16.904898 0.000000 0.000000 0.000000 0.000000 -0.159098
    4 16.597540 0.000000 0.000000 0.174666 -0.035169 0.079019
    5 0.000005 -0.000003 -3.319508 -0.007895 3.115061 -0.094347
    6 16.904898 0.000000 0.000000 0.000000 0.000000 -0.248046
    7 16.597540 0.000000 0.000000 0.003964 0.027495 0.100257
    8 3.488968 -0.004234 0.000004 -0.000004 -0.000001 0.000796
    9 5.318531 -0.004538 0.000000 0.000000 0.000000 -0.026167
    10 5.701826 -0.005492 0.000000 0.000000 0.000000 -0.026167
    11 6.899484 -0.001818 0.000000 0.000000 -0.026147 0.099378
    12 0.050786 0.001927 2.008302 -0.571514 -1.365031 3.600345
    13 4.746895 0.000000 0.000000 0.673374 1.128703 0.459654
    14 10.954378 0.000000 0.000000 0.000000 0.000000 -0.722739
    15 10.954373 0.000000 0.000000 -1.574103 0.019392 0.236566
    16 -0.050780 0.001941 -2.008302 -0.529234 1.350105 2.519998
    17 4.746896 0.000000 -0.000003 -0.653890 -1.177775 0.585670
    18 10.954372 0.000000 0.000000 0.000000 0.000000 -0.672043
    19 10.954377 0.000000 0.000000 1.767889 -0.169629 0.443611
    20 2.428221 0.000000 0.000000 0.004816 0.017451 0.116138
    21 1.681022 0.975106 0.213387 0.000000 0.000001 -1.745239
  time 1
    0 -0.001589 0.024072 37.196707 0.000000 -0.026148 -1.570839
    1 0.000000 0.000000 0.000000 -1.570795 -1.570796 0.000000
    2 -0.000004 0.000006 3.319508 -0.171477 -3.093138 -0.055399
    3 16.904898 0.000000 0.000000 0.000000 0.000000 -0.159023
    4 16.597540 0.000000 0.000000 0.174666 -0.035242 0.078950
    5 0.000005 -0.000003 -3.319508 -0.007895 3.115061 -0.094395
    6 16.904898 0.000000 0.000000 0.000000 0.000000 -0.248046
    7 16.597540 0.000000 0.000000 0.003964 0.027441 0.100257
    8 3.488968 -0.004234 0.000004 -0.000004 -0.000001 0.000796
    9 5.318531 -0.004538 0.000000 -0.008385 -0.000199 -0.026167
    10 5.701826 -0.005492 0.000000 -0.007090 -0.000176 -0.026167
    11 6.899484 -0.001818 0.000000 0.000000 -0.026147 0.099378
    12 0.050786 0.001927 2.008302 -0.592318 -1.371478 3.621630
    13 4.746895 0.000000 0.000000 0.541823 1.152766 0.331166
    14 10.954378 0.000000 0.000000 0.000000 0.000000 -0.764006
    15 10.954373 0.000000 0.000000 -1.623388 0.046971 0.159021
    16 -0.050780 0.001941 -2.008302 -0.529234 1.350105 2.519998
    17 4.746896 0.000000 -0.000003 -0.676533 -1.171605 0.593888
    18 10.954372 0.000000 0.000000 0.000000 0.000000 -0.678062
    19 10.954377 0.000000 0.000000 1.771735 -0.164952 0.420240
    20 2.428221 0.000000 0.000000 0.019447 0.014709 0.116458
    21 1.681022 0.975106 0.213387 0.000000 0.000001 -1.745239
  time 2
    0 -0.001589 0.024072 37.196707 0.000000 -0.026148 -1.570839
    1 0.000000 0.000000 0.000000 -1.570795 -1.570796 0.000000
    2 -0.000004 0.000006 3.319508 -0.171477 -3.093138 -0.055399
    3 16.904898 0.000000 0.000000 0.000000 0.000000 -0.158948
    4 16.597540 0.000000 0.000000 0.174666 -0.035279 0.078881
    5 0.000005 -0.000003 -3.319508 -0.007895 3.115156 -0.094395
    6 16.904898 0.000000 0.000000 0.000000 0.000000 -0.248117
    7 16.597540 0.000000 0.000000 0.003964 0.027386 0.100257
    8 3.488968 -0.004234 0.000004 -0.000004 -0.000001 0.000796
    9 5.318531 -0.004538 0.000000 -0.020337 -0.000509 -0.026167
    10 5.701826 -0.005492 0.000000 -0.017227 -0.000431 -0.026167
    11 6.899484 -0.001818 0.000000 0.000000 -0.026147 0.099378
    12 0.050786 0.001927 2.008302 -0.620985 -1.379651 3.650776
    13 4.746895 0.000000 0.000000 0.357938 1.170382 0.155016
    14 10.954378 0.000000 0.000000 0.000000 0.000000 -0.813434
    15 10.954373 0.000000 0.000000 -1.689165 0.075929 0.058566
    16 -0.050780 0.001941 -2.008302 -0.529234 1.350105 2.519998
    17 4.746896 0.000000 -0.000003 -0.706343 -1.162872 0.602967
    18 10.954372 0.000000 0.000000 0.000000 0.000000 -0.686165
    19 10.954377 0.000000 0.000000 1.776772 -0.158531 0.389107
    20 2.428221 0.000000 0.000000 0.040376 0.010820 0.117288
    21 1.681022 0.975106 0.213387 0.000000 0.000001 -1.745239
  time 3
    0 -0.001589 0.024072 37.196707 0.000000 -0.026148 -1.570839
    1 0.000000 -0.003906 0.000000 -1.570795 -1.570796 0.000000
    2 -0.000004 0.000006 3.319508 -0.171477 -3.093042 -0.055399
    3 16.904898 0.000000 0.000000 0.000000 0.000000 -0.158873
    4 16.597540 0.000000 0.000000 0.174666 -0.035353 0.078811
    5 0.000005 -0.000003 -3.319508 -0.007895 3.115252 -0.094444
    6 16.904898 0.000000 0.000000 0.000000 0.000000 -0.248117
    7 16.597540 0.000000 0.000000 0.003964 0.027304 0.100257
    8 3.488968 -0.004234 0.000004 -0.000004 -0.000001 0.000796
    9 5.318531 -0.004538 0.000000 -0.034894 -0.000863 -0.026167
    10 5.701826 -0.005492 0.000000 -0.029524 -0.000735 -0.026167
    11 6.899484 -0.001818 0.000000 0.000000 -0.026147 0.099378
    12 0.050786 0.001927 2.008302 -0.656745 -1.388732 3.687209
    13 4.746895 0.000000 0.000000 0.137542 1.171926 -0.053928
    14 10.954378 0.000000 0.000000 0.000000 0.000000 -0.868965
    15 10.954373 0.000000 0.000000 -1.767642 0.100578 -0.058471
    16 -0.050780 0.001941 -2.008302 -0.529234 1.350105 2.519998
    17 4.746896 0.000000 -0.000003 -0.740643 -1.151957 0.612237
    18 10.954372 0.000000 0.000000 0.000000 0.000000 -0.695888
    19 10.954377 0.000000 0.000000 1.782541 -0.150605 0.351658
    20 2.428221 0.000000 0.000000 0.065843 0.005983 0.118310
    21 1.681022 0.975106 0.213387 0.000000 0.000001 -1.745239
  time 4
    0 -0.001589 0.024072 37.196707 0.000000 -0.026148 -1.570839
    1 0.000000 -0.007813 0.000000 -1.570795 -1.570796 0.000000
    2 -0.000004 0.000006 3.319508 -0.171477 -3.092946 -0.055312
    3 16.904898 0.000000 0.000000 0.000000 0.000000 -0.158799
    4 16.597540 0.000000 0.000000 0.174666 -0.035464 0.078742
    5 0.000005 -0.000003 -3.319508 -0.007895 3.115348 -0.094444
    6 16.904898 0.000000 0.000000 0.000000 0.000000 -0.248189
    7 16.597540 0.000000 0.000000 0.003964 0.027195 0.100257
    8 3.488968 -0.004234 0.000004 -0.000004 -0.000001 0.000796
    9 5.318531 -0.004538 0.000000 -0.050843 -0.001283 -0.026142
    10 5.701826 -0.005492 0.000000 -0.043011 -0.001087 -0.026167
    11 6.899484 -0.001818 0.000000 0.000000 -0.026147 0.099378
    12 0.050786 0.001927 2.008302 -0.700751 -1.398494 3.731983
    13 4.746895 0.000000 0.000000 -0.094578 1.150859 -0.272814
    14 10.954378 0.000000 0.000000 0.000000 0.000000 -0.930828
    15 10.954373 0.000000 0.000000 -1.857492 0.116953 -0.190173
    16 -0.050780 0.001941 -2.008302 -0.529234 1.350105 2.519998
    17 4.746896 0.000000 -0.000003 -0.777332 -1.139237 0.621412
    18 10.954372 0.000000 0.000000 0.000000 0.000000 -0.707000
    19 10.954377 0.000000 0.000000 1.788769 -0.141331 0.309066
    20 2.428221 0.000000 0.000000 0.093718 0.000648 0.119140
    21 1.681022 0.975106 0.213387 0.000000 0.000001 -1.745239
  time 5
    0 -0.001589 0.024072 37.196707 0.000000 -0.026148 -1.570839
    1 0.000000 -0.011719 0.000000 -1.570795 -1.570796 0.000000
    2 -0.000004 0.000006 3.319508 -0.171477 -3.092850 -0.055312
    3 16.904898 0.000000 0.000000 0.000000 0.000000 -0.158724
    4 16.597540 0.000000 0.000000 0.174666 -0.035538 0.078673
    5 0.000005 -0.000003 -3.319508 -0.007895 3.115348 -0.094493
    6 16.904898 0.000000 0.000000 0.000000 0.000000 -0.248189
    7 16.597540 0.000000 0.000000 0.003964 0.027114 0.100316
    8 3.488968 -0.004234 0.000004 -0.000004 -0.000001 0.000796
    9 5.318531 -0.004538 0.000000 -0.067042 -0.001682 -0.026117
    10 5.701826 -0.005492 0.000000 -0.056721 -0.001438 -0.026138
    11 6.899484 -0.001818 0.000000 0.000000 -0.026147 0.099378
    12 0.050786 0.001927 2.008302 -0.755111 -1.408802 3.787016
    13 4.746895 0.000000 0.000000 -0.311542 1.104368 -0.476649
    14 10.954378 0.000000 0.000000 0.000000 0.000000 -1.000241
    15 10.954373 0.000000 0.000000 -1.957674 0.121435 -0.336254
    16 -0.050780 0.001941 -2.008302 -0.529234 1.350105 2.519998
    17 4.746896 0.000000 -0.000003 -0.814307 -1.124904 0.630491
    18 10.954372 0.000000 0.000000 0.000000 0.000000 -0.719116
    19 10.954377 0.000000 0.000000 1.794996 -0.130947 0.262774
    20 2.428221 0.000000 0.000000 0.121963 -0.004787 0.119523
    21 1.681022 0.975106 0.213387 0.000000 0.000001 -1.745239
  time 6
    0 -0.001589 0.024072 37.196707 0.000000 -0.026148 -1.570839
    1 0.000000 -0.011719 0.000000 -1.570795 -1.570796 0.000000
    2 -0.000004 0.000006 3.319508 -0.171381 -3.092755 -0.055224
    3 16.904898 0.000000 0.000000 0.000000 0.000000 -0.158649
    4 16.597540 0.000000 0.000000 0.174666 -0.035649 0.078673
    5 0.000005 -0.000003 -3.319508 -0.007895 3.115348 -0.094493
    6 16.904898 0.000000 0.000000 0.000000 0.000000 -0.248260
    7 16.597540 0.000000 0.000000 0.003964 0.027032 0.100316
    8 3.488968 -0.004234 0.000004 -0.000004 -0.000001 0.000796
    9 5.318531 -0.004538 0.000000 -0.082348 -0.002080 -0.026092
    10 5.701826 -0.005492 0.000000 -0.069655 -0.001758 -0.026108
    11 6.899484 -0.001818 0.000000 0.000000 -0.026147 0.099378
    12 0.050786 0.001927 2.008302 -0.822318 -1.419336 3.855183
    13 4.746895 0.000000 0.000000 -0.495236 1.033087 -0.649732
    14 10.954378 0.000000 0.000000 0.000000 0.000000 -1.078885
    15 10.954373 0.000000 0.000000 -2.066007 0.110231 -0.494700
    16 -0.050780 0.001941 -2.008302 -0.529234 1.350105 2.519998
    17 4.746896 0.000000 -0.000003 -0.849754 -1.109432 0.640047
    18 10.954372 0.000000 0.000000 0.000000 0.000000 -0.731926
    19 10.954377 0.000000 0.000000 1.801132 -0.119612 0.213865
    20 2.428221 0.000000 0.000000 0.148541 -0.009872 0.119204
    21 1.681022 0.975106 0.213387 0.000000 0.000001 -1.745239
  time 7
    0 -0.001589 0.024072 37.196707 0.000000 -0.026148 -1.570839
    1 0.000000 -0.015625 0.000000 -1.570795 -1.570796 0.000000
    2 -0.000004 0.000006 3.319508 -0.171381 -3.092659 -0.055224
    3 16.904898 0.000000 0.000000 0.000000 0.000000 -0.158575
    4 16.597540 0.000000 0.000000 0.174666 -0.035723 0.078604
    5 0.000005 -0.000003 -3.319508 -0.007895 3.115444 -0.094541
    6 16.904898 0.000000 0.000000 0.000000 0.000000 -0.248260
    7 16.597540 0.000000 0.000000 0.003964 0.026950 0.100316
    8 3.488968 -0.004234 0.000004 -0.000004 -0.000001 0.000796
    9 5.318531 -0.004538 0.000000 -0.095692 -0.002412 -0.026067
    10 5.701826 -0.005492 0.000000 -0.080954 -0.002045 -0.026108
    11 6.899484 -0.001818 0.000000 0.000000 -0.026147 0.099378
    12 0.050786 0.001927 2.008302 -0.903715 -1.429597 3.937349
    13 4.746895 0.000000 0.000000 -0.639847 0.941647 -0.787790
    14 10.954378 0.000000 0.000000 0.000000 0.000000 -1.167673
    15 10.954373 0.000000 0.000000 -2.176235 0.081014 -0.659472
    16 -0.050780 0.001941 -2.008302 -0.529234 1.350105 2.519998
    17 4.746896 0.000000 -0.000003 -0.882430 -1.093296 0.650464
    18 10.954372 0.000000 0.000000 0.000000 0.000000 -0.745199
    19 10.954377 0.000000 0.000000 1.806810 -0.107643 0.163602
    20 2.428221 0.000000 0.000000 0.171693 -0.014160 0.117926
    21 1.681022 0.975106 0.213387 0.000000 0.000001 -1.745239
  time 8
    0 -0.001589 0.024072 37.196707 0.000000 -0.026148 -1.570839
    1 0.000000 -0.019532 0.000000 -1.570795 -1.570796 0.000000
    2 -0.000004 0.000006 3.319508 -0.171381 -3.092659 -0.055224
    3 16.904898 0.000000 0.000000 0.000000 0.000000 -0.158500
    4 16.597540 0.000000 0.000000 0.174666 -0.035760 0.078534
    5 0.000005 -0.000003 -3.319508 -0.007895 3.115540 -0.094541
    6 16.904898 0.000000 0.000000 0.000000 0.000000 -0.248331
    7 16.597540 0.000000 0.000000 0.003964 0.026896 0.100316
    8 3.488968 -0.004234 0.000004 -0.000004 -0.000001 0.000796
    9 5.318531 -0.004538 0.000000 -0.106218 -0.002677 -0.026041
    10 5.701826 -0.005492 0.000000 -0.089900 -0.002269 -0.026079
    11 6.899484 -0.001818 0.000000 0.000000 -0.026147 0.099378
    12 0.050786 0.001927 2.008302 -0.994123 -1.438542 4.028623
    13 4.746895 0.000000 0.000000 -0.746708 0.839402 -0.893331
    14 10.954378 0.000000 0.000000 0.000000 0.000000 -1.265768
    15 10.954373 0.000000 0.000000 -2.277175 0.037232 -0.816096
    16 -0.050780 0.001941 -2.008302 -0.529234 1.350105 2.519998
    17 4.746896 0.000000 -0.000003 -0.911571 -1.076875 0.662697
    18 10.954372 0.000000 0.000000 0.000000 0.000000 -0.758549
    19 10.954377 0.000000 0.000000 1.811938 -0.095277 0.112978
    20 2.428221 0.000000 0.000000 0.189936 -0.017252 0.115244
    21 1.681022 0.975106 0.213387 0.000000 0.000001 -1.745239
  time 9
    0 -0.001589 0.024072 37.196707 0.000000 -0.026148 -1.570839
    1 0.000000 -0.019532 0.000000 -1.570795 -1.570796 0.000000
    2 -0.000004 0.000006 3.319508 -0.171381 -3.092563 -0.055224
    3 16.904898 0.000000 0.000000 0.000000 0.000000 -0.158500
    4 16.597540 0.000000 0.000000 0.174666 -0.035797 0.078534
    5 0.000005 -0.000003 -3.319508 -0.007895 3.115540 -0.094541
    6 16.904898 0.000000 0.000000 0.000000 0.000000 -0.248331
    7 16.597540 0.000000 0.000000 0.003964 0.026841 0.100316
    8 3.488968 -0.004234 0.000004 -0.000004 -0.000001 0.000796
    9 5.318531 -0.004538 0.000000 -0.113318 -0.002854 -0.026016
    10 5.701826 -0.005492 0.000000 -0.095910 -0.002429 -0.026079
    11 6.899484 -0.001818 0.000000 0.000000 -0.026147 0.099378
    12 0.050786 0.001927 2.008302 -1.073411 -1.444672 4.108583
    13 4.746895 0.000000 0.000000 -0.818680 0.745057 -0.969606
    14 10.954378 0.000000 0.000000 0.000000 0.000000 -1.368210
    15 10.954373 0.000000 0.000000 -2.350629 -0.005085 -0.937255
    16 -0.050780 0.001941 -2.008302 -0.529234 1.350105 2.519998
    17 4.746896 0.000000 -0.000003 -0.936603 -1.060834 0.677127
    18 10.954372 0.000000 0.000000 0.000000 0.000000 -0.771668
    19 10.954377 0.000000 0.000000 1.816426 -0.082833 0.063257
    20 2.428221 0.000000 0.000000 0.202253 -0.018698 0.110646
    21 1.681022 0.975106 0.213387 0.000000 0.000001 -1.745239
  time 10
    0 -0.001589 0.024072 37.196707 0.000000 -0.026148 -1.570839
    1 0.000000 -0.019532 0.000000 -1.570795 -1.570796 0.000000
    2 -0.000004 0.000006 3.319508 -0.171381 -3.092563 -0.055224
    3 16.904898 0.000000 0.000000 0.000000 0.000000 -0.158500
    4 16.597540 0.000000 0.000000 0.174666 -0.035834 0.078534
    5 0.000005 -0.000003 -3.319508 -0.007895 3.115636 -0.094541
    6 16.904898 0.000000 0.000000 0.000000 0.000000 -0.248331
    7 16.597540 0.000000 0.000000 0.003964 0.026814 0.100316
    8 3.488968 -0.004234 0.000004 -0.000004 -0.000001 0.000796
    9 5.318531 -0.004538 0.000000 -0.117778 -0.002965 -0.025991
    10 5.701826 -0.005492 0.000000 -0.099649 -0.002525 -0.026050
    11 6.899484 -0.001818 0.000000 0.000000 -0.026147 0.099378
    12 0.050786 0.001927 2.008302 -1.123361 -1.447850 4.158918
    13 4.746895 0.000000 0.000000 -0.886362 0.638907 -1.057495
    14 10.954378 0.000000 0.000000 0.000000 0.000000 -1.560738
    15 10.954373 0.000000 0.000000 -2.390152 -0.036887 -1.034163
    16 -0.050780 0.001941 -2.008302 -0.529234 1.350105 2.519998
    17 4.746896 0.000000 -0.000003 -0.957814 -1.045457 0.692800
    18 10.954372 0.000000 0.000000 0.000000 0.000000 -0.784324
    19 10.954377 0.000000 0.000000 1.820089 -0.070705 0.015521
    20 2.428221 0.000000 0.000000 0.209939 -0.018249 0.101705
    21 1.681022 0.975106 0.213387 0.000000 0.000001 -1.745239
  time 11
    0 -0.001589 0.024072 37.196707 0.000000 -0.026148 -1.570839
    1 0.000000 -0.019532 0.000000 -1.570795 -1.570796 0.000000
    2 -0.000004 0.000006 3.319508 -0.171381 -3.092563 -0.055224
    3 16.904898 0.000000 0.000000 0.000000 0.000000 -0.158500
    4 16.597540 0.000000 0.000000 0.174666 -0.035834 0.078534
    5 0.000005 -0.000003 -3.319508 -0.007895 3.115636 -0.094541
    6 16.904898 0.000000 0.000000 0.000000 0.000000 -0.248331
    7 16.597540 0.000000 0.000000 0.003964 0.026814 0.100316
    8 3.488968 -0.004234 0.000004 -0.000004 -0.000001 0.000796
    9 5.318531 -0.004538 0.000000 -0.120775 -0.003053 -0.025991
    10 5.701826 -0.005492 0.000000 -0.102197 -0.002589 -0.026050
    11 6.899484 -0.001818 0.000000 0.000000 -0.026147 0.099378
    12 0.050786 0.001927 2.008302 -1.078971 -1.445035 4.114240
    13 4.746895 0.000000 0.000000 -0.935265 0.563358 -1.141017
    14 10.954378 0.000000 0.000000 0.000000 0.000000 -1.834808
    15 10.954373 0.000000 0.000000 -2.354515 -0.006550 -1.029658
    16 -0.050780 0.001941 -2.008302 -0.529234 1.350105 2.519998
    17 4.746896 0.000000 -0.000003 -0.975871 -1.031029 0.707709
    18 10.954372 0.000000 0.000000 0.000000 0.000000 -0.796131
    19 10.954377 0.000000 0.000000 1.822928 -0.059291 -0.028876
    20 2.428221 0.000000 0.000000 0.215125 -0.015955 0.086824
    21 1.681022 0.975106 0.213387 0.000000 0.000001 -1.745239
  time 12
    0 -0.001589 0.024072 37.196707 0.000000 -0.026148 -1.570839
    1 0.000000 -0.019532 0.000000 -1.570795 -1.570796 0.000000
    2 -0.000004 0.000006 3.319508 -0.171381 -3.092563 -0.055224
    3 16.904898 0.000000 0.000000 0.000000 0.000000 -0.158500
    4 16.597540 0.000000 0.000000 0.174666 -0.035834 0.078604
    5 0.000005 -0.000003 -3.319508 -0.007895 3.115636 -0.094541
    6 16.904898 0.000000 0.000000 0.000000 0.000000 -0.248331
    7 16.597540 0.000000 0.000000 0.003964 0.026787 0.100316
    8 3.488968 -0.004234 0.000004 -0.000004 -0.000001 0.000796
    9 5.318531 -0.004538 0.000000 -0.122559 -0.003098 -0.025991
    10 5.701826 -0.005492 0.000000 -0.103693 -0.002621 -0.026050
    11 6.899484 -0.001818 0.000000 0.000000 -0.026147 0.099378
    12 0.050786 0.001927 2.008302 -1.015599 -1.440358 4.050386
    13 4.746895 0.000000 0.000000 -0.949945 0.554369 -1.173163
    14 10.954378 0.000000 0.000000 0.000000 0.000000 -1.938471
    15 10.954373 0.000000 0.000000 -2.301438 0.087133 -0.905144
    16 -0.050780 0.001941 -2.008302 -0.529234 1.350105 2.519998
    17 4.746896 0.000000 -0.000003 -0.990681 -1.018025 0.721661
    18 10.954372 0.000000 0.000000 0.000000 0.000000 -0.806780
    19 10.954377 0.000000 0.000000 1.825126 -0.048907 -0.068762
    20 2.428221 0.000000 0.000000 0.218366 -0.012365 0.068367
    21 1.681022 0.975106 0.213387 0.000000 0.000001 -1.745239
  time 13
    0 -0.001589 0.024072 37.196707 0.000000 -0.026148 -1.570839
    1 0.000000 -0.019532 0.000000 -1.570795 -1.570796 0.000000
    2 -0.000004 0.000006 3.319508 -0.171381 -3.092563 -0.055224
    3 16.904898 0.000000 0.000000 0.000000 0.000000 -0.158575
    4 16.597540 0.000000 0.000000 0.174666 -0.035870 0.078604
    5 0.000005 -0.000003 -3.319508 -0.007895 3.115636 -0.094541
    6 16.904898 0.000000 0.000000 0.000000 0.000000 -0.248260
    7 16.597540 0.000000 0.000000 0.003964 0.026787 0.100257
    8 3.488968 -0.004234 0.000004 -0.000004 -0.000001 0.000796
    9 5.318531 -0.004538 0.000000 -0.123272 -0.003120 -0.025991
    10 5.701826 -0.005492 0.000000 -0.104302 -0.002637 -0.026050
    11 6.899484 -0.001818 0.000000 0.000000 -0.026147 0.099378
    12 0.050786 0.001927 2.008302 -0.964690 -1.435909 3.998997
    13 4.746895 0.000000 0.000000 -0.934025 0.609124 -1.149193
    14 10.954378 0.000000 0.000000 0.000000 0.000000 -1.808416
    15 10.954373 0.000000 0.000000 -2.229785 0.236578 -0.654487
    16 -0.050780 0.001941 -2.008302 -0.529234 1.350105 2.519998
    17 4.746896 0.000000 -0.000003 -1.002433 -1.006919 0.733989
    18 10.954372 0.000000 0.000000 0.000000 0.000000 -0.815731
    19 10.954377 0.000000 0.000000 1.826591 -0.039950 -0.102691
    20 2.428221 0.000000 0.000000 0.219755 -0.008426 0.050038
    21 1.681022 0.975106 0.213387 0.000000 0.000001 -1.745239
  time 14
    0 -0.001589 0.024072 37.196707 0.000000 -0.026148 -1.570839
    1 0.000000 -0.019532 0.000000 -1.570795 -1.570796 0.000000
    2 -0.000004 0.000006 3.319508 -0.171381 -3.092563 -0.055224
    3 16.904898 0.000000 0.000000 0.000000 0.000000 -0.158575
    4 16.597540 0.000000 0.000000 0.174666 -0.035870 0.078604
    5 0.000005 -0.000003 -3.319508 -0.007895 3.115636 -0.094541
    6 16.904898 0.000000 0.000000 0.000000 0.000000 -0.248260
    7 16.597540 0.000000 0.000000 0.003964 0.026787 0.100257
    8 3.488968 -0.004234 0.000004 -0.000004 -0.000001 0.000796
    9 5.318531 -0.004538 0.000000 -0.123023 -0.003098 -0.025991
    10 5.701826 -0.005492 0.000000 -0.104108 -0.002637 -0.026050
    11 6.899484 -0.001818 0.000000 0.000000 -0.026147 0.099378
    12 0.050786 0.001927 2.008302 -0.907166 -1.430006 3.940896
    13 4.746895 0.000000 0.000000 -0.895132 0.702198 -1.091313
    14 10.954378 0.000000 0.000000 0.000000 0.000000 -1.573324
    15 10.954373 0.000000 0.000000 -2.081171 0.390504 -0.291778
    16 -0.050780 0.001941 -2.008302 -0.529234 1.350105 2.519998
    17 4.746896 0.000000 -0.000003 -1.010840 -0.998376 0.744406
    18 10.954372 0.000000 0.000000 0.000000 0.000000 -0.822831
    19 10.954377 0.000000 0.000000 1.827598 -0.032975 -0.129041
    20 2.428221 0.000000 0.000000 0.219570 -0.005136 0.035540
    21 1.681022 0.975106 0.213387 0.000000 0.000001 -1.745239
  time 15
    0 -0.001589 0.024072 37.196707 0.000000 -0.026148 -1.570839
    1 0.000000 -0.019532 0.000000 -1.570795 -1.570796 0.000000
    2 -0.000004 0.000006 3.319508 -0.171381 -3.092563 -0.055224
    3 16.904898 0.000000 0.000000 0.000000 0.000000 -0.158649
    4 16.597540 0.000000 0.000000 0.174666 -0.035834 0.078673
    5 0.000005 -0.000003 -3.319508 -0.007895 3.115636 -0.094541
    6 16.904898 0.000000 0.000000 0.000000 0.000000 -0.248260
    7 16.597540 0.000000 0.000000 0.003964 0.026787 0.100257
    8 3.488968 -0.004234 0.000004 -0.000004 -0.000001 0.000796
    9 5.318531 -0.004538 0.000000 -0.121917 -0.003075 -0.025991
    10 5.701826 -0.005492 0.000000 -0.103166 -0.002605 -0.026050
    11 6.899484 -0.001818 0.000000 0.000000 -0.026147 0.099378
    12 0.050786 0.001927 2.008302 -0.863065 -1.424784 3.896314
    13 4.746895 0.000000 0.000000 -0.848613 0.785101 -1.027579
    14 10.954378 0.000000 0.000000 0.000000 0.000000 -1.356692
    15 10.954373 0.000000 0.000000 -1.909431 0.470829 0.049556
    16 -0.050780 0.001941 -2.008302 -0.529234 1.350105 2.519998
    17 4.746896 0.000000 -0.000003 -1.015713 -0.992966 0.752434
    18 10.954372 0.000000 0.000000 0.000000 0.000000 -0.827384
    19 10.954377 0.000000 0.000000 1.828148 -0.028456 -0.146276
    20 2.428221 0.000000 0.000000 0.217903 -0.003091 0.027174
    21 1.681022 0.975106 0.213387 0.000000 0.000001 -1.745239
  time 16
    0 -0.001589 0.024072 37.196707 0.000000 -0.026148 -1.570839
    1 0.000000 -0.019532 0.000000 -1.570795 -1.570796 0.000000
    2 -0.000004 0.000006 3.319508 -0.171381 -3.092563 -0.055224
    3 16.904898 0.000000 0.000000 0.000000 0.000000 -0.158649
    4 16.597540 0.000000 0.000000 0.174666 -0.035834 0.078742
    5 0.000005 -0.000003 -3.319508 -0.007895 3.115636 -0.094541
    6 16.904898 0.000000 0.000000 0.000000 0.000000 -0.248260
    7 16.597540 0.000000 0.000000 0.003964 0.026814 0.100257
    8 3.488968 -0.004234 0.000004 -0.000004 -0.000001 0.000796
    9 5.318531 -0.004538 0.000000 -0.120026 -0.003031 -0.025991
    10 5.701826 -0.005492 0.000000 -0.101560 -0.002573 -0.026050
    11 6.899484 -0.001818 0.000000 0.000000 -0.026147 0.099378
    12 0.050786 0.001927 2.008302 -0.844849 -1.422423 3.877906
    13 4.746895 0.000000 0.000000 -0.823256 0.822149 -0.996642
    14 10.954378 0.000000 0.000000 0.000000 0.000000 -1.257911
    15 10.954373 0.000000 0.000000 -1.824983 0.487807 0.207043
    16 -0.050780 0.001941 -2.008302 -0.529234 1.350105 2.519998
    17 4.746896 0.000000 -0.000003 -1.016669 -0.991163 0.757403
    18 10.954372 0.000000 0.000000 0.000000 0.000000 -0.829005
    19 10.954377 0.000000 0.000000 1.828239 -0.026792 -0.152503
    20 2.428221 0.000000 0.000000 0.214847 -0.002244 0.024875
    21 1.681022 0.975106 0.213387 0.000000 0.000001 -1.745239
  time 17
    0 -0.001589 0.024072 37.196707 0.000000 -0.026148 -1.570839
    1 0.000000 -0.019532 0.000000 -1.570795 -1.570796 0.000000
    2 -0.000004 0.000006 3.319508 -0.171381 -3.092563 -0.055224
    3 16.904898 0.000000 0.000000 0.000000 0.000000 -0.158724
    4 16.597540 0.000000 0.000000 0.174666 -0.035834 0.078742
    5 0.000005 -0.000003 -3.319508 -0.007895 3.115636 -0.094541
    6 16.904898 0.000000 0.000000 0.000000 0.000000 -0.248189
    7 16.597540 0.000000 0.000000 0.003964 0.026814 0.100198
    8 3.488968 -0.004234 0.000004 -0.000004 -0.000001 0.000796
    9 5.318531 -0.004538 0.000000 -0.117350 -0.002965 -0.026016
    10 5.701826 -0.005492 0.000000 -0.099317 -0.002509 -0.026050
    11 6.899484 -0.001818 0.000000 0.000000 -0.026147 0.099378
    12 0.050786 0.001927 2.008302 -0.882815 -1.427191 3.916352
    13 4.746895 0.000000 0.000000 -0.864627 0.757134 -1.057402
    14 10.954378 0.000000 0.000000 0.000000 0.000000 -1.394298
    15 10.954373 0.000000 0.000000 -1.958432 0.473414 -0.021184
    16 -0.050780 0.001941 -2.008302 -0.529234 1.350105 2.519998
    17 4.746896 0.000000 -0.000003 -1.013420 -0.993725 0.758837
    18 10.954372 0.000000 0.000000 0.000000 0.000000 -0.827307
    19 10.954377 0.000000 0.000000 1.828148 -0.028456 -0.146096
    20 2.428221 0.000000 0.000000 0.210495 -0.002144 0.026727
    21 1.681022 0.975106 0.213387 0.000000 0.000001 -1.745239
  time 18
    0 -0.001589 0.024072 37.196707 0.000000 -0.026148 -1.570839
    1 0.000000 -0.019532 0.000000 -1.570795 -1.570796 0.000000
    2 -0.000004 0.000006 3.319508 -0.171381 -3.092563 -0.055224
    3 16.904898 0.000000 0.000000 0.000000 0.000000 -0.158724
    4 16.597540 0.000000 0.000000 0.174666 -0.035797 0.078811
    5 0.000005 -0.000003 -3.319508 -0.007895 3.115540 -0.094541
    6 16.904898 0.000000 0.000000 0.000000 0.000000 -0.248189
    7 16.597540 0.000000 0.000000 0.003964 0.026841 0.100198
    8 3.488968 -0.004234 0.000004 -0.000004 -0.000001 0.000796
    9 5.318531 -0.004538 0.000000 -0.113924 -0.002876 -0.026016
    10 5.701826 -0.005492 0.000000 -0.096409 -0.002429 -0.026050
    11 6.899484 -0.001818 0.000000 0.000000 -0.026147 0.099378
    12 0.050786 0.001927 2.008302 -0.969101 -1.436272 4.003407
    13 4.746895 0.000000 0.000000 -0.928878 0.619294 -1.156625
    14 10.954378 0.000000 0.000000 0.000000 0.000000 -1.689268
    15 10.954373 0.000000 0.000000 -2.204574 0.343102 -0.494508
    16 -0.050780 0.001941 -2.008302 -0.529234 1.350105 2.519998
    17 4.746896 0.000000 -0.000003 -1.005777 -1.000275 0.756639
    18 10.954372 0.000000 0.000000 0.000000 0.000000 -0.822368
    19 10.954377 0.000000 0.000000 1.827507 -0.033450 -0.127507
    20 2.428221 0.000000 0.000000 0.204846 -0.002493 0.031198
    21 1.681022 0.975106 0.213387 0.000000 0.000001 -1.745239
  time 19
    0 -0.001589 0.024072 37.196707 0.000000 -0.026148 -1.570839
    1 0.000000 -0.019532 0.000000 -1.570795 -1.570796 0.000000
    2 -0.000004 0.000006 3.319508 -0.171381 -3.092659 -0.055224
    3 16.904898 0.000000 0.000000 0.000000 0.000000 -0.158799
    4 16.597540 0.000000 0.000000 0.174666 -0.035797 0.078811
    5 0.000005 -0.000003 -3.319508 -0.007895 3.115540 -0.094541
    6 16.904898 0.000000 0.000000 0.000000 0.000000 -0.248189
    7 16.597540 0.000000 0.000000 0.003964 0.026868 0.100198
    8 3.488968 -0.004234 0.000004 -0.000004 -0.000001 0.000796
    9 5.318531 -0.004538 0.000000 -0.109714 -0.002766 -0.026016
    10 5.701826 -0.005492 0.000000 -0.092836 -0.002349 -0.026079
    11 6.899484 -0.001818 0.000000 0.000000 -0.026147 0.099378
    12 0.050786 0.001927 2.008302 -1.027775 -1.441312 4.062563
    13 4.746895 0.000000 0.000000 -0.957285 0.535118 -1.209303
    14 10.954378 0.000000 0.000000 0.000000 0.000000 -1.907578
    15 10.954373 0.000000 0.000000 -2.313191 0.160649 -0.824723
    16 -0.050780 0.001941 -2.008302 -0.529234 1.350105 2.519998
    17 4.746896 0.000000 -0.000003 -0.994025 -1.010431 0.751096
    18 10.954372 0.000000 0.000000 0.000000 0.000000 -0.814497
    19 10.954377 0.000000 0.000000 1.826408 -0.041218 -0.097909
    20 2.428221 0.000000 0.000000 0.197808 -0.002942 0.037456
    21 1.681022 0.975106 0.213387 0.000000 0.000001 -1.745239
  time 20
    0 -0.001589 0.024072 37.196707 0.000000 -0.026148 -1.570839
    1 0.000000 -0.019532 0.000000 -1.570795 -1.570796 0.000000
    2 -0.000004 0.000006 3.319508 -0.171381 -3.092659 -0.055224
    3 16.904898 0.000000 0.000000 0.000000 0.000000 -0.158799
    4 16.597540 0.000000 0.000000 0.174666 -0.035760 0.078811
    5 0.000005 -0.000003 -3.319508 -0.007895 3.115540 -0.094541
    6 16.904898 0.000000 0.000000 0.000000 0.000000 -0.248189
    7 16.597540 0.000000 0.000000 0.003964 0.026896 0.100198
    8 3.488968 -0.004234 0.000004 -0.000004 -0.000001 0.000796
    9 5.318531 -0.004538 0.000000 -0.104719 -0.002633 -0.026041
    10 5.701826 -0.005492 0.000000 -0.088626 -0.002237 -0.026079
    11 6.899484 -0.001818 0.000000 0.000000 -0.026147 0.099378
    12 0.050786 0.001927 2.008302 -1.015599 -1.440358 4.050386
    13 4.746895 0.000000 0.000000 -0.949945 0.557819 -1.205865
    14 10.954378 0.000000 0.000000 0.000000 0.000000 -1.938471
    15 10.954373 0.000000 0.000000 -2.301438 0.087133 -0.905144
    16 -0.050780 0.001941 -2.008302 -0.529234 1.350105 2.519998
    17 4.746896 0.000000 -0.000003 -0.978069 -1.023720 0.742208
    18 10.954372 0.000000 0.000000 0.000000 0.000000 -0.804079
    19 10.954377 0.000000 0.000000 1.824576 -0.051523 -0.058745
    20 2.428221 0.000000 0.000000 0.189380 -0.003341 0.044737
    21 1.681022 0.975106 0.213387 0.000000 0.000001 -1.745239
  time 21
    0 -0.001589 0.024072 37.196707 0.000000 -0.026148 -1.570839
    1 0.000000 -0.015625 0.000000 -1.570795 -1.570796 0.000000
    2 -0.000004 0.000006 3.319508 -0.171381 -3.092659 -0.055224
    3 16.904898 0.000000 0.000000 0.000000 0.000000 -0.158873
    4 16.597540 0.000000 0.000000 0.174666 -0.035723 0.078881
    5 0.000005 -0.000003 -3.319508 -0.007895 3.115444 -0.094541
    6 16.904898 0.000000 0.000000 0.000000 0.000000 -0.248189
    7 16.597540 0.000000 0.000000 0.003964 0.026923 0.100198
    8 3.488968 -0.004234 0.000004 -0.000004 -0.000001 0.000796
    9 5.318531 -0.004538 0.000000 -0.098011 -0.002478 -0.026067
    10 5.701826 -0.005492 0.000000 -0.082921 -0.002093 -0.026079
    11 6.899484 -0.001818 0.000000 0.000000 -0.026147 0.099378
    12 0.050786 0.001927 2.008302 -0.964594 -1.435863 3.998805
    13 4.746895 0.000000 0.000000 -0.919631 0.640905 -1.170654
    14 10.954378 0.000000 0.000000 0.000000 0.000000 -1.860743
    15 10.954373 0.000000 0.000000 -2.247319 0.087478 -0.851370
    16 -0.050780 0.001941 -2.008302 -0.529234 1.350105 2.519998
    17 4.746896 0.000000 -0.000003 -0.957336 -1.039667 0.731409
    18 10.954372 0.000000 0.000000 0.000000 0.000000 -0.791578
    19 10.954377 0.000000 0.000000 1.821920 -0.063730 -0.011641
    20 2.428221 0.000000 0.000000 0.177805 -0.003390 0.052720
    21 1.681022 0.975106 0.213387 0.000000 0.000001 -1.745239
  time 22
    0 -0.001589 0.024072 37.196707 0.000000 -0.026148 -1.570839
    1 0.000000 -0.015625 0.000000 -1.570795 -1.570796 0.000000
    2 -0.000004 0.000006 3.319508 -0.171381 -3.092755 -0.055224
    3 16.904898 0.000000 0.000000 0.000000 0.000000 -0.158873
    4 16.597540 0.000000 0.000000 0.174666 -0.035686 0.078881
    5 0.000005 -0.000003 -3.319508 -0.007895 3.115444 -0.094493
    6 16.904898 0.000000 0.000000 0.000000 0.000000 -0.248117
    7 16.597540 0.000000 0.000000 0.003964 0.026977 0.100198
    8 3.488968 -0.004234 0.000004 -0.000004 -0.000001 0.000796
    9 5.318531 -0.004538 0.000000 -0.088877 -0.002235 -0.026067
    10 5.701826 -0.005492 0.000000 -0.075221 -0.001902 -0.026108
    11 6.899484 -0.001818 0.000000 0.000000 -0.026147 0.099378
    12 0.050786 0.001927 2.008302 -0.897963 -1.428962 3.931500
    13 4.746895 0.000000 0.000000 -0.864151 0.755045 -1.107943
    14 10.954378 0.000000 0.000000 0.000000 0.000000 -1.733357
    15 10.954373 0.000000 0.000000 -2.168653 0.105921 -0.740564
    16 -0.050780 0.001941 -2.008302 -0.529234 1.350105 2.519998
    17 4.746896 0.000000 -0.000003 -0.931539 -1.057511 0.719654
    18 10.954372 0.000000 0.000000 0.000000 0.000000 -0.777378
    19 10.954377 0.000000 0.000000 1.818166 -0.077443 0.041690
    20 2.428221 0.000000 0.000000 0.161876 -0.002742 0.061086
    21 1.681022 0.975106 0.213387 0.000000 0.000001 -1.745239
  time 23
    0 -0.001589 0.024072 37.196707 0.000000 -0.026148 -1.570839
    1 0.000000 -0.011719 0.000000 -1.570795 -1.570796 0.000000
    2 -0.000004 0.000006 3.319508 -0.171381 -3.092755 -0.055312
    3 16.904898 0.000000 0.000000 0.000000 0.000000 -0.158873
    4 16.597540 0.000000 0.000000 0.174666 -0.035612 0.078881
    5 0.000005 -0.000003 -3.319508 -0.007895 3.115348 -0.094493
    6 16.904898 0.000000 0.000000 0.000000 0.000000 -0.248117
    7 16.597540 0.000000 0.000000 0.003964 0.027059 0.100198
    8 3.488968 -0.004234 0.000004 -0.000004 -0.000001 0.000796
    9 5.318531 -0.004538 0.000000 -0.077888 -0.001969 -0.026092
    10 5.701826 -0.005492 0.000000 -0.065916 -0.001662 -0.026138
    11 6.899484 -0.001818 0.000000 0.000000 -0.026147 0.099378
    12 0.050786 0.001927 2.008302 -0.831618 -1.420652 3.864579
    13 4.746895 0.000000 0.000000 -0.778643 0.876087 -1.015873
    14 10.954378 0.000000 0.000000 0.000000 0.000000 -1.585758
    15 10.954373 0.000000 0.000000 -2.078423 0.124710 -0.602535
    16 -0.050780 0.001941 -2.008302 -0.529234 1.350105 2.519998
    17 4.746896 0.000000 -0.000003 -0.900965 -1.076495 0.706466
    18 10.954372 0.000000 0.000000 0.000000 0.000000 -0.762176
    19 10.954377 0.000000 0.000000 1.813220 -0.091869 0.099352
    20 2.428221 0.000000 0.000000 0.142522 -0.001396 0.069517
    21 1.681022 0.975106 0.213387 0.000000 0.000001 -1.745239
  time 24
    0 -0.001589 0.024072 37.196707 0.000000 -0.026148 -1.570839
    1 0.000000 -0.011719 0.000000 -1.570795 -1.570796 0.000000
    2 -0.000004 0.000006 3.319508 -0.171477 -3.092850 -0.055312
    3 16.904898 0.000000 0.000000 0.000000 0.000000 -0.158948
    4 16.597540 0.000000 0.000000 0.174666 -0.035538 0.078950
    5 0.000005 -0.000003 -3.319508 -0.007895 3.115348 -0.094493
    6 16.904898 0.000000 0.000000 0.000000 0.000000 -0.248117
    7 16.597540 0.000000 0.000000 0.003964 0.027114 0.100198
    8 3.488968 -0.004234 0.000004 -0.000004 -0.000001 0.000796
    9 5.318531 -0.004538 0.000000 -0.065579 -0.001659 -0.026117
    10 5.701826 -0.005492 0.000000 -0.055502 -0.001406 -0.026138
    11 6.899484 -0.001818 0.000000 0.000000 -0.026147 0.099378
    12 0.050786 0.001927 2.008302 -0.772273 -1.411708 3.804465
    13 4.746895 0.000000 0.000000 -0.653669 0.989047 -0.886270
    14 10.954378 0.000000 0.000000 0.000000 0.000000 -1.434268
    15 10.954373 0.000000 0.000000 -1.985065 0.134966 -0.455400
    16 -0.050780 0.001941 -2.008302 -0.529234 1.350105 2.519998
    17 4.746896 0.000000 -0.000003 -0.866283 -1.095764 0.691367
    18 10.954372 0.000000 0.000000 0.000000 0.000000 -0.746357
    19 10.954377 0.000000 0.000000 1.807268 -0.106612 0.159271
    20 2.428221 0.000000 0.000000 0.120759 0.000598 0.077883
    21 1.681022 0.975106 0.213387 0.000000 0.000001 -1.745239
  time 25
    0 -0.001589 0.024072 37.196707 0.000000 -0.026148 -1.570839
    1 0.000000 -0.007813 0.000000 -1.570795 -1.570796 0.000000
    2 -0.000004 0.000006 3.319508 -0.171477 -3.092946 -0.055312
    3 16.904898 0.000000 0.000000 0.000000 0.000000 -0.158948
    4 16.597540 0.000000 0.000000 0.174666 -0.035464 0.078950
    5 0.000005 -0.000003 -3.319508 -0.007895 3.115348 -0.094444
    6 16.904898 0.000000 0.000000 0.000000 0.000000 -0.248117
    7 16.597540 0.000000 0.000000 0.003964 0.027195 0.100198
    8 3.488968 -0.004234 0.000004 -0.000004 -0.000001 0.000796
    9 5.318531 -0.004538 0.000000 -0.052591 -0.001328 -0.026142
    10 5.701826 -0.005492 0.000000 -0.044507 -0.001119 -0.026167
    11 6.899484 -0.001818 0.000000 0.000000 -0.026147 0.099378
    12 0.050786 0.001927 2.008302 -0.721460 -1.402626 3.752884
    13 4.746895 0.000000 0.000000 -0.477601 1.083574 -0.707334
    14 10.954378 0.000000 0.000000 0.000000 0.000000 -1.286897
    15 10.954373 0.000000 0.000000 -1.894267 0.134018 -0.309607
    16 -0.050780 0.001941 -2.008302 -0.529234 1.350105 2.519998
    17 4.746896 0.000000 -0.000003 -0.828161 -1.114558 0.674260
    18 10.954372 0.000000 0.000000 0.000000 0.000000 -0.730537
    19 10.954377 0.000000 0.000000 1.800491 -0.120880 0.219189
    20 2.428221 0.000000 0.000000 0.097700 0.003191 0.085930
    21 1.681022 0.975106 0.213387 0.000000 0.000001 -1.745239
  time 26
    0 -0.001589 0.024072 37.196707 0.000000 -0.026148 -1.570839
    1 0.000000 -0.003906 0.000000 -1.570795 -1.570796 0.000000
    2 -0.000004 0.000006 3.319508 -0.171477 -3.092946 -0.055312
    3 16.904898 0.000000 0.000000 0.000000 0.000000 -0.159023
    4 16.597540 0.000000 0.000000 0.174666 -0.035390 0.078950
    5 0.000005 -0.000003 -3.319508 -0.007895 3.115252 -0.094444
    6 16.904898 0.000000 0.000000 0.000000 0.000000 -0.248046
    7 16.597540 0.000000 0.000000 0.003964 0.027277 0.100198
    8 3.488968 -0.004234 0.000004 -0.000004 -0.000001 0.000796
    9 5.318531 -0.004538 0.000000 -0.039533 -0.000996 -0.026167
    10 5.701826 -0.005492 0.000000 -0.033456 -0.000847 -0.026167
    11 6.899484 -0.001818 0.000000 0.000000 -0.026147 0.099378
    12 0.050786 0.001927 2.008302 -0.678508 -1.393772 3.709356
    13 4.746895 0.000000 0.000000 -0.243764 1.150769 -0.471446
    14 10.954378 0.000000 0.000000 0.000000 0.000000 -1.147612
    15 10.954373 0.000000 0.000000 -1.809724 0.122297 -0.171098
    16 -0.050780 0.001941 -2.008302 -0.529234 1.350105 2.519998
    17 4.746896 0.000000 -0.000003 -0.788224 -1.132023 0.655529
    18 10.954372 0.000000 0.000000 0.000000 0.000000 -0.715412
    19 10.954377 0.000000 0.000000 1.793164 -0.134197 0.277122
    20 2.428221 0.000000 0.000000 0.074548 0.006233 0.093594
    21 1.681022 0.975106 0.213387 0.000000 0.000001 -1.745239
  time 27
    0 -0.001589 0.024072 37.196707 0.000000 -0.026148 -1.570839
    1 0.000000 -0.003906 0.000000 -1.570795 -1.570796 0.000000
    2 -0.000004 0.000006 3.319508 -0.171477 -3.093042 -0.055399
    3 16.904898 0.000000 0.000000 0.000000 0.000000 -0.159023
    4 16.597540 0.000000 0.000000 0.174666 -0.035316 0.078950
    5 0.000005 -0.000003 -3.319508 -0.007895 3.115156 -0.094395
    6 16.904898 0.000000 0.000000 0.000000 0.000000 -0.248046
    7 16.597540 0.000000 0.000000 0.003964 0.027332 0.100198
    8 3.488968 -0.004234 0.000004 -0.000004 -0.000001 0.000796
    9 5.318531 -0.004538 0.000000 -0.027081 -0.000686 -0.026167
    10 5.701826 -0.005492 0.000000 -0.022932 -0.000575 -0.026167
    11 6.899484 -0.001818 0.000000 0.000000 -0.026147 0.099378
    12 0.050786 0.001927 2.008302 -0.642556 -1.385281 3.672827
    13 4.746895 0.000000 0.000000 0.032683 1.184275 -0.192915
    14 10.954378 0.000000 0.000000 0.000000 0.000000 -1.018319
    15 10.954373 0.000000 0.000000 -1.733616 0.101871 -0.043422
    16 -0.050780 0.001941 -2.008302 -0.529234 1.350105 2.519998
    17 4.746896 0.000000 -0.000003 -0.748287 -1.147495 0.635747
    18 10.954372 0.000000 0.000000 0.000000 0.000000 -0.701367
    19 10.954377 0.000000 0.000000 1.785655 -0.146087 0.330633
    20 2.428221 0.000000 0.000000 0.052508 0.009424 0.100619
    21 1.681022 0.975106 0.213387 0.000000 0.000001 -1.745239
  time 28
    0 -0.001589 0.024072 37.196707 0.000000 -0.026148 -1.570839
    1 0.000000 0.000000 0.000000 -1.570795 -1.570796 0.000000
    2 -0.000004 0.000006 3.319508 -0.171477 -3.093138 -0.055399
    3 16.904898 0.000000 0.000000 0.000000 0.000000 -0.159023
    4 16.597540 0.000000 0.000000 0.174666 -0.035279 0.078950
    5 0.000005 -0.000003 -3.319508 -0.007895 3.115156 -0.094395
    6 16.904898 0.000000 0.000000 0.000000 0.000000 -0.248046
    7 16.597540 0.000000 0.000000 0.003964 0.027386 0.100198
    8 3.488968 -0.004234 0.000004 -0.000004 -0.000001 0.000796
    9 5.318531 -0.004538 0.000000 -0.015913 -0.000398 -0.026167
    10 5.701826 -0.005492 0.000000 -0.013460 -0.000336 -0.026167
    11 6.899484 -0.001818 0.000000 0.000000 -0.026147 0.099378
    12 0.050786 0.001927 2.008302 -0.612739 -1.377381 3.642435
    13 4.746895 0.000000 0.000000 0.305413 1.184094 0.082829
    14 10.954378 0.000000 0.000000 0.000000 0.000000 -0.901003
    15 10.954373 0.000000 0.000000 -1.667555 0.075412 0.070548
    16 -0.050780 0.001941 -2.008302 -0.529234 1.350105 2.519998
    17 4.746896 0.000000 -0.000003 -0.710738 -1.160499 0.616442
    18 10.954372 0.000000 0.000000 0.000000 0.000000 -0.689174
    19 10.954377 0.000000 0.000000 1.778603 -0.156153 0.377647
    20 2.428221 0.000000 0.000000 0.032783 0.012565 0.106878
    21 1.681022 0.975106 0.213387 0.000000 0.000001 -1.745239
  time 29
    0 -0.001589 0.024072 37.196707 0.000000 -0.026148 -1.570839
    1 0.000000 0.000000 0.000000 -1.570795 -1.570796 0.000000
    2 -0.000004 0.000006 3.319508 -0.171477 -3.093138 -0.055399
    3 16.904898 0.000000 0.000000 0.000000 0.000000 -0.159098
    4 16.597540 0.000000 0.000000 0.174666 -0.035205 0.078950
    5 0.000005 -0.000003 -3.319508 -0.007895 3.115061 -0.094395
    6 16.904898 0.000000 0.000000 0.000000 0.000000 -0.248046
    7 16.597540 0.000000 0.000000 0.003964 0.027441 0.100257
    8 3.488968 -0.004234 0.000004 -0.000004 -0.000001 0.000796
    9 5.318531 -0.004538 0.000000 -0.006672 -0.000155 -0.026167
    10 5.701826 -0.005492 0.000000 -0.005650 -0.000144 -0.026167
    11 6.899484 -0.001818 0.000000 0.000000 -0.026147 0.099378
    12 0.050786 0.001927 2.008302 -0.588867 -1.370479 3.618082
    13 4.746895 0.000000 0.000000 0.526094 1.160121 0.307660
    14 10.954378 0.000000 0.000000 0.000000 0.000000 -0.799781
    15 10.954373 0.000000 0.000000 -1.613436 0.046195 0.166497
    16 -0.050780 0.001941 -2.008302 -0.529234 1.350105 2.519998
    17 4.746896 0.000000 -0.000003 -0.678253 -1.170751 0.599049
    18 10.954372 0.000000 0.000000 0.000000 0.000000 -0.679220
    19 10.954377 0.000000 0.000000 1.772468 -0.164080 0.415908
    20 2.428221 0.000000 0.000000 0.016577 0.015307 0.112115
    21 1.681022 0.975106 0.213387 0.000000 0.000001 -1.745239
  time 30
    0 -0.001589 0.024072 37.196707 0.000000 -0.026148 -1.570839
    1 0.000000 0.000000 0.000000 -1.570795 -1.570796 0.000000
    2 -0.000004 0.000006 3.319508 -0.171477 -3.093234 -0.055399
    3 16.904898 0.000000 0.000000 0.000000 0.000000 -0.159098
    4 16.597540 0.000000 0.000000 0.174666 -0.035169 0.079019
    5 0.000005 -0.000003 -3.319508 -0.007895 3.115061 -0.094347
    6 16.904898 0.000000 0.000000 0.000000 0.000000 -0.248046
    7 16.597540 0.000000 0.000000 0.003964 0.027495 0.100257
    8 3.488968 -0.004234 0.000004 -0.000004 -0.000001 0.000796
    9 5.318531 -0.004538 0.000000 0.000000 0.000000 -0.026167
    10 5.701826 -0.005492 0.000000 0.000000 0.000000 -0.026167
    11 6.899484 -0.001818 0.000000 0.000000 -0.026147 0.099378
    12 0.050786 0.001927 2.008302 -0.571514 -1.365031 3.600345
    13 4.746895 0.000000 0.000000 0.673374 1.128703 0.459654
    14 10.954378 0.000000 0.000000 0.000000 0.000000 -0.722739
    15 10.954373 0.000000 0.000000 -1.574103 0.019392 0.236566
    16 -0.050780 0.001941 -2.008302 -0.529234 1.350105 2.519998
    17 4.746896 0.000000 -0.000003 -0.653890 -1.177775 0.585670
    18 10.954372 0.000000 0.000000 0.000000 0.000000 -0.672043
    19 10.954377 0.000000 0.000000 1.767889 -0.169629 0.443611
    20 2.428221 0.000000 0.000000 0.004816 0.017451 0.116138
    21 1.681022 0.975106 0.213387 0.000000 0.000001 -1.745239
end
