version 1
nodes
  0 "Bip02" -1
  1 "Bip02 Pelvis" 0
  2 "Bip02 L Leg" 1
  3 "Bip02 L Leg1" 2
  4 "Bip02 L Foot" 3
  5 "Bip02 R Leg" 1
  6 "Bip02 R Leg1" 5
  7 "Bip02 R Foot" 6
  8 "Bip02 Spine" 1
  9 "Bip02 Spine1" 8
  10 "Bip02 Spine2" 9
  11 "Bip02 Neck" 10
  12 "Bip02 L Arm" 11
  13 "Bip02 L Arm1" 12
  14 "Bip02 L Arm2" 13
  15 "Bip02 L Hand" 14
  16 "Bip02 R Arm" 11
  17 "Bip02 R Arm1" 16
  18 "Bip02 R Arm2" 17
  19 "Bip02 R Hand" 18
  20 "Bip02 Head" 11
  21 "Bone01" 20
end
skeleton
  time 0
    0 -0.018829 12.088588 30.532564 0.004025 -0.025765 -1.727886
    1 0.000000 0.000000 0.000000 -0.000019 -1.413815 -1.570788
    2 -0.000004 0.000006 3.319508 -0.096794 -3.223893 -0.812613
    3 16.897085 0.000000 0.000000 0.000000 0.000000 -1.018585
    4 16.589727 0.000000 0.000000 -0.131999 -0.030033 0.191757
    5 0.000005 -0.000003 -3.319508 0.051438 2.832892 -0.260060
    6 16.897085 0.000000 0.000000 0.000000 0.000000 -1.192383
    7 16.589727 0.000000 0.000000 0.018452 0.117072 0.891455
    8 3.445998 -0.004234 0.542990 -0.113799 -0.054291 0.370143
    9 5.318531 -0.004538 0.000000 -0.105504 0.041529 0.372847
    10 5.701826 -0.005492 0.000000 -0.085884 0.015180 0.173792
    11 6.899484 -0.001818 0.000000 0.000000 -0.026147 0.465610
    12 0.050786 0.001927 2.008302 -0.526070 -1.367437 3.189709
    13 4.746895 0.000000 0.000000 -0.632221 0.261708 -0.919530
    14 10.950472 0.000000 0.000000 0.000000 0.000000 -2.513308
    15 10.950467 0.000000 0.000000 -1.396960 -0.624583 -0.414374
    16 -0.050780 0.001941 -2.008302 -0.498075 1.356861 2.184154
    17 4.746896 0.000000 -0.000003 0.699677 -0.280784 -1.138357
    18 10.950466 0.000000 0.000000 0.000000 0.000000 -2.288193
    19 10.950471 0.000000 0.000000 1.345799 0.389591 -0.497123
    20 2.428221 0.000000 0.000000 -0.085846 -0.235090 0.268840
    21 1.681022 0.975106 0.213387 0.000000 0.000001 -1.745239
  time 1
    0 -0.007336 12.105798 30.579495 0.003929 -0.038504 -1.692263
    1 0.000000 0.000000 0.000000 -0.000019 -1.423580 -1.570788
    2 -0.000004 0.000006 3.319508 -0.094589 -3.228974 -0.801027
    3 16.897085 0.000000 0.000000 0.000000 0.000000 -1.009469
    4 16.589727 0.000000 0.000000 -0.099937 -0.018654 0.182264
    5 0.000005 -0.000003 -3.319508 0.098522 2.824365 -0.242171
    6 16.897085 0.000000 0.000000 0.000000 0.000000 -1.207858
    7 16.589727 0.000000 0.000000 0.006483 0.123966 0.870302
    8 3.453811 -0.004234 0.511739 -0.109298 -0.058233 0.362355
    9 5.318531 -0.004538 0.000000 -0.106146 0.039914 0.357552
    10 5.701826 -0.005492 0.000000 -0.086189 0.013326 0.152270
    11 6.899484 -0.001818 0.000000 0.000000 -0.026147 0.465610
    12 0.050786 0.001927 2.008302 -0.620505 -1.395452 3.285872
    13 4.746895 0.000000 0.000000 -0.691800 0.370309 -0.725357
    14 10.950472 0.000000 0.000000 0.000000 0.000000 -2.448700
    15 10.950467 0.000000 0.000000 -1.396960 -0.624583 -0.414374
    16 -0.050780 0.001941 -2.008302 -0.615615 1.394210 2.064312
    17 4.746896 0.000000 -0.000003 0.826367 -0.345234 -1.041834
    18 10.950466 0.000000 0.000000 0.000000 0.000000 -2.204851
    19 10.950471 0.000000 0.000000 1.345799 0.389591 -0.497123
    20 2.428221 0.000000 0.000000 -0.013428 -0.226365 0.080118
    21 1.681022 0.975106 0.213387 0.000000 0.000001 -1.745239
  time 2
    0 0.032893 12.157430 30.673356 0.002971 -0.057373 -1.638637
    1 0.000000 0.000000 0.000000 -0.000019 -1.435636 -1.570788
    2 -0.000004 0.000006 3.319508 -0.093247 -3.238176 -0.783385
    3 16.897085 0.000000 0.000000 0.000000 0.000000 -0.994899
    4 16.589727 0.000000 0.000000 -0.051964 -0.000773 0.167435
    5 0.000005 -0.000003 -3.319508 0.164171 2.812676 -0.215290
    6 16.897085 0.000000 0.000000 0.000000 0.000000 -1.228397
    7 16.589727 0.000000 0.000000 -0.010294 0.129771 0.840569
    8 3.457717 -0.004234 0.468769 -0.103886 -0.064390 0.351847
    9 5.318531 -0.004538 0.000000 -0.106931 0.037701 0.336984
    10 5.701826 -0.005492 0.000000 -0.086549 0.010818 0.123341
    11 6.899484 -0.001818 0.000000 0.000000 -0.026147 0.465610
    12 0.050786 0.001927 2.008302 -0.803623 -1.429416 3.471200
    13 4.746895 0.000000 0.000000 -0.723258 0.523132 -0.441531
    14 10.950472 0.000000 0.000000 0.000000 0.000000 -2.360064
    15 10.950467 0.000000 0.000000 -1.396960 -0.624583 -0.414374
    16 -0.050780 0.001941 -2.008302 -0.872076 1.437931 1.804879
    17 4.746896 0.000000 -0.000003 0.976275 -0.454866 -0.906225
    18 10.950466 0.000000 0.000000 0.000000 0.000000 -2.090255
    19 10.950471 0.000000 0.000000 1.345799 0.389591 -0.497123
    20 2.428221 0.000000 0.000000 0.078716 -0.184083 -0.189073
    21 1.681022 0.975106 0.213387 0.000000 0.000001 -1.745239
  time 3
    0 0.090363 12.226271 30.767217 0.001150 -0.075380 -1.592194
    1 0.000000 0.000000 0.000000 -0.000019 -1.449244 -1.570788
    2 -0.000004 0.000006 3.319508 -0.151249 -3.211910 -0.760476
    3 16.897085 0.000000 0.000000 0.000000 0.000000 -0.978909
    4 16.589727 0.000000 0.000000 0.055194 0.039201 0.154616
    5 0.000005 -0.000003 -3.319508 0.219103 2.811813 -0.184714
    6 16.897085 0.000000 0.000000 0.000000 0.000000 -1.232747
    7 16.589727 0.000000 0.000000 -0.016770 0.130207 0.818535
    8 3.465530 -0.004234 0.421892 -0.097876 -0.073625 0.338253
    9 5.318531 -0.004538 0.000000 -0.107895 0.034914 0.311091
    10 5.701826 -0.005492 0.000000 -0.086881 0.007654 0.086945
    11 6.899484 -0.001818 0.000000 0.000000 -0.026147 0.465610
    12 0.050786 0.001927 2.008302 -1.182610 -1.460973 3.853170
    13 4.746895 0.000000 0.000000 -0.667492 0.686942 -0.050491
    14 10.950472 0.000000 0.000000 0.000000 0.000000 -2.253198
    15 10.950467 0.000000 0.000000 -1.396960 -0.624583 -0.414374
    16 -0.050780 0.001941 -2.008302 -1.463998 1.468600 1.209123
    17 4.746896 0.000000 -0.000003 1.114336 -0.618983 -0.738696
    18 10.950466 0.000000 0.000000 0.000000 0.000000 -1.952894
    19 10.950471 0.000000 0.000000 1.345799 0.389591 -0.497123
    20 2.428221 0.000000 0.000000 0.158542 -0.096030 -0.505014
    21 1.681022 0.975106 0.213387 0.000000 0.000001 -1.745239
  time 4
    0 0.165074 12.312324 30.908009 0.000000 -0.087162 -1.570839
    1 0.000000 0.000000 0.000000 -0.000019 -1.464614 -1.570788
    2 -0.000004 0.000006 3.319508 -0.081743 -3.242107 -0.749242
    3 16.897085 0.000000 0.000000 0.000000 0.000000 -0.964564
    4 16.589727 0.000000 0.000000 0.007340 0.025088 0.141382
    5 0.000005 -0.000003 -3.319508 0.226089 2.840366 -0.154429
    6 16.897085 0.000000 0.000000 0.000000 0.000000 -1.185252
    7 16.589727 0.000000 0.000000 0.011846 0.124648 0.827819
    8 3.469436 -0.004234 0.367203 -0.091638 -0.081278 0.323998
    9 5.318531 -0.004538 0.000000 -0.108715 0.032192 0.286077
    10 5.701826 -0.005492 0.000000 -0.087075 0.004618 0.052130
    11 6.899484 -0.001818 0.000000 0.000000 -0.026147 0.465610
    12 0.050786 0.001927 2.008302 1.420926 -1.673562 1.252441
    13 4.746895 0.000000 0.000000 -0.542232 0.765760 0.277002
    14 10.950472 0.000000 0.000000 0.000000 0.000000 -2.174783
    15 10.950467 0.000000 0.000000 -1.396960 -0.624583 -0.414374
    16 -0.050780 0.001941 -2.008302 -2.133289 1.450559 0.536093
    17 4.746896 0.000000 -0.000003 1.177299 -0.776549 -0.620289
    18 10.950466 0.000000 0.000000 0.000000 0.000000 -1.855584
    19 10.950471 0.000000 0.000000 1.345799 0.389591 -0.497123
    20 2.428221 0.000000 0.000000 0.186047 0.003989 -0.863298
    21 1.681022 0.975106 0.213387 0.000000 0.000001 -1.745239
  time 5
    0 0.251278 12.432797 31.001870 -0.000192 -0.094537 -1.572754
    1 0.000000 0.000000 0.000000 -0.000019 -1.482170 -1.570788
    2 -0.000004 0.000006 3.319508 -0.064486 -3.234629 -0.737656
    3 16.897085 0.000000 0.000000 0.000000 0.000000 -0.952384
    4 16.589727 0.000000 0.000000 -0.001106 0.025273 0.132582
    5 0.000005 -0.000003 -3.319508 0.203791 2.885110 -0.125263
    6 16.897085 0.000000 0.000000 0.000000 0.000000 -1.110230
    7 16.589727 0.000000 0.000000 0.058023 0.111213 0.850676
    8 3.477249 -0.004234 0.308607 -0.085770 -0.065023 0.319369
    9 5.318531 -0.004538 0.000000 -0.108358 0.033365 0.296801
    10 5.701826 -0.005492 0.000000 -0.086992 0.006216 0.070489
    11 6.899484 -0.001818 0.000000 0.000000 -0.026147 0.465610
    12 0.050786 0.001927 2.008302 1.420926 -1.673562 1.252441
    13 4.746895 0.000000 0.000000 -0.568829 0.440682 -0.987444
    14 10.950472 0.000000 0.000000 0.000000 0.000000 -2.475855
    15 10.950467 0.000000 0.000000 -1.396960 -0.624583 -0.414374
    16 -0.050780 0.001941 -2.008302 -2.133289 1.450559 0.536093
    17 4.746896 0.000000 -0.000003 0.938058 -0.572282 -1.359690
    18 10.950466 0.000000 0.000000 0.000000 0.000000 -2.279319
    19 10.950471 0.000000 0.000000 1.345799 0.389591 -0.497123
    20 2.428221 0.000000 0.000000 -0.080012 -0.028121 -0.765201
    21 1.681022 0.975106 0.213387 0.000000 0.000001 -1.745239
  time 6
    0 0.354724 12.553270 31.142662 0.000000 -0.100475 -1.585586
    1 0.000000 0.000000 0.000000 -0.000019 -1.502053 -1.570788
    2 -0.000004 0.000006 3.319508 -0.004087 -3.242873 -0.727737
    3 16.897085 0.000000 0.000000 0.000000 0.000000 -0.941326
    4 16.589727 0.000000 0.000000 -0.062166 0.006579 0.124128
    5 0.000005 -0.000003 -3.319508 0.183694 2.911650 -0.122735
    6 16.897085 0.000000 0.000000 0.000000 0.000000 -1.095682
    7 16.589727 0.000000 0.000000 0.068586 0.109169 0.836104
    8 3.481155 -0.004234 0.238293 -0.078706 -0.067267 0.300888
    9 5.318531 -0.004538 0.000000 -0.109500 0.029493 0.261265
    10 5.701826 -0.005492 0.000000 -0.087103 0.004522 0.050959
    11 6.899484 -0.001818 0.000000 0.000000 -0.026147 0.465610
    12 0.050786 0.001927 2.008302 1.420926 -1.673562 1.252441
    13 4.746895 0.000000 0.000000 -0.536608 0.580248 -0.635239
    14 10.950472 0.000000 0.000000 0.000000 0.000000 -2.535734
    15 10.950467 0.000000 0.000000 -1.396960 -0.624583 -0.414374
    16 -0.050780 0.001941 -2.008302 -2.133289 1.450559 0.536093
    17 4.746896 0.000000 -0.000003 0.991753 -0.720167 -1.209745
    18 10.950466 0.000000 0.000000 0.000000 0.000000 -2.300540
    19 10.950471 0.000000 0.000000 1.345799 0.389591 -0.497123
    20 2.428221 0.000000 0.000000 0.399968 -0.033157 -0.527878
    21 1.681022 0.975106 0.213387 0.000000 0.000001 -1.745239
  time 7
    0 0.458170 12.690953 31.236523 0.000767 -0.104881 -1.603589
    1 0.000000 0.000000 0.000000 -0.000019 -1.523310 -1.570788
    2 -0.000004 0.000006 3.319508 -0.037642 -3.200694 -0.718521
    3 16.897085 0.000000 0.000000 0.000000 0.000000 -0.931164
    4 16.589727 0.000000 0.000000 -0.027785 0.022945 0.117753
    5 0.000005 -0.000003 -3.319508 0.170679 2.932921 -0.122346
    6 16.897085 0.000000 0.000000 0.000000 0.000000 -1.081419
    7 16.589727 0.000000 0.000000 0.065545 0.111185 0.819357
    8 3.485062 -0.004234 0.164072 -0.072069 -0.063210 0.287221
    9 5.318531 -0.004538 0.000000 -0.110570 0.025046 0.221157
    10 5.701826 -0.005492 0.000000 -0.087186 0.002509 0.027915
    11 6.899484 -0.001818 0.000000 0.000000 -0.026147 0.465610
    12 0.050786 0.001927 2.008302 1.420926 -1.673562 1.252441
    13 4.746895 0.000000 0.000000 -0.423932 0.682221 -0.152130
    14 10.950472 0.000000 0.000000 0.000000 0.000000 -2.550914
    15 10.950467 0.000000 0.000000 -1.396960 -0.624583 -0.414374
    16 -0.050780 0.001941 -2.008302 -2.133289 1.450559 0.536093
    17 4.746896 0.000000 -0.000003 0.988983 -0.878588 -0.957162
    18 10.950466 0.000000 0.000000 0.000000 0.000000 -2.269441
    19 10.950471 0.000000 0.000000 1.345799 0.389591 -0.497123
    20 2.428221 0.000000 0.000000 0.048711 -0.081072 -0.298666
    21 1.681022 0.975106 0.213387 0.000000 0.000001 -1.745239
  time 8
    0 0.573109 12.828637 31.377315 0.001629 -0.107467 -1.623699
    1 0.000000 0.000000 0.000000 -0.000019 -1.542382 -1.570788
    2 -0.000004 0.000006 3.319508 -0.074169 -3.159282 -0.711148
    3 16.897085 0.000000 0.000000 0.000000 0.000000 -0.921227
    4 16.589727 0.000000 0.000000 0.005823 0.039164 0.112279
    5 0.000005 -0.000003 -3.319508 0.176708 2.939723 -0.123319
    6 16.897085 0.000000 0.000000 0.000000 0.000000 -1.069224
    7 16.589727 0.000000 0.000000 0.038270 0.119824 0.800554
    8 3.488968 -0.004234 0.097664 -0.066914 -0.007539 0.323006
    9 5.318531 -0.004538 0.000000 -0.111177 0.022192 0.195390
    10 5.701826 -0.005492 0.000000 -0.087186 0.001662 0.018369
    11 6.899484 -0.001818 0.000000 0.000000 -0.026147 0.465610
    12 0.050786 0.001927 2.008302 1.420926 -1.673562 1.252441
    13 4.746895 0.000000 0.000000 -0.436610 0.600497 -0.844741
    14 10.950472 0.000000 0.000000 0.000000 0.000000 -2.494239
    15 10.950467 0.000000 0.000000 -1.396960 -0.624583 -0.414374
    16 -0.050780 0.001941 -2.008302 -2.133289 1.450559 0.536093
    17 4.746896 0.000000 -0.000003 0.882834 -0.798096 -1.280847
    18 10.950466 0.000000 0.000000 0.000000 0.000000 -2.275074
    19 10.950471 0.000000 0.000000 1.345799 0.389591 -0.497123
    20 2.428221 0.000000 0.000000 0.341626 -0.129536 -0.151968
    21 1.681022 0.975106 0.213387 0.000000 0.000001 -1.745239
  time 9
    0 0.682302 12.966320 31.471176 0.002683 -0.107659 -1.643904
    1 0.000000 0.000000 0.000000 -0.000019 -1.566425 -1.570788
    2 -0.000004 0.000006 3.319508 -0.037163 -3.148546 -0.711412
    3 16.897085 0.000000 0.000000 0.000000 0.000000 -0.916445
    4 16.589727 0.000000 0.000000 -0.034357 0.028081 0.106459
    5 0.000005 -0.000003 -3.319508 0.182163 2.952371 -0.127256
    6 16.897085 0.000000 0.000000 0.000000 0.000000 -1.057743
    7 16.589727 0.000000 0.000000 0.012369 0.127591 0.782045
    8 3.488968 -0.004234 0.011723 -0.058995 0.016312 0.341339
    9 5.318531 -0.004538 0.000000 -0.110678 0.024670 0.217767
    10 5.701826 -0.005492 0.000000 -0.087048 0.005497 0.062173
    11 6.899484 -0.001818 0.000000 0.000000 -0.026147 0.465610
    12 0.050786 0.001927 2.008302 1.420926 -1.673562 1.252441
    13 4.746895 0.000000 0.000000 -0.583318 0.609941 -0.553389
    14 10.950472 0.000000 0.000000 0.000000 0.000000 -2.525742
    15 10.950467 0.000000 0.000000 -1.396960 -0.624583 -0.414374
    16 -0.050780 0.001941 -2.008302 -2.133289 1.450559 0.536093
    17 4.746896 0.000000 -0.000003 0.988792 -0.741714 -1.118670
    18 10.950466 0.000000 0.000000 0.000000 0.000000 -2.271062
    19 10.950471 0.000000 0.000000 1.345799 0.389591 -0.497123
    20 2.428221 0.000000 0.000000 0.036024 -0.167679 -0.091743
    21 1.681022 0.975106 0.213387 0.000000 0.000001 -1.745239
  time 10
    0 0.791494 13.104004 31.471176 0.003450 -0.104402 -1.661141
    1 0.000000 0.000000 0.000000 -1.570795 -1.570796 0.000000
    2 -0.000004 0.000006 3.319508 -0.012428 -3.153531 -0.713869
    3 16.897085 0.000000 0.000000 0.000000 0.000000 -0.908973
    4 16.589727 0.000000 0.000000 -0.072575 0.017293 0.099460
    5 0.000005 -0.000003 -3.319508 0.152401 2.960898 -0.156763
    6 16.897085 0.000000 0.000000 0.000000 0.000000 -1.102813
    7 16.589727 0.000000 0.000000 0.019662 0.126664 0.778519
    8 3.488968 -0.004234 0.000004 -0.057286 0.021117 0.352912
    9 5.318531 -0.004538 0.000000 -0.109893 0.027856 0.246523
    10 5.701826 -0.005492 0.000000 -0.086771 0.008852 0.100648
    11 6.899484 -0.001818 0.000000 0.000000 -0.026147 0.465610
    12 0.050786 0.001927 2.008302 1.420926 -1.673562 1.252441
    13 4.746895 0.000000 0.000000 -0.718968 0.681948 -0.287307
    14 10.950472 0.000000 0.000000 0.000000 0.000000 -2.552058
    15 10.950467 0.000000 0.000000 -1.396960 -0.624583 -0.414374
    16 -0.050780 0.001941 -2.008302 -2.133289 1.450559 0.536093
    17 4.746896 0.000000 -0.000003 1.112234 -0.710485 -0.982583
    18 10.950466 0.000000 0.000000 0.000000 0.000000 -2.265583
    19 10.950471 0.000000 0.000000 1.345799 0.389591 -0.497123
    20 2.428221 0.000000 0.000000 0.231887 -0.179247 -0.027111
    21 1.681022 0.975106 0.213387 0.000000 0.000001 -1.745239
  time 11
    0 0.642073 12.914689 31.424246 0.004120 -0.094345 -1.676175
    1 0.000000 0.000000 0.000000 -0.000019 -1.470325 -1.570788
    2 -0.000004 0.000006 3.319508 -0.071005 -3.222455 -0.704126
    3 16.897085 0.000000 0.000000 0.000000 0.000000 -0.884092
    4 16.589727 0.000000 0.000000 -0.086256 0.006764 0.096897
    5 0.000005 -0.000003 -3.319508 0.100819 2.870547 -0.189186
    6 16.897085 0.000000 0.000000 0.000000 0.000000 -1.144674
    7 16.589727 0.000000 0.000000 0.032122 0.125274 0.782456
    8 3.473343 -0.004234 0.347671 -0.092350 -0.041920 0.357689
    9 5.318531 -0.004538 0.000000 -0.109072 0.030931 0.274525
    10 5.701826 -0.005492 0.000000 -0.086549 0.010658 0.121438
    11 6.899484 -0.001818 0.000000 0.000000 -0.026147 0.465610
    12 0.050786 0.001927 2.008302 1.420926 -1.673562 1.252441
    13 4.746895 0.000000 0.000000 -0.592851 0.450217 -1.026836
    14 10.950472 0.000000 0.000000 0.000000 0.000000 -2.453735
    15 10.950467 0.000000 0.000000 -1.396960 -0.624583 -0.414374
    16 -0.050780 0.001941 -2.008302 -2.133289 1.450559 0.536093
    17 4.746896 0.000000 -0.000003 0.887229 -0.574465 -1.316494
    18 10.950466 0.000000 0.000000 0.000000 0.000000 -2.259178
    19 10.950471 0.000000 0.000000 1.345799 0.389591 -0.497123
    20 2.428221 0.000000 0.000000 0.163080 -0.220481 0.050038
    21 1.681022 0.975106 0.213387 0.000000 0.000001 -1.745239
  time 12
    0 0.429435 12.656532 31.236523 0.004504 -0.077296 -1.691784
    1 0.000000 0.000000 0.000000 -0.000019 -1.480971 -1.570788
    2 -0.000004 0.000006 3.319508 -0.058925 -3.203954 -0.733355
    3 16.897085 0.000000 0.000000 0.000000 0.000000 -0.927503
    4 16.589727 0.000000 0.000000 -0.100770 -0.004689 0.127108
    5 0.000005 -0.000003 -3.319508 0.087804 2.897374 -0.183450
    6 16.897085 0.000000 0.000000 0.000000 0.000000 -1.106878
    7 16.589727 0.000000 0.000000 0.045628 0.115137 0.823529
    8 3.477249 -0.004234 0.312514 -0.088846 0.004746 0.358974
    9 5.318531 -0.004538 0.000000 -0.108180 0.033962 0.302351
    10 5.701826 -0.005492 0.000000 -0.086383 0.012000 0.136898
    11 6.899484 -0.001818 0.000000 0.000000 -0.026147 0.465610
    12 0.050786 0.001927 2.008302 -1.182610 -1.460973 3.853170
    13 4.746895 0.000000 0.000000 -0.596092 0.392012 -1.054708
    14 10.950472 0.000000 0.000000 0.000000 0.000000 -2.464185
    15 10.950467 0.000000 0.000000 -1.396960 -0.624583 -0.414374
    16 -0.050780 0.001941 -2.008302 -1.463998 1.468600 1.209123
    17 4.746896 0.000000 -0.000003 0.775347 -0.484292 -1.249692
    18 10.950466 0.000000 0.000000 0.000000 0.000000 -2.267280
    19 10.950471 0.000000 0.000000 1.345799 0.389591 -0.497123
    20 2.428221 0.000000 0.000000 0.063343 -0.249450 0.133062
    21 1.681022 0.975106 0.213387 0.000000 0.000001 -1.745239
  time 13
    0 0.216797 12.381165 30.954940 0.004600 -0.056990 -1.706627
    1 0.000000 0.000000 0.000000 -0.000019 -1.455871 -1.570788
    2 -0.000004 0.000006 3.319508 -0.071197 -3.211047 -0.764251
    3 16.897085 0.000000 0.000000 0.000000 0.000000 -0.965983
    4 16.589727 0.000000 0.000000 -0.113886 -0.016068 0.155309
    5 0.000005 -0.000003 -3.319508 0.074502 2.874667 -0.210720
    6 16.897085 0.000000 0.000000 0.000000 0.000000 -1.138684
    7 16.589727 0.000000 0.000000 0.035948 0.114455 0.851087
    8 3.469436 -0.004234 0.398454 -0.098047 0.013723 0.360701
    9 5.318531 -0.004538 0.000000 -0.107074 0.037369 0.333719
    10 5.701826 -0.005492 0.000000 -0.086161 0.013406 0.153324
    11 6.899484 -0.001818 0.000000 0.000000 -0.026147 0.465610
    12 0.050786 0.001927 2.008302 -0.803623 -1.429416 3.471200
    13 4.746895 0.000000 0.000000 -0.629647 0.346610 -1.022934
    14 10.950472 0.000000 0.000000 0.000000 0.000000 -2.484017
    15 10.950467 0.000000 0.000000 -1.396960 -0.624583 -0.414374
    16 -0.050780 0.001941 -2.008302 -0.872076 1.437931 1.804879
    17 4.746896 0.000000 -0.000003 0.709995 -0.384341 -1.174003
    18 10.950466 0.000000 0.000000 0.000000 0.000000 -2.276078
    19 10.950471 0.000000 0.000000 1.345799 0.389591 -0.497123
    20 2.428221 0.000000 0.000000 -0.026578 -0.260369 0.186007
    21 1.681022 0.975106 0.213387 0.000000 0.000001 -1.745239
  time 14
    0 0.050134 12.174640 30.720287 0.004312 -0.038217 -1.719076
    1 0.000000 0.000000 0.000000 -0.000019 -1.431194 -1.570788
    2 -0.000004 0.000006 3.319508 -0.085386 -3.218333 -0.793655
    3 16.897085 0.000000 0.000000 0.000000 0.000000 -1.000204
    4 16.589727 0.000000 0.000000 -0.124563 -0.025157 0.179492
    5 0.000005 -0.000003 -3.319508 0.062922 2.850138 -0.238526
    6 16.897085 0.000000 0.000000 0.000000 0.000000 -1.170704
    7 16.589727 0.000000 0.000000 0.024666 0.115600 0.876530
    8 3.457717 -0.004234 0.484394 -0.107475 -0.068274 0.370952
    9 5.318531 -0.004538 0.000000 -0.106146 0.039936 0.357778
    10 5.701826 -0.005492 0.000000 -0.085995 0.014541 0.166354
    11 6.899484 -0.001818 0.000000 0.000000 -0.026147 0.465610
    12 0.050786 0.001927 2.008302 -0.620505 -1.395452 3.285872
    13 4.746895 0.000000 0.000000 -0.600286 0.275329 -0.930679
    14 10.950472 0.000000 0.000000 0.000000 0.000000 -2.501104
    15 10.950467 0.000000 0.000000 -1.396960 -0.624583 -0.414374
    16 -0.050780 0.001941 -2.008302 -0.615615 1.394210 2.064312
    17 4.746896 0.000000 -0.000003 0.738467 -0.342482 -1.183082
    18 10.950466 0.000000 0.000000 0.000000 0.000000 -2.283023
    19 10.950471 0.000000 0.000000 1.345799 0.389591 -0.497123
    20 2.428221 0.000000 0.000000 -0.019818 -0.232148 0.225539
    21 1.681022 0.975106 0.213387 0.000000 0.000001 -1.745239
  time 15
    0 -0.018829 12.088588 30.532564 0.004025 -0.025765 -1.727886
    1 0.000000 0.000000 0.000000 -0.000019 -1.413815 -1.570788
    2 -0.000004 0.000006 3.319508 -0.096794 -3.223893 -0.812613
    3 16.897085 0.000000 0.000000 0.000000 0.000000 -1.018585
    4 16.589727 0.000000 0.000000 -0.131999 -0.030033 0.191757
    5 0.000005 -0.000003 -3.319508 0.051438 2.832892 -0.260060
    6 16.897085 0.000000 0.000000 0.000000 0.000000 -1.192383
    7 16.589727 0.000000 0.000000 0.018452 0.117072 0.891455
    8 3.445998 -0.004234 0.542990 -0.113799 -0.054291 0.370143
    9 5.318531 -0.004538 0.000000 -0.105504 0.041529 0.372847
    10 5.701826 -0.005492 0.000000 -0.085884 0.015180 0.173792
    11 6.899484 -0.001818 0.000000 0.000000 -0.026147 0.465610
    12 0.050786 0.001927 2.008302 -0.526070 -1.367437 3.189709
    13 4.746895 0.000000 0.000000 -0.632221 0.261708 -0.919530
    14 10.950472 0.000000 0.000000 0.000000 0.000000 -2.513308
    15 10.950467 0.000000 0.000000 -1.396960 -0.624583 -0.414374
    16 -0.050780 0.001941 -2.008302 -0.498075 1.356861 2.184154
    17 4.746896 0.000000 -0.000003 0.699677 -0.280784 -1.138357
    18 10.950466 0.000000 0.000000 0.000000 0.000000 -2.288193
    19 10.950471 0.000000 0.000000 1.345799 0.389591 -0.497123
    20 2.428221 0.000000 0.000000 -0.085846 -0.235090 0.268840
    21 1.681022 0.975106 0.213387 0.000000 0.000001 -1.745239
end
