version 1
nodes
  0 "Bip02" -1
  1 "Bip02 Pelvis" 0
  2 "Bip02 L Leg" 1
  3 "Bip02 L Leg1" 2
  4 "Bip02 L Foot" 3
  5 "Bip02 R Leg" 1
  6 "Bip02 R Leg1" 5
  7 "Bip02 R Foot" 6
  8 "Bip02 Spine" 1
  9 "Bip02 Spine1" 8
  10 "Bip02 Spine2" 9
  11 "Bip02 Neck" 10
  12 "Bip02 L Arm" 11
  13 "Bip02 L Arm1" 12
  14 "Bip02 L Arm2" 13
  15 "Bip02 L Hand" 14
  16 "Bip02 R Arm" 11
  17 "Bip02 R Arm1" 16
  18 "Bip02 R Arm2" 17
  19 "Bip02 R Hand" 18
  20 "Bip02 Head" 11
  21 "Bone01" 20
end
skeleton
  time 0
    0 -0.018829 13.052372 30.720287 0.004025 -0.025765 -1.727886
    1 0.000000 0.000000 0.000000 -0.000019 -1.413815 -1.570788
    2 -0.000004 0.000006 3.319508 -0.115968 -3.251789 -0.835346
    3 16.904898 0.000000 0.000000 0.000000 0.000000 -0.777169
    4 16.597540 0.000000 0.000000 -0.142973 0.002737 -0.068918
    5 0.000005 -0.000003 -3.319508 0.051438 2.832892 -0.260060
    6 16.904898 0.000000 0.000000 0.000000 0.000000 -1.192383
    7 16.597540 0.000000 0.000000 0.018452 0.117072 0.891455
    8 3.449904 -0.004234 0.542990 -0.113799 -0.054291 0.370143
    9 5.318531 -0.004538 0.000000 -0.105504 0.041529 0.372847
    10 5.701826 -0.005492 0.000000 -0.085884 0.015180 0.173792
    11 6.899484 -0.001818 0.000000 0.000000 -0.026147 0.465610
    12 0.050786 0.001927 2.008302 -0.526070 -1.367437 3.189709
    13 4.746895 0.000000 0.000000 -0.632221 0.261708 -0.919530
    14 10.954378 0.000000 0.000000 0.000000 0.000000 -2.513308
    15 10.954373 0.000000 0.000000 -1.396960 -0.624583 -0.414374
    16 -0.050780 0.001941 -2.008302 -0.498075 1.356861 2.184154
    17 4.746896 0.000000 -0.000003 0.699677 -0.280784 -1.138357
    18 10.954372 0.000000 0.000000 0.000000 0.000000 -2.288193
    19 10.954377 0.000000 0.000000 1.345799 0.389591 -0.497123
    20 2.428221 0.000000 0.000000 -0.085846 -0.235090 0.268840
    21 1.681022 0.975106 0.213387 0.000000 0.000001 -1.745239
  time 1
    0 -0.013083 13.052372 30.720287 0.004312 -0.025765 -1.736695
    1 0.000000 0.000000 0.000000 -0.000019 -1.402075 -1.570788
    2 -0.000004 0.000006 3.319508 -0.128144 -3.254664 -0.829553
    3 16.904898 0.000000 0.000000 0.000000 0.000000 -0.768577
    4 16.597540 0.000000 0.000000 -0.144639 0.001887 -0.071413
    5 0.000005 -0.000003 -3.319508 0.050673 2.815550 -0.263657
    6 16.904898 0.000000 0.000000 0.000000 0.000000 -1.193596
    7 16.597540 0.000000 0.000000 0.004782 0.121432 0.889399
    8 3.442092 -0.004234 0.585960 -0.117758 -0.065483 0.368196
    9 5.318531 -0.004538 0.000000 -0.105682 0.041064 0.368427
    10 5.701826 -0.005492 0.000000 -0.080594 0.014237 0.173850
    11 6.899484 -0.001818 0.000000 0.000000 -0.026147 0.465610
    12 0.050786 0.001927 2.008302 -0.526070 -1.367437 3.189709
    13 4.746895 0.000000 0.000000 -0.651000 0.249359 -0.935045
    14 10.954378 0.000000 0.000000 0.000000 0.000000 -2.512698
    15 10.954373 0.000000 0.000000 -1.396960 -0.624583 -0.414374
    16 -0.050780 0.001941 -2.008302 -0.498075 1.356861 2.184154
    17 4.746896 0.000000 -0.000003 0.711333 -0.269583 -1.144664
    18 10.954372 0.000000 0.000000 0.000000 0.000000 -2.286264
    19 10.954377 0.000000 0.000000 1.345799 0.389591 -0.497123
    20 2.428221 0.000000 0.000000 -0.097885 -0.227860 0.312140
    21 1.681022 0.975106 0.213387 0.000000 0.000001 -1.745239
  time 2
    0 0.004158 13.052372 30.767217 0.004600 -0.025670 -1.750102
    1 0.000000 0.000000 0.000000 -0.000019 -1.384237 -1.570788
    2 -0.000004 0.000006 3.319508 -0.146072 -3.259841 -0.820601
    3 16.904898 0.000000 0.000000 0.000000 0.000000 -0.755202
    4 16.597540 0.000000 0.000000 -0.147851 0.000483 -0.075432
    5 0.000005 -0.000003 -3.319508 0.048663 2.789297 -0.269442
    6 16.904898 0.000000 0.000000 0.000000 0.000000 -1.195378
    7 16.597540 0.000000 0.000000 -0.015429 0.128054 0.886167
    8 3.430373 -0.004234 0.644555 -0.123711 -0.082544 0.365441
    9 5.318531 -0.004538 0.000000 -0.105968 0.040378 0.361947
    10 5.701826 -0.005492 0.000000 -0.072812 0.012879 0.173967
    11 6.899484 -0.001818 0.000000 0.000000 -0.026147 0.465610
    12 0.050786 0.001927 2.008302 -0.526070 -1.367437 3.189709
    13 4.746895 0.000000 0.000000 -0.662153 0.243456 -0.948703
    14 10.954378 0.000000 0.000000 0.000000 0.000000 -2.510639
    15 10.954373 0.000000 0.000000 -1.396960 -0.624583 -0.414374
    16 -0.050780 0.001941 -2.008302 -0.498075 1.356861 2.184154
    17 4.746896 0.000000 -0.000003 0.719550 -0.264173 -1.144951
    18 10.954372 0.000000 0.000000 0.000000 0.000000 -2.283100
    19 10.954377 0.000000 0.000000 1.345799 0.389591 -0.497123
    20 2.428221 0.000000 0.000000 -0.097978 -0.224171 0.298793
    21 1.681022 0.975106 0.213387 0.000000 0.000001 -1.745239
  time 3
    0 0.027146 13.052372 30.861079 0.004983 -0.025670 -1.764370
    1 0.000000 0.000000 0.000000 -0.000019 -1.365236 -1.570788
    2 -0.000004 0.000006 3.319508 -0.159110 -3.268085 -0.811209
    3 16.904898 0.000000 0.000000 0.000000 0.000000 -0.740632
    4 16.597540 0.000000 0.000000 -0.157100 -0.003766 -0.079866
    5 0.000005 -0.000003 -3.319508 0.040624 2.764961 -0.276150
    6 16.904898 0.000000 0.000000 0.000000 0.000000 -1.197161
    7 16.597540 0.000000 0.000000 -0.030603 0.133368 0.883288
    8 3.418653 -0.004234 0.710964 -0.129892 -0.100756 0.362355
    9 5.318531 -0.004538 0.000000 -0.106253 0.039582 0.354514
    10 5.701826 -0.005492 0.000000 -0.063894 0.011297 0.174055
    11 6.899484 -0.001818 0.000000 0.000000 -0.026147 0.465610
    12 0.050786 0.001927 2.008302 -0.642748 -1.400719 3.308403
    13 4.746895 0.000000 0.000000 -0.672735 0.286951 -0.954277
    14 10.954378 0.000000 0.000000 0.000000 0.000000 -2.505681
    15 10.954373 0.000000 0.000000 -1.428522 -0.631391 -0.360601
    16 -0.050780 0.001941 -2.008302 -0.602768 1.390909 2.077447
    17 4.746896 0.000000 -0.000003 0.747353 -0.299863 -1.136637
    18 10.954372 0.000000 0.000000 0.000000 0.000000 -2.278470
    19 10.954377 0.000000 0.000000 1.363749 0.398944 -0.450469
    20 2.428221 0.000000 0.000000 -0.098626 -0.219783 0.285636
    21 1.681022 0.975106 0.213387 0.000000 0.000001 -1.745239
  time 4
    0 0.044387 13.052372 30.908009 0.005270 -0.025574 -1.775670
    1 0.000000 0.000000 0.000000 -0.000019 -1.350183 -1.570788
    2 -0.000004 0.000006 3.319508 -0.158726 -3.279013 -0.804363
    3 16.904898 0.000000 0.000000 0.000000 0.000000 -0.728752
    4 16.597540 0.000000 0.000000 -0.174886 -0.012004 -0.083470
    5 0.000005 -0.000003 -3.319508 0.023973 2.752218 -0.282032
    6 16.904898 0.000000 0.000000 0.000000 0.000000 -1.198516
    7 16.597540 0.000000 0.000000 -0.031028 0.134513 0.882406
    8 3.406934 -0.004234 0.761746 -0.134592 -0.115343 0.359195
    9 5.318531 -0.004538 0.000000 -0.106539 0.038785 0.347080
    10 5.701826 -0.005492 0.000000 -0.054948 0.009715 0.174172
    11 6.899484 -0.001818 0.000000 0.000000 -0.026147 0.465610
    12 0.050786 0.001927 2.008302 -0.884253 -1.439223 3.552599
    13 4.746895 0.000000 0.000000 -0.682553 0.346791 -0.959015
    14 10.954378 0.000000 0.000000 0.000000 0.000000 -2.499502
    15 10.954373 0.000000 0.000000 -1.460083 -0.636735 -0.307402
    16 -0.050780 0.001941 -2.008302 -0.817429 1.431252 1.860102
    17 4.746896 0.000000 -0.000003 0.780793 -0.350550 -1.128514
    18 10.954372 0.000000 0.000000 0.000000 0.000000 -2.273068
    19 10.954377 0.000000 0.000000 1.381790 0.407346 -0.404448
    20 2.428221 0.000000 0.000000 -0.100200 -0.215146 0.275929
    21 1.681022 0.975106 0.213387 0.000000 0.000001 -1.745239
  time 5
    0 0.067375 13.052372 30.908009 0.005366 -0.025574 -1.780266
    1 0.000000 0.000000 0.000000 -0.000019 -1.344049 -1.570788
    2 -0.000004 0.000006 3.319508 -0.153358 -3.285723 -0.801905
    3 16.904898 0.000000 0.000000 0.000000 0.000000 -0.723746
    4 16.597540 0.000000 0.000000 -0.187377 -0.017509 -0.084994
    5 0.000005 -0.000003 -3.319508 0.011819 2.750110 -0.284608
    6 16.904898 0.000000 0.000000 0.000000 0.000000 -1.199015
    7 16.597540 0.000000 0.000000 -0.025338 0.133722 0.882641
    8 3.403028 -0.004234 0.781278 -0.136159 -0.121529 0.356366
    9 5.318531 -0.004538 0.000000 -0.106788 0.038122 0.340902
    10 5.701826 -0.005492 0.000000 -0.047553 0.008405 0.174231
    11 6.899484 -0.001818 0.000000 0.000000 -0.026147 0.465610
    12 0.050786 0.001927 2.008302 -1.234670 -1.407621 3.901875
    13 4.746895 0.000000 0.000000 -0.680456 0.387290 -1.014294
    14 10.954378 0.000000 0.000000 0.000000 0.000000 -2.496146
    15 10.954373 0.000000 0.000000 -1.396960 -0.624583 -0.414374
    16 -0.050780 0.001941 -2.008302 -0.639200 1.488100 2.036221
    17 4.746896 0.000000 -0.000003 0.795985 -0.385955 -1.173048
    18 10.954372 0.000000 0.000000 0.000000 0.000000 -2.270290
    19 10.954377 0.000000 0.000000 1.345799 0.389591 -0.497123
    20 2.428221 0.000000 0.000000 -0.101960 -0.211058 0.269862
    21 1.681022 0.975106 0.213387 0.000000 0.000001 -1.745239
  time 6
    0 0.044387 13.052372 30.908009 0.005270 -0.025574 -1.775670
    1 0.000000 0.000000 0.000000 -0.000019 -1.350183 -1.570788
    2 -0.000004 0.000006 3.319508 -0.145017 -3.284190 -0.805153
    3 16.904898 0.000000 0.000000 0.000000 0.000000 -0.728752
    4 16.597540 0.000000 0.000000 -0.188150 -0.018433 -0.083262
    5 0.000005 -0.000003 -3.319508 0.010958 2.760937 -0.282178
    6 16.904898 0.000000 0.000000 0.000000 0.000000 -1.198516
    7 16.597540 0.000000 0.000000 -0.015919 0.130262 0.884404
    8 3.406934 -0.004234 0.761746 -0.133766 -0.115947 0.354749
    9 5.318531 -0.004538 0.000000 -0.106896 0.037834 0.338139
    10 5.701826 -0.005492 0.000000 -0.044230 0.007814 0.174260
    11 6.899484 -0.001818 0.000000 0.000000 -0.026147 0.465610
    12 0.050786 0.001927 2.008302 -0.821360 -1.395498 3.485678
    13 4.746895 0.000000 0.000000 -0.644041 0.334079 -0.984285
    14 10.954378 0.000000 0.000000 0.000000 0.000000 -2.505375
    15 10.954373 0.000000 0.000000 -1.396960 -0.624583 -0.414374
    16 -0.050780 0.001941 -2.008302 -0.519263 1.418815 2.158939
    17 4.746896 0.000000 -0.000003 0.744773 -0.345044 -1.131572
    18 10.954372 0.000000 0.000000 0.000000 0.000000 -2.279087
    19 10.954377 0.000000 0.000000 1.345799 0.389591 -0.497123
    20 2.428221 0.000000 0.000000 -0.108257 -0.206520 0.293875
    21 1.681022 0.975106 0.213387 0.000000 0.000001 -1.745239
  time 7
    0 0.027146 13.052372 30.861079 0.004983 -0.025670 -1.764370
    1 0.000000 0.000000 0.000000 -0.000019 -1.365236 -1.570788
    2 -0.000004 0.000006 3.319508 -0.138114 -3.276137 -0.812438
    3 16.904898 0.000000 0.000000 0.000000 0.000000 -0.740632
    4 16.597540 0.000000 0.000000 -0.177503 -0.013704 -0.079728
    5 0.000005 -0.000003 -3.319508 0.020528 2.778471 -0.276588
    6 16.904898 0.000000 0.000000 0.000000 0.000000 -1.197161
    7 16.597540 0.000000 0.000000 -0.007253 0.126719 0.886284
    8 3.418653 -0.004234 0.710964 -0.128810 -0.101590 0.355999
    9 5.318531 -0.004538 0.000000 -0.106753 0.038232 0.341831
    10 5.701826 -0.005492 0.000000 -0.048661 0.008613 0.174231
    11 6.899484 -0.001818 0.000000 0.000000 -0.026147 0.465610
    12 0.050786 0.001927 2.008302 -0.526070 -1.367437 3.189709
    13 4.746895 0.000000 0.000000 -0.615443 0.284137 -0.950003
    14 10.954378 0.000000 0.000000 0.000000 0.000000 -2.510944
    15 10.954373 0.000000 0.000000 -1.396960 -0.624583 -0.414374
    16 -0.050780 0.001941 -2.008302 -0.498075 1.356861 2.184154
    17 4.746896 0.000000 -0.000003 0.701301 -0.303944 -1.101086
    18 10.954372 0.000000 0.000000 0.000000 0.000000 -2.284412
    19 10.954377 0.000000 0.000000 1.345799 0.389591 -0.497123
    20 2.428221 0.000000 0.000000 -0.113443 -0.205673 0.327468
    21 1.681022 0.975106 0.213387 0.000000 0.000001 -1.745239
  time 8
    0 0.004158 13.052372 30.767217 0.004600 -0.025670 -1.750102
    1 0.000000 0.000000 0.000000 -0.000019 -1.384237 -1.570788
    2 -0.000004 0.000006 3.319508 -0.129390 -3.266359 -0.821478
    3 16.904898 0.000000 0.000000 0.000000 0.000000 -0.755202
    4 16.597540 0.000000 0.000000 -0.164030 -0.007460 -0.075362
    5 0.000005 -0.000003 -3.319508 0.032299 2.800124 -0.269879
    6 16.904898 0.000000 0.000000 0.000000 0.000000 -1.195378
    7 16.597540 0.000000 0.000000 0.003441 0.122604 0.888517
    8 3.430373 -0.004234 0.644555 -0.122971 -0.083148 0.360554
    9 5.318531 -0.004538 0.000000 -0.106360 0.039339 0.352128
    10 5.701826 -0.005492 0.000000 -0.061014 0.010786 0.174114
    11 6.899484 -0.001818 0.000000 0.000000 -0.026147 0.465610
    12 0.050786 0.001927 2.008302 -0.526070 -1.367437 3.189709
    13 4.746895 0.000000 0.000000 -0.598094 0.293762 -0.925755
    14 10.954378 0.000000 0.000000 0.000000 0.000000 -2.502248
    15 10.954373 0.000000 0.000000 -1.372128 -0.618119 -0.456933
    16 -0.050780 0.001941 -2.008302 -0.498075 1.356861 2.184154
    17 4.746896 0.000000 -0.000003 0.688020 -0.311158 -1.101564
    18 10.954372 0.000000 0.000000 0.000000 0.000000 -2.276849
    19 10.954377 0.000000 0.000000 1.331879 0.381585 -0.534120
    20 2.428221 0.000000 0.000000 -0.096033 -0.219683 0.268137
    21 1.681022 0.975106 0.213387 0.000000 0.000001 -1.745239
  time 9
    0 -0.013083 13.052372 30.720287 0.004312 -0.025765 -1.736695
    1 0.000000 0.000000 0.000000 -0.000019 -1.402075 -1.570788
    2 -0.000004 0.000006 3.319508 -0.121241 -3.257444 -0.829905
    3 16.904898 0.000000 0.000000 0.000000 0.000000 -0.768577
    4 16.597540 0.000000 0.000000 -0.151331 -0.001401 -0.071413
    5 0.000005 -0.000003 -3.319508 0.043208 2.820437 -0.263900
    6 16.904898 0.000000 0.000000 0.000000 0.000000 -1.193596
    7 16.597540 0.000000 0.000000 0.013350 0.118925 0.890456
    8 3.442092 -0.004234 0.585960 -0.117502 -0.065713 0.366286
    9 5.318531 -0.004538 0.000000 -0.105861 0.040666 0.364584
    10 5.701826 -0.005492 0.000000 -0.075969 0.013422 0.173909
    11 6.899484 -0.001818 0.000000 0.000000 -0.026147 0.465610
    12 0.050786 0.001927 2.008302 -0.526070 -1.367437 3.189709
    13 4.746895 0.000000 0.000000 -0.576550 0.305566 -0.895839
    14 10.954378 0.000000 0.000000 0.000000 0.000000 -2.492103
    15 10.954373 0.000000 0.000000 -1.348339 -0.610965 -0.498342
    16 -0.050780 0.001941 -2.008302 -0.498075 1.356861 2.184154
    17 4.746896 0.000000 -0.000003 0.671682 -0.319986 -1.101564
    18 10.954372 0.000000 0.000000 0.000000 0.000000 -2.267898
    19 10.954377 0.000000 0.000000 1.318600 0.373183 -0.570216
    20 2.428221 0.000000 0.000000 -0.088995 -0.229306 0.264369
    21 1.681022 0.975106 0.213387 0.000000 0.000001 -1.745239
  time 10
    0 -0.018829 13.052372 30.720287 0.004025 -0.025765 -1.727886
    1 0.000000 0.000000 0.000000 -0.000019 -1.413815 -1.570788
    2 -0.000004 0.000006 3.319508 -0.115968 -3.251789 -0.835346
    3 16.904898 0.000000 0.000000 0.000000 0.000000 -0.777169
    4 16.597540 0.000000 0.000000 -0.142973 0.002737 -0.068918
    5 0.000005 -0.000003 -3.319508 0.051438 2.832892 -0.260060
    6 16.904898 0.000000 0.000000 0.000000 0.000000 -1.192383
    7 16.597540 0.000000 0.000000 0.018452 0.117072 0.891455
    8 3.449904 -0.004234 0.542990 -0.113799 -0.054291 0.370143
    9 5.318531 -0.004538 0.000000 -0.105504 0.041529 0.372847
    10 5.701826 -0.005492 0.000000 -0.085884 0.015180 0.173792
    11 6.899484 -0.001818 0.000000 0.000000 -0.026147 0.465610
    12 0.050786 0.001927 2.008302 -0.526070 -1.367437 3.189709
    13 4.746895 0.000000 0.000000 -0.632221 0.261708 -0.919530
    14 10.954378 0.000000 0.000000 0.000000 0.000000 -2.513308
    15 10.954373 0.000000 0.000000 -1.396960 -0.624583 -0.414374
    16 -0.050780 0.001941 -2.008302 -0.498075 1.356861 2.184154
    17 4.746896 0.000000 -0.000003 0.699677 -0.280784 -1.138357
    18 10.954372 0.000000 0.000000 0.000000 0.000000 -2.288193
    19 10.954377 0.000000 0.000000 1.345799 0.389591 -0.497123
    20 2.428221 0.000000 0.000000 -0.085846 -0.235090 0.268840
    21 1.681022 0.975106 0.213387 0.000000 0.000001 -1.745239
end
