version 1
nodes
  0 "Bip02" -1
  1 "Bip02 Pelvis" 0
  2 "Bip02 L Leg" 1
  3 "Bip02 L Leg1" 2
  4 "Bip02 L Foot" 3
  5 "Bip02 R Leg" 1
  6 "Bip02 R Leg1" 5
  7 "Bip02 R Foot" 6
  8 "Bip02 Spine" 1
  9 "Bip02 Spine1" 8
  10 "Bip02 Spine2" 9
  11 "Bip02 Neck" 10
  12 "Bip02 L Arm" 11
  13 "Bip02 L Arm1" 12
  14 "Bip02 L Arm2" 13
  15 "Bip02 L Hand" 14
  16 "Bip02 R Arm" 11
  17 "Bip02 R Arm1" 16
  18 "Bip02 R Arm2" 17
  19 "Bip02 R Hand" 18
  20 "Bip02 Head" 11
  21 "Bone01" 20
end
skeleton
  time 0
    0 -0.018829 12.088588 30.532564 0.004025 -0.025765 -1.727886
    1 0.000000 0.000000 0.000000 -0.000019 -1.413815 -1.570788
    2 -0.000004 0.000006 3.319508 -0.115968 -3.251789 -0.835346
    3 16.897085 0.000000 0.000000 0.000000 0.000000 -0.777169
    4 16.589727 0.000000 0.000000 -0.142973 0.002737 -0.068918
    5 0.000005 -0.000003 -3.319508 0.051438 2.832892 -0.260060
    6 16.897085 0.000000 0.000000 0.000000 0.000000 -1.192383
    7 16.589727 0.000000 0.000000 0.018452 0.117072 0.891455
    8 3.445998 -0.004234 0.542990 -0.113799 -0.054291 0.370143
    9 5.318531 -0.004538 0.000000 -0.105504 0.041529 0.372847
    10 5.701826 -0.005492 0.000000 -0.085884 0.015180 0.173792
    11 6.899484 -0.001818 0.000000 0.000000 -0.026147 0.465610
    12 0.050786 0.001927 2.008302 -0.526070 -1.367437 3.189709
    13 4.746895 0.000000 0.000000 -0.632221 0.261708 -0.919530
    14 10.950472 0.000000 0.000000 0.000000 0.000000 -2.513308
    15 10.950467 0.000000 0.000000 -1.396960 -0.624583 -0.414374
    16 -0.050780 0.001941 -2.008302 -0.498075 1.356861 2.184154
    17 4.746896 0.000000 -0.000003 0.699677 -0.280784 -1.138357
    18 10.950466 0.000000 0.000000 0.000000 0.000000 -2.288193
    19 10.950471 0.000000 0.000000 1.345799 0.389591 -0.497123
    20 2.428221 0.000000 0.000000 -0.085846 -0.235090 0.268840
    21 1.681022 0.975106 0.213387 0.000000 0.000001 -1.745239
  time 1
    0 -0.007336 12.071377 30.532564 0.003737 -0.025861 -1.714671
    1 0.000000 0.000000 0.000000 -0.000019 -1.426400 -1.570788
    2 -0.000004 0.000006 3.319508 -0.109928 -3.248433 -0.839647
    3 16.897085 0.000000 0.000000 0.000000 0.000000 -0.783595
    4 16.589727 0.000000 0.000000 -0.132118 0.008832 -0.067186
    5 0.000005 -0.000003 -3.319508 0.057659 2.849180 -0.253255
    6 16.897085 0.000000 0.000000 0.000000 0.000000 -1.187605
    7 16.589727 0.000000 0.000000 0.031599 0.113583 0.892278
    8 3.453811 -0.004234 0.500020 -0.109270 -0.049746 0.370731
    9 5.318531 -0.004538 0.000000 -0.106325 0.039427 0.353082
    10 5.701826 -0.005492 0.000000 -0.086327 0.012400 0.141671
    11 6.899484 -0.001818 0.000000 0.000000 -0.026147 0.470655
    12 0.050786 0.001927 2.008302 -0.525399 -1.367437 3.183956
    13 4.746895 0.000000 0.000000 -0.546236 0.332263 -0.871126
    14 10.950472 0.000000 0.000000 0.000000 0.000000 -2.444276
    15 10.950467 0.000000 0.000000 -1.396960 -0.624583 -0.414374
    16 -0.050780 0.001941 -2.008302 -0.497691 1.356976 2.179456
    17 4.746896 0.000000 -0.000003 0.671109 -0.361940 -1.093918
    18 10.950466 0.000000 0.000000 0.000000 0.000000 -2.226535
    19 10.950471 0.000000 0.000000 1.345799 0.389591 -0.497123
    20 2.428221 0.000000 0.000000 -0.036950 -0.230702 0.172723
    21 1.681022 0.975106 0.213387 0.000000 0.000001 -1.745239
  time 2
    0 0.021399 12.019746 30.485634 0.003258 -0.025861 -1.698391
    1 0.000000 0.000000 0.000000 -0.000019 -1.442581 -1.570788
    2 -0.000004 0.000006 3.319508 -0.103026 -3.244216 -0.845177
    3 16.897085 0.000000 0.000000 0.000000 0.000000 -0.793832
    4 16.589727 0.000000 0.000000 -0.118318 0.017256 -0.063028
    5 0.000005 -0.000003 -3.319508 0.064836 2.869972 -0.241248
    6 16.897085 0.000000 0.000000 0.000000 0.000000 -1.175625
    7 16.589727 0.000000 0.000000 0.049749 0.109141 0.898330
    8 3.461624 -0.004234 0.445330 -0.103459 -0.044998 0.371540
    9 5.318531 -0.004538 0.000000 -0.107359 0.036507 0.325758
    10 5.701826 -0.005492 0.000000 -0.086798 0.008517 0.096812
    11 6.899484 -0.001818 0.000000 0.000000 -0.026147 0.477381
    12 0.050786 0.001927 2.008302 -0.524536 -1.367437 3.176478
    13 4.746895 0.000000 0.000000 -0.420500 0.420342 -0.793364
    14 10.950472 0.000000 0.000000 0.000000 0.000000 -2.353886
    15 10.950467 0.000000 0.000000 -1.396960 -0.624583 -0.414374
    16 -0.050780 0.001941 -2.008302 -0.497212 1.357130 2.173224
    17 4.746896 0.000000 -0.000003 0.622668 -0.469959 -1.027595
    18 10.950466 0.000000 0.000000 0.000000 0.000000 -2.145739
    19 10.950471 0.000000 0.000000 1.345799 0.389591 -0.497123
    20 2.428221 0.000000 0.000000 0.023429 -0.213900 0.058660
    21 1.681022 0.975106 0.213387 0.000000 0.000001 -1.745239
  time 3
    0 0.061628 11.933694 30.485634 0.002779 -0.025957 -1.679239
    1 0.000000 0.000000 0.000000 -0.000019 -1.461018 -1.570788
    2 -0.000004 0.000006 3.319508 -0.095069 -3.240093 -0.851409
    3 16.897085 0.000000 0.000000 0.000000 0.000000 -0.806235
    4 16.589727 0.000000 0.000000 -0.102436 0.027305 -0.057416
    5 0.000005 -0.000003 -3.319508 0.072014 2.893446 -0.232303
    6 16.897085 0.000000 0.000000 0.000000 0.000000 -1.172059
    7 16.589727 0.000000 0.000000 0.069044 0.105517 0.895275
    8 3.469436 -0.004234 0.378922 -0.096822 -0.039590 0.372458
    9 5.318531 -0.004538 0.000000 -0.108073 0.034272 0.305164
    10 5.701826 -0.005492 0.000000 -0.087048 0.005161 0.058308
    11 6.899484 -0.001818 0.000000 0.000000 -0.026147 0.485478
    12 0.050786 0.001927 2.008302 -0.523481 -1.367437 3.167370
    13 4.746895 0.000000 0.000000 -0.280847 0.496164 -0.699994
    14 10.950472 0.000000 0.000000 0.000000 0.000000 -2.248087
    15 10.950467 0.000000 0.000000 -1.396960 -0.624583 -0.414374
    16 -0.050780 0.001941 -2.008302 -0.496637 1.357283 2.165746
    17 4.746896 0.000000 -0.000003 0.563814 -0.569245 -0.948179
    18 10.950466 0.000000 0.000000 0.000000 0.000000 -2.051284
    19 10.950471 0.000000 0.000000 1.345799 0.389591 -0.497123
    20 2.428221 0.000000 0.000000 0.089643 -0.177153 -0.107965
    21 1.681022 0.975106 0.213387 0.000000 0.000001 -1.745239
  time 4
    0 0.107604 11.847642 30.438703 0.002204 -0.026053 -1.655874
    1 0.000000 0.000000 0.000000 -0.000019 -1.481677 -1.570788
    2 -0.000004 0.000006 3.319508 -0.086440 -3.236547 -0.857992
    3 16.897085 0.000000 0.000000 0.000000 0.000000 -0.819759
    4 16.589727 0.000000 0.000000 -0.083223 0.039312 -0.051180
    5 0.000005 -0.000003 -3.319508 0.078808 2.919699 -0.229047
    6 16.897085 0.000000 0.000000 0.000000 0.000000 -1.183683
    7 16.589727 0.000000 0.000000 0.090726 0.103800 0.879116
    8 3.477249 -0.004234 0.308607 -0.089359 -0.034727 0.373524
    9 5.318531 -0.004538 0.000000 -0.107645 0.035622 0.317571
    10 5.701826 -0.005492 0.000000 -0.087075 0.005001 0.056581
    11 6.899484 -0.001818 0.000000 0.000000 -0.026147 0.494634
    12 0.050786 0.001927 2.008302 -0.522331 -1.367437 3.157015
    13 4.746895 0.000000 0.000000 -0.181897 0.527672 -0.629757
    14 10.950472 0.000000 0.000000 0.000000 0.000000 -2.126956
    15 10.950467 0.000000 0.000000 -1.396960 -0.624583 -0.414374
    16 -0.050780 0.001941 -2.008302 -0.495966 1.357475 2.157213
    17 4.746896 0.000000 -0.000003 0.533908 -0.614047 -0.888258
    18 10.950466 0.000000 0.000000 0.000000 0.000000 -1.943016
    19 10.950471 0.000000 0.000000 1.345799 0.389591 -0.497123
    20 2.428221 0.000000 0.000000 0.154097 -0.108396 -0.394655
    21 1.681022 0.975106 0.213387 0.000000 0.000001 -1.745239
  time 5
    0 0.153580 11.761590 30.391773 0.001437 -0.026053 -1.628104
    1 0.000000 0.000000 0.000000 -0.000019 -1.504732 -1.570788
    2 -0.000004 0.000006 3.319508 -0.076566 -3.233191 -0.864224
    3 16.897085 0.000000 0.000000 0.000000 0.000000 -0.833059
    4 16.589727 0.000000 0.000000 -0.060411 0.052981 -0.044874
    5 0.000005 -0.000003 -3.319508 0.085986 2.948251 -0.227491
    6 16.897085 0.000000 0.000000 0.000000 0.000000 -1.199087
    7 16.589727 0.000000 0.000000 0.112572 0.103391 0.859255
    8 3.485062 -0.004234 0.230480 -0.080956 -0.026988 0.374405
    9 5.318531 -0.004538 0.000000 -0.107181 0.036971 0.330052
    10 5.701826 -0.005492 0.000000 -0.087075 0.004874 0.054970
    11 6.899484 -0.001818 0.000000 0.000000 -0.026147 0.500551
    12 0.050786 0.001927 2.008302 -0.521564 -1.367437 3.150400
    13 4.746895 0.000000 0.000000 -0.071414 0.556730 -0.548186
    14 10.950472 0.000000 0.000000 0.000000 0.000000 -1.995985
    15 10.950467 0.000000 0.000000 -1.396960 -0.624583 -0.414374
    16 -0.050780 0.001941 -2.008302 -0.495582 1.357629 2.151653
    17 4.746896 0.000000 -0.000003 0.494258 -0.660273 -0.818112
    18 10.950466 0.000000 0.000000 0.000000 0.000000 -1.825951
    19 10.950471 0.000000 0.000000 1.345799 0.389591 -0.497123
    20 2.428221 0.000000 0.000000 0.194474 -0.022985 -0.678216
    21 1.681022 0.975106 0.213387 0.000000 0.000001 -1.745239
  time 6
    0 0.182315 11.658327 30.438703 0.000767 -0.026148 -1.602727
    1 0.000000 0.000000 0.000000 -0.000019 -1.529832 -1.570788
    2 -0.000004 0.000006 3.319508 -0.064198 -3.227248 -0.867910
    3 16.897085 0.000000 0.000000 0.000000 0.000000 -0.843669
    4 16.589727 0.000000 0.000000 -0.039235 0.065136 -0.039123
    5 0.000005 -0.000003 -3.319508 0.095364 2.979102 -0.224234
    6 16.897085 0.000000 0.000000 0.000000 0.000000 -1.210354
    7 16.589727 0.000000 0.000000 0.134058 0.103473 0.834928
    8 3.488968 -0.004234 0.140634 -0.071044 -0.014070 0.330868
    9 5.318531 -0.004538 0.000000 -0.108608 0.032590 0.289619
    10 5.701826 -0.005492 0.000000 -0.087214 -0.000272 -0.004001
    11 6.899484 -0.001818 0.000000 0.000000 -0.026147 0.465610
    12 0.050786 0.001927 2.008302 -0.526070 -1.367437 3.189709
    13 4.746895 0.000000 0.000000 0.191879 0.635457 -0.352155
    14 10.950472 0.000000 0.000000 0.000000 0.000000 -1.885000
    15 10.950467 0.000000 0.000000 -1.396960 -0.624583 -0.414374
    16 -0.050780 0.001941 -2.008302 -0.498075 1.356861 2.184154
    17 4.746896 0.000000 -0.000003 0.298680 -0.793350 -0.619907
    18 10.950466 0.000000 0.000000 0.000000 0.000000 -1.726866
    19 10.950471 0.000000 0.000000 1.345799 0.389591 -0.497123
    20 2.428221 0.000000 0.000000 0.212532 0.041184 -0.720878
    21 1.681022 0.975106 0.213387 0.000000 0.000001 -1.745239
  time 7
    0 0.044387 11.675537 30.814148 0.000767 -0.026148 -1.602727
    1 0.000000 0.000000 0.000000 -0.000019 -1.554333 -1.570788
    2 -0.000004 0.000006 3.319508 -0.045983 -3.206542 -0.880462
    3 16.897085 0.000000 0.000000 0.000000 0.000000 -0.867056
    4 16.589727 0.000000 0.000000 -0.038373 0.060851 -0.064691
    5 0.000005 -0.000003 -3.319508 0.115844 3.004493 -0.204741
    6 16.897085 0.000000 0.000000 0.000000 0.000000 -1.162574
    7 16.589727 0.000000 0.000000 0.122187 0.099467 0.804491
    8 3.488968 -0.004234 0.054693 -0.063211 0.001553 0.288066
    9 5.318531 -0.004538 0.000000 -0.110000 0.027435 0.242705
    10 5.701826 -0.005492 0.000000 -0.086992 -0.005992 -0.069503
    11 6.899484 -0.001818 0.000000 0.000000 -0.026147 0.465610
    12 0.050786 0.001927 2.008302 -0.634215 -1.398767 3.299774
    13 4.746895 0.000000 0.000000 0.370140 0.704922 -0.212890
    14 10.950472 0.000000 0.000000 0.000000 0.000000 -1.885000
    15 10.950467 0.000000 0.000000 -1.396960 -0.624583 -0.414374
    16 -0.050780 0.001941 -2.008302 -0.559050 1.378357 2.121932
    17 4.746896 0.000000 -0.000003 0.126128 -0.902982 -0.466522
    18 10.950466 0.000000 0.000000 0.000000 0.000000 -1.726866
    19 10.950471 0.000000 0.000000 1.345799 0.389591 -0.497123
    20 2.428221 0.000000 0.000000 0.217348 0.035800 -0.564600
    21 1.681022 0.975106 0.213387 0.000000 0.000001 -1.745239
  time 8
    0 -0.173998 12.140219 30.626426 0.000000 -0.026148 -1.570839
    1 0.000000 0.000000 0.000000 -1.570795 -1.570796 0.000000
    2 -0.000004 0.000006 3.319508 -0.118269 -3.167143 -0.853252
    3 16.897085 0.000000 0.000000 0.000000 0.000000 -0.796746
    4 16.589727 0.000000 0.000000 0.074467 0.109544 -0.068988
    5 0.000005 -0.000003 -3.319508 0.195369 3.002960 -0.183887
    6 16.897085 0.000000 0.000000 0.000000 0.000000 -1.110444
    7 16.589727 0.000000 0.000000 0.087129 0.089220 0.866894
    8 3.488968 -0.004234 0.000004 -0.056802 0.022383 0.375214
    9 5.318531 -0.004538 0.000000 -0.108430 0.033144 0.294742
    10 5.701826 -0.005492 0.000000 -0.087186 -0.001438 -0.017383
    11 6.899484 -0.001818 0.000000 0.000000 -0.026147 0.465610
    12 0.050786 0.001927 2.008302 -1.080985 -1.455569 3.750774
    13 4.746895 0.000000 0.000000 0.095694 0.726624 -0.414960
    14 10.950472 0.000000 0.000000 0.000000 0.000000 -1.885000
    15 10.950467 0.000000 0.000000 -1.396960 -0.624583 -0.414374
    16 -0.050780 0.001941 -2.008302 -0.789050 1.427375 1.888768
    17 4.746896 0.000000 -0.000003 0.426709 -0.847739 -0.720730
    18 10.950466 0.000000 0.000000 0.000000 0.000000 -1.726866
    19 10.950471 0.000000 0.000000 1.345799 0.389591 -0.497123
    20 2.428221 0.000000 0.000000 0.210958 0.054347 -0.755110
    21 1.681022 0.975106 0.213387 0.000000 0.000001 -1.745239
  time 9
    0 -0.403877 12.673743 30.438703 0.019357 -0.027394 -1.715437
    1 0.000000 0.000000 0.000000 -0.000019 -1.551019 -1.570788
    2 -0.000004 0.000006 3.319508 0.032727 -3.184877 -0.865452
    3 16.897085 0.000000 0.000000 0.000000 0.000000 -0.807057
    4 16.589727 0.000000 0.000000 -0.180745 -0.033063 -0.076194
    5 0.000005 -0.000003 -3.319508 0.155080 2.931963 -0.257581
    6 16.897085 0.000000 0.000000 0.000000 0.000000 -1.181330
    7 16.589727 0.000000 0.000000 -0.044666 0.111894 0.862604
    8 3.488968 -0.004234 0.066413 -0.064037 0.003969 0.375103
    9 5.318531 -0.004538 0.000000 -0.110249 0.026484 0.234016
    10 5.701826 -0.005492 0.000000 -0.086826 -0.008261 -0.095563
    11 6.899484 -0.001818 0.000000 0.000000 -0.026147 0.352252
    12 0.050786 0.001927 2.008302 -2.391094 -1.417474 5.182776
    13 4.746895 0.000000 0.000000 0.250028 0.861831 -0.201741
    14 10.950472 0.000000 0.000000 0.000000 0.000000 -1.976687
    15 10.950467 0.000000 0.000000 -1.396960 -0.624583 -0.414374
    16 -0.050780 0.001941 -2.008302 -2.049784 1.453170 0.733209
    17 4.746896 0.000000 -0.000003 0.411804 -0.995529 -0.571645
    18 10.950466 0.000000 0.000000 0.000000 0.000000 -1.658417
    19 10.950471 0.000000 0.000000 1.345799 0.389591 -0.497123
    20 2.428221 0.000000 0.000000 0.214662 0.064319 -0.553232
    21 1.681022 0.975106 0.213387 0.000000 0.000001 -1.745239
  time 10
    0 -0.628009 13.224477 30.250981 0.036605 -0.026053 -1.849118
    1 0.000000 0.000000 0.000000 -0.000019 -1.493522 -1.570788
    2 -0.000004 0.000006 3.319508 0.034932 -3.177496 -0.851497
    3 16.897085 0.000000 0.000000 0.000000 0.000000 -0.790395
    4 16.589727 0.000000 0.000000 -0.309079 -0.112161 -0.074531
    5 0.000005 -0.000003 -3.319508 0.099288 2.839120 -0.341240
    6 16.897085 0.000000 0.000000 0.000000 0.000000 -1.251075
    7 16.589727 0.000000 0.000000 -0.169625 0.126610 0.857903
    8 3.481155 -0.004234 0.269544 -0.081469 -0.048480 0.415811
    9 5.318531 -0.004538 0.000000 -0.106824 0.038055 0.340274
    10 5.701826 -0.005492 0.000000 -0.087186 0.001278 0.013889
    11 6.899484 -0.001818 0.000000 0.000000 -0.026147 0.524468
    12 0.050786 0.001927 2.008302 -0.556462 -1.380151 3.162193
    13 4.746895 0.000000 0.000000 -0.212211 0.445041 -0.136057
    14 10.950472 0.000000 0.000000 0.000000 0.000000 -2.149763
    15 10.950467 0.000000 0.000000 -1.058693 -0.346550 -0.457796
    16 -0.050780 0.001941 -2.008302 -0.518687 1.367532 2.104100
    17 4.746896 0.000000 -0.000003 0.438843 -0.328813 -0.498441
    18 10.950466 0.000000 0.000000 0.000000 0.000000 -1.816845
    19 10.950471 0.000000 0.000000 1.292317 0.354635 -0.643940
    20 2.428221 0.000000 0.000000 0.085568 -0.157259 0.373132
    21 1.681022 0.975106 0.213387 0.000000 0.000001 -1.745239
  time 11
    0 -0.811912 13.723579 30.157120 0.043696 -0.024616 -1.915863
    1 0.000000 0.000000 0.000000 -0.000019 -1.576084 -1.570740
    2 -0.000004 0.000006 3.319508 -0.099191 -3.001015 -0.870982
    3 16.897085 0.000000 0.000000 0.000000 0.000000 -0.817816
    4 16.589727 0.000000 0.000000 -0.155227 -0.043444 -0.083885
    5 0.000005 -0.000003 -3.319508 0.118236 2.910788 -0.368802
    6 16.897085 0.000000 0.000000 0.000000 0.000000 -1.254997
    7 16.589727 0.000000 0.000000 -0.235195 0.121841 0.830639
    8 3.488968 -0.004234 -0.015621 -0.044781 0.080010 0.451523
    9 5.318531 -0.004538 0.000000 -0.102186 0.101997 0.448290
    10 5.701826 -0.005492 0.000000 -0.085635 0.087341 0.198476
    11 6.899484 -0.001818 0.000000 0.000000 -0.026147 0.627985
    12 0.050786 0.001927 2.008302 -0.750509 -1.426828 3.255863
    13 4.746895 0.000000 0.000000 -0.817536 0.580974 -0.350669
    14 10.950472 0.000000 0.000000 0.000000 0.000000 -2.282794
    15 10.950467 0.000000 0.000000 -0.910269 -0.211412 -0.442939
    16 -0.050780 0.001941 -2.008302 -0.692026 1.416857 1.824342
    17 4.746896 0.000000 -0.000003 0.660313 0.117119 -0.530743
    18 10.950466 0.000000 0.000000 0.000000 0.000000 -1.964624
    19 10.950471 0.000000 0.000000 1.268872 0.335215 -0.713424
    20 2.428221 0.000000 0.000000 -0.134280 -0.101316 0.202101
    21 1.681022 0.975106 0.213387 0.000000 0.000001 -1.745239
  time 12
    0 -0.564792 13.224477 30.204050 0.037947 -0.024999 -1.898434
    1 0.000000 0.000000 0.000000 -0.000019 -1.481606 -1.570788
    2 -0.000004 0.000006 3.319508 -0.054419 -3.130236 -0.850443
    3 16.897085 0.000000 0.000000 0.000000 0.000000 -0.804591
    4 16.589727 0.000000 0.000000 -0.263932 -0.087260 -0.068295
    5 0.000005 -0.000003 -3.319508 0.080435 2.814879 -0.364184
    6 16.897085 0.000000 0.000000 0.000000 0.000000 -1.266264
    7 16.589727 0.000000 0.000000 -0.215802 0.138410 0.853496
    8 3.477249 -0.004234 0.308607 -0.110380 -0.046638 0.439104
    9 5.318531 -0.004538 0.000000 -0.102043 0.049472 0.449194
    10 5.701826 -0.005492 0.000000 -0.085109 0.019031 0.218650
    11 6.899484 -0.001818 0.000000 0.000000 -0.026147 0.587375
    12 0.050786 0.001927 2.008302 -0.682152 -1.413569 3.227100
    13 4.746895 0.000000 0.000000 -0.801140 0.341615 -0.466615
    14 10.950472 0.000000 0.000000 0.000000 0.000000 -2.361208
    15 10.950467 0.000000 0.000000 -1.034619 -0.324831 -0.456838
    16 -0.050780 0.001941 -2.008302 -0.633735 1.403307 1.924050
    17 4.746896 0.000000 -0.000003 0.740187 -0.035701 -0.772527
    18 10.950466 0.000000 0.000000 0.000000 0.000000 -2.071811
    19 10.950471 0.000000 0.000000 1.288470 0.351623 -0.655130
    20 2.428221 0.000000 0.000000 0.043155 -0.195900 -0.084973
    21 1.681022 0.975106 0.213387 0.000000 0.000001 -1.745239
  time 13
    0 -0.306178 12.690953 30.297912 0.025585 -0.025957 -1.838488
    1 0.000000 0.000000 0.000000 -0.000019 -1.483651 -1.570788
    2 -0.000004 0.000006 3.319508 -0.105806 -3.138480 -0.852813
    3 16.897085 0.000000 0.000000 0.000000 0.000000 -0.817368
    4 16.589727 0.000000 0.000000 -0.177652 -0.028629 -0.058594
    5 0.000005 -0.000003 -3.319508 0.100915 2.826856 -0.314747
    6 16.897085 0.000000 0.000000 0.000000 0.000000 -1.229823
    7 16.589727 0.000000 0.000000 -0.158539 0.143751 0.860548
    8 3.477249 -0.004234 0.300795 -0.079561 -0.060247 0.414636
    9 5.318531 -0.004538 0.000000 -0.103470 0.046419 0.419484
    10 5.701826 -0.005492 0.000000 -0.085413 0.017641 0.202399
    11 6.899484 -0.001818 0.000000 0.000000 -0.026147 0.537610
    12 0.050786 0.001927 2.008302 -0.607850 -1.395134 3.201406
    13 4.746895 0.000000 0.000000 -0.705336 0.251992 -0.641185
    14 10.950472 0.000000 0.000000 0.000000 0.000000 -2.426503
    15 10.950467 0.000000 0.000000 -1.177452 -0.451265 -0.454633
    16 -0.050780 0.001941 -2.008302 -0.569404 1.384614 2.039193
    17 4.746896 0.000000 -0.000003 0.743244 -0.152168 -0.941203
    18 10.950466 0.000000 0.000000 0.000000 0.000000 -2.164260
    19 10.950471 0.000000 0.000000 1.311548 0.368506 -0.589797
    20 2.428221 0.000000 0.000000 -0.022689 -0.180344 0.288766
    21 1.681022 0.975106 0.213387 0.000000 0.000001 -1.745239
  time 14
    0 -0.099287 12.260692 30.438703 0.012841 -0.026148 -1.772510
    1 0.000000 0.000000 0.000000 -0.000019 -1.445225 -1.570788
    2 -0.000004 0.000006 3.319508 -0.067266 -3.223605 -0.845089
    3 16.897085 0.000000 0.000000 0.000000 0.000000 -0.799510
    4 16.589727 0.000000 0.000000 -0.200136 -0.029479 -0.059425
    5 0.000005 -0.000003 -3.319508 0.110772 2.805873 -0.276004
    6 16.897085 0.000000 0.000000 0.000000 0.000000 -1.204649
    7 16.589727 0.000000 0.000000 -0.097187 0.143370 0.873416
    8 3.461624 -0.004234 0.433611 -0.121689 -0.085680 0.391820
    9 5.318531 -0.004538 0.000000 -0.104683 0.043564 0.392034
    10 5.701826 -0.005492 0.000000 -0.085690 0.016203 0.185680
    11 6.899484 -0.001818 0.000000 0.000000 -0.026147 0.495070
    12 0.050786 0.001927 2.008302 -0.557804 -1.379288 3.192777
    13 4.746895 0.000000 0.000000 -0.649475 0.243093 -0.761962
    14 10.950472 0.000000 0.000000 0.000000 0.000000 -2.475779
    15 10.950467 0.000000 0.000000 -1.299812 -0.551843 -0.437475
    16 -0.050780 0.001941 -2.008302 -0.525686 1.368684 2.126438
    17 4.746896 0.000000 -0.000003 0.720123 -0.237785 -1.091147
    18 10.950466 0.000000 0.000000 0.000000 0.000000 -2.234792
    19 10.950471 0.000000 0.000000 1.330963 0.380951 -0.536737
    20 2.428221 0.000000 0.000000 0.076308 -0.213301 -0.186774
    21 1.681022 0.975106 0.213387 0.000000 0.000001 -1.745239
  time 15
    0 -0.018829 12.088588 30.532564 0.004025 -0.025765 -1.727886
    1 0.000000 0.000000 0.000000 -0.000019 -1.413815 -1.570788
    2 -0.000004 0.000006 3.319508 -0.115968 -3.251789 -0.835346
    3 16.897085 0.000000 0.000000 0.000000 0.000000 -0.777169
    4 16.589727 0.000000 0.000000 -0.142973 0.002737 -0.068918
    5 0.000005 -0.000003 -3.319508 0.051438 2.832892 -0.260060
    6 16.897085 0.000000 0.000000 0.000000 0.000000 -1.192383
    7 16.589727 0.000000 0.000000 0.018452 0.117072 0.891455
    8 3.445998 -0.004234 0.542990 -0.113799 -0.054291 0.370143
    9 5.318531 -0.004538 0.000000 -0.105504 0.041529 0.372847
    10 5.701826 -0.005492 0.000000 -0.085884 0.015180 0.173792
    11 6.899484 -0.001818 0.000000 0.000000 -0.026147 0.465610
    12 0.050786 0.001927 2.008302 -0.526070 -1.367437 3.189709
    13 4.746895 0.000000 0.000000 -0.632221 0.261708 -0.919530
    14 10.950472 0.000000 0.000000 0.000000 0.000000 -2.513308
    15 10.950467 0.000000 0.000000 -1.396960 -0.624583 -0.414374
    16 -0.050780 0.001941 -2.008302 -0.498075 1.356861 2.184154
    17 4.746896 0.000000 -0.000003 0.699677 -0.280784 -1.138357
    18 10.950466 0.000000 0.000000 0.000000 0.000000 -2.288193
    19 10.950471 0.000000 0.000000 1.345799 0.389591 -0.497123
    20 2.428221 0.000000 0.000000 -0.085846 -0.235090 0.268840
    21 1.681022 0.975106 0.213387 0.000000 0.000001 -1.745239
end
