version 1
nodes
  0 "Bip02" -1
  1 "Bip02 Pelvis" 0
  2 "Bip02 L Leg" 1
  3 "Bip02 L Leg1" 2
  4 "Bip02 L Foot" 3
  5 "Bip02 R Leg" 1
  6 "Bip02 R Leg1" 5
  7 "Bip02 R Foot" 6
  8 "Bip02 Spine" 1
  9 "Bip02 Spine1" 8
  10 "Bip02 Spine2" 9
  11 "Bip02 Neck" 10
  12 "Bip02 L Arm" 11
  13 "Bip02 L Arm1" 12
  14 "Bip02 L Arm2" 13
  15 "Bip02 L Hand" 14
  16 "Bip02 R Arm" 11
  17 "Bip02 R Arm1" 16
  18 "Bip02 R Arm2" 17
  19 "Bip02 R Hand" 18
  20 "Bip02 Head" 11
  21 "Bone01" 20
end
skeleton
  time 0
    0 -0.202733 -0.578294 36.821262 0.000000 0.000000 -1.570839
    1 0.000000 0.000000 0.000000 -1.570795 -1.570796 0.000000
    2 -0.000004 0.000006 3.319508 -0.000732 -3.100711 -0.021168
    3 16.897085 0.000000 0.000000 0.000000 0.000000 -0.157678
    4 16.589727 0.000000 0.000000 0.001600 -0.040858 0.136462
    5 0.000005 -0.000003 -3.319508 0.001962 3.115348 -0.024688
    6 16.897085 0.000000 0.000000 0.000000 0.000000 -0.164609
    7 16.589727 0.000000 0.000000 -0.002609 0.026187 0.139861
    8 3.488968 -0.004234 0.000004 -0.000004 -0.000001 0.000796
    9 5.318531 -0.004538 0.000000 0.000000 0.000000 -0.026167
    10 5.701826 -0.005492 0.000000 0.000000 0.000000 -0.026167
    11 6.899484 -0.001818 0.000000 0.000000 -0.000001 0.348889
    12 0.000003 0.001927 2.008302 -0.000013 -1.292336 2.791920
    13 4.746895 0.000000 0.000000 0.117714 1.128249 0.120920
    14 10.950472 0.000000 0.000000 0.000000 0.000000 -0.104118
    15 10.950467 0.000000 0.000000 -1.568795 0.000000 0.000000
    16 0.000003 0.001941 -2.008302 -0.000013 1.318476 2.791894
    17 4.746896 0.000000 -0.000003 -0.427069 -1.150817 0.444804
    18 10.950466 0.000000 0.000000 0.000000 0.000000 -0.363444
    19 10.950471 0.000000 0.000000 1.568795 0.000000 0.000000
    20 2.428221 0.000000 0.000000 0.000000 0.000000 -0.122909
    21 1.681022 0.975106 0.213387 0.000000 0.000001 -1.745239
  time 1
    0 -1.070526 2.209797 37.572152 0.000000 -0.126911 -1.570839
    1 0.000000 0.000000 0.000000 -0.000019 -1.469091 -1.570788
    2 -0.000004 0.000006 3.319508 -0.028534 -3.181810 -0.641983
    3 16.897085 0.000000 0.000000 0.000000 0.000000 -1.006032
    4 16.589727 0.000000 0.000000 0.004812 -0.052126 0.248576
    5 0.000005 -0.000003 -3.319508 0.017752 3.040423 0.100727
    6 16.897085 0.000000 0.000000 0.000000 0.000000 -0.001800
    7 16.589727 0.000000 0.000000 -0.007613 -0.000165 -0.024901
    8 3.469436 -0.004234 0.351578 -0.100753 -0.056852 -0.093001
    9 5.318531 -0.004538 0.000000 -0.098368 0.040157 0.153299
    10 5.701826 -0.005492 0.000000 -0.186420 0.043527 0.122697
    11 6.899484 -0.001818 0.000000 0.000000 -0.000001 0.439326
    12 0.000003 0.001927 2.008302 0.688453 -1.216191 2.044280
    13 4.746895 0.000000 0.000000 -0.658912 1.257826 -0.019925
    14 10.950472 0.000000 0.000000 0.000000 0.000000 -0.832352
    15 10.950467 0.000000 0.000000 -1.568795 0.000000 0.000000
    16 0.000003 0.001941 -2.008302 -0.792022 1.219020 1.941019
    17 4.746896 0.000000 -0.000003 0.613783 -0.784048 -0.847929
    18 10.950466 0.000000 0.000000 0.000000 0.000000 -0.823294
    19 10.950471 0.000000 0.000000 1.568795 0.000000 0.000000
    20 2.428221 0.000000 0.000000 -0.075011 -0.360089 0.065940
    21 1.681022 0.975106 0.213387 0.000000 0.000001 -1.745239
  time 2
    0 -2.484282 8.044135 34.474733 0.000000 -0.357554 -1.570839
    1 0.000000 0.000000 0.000000 -0.000019 -1.405107 -1.570788
    2 -0.000004 0.000006 3.319508 -0.094781 -3.187178 -1.112796
    3 16.897085 0.000000 0.000000 0.000000 0.000000 -1.578376
    4 16.589727 0.000000 0.000000 0.014240 -0.058813 0.249130
    5 0.000005 -0.000003 -3.319508 -0.013541 3.018290 -0.224477
    6 16.897085 0.000000 0.000000 0.000000 0.000000 -0.744604
    7 16.589727 0.000000 0.000000 0.001577 -0.044722 0.164481
    8 3.442092 -0.004234 0.574241 -0.108273 -0.084903 -0.132791
    9 5.318531 -0.004538 0.000000 -0.141469 0.088921 0.304612
    10 5.701826 -0.005492 0.000000 -0.262306 0.103049 0.243451
    11 6.899484 -0.001818 0.000000 0.000000 -0.000001 0.418647
    12 0.000003 0.001927 2.008302 0.984510 -1.093777 1.793277
    13 4.746895 0.000000 0.000000 -1.544212 1.213786 -0.616100
    14 10.950472 0.000000 0.000000 0.000000 0.000000 -1.342810
    15 10.950467 0.000000 0.000000 -1.568795 0.000000 0.000000
    16 0.000003 0.001941 -2.008302 -0.929409 1.163899 1.833929
    17 4.746896 0.000000 -0.000003 0.723467 -0.301381 -1.180693
    18 10.950466 0.000000 0.000000 0.000000 0.000000 -1.171635
    19 10.950471 0.000000 0.000000 1.568795 0.000000 0.000000
    20 2.428221 0.000000 0.000000 -0.442474 -0.480352 0.255173
    21 1.681022 0.975106 0.213387 0.000000 0.000001 -1.745239
  time 3
    0 -2.708414 14.566891 28.561480 0.000000 -0.602948 -1.570839
    1 0.000000 0.000000 0.000000 -0.000019 -1.405107 -1.570788
    2 -0.000004 0.000006 3.319508 -0.096507 -3.184110 -1.147115
    3 16.897085 0.000000 0.000000 0.000000 0.000000 -1.474518
    4 16.589727 0.000000 0.000000 0.001808 -0.060180 0.316897
    5 0.000005 -0.000003 -3.319508 -0.039093 3.039752 -0.501460
    6 16.897085 0.000000 0.000000 0.000000 0.000000 -1.243729
    7 16.589727 0.000000 0.000000 0.021297 -0.055405 0.131282
    8 3.442092 -0.004234 0.574241 -0.027662 -0.072446 -0.080069
    9 5.318531 -0.004538 0.000000 -0.108465 0.086045 0.368778
    10 5.701826 -0.005492 0.000000 -0.182099 0.093381 0.303857
    11 6.895578 -0.001818 0.000000 0.000000 -0.000001 -0.108028
    12 0.000003 0.001927 2.008302 0.984510 -1.093777 2.320019
    13 4.746895 0.000000 0.000000 -1.425244 1.028819 -0.685408
    14 10.950472 0.000000 0.000000 0.000000 0.000000 -1.376677
    15 10.950467 0.000000 0.000000 -1.568795 0.000000 0.000000
    16 0.000003 0.001941 -2.008302 -0.609671 1.266119 2.661123
    17 4.746896 0.000000 -0.000003 0.846814 -0.205607 -1.222074
    18 10.950466 0.000000 0.000000 0.000000 0.000000 -1.244019
    19 10.950471 0.000000 0.000000 1.568795 0.000000 0.000000
    20 2.428221 0.000000 0.000000 -0.145485 -0.312124 -0.100301
    21 1.681022 0.975106 0.213387 0.000000 0.000001 -1.745239
  time 4
    0 -2.742896 21.623170 22.695157 0.000000 -0.847863 -1.570839
    1 0.000000 0.000000 0.000000 -0.000019 -1.405107 -1.570788
    2 -0.000004 0.000006 3.319508 -0.096986 -3.185357 -1.142112
    3 16.897085 0.000000 0.000000 0.000000 0.000000 -1.318057
    4 16.589727 0.000000 0.000000 -0.005835 -0.058961 0.287171
    5 0.000005 -0.000003 -3.319508 -0.054118 3.053645 -0.683798
    6 16.897085 0.000000 0.000000 0.000000 0.000000 -1.378512
    7 16.589727 0.000000 0.000000 0.046577 -0.044940 -0.316055
    8 3.442092 -0.004234 0.574241 0.061437 -0.068590 -0.016913
    9 5.318531 -0.004538 0.000000 -0.068005 0.073765 0.414788
    10 5.701826 -0.005492 0.000000 -0.086355 0.066664 0.349770
    11 6.895578 -0.001818 0.000000 0.000000 -0.000001 -0.470958
    12 0.000003 0.001927 2.008302 0.984510 -1.093777 2.683005
    13 4.746895 0.000000 0.000000 -1.270624 0.846485 -0.760754
    14 10.950472 0.000000 0.000000 0.000000 0.000000 -1.335029
    15 10.950467 0.000000 0.000000 -1.568795 0.000000 0.000000
    16 0.000003 0.001941 -2.008302 -0.004998 1.318476 3.606816
    17 4.746896 0.000000 -0.000003 1.001212 -0.201906 -1.236218
    18 10.950466 0.000000 0.000000 0.000000 0.000000 -1.269794
    19 10.950471 0.000000 0.000000 1.568795 0.000000 0.000000
    20 2.428221 0.000000 0.000000 0.056953 -0.107050 -0.331940
    21 1.681022 0.975106 0.213387 0.000000 0.000001 -1.745239
  time 5
    0 -2.650945 28.834343 17.063488 0.000000 -1.069407 -1.570839
    1 0.000000 0.000000 0.000000 -0.000019 -1.405107 -1.570788
    2 -0.000004 0.000006 3.319508 -0.097274 -3.186986 -1.134388
    3 16.897085 0.000000 0.000000 0.000000 0.000000 -0.937740
    4 16.589727 0.000000 0.000000 -0.017970 -0.055488 0.121564
    5 0.000005 -0.000003 -3.319508 -0.055457 3.045405 -0.644326
    6 16.897085 0.000000 0.000000 0.000000 0.000000 -1.076498
    7 16.589727 0.000000 0.000000 0.044026 -0.036138 -0.683361
    8 3.442092 -0.004234 0.574241 0.150706 -0.075783 0.046427
    9 5.318531 -0.004538 0.000000 -0.027402 0.056884 0.449646
    10 5.701826 -0.005492 0.000000 0.008143 0.031590 0.383238
    11 6.895578 -0.001818 0.000000 0.000000 -0.000001 -0.256888
    12 0.000003 0.001927 2.008302 0.984510 -1.093777 2.468818
    13 4.746895 0.000000 0.000000 -1.119436 0.681948 -0.855518
    14 10.950472 0.000000 0.000000 0.000000 0.000000 -1.264624
    15 10.950467 0.000000 0.000000 -1.568795 0.000000 0.000000
    16 0.000003 0.001941 -2.008302 0.612426 1.265581 3.988008
    17 4.746896 0.000000 -0.000003 1.169847 -0.259142 -1.267086
    18 10.950466 0.000000 0.000000 0.000000 0.000000 -1.273035
    19 10.950471 0.000000 0.000000 1.568795 0.000000 0.000000
    20 2.428221 0.000000 0.000000 0.090014 -0.078779 -0.153820
    21 1.681022 0.975106 0.213387 0.000000 0.000001 -1.745239
  time 6
    0 -2.530258 35.770149 10.352414 0.000000 -1.280510 -1.570839
    1 0.000000 0.000000 0.000000 -0.000019 -1.405107 -1.570788
    2 -0.000004 0.000006 3.319508 -0.097369 -3.188712 -1.123767
    3 16.897085 0.000000 0.000000 0.000000 0.000000 -0.604943
    4 16.589727 0.000000 0.000000 -0.027190 -0.050648 -0.028313
    5 0.000005 -0.000003 -3.319508 -0.069908 3.056136 -0.801241
    6 16.897085 0.000000 0.000000 0.000000 0.000000 -0.726062
    7 16.589727 0.000000 0.000000 0.005698 -0.057122 -0.392325
    8 3.442092 -0.004234 0.570334 0.256924 -0.098569 0.119172
    9 5.318531 -0.004538 0.000000 0.020623 0.032967 0.476317
    10 5.701826 -0.005492 0.000000 0.117208 -0.015388 0.404583
    11 6.899484 -0.001818 0.000000 0.000000 -0.000001 0.099191
    12 0.000003 0.001927 2.008302 0.984510 -1.093777 2.112831
    13 4.746895 0.000000 0.000000 -0.937362 0.520771 -0.988745
    14 10.950472 0.000000 0.000000 0.000000 0.000000 -1.149214
    15 10.950467 0.000000 0.000000 -1.568795 0.000000 0.000000
    16 0.000003 0.001941 -2.008302 1.022859 1.111234 4.014565
    17 4.746896 0.000000 -0.000003 1.379851 -0.392979 -1.348604
    18 10.950466 0.000000 0.000000 0.000000 0.000000 -1.248264
    19 10.950471 0.000000 0.000000 1.568795 0.000000 0.000000
    20 2.428221 0.000000 0.000000 0.144559 0.055345 0.087910
    21 1.681022 0.975106 0.213387 0.000000 0.000001 -1.745239
  time 7
    0 -2.484282 42.103590 3.359758 0.000000 -1.465274 -1.570839
    1 0.000000 0.000000 0.000000 -0.000019 -1.405107 -1.570788
    2 -0.000004 0.000006 3.319508 -0.095835 -3.194943 -1.073737
    3 16.897085 0.000000 0.000000 0.000000 0.000000 -0.346492
    4 16.589727 0.000000 0.000000 -0.030997 -0.046695 -0.156919
    5 0.000005 -0.000003 -3.319508 -0.080530 3.068112 -0.939440
    6 16.897085 0.000000 0.000000 0.000000 0.000000 -0.529522
    7 16.589727 0.000000 0.000000 -0.030505 -0.049818 -0.056337
    8 3.442092 -0.004234 0.570334 0.365962 -0.135828 0.184129
    9 5.318531 -0.004538 0.000000 0.070253 0.008452 0.464087
    10 5.701826 -0.005492 0.000000 0.218353 -0.053578 0.381715
    11 6.899484 -0.001818 0.000000 0.000000 -0.000001 0.418647
    12 0.000003 0.001927 2.008302 0.984510 -1.093777 1.793277
    13 4.746895 0.000000 0.000000 -0.745088 0.450398 -1.122529
    14 10.950472 0.000000 0.000000 0.000000 0.000000 -0.960347
    15 10.950467 0.000000 0.000000 -1.568795 0.000000 0.000000
    16 0.000003 0.001941 -2.008302 1.238095 0.902457 3.878233
    17 4.746896 0.000000 -0.000003 1.575238 -0.626102 -1.490043
    18 10.950466 0.000000 0.000000 0.000000 0.000000 -1.146015
    19 10.950471 0.000000 0.000000 1.568795 0.000000 0.000000
    20 2.428221 0.000000 0.000000 0.411266 0.261566 0.281613
    21 1.681022 0.975106 0.213387 0.000000 0.000001 -1.745239
  time 8
    0 -2.484282 43.273900 3.312827 0.000000 -1.557608 -1.570839
    1 0.000000 0.000000 0.000000 -0.000019 -1.405107 -1.570788
    2 -0.000004 0.000006 3.319508 -0.072251 -3.231658 -0.704916
    3 16.897085 0.000000 0.000000 0.000000 0.000000 -1.235119
    4 16.589727 0.000000 0.000000 0.016738 -0.047471 0.132166
    5 0.000005 -0.000003 -3.319508 -0.067707 3.053836 -0.752873
    6 16.897085 0.000000 0.000000 0.000000 0.000000 -1.457884
    7 16.589727 0.000000 0.000000 0.031370 -0.046793 -0.068148
    8 3.442092 -0.004234 0.570334 0.380660 -0.110509 0.118952
    9 5.318531 -0.004538 0.000000 0.078459 0.048189 -0.057434
    10 5.701826 -0.005492 0.000000 0.043067 0.042009 -0.164050
    11 6.895578 -0.001818 0.000000 0.000000 -0.000001 -0.252901
    12 0.000003 0.001927 2.008302 0.984510 -1.093777 2.464887
    13 4.746895 0.000000 0.000000 0.384725 1.290697 0.291959
    14 10.950472 0.000000 0.000000 0.000000 0.000000 -0.002438
    15 10.950467 0.000000 0.000000 -1.568795 0.000000 0.000000
    16 0.000003 0.001941 -2.008302 1.341830 0.721778 4.625469
    17 4.746896 0.000000 -0.000003 -0.408438 -0.913423 0.125324
    18 10.950466 0.000000 0.000000 0.000000 0.000000 -0.108709
    19 10.950471 0.000000 0.000000 1.568795 0.000000 0.000000
    20 2.428221 0.000000 0.000000 -0.366259 0.405312 0.052018
    21 1.681022 0.975106 0.213387 0.000000 0.000001 -1.745239
  time 9
    0 -2.484282 44.702366 7.020343 0.000000 -1.539505 -1.570839
    1 0.000000 0.000000 0.000000 -0.000019 -1.405107 -1.570788
    2 -0.000004 0.000006 3.319508 -0.051927 -3.206734 -0.586336
    3 16.897085 0.000000 0.000000 0.000000 0.000000 -1.133502
    4 16.589727 0.000000 0.000000 -0.028498 -0.003913 0.072298
    5 0.000005 -0.000003 -3.319508 -0.037370 3.037069 -0.431266
    6 16.897085 0.000000 0.000000 0.000000 0.000000 -0.991350
    7 16.589727 0.000000 0.000000 0.031762 -0.046085 -0.214166
    8 3.442092 -0.004234 0.570334 0.401482 -0.065886 0.010422
    9 5.318531 -0.004538 0.000000 0.078530 0.040666 0.038326
    10 5.701826 -0.005492 0.000000 0.043344 0.029673 0.119681
    11 6.895578 -0.001818 0.000000 0.000000 -0.000001 -0.252901
    12 0.000003 0.001927 2.008302 0.984510 -1.093777 2.464887
    13 4.746895 0.000000 0.000000 -0.591993 1.048160 -0.741151
    14 10.950472 0.000000 0.000000 0.000000 0.000000 -0.638756
    15 10.950467 0.000000 0.000000 -1.568795 -0.011980 0.000000
    16 0.000003 0.001941 -2.008302 1.341830 0.721778 4.625469
    17 4.746896 0.000000 -0.000003 -0.308213 -1.052101 0.079452
    18 10.950466 0.000000 0.000000 0.000000 0.000000 -0.958417
    19 10.950471 0.000000 0.000000 1.568795 0.000000 0.000000
    20 2.428221 0.000000 0.000000 0.019262 0.551153 0.595638
    21 1.681022 0.975106 0.213387 0.000000 0.000001 -1.745239
  time 10
    0 -2.484282 45.494046 8.897566 0.000000 -1.508855 -1.570839
    1 0.000000 0.000000 0.000000 -0.000019 -1.405107 -1.570788
    2 -0.000004 0.000006 3.319508 -0.034287 -3.174237 -0.479165
    3 16.897085 0.000000 0.000000 0.000000 0.000000 -0.955448
    4 16.589727 0.000000 0.000000 -0.085751 0.040679 -0.018682
    5 0.000005 -0.000003 -3.319508 -0.019570 3.019535 -0.241782
    6 16.897085 0.000000 0.000000 0.000000 0.000000 -0.596343
    7 16.589727 0.000000 0.000000 0.022507 -0.037364 -0.420059
    8 3.442092 -0.004234 0.570334 0.413018 -0.033720 -0.064197
    9 5.318531 -0.004538 0.000000 0.078281 0.036728 0.088354
    10 5.701826 -0.005492 0.000000 0.042818 0.026461 0.193937
    11 6.895578 -0.001818 0.000000 0.000000 -0.000001 -0.029924
    12 0.000003 0.001927 2.008302 0.984510 -1.093777 2.241880
    13 4.746895 0.000000 0.000000 -0.624976 0.942192 -0.782959
    14 10.950472 0.000000 0.000000 0.000000 0.000000 -1.064773
    15 10.950467 0.000000 0.000000 -1.568795 -0.017409 0.000000
    16 0.000003 0.001941 -2.008302 1.341830 0.721778 4.402468
    17 4.746896 0.000000 -0.000003 -0.309073 -1.068048 0.100094
    18 10.950466 0.000000 0.000000 0.000000 0.000000 -1.406769
    19 10.950471 0.000000 0.000000 1.568795 0.000000 0.000000
    20 2.428221 0.000000 0.000000 0.348479 0.451333 0.929589
    21 1.681022 0.975106 0.213387 0.000000 0.000001 -1.745239
  time 11
    0 -2.484282 46.165253 8.193608 0.000000 -1.508855 -1.570839
    1 0.000000 0.000000 0.000000 -0.000019 -1.405107 -1.570788
    2 -0.000004 0.000006 3.319508 -0.022207 -3.144040 -0.392797
    3 16.897085 0.000000 0.000000 0.000000 0.000000 -0.782997
    4 16.589727 0.000000 0.000000 -0.138899 0.077476 -0.106266
    5 0.000005 -0.000003 -3.319508 -0.017943 2.995391 -0.195943
    6 16.897085 0.000000 0.000000 0.000000 0.000000 -0.475109
    7 16.589727 0.000000 0.000000 0.105410 -0.020877 -0.494978
    8 3.442092 -0.004234 0.570334 0.419968 -0.009553 -0.118793
    9 5.318531 -0.004538 0.000000 0.078102 0.034980 0.110605
    10 5.701826 -0.005492 0.000000 0.042928 0.027052 0.180116
    11 6.899484 -0.001818 0.000000 0.000000 -0.000001 0.183213
    12 0.000003 0.001927 2.008302 0.984510 -1.093777 2.028844
    13 4.746895 0.000000 0.000000 -0.405534 0.987231 -0.533879
    14 10.950472 0.000000 0.000000 0.000000 0.000000 -1.063476
    15 10.950467 0.000000 0.000000 -1.568795 -0.014996 0.000000
    16 0.000003 0.001941 -2.008302 1.341830 0.721778 4.189342
    17 4.746896 0.000000 -0.000003 -0.285091 -1.057227 0.068271
    18 10.950466 0.000000 0.000000 0.000000 0.000000 -1.214464
    19 10.950471 0.000000 0.000000 1.568795 0.000000 0.000000
    20 2.428221 0.000000 0.000000 -0.139373 0.536943 -0.180388
    21 1.681022 0.975106 0.213387 0.000000 0.000001 -1.745239
  time 12
    0 -2.484282 46.922512 7.020343 0.000000 -1.508855 -1.570839
    1 0.000000 0.000000 0.000000 -0.000019 -1.405107 -1.570788
    2 -0.000004 0.000006 3.319508 -0.014250 -3.118254 -0.323896
    3 16.897085 0.000000 0.000000 0.000000 0.000000 -0.634382
    4 16.589727 0.000000 0.000000 -0.184938 0.106920 -0.182903
    5 0.000005 -0.000003 -3.319508 -0.020719 2.968850 -0.186853
    6 16.897085 0.000000 0.000000 0.000000 0.000000 -0.407789
    7 16.589727 0.000000 0.000000 0.203161 -0.002400 -0.552503
    8 3.442092 -0.004234 0.570334 0.310930 -0.039647 -0.081796
    9 5.318531 -0.004538 0.000000 0.078566 0.044936 -0.016021
    10 5.701826 -0.005492 0.000000 0.042402 0.045284 -0.240649
    11 6.899484 -0.001818 0.000000 0.000000 -0.000001 0.104236
    12 0.000003 0.001927 2.008302 0.984510 -1.093777 2.107750
    13 4.746895 0.000000 0.000000 0.722372 1.062780 0.733075
    14 10.950472 0.000000 0.000000 0.000000 0.000000 -0.969806
    15 10.950467 0.000000 0.000000 -1.568795 -0.010687 0.000000
    16 0.000003 0.001941 -2.008302 1.341830 0.721778 4.268341
    17 4.746896 0.000000 -0.000003 -0.656756 -0.674416 0.314546
    18 10.950466 0.000000 0.000000 0.000000 0.000000 -0.876772
    19 10.950471 0.000000 0.000000 1.568795 0.000000 0.000000
    20 2.428221 0.000000 0.000000 -0.546286 0.194654 -0.094425
    21 1.681022 0.975106 0.213387 0.000000 0.000001 -1.745239
  time 13
    0 -2.484282 47.610930 5.565495 0.000000 -1.508855 -1.570839
    1 0.000000 0.000000 0.000000 -0.000019 -1.405107 -1.570788
    2 -0.000004 0.000006 3.319508 -0.008881 -3.095918 -0.266229
    3 16.897085 0.000000 0.000000 0.000000 0.000000 -0.506240
    4 16.589727 0.000000 0.000000 -0.225565 0.131304 -0.250254
    5 0.000005 -0.000003 -3.319508 -0.024738 2.945281 -0.190061
    6 16.897085 0.000000 0.000000 0.000000 0.000000 -0.365785
    7 16.589727 0.000000 0.000000 0.291918 0.013951 -0.597278
    8 3.442092 -0.004234 0.574241 0.175288 -0.065483 -0.016141
    9 5.318531 -0.004538 0.000000 0.078566 0.041684 0.025191
    10 5.701826 -0.005492 0.000000 0.043538 0.038030 -0.072314
    11 6.895578 -0.001818 0.000000 0.000000 -0.000001 -0.038955
    12 0.000003 0.001927 2.008302 0.984510 -1.093777 2.250988
    13 4.746895 0.000000 0.000000 0.301504 1.014018 0.483810
    14 10.950472 0.000000 0.000000 0.000000 0.000000 -0.861338
    15 10.950467 0.000000 0.000000 -1.568795 -0.006378 0.000000
    16 0.000003 0.001941 -2.008302 1.341830 0.721778 4.411480
    17 4.746896 0.000000 -0.000003 -0.450955 -0.952720 -0.064950
    18 10.950466 0.000000 0.000000 0.000000 0.000000 -0.541473
    19 10.950471 0.000000 0.000000 1.568795 0.000000 0.000000
    20 2.428221 0.000000 0.000000 -0.559344 0.598470 0.418987
    21 1.681022 0.975106 0.213387 0.000000 0.000001 -1.745239
  time 14
    0 -2.484282 48.110033 3.969855 0.000000 -1.508855 -1.570839
    1 0.000000 0.000000 0.000000 -0.000019 -1.405107 -1.570788
    2 -0.000004 0.000006 3.319508 -0.005238 -3.075979 -0.215233
    3 16.897085 0.000000 0.000000 0.000000 0.000000 -0.393789
    4 16.589727 0.000000 0.000000 -0.262623 0.152251 -0.311023
    5 0.000005 -0.000003 -3.319508 -0.028662 2.925351 -0.195700
    6 16.897085 0.000000 0.000000 0.000000 0.000000 -0.334835
    7 16.589727 0.000000 0.000000 0.367037 0.027577 -0.633533
    8 3.442092 -0.004234 0.574241 0.057933 -0.072302 0.044480
    9 5.318531 -0.004538 0.000000 0.078566 0.045467 -0.022902
    10 5.701826 -0.005492 0.000000 0.043399 0.039612 -0.108563
    11 6.895578 -0.001818 0.000000 0.000000 -0.000001 -0.165205
    12 0.000003 0.001927 2.008302 0.984510 -1.093777 2.377161
    13 4.746895 0.000000 0.000000 0.446306 0.944281 0.766150
    14 10.950472 0.000000 0.000000 0.000000 0.000000 -0.763624
    15 10.950467 0.000000 0.000000 -1.568795 -0.002586 0.000000
    16 0.000003 0.001941 -2.008302 1.341830 0.721778 4.537745
    17 4.746896 0.000000 -0.000003 -0.470541 -0.978918 -0.186320
    18 10.950466 0.000000 0.000000 0.000000 0.000000 -0.250237
    19 10.950471 0.000000 0.000000 1.568795 0.000000 0.000000
    20 2.428221 0.000000 0.000000 -0.797898 0.635416 0.564919
    21 1.681022 0.975106 0.213387 0.000000 0.000001 -1.745239
  time 15
    0 -2.484282 48.299347 3.922925 0.000000 -1.508855 -1.570839
    1 0.000000 0.000000 0.000000 -0.000019 -1.405107 -1.570788
    2 -0.000004 0.000006 3.319508 -0.002937 -3.059491 -0.171347
    3 16.897085 0.000000 0.000000 0.000000 0.000000 -0.305546
    4 16.589727 0.000000 0.000000 -0.294179 0.168729 -0.360913
    5 0.000005 -0.000003 -3.319508 -0.031150 2.910501 -0.196866
    6 16.897085 0.000000 0.000000 0.000000 0.000000 -0.306809
    7 16.589727 0.000000 0.000000 0.422600 0.037824 -0.662560
    8 3.442092 -0.004234 0.574241 -0.023048 -0.068389 0.086951
    9 5.318531 -0.004538 0.000000 0.078423 0.048875 -0.066149
    10 5.701826 -0.005492 0.000000 0.043122 0.041625 -0.155325
    11 6.895578 -0.001818 0.000000 0.000000 -0.000001 -0.252901
    12 0.000003 0.001927 2.008302 0.984510 -1.093777 2.464887
    13 4.746895 0.000000 0.000000 0.570516 0.866825 0.983549
    14 10.950472 0.000000 0.000000 0.000000 0.000000 -0.697643
    15 10.950467 0.000000 0.000000 -1.568795 0.000000 0.000000
    16 0.000003 0.001941 -2.008302 1.341830 0.721778 4.625469
    17 4.746896 0.000000 -0.000003 -0.531785 -0.986606 -0.222826
    18 10.950466 0.000000 0.000000 0.000000 0.000000 -0.042730
    19 10.950471 0.000000 0.000000 1.568795 0.000000 0.000000
    20 2.428221 0.000000 0.000000 -1.102759 0.184432 0.369747
    21 1.681022 0.975106 0.213387 0.000000 0.000001 -1.745239
end
