version 1
nodes
  0 "Bip02" -1
  1 "Bip02 Pelvis" 0
  2 "Bip02 L Leg" 1
  3 "Bip02 L Leg1" 2
  4 "Bip02 L Foot" 3
  5 "Bip02 R Leg" 1
  6 "Bip02 R Leg1" 5
  7 "Bip02 R Foot" 6
  8 "Bip02 Spine" 1
  9 "Bip02 Spine1" 8
  10 "Bip02 Spine2" 9
  11 "Bip02 Neck" 10
  12 "Bip02 L Arm" 11
  13 "Bip02 L Arm1" 12
  14 "Bip02 L Arm2" 13
  15 "Bip02 L Hand" 14
  16 "Bip02 R Arm" 11
  17 "Bip02 R Arm1" 16
  18 "Bip02 R Arm2" 17
  19 "Bip02 R Hand" 18
  20 "Bip02 Head" 11
  21 "Bone01" 20
end
skeleton
  time 0
    0 -0.202733 2.192587 36.915124 0.000000 0.000000 -1.570839
    1 2.785241 0.000000 0.000000 -1.570795 -1.570796 0.000000
    2 -0.000004 0.000006 3.319508 -0.014921 -3.103491 0.336681
    3 16.897085 0.000000 0.000000 0.000000 0.000000 -0.654780
    4 16.589727 0.000000 0.000000 0.040145 -0.007682 -0.352044
    5 0.000005 -0.000003 -3.319508 0.001962 3.115348 -0.024688
    6 16.897085 0.000000 0.000000 0.000000 0.000000 -0.373915
    7 16.589727 0.000000 0.000000 -0.023245 0.012316 -0.636471
    8 3.488968 -0.004234 0.000004 -0.000004 -0.000001 -0.356795
    9 5.318531 -0.004538 0.000000 0.000000 0.000000 -0.026167
    10 5.701826 -0.005492 0.000000 0.000000 0.000000 -0.026167
    11 6.895578 -0.001818 0.000000 0.000000 -0.000001 -0.331442
    12 0.000003 0.001927 2.008302 -0.000013 -1.370797 3.472159
    13 4.746895 0.000000 0.000000 -0.872444 -1.028706 -1.314565
    14 10.950472 0.000000 0.000000 0.000000 0.000000 -0.112737
    15 10.950467 0.000000 0.000000 -0.499401 0.390504 0.436037
    16 0.000003 0.001941 -2.008302 -0.000013 1.370795 3.472210
    17 4.746896 0.000000 -0.000003 0.833247 1.024362 -1.448949
    18 10.950466 0.000000 0.000000 0.000000 0.000000 -0.145750
    19 10.950471 0.000000 0.000000 0.385773 -0.361214 0.686984
    20 2.428221 0.000000 0.000000 0.000000 0.000000 -0.332195
    21 1.681022 0.975106 0.213387 0.000000 0.000001 -1.745239
  time 1
    0 -1.300405 2.192587 36.774332 -0.096879 0.000000 -1.570839
    1 2.781335 0.316416 0.000000 -1.570795 -1.570796 0.000000
    2 -0.000004 0.000006 3.319508 -0.014921 -3.103491 0.336681
    3 16.897085 0.000000 0.000000 0.000000 0.000000 -0.654780
    4 16.589727 0.000000 0.000000 0.040145 -0.007682 -0.352044
    5 0.000005 -0.000003 -3.319508 0.006938 3.117743 0.083568
    6 16.897085 0.000000 0.000000 0.000000 0.000000 -0.536796
    7 16.589727 0.000000 0.000000 -0.024586 0.003432 -0.610558
    8 3.488968 -0.004234 0.000004 -0.000004 0.025893 -0.356795
    9 5.318531 -0.004538 0.000000 0.000000 0.025909 -0.026167
    10 5.701826 -0.005492 0.000000 0.000000 0.000000 -0.026167
    11 6.895578 -0.001818 0.000000 0.000000 -0.000001 -0.331442
    12 0.000003 0.001927 2.008302 -0.000013 -1.370797 3.472159
    13 4.746895 0.000000 0.000000 -1.123821 -0.579045 -0.822351
    14 10.950472 0.000000 0.000000 0.000000 0.000000 -0.769116
    15 10.950467 0.000000 0.000000 -0.554847 0.300441 0.272799
    16 0.000003 0.001941 -2.008302 -0.000013 1.370795 3.472210
    17 4.746896 0.000000 -0.000003 0.924586 1.025501 -1.309326
    18 10.950466 0.000000 0.000000 0.000000 0.000000 -0.159255
    19 10.950471 0.000000 0.000000 0.392549 -0.384359 0.684457
    20 2.428221 0.000000 0.000000 0.035468 -0.037744 -0.384692
    21 1.681022 0.975106 0.213387 0.000000 0.000001 -1.745239
  time 2
    0 -4.685374 2.192587 36.492748 -0.233239 0.000000 -1.570839
    1 2.765709 0.878933 0.000000 -1.570795 -1.570796 0.000000
    2 -0.000004 0.000006 3.319508 -0.014921 -3.103491 0.336681
    3 16.897085 0.000000 0.000000 0.000000 0.000000 -0.654780
    4 16.589727 0.000000 0.000000 0.040145 -0.007682 -0.352044
    5 0.000005 -0.000003 -3.319508 0.016030 3.124259 0.283211
    6 16.897085 0.000000 0.000000 0.000000 0.000000 -0.834673
    7 16.589727 0.000000 0.000000 -0.019778 -0.012838 -0.564432
    8 3.488968 -0.004234 0.000004 0.000053 0.072041 -0.356795
    9 5.318531 -0.004538 0.000000 0.000036 0.072040 -0.026167
    10 5.701826 -0.005492 0.000000 0.000000 0.000000 -0.026167
    11 6.895578 -0.001818 0.000000 0.000000 -0.000001 -0.331442
    12 0.000003 0.001927 2.008302 -0.000013 -1.370797 3.472159
    13 4.746895 0.000000 0.000000 -1.023442 0.220846 -0.365627
    14 10.950472 0.000000 0.000000 0.000000 0.000000 -0.459577
    15 10.950467 0.000000 0.000000 -0.609061 0.141430 0.027606
    16 0.000003 0.001941 -2.008302 -0.000013 1.370795 3.472210
    17 4.746896 0.000000 -0.000003 0.878343 1.033379 -1.300821
    18 10.950466 0.000000 0.000000 0.000000 0.000000 -0.208103
    19 10.950471 0.000000 0.000000 0.441819 -0.366525 0.748797
    20 2.428221 0.000000 0.000000 0.108164 -0.095283 -0.481448
    21 1.681022 0.975106 0.213387 0.000000 0.000001 -1.596627
  time 3
    0 -8.415161 2.192587 36.445818 -0.390967 0.000000 -1.570839
    1 2.734458 1.410199 0.000000 -1.570795 -1.570796 0.000000
    2 -0.000004 0.000006 3.319508 -0.014921 -3.103491 0.336681
    3 16.897085 0.000000 0.000000 0.000000 0.000000 -0.654780
    4 16.589727 0.000000 0.000000 0.040145 -0.007682 -0.352044
    5 0.000005 -0.000003 -3.319508 0.023399 3.132211 0.475320
    6 16.897085 0.000000 0.000000 0.000000 0.000000 -1.120998
    7 16.589727 0.000000 0.000000 -0.007678 -0.024011 -0.520597
    8 3.488968 -0.004234 0.000004 0.000081 0.116089 -0.356795
    9 5.318531 -0.004538 0.000000 0.000071 0.116091 -0.026167
    10 5.701826 -0.005492 0.000000 0.000000 0.000000 -0.026167
    11 6.895578 -0.001818 0.000000 0.000000 -0.000001 -0.331442
    12 0.000003 0.001927 2.008302 -0.000013 -1.370797 3.472159
    13 4.746895 0.000000 0.000000 -0.491233 0.802990 0.270777
    14 10.950472 0.000000 0.000000 0.000000 0.000000 -0.106635
    15 10.950467 0.000000 0.000000 -0.623088 -0.006119 -0.179534
    16 0.000003 0.001941 -2.008302 -0.000013 1.370795 3.472210
    17 4.746896 0.000000 -0.000003 0.799042 1.095646 -1.337614
    18 10.950466 0.000000 0.000000 0.000000 0.000000 -0.111256
    19 10.950471 0.000000 0.000000 0.487792 -0.352257 0.741758
    20 2.428221 0.000000 0.000000 0.187899 -0.137165 -0.577182
    21 1.681022 0.975106 0.213387 0.000000 0.000001 -1.414635
  time 4
    0 -12.202419 2.192587 36.539679 -0.553295 0.000000 -1.570839
    1 2.699301 1.859432 0.000000 -1.570795 -1.570796 0.000000
    2 -0.000004 0.000006 3.319508 -0.014921 -3.103491 0.336681
    3 16.897085 0.000000 0.000000 0.000000 0.000000 -0.654780
    4 16.589727 0.000000 0.000000 0.040145 -0.007682 -0.352044
    5 0.000005 -0.000003 -3.319508 0.027705 3.138726 0.631991
    6 16.897085 0.000000 0.000000 0.000000 0.000000 -1.356762
    7 16.589727 0.000000 0.000000 0.004684 -0.027472 -0.483402
    8 3.488968 -0.004234 0.000004 0.000110 0.153577 -0.356795
    9 5.318531 -0.004538 0.000000 0.000107 0.153593 -0.026167
    10 5.701826 -0.005492 0.000000 0.000000 0.000000 -0.026167
    11 6.895578 -0.001818 0.000000 0.000000 -0.000001 -0.331442
    12 0.000003 0.001927 2.008302 -0.000013 -1.370797 3.472159
    13 4.746895 0.000000 0.000000 -0.070937 0.961079 0.684207
    14 10.950472 0.000000 0.000000 0.000000 0.000000 -0.069868
    15 10.950467 0.000000 0.000000 -0.616643 -0.096182 -0.305102
    16 0.000003 0.001941 -2.008302 -0.000013 1.370795 3.472210
    17 4.746896 0.000000 -0.000003 0.746875 1.157439 -1.356154
    18 10.950466 0.000000 0.000000 0.000000 0.000000 -0.002370
    19 10.950471 0.000000 0.000000 0.526438 -0.337434 0.729306
    20 2.428221 0.000000 0.000000 0.262262 -0.161696 -0.660462
    21 1.681022 0.975106 0.213387 0.000000 0.000001 -1.257202
  time 5
    0 -15.891977 2.192587 37.196707 -0.698087 0.000000 -1.570839
    1 2.671957 2.101627 0.000000 -1.570795 -1.570796 0.000000
    2 -0.000004 0.000006 3.319508 -0.014921 -3.103491 0.336681
    3 16.897085 0.000000 0.000000 0.000000 0.000000 -0.654780
    4 16.589727 0.000000 0.000000 0.040145 -0.007682 -0.352044
    5 0.000005 -0.000003 -3.319508 0.016604 3.121193 0.586297
    6 16.897085 0.000000 0.000000 0.000000 0.000000 -1.333870
    7 16.589727 0.000000 0.000000 -0.016115 -0.020768 -0.461661
    8 3.488968 -0.004234 0.000004 0.000110 0.174522 -0.356795
    9 5.318531 -0.004538 0.000000 0.000107 0.174523 -0.026167
    10 5.701826 -0.005492 0.000000 0.000000 0.000000 -0.026167
    11 6.895578 -0.001818 0.000000 0.000000 -0.000001 -0.331442
    12 0.000003 0.001927 2.008302 -0.000013 -1.370797 3.472159
    13 4.746895 0.000000 0.000000 -0.475408 1.006754 0.191621
    14 10.950472 0.000000 0.000000 0.000000 0.000000 -0.418005
    15 10.950467 0.000000 0.000000 -0.611620 -0.127812 -0.350057
    16 0.000003 0.001941 -2.008302 -0.000013 1.370795 3.472210
    17 4.746896 0.000000 -0.000003 0.827992 1.169019 -1.248641
    18 10.950466 0.000000 0.000000 0.000000 0.000000 -0.002370
    19 10.950471 0.000000 0.000000 0.562154 -0.316191 0.769913
    20 2.428221 0.000000 0.000000 0.305880 -0.170671 -0.707275
    21 1.681022 0.975106 0.213387 0.000000 0.000001 -1.182269
  time 6
    0 -20.012559 2.192587 38.886208 -0.841729 0.000000 -1.570839
    1 2.671957 2.101627 0.000000 -1.570795 -1.570796 0.000000
    2 -0.000004 0.000006 3.319508 0.010485 -2.904675 0.376178
    3 16.897085 0.000000 0.000000 0.000000 0.000000 -0.654780
    4 16.589727 0.000000 0.000000 -0.080754 -0.130116 -0.386759
    5 0.000005 -0.000003 -3.319508 -0.027800 3.073478 0.255406
    6 16.897085 0.000000 0.000000 0.000000 0.000000 -0.901494
    7 16.589727 0.000000 0.000000 -0.061508 0.040331 -0.476645
    8 3.488968 -0.004234 0.000004 0.000110 0.174522 -0.356795
    9 5.318531 -0.004538 0.000000 0.000107 0.174523 -0.026167
    10 5.701826 -0.005492 0.000000 0.000000 0.000000 -0.026167
    11 6.895578 -0.001818 0.000000 0.000000 -0.000001 -0.331442
    12 0.000003 0.001927 2.008302 -0.000013 -1.370797 3.472159
    13 4.746895 0.000000 0.000000 -0.883121 0.876269 -0.300128
    14 10.950472 0.000000 0.000000 0.000000 0.000000 -0.778194
    15 10.950467 0.000000 0.000000 -0.606881 -0.151772 -0.384564
    16 0.000003 0.001941 -2.008302 -0.000013 1.370795 3.472210
    17 4.746896 0.000000 -0.000003 1.188000 0.926405 -0.843820
    18 10.950466 0.000000 0.000000 0.000000 0.000000 -0.515390
    19 10.950471 0.000000 0.000000 0.605197 -0.285119 1.068872
    20 2.428221 0.000000 0.000000 0.305880 -0.170671 -0.707275
    21 1.681022 0.975106 0.213387 0.000000 0.000001 -1.290097
  time 7
    0 -24.092912 2.192587 40.528778 -0.992654 0.000000 -1.570839
    1 2.671957 2.101627 0.000000 -1.570795 -1.570796 0.000000
    2 -0.000004 0.000006 3.319508 0.029371 -2.703174 0.413657
    3 16.897085 0.000000 0.000000 0.000000 0.000000 -0.654780
    4 16.589727 0.000000 0.000000 -0.186663 -0.253881 -0.443093
    5 0.000005 -0.000003 -3.319508 -0.083976 3.043872 -0.075048
    6 16.897085 0.000000 0.000000 0.000000 0.000000 -0.468192
    7 16.589727 0.000000 0.000000 -0.032402 0.124702 -0.494273
    8 3.488968 -0.004234 0.000004 0.000110 0.174522 -0.356795
    9 5.318531 -0.004538 0.000000 0.000107 0.174523 -0.026167
    10 5.701826 -0.005492 0.000000 0.000000 0.000000 -0.026167
    11 6.895578 -0.001818 0.000000 0.000000 -0.000001 -0.331442
    12 0.000003 0.001927 2.008302 -0.000013 -1.370797 3.472159
    13 4.746895 0.000000 0.000000 -1.100656 0.684763 -0.597148
    14 10.950472 0.000000 0.000000 0.000000 0.000000 -1.101235
    15 10.950467 0.000000 0.000000 -0.602047 -0.172198 -0.414470
    16 0.000003 0.001941 -2.008302 -0.000013 1.370795 3.472210
    17 4.746896 0.000000 -0.000003 1.294436 0.848096 -0.719965
    18 10.950466 0.000000 0.000000 0.000000 0.000000 -0.598501
    19 10.950471 0.000000 0.000000 0.650712 -0.259912 1.154057
    20 2.428221 0.000000 0.000000 0.305880 -0.170671 -0.707275
    21 1.681022 0.975106 0.213387 0.000000 0.000001 -1.510263
  time 8
    0 -27.811205 2.192587 41.842835 -1.102086 0.000000 -1.570839
    1 2.671957 2.101627 0.000000 -1.570795 -1.570796 0.000000
    2 -0.000004 0.000006 3.319508 0.042410 -2.535800 0.434635
    3 16.897085 0.000000 0.000000 0.000000 0.000000 -0.654780
    4 16.589727 0.000000 0.000000 -0.261731 -0.353483 -0.505317
    5 0.000005 -0.000003 -3.319508 -0.136801 3.034770 -0.356941
    6 16.897085 0.000000 0.000000 0.000000 0.000000 -0.110482
    7 16.589727 0.000000 0.000000 0.049978 0.166125 -0.500266
    8 3.488968 -0.004234 0.000004 0.000110 0.174522 -0.356795
    9 5.318531 -0.004538 0.000000 0.000107 0.174523 -0.026167
    10 5.701826 -0.005492 0.000000 0.000000 0.000000 -0.026167
    11 6.895578 -0.001818 0.000000 0.000000 -0.000001 -0.331442
    12 0.000003 0.001927 2.008302 -0.000013 -1.370797 3.472159
    13 4.746895 0.000000 0.000000 -1.209043 0.503246 -0.762984
    14 10.950472 0.000000 0.000000 0.000000 0.000000 -1.354099
    15 10.950467 0.000000 0.000000 -0.597782 -0.188314 -0.438242
    16 0.000003 0.001941 -2.008302 -0.000013 1.370795 3.472210
    17 4.746896 0.000000 -0.000003 1.298831 0.881887 -0.717385
    18 10.950466 0.000000 0.000000 0.000000 0.000000 -0.510605
    19 10.950471 0.000000 0.000000 0.702729 -0.226224 1.168585
    20 2.428221 0.000000 0.000000 0.305880 -0.170671 -0.707275
    21 1.681022 0.975106 0.213387 0.000000 0.000001 -1.644593
  time 9
    0 -29.592768 2.192587 42.030557 -1.134379 0.000000 -1.570839
    1 2.671957 2.101627 0.000000 -1.570795 -1.570796 0.000000
    2 -0.000004 0.000006 3.319508 0.090537 -2.494580 0.284719
    3 16.897085 0.000000 0.000000 0.000000 0.000000 -0.654780
    4 16.589727 0.000000 0.000000 -0.330225 -0.382374 -0.480718
    5 0.000005 -0.000003 -3.319508 -0.170009 3.044543 -0.555126
    6 16.897085 0.000000 0.000000 0.000000 0.000000 -0.024905
    7 16.589727 0.000000 0.000000 0.105410 0.165062 -0.451613
    8 3.488968 -0.004234 0.000004 0.000110 0.174522 -0.356795
    9 5.318531 -0.004538 0.000000 0.000107 0.174523 -0.026167
    10 5.701826 -0.005492 0.000000 0.000000 0.000000 -0.026167
    11 6.895578 -0.001818 0.000000 0.000000 -0.000001 -0.331442
    12 0.000003 0.001927 2.008302 -0.000013 -1.370797 3.472159
    13 4.746895 0.000000 0.000000 -1.315141 0.360049 -0.760940
    14 10.950472 0.000000 0.000000 0.000000 0.000000 -1.421682
    15 10.950467 0.000000 0.000000 -0.595602 -0.195726 -0.449361
    16 0.000003 0.001941 -2.008302 -0.000013 1.370795 3.472210
    17 4.746896 0.000000 -0.000003 1.205771 1.032810 -0.827478
    18 10.950466 0.000000 0.000000 0.000000 0.000000 -0.219292
    19 10.950471 0.000000 0.000000 0.732126 -0.207201 1.058404
    20 2.428221 0.000000 0.000000 0.305880 -0.170671 -0.707275
    21 1.681022 0.975106 0.213387 0.000000 0.000001 -1.492036
  time 10
    0 -25.983667 2.192587 40.998084 -1.087329 0.000000 -1.570839
    1 2.671957 2.101627 0.000000 -1.570795 -1.570796 0.000000
    2 -0.000004 0.000006 3.319508 0.155537 -2.596576 -0.046534
    3 16.897085 0.000000 0.000000 0.000000 0.000000 -0.654780
    4 16.589727 0.000000 0.000000 -0.384890 -0.322561 -0.361052
    5 0.000005 -0.000003 -3.319508 -0.181014 3.063322 -0.669798
    6 16.897085 0.000000 0.000000 0.000000 0.000000 -0.221731
    7 16.589727 0.000000 0.000000 0.105476 0.166833 -0.370525
    8 3.488968 -0.004234 0.000004 0.000110 0.174522 -0.356795
    9 5.318531 -0.004538 0.000000 0.000107 0.174523 -0.026167
    10 5.701826 -0.005492 0.000000 0.000000 0.000000 -0.026167
    11 6.895578 -0.001818 0.000000 0.000000 -0.000001 -0.331442
    12 0.000003 0.001927 2.008302 -0.000013 -1.370797 3.472159
    13 4.746895 0.000000 0.000000 -1.439162 0.249994 -0.675932
    14 10.950472 0.000000 0.000000 0.000000 0.000000 -1.373397
    15 10.950467 0.000000 0.000000 -0.595602 -0.195726 -0.449361
    16 0.000003 0.001941 -2.008302 -0.000013 1.370795 3.472210
    17 4.746896 0.000000 -0.000003 1.355010 0.894986 -0.651253
    18 10.950466 0.000000 0.000000 0.000000 0.000000 -0.405038
    19 10.950471 0.000000 0.000000 0.663166 -0.263241 1.064089
    20 2.428221 0.000000 0.000000 0.305880 -0.170671 -0.707275
    21 1.681022 0.975106 0.213387 0.000000 0.000001 -1.308911
  time 11
    0 -22.150434 2.192587 39.824820 -0.994666 0.000000 -1.570839
    1 2.671957 2.101627 0.000000 -1.570795 -1.570796 0.000000
    2 -0.000004 0.000006 3.319508 0.173465 -2.716020 -0.347858
    3 16.897085 0.000000 0.000000 0.000000 0.000000 -0.654780
    4 16.589727 0.000000 0.000000 -0.388697 -0.248967 -0.252680
    5 0.000005 -0.000003 -3.319508 -0.187617 3.082197 -0.769692
    6 16.897085 0.000000 0.000000 0.000000 0.000000 -0.432107
    7 16.589727 0.000000 0.000000 0.105378 0.166452 -0.261585
    8 3.488968 -0.004234 0.000004 0.000110 0.174522 -0.356795
    9 5.318531 -0.004538 0.000000 0.000107 0.174523 -0.026167
    10 5.701826 -0.005492 0.000000 0.000000 0.000000 -0.026167
    11 6.895578 -0.001818 0.000000 0.000000 -0.000001 -0.331442
    12 0.000003 0.001927 2.008302 -0.000013 -1.370797 3.472159
    13 4.746895 0.000000 0.000000 -1.568901 0.155377 -0.576801
    14 10.950472 0.000000 0.000000 0.000000 0.000000 -1.318629
    15 10.950467 0.000000 0.000000 -0.595602 -0.195726 -0.449361
    16 0.000003 0.001941 -2.008302 -0.000013 1.370795 3.472210
    17 4.746896 0.000000 -0.000003 1.380520 0.855310 -0.621436
    18 10.950466 0.000000 0.000000 0.000000 0.000000 -0.463455
    19 10.950471 0.000000 0.000000 0.605471 -0.307789 1.025287
    20 2.428221 0.000000 0.000000 0.305880 -0.170671 -0.707275
    21 1.681022 0.975106 0.213387 0.000000 0.000001 -1.393979
  time 12
    0 -18.288466 2.192587 38.698486 -0.877280 0.000000 -1.570839
    1 2.671957 2.101627 0.000000 -1.570795 -1.570796 0.000000
    2 -0.000004 0.000006 3.319508 0.155249 -2.826164 -0.610298
    3 16.897085 0.000000 0.000000 0.000000 0.000000 -0.654780
    4 16.589727 0.000000 0.000000 -0.352680 -0.188673 -0.163155
    5 0.000005 -0.000003 -3.319508 -0.191828 3.099826 -0.859719
    6 16.897085 0.000000 0.000000 0.000000 0.000000 -0.626366
    7 16.589727 0.000000 0.000000 0.105345 0.165880 -0.158990
    8 3.488968 -0.004234 0.000004 0.000110 0.174522 -0.356795
    9 5.318531 -0.004538 0.000000 0.000107 0.174523 -0.026167
    10 5.701826 -0.005492 0.000000 0.000000 0.000000 -0.026167
    11 6.895578 -0.001818 0.000000 0.000000 -0.000001 -0.331442
    12 0.000003 0.001927 2.008302 -0.000013 -1.370797 3.472159
    13 4.746895 0.000000 0.000000 -1.702740 0.075742 -0.470238
    14 10.950472 0.000000 0.000000 0.000000 0.000000 -1.266149
    15 10.950467 0.000000 0.000000 -0.595602 -0.195726 -0.449361
    16 0.000003 0.001941 -2.008302 -0.000013 1.370795 3.472210
    17 4.746896 0.000000 -0.000003 1.347940 0.886918 -0.661383
    18 10.950466 0.000000 0.000000 0.000000 0.000000 -0.435520
    19 10.950471 0.000000 0.000000 0.557575 -0.343458 0.959594
    20 2.428221 0.000000 0.000000 0.305880 -0.170671 -0.707275
    21 1.681022 0.975106 0.213387 0.000000 0.000001 -1.501261
  time 13
    0 -14.397763 2.192587 37.712943 -0.743796 0.000000 -1.570839
    1 2.671957 2.101627 0.000000 -1.570795 -1.570796 0.000000
    2 -0.000004 0.000006 3.319508 0.115463 -2.915315 -0.829378
    3 16.897085 0.000000 0.000000 0.000000 0.000000 -0.654780
    4 16.589727 0.000000 0.000000 -0.295904 -0.153280 -0.091923
    5 0.000005 -0.000003 -3.319508 -0.194029 3.115348 -0.937447
    6 16.897085 0.000000 0.000000 0.000000 0.000000 -0.794809
    7 16.589727 0.000000 0.000000 0.105378 0.165362 -0.069735
    8 3.488968 -0.004234 0.000004 0.000110 0.174522 -0.356795
    9 5.318531 -0.004538 0.000000 0.000107 0.174523 -0.026167
    10 5.701826 -0.005492 0.000000 0.000000 0.000000 -0.026167
    11 6.895578 -0.001818 0.000000 0.000000 -0.000001 -0.331442
    12 0.000003 0.001927 2.008302 -0.000013 -1.370797 3.472159
    13 4.746895 0.000000 0.000000 -1.839152 0.012270 -0.359216
    14 10.950472 0.000000 0.000000 0.000000 0.000000 -1.217331
    15 10.950467 0.000000 0.000000 -0.595602 -0.195726 -0.449361
    16 0.000003 0.001941 -2.008302 -0.000013 1.370795 3.472210
    17 4.746896 0.000000 -0.000003 1.244275 0.991899 -0.782466
    18 10.950466 0.000000 0.000000 0.000000 0.000000 -0.291831
    19 10.950471 0.000000 0.000000 0.518746 -0.372787 0.848601
    20 2.428221 0.000000 0.000000 0.305880 -0.170671 -0.707275
    21 1.681022 0.975106 0.213387 0.000000 0.000001 -1.459323
  time 14
    0 -10.351892 2.192587 37.337499 -0.610790 0.000000 -1.570839
    1 2.671957 2.101627 0.000000 -1.570795 -1.570796 0.000000
    2 -0.000004 0.000006 3.319508 0.066761 -2.958740 -0.877828
    3 16.897085 0.000000 0.000000 0.000000 0.000000 -0.654780
    4 16.589727 0.000000 0.000000 -0.242012 -0.159857 -0.040162
    5 0.000005 -0.000003 -3.319508 -0.194890 3.124929 -0.984794
    6 16.897085 0.000000 0.000000 0.000000 0.000000 -0.897501
    7 16.589727 0.000000 0.000000 0.105410 0.165062 -0.015323
    8 3.488968 -0.004234 0.000004 0.000110 0.174522 -0.356795
    9 5.318531 -0.004538 0.000000 0.000107 0.174523 -0.026167
    10 5.701826 -0.005492 0.000000 0.000000 0.000000 -0.026167
    11 6.895578 -0.001818 0.000000 0.000000 -0.000001 -0.331442
    12 0.000003 0.001927 2.008302 -0.000013 -1.370797 3.472159
    13 4.746895 0.000000 0.000000 -1.974707 -0.034767 -0.247451
    14 10.950472 0.000000 0.000000 0.000000 0.000000 -1.173242
    15 10.950467 0.000000 0.000000 -0.595602 -0.195726 -0.449361
    16 0.000003 0.001941 -2.008302 -0.000013 1.370795 3.472210
    17 4.746896 0.000000 -0.000003 1.137171 1.044580 -0.900491
    18 10.950466 0.000000 0.000000 0.000000 0.000000 -0.238044
    19 10.950471 0.000000 0.000000 0.481839 -0.407188 0.780019
    20 2.428221 0.000000 0.000000 0.305880 -0.170671 -0.707275
    21 1.681022 0.975106 0.213387 0.000000 0.000001 -1.378483
  time 15
    0 -4.955482 2.192587 38.323041 -0.440317 0.000000 -1.570839
    1 2.671957 2.101627 0.000000 -1.570795 -1.570796 0.000000
    2 -0.000004 0.000006 3.319508 0.009047 -2.950784 -0.591865
    3 16.897085 0.000000 0.000000 0.000000 0.000000 -0.654780
    4 16.589727 0.000000 0.000000 -0.191690 -0.214645 0.000304
    5 0.000005 -0.000003 -3.319508 -0.194890 3.124929 -0.984794
    6 16.897085 0.000000 0.000000 0.000000 0.000000 -0.897501
    7 16.589727 0.000000 0.000000 0.071301 0.182285 -0.212109
    8 3.488968 -0.004234 0.000004 0.000110 0.174522 -0.356795
    9 5.318531 -0.004538 0.000000 0.000107 0.174523 -0.026167
    10 5.701826 -0.005492 0.000000 0.000000 0.000000 -0.026167
    11 6.895578 -0.001818 0.000000 0.000000 -0.000001 -0.331442
    12 0.000003 0.001927 2.008302 -0.000013 -1.370797 3.472159
    13 4.746895 0.000000 0.000000 -2.102636 -0.064550 -0.140981
    14 10.950472 0.000000 0.000000 0.000000 0.000000 -1.134416
    15 10.950467 0.000000 0.000000 -0.595602 -0.195726 -0.449361
    16 0.000003 0.001941 -2.008302 -0.000013 1.370795 3.472210
    17 4.746896 0.000000 -0.000003 1.145196 0.923747 -0.877746
    18 10.950466 0.000000 0.000000 0.000000 0.000000 -0.556907
    19 10.950471 0.000000 0.000000 0.431288 -0.461564 0.876123
    20 2.428221 0.000000 0.000000 0.305880 -0.170671 -0.707275
    21 1.681022 0.975106 0.213387 0.000000 0.000001 -1.352062
  time 16
    0 0.211050 2.192587 39.214722 -0.250871 0.000000 -1.570839
    1 2.671957 2.101627 0.000000 -1.570795 -1.570796 0.000000
    2 -0.000004 0.000006 3.319508 -0.041669 -2.952893 -0.315382
    3 16.897085 0.000000 0.000000 0.000000 0.000000 -0.654780
    4 16.589727 0.000000 0.000000 -0.138274 -0.253881 0.028852
    5 0.000005 -0.000003 -3.319508 -0.194890 3.124929 -0.984794
    6 16.897085 0.000000 0.000000 0.000000 0.000000 -0.897501
    7 16.589727 0.000000 0.000000 0.034869 0.192505 -0.406956
    8 3.488968 -0.004234 0.000004 0.000110 0.174522 -0.356795
    9 5.318531 -0.004538 0.000000 0.000107 0.174523 -0.026167
    10 5.701826 -0.005492 0.000000 0.000000 0.000000 -0.026167
    11 6.895578 -0.001818 0.000000 0.000000 -0.000001 -0.331442
    12 0.000003 0.001927 2.008302 -0.000013 -1.370797 3.472159
    13 4.746895 0.000000 0.000000 -2.196628 -0.066911 -0.055415
    14 10.950472 0.000000 0.000000 0.000000 0.000000 -1.096658
    15 10.950467 0.000000 0.000000 -0.595602 -0.195726 -0.449361
    16 0.000003 0.001941 -2.008302 -0.000013 1.370795 3.472210
    17 4.746896 0.000000 -0.000003 0.966339 0.983641 -1.070887
    18 10.950466 0.000000 0.000000 0.000000 0.000000 -0.508059
    19 10.950471 0.000000 0.000000 0.392366 -0.502307 0.808986
    20 2.428221 0.000000 0.000000 0.305880 -0.170671 -0.707275
    21 1.681022 0.975106 0.213387 0.000000 0.000001 -1.424912
  time 17
    0 2.992586 2.192587 39.355514 -0.174498 0.000000 -1.570839
    1 2.671957 2.101627 0.000000 -1.570795 -1.570796 0.000000
    2 -0.000004 0.000006 3.319508 -0.067745 -2.959028 -0.167397
    3 16.897085 0.000000 0.000000 0.000000 0.000000 -0.654780
    4 16.589727 0.000000 0.000000 -0.106510 -0.269360 0.042087
    5 0.000005 -0.000003 -3.319508 -0.194890 3.124929 -0.984794
    6 16.897085 0.000000 0.000000 0.000000 0.000000 -0.897501
    7 16.589727 0.000000 0.000000 -0.009379 0.195366 -0.635825
    8 3.488968 -0.004234 0.000004 0.000110 0.174522 -0.356795
    9 5.318531 -0.004538 0.000000 0.000107 0.174523 -0.026167
    10 5.701826 -0.005492 0.000000 0.000000 0.000000 -0.026167
    11 6.895578 -0.001818 0.000000 0.000000 -0.000001 -0.331442
    12 0.000003 0.001927 2.008302 -0.000013 -1.370797 3.472159
    13 4.746895 0.000000 0.000000 -2.020273 0.118056 -0.084216
    14 10.950472 0.000000 0.000000 0.000000 0.000000 -0.985367
    15 10.950467 0.000000 0.000000 -0.595602 -0.195726 -0.449361
    16 0.000003 0.001941 -2.008302 -0.000013 1.370795 3.472210
    17 4.746896 0.000000 -0.000003 0.612732 1.161236 -1.462520
    18 10.950466 0.000000 0.000000 0.000000 0.000000 -0.026678
    19 10.950471 0.000000 0.000000 0.371303 -0.537263 0.535474
    20 2.428221 0.000000 0.000000 0.305880 -0.170671 -0.707275
    21 1.681022 0.975106 0.213387 0.000000 0.000001 -1.545484
  time 18
    0 0.055881 2.192587 38.745416 -0.204299 0.000000 -1.570839
    1 2.695395 1.878964 0.000000 -1.570795 -1.570796 0.000000
    2 -0.000004 0.000006 3.319508 -0.067745 -2.959028 -0.167397
    3 16.897085 0.000000 0.000000 0.000000 0.000000 -0.654780
    4 16.589727 0.000000 0.000000 -0.106510 -0.269360 0.042087
    5 0.000005 -0.000003 -3.319508 -0.185033 3.077790 -0.740672
    6 16.897085 0.000000 0.000000 0.000000 0.000000 -0.897501
    7 16.589727 0.000000 0.000000 -0.057714 0.187000 -0.640349
    8 3.488968 -0.004234 0.000004 0.000110 0.155476 -0.356795
    9 5.318531 -0.004538 0.000000 0.000107 0.155496 -0.026167
    10 5.701826 -0.005492 0.000000 0.000000 0.000000 -0.026167
    11 6.895578 -0.001818 0.000000 0.000000 -0.000001 -0.331442
    12 0.000003 0.001927 2.008302 -0.000013 -1.370797 3.472159
    13 4.746895 0.000000 0.000000 -1.587776 0.461295 -0.098244
    14 10.950472 0.000000 0.000000 0.000000 0.000000 -0.806035
    15 10.950467 0.000000 0.000000 -0.595602 -0.195726 -0.449361
    16 0.000003 0.001941 -2.008302 -0.000013 1.370795 3.472210
    17 4.746896 0.000000 -0.000003 0.859139 1.004144 -1.194646
    18 10.950466 0.000000 0.000000 0.000000 0.000000 -0.450028
    19 10.950471 0.000000 0.000000 0.414162 -0.481460 0.793736
    20 2.428221 0.000000 0.000000 0.227071 -0.214199 -0.457051
    21 1.681022 0.975106 0.213387 0.000000 0.000001 -1.662456
  time 19
    0 -2.875077 2.192587 38.182249 -0.276839 0.000000 -1.570839
    1 2.714927 1.648488 0.000000 -1.570795 -1.570796 0.000000
    2 -0.000004 0.000006 3.319508 -0.067745 -2.959028 -0.167397
    3 16.897085 0.000000 0.000000 0.000000 0.000000 -0.654780
    4 16.589727 0.000000 0.000000 -0.106510 -0.269360 0.042087
    5 0.000005 -0.000003 -3.319508 -0.163310 3.033524 -0.489210
    6 16.897085 0.000000 0.000000 0.000000 0.000000 -0.897501
    7 16.589727 0.000000 0.000000 -0.100000 0.168387 -0.624073
    8 3.488968 -0.004234 0.000004 0.000081 0.135998 -0.356795
    9 5.318531 -0.004538 0.000000 0.000107 0.136004 -0.026167
    10 5.701826 -0.005492 0.000000 0.000000 0.000000 -0.026167
    11 6.895578 -0.001818 0.000000 0.000000 -0.000001 -0.331442
    12 0.000003 0.001927 2.008302 -0.000013 -1.370797 3.472159
    13 4.746895 0.000000 0.000000 -1.045462 0.759676 0.094999
    14 10.950472 0.000000 0.000000 0.000000 0.000000 -0.632196
    15 10.950467 0.000000 0.000000 -0.595602 -0.195726 -0.449361
    16 0.000003 0.001941 -2.008302 -0.000013 1.370795 3.472210
    17 4.746896 0.000000 -0.000003 0.992136 0.930771 -1.057985
    18 10.950466 0.000000 0.000000 0.000000 0.000000 -0.568173
    19 10.950471 0.000000 0.000000 0.444017 -0.447376 0.879462
    20 2.428221 0.000000 0.000000 0.144281 -0.231301 -0.195013
    21 1.681022 0.975106 0.213387 0.000000 0.000001 -1.724503
  time 20
    0 -5.811781 2.192587 37.619082 -0.362699 0.000000 -1.570839
    1 2.734458 1.433637 0.000000 -1.570795 -1.570796 0.000000
    2 -0.000004 0.000006 3.319508 -0.067745 -2.959028 -0.167397
    3 16.897085 0.000000 0.000000 0.000000 0.000000 -0.654780
    4 16.589727 0.000000 0.000000 -0.106510 -0.269360 0.042087
    5 0.000005 -0.000003 -3.319508 -0.133739 2.998552 -0.254810
    6 16.897085 0.000000 0.000000 0.000000 0.000000 -0.897501
    7 16.589727 0.000000 0.000000 -0.133782 0.143124 -0.605798
    8 3.488968 -0.004234 0.000004 0.000081 0.117988 -0.356795
    9 5.318531 -0.004538 0.000000 0.000071 0.117994 -0.026167
    10 5.701826 -0.005492 0.000000 0.000000 0.000000 -0.026167
    11 6.895578 -0.001818 0.000000 0.000000 -0.000001 -0.331442
    12 0.000003 0.001927 2.008302 -0.000013 -1.370797 3.472159
    13 4.746895 0.000000 0.000000 -0.337471 0.892522 0.525617
    14 10.950472 0.000000 0.000000 0.000000 0.000000 -0.472392
    15 10.950467 0.000000 0.000000 -0.595602 -0.195726 -0.449361
    16 0.000003 0.001941 -2.008302 -0.000013 1.370795 3.472210
    17 4.746896 0.000000 -0.000003 1.099622 0.881508 -0.951715
    18 10.950466 0.000000 0.000000 0.000000 0.000000 -0.595491
    19 10.950471 0.000000 0.000000 0.470667 -0.421693 0.914023
    20 2.428221 0.000000 0.000000 0.073900 -0.224270 0.048505
    21 1.681022 0.975106 0.213387 0.000000 0.000001 -1.713882
  time 21
    0 -8.748486 2.192587 37.055915 -0.449612 0.000000 -1.570839
    1 2.746178 1.234413 0.000000 -1.570795 -1.570796 0.000000
    2 -0.000004 0.000006 3.319508 -0.067745 -2.959028 -0.167397
    3 16.897085 0.000000 0.000000 0.000000 0.000000 -0.654780
    4 16.589727 0.000000 0.000000 -0.106510 -0.269360 0.042087
    5 0.000005 -0.000003 -3.319508 -0.100053 2.973354 -0.038396
    6 16.897085 0.000000 0.000000 0.000000 0.000000 -0.897501
    7 16.589727 0.000000 0.000000 -0.159095 0.114265 -0.587230
    8 3.488968 -0.004234 0.000004 0.000053 0.101502 -0.356795
    9 5.318531 -0.004538 0.000000 0.000071 0.101488 -0.026167
    10 5.701826 -0.005492 0.000000 0.000000 0.000000 -0.026167
    11 6.895578 -0.001818 0.000000 0.000000 -0.000001 -0.331442
    12 0.000003 0.001927 2.008302 -0.000013 -1.370797 3.472159
    13 4.746895 0.000000 0.000000 0.342876 0.806350 0.965804
    14 10.950472 0.000000 0.000000 0.000000 0.000000 -0.326165
    15 10.950467 0.000000 0.000000 -0.595602 -0.195726 -0.449361
    16 0.000003 0.001941 -2.008302 -0.000013 1.370795 3.472210
    17 4.746896 0.000000 -0.000003 1.174528 0.866225 -0.884054
    18 10.950466 0.000000 0.000000 0.000000 0.000000 -0.539235
    19 10.950471 0.000000 0.000000 0.496675 -0.398072 0.907977
    20 2.428221 0.000000 0.000000 0.020096 -0.201983 0.269989
    21 1.681022 0.975106 0.213387 0.000000 0.000001 -1.663063
  time 22
    0 -11.530022 2.192587 36.586609 -0.523589 0.000000 -1.570839
    1 2.757897 1.062532 0.000000 -1.570795 -1.570796 0.000000
    2 -0.000004 0.000006 3.319508 -0.067745 -2.959028 -0.167397
    3 16.897085 0.000000 0.000000 0.000000 0.000000 -0.654780
    4 16.589727 0.000000 0.000000 -0.106510 -0.269360 0.042087
    5 0.000005 -0.000003 -3.319508 -0.067898 2.958024 0.145011
    6 16.897085 0.000000 0.000000 0.000000 0.000000 -0.897501
    7 16.589727 0.000000 0.000000 -0.174302 0.089193 -0.555441
    8 3.488968 -0.004234 0.000004 0.000053 0.087261 -0.356795
    9 5.318531 -0.004538 0.000000 0.000036 0.087262 -0.026167
    10 5.701826 -0.005492 0.000000 0.000000 0.000000 -0.026167
    11 6.895578 -0.001818 0.000000 0.000000 -0.000001 -0.331442
    12 0.000003 0.001927 2.008302 -0.000013 -1.370797 3.472159
    13 4.746895 0.000000 0.000000 0.814553 0.593596 1.189892
    14 10.950472 0.000000 0.000000 0.000000 0.000000 -0.200000
    15 10.950467 0.000000 0.000000 -0.595602 -0.195726 -0.449361
    16 0.000003 0.001941 -2.008302 -0.000013 1.370795 3.472210
    17 4.746896 0.000000 -0.000003 1.198892 0.909604 -0.874784
    18 10.950466 0.000000 0.000000 0.000000 0.000000 -0.379341
    19 10.950471 0.000000 0.000000 0.523233 -0.372390 0.855549
    20 2.428221 0.000000 0.000000 -0.014632 -0.173862 0.454496
    21 1.681022 0.975106 0.213387 0.000000 0.000001 -1.596040
  time 23
    0 -13.547211 2.192587 36.398887 -0.570927 0.000000 -1.570839
    1 2.757897 1.062532 0.000000 -1.570795 -1.570796 0.000000
    2 -0.000004 0.000006 3.319508 -0.047133 -2.952797 -0.278693
    3 16.897085 0.000000 0.000000 0.000000 0.000000 -0.654780
    4 16.589727 0.000000 0.000000 -0.106510 -0.269360 -0.067463
    5 0.000005 -0.000003 -3.319508 -0.074788 2.960706 0.107144
    6 16.897085 0.000000 0.000000 0.000000 0.000000 -0.897501
    7 16.589727 0.000000 0.000000 -0.158539 0.115001 -0.438510
    8 3.488968 -0.004234 0.000004 0.000053 0.087261 -0.356795
    9 5.318531 -0.004538 0.000000 0.000036 0.087262 -0.026167
    10 5.701826 -0.005492 0.000000 0.000000 0.000000 -0.026167
    11 6.895578 -0.001818 0.000000 0.000000 -0.000001 -0.331442
    12 0.000003 0.001927 2.008302 -0.000013 -1.370797 3.472159
    13 4.746895 0.000000 0.000000 1.013023 0.502157 1.091320
    14 10.950472 0.000000 0.000000 0.000000 0.000000 -0.200000
    15 10.950467 0.000000 0.000000 -0.595602 -0.195726 -0.449361
    16 0.000003 0.001941 -2.008302 -0.000013 1.370795 3.472210
    17 4.746896 0.000000 -0.000003 1.147298 0.991994 -0.937667
    18 10.950466 0.000000 0.000000 0.000000 0.000000 -0.206405
    19 10.950471 0.000000 0.000000 0.547960 -0.349324 0.799782
    20 2.428221 0.000000 0.000000 -0.008057 -0.174311 0.416624
    21 1.681022 0.975106 0.213387 0.000000 0.000001 -1.536846
  time 24
    0 -15.144870 2.192587 36.633540 -0.607724 0.000000 -1.570839
    1 2.757897 1.062532 0.000000 -1.570795 -1.570796 0.000000
    2 -0.000004 0.000006 3.319508 -0.006772 -2.947141 -0.489874
    3 16.897085 0.000000 0.000000 0.000000 0.000000 -0.654780
    4 16.589727 0.000000 0.000000 -0.106510 -0.269360 -0.274853
    5 0.000005 -0.000003 -3.319508 -0.128284 2.993570 -0.216699
    6 16.897085 0.000000 0.000000 0.000000 0.000000 -0.897501
    7 16.589727 0.000000 0.000000 -0.079397 0.178933 -0.231911
    8 3.488968 -0.004234 0.000004 0.000053 0.087261 -0.356795
    9 5.318531 -0.004538 0.000000 0.000036 0.087262 -0.026167
    10 5.701826 -0.005492 0.000000 0.000000 0.000000 -0.026167
    11 6.895578 -0.001818 0.000000 0.000000 -0.000001 -0.331442
    12 0.000003 0.001927 2.008302 -0.000013 -1.370797 3.472159
    13 4.746895 0.000000 0.000000 0.806736 0.620928 0.682163
    14 10.950472 0.000000 0.000000 0.000000 0.000000 -0.200000
    15 10.950467 0.000000 0.000000 -0.595602 -0.195726 -0.449361
    16 0.000003 0.001941 -2.008302 -0.000013 1.370795 3.472210
    17 4.746896 0.000000 -0.000003 1.163923 0.958962 -0.917215
    18 10.950466 0.000000 0.000000 0.000000 0.000000 -0.281799
    19 10.950471 0.000000 0.000000 0.568473 -0.330696 0.861505
    20 2.428221 0.000000 0.000000 0.047785 -0.167879 0.090720
    21 1.681022 0.975106 0.213387 0.000000 0.000001 -1.509454
  time 25
    0 -16.811493 2.192587 36.868193 -0.645479 0.000000 -1.570839
    1 2.757897 1.062532 0.000000 -1.570795 -1.570796 0.000000
    2 -0.000004 0.000006 3.319508 0.039246 -2.950976 -0.729844
    3 16.897085 0.000000 0.000000 0.000000 0.000000 -0.654780
    4 16.589727 0.000000 0.000000 -0.106510 -0.269360 -0.510375
    5 0.000005 -0.000003 -3.319508 -0.173167 3.050387 -0.588716
    6 16.897085 0.000000 0.000000 0.000000 0.000000 -0.897501
    7 16.589727 0.000000 0.000000 0.037780 0.191960 0.010590
    8 3.488968 -0.004234 0.000004 0.000053 0.087261 -0.356795
    9 5.318531 -0.004538 0.000000 0.000036 0.087262 -0.026167
    10 5.701826 -0.005492 0.000000 0.000000 0.000000 -0.026167
    11 6.895578 -0.001818 0.000000 0.000000 -0.000001 -0.331442
    12 0.000003 0.001927 2.008302 -0.000013 -1.370797 3.472159
    13 4.746895 0.000000 0.000000 0.480242 0.653254 0.156038
    14 10.950472 0.000000 0.000000 0.000000 0.000000 -0.200000
    15 10.950467 0.000000 0.000000 -0.595602 -0.195726 -0.449361
    16 0.000003 0.001941 -2.008302 -0.000013 1.370795 3.472210
    17 4.746896 0.000000 -0.000003 1.169464 0.938459 -0.909761
    18 10.950466 0.000000 0.000000 0.000000 0.000000 -0.331650
    19 10.950471 0.000000 0.000000 0.590727 -0.311276 0.912399
    20 2.428221 0.000000 0.000000 0.106127 -0.138760 -0.286212
    21 1.681022 0.975106 0.213387 0.000000 0.000001 -1.532193
  time 26
    0 -19.133272 2.192587 37.055915 -0.698087 0.000000 -1.570839
    1 2.757897 1.062532 0.000000 -1.570795 -1.570796 0.000000
    2 -0.000004 0.000006 3.319508 0.066761 -2.958740 -0.877828
    3 16.897085 0.000000 0.000000 0.000000 0.000000 -0.654780
    4 16.589727 0.000000 0.000000 -0.106510 -0.269360 -0.656026
    5 0.000005 -0.000003 -3.319508 -0.189149 3.091587 -0.813393
    6 16.897085 0.000000 0.000000 0.000000 0.000000 -0.897501
    7 16.589727 0.000000 0.000000 0.105410 0.165062 0.159193
    8 3.488968 -0.004234 0.000004 0.000053 0.087261 -0.356795
    9 5.318531 -0.004538 0.000000 0.000036 0.087262 -0.026167
    10 5.701826 -0.005492 0.000000 0.000000 0.000000 -0.026167
    11 6.895578 -0.001818 0.000000 0.000000 -0.000001 -0.331442
    12 0.000003 0.001927 2.008302 -0.000013 -1.370797 3.472159
    13 4.746895 0.000000 0.000000 0.293497 0.606127 -0.156868
    14 10.950472 0.000000 0.000000 0.000000 0.000000 -0.200000
    15 10.950467 0.000000 0.000000 -0.595602 -0.195726 -0.449361
    16 0.000003 0.001941 -2.008302 -0.000013 1.370795 3.472210
    17 4.746896 0.000000 -0.000003 1.122839 0.996645 -0.965285
    18 10.950466 0.000000 0.000000 0.000000 0.000000 -0.212656
    19 10.950471 0.000000 0.000000 0.621864 -0.285911 0.890110
    20 2.428221 0.000000 0.000000 0.134650 -0.111288 -0.514147
    21 1.681022 0.975106 0.213387 0.000000 0.000001 -1.589040
  time 27
    0 -25.736547 2.192587 36.492748 -0.872585 0.000000 -1.570839
    1 2.757897 1.062532 0.000000 -1.570795 -1.570796 0.000000
    2 -0.000004 0.000006 3.319508 0.066761 -2.958740 -0.877828
    3 16.897085 0.000000 0.000000 0.000000 0.000000 -0.654780
    4 16.589727 0.000000 0.000000 -0.106510 -0.269360 -0.656026
    5 0.000005 -0.000003 -3.319508 -0.189149 3.091587 -0.813393
    6 16.897085 0.000000 0.000000 0.000000 0.000000 -0.897501
    7 16.589727 0.000000 0.000000 0.105410 0.165062 0.159193
    8 3.488968 -0.004234 0.000004 0.000053 0.087261 -0.356795
    9 5.318531 -0.004538 0.000000 0.000036 0.087262 -0.026167
    10 5.701826 -0.005492 0.000000 0.000000 0.000000 -0.026167
    11 6.895578 -0.001818 0.000000 0.000000 -0.000001 -0.331442
    12 0.000003 0.001927 2.008302 -0.000013 -1.370797 3.472159
    13 4.746895 0.000000 0.000000 0.293497 0.606127 -0.156868
    14 10.950472 0.000000 0.000000 0.000000 0.000000 -0.200000
    15 10.950467 0.000000 0.000000 -0.595602 -0.195726 -0.449361
    16 0.000003 0.001941 -2.008302 -0.000013 1.370795 3.472210
    17 4.746896 0.000000 -0.000003 1.121024 1.080080 -0.969012
    18 10.950466 0.000000 0.000000 0.000000 0.000000 -0.002370
    19 10.950471 0.000000 0.000000 0.690274 -0.241840 0.870438
    20 2.428221 0.000000 0.000000 0.134650 -0.111288 -0.514147
    21 1.681022 0.975106 0.213387 0.000000 0.000001 -1.652544
  time 28
    0 -26.529630 3.844789 -4.289927 -0.702399 -0.335620 -1.584916
    1 1.605518 1.043001 0.000000 -1.570795 -1.570796 0.000000
    2 -0.000004 0.000006 3.319508 0.089866 -2.968806 -1.007820
    3 16.897085 0.000000 0.000000 0.000000 0.000000 -0.654780
    4 16.589727 0.000000 0.000000 -0.163019 -0.239916 -0.560958
    5 0.000005 -0.000003 -3.319508 -0.161300 3.030554 -0.471224
    6 16.897085 0.000000 0.000000 0.000000 0.000000 -0.897501
    7 16.589727 0.000000 0.000000 0.012271 0.195202 -0.003277
    8 3.488968 -0.004234 0.000004 0.000053 0.087261 -0.249808
    9 5.318531 -0.004538 0.000000 0.151959 0.079319 0.057815
    10 5.701826 -0.005492 0.000000 0.125461 0.003164 -0.025991
    11 6.895578 -0.001818 0.000000 0.000000 -0.000001 -0.331442
    12 0.000003 0.001927 2.008302 -0.000013 -1.370797 3.472159
    13 4.746895 0.000000 0.000000 0.130012 0.584152 -0.532578
    14 10.950472 0.000000 0.000000 0.000000 0.000000 -0.289094
    15 10.950467 0.000000 0.000000 -0.595602 -0.195726 -0.449361
    16 0.000003 0.001941 -2.008302 -0.000013 1.370795 3.472210
    17 4.746896 0.000000 -0.000003 2.118881 0.796270 -0.260384
    18 10.950466 0.000000 0.000000 0.000000 0.000000 0.285856
    19 10.950471 0.000000 0.000000 0.721045 -0.124526 0.734720
    20 2.428221 0.000000 0.000000 0.120203 -0.247505 -0.481895
    21 1.681022 0.975106 0.213387 0.000000 0.000001 -1.695270
  time 29
    0 -27.535351 7.321297 -49.484077 -0.445875 -0.696144 -1.695040
    1 0.304697 0.898465 0.000000 -1.570795 -1.570796 0.000000
    2 -0.000004 0.000006 3.319508 0.114888 -2.984240 -1.160017
    3 16.897085 0.000000 0.000000 0.000000 0.000000 -0.654780
    4 16.589727 0.000000 0.000000 -0.218130 -0.191370 -0.455773
    5 0.000005 -0.000003 -3.319508 -0.106465 2.977282 -0.076993
    6 16.897085 0.000000 0.000000 0.000000 0.000000 -0.897501
    7 16.589727 0.000000 0.000000 -0.095879 0.170758 -0.187548
    8 3.488968 -0.004234 0.000004 0.000053 0.087261 -0.130990
    9 5.318531 -0.004538 0.000000 0.323470 0.042768 0.145564
    10 5.701826 -0.005492 0.000000 0.268842 0.006727 -0.025259
    11 6.895578 -0.001818 0.000000 0.000000 -0.000001 -0.331442
    12 0.000003 0.001927 2.008302 -0.000013 -1.370797 3.472159
    13 4.746895 0.000000 0.000000 -0.040814 0.535663 -0.947773
    14 10.950472 0.000000 0.000000 0.000000 0.000000 -0.388104
    15 10.950467 0.000000 0.000000 -0.595602 -0.195726 -0.449361
    16 0.000003 0.001941 -2.008302 -0.000013 1.370795 3.472210
    17 4.746896 0.000000 -0.000003 2.732367 0.496988 -0.086739
    18 10.950466 0.000000 0.000000 0.000000 0.000000 0.536732
    19 10.950471 0.000000 0.000000 0.728737 -0.013237 0.607845
    20 2.428221 0.000000 0.000000 0.073807 -0.413539 -0.405704
    21 1.681022 0.975106 0.213387 0.000000 0.000001 -1.689767
  time 30
    0 -28.368662 11.727169 -97.071686 -0.084614 -0.961843 -1.947751
    1 -0.765648 0.691427 0.000000 -1.570795 -1.570796 0.000000
    2 -0.000004 0.000006 3.319508 0.131761 -2.998044 -1.272191
    3 16.897085 0.000000 0.000000 0.000000 0.000000 -0.654780
    4 16.589727 0.000000 0.000000 -0.250102 -0.146741 -0.378167
    5 0.000005 -0.000003 -3.319508 -0.049907 2.952466 0.242135
    6 16.897085 0.000000 0.000000 0.000000 0.000000 -0.897501
    7 16.589727 0.000000 0.000000 -0.161384 0.110967 -0.330862
    8 3.488968 -0.004234 0.000004 0.000053 0.087261 -0.030764
    9 5.318531 -0.004538 0.000000 0.452914 -0.006682 0.209755
    10 5.701826 -0.005492 0.000000 0.382394 0.009460 -0.024352
    11 6.895578 -0.001818 0.000000 0.000000 -0.000001 -0.331442
    12 0.000003 0.001927 2.008302 -0.000013 -1.370797 3.472159
    13 4.746895 0.000000 0.000000 -0.174176 0.474643 -1.268019
    14 10.950472 0.000000 0.000000 0.000000 0.000000 -0.471629
    15 10.950467 0.000000 0.000000 -0.595602 -0.195726 -0.449361
    16 0.000003 0.001941 -2.008302 -0.000013 1.370795 3.472210
    17 4.746896 0.000000 -0.000003 -3.094933 0.371314 -0.139014
    18 10.950466 0.000000 0.000000 0.000000 0.000000 0.725642
    19 10.950471 0.000000 0.000000 0.723884 0.082516 0.498927
    20 2.428221 0.000000 0.000000 -0.005649 -0.541580 -0.298219
    21 1.681022 0.975106 0.213387 0.000000 0.000001 -1.276805
  time 31
    0 -29.081287 16.064199 -145.879491 0.414828 -1.099195 -2.364786
    1 -1.585986 0.492203 0.000000 -1.570795 -1.570796 0.000000
    2 -0.000004 0.000006 3.319508 0.141060 -3.007150 -1.339161
    3 16.897085 0.000000 0.000000 0.000000 0.000000 -0.654780
    4 16.589727 0.000000 0.000000 -0.265508 -0.115929 -0.327515
    5 0.000005 -0.000003 -3.319508 -0.005311 2.946143 0.474299
    6 16.897085 0.000000 0.000000 0.000000 0.000000 -0.897501
    7 16.589727 0.000000 0.000000 -0.188626 0.052049 -0.434103
    8 3.488968 -0.004234 0.000004 0.000053 0.087261 0.049697
    9 5.318531 -0.004538 0.000000 0.538188 -0.053808 0.254082
    10 5.701826 -0.005492 0.000000 0.462822 0.011329 -0.023502
    11 6.895578 -0.001818 0.000000 0.000000 -0.000001 -0.331442
    12 0.000003 0.001927 2.008302 -0.000013 -1.370797 3.472159
    13 4.746895 0.000000 0.000000 -0.272839 0.412806 -1.490157
    14 10.950472 0.000000 0.000000 0.000000 0.000000 -0.538754
    15 10.950467 0.000000 0.000000 -0.595602 -0.195726 -0.449361
    16 0.000003 0.001941 -2.008302 -0.000013 1.370795 3.472210
    17 4.746896 0.000000 -0.000003 -2.735976 0.394190 -0.329574
    18 10.950466 0.000000 0.000000 0.000000 0.000000 0.827197
    19 10.950471 0.000000 0.000000 0.710421 0.170104 0.397139
    20 2.428221 0.000000 0.000000 -0.098719 -0.621206 -0.185625
    21 1.681022 0.975106 0.213387 0.000000 0.000001 -1.247269
  time 32
    0 -29.822647 19.299761 -194.828087 0.943591 -1.109443 -2.827307
    1 -2.226630 0.328135 0.000000 -1.570795 -1.570796 0.000000
    2 -0.000004 0.000006 3.319508 0.143936 -3.010218 -1.361280
    3 16.897085 0.000000 0.000000 0.000000 0.000000 -0.654780
    4 16.589727 0.000000 0.000000 -0.270861 -0.102555 -0.300629
    5 0.000005 -0.000003 -3.319508 0.024356 2.947580 0.627713
    6 16.897085 0.000000 0.000000 0.000000 0.000000 -0.897501
    7 16.589727 0.000000 0.000000 -0.195428 0.008364 -0.507494
    8 3.488968 -0.004234 0.000004 0.000053 0.087261 0.115609
    9 5.318531 -0.004538 0.000000 0.584250 -0.091709 0.287434
    10 5.701826 -0.005492 0.000000 0.513173 0.012448 -0.022917
    11 6.895578 -0.001818 0.000000 0.000000 -0.000001 -0.331442
    12 0.000003 0.001927 2.008302 -0.000013 -1.370797 3.472159
    13 4.746895 0.000000 0.000000 -0.349482 0.353329 -1.629236
    14 10.950472 0.000000 0.000000 0.000000 0.000000 -0.593675
    15 10.950467 0.000000 0.000000 -0.595602 -0.195726 -0.449361
    16 0.000003 0.001941 -2.008302 -0.000013 1.370795 3.472210
    17 4.746896 0.000000 -0.000003 -2.485842 0.472594 -0.495287
    18 10.950466 0.000000 0.000000 0.000000 0.000000 0.856984
    19 10.950471 0.000000 0.000000 0.692197 0.238193 0.313307
    20 2.428221 0.000000 0.000000 -0.180212 -0.661543 -0.092126
    21 1.681022 0.975106 0.213387 0.000000 0.000001 -1.290279
  time 33
    0 -30.569754 20.297966 -243.072725 1.308973 -1.047185 -3.141591
    1 -2.718833 0.246101 0.000000 -1.570795 -1.570796 0.000000
    2 -0.000004 0.000006 3.319508 0.138088 -3.004083 -1.317569
    3 16.897085 0.000000 0.000000 0.000000 0.000000 -0.654780
    4 16.589727 0.000000 0.000000 -0.265508 -0.115929 -0.305896
    5 0.000005 -0.000003 -3.319508 0.034021 2.949017 0.678171
    6 16.897085 0.000000 0.000000 0.000000 0.000000 -0.897501
    7 16.589727 0.000000 0.000000 -0.195363 -0.009213 -0.546745
    8 3.488968 -0.004234 0.000004 0.000053 0.087261 0.166751
    9 5.318531 -0.004538 0.000000 0.578970 -0.110560 0.315913
    10 5.701826 -0.005492 0.000000 0.523448 0.012671 -0.022770
    11 6.895578 -0.001818 0.000000 0.000000 -0.000001 -0.331442
    12 0.000003 0.001927 2.008302 -0.000013 -1.370797 3.472159
    13 4.746895 0.000000 0.000000 -0.411921 0.299392 -1.666492
    14 10.950472 0.000000 0.000000 0.000000 0.000000 -0.636315
    15 10.950467 0.000000 0.000000 -0.595602 -0.195726 -0.449361
    16 0.000003 0.001941 -2.008302 -0.000013 1.370795 3.472210
    17 4.746896 0.000000 -0.000003 -2.329724 0.445921 -0.494045
    18 10.950466 0.000000 0.000000 0.000000 0.000000 0.870257
    19 10.950471 0.000000 0.000000 0.680567 0.272119 0.269812
    20 2.428221 0.000000 0.000000 -0.210587 -0.668224 -0.054956
    21 1.681022 0.975106 0.213387 0.000000 0.000001 -1.344091
  time 34
    0 -30.811127 20.229125 -290.237959 1.308973 -1.047185 -3.141591
    1 -2.750084 0.367199 0.000000 -1.570795 -1.570796 0.000000
    2 -0.000004 0.000006 3.319508 0.114984 -2.984335 -1.160807
    3 16.897085 0.000000 0.000000 0.000000 0.000000 -0.645665
    4 16.589727 0.000000 0.000000 -0.232971 -0.172898 -0.383849
    5 0.000005 -0.000003 -3.319508 0.012010 2.946430 0.563839
    6 16.897085 0.000000 0.000000 0.000000 0.000000 -0.842518
    7 16.589727 0.000000 0.000000 -0.194938 0.015913 -0.586937
    8 3.488968 -0.004234 0.000004 0.000053 0.087261 0.166751
    9 5.318531 -0.004538 0.000000 0.489807 -0.081022 0.324452
    10 5.701826 -0.005492 0.000000 0.466811 0.011409 -0.023473
    11 6.895578 -0.001818 0.000000 0.000000 -0.000001 -0.331442
    12 0.000003 0.001927 2.008302 -0.000013 -1.370797 3.472159
    13 4.746895 0.000000 0.000000 -0.431177 0.290584 -1.525275
    14 10.950472 0.000000 0.000000 0.000000 0.000000 -0.636315
    15 10.950467 0.000000 0.000000 -0.595602 -0.195726 -0.449361
    16 0.000003 0.001941 -2.008302 -0.000013 1.370795 3.472210
    17 4.746896 0.000000 -0.000003 -2.281284 0.236718 -0.484775
    18 10.950466 0.000000 0.000000 0.000000 0.000000 0.870257
    19 10.950471 0.000000 0.000000 0.680567 0.272119 0.269812
    20 2.428221 0.000000 0.000000 -0.142707 -0.606697 -0.092126
    21 1.681022 0.975106 0.213387 0.000000 0.000001 -1.390075
  time 35
    0 -31.288126 19.678391 -335.432109 1.308973 -1.047185 -3.141591
    1 -2.777429 0.589862 0.000000 -1.570795 -1.570796 0.000000
    2 -0.000004 0.000006 3.319508 0.073376 -2.961233 -0.914517
    3 16.897085 0.000000 0.000000 0.000000 0.000000 -0.633037
    4 16.589727 0.000000 0.000000 -0.154453 -0.245457 -0.526173
    5 0.000005 -0.000003 -3.319508 -0.034499 2.949113 0.322877
    6 16.897085 0.000000 0.000000 0.000000 0.000000 -0.766854
    7 16.589727 0.000000 0.000000 -0.181922 0.072270 -0.605328
    8 3.488968 -0.004234 0.000004 0.000053 0.087261 0.166751
    9 5.318531 -0.004538 0.000000 0.330142 -0.026373 0.333041
    10 5.701826 -0.005492 0.000000 0.357939 0.008884 -0.024586
    11 6.895578 -0.001818 0.000000 0.000000 -0.000001 -0.331442
    12 0.000003 0.001927 2.008302 -0.000013 -1.370797 3.472159
    13 4.746895 0.000000 0.000000 -0.472072 0.277326 -1.266068
    14 10.950472 0.000000 0.000000 0.000000 0.000000 -0.636315
    15 10.950467 0.000000 0.000000 -0.595602 -0.195726 -0.449361
    16 0.000003 0.001941 -2.008302 -0.000013 1.370795 3.472210
    17 4.746896 0.000000 -0.000003 -2.332782 -0.027728 -0.503315
    18 10.950466 0.000000 0.000000 0.000000 0.000000 0.870257
    19 10.950471 0.000000 0.000000 0.680567 0.272119 0.269812
    20 2.428221 0.000000 0.000000 0.010465 -0.515004 -0.222730
    21 1.681022 0.975106 0.213387 0.000000 0.000001 -1.446497
  time 36
    0 -31.770872 18.680185 -378.467452 1.308973 -1.047185 -3.141591
    1 -2.757897 0.867214 0.000000 -1.570795 -1.570796 0.000000
    2 -0.000004 0.000006 3.319508 0.018442 -2.947908 -0.620918
    3 16.897085 0.000000 0.000000 0.000000 0.000000 -0.618617
    4 16.589727 0.000000 0.000000 -0.031919 -0.287463 -0.709450
    5 0.000005 -0.000003 -3.319508 -0.091727 2.968659 0.010943
    6 16.897085 0.000000 0.000000 0.000000 0.000000 -0.680493
    7 16.589727 0.000000 0.000000 -0.140356 0.136666 -0.605975
    8 3.488968 -0.004234 0.000004 0.000053 0.087261 0.166751
    9 5.318531 -0.004538 0.000000 0.134583 0.041507 0.331559
    10 5.701826 -0.005492 0.000000 0.220707 0.005545 -0.025552
    11 6.895578 -0.001818 0.000000 0.000000 -0.000001 -0.331442
    12 0.000003 0.001927 2.008302 -0.000013 -1.370797 3.472159
    13 4.746895 0.000000 0.000000 -0.532604 0.271061 -0.947866
    14 10.950472 0.000000 0.000000 0.000000 0.000000 -0.636315
    15 10.950467 0.000000 0.000000 -0.595602 -0.195726 -0.449361
    16 0.000003 0.001941 -2.008302 -0.000013 1.370795 3.472210
    17 4.746896 0.000000 -0.000003 -2.487371 -0.252308 -0.518606
    18 10.950466 0.000000 0.000000 0.000000 0.000000 0.870257
    19 10.950471 0.000000 0.000000 0.680567 0.272119 0.269812
    20 2.428221 0.000000 0.000000 0.166414 -0.365424 -0.361637
    21 1.681022 0.975106 0.213387 0.000000 0.000001 -1.507027
  time 37
    0 -32.253618 17.320561 -419.203196 1.308973 -1.047185 -3.141591
    1 -2.683676 1.144566 0.000000 -1.570795 -1.570796 0.000000
    2 -0.000004 0.000006 3.319508 -0.040518 -2.951263 -0.313714
    3 16.897085 0.000000 0.000000 0.000000 0.000000 -0.603673
    4 16.589727 0.000000 0.000000 0.102186 -0.270986 -0.900972
    5 0.000005 -0.000003 -3.319508 -0.144074 3.008900 -0.329379
    6 16.897085 0.000000 0.000000 0.000000 0.000000 -0.590923
    7 16.589727 0.000000 0.000000 -0.068539 0.183321 -0.590874
    8 3.488968 -0.004234 0.000004 0.000053 0.087261 0.166751
    9 5.318531 -0.004538 0.000000 -0.072358 0.111157 0.315712
    10 5.701826 -0.005492 0.000000 0.073061 0.001838 -0.026108
    11 6.895578 -0.001818 0.000000 0.000000 -0.000001 -0.331442
    12 0.000003 0.001927 2.008302 -0.000013 -1.370797 3.472159
    13 4.746895 0.000000 0.000000 -0.605434 0.280958 -0.614149
    14 10.950472 0.000000 0.000000 0.000000 0.000000 -0.636315
    15 10.950467 0.000000 0.000000 -0.595602 -0.195726 -0.449361
    16 0.000003 0.001941 -2.008302 -0.000013 1.370795 3.472210
    17 4.746896 0.000000 -0.000003 -2.715911 -0.388043 -0.505895
    18 10.950466 0.000000 0.000000 0.000000 0.000000 0.870257
    19 10.950471 0.000000 0.000000 0.680567 0.272119 0.269812
    20 2.428221 0.000000 0.000000 0.281339 -0.167729 -0.453667
    21 1.681022 0.975106 0.213387 0.000000 0.000001 -1.565310
  time 38
    0 -32.736364 15.685569 -457.592412 1.308973 -1.047185 -3.141591
    1 -2.562578 1.386761 0.000000 -1.570795 -1.570796 0.000000
    2 -0.000004 0.000006 3.319508 -0.092959 -2.970436 -0.024152
    3 16.897085 0.000000 0.000000 0.000000 0.000000 -0.589327
    4 16.589727 0.000000 0.000000 0.205924 -0.204449 -1.063668
    5 0.000005 -0.000003 -3.319508 -0.179483 3.063513 -0.662604
    6 16.897085 0.000000 0.000000 0.000000 0.000000 -0.504562
    7 16.589727 0.000000 0.000000 0.016621 0.194903 -0.567135
    8 3.488968 -0.004234 0.000004 0.000053 0.087261 0.166751
    9 5.318531 -0.004538 0.000000 -0.268666 0.172045 0.287911
    10 5.701826 -0.005492 0.000000 -0.069128 -0.001742 -0.026108
    11 6.895578 -0.001818 0.000000 0.000000 -0.000001 -0.331442
    12 0.000003 0.001927 2.008302 -0.000013 -1.370797 3.472159
    13 4.746895 0.000000 0.000000 -0.677978 0.308926 -0.302265
    14 10.950472 0.000000 0.000000 0.000000 0.000000 -0.636315
    15 10.950467 0.000000 0.000000 -0.595602 -0.195726 -0.449361
    16 0.000003 0.001941 -2.008302 -0.000013 1.370795 3.472210
    17 4.746896 0.000000 -0.000003 -2.960121 -0.425157 -0.479328
    18 10.950466 0.000000 0.000000 0.000000 0.000000 0.870257
    19 10.950471 0.000000 0.000000 0.680567 0.272119 0.269812
    20 2.428221 0.000000 0.000000 0.354498 0.037744 -0.479979
    21 1.681022 0.975106 0.213387 0.000000 0.000001 -1.614976
  time 39
    0 -33.213363 13.878473 -493.635098 1.308973 -1.047185 -3.141591
    1 -2.433668 1.558641 0.000000 -1.570795 -1.570796 0.000000
    2 -0.000004 0.000006 3.319508 -0.130636 -2.996989 0.214150
    3 16.897085 0.000000 0.000000 0.000000 0.000000 -0.576700
    4 16.589727 0.000000 0.000000 0.261183 -0.125572 -1.172318
    5 0.000005 -0.000003 -3.319508 -0.194221 3.118702 -0.953391
    6 16.897085 0.000000 0.000000 0.000000 0.000000 -0.428898
    7 16.589727 0.000000 0.000000 0.089451 0.174164 -0.546451
    8 3.488968 -0.004234 0.000004 0.000053 0.087261 0.166751
    9 5.318531 -0.004538 0.000000 -0.427190 0.215765 0.257272
    10 5.701826 -0.005492 0.000000 -0.188441 -0.004746 -0.025728
    11 6.895578 -0.001818 0.000000 0.000000 -0.000001 -0.331442
    12 0.000003 0.001927 2.008302 -0.000013 -1.370797 3.472159
    13 4.746895 0.000000 0.000000 -0.735841 0.345248 -0.051699
    14 10.950472 0.000000 0.000000 0.000000 0.000000 -0.636315
    15 10.950467 0.000000 0.000000 -0.595602 -0.195726 -0.449361
    16 0.000003 0.001941 -2.008302 -0.000013 1.370795 3.472210
    17 4.746896 0.000000 -0.000003 -3.153310 -0.395447 -0.467191
    18 10.950466 0.000000 0.000000 0.000000 0.000000 0.870257
    19 10.950471 0.000000 0.000000 0.680567 0.272119 0.269812
    20 2.428221 0.000000 0.000000 0.400987 0.199390 -0.443576
    21 1.681022 0.975106 0.213387 0.000000 0.000001 -1.649711
  time 40
    0 -33.678868 11.950904 -527.378186 1.308973 -1.047185 -3.141591
    1 -2.359447 1.640675 0.000000 -1.570795 -1.570796 0.000000
    2 -0.000004 0.000006 3.319508 -0.150098 -3.017408 0.359238
    3 16.897085 0.000000 0.000000 0.000000 0.000000 -0.567509
    4 16.589727 0.000000 0.000000 0.278463 -0.078985 -1.205162
    5 0.000005 -0.000003 -3.319508 -0.194795 3.158751 -1.156000
    6 16.897085 0.000000 0.000000 0.000000 0.000000 -0.373915
    7 16.589727 0.000000 0.000000 0.132489 0.144296 -0.538049
    8 3.488968 -0.004234 0.000004 0.000053 0.087261 0.166751
    9 5.318531 -0.004538 0.000000 -0.509217 0.236098 0.238913
    10 5.701826 -0.005492 0.000000 -0.261696 -0.006551 -0.025318
    11 6.895578 -0.001818 0.000000 0.000000 -0.000001 -0.331442
    12 0.000003 0.001927 2.008302 -0.000013 -1.370797 3.472159
    13 4.746895 0.000000 0.000000 -0.766822 0.368766 0.086545
    14 10.950472 0.000000 0.000000 0.000000 0.000000 -0.636315
    15 10.950467 0.000000 0.000000 -0.595602 -0.195726 -0.449361
    16 0.000003 0.001941 -2.008302 -0.000013 1.370795 3.472210
    17 4.746896 0.000000 -0.000003 -3.250287 -0.364408 -0.480857
    18 10.950466 0.000000 0.000000 0.000000 0.000000 0.870257
    19 10.950471 0.000000 0.000000 0.680567 0.272119 0.269812
    20 2.428221 0.000000 0.000000 0.418119 0.264458 -0.361190
    21 1.681022 0.975106 0.213387 0.000000 0.000001 -1.663124
  time 41
    0 -34.144373 9.988915 -558.915537 1.308973 -1.047185 -3.141591
    1 -2.429762 1.589892 0.000000 -1.570795 -1.570796 0.000000
    2 -0.000004 0.000006 3.319508 -0.154316 -3.022680 0.393996
    3 16.897085 0.000000 0.000000 0.000000 0.000000 -0.567509
    4 16.589727 0.000000 0.000000 0.273972 -0.093689 -1.118201
    5 0.000005 -0.000003 -3.319508 -0.194795 3.158751 -1.156000
    6 16.897085 0.000000 0.000000 0.000000 0.000000 -0.373915
    7 16.589727 0.000000 0.000000 0.132489 0.144296 -0.538049
    8 3.488968 -0.004234 0.000004 0.000053 0.087261 0.166751
    9 5.318531 -0.004538 0.000000 -0.486275 0.230567 0.244212
    10 5.701826 -0.005492 0.000000 -0.281997 -0.036017 -0.005202
    11 6.895578 -0.001818 0.000000 0.000000 -0.000001 -0.331442
    12 0.000003 0.001927 2.008302 -0.000013 -1.370797 3.472159
    13 4.746895 0.000000 0.000000 -0.781312 0.328903 0.077347
    14 10.950472 0.000000 0.000000 0.000000 0.000000 -0.636315
    15 10.950467 0.000000 0.000000 -0.595602 -0.195726 -0.449361
    16 0.000003 0.001941 -2.008302 -0.000013 1.370795 3.472210
    17 4.746896 0.000000 -0.000003 -3.203757 -0.403230 -0.567823
    18 10.950466 0.000000 0.000000 0.000000 0.000000 0.870257
    19 10.950471 0.000000 0.000000 0.680567 0.272119 0.269812
    20 2.428221 0.000000 0.000000 0.342644 0.243167 -0.241826
    21 1.681022 0.975106 0.213387 0.000000 0.000001 -1.586754
  time 42
    0 -34.592637 8.078556 -588.481803 1.308973 -1.047185 -3.141591
    1 -2.601642 1.410199 0.000000 -1.570795 -1.570796 0.000000
    2 -0.000004 0.000006 3.319508 -0.147510 -3.014244 0.338085
    3 16.897085 0.000000 0.000000 0.000000 0.000000 -0.567509
    4 16.589727 0.000000 0.000000 0.241227 -0.161076 -0.917948
    5 0.000005 -0.000003 -3.319508 -0.194795 3.158751 -1.156000
    6 16.897085 0.000000 0.000000 0.000000 0.000000 -0.373915
    7 16.589727 0.000000 0.000000 0.132489 0.144296 -0.538049
    8 3.488968 -0.004234 0.000004 0.000053 0.087261 0.166751
    9 5.318531 -0.004538 0.000000 -0.371708 0.201096 0.268774
    10 5.701826 -0.005492 0.000000 -0.262057 -0.084385 0.026041
    11 6.895578 -0.001818 0.000000 0.000000 -0.000001 -0.331442
    12 0.000003 0.001927 2.008302 -0.000013 -1.370797 3.472159
    13 4.746895 0.000000 0.000000 -0.765488 0.236555 -0.048818
    14 10.950472 0.000000 0.000000 0.000000 0.000000 -0.636315
    15 10.950467 0.000000 0.000000 -0.595602 -0.195726 -0.449361
    16 0.000003 0.001941 -2.008302 -0.000013 1.370795 3.472210
    17 4.746896 0.000000 -0.000003 -3.014963 -0.456670 -0.751980
    18 10.950466 0.000000 0.000000 0.000000 0.000000 0.870257
    19 10.950471 0.000000 0.000000 0.680567 0.272119 0.269812
    20 2.428221 0.000000 0.000000 0.168174 0.199839 -0.056042
    21 1.681022 0.975106 0.213387 0.000000 0.000001 -1.440509
  time 43
    0 -35.029407 6.254250 -616.405499 1.308973 -1.047185 -3.141591
    1 -2.773522 1.101596 0.000000 -1.570795 -1.570796 0.000000
    2 -0.000004 0.000006 3.319508 -0.130061 -2.996510 0.209937
    3 16.897085 0.000000 0.000000 0.000000 0.000000 -0.567509
    4 16.589727 0.000000 0.000000 0.160984 -0.241283 -0.650067
    5 0.000005 -0.000003 -3.319508 -0.194795 3.158751 -1.156000
    6 16.897085 0.000000 0.000000 0.000000 0.000000 -0.373915
    7 16.589727 0.000000 0.000000 0.132489 0.144296 -0.538049
    8 3.488968 -0.004234 0.000004 0.000053 0.087261 0.166751
    9 5.318531 -0.004538 0.000000 -0.198235 0.150960 0.299237
    10 5.701826 -0.005492 0.000000 -0.209352 -0.144226 0.055819
    11 6.895578 -0.001818 0.000000 0.000000 -0.000001 -0.331442
    12 0.000003 0.001927 2.008302 -0.000013 -1.370797 3.472159
    13 4.746895 0.000000 0.000000 -0.697806 0.119872 -0.254326
    14 10.950472 0.000000 0.000000 0.000000 0.000000 -0.636315
    15 10.950467 0.000000 0.000000 -0.595602 -0.195726 -0.449361
    16 0.000003 0.001941 -2.008302 -0.000013 1.370795 3.472210
    17 4.746896 0.000000 -0.000003 -2.729670 -0.423353 -0.980098
    18 10.950466 0.000000 0.000000 0.000000 0.000000 0.870257
    19 10.950471 0.000000 0.000000 0.680567 0.272119 0.269812
    20 2.428221 0.000000 0.000000 -0.052601 0.230553 0.174639
    21 1.681022 0.975106 0.213387 0.000000 0.000001 -1.350666
  time 44
    0 -35.437443 4.619258 -643.109000 1.308973 -1.047185 -3.141591
    1 -2.855556 0.734397 0.000000 -1.570795 -1.570796 0.000000
    2 -0.000004 0.000006 3.319508 -0.104368 -2.977146 0.043871
    3 16.897085 0.000000 0.000000 0.000000 0.000000 -0.567509
    4 16.589727 0.000000 0.000000 0.046956 -0.285431 -0.383710
    5 0.000005 -0.000003 -3.319508 -0.194795 3.158751 -1.156000
    6 16.897085 0.000000 0.000000 0.000000 0.000000 -0.373915
    7 16.589727 0.000000 0.000000 0.132489 0.144296 -0.538049
    8 3.488968 -0.004234 0.000004 0.000053 0.087261 0.166751
    9 5.318531 -0.004538 0.000000 -0.011774 0.091222 0.321840
    10 5.701826 -0.005492 0.000000 -0.137786 -0.202790 0.072392
    11 6.895578 -0.001818 0.000000 0.000000 -0.000001 -0.331442
    12 0.000003 0.001927 2.008302 -0.000013 -1.370797 3.472159
    13 4.746895 0.000000 0.000000 -0.583700 0.024982 -0.490956
    14 10.950472 0.000000 0.000000 0.000000 0.000000 -0.636315
    15 10.950467 0.000000 0.000000 -0.595602 -0.195726 -0.449361
    16 0.000003 0.001941 -2.008302 -0.000013 1.370795 3.472210
    17 4.746896 0.000000 -0.000003 -2.482594 -0.274424 -1.130712
    18 10.950466 0.000000 0.000000 0.000000 0.000000 0.870257
    19 10.950471 0.000000 0.000000 0.680567 0.272119 0.269812
    20 2.428221 0.000000 0.000000 -0.234295 0.357297 0.380731
    21 1.681022 0.975106 0.213387 0.000000 0.000001 -1.332702
  time 45
    0 -35.805249 3.242423 -668.873889 1.308973 -1.047185 -3.141591
    1 -2.832118 0.425794 0.000000 -1.570795 -1.570796 0.000000
    2 -0.000004 0.000006 3.319508 -0.075990 -2.962287 -0.121668
    3 16.897085 0.000000 0.000000 0.000000 0.000000 -0.567509
    4 16.589727 0.000000 0.000000 -0.052529 -0.284508 -0.196900
    5 0.000005 -0.000003 -3.319508 -0.194795 3.158751 -1.156000
    6 16.897085 0.000000 0.000000 0.000000 0.000000 -0.373915
    7 16.589727 0.000000 0.000000 0.132489 0.144296 -0.538049
    8 3.488968 -0.004234 0.000004 0.000053 0.087261 0.166751
    9 5.318531 -0.004538 0.000000 0.145643 0.037679 0.331986
    10 5.701826 -0.005492 0.000000 -0.063368 -0.245166 0.072363
    11 6.895578 -0.001818 0.000000 0.000000 -0.000001 -0.331442
    12 0.000003 0.001927 2.008302 -0.000013 -1.370797 3.472159
    13 4.746895 0.000000 0.000000 -0.463207 -0.018059 -0.706405
    14 10.950472 0.000000 0.000000 0.000000 0.000000 -0.636315
    15 10.950467 0.000000 0.000000 -0.595602 -0.195726 -0.449361
    16 0.000003 0.001941 -2.008302 -0.000013 1.370795 3.472210
    17 4.746896 0.000000 -0.000003 -2.341954 -0.097114 -1.166549
    18 10.950466 0.000000 0.000000 0.000000 0.000000 0.870257
    19 10.950471 0.000000 0.000000 0.680567 0.272119 0.269812
    20 2.428221 0.000000 0.000000 -0.341255 0.498850 0.504630
    21 1.681022 0.975106 0.213387 0.000000 0.000001 -1.318014
  time 46
    0 -36.115586 2.192587 -694.028681 1.308973 -1.047185 -3.141591
    1 -2.777429 0.253914 0.000000 -1.570795 -1.570796 0.000000
    2 -0.000004 0.000006 3.319508 -0.051447 -2.953852 -0.256047
    3 16.897085 0.000000 0.000000 0.000000 0.000000 -0.567509
    4 16.589727 0.000000 0.000000 -0.106510 -0.269360 -0.132459
    5 0.000005 -0.000003 -3.319508 -0.194795 3.158751 -1.156000
    6 16.897085 0.000000 0.000000 0.000000 0.000000 -0.373915
    7 16.589727 0.000000 0.000000 0.132489 0.144296 -0.538049
    8 3.488968 -0.004234 0.000004 0.000053 0.087261 0.166751
    9 5.318531 -0.004538 0.000000 0.247972 0.002168 0.334046
    10 5.701826 -0.005492 0.000000 -0.000194 -0.261784 0.061119
    11 6.895578 -0.001818 0.000000 0.000000 -0.000001 -0.331442
    12 0.000003 0.001927 2.008302 -0.000013 -1.370797 3.472159
    13 4.746895 0.000000 0.000000 -0.380558 -0.015970 -0.858120
    14 10.950472 0.000000 0.000000 0.000000 0.000000 -0.636315
    15 10.950467 0.000000 0.000000 -0.595602 -0.195726 -0.449361
    16 0.000003 0.001941 -2.008302 -0.000013 1.370795 3.472210
    17 4.746896 0.000000 -0.000003 -2.285965 0.025047 -1.140268
    18 10.950466 0.000000 0.000000 0.000000 0.000000 0.870257
    19 10.950471 0.000000 0.000000 0.680567 0.272119 0.269812
    20 2.428221 0.000000 0.000000 -0.402098 0.567756 0.531836
    21 1.681022 0.975106 0.213387 0.000000 0.000001 -1.306706
  time 47
    0 -36.115586 2.192587 -718.761097 1.308973 -1.047185 -3.141591
    1 -2.722739 0.171880 0.000000 -1.570795 -1.570796 0.000000
    2 -0.000004 0.000006 3.319508 -0.025467 -2.948675 -0.392709
    3 16.897085 0.000000 0.000000 0.000000 0.000000 -0.575878
    4 16.589727 0.000000 0.000000 -0.106510 -0.269360 -0.258431
    5 0.000005 -0.000003 -3.319508 -0.194890 3.124834 -0.984697
    6 16.897085 0.000000 0.000000 0.000000 0.000000 -0.423763
    7 16.589727 0.000000 0.000000 0.132489 0.144296 -0.313528
    8 3.488968 -0.004234 0.000004 0.000053 0.087261 0.166751
    9 5.318531 -0.004538 0.000000 0.321257 -0.023298 0.333267
    10 5.701826 -0.005492 0.000000 0.066497 -0.254865 0.041003
    11 6.895578 -0.001818 0.000000 0.000000 -0.000001 -0.331442
    12 0.000003 0.001927 2.008302 -0.000013 -1.370797 3.472159
    13 4.746895 0.000000 0.000000 -0.328510 0.015539 -0.982241
    14 10.950472 0.000000 0.000000 0.000000 0.000000 -0.636315
    15 10.950467 0.000000 0.000000 -0.595602 -0.195726 -0.449361
    16 0.000003 0.001941 -2.008302 -0.000013 1.370795 3.472210
    17 4.746896 0.000000 -0.000003 -2.270009 0.106299 -1.080348
    18 10.950466 0.000000 0.000000 0.000000 0.000000 0.870257
    19 10.950471 0.000000 0.000000 0.680567 0.272119 0.269812
    20 2.428221 0.000000 0.000000 -0.452105 0.545269 0.485726
    21 1.681022 0.975106 0.213387 0.000000 0.000001 -1.298836
  time 48
    0 -36.115586 2.192587 -743.352722 1.308973 -1.047185 -3.141591
    1 -2.668050 0.121097 0.000000 -1.570795 -1.570796 0.000000
    2 -0.000004 0.000006 3.319508 0.006746 -2.947141 -0.560267
    3 16.897085 0.000000 0.000000 0.000000 0.000000 -0.587608
    4 16.589727 0.000000 0.000000 -0.106510 -0.269360 -0.411080
    5 0.000005 -0.000003 -3.319508 -0.185033 3.078077 -0.741790
    6 16.897085 0.000000 0.000000 0.000000 0.000000 -0.494435
    7 16.589727 0.000000 0.000000 0.132489 0.144296 0.004303
    8 3.488968 -0.004234 0.000004 0.000053 0.087261 0.166751
    9 5.318531 -0.004538 0.000000 0.394043 -0.048454 0.330655
    10 5.701826 -0.005492 0.000000 0.148864 -0.231088 0.015412
    11 6.895578 -0.001818 0.000000 0.000000 -0.000001 -0.331442
    12 0.000003 0.001927 2.008302 -0.000013 -1.370797 3.472159
    13 4.746895 0.000000 0.000000 -0.290951 0.067842 -1.118255
    14 10.950472 0.000000 0.000000 0.000000 0.000000 -0.636315
    15 10.950467 0.000000 0.000000 -0.595602 -0.195726 -0.449361
    16 0.000003 0.001941 -2.008302 -0.000013 1.370795 3.472210
    17 4.746896 0.000000 -0.000003 -2.270392 0.184702 -0.992904
    18 10.950466 0.000000 0.000000 0.000000 0.000000 0.870257
    19 10.950471 0.000000 0.000000 0.680567 0.272119 0.269812
    20 2.428221 0.000000 0.000000 -0.496834 0.449089 0.405639
    21 1.681022 0.975106 0.213387 0.000000 0.000001 -1.294486
  time 49
    0 -36.115586 2.192587 -768.085138 1.308973 -1.047185 -3.141591
    1 -2.628986 0.101566 0.000000 -1.570795 -1.570796 0.000000
    2 -0.000004 0.000006 3.319508 0.040684 -2.951263 -0.737392
    3 16.897085 0.000000 0.000000 0.000000 0.000000 -0.600983
    4 16.589727 0.000000 0.000000 -0.106510 -0.269360 -0.571629
    5 0.000005 -0.000003 -3.319508 -0.160535 3.029500 -0.464273
    6 16.897085 0.000000 0.000000 0.000000 0.000000 -0.574592
    7 16.589727 0.000000 0.000000 0.132489 0.144296 0.365087
    8 3.488968 -0.004234 0.000004 0.000053 0.087261 0.166751
    9 5.318531 -0.004538 0.000000 0.461192 -0.071376 0.326637
    10 5.701826 -0.005492 0.000000 0.235469 -0.195647 -0.007749
    11 6.895578 -0.001818 0.000000 0.000000 -0.000001 -0.331442
    12 0.000003 0.001927 2.008302 -0.000013 -1.370797 3.472159
    13 4.746895 0.000000 0.000000 -0.273888 0.127591 -1.255384
    14 10.950472 0.000000 0.000000 0.000000 0.000000 -0.636315
    15 10.950467 0.000000 0.000000 -0.595602 -0.195726 -0.449361
    16 0.000003 0.001941 -2.008302 -0.000013 1.370795 3.472210
    17 4.746896 0.000000 -0.000003 -2.280997 0.259879 -0.894375
    18 10.950466 0.000000 0.000000 0.000000 0.000000 0.870257
    19 10.950471 0.000000 0.000000 0.680567 0.272119 0.269812
    20 2.428221 0.000000 0.000000 -0.522394 0.296169 0.324402
    21 1.681022 0.975106 0.213387 0.000000 0.000001 -1.293738
  time 50
    0 -36.115586 2.192587 -793.286860 1.308973 -1.047185 -3.141591
    1 -2.609455 0.101566 0.000000 -1.570795 -1.570796 0.000000
    2 -0.000004 0.000006 3.319508 0.072225 -2.960754 -0.908022
    3 16.897085 0.000000 0.000000 0.000000 0.000000 -0.614582
    4 16.589727 0.000000 0.000000 -0.106510 -0.269360 -0.725941
    5 0.000005 -0.000003 -3.319508 -0.122734 2.988971 -0.179610
    6 16.897085 0.000000 0.000000 0.000000 0.000000 -0.656032
    7 16.589727 0.000000 0.000000 0.132489 0.144296 0.731570
    8 3.488968 -0.004234 0.000004 0.000053 0.087261 0.166751
    9 5.318531 -0.004538 0.000000 0.518957 -0.090780 0.321940
    10 5.701826 -0.005492 0.000000 0.318473 -0.153782 -0.024176
    11 6.895578 -0.001818 0.000000 0.000000 -0.000001 -0.331442
    12 0.000003 0.001927 2.008302 -0.000013 -1.370797 3.472159
    13 4.746895 0.000000 0.000000 -0.276938 0.183707 -1.385638
    14 10.950472 0.000000 0.000000 0.000000 0.000000 -0.636315
    15 10.950467 0.000000 0.000000 -0.595602 -0.195726 -0.449361
    16 0.000003 0.001941 -2.008302 -0.000013 1.370795 3.472210
    17 4.746896 0.000000 -0.000003 -2.295615 0.330024 -0.795654
    18 10.950466 0.000000 0.000000 0.000000 0.000000 0.870257
    19 10.950471 0.000000 0.000000 0.680567 0.272119 0.269812
    20 2.428221 0.000000 0.000000 -0.522857 0.107698 0.256386
    21 1.681022 0.975106 0.213387 0.000000 0.000001 -1.296692
  time 51
    0 -36.115586 2.192587 -819.192541 1.308973 -1.047185 -3.141591
    1 -2.609455 0.109378 0.000000 -1.570795 -1.570796 0.000000
    2 -0.000004 0.000006 3.319508 0.098686 -2.973695 -1.060044
    3 16.897085 0.000000 0.000000 0.000000 0.000000 -0.627284
    4 16.589727 0.000000 0.000000 -0.106510 -0.269360 -0.863554
    5 0.000005 -0.000003 -3.319508 -0.077851 2.962048 0.090033
    6 16.897085 0.000000 0.000000 0.000000 0.000000 -0.732409
    7 16.589727 0.000000 0.000000 0.132489 0.144296 1.075196
    8 3.488968 -0.004234 0.000004 0.000053 0.087261 0.166751
    9 5.318531 -0.004538 0.000000 0.564520 -0.105847 0.317470
    10 5.701826 -0.005492 0.000000 0.392531 -0.110383 -0.032638
    11 6.895578 -0.001818 0.000000 0.000000 -0.000001 -0.331442
    12 0.000003 0.001927 2.008302 -0.000013 -1.370797 3.472159
    13 4.746895 0.000000 0.000000 -0.295813 0.229654 -1.501677
    14 10.950472 0.000000 0.000000 0.000000 0.000000 -0.636315
    15 10.950467 0.000000 0.000000 -0.595602 -0.195726 -0.449361
    16 0.000003 0.001941 -2.008302 -0.000013 1.370795 3.472210
    17 4.746896 0.000000 -0.000003 -2.309469 0.391532 -0.703623
    18 10.950466 0.000000 0.000000 0.000000 0.000000 0.870257
    19 10.950471 0.000000 0.000000 0.680567 0.272119 0.269812
    20 2.428221 0.000000 0.000000 -0.499427 -0.094285 0.201143
    21 1.681022 0.975106 0.213387 0.000000 0.000001 -1.303408
  time 52
    0 -36.115586 2.192587 -846.130695 1.308973 -1.047185 -3.141591
    1 -2.628986 0.125004 0.000000 -1.570795 -1.570796 0.000000
    2 -0.000004 0.000006 3.319508 0.118723 -2.987115 -1.184418
    3 16.897085 0.000000 0.000000 0.000000 0.000000 -0.638342
    4 16.589727 0.000000 0.000000 -0.106510 -0.269360 -0.975945
    5 0.000005 -0.000003 -3.319508 -0.033925 2.949017 0.325988
    6 16.897085 0.000000 0.000000 0.000000 0.000000 -0.798802
    7 16.589727 0.000000 0.000000 0.132489 0.144296 1.373813
    8 3.488968 -0.004234 0.000004 0.000053 0.087261 0.166751
    9 5.318531 -0.004538 0.000000 0.595454 -0.115914 0.314055
    10 5.701826 -0.005492 0.000000 0.453655 -0.069413 -0.034249
    11 6.895578 -0.001818 0.000000 0.000000 -0.000001 -0.331442
    12 0.000003 0.001927 2.008302 -0.000013 -1.370797 3.472159
    13 4.746895 0.000000 0.000000 -0.324220 0.262798 -1.595883
    14 10.950472 0.000000 0.000000 0.000000 0.000000 -0.636315
    15 10.950467 0.000000 0.000000 -0.595602 -0.195726 -0.449361
    16 0.000003 0.001941 -2.008302 -0.000013 1.370795 3.472210
    17 4.746896 0.000000 -0.000003 -2.319406 0.439562 -0.623060
    18 10.950466 0.000000 0.000000 0.000000 0.000000 0.870257
    19 10.950471 0.000000 0.000000 0.680567 0.272119 0.269812
    20 2.428221 0.000000 0.000000 -0.454791 -0.289886 0.150881
    21 1.681022 0.975106 0.213387 0.000000 0.000001 -1.313968
  time 53
    0 -36.115586 2.192587 -874.335974 1.308973 -1.047185 -3.141591
    1 -2.656331 0.152348 0.000000 -1.570795 -1.570796 0.000000
    2 -0.000004 0.000006 3.319508 0.131953 -2.998235 -1.273507
    3 16.897085 0.000000 0.000000 0.000000 0.000000 -0.647084
    4 16.589727 0.000000 0.000000 -0.106510 -0.269360 -1.056116
    5 0.000005 -0.000003 -3.319508 0.001962 2.946047 0.512118
    6 16.897085 0.000000 0.000000 0.000000 0.000000 -0.850933
    7 16.589727 0.000000 0.000000 0.132489 0.144296 1.608616
    8 3.488968 -0.004234 0.000004 0.000053 0.087261 0.166751
    9 5.318531 -0.004538 0.000000 0.609654 -0.120494 0.312372
    10 5.701826 -0.005492 0.000000 0.498301 -0.033844 -0.031262
    11 6.895578 -0.001818 0.000000 0.000000 -0.000001 -0.331442
    12 0.000003 0.001927 2.008302 -0.000013 -1.370797 3.472159
    13 4.746895 0.000000 0.000000 -0.356059 0.283864 -1.660081
    14 10.950472 0.000000 0.000000 0.000000 0.000000 -0.636315
    15 10.950467 0.000000 0.000000 -0.595602 -0.195726 -0.449361
    16 0.000003 0.001941 -2.008302 -0.000013 1.370795 3.472210
    17 4.746896 0.000000 -0.000003 -2.324756 0.468512 -0.558170
    18 10.950466 0.000000 0.000000 0.000000 0.000000 0.870257
    19 10.950471 0.000000 0.000000 0.680567 0.272119 0.269812
    20 2.428221 0.000000 0.000000 -0.389966 -0.461554 0.095382
    21 1.681022 0.975106 0.213387 0.000000 0.000001 -1.328453
  time 54
    0 -36.115586 2.192587 -904.136893 1.308973 -1.047185 -3.141591
    1 -2.687582 0.187506 0.000000 -1.570795 -1.570796 0.000000
    2 -0.000004 0.000006 3.319508 0.138472 -3.004466 -1.320466
    3 16.897085 0.000000 0.000000 0.000000 0.000000 -0.652763
    4 16.589727 0.000000 0.000000 -0.106510 -0.269360 -1.097275
    5 0.000005 -0.000003 -3.319508 0.025600 2.947676 0.634179
    6 16.897085 0.000000 0.000000 0.000000 0.000000 -0.885163
    7 16.589727 0.000000 0.000000 0.132489 0.144296 1.762566
    8 3.488968 -0.004234 0.000004 0.000053 0.087261 0.166751
    9 5.318531 -0.004538 0.000000 0.604980 -0.118989 0.312924
    10 5.701826 -0.005492 0.000000 0.522922 -0.005880 -0.026548
    11 6.895578 -0.001818 0.000000 0.000000 -0.000001 -0.331442
    12 0.000003 0.001927 2.008302 -0.000013 -1.370797 3.472159
    13 4.746895 0.000000 0.000000 -0.386469 0.295215 -1.686280
    14 10.950472 0.000000 0.000000 0.000000 0.000000 -0.636315
    15 10.950467 0.000000 0.000000 -0.595602 -0.195726 -0.449361
    16 0.000003 0.001941 -2.008302 -0.000013 1.370795 3.472210
    17 4.746896 0.000000 -0.000003 -2.327049 0.472594 -0.513350
    18 10.950466 0.000000 0.000000 0.000000 0.000000 0.870257
    19 10.950471 0.000000 0.000000 0.680567 0.272119 0.269812
    20 2.428221 0.000000 0.000000 -0.306250 -0.592936 0.026599
    21 1.681022 0.975106 0.213387 0.000000 0.000001 -1.346944
  time 55
    0 -36.115586 2.192587 -935.768105 1.308973 -1.047185 -3.141591
    1 -2.718833 0.246101 0.000000 -1.570795 -1.570796 0.000000
    2 -0.000004 0.000006 3.319508 0.138088 -3.004083 -1.317569
    3 16.897085 0.000000 0.000000 0.000000 0.000000 -0.654780
    4 16.589727 0.000000 0.000000 -0.106510 -0.269360 -1.092355
    5 0.000005 -0.000003 -3.319508 0.034021 2.949017 0.678171
    6 16.897085 0.000000 0.000000 0.000000 0.000000 -0.897501
    7 16.589727 0.000000 0.000000 0.132489 0.144296 1.818094
    8 3.488968 -0.004234 0.000004 0.000053 0.087261 0.166751
    9 5.318531 -0.004538 0.000000 0.578970 -0.110560 0.315913
    10 5.701826 -0.005492 0.000000 0.523448 0.012671 -0.022770
    11 6.895578 -0.001818 0.000000 0.000000 -0.000001 -0.331442
    12 0.000003 0.001927 2.008302 -0.000013 -1.370797 3.472159
    13 4.746895 0.000000 0.000000 -0.411921 0.299392 -1.666492
    14 10.950472 0.000000 0.000000 0.000000 0.000000 -0.636315
    15 10.950467 0.000000 0.000000 -0.595602 -0.195726 -0.449361
    16 0.000003 0.001941 -2.008302 -0.000013 1.370795 3.472210
    17 4.746896 0.000000 -0.000003 -2.329724 0.445921 -0.494045
    18 10.950466 0.000000 0.000000 0.000000 0.000000 0.870257
    19 10.950471 0.000000 0.000000 0.680567 0.272119 0.269812
    20 2.428221 0.000000 0.000000 -0.210587 -0.668224 -0.054956
    21 1.681022 0.975106 0.213387 0.000000 0.000001 -1.369541
  time 56
    0 -36.115586 2.192587 -969.417332 1.308973 -1.047185 -3.141591
    1 -2.738365 0.316416 0.000000 -1.570795 -1.570796 0.000000
    2 -0.000004 0.000006 3.319508 0.129556 -2.995935 -1.256304
    3 16.897085 0.000000 0.000000 0.000000 0.000000 -0.652987
    4 16.589727 0.000000 0.000000 -0.106480 -0.269434 -1.032972
    5 0.000005 -0.000003 -3.319508 0.026557 2.947867 0.639137
    6 16.897085 0.000000 0.000000 0.000000 0.000000 -0.886590
    7 16.589727 0.000000 0.000000 0.132489 0.144296 1.768854
    8 3.488968 -0.004234 0.000004 0.000053 0.087261 0.166751
    9 5.318531 -0.004538 0.000000 0.527413 -0.093590 0.321162
    10 5.701826 -0.005492 0.000000 0.496916 0.012096 -0.023122
    11 6.895578 -0.001818 0.000000 0.000000 -0.000001 -0.331442
    12 0.000003 0.001927 2.008302 -0.000013 -1.370797 3.472159
    13 4.746895 0.000000 0.000000 -0.422883 0.295396 -1.590959
    14 10.950472 0.000000 0.000000 0.000000 0.000000 -0.636315
    15 10.950467 0.000000 0.000000 -0.595602 -0.195726 -0.449361
    16 0.000003 0.001941 -2.008302 -0.000013 1.370795 3.472210
    17 4.746896 0.000000 -0.000003 -2.328482 0.372453 -0.496243
    18 10.950466 0.000000 0.000000 0.000000 0.000000 0.870257
    19 10.950471 0.000000 0.000000 0.680567 0.272119 0.269812
    20 2.428221 0.000000 0.000000 -0.113443 -0.678595 -0.150307
    21 1.681022 0.975106 0.213387 0.000000 0.000001 -1.424507
  time 57
    0 -36.115586 2.192587 -1005.272296 1.308973 -1.047185 -3.141591
    1 -2.757897 0.410169 0.000000 -1.570795 -1.570796 0.000000
    2 -0.000004 0.000006 3.319508 0.114025 -2.983281 -1.152557
    3 16.897085 0.000000 0.000000 0.000000 0.000000 -0.648579
    4 16.589727 0.000000 0.000000 -0.106361 -0.269693 -0.934093
    5 0.000005 -0.000003 -3.319508 0.008374 2.946239 0.545270
    6 16.897085 0.000000 0.000000 0.000000 0.000000 -0.860275
    7 16.589727 0.000000 0.000000 0.132489 0.144296 1.650453
    8 3.488968 -0.004234 0.000004 0.000053 0.087261 0.166751
    9 5.318531 -0.004538 0.000000 0.457053 -0.069982 0.326913
    10 5.701826 -0.005492 0.000000 0.451800 0.011073 -0.023649
    11 6.895578 -0.001818 0.000000 0.000000 -0.000001 -0.331442
    12 0.000003 0.001927 2.008302 -0.000013 -1.370797 3.472159
    13 4.746895 0.000000 0.000000 -0.438898 0.288858 -1.479194
    14 10.950472 0.000000 0.000000 0.000000 0.000000 -0.636315
    15 10.950467 0.000000 0.000000 -0.595602 -0.195726 -0.449361
    16 0.000003 0.001941 -2.008302 -0.000013 1.370795 3.472210
    17 4.746896 0.000000 -0.000003 -2.339947 0.272978 -0.512872
    18 10.950466 0.000000 0.000000 0.000000 0.000000 0.870257
    19 10.950471 0.000000 0.000000 0.680567 0.272119 0.269812
    20 2.428221 0.000000 0.000000 -0.016021 -0.653865 -0.252747
    21 1.681022 0.975106 0.213387 0.000000 0.000001 -1.522746
  time 58
    0 -36.115586 2.192587 -1043.473789 1.308973 -1.047185 -3.141591
    1 -2.773522 0.523453 0.000000 -1.570795 -1.570796 0.000000
    2 -0.000004 0.000006 3.319508 0.093221 -2.969956 -1.024233
    3 16.897085 0.000000 0.000000 0.000000 0.000000 -0.642676
    4 16.589727 0.000000 0.000000 -0.106272 -0.269952 -0.812694
    5 0.000005 -0.000003 -3.319508 -0.016125 2.946718 0.418688
    6 16.897085 0.000000 0.000000 0.000000 0.000000 -0.824761
    7 16.589727 0.000000 0.000000 0.132489 0.144296 1.490803
    8 3.488968 -0.004234 0.000004 0.000053 0.087261 0.166751
    9 5.318531 -0.004538 0.000000 0.376311 -0.042348 0.331459
    10 5.701826 -0.005492 0.000000 0.395827 0.009779 -0.024205
    11 6.895578 -0.001818 0.000000 0.000000 -0.000001 -0.331442
    12 0.000003 0.001927 2.008302 -0.000013 -1.370797 3.472159
    13 4.746895 0.000000 0.000000 -0.459298 0.281776 -1.347082
    14 10.950472 0.000000 0.000000 0.000000 0.000000 -0.636315
    15 10.950467 0.000000 0.000000 -0.595602 -0.195726 -0.449361
    16 0.000003 0.001941 -2.008302 -0.000013 1.370795 3.472210
    17 4.746896 0.000000 -0.000003 -2.366317 0.161542 -0.535234
    18 10.950466 0.000000 0.000000 0.000000 0.000000 0.870257
    19 10.950471 0.000000 0.000000 0.680567 0.272119 0.269812
    20 2.428221 0.000000 0.000000 0.068714 -0.601212 -0.345798
    21 1.681022 0.975106 0.213387 0.000000 0.000001 -1.638322
  time 59
    0 -36.115586 2.192587 -1084.068742 1.308973 -1.047185 -3.141591
    1 -2.777429 0.648457 0.000000 -1.570795 -1.570796 0.000000
    2 -0.000004 0.000006 3.319508 0.067815 -2.958261 -0.879145
    3 16.897085 0.000000 0.000000 0.000000 0.000000 -0.635727
    4 16.589727 0.000000 0.000000 -0.106213 -0.270284 -0.676398
    5 0.000005 -0.000003 -3.319508 -0.044643 2.951125 0.269843
    6 16.897085 0.000000 0.000000 0.000000 0.000000 -0.783042
    7 16.589727 0.000000 0.000000 0.132489 0.144296 1.302890
    8 3.488968 -0.004234 0.000004 0.000053 0.087261 0.166751
    9 5.318531 -0.004538 0.000000 0.288397 -0.011881 0.333845
    10 5.701826 -0.005492 0.000000 0.332348 0.008277 -0.024791
    11 6.895578 -0.001818 0.000000 0.000000 -0.000001 -0.331442
    12 0.000003 0.001927 2.008302 -0.000013 -1.370797 3.472159
    13 4.746895 0.000000 0.000000 -0.483892 0.275601 -1.201499
    14 10.950472 0.000000 0.000000 0.000000 0.000000 -0.636315
    15 10.950467 0.000000 0.000000 -0.595602 -0.195726 -0.449361
    16 0.000003 0.001941 -2.008302 -0.000013 1.370795 3.472210
    17 4.746896 0.000000 -0.000003 -2.409025 0.045550 -0.556737
    18 10.950466 0.000000 0.000000 0.000000 0.000000 0.870257
    19 10.950471 0.000000 0.000000 0.680567 0.272119 0.269812
    20 2.428221 0.000000 0.000000 0.136409 -0.526672 -0.422053
    21 1.681022 0.975106 0.213387 0.000000 0.000001 -1.745239
  time 60
    0 -36.115586 2.192587 -1127.057155 1.308973 -1.047185 -3.141591
    1 -2.769616 0.785180 0.000000 -1.570795 -1.570796 0.000000
    2 -0.000004 0.000006 3.319508 0.038383 -2.949825 -0.719662
    3 16.897085 0.000000 0.000000 0.000000 0.000000 -0.627882
    4 16.589727 0.000000 0.000000 -0.106213 -0.270580 -0.527351
    5 0.000005 -0.000003 -3.319508 -0.075650 2.961090 0.102283
    6 16.897085 0.000000 0.000000 0.000000 0.000000 -0.735832
    7 16.589727 0.000000 0.000000 0.132489 0.144296 1.090709
    8 3.488968 -0.004234 0.000004 0.000053 0.087261 0.166751
    9 5.318531 -0.004538 0.000000 0.193632 0.021063 0.333418
    10 5.701826 -0.005492 0.000000 0.262250 0.006567 -0.025318
    11 6.895578 -0.001818 0.000000 0.000000 -0.000001 -0.331442
    12 0.000003 0.001927 2.008302 -0.000013 -1.370797 3.472159
    13 4.746895 0.000000 0.000000 -0.513253 0.271515 -1.043652
    14 10.950472 0.000000 0.000000 0.000000 0.000000 -0.636315
    15 10.950467 0.000000 0.000000 -0.595602 -0.195726 -0.449361
    16 0.000003 0.001941 -2.008302 -0.000013 1.370795 3.472210
    17 4.746896 0.000000 -0.000003 -2.470938 -0.070537 -0.572314
    18 10.950466 0.000000 0.000000 0.000000 0.000000 0.870257
    19 10.950471 0.000000 0.000000 0.680567 0.272119 0.269812
    20 2.428221 0.000000 0.000000 0.188177 -0.434181 -0.479532
    21 1.681022 0.975106 0.213387 0.000000 0.000001 -1.745239
  time 61
    0 -36.115586 2.192587 -1172.251304 1.308973 -1.047185 -3.141591
    1 -2.746178 0.925810 0.000000 -1.570795 -1.570796 0.000000
    2 -0.000004 0.000006 3.319508 0.004924 -2.946087 -0.545346
    3 16.897085 0.000000 0.000000 0.000000 0.000000 -0.619065
    4 16.589727 0.000000 0.000000 -0.106302 -0.270838 -0.365001
    5 0.000005 -0.000003 -3.319508 -0.107613 2.978048 -0.084139
    6 16.897085 0.000000 0.000000 0.000000 0.000000 -0.683132
    7 16.589727 0.000000 0.000000 0.132489 0.144296 0.853555
    8 3.488968 -0.004234 0.000004 0.000053 0.087261 0.166751
    9 5.318531 -0.004538 0.000000 0.090661 0.056574 0.329399
    10 5.701826 -0.005492 0.000000 0.185007 0.004666 -0.025757
    11 6.895578 -0.001818 0.000000 0.000000 -0.000001 -0.331442
    12 0.000003 0.001927 2.008302 -0.000013 -1.370797 3.472159
    13 4.746895 0.000000 0.000000 -0.547952 0.270788 -0.872427
    14 10.950472 0.000000 0.000000 0.000000 0.000000 -0.636315
    15 10.950467 0.000000 0.000000 -0.595602 -0.195726 -0.449361
    16 0.000003 0.001941 -2.008302 -0.000013 1.370795 3.472210
    17 4.746896 0.000000 -0.000003 -2.556545 -0.182067 -0.577093
    18 10.950466 0.000000 0.000000 0.000000 0.000000 0.870257
    19 10.950471 0.000000 0.000000 0.680567 0.272119 0.269812
    20 2.428221 0.000000 0.000000 0.227164 -0.325636 -0.517659
    21 1.681022 0.975106 0.213387 0.000000 0.000001 -1.745239
  time 62
    0 -36.115586 2.192587 -1219.463469 1.308973 -1.047185 -3.141591
    1 -2.707114 1.078158 0.000000 -1.570795 -1.570796 0.000000
    2 -0.000004 0.000006 3.319508 -0.031411 -2.948483 -0.355669
    3 16.897085 0.000000 0.000000 0.000000 0.000000 -0.609277
    4 16.589727 0.000000 0.000000 -0.106421 -0.271060 -0.188654
    5 0.000005 -0.000003 -3.319508 -0.138715 3.003343 -0.290344
    6 16.897085 0.000000 0.000000 0.000000 0.000000 -0.624440
    7 16.589727 0.000000 0.000000 0.132489 0.144296 0.589431
    8 3.488968 -0.004234 0.000004 0.000053 0.087261 0.166751
    9 5.318531 -0.004538 0.000000 -0.022014 0.094607 0.320886
    10 5.701826 -0.005492 0.000000 0.099843 0.002525 -0.026050
    11 6.895578 -0.001818 0.000000 0.000000 -0.000001 -0.331442
    12 0.000003 0.001927 2.008302 -0.000013 -1.370797 3.472159
    13 4.746895 0.000000 0.000000 -0.588466 0.275419 -0.686151
    14 10.950472 0.000000 0.000000 0.000000 0.000000 -0.636315
    15 10.950467 0.000000 0.000000 -0.595602 -0.195726 -0.449361
    16 0.000003 0.001941 -2.008302 -0.000013 1.370795 3.472210
    17 4.746896 0.000000 -0.000003 -2.671293 -0.281353 -0.566007
    18 10.950466 0.000000 0.000000 0.000000 0.000000 0.870257
    19 10.950471 0.000000 0.000000 0.680567 0.272119 0.269812
    20 2.428221 0.000000 0.000000 0.257817 -0.202781 -0.534967
    21 1.681022 0.975106 0.213387 0.000000 0.000001 -1.745239
  time 63
    0 -36.115586 2.192587 -1268.224343 1.308973 -1.047185 -3.141591
    1 -2.644612 1.238319 0.000000 -1.570795 -1.570796 0.000000
    2 -0.000004 0.000006 3.319508 -0.069279 -2.958645 -0.153178
    3 16.897085 0.000000 0.000000 0.000000 0.000000 -0.598517
    4 16.589727 0.000000 0.000000 -0.106599 -0.271097 -0.000181
    5 0.000005 -0.000003 -3.319508 -0.165989 3.037836 -0.515119
    6 16.897085 0.000000 0.000000 0.000000 0.000000 -0.559973
    7 16.589727 0.000000 0.000000 0.132489 0.144296 0.299158
    8 3.488968 -0.004234 0.000004 0.000053 0.087261 0.166751
    9 5.318531 -0.004538 0.000000 -0.145001 0.134433 0.306797
    10 5.701826 -0.005492 0.000000 0.006869 0.000160 -0.026167
    11 6.895578 -0.001818 0.000000 0.000000 -0.000001 -0.331442
    12 0.000003 0.001927 2.008302 -0.000013 -1.370797 3.472159
    13 4.746895 0.000000 0.000000 -0.634509 0.287496 -0.485289
    14 10.950472 0.000000 0.000000 0.000000 0.000000 -0.636315
    15 10.950467 0.000000 0.000000 -0.595602 -0.195726 -0.449361
    16 0.000003 0.001941 -2.008302 -0.000013 1.370795 3.472210
    17 4.746896 0.000000 -0.000003 -2.816710 -0.356625 -0.537146
    18 10.950466 0.000000 0.000000 0.000000 0.000000 0.870257
    19 10.950471 0.000000 0.000000 0.680567 0.272119 0.269812
    20 2.428221 0.000000 0.000000 0.286154 -0.069455 -0.528580
    21 1.681022 0.975106 0.213387 0.000000 0.000001 -1.745239
  time 64
    0 -36.115586 2.192587 -1317.829968 1.308973 -1.047185 -3.141591
    1 -2.554765 1.394574 0.000000 -1.570795 -1.570796 0.000000
    2 -0.000004 0.000006 3.319508 -0.104943 -2.976667 0.052385
    3 16.897085 0.000000 0.000000 0.000000 0.000000 -0.587160
    4 16.589727 0.000000 0.000000 -0.106778 -0.270912 0.191757
    5 0.000005 -0.000003 -3.319508 -0.185608 3.079802 -0.751220
    6 16.897085 0.000000 0.000000 0.000000 0.000000 -0.491654
    7 16.589727 0.000000 0.000000 0.132489 0.144296 -0.008037
    8 3.488968 -0.004234 0.000004 0.000053 0.087261 0.166751
    9 5.318531 -0.004538 0.000000 -0.275588 0.174059 0.286705
    10 5.701826 -0.005492 0.000000 -0.091174 -0.002301 -0.026079
    11 6.895578 -0.001818 0.000000 0.000000 -0.000001 -0.331442
    12 0.000003 0.001927 2.008302 -0.000013 -1.370797 3.472159
    13 4.746895 0.000000 0.000000 -0.683793 0.308835 -0.275694
    14 10.950472 0.000000 0.000000 0.000000 0.000000 -0.636315
    15 10.950467 0.000000 0.000000 -0.595602 -0.195726 -0.449361
    16 0.000003 0.001941 -2.008302 -0.000013 1.370795 3.472210
    17 4.746896 0.000000 -0.000003 -2.982956 -0.394023 -0.498059
    18 10.950466 0.000000 0.000000 0.000000 0.000000 0.870257
    19 10.950471 0.000000 0.000000 0.680567 0.272119 0.269812
    20 2.428221 0.000000 0.000000 0.319585 0.065267 -0.495115
    21 1.681022 0.975106 0.213387 0.000000 0.000001 -1.745239
  time 65
    0 -36.115586 2.192587 -1367.482523 1.308973 -1.047185 -3.141591
    1 -2.453200 1.535203 0.000000 -1.570795 -1.570796 0.000000
    2 -0.000004 0.000006 3.319508 -0.133608 -2.999290 0.238376
    3 16.897085 0.000000 0.000000 0.000000 0.000000 -0.576102
    4 16.589727 0.000000 0.000000 -0.106778 -0.270358 0.365886
    5 0.000005 -0.000003 -3.319508 -0.194795 3.123780 -0.979058
    6 16.897085 0.000000 0.000000 0.000000 0.000000 -0.425475
    7 16.589727 0.000000 0.000000 0.132489 0.144296 -0.306124
    8 3.488968 -0.004234 0.000004 0.000053 0.087261 0.166751
    9 5.318531 -0.004538 0.000000 -0.404283 0.209791 0.262119
    10 5.701826 -0.005492 0.000000 -0.186420 -0.004698 -0.025728
    11 6.895578 -0.001818 0.000000 0.000000 -0.000001 -0.331442
    12 0.000003 0.001927 2.008302 -0.000013 -1.370797 3.472159
    13 4.746895 0.000000 0.000000 -0.730884 0.338528 -0.073717
    14 10.950472 0.000000 0.000000 0.000000 0.000000 -0.636315
    15 10.950467 0.000000 0.000000 -0.595602 -0.195726 -0.449361
    16 0.000003 0.001941 -2.008302 -0.000013 1.370795 3.472210
    17 4.746896 0.000000 -0.000003 -3.141272 -0.389941 -0.470249
    18 10.950466 0.000000 0.000000 0.000000 0.000000 0.870257
    19 10.950471 0.000000 0.000000 0.680567 0.272119 0.269812
    20 2.428221 0.000000 0.000000 0.364870 0.184682 -0.434699
    21 1.681022 0.975106 0.213387 0.000000 0.000001 -1.745239
  time 66
    0 -36.115586 2.192587 -1415.727160 1.308973 -1.047185 -3.141591
    1 -2.359447 1.640675 0.000000 -1.570795 -1.570796 0.000000
    2 -0.000004 0.000006 3.319508 -0.150098 -3.017408 0.359238
    3 16.897085 0.000000 0.000000 0.000000 0.000000 -0.567509
    4 16.589727 0.000000 0.000000 -0.106510 -0.269360 0.478347
    5 0.000005 -0.000003 -3.319508 -0.194795 3.158751 -1.156000
    6 16.897085 0.000000 0.000000 0.000000 0.000000 -0.373915
    7 16.589727 0.000000 0.000000 0.132489 0.144296 -0.538049
    8 3.488968 -0.004234 0.000004 0.000053 0.087261 0.166751
    9 5.318531 -0.004538 0.000000 -0.509217 0.236098 0.238913
    10 5.701826 -0.005492 0.000000 -0.261696 -0.006551 -0.025318
    11 6.895578 -0.001818 0.000000 0.000000 -0.000001 -0.331442
    12 0.000003 0.001927 2.008302 -0.000013 -1.370797 3.472159
    13 4.746895 0.000000 0.000000 -0.766822 0.368766 0.086545
    14 10.950472 0.000000 0.000000 0.000000 0.000000 -0.636315
    15 10.950467 0.000000 0.000000 -0.595602 -0.195726 -0.449361
    16 0.000003 0.001941 -2.008302 -0.000013 1.370795 3.472210
    17 4.746896 0.000000 -0.000003 -3.250287 -0.364408 -0.480857
    18 10.950466 0.000000 0.000000 0.000000 0.000000 0.870257
    19 10.950471 0.000000 0.000000 0.680567 0.272119 0.269812
    20 2.428221 0.000000 0.000000 0.418119 0.264458 -0.361190
    21 1.681022 0.975106 0.213387 0.000000 0.000001 -1.745239
  time 67
    0 -36.115586 2.192587 -1460.921310 1.308973 -1.047185 -3.141591
    1 -2.359447 1.640675 0.000000 -1.570795 -1.570796 0.000000
    2 -0.000004 0.000006 3.319508 -0.147318 -3.015874 0.324480
    3 16.897085 0.000000 0.000000 0.000000 0.000000 -0.567509
    4 16.589727 0.000000 0.000000 -0.105380 -0.265592 0.443701
    5 0.000005 -0.000003 -3.319508 -0.194795 3.158751 -1.156000
    6 16.897085 0.000000 0.000000 0.000000 0.000000 -0.373915
    7 16.589727 0.000000 0.000000 0.132489 0.144296 -0.538049
    8 3.488968 -0.004234 0.000004 0.000053 0.087261 0.166751
    9 5.318531 -0.004538 0.000000 -0.509217 0.236098 0.238913
    10 5.701826 -0.005492 0.000000 -0.261696 -0.006551 -0.025318
    11 6.895578 -0.001818 0.000000 0.000000 -0.000001 -0.331442
    12 0.000003 0.001927 2.008302 -0.000013 -1.370797 3.472159
    13 4.746895 0.000000 0.000000 -0.766822 0.368766 0.086545
    14 10.950472 0.000000 0.000000 0.000000 0.000000 -0.636315
    15 10.950467 0.000000 0.000000 -0.595602 -0.195726 -0.449361
    16 0.000003 0.001941 -2.008302 -0.000013 1.370795 3.472210
    17 4.746896 0.000000 -0.000003 -3.240064 -0.362225 -0.521759
    18 10.950466 0.000000 0.000000 0.000000 0.000000 0.870257
    19 10.950471 0.000000 0.000000 0.680567 0.272119 0.269812
    20 2.428221 0.000000 0.000000 0.363296 0.221379 -0.253577
    21 1.681022 0.975106 0.213387 0.000000 0.000001 -1.745239
  time 68
    0 -36.115586 2.192587 -1500.953096 1.308973 -1.047185 -3.141591
    1 -2.359447 1.640675 0.000000 -1.570795 -1.570796 0.000000
    2 -0.000004 0.000006 3.319508 -0.094110 -2.977721 -0.058735
    3 16.897085 0.000000 0.000000 0.000000 0.000000 -0.567509
    4 16.589727 0.000000 0.000000 -0.105291 -0.256947 0.062736
    5 0.000005 -0.000003 -3.319508 -0.194795 3.158751 -1.156000
    6 16.897085 0.000000 0.000000 0.000000 0.000000 -0.373915
    7 16.589727 0.000000 0.000000 0.132489 0.144296 -0.538049
    8 3.488968 -0.004234 0.000004 0.000053 0.087261 0.166751
    9 5.318531 -0.004538 0.000000 -0.509217 0.236098 0.238913
    10 5.701826 -0.005492 0.000000 -0.261696 -0.006551 -0.025318
    11 6.895578 -0.001818 0.000000 0.000000 -0.000001 -0.331442
    12 0.000003 0.001927 2.008302 -0.000013 -1.370797 3.472159
    13 4.746895 0.000000 0.000000 -0.766822 0.368766 0.086545
    14 10.950472 0.000000 0.000000 0.000000 0.000000 -0.636315
    15 10.950467 0.000000 0.000000 -0.595602 -0.195726 -0.449361
    16 0.000003 0.001941 -2.008302 -0.000013 1.370795 3.472210
    17 4.746896 0.000000 -0.000003 -3.067512 -0.368679 -0.989368
    18 10.950466 0.000000 0.000000 0.000000 0.000000 0.870257
    19 10.950471 0.000000 0.000000 0.680567 0.272119 0.269812
    20 2.428221 0.000000 0.000000 0.430343 0.112584 -0.022577
    21 1.681022 0.975106 0.213387 0.000000 0.000001 -1.745239
  time 69
    0 -36.115586 2.192587 -1500.953096 1.308973 -1.047185 -3.141591
    1 -2.359447 1.640675 0.000000 -1.570795 -1.570796 0.000000
    2 -0.000004 0.000006 3.319508 -0.037834 -2.962000 -0.395430
    3 16.897085 0.000000 0.000000 0.000000 0.000000 -0.567509
    4 16.589727 0.000000 0.000000 -0.107878 -0.250888 -0.268617
    5 0.000005 -0.000003 -3.319508 -0.194795 3.158751 -1.156000
    6 16.897085 0.000000 0.000000 0.000000 0.000000 -0.373915
    7 16.589727 0.000000 0.000000 0.132489 0.144296 -0.538049
    8 3.488968 -0.004234 0.000004 0.000053 0.087261 0.166751
    9 5.318531 -0.004538 0.000000 -0.509217 0.236098 0.238913
    10 5.701826 -0.005492 0.000000 -0.261696 -0.006551 -0.025318
    11 6.895578 -0.001818 0.000000 0.000000 -0.000001 -0.331442
    12 0.000003 0.001927 2.008302 -0.000013 -1.370797 3.472159
    13 4.746895 0.000000 0.000000 -0.766822 0.368766 0.086545
    14 10.950472 0.000000 0.000000 0.000000 0.000000 -0.636315
    15 10.950467 0.000000 0.000000 -0.595602 -0.195726 -0.449361
    16 0.000003 0.001941 -2.008302 -0.000013 1.370795 3.472210
    17 4.746896 0.000000 -0.000003 -2.927158 -0.315714 -1.389985
    18 10.950466 0.000000 0.000000 0.000000 0.000000 0.870257
    19 10.950471 0.000000 0.000000 0.680567 0.272119 0.269812
    20 2.428221 0.000000 0.000000 0.490352 0.014110 0.144047
    21 1.681022 0.975106 0.213387 0.000000 0.000001 -1.745239
end
