version 1
nodes
  0 "Bip02" -1
  1 "Bip02 Pelvis" 0
  2 "Bip02 L Leg" 1
  3 "Bip02 L Leg1" 2
  4 "Bip02 L Foot" 3
  5 "Bip02 R Leg" 1
  6 "Bip02 R Leg1" 5
  7 "Bip02 R Foot" 6
  8 "Bip02 Spine" 1
  9 "Bip02 Spine1" 8
  10 "Bip02 Spine2" 9
  11 "Bip02 Neck" 10
  12 "Bip02 L Arm" 11
  13 "Bip02 L Arm1" 12
  14 "Bip02 L Arm2" 13
  15 "Bip02 L Hand" 14
  16 "Bip02 R Arm" 11
  17 "Bip02 R Arm1" 16
  18 "Bip02 R Arm2" 17
  19 "Bip02 R Hand" 18
  20 "Bip02 Head" 11
  21 "Bone01" 20
end
skeleton
  time 0
    0 -0.001589 0.024072 36.821262 0.000000 -0.026148 -1.570839
    1 -0.593768 0.007813 0.000000 -1.570795 -1.570796 0.000000
    2 -0.000004 0.000006 3.319508 0.003390 -3.144616 -0.003701
    3 16.904898 0.000000 0.000000 0.000000 0.000000 -0.002039
    4 16.597540 0.000000 0.000000 -0.003456 0.002995 -0.019098
    5 0.000005 -0.000003 -3.319508 -0.004928 3.157697 -0.028139
    6 16.904898 0.000000 0.000000 0.000000 0.000000 -0.272578
    7 16.597540 0.000000 0.000000 0.006254 -0.015672 0.190688
    8 3.488968 -0.004234 0.000004 -0.000004 -0.000001 0.035662
    9 5.318531 -0.004538 0.000000 -0.052270 0.001859 0.034835
    10 5.701826 -0.005492 0.000000 -0.034869 0.000320 0.008706
    11 6.899484 -0.001818 0.000000 0.000000 -0.026147 0.099378
    12 0.050786 0.001927 2.008302 -0.571514 -1.365031 3.600345
    13 4.746895 0.000000 0.000000 0.340302 1.188271 0.213547
    14 10.954378 0.000000 0.000000 0.000000 0.000000 -0.722739
    15 10.954373 0.000000 0.000000 -1.574103 0.019392 0.236566
    16 -0.050780 0.001941 -2.008302 -0.529234 1.350105 2.519998
    17 4.746896 0.000000 -0.000003 -0.353787 -1.210997 0.198624
    18 10.954372 0.000000 0.000000 0.000000 0.000000 -0.672043
    19 10.954377 0.000000 0.000000 1.767889 -0.169629 0.443611
    20 2.428221 0.000000 0.000000 0.088069 0.007629 -0.015935
    21 1.681022 0.975106 0.213387 0.000000 0.000001 -1.745239
  time 1
    0 -0.001589 0.144545 36.586609 0.000000 -0.026148 -1.570839
    1 -0.476577 0.000000 0.000000 -1.570795 -1.570796 0.000000
    2 -0.000004 0.000006 3.319508 0.003007 -3.144903 -0.125091
    3 16.904898 0.000000 0.000000 0.000000 0.000000 -0.246369
    4 16.597540 0.000000 0.000000 -0.003456 0.002847 0.103895
    5 0.000005 -0.000003 -3.319508 -0.004067 3.158176 -0.074757
    6 16.904898 0.000000 0.000000 0.000000 0.000000 -0.367639
    7 16.597540 0.000000 0.000000 0.006221 -0.015971 0.239106
    8 3.488968 -0.004234 0.000004 -0.000004 -0.000001 0.035662
    9 5.318531 -0.004538 0.000000 -0.055874 0.000465 0.007612
    10 5.701826 -0.005492 0.000000 -0.034869 0.000320 0.008706
    11 6.899484 -0.001818 0.000000 0.000000 -0.026147 0.099378
    12 0.050786 0.001927 2.008302 -0.571514 -1.365031 3.600345
    13 4.746895 0.000000 0.000000 0.527905 1.095560 0.405862
    14 10.954378 0.000000 0.000000 0.000000 0.000000 -0.722739
    15 10.954373 0.000000 0.000000 -1.574103 0.019392 0.236566
    16 -0.050780 0.001941 -2.008302 -0.529234 1.350105 2.519998
    17 4.746896 0.000000 -0.000003 -0.417132 -1.066054 0.420817
    18 10.954372 0.000000 0.000000 0.000000 0.000000 -1.301356
    19 10.954377 0.000000 0.000000 1.785930 -0.145611 0.328557
    20 2.428221 0.000000 0.000000 0.009816 0.026127 -0.092892
    21 1.681022 0.975106 0.213387 0.000000 0.000001 -1.745239
  time 2
    0 -0.001589 0.471543 36.164234 0.000000 -0.026148 -1.570839
    1 -0.285165 -0.007813 0.000000 -1.570795 -1.570796 0.000000
    2 -0.000004 0.000006 3.319508 0.002815 -3.144807 -0.201892
    3 16.904898 0.000000 0.000000 0.000000 0.000000 -0.391472
    4 16.597540 0.000000 0.000000 -0.003456 0.002515 0.172147
    5 0.000005 -0.000003 -3.319508 -0.003014 3.158943 -0.134742
    6 16.904898 0.000000 0.000000 0.000000 0.000000 -0.481385
    7 16.597540 0.000000 0.000000 0.006221 -0.016489 0.292871
    8 3.488968 -0.004234 0.000004 -0.000004 -0.000001 0.035662
    9 5.318531 -0.004538 0.000000 -0.061618 -0.002235 -0.037293
    10 5.701826 -0.005492 0.000000 -0.034869 0.000320 0.008706
    11 6.899484 -0.001818 0.000000 0.000000 -0.026147 0.099378
    12 0.050786 0.001927 2.008302 -0.571514 -1.365031 3.600345
    13 4.746895 0.000000 0.000000 0.716271 0.921670 0.599291
    14 10.954378 0.000000 0.000000 0.000000 0.000000 -0.722739
    15 10.954373 0.000000 0.000000 -1.574103 0.019392 0.236566
    16 -0.050780 0.001941 -2.008302 -0.529234 1.350105 2.519998
    17 4.746896 0.000000 -0.000003 -0.257001 -0.887320 0.468791
    18 10.954372 0.000000 0.000000 0.000000 0.000000 -2.063863
    19 10.954377 0.000000 0.000000 1.806352 -0.108832 0.168475
    20 2.428221 0.000000 0.000000 -0.229942 -0.041135 -0.192011
    21 1.681022 0.975106 0.213387 0.000000 0.000001 -1.745239
  time 3
    0 -0.001589 0.970646 35.694928 0.000000 -0.026148 -1.570839
    1 -0.117191 -0.019532 0.000000 -1.570795 -1.570796 0.000000
    2 -0.000004 0.000006 3.319508 0.002623 -3.144616 -0.273251
    3 16.904898 0.000000 0.000000 0.000000 0.000000 -0.513936
    4 16.597540 0.000000 0.000000 -0.003456 0.002146 0.223284
    5 0.000005 -0.000003 -3.319508 -0.001675 3.159614 -0.199151
    6 16.904898 0.000000 0.000000 0.000000 0.000000 -0.593062
    7 16.597540 0.000000 0.000000 0.006156 -0.017034 0.340114
    8 3.488968 -0.004234 0.000004 -0.000004 -0.000001 0.035662
    9 5.318531 -0.004538 0.000000 -0.066649 -0.005089 -0.076973
    10 5.701826 -0.005492 0.000000 -0.034869 0.000320 0.008706
    11 6.899484 -0.001818 0.000000 0.000000 -0.026147 0.099378
    12 0.050786 0.001927 2.008302 -0.571514 -1.365031 3.600345
    13 4.746895 0.000000 0.000000 0.812456 0.755863 0.695541
    14 10.954378 0.000000 0.000000 0.000000 0.000000 -0.722739
    15 10.954373 0.000000 0.000000 -1.574103 0.019392 0.236566
    16 -0.050780 0.001941 -2.008302 -0.529234 1.350105 2.519998
    17 4.746896 0.000000 -0.000003 0.712193 -0.552254 -0.426575
    18 10.954372 0.000000 0.000000 0.000000 0.000000 -1.962154
    19 10.954377 0.000000 0.000000 1.820089 -0.070784 0.015521
    20 2.428221 0.000000 0.000000 -0.405895 -0.124650 -0.242656
    21 1.681022 0.975106 0.213387 0.000000 0.000001 -1.745239
  time 4
    0 -0.001589 1.573011 35.178692 0.000000 -0.026148 -1.570839
    1 -0.074221 -0.023438 0.000000 -1.570795 -1.570796 0.000000
    2 -0.000004 0.000006 3.319508 0.002528 -3.144616 -0.340836
    3 16.904898 0.000000 0.000000 0.000000 0.000000 -0.613536
    4 16.597540 0.000000 0.000000 -0.003456 0.001998 0.255228
    5 0.000005 -0.000003 -3.319508 -0.000335 3.159997 -0.265310
    6 16.904898 0.000000 0.000000 0.000000 0.000000 -0.692759
    7 16.597540 0.000000 0.000000 0.006156 -0.017334 0.373783
    8 3.488968 -0.004234 0.000004 -0.000004 -0.000001 0.035662
    9 5.318531 -0.004538 0.000000 -0.069503 -0.005996 -0.086994
    10 5.701826 -0.005492 0.000000 -0.034869 0.000320 0.008706
    11 6.899484 -0.001818 0.000000 0.000000 -0.026147 0.099378
    12 0.050786 0.001927 2.008302 -0.571514 -1.365031 3.600345
    13 4.746895 0.000000 0.000000 0.766889 0.690938 0.632180
    14 10.954378 0.000000 0.000000 0.000000 0.000000 -0.722739
    15 10.954373 0.000000 0.000000 -1.574103 0.019392 0.236566
    16 -0.050780 0.001941 -2.008302 -0.529234 1.350105 2.519998
    17 4.746896 0.000000 -0.000003 0.974364 0.303447 -1.241091
    18 10.954372 0.000000 0.000000 0.000000 0.000000 -0.836336
    19 10.954377 0.000000 0.000000 1.826591 -0.039950 -0.102781
    20 2.428221 0.000000 0.000000 -0.413303 -0.162394 -0.228861
    21 1.681022 0.975106 0.213387 0.000000 0.000001 -1.745239
  time 5
    0 -0.001589 2.227008 34.756317 0.000000 -0.026148 -1.570839
    1 -0.667989 -0.011719 0.000000 -1.570795 -1.570796 0.000000
    2 -0.000004 0.000006 3.319508 0.002240 -3.144999 -0.413863
    3 16.904898 0.000000 0.000000 0.000000 0.000000 -0.679213
    4 16.597540 0.000000 0.000000 -0.003486 0.002182 0.247952
    5 0.000005 -0.000003 -3.319508 0.001005 3.159709 -0.345663
    6 16.904898 0.000000 0.000000 0.000000 0.000000 -0.775198
    7 16.597540 0.000000 0.000000 0.006188 -0.017062 0.375840
    8 3.488968 -0.004234 0.000004 -0.000004 -0.000001 0.092830
    9 5.318531 -0.004538 0.000000 -0.069646 -0.003761 -0.054697
    10 5.701826 -0.005492 0.000000 -0.034869 0.000320 0.008706
    11 6.899484 -0.001818 0.000000 0.000000 -0.026147 0.099378
    12 0.050786 0.001927 2.008302 -0.571514 -1.365031 3.600345
    13 4.746895 0.000000 0.000000 0.409891 0.759586 0.230363
    14 10.954378 0.000000 0.000000 0.000000 0.000000 -0.781245
    15 10.954373 0.000000 0.000000 -1.576472 0.018616 0.114641
    16 -0.050780 0.001941 -2.008302 -0.529234 1.350105 2.519998
    17 4.746896 0.000000 -0.000003 1.209688 0.231688 -0.978474
    18 10.954372 0.000000 0.000000 0.000000 0.000000 -1.525300
    19 10.954377 0.000000 0.000000 1.826591 -0.039950 -0.102781
    20 2.428221 0.000000 0.000000 -0.165118 -0.145691 -0.183900
    21 1.681022 0.975106 0.213387 0.000000 0.000001 -1.745239
  time 6
    0 -0.001589 2.881004 34.427803 0.000000 -0.026148 -1.570839
    1 -1.253945 -0.003906 0.000000 -1.570795 -1.570796 0.000000
    2 -0.000004 0.000006 3.319508 0.001952 -3.145287 -0.472231
    3 16.904898 0.000000 0.000000 0.000000 0.000000 -0.715153
    4 16.597540 0.000000 0.000000 -0.003516 0.002367 0.225432
    5 0.000005 -0.000003 -3.319508 0.001962 3.159230 -0.412697
    6 16.904898 0.000000 0.000000 0.000000 0.000000 -0.828968
    7 16.597540 0.000000 0.000000 0.006156 -0.016707 0.362619
    8 3.488968 -0.004234 0.000004 -0.000004 -0.000001 0.149115
    9 5.318531 -0.004538 0.000000 -0.069753 -0.001460 -0.021948
    10 5.701826 -0.005492 0.000000 -0.034869 0.000320 0.008706
    11 6.899484 -0.001818 0.000000 0.000000 -0.026147 0.099378
    12 0.050786 0.001927 2.008302 -0.571514 -1.365031 3.600345
    13 4.746895 0.000000 0.000000 0.037068 0.713820 -0.179444
    14 10.954378 0.000000 0.000000 0.000000 0.000000 -0.839827
    15 10.954373 0.000000 0.000000 -1.578747 0.017496 -0.008531
    16 -0.050780 0.001941 -2.008302 -0.529234 1.350105 2.519998
    17 4.746896 0.000000 -0.000003 1.308098 -0.105942 -0.754943
    18 10.954372 0.000000 0.000000 0.000000 0.000000 -2.216966
    19 10.954377 0.000000 0.000000 1.826591 -0.039950 -0.102781
    20 2.428221 0.000000 0.000000 0.213921 -0.165136 -0.073669
    21 1.681022 0.975106 0.213387 0.000000 0.000001 -1.745239
  time 7
    0 -0.001589 3.483369 34.193150 0.000000 -0.026148 -1.570839
    1 -1.699271 0.000000 0.000000 -1.570795 -1.570796 0.000000
    2 -0.000004 0.000006 3.319508 0.001761 -3.145574 -0.511202
    3 16.904898 0.000000 0.000000 0.000000 0.000000 -0.725091
    4 16.597540 0.000000 0.000000 -0.003545 0.002515 0.196399
    5 0.000005 -0.000003 -3.319508 0.002632 3.158847 -0.460335
    6 16.904898 0.000000 0.000000 0.000000 0.000000 -0.855497
    7 16.597540 0.000000 0.000000 0.006123 -0.016380 0.341524
    8 3.488968 -0.004234 0.000004 -0.000004 -0.000001 0.191734
    9 5.318531 -0.004538 0.000000 -0.069753 0.000332 0.004096
    10 5.701826 -0.005492 0.000000 -0.034869 0.000320 0.008706
    11 6.899484 -0.001818 0.000000 0.000000 -0.026147 0.099378
    12 0.050786 0.001927 2.008302 -0.571514 -1.365031 3.600345
    13 4.746895 0.000000 0.000000 -0.211067 0.595231 -0.454630
    14 10.954378 0.000000 0.000000 0.000000 0.000000 -0.893375
    15 10.954373 0.000000 0.000000 -1.580453 0.016375 -0.114257
    16 -0.050780 0.001941 -2.008302 -0.529234 1.350105 2.519998
    17 4.746896 0.000000 -0.000003 0.932325 -0.758799 -0.507042
    18 10.954372 0.000000 0.000000 0.000000 0.000000 -2.415908
    19 10.954377 0.000000 0.000000 1.826591 -0.039950 -0.102781
    20 2.428221 0.000000 0.000000 0.559992 -0.236636 0.031070
    21 1.681022 0.975106 0.213387 0.000000 0.000001 -1.745239
  time 8
    0 -0.001589 3.982472 34.099289 0.000000 -0.026148 -1.570839
    1 -1.761773 0.003906 0.000000 -1.570795 -1.570796 0.000000
    2 -0.000004 0.000006 3.319508 0.001665 -3.145670 -0.526738
    3 16.904898 0.000000 0.000000 0.000000 0.000000 -0.720458
    4 16.597540 0.000000 0.000000 -0.003575 0.002589 0.176235
    5 0.000005 -0.000003 -3.319508 0.002919 3.158655 -0.481286
    6 16.904898 0.000000 0.000000 0.000000 0.000000 -0.860845
    7 16.597540 0.000000 0.000000 0.006123 -0.016190 0.325894
    8 3.488968 -0.004234 0.000004 -0.000004 -0.000001 0.192652
    9 5.318531 -0.004538 0.000000 -0.069753 0.001261 0.017381
    10 5.701826 -0.005492 0.000000 -0.034869 0.000320 0.008706
    11 6.899484 -0.001818 0.000000 0.000000 -0.026147 0.099378
    12 0.050786 0.001927 2.008302 -0.571514 -1.365031 3.600345
    13 4.746895 0.000000 0.000000 -0.203918 0.572166 -0.410314
    14 10.954378 0.000000 0.000000 0.000000 0.000000 -0.988571
    15 10.954373 0.000000 0.000000 -1.581401 0.015686 -0.173303
    16 -0.050780 0.001941 -2.008302 -0.529234 1.350105 2.519998
    17 4.746896 0.000000 -0.000003 0.473907 -1.046121 -0.267265
    18 10.954372 0.000000 0.000000 0.000000 0.000000 -2.352398
    19 10.954377 0.000000 0.000000 1.826591 -0.039950 -0.102781
    20 2.428221 0.000000 0.000000 0.749002 -0.292978 0.116074
    21 1.681022 0.975106 0.213387 0.000000 0.000001 -1.745239
  time 9
    0 -0.001589 3.535001 34.193150 0.000000 -0.026148 -1.570839
    1 -1.644581 0.003906 0.000000 -1.570795 -1.570796 0.000000
    2 -0.000004 0.000006 3.319508 0.001665 -3.145670 -0.511992
    3 16.904898 0.000000 0.000000 0.000000 0.000000 -0.726660
    4 16.597540 0.000000 0.000000 -0.003575 0.002663 0.197231
    5 0.000005 -0.000003 -3.319508 0.002632 3.158751 -0.460919
    6 16.904898 0.000000 0.000000 0.000000 0.000000 -0.856923
    7 16.597540 0.000000 0.000000 0.006123 -0.016244 0.342288
    8 3.488968 -0.004234 0.000004 -0.000004 -0.000001 0.176083
    9 5.318531 -0.004538 0.000000 -0.067898 0.001394 0.019968
    10 5.701826 -0.005492 0.000000 -0.034869 0.000320 0.008706
    11 6.899484 -0.001818 0.000000 0.000000 -0.026147 0.099378
    12 0.050786 0.001927 2.008302 -0.571514 -1.365031 3.600345
    13 4.746895 0.000000 0.000000 0.132681 0.625650 0.085802
    14 10.954378 0.000000 0.000000 0.000000 0.000000 -1.200626
    15 10.954373 0.000000 0.000000 -1.581401 0.015686 -0.173303
    16 -0.050780 0.001941 -2.008302 -0.529234 1.350105 2.519998
    17 4.746896 0.000000 -0.000003 0.812227 -0.912189 -0.955060
    18 10.954372 0.000000 0.000000 0.000000 0.000000 -2.006141
    19 10.954377 0.000000 0.000000 1.826591 -0.039950 -0.102781
    20 2.428221 0.000000 0.000000 0.698994 -0.249300 0.152541
    21 1.681022 0.975106 0.213387 0.000000 0.000001 -1.745239
  time 10
    0 -0.001589 3.070319 34.380872 0.000000 -0.026148 -1.570839
    1 -1.515671 0.003906 0.000000 -1.570795 -1.570796 0.000000
    2 -0.000004 0.000006 3.319508 0.001761 -3.145670 -0.486099
    3 16.904898 0.000000 0.000000 0.000000 0.000000 -0.714406
    4 16.597540 0.000000 0.000000 -0.003575 0.002737 0.210743
    5 0.000005 -0.000003 -3.319508 0.002058 3.158751 -0.430780
    6 16.904898 0.000000 0.000000 0.000000 0.000000 -0.836028
    7 16.597540 0.000000 0.000000 0.006123 -0.016244 0.351572
    8 3.488968 -0.004234 0.000004 -0.000004 -0.000001 0.158668
    9 5.318531 -0.004538 0.000000 -0.065971 0.001482 0.021851
    10 5.701826 -0.005492 0.000000 -0.034869 0.000320 0.008706
    11 6.899484 -0.001818 0.000000 0.000000 -0.026147 0.099378
    12 0.050786 0.001927 2.008302 -0.571514 -1.365031 3.600345
    13 4.746895 0.000000 0.000000 0.455934 0.540930 0.565752
    14 10.954378 0.000000 0.000000 0.000000 0.000000 -1.402994
    15 10.954373 0.000000 0.000000 -1.581401 0.015686 -0.173303
    16 -0.050780 0.001941 -2.008302 -0.529234 1.350105 2.519998
    17 4.746896 0.000000 -0.000003 0.947803 -0.659323 -1.442451
    18 10.954372 0.000000 0.000000 0.000000 0.000000 -1.667754
    19 10.954377 0.000000 0.000000 1.826591 -0.039950 -0.102781
    20 2.428221 0.000000 0.000000 0.503595 -0.134921 0.131338
    21 1.681022 0.975106 0.213387 0.000000 0.000001 -1.745239
  time 11
    0 -0.001589 2.588427 34.615525 0.000000 -0.026148 -1.570839
    1 -1.386761 0.007813 0.000000 -1.570795 -1.570796 0.000000
    2 -0.000004 0.000006 3.319508 0.001857 -3.145670 -0.452395
    3 16.904898 0.000000 0.000000 0.000000 0.000000 -0.687358
    4 16.597540 0.000000 0.000000 -0.003575 0.002811 0.217464
    5 0.000005 -0.000003 -3.319508 0.001484 3.158847 -0.393690
    6 16.904898 0.000000 0.000000 0.000000 0.000000 -0.801798
    7 16.597540 0.000000 0.000000 0.006123 -0.016217 0.354392
    8 3.488968 -0.004234 0.000004 -0.000004 -0.000001 0.141474
    9 5.318531 -0.004538 0.000000 -0.064045 0.001549 0.023660
    10 5.701826 -0.005492 0.000000 -0.034869 0.000320 0.008706
    11 6.899484 -0.001818 0.000000 0.000000 -0.026147 0.099378
    12 0.050786 0.001927 2.008302 -0.571514 -1.365031 3.600345
    13 4.746895 0.000000 0.000000 0.651353 0.392012 0.894452
    14 10.954378 0.000000 0.000000 0.000000 0.000000 -1.560052
    15 10.954373 0.000000 0.000000 -1.581401 0.015686 -0.173303
    16 -0.050780 0.001941 -2.008302 -0.529234 1.350105 2.519998
    17 4.746896 0.000000 -0.000003 0.942644 -0.448507 -1.748552
    18 10.954372 0.000000 0.000000 0.000000 0.000000 -1.387862
    19 10.954377 0.000000 0.000000 1.826591 -0.039950 -0.102781
    20 2.428221 0.000000 0.000000 0.269670 -0.020841 0.067920
    21 1.681022 0.975106 0.213387 0.000000 0.000001 -1.745239
  time 12
    0 -0.001589 2.106534 34.897109 0.000000 -0.026148 -1.570839
    1 -1.261757 0.007813 0.000000 -1.570795 -1.570796 0.000000
    2 -0.000004 0.000006 3.319508 0.002048 -3.145670 -0.412809
    3 16.904898 0.000000 0.000000 0.000000 0.000000 -0.648205
    4 16.597540 0.000000 0.000000 -0.003545 0.002847 0.217949
    5 0.000005 -0.000003 -3.319508 0.000814 3.158847 -0.351642
    6 16.904898 0.000000 0.000000 0.000000 0.000000 -0.756727
    7 16.597540 0.000000 0.000000 0.006123 -0.016162 0.351396
    8 3.488968 -0.004234 0.000004 -0.000004 -0.000001 0.124683
    9 5.318531 -0.004538 0.000000 -0.062189 0.001615 0.025443
    10 5.701826 -0.005492 0.000000 -0.034869 0.000320 0.008706
    11 6.899484 -0.001818 0.000000 0.000000 -0.026147 0.099378
    12 0.050786 0.001927 2.008302 -0.571514 -1.365031 3.600345
    13 4.746895 0.000000 0.000000 0.722849 0.366677 0.983549
    14 10.954378 0.000000 0.000000 0.000000 0.000000 -1.541440
    15 10.954373 0.000000 0.000000 -1.581401 0.015686 -0.173303
    16 -0.050780 0.001941 -2.008302 -0.529234 1.350105 2.519998
    17 4.746896 0.000000 -0.000003 0.926879 -0.496916 -1.783720
    18 10.954372 0.000000 0.000000 0.000000 0.000000 -1.193782
    19 10.954377 0.000000 0.000000 1.826591 -0.039950 -0.102781
    20 2.428221 0.000000 0.000000 0.110294 0.045572 0.021746
    21 1.681022 0.975106 0.213387 0.000000 0.000001 -1.745239
  time 13
    0 -0.001589 1.641853 35.225623 0.000000 -0.026148 -1.570839
    1 -1.140660 0.007813 0.000000 -1.570795 -1.570796 0.000000
    2 -0.000004 0.000006 3.319508 0.002144 -3.145574 -0.368747
    3 16.904898 0.000000 0.000000 0.000000 0.000000 -0.598517
    4 16.597540 0.000000 0.000000 -0.003545 0.002884 0.212336
    5 0.000005 -0.000003 -3.319508 -0.000048 3.158751 -0.305997
    6 16.904898 0.000000 0.000000 0.000000 0.000000 -0.702386
    7 16.597540 0.000000 0.000000 0.006156 -0.016108 0.342699
    8 3.488968 -0.004234 0.000004 -0.000004 -0.000001 0.108408
    9 5.318531 -0.004538 0.000000 -0.060370 0.001682 0.027150
    10 5.701826 -0.005492 0.000000 -0.034869 0.000320 0.008706
    11 6.899484 -0.001818 0.000000 0.000000 -0.026147 0.099378
    12 0.050786 0.001927 2.008302 -0.571514 -1.365031 3.600345
    13 4.746895 0.000000 0.000000 0.728282 0.458843 0.916099
    14 10.954378 0.000000 0.000000 0.000000 0.000000 -1.400553
    15 10.954373 0.000000 0.000000 -1.580358 0.016461 -0.103330
    16 -0.050780 0.001941 -2.008302 -0.529234 1.350105 2.519998
    17 4.746896 0.000000 -0.000003 0.917038 -0.765159 -1.618676
    18 10.954372 0.000000 0.000000 0.000000 0.000000 -1.070003
    19 10.954377 0.000000 0.000000 1.821829 -0.064047 -0.010468
    20 2.428221 0.000000 0.000000 0.069362 0.067461 0.029345
    21 1.681022 0.975106 0.213387 0.000000 0.000001 -1.745239
  time 14
    0 -0.001589 1.194381 35.554137 0.000000 -0.026148 -1.570839
    1 -1.023469 0.007813 0.000000 -1.570795 -1.570796 0.000000
    2 -0.000004 0.000006 3.319508 0.002336 -3.145478 -0.321175
    3 16.904898 0.000000 0.000000 0.000000 0.000000 -0.539116
    4 16.597540 0.000000 0.000000 -0.003545 0.002921 0.200418
    5 0.000005 -0.000003 -3.319508 -0.000909 3.158655 -0.257873
    6 16.904898 0.000000 0.000000 0.000000 0.000000 -0.640129
    7 16.597540 0.000000 0.000000 0.006156 -0.016026 0.328538
    8 3.488968 -0.004234 0.000004 -0.000004 -0.000001 0.092683
    9 5.318531 -0.004538 0.000000 -0.058621 0.001726 0.028808
    10 5.701826 -0.005492 0.000000 -0.034869 0.000320 0.008706
    11 6.899484 -0.001818 0.000000 0.000000 -0.026147 0.099378
    12 0.050786 0.001927 2.008302 -0.571514 -1.365031 3.600345
    13 4.746895 0.000000 0.000000 0.720561 0.557547 0.835736
    14 10.954378 0.000000 0.000000 0.000000 0.000000 -1.254936
    15 10.954373 0.000000 0.000000 -1.579126 0.017323 -0.030386
    16 -0.050780 0.001941 -2.008302 -0.529234 1.350105 2.519998
    17 4.746896 0.000000 -0.000003 0.809361 -1.035300 -1.362461
    18 10.954372 0.000000 0.000000 0.000000 0.000000 -0.954790
    19 10.954377 0.000000 0.000000 1.814411 -0.088540 0.085997
    20 2.428221 0.000000 0.000000 0.072418 0.073444 0.057127
    21 1.681022 0.975106 0.213387 0.000000 0.000001 -1.745239
  time 15
    0 -0.001589 0.815752 35.882651 0.000000 -0.026148 -1.570839
    1 -0.910184 0.007813 0.000000 -1.570795 -1.570796 0.000000
    2 -0.000004 0.000006 3.319508 0.002528 -3.145382 -0.270881
    3 16.904898 0.000000 0.000000 0.000000 0.000000 -0.470226
    4 16.597540 0.000000 0.000000 -0.003516 0.002958 0.181848
    5 0.000005 -0.000003 -3.319508 -0.001770 3.158560 -0.208338
    6 16.904898 0.000000 0.000000 0.000000 0.000000 -0.571026
    7 16.597540 0.000000 0.000000 0.006156 -0.015944 0.308912
    8 3.488968 -0.004234 0.000004 -0.000004 -0.000001 0.077766
    9 5.318531 -0.004538 0.000000 -0.056980 0.001770 0.030390
    10 5.701826 -0.005492 0.000000 -0.034869 0.000320 0.008706
    11 6.899484 -0.001818 0.000000 0.000000 -0.026147 0.099378
    12 0.050786 0.001927 2.008302 -0.571514 -1.365031 3.600345
    13 4.746895 0.000000 0.000000 0.703497 0.651983 0.753143
    14 10.954378 0.000000 0.000000 0.000000 0.000000 -1.115804
    15 10.954373 0.000000 0.000000 -1.577894 0.018013 0.039396
    16 -0.050780 0.001941 -2.008302 -0.529234 1.350105 2.519998
    17 4.746896 0.000000 -0.000003 0.421071 -1.255039 -0.841048
    18 10.954372 0.000000 0.000000 0.000000 0.000000 -0.844053
    19 10.954377 0.000000 0.000000 1.805161 -0.111289 0.178762
    20 2.428221 0.000000 0.000000 0.100756 0.070153 0.098128
    21 1.681022 0.975106 0.213387 0.000000 0.000001 -1.745239
  time 16
    0 -0.001589 0.471543 36.164234 0.000000 -0.026148 -1.570839
    1 -0.804712 0.007813 0.000000 -1.570795 -1.570796 0.000000
    2 -0.000004 0.000006 3.319508 0.002719 -3.145287 -0.218130
    3 16.904898 0.000000 0.000000 0.000000 0.000000 -0.391622
    4 16.597540 0.000000 0.000000 -0.003516 0.002995 0.155933
    5 0.000005 -0.000003 -3.319508 -0.002632 3.158368 -0.158367
    6 16.904898 0.000000 0.000000 0.000000 0.000000 -0.496218
    7 16.597540 0.000000 0.000000 0.006188 -0.015862 0.284116
    8 3.488968 -0.004234 0.000004 -0.000004 -0.000001 0.063879
    9 5.318531 -0.004538 0.000000 -0.055410 0.001792 0.031847
    10 5.701826 -0.005492 0.000000 -0.034869 0.000320 0.008706
    11 6.899484 -0.001818 0.000000 0.000000 -0.026147 0.099378
    12 0.050786 0.001927 2.008302 -0.571514 -1.365031 3.600345
    13 4.746895 0.000000 0.000000 0.677664 0.739245 0.669249
    14 10.954378 0.000000 0.000000 0.000000 0.000000 -0.986130
    15 10.954373 0.000000 0.000000 -1.576662 0.018530 0.104384
    16 -0.050780 0.001941 -2.008302 -0.529234 1.350105 2.519998
    17 4.746896 0.000000 -0.000003 -0.472643 -1.300411 0.174063
    18 10.954372 0.000000 0.000000 0.000000 0.000000 -0.739180
    19 10.954377 0.000000 0.000000 1.794630 -0.131581 0.265661
    20 2.428221 0.000000 0.000000 0.130205 0.061976 0.140152
    21 1.681022 0.975106 0.213387 0.000000 0.000001 -1.745239
  time 17
    0 -0.001589 0.230597 36.445818 0.000000 -0.026148 -1.570839
    1 -0.710959 0.007813 0.000000 -1.570795 -1.570796 0.000000
    2 -0.000004 0.000006 3.319508 0.002815 -3.145191 -0.162745
    3 16.904898 0.000000 0.000000 0.000000 0.000000 -0.301810
    4 16.597540 0.000000 0.000000 -0.003486 0.002995 0.121634
    5 0.000005 -0.000003 -3.319508 -0.003493 3.158176 -0.109367
    6 16.904898 0.000000 0.000000 0.000000 0.000000 -0.417702
    7 16.597540 0.000000 0.000000 0.006221 -0.015781 0.254560
    8 3.488968 -0.004234 0.000004 -0.000004 -0.000001 0.051387
    9 5.318531 -0.004538 0.000000 -0.054019 0.001836 0.033178
    10 5.701826 -0.005492 0.000000 -0.034869 0.000320 0.008706
    11 6.899484 -0.001818 0.000000 0.000000 -0.026147 0.099378
    12 0.050786 0.001927 2.008302 -0.571514 -1.365031 3.600345
    13 4.746895 0.000000 0.000000 0.644013 0.816338 0.585727
    14 10.954378 0.000000 0.000000 0.000000 0.000000 -0.869652
    15 10.954373 0.000000 0.000000 -1.575524 0.018961 0.162855
    16 -0.050780 0.001941 -2.008302 -0.529234 1.350105 2.519998
    17 4.746896 0.000000 -0.000003 -1.010363 -1.151577 0.822771
    18 10.954372 0.000000 0.000000 0.000000 0.000000 -0.643567
    19 10.954377 0.000000 0.000000 1.783640 -0.149020 0.344078
    20 2.428221 0.000000 0.000000 0.111591 0.029966 0.159119
    21 1.681022 0.975106 0.213387 0.000000 0.000001 -1.745239
  time 18
    0 -0.001589 0.075703 36.680471 0.000000 -0.026148 -1.570839
    1 -0.632832 0.007813 0.000000 -1.570795 -1.570796 0.000000
    2 -0.000004 0.000006 3.319508 0.003007 -3.144999 -0.102884
    3 16.904898 0.000000 0.000000 0.000000 0.000000 -0.196083
    4 16.597540 0.000000 0.000000 -0.003486 0.002995 0.075763
    5 0.000005 -0.000003 -3.319508 -0.004354 3.157889 -0.063917
    6 16.904898 0.000000 0.000000 0.000000 0.000000 -0.339613
    7 16.597540 0.000000 0.000000 0.006221 -0.015726 0.221948
    8 3.488968 -0.004234 0.000004 -0.000004 -0.000001 0.041063
    9 5.318531 -0.004538 0.000000 -0.052877 0.001836 0.034258
    10 5.701826 -0.005492 0.000000 -0.034869 0.000320 0.008706
    11 6.899484 -0.001818 0.000000 0.000000 -0.026147 0.099378
    12 0.050786 0.001927 2.008302 -0.571514 -1.365031 3.600345
    13 4.746895 0.000000 0.000000 0.606645 0.878811 0.508522
    14 10.954378 0.000000 0.000000 0.000000 0.000000 -0.773159
    15 10.954373 0.000000 0.000000 -1.574671 0.019305 0.211261
    16 -0.050780 0.001941 -2.008302 -0.529234 1.350105 2.519998
    17 4.746896 0.000000 -0.000003 -1.156927 -0.987935 1.061210
    18 10.954372 0.000000 0.000000 0.000000 0.000000 -0.572726
    19 10.954377 0.000000 0.000000 1.773566 -0.162732 0.409321
    20 2.428221 0.000000 0.000000 0.096033 0.003640 0.175277
    21 1.681022 0.975106 0.213387 0.000000 0.000001 -1.745239
  time 19
    0 -0.001589 0.024072 36.821262 0.000000 -0.026148 -1.570839
    1 -0.593768 0.007813 0.000000 -1.570795 -1.570796 0.000000
    2 -0.000004 0.000006 3.319508 0.003390 -3.144616 -0.003701
    3 16.904898 0.000000 0.000000 0.000000 0.000000 -0.002039
    4 16.597540 0.000000 0.000000 -0.003456 0.002995 -0.019098
    5 0.000005 -0.000003 -3.319508 -0.004928 3.157697 -0.028139
    6 16.904898 0.000000 0.000000 0.000000 0.000000 -0.272578
    7 16.597540 0.000000 0.000000 0.006254 -0.015672 0.190688
    8 3.488968 -0.004234 0.000004 -0.000004 -0.000001 0.035662
    9 5.318531 -0.004538 0.000000 -0.052270 0.001859 0.034835
    10 5.701826 -0.005492 0.000000 -0.034869 0.000320 0.008706
    11 6.899484 -0.001818 0.000000 0.000000 -0.026147 0.099378
    12 0.050786 0.001927 2.008302 -0.571514 -1.365031 3.600345
    13 4.746895 0.000000 0.000000 0.647159 0.868732 0.554232
    14 10.954378 0.000000 0.000000 0.000000 0.000000 -0.717171
    15 10.954373 0.000000 0.000000 -1.574103 -0.024994 0.217300
    16 -0.050780 0.001941 -2.008302 -0.529234 1.350105 2.519998
    17 4.746896 0.000000 -0.000003 -0.858735 -1.040900 0.753485
    18 10.954372 0.000000 0.000000 0.000000 0.000000 -0.672043
    19 10.954377 0.000000 0.000000 1.767889 -0.169629 0.443611
    20 2.428221 0.000000 0.000000 0.087791 -0.009972 0.183899
    21 1.681022 0.975106 0.213387 0.000000 0.000001 -1.745239
  time 20
    0 -0.001589 0.024072 36.821262 0.000000 -0.026148 -1.570839
    1 -0.593768 0.007813 0.000000 -1.570795 -1.570796 0.000000
    2 -0.000004 0.000006 3.319508 0.003390 -3.144616 -0.003701
    3 16.904898 0.000000 0.000000 0.000000 0.000000 -0.002039
    4 16.597540 0.000000 0.000000 -0.003456 0.002995 -0.019098
    5 0.000005 -0.000003 -3.319508 -0.004928 3.157697 -0.028139
    6 16.904898 0.000000 0.000000 0.000000 0.000000 -0.272578
    7 16.597540 0.000000 0.000000 0.006254 -0.015672 0.190688
    8 3.488968 -0.004234 0.000004 -0.000004 -0.000001 0.035662
    9 5.318531 -0.004538 0.000000 -0.052270 0.001859 0.034835
    10 5.701826 -0.005492 0.000000 -0.034869 0.000320 0.008706
    11 6.899484 -0.001818 0.000000 0.000000 -0.026147 0.099378
    12 0.050786 0.001927 2.008302 -0.571514 -1.365031 3.600345
    13 4.746895 0.000000 0.000000 0.685004 0.855020 0.601242
    14 10.954378 0.000000 0.000000 0.000000 0.000000 -0.664614
    15 10.954373 0.000000 0.000000 -1.573723 -0.071706 0.220463
    16 -0.050780 0.001941 -2.008302 -0.893264 1.305770 2.160185
    17 4.746896 0.000000 -0.000003 0.176862 -0.995149 -0.331964
    18 10.954372 0.000000 0.000000 0.000000 0.000000 -0.952706
    19 10.954377 0.000000 0.000000 1.767889 -0.169629 0.443611
    20 2.428221 0.000000 0.000000 0.087791 -0.009972 0.183899
    21 1.681022 0.975106 0.213387 0.000000 0.000001 -1.745239
  time 21
    0 -0.001589 0.024072 36.821262 0.000000 -0.026148 -1.570839
    1 -0.593768 0.007813 0.000000 -1.570795 -1.570796 0.000000
    2 -0.000004 0.000006 3.319508 0.003390 -3.144616 -0.003701
    3 16.904898 0.000000 0.000000 0.000000 0.000000 -0.002039
    4 16.597540 0.000000 0.000000 -0.003456 0.002995 -0.019098
    5 0.000005 -0.000003 -3.319508 -0.004928 3.157697 -0.028139
    6 16.904898 0.000000 0.000000 0.000000 0.000000 -0.272578
    7 16.597540 0.000000 0.000000 0.006254 -0.015672 0.190688
    8 3.488968 -0.004234 0.000004 -0.000004 -0.000001 0.035662
    9 5.318531 -0.004538 0.000000 -0.052270 0.001859 0.034835
    10 5.701826 -0.005492 0.000000 -0.034869 0.000320 0.008706
    11 6.899484 -0.001818 0.000000 0.000000 -0.026147 0.099378
    12 0.050786 0.001927 2.008302 -0.571514 -1.365031 3.600345
    13 4.746895 0.000000 0.000000 0.721037 0.839856 0.646487
    14 10.954378 0.000000 0.000000 0.000000 0.000000 -0.613126
    15 10.954373 0.000000 0.000000 -1.573534 -0.117815 0.223434
    16 -0.050780 0.001941 -2.008302 -1.136591 1.235794 1.918873
    17 4.746896 0.000000 -0.000003 0.608050 -0.554058 -0.810658
    18 10.954372 0.000000 0.000000 0.000000 0.000000 -1.231518
    19 10.954377 0.000000 0.000000 1.767889 -0.169629 0.443611
    20 2.428221 0.000000 0.000000 0.087791 -0.009972 0.183899
    21 1.681022 0.975106 0.213387 0.000000 0.000001 -1.745239
  time 22
    0 -0.001589 0.024072 36.821262 0.000000 -0.026148 -1.570839
    1 -0.593768 0.007813 0.000000 -1.570795 -1.570796 0.000000
    2 -0.000004 0.000006 3.319508 0.003390 -3.144616 -0.003701
    3 16.904898 0.000000 0.000000 0.000000 0.000000 -0.002039
    4 16.597540 0.000000 0.000000 -0.003456 0.002995 -0.019098
    5 0.000005 -0.000003 -3.319508 -0.004928 3.157697 -0.028139
    6 16.904898 0.000000 0.000000 0.000000 0.000000 -0.272578
    7 16.597540 0.000000 0.000000 0.006254 -0.015672 0.190688
    8 3.488968 -0.004234 0.000004 -0.000004 -0.000001 0.035662
    9 5.318531 -0.004538 0.000000 -0.052270 0.001859 0.034835
    10 5.701826 -0.005492 0.000000 -0.034869 0.000320 0.008706
    11 6.899484 -0.001818 0.000000 0.000000 -0.026147 0.099378
    12 0.050786 0.001927 2.008302 -0.571514 -1.365031 3.600345
    13 4.746895 0.000000 0.000000 0.754688 0.823693 0.689317
    14 10.954378 0.000000 0.000000 0.000000 0.000000 -0.562782
    15 10.954373 0.000000 0.000000 -1.573344 -0.162890 0.226214
    16 -0.050780 0.001941 -2.008302 -1.278100 1.161020 1.777268
    17 4.746896 0.000000 -0.000003 0.710473 -0.077656 -0.979812
    18 10.954372 0.000000 0.000000 0.000000 0.000000 -1.483706
    19 10.954377 0.000000 0.000000 1.767889 -0.169629 0.443611
    20 2.428221 0.000000 0.000000 0.087791 -0.009972 0.183899
    21 1.681022 0.975106 0.213387 0.000000 0.000001 -1.745239
  time 23
    0 -0.001589 0.024072 36.821262 0.000000 -0.026148 -1.570839
    1 -0.593768 0.007813 0.000000 -1.570795 -1.570796 0.000000
    2 -0.000004 0.000006 3.319508 0.003390 -3.144616 -0.003701
    3 16.904898 0.000000 0.000000 0.000000 0.000000 -0.002039
    4 16.597540 0.000000 0.000000 -0.003456 0.002995 -0.019098
    5 0.000005 -0.000003 -3.319508 -0.004928 3.157697 -0.028139
    6 16.904898 0.000000 0.000000 0.000000 0.000000 -0.272578
    7 16.597540 0.000000 0.000000 0.006254 -0.015672 0.190688
    8 3.488968 -0.004234 0.000004 -0.000004 -0.000001 0.035662
    9 5.318531 -0.004538 0.000000 -0.052270 0.001859 0.034835
    10 5.701826 -0.005492 0.000000 -0.034869 0.000320 0.008706
    11 6.899484 -0.001818 0.000000 0.000000 -0.026147 0.099378
    12 0.050786 0.001927 2.008302 -0.571514 -1.365031 3.600345
    13 4.746895 0.000000 0.000000 0.785859 0.806804 0.729545
    14 10.954378 0.000000 0.000000 0.000000 0.000000 -0.514040
    15 10.954373 0.000000 0.000000 -1.573439 -0.206672 0.228898
    16 -0.050780 0.001941 -2.008302 -1.359592 1.094614 1.694242
    17 4.746896 0.000000 -0.000003 0.708276 0.322051 -1.074901
    18 10.954372 0.000000 0.000000 0.000000 0.000000 -1.694841
    19 10.954377 0.000000 0.000000 1.767889 -0.169629 0.443611
    20 2.428221 0.000000 0.000000 0.087791 -0.009972 0.183899
    21 1.681022 0.975106 0.213387 0.000000 0.000001 -1.745239
  time 24
    0 -0.001589 0.024072 36.821262 0.000000 -0.026148 -1.570839
    1 -0.593768 0.007813 0.000000 -1.570795 -1.570796 0.000000
    2 -0.000004 0.000006 3.319508 0.003390 -3.144616 -0.003701
    3 16.904898 0.000000 0.000000 0.000000 0.000000 -0.002039
    4 16.597540 0.000000 0.000000 -0.003456 0.002995 -0.019098
    5 0.000005 -0.000003 -3.319508 -0.004928 3.157697 -0.028139
    6 16.904898 0.000000 0.000000 0.000000 0.000000 -0.272578
    7 16.597540 0.000000 0.000000 0.006254 -0.015672 0.190688
    8 3.488968 -0.004234 0.000004 -0.000004 -0.000001 0.035662
    9 5.318531 -0.004538 0.000000 -0.052270 0.001859 0.034835
    10 5.701826 -0.005492 0.000000 -0.034869 0.000320 0.008706
    11 6.899484 -0.001818 0.000000 0.000000 -0.026147 0.099378
    12 0.050786 0.001927 2.008302 -0.571514 -1.365031 3.600345
    13 4.746895 0.000000 0.000000 0.814362 0.789278 0.766707
    14 10.954378 0.000000 0.000000 0.000000 0.000000 -0.467357
    15 10.954373 0.000000 0.000000 -1.573534 -0.248644 0.231486
    16 -0.050780 0.001941 -2.008302 -1.393244 1.058915 1.659248
    17 4.746896 0.000000 -0.000003 0.731493 0.442884 -1.016892
    18 10.954372 0.000000 0.000000 0.000000 0.000000 -1.840845
    19 10.954377 0.000000 0.000000 1.767889 -0.169629 0.443611
    20 2.428221 0.000000 0.000000 0.087791 -0.009972 0.183899
    21 1.681022 0.975106 0.213387 0.000000 0.000001 -1.745239
  time 25
    0 -0.001589 0.024072 36.821262 0.000000 -0.026148 -1.570839
    1 -0.632832 0.031251 0.000000 -1.570795 -1.570796 0.000000
    2 -0.000004 0.000006 3.319508 0.003390 -3.145382 -0.004930
    3 16.904898 0.000000 0.000000 0.000000 0.000000 -0.002039
    4 16.597540 0.000000 0.000000 -0.003486 0.003771 -0.020345
    5 0.000005 -0.000003 -3.319508 -0.005024 3.156931 -0.030181
    6 16.904898 0.000000 0.000000 0.000000 0.000000 -0.274218
    7 16.597540 0.000000 0.000000 0.006286 -0.014881 0.190277
    8 3.488968 -0.004234 0.000004 -0.036264 0.001294 0.035626
    9 5.318531 -0.004538 0.000000 -0.071644 0.002544 0.034785
    10 5.701826 -0.005492 0.000000 -0.034841 0.001246 0.035293
    11 6.899484 -0.001818 0.000000 0.000000 -0.026147 0.099378
    12 0.050786 0.001927 2.008302 -0.571514 -1.365031 3.600345
    13 4.746895 0.000000 0.000000 0.811979 0.803535 0.829883
    14 10.954378 0.000000 0.000000 0.000000 0.000000 -0.423573
    15 10.954373 0.000000 0.000000 -1.573818 -0.288030 0.233978
    16 -0.050780 0.001941 -2.008302 -1.393244 1.058915 1.659248
    17 4.746896 0.000000 -0.000003 0.810221 0.311895 -0.848694
    18 10.954372 0.000000 0.000000 0.000000 0.000000 -1.971183
    19 10.954377 0.000000 0.000000 1.794813 -0.131264 0.264127
    20 2.428221 0.000000 0.000000 0.139929 -0.026127 0.134978
    21 1.681022 0.975106 0.213387 0.000000 0.000001 -1.745239
  time 26
    0 -0.001589 0.024072 36.821262 0.000000 -0.026148 -1.570839
    1 -0.675802 0.062502 0.000000 -1.570795 -1.570796 0.000000
    2 -0.000004 0.000006 3.319508 0.003390 -3.146341 -0.006159
    3 16.904898 0.000000 0.000000 0.000000 0.000000 -0.002039
    4 16.597540 0.000000 0.000000 -0.003516 0.004658 -0.021523
    5 0.000005 -0.000003 -3.319508 -0.005120 3.155973 -0.032223
    6 16.904898 0.000000 0.000000 0.000000 0.000000 -0.275787
    7 16.597540 0.000000 0.000000 0.006319 -0.013955 0.189865
    8 3.488968 -0.004234 0.000004 -0.073607 0.002617 0.035552
    9 5.318531 -0.004538 0.000000 -0.091553 0.003252 0.034735
    10 5.701826 -0.005492 0.000000 -0.034813 0.002205 0.062700
    11 6.899484 -0.001818 0.000000 0.000000 -0.026147 0.099378
    12 0.050786 0.001927 2.008302 -0.571514 -1.365031 3.600345
    13 4.746895 0.000000 0.000000 0.810930 0.822513 0.893431
    14 10.954378 0.000000 0.000000 0.000000 0.000000 -0.384595
    15 10.954373 0.000000 0.000000 -1.574103 -0.323194 0.236183
    16 -0.050780 0.001941 -2.008302 -1.393244 1.058915 1.659248
    17 4.746896 0.000000 -0.000003 0.854171 0.155372 -0.699418
    18 10.954372 0.000000 0.000000 0.000000 0.000000 -2.093496
    19 10.954377 0.000000 0.000000 1.814869 -0.087430 0.081395
    20 2.428221 0.000000 0.000000 0.194381 -0.040436 0.083695
    21 1.681022 0.975106 0.213387 0.000000 0.000001 -1.745239
  time 27
    0 -0.001589 0.024072 36.821262 0.000000 -0.026148 -1.570839
    1 -0.710959 0.093753 0.000000 -1.570795 -1.570796 0.000000
    2 -0.000004 0.000006 3.319508 0.003390 -3.147300 -0.007212
    3 16.904898 0.000000 0.000000 0.000000 0.000000 -0.002039
    4 16.597540 0.000000 0.000000 -0.003516 0.005618 -0.022562
    5 0.000005 -0.000003 -3.319508 -0.005215 3.155015 -0.033924
    6 16.904898 0.000000 0.000000 0.000000 0.000000 -0.277142
    7 16.597540 0.000000 0.000000 0.006384 -0.013001 0.189513
    8 3.488968 -0.004234 0.000004 -0.107304 0.003797 0.035479
    9 5.318531 -0.004538 0.000000 -0.109536 0.003894 0.034660
    10 5.701826 -0.005492 0.000000 -0.034730 0.003068 0.087413
    11 6.899484 -0.001818 0.000000 0.000000 -0.026147 0.099378
    12 0.050786 0.001927 2.008302 -0.571514 -1.365031 3.600345
    13 4.746895 0.000000 0.000000 0.809596 0.846848 0.947037
    14 10.954378 0.000000 0.000000 0.000000 0.000000 -0.356753
    15 10.954373 0.000000 0.000000 -1.574387 -0.347929 0.237908
    16 -0.050780 0.001941 -2.008302 -1.393244 1.058915 1.659248
    17 4.746896 0.000000 -0.000003 0.866400 0.009481 -0.574608
    18 10.954372 0.000000 0.000000 0.000000 0.000000 -2.203384
    19 10.954377 0.000000 0.000000 1.825767 -0.045340 -0.082207
    20 2.428221 0.000000 0.000000 0.244204 -0.050857 0.035285
    21 1.681022 0.975106 0.213387 0.000000 0.000001 -1.745239
  time 28
    0 -0.001589 0.024072 36.821262 0.000000 -0.026148 -1.570839
    1 -0.734397 0.121097 0.000000 -1.570795 -1.570796 0.000000
    2 -0.000004 0.000006 3.319508 0.003390 -3.148067 -0.007914
    3 16.904898 0.000000 0.000000 0.000000 0.000000 -0.002039
    4 16.597540 0.000000 0.000000 -0.003545 0.006431 -0.023324
    5 0.000005 -0.000003 -3.319508 -0.005311 3.154248 -0.035139
    6 16.904898 0.000000 0.000000 0.000000 0.000000 -0.278141
    7 16.597540 0.000000 0.000000 0.006417 -0.012183 0.189219
    8 3.488968 -0.004234 0.000004 -0.133310 0.004717 0.035332
    9 5.318531 -0.004538 0.000000 -0.123379 0.004381 0.034609
    10 5.701826 -0.005492 0.000000 -0.034675 0.003723 0.106475
    11 6.899484 -0.001818 0.000000 0.000000 -0.026147 0.099378
    12 0.050786 0.001927 2.008302 -0.571514 -1.365031 3.600345
    13 4.746895 0.000000 0.000000 0.770417 0.918492 0.936910
    14 10.954378 0.000000 0.000000 0.000000 0.000000 -0.382612
    15 10.954373 0.000000 0.000000 -1.574387 -0.320694 0.238483
    16 -0.050780 0.001941 -2.008302 -1.393244 1.058915 1.659248
    17 4.746896 0.000000 -0.000003 0.855317 -0.118091 -0.474454
    18 10.954372 0.000000 0.000000 0.000000 0.000000 -2.279010
    19 10.954377 0.000000 0.000000 1.829338 -0.012048 -0.207909
    20 2.428221 0.000000 0.000000 0.283191 -0.056242 -0.006355
    21 1.681022 0.975106 0.213387 0.000000 0.000001 -1.745239
  time 29
    0 -0.001589 0.024072 36.821262 0.000000 -0.026148 -1.570839
    1 -0.734397 0.121097 0.000000 -1.570795 -1.570796 0.000000
    2 -0.000004 0.000006 3.319508 0.003390 -3.147971 -0.007827
    3 16.904898 0.000000 0.000000 0.000000 0.000000 -0.002039
    4 16.597540 0.000000 0.000000 -0.003545 0.006320 -0.023255
    5 0.000005 -0.000003 -3.319508 -0.005311 3.154344 -0.035042
    6 16.904898 0.000000 0.000000 0.000000 0.000000 -0.277998
    7 16.597540 0.000000 0.000000 0.006417 -0.012265 0.189278
    8 3.488968 -0.004234 0.000004 -0.130747 0.004631 0.035368
    9 5.318531 -0.004538 0.000000 -0.122024 0.004337 0.034609
    10 5.701826 -0.005492 0.000000 -0.034675 0.003659 0.104601
    11 6.899484 -0.001818 0.000000 0.000000 -0.026147 0.099378
    12 0.050786 0.001927 2.008302 -0.571514 -1.365031 3.600345
    13 4.746895 0.000000 0.000000 0.712267 0.982600 0.860170
    14 10.954378 0.000000 0.000000 0.000000 0.000000 -0.435778
    15 10.954373 0.000000 0.000000 -1.574387 -0.267432 0.238196
    16 -0.050780 0.001941 -2.008302 -1.393244 1.058915 1.659248
    17 4.746896 0.000000 -0.000003 0.797609 -0.304988 -0.410520
    18 10.954372 0.000000 0.000000 0.000000 0.000000 -2.146125
    19 10.954377 0.000000 0.000000 1.829155 -0.015378 -0.195546
    20 2.428221 0.000000 0.000000 0.280413 -0.049860 -0.022768
    21 1.681022 0.975106 0.213387 0.000000 0.000001 -1.745239
  time 30
    0 -0.001589 0.024072 36.821262 0.000000 -0.026148 -1.570839
    1 -0.710959 0.093753 0.000000 -1.570795 -1.570796 0.000000
    2 -0.000004 0.000006 3.319508 0.003390 -3.147300 -0.007212
    3 16.904898 0.000000 0.000000 0.000000 0.000000 -0.002039
    4 16.597540 0.000000 0.000000 -0.003516 0.005618 -0.022562
    5 0.000005 -0.000003 -3.319508 -0.005215 3.155015 -0.033924
    6 16.904898 0.000000 0.000000 0.000000 0.000000 -0.277142
    7 16.597540 0.000000 0.000000 0.006384 -0.012974 0.189513
    8 3.488968 -0.004234 0.000004 -0.107874 0.003826 0.035442
    9 5.318531 -0.004538 0.000000 -0.109821 0.003894 0.034660
    10 5.701826 -0.005492 0.000000 -0.034730 0.003084 0.087823
    11 6.899484 -0.001818 0.000000 0.000000 -0.026147 0.099378
    12 0.050786 0.001927 2.008302 -0.571514 -1.365031 3.600345
    13 4.746895 0.000000 0.000000 0.658980 1.024642 0.758624
    14 10.954378 0.000000 0.000000 0.000000 0.000000 -0.489097
    15 10.954373 0.000000 0.000000 -1.574292 -0.213997 0.237908
    16 -0.050780 0.001941 -2.008302 -1.329584 1.121905 1.725017
    17 4.746896 0.000000 -0.000003 0.705887 -0.495682 -0.431927
    18 10.954372 0.000000 0.000000 0.000000 0.000000 -1.881358
    19 10.954377 0.000000 0.000000 1.825858 -0.044627 -0.084914
    20 2.428221 0.000000 0.000000 0.247445 -0.036896 -0.021619
    21 1.681022 0.975106 0.213387 0.000000 0.000001 -1.745239
  time 31
    0 -0.001589 0.024072 36.821262 0.000000 -0.026148 -1.570839
    1 -0.687521 0.074221 0.000000 -1.570795 -1.570796 0.000000
    2 -0.000004 0.000006 3.319508 0.003390 -3.146629 -0.006510
    3 16.904898 0.000000 0.000000 0.000000 0.000000 -0.002039
    4 16.597540 0.000000 0.000000 -0.003516 0.004953 -0.021869
    5 0.000005 -0.000003 -3.319508 -0.005120 3.155685 -0.032757
    6 16.904898 0.000000 0.000000 0.000000 0.000000 -0.276215
    7 16.597540 0.000000 0.000000 0.006352 -0.013655 0.189748
    8 3.488968 -0.004234 0.000004 -0.084431 0.002991 0.035552
    9 5.318531 -0.004538 0.000000 -0.097333 0.003452 0.034710
    10 5.701826 -0.005492 0.000000 -0.034786 0.002477 0.070635
    11 6.899484 -0.001818 0.000000 0.000000 -0.026147 0.099378
    12 0.050786 0.001927 2.008302 -0.571514 -1.365031 3.600345
    13 4.746895 0.000000 0.000000 0.603881 1.062416 0.654570
    14 10.954378 0.000000 0.000000 0.000000 0.000000 -0.540204
    15 10.954373 0.000000 0.000000 -1.574197 -0.162976 0.237621
    16 -0.050780 0.001941 -2.008302 -1.241189 1.184435 1.814467
    17 4.746896 0.000000 -0.000003 0.600598 -0.677168 -0.433742
    18 10.954372 0.000000 0.000000 0.000000 0.000000 -1.617980
    19 10.954377 0.000000 0.000000 1.819081 -0.074113 0.028786
    20 2.428221 0.000000 0.000000 0.213366 -0.025129 -0.019639
    21 1.681022 0.975106 0.213387 0.000000 0.000001 -1.745239
  time 32
    0 -0.001589 0.024072 36.821262 0.000000 -0.026148 -1.570839
    1 -0.664083 0.054689 0.000000 -1.570795 -1.570796 0.000000
    2 -0.000004 0.000006 3.319508 0.003390 -3.146054 -0.005808
    3 16.904898 0.000000 0.000000 0.000000 0.000000 -0.002039
    4 16.597540 0.000000 0.000000 -0.003486 0.004362 -0.021176
    5 0.000005 -0.000003 -3.319508 -0.005024 3.156260 -0.031591
    6 16.904898 0.000000 0.000000 0.000000 0.000000 -0.275359
    7 16.597540 0.000000 0.000000 0.006319 -0.014255 0.189983
    8 3.488968 -0.004234 0.000004 -0.062328 0.002214 0.035589
    9 5.318531 -0.004538 0.000000 -0.085524 0.003031 0.034735
    10 5.701826 -0.005492 0.000000 -0.034813 0.001917 0.054414
    11 6.899484 -0.001818 0.000000 0.000000 -0.026147 0.099378
    12 0.050786 0.001927 2.008302 -0.571514 -1.365031 3.600345
    13 4.746895 0.000000 0.000000 0.546589 1.096831 0.550795
    14 10.954378 0.000000 0.000000 0.000000 0.000000 -0.588030
    15 10.954373 0.000000 0.000000 -1.574197 -0.115229 0.237333
    16 -0.050780 0.001941 -2.008302 -1.127195 1.239556 1.928268
    17 4.746896 0.000000 -0.000003 0.473334 -0.843468 -0.399625
    18 10.954372 0.000000 0.000000 0.000000 0.000000 -1.370268
    19 10.954377 0.000000 0.000000 1.809649 -0.101064 0.136440
    20 2.428221 0.000000 0.000000 0.180861 -0.015058 -0.018106
    21 1.681022 0.975106 0.213387 0.000000 0.000001 -1.745239
  time 33
    0 -0.001589 0.024072 36.821262 0.000000 -0.026148 -1.570839
    1 -0.640645 0.035157 0.000000 -1.570795 -1.570796 0.000000
    2 -0.000004 0.000006 3.319508 0.003390 -3.145574 -0.005106
    3 16.904898 0.000000 0.000000 0.000000 0.000000 -0.002039
    4 16.597540 0.000000 0.000000 -0.003486 0.003882 -0.020553
    5 0.000005 -0.000003 -3.319508 -0.005024 3.156835 -0.030521
    6 16.904898 0.000000 0.000000 0.000000 0.000000 -0.274504
    7 16.597540 0.000000 0.000000 0.006286 -0.014745 0.190218
    8 3.488968 -0.004234 0.000004 -0.042132 0.001495 0.035626
    9 5.318531 -0.004538 0.000000 -0.074748 0.002655 0.034785
    10 5.701826 -0.005492 0.000000 -0.034841 0.001406 0.039627
    11 6.899484 -0.001818 0.000000 0.000000 -0.026147 0.099378
    12 0.050786 0.001927 2.008302 -0.571514 -1.365031 3.600345
    13 4.746895 0.000000 0.000000 0.488154 1.127523 0.449899
    14 10.954378 0.000000 0.000000 0.000000 0.000000 -0.631662
    15 10.954373 0.000000 0.000000 -1.574197 -0.071620 0.237141
    16 -0.050780 0.001941 -2.008302 -0.986070 1.284812 2.068339
    17 4.746896 0.000000 -0.000003 0.311483 -0.987461 -0.316768
    18 10.954372 0.000000 0.000000 0.000000 0.000000 -1.144163
    19 10.954377 0.000000 0.000000 1.798568 -0.124606 0.235251
    20 2.428221 0.000000 0.000000 0.151041 -0.006781 -0.017084
    21 1.681022 0.975106 0.213387 0.000000 0.000001 -1.745239
  time 34
    0 -0.001589 0.024072 36.821262 0.000000 -0.026148 -1.570839
    1 -0.621113 0.023438 0.000000 -1.570795 -1.570796 0.000000
    2 -0.000004 0.000006 3.319508 0.003390 -3.145095 -0.004491
    3 16.904898 0.000000 0.000000 0.000000 0.000000 -0.002039
    4 16.597540 0.000000 0.000000 -0.003486 0.003512 -0.019929
    5 0.000005 -0.000003 -3.319508 -0.004928 3.157218 -0.029549
    6 16.904898 0.000000 0.000000 0.000000 0.000000 -0.273719
    7 16.597540 0.000000 0.000000 0.006286 -0.015154 0.190394
    8 3.488968 -0.004234 0.000004 -0.024472 0.000862 0.035662
    9 5.318531 -0.004538 0.000000 -0.065329 0.002323 0.034810
    10 5.701826 -0.005492 0.000000 -0.034869 0.000943 0.026656
    11 6.899484 -0.001818 0.000000 0.000000 -0.026147 0.099378
    12 0.050786 0.001927 2.008302 -0.571514 -1.365031 3.600345
    13 4.746895 0.000000 0.000000 0.430958 1.153493 0.355600
    14 10.954378 0.000000 0.000000 0.000000 0.000000 -0.669801
    15 10.954373 0.000000 0.000000 -1.574103 -0.033354 0.236854
    16 -0.050780 0.001941 -2.008302 -0.823565 1.318284 2.229118
    17 4.746896 0.000000 -0.000003 0.104536 -1.100415 -0.175043
    18 10.954372 0.000000 0.000000 0.000000 0.000000 -0.946224
    19 10.954377 0.000000 0.000000 1.786845 -0.144264 0.322241
    20 2.428221 0.000000 0.000000 0.124648 -0.000249 -0.016446
    21 1.681022 0.975106 0.213387 0.000000 0.000001 -1.745239
  time 35
    0 -0.001589 0.024072 36.821262 0.000000 -0.026148 -1.570839
    1 -0.605487 0.011719 0.000000 -1.570795 -1.570796 0.000000
    2 -0.000004 0.000006 3.319508 0.003390 -3.144807 -0.004052
    3 16.904898 0.000000 0.000000 0.000000 0.000000 -0.002039
    4 16.597540 0.000000 0.000000 -0.003486 0.003217 -0.019444
    5 0.000005 -0.000003 -3.319508 -0.004928 3.157506 -0.028723
    6 16.904898 0.000000 0.000000 0.000000 0.000000 -0.273077
    7 16.597540 0.000000 0.000000 0.006254 -0.015454 0.190571
    8 3.488968 -0.004234 0.000004 -0.009945 0.000344 0.035662
    9 5.318531 -0.004538 0.000000 -0.057587 0.002036 0.034810
    10 5.701826 -0.005492 0.000000 -0.034869 0.000575 0.015997
    11 6.899484 -0.001818 0.000000 0.000000 -0.026147 0.099378
    12 0.050786 0.001927 2.008302 -0.571514 -1.365031 3.600345
    13 4.746895 0.000000 0.000000 0.379005 1.174378 0.273100
    14 10.954378 0.000000 0.000000 0.000000 0.000000 -0.701228
    15 10.954373 0.000000 0.000000 -1.574103 -0.001982 0.236758
    16 -0.050780 0.001941 -2.008302 -0.658471 1.339588 2.392294
    17 4.746896 0.000000 -0.000003 -0.138814 -1.175212 0.017524
    18 10.954372 0.000000 0.000000 0.000000 0.000000 -0.783629
    19 10.954377 0.000000 0.000000 1.775948 -0.159641 0.394070
    20 2.428221 0.000000 0.000000 0.102979 0.004587 -0.016126
    21 1.681022 0.975106 0.213387 0.000000 0.000001 -1.745239
  time 36
    0 -0.001589 0.024072 36.821262 0.000000 -0.026148 -1.570839
    1 -0.593768 0.007813 0.000000 -1.570795 -1.570796 0.000000
    2 -0.000004 0.000006 3.319508 0.003390 -3.144616 -0.003701
    3 16.904898 0.000000 0.000000 0.000000 0.000000 -0.002039
    4 16.597540 0.000000 0.000000 -0.003456 0.002995 -0.019098
    5 0.000005 -0.000003 -3.319508 -0.004928 3.157697 -0.028139
    6 16.904898 0.000000 0.000000 0.000000 0.000000 -0.272578
    7 16.597540 0.000000 0.000000 0.006254 -0.015672 0.190688
    8 3.488968 -0.004234 0.000004 -0.000004 -0.000001 0.035662
    9 5.318531 -0.004538 0.000000 -0.052270 0.001859 0.034835
    10 5.701826 -0.005492 0.000000 -0.034869 0.000320 0.008706
    11 6.899484 -0.001818 0.000000 0.000000 -0.026147 0.099378
    12 0.050786 0.001927 2.008302 -0.571514 -1.365031 3.600345
    13 4.746895 0.000000 0.000000 0.340302 1.188271 0.213547
    14 10.954378 0.000000 0.000000 0.000000 0.000000 -0.722739
    15 10.954373 0.000000 0.000000 -1.574103 0.019392 0.236566
    16 -0.050780 0.001941 -2.008302 -0.529234 1.350105 2.519998
    17 4.746896 0.000000 -0.000003 -0.353787 -1.210997 0.198624
    18 10.954372 0.000000 0.000000 0.000000 0.000000 -0.672043
    19 10.954377 0.000000 0.000000 1.767889 -0.169629 0.443611
    20 2.428221 0.000000 0.000000 0.088069 0.007629 -0.015935
    21 1.681022 0.975106 0.213387 0.000000 0.000001 -1.745239
end
