version 1
nodes
  0 "Bip02" -1
  1 "Bip02 Pelvis" 0
  2 "Bip02 L Leg" 1
  3 "Bip02 L Leg1" 2
  4 "Bip02 L Foot" 3
  5 "Bip02 R Leg" 1
  6 "Bip02 R Leg1" 5
  7 "Bip02 R Foot" 6
  8 "Bip02 Spine" 1
  9 "Bip02 Spine1" 8
  10 "Bip02 Spine2" 9
  11 "Bip02 Neck" 10
  12 "Bip02 L Arm" 11
  13 "Bip02 L Arm1" 12
  14 "Bip02 L Arm2" 13
  15 "Bip02 L Hand" 14
  16 "Bip02 R Arm" 11
  17 "Bip02 R Arm1" 16
  18 "Bip02 R Arm2" 17
  19 "Bip02 R Hand" 18
  20 "Bip02 Head" 11
  21 "Bone01" 20
end
skeleton
  time 0
    0 -0.231468 -0.681556 37.008985 0.000000 0.000000 -1.569690
    1 -0.140629 0.007813 0.000000 -1.570795 -1.570796 0.000000
    2 -0.000004 0.000006 3.319508 -0.000828 -3.100615 -0.021519
    3 16.904898 0.000000 0.000000 0.000000 0.000000 -0.158052
    4 16.597540 0.000000 0.000000 0.002879 -0.040895 0.136462
    5 0.000005 -0.000003 -3.319508 0.001962 3.115444 -0.024396
    6 16.904898 0.000000 0.000000 0.000000 0.000000 -0.164252
    7 16.597540 0.000000 0.000000 -0.001399 0.026132 0.139861
    8 3.488968 -0.004234 0.000004 -0.000004 0.003221 0.013545
    9 5.318531 -0.004538 0.000000 0.000000 -0.002832 -0.019085
    10 5.701826 -0.005492 0.000000 0.000000 -0.001406 -0.019081
    11 6.899484 -0.001818 0.000000 0.000000 -0.000001 0.348889
    12 0.000003 0.001927 2.008302 -0.000013 -1.303869 2.791920
    13 4.746895 0.000000 0.000000 -0.492472 0.752412 -0.688660
    14 10.954378 0.000000 0.000000 0.000000 0.000000 -1.578282
    15 10.954373 0.000000 0.000000 -1.833039 -0.468071 -0.530549
    16 0.000003 0.001941 -2.008302 -0.000013 1.330491 2.791894
    17 4.746896 0.000000 -0.000003 -0.443407 -1.158981 0.464300
    18 10.954372 0.000000 0.000000 0.000000 0.000000 -0.402646
    19 10.954377 0.000000 0.000000 1.579052 0.010859 0.002166
    20 2.428221 0.000000 0.000000 -0.001019 0.002044 -0.151648
    21 1.681022 0.975106 0.213387 0.000000 0.000001 -1.745239
  time 1
    0 -0.265949 -0.715977 37.008985 0.000000 0.000000 -1.561359
    1 -0.175787 0.007813 0.000000 -0.000019 -1.580843 -1.570788
    2 -0.000004 0.000006 3.319508 0.000131 -3.089016 -0.035036
    3 16.904898 0.000000 0.000000 0.000000 0.000000 -0.183755
    4 16.597540 0.000000 0.000000 0.011088 -0.042557 0.148657
    5 0.000005 -0.000003 -3.319508 0.002440 3.127037 -0.011466
    6 16.904898 0.000000 0.000000 0.000000 0.000000 -0.140790
    7 16.597540 0.000000 0.000000 0.006810 0.024525 0.129284
    8 3.488968 -0.004234 -0.031247 0.000993 0.013176 0.015970
    9 5.318531 -0.004538 0.000000 -0.001677 -0.002854 -0.016674
    10 5.701826 -0.005492 0.000000 -0.000415 -0.001422 -0.016182
    11 6.899484 -0.001818 0.000000 0.000000 -0.000001 0.348889
    12 0.000003 0.001927 2.008302 -0.037020 -1.303688 2.827586
    13 4.746895 0.000000 0.000000 -0.465113 0.768757 -0.663018
    14 10.954378 0.000000 0.000000 0.000000 0.000000 -1.604446
    15 10.954373 0.000000 0.000000 -1.831239 -0.469105 -0.534671
    16 0.000003 0.001941 -2.008302 -0.064823 1.329992 2.729001
    17 4.746896 0.000000 -0.000003 -0.332863 -1.175022 0.357074
    18 10.954372 0.000000 0.000000 0.000000 0.000000 -0.445397
    19 10.954377 0.000000 0.000000 1.546724 -0.001744 -0.002436
    20 2.428221 0.000000 0.000000 -0.011113 0.006432 -0.160015
    21 1.681022 0.975106 0.213387 0.000000 0.000001 -1.745239
  time 2
    0 -0.369395 -0.819240 37.008985 0.000000 0.000000 -1.548048
    1 -0.214850 0.007813 0.000000 -3.141571 -1.544744 1.570788
    2 -0.000004 0.000006 3.319508 0.002240 -3.068981 -0.050835
    3 16.904898 0.000000 0.000000 0.000000 0.000000 -0.215734
    4 16.597540 0.000000 0.000000 0.024233 -0.046584 0.164941
    5 0.000005 -0.000003 -3.319508 0.002728 3.147158 0.018478
    6 16.904898 0.000000 0.000000 0.000000 0.000000 -0.087519
    7 16.597540 0.000000 0.000000 0.019924 0.020573 0.105957
    8 3.488968 -0.004234 -0.089842 0.002360 0.029173 0.018762
    9 5.318531 -0.004538 0.000000 -0.003746 -0.002876 -0.013861
    10 5.701826 -0.005492 0.000000 -0.000942 -0.001422 -0.012756
    11 6.899484 -0.001818 0.000000 0.000000 -0.000001 0.348889
    12 0.000003 0.001927 2.008302 -0.081793 -1.303006 2.870826
    13 4.746895 0.000000 0.000000 -0.429175 0.788370 -0.629386
    14 10.954378 0.000000 0.000000 0.000000 0.000000 -1.635949
    15 10.954373 0.000000 0.000000 -1.828964 -0.470312 -0.539655
    16 0.000003 0.001941 -2.008302 -0.141330 1.328149 2.654699
    17 4.746896 0.000000 -0.000003 -0.190981 -1.186412 0.219362
    18 10.954372 0.000000 0.000000 0.000000 0.000000 -0.497950
    19 10.954377 0.000000 0.000000 1.507620 -0.018231 -0.009204
    20 2.428221 0.000000 0.000000 -0.027597 0.013462 -0.170361
    21 1.681022 0.975106 0.213387 0.000000 0.000001 -1.745239
  time 3
    0 -0.518816 -0.974134 37.008985 0.000000 0.000000 -1.534833
    1 -0.257820 0.007813 0.000000 -0.000019 -1.612712 -1.570788
    2 -0.000004 0.000006 3.319508 0.004733 -3.047700 -0.062684
    3 16.904898 0.000000 0.000000 0.000000 0.000000 -0.241437
    4 16.597540 0.000000 0.000000 0.037111 -0.052126 0.178868
    5 0.000005 -0.000003 -3.319508 0.001484 3.168524 0.065144
    6 16.904898 0.000000 0.000000 0.000000 0.000000 -0.002014
    7 16.597540 0.000000 0.000000 0.032776 0.015150 0.067117
    8 3.488968 -0.004234 -0.144531 0.003927 0.044968 0.021848
    9 5.318531 -0.004538 0.000000 -0.006065 -0.002876 -0.010797
    10 5.701826 -0.005492 0.000000 -0.001496 -0.001422 -0.008979
    11 6.899484 -0.001818 0.000000 0.000000 -0.000001 0.348889
    12 0.000003 0.001927 2.008302 -0.131455 -1.301644 2.918668
    13 4.746895 0.000000 0.000000 -0.386373 0.809164 -0.589251
    14 10.954378 0.000000 0.000000 0.000000 0.000000 -1.671114
    15 10.954373 0.000000 0.000000 -1.826405 -0.471604 -0.545310
    16 0.000003 0.001941 -2.008302 -0.224356 1.324541 2.574166
    17 4.746896 0.000000 -0.000003 -0.027410 -1.188690 0.060625
    18 10.954372 0.000000 0.000000 0.000000 0.000000 -0.557061
    19 10.954377 0.000000 0.000000 1.464211 -0.037413 -0.016514
    20 2.428221 0.000000 0.000000 -0.043896 0.020642 -0.181346
    21 1.681022 0.975106 0.213387 0.000000 0.000001 -1.745239
  time 4
    0 -0.662491 -1.146238 37.008985 0.000000 0.000000 -1.526598
    1 -0.304697 0.007813 0.000000 -0.000019 -1.622618 -1.570788
    2 -0.000004 0.000006 3.319508 0.006458 -3.032458 -0.066546
    3 16.904898 0.000000 0.000000 0.000000 0.000000 -0.253542
    4 16.597540 0.000000 0.000000 0.045023 -0.057520 0.187322
    5 0.000005 -0.000003 -3.319508 0.000718 3.183663 0.069568
    6 16.904898 0.000000 0.000000 0.000000 0.000000 -0.002014
    7 16.597540 0.000000 0.000000 0.040690 0.009863 0.071524
    8 3.485062 -0.004234 -0.179689 0.005579 0.054836 0.025155
    9 5.318531 -0.004538 0.000000 -0.008563 -0.002876 -0.007507
    10 5.701826 -0.005492 0.000000 -0.002133 -0.001422 -0.004880
    11 6.899484 -0.001818 0.000000 0.000000 -0.000001 0.348889
    12 0.000003 0.001927 2.008302 -0.184665 -1.299465 2.969961
    13 4.746895 0.000000 0.000000 -0.337089 0.830231 -0.542798
    14 10.954378 0.000000 0.000000 0.000000 0.000000 -1.709329
    15 10.954373 0.000000 0.000000 -1.823561 -0.473069 -0.551445
    16 0.000003 0.001941 -2.008302 -0.311026 1.318860 2.490085
    17 4.746896 0.000000 -0.000003 0.146384 -1.178819 -0.107859
    18 10.954372 0.000000 0.000000 0.000000 0.000000 -0.621266
    19 10.954377 0.000000 0.000000 1.417231 -0.058736 -0.023823
    20 2.428221 0.000000 0.000000 -0.053897 0.025628 -0.192075
    21 1.681022 0.975106 0.213387 0.000000 0.000001 -1.745239
  time 5
    0 -0.714214 -1.335553 37.008985 0.000000 0.000000 -1.526119
    1 -0.355480 0.007813 0.000000 -0.000019 -1.623182 -1.570788
    2 -0.000004 0.000006 3.319508 0.006171 -3.029965 -0.060666
    3 16.904898 0.000000 0.000000 0.000000 0.000000 -0.250628
    4 16.597540 0.000000 0.000000 0.045320 -0.059367 0.190302
    5 0.000005 -0.000003 -3.319508 0.000431 3.186058 0.074040
    6 16.904898 0.000000 0.000000 0.000000 0.000000 -0.002014
    7 16.597540 0.000000 0.000000 0.041083 0.008037 0.075989
    8 3.485062 -0.004234 -0.179689 0.007117 0.055354 0.028718
    9 5.318531 -0.004538 0.000000 -0.011239 -0.002854 -0.003941
    10 5.701826 -0.005492 0.000000 -0.002797 -0.001406 -0.000429
    11 6.899484 -0.001818 0.000000 0.000000 -0.000001 0.348889
    12 0.000003 0.001927 2.008302 -0.241039 -1.296286 3.024227
    13 4.746895 0.000000 0.000000 -0.280751 0.850662 -0.489656
    14 10.954378 0.000000 0.000000 0.000000 0.000000 -1.750520
    15 10.954373 0.000000 0.000000 -1.820623 -0.474535 -0.558059
    16 0.000003 0.001941 -2.008302 -0.399900 1.310761 2.404087
    17 4.746896 0.000000 -0.000003 0.318553 -1.154899 -0.274146
    18 10.954372 0.000000 0.000000 0.000000 0.000000 -0.690563
    19 10.954377 0.000000 0.000000 1.366588 -0.081961 -0.030320
    20 2.428221 0.000000 0.000000 -0.053804 0.027124 -0.201974
    21 1.681022 0.975106 0.213387 0.000000 0.000001 -1.745239
  time 6
    0 -0.616515 -1.542078 37.008985 0.000000 0.000000 -1.534259
    1 -0.414075 0.007813 0.000000 -0.000019 -1.613910 -1.570788
    2 -0.000004 0.000006 3.319508 0.003774 -3.042619 -0.046095
    3 16.904898 0.000000 0.000000 0.000000 0.000000 -0.233443
    4 16.597540 0.000000 0.000000 0.037290 -0.055931 0.187530
    5 0.000005 -0.000003 -3.319508 0.000909 3.173411 0.077832
    6 16.904898 0.000000 0.000000 0.000000 0.000000 -0.002014
    7 16.597540 0.000000 0.000000 0.033201 0.011417 0.079809
    8 3.488968 -0.004234 -0.148438 0.008484 0.046003 0.032613
    9 5.318531 -0.004538 0.000000 -0.014165 -0.002810 -0.000023
    10 5.701826 -0.005492 0.000000 -0.003545 -0.001390 0.004373
    11 6.899484 -0.001818 0.000000 0.000000 -0.000001 0.357982
    12 0.000003 0.001927 2.008302 -0.300480 -1.291973 3.072357
    13 4.746895 0.000000 0.000000 -0.216596 0.869912 -0.429081
    14 10.954378 0.000000 0.000000 0.000000 0.000000 -1.795143
    15 10.954373 0.000000 0.000000 -1.817306 -0.476172 -0.565152
    16 0.000003 0.001941 -2.008302 -0.489830 1.299898 2.308214
    17 4.746896 0.000000 -0.000003 0.478684 -1.115982 -0.428104
    18 10.954372 0.000000 0.000000 0.000000 0.000000 -0.765417
    19 10.954377 0.000000 0.000000 1.311640 -0.107167 -0.035734
    20 2.428221 0.000000 0.000000 -0.042692 0.025279 -0.220431
    21 1.681022 0.975106 0.213387 0.000000 0.000001 -1.745239
  time 7
    0 -0.455600 -1.765814 37.008985 0.000000 0.000000 -1.547474
    1 -0.472671 0.007813 0.000000 -0.000019 -1.598258 -1.570788
    2 -0.000004 0.000006 3.319508 0.000706 -3.064092 -0.023713
    3 16.904898 0.000000 0.000000 0.000000 0.000000 -0.202509
    4 16.597540 0.000000 0.000000 0.024501 -0.049983 0.178730
    5 0.000005 -0.000003 -3.319508 0.002058 3.151949 0.069471
    6 16.904898 0.000000 0.000000 0.000000 0.000000 -0.025975
    7 16.597540 0.000000 0.000000 0.020545 0.017276 0.095439
    8 3.488968 -0.004234 -0.093749 0.009681 0.030266 0.036911
    9 5.318531 -0.004538 0.000000 -0.017340 -0.002744 0.004296
    10 5.701826 -0.005492 0.000000 -0.004321 -0.001358 0.009673
    11 6.899484 -0.001818 0.000000 0.000000 -0.000001 0.369194
    12 0.000003 0.001927 2.008302 -0.362989 -1.286206 3.121158
    13 4.746895 0.000000 0.000000 -0.143767 0.887074 -0.360052
    14 10.954378 0.000000 0.000000 0.000000 0.000000 -1.843885
    15 10.954373 0.000000 0.000000 -1.813704 -0.477982 -0.573012
    16 0.000003 0.001941 -2.008302 -0.579855 1.285810 2.210423
    17 4.746896 0.000000 -0.000003 0.620184 -1.061403 -0.562949
    18 10.954372 0.000000 0.000000 0.000000 0.000000 -0.846445
    19 10.954377 0.000000 0.000000 1.251656 -0.134276 -0.039344
    20 2.428221 0.000000 0.000000 -0.025282 0.021789 -0.241507
    21 1.681022 0.975106 0.213387 0.000000 0.000001 -1.745239
  time 8
    0 -0.260202 -1.989550 37.008985 0.000000 0.000000 -1.562412
    1 -0.542985 0.007813 0.000000 -0.000019 -1.579891 -1.570740
    2 -0.000004 0.000006 3.319508 -0.001882 -3.089783 0.004374
    3 16.904898 0.000000 0.000000 0.000000 0.000000 -0.158873
    4 16.597540 0.000000 0.000000 0.010076 -0.042705 0.163209
    5 0.000005 -0.000003 -3.319508 0.002632 3.126271 0.029561
    6 16.904898 0.000000 0.000000 0.000000 0.000000 -0.112193
    7 16.597540 0.000000 0.000000 0.006123 0.024497 0.141624
    8 3.488968 -0.004234 -0.031247 0.010763 0.011795 0.041724
    9 5.318531 -0.004538 0.000000 -0.020801 -0.002611 0.009118
    10 5.701826 -0.005492 0.000000 -0.005179 -0.001326 0.015500
    11 6.899484 -0.001818 0.000000 0.000000 -0.000001 0.381215
    12 0.000003 0.001927 2.008302 -0.427800 -1.278851 3.171205
    13 4.746895 0.000000 0.000000 -0.062262 0.901058 -0.282755
    14 10.954378 0.000000 0.000000 0.000000 0.000000 -1.896823
    15 10.954373 0.000000 0.000000 -1.809818 -0.479792 -0.581543
    16 0.000003 0.001941 -2.008302 -0.668442 1.268115 2.113591
    17 4.746896 0.000000 -0.000003 0.739996 -0.991352 -0.675813
    18 10.954372 0.000000 0.000000 0.000000 0.000000 -0.933723
    19 10.954377 0.000000 0.000000 1.186085 -0.162812 -0.040156
    20 2.428221 0.000000 0.000000 -0.005371 0.017401 -0.264690
    21 1.681022 0.975106 0.213387 0.000000 0.000001 -1.745239
  time 9
    0 -0.059058 -2.178864 37.008985 0.000000 0.000000 -1.578308
    1 -0.617206 0.003906 0.000000 -0.000019 -1.560960 -1.570788
    2 -0.000004 0.000006 3.319508 -0.003321 -3.116432 0.041238
    3 16.904898 0.000000 0.000000 0.000000 0.000000 -0.095512
    4 16.597540 0.000000 0.000000 -0.005062 -0.035095 0.136670
    5 0.000005 -0.000003 -3.319508 0.001962 3.099635 0.008027
    6 16.904898 0.000000 0.000000 0.000000 0.000000 -0.158761
    7 16.597540 0.000000 0.000000 -0.009019 0.032128 0.166655
    8 3.488968 -0.004234 0.031255 0.011760 -0.007280 0.047125
    9 5.318531 -0.004538 0.000000 -0.024476 -0.002456 0.014518
    10 5.701826 -0.005492 0.000000 -0.006121 -0.001278 0.021883
    11 6.899484 -0.001818 0.000000 0.000000 -0.000001 0.394045
    12 0.000003 0.001927 2.008302 -0.493377 -1.269724 3.221156
    13 4.746895 0.000000 0.000000 0.025534 0.910592 -0.199419
    14 10.954378 0.000000 0.000000 0.000000 0.000000 -1.953803
    15 10.954373 0.000000 0.000000 -1.805553 -0.481774 -0.590553
    16 0.000003 0.001941 -2.008302 -0.753194 1.246696 2.020115
    17 4.746896 0.000000 -0.000003 0.837450 -0.907349 -0.766602
    18 10.954372 0.000000 0.000000 0.000000 0.000000 -1.025708
    19 10.954377 0.000000 0.000000 1.115111 -0.191506 -0.036998
    20 2.428221 0.000000 0.000000 0.015743 0.012415 -0.290172
    21 1.681022 0.975106 0.213387 0.000000 0.000001 -1.745239
  time 10
    0 0.119098 -2.333758 37.008985 0.000000 0.000000 -1.594109
    1 -0.703146 0.003906 0.000000 -0.000019 -1.543052 -1.570788
    2 -0.000004 0.000006 3.319508 -0.003033 -3.141644 0.091356
    3 16.904898 0.000000 0.000000 0.000000 0.000000 -0.002039
    4 16.597540 0.000000 0.000000 -0.020260 -0.027964 0.093363
    5 0.000005 -0.000003 -3.319508 0.000431 3.074532 -0.009765
    6 16.904898 0.000000 0.000000 0.000000 0.000000 -0.194347
    7 16.597540 0.000000 0.000000 -0.024291 0.039322 0.184577
    8 3.488968 -0.004234 0.093757 0.012643 -0.025319 0.053040
    9 5.318531 -0.004538 0.000000 -0.028294 -0.002235 0.020445
    10 5.701826 -0.005492 0.000000 -0.007062 -0.001198 0.028647
    11 6.899484 -0.001818 0.000000 0.000000 -0.000001 0.407872
    12 0.000003 0.001927 2.008302 -0.556845 -1.259145 3.267848
    13 4.746895 0.000000 0.000000 0.113711 0.914588 -0.115803
    14 10.954378 0.000000 0.000000 0.000000 0.000000 -2.012919
    15 10.954373 0.000000 0.000000 -1.801194 -0.483756 -0.599947
    16 0.000003 0.001941 -2.008302 -0.831330 1.222014 1.932582
    17 4.746896 0.000000 -0.000003 0.913790 -0.812524 -0.836939
    18 10.954372 0.000000 0.000000 0.000000 0.000000 -1.118543
    19 10.954377 0.000000 0.000000 1.040474 -0.217505 -0.028335
    20 2.428221 0.000000 0.000000 0.037228 0.006781 -0.317889
    21 1.681022 0.975106 0.213387 0.000000 0.000001 -1.745239
  time 11
    0 0.251278 -2.419810 37.008985 0.000000 0.000000 -1.607898
    1 -0.792993 0.003906 0.000000 -0.000019 -1.528034 -1.570788
    2 -0.000004 0.000006 3.319508 -0.001595 -3.162062 0.093024
    3 16.904898 0.000000 0.000000 0.000000 0.000000 -0.002039
    4 16.597540 0.000000 0.000000 -0.033435 -0.022497 0.095026
    5 0.000005 -0.000003 -3.319508 -0.001579 3.054028 -0.025417
    6 16.904898 0.000000 0.000000 0.000000 0.000000 -0.222444
    7 16.597540 0.000000 0.000000 -0.037569 0.044882 0.197034
    8 3.488968 -0.004234 0.148446 0.013384 -0.040510 0.059470
    9 5.318531 -0.004538 0.000000 -0.031933 -0.001947 0.026824
    10 5.701826 -0.005492 0.000000 -0.007976 -0.001119 0.035586
    11 6.899484 -0.001818 0.000000 0.000000 -0.000001 0.422322
    12 0.000003 0.001927 2.008302 -0.613602 -1.248020 3.307253
    13 4.746895 0.000000 0.000000 0.190353 0.913589 -0.042965
    14 10.954378 0.000000 0.000000 0.000000 0.000000 -2.070357
    15 10.954373 0.000000 0.000000 -1.797023 -0.485652 -0.608957
    16 0.000003 0.001941 -2.008302 -0.899113 1.195643 1.854733
    17 4.746896 0.000000 -0.000003 0.970352 -0.713807 -0.889692
    18 10.954372 0.000000 0.000000 0.000000 0.000000 -1.203660
    19 10.954377 0.000000 0.000000 0.966844 -0.235736 -0.012633
    20 2.428221 0.000000 0.000000 0.056120 0.000798 -0.347267
    21 1.681022 0.975106 0.213387 0.000000 0.000001 -1.745239
  time 12
    0 0.303001 -2.454231 37.008985 0.000000 0.000000 -1.613357
    1 -0.882839 0.003906 0.000000 -0.000019 -1.518551 -1.570788
    2 -0.000004 0.000006 3.319508 -0.000828 -3.173662 0.091883
    3 16.904898 0.000000 0.000000 0.000000 0.000000 -0.002039
    4 16.597540 0.000000 0.000000 -0.038670 -0.020354 0.093848
    5 0.000005 -0.000003 -3.319508 -0.003301 3.042339 -0.037618
    6 16.904898 0.000000 0.000000 0.000000 0.000000 -0.241842
    7 16.597540 0.000000 0.000000 -0.042834 0.047089 0.204379
    8 3.485062 -0.004234 0.179697 0.013953 -0.050120 0.066010
    9 5.318531 -0.004538 0.000000 -0.034859 -0.001637 0.033328
    10 5.701826 -0.005492 0.000000 -0.008696 -0.001039 0.041969
    11 6.899484 -0.001818 0.000000 0.000000 -0.000001 0.435651
    12 0.000003 0.001927 2.008302 -0.656649 -1.238349 3.334769
    13 4.746895 0.000000 0.000000 0.236682 0.910592 0.000979
    14 10.954378 0.000000 0.000000 0.000000 0.000000 -2.118413
    15 10.954373 0.000000 0.000000 -1.793611 -0.487118 -0.616242
    16 0.000003 0.001941 -2.008302 -0.952131 1.170962 1.792224
    17 4.746896 0.000000 -0.000003 1.009047 -0.623729 -0.928014
    18 10.954372 0.000000 0.000000 0.000000 0.000000 -1.265241
    19 10.954377 0.000000 0.000000 0.904020 -0.237797 0.011190
    20 2.428221 0.000000 0.000000 0.065102 -0.004438 -0.375687
    21 1.681022 0.975106 0.213387 0.000000 0.000001 -1.745239
  time 13
    0 0.337483 -2.350969 36.962054 0.000000 -0.000575 -1.595354
    1 -1.027375 0.003906 0.000000 -0.000019 -1.516436 -1.570788
    2 -0.000004 0.000006 3.319508 -0.000924 -3.174716 0.082843
    3 16.904898 0.000000 0.000000 0.000000 0.000000 -0.002039
    4 16.597540 0.000000 0.000000 -0.020795 -0.021425 0.084078
    5 0.000005 -0.000003 -3.319508 -0.004354 3.041189 -0.048459
    6 16.904898 0.000000 0.000000 0.000000 0.000000 -0.254821
    7 16.597540 0.000000 0.000000 -0.024945 0.046163 0.205907
    8 3.485062 -0.004234 0.187510 0.013213 -0.052392 0.076811
    9 5.318531 -0.004538 0.000000 -0.034823 -0.001261 0.044102
    10 5.701826 -0.005492 0.000000 -0.008696 -0.000959 0.050724
    11 6.899484 -0.001818 0.000000 0.000000 -0.000001 0.447236
    12 0.000003 0.001927 2.008302 -0.700943 -1.256738 3.369860
    13 4.746895 0.000000 0.000000 0.212660 0.931840 -0.005617
    14 10.954378 0.000000 0.000000 0.000000 0.000000 -2.171961
    15 10.954373 0.000000 0.000000 -1.793611 -0.487118 -0.616242
    16 0.000003 0.001941 -2.008302 -1.009750 1.139102 1.727989
    17 4.746896 0.000000 -0.000003 1.047073 -0.512103 -0.975129
    18 10.954372 0.000000 0.000000 0.000000 0.000000 -1.280906
    19 10.954377 0.000000 0.000000 0.842296 -0.182153 0.075439
    20 2.428221 0.000000 0.000000 0.045470 -0.008526 -0.416305
    21 1.681022 0.975106 0.213387 0.000000 0.000001 -1.745239
  time 14
    0 0.320242 -2.092812 36.962054 0.000000 -0.001820 -1.545654
    1 -1.238319 0.003906 0.000000 -0.000019 -1.519855 -1.570788
    2 -0.000004 0.000006 3.319508 -0.001691 -3.165418 0.064322
    3 16.904898 0.000000 0.000000 0.000000 0.000000 -0.002039
    4 16.597540 0.000000 0.000000 0.028546 -0.027299 0.064399
    5 0.000005 -0.000003 -3.319508 -0.004450 3.050579 -0.058813
    6 16.904898 0.000000 0.000000 0.000000 0.000000 -0.264662
    7 16.597540 0.000000 0.000000 0.024273 0.040140 0.204144
    8 3.485062 -0.004234 0.175791 0.012615 -0.049199 0.092940
    9 5.318531 -0.004538 0.000000 -0.034823 -0.000708 0.060201
    10 5.701826 -0.005492 0.000000 -0.008696 -0.000879 0.060446
    11 6.899484 -0.001818 0.000000 0.000000 -0.000001 0.455769
    12 0.000003 0.001927 2.008302 -0.838329 -1.299510 3.504757
    13 4.746895 0.000000 0.000000 0.012760 0.981601 -0.179630
    14 10.954378 0.000000 0.000000 0.000000 0.000000 -2.217652
    15 10.954373 0.000000 0.000000 -1.793611 -0.487118 -0.616242
    16 0.000003 0.001941 -2.008302 -1.055099 1.109545 1.678519
    17 4.746896 0.000000 -0.000003 1.073539 -0.415380 -1.037916
    18 10.954372 0.000000 0.000000 0.000000 0.000000 -1.161680
    19 10.954377 0.000000 0.000000 0.838633 -0.006262 0.206014
    20 2.428221 0.000000 0.000000 -0.009724 -0.011518 -0.468547
    21 1.681022 0.975106 0.213387 0.000000 0.000001 -1.745239
  time 15
    0 0.303001 -1.972339 36.962054 0.000000 0.000000 -1.499881
    1 -1.453169 0.003906 0.000000 -0.000019 -1.527259 -1.570788
    2 -0.000004 0.000006 3.319508 -0.003129 -3.153147 -0.007124
    3 16.904898 0.000000 0.000000 0.000000 0.000000 -0.109783
    4 16.597540 0.000000 0.000000 0.073991 -0.031917 0.102578
    5 0.000005 -0.000003 -3.319508 -0.003780 3.063322 -0.064889
    6 16.904898 0.000000 0.000000 0.000000 0.000000 -0.264734
    7 16.597540 0.000000 0.000000 0.069665 0.034799 0.200031
    8 3.488968 -0.004234 0.148446 0.012558 -0.042064 0.109620
    9 5.318531 -0.004538 0.000000 -0.034752 -0.000111 0.076902
    10 5.701826 -0.005492 0.000000 -0.008696 -0.000815 0.068147
    11 6.899484 -0.001818 0.000000 0.000000 -0.000001 0.462246
    12 0.000003 0.001927 2.008302 -1.043498 -1.338150 3.710027
    13 4.746895 0.000000 0.000000 -0.357108 0.991408 -0.540661
    14 10.954378 0.000000 0.000000 0.000000 0.000000 -2.171884
    15 10.954373 0.000000 0.000000 -1.793611 -0.487118 -0.616242
    16 0.000003 0.001941 -2.008302 -1.079546 1.091619 1.650236
    17 4.746896 0.000000 -0.000003 1.083284 -0.354441 -1.088280
    18 10.954372 0.000000 0.000000 0.000000 0.000000 -1.034506
    19 10.954377 0.000000 0.000000 0.878195 0.153141 0.323775
    20 2.428221 0.000000 0.000000 -0.061306 -0.012615 -0.506419
    21 1.681022 0.975106 0.213387 0.000000 0.000001 -1.745239
  time 16
    0 0.308748 -2.092812 36.915124 0.000000 0.015996 -1.488773
    1 -1.648488 0.000000 0.000000 -0.000019 -1.536847 -1.570788
    2 -0.000004 0.000006 3.319508 -0.003033 -3.142507 -0.050133
    3 16.904898 0.000000 0.000000 0.000000 0.000000 -0.157753
    4 16.597540 0.000000 0.000000 0.084608 -0.032989 0.123574
    5 0.000005 -0.000003 -3.319508 -0.003876 3.074340 -0.079083
    6 16.904898 0.000000 0.000000 0.000000 0.000000 -0.260027
    7 16.597540 0.000000 0.000000 0.081275 0.033381 0.197093
    8 3.488968 -0.004234 0.117195 0.013070 -0.032742 0.124830
    9 5.318531 -0.004538 0.000000 -0.034716 0.000443 0.093552
    10 5.701826 -0.005492 0.000000 -0.008696 -0.000767 0.072217
    11 6.899484 -0.001818 0.000000 0.000000 -0.000001 0.480246
    12 0.000003 0.001927 2.008302 0.217140 -1.449258 2.444945
    13 4.746895 0.000000 0.000000 -0.844037 0.732889 -0.992368
    14 10.954378 0.000000 0.000000 0.000000 0.000000 -1.596971
    15 10.954373 0.000000 0.000000 -2.072452 -0.152117 0.206756
    16 0.000003 0.001941 -2.008302 -1.079546 1.091619 1.632308
    17 4.746896 0.000000 -0.000003 1.076787 -0.271671 -1.146194
    18 10.954372 0.000000 0.000000 0.000000 0.000000 -1.098402
    19 10.954377 0.000000 0.000000 0.878195 0.153141 0.323775
    20 2.428221 0.000000 0.000000 -0.072789 -0.009473 -0.513061
    21 1.681022 0.975106 0.213387 0.000000 0.000001 -1.745239
  time 17
    0 0.303001 -2.333758 36.915124 0.000000 0.026148 -1.499881
    1 -1.882870 0.000000 0.000000 -0.000019 -1.546436 -1.570788
    2 -0.000004 0.000006 3.319508 -0.002362 -3.133112 -0.069882
    3 16.904898 0.000000 0.000000 0.000000 0.000000 -0.180691
    4 16.597540 0.000000 0.000000 0.073098 -0.032730 0.136878
    5 0.000005 -0.000003 -3.319508 -0.003397 3.083538 -0.084090
    6 16.904898 0.000000 0.000000 0.000000 0.000000 -0.247190
    7 16.597540 0.000000 0.000000 0.070385 0.033763 0.189337
    8 3.488968 -0.004234 0.082038 0.013725 -0.023478 0.144449
    9 5.318531 -0.004538 0.000000 -0.034645 0.001062 0.111785
    10 5.701826 -0.005492 0.000000 -0.008696 -0.000735 0.076872
    11 6.899484 -0.001818 0.000000 0.000000 -0.000001 0.472897
    12 0.000003 0.001927 2.008302 1.247874 -1.211287 1.440358
    13 4.746895 0.000000 0.000000 -1.006474 0.231652 -1.176228
    14 10.954378 0.000000 0.000000 0.000000 0.000000 -0.789941
    15 10.954373 0.000000 0.000000 -2.067049 -0.158236 0.152695
    16 0.000003 0.001941 -2.008302 -1.079546 1.091619 1.639594
    17 4.746896 0.000000 -0.000003 1.077552 -0.312582 -1.115134
    18 10.954372 0.000000 0.000000 0.000000 0.000000 -1.091533
    19 10.954377 0.000000 0.000000 0.878195 0.153141 0.323775
    20 2.428221 0.000000 0.000000 -0.066862 -0.004388 -0.492369
    21 1.681022 0.975106 0.213387 0.000000 0.000001 -1.745239
  time 18
    0 0.193809 -2.041181 36.915124 -0.000096 0.023275 -1.512234
    1 -2.328196 0.000000 0.000000 -0.000019 -1.553452 -1.570788
    2 -0.000004 0.000006 3.319508 -0.001307 -3.124389 -0.098145
    3 16.904898 0.000000 0.000000 0.000000 0.000000 -0.201463
    4 16.597540 0.000000 0.000000 0.060815 -0.034245 0.126553
    5 0.000005 -0.000003 -3.319508 -0.003780 3.092161 -0.106986
    6 16.904898 0.000000 0.000000 0.000000 0.000000 -0.250328
    7 16.597540 0.000000 0.000000 0.057892 0.032373 0.166714
    8 3.488968 -0.004234 0.058600 0.013868 -0.017148 0.188023
    9 5.318531 -0.004538 0.000000 -0.034573 0.001682 0.129214
    10 5.701826 -0.005492 0.000000 -0.008669 -0.000511 0.103020
    11 6.899484 -0.001818 0.000000 0.000000 -0.000001 0.252971
    12 0.000003 0.001927 2.008302 1.155740 -1.223637 1.755310
    13 4.746895 0.000000 0.000000 -0.995606 0.105435 -1.191372
    14 10.954378 0.000000 0.000000 0.000000 0.000000 -0.759963
    15 10.954373 0.000000 0.000000 -2.071599 -0.141947 0.190653
    16 0.000003 0.001941 -2.008302 -0.985399 1.153343 1.944567
    17 4.746896 0.000000 -0.000003 1.079845 -0.400098 -1.116568
    18 10.954372 0.000000 0.000000 0.000000 0.000000 -0.973696
    19 10.954377 0.000000 0.000000 0.998988 0.112161 0.275227
    20 2.428221 0.000000 0.000000 -0.061769 -0.006681 -0.427929
    21 1.681022 0.975106 0.213387 0.000000 0.000001 -1.745239
  time 19
    0 0.078869 -1.679762 36.962054 -0.000192 0.017911 -1.526789
    1 -1.847713 0.000000 0.000000 -0.000019 -1.558070 -1.570788
    2 -0.000004 0.000006 3.319508 -0.000924 -3.118254 -0.084715
    3 16.904898 0.000000 0.000000 0.000000 0.000000 -0.196307
    4 16.597540 0.000000 0.000000 0.046361 -0.035723 0.129464
    5 0.000005 -0.000003 -3.319508 -0.002440 3.098102 -0.091625
    6 16.904898 0.000000 0.000000 0.000000 0.000000 -0.233498
    7 16.597540 0.000000 0.000000 0.043045 0.031065 0.159839
    8 3.488968 -0.004234 0.042974 0.011162 -0.011394 0.149042
    9 5.318531 -0.004538 0.000000 -0.026331 -0.000310 0.094682
    10 5.701826 -0.005492 0.000000 -0.006592 -0.000911 0.075437
    11 6.899484 -0.001818 0.000000 0.000000 -0.000001 0.296383
    12 0.000003 0.001927 2.008302 0.945681 -1.275309 1.919833
    13 4.746895 0.000000 0.000000 -0.940793 0.341252 -1.124294
    14 10.954378 0.000000 0.000000 0.000000 0.000000 -0.945015
    15 10.954373 0.000000 0.000000 -2.072073 -0.142895 0.205318
    16 0.000003 0.001941 -2.008302 -0.835740 1.220440 2.039960
    17 4.746896 0.000000 -0.000003 1.023474 -0.693400 -1.031609
    18 10.954372 0.000000 0.000000 0.000000 0.000000 -0.830316
    19 10.954377 0.000000 0.000000 1.143317 0.071815 0.212240
    20 2.428221 0.000000 0.000000 -0.045655 -0.005883 -0.378114
    21 1.681022 0.975106 0.213387 0.000000 0.000001 -1.745239
  time 20
    0 -0.036070 -1.318342 36.962054 -0.000192 0.012452 -1.540292
    1 -1.289102 0.003906 0.000000 -0.000019 -1.562300 -1.570788
    2 -0.000004 0.000006 3.319508 -0.000828 -3.112310 -0.067863
    3 16.904898 0.000000 0.000000 0.000000 0.000000 -0.188088
    4 16.597540 0.000000 0.000000 0.032947 -0.037459 0.132651
    5 0.000005 -0.000003 -3.319508 -0.001005 3.103946 -0.073201
    6 16.904898 0.000000 0.000000 0.000000 0.000000 -0.215099
    7 16.597540 0.000000 0.000000 0.029277 0.029430 0.154316
    8 3.488968 -0.004234 0.027349 0.007858 -0.006244 0.104403
    9 5.318531 -0.004538 0.000000 -0.017590 -0.001814 0.056936
    10 5.701826 -0.005492 0.000000 -0.004376 -0.001214 0.044224
    11 6.899484 -0.001818 0.000000 0.000000 -0.000001 0.347643
    12 0.000003 0.001927 2.008302 0.674168 -1.309999 2.135746
    13 4.746895 0.000000 0.000000 -0.855667 0.508785 -1.036777
    14 10.954378 0.000000 0.000000 0.000000 0.000000 -1.019387
    15 10.954373 0.000000 0.000000 -2.068281 -0.162717 0.185189
    16 0.000003 0.001941 -2.008302 -0.643610 1.273527 2.170923
    17 4.746896 0.000000 -0.000003 0.853788 -0.963446 -0.845922
    18 10.954372 0.000000 0.000000 0.000000 0.000000 -0.696505
    19 10.954377 0.000000 0.000000 1.278671 0.042883 0.149435
    20 2.428221 0.000000 0.000000 -0.031486 -0.004138 -0.322104
    21 1.681022 0.975106 0.213387 0.000000 0.000001 -1.745239
  time 21
    0 -0.133769 -0.991344 37.008985 -0.000192 0.007375 -1.551974
    1 -0.824244 0.007813 0.000000 -0.000019 -1.565861 -1.570740
    2 -0.000004 0.000006 3.319508 -0.000732 -3.106942 -0.052942
    3 16.904898 0.000000 0.000000 0.000000 0.000000 -0.179645
    4 16.597540 0.000000 0.000000 0.021200 -0.039269 0.134106
    5 0.000005 -0.000003 -3.319508 0.000048 3.109120 -0.057257
    6 16.904898 0.000000 0.000000 0.000000 0.000000 -0.198340
    7 16.597540 0.000000 0.000000 0.017209 0.027713 0.148440
    8 3.488968 -0.004234 0.015630 0.004867 -0.002130 0.067406
    9 5.318531 -0.004538 0.000000 -0.010418 -0.002544 0.025995
    10 5.701826 -0.005492 0.000000 -0.002603 -0.001358 0.018457
    11 6.899484 -0.001818 0.000000 0.000000 -0.000001 0.354993
    12 0.000003 0.001927 2.008302 0.389904 -1.321487 2.406787
    13 4.746895 0.000000 0.000000 -0.739273 0.629645 -0.923246
    14 10.954378 0.000000 0.000000 0.000000 0.000000 -1.239909
    15 10.954373 0.000000 0.000000 -2.056244 -0.205724 0.118667
    16 0.000003 0.001941 -2.008302 -0.421280 1.308457 2.377338
    17 4.746896 0.000000 -0.000003 0.500277 -1.145122 -0.485253
    18 10.954372 0.000000 0.000000 0.000000 0.000000 -0.579286
    19 10.954377 0.000000 0.000000 1.397908 0.024810 0.091953
    20 2.428221 0.000000 0.000000 -0.019262 -0.002244 -0.256196
    21 1.681022 0.975106 0.213387 0.000000 0.000001 -1.745239
  time 22
    0 -0.202733 -0.767609 37.008985 -0.000096 0.003065 -1.562029
    1 -0.441420 0.007813 0.000000 -0.000019 -1.568787 -1.570836
    2 -0.000004 0.000006 3.319508 -0.000924 -3.102820 -0.037845
    3 16.904898 0.000000 0.000000 0.000000 0.000000 -0.169857
    4 16.597540 0.000000 0.000000 0.011147 -0.040636 0.135145
    5 0.000005 -0.000003 -3.319508 0.000814 3.113240 -0.041556
    6 16.904898 0.000000 0.000000 0.000000 0.000000 -0.181867
    7 16.597540 0.000000 0.000000 0.006940 0.026378 0.143445
    8 3.488968 -0.004234 0.003911 0.002189 0.001006 0.037058
    9 5.318531 -0.004538 0.000000 -0.004567 -0.002810 0.000655
    10 5.701826 -0.005492 0.000000 -0.001136 -0.001406 -0.002684
    11 6.899484 -0.001818 0.000000 0.000000 -0.000001 0.351754
    12 0.000003 0.001927 2.008302 0.151850 -1.315538 2.641970
    13 4.746895 0.000000 0.000000 -0.608199 0.708463 -0.798010
    14 10.954378 0.000000 0.000000 0.000000 0.000000 -1.439226
    15 10.954373 0.000000 0.000000 -1.956631 -0.369734 -0.228419
    16 0.000003 0.001941 -2.008302 -0.190993 1.326191 2.603503
    17 4.746896 0.000000 -0.000003 -0.029894 -1.203118 0.048393
    18 10.954372 0.000000 0.000000 0.000000 0.000000 -0.478966
    19 10.954377 0.000000 0.000000 1.500568 0.014902 0.041329
    20 2.428221 0.000000 0.000000 -0.008335 0.000000 -0.198398
    21 1.681022 0.975106 0.213387 0.000000 0.000001 -1.745239
  time 23
    0 -0.231468 -0.681556 37.008985 0.000000 0.000000 -1.569690
    1 -0.140629 0.007813 0.000000 -1.570795 -1.570796 0.000000
    2 -0.000004 0.000006 3.319508 -0.001595 -3.100519 -0.021431
    3 16.904898 0.000000 0.000000 0.000000 0.000000 -0.158052
    4 16.597540 0.000000 0.000000 0.003652 -0.040969 0.136462
    5 0.000005 -0.000003 -3.319508 0.001196 3.115540 -0.024396
    6 16.904898 0.000000 0.000000 0.000000 0.000000 -0.164252
    7 16.597540 0.000000 0.000000 -0.000614 0.026078 0.139861
    8 3.488968 -0.004234 0.000004 -0.000004 0.003221 0.013545
    9 5.318531 -0.004538 0.000000 0.000000 -0.002832 -0.019085
    10 5.701826 -0.005492 0.000000 0.000000 -0.001406 -0.019081
    11 6.899484 -0.001818 0.000000 0.000000 -0.000001 0.348889
    12 0.000003 0.001927 2.008302 -0.000013 -1.303869 2.791920
    13 4.746895 0.000000 0.000000 -0.492472 0.752412 -0.688660
    14 10.954378 0.000000 0.000000 0.000000 0.000000 -1.578282
    15 10.954373 0.000000 0.000000 -1.833039 -0.468071 -0.530549
    16 0.000003 0.001941 -2.008302 -0.000013 1.330491 2.791894
    17 4.746896 0.000000 -0.000003 -0.443407 -1.158981 0.464300
    18 10.954372 0.000000 0.000000 0.000000 0.000000 -0.402646
    19 10.954377 0.000000 0.000000 1.579052 0.010859 0.002166
    20 2.428221 0.000000 0.000000 -0.001019 0.002044 -0.151648
    21 1.681022 0.975106 0.213387 0.000000 0.000001 -1.745239
end
