version 1
nodes
  0 "Bip02" -1
  1 "Bip02 Pelvis" 0
  2 "Bip02 L Leg" 1
  3 "Bip02 L Leg1" 2
  4 "Bip02 L Foot" 3
  5 "Bip02 R Leg" 1
  6 "Bip02 R Leg1" 5
  7 "Bip02 R Foot" 6
  8 "Bip02 Spine" 1
  9 "Bip02 Spine1" 8
  10 "Bip02 Spine2" 9
  11 "Bip02 Neck" 10
  12 "Bip02 L Arm" 11
  13 "Bip02 L Arm1" 12
  14 "Bip02 L Arm2" 13
  15 "Bip02 L Hand" 14
  16 "Bip02 R Arm" 11
  17 "Bip02 R Arm1" 16
  18 "Bip02 R Arm2" 17
  19 "Bip02 R Hand" 18
  20 "Bip02 Head" 11
  21 "Bone01" 20
end
skeleton
  time 0
    0 -0.001589 0.024072 37.196707 0.000000 -0.026148 -1.570839
    1 0.000000 0.000000 0.000000 -1.570795 -1.570796 0.000000
    2 -0.000004 0.000006 3.319508 0.003103 -3.144999 -0.077430
    3 16.904898 0.000000 0.000000 0.000000 0.000000 -0.149608
    4 16.597540 0.000000 0.000000 -0.003456 0.003069 0.054698
    5 0.000005 -0.000003 -3.319508 -0.004641 3.159135 -0.031493
    6 16.904898 0.000000 0.000000 0.000000 0.000000 -0.275573
    7 16.597540 0.000000 0.000000 -0.016312 -0.018315 0.190336
    8 3.488968 -0.004234 0.000004 -0.000004 -0.000001 0.000796
    9 5.318531 -0.004538 0.000000 0.000000 0.000000 -0.026167
    10 5.701826 -0.005492 0.000000 0.000000 0.000000 -0.026167
    11 6.899484 -0.001818 0.000000 0.000000 -0.026147 0.099378
    12 0.050786 0.001927 2.008302 -0.571514 -1.365031 3.600345
    13 4.746895 0.000000 0.000000 0.673374 1.128703 0.459654
    14 10.954378 0.000000 0.000000 0.000000 0.000000 -0.722739
    15 10.954373 0.000000 0.000000 -1.574103 0.019392 0.236566
    16 -0.050780 0.001941 -2.008302 -0.529234 1.350105 2.519998
    17 4.746896 0.000000 -0.000003 -0.653890 -1.177775 0.585670
    18 10.954372 0.000000 0.000000 0.000000 0.000000 -0.672043
    19 10.954377 0.000000 0.000000 1.767889 -0.169629 0.443611
    20 2.428221 0.000000 0.000000 0.004816 0.017451 0.116138
    21 1.681022 0.975106 0.213387 0.000000 0.000001 -1.745239
  time 1
    0 0.101857 2.502375 35.601067 0.000192 0.013314 -1.561933
    1 0.000000 0.000000 0.000000 -1.570795 -1.570796 0.000000
    2 -0.000004 0.000006 3.319508 0.004062 -3.150942 -0.427818
    3 16.904898 0.000000 0.000000 0.000000 0.000000 -0.613909
    4 16.597540 0.000000 0.000000 0.001481 0.006690 0.208110
    5 0.000005 -0.000003 -3.319508 0.003302 3.155494 -0.359566
    6 16.904898 0.000000 0.000000 0.000000 0.000000 -0.707806
    7 16.597540 0.000000 0.000000 -0.011602 -0.015426 0.334179
    8 3.488968 -0.004234 0.000004 -0.000004 -0.000001 0.214476
    9 5.318531 -0.004538 0.000000 0.000000 0.000000 0.182607
    10 5.701826 -0.005492 0.000000 0.000000 0.000000 0.200584
    11 6.899484 -0.001818 0.000000 0.000000 -0.026147 0.238584
    12 0.050786 0.001927 2.008302 -0.554928 -1.366393 3.444930
    13 4.746895 0.000000 0.000000 0.786717 1.130973 0.449713
    14 10.954378 0.000000 0.000000 0.000000 0.000000 -1.397654
    15 10.954373 0.000000 0.000000 -1.342367 0.410844 -0.075724
    16 -0.050780 0.001941 -2.008302 -0.499417 1.354366 2.410031
    17 4.746896 0.000000 -0.000003 -0.930584 -1.224095 0.731409
    18 10.954372 0.000000 0.000000 0.000000 0.000000 -1.384699
    19 10.954377 0.000000 0.000000 1.481062 -0.506666 -0.030410
    20 2.428221 0.000000 0.000000 -0.007779 0.012864 -0.591232
    21 1.681022 0.975106 0.213387 0.000000 0.000001 -1.745239
  time 2
    0 -0.001589 5.583043 34.099289 0.000000 0.043581 -1.570839
    1 0.000000 0.000000 0.000000 -1.570795 -1.570796 0.000000
    2 -0.000004 0.000006 3.319508 0.009047 -3.149025 -0.648566
    3 16.904898 0.000000 0.000000 0.000000 0.000000 -0.789124
    4 16.597540 0.000000 0.000000 -0.011724 0.001037 0.192865
    5 0.000005 -0.000003 -3.319508 0.013063 3.155781 -0.595764
    6 16.904898 0.000000 0.000000 0.000000 0.000000 -0.915044
    7 16.597540 0.000000 0.000000 -0.025665 -0.020277 0.335589
    8 3.488968 -0.004234 0.000004 -0.000004 -0.000001 0.428156
    9 5.318531 -0.004538 0.000000 0.000000 0.000000 0.383772
    10 5.701826 -0.005492 0.000000 0.000000 0.000000 0.427364
    11 6.899484 -0.001818 0.000000 0.000000 -0.026147 0.326155
    12 0.050786 0.001927 2.008302 -0.543998 -1.366983 3.346754
    13 4.746895 0.000000 0.000000 0.416468 1.148044 0.008133
    14 10.954378 0.000000 0.000000 0.000000 0.000000 -1.840987
    15 10.954373 0.000000 0.000000 -1.249010 0.684567 -0.252766
    16 -0.050780 0.001941 -2.008302 -0.640159 1.335289 2.184346
    17 4.746896 0.000000 -0.000003 -0.397833 -1.245357 0.180562
    18 10.954372 0.000000 0.000000 0.000000 0.000000 -1.861063
    19 10.954377 0.000000 0.000000 1.249000 -0.684618 -0.252757
    20 2.428221 0.000000 0.000000 0.005742 0.023584 0.578586
    21 1.681022 0.975106 0.213387 0.000000 0.000001 -1.745239
  time 3
    0 -0.277443 6.340302 33.489191 -0.002300 0.045401 -1.606175
    1 0.000000 0.000000 0.000000 -1.570795 -1.570796 0.000000
    2 -0.000004 0.000006 3.319508 0.020359 -3.132921 -0.708164
    3 16.904898 0.000000 0.000000 0.000000 0.000000 -0.856745
    4 16.597540 0.000000 0.000000 -0.046165 -0.016659 0.202843
    5 0.000005 -0.000003 -3.319508 0.025313 3.167758 -0.659444
    6 16.904898 0.000000 0.000000 0.000000 0.000000 -0.978798
    7 16.597540 0.000000 0.000000 -0.062325 -0.036029 0.337705
    8 3.488968 -0.004234 0.000004 -0.000004 -0.000001 0.428156
    9 5.318531 -0.004538 0.000000 0.000000 0.000000 0.377041
    10 5.701826 -0.005492 0.000000 0.000000 0.000000 0.427364
    11 6.899484 -0.001818 0.000000 0.000000 -0.026147 0.326155
    12 0.050786 0.001927 2.008302 -0.430292 -1.378471 3.235921
    13 4.746895 0.000000 0.000000 0.620849 1.116172 0.229898
    14 10.954378 0.000000 0.000000 0.000000 0.000000 -1.905976
    15 10.954373 0.000000 0.000000 -1.249010 0.684567 -0.252766
    16 -0.050780 0.001941 -2.008302 -0.748975 1.313639 2.077926
    17 4.746896 0.000000 -0.000003 -0.601054 -1.208718 0.438019
    18 10.954372 0.000000 0.000000 0.000000 0.000000 -1.937614
    19 10.954377 0.000000 0.000000 1.151376 -0.657192 -0.242560
    20 2.428221 0.000000 0.000000 -0.009353 0.033007 0.267562
    21 1.681022 0.975106 0.213387 0.000000 0.000001 -1.745239
  time 4
    0 -0.421118 6.615669 33.066816 -0.004983 0.040707 -1.649075
    1 0.000000 0.000000 0.000000 -1.570795 -1.570796 0.000000
    2 -0.000004 0.000006 3.319508 0.030234 -3.117774 -0.736602
    3 16.904898 0.000000 0.000000 0.000000 0.000000 -0.910393
    4 16.597540 0.000000 0.000000 -0.086256 -0.031880 0.223700
    5 0.000005 -0.000003 -3.319508 0.035169 3.178393 -0.690263
    6 16.904898 0.000000 0.000000 0.000000 0.000000 -1.021872
    7 16.597540 0.000000 0.000000 -0.105036 -0.049082 0.345813
    8 3.488968 -0.004234 0.000004 -0.000004 -0.000001 0.428156
    9 5.318531 -0.004538 0.000000 0.000000 0.000000 0.322719
    10 5.701826 -0.005492 0.000000 0.000000 0.000000 0.427364
    11 6.899484 -0.001818 0.000000 0.000000 -0.026147 0.326155
    12 0.050786 0.001927 2.008302 -0.274402 -1.388914 3.083478
    13 4.746895 0.000000 0.000000 0.831616 1.062416 0.467087
    14 10.954378 0.000000 0.000000 0.000000 0.000000 -1.942743
    15 10.954373 0.000000 0.000000 -1.249010 0.684567 -0.252766
    16 -0.050780 0.001941 -2.008302 -0.854532 1.285158 1.975246
    17 4.746896 0.000000 -0.000003 -0.799498 -1.149299 0.703790
    18 10.954372 0.000000 0.000000 0.000000 0.000000 -1.986617
    19 10.954377 0.000000 0.000000 1.059522 -0.604084 -0.217835
    20 2.428221 0.000000 0.000000 -0.025189 0.036946 -0.076224
    21 1.681022 0.975106 0.213387 0.000000 0.000001 -1.745239
  time 5
    0 -0.501575 6.770563 32.691371 -0.006708 0.036589 -1.683453
    1 0.000000 0.000000 0.000000 -1.570795 -1.570796 0.000000
    2 -0.000004 0.000006 3.319508 0.037041 -3.106367 -0.756966
    3 16.904898 0.000000 0.000000 0.000000 0.000000 -0.954477
    4 16.597540 0.000000 0.000000 -0.117425 -0.043112 0.243587
    5 0.000005 -0.000003 -3.319508 0.042538 3.186058 -0.712575
    6 16.904898 0.000000 0.000000 0.000000 0.000000 -1.057315
    7 16.597540 0.000000 0.000000 -0.138753 -0.058975 0.355332
    8 3.488968 -0.004234 0.000004 -0.000004 -0.000001 0.428156
    9 5.318531 -0.004538 0.000000 0.000000 0.000000 0.444824
    10 5.701826 -0.005492 0.000000 0.000000 0.000000 0.427364
    11 6.899484 -0.001818 0.000000 0.000000 -0.026147 0.326155
    12 0.050786 0.001927 2.008302 -0.111897 -1.394499 2.924325
    13 4.746895 0.000000 0.000000 0.674232 1.091020 0.341014
    14 10.954378 0.000000 0.000000 0.000000 0.000000 -1.963872
    15 10.954373 0.000000 0.000000 -1.249010 0.684567 -0.252766
    16 -0.050780 0.001941 -2.008302 -0.936216 1.255985 1.896247
    17 4.746896 0.000000 -0.000003 -0.548983 -1.162018 0.524602
    18 10.954372 0.000000 0.000000 0.000000 0.000000 -2.018642
    19 10.954377 0.000000 0.000000 0.983603 -0.544159 -0.194193
    20 2.428221 0.000000 0.000000 -0.020651 0.052453 0.006418
    21 1.681022 0.975106 0.213387 0.000000 0.000001 -1.745239
  time 6
    0 -0.702720 7.097561 32.362857 -0.007091 0.036206 -1.704041
    1 0.000000 0.000000 0.000000 -1.570795 -1.570796 0.000000
    2 -0.000004 0.000006 3.319508 0.043752 -3.094288 -0.782946
    3 16.904898 0.000000 0.000000 0.000000 0.000000 -0.987950
    4 16.597540 0.000000 0.000000 -0.133396 -0.056116 0.250793
    5 0.000005 -0.000003 -3.319508 0.050673 3.195639 -0.740964
    6 16.904898 0.000000 0.000000 0.000000 0.000000 -1.087980
    7 16.597540 0.000000 0.000000 -0.157198 -0.071783 0.357565
    8 3.488968 -0.004234 0.000004 -0.000004 -0.000001 0.428156
    9 5.318531 -0.004538 0.000000 0.000000 0.000000 0.366317
    10 5.701826 -0.005492 0.000000 0.000000 0.000000 0.427364
    11 6.899484 -0.001818 0.000000 0.000000 -0.026147 0.326155
    12 0.050786 0.001927 2.008302 0.035844 -1.395452 2.779456
    13 4.746895 0.000000 0.000000 0.865457 1.038989 0.556183
    14 10.954378 0.000000 0.000000 0.000000 0.000000 -1.976229
    15 10.954373 0.000000 0.000000 -1.249010 0.684567 -0.252766
    16 -0.050780 0.001941 -2.008302 -0.996041 1.229154 1.838723
    17 4.746896 0.000000 -0.000003 -0.731949 -1.110382 0.764571
    18 10.954372 0.000000 0.000000 0.000000 0.000000 -2.040172
    19 10.954377 0.000000 0.000000 0.923160 -0.486057 -0.175423
    20 2.428221 0.000000 0.000000 -0.006205 0.065815 0.338006
    21 1.681022 0.975106 0.213387 0.000000 0.000001 -1.745239
  time 7
    0 -1.334887 7.579453 31.940482 -0.005654 0.043198 -1.701839
    1 0.000000 0.000000 0.000000 -1.570795 -1.570796 0.000000
    2 -0.000004 0.000006 3.319508 0.054202 -3.074924 -0.822005
    3 16.904898 0.000000 0.000000 0.000000 0.000000 -1.016568
    4 16.597540 0.000000 0.000000 -0.123195 -0.078763 0.247952
    5 0.000005 -0.000003 -3.319508 0.064358 3.214323 -0.780873
    6 16.904898 0.000000 0.000000 0.000000 0.000000 -1.119857
    7 16.597540 0.000000 0.000000 -0.149513 -0.096201 0.357330
    8 3.488968 -0.004234 0.000004 -0.000004 -0.000001 0.428156
    9 5.318531 -0.004538 0.000000 0.000000 0.000000 0.479708
    10 5.701826 -0.005492 0.000000 0.000000 0.000000 0.427364
    11 6.899484 -0.001818 0.000000 0.000000 -0.026147 0.326155
    12 0.050786 0.001927 2.008302 0.162780 -1.393273 2.655009
    13 4.746895 0.000000 0.000000 0.700828 1.076582 0.417847
    14 10.954378 0.000000 0.000000 0.000000 0.000000 -1.983781
    15 10.954373 0.000000 0.000000 -1.249010 0.684567 -0.252766
    16 -0.050780 0.001941 -2.008302 -1.040813 1.205163 1.796059
    17 4.746896 0.000000 -0.000003 -0.492707 -1.131264 0.584905
    18 10.954372 0.000000 0.000000 0.000000 0.000000 -2.055452
    19 10.954377 0.000000 0.000000 0.874257 -0.432077 -0.160985
    20 2.428221 0.000000 0.000000 -0.026485 0.072247 0.040011
    21 1.681022 0.975106 0.213387 0.000000 0.000001 -1.745239
  time 8
    0 -1.467067 6.099356 31.705829 0.000862 0.054500 -1.661045
    1 0.000000 0.000000 0.000000 -1.570795 -1.570796 0.000000
    2 -0.000004 0.000006 3.319508 0.044519 -3.088633 -0.827008
    3 16.904898 0.000000 0.000000 0.000000 0.000000 -1.086205
    4 16.597540 0.000000 0.000000 -0.085751 -0.069195 0.323341
    5 0.000005 -0.000003 -3.319508 0.056223 3.204454 -0.769255
    6 16.904898 0.000000 0.000000 0.000000 0.000000 -1.179689
    7 16.597540 0.000000 0.000000 -0.111707 -0.088924 0.439418
    8 3.488968 -0.004234 0.000004 -0.000004 -0.000001 0.452735
    9 5.318531 -0.004538 0.000000 0.000000 0.000000 0.508790
    10 5.701826 -0.005492 0.000000 0.000000 0.000000 0.437026
    11 6.899484 -0.001818 0.000000 0.000000 -0.026147 0.326155
    12 0.050786 0.001927 2.008302 0.272267 -1.389050 2.547820
    13 4.746895 0.000000 0.000000 0.610840 1.088931 0.350676
    14 10.954378 0.000000 0.000000 0.000000 0.000000 -1.988663
    15 10.954373 0.000000 0.000000 -1.249010 0.684567 -0.252766
    16 -0.050780 0.001941 -2.008302 -1.076287 1.183207 1.762503
    17 4.746896 0.000000 -0.000003 -0.352545 -1.129366 0.497939
    18 10.954372 0.000000 0.000000 0.000000 0.000000 -2.066950
    19 10.954377 0.000000 0.000000 0.832405 -0.380872 -0.149705
    20 2.428221 0.000000 0.000000 -0.042784 0.076136 -0.173426
    21 1.681022 0.975106 0.213387 0.000000 0.000001 -1.745239
  time 9
    0 -1.501549 4.343891 31.611968 0.012170 0.065802 -1.591332
    1 0.000000 0.000000 0.000000 -1.570795 -1.570796 0.000000
    2 -0.000004 0.000006 3.319508 0.028604 -3.110681 -0.810682
    3 16.904898 0.000000 0.000000 0.000000 0.000000 -1.129168
    4 16.597540 0.000000 0.000000 -0.021925 -0.054121 0.393465
    5 0.000005 -0.000003 -3.319508 0.042921 3.189795 -0.731290
    6 16.904898 0.000000 0.000000 0.000000 0.000000 -1.214491
    7 16.597540 0.000000 0.000000 -0.045679 -0.078569 0.522739
    8 3.488968 -0.004234 0.000004 -0.000004 -0.000001 0.478563
    9 5.318531 -0.004538 0.000000 0.000000 0.000000 0.533954
    10 5.701826 -0.005492 0.000000 0.000000 0.000000 0.447480
    11 6.899484 -0.001818 0.000000 0.000000 -0.026147 0.326155
    12 0.050786 0.001927 2.008302 0.371017 -1.383102 2.451177
    13 4.746895 0.000000 0.000000 0.517133 1.097830 0.279324
    14 10.954378 0.000000 0.000000 0.000000 0.000000 -1.991943
    15 10.954373 0.000000 0.000000 -1.249010 0.684567 -0.252766
    16 -0.050780 0.001941 -2.008302 -1.106582 1.161826 1.733837
    17 4.746896 0.000000 -0.000003 -0.214962 -1.122816 0.412980
    18 10.954372 0.000000 0.000000 0.000000 0.000000 -2.076287
    19 10.954377 0.000000 0.000000 0.793759 -0.329349 -0.140320
    20 2.428221 0.000000 0.000000 -0.034635 0.093737 -0.085101
    21 1.681022 0.975106 0.213387 0.000000 0.000001 -1.745239
  time 10
    0 -1.467067 2.209797 31.424246 0.025777 0.082756 -1.508212
    1 0.000000 0.000000 0.000000 -1.570795 -1.570796 0.000000
    2 -0.000004 0.000006 3.319508 0.013744 -3.131195 -0.789617
    3 16.904898 0.000000 0.000000 0.000000 0.000000 -1.176316
    4 16.597540 0.000000 0.000000 0.056414 -0.043075 0.478416
    5 0.000005 -0.000003 -3.319508 0.031820 3.180022 -0.680930
    6 16.904898 0.000000 0.000000 0.000000 0.000000 -1.244228
    7 16.597540 0.000000 0.000000 0.035327 -0.075108 0.619457
    8 3.488968 -0.004234 0.000004 -0.000004 -0.000001 0.500203
    9 5.318531 -0.004538 0.000000 0.000000 0.000000 0.553568
    10 5.701826 -0.005492 0.000000 0.000000 0.000000 0.456235
    11 6.899484 -0.001818 0.000000 0.000000 -0.026147 0.326155
    12 0.050786 0.001927 2.008302 0.465260 -1.375338 2.359136
    13 4.746895 0.000000 0.000000 0.444971 1.101371 0.229898
    14 10.954378 0.000000 0.000000 0.000000 0.000000 -1.994155
    15 10.954373 0.000000 0.000000 -1.249010 0.684567 -0.252766
    16 -0.050780 0.001941 -2.008302 -1.134769 1.139601 1.707472
    17 4.746896 0.000000 -0.000003 -0.104227 -1.111521 0.357074
    18 10.954372 0.000000 0.000000 0.000000 0.000000 -2.084544
    19 10.954377 0.000000 0.000000 0.754654 -0.273467 -0.132199
    20 2.428221 0.000000 0.000000 -0.016391 0.110290 0.084653
    21 1.681022 0.975106 0.213387 0.000000 0.000001 -1.745239
  time 11
    0 -1.392357 -0.371768 30.814148 0.039767 0.112640 -1.426720
    1 0.000000 0.000000 0.000000 -1.570795 -1.570796 0.000000
    2 -0.000004 0.000006 3.319508 0.005308 -3.141165 -0.777417
    3 16.904898 0.000000 0.000000 0.000000 0.000000 -1.252155
    4 16.597540 0.000000 0.000000 0.135228 -0.044405 0.596350
    5 0.000005 -0.000003 -3.319508 0.028566 3.182225 -0.630861
    6 16.904898 0.000000 0.000000 0.000000 0.000000 -1.286090
    7 16.597540 0.000000 0.000000 0.114763 -0.086581 0.741501
    8 3.488968 -0.004234 0.000004 -0.000004 -0.000001 0.518095
    9 5.318531 -0.004538 0.000000 0.000000 0.000000 0.569164
    10 5.701826 -0.005492 0.000000 0.000000 0.000000 0.463379
    11 6.899484 -0.001818 0.000000 0.000000 -0.026147 0.326155
    12 0.050786 0.001927 2.008302 0.557778 -1.365258 2.269013
    13 4.746895 0.000000 0.000000 0.394829 1.101644 0.204164
    14 10.954378 0.000000 0.000000 0.000000 0.000000 -1.995451
    15 10.954373 0.000000 0.000000 -1.249010 0.684567 -0.252766
    16 -0.050780 0.001941 -2.008302 -1.162285 1.115265 1.681970
    17 4.746896 0.000000 -0.000003 -0.015181 -1.097473 0.328404
    18 10.954372 0.000000 0.000000 0.000000 0.000000 -2.091952
    19 10.954377 0.000000 0.000000 0.712528 -0.209103 -0.125251
    20 2.428221 0.000000 0.000000 -0.002963 0.116024 0.192840
    21 1.681022 0.975106 0.213387 0.000000 0.000001 -1.745239
  time 12
    0 -1.334887 -3.538489 29.453161 0.051650 0.166373 -1.366296
    1 0.000000 0.000000 0.000000 -1.570795 -1.570796 0.000000
    2 -0.000004 0.000006 3.319508 0.010581 -3.133400 -0.785141
    3 16.904898 0.000000 0.000000 0.000000 0.000000 -1.378430
    4 16.597540 0.000000 0.000000 0.191499 -0.065426 0.768678
    5 0.000005 -0.000003 -3.319508 0.060721 3.217868 -0.534272
    6 16.904898 0.000000 0.000000 0.000000 0.000000 -1.398765
    7 16.597540 0.000000 0.000000 0.138735 -0.102932 0.814128
    8 3.488968 -0.004234 0.000004 -0.000004 -0.000001 0.534482
    9 5.318531 -0.004538 0.000000 0.000000 0.000000 0.583153
    10 5.701826 -0.005492 0.000000 0.000000 0.000000 0.469821
    11 6.899484 -0.001818 0.000000 0.000000 -0.026147 0.326155
    12 0.050786 0.001927 2.008302 0.646748 -1.352771 2.182533
    13 4.746895 0.000000 0.000000 0.357271 1.100554 0.193015
    14 10.954378 0.000000 0.000000 0.000000 0.000000 -1.995833
    15 10.954373 0.000000 0.000000 -1.249010 0.684567 -0.252766
    16 -0.050780 0.001941 -2.008302 -1.188938 1.088625 1.657426
    17 4.746896 0.000000 -0.000003 0.066414 -1.081241 0.314642
    18 10.954372 0.000000 0.000000 0.000000 0.000000 -2.098280
    19 10.954377 0.000000 0.000000 0.665364 -0.133087 -0.120107
    20 2.428221 0.000000 0.000000 -0.000093 0.123503 0.207402
    21 1.681022 0.975106 0.213387 0.000000 0.000001 -1.745239
  time 13
    0 -1.334887 -7.806677 26.918910 0.058837 0.255738 -1.339004
    1 0.000000 0.000000 0.000000 -1.570795 -1.570796 0.000000
    2 -0.000004 0.000006 3.319508 0.064652 -3.100328 -0.720189
    3 16.904898 0.000000 0.000000 0.000000 0.000000 -1.625748
    4 16.597540 0.000000 0.000000 0.186711 -0.073406 0.909479
    5 0.000005 -0.000003 -3.319508 0.088282 3.254277 -0.446627
    6 16.904898 0.000000 0.000000 0.000000 0.000000 -1.498105
    7 16.597540 0.000000 0.000000 0.157572 -0.114732 0.865190
    8 3.488968 -0.004234 0.000004 -0.000004 -0.000001 0.552153
    9 5.318531 -0.004538 0.000000 0.000000 0.000000 0.597970
    10 5.701826 -0.005492 0.000000 0.000000 0.000000 0.476585
    11 6.899484 -0.001818 0.000000 0.000000 -0.026147 0.326155
    12 0.050786 0.001927 2.008302 0.724310 -1.339104 2.107558
    13 4.746895 0.000000 0.000000 0.321046 1.098647 0.183167
    14 10.954378 0.000000 0.000000 0.000000 0.000000 -1.995604
    15 10.954373 0.000000 0.000000 -1.249010 0.684567 -0.252766
    16 -0.050780 0.001941 -2.008302 -1.213098 1.061756 1.635567
    17 4.746896 0.000000 -0.000003 0.154600 -1.062163 0.300211
    18 10.954372 0.000000 0.000000 0.000000 0.000000 -2.102679
    19 10.954377 0.000000 0.000000 0.612706 -0.045181 -0.118393
    20 2.428221 0.000000 0.000000 -0.000926 0.132877 0.186071
    21 1.681022 0.975106 0.213387 0.000000 0.000001 -1.745239
  time 14
    0 -1.334887 -13.124702 23.446047 0.063340 0.376519 -1.328853
    1 0.000000 0.000000 0.000000 -1.570795 -1.570796 0.000000
    2 -0.000004 0.000006 3.319508 0.111724 -3.057382 -0.597658
    3 16.904898 0.000000 0.000000 0.000000 0.000000 -1.791324
    4 16.597540 0.000000 0.000000 0.184569 -0.066165 0.914814
    5 0.000005 -0.000003 -3.319508 0.114025 3.300554 -0.327969
    6 16.904898 0.000000 0.000000 0.000000 0.000000 -1.578975
    7 16.597540 0.000000 0.000000 0.184356 -0.117321 0.862898
    8 3.488968 -0.004234 0.000004 -0.000004 -0.000001 0.573316
    9 5.318531 -0.004538 0.000000 0.000000 0.000000 0.615450
    10 5.701826 -0.005492 0.000000 0.000000 0.000000 0.484344
    11 6.899484 -0.001818 0.000000 0.000000 -0.026147 0.326155
    12 0.050786 0.001927 2.008302 0.774452 -1.328524 2.059141
    13 4.746895 0.000000 0.000000 0.278626 1.096014 0.161334
    14 10.954378 0.000000 0.000000 0.000000 0.000000 -1.996214
    15 10.954373 0.000000 0.000000 -1.249010 0.684567 -0.252766
    16 -0.050780 0.001941 -2.008302 -1.230067 1.040797 1.620228
    17 4.746896 0.000000 -0.000003 0.257501 -1.039097 0.267719
    18 10.954372 0.000000 0.000000 0.000000 0.000000 -2.103914
    19 10.954377 0.000000 0.000000 0.555835 0.048273 -0.122002
    20 2.428221 0.000000 0.000000 -0.003704 0.133725 0.144686
    21 1.681022 0.975106 0.213387 0.000000 0.000001 -1.745239
  time 15
    0 -1.334887 -18.666463 18.893780 0.065161 0.532452 -1.329907
    1 0.000000 0.000000 0.000000 -1.570795 -1.570796 0.000000
    2 -0.000004 0.000006 3.319508 0.125529 -2.997181 -0.329513
    3 16.904898 0.000000 0.000000 0.000000 0.000000 -1.726095
    4 16.597540 0.000000 0.000000 0.183796 -0.017657 0.613119
    5 0.000005 -0.000003 -3.319508 0.106274 3.349227 -0.074271
    6 16.904898 0.000000 0.000000 0.000000 0.000000 -1.348061
    7 16.597540 0.000000 0.000000 0.203422 -0.040934 0.337998
    8 3.488968 -0.004234 0.000004 -0.000004 -0.000001 0.597968
    9 5.318531 -0.004538 0.000000 0.000000 0.000000 0.635667
    10 5.701826 -0.005492 0.000000 0.000000 0.000000 0.492484
    11 6.899484 -0.001818 0.000000 0.000000 -0.026147 0.326155
    12 0.050786 0.001927 2.008302 0.764481 -1.330749 2.068824
    13 4.746895 0.000000 0.000000 0.236396 1.091655 0.119805
    14 10.954378 0.000000 0.000000 0.000000 0.000000 -2.002240
    15 10.954373 0.000000 0.000000 -1.249010 0.684567 -0.252766
    16 -0.050780 0.001941 -2.008302 -1.230642 1.040183 1.619748
    17 4.746896 0.000000 -0.000003 0.367949 -1.011286 0.199388
    18 10.954372 0.000000 0.000000 0.000000 0.000000 -2.100981
    19 10.954377 0.000000 0.000000 0.500064 0.127935 -0.132740
    20 2.428221 0.000000 0.000000 -0.006853 0.088601 0.095382
    21 1.681022 0.975106 0.213387 0.000000 0.000001 -1.745239
  time 16
    0 -1.334887 -23.588648 14.294583 0.066024 0.688769 -1.332780
    1 0.000000 0.000000 0.000000 -1.570795 -1.570796 0.000000
    2 -0.000004 0.000006 3.319508 0.115559 -2.933817 -0.017218
    3 16.904898 0.000000 0.000000 0.000000 0.000000 -1.609235
    4 16.597540 0.000000 0.000000 0.156821 0.044262 0.170415
    5 0.000005 -0.000003 -3.319508 0.079574 3.346065 0.116234
    6 16.904898 0.000000 0.000000 0.000000 0.000000 -0.838596
    7 16.597540 0.000000 0.000000 0.134124 0.079110 -0.670963
    8 3.488968 -0.004234 0.000004 -0.000004 -0.000001 0.620049
    9 5.318531 -0.004538 0.000000 0.000000 0.000000 0.654151
    10 5.701826 -0.005492 0.000000 0.000000 0.000000 0.497140
    11 6.899484 -0.001818 0.000000 0.000000 -0.026147 0.326155
    12 0.050786 0.001927 2.008302 -1.167462 -1.151306 3.938212
    13 4.746895 0.000000 0.000000 0.401597 1.099828 -0.276344
    14 10.954378 0.000000 0.000000 0.000000 0.000000 -2.002622
    15 10.954373 0.000000 0.000000 -1.249010 0.684567 -0.252766
    16 -0.050780 0.001941 -2.008302 0.574556 1.345499 3.380555
    17 4.746896 0.000000 -0.000003 0.714964 -0.801988 -0.844107
    18 10.954372 0.000000 0.000000 0.000000 0.000000 -1.789064
    19 10.954377 0.000000 0.000000 0.472223 0.164239 -0.140050
    20 2.428221 0.000000 0.000000 -0.007872 -0.399479 0.049655
    21 1.681022 0.975106 0.213387 0.000000 0.000001 -1.745239
  time 17
    0 -1.334887 -25.120377 13.074388 0.067557 0.714917 -1.330577
    1 0.000000 0.000000 0.000000 -1.570795 -1.570796 0.000000
    2 -0.000004 0.000006 3.319508 0.147388 -2.902949 0.035094
    3 16.904898 0.000000 0.000000 0.000000 0.000000 -1.809257
    4 16.597540 0.000000 0.000000 0.113517 0.093657 -0.214223
    5 0.000005 -0.000003 -3.319508 0.092493 3.358617 0.108942
    6 16.904898 0.000000 0.000000 0.000000 0.000000 -1.198802
    7 16.597540 0.000000 0.000000 0.143968 0.066574 -0.284501
    8 3.488968 -0.004234 0.000004 -0.000004 -0.000001 0.585183
    9 5.318531 -0.004538 0.000000 0.000000 0.000000 0.619267
    10 5.701826 -0.005492 0.000000 0.000000 0.000000 0.427364
    11 6.899484 -0.001818 0.000000 0.000000 -0.026147 0.326155
    12 0.050786 0.001927 2.008302 -0.543998 -1.366983 3.346754
    13 4.746895 0.000000 0.000000 -0.585415 0.862376 -0.820493
    14 10.954378 0.000000 0.000000 0.000000 0.000000 -1.784006
    15 10.954373 0.000000 0.000000 -1.249010 0.684567 -0.252766
    16 -0.050780 0.001941 -2.008302 -0.640159 1.335289 2.184346
    17 4.746896 0.000000 -0.000003 0.516997 -0.837488 -0.146564
    18 10.954372 0.000000 0.000000 0.000000 0.000000 -1.915621
    19 10.954377 0.000000 0.000000 0.472223 0.164239 -0.140050
    20 2.428221 0.000000 0.000000 -0.058990 -0.719480 0.321465
    21 1.681022 0.975106 0.213387 0.000000 0.000001 -1.745239
  time 18
    0 -1.334887 -25.051535 9.930039 0.087872 0.951211 -1.303190
    1 0.000000 0.000000 0.000000 -1.570795 -1.570796 0.000000
    2 -0.000004 0.000006 3.319508 0.149401 -2.907455 0.024562
    3 16.904898 0.000000 0.000000 0.000000 0.000000 -1.220400
    4 16.597540 0.000000 0.000000 0.105308 0.096022 -0.857526
    5 0.000005 -0.000003 -3.319508 0.067420 3.316746 0.103595
    6 16.904898 0.000000 0.000000 0.000000 0.000000 -0.854213
    7 16.597540 0.000000 0.000000 0.075356 0.119933 -0.922278
    8 3.488968 -0.004234 0.000004 -0.000004 -0.000001 0.481907
    9 5.318531 -0.004538 0.000000 0.000000 0.000000 0.385027
    10 5.701826 -0.005492 0.000000 0.000000 0.000000 0.200730
    11 6.899484 -0.001818 0.000000 0.000000 -0.026147 0.326155
    12 0.050786 0.001927 2.008302 -0.543998 -1.366983 3.346754
    13 4.746895 0.000000 0.000000 0.221907 0.898879 -0.015187
    14 10.954378 0.000000 0.000000 0.000000 0.000000 -1.464398
    15 10.954373 0.000000 0.000000 -1.249010 0.684567 -0.252766
    16 -0.050780 0.001941 -2.008302 -0.640159 1.335289 2.184346
    17 4.746896 0.000000 -0.000003 -0.386941 -0.799615 0.625999
    18 10.954372 0.000000 0.000000 0.000000 0.000000 -1.670996
    19 10.954377 0.000000 0.000000 0.472223 0.164239 -0.140050
    20 2.428221 0.000000 0.000000 0.740204 -0.911442 -0.117033
    21 1.681022 0.975106 0.213387 0.000000 0.000001 -1.745239
  time 19
    0 -1.334887 -24.999904 7.114204 0.130801 1.169403 -1.254256
    1 0.000000 0.000000 0.000000 -1.570795 -1.570796 0.000000
    2 -0.000004 0.000006 3.319508 0.145279 -2.917520 0.017101
    3 16.904898 0.000000 0.000000 0.000000 0.000000 -0.542777
    4 16.597540 0.000000 0.000000 0.134842 -0.020391 -0.602533
    5 0.000005 -0.000003 -3.319508 0.038519 3.272002 0.102185
    6 16.904898 0.000000 0.000000 0.000000 0.000000 -0.462273
    7 16.597540 0.000000 0.000000 0.121206 0.071507 -0.484225
    8 3.488968 -0.004234 0.000004 -0.000004 -0.000001 0.388844
    9 5.318531 -0.004538 0.000000 0.000000 0.000000 0.169121
    10 5.701826 -0.005492 0.000000 0.000000 0.000000 -0.004323
    11 6.899484 -0.001818 0.000000 0.000000 -0.026147 0.326155
    12 0.050786 0.001927 2.008302 -0.543998 -1.366983 3.346754
    13 4.746895 0.000000 0.000000 0.387870 0.829686 -0.055694
    14 10.954378 0.000000 0.000000 0.000000 0.000000 -0.871864
    15 10.954373 0.000000 0.000000 -1.249010 0.684567 -0.252766
    16 -0.050780 0.001941 -2.008302 -0.640159 1.335289 2.184346
    17 4.746896 0.000000 -0.000003 -0.657998 -0.729564 0.644252
    18 10.954372 0.000000 0.000000 0.000000 0.000000 -1.273884
    19 10.954377 0.000000 0.000000 0.472223 0.164239 -0.140050
    20 2.428221 0.000000 0.000000 1.046640 -0.441361 0.030814
    21 1.681022 0.975106 0.213387 0.000000 0.000001 -1.745239
  time 20
    0 -1.334887 -24.999904 5.190051 0.208037 1.321409 -1.172956
    1 0.000000 0.000000 0.000000 -1.570795 -1.570796 0.000000
    2 -0.000004 0.000006 3.319508 0.123420 -2.911481 0.098729
    3 16.904898 0.000000 0.000000 0.000000 0.000000 -0.287614
    4 16.597540 0.000000 0.000000 0.120774 -0.057668 -0.446835
    5 0.000005 -0.000003 -3.319508 0.020240 3.244408 0.099560
    6 16.904898 0.000000 0.000000 0.000000 0.000000 -0.289265
    7 16.597540 0.000000 0.000000 0.127452 0.078701 -0.474118
    8 3.488968 -0.004234 0.000004 -0.000004 -0.000001 0.323484
    9 5.318531 -0.004538 0.000000 0.000000 0.000000 0.017431
    10 5.701826 -0.005492 0.000000 0.000000 0.000000 -0.148268
    11 6.899484 -0.001818 0.000000 0.000000 -0.026147 0.326155
    12 0.050786 0.001927 2.008302 -0.543998 -1.366983 3.346754
    13 4.746895 0.000000 0.000000 0.622946 0.824692 0.045945
    14 10.954378 0.000000 0.000000 0.000000 0.000000 -0.492148
    15 10.954373 0.000000 0.000000 -1.249010 0.684567 -0.252766
    16 -0.050780 0.001941 -2.008302 -0.640159 1.335289 2.184346
    17 4.746896 0.000000 -0.000003 -0.921316 -0.750541 0.731027
    18 10.954372 0.000000 0.000000 0.000000 0.000000 -0.930250
    19 10.954377 0.000000 0.000000 0.472223 0.164239 -0.140050
    20 2.428221 0.000000 0.000000 1.205460 -0.188421 0.016509
    21 1.681022 0.975106 0.213387 0.000000 0.000001 -1.745239
end
