version 1
nodes
  0 "Bip02" -1
  1 "Bip02 Pelvis" 0
  2 "Bip02 L Leg" 1
  3 "Bip02 L Leg1" 2
  4 "Bip02 L Foot" 3
  5 "Bip02 R Leg" 1
  6 "Bip02 R Leg1" 5
  7 "Bip02 R Foot" 6
  8 "Bip02 Spine" 1
  9 "Bip02 Spine1" 8
  10 "Bip02 Spine2" 9
  11 "Bip02 Neck" 10
  12 "Bip02 L Arm" 11
  13 "Bip02 L Arm1" 12
  14 "Bip02 L Arm2" 13
  15 "Bip02 L Hand" 14
  16 "Bip02 R Arm" 11
  17 "Bip02 R Arm1" 16
  18 "Bip02 R Arm2" 17
  19 "Bip02 R Hand" 18
  20 "Bip02 Head" 11
  21 "Bone01" 20
end
skeleton
  time 0
    0 -0.208480 -1.180659 36.962054 0.000000 -0.026148 -1.570839
    1 -0.589862 0.035157 0.000000 -1.570795 -1.570796 0.000000
    2 -0.000004 0.000006 3.077313 0.003486 -3.144520 0.044574
    3 16.897085 0.000000 0.000000 0.000000 0.000000 -0.149608
    4 16.589727 0.000000 0.000000 -0.003456 0.003069 0.176720
    5 0.000005 -0.000003 -3.077313 -0.000143 3.158464 -0.316011
    6 16.897085 0.000000 0.000000 0.000000 0.000000 -0.761077
    7 16.589727 0.000000 0.000000 0.010767 -0.012947 0.077341
    8 3.488968 -0.004234 0.000004 -0.000004 -0.000001 0.035662
    9 5.318531 -0.004538 0.000000 -0.235341 0.008319 0.033881
    10 5.701826 -0.005492 0.000000 -0.034869 0.000320 0.008706
    11 6.899484 -0.001818 0.000000 0.000000 -0.026147 0.099378
    12 0.050786 0.001927 2.008302 -0.571514 -1.365031 3.600345
    13 4.746895 0.000000 0.000000 0.251649 1.205251 0.310541
    14 10.950472 0.000000 0.000000 0.000000 0.000000 -0.722739
    15 10.950467 0.000000 0.000000 -1.574103 0.019392 0.236566
    16 -0.050780 0.001941 -2.008302 -0.529234 1.350105 2.519998
    17 4.746896 0.000000 -0.000003 -0.960967 -0.963256 0.663079
    18 10.950466 0.000000 0.000000 0.000000 0.000000 -0.672043
    19 10.950471 0.000000 0.000000 1.767889 -0.169629 0.443611
    20 2.428221 0.000000 0.000000 -0.567586 -0.015207 -0.021619
    21 1.681022 0.975106 0.213387 0.000000 0.000001 -1.745239
  time 1
    0 -0.208480 -1.456026 36.915124 0.000000 -0.026148 -1.570839
    1 -0.589862 0.035157 0.000000 -1.570795 -1.570796 0.000000
    2 -0.000004 0.000006 3.077313 0.003390 -3.144711 0.016574
    3 16.897085 0.000000 0.000000 0.000000 0.000000 -0.234190
    4 16.589727 0.000000 0.000000 -0.003456 0.003143 0.233332
    5 0.000005 -0.000003 -3.077313 0.000144 3.158081 -0.337545
    6 16.897085 0.000000 0.000000 0.000000 0.000000 -0.715865
    7 16.589727 0.000000 0.000000 0.009687 -0.013437 0.085391
    8 3.488968 -0.004234 0.000004 -0.000004 -0.000001 0.035662
    9 5.318531 -0.004538 0.000000 -0.235341 0.008319 0.033881
    10 5.701826 -0.005492 0.000000 -0.067134 0.000623 0.008677
    11 6.899484 -0.001818 0.000000 0.000000 -0.026147 0.099378
    12 0.050786 0.001927 2.008302 -0.571514 -1.365031 3.600345
    13 4.746895 0.000000 0.000000 0.234871 1.207521 0.326520
    14 10.950472 0.000000 0.000000 0.000000 0.000000 -0.722739
    15 10.950467 0.000000 0.000000 -1.574103 0.019392 0.236566
    16 -0.050780 0.001941 -2.008302 -0.529234 1.350105 2.519998
    17 4.746896 0.000000 -0.000003 -0.968132 -0.959839 0.637180
    18 10.950466 0.000000 0.000000 0.000000 0.000000 -0.672043
    19 10.950471 0.000000 0.000000 1.767889 -0.169629 0.443611
    20 2.428221 0.000000 0.000000 -0.535359 -0.017999 -0.022960
    21 1.681022 0.975106 0.213387 0.000000 0.000001 -1.745239
  time 2
    0 -0.208480 -2.161654 36.821262 0.000000 -0.026148 -1.570839
    1 -0.589862 0.039064 0.000000 -1.570795 -1.570796 0.000000
    2 -0.000004 0.000006 3.077313 0.003390 -3.144903 0.015258
    3 16.897085 0.000000 0.000000 0.000000 0.000000 -0.298448
    4 16.589727 0.000000 0.000000 -0.003426 0.003291 0.296318
    5 0.000005 -0.000003 -3.077313 0.000527 3.157697 -0.368559
    6 16.897085 0.000000 0.000000 0.000000 0.000000 -0.650755
    7 16.589727 0.000000 0.000000 0.008052 -0.013955 0.097025
    8 3.488968 -0.004234 0.000004 -0.000004 -0.000001 0.035662
    9 5.318531 -0.004538 0.000000 -0.235341 0.008319 0.033881
    10 5.701826 -0.005492 0.000000 -0.113663 0.001071 0.008648
    11 6.899484 -0.001818 0.000000 0.000000 -0.026147 0.099378
    12 0.050786 0.001927 2.008302 -0.571514 -1.365031 3.600345
    13 4.746895 0.000000 0.000000 0.210753 1.210881 0.349561
    14 10.950472 0.000000 0.000000 0.000000 0.000000 -0.722739
    15 10.950467 0.000000 0.000000 -1.574103 0.019392 0.236566
    16 -0.050780 0.001941 -2.008302 -0.529234 1.350105 2.519998
    17 4.746896 0.000000 -0.000003 -0.978547 -0.955093 0.599814
    18 10.950466 0.000000 0.000000 0.000000 0.000000 -0.672043
    19 10.950471 0.000000 0.000000 1.767889 -0.169629 0.443611
    20 2.428221 0.000000 0.000000 -0.489055 -0.021938 -0.025131
    21 1.681022 0.975106 0.213387 0.000000 0.000001 -1.745239
  time 3
    0 -0.208480 -3.091017 36.680471 0.000000 -0.026148 -1.570839
    1 -0.589862 0.039064 0.000000 -1.570795 -1.570796 0.000000
    2 -0.000004 0.000006 3.077313 0.003390 -3.144999 0.025176
    3 16.897085 0.000000 0.000000 0.000000 0.000000 -0.340514
    4 16.589727 0.000000 0.000000 -0.003397 0.003439 0.348286
    5 0.000005 -0.000003 -3.077313 0.000909 3.157122 -0.404093
    6 16.897085 0.000000 0.000000 0.000000 0.000000 -0.576232
    7 16.589727 0.000000 0.000000 0.006188 -0.014336 0.110305
    8 3.488968 -0.004234 0.000004 -0.000004 -0.000001 0.035662
    9 5.318531 -0.004538 0.000000 -0.235341 0.008319 0.033881
    10 5.701826 -0.005492 0.000000 -0.166922 0.001582 0.008589
    11 6.899484 -0.001818 0.000000 0.000000 -0.026147 0.099378
    12 0.050786 0.001927 2.008302 -0.571514 -1.365031 3.600345
    13 4.746895 0.000000 0.000000 0.183109 1.215058 0.375853
    14 10.950472 0.000000 0.000000 0.000000 0.000000 -0.722739
    15 10.950467 0.000000 0.000000 -1.574103 0.019392 0.236566
    16 -0.050780 0.001941 -2.008302 -0.529234 1.350105 2.519998
    17 4.746896 0.000000 -0.000003 -0.990872 -0.949873 0.557286
    18 10.950466 0.000000 0.000000 0.000000 0.000000 -0.672043
    19 10.950471 0.000000 0.000000 1.767889 -0.169629 0.443611
    20 2.428221 0.000000 0.000000 -0.435992 -0.026326 -0.027750
    21 1.681022 0.975106 0.213387 0.000000 0.000001 -1.745239
  time 4
    0 -0.208480 -4.037592 36.117304 0.000000 -0.026148 -1.570839
    1 -0.585955 0.039064 0.000000 -1.570795 -1.570796 0.000000
    2 -0.000004 0.000006 3.077313 0.003390 -3.145095 0.022894
    3 16.897085 0.000000 0.000000 0.000000 0.000000 -0.374212
    4 16.589727 0.000000 0.000000 -0.003397 0.003512 0.379675
    5 0.000005 -0.000003 -3.077313 0.001196 3.156835 -0.426551
    6 16.897085 0.000000 0.000000 0.000000 0.000000 -0.529094
    7 16.589727 0.000000 0.000000 0.005011 -0.014445 0.118708
    8 3.488968 -0.004234 0.000004 -0.000004 -0.000001 0.035662
    9 5.318531 -0.004538 0.000000 -0.235341 0.008319 0.033881
    10 5.701826 -0.005492 0.000000 -0.200600 0.001886 0.008531
    11 6.899484 -0.001818 0.000000 0.000000 -0.026147 0.099378
    12 0.050786 0.001927 2.008302 -0.571514 -1.365031 3.600345
    13 4.746895 0.000000 0.000000 0.165664 1.217873 0.392483
    14 10.950472 0.000000 0.000000 0.000000 0.000000 -0.722739
    15 10.950467 0.000000 0.000000 -1.574103 0.019392 0.236566
    16 -0.050780 0.001941 -2.008302 -0.529234 1.350105 2.519998
    17 4.746896 0.000000 -0.000003 -0.998802 -0.946740 0.530528
    18 10.950466 0.000000 0.000000 0.000000 0.000000 -0.672043
    19 10.950471 0.000000 0.000000 1.767889 -0.169629 0.443611
    20 2.428221 0.000000 0.000000 -0.402376 -0.029019 -0.029602
    21 1.681022 0.975106 0.213387 0.000000 0.000001 -1.745239
  time 5
    0 -0.208480 -5.655373 30.814148 0.000000 -0.611760 -1.570839
    1 2.171941 -0.039064 0.000000 -1.570795 -1.570796 0.000000
    2 -0.000004 0.000006 3.077313 0.041930 -2.781397 -0.690346
    3 16.897085 0.000000 0.000000 0.000000 0.000000 -0.578343
    4 16.589727 0.000000 0.000000 0.303178 -0.201936 -0.533103
    5 0.000005 -0.000003 -3.077313 -0.088856 3.015607 -1.251471
    6 16.897085 0.000000 0.000000 0.000000 0.000000 -0.656460
    7 16.589727 0.000000 0.000000 -0.105854 0.112112 -0.714210
    8 3.488968 -0.004234 0.000004 -0.000004 -0.000001 -0.271631
    9 5.318531 -0.004538 0.000000 -0.235234 -0.011040 -0.046861
    10 5.701826 -0.005492 0.000000 -0.200600 0.001886 0.008531
    11 6.899484 -0.001818 0.000000 0.000000 -0.026147 0.099378
    12 0.050786 0.001927 2.008302 -0.571514 -1.365031 3.600345
    13 4.746895 0.000000 0.000000 0.709503 0.582064 0.962274
    14 10.950472 0.000000 0.000000 0.000000 0.000000 -0.722739
    15 10.950467 0.000000 0.000000 -1.574103 0.019392 0.236566
    16 -0.050780 0.001941 -2.008302 -0.529234 1.350105 2.519998
    17 4.746896 0.000000 -0.000003 -1.160462 -0.353302 0.596182
    18 10.950466 0.000000 0.000000 0.000000 0.000000 -0.672043
    19 10.950471 0.000000 0.000000 1.767889 -0.169629 0.443611
    20 2.428221 0.000000 0.000000 -0.198734 -0.419124 -0.421351
    21 1.681022 0.975106 0.213387 0.000000 0.000001 -1.745239
  time 6
    0 -0.208480 -3.727804 38.510763 0.000000 -1.029178 -1.570839
    1 3.621204 -0.054689 0.000000 -1.570795 -1.570796 0.000000
    2 -0.000004 0.000006 3.077313 -0.000061 -2.492375 -0.753279
    3 16.897085 0.000000 0.000000 0.000000 0.000000 -0.740557
    4 16.589727 0.000000 0.000000 0.646276 -0.066941 -0.741670
    5 0.000005 -0.000003 -3.077313 0.004833 2.850905 -0.660610
    6 16.897085 0.000000 0.000000 0.000000 0.000000 -0.764643
    7 16.589727 0.000000 0.000000 -0.290039 0.020628 -0.720850
    8 3.488968 -0.004234 0.000004 -0.000004 -0.000001 -0.461467
    9 5.318531 -0.004538 0.000000 -0.235056 -0.014049 -0.059393
    10 5.701826 -0.005492 0.000000 -0.200600 0.001886 0.008531
    11 6.899484 -0.001818 0.000000 0.000000 -0.026147 0.099378
    12 0.050786 0.001927 2.008302 -0.571514 -1.365031 3.600345
    13 4.746895 0.000000 0.000000 0.803400 0.184979 0.986150
    14 10.950472 0.000000 0.000000 0.000000 0.000000 -0.722739
    15 10.950467 0.000000 0.000000 -1.574103 0.019392 0.236566
    16 -0.050780 0.001941 -2.008302 -0.529234 1.350105 2.519998
    17 4.746896 0.000000 -0.000003 -1.241196 -0.023931 0.532152
    18 10.950466 0.000000 0.000000 0.000000 0.000000 -0.672043
    19 10.950471 0.000000 0.000000 1.767889 -0.169629 0.443611
    20 2.428221 0.000000 0.000000 0.015651 -0.523331 -0.626549
    21 1.681022 0.975106 0.213387 0.000000 0.000001 -1.745239
  time 7
    0 -0.208480 1.108329 61.131303 0.000000 -1.157718 -1.570839
    1 3.336039 0.019532 0.000000 -1.570795 -1.570796 0.000000
    2 -0.000004 0.000006 3.077313 0.328104 -2.524105 -1.309143
    3 16.897085 0.000000 0.000000 0.000000 0.000000 -0.944987
    4 16.589727 0.000000 0.000000 0.620549 -0.321711 -0.635238
    5 0.000005 -0.000003 -3.077313 0.013542 2.841324 -0.622792
    6 16.897085 0.000000 0.000000 0.000000 0.000000 -0.865338
    7 16.589727 0.000000 0.000000 -0.299817 0.021500 -0.592107
    8 3.488968 -0.004234 0.000004 -0.000004 -0.000001 -0.461467
    9 5.318531 -0.004538 0.000000 -0.235448 0.003938 0.015673
    10 5.701826 -0.005492 0.000000 -0.200600 0.001886 0.008531
    11 6.899484 -0.001818 0.000000 0.000000 -0.026147 0.099378
    12 0.050786 0.001927 2.008302 -0.571514 -1.365031 3.600345
    13 4.746895 0.000000 0.000000 0.754306 0.243547 0.960508
    14 10.950472 0.000000 0.000000 0.000000 0.000000 -0.722739
    15 10.950467 0.000000 0.000000 -1.574103 0.019392 0.236566
    16 -0.050780 0.001941 -2.008302 -0.529234 1.350105 2.519998
    17 4.746896 0.000000 -0.000003 -1.178902 -0.067689 0.516479
    18 10.950466 0.000000 0.000000 0.000000 0.000000 -0.672043
    19 10.950471 0.000000 0.000000 1.767889 -0.169629 0.443611
    20 2.428221 0.000000 0.000000 -0.107887 -0.500944 -0.465418
    21 1.681022 0.975106 0.213387 0.000000 0.000001 -1.745239
  time 8
    0 -0.208480 6.271460 83.047885 0.000000 -1.212696 -1.570839
    1 2.937590 0.125004 0.000000 -1.570795 -1.570796 0.000000
    2 -0.000004 0.000006 3.077313 -2.564212 -0.418415 1.327282
    3 16.897085 0.000000 0.000000 0.000000 0.000000 -1.152182
    4 16.589727 0.000000 0.000000 0.428390 -0.570274 -0.437065
    5 0.000005 -0.000003 -3.077313 0.010192 2.842857 -0.635576
    6 16.897085 0.000000 0.000000 0.000000 0.000000 -0.964393
    7 16.589727 0.000000 0.000000 -0.296743 0.036679 -0.453729
    8 3.488968 -0.004234 0.000004 -0.000004 -0.000001 -0.461467
    9 5.318531 -0.004538 0.000000 -0.233807 0.028187 0.117059
    10 5.701826 -0.005492 0.000000 -0.200600 0.001886 0.008531
    11 6.899484 -0.001818 0.000000 0.000000 -0.026147 0.099378
    12 0.050786 0.001927 2.008302 -0.571514 -1.365031 3.600345
    13 4.746895 0.000000 0.000000 0.684241 0.320458 0.920559
    14 10.950472 0.000000 0.000000 0.000000 0.000000 -0.722739
    15 10.950467 0.000000 0.000000 -1.574103 0.019392 0.236566
    16 -0.050780 0.001941 -2.008302 -0.529138 1.350105 2.519998
    17 4.746896 0.000000 -0.000003 -1.093199 -0.125116 0.490963
    18 10.950466 0.000000 0.000000 0.000000 0.000000 -0.672043
    19 10.950471 0.000000 0.000000 1.767889 -0.169629 0.443611
    20 2.428221 0.000000 0.000000 -0.285506 -0.412093 -0.183134
    21 1.681022 0.975106 0.213387 0.000000 0.000001 -1.745239
  time 9
    0 -0.208480 10.832226 103.321896 0.000000 -1.266718 -1.570839
    1 2.593829 0.207038 0.000000 -1.570795 -1.570796 0.000000
    2 -0.000004 0.000006 3.077313 -2.474956 -0.217682 1.023501
    3 16.897085 0.000000 0.000000 0.000000 0.000000 -1.303113
    4 16.589727 0.000000 0.000000 0.170829 -0.678116 -0.192465
    5 0.000005 -0.000003 -3.077313 -0.001675 2.846402 -0.679909
    6 16.897085 0.000000 0.000000 0.000000 0.000000 -1.041412
    7 16.589727 0.000000 0.000000 -0.290235 0.055101 -0.352662
    8 3.488968 -0.004234 0.000004 -0.000004 -0.000001 -0.461467
    9 5.318531 -0.004538 0.000000 -0.230596 0.048100 0.201192
    10 5.701826 -0.005492 0.000000 -0.200600 0.001886 0.008531
    11 6.899484 -0.001818 0.000000 0.000000 -0.026147 0.099378
    12 0.050786 0.001927 2.008302 -0.571514 -1.365031 3.600345
    13 4.746895 0.000000 0.000000 0.622183 0.382023 0.882282
    14 10.950472 0.000000 0.000000 0.000000 0.000000 -0.722739
    15 10.950467 0.000000 0.000000 -1.574103 0.019392 0.236566
    16 -0.050780 0.001941 -2.008302 -0.529234 1.350105 2.519998
    17 4.746896 0.000000 -0.000003 -1.020490 -0.170867 0.465924
    18 10.950466 0.000000 0.000000 0.000000 0.000000 -0.672043
    19 10.950471 0.000000 0.000000 1.767889 -0.169629 0.443611
    20 2.428221 0.000000 0.000000 -0.397930 -0.286596 0.053487
    21 1.681022 0.975106 0.213387 0.000000 0.000001 -1.745239
  time 10
    0 -0.208480 15.203677 122.141059 0.000000 -1.353879 -1.570839
    1 2.375072 0.261727 0.000000 -1.570795 -1.570796 0.000000
    2 -0.000004 0.000006 3.077313 -2.454727 -0.083859 0.849799
    3 16.897085 0.000000 0.000000 0.000000 0.000000 -1.398977
    4 16.589727 0.000000 0.000000 -0.030313 -0.690566 0.007510
    5 0.000005 -0.000003 -3.077313 -0.020719 2.850138 -0.748790
    6 16.897085 0.000000 0.000000 0.000000 0.000000 -1.098820
    7 16.589727 0.000000 0.000000 -0.282746 0.074504 -0.290201
    8 3.488968 -0.004234 0.000004 -0.000004 -0.000001 -0.461467
    9 5.318531 -0.004538 0.000000 -0.227777 0.060203 0.253128
    10 5.701826 -0.005492 0.000000 -0.200600 0.001886 0.008531
    11 6.899484 -0.001818 0.000000 0.000000 -0.026147 0.099378
    12 0.050786 0.001927 2.008302 -0.571514 -1.365031 3.600345
    13 4.746895 0.000000 0.000000 0.581860 0.418708 0.856082
    14 10.950472 0.000000 0.000000 0.000000 0.000000 -0.722739
    15 10.950467 0.000000 0.000000 -1.574103 0.019392 0.236566
    16 -0.050780 0.001941 -2.008302 -0.529234 1.350105 2.519998
    17 4.746896 0.000000 -0.000003 -0.974916 -0.198204 0.448722
    18 10.950466 0.000000 0.000000 0.000000 0.000000 -0.672043
    19 10.950471 0.000000 0.000000 1.767889 -0.169629 0.443611
    20 2.428221 0.000000 0.000000 -0.446734 -0.181740 0.215896
    21 1.681022 0.975106 0.213387 0.000000 0.000001 -1.745239
  time 11
    0 -0.208480 19.316971 136.736470 0.000000 -1.508855 -1.570839
    1 2.332102 0.269539 0.000000 -1.570795 -1.570796 0.000000
    2 -0.000004 0.000006 3.077313 -2.454152 -0.038805 0.788183
    3 16.897085 0.000000 0.000000 0.000000 0.000000 -1.438279
    4 16.589727 0.000000 0.000000 -0.120013 -0.679409 0.118238
    5 0.000005 -0.000003 -3.077313 -0.049620 2.855025 -0.851650
    6 16.897085 0.000000 0.000000 0.000000 0.000000 -1.139682
    7 16.589727 0.000000 0.000000 -0.274734 0.096360 -0.268871
    8 3.488968 -0.004234 0.000004 -0.000004 -0.000001 -0.461467
    9 5.318531 -0.004538 0.000000 -0.227171 0.062526 0.263249
    10 5.701826 -0.005492 0.000000 -0.200600 0.001886 0.008531
    11 6.899484 -0.001818 0.000000 0.000000 -0.026147 0.099378
    12 0.050786 0.001927 2.008302 -0.571514 -1.365031 3.600345
    13 4.746895 0.000000 0.000000 0.573853 0.425791 0.850787
    14 10.950472 0.000000 0.000000 0.000000 0.000000 -0.722739
    15 10.950467 0.000000 0.000000 -1.574103 0.019392 0.236566
    16 -0.050780 0.001941 -2.008302 -0.529234 1.350105 2.519998
    17 4.746896 0.000000 -0.000003 -0.965935 -0.203329 0.445282
    18 10.950466 0.000000 0.000000 0.000000 0.000000 -0.672043
    19 10.950471 0.000000 0.000000 1.767889 -0.169629 0.443611
    20 2.428221 0.000000 0.000000 -0.461088 -0.134223 0.300006
    21 1.681022 0.975106 0.213387 0.000000 0.000001 -1.745239
  time 12
    0 -0.208480 23.240951 149.783172 0.000000 -1.730877 -1.570839
    1 2.996185 0.226569 0.000000 -1.570795 -1.570796 0.000000
    2 -0.000004 0.000006 3.077313 -2.462493 -0.122779 0.884557
    3 16.897085 0.000000 0.000000 0.000000 0.000000 -1.398305
    4 16.589727 0.000000 0.000000 -0.065378 -0.685652 0.124544
    5 0.000005 -0.000003 -3.077313 -0.095651 2.866618 -1.017460
    6 16.897085 0.000000 0.000000 0.000000 0.000000 -1.139682
    7 16.589727 0.000000 0.000000 -0.263189 0.124975 -0.324281
    8 3.488968 -0.004234 0.000004 -0.000004 -0.000001 -0.526166
    9 5.318531 -0.004538 0.000000 -0.229704 0.052304 0.219224
    10 5.701826 -0.005492 0.000000 -0.200600 0.001886 0.008531
    11 6.899484 -0.001818 0.000000 0.000000 -0.026147 0.099378
    12 0.050786 0.001927 2.008302 -0.571514 -1.365031 3.600345
    13 4.746895 0.000000 0.000000 0.498259 0.351876 0.735584
    14 10.950472 0.000000 0.000000 0.000000 0.000000 -0.722739
    15 10.950467 0.000000 0.000000 -1.574103 0.019392 0.236566
    16 -0.050780 0.001941 -2.008302 -0.529234 1.350105 2.519998
    17 4.746896 0.000000 -0.000003 -0.887303 -0.147991 0.327352
    18 10.950466 0.000000 0.000000 0.000000 0.000000 -0.672043
    19 10.950471 0.000000 0.000000 1.767889 -0.169629 0.443611
    20 2.428221 0.000000 0.000000 -0.483777 -0.181790 0.387757
    21 1.681022 0.975106 0.213387 0.000000 0.000001 -1.745239
  time 13
    0 -0.208480 27.078879 163.252248 0.000000 -1.982497 -1.570839
    1 3.953246 0.140629 0.000000 -1.570795 -1.570796 0.000000
    2 -0.000004 0.000006 3.077313 -2.506018 -0.287373 1.097581
    3 16.897085 0.000000 0.000000 0.000000 0.000000 -1.304085
    4 16.589727 0.000000 0.000000 0.082080 -0.685024 0.065923
    5 0.000005 -0.000003 -3.077313 -0.149721 2.891530 -1.225124
    6 16.897085 0.000000 0.000000 0.000000 0.000000 -1.139682
    7 16.589727 0.000000 0.000000 -0.245562 0.157241 -0.401139
    8 3.485062 -0.004234 0.000004 -0.000004 -0.000001 -0.615114
    9 5.318531 -0.004538 0.000000 -0.233236 0.032635 0.135719
    10 5.701826 -0.005492 0.000000 -0.200600 0.001886 0.008531
    11 6.899484 -0.001818 0.000000 0.000000 -0.026147 0.099378
    12 0.050786 0.001927 2.008302 -0.571514 -1.365031 3.600345
    13 4.746895 0.000000 0.000000 0.451167 0.234739 0.591673
    14 10.950472 0.000000 0.000000 0.000000 0.000000 -0.722739
    15 10.950467 0.000000 0.000000 -1.574103 0.019392 0.236566
    16 -0.050780 0.001941 -2.008302 -0.529138 1.350105 2.519998
    17 4.746896 0.000000 -0.000003 -0.837811 -0.063797 0.168042
    18 10.950466 0.000000 0.000000 0.000000 0.000000 -0.672043
    19 10.950471 0.000000 0.000000 1.767889 -0.169629 0.443611
    20 2.428221 0.000000 0.000000 -0.512300 -0.281610 0.484001
    21 1.681022 0.975106 0.213387 0.000000 0.000001 -1.745239
  time 14
    0 -0.208480 30.865175 175.125686 0.000000 -2.262563 -1.570839
    1 4.957183 0.039064 0.000000 -1.570795 -1.570796 0.000000
    2 -0.000004 0.000006 3.077313 -2.613585 -0.467688 1.388811
    3 16.897085 0.000000 0.000000 0.000000 0.000000 -1.185282
    4 16.589727 0.000000 0.000000 0.262462 -0.646122 -0.018474
    5 0.000005 -0.000003 -3.077313 -0.200058 2.929280 -1.443677
    6 16.897085 0.000000 0.000000 0.000000 0.000000 -1.139682
    7 16.589727 0.000000 0.000000 -0.222899 0.188226 -0.485576
    8 3.485062 -0.004234 0.000004 -0.000004 -0.000001 -0.714275
    9 5.318531 -0.004538 0.000000 -0.235341 0.008607 0.035086
    10 5.701826 -0.005492 0.000000 -0.200600 0.001886 0.008531
    11 6.899484 -0.001818 0.000000 0.000000 -0.026147 0.099378
    12 0.050786 0.001927 2.008302 -0.571514 -1.365031 3.600345
    13 4.746895 0.000000 0.000000 0.444113 0.125048 0.431318
    14 10.950472 0.000000 0.000000 0.000000 0.000000 -0.722739
    15 10.950467 0.000000 0.000000 -1.574103 0.019392 0.236566
    16 -0.050780 0.001941 -2.008302 -0.529234 1.350105 2.519998
    17 4.746896 0.000000 -0.000003 -0.822811 0.007487 -0.015446
    18 10.950466 0.000000 0.000000 0.000000 0.000000 -0.672043
    19 10.950471 0.000000 0.000000 1.767889 -0.169629 0.443611
    20 2.428221 0.000000 0.000000 -0.529802 -0.406808 0.576670
    21 1.681022 0.975106 0.213387 0.000000 0.000001 -1.745239
  time 15
    0 -0.208480 34.582629 184.840316 0.000000 -2.572323 -1.570839
    1 5.824396 -0.058596 0.000000 -1.570795 -1.570796 0.000000
    2 -0.000004 0.000006 3.077313 0.342005 -2.528994 -1.392000
    3 16.897085 0.000000 0.000000 0.000000 0.000000 -1.058410
    4 16.589727 0.000000 0.000000 0.426576 -0.561223 -0.093586
    5 0.000005 -0.000003 -3.077313 2.901158 0.165179 1.483647
    6 16.897085 0.000000 0.000000 0.000000 0.000000 -1.139682
    7 16.589727 0.000000 0.000000 -0.196671 0.215532 -0.570543
    8 3.485062 -0.004234 0.000004 -0.000004 -0.000001 -0.812555
    9 5.318531 -0.004538 0.000000 -0.234985 -0.015377 -0.064943
    10 5.701826 -0.005492 0.000000 -0.200600 0.001886 0.008531
    11 6.899484 -0.001818 0.000000 0.000000 -0.026147 0.099378
    12 0.050786 0.001927 2.008302 -0.571514 -1.365031 3.600345
    13 4.746895 0.000000 0.000000 0.456982 0.054584 0.260371
    14 10.950472 0.000000 0.000000 0.000000 0.000000 -0.722739
    15 10.950467 0.000000 0.000000 -1.574103 0.019392 0.236566
    16 -0.050780 0.001941 -2.008302 -0.529234 1.350105 2.519998
    17 4.746896 0.000000 -0.000003 -0.818511 0.041848 -0.210116
    18 10.950466 0.000000 0.000000 0.000000 0.000000 -0.672043
    19 10.950471 0.000000 0.000000 1.767889 -0.169629 0.443611
    20 2.428221 0.000000 0.000000 -0.520264 -0.538688 0.643026
    21 1.681022 0.975106 0.213387 0.000000 0.000001 -1.745239
  time 16
    0 -0.208480 38.214031 191.551389 0.000000 -2.915318 -1.570839
    1 6.465041 -0.144536 0.000000 -1.570795 -1.570796 0.000000
    2 -0.000004 0.000006 3.077313 0.101753 -2.457673 -0.994390
    3 16.897085 0.000000 0.000000 0.000000 0.000000 -0.935349
    4 16.589727 0.000000 0.000000 0.547237 -0.444330 -0.145000
    5 0.000005 -0.000003 -3.077313 2.873309 0.113536 1.283907
    6 16.897085 0.000000 0.000000 0.000000 0.000000 -1.139682
    7 16.589727 0.000000 0.000000 -0.168873 0.237797 -0.651396
    8 3.485062 -0.004234 0.000004 -0.000004 -0.000001 -0.901429
    9 5.318531 -0.004538 0.000000 -0.232772 -0.035887 -0.151060
    10 5.701826 -0.005492 0.000000 -0.200600 0.001886 0.008531
    11 6.899484 -0.001818 0.000000 0.000000 -0.026147 0.099378
    12 0.050786 0.001927 2.008302 -0.571514 -1.365031 3.600345
    13 4.746895 0.000000 0.000000 0.460223 0.030521 0.095185
    14 10.950472 0.000000 0.000000 0.000000 0.000000 -0.722739
    15 10.950467 0.000000 0.000000 -1.574103 0.019392 0.236566
    16 -0.050780 0.001941 -2.008302 -0.529234 1.350105 2.519998
    17 4.746896 0.000000 -0.000003 -0.793956 0.041468 -0.396089
    18 10.950466 0.000000 0.000000 0.000000 0.000000 -0.672043
    19 10.950471 0.000000 0.000000 1.767889 -0.169629 0.443611
    20 2.428221 0.000000 0.000000 -0.465348 -0.660346 0.654394
    21 1.681022 0.975106 0.213387 0.000000 0.000001 -1.745239
  time 17
    0 -0.208480 41.793802 193.193959 0.000000 2.986101 -1.570839
    1 6.879116 -0.207038 0.000000 -1.570795 -1.570796 0.000000
    2 -0.000004 0.000006 3.077313 -0.112325 -2.460262 -0.653833
    3 16.897085 0.000000 0.000000 0.000000 0.000000 -0.831565
    4 16.589727 0.000000 0.000000 0.619390 -0.324149 -0.181586
    5 0.000005 -0.000003 -3.077313 2.857997 0.065246 1.113186
    6 16.897085 0.000000 0.000000 0.000000 0.000000 -1.139682
    7 16.589727 0.000000 0.000000 -0.142939 0.254039 -0.721731
    8 3.485062 -0.004234 0.000004 -0.000004 -0.000001 -0.974688
    9 5.318531 -0.004538 0.000000 -0.230061 -0.050622 -0.213569
    10 5.701826 -0.005492 0.000000 -0.200600 0.001886 0.008531
    11 6.899484 -0.001818 0.000000 0.000000 -0.026147 0.099378
    12 0.050786 0.001927 2.008302 -0.571514 -1.365031 3.600345
    13 4.746895 0.000000 0.000000 0.435248 0.042144 -0.036834
    14 10.950472 0.000000 0.000000 0.000000 0.000000 -0.722739
    15 10.950467 0.000000 0.000000 -1.574103 0.019392 0.236566
    16 -0.050780 0.001941 -2.008302 -0.529234 1.350105 2.519998
    17 4.746896 0.000000 -0.000003 -0.734910 0.027610 -0.548231
    18 10.950466 0.000000 0.000000 0.000000 0.000000 -0.672043
    19 10.950471 0.000000 0.000000 1.767889 -0.169629 0.443611
    20 2.428221 0.000000 0.000000 -0.347830 -0.749496 0.584781
    21 1.681022 0.975106 0.213387 0.000000 0.000001 -1.745239
  time 18
    0 -0.208480 45.304731 187.139914 0.000000 2.548186 -1.570839
    1 7.105686 -0.242195 0.000000 -1.570795 -1.570796 0.000000
    2 -0.000004 0.000006 3.077313 -0.208963 -2.480872 -0.496983
    3 16.897085 0.000000 0.000000 0.000000 0.000000 -0.775451
    4 16.589727 0.000000 0.000000 0.649875 -0.245199 -0.225309
    5 0.000005 -0.000003 -3.077313 2.852543 0.032382 1.001480
    6 16.897085 0.000000 0.000000 0.000000 0.000000 -1.139682
    7 16.589727 0.000000 0.000000 -0.125345 0.263005 -0.769326
    8 3.485062 -0.004234 0.000004 -0.000004 -0.000001 -1.028402
    9 5.318531 -0.004538 0.000000 -0.228313 -0.058233 -0.246242
    10 5.701826 -0.005492 0.000000 -0.200600 0.001886 0.008531
    11 6.899484 -0.001818 0.000000 0.000000 -0.026147 0.099378
    12 0.050786 0.001927 2.008302 -0.571514 -1.365031 3.600345
    13 4.746895 0.000000 0.000000 0.392160 0.078647 -0.091462
    14 10.950472 0.000000 0.000000 0.000000 0.000000 -0.722739
    15 10.950467 0.000000 0.000000 -1.574103 0.019392 0.236566
    16 -0.050780 0.001941 -2.008302 -0.529234 1.350105 2.519998
    17 4.746896 0.000000 -0.000003 -0.659527 0.020206 -0.628508
    18 10.950466 0.000000 0.000000 0.000000 0.000000 -0.672043
    19 10.950471 0.000000 0.000000 1.767889 -0.169629 0.443611
    20 2.428221 0.000000 0.000000 -0.173637 -0.773678 0.439232
    21 1.681022 0.975106 0.213387 0.000000 0.000001 -1.745239
  time 19
    0 -0.208480 48.781240 174.187074 0.000000 2.056728 -1.570839
    1 7.246315 -0.273446 0.000000 -1.570795 -1.570796 0.000000
    2 -0.000004 0.000006 3.077313 -0.117215 -2.461795 -0.644353
    3 16.897085 0.000000 0.000000 0.000000 0.000000 -0.804143
    4 16.589727 0.000000 0.000000 0.650678 -0.242686 -0.317051
    5 0.000005 -0.000003 -3.077313 2.851873 0.025388 0.978049
    6 16.897085 0.000000 0.000000 0.000000 0.000000 -1.254997
    7 16.589727 0.000000 0.000000 -0.124527 0.263386 -0.675252
    8 3.485062 -0.004234 0.000004 -0.000004 -0.000001 -1.067861
    9 5.318531 -0.004538 0.000000 -0.227849 -0.059981 -0.253777
    10 5.701826 -0.005492 0.000000 -0.200517 -0.005944 -0.030061
    11 6.899484 -0.001818 0.000000 0.000000 -0.026147 0.099378
    12 0.050786 0.001927 2.008302 -0.734978 -1.405215 3.766690
    13 4.746895 0.000000 0.000000 0.402932 0.204048 0.011570
    14 10.950472 0.000000 0.000000 0.000000 0.000000 -0.722739
    15 10.950467 0.000000 0.000000 -1.574103 0.019392 0.236566
    16 -0.050780 0.001941 -2.008302 -0.521564 1.347111 2.527859
    17 4.746896 0.000000 -0.000003 -0.628284 -0.003239 -0.577571
    18 10.950466 0.000000 0.000000 0.000000 0.000000 -0.672043
    19 10.950471 0.000000 0.000000 1.767889 -0.169629 0.443611
    20 2.428221 0.000000 0.000000 0.048248 -0.697392 0.280272
    21 1.681022 0.975106 0.213387 0.000000 0.000001 -1.745239
  time 20
    0 -0.208480 52.206117 155.274050 0.000000 1.531076 -1.570839
    1 7.340068 -0.304697 0.000000 -1.570795 -1.570796 0.000000
    2 -0.000004 0.000006 3.077313 0.168288 -2.470998 -1.096645
    3 16.897085 0.000000 0.000000 0.000000 0.000000 -0.914652
    4 16.589727 0.000000 0.000000 0.626498 -0.306416 -0.469424
    5 0.000005 -0.000003 -3.077313 2.853978 0.043784 1.039882
    6 16.897085 0.000000 0.000000 0.000000 0.000000 -1.457742
    7 16.589727 0.000000 0.000000 -0.141108 0.255047 -0.472708
    8 3.485062 -0.004234 0.000004 -0.000004 -0.000001 -1.100780
    9 5.318531 -0.004538 0.000000 -0.228206 -0.058587 -0.247800
    10 5.701826 -0.005492 0.000000 -0.199935 -0.016426 -0.081683
    11 6.899484 -0.001818 0.000000 0.000000 -0.026147 0.099378
    12 0.050786 0.001927 2.008302 -1.220289 -1.452800 4.256520
    13 4.746895 0.000000 0.000000 0.517133 0.377574 0.301993
    14 10.950472 0.000000 0.000000 0.000000 0.000000 -0.722739
    15 10.950467 0.000000 0.000000 -1.574103 0.019392 0.236566
    16 -0.050780 0.001941 -2.008302 -0.509484 1.342198 2.540227
    17 4.746896 0.000000 -0.000003 -0.639845 -0.022887 -0.392935
    18 10.950466 0.000000 0.000000 0.000000 0.000000 -0.672043
    19 10.950471 0.000000 0.000000 1.767889 -0.169629 0.443611
    20 2.428221 0.000000 0.000000 0.269948 -0.505930 0.142578
    21 1.681022 0.975106 0.213387 0.000000 0.000001 -1.745239
  time 21
    0 -0.208480 55.510520 131.574106 0.000000 0.988183 -1.570839
    1 7.398663 -0.328135 0.000000 -1.570795 -1.570796 0.000000
    2 -0.000004 0.000006 3.077313 -2.660561 -0.513222 1.495806
    3 16.897085 0.000000 0.000000 0.000000 0.000000 -1.064911
    4 16.589727 0.000000 0.000000 0.571476 -0.407164 -0.641267
    5 0.000005 -0.000003 -3.077313 2.862017 0.081055 1.167825
    6 16.897085 0.000000 0.000000 0.000000 0.000000 -1.685233
    7 16.589727 0.000000 0.000000 -0.167434 0.238805 -0.219807
    8 3.485062 -0.004234 0.000004 -0.000004 -0.000001 -1.128225
    9 5.318531 -0.004538 0.000000 -0.229062 -0.055158 -0.233007
    10 5.701826 -0.005492 0.000000 -0.198633 -0.028107 -0.139572
    11 6.899484 -0.001818 0.000000 0.000000 -0.026147 0.099378
    12 0.050786 0.001927 2.008302 -2.052373 -1.445716 5.094091
    13 4.746895 0.000000 0.000000 0.779187 0.476187 0.750077
    14 10.950472 0.000000 0.000000 0.000000 0.000000 -0.722739
    15 10.950467 0.000000 0.000000 -1.574103 0.019392 0.236566
    16 -0.050780 0.001941 -2.008302 -0.495678 1.336325 2.554320
    17 4.746896 0.000000 -0.000003 -0.691820 -0.016812 -0.127833
    18 10.950466 0.000000 0.000000 0.000000 0.000000 -0.672043
    19 10.950471 0.000000 0.000000 1.767889 -0.169629 0.443611
    20 2.428221 0.000000 0.000000 0.436084 -0.241821 0.071880
    21 1.681022 0.975106 0.213387 0.000000 0.000001 -1.745239
  time 22
    0 -0.208480 58.694451 105.199119 0.000000 0.447206 -1.570839
    1 7.437727 -0.347667 0.000000 -1.570795 -1.570796 0.000000
    2 -0.000004 0.000006 3.077313 -2.502759 -0.276637 1.093368
    3 16.897085 0.000000 0.000000 0.000000 0.000000 -1.191185
    4 16.589727 0.000000 0.000000 0.494832 -0.499895 -0.779711
    5 0.000005 -0.000003 -3.077313 2.877903 0.123979 1.322600
    6 16.897085 0.000000 0.000000 0.000000 0.000000 -1.851037
    7 16.589727 0.000000 0.000000 -0.192190 0.219484 -0.003160
    8 3.485062 -0.004234 0.000004 -0.000004 -0.000001 -1.151114
    9 5.318531 -0.004538 0.000000 -0.230132 -0.050291 -0.212213
    10 5.701826 -0.005492 0.000000 -0.196584 -0.040187 -0.199919
    11 6.899484 -0.001818 0.000000 0.000000 -0.026147 0.099378
    12 0.050786 0.001927 2.008302 -2.500581 -1.384873 5.547392
    13 4.746895 0.000000 0.000000 1.056969 0.414349 1.182367
    14 10.950472 0.000000 0.000000 0.000000 0.000000 -0.722739
    15 10.950467 0.000000 0.000000 -1.574103 0.019392 0.236566
    16 -0.050780 0.001941 -2.008302 -0.483598 1.330798 2.566784
    17 4.746896 0.000000 -0.000003 -0.751535 0.020301 0.130198
    18 10.950466 0.000000 0.000000 0.000000 0.000000 -0.672043
    19 10.950471 0.000000 0.000000 1.767889 -0.169629 0.443611
    20 2.428221 0.000000 0.000000 0.546471 0.022088 0.049335
    21 1.681022 0.975106 0.213387 0.000000 0.000001 -1.745239
  time 23
    0 -0.208480 61.723488 79.387300 0.000000 -0.066569 -1.570839
    1 7.457259 -0.363292 0.000000 -1.570795 -1.570796 0.000000
    2 -0.000004 0.000006 3.077313 -2.464986 -0.137829 0.910450
    3 16.897085 0.000000 0.000000 0.000000 0.000000 -1.228992
    4 16.589727 0.000000 0.000000 0.436390 -0.550583 -0.851775
    5 0.000005 -0.000003 -3.077313 2.896947 0.158759 1.457640
    6 16.897085 0.000000 0.000000 0.000000 0.000000 -1.872360
    7 16.589727 0.000000 0.000000 -0.206351 0.206267 0.089328
    8 3.485062 -0.004234 0.000004 -0.000004 -0.000001 -1.170035
    9 5.318531 -0.004538 0.000000 -0.231345 -0.044361 -0.186898
    10 5.697919 -0.005492 0.000000 -0.193787 -0.052187 -0.260619
    11 6.899484 -0.001818 0.000000 0.000000 -0.026147 0.099378
    12 0.050786 0.001927 2.008302 -2.651390 -1.333791 5.701656
    13 4.746895 0.000000 0.000000 1.197766 0.297939 1.424200
    14 10.950472 0.000000 0.000000 0.000000 0.000000 -0.722739
    15 10.950467 0.000000 0.000000 -1.574103 0.019392 0.236566
    16 -0.050780 0.001941 -2.008302 -0.475832 1.327151 2.574741
    17 4.746896 0.000000 -0.000003 -0.788893 0.058649 0.293331
    18 10.950466 0.000000 0.000000 0.000000 0.000000 -0.672043
    19 10.950471 0.000000 0.000000 1.767889 -0.169629 0.443611
    20 2.428221 0.000000 0.000000 0.606203 0.217041 0.038670
    21 1.681022 0.975106 0.213387 0.000000 0.000001 -1.745239
  time 24
    0 -0.208480 58.900977 54.091716 0.000000 -0.574405 -1.570839
    1 7.465072 -0.371105 0.000000 -1.570795 -1.570796 0.000000
    2 -0.000004 0.000006 3.077313 -2.469875 -0.163424 0.942838
    3 16.897085 0.000000 0.000000 0.000000 0.000000 -1.151509
    4 16.589727 0.000000 0.000000 0.436390 -0.550583 -0.888291
    5 0.000005 -0.000003 -3.077313 -0.219772 2.949784 -1.541919
    6 16.897085 0.000000 0.000000 0.000000 0.000000 -1.695359
    7 16.589727 0.000000 0.000000 -0.206351 0.206267 0.056011
    8 3.485062 -0.004234 0.000004 -0.000004 -0.000001 -1.185245
    9 5.318531 -0.004538 0.000000 -0.232523 -0.037502 -0.157841
    10 5.697919 -0.005492 0.000000 -0.190325 -0.063756 -0.320176
    11 6.899484 -0.001818 0.000000 0.000000 -0.026147 0.099378
    12 0.050786 0.001927 2.008302 -2.651390 -1.333791 5.701656
    13 4.746895 0.000000 0.000000 1.199673 0.253445 1.417233
    14 10.950472 0.000000 0.000000 0.000000 0.000000 -0.722739
    15 10.950467 0.000000 0.000000 -1.574103 0.019392 0.236566
    16 -0.050780 0.001941 -2.008302 -0.475832 1.327151 2.574741
    17 4.746896 0.000000 -0.000003 -0.832652 0.066812 0.298396
    18 10.950466 0.000000 0.000000 0.000000 0.000000 -0.672043
    19 10.950471 0.000000 0.000000 1.767889 -0.169629 0.443611
    20 2.428221 0.000000 0.000000 0.611666 0.345031 -0.010187
    21 1.681022 0.975106 0.213387 0.000000 0.000001 -1.745239
  time 25
    0 -0.208480 56.044044 28.092174 0.000000 -1.095076 -1.570839
    1 7.457259 -0.375011 0.000000 -1.570795 -1.570796 0.000000
    2 -0.000004 0.000006 3.077313 -2.508607 -0.291399 1.114258
    3 16.897085 0.000000 0.000000 0.000000 0.000000 -0.994974
    4 16.589727 0.000000 0.000000 0.436390 -0.550583 -0.834590
    5 0.000005 -0.000003 -3.077313 -0.182258 2.913854 -1.362497
    6 16.897085 0.000000 0.000000 0.000000 0.000000 -1.364820
    7 16.589727 0.000000 0.000000 -0.206351 0.206267 -0.095412
    8 3.485062 -0.004234 0.000004 -0.000004 -0.000001 -1.196488
    9 5.318531 -0.004538 0.000000 -0.233629 -0.029825 -0.125494
    10 5.697919 -0.005492 0.000000 -0.186420 -0.074510 -0.376717
    11 6.899484 -0.001818 0.000000 0.000000 -0.026147 0.099378
    12 0.050786 0.001927 2.008302 -2.651390 -1.333791 5.701656
    13 4.746895 0.000000 0.000000 1.199101 0.219030 1.410450
    14 10.950472 0.000000 0.000000 0.000000 0.000000 -0.722739
    15 10.950467 0.000000 0.000000 -1.574103 0.019392 0.236566
    16 -0.050780 0.001941 -2.008302 -0.475832 1.327151 2.574741
    17 4.746896 0.000000 -0.000003 -0.866856 0.071273 0.302887
    18 10.950466 0.000000 0.000000 0.000000 0.000000 -0.672043
    19 10.950471 0.000000 0.000000 1.767889 -0.169629 0.443611
    20 2.428221 0.000000 0.000000 0.569901 0.433882 -0.105538
    21 1.681022 0.975106 0.213387 0.000000 0.000001 -1.745239
  time 26
    0 -0.208480 53.410847 3.359758 0.000000 -1.592089 -1.570839
    1 7.441633 -0.371105 0.000000 -1.570795 -1.570796 0.000000
    2 -0.000004 0.000006 3.077313 -2.598054 -0.445640 1.360724
    3 16.897085 0.000000 0.000000 0.000000 0.000000 -0.808850
    4 16.589727 0.000000 0.000000 0.436390 -0.550583 -0.744165
    5 0.000005 -0.000003 -3.077313 -0.140725 2.886356 -1.188958
    6 16.897085 0.000000 0.000000 0.000000 0.000000 -0.979440
    7 16.589727 0.000000 0.000000 -0.206351 0.206267 -0.310061
    8 3.485062 -0.004234 0.000004 -0.000004 -0.000001 -1.202991
    9 5.318531 -0.004538 0.000000 -0.234521 -0.021439 -0.090334
    10 5.697919 -0.005492 0.000000 -0.182459 -0.083842 -0.426904
    11 6.899484 -0.001818 0.000000 0.000000 -0.026147 0.099378
    12 0.050786 0.001927 2.008302 -2.651390 -1.333791 5.701656
    13 4.746895 0.000000 0.000000 1.195860 0.198054 1.404412
    14 10.950472 0.000000 0.000000 0.000000 0.000000 -0.722739
    15 10.950467 0.000000 0.000000 -1.574103 0.019392 0.236566
    16 -0.050780 0.001941 -2.008302 -0.475832 1.327151 2.574741
    17 4.746896 0.000000 -0.000003 -0.888067 0.071083 0.306997
    18 10.950466 0.000000 0.000000 0.000000 0.000000 -0.672043
    19 10.950471 0.000000 0.000000 1.767889 -0.169629 0.443611
    20 2.428221 0.000000 0.000000 0.510633 0.475216 -0.205040
    21 1.681022 0.975106 0.213387 0.000000 0.000001 -1.745239
  time 27
    0 -0.208480 51.156280 -18.979199 0.000000 -2.033165 -1.570839
    1 7.410382 -0.359386 0.000000 -1.570795 -1.570796 0.000000
    2 -0.000004 0.000006 3.077313 0.427138 -2.584210 -1.540248
    3 16.897085 0.000000 0.000000 0.000000 0.000000 -0.643423
    4 16.589727 0.000000 0.000000 0.436390 -0.550583 -0.671132
    5 0.000005 -0.000003 -3.077313 -0.108379 2.871313 -1.064758
    6 16.897085 0.000000 0.000000 0.000000 0.000000 -0.638774
    7 16.589727 0.000000 0.000000 -0.206351 0.206267 -0.529940
    8 3.485062 -0.004234 0.000004 -0.000004 -0.000001 -1.203101
    9 5.318531 -0.004538 0.000000 -0.235163 -0.012611 -0.053416
    10 5.697919 -0.005492 0.000000 -0.179136 -0.090745 -0.464823
    11 6.899484 -0.001818 0.000000 0.000000 -0.026147 0.099378
    12 0.050786 0.001927 2.008302 -2.651390 -1.333791 5.701656
    13 4.746895 0.000000 0.000000 1.188996 0.197056 1.399766
    14 10.950472 0.000000 0.000000 0.000000 0.000000 -0.722739
    15 10.950467 0.000000 0.000000 -1.574103 0.019392 0.236566
    16 -0.050780 0.001941 -2.008302 -0.475832 1.327151 2.574741
    17 4.746896 0.000000 -0.000003 -0.889978 0.064534 0.310150
    18 10.950466 0.000000 0.000000 0.000000 0.000000 -0.672043
    19 10.950471 0.000000 0.000000 1.767889 -0.169629 0.443611
    20 2.428221 0.000000 0.000000 0.471738 0.475765 -0.262774
    21 1.681022 0.975106 0.213387 0.000000 0.000001 -1.745239
  time 28
    0 -0.208480 49.418026 -38.502321 0.000000 -2.395413 -1.570839
    1 7.363506 -0.332041 0.000000 -1.570795 -1.570796 0.000000
    2 -0.000004 0.000006 3.077313 0.357728 -2.540210 -1.413504
    3 16.897085 0.000000 0.000000 0.000000 0.000000 -0.539938
    4 16.589727 0.000000 0.000000 0.436390 -0.550583 -0.659906
    5 0.000005 -0.000003 -3.077313 -0.097373 2.867289 -1.023634
    6 16.897085 0.000000 0.000000 0.000000 0.000000 -0.424476
    7 16.589727 0.000000 0.000000 -0.206351 0.206267 -0.704397
    8 3.485062 -0.004234 0.000004 -0.000004 -0.000001 -1.194136
    9 5.318531 -0.004538 0.000000 -0.235448 -0.003872 -0.017000
    10 5.697919 -0.005492 0.000000 -0.177723 -0.093493 -0.480078
    11 6.899484 -0.001818 0.000000 0.000000 -0.026147 0.099378
    12 0.050786 0.001927 2.008302 -2.651390 -1.333791 5.701656
    13 4.746895 0.000000 0.000000 1.176985 0.226204 1.397537
    14 10.950472 0.000000 0.000000 0.000000 0.000000 -0.722739
    15 10.950467 0.000000 0.000000 -1.574103 0.019392 0.236566
    16 -0.050780 0.001941 -2.008302 -0.475832 1.327151 2.574741
    17 4.746896 0.000000 -0.000003 -0.862652 0.048872 0.311106
    18 10.950466 0.000000 0.000000 0.000000 0.000000 -0.672043
    19 10.950471 0.000000 0.000000 1.767889 -0.169629 0.443611
    20 2.428221 0.000000 0.000000 0.478035 0.450186 -0.253385
    21 1.681022 0.975106 0.213387 0.000000 0.000001 -1.745239
  time 29
    0 -0.208480 48.144453 -57.133761 0.000000 -2.687165 -1.570839
    1 7.261940 -0.277352 0.000000 -1.570795 -1.570796 0.000000
    2 -0.000004 0.000006 3.077313 0.367410 -2.545674 -1.430796
    3 16.897085 0.000000 0.000000 0.000000 0.000000 -0.539938
    4 16.589727 0.000000 0.000000 0.382410 -0.587232 -0.575024
    5 0.000005 -0.000003 -3.077313 -0.112877 2.873134 -1.081577
    6 16.897085 0.000000 0.000000 0.000000 0.000000 -0.424476
    7 16.589727 0.000000 0.000000 -0.180188 0.229403 -0.639585
    8 3.485062 -0.004234 0.000004 -0.000004 -0.000001 -1.164634
    9 5.318531 -0.004538 0.000000 -0.235413 0.006438 0.026045
    10 5.697919 -0.005492 0.000000 -0.179828 -0.089355 -0.457093
    11 6.899484 -0.001818 0.000000 0.000000 -0.026147 0.099378
    12 0.050786 0.001927 2.008302 -2.651390 -1.333791 5.701656
    13 4.746895 0.000000 0.000000 1.098626 0.378845 1.303981
    14 10.950472 0.000000 0.000000 0.000000 0.000000 -0.722739
    15 10.950467 0.000000 0.000000 -1.574103 0.019392 0.236566
    16 -0.050780 0.001941 -2.008302 -0.475832 1.327151 2.574741
    17 4.746896 0.000000 -0.000003 -0.772841 -0.065696 0.224236
    18 10.950466 0.000000 0.000000 0.000000 0.000000 -0.672043
    19 10.950471 0.000000 0.000000 1.767889 -0.169629 0.443611
    20 2.428221 0.000000 0.000000 0.528135 0.385717 -0.191117
    21 1.681022 0.975106 0.213387 0.000000 0.000001 -1.745239
  time 30
    0 -0.208480 47.232300 -75.999855 0.000000 -2.932463 -1.570839
    1 7.000214 -0.175787 0.000000 -1.570795 -1.570796 0.000000
    2 -0.000004 0.000006 3.077313 0.417647 -2.577404 -1.522342
    3 16.897085 0.000000 0.000000 0.000000 0.000000 -0.539938
    4 16.589727 0.000000 0.000000 0.297795 -0.630198 -0.510167
    5 0.000005 -0.000003 -3.077313 -0.145701 2.889134 -1.208985
    6 16.897085 0.000000 0.000000 0.000000 0.000000 -0.424476
    7 16.589727 0.000000 0.000000 -0.138949 0.256219 -0.592578
    8 3.485062 -0.004234 0.000004 -0.000004 -0.000001 -1.104454
    9 5.318531 -0.004538 0.000000 -0.234628 0.020267 0.083783
    10 5.697919 -0.005492 0.000000 -0.185616 -0.076476 -0.387170
    11 6.899484 -0.001818 0.000000 0.000000 -0.026147 0.099378
    12 0.050786 0.001927 2.008302 -2.651390 -1.333791 5.701656
    13 4.746895 0.000000 0.000000 0.909212 0.618295 1.128575
    14 10.950472 0.000000 0.000000 0.000000 0.000000 -0.722739
    15 10.950467 0.000000 0.000000 -1.574103 0.019392 0.236566
    16 -0.050780 0.001941 -2.008302 -0.475832 1.327151 2.574741
    17 4.746896 0.000000 -0.000003 -0.572486 -0.202000 0.053267
    18 10.950466 0.000000 0.000000 0.000000 0.000000 -0.672043
    19 10.950471 0.000000 0.000000 1.767889 -0.169629 0.443611
    20 2.428221 0.000000 0.000000 0.582773 0.278219 -0.144559
    21 1.681022 0.975106 0.213387 0.000000 0.000001 -1.745239
  time 31
    0 -0.208480 46.595514 -94.255851 0.000000 -3.138586 -1.570839
    1 6.496292 -0.035157 0.000000 -1.570795 -1.570796 0.000000
    2 -0.000004 0.000006 3.077313 -2.660657 -0.513318 1.496157
    3 16.897085 0.000000 0.000000 0.000000 0.000000 -0.539938
    4 16.589727 0.000000 0.000000 0.192778 -0.664963 -0.453556
    5 0.000005 -0.000003 -3.077313 -0.183502 2.914908 -1.367990
    6 16.897085 0.000000 0.000000 0.000000 0.000000 -0.424476
    7 16.589727 0.000000 0.000000 -0.088030 0.277448 -0.556675
    8 3.485062 -0.004234 0.000004 -0.000004 -0.000001 -1.020136
    9 5.318531 -0.004538 0.000000 -0.232737 0.036197 0.150687
    10 5.697919 -0.005492 0.000000 -0.192790 -0.055719 -0.278714
    11 6.899484 -0.001818 0.000000 0.000000 -0.026147 0.099378
    12 0.050786 0.001927 2.008302 -2.651390 -1.333791 5.701656
    13 4.746895 0.000000 0.000000 0.508173 0.851661 0.789934
    14 10.950472 0.000000 0.000000 0.000000 0.000000 -0.722739
    15 10.950467 0.000000 0.000000 -1.574103 0.019392 0.236566
    16 -0.050780 0.001941 -2.008302 -0.475832 1.327151 2.574741
    17 4.746896 0.000000 -0.000003 -0.269518 -0.270912 -0.210307
    18 10.950466 0.000000 0.000000 0.000000 0.000000 -0.672043
    19 10.950471 0.000000 0.000000 1.767889 -0.169629 0.443611
    20 2.428221 0.000000 0.000000 0.614537 0.151325 -0.145709
    21 1.681022 0.975106 0.213387 0.000000 0.000001 -1.745239
  time 32
    0 -0.208480 46.199674 -111.056999 0.000000 2.972404 -1.570839
    1 5.765801 0.113285 0.000000 -1.570795 -1.570796 0.000000
    2 -0.000004 0.000006 3.077313 -2.603231 -0.452063 1.372573
    3 16.897085 0.000000 0.000000 0.000000 0.000000 -0.539938
    4 16.589727 0.000000 0.000000 0.082110 -0.684138 -0.402072
    5 0.000005 -0.000003 -3.077313 -0.217380 2.947005 -1.529329
    6 16.897085 0.000000 0.000000 0.000000 0.000000 -0.424476
    7 16.589727 0.000000 0.000000 -0.034920 0.288676 -0.528001
    8 3.485062 -0.004234 0.000004 -0.000004 -0.000001 -0.927183
    9 5.318531 -0.004538 0.000000 -0.229775 0.052016 0.217968
    10 5.701826 -0.005492 0.000000 -0.198218 -0.031079 -0.154358
    11 6.899484 -0.001818 0.000000 0.000000 -0.026147 0.099378
    12 0.050786 0.001927 2.008302 -2.651390 -1.333791 5.701656
    13 4.746895 0.000000 0.000000 -0.119840 0.924758 0.269848
    14 10.950472 0.000000 0.000000 0.000000 0.000000 -0.722739
    15 10.950467 0.000000 0.000000 -1.574103 0.019392 0.236566
    16 -0.050780 0.001941 -2.008302 -0.475832 1.327151 2.574741
    17 4.746896 0.000000 -0.000003 0.049407 -0.209499 -0.499779
    18 10.950466 0.000000 0.000000 0.000000 0.000000 -0.672043
    19 10.950471 0.000000 0.000000 1.767889 -0.169629 0.443611
    20 2.428221 0.000000 0.000000 0.618519 0.026326 -0.178152
    21 1.681022 0.975106 0.213387 0.000000 0.000001 -1.745239
  time 33
    0 -0.208480 45.993149 -125.511618 0.000000 2.831030 -1.570839
    1 4.988433 0.246101 0.000000 -1.570795 -1.570796 0.000000
    2 -0.000004 0.000006 3.077313 -2.561048 -0.393300 1.269703
    3 16.897085 0.000000 0.000000 0.000000 0.000000 -0.539938
    4 16.589727 0.000000 0.000000 -0.016334 -0.688091 -0.357518
    5 0.000005 -0.000003 -3.077313 2.899339 0.162592 1.473050
    6 16.897085 0.000000 0.000000 0.000000 0.000000 -0.424476
    7 16.589727 0.000000 0.000000 0.011977 0.290502 -0.504614
    8 3.485062 -0.004234 0.000004 -0.000004 -0.000001 -0.845400
    9 5.318531 -0.004538 0.000000 -0.226386 0.065336 0.275404
    10 5.701826 -0.005492 0.000000 -0.200406 -0.008725 -0.043735
    11 6.899484 -0.001818 0.000000 0.000000 -0.026147 0.099378
    12 0.050786 0.001927 2.008302 -2.651390 -1.333791 5.701656
    13 4.746895 0.000000 0.000000 -0.632888 0.812070 -0.113109
    14 10.950472 0.000000 0.000000 0.000000 0.000000 -0.722739
    15 10.950467 0.000000 0.000000 -1.574103 0.019392 0.236566
    16 -0.050780 0.001941 -2.008302 -0.475832 1.327151 2.574741
    17 4.746896 0.000000 -0.000003 0.280622 -0.057628 -0.722832
    18 10.950466 0.000000 0.000000 0.000000 0.000000 -0.672043
    19 10.950471 0.000000 0.000000 1.767889 -0.169629 0.443611
    20 2.428221 0.000000 0.000000 0.602313 -0.079626 -0.208105
    21 1.681022 0.975106 0.213387 0.000000 0.000001 -1.745239
  time 34
    0 -0.208480 45.941517 -136.305652 0.000000 2.718965 -1.570839
    1 4.425916 0.332041 0.000000 -1.570795 -1.570796 0.000000
    2 -0.000004 0.000006 3.077313 -2.537655 -0.353134 1.205629
    3 16.897085 0.000000 0.000000 0.000000 0.000000 -0.539938
    4 16.589727 0.000000 0.000000 -0.084799 -0.683879 -0.321417
    5 0.000005 -0.000003 -3.077313 2.885463 0.139309 1.380739
    6 16.897085 0.000000 0.000000 0.000000 0.000000 -0.424476
    7 16.589727 0.000000 0.000000 0.044549 0.287395 -0.484636
    8 3.485062 -0.004234 0.000004 -0.000004 -0.000001 -0.792899
    9 5.318531 -0.004538 0.000000 -0.223674 0.074230 0.314356
    10 5.701826 -0.005492 0.000000 -0.200517 0.005369 0.025602
    11 6.899484 -0.001818 0.000000 0.000000 -0.026147 0.099378
    12 0.050786 0.001927 2.008302 -2.651390 -1.333791 5.701656
    13 4.746895 0.000000 0.000000 -0.883597 0.677045 -0.258042
    14 10.950472 0.000000 0.000000 0.000000 0.000000 -0.722739
    15 10.950467 0.000000 0.000000 -1.574103 0.019392 0.236566
    16 -0.050780 0.001941 -2.008302 -0.475832 1.327151 2.574741
    17 4.746896 0.000000 -0.000003 0.397759 0.080196 -0.851656
    18 10.950466 0.000000 0.000000 0.000000 0.000000 -0.672043
    19 10.950471 0.000000 0.000000 1.767889 -0.169629 0.443611
    20 2.428221 0.000000 0.000000 0.580921 -0.151325 -0.214811
    21 1.681022 0.975106 0.213387 0.000000 0.000001 -1.745239
end
