version 1
nodes
  0 "Bip02" -1
  1 "Bip02 Pelvis" 0
  2 "Bip02 L Leg" 1
  3 "Bip02 L Leg1" 2
  4 "Bip02 L Foot" 3
  5 "Bip02 R Leg" 1
  6 "Bip02 R Leg1" 5
  7 "Bip02 R Foot" 6
  8 "Bip02 Spine" 1
  9 "Bip02 Spine1" 8
  10 "Bip02 Spine2" 9
  11 "Bip02 Neck" 10
  12 "Bip02 L Arm" 11
  13 "Bip02 L Arm1" 12
  14 "Bip02 L Arm2" 13
  15 "Bip02 L Hand" 14
  16 "Bip02 R Arm" 11
  17 "Bip02 R Arm1" 16
  18 "Bip02 R Arm2" 17
  19 "Bip02 R Hand" 18
  20 "Bip02 Head" 11
  21 "Bone01" 20
end
skeleton
  time 0
    0 -0.202733 -0.578294 36.821262 0.000000 0.000000 -1.570839
    1 0.000000 0.000000 0.000000 -1.570795 -1.570796 0.000000
    2 -0.000004 0.000006 3.319508 -0.000732 -3.100711 -0.021168
    3 16.897085 0.000000 0.000000 0.000000 0.000000 -0.157678
    4 16.589727 0.000000 0.000000 0.001600 -0.040858 0.136462
    5 0.000005 -0.000003 -3.319508 0.001962 3.115348 -0.024688
    6 16.897085 0.000000 0.000000 0.000000 0.000000 -0.164609
    7 16.589727 0.000000 0.000000 -0.002609 0.026187 0.139861
    8 3.488968 -0.004234 0.000004 -0.000004 -0.000001 0.000796
    9 5.318531 -0.004538 0.000000 0.000000 0.000000 -0.026167
    10 5.701826 -0.005492 0.000000 0.000000 0.000000 -0.026167
    11 6.899484 -0.001818 0.000000 0.000000 -0.000001 0.348889
    12 0.000003 0.001927 2.008302 -0.000013 -1.292336 2.791920
    13 4.746895 0.000000 0.000000 0.117714 1.128249 0.120920
    14 10.950472 0.000000 0.000000 0.000000 0.000000 -0.104118
    15 10.950467 0.000000 0.000000 -1.568795 0.000000 0.000000
    16 0.000003 0.001941 -2.008302 -0.000013 1.318476 2.791894
    17 4.746896 0.000000 -0.000003 -0.427069 -1.150817 0.444804
    18 10.950466 0.000000 0.000000 0.000000 0.000000 -0.363444
    19 10.950471 0.000000 0.000000 1.568795 0.000000 0.000000
    20 2.428221 0.000000 0.000000 0.000000 0.000000 -0.122909
    21 1.681022 0.975106 0.213387 0.000000 0.000001 -1.745239
  time 1
    0 -0.202733 -0.578294 36.821262 0.000000 0.000000 -1.570839
    1 0.007813 0.000000 0.000000 -1.570795 -1.570796 0.000000
    2 -0.000004 0.000006 3.319508 -0.000732 -3.100711 -0.020290
    3 16.897085 0.000000 0.000000 0.000000 0.000000 -0.156482
    4 16.589727 0.000000 0.000000 0.001600 -0.040858 0.136116
    5 0.000005 -0.000003 -3.319508 0.001962 3.115348 -0.023862
    6 16.897085 0.000000 0.000000 0.000000 0.000000 -0.163468
    7 16.589727 0.000000 0.000000 -0.002609 0.026187 0.139567
    8 3.488968 -0.004234 0.000004 -0.000004 -0.000001 0.000024
    9 5.318531 -0.004538 0.000000 0.000000 0.000000 -0.026519
    10 5.701826 -0.005492 0.000000 0.000000 0.000000 -0.026518
    11 6.899484 -0.001818 0.000000 0.000000 -0.000001 0.341975
    12 0.000003 0.001927 2.008302 -0.000013 -1.296695 2.798823
    13 4.746895 0.000000 0.000000 0.128391 1.131972 0.132069
    14 10.950472 0.000000 0.000000 0.000000 0.000000 -0.109304
    15 10.950467 0.000000 0.000000 -1.568795 0.000000 0.000000
    16 0.000003 0.001941 -2.008302 -0.000013 1.321777 2.798797
    17 4.746896 0.000000 -0.000003 -0.436623 -1.152526 0.454361
    18 10.950466 0.000000 0.000000 0.000000 0.000000 -0.365682
    19 10.950471 0.000000 0.000000 1.568795 0.000000 0.000000
    20 2.428221 0.000000 0.000000 0.000000 0.000000 -0.116012
    21 1.681022 0.975106 0.213387 0.000000 0.000001 -1.745239
  time 2
    0 -0.202733 -0.578294 36.821262 0.000000 0.000000 -1.570839
    1 0.023438 0.000000 0.000000 -1.570795 -1.570796 0.000000
    2 -0.000004 0.000006 3.319508 -0.000732 -3.100711 -0.019237
    3 16.897085 0.000000 0.000000 0.000000 0.000000 -0.154913
    4 16.589727 0.000000 0.000000 0.001600 -0.040858 0.135631
    5 0.000005 -0.000003 -3.319508 0.001962 3.115348 -0.022841
    6 16.897085 0.000000 0.000000 0.000000 0.000000 -0.161970
    7 16.589727 0.000000 0.000000 -0.002609 0.026187 0.139097
    8 3.488968 -0.004234 0.000004 -0.000004 -0.000001 -0.001776
    9 5.318531 -0.004538 0.000000 0.000000 0.000000 -0.027021
    10 5.701826 -0.005492 0.000000 0.000000 0.000000 -0.027016
    11 6.899484 -0.001818 0.000000 0.000000 -0.000001 0.332571
    12 0.000003 0.001927 2.008302 -0.000013 -1.302643 2.808219
    13 4.746895 0.000000 0.000000 0.143357 1.137057 0.147770
    14 10.950472 0.000000 0.000000 0.000000 0.000000 -0.116322
    15 10.950467 0.000000 0.000000 -1.568795 0.000000 0.000000
    16 0.000003 0.001941 -2.008302 -0.000013 1.326230 2.808192
    17 4.746896 0.000000 -0.000003 -0.449808 -1.154804 0.467549
    18 10.950466 0.000000 0.000000 0.000000 0.000000 -0.368691
    19 10.950471 0.000000 0.000000 1.568795 0.000000 0.000000
    20 2.428221 0.000000 0.000000 0.000000 0.000000 -0.106560
    21 1.681022 0.975106 0.213387 0.000000 0.000001 -1.745239
  time 3
    0 -0.202733 -0.561083 36.821262 0.000000 0.000000 -1.570839
    1 0.042970 0.000000 0.000000 -1.570795 -1.570796 0.000000
    2 -0.000004 0.000006 3.319508 -0.000828 -3.100711 -0.018096
    3 16.897085 0.000000 0.000000 0.000000 0.000000 -0.153045
    4 16.589727 0.000000 0.000000 0.001600 -0.040858 0.135007
    5 0.000005 -0.000003 -3.319508 0.001962 3.115348 -0.021674
    6 16.897085 0.000000 0.000000 0.000000 0.000000 -0.160188
    7 16.589727 0.000000 0.000000 -0.002609 0.026187 0.138451
    8 3.488968 -0.004234 0.000004 -0.000004 -0.000001 -0.003576
    9 5.318531 -0.004538 0.000000 0.000000 0.000000 -0.027624
    10 5.701826 -0.005492 0.000000 0.000000 0.000000 -0.027631
    11 6.899484 -0.001818 0.000000 0.000000 -0.000001 0.321110
    12 0.000003 0.001927 2.008302 -0.000013 -1.309908 2.819724
    13 4.746895 0.000000 0.000000 0.162137 1.143050 0.167373
    14 10.950472 0.000000 0.000000 0.000000 0.000000 -0.124942
    15 10.950467 0.000000 0.000000 -1.568795 0.000000 0.000000
    16 0.000003 0.001941 -2.008302 -0.000013 1.331680 2.819697
    17 4.746896 0.000000 -0.000003 -0.466051 -1.157462 0.483795
    18 10.950466 0.000000 0.000000 0.000000 0.000000 -0.372396
    19 10.950471 0.000000 0.000000 1.568795 0.000000 0.000000
    20 2.428221 0.000000 0.000000 0.000000 0.000000 -0.095128
    21 1.681022 0.975106 0.213387 0.000000 0.000001 -1.745239
  time 4
    0 -0.202733 -0.543873 36.821262 0.000000 0.000000 -1.570839
    1 0.062502 0.000000 0.000000 -1.570795 -1.570796 0.000000
    2 -0.000004 0.000006 3.319508 -0.000828 -3.100711 -0.016779
    3 16.897085 0.000000 0.000000 0.000000 0.000000 -0.150953
    4 16.589727 0.000000 0.000000 0.001600 -0.040858 0.134245
    5 0.000005 -0.000003 -3.319508 0.002058 3.115348 -0.020410
    6 16.897085 0.000000 0.000000 0.000000 0.000000 -0.158191
    7 16.589727 0.000000 0.000000 -0.002609 0.026187 0.137746
    8 3.488968 -0.004234 0.000004 -0.000004 -0.000001 -0.005634
    9 5.318531 -0.004538 0.000000 0.000000 0.000000 -0.028302
    10 5.701826 -0.005492 0.000000 0.000000 0.000000 -0.028305
    11 6.899484 -0.001818 0.000000 0.000000 -0.000001 0.307968
    12 0.000003 0.001927 2.008302 -0.000013 -1.318172 2.832859
    13 4.746895 0.000000 0.000000 0.184157 1.149588 0.190321
    14 10.950472 0.000000 0.000000 0.000000 0.000000 -0.134782
    15 10.950467 0.000000 0.000000 -1.568795 0.000000 0.000000
    16 0.000003 0.001941 -2.008302 -0.000013 1.337861 2.832832
    17 4.746896 0.000000 -0.000003 -0.484873 -1.160404 0.502526
    18 10.950466 0.000000 0.000000 0.000000 0.000000 -0.376640
    19 10.950471 0.000000 0.000000 1.568795 0.000000 0.000000
    20 2.428221 0.000000 0.000000 0.000000 0.000000 -0.081971
    21 1.681022 0.975106 0.213387 0.000000 0.000001 -1.745239
  time 5
    0 -0.202733 -0.543873 36.821262 0.000000 0.000000 -1.570839
    1 0.085940 0.000000 0.000000 -1.570795 -1.570796 0.000000
    2 -0.000004 0.000006 3.319508 -0.000924 -3.100711 -0.015375
    3 16.897085 0.000000 0.000000 0.000000 0.000000 -0.148786
    4 16.589727 0.000000 0.000000 0.001600 -0.040858 0.133344
    5 0.000005 -0.000003 -3.319508 0.002058 3.115348 -0.019098
    6 16.897085 0.000000 0.000000 0.000000 0.000000 -0.156051
    7 16.589727 0.000000 0.000000 -0.002609 0.026187 0.136923
    8 3.488968 -0.004234 0.000004 -0.000004 -0.000001 -0.007911
    9 5.318531 -0.004538 0.000000 0.000000 0.000000 -0.029055
    10 5.701826 -0.005492 0.000000 0.000000 0.000000 -0.029066
    11 6.899484 -0.001818 0.000000 0.000000 -0.000001 0.293705
    12 0.000003 0.001927 2.008302 -0.000013 -1.327208 2.847144
    13 4.746895 0.000000 0.000000 0.209133 1.156580 0.216148
    14 10.950472 0.000000 0.000000 0.000000 0.000000 -0.145537
    15 10.950467 0.000000 0.000000 -1.568795 0.000000 0.000000
    16 0.000003 0.001941 -2.008302 -0.000013 1.344655 2.847117
    17 4.746896 0.000000 -0.000003 -0.505701 -1.163347 0.523360
    18 10.950466 0.000000 0.000000 0.000000 0.000000 -0.381193
    19 10.950471 0.000000 0.000000 1.568795 0.000000 0.000000
    20 2.428221 0.000000 0.000000 0.000000 0.000000 -0.067730
    21 1.681022 0.975106 0.213387 0.000000 0.000001 -1.745239
  time 6
    0 -0.202733 -0.526662 36.821262 0.000000 0.000000 -1.570839
    1 0.109378 0.000000 0.000000 -1.570795 -1.570796 0.000000
    2 -0.000004 0.000006 3.319508 -0.001020 -3.100711 -0.013971
    3 16.897085 0.000000 0.000000 0.000000 0.000000 -0.146395
    4 16.589727 0.000000 0.000000 0.001600 -0.040858 0.132443
    5 0.000005 -0.000003 -3.319508 0.002058 3.115348 -0.017737
    6 16.897085 0.000000 0.000000 0.000000 0.000000 -0.153841
    7 16.589727 0.000000 0.000000 -0.002609 0.026187 0.136042
    8 3.488968 -0.004234 0.000004 -0.000004 -0.000001 -0.010263
    9 5.318531 -0.004538 0.000000 0.000000 0.000000 -0.029859
    10 5.701826 -0.005492 0.000000 0.000000 0.000000 -0.029856
    11 6.899484 -0.001818 0.000000 0.000000 -0.000001 0.278632
    12 0.000003 0.001927 2.008302 -0.000013 -1.336697 2.862101
    13 4.746895 0.000000 0.000000 0.236301 1.163663 0.244206
    14 10.950472 0.000000 0.000000 0.000000 0.000000 -0.156826
    15 10.950467 0.000000 0.000000 -1.568795 0.000000 0.000000
    16 0.000003 0.001941 -2.008302 -0.000013 1.351756 2.862073
    17 4.746896 0.000000 -0.000003 -0.527963 -1.166289 0.545436
    18 10.950466 0.000000 0.000000 0.000000 0.000000 -0.386054
    19 10.950471 0.000000 0.000000 1.568795 0.000000 0.000000
    20 2.428221 0.000000 0.000000 0.000000 0.000000 -0.052657
    21 1.681022 0.975106 0.213387 0.000000 0.000001 -1.745239
  time 7
    0 -0.202733 -0.509452 36.821262 0.000000 0.000000 -1.570839
    1 0.132817 0.000000 0.000000 -1.570795 -1.570796 0.000000
    2 -0.000004 0.000006 3.319508 -0.001020 -3.100711 -0.012566
    3 16.897085 0.000000 0.000000 0.000000 0.000000 -0.144079
    4 16.589727 0.000000 0.000000 0.001600 -0.040858 0.131473
    5 0.000005 -0.000003 -3.319508 0.002153 3.115348 -0.016424
    6 16.897085 0.000000 0.000000 0.000000 0.000000 -0.151630
    7 16.589727 0.000000 0.000000 -0.002609 0.026187 0.135160
    8 3.488968 -0.004234 0.000004 -0.000004 -0.000001 -0.012688
    9 5.318531 -0.004538 0.000000 0.000000 0.000000 -0.030662
    10 5.701826 -0.005492 0.000000 0.000000 0.000000 -0.030647
    11 6.899484 -0.001818 0.000000 0.000000 -0.000001 0.263310
    12 0.000003 0.001927 2.008302 -0.000013 -1.346369 2.877441
    13 4.746895 0.000000 0.000000 0.265090 1.170564 0.273750
    14 10.950472 0.000000 0.000000 0.000000 0.000000 -0.168268
    15 10.950467 0.000000 0.000000 -1.568795 0.000000 0.000000
    16 0.000003 0.001941 -2.008302 -0.000013 1.359011 2.877413
    17 4.746896 0.000000 -0.000003 -0.550894 -1.169137 0.568276
    18 10.950466 0.000000 0.000000 0.000000 0.000000 -0.390993
    19 10.950471 0.000000 0.000000 1.568795 0.000000 0.000000
    20 2.428221 0.000000 0.000000 0.000000 0.000000 -0.037330
    21 1.681022 0.975106 0.213387 0.000000 0.000001 -1.745239
  time 8
    0 -0.202733 -0.492242 36.821262 0.000000 0.000000 -1.570839
    1 0.156255 0.000000 0.000000 -1.570795 -1.570796 0.000000
    2 -0.000004 0.000006 3.319508 -0.001115 -3.100711 -0.011337
    3 16.897085 0.000000 0.000000 0.000000 0.000000 -0.141763
    4 16.589727 0.000000 0.000000 0.001600 -0.040858 0.130434
    5 0.000005 -0.000003 -3.319508 0.002153 3.115348 -0.015160
    6 16.897085 0.000000 0.000000 0.000000 0.000000 -0.149419
    7 16.589727 0.000000 0.000000 -0.002609 0.026187 0.134220
    8 3.488968 -0.004234 0.000004 -0.000004 -0.000001 -0.015112
    9 5.318531 -0.004538 0.000000 0.000000 0.000000 -0.031466
    10 5.701826 -0.005492 0.000000 0.000000 0.000000 -0.031467
    11 6.899484 -0.001818 0.000000 0.000000 -0.000001 0.248175
    12 0.000003 0.001927 2.008302 -0.000013 -1.355949 2.892590
    13 4.746895 0.000000 0.000000 0.294641 1.177011 0.303944
    14 10.950472 0.000000 0.000000 0.000000 0.000000 -0.179634
    15 10.950467 0.000000 0.000000 -1.568795 0.000000 0.000000
    16 0.000003 0.001941 -2.008302 -0.000013 1.366227 2.892561
    17 4.746896 0.000000 -0.000003 -0.574015 -1.171700 0.591117
    18 10.950466 0.000000 0.000000 0.000000 0.000000 -0.395932
    19 10.950471 0.000000 0.000000 1.568795 0.000000 0.000000
    20 2.428221 0.000000 0.000000 0.000000 0.000000 -0.022194
    21 1.681022 0.975106 0.213387 0.000000 0.000001 -1.745239
  time 9
    0 -0.202733 -0.475031 36.821262 0.000000 0.000000 -1.570839
    1 0.179693 0.000000 0.000000 -1.570795 -1.570796 0.000000
    2 -0.000004 0.000006 3.319508 -0.001115 -3.100711 -0.010109
    3 16.897085 0.000000 0.000000 0.000000 0.000000 -0.139596
    4 16.589727 0.000000 0.000000 0.001600 -0.040858 0.129464
    5 0.000005 -0.000003 -3.319508 0.002153 3.115348 -0.014042
    6 16.897085 0.000000 0.000000 0.000000 0.000000 -0.147351
    7 16.589727 0.000000 0.000000 -0.002609 0.026187 0.133280
    8 3.488968 -0.004234 0.000004 -0.000004 -0.000001 -0.017390
    9 5.318531 -0.004538 0.000000 0.000000 0.000000 -0.032220
    10 5.701826 -0.005492 0.000000 0.000000 0.000000 -0.032228
    11 6.899484 -0.001818 0.000000 0.000000 -0.000001 0.233601
    12 0.000003 0.001927 2.008302 -0.000013 -1.365167 2.907259
    13 4.746895 0.000000 0.000000 0.324002 1.182822 0.333767
    14 10.950472 0.000000 0.000000 0.000000 0.000000 -0.190618
    15 10.950467 0.000000 0.000000 -1.568795 0.000000 0.000000
    16 0.000003 0.001941 -2.008302 -0.000013 1.373098 2.907229
    17 4.746896 0.000000 -0.000003 -0.596563 -1.173978 0.613384
    18 10.950466 0.000000 0.000000 0.000000 0.000000 -0.400562
    19 10.950471 0.000000 0.000000 1.568795 0.000000 0.000000
    20 2.428221 0.000000 0.000000 0.000000 0.000000 -0.007569
    21 1.681022 0.975106 0.213387 0.000000 0.000001 -1.745239
  time 10
    0 -0.202733 -0.457821 36.821262 0.000000 0.000000 -1.570839
    1 0.199225 0.000000 0.000000 -1.570795 -1.570796 0.000000
    2 -0.000004 0.000006 3.319508 -0.001211 -3.100711 -0.009055
    3 16.897085 0.000000 0.000000 0.000000 0.000000 -0.137579
    4 16.589727 0.000000 0.000000 0.001600 -0.040858 0.128493
    5 0.000005 -0.000003 -3.319508 0.002249 3.115348 -0.013070
    6 16.897085 0.000000 0.000000 0.000000 0.000000 -0.145497
    7 16.589727 0.000000 0.000000 -0.002609 0.026187 0.132399
    8 3.488968 -0.004234 0.000004 -0.000004 -0.000001 -0.019521
    9 5.318531 -0.004538 0.000000 0.000000 0.000000 -0.032948
    10 5.701826 -0.005492 0.000000 0.000000 0.000000 -0.032931
    11 6.899484 -0.001818 0.000000 0.000000 -0.000001 0.220023
    12 0.000003 0.001927 2.008302 -0.000013 -1.373703 2.920777
    13 4.746895 0.000000 0.000000 0.352028 1.187998 0.362289
    14 10.950472 0.000000 0.000000 0.000000 0.000000 -0.200687
    15 10.950467 0.000000 0.000000 -1.568795 0.000000 0.000000
    16 0.000003 0.001941 -2.008302 -0.000013 1.379508 2.920748
    17 4.746896 0.000000 -0.000003 -0.617679 -1.175876 0.634313
    18 10.950466 0.000000 0.000000 0.000000 0.000000 -0.404961
    19 10.950471 0.000000 0.000000 1.568795 0.000000 0.000000
    20 2.428221 0.000000 0.000000 0.000000 0.000000 0.005971
    21 1.681022 0.975106 0.213387 0.000000 0.000001 -1.745239
  time 11
    0 -0.202733 -0.423400 36.821262 0.000000 0.000000 -1.570839
    1 0.218757 0.000000 0.000000 -1.570795 -1.570796 0.000000
    2 -0.000004 0.000006 3.319508 -0.001211 -3.100711 -0.008265
    3 16.897085 0.000000 0.000000 0.000000 0.000000 -0.135935
    4 16.589727 0.000000 0.000000 0.001600 -0.040858 0.127662
    5 0.000005 -0.000003 -3.319508 0.002249 3.115348 -0.012292
    6 16.897085 0.000000 0.000000 0.000000 0.000000 -0.143928
    7 16.589727 0.000000 0.000000 -0.002609 0.026187 0.131576
    8 3.488968 -0.004234 0.000004 -0.000004 -0.000001 -0.021432
    9 5.318531 -0.004538 0.000000 0.000000 0.000000 -0.033576
    10 5.701826 -0.005492 0.000000 0.000000 0.000000 -0.033575
    11 6.899484 -0.001818 0.000000 0.000000 -0.000001 0.207940
    12 0.000003 0.001927 2.008302 -0.000013 -1.381331 2.932857
    13 4.746895 0.000000 0.000000 0.377766 1.192266 0.388303
    14 10.950472 0.000000 0.000000 0.000000 0.000000 -0.209764
    15 10.950467 0.000000 0.000000 -1.568795 0.000000 0.000000
    16 0.000003 0.001941 -2.008302 -0.000013 1.385228 2.932828
    17 4.746896 0.000000 -0.000003 -0.636787 -1.177395 0.653044
    18 10.950466 0.000000 0.000000 0.000000 0.000000 -0.408896
    19 10.950471 0.000000 0.000000 1.568795 0.000000 0.000000
    20 2.428221 0.000000 0.000000 0.000000 0.000000 0.018041
    21 1.681022 0.975106 0.213387 0.000000 0.000001 -1.745239
  time 12
    0 -0.202733 -0.406189 36.821262 0.000000 0.000000 -1.570839
    1 0.234382 0.000000 0.000000 -1.570795 -1.570796 0.000000
    2 -0.000004 0.000006 3.319508 -0.001211 -3.100711 -0.007739
    3 16.897085 0.000000 0.000000 0.000000 0.000000 -0.134665
    4 16.589727 0.000000 0.000000 0.001600 -0.040858 0.126969
    5 0.000005 -0.000003 -3.319508 0.002249 3.115348 -0.011758
    6 16.897085 0.000000 0.000000 0.000000 0.000000 -0.142716
    7 16.589727 0.000000 0.000000 -0.002609 0.026187 0.130871
    8 3.488968 -0.004234 0.000004 -0.000004 -0.000001 -0.023048
    9 5.318531 -0.004538 0.000000 0.000000 0.000000 -0.034103
    10 5.701826 -0.005492 0.000000 0.000000 0.000000 -0.034102
    11 6.899484 -0.001818 0.000000 0.000000 -0.000001 0.197787
    12 0.000003 0.001927 2.008302 -0.000013 -1.387733 2.943020
    13 4.746895 0.000000 0.000000 0.399882 1.195717 0.410693
    14 10.950472 0.000000 0.000000 0.000000 0.000000 -0.217392
    15 10.950467 0.000000 0.000000 -1.568795 0.000000 0.000000
    16 0.000003 0.001941 -2.008302 -0.000013 1.390026 2.942990
    17 4.746896 0.000000 -0.000003 -0.652934 -1.178629 0.668908
    18 10.950466 0.000000 0.000000 0.000000 0.000000 -0.412138
    19 10.950471 0.000000 0.000000 1.568795 0.000000 0.000000
    20 2.428221 0.000000 0.000000 0.000000 0.000000 0.028196
    21 1.681022 0.975106 0.213387 0.000000 0.000001 -1.745239
  time 13
    0 -0.202733 -0.388979 36.821262 0.000000 0.000000 -1.570839
    1 0.246101 0.000000 0.000000 -1.570795 -1.570796 0.000000
    2 -0.000004 0.000006 3.319508 -0.001211 -3.100711 -0.007475
    3 16.897085 0.000000 0.000000 0.000000 0.000000 -0.133843
    4 16.589727 0.000000 0.000000 0.001600 -0.040858 0.126345
    5 0.000005 -0.000003 -3.319508 0.002249 3.115348 -0.011563
    6 16.897085 0.000000 0.000000 0.000000 0.000000 -0.141931
    7 16.589727 0.000000 0.000000 -0.002609 0.026187 0.130342
    8 3.488968 -0.004234 0.000004 -0.000004 -0.000001 -0.024297
    9 5.318531 -0.004538 0.000000 0.000000 0.000000 -0.034530
    10 5.701826 -0.005492 0.000000 0.000000 0.000000 -0.034512
    11 6.899484 -0.001818 0.000000 0.000000 -0.000001 0.190002
    12 0.000003 0.001927 2.008302 -0.000013 -1.392683 2.950786
    13 4.746895 0.000000 0.000000 0.417136 1.198168 0.428066
    14 10.950472 0.000000 0.000000 0.000000 0.000000 -0.223189
    15 10.950467 0.000000 0.000000 -1.568795 0.000000 0.000000
    16 0.000003 0.001941 -2.008302 -0.000013 1.393749 2.950756
    17 4.746896 0.000000 -0.000003 -0.665355 -1.179483 0.681141
    18 10.950466 0.000000 0.000000 0.000000 0.000000 -0.414684
    19 10.950471 0.000000 0.000000 1.568795 0.000000 0.000000
    20 2.428221 0.000000 0.000000 0.000000 0.000000 0.035987
    21 1.681022 0.975106 0.213387 0.000000 0.000001 -1.745239
  time 14
    0 -0.202733 -0.371768 36.821262 0.000000 0.000000 -1.570839
    1 0.253914 0.000000 0.000000 -1.570795 -1.570796 0.000000
    2 -0.000004 0.000006 3.319508 -0.001211 -3.100711 -0.007651
    3 16.897085 0.000000 0.000000 0.000000 0.000000 -0.133619
    4 16.589727 0.000000 0.000000 0.001600 -0.040858 0.125999
    5 0.000005 -0.000003 -3.319508 0.002249 3.115348 -0.011709
    6 16.897085 0.000000 0.000000 0.000000 0.000000 -0.141717
    7 16.589727 0.000000 0.000000 -0.002609 0.026187 0.129931
    8 3.488968 -0.004234 0.000004 -0.000004 -0.000001 -0.025069
    9 5.318531 -0.004538 0.000000 0.000000 0.000000 -0.034781
    10 5.701826 -0.005492 0.000000 0.000000 0.000000 -0.034776
    11 6.899484 -0.001818 0.000000 0.000000 -0.000001 0.184957
    12 0.000003 0.001927 2.008302 -0.000013 -1.395816 2.955868
    13 4.746895 0.000000 0.000000 0.428384 1.199712 0.439401
    14 10.950472 0.000000 0.000000 0.000000 0.000000 -0.227003
    15 10.950467 0.000000 0.000000 -1.568795 0.000000 0.000000
    16 0.000003 0.001941 -2.008302 -0.000013 1.396091 2.955837
    17 4.746896 0.000000 -0.000003 -0.673380 -1.179958 0.689073
    18 10.950466 0.000000 0.000000 0.000000 0.000000 -0.416305
    19 10.950471 0.000000 0.000000 1.568795 0.000000 0.000000
    20 2.428221 0.000000 0.000000 0.000000 0.000000 0.041033
    21 1.681022 0.975106 0.213387 0.000000 0.000001 -1.745239
  time 15
    0 -0.202733 -0.354558 36.821262 0.000000 0.000000 -1.570839
    1 0.257820 0.000000 0.000000 -1.570795 -1.570796 0.000000
    2 -0.000004 0.000006 3.319508 -0.001211 -3.100711 -0.008178
    3 16.897085 0.000000 0.000000 0.000000 0.000000 -0.133992
    4 16.589727 0.000000 0.000000 0.001600 -0.040858 0.125791
    5 0.000005 -0.000003 -3.319508 0.002249 3.115348 -0.012292
    6 16.897085 0.000000 0.000000 0.000000 0.000000 -0.142074
    7 16.589727 0.000000 0.000000 -0.002609 0.026187 0.129754
    8 3.488968 -0.004234 0.000004 -0.000004 -0.000001 -0.025363
    9 5.318531 -0.004538 0.000000 0.000000 0.000000 -0.034882
    10 5.701826 -0.005492 0.000000 0.000000 0.000000 -0.034863
    11 6.899484 -0.001818 0.000000 0.000000 -0.000001 0.183213
    12 0.000003 0.001927 2.008302 -0.000013 -1.396951 2.957593
    13 4.746895 0.000000 0.000000 0.432293 1.200257 0.443396
    14 10.950472 0.000000 0.000000 0.000000 0.000000 -0.228299
    15 10.950467 0.000000 0.000000 -1.568795 0.000000 0.000000
    16 0.000003 0.001941 -2.008302 -0.000013 1.396935 2.957563
    17 4.746896 0.000000 -0.000003 -0.676247 -1.180148 0.691844
    18 10.950466 0.000000 0.000000 0.000000 0.000000 -0.416845
    19 10.950471 0.000000 0.000000 1.568795 0.000000 0.000000
    20 2.428221 0.000000 0.000000 0.000000 0.000000 0.042757
    21 1.681022 0.975106 0.213387 0.000000 0.000001 -1.745239
  time 16
    0 -0.202733 -0.371768 36.821262 0.000000 0.000000 -1.570839
    1 0.253914 0.000000 0.000000 -1.570795 -1.570796 0.000000
    2 -0.000004 0.000006 3.319508 -0.001211 -3.100711 -0.007651
    3 16.897085 0.000000 0.000000 0.000000 0.000000 -0.133619
    4 16.589727 0.000000 0.000000 0.001600 -0.040858 0.125999
    5 0.000005 -0.000003 -3.319508 0.002249 3.115348 -0.011709
    6 16.897085 0.000000 0.000000 0.000000 0.000000 -0.141717
    7 16.589727 0.000000 0.000000 -0.002609 0.026187 0.129931
    8 3.488968 -0.004234 0.000004 -0.000004 -0.000001 -0.025069
    9 5.318531 -0.004538 0.000000 0.000000 0.000000 -0.034781
    10 5.701826 -0.005492 0.000000 0.000000 0.000000 -0.034776
    11 6.899484 -0.001818 0.000000 0.000000 -0.000001 0.184957
    12 0.000003 0.001927 2.008302 -0.000013 -1.395816 2.955868
    13 4.746895 0.000000 0.000000 0.428384 1.199712 0.439401
    14 10.950472 0.000000 0.000000 0.000000 0.000000 -0.227003
    15 10.950467 0.000000 0.000000 -1.568795 0.000000 0.000000
    16 0.000003 0.001941 -2.008302 -0.000013 1.396091 2.955837
    17 4.746896 0.000000 -0.000003 -0.673380 -1.179958 0.689073
    18 10.950466 0.000000 0.000000 0.000000 0.000000 -0.416305
    19 10.950471 0.000000 0.000000 1.568795 0.000000 0.000000
    20 2.428221 0.000000 0.000000 0.000000 0.000000 0.041033
    21 1.681022 0.975106 0.213387 0.000000 0.000001 -1.745239
  time 17
    0 -0.202733 -0.388979 36.821262 0.000000 0.000000 -1.570839
    1 0.246101 0.000000 0.000000 -1.570795 -1.570796 0.000000
    2 -0.000004 0.000006 3.319508 -0.001211 -3.100711 -0.007475
    3 16.897085 0.000000 0.000000 0.000000 0.000000 -0.133843
    4 16.589727 0.000000 0.000000 0.001600 -0.040858 0.126345
    5 0.000005 -0.000003 -3.319508 0.002249 3.115348 -0.011563
    6 16.897085 0.000000 0.000000 0.000000 0.000000 -0.141931
    7 16.589727 0.000000 0.000000 -0.002609 0.026187 0.130342
    8 3.488968 -0.004234 0.000004 -0.000004 -0.000001 -0.024297
    9 5.318531 -0.004538 0.000000 0.000000 0.000000 -0.034530
    10 5.701826 -0.005492 0.000000 0.000000 0.000000 -0.034512
    11 6.899484 -0.001818 0.000000 0.000000 -0.000001 0.190002
    12 0.000003 0.001927 2.008302 -0.000013 -1.392683 2.950786
    13 4.746895 0.000000 0.000000 0.417136 1.198168 0.428066
    14 10.950472 0.000000 0.000000 0.000000 0.000000 -0.223189
    15 10.950467 0.000000 0.000000 -1.568795 0.000000 0.000000
    16 0.000003 0.001941 -2.008302 -0.000013 1.393749 2.950756
    17 4.746896 0.000000 -0.000003 -0.665355 -1.179483 0.681141
    18 10.950466 0.000000 0.000000 0.000000 0.000000 -0.414684
    19 10.950471 0.000000 0.000000 1.568795 0.000000 0.000000
    20 2.428221 0.000000 0.000000 0.000000 0.000000 0.035987
    21 1.681022 0.975106 0.213387 0.000000 0.000001 -1.745239
  time 18
    0 -0.202733 -0.406189 36.821262 0.000000 0.000000 -1.570839
    1 0.234382 0.000000 0.000000 -1.570795 -1.570796 0.000000
    2 -0.000004 0.000006 3.319508 -0.001211 -3.100711 -0.007739
    3 16.897085 0.000000 0.000000 0.000000 0.000000 -0.134665
    4 16.589727 0.000000 0.000000 0.001600 -0.040858 0.126969
    5 0.000005 -0.000003 -3.319508 0.002249 3.115348 -0.011758
    6 16.897085 0.000000 0.000000 0.000000 0.000000 -0.142716
    7 16.589727 0.000000 0.000000 -0.002609 0.026187 0.130871
    8 3.488968 -0.004234 0.000004 -0.000004 -0.000001 -0.023048
    9 5.318531 -0.004538 0.000000 0.000000 0.000000 -0.034103
    10 5.701826 -0.005492 0.000000 0.000000 0.000000 -0.034102
    11 6.899484 -0.001818 0.000000 0.000000 -0.000001 0.197787
    12 0.000003 0.001927 2.008302 -0.000013 -1.387733 2.943020
    13 4.746895 0.000000 0.000000 0.399882 1.195717 0.410693
    14 10.950472 0.000000 0.000000 0.000000 0.000000 -0.217392
    15 10.950467 0.000000 0.000000 -1.568795 0.000000 0.000000
    16 0.000003 0.001941 -2.008302 -0.000013 1.390026 2.942990
    17 4.746896 0.000000 -0.000003 -0.652934 -1.178629 0.668908
    18 10.950466 0.000000 0.000000 0.000000 0.000000 -0.412138
    19 10.950471 0.000000 0.000000 1.568795 0.000000 0.000000
    20 2.428221 0.000000 0.000000 0.000000 0.000000 0.028196
    21 1.681022 0.975106 0.213387 0.000000 0.000001 -1.745239
  time 19
    0 -0.202733 -0.423400 36.821262 0.000000 0.000000 -1.570839
    1 0.218757 0.000000 0.000000 -1.570795 -1.570796 0.000000
    2 -0.000004 0.000006 3.319508 -0.001211 -3.100711 -0.008265
    3 16.897085 0.000000 0.000000 0.000000 0.000000 -0.135935
    4 16.589727 0.000000 0.000000 0.001600 -0.040858 0.127662
    5 0.000005 -0.000003 -3.319508 0.002249 3.115348 -0.012292
    6 16.897085 0.000000 0.000000 0.000000 0.000000 -0.143928
    7 16.589727 0.000000 0.000000 -0.002609 0.026187 0.131576
    8 3.488968 -0.004234 0.000004 -0.000004 -0.000001 -0.021432
    9 5.318531 -0.004538 0.000000 0.000000 0.000000 -0.033576
    10 5.701826 -0.005492 0.000000 0.000000 0.000000 -0.033575
    11 6.899484 -0.001818 0.000000 0.000000 -0.000001 0.207940
    12 0.000003 0.001927 2.008302 -0.000013 -1.381331 2.932857
    13 4.746895 0.000000 0.000000 0.377766 1.192266 0.388303
    14 10.950472 0.000000 0.000000 0.000000 0.000000 -0.209764
    15 10.950467 0.000000 0.000000 -1.568795 0.000000 0.000000
    16 0.000003 0.001941 -2.008302 -0.000013 1.385228 2.932828
    17 4.746896 0.000000 -0.000003 -0.636787 -1.177395 0.653044
    18 10.950466 0.000000 0.000000 0.000000 0.000000 -0.408896
    19 10.950471 0.000000 0.000000 1.568795 0.000000 0.000000
    20 2.428221 0.000000 0.000000 0.000000 0.000000 0.018041
    21 1.681022 0.975106 0.213387 0.000000 0.000001 -1.745239
  time 20
    0 -0.202733 -0.457821 36.821262 0.000000 0.000000 -1.570839
    1 0.199225 0.000000 0.000000 -1.570795 -1.570796 0.000000
    2 -0.000004 0.000006 3.319508 -0.001211 -3.100711 -0.009055
    3 16.897085 0.000000 0.000000 0.000000 0.000000 -0.137579
    4 16.589727 0.000000 0.000000 0.001600 -0.040858 0.128493
    5 0.000005 -0.000003 -3.319508 0.002249 3.115348 -0.013070
    6 16.897085 0.000000 0.000000 0.000000 0.000000 -0.145497
    7 16.589727 0.000000 0.000000 -0.002609 0.026187 0.132399
    8 3.488968 -0.004234 0.000004 -0.000004 -0.000001 -0.019521
    9 5.318531 -0.004538 0.000000 0.000000 0.000000 -0.032948
    10 5.701826 -0.005492 0.000000 0.000000 0.000000 -0.032931
    11 6.899484 -0.001818 0.000000 0.000000 -0.000001 0.220023
    12 0.000003 0.001927 2.008302 -0.000013 -1.373703 2.920777
    13 4.746895 0.000000 0.000000 0.352028 1.187998 0.362289
    14 10.950472 0.000000 0.000000 0.000000 0.000000 -0.200687
    15 10.950467 0.000000 0.000000 -1.568795 0.000000 0.000000
    16 0.000003 0.001941 -2.008302 -0.000013 1.379508 2.920748
    17 4.746896 0.000000 -0.000003 -0.617679 -1.175876 0.634313
    18 10.950466 0.000000 0.000000 0.000000 0.000000 -0.404961
    19 10.950471 0.000000 0.000000 1.568795 0.000000 0.000000
    20 2.428221 0.000000 0.000000 0.000000 0.000000 0.005971
    21 1.681022 0.975106 0.213387 0.000000 0.000001 -1.745239
  time 21
    0 -0.202733 -0.475031 36.821262 0.000000 0.000000 -1.570839
    1 0.179693 0.000000 0.000000 -1.570795 -1.570796 0.000000
    2 -0.000004 0.000006 3.319508 -0.001115 -3.100711 -0.010109
    3 16.897085 0.000000 0.000000 0.000000 0.000000 -0.139596
    4 16.589727 0.000000 0.000000 0.001600 -0.040858 0.129464
    5 0.000005 -0.000003 -3.319508 0.002153 3.115348 -0.014042
    6 16.897085 0.000000 0.000000 0.000000 0.000000 -0.147351
    7 16.589727 0.000000 0.000000 -0.002609 0.026187 0.133280
    8 3.488968 -0.004234 0.000004 -0.000004 -0.000001 -0.017390
    9 5.318531 -0.004538 0.000000 0.000000 0.000000 -0.032220
    10 5.701826 -0.005492 0.000000 0.000000 0.000000 -0.032228
    11 6.899484 -0.001818 0.000000 0.000000 -0.000001 0.233601
    12 0.000003 0.001927 2.008302 -0.000013 -1.365167 2.907259
    13 4.746895 0.000000 0.000000 0.324002 1.182822 0.333767
    14 10.950472 0.000000 0.000000 0.000000 0.000000 -0.190618
    15 10.950467 0.000000 0.000000 -1.568795 0.000000 0.000000
    16 0.000003 0.001941 -2.008302 -0.000013 1.373098 2.907229
    17 4.746896 0.000000 -0.000003 -0.596563 -1.173978 0.613384
    18 10.950466 0.000000 0.000000 0.000000 0.000000 -0.400562
    19 10.950471 0.000000 0.000000 1.568795 0.000000 0.000000
    20 2.428221 0.000000 0.000000 0.000000 0.000000 -0.007569
    21 1.681022 0.975106 0.213387 0.000000 0.000001 -1.745239
  time 22
    0 -0.202733 -0.492242 36.821262 0.000000 0.000000 -1.570839
    1 0.156255 0.000000 0.000000 -1.570795 -1.570796 0.000000
    2 -0.000004 0.000006 3.319508 -0.001115 -3.100711 -0.011337
    3 16.897085 0.000000 0.000000 0.000000 0.000000 -0.141763
    4 16.589727 0.000000 0.000000 0.001600 -0.040858 0.130434
    5 0.000005 -0.000003 -3.319508 0.002153 3.115348 -0.015160
    6 16.897085 0.000000 0.000000 0.000000 0.000000 -0.149419
    7 16.589727 0.000000 0.000000 -0.002609 0.026187 0.134220
    8 3.488968 -0.004234 0.000004 -0.000004 -0.000001 -0.015112
    9 5.318531 -0.004538 0.000000 0.000000 0.000000 -0.031466
    10 5.701826 -0.005492 0.000000 0.000000 0.000000 -0.031467
    11 6.899484 -0.001818 0.000000 0.000000 -0.000001 0.248175
    12 0.000003 0.001927 2.008302 -0.000013 -1.355949 2.892590
    13 4.746895 0.000000 0.000000 0.294641 1.177011 0.303944
    14 10.950472 0.000000 0.000000 0.000000 0.000000 -0.179634
    15 10.950467 0.000000 0.000000 -1.568795 0.000000 0.000000
    16 0.000003 0.001941 -2.008302 -0.000013 1.366227 2.892561
    17 4.746896 0.000000 -0.000003 -0.574015 -1.171700 0.591117
    18 10.950466 0.000000 0.000000 0.000000 0.000000 -0.395932
    19 10.950471 0.000000 0.000000 1.568795 0.000000 0.000000
    20 2.428221 0.000000 0.000000 0.000000 0.000000 -0.022194
    21 1.681022 0.975106 0.213387 0.000000 0.000001 -1.745239
  time 23
    0 -0.202733 -0.509452 36.821262 0.000000 0.000000 -1.570839
    1 0.132817 0.000000 0.000000 -1.570795 -1.570796 0.000000
    2 -0.000004 0.000006 3.319508 -0.001020 -3.100711 -0.012566
    3 16.897085 0.000000 0.000000 0.000000 0.000000 -0.144079
    4 16.589727 0.000000 0.000000 0.001600 -0.040858 0.131473
    5 0.000005 -0.000003 -3.319508 0.002153 3.115348 -0.016424
    6 16.897085 0.000000 0.000000 0.000000 0.000000 -0.151630
    7 16.589727 0.000000 0.000000 -0.002609 0.026187 0.135160
    8 3.488968 -0.004234 0.000004 -0.000004 -0.000001 -0.012688
    9 5.318531 -0.004538 0.000000 0.000000 0.000000 -0.030662
    10 5.701826 -0.005492 0.000000 0.000000 0.000000 -0.030647
    11 6.899484 -0.001818 0.000000 0.000000 -0.000001 0.263310
    12 0.000003 0.001927 2.008302 -0.000013 -1.346369 2.877441
    13 4.746895 0.000000 0.000000 0.265090 1.170564 0.273750
    14 10.950472 0.000000 0.000000 0.000000 0.000000 -0.168268
    15 10.950467 0.000000 0.000000 -1.568795 0.000000 0.000000
    16 0.000003 0.001941 -2.008302 -0.000013 1.359011 2.877413
    17 4.746896 0.000000 -0.000003 -0.550894 -1.169137 0.568276
    18 10.950466 0.000000 0.000000 0.000000 0.000000 -0.390993
    19 10.950471 0.000000 0.000000 1.568795 0.000000 0.000000
    20 2.428221 0.000000 0.000000 0.000000 0.000000 -0.037330
    21 1.681022 0.975106 0.213387 0.000000 0.000001 -1.745239
  time 24
    0 -0.202733 -0.526662 36.821262 0.000000 0.000000 -1.570839
    1 0.109378 0.000000 0.000000 -1.570795 -1.570796 0.000000
    2 -0.000004 0.000006 3.319508 -0.001020 -3.100711 -0.013971
    3 16.897085 0.000000 0.000000 0.000000 0.000000 -0.146395
    4 16.589727 0.000000 0.000000 0.001600 -0.040858 0.132443
    5 0.000005 -0.000003 -3.319508 0.002058 3.115348 -0.017737
    6 16.897085 0.000000 0.000000 0.000000 0.000000 -0.153841
    7 16.589727 0.000000 0.000000 -0.002609 0.026187 0.136042
    8 3.488968 -0.004234 0.000004 -0.000004 -0.000001 -0.010263
    9 5.318531 -0.004538 0.000000 0.000000 0.000000 -0.029859
    10 5.701826 -0.005492 0.000000 0.000000 0.000000 -0.029856
    11 6.899484 -0.001818 0.000000 0.000000 -0.000001 0.278632
    12 0.000003 0.001927 2.008302 -0.000013 -1.336697 2.862101
    13 4.746895 0.000000 0.000000 0.236301 1.163663 0.244206
    14 10.950472 0.000000 0.000000 0.000000 0.000000 -0.156826
    15 10.950467 0.000000 0.000000 -1.568795 0.000000 0.000000
    16 0.000003 0.001941 -2.008302 -0.000013 1.351756 2.862073
    17 4.746896 0.000000 -0.000003 -0.527963 -1.166289 0.545436
    18 10.950466 0.000000 0.000000 0.000000 0.000000 -0.386054
    19 10.950471 0.000000 0.000000 1.568795 0.000000 0.000000
    20 2.428221 0.000000 0.000000 0.000000 0.000000 -0.052657
    21 1.681022 0.975106 0.213387 0.000000 0.000001 -1.745239
  time 25
    0 -0.202733 -0.543873 36.821262 0.000000 0.000000 -1.570839
    1 0.085940 0.000000 0.000000 -1.570795 -1.570796 0.000000
    2 -0.000004 0.000006 3.319508 -0.000924 -3.100711 -0.015375
    3 16.897085 0.000000 0.000000 0.000000 0.000000 -0.148786
    4 16.589727 0.000000 0.000000 0.001600 -0.040858 0.133344
    5 0.000005 -0.000003 -3.319508 0.002058 3.115348 -0.019098
    6 16.897085 0.000000 0.000000 0.000000 0.000000 -0.156051
    7 16.589727 0.000000 0.000000 -0.002609 0.026187 0.136923
    8 3.488968 -0.004234 0.000004 -0.000004 -0.000001 -0.007911
    9 5.318531 -0.004538 0.000000 0.000000 0.000000 -0.029055
    10 5.701826 -0.005492 0.000000 0.000000 0.000000 -0.029066
    11 6.899484 -0.001818 0.000000 0.000000 -0.000001 0.293705
    12 0.000003 0.001927 2.008302 -0.000013 -1.327208 2.847144
    13 4.746895 0.000000 0.000000 0.209133 1.156580 0.216148
    14 10.950472 0.000000 0.000000 0.000000 0.000000 -0.145537
    15 10.950467 0.000000 0.000000 -1.568795 0.000000 0.000000
    16 0.000003 0.001941 -2.008302 -0.000013 1.344655 2.847117
    17 4.746896 0.000000 -0.000003 -0.505701 -1.163347 0.523360
    18 10.950466 0.000000 0.000000 0.000000 0.000000 -0.381193
    19 10.950471 0.000000 0.000000 1.568795 0.000000 0.000000
    20 2.428221 0.000000 0.000000 0.000000 0.000000 -0.067730
    21 1.681022 0.975106 0.213387 0.000000 0.000001 -1.745239
  time 26
    0 -0.202733 -0.543873 36.821262 0.000000 0.000000 -1.570839
    1 0.062502 0.000000 0.000000 -1.570795 -1.570796 0.000000
    2 -0.000004 0.000006 3.319508 -0.000828 -3.100711 -0.016779
    3 16.897085 0.000000 0.000000 0.000000 0.000000 -0.150953
    4 16.589727 0.000000 0.000000 0.001600 -0.040858 0.134245
    5 0.000005 -0.000003 -3.319508 0.002058 3.115348 -0.020410
    6 16.897085 0.000000 0.000000 0.000000 0.000000 -0.158191
    7 16.589727 0.000000 0.000000 -0.002609 0.026187 0.137746
    8 3.488968 -0.004234 0.000004 -0.000004 -0.000001 -0.005634
    9 5.318531 -0.004538 0.000000 0.000000 0.000000 -0.028302
    10 5.701826 -0.005492 0.000000 0.000000 0.000000 -0.028305
    11 6.899484 -0.001818 0.000000 0.000000 -0.000001 0.307968
    12 0.000003 0.001927 2.008302 -0.000013 -1.318172 2.832859
    13 4.746895 0.000000 0.000000 0.184157 1.149588 0.190321
    14 10.950472 0.000000 0.000000 0.000000 0.000000 -0.134782
    15 10.950467 0.000000 0.000000 -1.568795 0.000000 0.000000
    16 0.000003 0.001941 -2.008302 -0.000013 1.337861 2.832832
    17 4.746896 0.000000 -0.000003 -0.484873 -1.160404 0.502526
    18 10.950466 0.000000 0.000000 0.000000 0.000000 -0.376640
    19 10.950471 0.000000 0.000000 1.568795 0.000000 0.000000
    20 2.428221 0.000000 0.000000 0.000000 0.000000 -0.081971
    21 1.681022 0.975106 0.213387 0.000000 0.000001 -1.745239
  time 27
    0 -0.202733 -0.561083 36.821262 0.000000 0.000000 -1.570839
    1 0.042970 0.000000 0.000000 -1.570795 -1.570796 0.000000
    2 -0.000004 0.000006 3.319508 -0.000828 -3.100711 -0.018096
    3 16.897085 0.000000 0.000000 0.000000 0.000000 -0.153045
    4 16.589727 0.000000 0.000000 0.001600 -0.040858 0.135007
    5 0.000005 -0.000003 -3.319508 0.001962 3.115348 -0.021674
    6 16.897085 0.000000 0.000000 0.000000 0.000000 -0.160188
    7 16.589727 0.000000 0.000000 -0.002609 0.026187 0.138451
    8 3.488968 -0.004234 0.000004 -0.000004 -0.000001 -0.003576
    9 5.318531 -0.004538 0.000000 0.000000 0.000000 -0.027624
    10 5.701826 -0.005492 0.000000 0.000000 0.000000 -0.027631
    11 6.899484 -0.001818 0.000000 0.000000 -0.000001 0.321110
    12 0.000003 0.001927 2.008302 -0.000013 -1.309908 2.819724
    13 4.746895 0.000000 0.000000 0.162137 1.143050 0.167373
    14 10.950472 0.000000 0.000000 0.000000 0.000000 -0.124942
    15 10.950467 0.000000 0.000000 -1.568795 0.000000 0.000000
    16 0.000003 0.001941 -2.008302 -0.000013 1.331680 2.819697
    17 4.746896 0.000000 -0.000003 -0.466051 -1.157462 0.483795
    18 10.950466 0.000000 0.000000 0.000000 0.000000 -0.372396
    19 10.950471 0.000000 0.000000 1.568795 0.000000 0.000000
    20 2.428221 0.000000 0.000000 0.000000 0.000000 -0.095128
    21 1.681022 0.975106 0.213387 0.000000 0.000001 -1.745239
  time 28
    0 -0.202733 -0.578294 36.821262 0.000000 0.000000 -1.570839
    1 0.023438 0.000000 0.000000 -1.570795 -1.570796 0.000000
    2 -0.000004 0.000006 3.319508 -0.000732 -3.100711 -0.019237
    3 16.897085 0.000000 0.000000 0.000000 0.000000 -0.154913
    4 16.589727 0.000000 0.000000 0.001600 -0.040858 0.135631
    5 0.000005 -0.000003 -3.319508 0.001962 3.115348 -0.022841
    6 16.897085 0.000000 0.000000 0.000000 0.000000 -0.161970
    7 16.589727 0.000000 0.000000 -0.002609 0.026187 0.139097
    8 3.488968 -0.004234 0.000004 -0.000004 -0.000001 -0.001776
    9 5.318531 -0.004538 0.000000 0.000000 0.000000 -0.027021
    10 5.701826 -0.005492 0.000000 0.000000 0.000000 -0.027016
    11 6.899484 -0.001818 0.000000 0.000000 -0.000001 0.332571
    12 0.000003 0.001927 2.008302 -0.000013 -1.302643 2.808219
    13 4.746895 0.000000 0.000000 0.143357 1.137057 0.147770
    14 10.950472 0.000000 0.000000 0.000000 0.000000 -0.116322
    15 10.950467 0.000000 0.000000 -1.568795 0.000000 0.000000
    16 0.000003 0.001941 -2.008302 -0.000013 1.326230 2.808192
    17 4.746896 0.000000 -0.000003 -0.449808 -1.154804 0.467549
    18 10.950466 0.000000 0.000000 0.000000 0.000000 -0.368691
    19 10.950471 0.000000 0.000000 1.568795 0.000000 0.000000
    20 2.428221 0.000000 0.000000 0.000000 0.000000 -0.106560
    21 1.681022 0.975106 0.213387 0.000000 0.000001 -1.745239
  time 29
    0 -0.202733 -0.578294 36.821262 0.000000 0.000000 -1.570839
    1 0.007813 0.000000 0.000000 -1.570795 -1.570796 0.000000
    2 -0.000004 0.000006 3.319508 -0.000732 -3.100711 -0.020290
    3 16.897085 0.000000 0.000000 0.000000 0.000000 -0.156482
    4 16.589727 0.000000 0.000000 0.001600 -0.040858 0.136116
    5 0.000005 -0.000003 -3.319508 0.001962 3.115348 -0.023862
    6 16.897085 0.000000 0.000000 0.000000 0.000000 -0.163468
    7 16.589727 0.000000 0.000000 -0.002609 0.026187 0.139567
    8 3.488968 -0.004234 0.000004 -0.000004 -0.000001 0.000024
    9 5.318531 -0.004538 0.000000 0.000000 0.000000 -0.026519
    10 5.701826 -0.005492 0.000000 0.000000 0.000000 -0.026518
    11 6.899484 -0.001818 0.000000 0.000000 -0.000001 0.341975
    12 0.000003 0.001927 2.008302 -0.000013 -1.296695 2.798823
    13 4.746895 0.000000 0.000000 0.128391 1.131972 0.132069
    14 10.950472 0.000000 0.000000 0.000000 0.000000 -0.109304
    15 10.950467 0.000000 0.000000 -1.568795 0.000000 0.000000
    16 0.000003 0.001941 -2.008302 -0.000013 1.321777 2.798797
    17 4.746896 0.000000 -0.000003 -0.436623 -1.152526 0.454361
    18 10.950466 0.000000 0.000000 0.000000 0.000000 -0.365682
    19 10.950471 0.000000 0.000000 1.568795 0.000000 0.000000
    20 2.428221 0.000000 0.000000 0.000000 0.000000 -0.116012
    21 1.681022 0.975106 0.213387 0.000000 0.000001 -1.745239
  time 30
    0 -0.202733 -0.578294 36.821262 0.000000 0.000000 -1.570839
    1 0.000000 0.000000 0.000000 -1.570795 -1.570796 0.000000
    2 -0.000004 0.000006 3.319508 -0.000732 -3.100711 -0.021168
    3 16.897085 0.000000 0.000000 0.000000 0.000000 -0.157678
    4 16.589727 0.000000 0.000000 0.001600 -0.040858 0.136462
    5 0.000005 -0.000003 -3.319508 0.001962 3.115348 -0.024688
    6 16.897085 0.000000 0.000000 0.000000 0.000000 -0.164609
    7 16.589727 0.000000 0.000000 -0.002609 0.026187 0.139861
    8 3.488968 -0.004234 0.000004 -0.000004 -0.000001 0.000796
    9 5.318531 -0.004538 0.000000 0.000000 0.000000 -0.026167
    10 5.701826 -0.005492 0.000000 0.000000 0.000000 -0.026167
    11 6.899484 -0.001818 0.000000 0.000000 -0.000001 0.348889
    12 0.000003 0.001927 2.008302 -0.000013 -1.292336 2.791920
    13 4.746895 0.000000 0.000000 0.117714 1.128249 0.120920
    14 10.950472 0.000000 0.000000 0.000000 0.000000 -0.104118
    15 10.950467 0.000000 0.000000 -1.568795 0.000000 0.000000
    16 0.000003 0.001941 -2.008302 -0.000013 1.318476 2.791894
    17 4.746896 0.000000 -0.000003 -0.427069 -1.150817 0.444804
    18 10.950466 0.000000 0.000000 0.000000 0.000000 -0.363444
    19 10.950471 0.000000 0.000000 1.568795 0.000000 0.000000
    20 2.428221 0.000000 0.000000 0.000000 0.000000 -0.122909
    21 1.681022 0.975106 0.213387 0.000000 0.000001 -1.745239
end
