version 1
nodes
  0 "Bip02" -1
  1 "Bip02 Pelvis" 0
  2 "Bip02 L Leg" 1
  3 "Bip02 L Leg1" 2
  4 "Bip02 L Foot" 3
  5 "Bip02 R Leg" 1
  6 "Bip02 R Leg1" 5
  7 "Bip02 R Foot" 6
  8 "Bip02 Spine" 1
  9 "Bip02 Spine1" 8
  10 "Bip02 Spine2" 9
  11 "Bip02 Neck" 10
  12 "Bip02 L Arm" 11
  13 "Bip02 L Arm1" 12
  14 "Bip02 L Arm2" 13
  15 "Bip02 L Hand" 14
  16 "Bip02 R Arm" 11
  17 "Bip02 R Arm1" 16
  18 "Bip02 R Arm2" 17
  19 "Bip02 R Hand" 18
  20 "Bip02 Head" 11
  21 "Bone01" 20
end
skeleton
  time 0
    0 -0.202733 -0.578294 36.821262 0.000000 0.000000 -1.570839
    1 0.000000 0.000000 0.000000 -1.570795 -1.570796 0.000000
    2 -0.000004 0.000006 3.319508 -0.000732 -3.100711 -0.021168
    3 16.897085 0.000000 0.000000 0.000000 0.000000 -0.157678
    4 16.589727 0.000000 0.000000 0.001600 -0.040858 0.136462
    5 0.000005 -0.000003 -3.319508 0.001962 3.115348 -0.024688
    6 16.897085 0.000000 0.000000 0.000000 0.000000 -0.164609
    7 16.589727 0.000000 0.000000 -0.002609 0.026187 0.139861
    8 3.488968 -0.004234 0.000004 -0.000004 -0.000001 0.000796
    9 5.318531 -0.004538 0.000000 0.000000 0.000000 -0.026167
    10 5.701826 -0.005492 0.000000 0.000000 0.000000 -0.026167
    11 6.899484 -0.001818 0.000000 0.000000 -0.000001 0.348889
    12 0.000003 0.001927 2.008302 -0.000013 -1.292336 2.791920
    13 4.746895 0.000000 0.000000 0.117714 1.128249 0.120920
    14 10.950472 0.000000 0.000000 0.000000 0.000000 -0.104118
    15 10.950467 0.000000 0.000000 -1.568795 0.000000 0.000000
    16 0.000003 0.001941 -2.008302 -0.000013 1.318476 2.791894
    17 4.746896 0.000000 -0.000003 -0.427069 -1.150817 0.444804
    18 10.950466 0.000000 0.000000 0.000000 0.000000 -0.363444
    19 10.950471 0.000000 0.000000 1.568795 0.000000 0.000000
    20 2.428221 0.000000 0.000000 0.000000 0.000000 -0.122909
    21 1.681022 0.975106 0.213387 0.000000 0.000001 -1.745239
  time 1
    0 -0.202733 -0.629925 36.821262 0.000000 0.000000 -1.570839
    1 -0.078127 0.000000 0.000000 -0.000019 -1.572629 -1.570740
    2 -0.000004 0.000006 3.319508 -0.000732 -3.098890 -0.018798
    3 16.897085 0.000000 0.000000 0.000000 0.000000 -0.151028
    4 16.589727 0.000000 0.000000 0.001600 -0.040858 0.132166
    5 0.000005 -0.000003 -3.319508 0.002153 3.117169 -0.017688
    6 16.897085 0.000000 0.000000 0.000000 0.000000 -0.148492
    7 16.589727 0.000000 0.000000 -0.002609 0.026187 0.130812
    8 3.488968 -0.004234 -0.003902 -0.000004 0.001869 0.004984
    9 5.318531 -0.004538 0.000000 0.000000 0.000000 -0.019738
    10 5.701826 -0.005492 0.000000 0.000000 0.000000 -0.014396
    11 6.899484 -0.001818 0.000000 0.000000 -0.000001 0.348889
    12 0.000003 0.001927 2.008302 -0.000013 -1.312542 2.791920
    13 4.746895 0.000000 0.000000 0.160421 1.144957 0.170625
    14 10.950472 0.000000 0.000000 0.000000 0.000000 -0.148969
    15 10.950467 0.000000 0.000000 -1.568795 0.000000 0.000000
    16 0.000003 0.001941 -2.008302 -0.000013 1.351142 2.791894
    17 4.746896 0.000000 -0.000003 -0.497102 -1.171225 0.518104
    18 10.950466 0.000000 0.000000 0.000000 0.000000 -0.417385
    19 10.950471 0.000000 0.000000 1.568795 0.000000 0.000000
    20 2.428221 0.000000 0.000000 0.000000 0.000000 -0.145326
    21 1.681022 0.975106 0.213387 0.000000 0.000001 -1.745239
  time 2
    0 -0.196986 -0.767609 36.821262 0.000000 0.000000 -1.570839
    1 -0.187506 0.000000 0.000000 -0.000019 -1.575203 -1.570740
    2 -0.000004 0.000006 3.319508 -0.001020 -3.096493 -0.011337
    3 16.897085 0.000000 0.000000 0.000000 0.000000 -0.137205
    4 16.589727 0.000000 0.000000 0.001600 -0.040673 0.125860
    5 0.000005 -0.000003 -3.319508 0.002536 3.119660 -0.002036
    6 16.897085 0.000000 0.000000 0.000000 0.000000 -0.118112
    7 16.589727 0.000000 0.000000 -0.002609 0.026296 0.116005
    8 3.488968 -0.004234 -0.011715 0.000024 0.004430 0.010863
    9 5.318531 -0.004538 0.000000 0.000000 0.000000 -0.010998
    10 5.701826 -0.005492 0.000000 0.000000 0.000000 0.002060
    11 6.899484 -0.001818 0.000000 0.000000 -0.000001 0.348889
    12 0.000003 0.001927 2.008302 -0.000013 -1.338150 2.791920
    13 4.746895 0.000000 0.000000 0.233060 1.163481 0.253404
    14 10.950472 0.000000 0.000000 0.000000 0.000000 -0.214646
    15 10.950467 0.000000 0.000000 -1.568795 0.000000 0.000000
    16 0.000003 0.001941 -2.008302 -0.000013 1.392905 2.791894
    17 4.746896 0.000000 -0.000003 -0.608793 -1.190779 0.634504
    18 10.950466 0.000000 0.000000 0.000000 0.000000 -0.496638
    19 10.950471 0.000000 0.000000 1.568795 0.000000 0.000000
    20 2.428221 0.000000 0.000000 0.000000 0.000000 -0.176364
    21 1.681022 0.975106 0.213387 0.000000 0.000001 -1.745239
  time 3
    0 -0.179745 -0.956923 36.821262 0.000000 0.000000 -1.570839
    1 -0.320322 0.000000 0.000000 -3.141571 -1.563287 1.570788
    2 -0.000004 0.000006 3.319508 -0.001595 -3.093905 0.000073
    3 16.897085 0.000000 0.000000 0.000000 0.000000 -0.117554
    4 16.589727 0.000000 0.000000 0.001630 -0.040267 0.117615
    5 0.000005 -0.000003 -3.319508 0.003015 3.122438 0.027374
    6 16.897085 0.000000 0.000000 0.000000 0.000000 -0.062202
    7 16.589727 0.000000 0.000000 -0.002609 0.026650 0.089504
    8 3.488968 -0.004234 -0.023434 0.000110 0.007479 0.017770
    9 5.318531 -0.004538 0.000000 0.000000 0.000000 -0.000726
    10 5.701826 -0.005492 0.000000 0.000000 0.000000 0.021385
    11 6.899484 -0.001818 0.000000 0.000000 -0.000001 0.348889
    12 0.000003 0.001927 2.008302 -0.000013 -1.344643 2.791920
    13 4.746895 0.000000 0.000000 0.292925 1.162210 0.324476
    14 10.950472 0.000000 0.000000 0.000000 0.000000 -0.283373
    15 10.950467 0.000000 0.000000 -1.568795 0.000000 0.000000
    16 0.000003 0.001941 -2.008302 -0.000013 1.405649 2.791894
    17 4.746896 0.000000 -0.000003 -0.675960 -1.184419 0.709333
    18 10.950466 0.000000 0.000000 0.000000 0.000000 -0.580366
    19 10.950471 0.000000 0.000000 1.568795 0.000000 0.000000
    20 2.428221 0.000000 0.000000 0.000000 0.000000 -0.212895
    21 1.681022 0.975106 0.213387 0.000000 0.000001 -1.745239
  time 4
    0 -0.168251 -1.163449 36.868193 0.000000 0.000000 -1.570839
    1 -0.460952 0.000000 0.000000 -0.000019 -1.581724 -1.570788
    2 -0.000004 0.000006 3.319508 -0.002362 -3.090933 0.015170
    3 16.897085 0.000000 0.000000 0.000000 0.000000 -0.091926
    4 16.589727 0.000000 0.000000 0.001659 -0.039787 0.107082
    5 0.000005 -0.000003 -3.319508 0.003493 3.125504 0.059603
    6 16.897085 0.000000 0.000000 0.000000 0.000000 -0.001800
    7 16.589727 0.000000 0.000000 -0.002576 0.027114 0.061358
    8 3.488968 -0.004234 -0.035153 0.000252 0.010932 0.025191
    9 5.318531 -0.004538 0.000000 0.000000 0.000000 0.010525
    10 5.701826 -0.005492 0.000000 0.000000 0.000000 0.042204
    11 6.899484 -0.001818 0.000000 0.000000 -0.000001 0.348889
    12 0.000003 0.001927 2.008302 -0.000013 -1.320942 2.791920
    13 4.746895 0.000000 0.000000 0.334201 1.130156 0.380684
    14 10.950472 0.000000 0.000000 0.000000 0.000000 -0.360948
    15 10.950467 0.000000 0.000000 -1.568795 0.000000 0.000000
    16 0.000003 0.001941 -2.008302 -0.000013 1.373712 2.791894
    17 4.746896 0.000000 -0.000003 -0.672043 -1.140851 0.720323
    18 10.950466 0.000000 0.000000 0.000000 0.000000 -0.674358
    19 10.950471 0.000000 0.000000 1.568795 0.000000 0.000000
    20 2.428221 0.000000 0.000000 0.000000 0.000000 -0.252364
    21 1.681022 0.975106 0.213387 0.000000 0.000001 -1.745239
  time 5
    0 -0.156757 -1.404395 36.915124 0.000000 0.000000 -1.570839
    1 -0.601581 0.000000 0.000000 -3.141571 -1.556201 1.570788
    2 -0.000004 0.000006 3.319508 -0.003512 -3.087674 0.034392
    3 16.897085 0.000000 0.000000 0.000000 0.000000 -0.058377
    4 16.589727 0.000000 0.000000 0.001659 -0.039491 0.092670
    5 0.000005 -0.000003 -3.319508 0.003302 3.128954 0.062082
    6 16.897085 0.000000 0.000000 0.000000 0.000000 -0.001800
    7 16.589727 0.000000 0.000000 -0.002544 0.027386 0.063826
    8 3.488968 -0.004234 -0.050778 0.000452 0.014586 0.032650
    9 5.318531 -0.004538 0.000000 0.000000 0.000000 0.022228
    10 5.701826 -0.005492 0.000000 0.000000 0.000000 0.063022
    11 6.899484 -0.001818 0.000000 0.000000 -0.000001 0.431042
    12 0.000003 0.001927 2.008302 -0.000013 -1.283119 2.709754
    13 4.746895 0.000000 0.000000 0.365469 1.082757 0.430482
    14 10.950472 0.000000 0.000000 0.000000 0.000000 -0.445313
    15 10.950467 0.000000 0.000000 -1.568795 0.000000 0.000000
    16 0.000003 0.001941 -2.008302 -0.000013 1.320971 2.709827
    17 4.746896 0.000000 -0.000003 -0.645386 -1.078773 0.714303
    18 10.950466 0.000000 0.000000 0.000000 0.000000 -0.776375
    19 10.950471 0.000000 0.000000 1.568795 0.000000 0.000000
    20 2.428221 0.000000 0.000000 0.000000 0.000000 -0.237675
    21 1.681022 0.975106 0.213387 0.000000 0.000001 -1.745239
  time 6
    0 -0.168251 -1.610920 36.915124 0.000000 0.000000 -1.570839
    1 -0.734397 0.000000 0.000000 -0.000019 -1.589198 -1.570788
    2 -0.000004 0.000006 3.319508 -0.005334 -3.083744 0.064761
    3 16.897085 0.000000 0.000000 0.000000 0.000000 -0.001815
    4 16.589727 0.000000 0.000000 0.001659 -0.039787 0.066408
    5 0.000005 -0.000003 -3.319508 0.003015 3.133073 0.064318
    6 16.897085 0.000000 0.000000 0.000000 0.000000 -0.001800
    7 16.589727 0.000000 0.000000 -0.002576 0.027059 0.066059
    8 3.488968 -0.004234 -0.062498 0.000708 0.018383 0.039410
    9 5.318531 -0.004538 0.000000 0.000000 0.000000 0.033630
    10 5.701826 -0.005492 0.000000 0.000000 0.000000 0.081938
    11 6.899484 -0.001818 0.000000 0.000000 -0.000001 0.555673
    12 0.000003 0.001927 2.008302 -0.000013 -1.251562 2.585116
    13 4.746895 0.000000 0.000000 0.380626 1.044528 0.462348
    14 10.950472 0.000000 0.000000 0.000000 0.000000 -0.514574
    15 10.950467 0.000000 0.000000 -1.568795 0.000000 0.000000
    16 0.000003 0.001941 -2.008302 -0.000013 1.275753 2.585095
    17 4.746896 0.000000 -0.000003 -0.620927 -1.027991 0.709046
    18 10.950466 0.000000 0.000000 0.000000 0.000000 -0.862187
    19 10.950471 0.000000 0.000000 1.568795 0.000000 0.000000
    20 2.428221 0.000000 0.000000 0.000000 0.000000 -0.193033
    21 1.681022 0.975106 0.213387 0.000000 0.000001 -1.745239
  time 7
    0 -0.202733 -1.765814 36.915124 0.000000 0.000000 -1.570839
    1 -0.839869 0.000000 0.000000 -0.000019 -1.593005 -1.570788
    2 -0.000004 0.000006 3.319508 -0.005717 -3.078855 0.066517
    3 16.897085 0.000000 0.000000 0.000000 0.000000 -0.001815
    4 16.589727 0.000000 0.000000 0.001600 -0.040821 0.068210
    5 0.000005 -0.000003 -3.319508 0.002823 3.137864 0.066019
    6 16.897085 0.000000 0.000000 0.000000 0.000000 -0.001800
    7 16.589727 0.000000 0.000000 -0.002609 0.026078 0.067822
    8 3.488968 -0.004234 -0.074217 0.000964 0.022181 0.044406
    9 5.318531 -0.004538 0.000000 0.000000 0.000000 0.043600
    10 5.701826 -0.005492 0.000000 0.000000 0.000000 0.095934
    11 6.899484 -0.001818 0.000000 0.000000 -0.000001 0.636704
    12 0.000003 0.001927 2.008302 -0.000013 -1.239983 2.504101
    13 4.746895 0.000000 0.000000 0.387775 1.030181 0.479071
    14 10.950472 0.000000 0.000000 0.000000 0.000000 -0.554239
    15 10.950467 0.000000 0.000000 -1.568795 0.000000 0.000000
    16 0.000003 0.001941 -2.008302 -0.000013 1.257444 2.504083
    17 4.746896 0.000000 -0.000003 -0.614334 -1.006160 0.713251
    18 10.950466 0.000000 0.000000 0.000000 0.000000 -0.915434
    19 10.950471 0.000000 0.000000 1.568795 0.000000 0.000000
    20 2.428221 0.000000 0.000000 0.000000 0.000000 -0.175215
    21 1.681022 0.975106 0.213387 0.000000 0.000001 -1.745239
  time 8
    0 -0.294684 -1.834656 36.915124 0.000000 0.000000 -1.570839
    1 -0.882839 0.000000 0.000000 -3.141571 -1.544920 1.570788
    2 -0.000004 0.000006 3.319508 -0.004663 -3.072336 0.047733
    3 16.897085 0.000000 0.000000 0.000000 0.000000 -0.040594
    4 16.589727 0.000000 0.000000 0.001422 -0.043518 0.088235
    5 0.000005 -0.000003 -3.319508 0.002536 3.144284 0.066457
    6 16.897085 0.000000 0.000000 0.000000 0.000000 -0.001800
    7 16.589727 0.000000 0.000000 -0.002773 0.023353 0.068233
    8 3.488968 -0.004234 -0.089842 0.001135 0.025864 0.044406
    9 5.318531 -0.004538 0.000000 0.000000 0.000000 0.054198
    10 5.701826 -0.005492 0.000000 0.000000 0.000000 0.095934
    11 6.899484 -0.001818 0.000000 0.000000 -0.000001 0.675944
    12 0.000003 0.001927 2.008302 -0.000013 -1.251426 2.464887
    13 4.746895 0.000000 0.000000 0.412465 1.036901 0.506479
    14 10.950472 0.000000 0.000000 0.000000 0.000000 -0.563392
    15 10.950467 0.000000 0.000000 -1.568795 0.000000 0.000000
    16 0.000003 0.001941 -2.008302 -0.000013 1.271493 2.464870
    17 4.746896 0.000000 -0.000003 -0.648539 -1.008628 0.749471
    18 10.950466 0.000000 0.000000 0.000000 0.000000 -0.937427
    19 10.950471 0.000000 0.000000 1.568795 0.000000 0.000000
    20 2.428221 0.000000 0.000000 0.000000 0.000000 -0.174704
    21 1.681022 0.975106 0.213387 0.000000 0.000001 -1.745239
  time 9
    0 -0.369395 -1.834656 36.915124 0.000000 0.000000 -1.570839
    1 -0.937529 0.000000 0.000000 -0.000019 -1.600056 -1.570788
    2 -0.000004 0.000006 3.319508 -0.002458 -3.066393 0.017101
    3 16.897085 0.000000 0.000000 0.000000 0.000000 -0.099995
    4 16.589727 0.000000 0.000000 0.001273 -0.045956 0.117060
    5 0.000005 -0.000003 -3.319508 0.002345 3.149936 0.065290
    6 16.897085 0.000000 0.000000 0.000000 0.000000 -0.001800
    7 16.589727 0.000000 0.000000 -0.002936 0.021009 0.067058
    8 3.488968 -0.004234 -0.101561 0.001278 0.029230 0.044406
    9 5.318531 -0.004538 0.000000 0.000000 0.000000 0.066655
    10 5.701826 -0.005492 0.000000 0.000000 0.000000 0.095934
    11 6.899484 -0.001818 0.000000 0.000000 -0.000001 0.703224
    12 0.000003 0.001927 2.008302 -0.000013 -1.275536 2.437563
    13 4.746895 0.000000 0.000000 0.428480 1.060419 0.520321
    14 10.950472 0.000000 0.000000 0.000000 0.000000 -0.554620
    15 10.950467 0.000000 0.000000 -1.568795 0.000000 0.000000
    16 0.000003 0.001941 -2.008302 -0.000013 1.303391 2.437547
    17 4.746896 0.000000 -0.000003 -0.692298 -1.031219 0.789036
    18 10.950466 0.000000 0.000000 0.000000 0.000000 -0.941517
    19 10.950471 0.000000 0.000000 1.568795 0.000000 0.000000
    20 2.428221 0.000000 0.000000 0.000000 0.000000 -0.188754
    21 1.681022 0.975106 0.213387 0.000000 0.000001 -1.745239
  time 10
    0 -0.438359 -1.851866 36.868193 0.000000 0.000000 -1.570839
    1 -0.980499 0.000000 0.000000 -0.000019 -1.602876 -1.570788
    2 -0.000004 0.000006 3.319508 -0.000732 -3.061408 -0.005720
    3 16.897085 0.000000 0.000000 0.000000 0.000000 -0.143481
    4 16.589727 0.000000 0.000000 0.001154 -0.048062 0.137779
    5 0.000005 -0.000003 -3.319508 0.002153 3.154823 0.064075
    6 16.897085 0.000000 0.000000 0.000000 0.000000 -0.001800
    7 16.589727 0.000000 0.000000 -0.003067 0.018993 0.065883
    8 3.488968 -0.004234 -0.109374 0.001420 0.032050 0.044406
    9 5.318531 -0.004538 0.000000 0.000000 0.000000 0.076876
    10 5.701826 -0.005492 0.000000 0.000000 0.000000 0.095934
    11 6.899484 -0.001818 0.000000 0.000000 -0.000001 0.715930
    12 0.000003 0.001927 2.008302 -0.000013 -1.305231 2.424907
    13 4.746895 0.000000 0.000000 0.438012 1.092200 0.524781
    14 10.950472 0.000000 0.000000 0.000000 0.000000 -0.534254
    15 10.950467 0.000000 0.000000 -1.568795 0.000000 0.000000
    16 0.000003 0.001941 -2.008302 -0.000013 1.341891 2.424891
    17 4.746896 0.000000 -0.000003 -0.739497 -1.062827 0.828696
    18 10.950466 0.000000 0.000000 0.000000 0.000000 -0.931639
    19 10.950471 0.000000 0.000000 1.568795 0.000000 0.000000
    20 2.428221 0.000000 0.000000 0.000000 0.000000 -0.207914
    21 1.681022 0.975106 0.213387 0.000000 0.000001 -1.745239
  time 11
    0 -0.518816 -1.834656 36.821262 0.000000 0.000000 -1.570839
    1 -0.996124 0.000000 0.000000 -0.000019 -1.604886 -1.570788
    2 -0.000004 0.000006 3.319508 0.000706 -3.057094 -0.020554
    3 16.897085 0.000000 0.000000 0.000000 0.000000 -0.171725
    4 16.589727 0.000000 0.000000 0.001005 -0.050427 0.151221
    5 0.000005 -0.000003 -3.319508 0.002058 3.159135 0.063297
    6 16.897085 0.000000 0.000000 0.000000 0.000000 -0.001800
    7 16.589727 0.000000 0.000000 -0.003198 0.016731 0.065060
    8 3.488968 -0.004234 -0.117187 0.001506 0.034064 0.044406
    9 5.318531 -0.004538 0.000000 0.000000 0.000000 0.081121
    10 5.701826 -0.005492 0.000000 0.000000 0.000000 0.095934
    11 6.899484 -0.001818 0.000000 0.000000 -0.000001 0.713688
    12 0.000003 0.001927 2.008302 -0.000013 -1.335608 2.427112
    13 4.746895 0.000000 0.000000 0.441921 1.126252 0.522272
    14 10.950472 0.000000 0.000000 0.000000 0.000000 -0.506336
    15 10.950467 0.000000 0.000000 -1.568795 0.000000 0.000000
    16 0.000003 0.001941 -2.008302 -0.000013 1.378626 2.427096
    17 4.746896 0.000000 -0.000003 -0.782778 -1.095764 0.863387
    18 10.950466 0.000000 0.000000 0.000000 0.000000 -0.909800
    19 10.950471 0.000000 0.000000 1.568795 0.000000 0.000000
    20 2.428221 0.000000 0.000000 0.000000 0.000000 -0.224902
    21 1.681022 0.975106 0.213387 0.000000 0.000001 -1.745239
  time 12
    0 -0.599274 -1.765814 36.821262 0.000000 0.000000 -1.570839
    1 -0.984405 0.000000 0.000000 -0.000019 -1.605661 -1.570788
    2 -0.000004 0.000006 3.319508 0.001665 -3.053835 -0.029068
    3 16.897085 0.000000 0.000000 0.000000 0.000000 -0.186071
    4 16.589727 0.000000 0.000000 0.000856 -0.052902 0.157042
    5 0.000005 -0.000003 -3.319508 0.002058 3.162296 0.061839
    6 16.897085 0.000000 0.000000 0.000000 0.000000 -0.001800
    7 16.589727 0.000000 0.000000 -0.003328 0.014305 0.063591
    8 3.488968 -0.004234 -0.121093 0.001534 0.034840 0.044406
    9 5.318531 -0.004538 0.000000 0.000000 0.000000 0.078484
    10 5.701826 -0.005492 0.000000 0.000000 0.000000 0.095934
    11 6.899484 -0.001818 0.000000 0.000000 -0.000001 0.697743
    12 0.000003 0.001927 2.008302 -0.000013 -1.362079 2.443124
    13 4.746895 0.000000 0.000000 0.433532 1.158215 0.506479
    14 10.950472 0.000000 0.000000 0.000000 0.000000 -0.474146
    15 10.950467 0.000000 0.000000 -1.568795 0.000000 0.000000
    16 0.000003 0.001941 -2.008302 -0.000013 1.405649 2.443011
    17 4.746896 0.000000 -0.000003 -0.805708 -1.126138 0.878104
    18 10.950466 0.000000 0.000000 0.000000 0.000000 -0.876695
    19 10.950471 0.000000 0.000000 1.568795 0.000000 0.000000
    20 2.428221 0.000000 0.000000 0.000000 0.000000 -0.236270
    21 1.681022 0.975106 0.213387 0.000000 0.000001 -1.745239
  time 13
    0 -0.582033 -1.610920 36.821262 0.000000 0.000000 -1.570839
    1 -0.894559 0.000000 0.000000 -3.141571 -1.536847 1.570788
    2 -0.000004 0.000006 3.319508 0.002048 -3.055273 -0.034773
    3 16.897085 0.000000 0.000000 0.000000 0.000000 -0.193916
    4 16.589727 0.000000 0.000000 0.000916 -0.052385 0.159190
    5 0.000005 -0.000003 -3.319508 0.002058 3.160859 0.060040
    6 16.897085 0.000000 0.000000 0.000000 0.000000 -0.001800
    7 16.589727 0.000000 0.000000 -0.003296 0.014823 0.061828
    8 3.488968 -0.004234 -0.117187 0.001335 0.033920 0.039924
    9 5.318531 -0.004538 0.000000 0.000000 0.000000 0.069593
    10 5.701826 -0.005492 0.000000 0.000000 0.000000 0.083373
    11 6.899484 -0.001818 0.000000 0.000000 -0.000001 0.665168
    12 0.000003 0.001927 2.008302 -0.000013 -1.387597 2.475721
    13 4.746895 0.000000 0.000000 0.439919 1.185274 0.503691
    14 10.950472 0.000000 0.000000 0.000000 0.000000 -0.434176
    15 10.950467 0.000000 0.000000 -1.568795 0.000000 0.000000
    16 0.000003 0.001941 -2.008302 -0.000013 1.423076 2.475608
    17 4.746896 0.000000 -0.000003 -0.820518 -1.146356 0.884221
    18 10.950466 0.000000 0.000000 0.000000 0.000000 -0.826226
    19 10.950471 0.000000 0.000000 1.568795 0.000000 0.000000
    20 2.428221 0.000000 0.000000 0.000000 0.000000 -0.227903
    21 1.681022 0.975106 0.213387 0.000000 0.000001 -1.745239
  time 14
    0 -0.530310 -1.438816 36.821262 0.000000 0.000000 -1.570839
    1 -0.761742 0.000000 0.000000 -0.000019 -1.601960 -1.570788
    2 -0.000004 0.000006 3.319508 0.002048 -3.059587 -0.037845
    3 16.897085 0.000000 0.000000 0.000000 0.000000 -0.196831
    4 16.589727 0.000000 0.000000 0.001005 -0.050870 0.159051
    5 0.000005 -0.000003 -3.319508 0.002249 3.156548 0.058485
    6 16.897085 0.000000 0.000000 0.000000 0.000000 -0.001800
    7 16.589727 0.000000 0.000000 -0.003165 0.016322 0.060242
    8 3.488968 -0.004234 -0.105468 0.001050 0.031129 0.034009
    9 5.318531 -0.004538 0.000000 0.000000 0.000000 0.056082
    10 5.701826 -0.005492 0.000000 0.000000 0.000000 0.066829
    11 6.899484 -0.001818 0.000000 0.000000 -0.000001 0.619016
    12 0.000003 0.001927 2.008302 -0.000013 -1.415476 2.521838
    13 4.746895 0.000000 0.000000 0.440777 1.216147 0.493286
    14 10.950472 0.000000 0.000000 0.000000 0.000000 -0.385129
    15 10.950467 0.000000 0.000000 -1.568795 0.000000 0.000000
    16 0.000003 0.001941 -2.008302 -0.000013 1.437086 2.521723
    17 4.746896 0.000000 -0.000003 -0.821473 -1.168662 0.875237
    18 10.950466 0.000000 0.000000 0.000000 0.000000 -0.759707
    19 10.950471 0.000000 0.000000 1.568795 0.000000 0.000000
    20 2.428221 0.000000 0.000000 0.000000 0.000000 -0.213661
    21 1.681022 0.975106 0.213387 0.000000 0.000001 -1.745239
  time 15
    0 -0.461347 -1.232290 36.821262 0.000000 0.000000 -1.570839
    1 -0.617206 0.000000 0.000000 -0.000019 -1.597412 -1.570788
    2 -0.000004 0.000006 3.319508 0.001761 -3.066297 -0.038635
    3 16.897085 0.000000 0.000000 0.000000 0.000000 -0.195411
    4 16.589727 0.000000 0.000000 0.001154 -0.048727 0.156834
    5 0.000005 -0.000003 -3.319508 0.002728 3.149841 0.033450
    6 16.897085 0.000000 0.000000 0.000000 0.000000 -0.049437
    7 16.589727 0.000000 0.000000 -0.003034 0.018420 0.082864
    8 3.488968 -0.004234 -0.089842 0.000708 0.026612 0.027543
    9 5.318531 -0.004538 0.000000 0.000000 0.000000 0.040486
    10 5.701826 -0.005492 0.000000 0.000000 0.000000 0.048704
    11 6.899484 -0.001818 0.000000 0.000000 -0.000001 0.567195
    12 0.000003 0.001927 2.008302 -0.000013 -1.442175 2.573706
    13 4.746895 0.000000 0.000000 0.426954 1.248201 0.467365
    14 10.950472 0.000000 0.000000 0.000000 0.000000 -0.330361
    15 10.950467 0.000000 0.000000 -1.568795 0.000000 0.000000
    16 0.000003 0.001941 -2.008302 -0.000013 1.447412 2.573591
    17 4.746896 0.000000 -0.000003 -0.805613 -1.193057 0.848861
    18 10.950466 0.000000 0.000000 0.000000 0.000000 -0.683078
    19 10.950471 0.000000 0.000000 1.568795 0.000000 0.000000
    20 2.428221 0.000000 0.000000 0.000000 0.000000 -0.196801
    21 1.681022 0.975106 0.213387 0.000000 0.000001 -1.745239
  time 16
    0 -0.380889 -1.042975 36.821262 0.000000 0.000000 -1.570839
    1 -0.464858 0.000000 0.000000 -0.000019 -1.591595 -1.570788
    2 -0.000004 0.000006 3.319508 0.001185 -3.074445 -0.037494
    3 16.897085 0.000000 0.000000 0.000000 0.000000 -0.190554
    4 16.589727 0.000000 0.000000 0.001303 -0.046363 0.153023
    5 0.000005 -0.000003 -3.319508 0.002823 3.141697 0.010992
    6 16.897085 0.000000 0.000000 0.000000 0.000000 -0.092154
    7 16.589727 0.000000 0.000000 -0.002903 0.020737 0.103077
    8 3.488968 -0.004234 -0.070310 0.000423 0.020800 0.021003
    9 5.318531 -0.004538 0.000000 0.000000 0.000000 0.024438
    10 5.701826 -0.005492 0.000000 0.000000 0.000000 0.030462
    11 6.899484 -0.001818 0.000000 0.000000 -0.000001 0.514316
    12 0.000003 0.001927 2.008302 -0.000013 -1.462970 2.626534
    13 4.746895 0.000000 0.000000 0.389110 1.276714 0.417754
    14 10.950472 0.000000 0.000000 0.000000 0.000000 -0.272846
    15 10.950467 0.000000 0.000000 -1.568795 0.000000 0.000000
    16 0.000003 0.001941 -2.008302 -0.000013 1.452517 2.626513
    17 4.746896 0.000000 -0.000003 -0.768828 -1.216787 0.801746
    18 10.950466 0.000000 0.000000 0.000000 0.000000 -0.601665
    19 10.950471 0.000000 0.000000 1.568795 0.000000 0.000000
    20 2.428221 0.000000 0.000000 0.000000 0.000000 -0.179046
    21 1.681022 0.975106 0.213387 0.000000 0.000001 -1.745239
  time 17
    0 -0.306178 -0.870871 36.821262 0.000000 0.000000 -1.570839
    1 -0.324229 0.000000 0.000000 -0.000019 -1.585214 -1.570788
    2 -0.000004 0.000006 3.319508 0.000610 -3.083073 -0.034773
    3 16.897085 0.000000 0.000000 0.000000 0.000000 -0.183008
    4 16.589727 0.000000 0.000000 0.001422 -0.044146 0.148172
    5 0.000005 -0.000003 -3.319508 0.002728 3.133073 -0.004223
    6 16.897085 0.000000 0.000000 0.000000 0.000000 -0.120822
    7 16.589727 0.000000 0.000000 -0.002773 0.022944 0.116592
    8 3.488968 -0.004234 -0.046872 0.000195 0.014413 0.014794
    9 5.318531 -0.004538 0.000000 0.000000 0.000000 0.008892
    10 5.701826 -0.005492 0.000000 0.000000 0.000000 0.013069
    11 6.899484 -0.001818 0.000000 0.000000 -0.000001 0.463492
    12 0.000003 0.001927 2.008302 -0.000013 -1.467920 2.677348
    13 4.746895 0.000000 0.000000 0.333725 1.288881 0.352627
    14 10.950472 0.000000 0.000000 0.000000 0.000000 -0.219756
    15 10.950467 0.000000 0.000000 -1.568795 0.000000 0.000000
    16 0.000003 0.001941 -2.008302 -0.000013 1.448448 2.677325
    17 4.746896 0.000000 -0.000003 -0.716566 -1.230645 0.741348
    18 10.950466 0.000000 0.000000 0.000000 0.000000 -0.526811
    19 10.950471 0.000000 0.000000 1.568795 0.000000 0.000000
    20 2.428221 0.000000 0.000000 0.000000 0.000000 -0.161803
    21 1.681022 0.975106 0.213387 0.000000 0.000001 -1.745239
  time 18
    0 -0.248709 -0.715977 36.821262 0.000000 0.000000 -1.570839
    1 -0.191412 0.000000 0.000000 -0.000019 -1.579080 -1.570788
    2 -0.000004 0.000006 3.319508 0.000035 -3.090933 -0.030823
    3 16.897085 0.000000 0.000000 0.000000 0.000000 -0.173967
    4 16.589727 0.000000 0.000000 0.001541 -0.042373 0.143114
    5 0.000005 -0.000003 -3.319508 0.002440 3.125121 -0.015160
    6 16.897085 0.000000 0.000000 0.000000 0.000000 -0.142003
    7 16.589727 0.000000 0.000000 -0.002674 0.024688 0.126816
    8 3.488968 -0.004234 -0.027340 0.000053 0.008285 0.009136
    9 5.318531 -0.004538 0.000000 0.000000 0.000000 -0.005347
    10 5.701826 -0.005492 0.000000 0.000000 0.000000 -0.002772
    11 6.899484 -0.001818 0.000000 0.000000 -0.000001 0.417090
    12 0.000003 0.001927 2.008302 -0.000013 -1.431141 2.723752
    13 4.746895 0.000000 0.000000 0.243546 1.259279 0.255540
    14 10.950472 0.000000 0.000000 0.000000 0.000000 -0.171777
    15 10.950467 0.000000 0.000000 -1.568795 0.000000 0.000000
    16 0.000003 0.001941 -2.008302 -0.000013 1.418585 2.723728
    17 4.746896 0.000000 -0.000003 -0.620163 -1.221058 0.640334
    18 10.950466 0.000000 0.000000 0.000000 0.000000 -0.459674
    19 10.950471 0.000000 0.000000 1.568795 0.000000 0.000000
    20 2.428221 0.000000 0.000000 0.000000 0.000000 -0.145964
    21 1.681022 0.975106 0.213387 0.000000 0.000001 -1.745239
  time 19
    0 -0.214227 -0.612715 36.821262 0.000000 0.000000 -1.570839
    1 -0.078127 0.000000 0.000000 -0.000067 -1.574004 -1.570740
    2 -0.000004 0.000006 3.319508 -0.000444 -3.097068 -0.026083
    3 16.897085 0.000000 0.000000 0.000000 0.000000 -0.165000
    4 16.589727 0.000000 0.000000 0.001600 -0.041227 0.138818
    5 0.000005 -0.000003 -3.319508 0.002058 3.118989 -0.022063
    6 16.897085 0.000000 0.000000 0.000000 0.000000 -0.156622
    7 16.589727 0.000000 0.000000 -0.002609 0.025805 0.134514
    8 3.488968 -0.004234 -0.007808 -0.000004 0.003250 0.004323
    9 5.318531 -0.004538 0.000000 0.000000 0.000000 -0.017427
    10 5.701826 -0.005492 0.000000 0.000000 0.000000 -0.016241
    11 6.899484 -0.001818 0.000000 0.000000 -0.000001 0.377664
    12 0.000003 0.001927 2.008302 -0.000013 -1.352453 2.763157
    13 4.746895 0.000000 0.000000 0.154701 1.186091 0.161520
    14 10.950472 0.000000 0.000000 0.000000 0.000000 -0.130663
    15 10.950467 0.000000 0.000000 -1.568795 0.000000 0.000000
    16 0.000003 0.001941 -2.008302 -0.000013 1.361544 2.763132
    17 4.746896 0.000000 -0.000003 -0.495765 -1.184039 0.514377
    18 10.950466 0.000000 0.000000 0.000000 0.000000 -0.401334
    19 10.950471 0.000000 0.000000 1.568795 0.000000 0.000000
    20 2.428221 0.000000 0.000000 0.000000 0.000000 -0.132489
    21 1.681022 0.975106 0.213387 0.000000 0.000001 -1.745239
  time 20
    0 -0.202733 -0.578294 36.821262 0.000000 0.000000 -1.570839
    1 0.000000 0.000000 0.000000 -1.570795 -1.570796 0.000000
    2 -0.000004 0.000006 3.319508 -0.000732 -3.100711 -0.021168
    3 16.897085 0.000000 0.000000 0.000000 0.000000 -0.157678
    4 16.589727 0.000000 0.000000 0.001600 -0.040858 0.136462
    5 0.000005 -0.000003 -3.319508 0.001962 3.115348 -0.024688
    6 16.897085 0.000000 0.000000 0.000000 0.000000 -0.164609
    7 16.589727 0.000000 0.000000 -0.002609 0.026187 0.139861
    8 3.488968 -0.004234 0.000004 -0.000004 -0.000001 0.000796
    9 5.318531 -0.004538 0.000000 0.000000 0.000000 -0.026167
    10 5.701826 -0.005492 0.000000 0.000000 0.000000 -0.026167
    11 6.899484 -0.001818 0.000000 0.000000 -0.000001 0.348889
    12 0.000003 0.001927 2.008302 -0.000013 -1.292336 2.791920
    13 4.746895 0.000000 0.000000 0.117714 1.128249 0.120920
    14 10.950472 0.000000 0.000000 0.000000 0.000000 -0.104118
    15 10.950467 0.000000 0.000000 -1.568795 0.000000 0.000000
    16 0.000003 0.001941 -2.008302 -0.000013 1.318476 2.791894
    17 4.746896 0.000000 -0.000003 -0.427069 -1.150817 0.444804
    18 10.950466 0.000000 0.000000 0.000000 0.000000 -0.363444
    19 10.950471 0.000000 0.000000 1.568795 0.000000 0.000000
    20 2.428221 0.000000 0.000000 0.000000 0.000000 -0.122909
    21 1.681022 0.975106 0.213387 0.000000 0.000001 -1.745239
end
