version 1
nodes
  0 "Bip02" -1
  1 "Bip02 Pelvis" 0
  2 "Bip02 L Leg" 1
  3 "Bip02 L Leg1" 2
  4 "Bip02 L Foot" 3
  5 "Bip02 R Leg" 1
  6 "Bip02 R Leg1" 5
  7 "Bip02 R Foot" 6
  8 "Bip02 Spine" 1
  9 "Bip02 Spine1" 8
  10 "Bip02 Spine2" 9
  11 "Bip02 Neck" 10
  12 "Bip02 L Arm" 11
  13 "Bip02 L Arm1" 12
  14 "Bip02 L Arm2" 13
  15 "Bip02 L Hand" 14
  16 "Bip02 R Arm" 11
  17 "Bip02 R Arm1" 16
  18 "Bip02 R Arm2" 17
  19 "Bip02 R Hand" 18
  20 "Bip02 Head" 11
  21 "Bone01" 20
end
skeleton
  time 0
    0 -0.001589 0.024072 37.196707 0.000000 -0.026148 -1.570839
    1 0.000000 0.000000 0.000000 -1.570795 -1.570796 0.000000
    2 -0.000004 0.000006 3.319508 0.003103 -3.144999 -0.077430
    3 16.904898 0.000000 0.000000 0.000000 0.000000 -0.149608
    4 16.597540 0.000000 0.000000 -0.003456 0.003069 0.054698
    5 0.000005 -0.000003 -3.319508 -0.004641 3.159135 -0.031493
    6 16.904898 0.000000 0.000000 0.000000 0.000000 -0.275573
    7 16.597540 0.000000 0.000000 -0.016312 -0.018315 0.190336
    8 3.488968 -0.004234 0.000004 -0.000004 -0.000001 0.000796
    9 5.318531 -0.004538 0.000000 0.000000 0.000000 -0.026167
    10 5.701826 -0.005492 0.000000 0.000000 0.000000 -0.026167
    11 6.899484 -0.001818 0.000000 0.000000 -0.026147 0.099378
    12 0.050786 0.001927 2.008302 -0.571514 -1.365031 3.600345
    13 4.746895 0.000000 0.000000 0.673374 1.128703 0.459654
    14 10.954378 0.000000 0.000000 0.000000 0.000000 -0.722739
    15 10.954373 0.000000 0.000000 -1.574103 0.019392 0.236566
    16 -0.050780 0.001941 -2.008302 -0.529234 1.350105 2.519998
    17 4.746896 0.000000 -0.000003 -0.653890 -1.177775 0.585670
    18 10.954372 0.000000 0.000000 0.000000 0.000000 -0.672043
    19 10.954377 0.000000 0.000000 1.767889 -0.169629 0.443611
    20 2.428221 0.000000 0.000000 0.004816 0.017451 0.116138
    21 1.681022 0.975106 0.213387 0.000000 0.000001 -1.745239
  time 1
    0 0.314495 0.867383 36.070373 -0.111157 -0.025286 -1.317841
    1 0.000000 0.000000 0.000000 -1.570795 -1.570796 0.000000
    2 -0.000004 0.000006 3.319508 -0.461389 -2.919533 -0.323896
    3 16.904898 0.000000 0.000000 0.000000 0.000000 -0.610099
    4 16.597540 0.000000 0.000000 0.759026 0.058227 0.260217
    5 0.000005 -0.000003 -3.319508 0.039859 3.269702 -0.158610
    6 16.904898 0.000000 0.000000 0.000000 0.000000 -0.522533
    7 16.597540 0.000000 0.000000 0.212383 -0.016871 0.313261
    8 3.488968 -0.004234 0.000004 -0.000004 -0.026154 0.000796
    9 5.318531 -0.004538 0.000000 0.000000 0.043609 -0.026167
    10 5.701826 -0.005492 0.000000 0.000028 0.043607 -0.026167
    11 6.899484 -0.001818 0.000000 0.000083 0.104662 0.099378
    12 -0.207034 0.001927 2.000489 -0.959226 -1.420198 4.007722
    13 4.746895 0.000000 0.000000 0.595111 0.907505 0.568447
    14 10.954378 0.000000 0.000000 0.000000 0.000000 -1.429767
    15 10.954373 0.000000 0.000000 -1.574103 0.019392 0.236566
    16 0.207041 0.001941 -2.000489 -2.546983 1.349760 0.495539
    17 4.746896 0.000000 -0.000003 -1.002528 -0.764305 1.075259
    18 10.954372 0.000000 0.000000 0.000000 0.000000 -1.579859
    19 10.954377 0.000000 0.000000 1.767889 -0.169629 0.443611
    20 2.428221 0.000000 0.000000 -0.125575 -0.079527 -0.251597
    21 1.681022 0.975106 0.213387 0.000000 0.000001 -1.745239
  time 2
    0 0.107604 1.108329 34.662456 -0.159166 -0.030938 -1.297636
    1 0.000000 0.000000 0.000000 -1.570795 -1.570796 0.000000
    2 -0.000004 0.000006 3.319508 -0.163808 -2.924039 -0.487328
    3 16.904898 0.000000 0.000000 0.000000 0.000000 -0.862124
    4 16.597540 0.000000 0.000000 0.518744 0.045592 0.359304
    5 0.000005 -0.000003 -3.319508 0.078521 3.312722 -0.277414
    6 16.904898 0.000000 0.000000 0.000000 0.000000 -0.758510
    7 16.597540 0.000000 0.000000 0.223175 -0.022130 0.428077
    8 3.488968 -0.004234 0.000004 0.023837 0.016398 0.021040
    9 5.318531 -0.004538 0.000000 -0.005245 0.023276 0.051134
    10 5.701826 -0.005492 0.000000 0.000028 0.043607 0.061851
    11 6.899484 -0.001818 0.000000 0.000083 0.104662 0.099378
    12 -0.207034 0.001927 2.000489 0.118295 -1.431005 2.921928
    13 4.746895 0.000000 0.000000 0.305031 1.047979 0.420448
    14 10.954378 0.000000 0.000000 0.000000 0.000000 -1.291398
    15 10.954373 0.000000 0.000000 -1.574103 0.019392 0.236566
    16 0.207041 0.001941 -2.000489 -2.269430 1.409679 0.777982
    17 4.746896 0.000000 -0.000003 -0.648635 -0.728520 0.913942
    18 10.954372 0.000000 0.000000 0.000000 0.000000 -1.779341
    19 10.954377 0.000000 0.000000 1.767889 -0.169629 0.443611
    20 2.428221 0.000000 0.000000 0.120203 -0.052702 -0.137023
    21 1.681022 0.975106 0.213387 0.000000 0.000001 -1.745239
  time 3
    0 -0.105034 1.228802 33.395330 -0.196729 -0.037355 -1.302328
    1 0.000000 0.000000 0.000000 -1.570795 -1.570796 0.000000
    2 -0.000004 0.000006 3.319508 -0.421220 -2.718033 -0.542537
    3 16.904898 0.000000 0.000000 0.000000 0.000000 -1.044438
    4 16.597540 0.000000 0.000000 0.842926 0.068535 0.458737
    5 0.000005 -0.000003 -3.319508 0.108762 3.345682 -0.363552
    6 16.904898 0.000000 0.000000 0.000000 0.000000 -0.930519
    7 16.597540 0.000000 0.000000 0.218204 -0.028017 0.511222
    8 3.488968 -0.004234 0.000004 0.047992 0.060993 0.043855
    9 5.318531 -0.004538 0.000000 -0.010525 -0.000730 0.130169
    10 5.701826 -0.005492 0.000000 0.000028 0.043607 0.151451
    11 6.899484 -0.001818 0.000000 0.000083 0.104662 0.099378
    12 -0.207034 0.001927 2.000489 0.639941 -1.305050 2.401418
    13 4.746895 0.000000 0.000000 -0.200486 1.121893 0.002837
    14 10.954378 0.000000 0.000000 0.000000 0.000000 -1.080563
    15 10.954373 0.000000 0.000000 -1.574103 0.019392 0.236566
    16 0.207041 0.001941 -2.000489 -1.566966 1.447642 1.486964
    17 4.746896 0.000000 -0.000003 -0.369361 -0.867862 0.634887
    18 10.954372 0.000000 0.000000 0.000000 0.000000 -1.582714
    19 10.954377 0.000000 0.000000 1.767889 -0.169629 0.443611
    20 2.428221 0.000000 0.000000 -0.159746 -0.074740 0.013060
    21 1.681022 0.975106 0.213387 0.000000 0.000001 -1.745239
  time 4
    0 -0.271696 1.314854 32.362857 -0.223273 -0.036972 -1.310659
    1 0.000000 0.000000 0.000000 -1.570795 -1.570796 0.000000
    2 -0.000004 0.000006 3.319508 -0.009360 -2.888762 -0.667086
    3 16.904898 0.000000 0.000000 0.000000 0.000000 -1.166901
    4 16.597540 0.000000 0.000000 0.422233 0.030888 0.490681
    5 0.000005 -0.000003 -3.319508 0.129529 3.370114 -0.428252
    6 16.904898 0.000000 0.000000 0.000000 0.000000 -1.046475
    7 16.597540 0.000000 0.000000 0.215751 -0.033304 0.566867
    8 3.488968 -0.004234 0.000004 0.066336 0.094194 0.063621
    9 5.318531 -0.004538 0.000000 -0.014414 -0.018895 0.193808
    10 5.701826 -0.005492 0.000000 0.000028 0.043607 0.222866
    11 6.899484 -0.001818 0.000000 0.000083 0.104662 0.099378
    12 -0.207034 0.001927 2.000489 0.779149 -1.190537 2.270451
    13 4.746895 0.000000 0.000000 -0.623641 1.065141 -0.388946
    14 10.954378 0.000000 0.000000 0.000000 0.000000 -0.906342
    15 10.954373 0.000000 0.000000 -1.574103 0.019392 0.236566
    16 0.207041 0.001941 -2.000489 -0.937366 1.417817 2.122124
    17 4.746896 0.000000 -0.000003 -0.110151 -0.766488 0.549545
    18 10.954372 0.000000 0.000000 0.000000 0.000000 -1.788524
    19 10.954377 0.000000 0.000000 1.767889 -0.169629 0.443611
    20 2.428221 0.000000 0.000000 0.239758 -0.064569 0.152477
    21 1.681022 0.975106 0.213387 0.000000 0.000001 -1.745239
  time 5
    0 -0.403877 1.383696 31.611968 -0.241959 -0.025286 -1.317841
    1 0.000000 0.000000 0.000000 -1.570795 -1.570796 0.000000
    2 -0.000004 0.000006 3.319508 -0.207141 -2.715732 -0.717995
    3 16.904898 0.000000 0.000000 0.000000 0.000000 -1.253724
    4 16.597540 0.000000 0.000000 0.687200 0.054496 0.538908
    5 0.000005 -0.000003 -3.319508 0.148285 3.386019 -0.486439
    6 16.904898 0.000000 0.000000 0.000000 0.000000 -1.129342
    7 16.597540 0.000000 0.000000 0.213953 -0.037746 0.606882
    8 3.488968 -0.004234 0.000004 0.078926 0.116204 0.079934
    9 5.318531 -0.004538 0.000000 -0.016948 -0.030643 0.244765
    10 5.701826 -0.005492 0.000000 0.000028 0.043607 0.279086
    11 6.899484 -0.001818 0.000000 0.000083 0.104662 0.099378
    12 -0.207034 0.001927 2.000489 0.839837 -1.111258 2.219158
    13 4.746895 0.000000 0.000000 -0.847469 0.964167 -0.612477
    14 10.954378 0.000000 0.000000 0.000000 0.000000 -0.781779
    15 10.954373 0.000000 0.000000 -1.574103 0.019392 0.236566
    16 0.207041 0.001941 -2.000489 -0.730184 1.385612 2.332182
    17 4.746896 0.000000 -0.000003 0.201130 -0.861977 0.054700
    18 10.954372 0.000000 0.000000 0.000000 0.000000 -1.377985
    19 10.954377 0.000000 0.000000 1.767889 -0.169629 0.443611
    20 2.428221 0.000000 0.000000 -0.143540 -0.084662 0.212128
    21 1.681022 0.975106 0.213387 0.000000 0.000001 -1.745239
  time 6
    0 -0.426865 1.314854 30.954940 -0.254895 0.009387 -1.321959
    1 0.000000 0.000000 0.000000 -1.570795 -1.570796 0.000000
    2 -0.000004 0.000006 3.319508 -0.132074 -2.734042 -0.802958
    3 16.904898 0.000000 0.000000 0.000000 0.000000 -1.323138
    4 16.597540 0.000000 0.000000 0.633903 0.048400 0.569396
    5 0.000005 -0.000003 -3.319508 0.176325 3.386019 -0.552015
    6 16.904898 0.000000 0.000000 0.000000 0.000000 -1.195236
    7 16.597540 0.000000 0.000000 0.202605 -0.039299 0.644724
    8 3.488968 -0.004234 0.000004 0.078840 0.115226 0.092205
    9 5.318531 -0.004538 0.000000 -0.016734 -0.029891 0.289995
    10 5.701826 -0.005492 0.000000 0.000028 0.043607 0.327282
    11 6.899484 -0.001818 0.000000 0.000083 0.104662 0.099378
    12 -0.207034 0.001927 2.000489 0.839837 -1.111258 2.219158
    13 4.746895 0.000000 0.000000 -0.981689 0.886529 -0.788162
    14 10.954378 0.000000 0.000000 0.000000 0.000000 -0.711145
    15 10.954373 0.000000 0.000000 -1.575240 0.019047 0.180396
    16 0.207041 0.001941 -2.000489 -0.730184 1.385612 2.332182
    17 4.746896 0.000000 -0.000003 0.380274 -0.770190 -0.019269
    18 10.954372 0.000000 0.000000 0.000000 0.000000 -1.592592
    19 10.954377 0.000000 0.000000 1.767889 -0.169629 0.443611
    20 2.428221 0.000000 0.000000 0.113350 -0.081621 0.208104
    21 1.681022 0.975106 0.213387 0.000000 0.000001 -1.745239
  time 7
    0 -0.426865 1.280433 30.391773 -0.263328 0.059098 -1.326459
    1 0.000000 0.000000 0.000000 -1.570795 -1.570796 0.000000
    2 -0.000004 0.000006 3.319508 -0.042627 -2.782356 -0.894681
    3 16.904898 0.000000 0.000000 0.000000 0.000000 -1.379774
    4 16.597540 0.000000 0.000000 0.553869 0.040974 0.591708
    5 0.000005 -0.000003 -3.319508 0.204174 3.377492 -0.627604
    6 16.904898 0.000000 0.000000 0.000000 0.000000 -1.251574
    7 16.597540 0.000000 0.000000 0.190537 -0.039490 0.677041
    8 3.488968 -0.004234 0.000004 0.078755 0.114305 0.103888
    9 5.318531 -0.004538 0.000000 -0.016520 -0.029183 0.332061
    10 5.701826 -0.005492 0.000000 0.000028 0.043607 0.370647
    11 6.899484 -0.001818 0.000000 0.000083 0.104662 0.099378
    12 -0.207034 0.001927 2.000489 0.839837 -1.111258 2.219158
    13 4.746895 0.000000 0.000000 -1.069199 0.806804 -0.911076
    14 10.954378 0.000000 0.000000 0.000000 0.000000 -0.668962
    15 10.954373 0.000000 0.000000 -1.576756 0.018530 0.100359
    16 0.207041 0.001941 -2.000489 -0.730184 1.385612 2.332182
    17 4.746896 0.000000 -0.000003 0.648847 -0.672422 -0.442630
    18 10.954372 0.000000 0.000000 0.000000 0.000000 -1.239466
    19 10.954377 0.000000 0.000000 1.767889 -0.169629 0.443611
    20 2.428221 0.000000 0.000000 -0.141503 -0.093637 0.199418
    21 1.681022 0.975106 0.213387 0.000000 0.000001 -1.745239
  time 8
    0 -0.426865 1.280433 29.969397 -0.265819 0.108808 -1.333641
    1 0.000000 0.000000 0.000000 -1.570795 -1.570796 0.000000
    2 -0.000004 0.000006 3.319508 0.030426 -2.837188 -0.967532
    3 16.904898 0.000000 0.000000 0.000000 0.000000 -1.415340
    4 16.597540 0.000000 0.000000 0.474668 0.033031 0.604457
    5 0.000005 -0.000003 -3.319508 0.225323 3.364078 -0.693811
    6 16.904898 0.000000 0.000000 0.000000 0.000000 -1.289441
    7 16.597540 0.000000 0.000000 0.176540 -0.039408 0.698782
    8 3.488968 -0.004234 0.000004 0.078670 0.113615 0.112853
    9 5.318531 -0.004538 0.000000 -0.016305 -0.028674 0.363530
    10 5.701826 -0.005492 0.000000 0.000028 0.043607 0.402036
    11 6.899484 -0.001818 0.000000 0.000083 0.104662 0.099378
    12 -0.207034 0.001927 2.000489 0.839837 -1.111258 2.219158
    13 4.746895 0.000000 0.000000 -1.120389 0.745874 -0.991904
    14 10.954378 0.000000 0.000000 0.000000 0.000000 -0.644934
    15 10.954373 0.000000 0.000000 -1.578178 0.017840 0.019938
    16 0.207041 0.001941 -2.000489 -0.730184 1.385612 2.332182
    17 4.746896 0.000000 -0.000003 0.752512 -0.561366 -0.485062
    18 10.954372 0.000000 0.000000 0.000000 0.000000 -1.283530
    19 10.954377 0.000000 0.000000 1.767889 -0.169629 0.443611
    20 2.428221 0.000000 0.000000 0.122611 -0.096429 0.208232
    21 1.681022 0.975106 0.213387 0.000000 0.000001 -1.745239
  time 9
    0 -0.421118 1.246013 29.875536 -0.260645 0.146738 -1.345516
    1 0.000000 0.000000 0.000000 -1.570795 -1.570796 0.000000
    2 -0.000004 0.000006 3.319508 0.081525 -2.888378 -1.005186
    3 16.904898 0.000000 0.000000 0.000000 0.000000 -1.422887
    4 16.597540 0.000000 0.000000 0.399600 0.024534 0.607229
    5 0.000005 -0.000003 -3.319508 0.234606 3.349131 -0.734401
    6 16.904898 0.000000 0.000000 0.000000 0.000000 -1.300994
    7 16.597540 0.000000 0.000000 0.158946 -0.039054 0.706480
    8 3.488968 -0.004234 0.000004 0.078613 0.113269 0.117225
    9 5.318531 -0.004538 0.000000 -0.016234 -0.028431 0.377794
    10 5.701826 -0.005492 0.000000 0.000028 0.043607 0.414919
    11 6.899484 -0.001818 0.000000 0.000083 0.104662 0.099378
    12 -0.207034 0.001927 2.000489 0.839837 -1.111258 2.219158
    13 4.746895 0.000000 0.000000 -1.146032 0.720812 -1.038914
    14 10.954378 0.000000 0.000000 0.000000 0.000000 -0.632196
    15 10.954373 0.000000 0.000000 -1.579315 0.017151 -0.042655
    16 0.207041 0.001941 -2.000489 -0.730184 1.385612 2.332182
    17 4.746896 0.000000 -0.000003 0.833915 -0.437401 -0.642747
    18 10.954372 0.000000 0.000000 0.000000 0.000000 -1.041528
    19 10.954377 0.000000 0.000000 1.767889 -0.169629 0.443611
    20 2.428221 0.000000 0.000000 0.043710 -0.108545 0.235119
    21 1.681022 0.975106 0.213387 0.000000 0.000001 -1.745239
  time 10
    0 -0.403877 1.159960 30.204050 -0.245121 0.160914 -1.364189
    1 0.000000 0.000000 0.000000 -1.570795 -1.570796 0.000000
    2 -0.000004 0.000006 3.319508 0.109136 -2.931516 -0.990002
    3 16.904898 0.000000 0.000000 0.000000 0.000000 -1.391580
    4 16.597540 0.000000 0.000000 0.325157 0.015741 0.597390
    5 0.000005 -0.000003 -3.319508 0.226759 3.334663 -0.731436
    6 16.904898 0.000000 0.000000 0.000000 0.000000 -1.275107
    7 16.597540 0.000000 0.000000 0.135497 -0.038018 0.695022
    8 3.488968 -0.004234 0.000004 0.078641 0.113471 0.114690
    9 5.318531 -0.004538 0.000000 -0.016305 -0.028608 0.366845
    10 5.701826 -0.005492 0.000000 0.000028 0.043607 0.401216
    11 6.899484 -0.001818 0.000000 0.000083 0.104662 0.099378
    12 -0.207034 0.001927 2.000489 0.839837 -1.111258 2.219158
    13 4.746895 0.000000 0.000000 -1.149273 0.750051 -1.052292
    14 10.954378 0.000000 0.000000 0.000000 0.000000 -0.625178
    15 10.954373 0.000000 0.000000 -1.579695 0.016892 -0.068631
    16 0.207041 0.001941 -2.000489 -0.730184 1.385612 2.332182
    17 4.746896 0.000000 -0.000003 0.816813 -0.462745 -0.586076
    18 10.954372 0.000000 0.000000 0.000000 0.000000 -1.100948
    19 10.954377 0.000000 0.000000 1.767889 -0.169629 0.443611
    20 2.428221 0.000000 0.000000 0.097700 -0.115875 0.176619
    21 1.681022 0.975106 0.213387 0.000000 0.000001 -1.745239
  time 11
    0 -0.334913 0.953435 31.189593 -0.210720 0.141279 -1.395598
    1 0.000000 0.000000 0.000000 -1.570795 -1.570796 0.000000
    2 -0.000004 0.000006 3.319508 0.103096 -2.966985 -0.894330
    3 16.904898 0.000000 0.000000 0.000000 0.000000 -1.291009
    4 16.597540 0.000000 0.000000 0.247919 0.008352 0.563298
    5 0.000005 -0.000003 -3.319508 0.192690 3.315980 -0.660173
    6 16.904898 0.000000 0.000000 0.000000 0.000000 -1.184182
    7 16.597540 0.000000 0.000000 0.100995 -0.035020 0.650835
    8 3.488968 -0.004234 0.000004 0.066678 0.097215 0.098451
    9 5.318531 -0.004538 0.000000 -0.014058 -0.024979 0.314858
    10 5.701826 -0.005492 0.000000 0.000028 0.036975 0.344060
    11 6.899484 -0.001818 0.000000 0.000055 0.073039 0.099378
    12 -0.144532 0.001927 2.004396 0.782409 -1.181864 2.277354
    13 4.746895 0.000000 0.000000 -1.091600 0.878629 -1.042630
    14 10.954378 0.000000 0.000000 0.000000 0.000000 -0.629984
    15 10.954373 0.000000 0.000000 -1.579315 0.017151 -0.041792
    16 0.144539 0.001941 -2.004396 -0.676016 1.377743 2.383091
    17 4.746896 0.000000 -0.000003 0.683052 -0.673846 -0.523575
    18 10.954372 0.000000 0.000000 0.000000 0.000000 -1.187455
    19 10.954377 0.000000 0.000000 1.767889 -0.169629 0.443611
    20 2.428221 0.000000 0.000000 0.202994 -0.087704 0.053934
    21 1.681022 0.975106 0.213387 0.000000 0.000001 -1.745239
  time 12
    0 -0.237215 0.643647 32.738302 -0.157920 0.098272 -1.439648
    1 0.000000 0.000000 0.000000 -1.570795 -1.570796 0.000000
    2 -0.000004 0.000006 3.319508 0.076060 -3.008684 -0.731160
    3 16.904898 0.000000 0.000000 0.000000 0.000000 -1.112730
    4 16.597540 0.000000 0.000000 0.163572 0.003660 0.496085
    5 0.000005 -0.000003 -3.319508 0.137950 3.285991 -0.530772
    6 16.904898 0.000000 0.000000 0.000000 0.000000 -1.024225
    7 16.597540 0.000000 0.000000 0.059691 -0.030224 0.571392
    8 3.488968 -0.004234 0.000004 0.049046 0.072731 0.072255
    9 5.318531 -0.004538 0.000000 -0.010597 -0.019293 0.227762
    10 5.701826 -0.005492 0.000000 0.000000 0.027212 0.249307
    11 6.899484 -0.001818 0.000000 0.000028 0.041180 0.099378
    12 -0.082031 0.001927 2.008302 0.614343 -1.271450 2.441206
    13 4.746895 0.000000 0.000000 -0.900089 1.074493 -0.912934
    14 10.954378 0.000000 0.000000 0.000000 0.000000 -0.650579
    15 10.954373 0.000000 0.000000 -1.578083 0.017840 0.024059
    16 0.082037 0.001941 -2.008302 -0.622902 1.368722 2.433041
    17 4.746896 0.000000 -0.000003 0.402440 -0.914088 -0.318106
    18 10.954372 0.000000 0.000000 0.000000 0.000000 -1.252894
    19 10.954377 0.000000 0.000000 1.767889 -0.169629 0.443611
    20 2.428221 0.000000 0.000000 -0.042321 -0.045722 0.019574
    21 1.681022 0.975106 0.213387 0.000000 0.000001 -1.745239
  time 13
    0 -0.122275 0.351070 34.521664 -0.097071 0.047221 -1.489635
    1 0.000000 0.000000 0.000000 -1.570795 -1.570796 0.000000
    2 -0.000004 0.000006 3.319508 0.043177 -3.058245 -0.532092
    3 16.904898 0.000000 0.000000 0.000000 0.000000 -0.868251
    4 16.597540 0.000000 0.000000 0.086304 0.002404 0.394088
    5 0.000005 -0.000003 -3.319508 0.078234 3.244025 -0.368899
    6 16.904898 0.000000 0.000000 0.000000 0.000000 -0.810070
    7 16.597540 0.000000 0.000000 0.021984 -0.024828 0.463626
    8 3.488968 -0.004234 0.000004 0.029534 0.044651 0.043157
    9 5.318531 -0.004538 0.000000 -0.006494 -0.012279 0.127356
    10 5.701826 -0.005492 0.000000 0.000000 0.016394 0.140382
    11 6.899484 -0.001818 0.000000 0.000000 0.012980 0.099378
    12 -0.023435 0.001927 2.008302 0.269199 -1.346777 2.777922
    13 4.746895 0.000000 0.000000 -0.384562 1.231766 -0.470238
    14 10.954378 0.000000 0.000000 0.000000 0.000000 -0.678573
    15 10.954373 0.000000 0.000000 -1.576567 0.018530 0.107164
    16 0.023441 0.001941 -2.008302 -0.582827 1.361391 2.470239
    17 4.746896 0.000000 -0.000003 -0.084259 -1.088740 0.104299
    18 10.954372 0.000000 0.000000 0.000000 0.000000 -1.251119
    19 10.954377 0.000000 0.000000 1.767889 -0.169629 0.443611
    20 2.428221 0.000000 0.000000 0.112795 -0.028321 0.046908
    21 1.681022 0.975106 0.213387 0.000000 0.000001 -1.745239
  time 14
    0 -0.036070 0.127334 36.164234 -0.039863 0.001916 -1.537036
    1 0.000000 0.000000 0.000000 -1.570795 -1.570796 0.000000
    2 -0.000004 0.000006 3.319508 0.016812 -3.108380 -0.317488
    3 16.904898 0.000000 0.000000 0.000000 0.000000 -0.561831
    4 16.597540 0.000000 0.000000 0.028189 0.002884 0.255159
    5 0.000005 -0.000003 -3.319508 0.027322 3.196981 -0.195359
    6 16.904898 0.000000 0.000000 0.000000 0.000000 -0.553554
    7 16.597540 0.000000 0.000000 -0.004375 -0.020414 0.333239
    8 3.488968 -0.004234 0.000004 0.011931 0.018326 0.017476
    9 5.318531 -0.004538 0.000000 -0.002640 -0.005199 0.035438
    10 5.701826 -0.005492 0.000000 0.000000 0.006615 0.040740
    11 6.899484 -0.001818 0.000000 0.000000 -0.010217 0.099378
    12 0.019535 0.001927 2.008302 -0.218221 -1.375111 3.255192
    13 4.746895 0.000000 0.000000 0.330484 1.220506 0.171554
    14 10.954378 0.000000 0.000000 0.000000 0.000000 -0.705424
    15 10.954373 0.000000 0.000000 -1.575145 0.019133 0.185285
    16 -0.019529 0.001941 -2.008302 -0.552051 1.355326 2.498714
    17 4.746896 0.000000 -0.000003 -0.484300 -1.147970 0.450156
    18 10.954372 0.000000 0.000000 0.000000 0.000000 -0.989516
    19 10.954377 0.000000 0.000000 1.767889 -0.169629 0.443611
    20 2.428221 0.000000 0.000000 0.062046 0.002842 0.089443
    21 1.681022 0.975106 0.213387 0.000000 0.000001 -1.745239
  time 15
    0 -0.001589 0.024072 37.196707 0.000000 -0.026148 -1.570839
    1 0.000000 0.000000 0.000000 -1.570795 -1.570796 0.000000
    2 -0.000004 0.000006 3.319508 0.003103 -3.144999 -0.077430
    3 16.904898 0.000000 0.000000 0.000000 0.000000 -0.149608
    4 16.597540 0.000000 0.000000 -0.003456 0.003069 0.054698
    5 0.000005 -0.000003 -3.319508 -0.004641 3.159135 -0.031493
    6 16.904898 0.000000 0.000000 0.000000 0.000000 -0.275573
    7 16.597540 0.000000 0.000000 -0.016312 -0.018315 0.190336
    8 3.488968 -0.004234 0.000004 -0.000004 -0.000001 0.000796
    9 5.318531 -0.004538 0.000000 0.000000 0.000000 -0.026167
    10 5.701826 -0.005492 0.000000 0.000000 0.000000 -0.026167
    11 6.899484 -0.001818 0.000000 0.000000 -0.026147 0.099378
    12 0.050786 0.001927 2.008302 -0.571514 -1.365031 3.600345
    13 4.746895 0.000000 0.000000 0.673374 1.128703 0.459654
    14 10.954378 0.000000 0.000000 0.000000 0.000000 -0.722739
    15 10.954373 0.000000 0.000000 -1.574103 0.019392 0.236566
    16 -0.050780 0.001941 -2.008302 -0.529234 1.350105 2.519998
    17 4.746896 0.000000 -0.000003 -0.653890 -1.177775 0.585670
    18 10.954372 0.000000 0.000000 0.000000 0.000000 -0.672043
    19 10.954377 0.000000 0.000000 1.767889 -0.169629 0.443611
    20 2.428221 0.000000 0.000000 0.004816 0.017451 0.116138
    21 1.681022 0.975106 0.213387 0.000000 0.000001 -1.745239
end
