version 1
nodes
  0 "Bip02" -1
  1 "Bip02 Pelvis" 0
  2 "Bip02 L Leg" 1
  3 "Bip02 L Leg1" 2
  4 "Bip02 L Foot" 3
  5 "Bip02 R Leg" 1
  6 "Bip02 R Leg1" 5
  7 "Bip02 R Foot" 6
  8 "Bip02 Spine" 1
  9 "Bip02 Spine1" 8
  10 "Bip02 Spine2" 9
  11 "Bip02 Neck" 10
  12 "Bip02 L Arm" 11
  13 "Bip02 L Arm1" 12
  14 "Bip02 L Arm2" 13
  15 "Bip02 L Hand" 14
  16 "Bip02 R Arm" 11
  17 "Bip02 R Arm1" 16
  18 "Bip02 R Arm2" 17
  19 "Bip02 R Hand" 18
  20 "Bip02 Head" 11
  21 "Bone01" 20
end
skeleton
  time 0
    0 -0.202733 -0.578294 34.193150 0.000000 0.000000 -1.570839
    1 0.000000 0.000000 0.000000 -1.570795 -1.570796 0.000000
    2 -0.000004 0.000006 3.077313 -0.000732 -3.100711 -0.021168
    3 15.654860 0.000000 0.000000 0.000000 0.000000 -0.157678
    4 15.370940 0.000000 0.000000 0.001600 -0.040858 0.136462
    5 0.000005 -0.000003 -3.077313 0.001962 3.115348 -0.024688
    6 15.654860 0.000000 0.000000 0.000000 0.000000 -0.164609
    7 15.370940 0.000000 0.000000 -0.002609 0.026187 0.139861
    8 3.235054 -0.004234 0.000004 -0.012850 0.002387 0.183945
    9 4.927894 -0.004538 0.000000 -0.079779 0.005155 0.063742
    10 5.283844 -0.005492 0.000000 -0.050517 0.005928 0.116138
    11 6.391656 -0.001818 0.000000 0.000083 0.104662 0.741342
    12 -0.191409 0.001927 1.852047 -0.252735 -1.284890 2.645134
    13 4.395322 0.000000 0.000000 -0.039098 0.984598 -0.153152
    14 10.145760 0.000000 0.000000 0.000000 0.000000 -0.872703
    15 10.145755 0.000000 0.000000 -1.568795 0.000000 0.000000
    16 0.191415 0.001941 -1.852047 -1.233519 1.225162 1.208740
    17 4.395323 0.000000 -0.000003 0.054853 -0.927661 -0.169787
    18 10.145754 0.000000 0.000000 0.000000 0.000000 -1.079418
    19 10.145759 0.000000 0.000000 1.925313 -0.060242 -0.297786
    20 2.248528 0.000000 0.000000 0.218737 -0.097726 -0.807671
    21 1.559925 0.904791 0.197762 0.000000 0.000001 -1.745239
  time 1
    0 -0.191239 -0.492242 33.676913 0.007474 -0.002395 -1.585203
    1 0.000000 0.000000 0.000000 -0.000019 -1.573228 -1.570740
    2 -0.000004 0.000006 3.077313 0.089194 -3.122951 -0.131059
    3 15.654860 0.000000 0.000000 0.000000 0.000000 -0.386018
    4 15.370940 0.000000 0.000000 -0.100294 -0.035279 0.255020
    5 0.000005 -0.000003 -3.077313 -0.058424 3.120043 -0.142617
    6 15.654860 0.000000 0.000000 0.000000 0.000000 -0.400515
    7 15.370940 0.000000 0.000000 0.040396 0.024606 0.256616
    8 3.235054 -0.004234 -0.007808 -0.020399 0.006501 0.172298
    9 4.927894 -0.004538 0.000000 -0.084382 0.014426 0.071276
    10 5.283844 -0.005492 0.000000 -0.059213 0.014078 0.123956
    11 6.391656 -0.001818 0.000000 0.000028 0.069853 0.745515
    12 -0.128907 0.001927 1.855954 -0.202114 -1.332702 2.593073
    13 4.395322 0.000000 0.000000 0.028679 0.994586 -0.110879
    14 10.145760 0.000000 0.000000 0.000000 0.000000 -0.957373
    15 10.145755 0.000000 0.000000 -1.568795 0.000000 0.000000
    16 0.128913 0.001941 -1.855954 -1.203223 1.245736 1.225326
    17 4.395323 0.000000 -0.000003 0.025043 -0.935350 -0.157841
    18 10.145754 0.000000 0.000000 0.000000 0.000000 -1.197409
    19 10.145759 0.000000 0.000000 1.925313 -0.060242 -0.297786
    20 2.248528 0.000000 0.000000 0.275042 -0.091643 -0.784041
    21 1.559925 0.904791 0.197762 0.000000 0.000001 -1.745239
  time 2
    0 -0.162504 -0.251295 33.019885 0.017632 -0.005555 -1.604259
    1 0.000000 0.000000 0.000000 -3.141571 -1.565226 1.570740
    2 -0.000004 0.000006 3.077313 0.022277 -3.119596 -0.221377
    3 15.654860 0.000000 0.000000 0.000000 0.000000 -0.565417
    4 15.370940 0.000000 0.000000 -0.050150 -0.038530 0.339071
    5 0.000005 -0.000003 -3.077313 -0.067611 3.117935 -0.240276
    6 15.654860 0.000000 0.000000 0.000000 0.000000 -0.585931
    7 15.370940 0.000000 0.000000 0.026497 0.027168 0.341289
    8 3.231148 -0.004234 -0.015621 -0.030682 0.011277 0.156427
    9 4.927894 -0.004538 0.000000 -0.090447 0.027125 0.081422
    10 5.283844 -0.005492 0.000000 -0.070818 0.025343 0.134409
    11 6.391656 -0.001818 0.000000 0.000000 0.001921 0.753612
    12 0.000003 0.001927 1.859860 -0.008929 -1.421424 2.396049
    13 4.395322 0.000000 0.000000 0.048317 1.076854 -0.014351
    14 10.145760 0.000000 0.000000 0.000000 0.000000 -1.121143
    15 10.145755 0.000000 0.000000 -1.568795 0.000000 0.000000
    16 0.000003 0.001941 -1.859860 -1.133523 1.286501 1.270003
    17 4.395323 0.000000 -0.000003 -0.027697 -0.961832 -0.126590
    18 10.145754 0.000000 0.000000 0.000000 0.000000 -1.274347
    19 10.145759 0.000000 0.000000 1.925313 -0.060242 -0.297786
    20 2.248528 0.000000 0.000000 0.104645 -0.066713 -0.733524
    21 1.559925 0.904791 0.197762 0.000000 0.000001 -1.745239
  time 3
    0 -0.116528 0.075703 32.222065 0.029610 -0.009004 -1.626667
    1 0.000000 0.000000 0.000000 -0.000019 -1.579962 -1.570740
    2 -0.000004 0.000006 3.077313 0.093413 -3.157461 -0.300811
    3 15.654860 0.000000 0.000000 0.000000 0.000000 -0.722102
    4 15.370940 0.000000 0.000000 -0.149546 -0.033839 0.413975
    5 0.000005 -0.000003 -3.077313 0.022442 3.075969 -0.331129
    6 15.654860 0.000000 0.000000 0.000000 0.000000 -0.747528
    7 15.370940 0.000000 0.000000 -0.098692 0.033845 0.406277
    8 3.231148 -0.004234 -0.027340 -0.042930 0.016398 0.137873
    9 4.927894 -0.004538 0.000000 -0.097512 0.042148 0.093075
    10 5.283844 -0.005492 0.000000 -0.084333 0.038845 0.146326
    11 6.391656 -0.001818 0.000000 -0.000028 -0.065616 0.761647
    12 0.121101 0.001927 1.855954 0.597757 -1.490259 1.783977
    13 4.395322 0.000000 0.000000 0.160040 1.108000 0.094907
    14 10.145760 0.000000 0.000000 0.000000 0.000000 -1.283617
    15 10.145755 0.000000 0.000000 -1.568795 0.000000 0.000000
    16 -0.121094 0.001941 -1.855954 -1.045511 1.327420 1.335484
    17 4.395323 0.000000 -0.000003 -0.084354 -0.980721 -0.096200
    18 10.145754 0.000000 0.000000 0.000000 0.000000 -1.469739
    19 10.145759 0.000000 0.000000 1.925313 -0.060242 -0.297786
    20 2.248528 0.000000 0.000000 0.109183 -0.039140 -0.686263
    21 1.559925 0.904791 0.197762 0.000000 0.000001 -1.745239
  time 4
    0 -0.064805 0.454333 31.377315 0.042930 -0.012452 -1.651469
    1 0.000000 0.000000 0.000000 -0.000019 -1.583910 -1.570788
    2 -0.000004 0.000006 3.077313 0.057557 -3.159378 -0.376735
    3 15.654860 0.000000 0.000000 0.000000 0.000000 -0.862797
    4 15.370940 0.000000 0.000000 -0.140356 -0.035169 0.474951
    5 0.000005 -0.000003 -3.077313 -0.016508 3.077598 -0.416343
    6 15.654860 0.000000 0.000000 0.000000 0.000000 -0.892224
    7 15.370940 0.000000 0.000000 -0.091856 0.035289 0.463861
    8 3.231148 -0.004234 -0.039059 -0.056631 0.021750 0.117519
    9 4.927894 -0.004538 0.000000 -0.105433 0.058787 0.105582
    10 5.283844 -0.005492 0.000000 -0.099261 0.054009 0.158946
    11 6.391656 -0.001818 0.000000 -0.000083 -0.128941 0.769183
    12 0.238292 0.001927 1.844235 1.684194 -1.480633 0.691088
    13 4.395322 0.000000 0.000000 0.226673 1.224138 0.270405
    14 10.145760 0.000000 0.000000 0.000000 0.000000 -1.435412
    15 10.145755 0.000000 0.000000 -1.568795 0.000000 0.000000
    16 -0.238285 0.001941 -1.844235 -0.935161 1.365344 1.426947
    17 4.395323 0.000000 -0.000003 -0.139865 -0.990213 -0.070015
    18 10.145754 0.000000 0.000000 0.000000 0.000000 -1.519204
    19 10.145759 0.000000 0.000000 1.925313 -0.060242 -0.297786
    20 2.248528 0.000000 0.000000 -0.073067 -0.017900 -0.643665
    21 1.559925 0.904791 0.197762 0.000000 0.000001 -1.745239
  time 5
    0 -0.018829 0.850173 30.485634 0.057016 -0.015612 -1.677899
    1 0.000000 0.000000 0.000000 -3.141571 -1.553416 1.570788
    2 -0.000004 0.000006 3.077313 0.066761 -3.179509 -0.445110
    3 15.654860 0.000000 0.000000 0.000000 0.000000 -0.988996
    4 15.370940 0.000000 0.000000 -0.183184 -0.035316 0.529830
    5 0.000005 -0.000003 -3.077313 0.000431 3.058435 -0.496745
    6 15.654860 0.000000 0.000000 0.000000 0.000000 -1.028504
    7 15.370940 0.000000 0.000000 -0.042180 0.035698 0.520623
    8 3.231148 -0.004234 -0.054685 -0.071300 0.027360 0.096467
    9 4.927894 -0.004538 0.000000 -0.113996 0.076243 0.118239
    10 5.283844 -0.005492 0.000000 -0.115048 0.070164 0.171566
    11 6.391656 -0.001818 0.000000 -0.000138 -0.186262 0.776034
    12 0.343764 0.001927 1.828609 2.111597 -1.418882 0.256770
    13 4.395322 0.000000 0.000000 0.375955 1.256283 0.433176
    14 10.145760 0.000000 0.000000 0.000000 0.000000 -1.566612
    15 10.145755 0.000000 0.000000 -1.568795 0.000000 0.000000
    16 -0.343757 0.001941 -1.828609 -0.797008 1.398010 1.550048
    17 4.395323 0.000000 -0.000003 -0.191076 -0.990688 -0.050328
    18 10.145754 0.000000 0.000000 0.000000 0.000000 -1.698236
    19 10.145759 0.000000 0.000000 1.925313 -0.060242 -0.297786
    20 2.248528 0.000000 0.000000 -0.050378 0.000449 -0.607901
    21 1.559925 0.904791 0.197762 0.000000 0.000001 -1.745239
  time 6
    0 0.004158 1.211592 29.640883 0.070719 -0.018199 -1.704424
    1 0.000000 0.000000 0.000000 -0.000019 -1.592653 -1.570788
    2 -0.000004 0.000006 3.077313 0.078073 -3.200311 -0.504356
    3 15.654860 0.000000 0.000000 0.000000 0.000000 -1.097488
    4 15.370940 0.000000 0.000000 -0.229640 -0.036942 0.576741
    5 0.000005 -0.000003 -3.077313 0.021293 3.037452 -0.557653
    6 15.654860 0.000000 0.000000 0.000000 0.000000 -1.127488
    7 15.370940 0.000000 0.000000 0.008641 0.033463 0.558876
    8 3.231148 -0.004234 -0.070310 -0.085941 0.033603 0.076370
    9 4.927894 -0.004538 0.000000 -0.122916 0.093103 0.129867
    10 5.283844 -0.005492 0.000000 -0.130724 0.085999 0.182986
    11 6.391656 -0.001818 0.000000 -0.000166 -0.234657 0.781764
    12 0.429704 0.001927 1.809077 2.270555 -1.354996 0.090809
    13 4.395322 0.000000 0.000000 0.550593 1.280346 0.613041
    14 10.145760 0.000000 0.000000 0.000000 0.000000 -1.691022
    15 10.145755 0.000000 0.000000 -1.568795 0.000000 0.000000
    16 -0.429697 0.001941 -1.809077 -0.638337 1.423575 1.697310
    17 4.395323 0.000000 -0.000003 -0.233498 -0.983284 -0.039338
    18 10.145754 0.000000 0.000000 0.000000 0.000000 -1.748705
    19 10.145759 0.000000 0.000000 1.925313 -0.060242 -0.297786
    20 2.248528 0.000000 0.000000 -0.209383 0.009723 -0.578331
    21 1.559925 0.904791 0.197762 0.000000 0.000001 -1.745239
  time 7
    0 -0.001589 1.504169 28.936925 0.082314 -0.019635 -1.727598
    1 0.000000 0.000000 0.000000 -0.000019 -1.597377 -1.570788
    2 -0.000004 0.000006 3.077313 0.089482 -3.217566 -0.548418
    3 15.654860 0.000000 0.000000 0.000000 0.000000 -1.178034
    4 15.370940 0.000000 0.000000 -0.272140 -0.039713 0.612010
    5 0.000005 -0.000003 -3.077313 0.041103 3.017044 -0.608403
    6 15.654860 0.000000 0.000000 0.000000 0.000000 -1.208429
    7 15.370940 0.000000 0.000000 0.056878 0.029539 0.588256
    8 3.231148 -0.004234 -0.082029 -0.098474 0.041429 0.060682
    9 4.927894 -0.004538 0.000000 -0.131407 0.106422 0.138431
    10 5.283844 -0.005492 0.000000 -0.144378 0.098734 0.191331
    11 6.391656 -0.001818 0.000000 -0.000193 -0.261646 0.785003
    12 0.480487 0.001927 1.797358 2.358183 -1.308728 -0.002382
    13 4.395322 0.000000 0.000000 0.839910 1.358074 0.960137
    14 10.145760 0.000000 0.000000 0.000000 0.000000 -1.787973
    15 10.145755 0.000000 0.000000 -1.568795 0.000000 0.000000
    16 -0.480480 0.001941 -1.797358 -0.570459 1.445800 1.759052
    17 4.395323 0.000000 -0.000003 -0.248020 -0.961927 -0.055871
    18 10.145754 0.000000 0.000000 0.000000 0.000000 -1.939544
    19 10.145759 0.000000 0.000000 1.925313 -0.060242 -0.297786
    20 2.248528 0.000000 0.000000 -0.135761 0.006931 -0.565367
    21 1.559925 0.904791 0.197762 0.000000 0.000001 -1.745239
  time 8
    0 -0.168251 1.538590 28.467619 0.090938 -0.019061 -1.752400
    1 0.000000 0.000000 0.000000 -0.000019 -1.602347 -1.570788
    2 -0.000004 0.000006 3.077313 0.104246 -3.227152 -0.568957
    3 15.654860 0.000000 0.000000 0.000000 0.000000 -1.228843
    4 15.370940 0.000000 0.000000 -0.314730 -0.045846 0.643261
    5 0.000005 -0.000003 -3.077313 0.058903 2.998457 -0.655847
    6 15.654860 0.000000 0.000000 0.000000 0.000000 -1.285305
    7 15.370940 0.000000 0.000000 0.101747 0.023816 0.616343
    8 3.231148 -0.004234 -0.097655 -0.108244 0.055526 0.059617
    9 4.927894 -0.004538 0.000000 -0.143574 0.108126 0.137150
    10 5.283844 -0.005492 0.000000 -0.156231 0.101019 0.190130
    11 6.391656 -0.001818 0.000000 -0.000193 -0.261646 0.785003
    12 0.480487 0.001927 1.797358 2.456933 -1.277488 -0.105065
    13 4.395322 0.000000 0.000000 -1.506558 1.771685 -1.322555
    14 10.145760 0.000000 0.000000 0.000000 0.000000 -1.932292
    15 10.145755 0.000000 0.000000 -1.568795 0.000000 0.000000
    16 -0.480480 0.001941 -1.797358 -0.719446 1.468447 1.609106
    17 4.395323 0.000000 -0.000003 -0.318340 -0.930034 -0.009521
    18 10.145754 0.000000 0.000000 0.000000 0.000000 -2.035310
    19 10.145759 0.000000 0.000000 1.925313 -0.060242 -0.297786
    20 2.248528 0.000000 0.000000 -0.261243 0.001147 -0.552466
    21 1.559925 0.904791 0.197762 0.000000 0.000001 -1.745239
  time 9
    0 -0.277443 1.521380 28.232966 0.096592 -0.016283 -1.780458
    1 0.000000 0.000000 0.000000 -0.000019 -1.607459 -1.570788
    2 -0.000004 0.000006 3.077313 0.118723 -3.235013 -0.575978
    3 15.654860 0.000000 0.000000 0.000000 0.000000 -1.253201
    4 15.370940 0.000000 0.000000 -0.359491 -0.048469 0.663494
    5 0.000005 -0.000003 -3.077313 0.078904 2.982935 -0.674416
    6 15.654860 0.000000 0.000000 0.000000 0.000000 -1.307912
    7 15.370940 0.000000 0.000000 0.142300 0.017357 0.618341
    8 3.231148 -0.004234 -0.117187 -0.115764 0.075954 0.057743
    9 4.927894 -0.004538 0.000000 -0.160843 0.110493 0.135267
    10 5.283844 -0.005492 0.000000 -0.166423 0.102969 0.189106
    11 6.391656 -0.001818 0.000000 -0.000193 -0.261646 0.785003
    12 0.480487 0.001927 1.797358 2.487612 -1.265501 -0.137279
    13 4.395322 0.000000 0.000000 -1.339164 1.806009 -1.174277
    14 10.145760 0.000000 0.000000 0.000000 0.000000 -2.052355
    15 10.145755 0.000000 0.000000 -1.568795 0.000000 0.000000
    16 -0.480480 0.001941 -1.797358 -0.917233 1.485874 1.410457
    17 4.395323 0.000000 -0.000003 -0.380921 -0.886941 0.030713
    18 10.145754 0.000000 0.000000 0.000000 0.000000 -2.231783
    19 10.145759 0.000000 0.000000 1.925313 -0.060242 -0.297786
    20 2.248528 0.000000 0.000000 -0.290877 -0.010969 -0.543908
    21 1.559925 0.904791 0.197762 0.000000 0.000001 -1.745239
  time 10
    0 -0.329166 1.504169 28.232966 0.099179 -0.013409 -1.797216
    1 0.000000 0.000000 0.000000 -0.000019 -1.612677 -1.570788
    2 -0.000004 0.000006 3.077313 0.143553 -3.247379 -0.572994
    3 15.654860 0.000000 0.000000 0.000000 0.000000 -1.254173
    4 15.370940 0.000000 0.000000 -0.403776 -0.048469 0.669522
    5 0.000005 -0.000003 -3.077313 0.101680 2.967988 -0.678791
    6 15.654860 0.000000 0.000000 0.000000 0.000000 -1.306485
    7 15.370940 0.000000 0.000000 0.108648 0.011308 0.609703
    8 3.231148 -0.004234 -0.132812 -0.120578 0.095892 0.055796
    9 4.927894 -0.004538 0.000000 -0.172367 0.112042 0.133986
    10 5.283844 -0.005492 0.000000 -0.173763 0.104375 0.188344
    11 6.391656 -0.001818 0.000000 -0.000193 -0.261646 0.785003
    12 0.480487 0.001927 1.797358 2.529317 -1.247021 -0.181095
    13 4.395322 0.000000 0.000000 -1.236306 1.817360 -1.111938
    14 10.145760 0.000000 0.000000 0.000000 0.000000 -2.144424
    15 10.145755 0.000000 0.000000 -1.568795 0.000000 0.000000
    16 -0.480480 0.001941 -1.797358 -0.846095 1.480730 1.481787
    17 4.395323 0.000000 -0.000003 -0.260632 -0.856377 -0.086835
    18 10.145754 0.000000 0.000000 0.000000 0.000000 -2.209867
    19 10.145759 0.000000 0.000000 1.925313 -0.060242 -0.297786
    20 2.248528 0.000000 0.000000 -0.427009 -0.020293 -0.540587
    21 1.559925 0.904791 0.197762 0.000000 0.000001 -1.745239
  time 11
    0 -0.340660 1.504169 28.279897 0.100712 -0.013505 -1.788406
    1 0.000000 0.000000 0.000000 -0.000019 -1.617894 -1.570788
    2 -0.000004 0.000006 3.077313 0.233000 -3.303170 -0.559565
    3 15.654860 0.000000 0.000000 0.000000 0.000000 -1.248419
    4 15.370940 0.000000 0.000000 -0.499811 -0.045217 0.670354
    5 0.000005 -0.000003 -3.077313 0.132782 2.950646 -0.670187
    6 15.654860 0.000000 0.000000 0.000000 0.000000 -1.298712
    7 15.370940 0.000000 0.000000 0.083107 0.009945 0.607059
    8 3.227241 -0.004234 -0.148438 -0.123797 0.106767 0.054951
    9 4.927894 -0.004538 0.000000 -0.166159 0.111201 0.134664
    10 5.283844 -0.005492 0.000000 -0.178831 0.105334 0.187817
    11 6.391656 -0.001818 0.000000 -0.000193 -0.261646 0.785003
    12 0.480487 0.001927 1.797358 2.667566 -1.158662 -0.329031
    13 4.395322 0.000000 0.000000 -0.719445 1.739359 -0.635982
    14 10.145760 0.000000 0.000000 0.000000 0.000000 -2.064102
    15 10.145755 0.000000 0.000000 -1.568795 0.000000 0.000000
    16 -0.480480 0.001941 -1.797358 -2.039909 1.495240 0.284906
    17 4.395323 0.000000 -0.000003 -0.194994 -0.822300 -0.255032
    18 10.145754 0.000000 0.000000 0.000000 0.000000 -2.174137
    19 10.145759 0.000000 0.000000 1.925313 -0.060242 -0.297786
    20 2.248528 0.000000 0.000000 -0.285413 -0.036847 -0.587464
    21 1.559925 0.904791 0.197762 0.000000 0.000001 -1.745239
  time 12
    0 -0.294684 1.504169 28.326827 0.103587 -0.019156 -1.739377
    1 0.000000 0.000000 0.000000 -0.000019 -1.622865 -1.570788
    2 -0.000004 0.000006 3.077313 0.220249 -3.292434 -0.564041
    3 15.654860 0.000000 0.000000 0.000000 0.000000 -1.245954
    4 15.370940 0.000000 0.000000 -0.434142 -0.047619 0.659198
    5 0.000005 -0.000003 -3.077313 0.104073 2.970096 -0.658617
    6 15.654860 0.000000 0.000000 0.000000 0.000000 -1.294790
    7 15.370940 0.000000 0.000000 0.167220 0.016567 0.611348
    8 3.227241 -0.004234 -0.164063 -0.123426 0.103948 0.055943
    9 4.927894 -0.004538 0.000000 -0.130087 0.092262 0.140415
    10 5.283844 -0.005492 0.000000 -0.178831 0.105334 0.187817
    11 6.391656 -0.001818 0.000000 -0.000193 -0.261646 0.785003
    12 0.480487 0.001927 1.797358 2.581568 -1.219369 -0.236511
    13 4.395322 0.000000 0.000000 -0.497048 1.683061 -0.464757
    14 10.145760 0.000000 0.000000 0.000000 0.000000 -2.037634
    15 10.145755 0.000000 0.000000 -1.568795 0.000000 0.000000
    16 -0.480480 0.001941 -1.797358 -1.085682 1.494587 1.241433
    17 4.395323 0.000000 -0.000003 -0.185821 -0.887700 -0.302911
    18 10.145754 0.000000 0.000000 0.000000 0.000000 -2.159089
    19 10.145759 0.000000 0.000000 1.925313 -0.060242 -0.297786
    20 2.248528 0.000000 0.000000 -0.167062 -0.021191 -0.670616
    21 1.559925 0.904791 0.197762 0.000000 0.000001 -1.745239
  time 13
    0 -0.168251 1.521380 28.420688 0.105504 -0.028447 -1.659704
    1 0.000000 0.000000 0.000000 -0.000019 -1.627271 -1.570788
    2 -0.000004 0.000006 3.077313 0.257543 -3.317933 -0.559565
    3 15.654860 0.000000 0.000000 0.000000 0.000000 -1.236165
    4 15.370940 0.000000 0.000000 -0.398958 -0.046806 0.640212
    5 0.000005 -0.000003 -3.077313 0.134505 2.943268 -0.630521
    6 15.654860 0.000000 0.000000 0.000000 0.000000 -1.283166
    7 15.370940 0.000000 0.000000 0.208164 0.024579 0.613522
    8 3.227241 -0.004234 -0.179689 -0.122999 0.091864 0.058037
    9 4.927894 -0.004538 0.000000 -0.072679 0.063212 0.146970
    10 5.283844 -0.005492 0.000000 -0.178831 0.105334 0.187817
    11 6.391656 -0.001818 0.000000 -0.000193 -0.261646 0.785003
    12 0.480487 0.001927 1.797358 2.658267 -1.166381 -0.318964
    13 4.395322 0.000000 0.000000 -0.085331 1.657636 -0.183903
    14 10.145760 0.000000 0.000000 0.000000 0.000000 -2.019403
    15 10.145755 0.000000 0.000000 -1.568795 0.000000 0.000000
    16 -0.480480 0.001941 -1.797358 -1.931860 1.498733 0.393147
    17 4.395323 0.000000 -0.000003 -0.100023 -1.009007 -0.436036
    18 10.145754 0.000000 0.000000 0.000000 0.000000 -2.147823
    19 10.145759 0.000000 0.000000 1.925313 -0.060242 -0.297786
    20 2.248528 0.000000 0.000000 -0.091310 -0.011817 -0.785382
    21 1.559925 0.904791 0.197762 0.000000 0.000001 -1.745239
  time 14
    0 0.032893 1.555800 28.702272 0.102821 -0.036301 -1.582618
    1 0.000000 0.000000 0.000000 -0.000019 -1.630515 -1.570788
    2 -0.000004 0.000006 3.077313 0.246230 -3.309114 -0.554211
    3 15.654860 0.000000 0.000000 0.000000 0.000000 -1.206876
    4 15.370940 0.000000 0.000000 -0.307384 -0.042594 0.608268
    5 0.000005 -0.000003 -3.077313 0.124935 2.961377 -0.594840
    6 15.654860 0.000000 0.000000 0.000000 0.000000 -1.241661
    7 15.370940 0.000000 0.000000 0.102565 0.034880 0.605648
    8 3.227241 -0.004234 -0.191408 -0.122629 0.078025 0.060168
    9 4.927894 -0.004538 0.000000 -0.019766 0.034692 0.150511
    10 5.283844 -0.005492 0.000000 -0.178831 0.105334 0.187817
    11 6.391656 -0.001818 0.000000 -0.000193 -0.261646 0.785003
    12 0.480487 0.001927 1.797358 2.568721 -1.226725 -0.222801
    13 4.395322 0.000000 0.000000 0.122957 1.622495 -0.022340
    14 10.145760 0.000000 0.000000 0.000000 0.000000 -2.004986
    15 10.145755 0.000000 0.000000 -1.568795 0.000000 0.000000
    16 -0.480480 0.001941 -1.797358 -0.990001 1.490173 1.337402
    17 4.395323 0.000000 -0.000003 -0.048430 -1.089120 -0.484488
    18 10.145754 0.000000 0.000000 0.000000 0.000000 -2.138717
    19 10.145759 0.000000 0.000000 1.925313 -0.060242 -0.297786
    20 2.248528 0.000000 0.000000 -0.039080 0.002792 -0.883926
    21 1.559925 0.904791 0.197762 0.000000 0.000001 -1.745239
  time 15
    0 0.280013 1.504169 29.265439 0.094196 -0.038313 -1.536557
    1 0.000000 0.000000 0.000000 -0.000019 -1.631819 -1.570788
    2 -0.000004 0.000006 3.077313 0.233288 -3.292817 -0.531302
    3 15.654860 0.000000 0.000000 0.000000 0.000000 -1.149716
    4 15.370940 0.000000 0.000000 -0.241923 -0.033137 0.571544
    5 0.000005 -0.000003 -3.077313 0.111441 2.982264 -0.554737
    6 15.654860 0.000000 0.000000 0.000000 0.000000 -1.187534
    7 15.370940 0.000000 0.000000 -0.010818 0.043110 0.590547
    8 3.227241 -0.004234 -0.195314 -0.122458 0.068732 0.061491
    9 4.927894 -0.004538 0.000000 0.007172 0.016328 0.151290
    10 5.283844 -0.005492 0.000000 -0.178831 0.105334 0.187817
    11 6.391656 -0.001818 0.000000 -0.000193 -0.261646 0.785003
    12 0.480487 0.001927 1.797358 2.648583 -1.174100 -0.308418
    13 4.395322 0.000000 0.000000 0.628666 1.627943 0.401309
    14 10.145760 0.000000 0.000000 0.000000 0.000000 -1.995223
    15 10.145755 0.000000 0.000000 -1.568795 0.000000 0.000000
    16 -0.480480 0.001941 -1.797358 -1.814223 1.501343 0.511071
    17 4.395323 0.000000 -0.000003 0.096988 -1.153855 -0.664154
    18 10.145754 0.000000 0.000000 0.000000 0.000000 -2.132543
    19 10.145759 0.000000 0.000000 1.925313 -0.060242 -0.297786
    20 2.248528 0.000000 0.000000 -0.001574 0.014609 -0.937509
    21 1.559925 0.904791 0.197762 0.000000 0.000001 -1.745239
  time 16
    0 0.251278 1.073908 30.110189 0.078002 -0.033141 -1.525353
    1 0.000000 0.000000 0.000000 -0.000019 -1.629245 -1.570788
    2 -0.000004 0.000006 3.077313 0.223221 -3.255048 -0.473899
    3 15.654860 0.000000 0.000000 0.000000 0.000000 -1.046231
    4 15.370940 0.000000 0.000000 -0.203735 -0.029959 0.532602
    5 0.000005 -0.000003 -3.077313 0.097757 3.008996 -0.478467
    6 15.654860 0.000000 0.000000 0.000000 0.000000 -1.058456
    7 15.370940 0.000000 0.000000 -0.104153 0.047661 0.538192
    8 3.227241 -0.004234 -0.187501 -0.102490 0.067064 0.081844
    9 4.927894 -0.004538 0.000000 0.004282 0.009337 0.136723
    10 5.283844 -0.005492 0.000000 -0.157616 0.087517 0.177510
    11 6.391656 -0.001818 0.000000 -0.000138 -0.194161 0.776969
    12 0.355483 0.001927 1.824703 2.585690 -1.311543 -0.227499
    13 4.395322 0.000000 0.000000 -0.211735 1.466766 -0.411336
    14 10.145760 0.000000 0.000000 0.000000 0.000000 -1.723365
    15 10.145755 0.000000 0.000000 -1.568795 0.000000 0.000000
    16 -0.355476 0.001941 -1.824703 -1.319996 1.449485 1.019774
    17 4.395323 0.000000 -0.000003 0.047974 -1.106300 -0.514496
    18 10.145754 0.000000 0.000000 0.000000 0.000000 -1.877654
    19 10.145759 0.000000 0.000000 1.925313 -0.060242 -0.297786
    20 2.248528 0.000000 0.000000 0.052323 -0.002593 -0.933038
    21 1.559925 0.904791 0.197762 0.000000 0.000001 -1.745239
  time 17
    0 0.119098 0.523174 31.283454 0.056537 -0.024137 -1.531769
    1 0.000000 0.000000 0.000000 -3.141571 -1.522958 1.570788
    2 -0.000004 0.000006 3.077313 0.167329 -3.191971 -0.394201
    3 15.654860 0.000000 0.000000 0.000000 0.000000 -0.892460
    4 15.370940 0.000000 0.000000 -0.134081 -0.030846 0.473288
    5 0.000005 -0.000003 -3.077313 0.061104 3.059489 -0.391406
    6 15.654860 0.000000 0.000000 0.000000 0.000000 -0.897572
    7 15.370940 0.000000 0.000000 -0.049931 0.041639 0.478023
    8 3.231148 -0.004234 -0.152344 -0.075858 0.056533 0.109951
    9 4.927894 -0.004538 0.000000 -0.014736 0.007323 0.116582
    10 5.283844 -0.005492 0.000000 -0.128286 0.063724 0.162197
    11 6.391656 -0.001818 0.000000 -0.000083 -0.107692 0.766629
    12 0.199228 0.001927 1.852047 2.297687 -1.470780 0.076811
    13 4.395322 0.000000 0.000000 -0.058926 1.311401 -0.225246
    14 10.145760 0.000000 0.000000 0.000000 0.000000 -1.438921
    15 10.145755 0.000000 0.000000 -1.568795 0.000000 0.000000
    16 -0.199222 0.001941 -1.852047 -1.193156 1.376745 1.170486
    17 4.395323 0.000000 -0.000003 0.021222 -1.046501 -0.376976
    18 10.145754 0.000000 0.000000 0.000000 0.000000 -1.610881
    19 10.145759 0.000000 0.000000 1.925313 -0.060242 -0.297786
    20 2.248528 0.000000 0.000000 0.107331 -0.026526 -0.902830
    21 1.559925 0.904791 0.197762 0.000000 0.000001 -1.745239
  time 18
    0 -0.041817 0.006861 32.409788 0.034018 -0.014272 -1.546324
    1 0.000000 0.000000 0.000000 -0.000019 -1.600726 -1.570788
    2 -0.000004 0.000006 3.077313 0.110286 -3.144520 -0.292034
    3 15.654860 0.000000 0.000000 0.000000 0.000000 -0.696847
    4 15.370940 0.000000 0.000000 -0.081557 -0.034540 0.392356
    5 0.000005 -0.000003 -3.077313 0.022537 3.095036 -0.288935
    6 15.654860 0.000000 0.000000 0.000000 0.000000 -0.700104
    7 15.370940 0.000000 0.000000 -0.010883 0.033627 0.395818
    8 3.231148 -0.004234 -0.093749 -0.049538 0.037200 0.139490
    9 4.927894 -0.004538 0.000000 -0.039997 0.006969 0.095411
    10 5.283844 -0.005492 0.000000 -0.097323 0.039756 0.144774
    11 6.391656 -0.001818 0.000000 0.000000 -0.022408 0.756477
    12 0.039067 0.001927 1.859860 0.211388 -1.497433 2.173521
    13 4.395322 0.000000 0.000000 -0.035857 1.179190 -0.179723
    14 10.145760 0.000000 0.000000 0.000000 0.000000 -1.208406
    15 10.145755 0.000000 0.000000 -1.568795 0.000000 0.000000
    16 -0.039060 0.001941 -1.859860 -1.203510 1.313102 1.188031
    17 4.395323 0.000000 -0.000003 0.023037 -0.998566 -0.282078
    18 10.145754 0.000000 0.000000 0.000000 0.000000 -1.394499
    19 10.145759 0.000000 0.000000 1.925313 -0.060242 -0.297786
    20 2.248528 0.000000 0.000000 0.154560 -0.052752 -0.865214
    21 1.559925 0.904791 0.197762 0.000000 0.000001 -1.745239
  time 19
    0 -0.156757 -0.406189 33.442261 0.013895 -0.005651 -1.561646
    1 0.000000 0.000000 0.000000 -0.000019 -1.582147 -1.570788
    2 -0.000004 0.000006 3.077313 0.056886 -3.115570 -0.170469
    3 15.654860 0.000000 0.000000 0.000000 0.000000 -0.459914
    4 15.370940 0.000000 0.000000 -0.042298 -0.038124 0.285508
    5 0.000005 -0.000003 -3.077313 -0.013541 3.113911 -0.171006
    6 15.654860 0.000000 0.000000 0.000000 0.000000 -0.465339
    7 15.370940 0.000000 0.000000 0.017765 0.027086 0.288875
    8 3.231148 -0.004234 -0.035153 -0.027634 0.016139 0.165759
    9 4.927894 -0.004538 0.000000 -0.064080 0.006483 0.076650
    10 5.283844 -0.005492 0.000000 -0.069710 0.019446 0.128202
    11 6.391656 -0.001818 0.000000 0.000028 0.051817 0.747633
    12 -0.093750 0.001927 1.859860 -0.185432 -1.378516 2.575912
    13 4.395322 0.000000 0.000000 -0.032997 1.069318 -0.160491
    14 10.145760 0.000000 0.000000 0.000000 0.000000 -1.020226
    15 10.145755 0.000000 0.000000 -1.568795 0.000000 0.000000
    16 0.093756 0.001941 -1.859860 -1.228533 1.261704 1.190907
    17 4.395323 0.000000 -0.000003 0.037082 -0.959839 -0.214703
    18 10.145754 0.000000 0.000000 0.000000 0.000000 -1.217859
    19 10.145759 0.000000 0.000000 1.925313 -0.060242 -0.297786
    20 2.248528 0.000000 0.000000 0.192159 -0.078081 -0.830407
    21 1.559925 0.904791 0.197762 0.000000 0.000001 -1.745239
  time 20
    0 -0.202733 -0.578294 34.193150 0.000000 0.000000 -1.570839
    1 0.000000 0.000000 0.000000 -1.570795 -1.570796 0.000000
    2 -0.000004 0.000006 3.077313 -0.000924 -3.100711 -0.021168
    3 15.654860 0.000000 0.000000 0.000000 0.000000 -0.157678
    4 15.370940 0.000000 0.000000 0.001838 -0.040858 0.136462
    5 0.000005 -0.000003 -3.077313 0.001866 3.115348 -0.024688
    6 15.654860 0.000000 0.000000 0.000000 0.000000 -0.164609
    7 15.370940 0.000000 0.000000 -0.002511 0.026187 0.139861
    8 3.235054 -0.004234 0.000004 -0.012850 0.002387 0.183945
    9 4.927894 -0.004538 0.000000 -0.079779 0.005155 0.063742
    10 5.283844 -0.005492 0.000000 -0.050517 0.005928 0.116138
    11 6.391656 -0.001818 0.000000 0.000083 0.104662 0.741342
    12 -0.191409 0.001927 1.852047 -0.252735 -1.284890 2.645134
    13 4.395322 0.000000 0.000000 -0.039098 0.984598 -0.153152
    14 10.145760 0.000000 0.000000 0.000000 0.000000 -0.872703
    15 10.145755 0.000000 0.000000 -1.568795 0.000000 0.000000
    16 0.191415 0.001941 -1.852047 -1.233519 1.225162 1.208740
    17 4.395323 0.000000 -0.000003 0.054853 -0.927661 -0.169787
    18 10.145754 0.000000 0.000000 0.000000 0.000000 -1.079418
    19 10.145759 0.000000 0.000000 1.925313 -0.060242 -0.297786
    20 2.248528 0.000000 0.000000 0.218737 -0.097726 -0.807671
    21 1.559925 0.904791 0.197762 0.000000 0.000001 -1.745239
end
