version 1
nodes
  0 "Bip02" -1
  1 "Bip02 Pelvis" 0
  2 "Bip02 L Leg" 1
  3 "Bip02 L Leg1" 2
  4 "Bip02 L Foot" 3
  5 "Bip02 R Leg" 1
  6 "Bip02 R Leg1" 5
  7 "Bip02 R Foot" 6
  8 "Bip02 Spine" 1
  9 "Bip02 Spine1" 8
  10 "Bip02 Spine2" 9
  11 "Bip02 Neck" 10
  12 "Bip02 L Arm" 11
  13 "Bip02 L Arm1" 12
  14 "Bip02 L Arm2" 13
  15 "Bip02 L Hand" 14
  16 "Bip02 R Arm" 11
  17 "Bip02 R Arm1" 16
  18 "Bip02 R Arm2" 17
  19 "Bip02 R Hand" 18
  20 "Bip02 Head" 11
  21 "Bone01" 20
end
skeleton
  time 0
    0 -0.202733 -0.578294 36.962054 0.000000 0.000000 -1.570839
    1 0.000000 0.621113 0.000000 -1.570795 -1.570796 0.000000
    2 -0.000004 0.000006 3.319508 -0.001978 -3.119212 -0.028102
    3 16.897085 0.000000 0.000000 0.000000 0.000000 -0.171800
    4 16.589727 0.000000 0.000000 0.002641 -0.022275 0.143599
    5 0.000005 -0.000003 -3.319508 0.001962 3.115348 -0.024688
    6 16.897085 0.000000 0.000000 0.000000 0.000000 -0.164609
    7 16.589727 0.000000 0.000000 -0.002609 0.026187 0.139861
    8 3.488968 -0.004234 0.000004 0.000024 0.052304 0.000796
    9 5.318531 -0.004538 0.000000 0.000000 0.034869 -0.026167
    10 5.701826 -0.005492 0.000000 0.000028 0.034882 -0.026167
    11 6.899484 -0.001818 0.000000 0.000000 -0.000001 0.348889
    12 0.000003 0.001927 2.008302 -0.000013 -1.370797 2.791920
    13 4.746895 0.000000 0.000000 0.708454 1.276804 0.371487
    14 10.950472 0.000000 0.000000 0.000000 0.000000 -0.200000
    15 10.950467 0.000000 0.000000 -1.568795 0.000000 0.000000
    16 0.000003 0.001941 -2.008302 -0.000013 1.370795 2.791894
    17 4.746896 0.000000 -0.000003 -0.283754 -1.149868 0.073240
    18 10.950466 0.000000 0.000000 0.000000 0.000000 -0.461603
    19 10.950471 0.000000 0.000000 1.568795 0.000000 0.000000
    20 2.428221 0.000000 0.000000 -0.023985 -0.119664 -0.121440
    21 1.681022 0.975106 0.213387 0.000000 0.000001 -1.745239
  time 1
    0 -0.449853 -0.578294 36.633540 0.000000 0.000000 -1.570839
    1 0.000000 0.191412 0.000000 -1.570795 -1.570796 0.000000
    2 -0.000004 0.000006 3.319508 0.006458 -3.099369 -0.109292
    3 16.897085 0.000000 0.000000 0.000000 0.000000 -0.336704
    4 16.589727 0.000000 0.000000 -0.001850 -0.042742 0.227580
    5 0.000005 -0.000003 -3.319508 0.035648 3.085742 -0.111409
    6 16.897085 0.000000 0.000000 0.000000 0.000000 -0.389176
    7 16.589727 0.000000 0.000000 0.005894 0.065866 0.137863
    8 3.488968 -0.004234 0.000004 -0.000004 0.018038 0.000796
    9 5.318531 -0.004538 0.000000 0.000000 0.006638 -0.026167
    10 5.701826 -0.005492 0.000000 0.000000 0.012336 -0.026167
    11 6.899484 -0.001818 0.000000 0.000000 -0.000001 0.348889
    12 0.000003 0.001927 2.008302 -0.000013 -1.370797 2.791920
    13 4.746895 0.000000 0.000000 0.174529 1.144049 0.146841
    14 10.950472 0.000000 0.000000 0.000000 0.000000 -0.235088
    15 10.950467 0.000000 0.000000 -1.568795 0.000000 0.000000
    16 0.000003 0.001941 -2.008302 -0.000013 1.370795 2.791894
    17 4.746896 0.000000 -0.000003 -0.353214 -1.232353 0.128382
    18 10.950466 0.000000 0.000000 0.000000 0.000000 -0.457744
    19 10.950471 0.000000 0.000000 1.572000 0.000000 0.000000
    20 2.428221 0.000000 0.000000 -0.007223 -0.036298 -0.122781
    21 1.681022 0.975106 0.213387 0.000000 0.000001 -1.745239
  time 2
    0 -1.116502 -0.578294 36.117304 0.000000 0.000000 -1.570839
    1 0.000000 0.468764 0.000000 -1.570795 -1.570796 0.000000
    2 -0.000004 0.000006 3.319508 0.016333 -3.088537 -0.177754
    3 16.897085 0.000000 0.000000 0.000000 0.000000 -0.476502
    4 16.589727 0.000000 0.000000 -0.006757 -0.055193 0.299228
    5 0.000005 -0.000003 -3.319508 0.079957 3.038027 -0.233762
    6 16.897085 0.000000 0.000000 0.000000 0.000000 -0.710159
    7 16.589727 0.000000 0.000000 0.004291 0.106389 0.132575
    8 3.488968 -0.004234 0.000004 0.000024 0.044335 0.000796
    9 5.318531 -0.004538 0.000000 0.000000 0.016328 -0.026167
    10 5.701826 -0.005492 0.000000 0.000000 0.030344 -0.026167
    11 6.899484 -0.001818 0.000000 0.000000 -0.000001 0.348889
    12 0.000003 0.001927 2.008302 -0.000013 -1.370797 2.791920
    13 4.746895 0.000000 0.000000 0.243450 1.141507 0.174991
    14 10.950472 0.000000 0.000000 0.000000 0.000000 -0.286348
    15 10.950467 0.000000 0.000000 -1.568795 0.000000 0.000000
    16 0.000003 0.001941 -2.008302 -0.000013 1.370795 2.791894
    17 4.746896 0.000000 -0.000003 -0.427547 -1.173029 0.172438
    18 10.950466 0.000000 0.000000 0.000000 0.000000 -0.450028
    19 10.950471 0.000000 0.000000 1.578502 0.000000 0.000000
    20 2.428221 0.000000 0.000000 -0.017780 -0.089249 -0.122079
    21 1.681022 0.975106 0.213387 0.000000 0.000001 -1.745239
  time 3
    0 -2.110729 -0.578294 35.554137 0.000000 0.000000 -1.570839
    1 0.000000 0.808618 0.000000 -1.570795 -1.570796 0.000000
    2 -0.000004 0.000006 3.319508 0.029275 -3.070035 -0.236474
    3 16.897085 0.000000 0.000000 0.000000 0.000000 -0.596201
    4 16.589727 0.000000 0.000000 -0.011813 -0.076436 0.361244
    5 0.000005 -0.000003 -3.319508 0.125701 2.976803 -0.363552
    6 16.897085 0.000000 0.000000 0.000000 0.000000 -1.058099
    7 16.589727 0.000000 0.000000 0.000727 0.126174 0.130342
    8 3.488968 -0.004234 0.000004 0.000053 0.076356 0.000796
    9 5.318531 -0.004538 0.000000 0.000000 0.028121 -0.026167
    10 5.701826 -0.005492 0.000000 0.000028 0.052251 -0.026167
    11 6.899484 -0.001818 0.000000 0.000000 -0.000001 0.348889
    12 0.000003 0.001927 2.008302 -0.000013 -1.370797 2.791920
    13 4.746895 0.000000 0.000000 0.320474 1.137874 0.201191
    14 10.950472 0.000000 0.000000 0.000000 0.000000 -0.348667
    15 10.950467 0.000000 0.000000 -1.568795 0.000000 0.000000
    16 0.000003 0.001941 -2.008302 -0.000013 1.370795 2.791894
    17 4.746896 0.000000 -0.000003 -0.483535 -1.100985 0.199962
    18 10.950466 0.000000 0.000000 0.000000 0.000000 -0.442388
    19 10.950471 0.000000 0.000000 1.585005 0.000000 0.000000
    20 2.428221 0.000000 0.000000 -0.030838 -0.153669 -0.120418
    21 1.681022 0.975106 0.213387 0.000000 0.000001 -1.745239
  time 4
    0 -3.334835 -0.578294 34.944039 0.000000 0.000000 -1.570839
    1 0.000000 1.195349 0.000000 -1.570795 -1.570796 0.000000
    2 -0.000004 0.000006 3.319508 0.044902 -3.046166 -0.287909
    3 16.897085 0.000000 0.000000 0.000000 0.000000 -0.700807
    4 16.589727 0.000000 0.000000 -0.016066 -0.104292 0.415915
    5 0.000005 -0.000003 -3.319508 0.172019 2.932346 -0.372010
    6 16.897085 0.000000 0.000000 0.000000 0.000000 -1.112155
    7 16.589727 0.000000 0.000000 0.054851 0.144405 0.189278
    8 3.488968 -0.004234 0.000004 0.000081 0.112924 0.000796
    9 5.318531 -0.004538 0.000000 0.000000 0.041595 -0.026167
    10 5.701826 -0.005492 0.000000 0.000055 0.077274 -0.026167
    11 6.899484 -0.001818 0.000000 0.000000 -0.000001 0.348889
    12 0.000003 0.001927 2.008302 -0.000013 -1.370797 2.791920
    13 4.746895 0.000000 0.000000 0.399310 1.133697 0.220050
    14 10.950472 0.000000 0.000000 0.000000 0.000000 -0.419912
    15 10.950467 0.000000 0.000000 -1.568795 0.000000 0.000000
    16 0.000003 0.001941 -2.008302 -0.000013 1.370795 2.791894
    17 4.746896 0.000000 -0.000003 -0.522804 -1.019544 0.214392
    18 10.950466 0.000000 0.000000 0.000000 0.000000 -0.435288
    19 10.950471 0.000000 0.000000 1.590957 0.000000 0.000000
    20 2.428221 0.000000 0.000000 -0.046025 -0.227212 -0.117353
    21 1.681022 0.975106 0.213387 0.000000 0.000001 -1.745239
  time 5
    0 -4.679627 -0.578294 34.240080 0.000000 0.000000 -1.570839
    1 0.000000 1.613330 0.000000 -1.570795 -1.570796 0.000000
    2 -0.000004 0.000006 3.319508 0.062255 -3.018941 -0.333638
    3 16.897085 0.000000 0.000000 0.000000 0.000000 -0.793084
    4 16.589727 0.000000 0.000000 -0.018981 -0.136249 0.464488
    5 0.000005 -0.000003 -3.319508 0.231065 2.893350 -0.318393
    6 16.897085 0.000000 0.000000 0.000000 0.000000 -1.025580
    7 16.589727 0.000000 0.000000 0.148709 0.172638 0.291167
    8 3.488968 -0.004234 0.000004 0.000110 0.153030 0.000796
    9 5.318531 -0.004538 0.000000 0.000036 0.056375 -0.026167
    10 5.701826 -0.005492 0.000000 0.000083 0.104694 -0.026167
    11 6.899484 -0.001818 0.000000 0.000000 -0.000001 0.348889
    12 0.000003 0.001927 2.008302 -0.000013 -1.370797 2.791920
    13 4.746895 0.000000 0.000000 0.474427 1.129702 0.227669
    14 10.950472 0.000000 0.000000 0.000000 0.000000 -0.497945
    15 10.950467 0.000000 0.000000 -1.568795 0.000000 0.000000
    16 0.000003 0.001941 -2.008302 -0.000013 1.370795 2.791894
    17 4.746896 0.000000 -0.000003 -0.549747 -0.931173 0.220891
    18 10.950466 0.000000 0.000000 0.000000 0.000000 -0.428729
    19 10.950471 0.000000 0.000000 1.596452 0.000000 0.000000
    20 2.428221 0.000000 0.000000 -0.063436 -0.307736 -0.112499
    21 1.681022 0.975106 0.213387 0.000000 0.000001 -1.745239
  time 6
    0 -6.041660 -0.578294 33.536122 0.000000 0.000000 -1.570839
    1 0.000000 2.054750 0.000000 -1.570795 -1.570796 0.000000
    2 -0.000004 0.000006 3.319508 0.080374 -2.990758 -0.374892
    3 16.897085 0.000000 0.000000 0.000000 0.000000 -0.874901
    4 16.589727 0.000000 0.000000 -0.020141 -0.169647 0.507796
    5 0.000005 -0.000003 -3.319508 0.301882 2.853396 -0.252380
    6 16.897085 0.000000 0.000000 0.000000 0.000000 -0.923316
    7 16.589727 0.000000 0.000000 0.261111 0.201579 0.409685
    8 3.488968 -0.004234 0.000004 0.000138 0.195813 0.000796
    9 5.318531 -0.004538 0.000000 0.000036 0.072128 -0.026167
    10 5.701826 -0.005492 0.000000 0.000083 0.133984 -0.026167
    11 6.899484 -0.001818 0.000000 0.000000 -0.000001 0.348889
    12 0.000003 0.001927 2.008302 -0.000013 -1.370797 2.791920
    13 4.746895 0.000000 0.000000 0.541442 1.126706 0.221165
    14 10.950472 0.000000 0.000000 0.000000 0.000000 -0.581318
    15 10.950467 0.000000 0.000000 -1.568795 0.000000 0.000000
    16 0.000003 0.001941 -2.008302 -0.000013 1.370795 2.791894
    17 4.746896 0.000000 -0.000003 -0.568378 -0.837772 0.223089
    18 10.950466 0.000000 0.000000 0.000000 0.000000 -0.422787
    19 10.950471 0.000000 0.000000 1.601489 0.000000 0.000000
    20 2.428221 0.000000 0.000000 -0.082975 -0.393595 -0.105346
    21 1.681022 0.975106 0.213387 0.000000 0.000001 -1.745239
  time 7
    0 -7.328983 -0.578294 32.832163 0.000000 0.000000 -1.570839
    1 0.000000 2.507889 0.000000 -1.570795 -1.570796 0.000000
    2 -0.000004 0.000006 3.319508 0.097631 -2.964300 -0.411932
    3 16.897085 0.000000 0.000000 0.000000 0.000000 -0.947229
    4 16.589727 0.000000 0.000000 -0.019397 -0.201271 0.545975
    5 0.000005 -0.000003 -3.319508 0.382269 2.815071 -0.186853
    6 16.897085 0.000000 0.000000 0.000000 0.000000 -0.833390
    7 16.589727 0.000000 0.000000 0.372302 0.224989 0.531318
    8 3.488968 -0.004234 0.000004 0.000167 0.240695 0.000796
    9 5.318531 -0.004538 0.000000 0.000036 0.088678 -0.026167
    10 5.701826 -0.005492 0.000000 0.000111 0.164696 -0.026167
    11 6.899484 -0.001818 0.000000 0.000000 -0.000001 0.348889
    12 0.000003 0.001927 2.008302 -0.000013 -1.370797 2.791920
    13 4.746895 0.000000 0.000000 0.597113 1.125434 0.198682
    14 10.950472 0.000000 0.000000 0.000000 0.000000 -0.668733
    15 10.950467 0.000000 0.000000 -1.568795 0.000000 0.000000
    16 0.000003 0.001941 -2.008302 -0.000013 1.370795 2.791894
    17 4.746896 0.000000 -0.000003 -0.587009 -0.739625 0.226243
    18 10.950466 0.000000 0.000000 0.000000 0.000000 -0.416922
    19 10.950471 0.000000 0.000000 1.606800 0.000000 0.000000
    20 2.428221 0.000000 0.000000 -0.105108 -0.483493 -0.095447
    21 1.681022 0.975106 0.213387 0.000000 0.000001 -1.745239
  time 8
    0 -8.432402 -0.578294 32.175135 0.000000 0.000000 -1.570839
    1 0.000000 2.961028 0.000000 -1.570795 -1.570796 0.000000
    2 -0.000004 0.000006 3.319508 0.111916 -2.942348 -0.444056
    3 16.897085 0.000000 0.000000 0.000000 0.000000 -1.009245
    4 16.589727 0.000000 0.000000 -0.016750 -0.227613 0.578265
    5 0.000005 -0.000003 -3.319508 0.456436 2.778662 -0.212373
    6 16.897085 0.000000 0.000000 0.000000 0.000000 -0.933514
    7 16.589727 0.000000 0.000000 0.284232 0.220383 0.575211
    8 3.488968 -0.004234 0.000004 0.000224 0.287016 0.000796
    9 5.318531 -0.004538 0.000000 0.000071 0.105736 -0.026167
    10 5.701826 -0.005492 0.000000 0.000138 0.196366 -0.026167
    11 6.899484 -0.001818 0.000000 0.000000 -0.000001 0.348889
    12 0.000003 0.001927 2.008302 -0.000013 -1.370797 2.791920
    13 4.746895 0.000000 0.000000 0.638580 1.126161 0.159011
    14 10.950472 0.000000 0.000000 0.000000 0.000000 -0.758895
    15 10.950467 0.000000 0.000000 -1.568795 0.000000 0.000000
    16 0.000003 0.001941 -2.008302 -0.000013 1.370795 2.791894
    17 4.746896 0.000000 -0.000003 -0.622074 -0.636068 0.238762
    18 10.950466 0.000000 0.000000 0.000000 0.000000 -0.411443
    19 10.950471 0.000000 0.000000 1.614035 0.000000 0.000000
    20 2.428221 0.000000 0.000000 -0.130390 -0.575983 -0.082035
    21 1.681022 0.975106 0.213387 0.000000 0.000001 -1.745239
  time 9
    0 -9.254220 -0.578294 31.705829 0.000000 0.000000 -1.570839
    1 -0.003906 3.386822 0.000000 -1.570795 -1.570796 0.000000
    2 -0.000004 0.000006 3.319508 0.120640 -2.927202 -0.468545
    3 16.897085 0.000000 0.000000 0.000000 0.000000 -1.056094
    4 16.589727 0.000000 0.000000 -0.012349 -0.245236 0.602032
    5 0.000005 -0.000003 -3.319508 0.534526 2.737559 -0.218547
    6 16.897085 0.000000 0.000000 0.000000 0.000000 -1.001904
    7 16.589727 0.000000 0.000000 0.195017 0.221609 0.599420
    8 3.488968 -0.004234 0.000004 0.000252 0.331438 0.000833
    9 5.318531 -0.004538 0.000000 0.000071 0.122109 -0.026167
    10 5.701826 -0.005492 0.000000 0.000166 0.226774 -0.026167
    11 6.899484 -0.001818 0.000000 0.000000 -0.000001 0.348889
    12 0.000003 0.001927 2.008302 -0.000013 -1.370797 2.791920
    13 4.746895 0.000000 0.000000 0.662602 1.128612 0.105684
    14 10.950472 0.000000 0.000000 0.000000 0.000000 -0.845395
    15 10.950467 0.000000 0.000000 -1.568795 0.000000 0.000000
    16 0.000003 0.001941 -2.008302 -0.000013 1.370795 2.791894
    17 4.746896 0.000000 -0.000003 -0.685897 -0.551400 0.254244
    18 10.950466 0.000000 0.000000 0.000000 0.000000 -0.444163
    19 10.950471 0.000000 0.000000 1.621087 0.000000 0.000000
    20 2.428221 0.000000 0.000000 -0.157802 -0.664385 -0.065430
    21 1.681022 0.975106 0.213387 0.000000 0.000001 -1.745239
  time 10
    0 -9.254220 -0.578294 31.377315 0.000000 0.000000 -1.570839
    1 -0.003906 3.386822 0.000000 -1.570795 -1.570796 0.000000
    2 -0.000004 0.000006 3.319508 0.121215 -2.924230 -0.486802
    3 16.897085 0.000000 0.000000 0.000000 0.000000 -1.092556
    4 16.589727 0.000000 0.000000 -0.006906 -0.248339 0.619840
    5 0.000005 -0.000003 -3.319508 0.579217 2.704503 -0.219227
    6 16.897085 0.000000 0.000000 0.000000 0.000000 -1.040200
    7 16.589727 0.000000 0.000000 0.141286 0.228722 0.607764
    8 3.488968 -0.004234 0.000004 0.000252 0.331438 0.000833
    9 5.318531 -0.004538 0.000000 0.000071 0.122109 -0.026167
    10 5.701826 -0.005492 0.000000 0.000166 0.226774 -0.026167
    11 6.899484 -0.001818 0.000000 0.000000 -0.000001 0.348889
    12 0.000003 0.001927 2.008302 -0.000013 -1.370797 2.791920
    13 4.746895 0.000000 0.000000 0.662602 1.128612 0.105684
    14 10.950472 0.000000 0.000000 0.000000 0.000000 -0.845395
    15 10.950467 0.000000 0.000000 -1.568795 0.000000 0.000000
    16 0.000003 0.001941 -2.008302 -0.000013 1.370795 2.791894
    17 4.746896 0.000000 -0.000003 -0.685897 -0.551400 0.254244
    18 10.950466 0.000000 0.000000 0.000000 0.000000 -0.444163
    19 10.950471 0.000000 0.000000 1.621087 0.000000 0.000000
    20 2.428221 0.000000 0.000000 -0.157802 -0.664385 -0.065430
    21 1.681022 0.975106 0.213387 0.000000 0.000001 -1.745239
  time 11
    0 -9.254220 -0.578294 31.189593 0.000000 0.000000 -1.570839
    1 -0.003906 3.386822 0.000000 -1.570795 -1.570796 0.000000
    2 -0.000004 0.000006 3.319508 0.124571 -2.924135 -0.497422
    3 16.897085 0.000000 0.000000 0.000000 0.000000 -1.114374
    4 16.589727 0.000000 0.000000 -0.007203 -0.250038 0.631481
    5 0.000005 -0.000003 -3.319508 0.575676 2.697030 -0.228026
    6 16.897085 0.000000 0.000000 0.000000 0.000000 -1.063091
    7 16.589727 0.000000 0.000000 0.140207 0.230357 0.619633
    8 3.488968 -0.004234 0.000004 0.000252 0.331438 0.000833
    9 5.318531 -0.004538 0.000000 0.000071 0.122109 -0.026167
    10 5.701826 -0.005492 0.000000 0.000166 0.226774 -0.026167
    11 6.899484 -0.001818 0.000000 0.000000 -0.000001 0.348889
    12 0.000003 0.001927 2.008302 -0.000013 -1.370797 2.791920
    13 4.746895 0.000000 0.000000 0.662602 1.128612 0.105684
    14 10.950472 0.000000 0.000000 0.000000 0.000000 -0.845395
    15 10.950467 0.000000 0.000000 -1.568795 0.000000 0.000000
    16 0.000003 0.001941 -2.008302 -0.000013 1.370795 2.791894
    17 4.746896 0.000000 -0.000003 -0.685897 -0.551400 0.254244
    18 10.950466 0.000000 0.000000 0.000000 0.000000 -0.444163
    19 10.950471 0.000000 0.000000 1.621087 0.000000 0.000000
    20 2.428221 0.000000 0.000000 -0.157802 -0.664385 -0.065430
    21 1.681022 0.975106 0.213387 0.000000 0.000001 -1.745239
  time 12
    0 -9.254220 -0.578294 31.142662 0.000000 0.000000 -1.570839
    1 -0.003906 3.386822 0.000000 -1.570795 -1.570796 0.000000
    2 -0.000004 0.000006 3.319508 0.125913 -2.924518 -0.499616
    3 16.897085 0.000000 0.000000 0.000000 0.000000 -1.118932
    4 16.589727 0.000000 0.000000 -0.008155 -0.250371 0.634114
    5 0.000005 -0.000003 -3.319508 0.571274 2.697030 -0.230942
    6 16.897085 0.000000 0.000000 0.000000 0.000000 -1.067869
    7 16.589727 0.000000 0.000000 0.143771 0.230412 0.622983
    8 3.488968 -0.004234 0.000004 0.000252 0.331438 0.000833
    9 5.318531 -0.004538 0.000000 0.000071 0.122109 -0.026167
    10 5.701826 -0.005492 0.000000 0.000166 0.226774 -0.026167
    11 6.899484 -0.001818 0.000000 0.000000 -0.000001 0.348889
    12 0.000003 0.001927 2.008302 -0.000013 -1.370797 2.791920
    13 4.746895 0.000000 0.000000 0.662602 1.128612 0.105684
    14 10.950472 0.000000 0.000000 0.000000 0.000000 -0.845395
    15 10.950467 0.000000 0.000000 -1.568795 0.000000 0.000000
    16 0.000003 0.001941 -2.008302 -0.000013 1.370795 2.791894
    17 4.746896 0.000000 -0.000003 -0.685897 -0.551400 0.254244
    18 10.950466 0.000000 0.000000 0.000000 0.000000 -0.444163
    19 10.950471 0.000000 0.000000 1.621087 0.000000 0.000000
    20 2.428221 0.000000 0.000000 -0.157802 -0.664385 -0.065430
    21 1.681022 0.975106 0.213387 0.000000 0.000001 -1.745239
  time 13
    0 -9.254220 -0.578294 31.283454 0.000000 0.000000 -1.570839
    1 -0.003906 3.386822 0.000000 -1.570795 -1.570796 0.000000
    2 -0.000004 0.000006 3.319508 0.124379 -2.925285 -0.490927
    3 16.897085 0.000000 0.000000 0.000000 0.000000 -1.101448
    4 16.589727 0.000000 0.000000 -0.009226 -0.248893 0.625106
    5 0.000005 -0.000003 -3.319508 0.567733 2.705653 -0.225838
    6 16.897085 0.000000 0.000000 0.000000 0.000000 -1.049542
    7 16.589727 0.000000 0.000000 0.151195 0.228531 0.614932
    8 3.488968 -0.004234 0.000004 0.000252 0.331438 0.000833
    9 5.318531 -0.004538 0.000000 0.000071 0.122109 -0.026167
    10 5.701826 -0.005492 0.000000 0.000166 0.226774 -0.026167
    11 6.899484 -0.001818 0.000000 0.000000 -0.000001 0.348889
    12 0.000003 0.001927 2.008302 -0.000013 -1.370797 2.791920
    13 4.746895 0.000000 0.000000 0.662602 1.128612 0.105684
    14 10.950472 0.000000 0.000000 0.000000 0.000000 -0.845395
    15 10.950467 0.000000 0.000000 -1.568795 0.000000 0.000000
    16 0.000003 0.001941 -2.008302 -0.000013 1.370795 2.791894
    17 4.746896 0.000000 -0.000003 -0.685897 -0.551400 0.254244
    18 10.950466 0.000000 0.000000 0.000000 0.000000 -0.444163
    19 10.950471 0.000000 0.000000 1.621087 0.000000 0.000000
    20 2.428221 0.000000 0.000000 -0.157802 -0.664385 -0.065430
    21 1.681022 0.975106 0.213387 0.000000 0.000001 -1.745239
  time 14
    0 -9.254220 -0.578294 31.705829 0.000000 0.000000 -1.570839
    1 -0.003906 3.386822 0.000000 -1.570795 -1.570796 0.000000
    2 -0.000004 0.000006 3.319508 0.120640 -2.927202 -0.468545
    3 16.897085 0.000000 0.000000 0.000000 0.000000 -1.056094
    4 16.589727 0.000000 0.000000 -0.012349 -0.245236 0.602032
    5 0.000005 -0.000003 -3.319508 0.534526 2.737559 -0.218547
    6 16.897085 0.000000 0.000000 0.000000 0.000000 -1.001904
    7 16.589727 0.000000 0.000000 0.195017 0.221609 0.599420
    8 3.488968 -0.004234 0.000004 0.000252 0.331438 0.000833
    9 5.318531 -0.004538 0.000000 0.000071 0.122109 -0.026167
    10 5.701826 -0.005492 0.000000 0.000166 0.226774 -0.026167
    11 6.899484 -0.001818 0.000000 0.000000 -0.000001 0.348889
    12 0.000003 0.001927 2.008302 -0.000013 -1.370797 2.791920
    13 4.746895 0.000000 0.000000 0.662602 1.128612 0.105684
    14 10.950472 0.000000 0.000000 0.000000 0.000000 -0.845395
    15 10.950467 0.000000 0.000000 -1.568795 0.000000 0.000000
    16 0.000003 0.001941 -2.008302 -0.000013 1.370795 2.791894
    17 4.746896 0.000000 -0.000003 -0.685897 -0.551400 0.254244
    18 10.950466 0.000000 0.000000 0.000000 0.000000 -0.444163
    19 10.950471 0.000000 0.000000 1.621087 0.000000 0.000000
    20 2.428221 0.000000 0.000000 -0.157802 -0.664385 -0.065430
    21 1.681022 0.975106 0.213387 0.000000 0.000001 -1.745239
  time 15
    0 -5.955456 -0.578294 33.442261 0.000000 0.000000 -1.570839
    1 0.000000 3.074313 0.000000 -1.570795 -1.570796 0.000000
    2 -0.000004 0.000006 3.319508 0.062734 -3.022201 -0.389198
    3 16.897085 0.000000 0.000000 0.000000 0.000000 -0.907777
    4 16.589727 0.000000 0.000000 -0.013063 -0.134217 0.523178
    5 0.000005 -0.000003 -3.319508 0.500074 2.755763 -0.105236
    6 16.897085 0.000000 0.000000 0.000000 0.000000 -0.678211
    7 16.589727 0.000000 0.000000 0.258233 0.281754 0.391528
    8 3.488968 -0.004234 0.000004 0.000224 0.298553 0.000833
    9 5.318531 -0.004538 0.000000 0.000071 0.109785 -0.026167
    10 5.701826 -0.005492 0.000000 0.000138 0.204292 -0.026167
    11 6.899484 -0.001818 0.000000 0.000000 -0.000001 0.348889
    12 0.000003 0.001927 2.008302 -0.000013 -1.370797 2.791920
    13 4.746895 0.000000 0.000000 0.642965 1.124435 0.146748
    14 10.950472 0.000000 0.000000 0.000000 0.000000 -0.782694
    15 10.950467 0.000000 0.000000 -1.568795 0.000000 0.000000
    16 0.000003 0.001941 -2.008302 -0.000013 1.370795 2.791894
    17 4.746896 0.000000 -0.000003 -0.637456 -0.613003 0.242967
    18 10.950466 0.000000 0.000000 0.000000 0.000000 -0.417076
    19 10.950471 0.000000 0.000000 1.615958 0.000000 0.000000
    20 2.428221 0.000000 0.000000 -0.137150 -0.598869 -0.078140
    21 1.681022 0.975106 0.213387 0.000000 0.000001 -1.745239
  time 16
    0 -2.495776 -0.578294 35.413345 0.000000 0.000000 -1.570839
    1 0.000000 2.738365 0.000000 -1.570795 -1.570796 0.000000
    2 -0.000004 0.000006 3.319508 0.017292 -3.116816 -0.256223
    3 16.897085 0.000000 0.000000 0.000000 0.000000 -0.637819
    4 16.589727 0.000000 0.000000 -0.010475 -0.028297 0.381893
    5 0.000005 -0.000003 -3.319508 0.443612 2.785944 -0.126916
    6 16.897085 0.000000 0.000000 0.000000 0.000000 -0.645193
    7 16.589727 0.000000 0.000000 0.196685 0.259735 0.342347
    8 3.488968 -0.004234 0.000004 0.000195 0.264201 0.000796
    9 5.318531 -0.004538 0.000000 0.000071 0.096908 -0.026167
    10 5.701826 -0.005492 0.000000 0.000138 0.180786 -0.026167
    11 6.899484 -0.001818 0.000000 0.000000 -0.000001 0.348889
    12 0.000003 0.001927 2.008302 -0.000013 -1.370797 2.791920
    13 4.746895 0.000000 0.000000 0.612555 1.121167 0.180380
    14 10.950472 0.000000 0.000000 0.000000 0.000000 -0.717247
    15 10.950467 0.000000 0.000000 -1.568795 0.000000 0.000000
    16 0.000003 0.001941 -2.008302 -0.000013 1.370795 2.791894
    17 4.746896 0.000000 -0.000003 -0.584907 -0.676504 0.231403
    18 10.950466 0.000000 0.000000 0.000000 0.000000 -0.388601
    19 10.950471 0.000000 0.000000 1.610647 0.000000 0.000000
    20 2.428221 0.000000 0.000000 -0.117518 -0.530112 -0.089124
    21 1.681022 0.975106 0.213387 0.000000 0.000001 -1.745239
  time 17
    0 -1.426839 -0.578294 36.023442 0.000000 0.000000 -1.570839
    1 0.000000 2.406323 0.000000 -1.570795 -1.570796 0.000000
    2 -0.000004 0.000006 3.319508 0.009814 -3.138289 -0.197064
    3 16.897085 0.000000 0.000000 0.000000 0.000000 -0.516402
    4 16.589727 0.000000 0.000000 -0.009018 -0.005170 0.319323
    5 0.000005 -0.000003 -3.319508 0.388872 2.817754 -0.155791
    6 16.897085 0.000000 0.000000 0.000000 0.000000 -0.634424
    7 16.589727 0.000000 0.000000 0.128335 0.232183 0.304799
    8 3.488968 -0.004234 0.000004 0.000167 0.230654 0.000796
    9 5.318531 -0.004538 0.000000 0.000036 0.084319 -0.026167
    10 5.701826 -0.005492 0.000000 0.000111 0.157857 -0.026167
    11 6.899484 -0.001818 0.000000 0.000000 -0.000001 0.348889
    12 0.000003 0.001927 2.008302 -0.000013 -1.370797 2.791920
    13 4.746895 0.000000 0.000000 0.573472 1.118896 0.203885
    14 10.950472 0.000000 0.000000 0.000000 0.000000 -0.653401
    15 10.950467 0.000000 0.000000 -1.568795 0.000000 0.000000
    16 0.000003 0.001941 -2.008302 -0.000013 1.370795 2.791894
    17 4.746896 0.000000 -0.000003 -0.531785 -0.737537 0.220222
    18 10.950466 0.000000 0.000000 0.000000 0.000000 -0.360589
    19 10.950471 0.000000 0.000000 1.605518 0.000000 0.000000
    20 2.428221 0.000000 0.000000 -0.099830 -0.462801 -0.098002
    21 1.681022 0.975106 0.213387 0.000000 0.000001 -1.745239
  time 18
    0 -0.754442 -0.578294 36.398887 0.000000 0.000000 -1.570839
    1 0.000000 2.078188 0.000000 -1.570795 -1.570796 0.000000
    2 -0.000004 0.000006 3.319508 0.007321 -3.148258 -0.150896
    3 16.897085 0.000000 0.000000 0.000000 0.000000 -0.421733
    4 16.589727 0.000000 0.000000 -0.008304 0.005471 0.270818
    5 0.000005 -0.000003 -3.319508 0.337673 2.849564 -0.182526
    6 16.897085 0.000000 0.000000 0.000000 0.000000 -0.626223
    7 16.589727 0.000000 0.000000 0.062732 0.204877 0.268545
    8 3.488968 -0.004234 0.000004 0.000138 0.198373 0.000796
    9 5.318531 -0.004538 0.000000 0.000036 0.072194 -0.026167
    10 5.701826 -0.005492 0.000000 0.000083 0.135790 -0.026167
    11 6.899484 -0.001818 0.000000 0.000000 -0.000001 0.348889
    12 0.000003 0.001927 2.008302 -0.000013 -1.370797 2.791920
    13 4.746895 0.000000 0.000000 0.527143 1.117807 0.217914
    14 10.950472 0.000000 0.000000 0.000000 0.000000 -0.592150
    15 10.950467 0.000000 0.000000 -1.568795 0.000000 0.000000
    16 0.000003 0.001941 -2.008302 -0.000013 1.370795 2.791894
    17 4.746896 0.000000 -0.000003 -0.479045 -0.795248 0.209614
    18 10.950466 0.000000 0.000000 0.000000 0.000000 -0.333348
    19 10.950471 0.000000 0.000000 1.600573 0.000000 0.000000
    20 2.428221 0.000000 0.000000 -0.083994 -0.397933 -0.104963
    21 1.681022 0.975106 0.213387 0.000000 0.000001 -1.745239
  time 19
    0 -0.386636 -0.578294 36.633540 0.000000 0.000000 -1.570839
    1 0.000000 1.761773 0.000000 -1.570795 -1.570796 0.000000
    2 -0.000004 0.000006 3.319508 0.007225 -3.149505 -0.111925
    3 16.897085 0.000000 0.000000 0.000000 0.000000 -0.342382
    4 16.589727 0.000000 0.000000 -0.008066 0.007059 0.230283
    5 0.000005 -0.000003 -3.319508 0.290494 2.880894 -0.206443
    6 16.897085 0.000000 0.000000 0.000000 0.000000 -0.619092
    7 16.589727 0.000000 0.000000 0.001054 0.178715 0.233348
    8 3.488968 -0.004234 0.000004 0.000110 0.167732 0.000796
    9 5.318531 -0.004538 0.000000 0.000036 0.060645 -0.026167
    10 5.701826 -0.005492 0.000000 0.000083 0.114825 -0.026167
    11 6.899484 -0.001818 0.000000 0.000000 -0.000001 0.348889
    12 0.000003 0.001927 2.008302 -0.000013 -1.370797 2.791920
    13 4.746895 0.000000 0.000000 0.475380 1.117444 0.223116
    14 10.950472 0.000000 0.000000 0.000000 0.000000 -0.534101
    15 10.950467 0.000000 0.000000 -1.568795 0.000000 0.000000
    16 0.000003 0.001941 -2.008302 -0.000013 1.370795 2.791894
    17 4.746896 0.000000 -0.000003 -0.427356 -0.849258 0.199579
    18 10.950466 0.000000 0.000000 0.000000 0.000000 -0.307188
    19 10.950471 0.000000 0.000000 1.595811 0.000000 0.000000
    20 2.428221 0.000000 0.000000 -0.069733 -0.336206 -0.110328
    21 1.681022 0.975106 0.213387 0.000000 0.000001 -1.745239
  time 20
    0 -0.231468 -0.578294 36.821262 0.000000 0.000000 -1.570839
    1 0.000000 1.464888 0.000000 -1.570795 -1.570796 0.000000
    2 -0.000004 0.000006 3.319508 0.007992 -3.144999 -0.074709
    3 16.897085 0.000000 0.000000 0.000000 0.000000 -0.266393
    4 16.589727 0.000000 0.000000 -0.008304 0.002774 0.191687
    5 0.000005 -0.000003 -3.319508 0.247621 2.910788 -0.227540
    6 16.897085 0.000000 0.000000 0.000000 0.000000 -0.613101
    7 16.589727 0.000000 0.000000 -0.055752 0.154270 0.199855
    8 3.488968 -0.004234 0.000004 0.000081 0.139163 0.000796
    9 5.318531 -0.004538 0.000000 0.000036 0.049870 -0.026167
    10 5.701826 -0.005492 0.000000 0.000055 0.095299 -0.026167
    11 6.899484 -0.001818 0.000000 0.000000 -0.000001 0.348889
    12 0.000003 0.001927 2.008302 -0.000013 -1.370797 2.791920
    13 4.746895 0.000000 0.000000 0.420186 1.117625 0.220887
    14 10.950472 0.000000 0.000000 0.000000 0.000000 -0.480172
    15 10.950467 0.000000 0.000000 -1.568795 0.000000 0.000000
    16 0.000003 0.001941 -2.008302 -0.000013 1.370795 2.791894
    17 4.746896 0.000000 -0.000003 -0.377864 -0.898711 0.190214
    18 10.950466 0.000000 0.000000 0.000000 0.000000 -0.282494
    19 10.950471 0.000000 0.000000 1.591507 0.000000 0.000000
    20 2.428221 0.000000 0.000000 -0.057046 -0.278618 -0.114415
    21 1.681022 0.975106 0.213387 0.000000 0.000001 -1.745239
  time 21
    0 -0.202733 -0.578294 36.962054 0.000000 0.000000 -1.570839
    1 0.000000 1.195349 0.000000 -1.570795 -1.570796 0.000000
    2 -0.000004 0.000006 3.319508 0.008951 -3.137426 -0.030735
    3 16.897085 0.000000 0.000000 0.000000 0.000000 -0.177105
    4 16.589727 0.000000 0.000000 -0.008869 -0.004394 0.146371
    5 0.000005 -0.000003 -3.319508 0.209820 2.938382 -0.245623
    6 16.897085 0.000000 0.000000 0.000000 0.000000 -0.608181
    7 16.589727 0.000000 0.000000 -0.106606 0.132196 0.169065
    8 3.488968 -0.004234 0.000004 0.000081 0.113356 0.000796
    9 5.318531 -0.004538 0.000000 0.000000 0.040113 -0.026167
    10 5.701826 -0.005492 0.000000 0.000055 0.077674 -0.026167
    11 6.899484 -0.001818 0.000000 0.000000 -0.000001 0.348889
    12 0.000003 0.001927 2.008302 -0.000013 -1.370797 2.791920
    13 4.746895 0.000000 0.000000 0.364801 1.117988 0.212804
    14 10.950472 0.000000 0.000000 0.000000 0.000000 -0.431583
    15 10.950467 0.000000 0.000000 -1.568795 0.000000 0.000000
    16 0.000003 0.001941 -2.008302 -0.000013 1.370795 2.791894
    17 4.746896 0.000000 -0.000003 -0.332003 -0.942659 0.181708
    18 10.950466 0.000000 0.000000 0.000000 0.000000 -0.259806
    19 10.950471 0.000000 0.000000 1.587569 0.000000 0.000000
    20 2.428221 0.000000 0.000000 -0.045933 -0.226564 -0.117353
    21 1.681022 0.975106 0.213387 0.000000 0.000001 -1.745239
  time 22
    0 -0.202733 -0.578294 36.962054 0.000000 0.000000 -1.570839
    1 0.000000 0.960967 0.000000 -1.570795 -1.570796 0.000000
    2 -0.000004 0.000006 3.319508 0.009814 -3.130524 -0.030033
    3 16.897085 0.000000 0.000000 0.000000 0.000000 -0.175835
    4 16.589727 0.000000 0.000000 -0.009523 -0.011302 0.145816
    5 0.000005 -0.000003 -3.319508 0.177761 2.963006 -0.258699
    6 16.897085 0.000000 0.000000 0.000000 0.000000 -0.601620
    7 16.589727 0.000000 0.000000 -0.147943 0.113529 0.142858
    8 3.488968 -0.004234 0.000004 0.000053 0.091432 0.000796
    9 5.318531 -0.004538 0.000000 0.000000 0.031905 -0.026167
    10 5.701826 -0.005492 0.000000 0.000028 0.062670 -0.026167
    11 6.899484 -0.001818 0.000000 0.000000 -0.000001 0.348889
    12 0.000003 0.001927 2.008302 -0.000013 -1.370797 2.791920
    13 4.746895 0.000000 0.000000 0.315899 1.119441 0.201841
    14 10.950472 0.000000 0.000000 0.000000 0.000000 -0.389629
    15 10.950467 0.000000 0.000000 -1.568795 0.000000 0.000000
    16 0.000003 0.001941 -2.008302 -0.000013 1.370795 2.791894
    17 4.746896 0.000000 -0.000003 -0.292830 -0.980247 0.174063
    18 10.950466 0.000000 0.000000 0.000000 0.000000 -0.241980
    19 10.950471 0.000000 0.000000 1.584089 0.000000 0.000000
    20 2.428221 0.000000 0.000000 -0.036672 -0.182338 -0.119396
    21 1.681022 0.975106 0.213387 0.000000 0.000001 -1.745239
  time 23
    0 -0.202733 -0.578294 36.962054 0.000000 0.000000 -1.570839
    1 0.000000 0.808618 0.000000 -1.570795 -1.570796 0.000000
    2 -0.000004 0.000006 3.319508 0.008759 -3.125923 -0.029331
    3 16.897085 0.000000 0.000000 0.000000 0.000000 -0.174340
    4 16.589727 0.000000 0.000000 -0.008334 -0.015920 0.145123
    5 0.000005 -0.000003 -3.319508 0.144840 2.993283 -0.241053
    6 16.897085 0.000000 0.000000 0.000000 0.000000 -0.552199
    7 16.589727 0.000000 0.000000 -0.151213 0.100884 0.130166
    8 3.488968 -0.004234 0.000004 0.000053 0.076356 0.000796
    9 5.318531 -0.004538 0.000000 0.000000 0.028121 -0.026167
    10 5.701826 -0.005492 0.000000 0.000028 0.052251 -0.026167
    11 6.899484 -0.001818 0.000000 0.000000 -0.000001 0.348889
    12 0.000003 0.001927 2.008302 -0.000013 -1.370797 2.791920
    13 4.746895 0.000000 0.000000 0.320474 1.137874 0.201191
    14 10.950472 0.000000 0.000000 0.000000 0.000000 -0.348667
    15 10.950467 0.000000 0.000000 -1.568795 0.000000 0.000000
    16 0.000003 0.001941 -2.008302 -0.000013 1.370795 2.791894
    17 4.746896 0.000000 -0.000003 -0.273530 -1.016601 0.160779
    18 10.950466 0.000000 0.000000 0.000000 0.000000 -0.256256
    19 10.950471 0.000000 0.000000 1.580792 0.000000 0.000000
    20 2.428221 0.000000 0.000000 -0.030838 -0.153669 -0.120418
    21 1.681022 0.975106 0.213387 0.000000 0.000001 -1.745239
  time 24
    0 -0.202733 -0.578294 36.962054 0.000000 0.000000 -1.570839
    1 0.000000 0.742210 0.000000 -1.570795 -1.570796 0.000000
    2 -0.000004 0.000006 3.319508 0.005500 -3.123526 -0.028980
    3 16.897085 0.000000 0.000000 0.000000 0.000000 -0.173518
    4 16.589727 0.000000 0.000000 -0.004973 -0.018174 0.144638
    5 0.000005 -0.000003 -3.319508 0.102446 3.034961 -0.176839
    6 16.897085 0.000000 0.000000 0.000000 0.000000 -0.433248
    7 16.589727 0.000000 0.000000 -0.103499 0.087476 0.133691
    8 3.488968 -0.004234 0.000004 0.000024 0.068099 0.000796
    9 5.318531 -0.004538 0.000000 0.000000 0.029847 -0.026167
    10 5.701826 -0.005492 0.000000 0.000028 0.046307 -0.026167
    11 6.899484 -0.001818 0.000000 0.000000 -0.000001 0.348889
    12 0.000003 0.001927 2.008302 -0.000013 -1.370797 2.791920
    13 4.746895 0.000000 0.000000 0.414371 1.182732 0.229062
    14 10.950472 0.000000 0.000000 0.000000 0.000000 -0.301375
    15 10.950467 0.000000 0.000000 -1.568795 0.000000 0.000000
    16 0.000003 0.001941 -2.008302 -0.000013 1.370795 2.791894
    17 4.746896 0.000000 -0.000003 -0.277830 -1.058935 0.135932
    18 10.950466 0.000000 0.000000 0.000000 0.000000 -0.318377
    19 10.950471 0.000000 0.000000 1.576946 0.000000 0.000000
    20 2.428221 0.000000 0.000000 -0.028338 -0.141453 -0.120801
    21 1.681022 0.975106 0.213387 0.000000 0.000001 -1.745239
  time 25
    0 -0.202733 -0.578294 36.962054 0.000000 0.000000 -1.570839
    1 0.000000 0.691427 0.000000 -1.570795 -1.570796 0.000000
    2 -0.000004 0.000006 3.319508 0.002336 -3.121705 -0.028629
    3 16.897085 0.000000 0.000000 0.000000 0.000000 -0.172846
    4 16.589727 0.000000 0.000000 -0.001761 -0.019910 0.144223
    5 0.000005 -0.000003 -3.319508 0.061869 3.070412 -0.114374
    6 16.897085 0.000000 0.000000 0.000000 0.000000 -0.321285
    7 16.589727 0.000000 0.000000 -0.059022 0.067283 0.137276
    8 3.488968 -0.004234 0.000004 0.000024 0.061424 0.000796
    9 5.318531 -0.004538 0.000000 0.000000 0.031905 -0.026167
    10 5.701826 -0.005492 0.000000 0.000028 0.041481 -0.026167
    11 6.899484 -0.001818 0.000000 0.000000 -0.000001 0.348889
    12 0.000003 0.001927 2.008302 -0.000013 -1.370797 2.791920
    13 4.746895 0.000000 0.000000 0.521518 1.223684 0.272728
    14 10.950472 0.000000 0.000000 0.000000 0.000000 -0.258964
    15 10.950467 0.000000 0.000000 -1.568795 0.000000 0.000000
    16 0.000003 0.001941 -2.008302 -0.000013 1.370795 2.791894
    17 4.746896 0.000000 -0.000003 -0.281843 -1.096903 0.111371
    18 10.950466 0.000000 0.000000 0.000000 0.000000 -0.378029
    19 10.950471 0.000000 0.000000 1.573557 0.000000 0.000000
    20 2.428221 0.000000 0.000000 -0.026485 -0.132179 -0.121057
    21 1.681022 0.975106 0.213387 0.000000 0.000001 -1.745239
  time 26
    0 -0.202733 -0.578294 36.962054 0.000000 0.000000 -1.570839
    1 0.000000 0.648457 0.000000 -1.570795 -1.570796 0.000000
    2 -0.000004 0.000006 3.319508 -0.000349 -3.120267 -0.028278
    3 16.897085 0.000000 0.000000 0.000000 0.000000 -0.172248
    4 16.589727 0.000000 0.000000 0.000916 -0.021314 0.143876
    5 0.000005 -0.000003 -3.319508 0.026748 3.097719 -0.061535
    6 16.897085 0.000000 0.000000 0.000000 0.000000 -0.228435
    7 16.589727 0.000000 0.000000 -0.024553 0.044664 0.139273
    8 3.488968 -0.004234 0.000004 0.000024 0.056016 0.000796
    9 5.318531 -0.004538 0.000000 0.000000 0.033675 -0.026167
    10 5.701826 -0.005492 0.000000 0.000028 0.037567 -0.026167
    11 6.899484 -0.001818 0.000000 0.000000 -0.000001 0.348889
    12 0.000003 0.001927 2.008302 -0.000013 -1.370797 2.791920
    13 4.746895 0.000000 0.000000 0.626187 1.255919 0.325034
    14 10.950472 0.000000 0.000000 0.000000 0.000000 -0.223952
    15 10.950467 0.000000 0.000000 -1.568795 0.000000 0.000000
    16 0.000003 0.001941 -2.008302 -0.000013 1.370795 2.791894
    17 4.746896 0.000000 -0.000003 -0.283658 -1.128416 0.089391
    18 10.950466 0.000000 0.000000 0.000000 0.000000 -0.427571
    19 10.950471 0.000000 0.000000 1.570718 0.000000 0.000000
    20 2.428221 0.000000 0.000000 -0.025004 -0.124750 -0.121312
    21 1.681022 0.975106 0.213387 0.000000 0.000001 -1.745239
  time 27
    0 -0.202733 -0.578294 36.962054 0.000000 0.000000 -1.570839
    1 0.000000 0.621113 0.000000 -1.570795 -1.570796 0.000000
    2 -0.000004 0.000006 3.319508 -0.001978 -3.119212 -0.028102
    3 16.897085 0.000000 0.000000 0.000000 0.000000 -0.171800
    4 16.589727 0.000000 0.000000 0.002641 -0.022275 0.143599
    5 0.000005 -0.000003 -3.319508 0.001962 3.115348 -0.024688
    6 16.897085 0.000000 0.000000 0.000000 0.000000 -0.164609
    7 16.589727 0.000000 0.000000 -0.002609 0.026187 0.139861
    8 3.488968 -0.004234 0.000004 0.000024 0.052304 0.000796
    9 5.318531 -0.004538 0.000000 0.000000 0.034869 -0.026167
    10 5.701826 -0.005492 0.000000 0.000028 0.034882 -0.026167
    11 6.899484 -0.001818 0.000000 0.000000 -0.000001 0.348889
    12 0.000003 0.001927 2.008302 -0.000013 -1.370797 2.791920
    13 4.746895 0.000000 0.000000 0.708454 1.276804 0.371487
    14 10.950472 0.000000 0.000000 0.000000 0.000000 -0.200000
    15 10.950467 0.000000 0.000000 -1.568795 0.000000 0.000000
    16 0.000003 0.001941 -2.008302 -0.000013 1.370795 2.791894
    17 4.746896 0.000000 -0.000003 -0.283754 -1.149868 0.073240
    18 10.950466 0.000000 0.000000 0.000000 0.000000 -0.461603
    19 10.950471 0.000000 0.000000 1.568795 0.000000 0.000000
    20 2.428221 0.000000 0.000000 -0.023985 -0.119664 -0.121440
    21 1.681022 0.975106 0.213387 0.000000 0.000001 -1.745239
end
