version 1
nodes
  0 "Bip02" -1
  1 "Bip02 Pelvis" 0
  2 "Bip02 L Leg" 1
  3 "Bip02 L Leg1" 2
  4 "Bip02 L Foot" 3
  5 "Bip02 R Leg" 1
  6 "Bip02 R Leg1" 5
  7 "Bip02 R Foot" 6
  8 "Bip02 Spine" 1
  9 "Bip02 Spine1" 8
  10 "Bip02 Spine2" 9
  11 "Bip02 Neck" 10
  12 "Bip02 L Arm" 11
  13 "Bip02 L Arm1" 12
  14 "Bip02 L Arm2" 13
  15 "Bip02 L Hand" 14
  16 "Bip02 R Arm" 11
  17 "Bip02 R Arm1" 16
  18 "Bip02 R Arm2" 17
  19 "Bip02 R Hand" 18
  20 "Bip02 Head" 11
  21 "Bone01" 20
end
skeleton
  time 0
    0 -0.001589 0.024072 37.196707 0.000000 0.000000 -1.570839
    1 0.000000 0.000000 0.000000 -1.570795 -1.570796 0.000000
    2 -0.000004 0.000006 3.319508 -0.000732 -3.100711 -0.021168
    3 16.904898 0.000000 0.000000 0.000000 0.000000 -0.157678
    4 16.597540 0.000000 0.000000 0.002284 -0.040858 0.119070
    5 0.000005 -0.000003 -3.319508 0.001962 3.115348 -0.024688
    6 16.904898 0.000000 0.000000 0.000000 0.000000 -0.164609
    7 16.597540 0.000000 0.000000 -0.003983 0.026023 0.086213
    8 3.488968 -0.004234 0.000004 -0.000004 -0.000001 0.000796
    9 5.318531 -0.004538 0.000000 0.000000 0.000000 -0.026167
    10 5.701826 -0.005492 0.000000 0.000000 0.000000 -0.026167
    11 6.899484 -0.001818 0.000000 0.000000 -0.000001 0.348889
    12 0.000003 0.001927 2.008302 -0.000013 -1.292336 2.791920
    13 4.746895 0.000000 0.000000 0.117714 1.128249 0.120920
    14 10.954378 0.000000 0.000000 0.000000 0.000000 -0.104118
    15 10.954373 0.000000 0.000000 -1.568795 0.000000 0.000000
    16 0.000003 0.001941 -2.008302 -0.000013 1.318476 2.791894
    17 4.746896 0.000000 -0.000003 -0.427069 -1.150817 0.444804
    18 10.954372 0.000000 0.000000 0.000000 0.000000 -0.363444
    19 10.954377 0.000000 0.000000 1.568795 0.000000 0.000000
    20 2.428221 0.000000 0.000000 0.000000 0.000000 -0.122909
    21 1.681022 0.975106 0.213387 0.000000 0.000001 -1.745239
  time 1
    0 0.044387 0.024072 37.196707 0.000000 -0.026148 -1.570839
    1 0.011719 0.007813 0.000000 -1.570795 -1.570796 0.000000
    2 -0.000004 0.000006 3.319508 0.006842 -3.102916 0.003672
    3 16.904898 0.000000 0.000000 0.000000 0.000000 -0.161190
    4 16.597540 0.000000 0.000000 -0.005330 -0.038900 0.121564
    5 0.000005 -0.000003 -3.319508 0.013829 3.112761 0.001513
    6 16.904898 0.000000 0.000000 0.000000 0.000000 -0.165393
    7 16.597540 0.000000 0.000000 -0.016017 0.027659 0.086742
    8 3.488968 -0.004234 0.000004 -0.000004 0.001121 -0.003686
    9 5.318531 -0.004538 0.000000 -0.003354 -0.000066 -0.021923
    10 5.701826 -0.005492 0.000000 -0.002243 -0.000048 -0.023912
    11 6.899484 -0.001818 0.000000 0.000000 -0.001686 0.332820
    12 0.000003 0.001927 2.008302 -0.025228 -1.298920 2.832284
    13 4.746895 0.000000 0.000000 0.108182 1.101462 -0.000600
    14 10.954378 0.000000 0.000000 0.000000 0.000000 -0.218383
    15 10.954373 0.000000 0.000000 -1.569269 0.001207 0.015241
    16 0.000003 0.001941 -2.008302 -0.027529 1.322430 2.781348
    17 4.746896 0.000000 -0.000003 -0.424680 -1.119684 0.346752
    18 10.954372 0.000000 0.000000 0.000000 0.000000 -0.457359
    19 10.954377 0.000000 0.000000 1.585646 -0.001506 -0.019491
    20 2.428221 0.000000 0.000000 0.004538 -0.001446 -0.103941
    21 1.681022 0.975106 0.213387 0.000000 0.000001 -1.745239
  time 2
    0 0.245531 0.024072 37.196707 0.000000 -0.026148 -1.570839
    1 0.031251 0.019532 0.000000 -1.570795 -1.570796 0.000000
    2 -0.000004 0.000006 3.319508 0.006938 -3.109339 -0.000541
    3 16.904898 0.000000 0.000000 0.000000 0.000000 -0.170828
    4 16.597540 0.000000 0.000000 -0.005538 -0.032509 0.126969
    5 0.000005 -0.000003 -3.319508 0.060625 3.102509 0.002485
    6 16.904898 0.000000 0.000000 0.000000 0.000000 -0.164752
    7 16.597540 0.000000 0.000000 -0.063503 0.034226 0.085215
    8 3.488968 -0.004234 0.000004 -0.000004 0.002675 -0.010006
    9 5.318531 -0.004538 0.000000 -0.008099 -0.000111 -0.015569
    10 5.701826 -0.005492 0.000000 -0.005401 -0.000096 -0.020779
    11 6.899484 -0.001818 0.000000 0.000000 -0.004030 0.310273
    12 0.007816 0.001927 2.008302 -0.062810 -1.307819 2.891151
    13 4.746895 0.000000 0.000000 0.103606 1.063234 -0.162256
    14 10.954378 0.000000 0.000000 0.000000 0.000000 -0.378111
    15 10.954373 0.000000 0.000000 -1.569838 0.002844 0.036616
    16 -0.007809 0.001941 -2.008302 -0.067795 1.327573 2.764666
    17 4.746896 0.000000 -0.000003 -0.429935 -1.075926 0.217642
    18 10.954372 0.000000 0.000000 0.000000 0.000000 -0.588469
    19 10.954377 0.000000 0.000000 1.609181 -0.003012 -0.047375
    20 2.428221 0.000000 0.000000 0.010094 -0.004138 -0.076543
    21 1.681022 0.975106 0.213387 0.000000 0.000001 -1.745239
  time 3
    0 0.463916 0.024072 37.196707 0.000000 -0.026148 -1.570839
    1 0.050783 0.035157 0.000000 -1.570795 -1.570796 0.000000
    2 -0.000004 0.000006 3.319508 0.006938 -3.116337 -0.004052
    3 16.904898 0.000000 0.000000 0.000000 0.000000 -0.179272
    4 16.597540 0.000000 0.000000 -0.005776 -0.025563 0.131889
    5 0.000005 -0.000003 -3.319508 0.107901 3.091874 0.004576
    6 16.904898 0.000000 0.000000 0.000000 0.000000 -0.162541
    7 16.597540 0.000000 0.000000 -0.111479 0.041257 0.082335
    8 3.488968 -0.004234 0.000004 -0.000004 0.004602 -0.017647
    9 5.318531 -0.004538 0.000000 -0.013808 -0.000089 -0.007758
    10 5.701826 -0.005492 0.000000 -0.009223 -0.000144 -0.016944
    11 6.899484 -0.001818 0.000000 0.000000 -0.006900 0.282930
    12 0.011722 0.001927 2.008302 -0.112472 -1.318217 2.966606
    13 4.746895 0.000000 0.000000 0.110565 1.016197 -0.347510
    14 10.954378 0.000000 0.000000 0.000000 0.000000 -0.572164
    15 10.954373 0.000000 0.000000 -1.570596 0.004999 0.062592
    16 -0.011716 0.001941 -2.008302 -0.119471 1.333254 2.741561
    17 4.746896 0.000000 -0.000003 -0.447898 -1.023056 0.070851
    18 10.954372 0.000000 0.000000 0.000000 0.000000 -0.747746
    19 10.954377 0.000000 0.000000 1.637846 -0.003963 -0.081395
    20 2.428221 0.000000 0.000000 0.016669 -0.007778 -0.043078
    21 1.681022 0.975106 0.213387 0.000000 0.000001 -1.745239
  time 4
    0 0.676555 0.024072 37.196707 0.000000 -0.026148 -1.570839
    1 0.078127 0.050783 0.000000 -1.570795 -1.570796 0.000000
    2 -0.000004 0.000006 3.319508 0.006938 -3.123430 -0.006686
    3 16.904898 0.000000 0.000000 0.000000 0.000000 -0.186071
    4 16.597540 0.000000 0.000000 -0.006014 -0.018507 0.136046
    5 0.000005 -0.000003 -3.319508 0.152975 3.081718 -0.015209
    6 16.904898 0.000000 0.000000 0.000000 0.000000 -0.241984
    7 16.597540 0.000000 0.000000 0.044157 0.052267 0.144385
    8 3.488968 -0.004234 0.000004 -0.000004 0.006731 -0.026171
    9 5.318531 -0.004538 0.000000 -0.020230 0.000022 0.000881
    10 5.701826 -0.005492 0.000000 -0.013488 -0.000160 -0.012698
    11 6.899484 -0.001818 0.000000 0.000000 -0.010112 0.252411
    12 0.019535 0.001927 2.008302 -0.173352 -1.328978 3.056346
    13 4.746895 0.000000 0.000000 0.131728 0.963894 -0.542705
    14 10.954378 0.000000 0.000000 0.000000 0.000000 -0.788415
    15 10.954373 0.000000 0.000000 -1.571354 0.007326 0.091444
    16 -0.019529 0.001941 -2.008302 -0.180542 1.338743 2.712223
    17 4.746896 0.000000 -0.000003 -0.479809 -0.965250 -0.083107
    18 10.954372 0.000000 0.000000 0.000000 0.000000 -0.925311
    19 10.954377 0.000000 0.000000 1.669899 -0.003884 -0.119205
    20 2.428221 0.000000 0.000000 0.024170 -0.012016 -0.006036
    21 1.681022 0.975106 0.213387 0.000000 0.000001 -1.745239
  time 5
    0 0.894940 0.024072 37.149776 0.000000 -0.026148 -1.570839
    1 0.101566 0.070315 0.000000 -1.570795 -1.570796 0.000000
    2 -0.000004 0.000006 3.319508 0.006746 -3.130524 -0.008529
    3 16.904898 0.000000 0.000000 0.000000 0.000000 -0.191451
    4 16.597540 0.000000 0.000000 -0.006222 -0.011376 0.139372
    5 0.000005 -0.000003 -3.319508 0.196326 3.061406 -0.009619
    6 16.904898 0.000000 0.000000 0.000000 0.000000 -0.233641
    7 16.597540 0.000000 0.000000 0.053902 0.070553 0.128814
    8 3.488968 -0.004234 0.000004 -0.000004 0.008947 -0.035062
    9 5.318531 -0.004538 0.000000 -0.026902 0.000266 0.009671
    10 5.701826 -0.005492 0.000000 -0.017919 -0.000128 -0.008247
    11 6.899484 -0.001818 0.000000 0.000000 -0.013456 0.220583
    12 0.023441 0.001927 2.008302 -0.243435 -1.339240 3.156632
    13 4.746895 0.000000 0.000000 0.166522 0.910774 -0.736599
    14 10.954378 0.000000 0.000000 0.000000 0.000000 -1.014200
    15 10.954373 0.000000 0.000000 -1.572112 0.009825 0.121638
    16 -0.023435 0.001941 -2.008302 -0.247941 1.343465 2.677613
    17 4.746896 0.000000 -0.000003 -0.523950 -0.907159 -0.236014
    18 10.954372 0.000000 0.000000 0.000000 0.000000 -1.110671
    19 10.954377 0.000000 0.000000 1.703233 -0.002616 -0.158368
    20 2.428221 0.000000 0.000000 0.032505 -0.016454 0.032028
    21 1.681022 0.975106 0.213387 0.000000 0.000001 -1.745239
  time 6
    0 1.113325 0.024072 37.149776 0.000000 -0.026148 -1.570839
    1 0.128910 0.089846 0.000000 -1.570795 -1.570796 0.000000
    2 -0.000004 0.000006 3.319508 0.006554 -3.137714 -0.009582
    3 16.904898 0.000000 0.000000 0.000000 0.000000 -0.195261
    4 16.597540 0.000000 0.000000 -0.006400 -0.004246 0.142144
    5 0.000005 -0.000003 -3.319508 0.237668 3.042339 -0.003445
    6 16.904898 0.000000 0.000000 0.000000 0.000000 -0.225725
    7 16.597540 0.000000 0.000000 0.062830 0.087776 0.112538
    8 3.488968 -0.004234 0.000004 -0.000004 0.011133 -0.043843
    9 5.318531 -0.004538 0.000000 -0.033467 0.000620 0.017959
    10 5.701826 -0.005492 0.000000 -0.022323 -0.000064 -0.003855
    11 6.899484 -0.001818 0.000000 0.000000 -0.016721 0.189254
    12 0.031254 0.001927 2.008302 -0.319367 -1.348140 3.262383
    13 4.746895 0.000000 0.000000 0.211230 0.860923 -0.920180
    14 10.954378 0.000000 0.000000 0.000000 0.000000 -1.236706
    15 10.954373 0.000000 0.000000 -1.572776 0.012238 0.151353
    16 -0.031248 0.001941 -2.008302 -0.317641 1.346958 2.640223
    17 4.746896 0.000000 -0.000003 -0.576308 -0.853054 -0.381085
    18 10.954372 0.000000 0.000000 0.000000 0.000000 -1.293330
    19 10.954377 0.000000 0.000000 1.736110 -0.000079 -0.196539
    20 2.428221 0.000000 0.000000 0.041673 -0.020592 0.068431
    21 1.681022 0.975106 0.213387 0.000000 0.000001 -1.745239
  time 7
    0 1.331710 0.024072 37.149776 0.000000 -0.026148 -1.570839
    1 0.160161 0.109378 0.000000 -1.570795 -1.570796 0.000000
    2 -0.000004 0.000006 3.319508 0.006362 -3.144711 -0.009933
    3 16.904898 0.000000 0.000000 0.000000 0.000000 -0.197652
    4 16.597540 0.000000 0.000000 -0.006579 0.002811 0.144153
    5 0.000005 -0.000003 -3.319508 0.276522 3.024805 0.003020
    6 16.904898 0.000000 0.000000 0.000000 0.000000 -0.218308
    7 16.597540 0.000000 0.000000 0.070843 0.103664 0.095968
    8 3.488968 -0.004234 0.000004 -0.000004 0.013176 -0.051999
    9 5.318531 -0.004538 0.000000 -0.039568 0.001018 0.025116
    10 5.701826 -0.005492 0.000000 -0.026394 0.000016 0.000215
    11 6.899484 -0.001818 0.000000 0.000000 -0.019801 0.159981
    12 0.039067 0.001927 2.008302 -0.396066 -1.355132 3.366887
    13 4.746895 0.000000 0.000000 0.260705 0.817791 -1.086110
    14 10.954378 0.000000 0.000000 0.000000 0.000000 -1.443955
    15 10.954373 0.000000 0.000000 -1.573250 0.014565 0.179054
    16 -0.039060 0.001941 -2.008302 -0.384944 1.349146 2.602736
    17 4.746896 0.000000 -0.000003 -0.631914 -0.806449 -0.512394
    18 10.954372 0.000000 0.000000 0.000000 0.000000 -1.463488
    19 10.954377 0.000000 0.000000 1.766515 0.003091 -0.231190
    20 2.428221 0.000000 0.000000 0.051489 -0.023933 0.101002
    21 1.681022 0.975106 0.213387 0.000000 0.000001 -1.745239
  time 8
    0 1.544348 0.024072 37.149776 0.000000 -0.026148 -1.570839
    1 0.187506 0.125004 0.000000 -1.570795 -1.570796 0.000000
    2 -0.000004 0.000006 3.319508 0.006171 -3.151613 -0.009582
    3 16.904898 0.000000 0.000000 0.000000 0.000000 -0.198624
    4 16.597540 0.000000 0.000000 -0.006698 0.009645 0.145470
    5 0.000005 -0.000003 -3.319508 0.312218 3.008996 0.009582
    6 16.904898 0.000000 0.000000 0.000000 0.000000 -0.211533
    7 16.597540 0.000000 0.000000 0.077809 0.118025 0.079515
    8 3.488968 -0.004234 0.000004 -0.000004 0.014960 -0.059127
    9 5.318531 -0.004538 0.000000 -0.044920 0.001394 0.030591
    10 5.701826 -0.005492 0.000000 -0.029967 0.000128 0.003787
    11 6.899484 -0.001818 0.000000 0.000000 -0.022461 0.134507
    12 0.042973 0.001927 2.008302 -0.467491 -1.360127 3.462667
    13 4.746895 0.000000 0.000000 0.309512 0.783649 -1.227884
    14 10.954378 0.000000 0.000000 0.000000 0.000000 -1.624965
    15 10.954373 0.000000 0.000000 -1.573629 0.016634 0.203305
    16 -0.042967 0.001941 -2.008302 -0.445153 1.350144 2.568509
    17 4.746896 0.000000 -0.000003 -0.685323 -0.769525 -0.624781
    18 10.954372 0.000000 0.000000 0.000000 0.000000 -1.612116
    19 10.954377 0.000000 0.000000 1.793073 0.006579 -0.260518
    20 2.428221 0.000000 0.000000 0.061861 -0.025977 0.127506
    21 1.681022 0.975106 0.213387 0.000000 0.000001 -1.745239
  time 9
    0 1.733998 0.024072 37.149776 0.000000 -0.026148 -1.570839
    1 0.214850 0.136723 0.000000 -1.570795 -1.570796 0.000000
    2 -0.000004 0.000006 3.319508 0.005979 -3.157749 -0.008529
    3 16.904898 0.000000 0.000000 0.000000 0.000000 -0.198175
    4 16.597540 0.000000 0.000000 -0.006817 0.015889 0.145955
    5 0.000005 -0.000003 -3.319508 0.344181 2.995103 0.015902
    6 16.904898 0.000000 0.000000 0.000000 0.000000 -0.205543
    7 16.597540 0.000000 0.000000 0.083990 0.130371 0.065883
    8 3.488968 -0.004234 0.000004 -0.000004 0.016398 -0.064895
    9 5.318531 -0.004538 0.000000 -0.049238 0.001704 0.033931
    10 5.701826 -0.005492 0.000000 -0.032847 0.000240 0.006657
    11 6.899484 -0.001818 0.000000 0.000000 -0.024620 0.113953
    12 0.046880 0.001927 2.008302 -0.527604 -1.363260 3.542532
    13 4.746895 0.000000 0.000000 0.352028 0.759404 -1.340114
    14 10.954378 0.000000 0.000000 0.000000 0.000000 -1.770734
    15 10.954373 0.000000 0.000000 -1.573913 0.018271 0.222763
    16 -0.046873 0.001941 -2.008302 -0.494240 1.350336 2.540227
    17 4.746896 0.000000 -0.000003 -0.731566 -0.743043 -0.713849
    18 10.954372 0.000000 0.000000 0.000000 0.000000 -1.731728
    19 10.954377 0.000000 0.000000 1.814319 0.009591 -0.282716
    20 2.428221 0.000000 0.000000 0.072696 -0.026177 0.146410
    21 1.681022 0.975106 0.213387 0.000000 0.000001 -1.745239
  time 10
    0 1.848938 0.024072 37.149776 0.000000 -0.026148 -1.570839
    1 0.238289 0.144536 0.000000 -1.570795 -1.570796 0.000000
    2 -0.000004 0.000006 3.319508 0.005883 -3.161487 -0.007037
    3 16.904898 0.000000 0.000000 0.000000 0.000000 -0.196756
    4 16.597540 0.000000 0.000000 -0.006906 0.019620 0.145955
    5 0.000005 -0.000003 -3.319508 0.366479 2.985618 0.020568
    6 16.904898 0.000000 0.000000 0.000000 0.000000 -0.201336
    7 16.597540 0.000000 0.000000 0.096024 0.133559 0.113948
    8 3.488968 -0.004234 0.000004 -0.000004 0.017434 -0.068973
    9 5.318531 -0.004538 0.000000 -0.052270 0.001859 0.034835
    10 5.701826 -0.005492 0.000000 -0.034869 0.000320 0.008706
    11 6.899484 -0.001818 0.000000 0.000000 -0.026147 0.099378
    12 0.050786 0.001927 2.008302 -0.571514 -1.365031 3.600345
    13 4.746895 0.000000 0.000000 0.383867 0.744966 -1.418619
    14 10.954378 0.000000 0.000000 0.000000 0.000000 -1.874092
    15 10.954373 0.000000 0.000000 -1.574103 0.019392 0.236566
    16 -0.050780 0.001941 -2.008302 -0.529234 1.350105 2.519998
    17 4.746896 0.000000 -0.000003 -0.766535 -0.727001 -0.775681
    18 10.954372 0.000000 0.000000 0.000000 0.000000 -1.816613
    19 10.954377 0.000000 0.000000 1.829430 0.011573 -0.296703
    20 2.428221 0.000000 0.000000 0.083716 -0.024182 0.156501
    21 1.681022 0.975106 0.213387 0.000000 0.000001 -1.745239
  time 11
    0 1.848938 0.024072 37.149776 0.000000 -0.026148 -1.570839
    1 0.246101 0.144536 0.000000 -1.570795 -1.570796 0.000000
    2 -0.000004 0.000006 3.319508 0.005883 -3.161487 -0.006773
    3 16.904898 0.000000 0.000000 0.000000 0.000000 -0.196606
    4 16.597540 0.000000 0.000000 -0.006906 0.019620 0.146163
    5 0.000005 -0.000003 -3.319508 0.366479 2.985618 0.020568
    6 16.904898 0.000000 0.000000 0.000000 0.000000 -0.201336
    7 16.597540 0.000000 0.000000 0.131508 0.099985 0.406688
    8 3.488968 -0.004234 0.000004 -0.000004 0.017434 -0.068973
    9 5.318531 -0.004538 0.000000 -0.052270 0.001770 0.033002
    10 5.701826 -0.005492 0.000000 -0.034869 0.000320 0.008706
    11 6.899484 -0.001818 0.000000 0.000000 -0.026147 0.099378
    12 0.050786 0.001927 2.008302 -0.571514 -1.365031 3.600345
    13 4.746895 0.000000 0.000000 0.384439 0.746782 -1.417876
    14 10.954378 0.000000 0.000000 0.000000 0.000000 -1.874092
    15 10.954373 0.000000 0.000000 -1.574103 0.019392 0.236566
    16 -0.050780 0.001941 -2.008302 -0.529234 1.350105 2.519998
    17 4.746896 0.000000 -0.000003 -0.768160 -0.728425 -0.774343
    18 10.954372 0.000000 0.000000 0.000000 0.000000 -1.816613
    19 10.954377 0.000000 0.000000 1.838771 0.012128 -0.302659
    20 2.428221 0.000000 0.000000 0.092884 -0.018548 0.147177
    21 1.681022 0.975106 0.213387 0.000000 0.000001 -1.745239
  time 12
    0 1.848938 0.024072 37.149776 0.000000 -0.026148 -1.570839
    1 0.265633 0.144536 0.000000 -1.570795 -1.570796 0.000000
    2 -0.000004 0.000006 3.319508 0.005883 -3.161487 -0.005983
    3 16.904898 0.000000 0.000000 0.000000 0.000000 -0.196083
    4 16.597540 0.000000 0.000000 -0.006906 0.019620 0.146440
    5 0.000005 -0.000003 -3.319508 0.366479 2.985618 0.020568
    6 16.904898 0.000000 0.000000 0.000000 0.000000 -0.201336
    7 16.597540 0.000000 0.000000 0.146028 0.075594 0.584025
    8 3.488968 -0.004234 0.000004 -0.000004 0.017434 -0.068973
    9 5.318531 -0.004538 0.000000 -0.052306 0.001549 0.028984
    10 5.701826 -0.005492 0.000000 -0.034869 0.000320 0.008706
    11 6.899484 -0.001818 0.000000 0.000000 -0.026147 0.099378
    12 0.050786 0.001927 2.008302 -0.571514 -1.365031 3.600345
    13 4.746895 0.000000 0.000000 0.385678 0.750596 -1.416297
    14 10.954378 0.000000 0.000000 0.000000 0.000000 -1.874092
    15 10.954373 0.000000 0.000000 -1.574103 0.019392 0.236566
    16 -0.050780 0.001941 -2.008302 -0.529234 1.350105 2.519998
    17 4.746896 0.000000 -0.000003 -0.771599 -0.731367 -0.771380
    18 10.954372 0.000000 0.000000 0.000000 0.000000 -1.816613
    19 10.954377 0.000000 0.000000 1.844540 0.011652 -0.303110
    20 2.428221 0.000000 0.000000 0.104831 -0.010570 0.135106
    21 1.681022 0.975106 0.213387 0.000000 0.000001 -1.745239
  time 13
    0 1.848938 0.024072 37.149776 0.000000 -0.026148 -1.570839
    1 0.285165 0.144536 0.000000 -1.570795 -1.570796 0.000000
    2 -0.000004 0.000006 3.319508 0.005979 -3.161487 -0.004930
    3 16.904898 0.000000 0.000000 0.000000 0.000000 -0.195336
    4 16.597540 0.000000 0.000000 -0.006936 0.019583 0.146717
    5 0.000005 -0.000003 -3.319508 0.366479 2.985618 0.020568
    6 16.904898 0.000000 0.000000 0.000000 0.000000 -0.201336
    7 16.597540 0.000000 0.000000 0.125850 0.110586 0.330066
    8 3.488968 -0.004234 0.000004 -0.000004 0.017434 -0.068973
    9 5.318531 -0.004538 0.000000 -0.052306 0.001261 0.023559
    10 5.701826 -0.005492 0.000000 -0.034869 0.000320 0.008706
    11 6.899484 -0.001818 0.000000 0.000000 -0.026147 0.099378
    12 0.050786 0.001927 2.008302 -0.571514 -1.365031 3.600345
    13 4.746895 0.000000 0.000000 0.387394 0.755772 -1.413974
    14 10.954378 0.000000 0.000000 0.000000 0.000000 -1.874092
    15 10.954373 0.000000 0.000000 -1.574103 0.019392 0.236566
    16 -0.050780 0.001941 -2.008302 -0.529234 1.350105 2.519998
    17 4.746896 0.000000 -0.000003 -0.776376 -0.735354 -0.767271
    18 10.954372 0.000000 0.000000 0.000000 0.000000 -1.816613
    19 10.954377 0.000000 0.000000 1.847563 0.010463 -0.299771
    20 2.428221 0.000000 0.000000 0.118444 -0.000997 0.121311
    21 1.681022 0.975106 0.213387 0.000000 0.000001 -1.745239
  time 14
    0 1.848938 0.024072 37.149776 0.000000 -0.026148 -1.570839
    1 0.312510 0.140629 0.000000 -1.570795 -1.570796 0.000000
    2 -0.000004 0.000006 3.319508 0.005979 -3.161391 -0.003613
    3 16.904898 0.000000 0.000000 0.000000 0.000000 -0.194440
    4 16.597540 0.000000 0.000000 -0.006966 0.019546 0.147064
    5 0.000005 -0.000003 -3.319508 0.366479 2.985618 0.020568
    6 16.904898 0.000000 0.000000 0.000000 0.000000 -0.201336
    7 16.597540 0.000000 0.000000 0.107307 0.131897 0.144797
    8 3.488968 -0.004234 0.000004 -0.000004 0.017434 -0.068973
    9 5.318531 -0.004538 0.000000 -0.052306 0.000929 0.017155
    10 5.701826 -0.005492 0.000000 -0.034869 0.000320 0.008706
    11 6.899484 -0.001818 0.000000 0.000000 -0.026147 0.099378
    12 0.050786 0.001927 2.008302 -0.571514 -1.365031 3.600345
    13 4.746895 0.000000 0.000000 0.389491 0.761856 -1.411373
    14 10.954378 0.000000 0.000000 0.000000 0.000000 -1.874092
    15 10.954373 0.000000 0.000000 -1.574103 0.019392 0.236566
    16 -0.050780 0.001941 -2.008302 -0.529234 1.350105 2.519998
    17 4.746896 0.000000 -0.000003 -0.782109 -0.740100 -0.762397
    18 10.954372 0.000000 0.000000 0.000000 0.000000 -1.816613
    19 10.954377 0.000000 0.000000 1.848662 0.008640 -0.293635
    20 2.428221 0.000000 0.000000 0.132890 0.009673 0.106622
    21 1.681022 0.975106 0.213387 0.000000 0.000001 -1.745239
  time 15
    0 1.848938 0.024072 37.149776 0.000000 -0.026148 -1.570839
    1 0.343760 0.140629 0.000000 -1.570795 -1.570796 0.000000
    2 -0.000004 0.000006 3.319508 0.006075 -3.161391 -0.002209
    3 16.904898 0.000000 0.000000 0.000000 0.000000 -0.193319
    4 16.597540 0.000000 0.000000 -0.007025 0.019509 0.147410
    5 0.000005 -0.000003 -3.319508 0.366479 2.985618 0.020568
    6 16.904898 0.000000 0.000000 0.000000 0.000000 -0.201336
    7 16.597540 0.000000 0.000000 0.134516 0.107179 0.339350
    8 3.488968 -0.004234 0.000004 -0.000004 0.017434 -0.068973
    9 5.318531 -0.004538 0.000000 -0.052306 0.000553 0.010098
    10 5.701826 -0.005492 0.000000 -0.034869 0.000320 0.008706
    11 6.899484 -0.001818 0.000000 0.000000 -0.026147 0.099378
    12 0.050786 0.001927 2.008302 -0.571514 -1.365031 3.600345
    13 4.746895 0.000000 0.000000 0.391779 0.768575 -1.408307
    14 10.954378 0.000000 0.000000 0.000000 0.000000 -1.874092
    15 10.954373 0.000000 0.000000 -1.574103 0.019392 0.236566
    16 -0.050780 0.001941 -2.008302 -0.529234 1.350105 2.519998
    17 4.746896 0.000000 -0.000003 -0.788415 -0.745321 -0.756950
    18 10.954372 0.000000 0.000000 0.000000 0.000000 -1.816613
    19 10.954377 0.000000 0.000000 1.848295 0.006421 -0.285424
    20 2.428221 0.000000 0.000000 0.147800 0.021290 0.091486
    21 1.681022 0.975106 0.213387 0.000000 0.000001 -1.745239
  time 16
    0 1.848938 0.024072 37.149776 0.000000 -0.026148 -1.570839
    1 0.375011 0.140629 0.000000 -1.570795 -1.570796 0.000000
    2 -0.000004 0.000006 3.319508 0.006171 -3.161295 -0.000717
    3 16.904898 0.000000 0.000000 0.000000 0.000000 -0.192198
    4 16.597540 0.000000 0.000000 -0.007055 0.019473 0.147826
    5 0.000005 -0.000003 -3.319508 0.366479 2.985618 0.020568
    6 16.904898 0.000000 0.000000 0.000000 0.000000 -0.201336
    7 16.597540 0.000000 0.000000 0.151555 0.086822 0.475731
    8 3.488968 -0.004234 0.000004 -0.000004 0.017434 -0.068973
    9 5.318531 -0.004538 0.000000 -0.052306 0.000155 0.002564
    10 5.701826 -0.005492 0.000000 -0.034869 0.000320 0.008706
    11 6.899484 -0.001818 0.000000 0.000000 -0.026147 0.099378
    12 0.050786 0.001927 2.008302 -0.571514 -1.365031 3.600345
    13 4.746895 0.000000 0.000000 0.394257 0.775749 -1.405148
    14 10.954378 0.000000 0.000000 0.000000 0.000000 -1.874092
    15 10.954373 0.000000 0.000000 -1.574103 0.019392 0.236566
    16 -0.050780 0.001941 -2.008302 -0.529234 1.350105 2.519998
    17 4.746896 0.000000 -0.000003 -0.795199 -0.750826 -0.751120
    18 10.954372 0.000000 0.000000 0.000000 0.000000 -1.816613
    19 10.954377 0.000000 0.000000 1.846738 0.003884 -0.275678
    20 2.428221 0.000000 0.000000 0.162895 0.033606 0.076095
    21 1.681022 0.975106 0.213387 0.000000 0.000001 -1.745239
  time 17
    0 1.848938 0.024072 37.149776 0.000000 -0.026148 -1.570839
    1 0.410169 0.136723 0.000000 -1.570795 -1.570796 0.000000
    2 -0.000004 0.000006 3.319508 0.006267 -3.161295 0.000863
    3 16.904898 0.000000 0.000000 0.000000 0.000000 -0.191002
    4 16.597540 0.000000 0.000000 -0.007085 0.019399 0.148172
    5 0.000005 -0.000003 -3.319508 0.366479 2.985618 0.020568
    6 16.904898 0.000000 0.000000 0.000000 0.000000 -0.201336
    7 16.597540 0.000000 0.000000 0.136805 0.114156 0.286290
    8 3.488968 -0.004234 0.000004 -0.000004 0.017434 -0.068973
    9 5.318531 -0.004538 0.000000 -0.052306 -0.000221 -0.005222
    10 5.701826 -0.005492 0.000000 -0.034869 0.000320 0.008706
    11 6.899484 -0.001818 0.000000 0.000000 -0.026147 0.099378
    12 0.050786 0.001927 2.008302 -0.571514 -1.365031 3.600345
    13 4.746895 0.000000 0.000000 0.396831 0.783195 -1.401710
    14 10.954378 0.000000 0.000000 0.000000 0.000000 -1.874092
    15 10.954373 0.000000 0.000000 -1.574103 0.019392 0.236566
    16 -0.050780 0.001941 -2.008302 -0.529234 1.350105 2.519998
    17 4.746896 0.000000 -0.000003 -0.802364 -0.756521 -0.744908
    18 10.954372 0.000000 0.000000 0.000000 0.000000 -1.816613
    19 10.954377 0.000000 0.000000 1.844266 0.001189 -0.264669
    20 2.428221 0.000000 0.000000 0.177805 0.046470 0.060767
    21 1.681022 0.975106 0.213387 0.000000 0.000001 -1.745239
  time 18
    0 1.848938 0.024072 37.149776 0.000000 -0.026148 -1.570839
    1 0.441420 0.136723 0.000000 -1.570795 -1.570796 0.000000
    2 -0.000004 0.000006 3.319508 0.006267 -3.161200 0.002531
    3 16.904898 0.000000 0.000000 0.000000 0.000000 -0.189732
    4 16.597540 0.000000 0.000000 -0.007114 0.019362 0.148519
    5 0.000005 -0.000003 -3.319508 0.366479 2.985618 0.020568
    6 16.904898 0.000000 0.000000 0.000000 0.000000 -0.201336
    7 16.597540 0.000000 0.000000 0.124117 0.131515 0.149791
    8 3.488968 -0.004234 0.000004 -0.000004 0.017434 -0.068973
    9 5.318531 -0.004538 0.000000 -0.052306 -0.000642 -0.013083
    10 5.701826 -0.005492 0.000000 -0.034869 0.000320 0.008706
    11 6.899484 -0.001818 0.000000 0.000000 -0.026147 0.099378
    12 0.050786 0.001927 2.008302 -0.571514 -1.365031 3.600345
    13 4.746895 0.000000 0.000000 0.399596 0.790640 -1.398273
    14 10.954378 0.000000 0.000000 0.000000 0.000000 -1.874092
    15 10.954373 0.000000 0.000000 -1.574103 0.019392 0.236566
    16 -0.050780 0.001941 -2.008302 -0.529234 1.350105 2.519998
    17 4.746896 0.000000 -0.000003 -0.809626 -0.762216 -0.738601
    18 10.954372 0.000000 0.000000 0.000000 0.000000 -1.816613
    19 10.954377 0.000000 0.000000 1.841060 -0.001585 -0.252757
    20 2.428221 0.000000 0.000000 0.192251 0.059533 0.045759
    21 1.681022 0.975106 0.213387 0.000000 0.000001 -1.745239
  time 19
    0 1.848938 0.024072 37.149776 0.000000 -0.026148 -1.570839
    1 0.476577 0.132817 0.000000 -1.570795 -1.570796 0.000000
    2 -0.000004 0.000006 3.319508 0.006362 -3.161200 0.004111
    3 16.904898 0.000000 0.000000 0.000000 0.000000 -0.188537
    4 16.597540 0.000000 0.000000 -0.007174 0.019325 0.148934
    5 0.000005 -0.000003 -3.319508 0.366479 2.985618 0.020568
    6 16.904898 0.000000 0.000000 0.000000 0.000000 -0.201336
    7 16.597540 0.000000 0.000000 0.146944 0.109250 0.305093
    8 3.488968 -0.004234 0.000004 -0.000004 0.017434 -0.068973
    9 5.318531 -0.004538 0.000000 -0.052306 -0.001040 -0.020717
    10 5.701826 -0.005492 0.000000 -0.034869 0.000320 0.008706
    11 6.899484 -0.001818 0.000000 0.000000 -0.026147 0.099378
    12 0.050786 0.001927 2.008302 -0.571514 -1.365031 3.600345
    13 4.746895 0.000000 0.000000 0.402265 0.797905 -1.394835
    14 10.954378 0.000000 0.000000 0.000000 0.000000 -1.874092
    15 10.954373 0.000000 0.000000 -1.574103 0.019392 0.236566
    16 -0.050780 0.001941 -2.008302 -0.529234 1.350105 2.519998
    17 4.746896 0.000000 -0.000003 -0.816791 -0.767627 -0.732389
    18 10.954372 0.000000 0.000000 0.000000 0.000000 -1.816613
    19 10.954377 0.000000 0.000000 1.837489 -0.004439 -0.240485
    20 2.428221 0.000000 0.000000 0.205679 0.072297 0.031709
    21 1.681022 0.975106 0.213387 0.000000 0.000001 -1.745239
  time 20
    0 1.848938 0.024072 37.149776 0.000000 -0.026148 -1.570839
    1 0.503922 0.132817 0.000000 -1.570795 -1.570796 0.000000
    2 -0.000004 0.000006 3.319508 0.006458 -3.161104 0.005515
    3 16.904898 0.000000 0.000000 0.000000 0.000000 -0.187416
    4 16.597540 0.000000 0.000000 -0.007203 0.019288 0.149212
    5 0.000005 -0.000003 -3.319508 0.366479 2.985618 0.020568
    6 16.904898 0.000000 0.000000 0.000000 0.000000 -0.201336
    7 16.597540 0.000000 0.000000 0.161824 0.091646 0.412917
    8 3.488968 -0.004234 0.000004 -0.000004 0.017434 -0.068973
    9 5.318531 -0.004538 0.000000 -0.052306 -0.001394 -0.027523
    10 5.701826 -0.005492 0.000000 -0.034869 0.000320 0.008706
    11 6.899484 -0.001818 0.000000 0.000000 -0.026147 0.099378
    12 0.050786 0.001927 2.008302 -0.571514 -1.365031 3.600345
    13 4.746895 0.000000 0.000000 0.404743 0.804352 -1.391677
    14 10.954378 0.000000 0.000000 0.000000 0.000000 -1.874092
    15 10.954373 0.000000 0.000000 -1.574103 0.019392 0.236566
    16 -0.050780 0.001941 -2.008302 -0.529234 1.350105 2.519998
    17 4.746896 0.000000 -0.000003 -0.823288 -0.772563 -0.726750
    18 10.954372 0.000000 0.000000 0.000000 0.000000 -1.816613
    19 10.954377 0.000000 0.000000 1.833826 -0.007134 -0.228664
    20 2.428221 0.000000 0.000000 0.217348 0.083865 0.019446
    21 1.681022 0.975106 0.213387 0.000000 0.000001 -1.745239
  time 21
    0 1.848938 0.024072 37.149776 0.000000 -0.026148 -1.570839
    1 0.527360 0.132817 0.000000 -1.570795 -1.570796 0.000000
    2 -0.000004 0.000006 3.319508 0.006458 -3.161104 0.006568
    3 16.904898 0.000000 0.000000 0.000000 0.000000 -0.186669
    4 16.597540 0.000000 0.000000 -0.007233 0.019251 0.149489
    5 0.000005 -0.000003 -3.319508 0.366479 2.985618 0.020568
    6 16.904898 0.000000 0.000000 0.000000 0.000000 -0.201336
    7 16.597540 0.000000 0.000000 0.154433 0.115273 0.258085
    8 3.488968 -0.004234 0.000004 -0.000004 0.017434 -0.068973
    9 5.318531 -0.004538 0.000000 -0.052306 -0.001659 -0.032697
    10 5.701826 -0.005492 0.000000 -0.034869 0.000320 0.008706
    11 6.899484 -0.001818 0.000000 0.000000 -0.026147 0.099378
    12 0.050786 0.001927 2.008302 -0.571514 -1.365031 3.600345
    13 4.746895 0.000000 0.000000 0.406650 0.809255 -1.389354
    14 10.954378 0.000000 0.000000 0.000000 0.000000 -1.874092
    15 10.954373 0.000000 0.000000 -1.574103 0.019392 0.236566
    16 -0.050780 0.001941 -2.008302 -0.529234 1.350105 2.519998
    17 4.746896 0.000000 -0.000003 -0.828257 -0.776170 -0.722450
    18 10.954372 0.000000 0.000000 0.000000 0.000000 -1.816613
    19 10.954377 0.000000 0.000000 1.830804 -0.009433 -0.218557
    20 2.428221 0.000000 0.000000 0.225960 0.092640 0.010314
    21 1.681022 0.975106 0.213387 0.000000 0.000001 -1.745239
  time 22
    0 1.848938 0.024072 37.149776 0.000000 -0.026148 -1.570839
    1 0.535173 0.132817 0.000000 -1.570795 -1.570796 0.000000
    2 -0.000004 0.000006 3.319508 0.006458 -3.161104 0.006919
    3 16.904898 0.000000 0.000000 0.000000 0.000000 -0.186519
    4 16.597540 0.000000 0.000000 -0.007233 0.019251 0.149697
    5 0.000005 -0.000003 -3.319508 0.366479 2.985618 0.020568
    6 16.904898 0.000000 0.000000 0.000000 0.000000 -0.201336
    7 16.597540 0.000000 0.000000 0.141711 0.130234 0.153728
    8 3.488968 -0.004234 0.000004 -0.000004 0.017434 -0.068973
    9 5.318531 -0.004538 0.000000 -0.052270 -0.001770 -0.034831
    10 5.701826 -0.005492 0.000000 -0.034869 0.000320 0.008706
    11 6.899484 -0.001818 0.000000 0.000000 -0.026147 0.099378
    12 0.050786 0.001927 2.008302 -0.571514 -1.365031 3.600345
    13 4.746895 0.000000 0.000000 0.407412 0.811344 -1.388332
    14 10.954378 0.000000 0.000000 0.000000 0.000000 -1.874092
    15 10.954373 0.000000 0.000000 -1.574103 0.019392 0.236566
    16 -0.050780 0.001941 -2.008302 -0.529234 1.350105 2.519998
    17 4.746896 0.000000 -0.000003 -0.830359 -0.777688 -0.720634
    18 10.954372 0.000000 0.000000 0.000000 0.000000 -1.816613
    19 10.954377 0.000000 0.000000 1.829430 -0.010859 -0.212421
    20 2.428221 0.000000 0.000000 0.229387 0.096330 0.006610
    21 1.681022 0.975106 0.213387 0.000000 0.000001 -1.745239
  time 23
    0 1.848938 0.024072 37.149776 0.000000 -0.026148 -1.570839
    1 0.523453 0.132817 0.000000 -1.570795 -1.570796 0.000000
    2 -0.000004 0.000006 3.319508 0.006458 -3.161104 0.006042
    3 16.904898 0.000000 0.000000 0.000000 0.000000 -0.187491
    4 16.597540 0.000000 0.000000 -0.007233 0.019251 0.149766
    5 0.000005 -0.000003 -3.319508 0.366479 2.985618 0.020568
    6 16.904898 0.000000 0.000000 0.000000 0.000000 -0.201336
    7 16.597540 0.000000 0.000000 0.142561 0.131897 0.138333
    8 3.488968 -0.004234 0.000004 -0.000004 0.017434 -0.068973
    9 5.318531 -0.004538 0.000000 -0.052306 -0.001615 -0.031667
    10 5.701826 -0.005492 0.000000 -0.034869 0.000320 0.008706
    11 6.899484 -0.001818 0.000000 0.000000 -0.026147 0.099378
    12 0.050786 0.001927 2.008302 -0.571514 -1.365031 3.600345
    13 4.746895 0.000000 0.000000 0.406268 0.808347 -1.389819
    14 10.954378 0.000000 0.000000 0.000000 0.000000 -1.874092
    15 10.954373 0.000000 0.000000 -1.574103 0.019392 0.236566
    16 -0.050780 0.001941 -2.008302 -0.529234 1.350105 2.519998
    17 4.746896 0.000000 -0.000003 -0.827301 -0.775505 -0.723310
    18 10.954372 0.000000 0.000000 0.000000 0.000000 -1.816613
    19 10.954377 0.000000 0.000000 1.831353 -0.011176 -0.212240
    20 2.428221 0.000000 0.000000 0.224293 0.090945 0.012102
    21 1.681022 0.975106 0.213387 0.000000 0.000001 -1.745239
  time 24
    0 1.848938 0.024072 37.149776 0.000000 -0.026148 -1.570839
    1 0.476577 0.132817 0.000000 -1.570795 -1.570796 0.000000
    2 -0.000004 0.000006 3.319508 0.006362 -3.161200 0.003496
    3 16.904898 0.000000 0.000000 0.000000 0.000000 -0.189882
    4 16.597540 0.000000 0.000000 -0.007174 0.019325 0.149627
    5 0.000005 -0.000003 -3.319508 0.366479 2.985618 0.020568
    6 16.904898 0.000000 0.000000 0.000000 0.000000 -0.201336
    7 16.597540 0.000000 0.000000 0.145210 0.132387 0.131165
    8 3.488968 -0.004234 0.000004 -0.000004 0.017434 -0.068973
    9 5.318531 -0.004538 0.000000 -0.052306 -0.001040 -0.020968
    10 5.701826 -0.005492 0.000000 -0.034869 0.000320 0.008706
    11 6.899484 -0.001818 0.000000 0.000000 -0.026147 0.099378
    12 0.050786 0.001927 2.008302 -0.571514 -1.365031 3.600345
    13 4.746895 0.000000 0.000000 0.402360 0.798177 -1.394743
    14 10.954378 0.000000 0.000000 0.000000 0.000000 -1.874092
    15 10.954373 0.000000 0.000000 -1.574103 0.019392 0.236566
    16 -0.050780 0.001941 -2.008302 -0.529234 1.350105 2.519998
    17 4.746896 0.000000 -0.000003 -0.817078 -0.767817 -0.732198
    18 10.954372 0.000000 0.000000 0.000000 0.000000 -1.816613
    19 10.954377 0.000000 0.000000 1.837214 -0.010146 -0.219550
    20 2.428221 0.000000 0.000000 0.206142 0.072746 0.031261
    21 1.681022 0.975106 0.213387 0.000000 0.000001 -1.745239
  time 25
    0 1.848938 0.024072 37.149776 0.000000 -0.026148 -1.570839
    1 0.402356 0.136723 0.000000 -1.570795 -1.570796 0.000000
    2 -0.000004 0.000006 3.319508 0.006171 -3.161295 -0.000454
    3 16.904898 0.000000 0.000000 0.000000 0.000000 -0.193393
    4 16.597540 0.000000 0.000000 -0.007085 0.019436 0.149212
    5 0.000005 -0.000003 -3.319508 0.366479 2.985618 0.020568
    6 16.904898 0.000000 0.000000 0.000000 0.000000 -0.201336
    7 16.597540 0.000000 0.000000 0.148579 0.132769 0.125230
    8 3.488968 -0.004234 0.000004 -0.000004 0.017434 -0.068973
    9 5.318531 -0.004538 0.000000 -0.052306 -0.000155 -0.003866
    10 5.701826 -0.005492 0.000000 -0.034869 0.000320 0.008706
    11 6.899484 -0.001818 0.000000 0.000000 -0.026147 0.099378
    12 0.050786 0.001927 2.008302 -0.571514 -1.365031 3.600345
    13 4.746895 0.000000 0.000000 0.396450 0.781923 -1.402361
    14 10.954378 0.000000 0.000000 0.000000 0.000000 -1.874092
    15 10.954373 0.000000 0.000000 -1.574103 0.019392 0.236566
    16 -0.050780 0.001941 -2.008302 -0.529234 1.350105 2.519998
    17 4.746896 0.000000 -0.000003 -0.801122 -0.755477 -0.746055
    18 10.954372 0.000000 0.000000 0.000000 0.000000 -1.816613
    19 10.954377 0.000000 0.000000 1.844632 -0.007689 -0.232273
    20 2.428221 0.000000 0.000000 0.175212 0.044226 0.063386
    21 1.681022 0.975106 0.213387 0.000000 0.000001 -1.745239
  time 26
    0 1.848938 0.024072 37.149776 0.000000 -0.026148 -1.570839
    1 0.324229 0.140629 0.000000 -1.570795 -1.570796 0.000000
    2 -0.000004 0.000006 3.319508 0.005979 -3.161391 -0.004667
    3 16.904898 0.000000 0.000000 0.000000 0.000000 -0.196980
    4 16.597540 0.000000 0.000000 -0.006966 0.019509 0.148657
    5 0.000005 -0.000003 -3.319508 0.366479 2.985618 0.020568
    6 16.904898 0.000000 0.000000 0.000000 0.000000 -0.201336
    7 16.597540 0.000000 0.000000 0.151980 0.133123 0.120059
    8 3.488968 -0.004234 0.000004 -0.000004 0.017434 -0.068973
    9 5.318531 -0.004538 0.000000 -0.052306 0.000819 0.014870
    10 5.701826 -0.005492 0.000000 -0.034869 0.000320 0.008706
    11 6.899484 -0.001818 0.000000 0.000000 -0.026147 0.099378
    12 0.050786 0.001927 2.008302 -0.571514 -1.365031 3.600345
    13 4.746895 0.000000 0.000000 0.390158 0.764035 -1.410351
    14 10.954378 0.000000 0.000000 0.000000 0.000000 -1.874092
    15 10.954373 0.000000 0.000000 -1.574103 0.019392 0.236566
    16 -0.050780 0.001941 -2.008302 -0.529234 1.350105 2.519998
    17 4.746896 0.000000 -0.000003 -0.784115 -0.741809 -0.760677
    18 10.954372 0.000000 0.000000 0.000000 0.000000 -1.816613
    19 10.954377 0.000000 0.000000 1.848845 -0.005073 -0.244004
    20 2.428221 0.000000 0.000000 0.137891 0.013412 0.101641
    21 1.681022 0.975106 0.213387 0.000000 0.000001 -1.745239
  time 27
    0 1.848938 0.024072 37.149776 0.000000 -0.026148 -1.570839
    1 0.261727 0.144536 0.000000 -1.570795 -1.570796 0.000000
    2 -0.000004 0.000006 3.319508 0.005787 -3.161487 -0.007651
    3 16.904898 0.000000 0.000000 0.000000 0.000000 -0.199371
    4 16.597540 0.000000 0.000000 -0.006876 0.019620 0.148034
    5 0.000005 -0.000003 -3.319508 0.366479 2.985618 0.020568
    6 16.904898 0.000000 0.000000 0.000000 0.000000 -0.201336
    7 16.597540 0.000000 0.000000 0.150672 0.133423 0.115946
    8 3.488968 -0.004234 0.000004 -0.000004 0.017434 -0.068973
    9 5.318531 -0.004538 0.000000 -0.052306 0.001571 0.029235
    10 5.701826 -0.005492 0.000000 -0.034869 0.000320 0.008706
    11 6.899484 -0.001818 0.000000 0.000000 -0.026147 0.099378
    12 0.050786 0.001927 2.008302 -0.571514 -1.365031 3.600345
    13 4.746895 0.000000 0.000000 0.385583 0.750324 -1.416390
    14 10.954378 0.000000 0.000000 0.000000 0.000000 -1.874092
    15 10.954373 0.000000 0.000000 -1.574103 0.019392 0.236566
    16 -0.050780 0.001941 -2.008302 -0.529234 1.350105 2.519998
    17 4.746896 0.000000 -0.000003 -0.771408 -0.731178 -0.771571
    18 10.954372 0.000000 0.000000 0.000000 0.000000 -1.816613
    19 10.954377 0.000000 0.000000 1.844540 -0.003567 -0.247343
    20 2.428221 0.000000 0.000000 0.104182 -0.011019 0.135745
    21 1.681022 0.975106 0.213387 0.000000 0.000001 -1.745239
  time 28
    0 1.848938 0.024072 37.149776 0.000000 -0.026148 -1.570839
    1 0.238289 0.144536 0.000000 -1.570795 -1.570796 0.000000
    2 -0.000004 0.000006 3.319508 0.005883 -3.161487 -0.007037
    3 16.904898 0.000000 0.000000 0.000000 0.000000 -0.196756
    4 16.597540 0.000000 0.000000 -0.006906 0.019620 0.145955
    5 0.000005 -0.000003 -3.319508 0.366479 2.985618 0.020568
    6 16.904898 0.000000 0.000000 0.000000 0.000000 -0.201336
    7 16.597540 0.000000 0.000000 0.096024 0.133559 0.113948
    8 3.488968 -0.004234 0.000004 -0.000004 0.017434 -0.068973
    9 5.318531 -0.004538 0.000000 -0.052270 0.001859 0.034835
    10 5.701826 -0.005492 0.000000 -0.034869 0.000320 0.008706
    11 6.899484 -0.001818 0.000000 0.000000 -0.026147 0.099378
    12 0.050786 0.001927 2.008302 -0.571514 -1.365031 3.600345
    13 4.746895 0.000000 0.000000 0.383867 0.744966 -1.418619
    14 10.954378 0.000000 0.000000 0.000000 0.000000 -1.874092
    15 10.954373 0.000000 0.000000 -1.574103 0.019392 0.236566
    16 -0.050780 0.001941 -2.008302 -0.529234 1.350105 2.519998
    17 4.746896 0.000000 -0.000003 -0.766535 -0.727001 -0.775681
    18 10.954372 0.000000 0.000000 0.000000 0.000000 -1.816613
    19 10.954377 0.000000 0.000000 1.829613 -0.004122 -0.237688
    20 2.428221 0.000000 0.000000 0.083716 -0.024182 0.156501
    21 1.681022 0.975106 0.213387 0.000000 0.000001 -1.745239
  time 29
    0 1.578830 0.024072 37.149776 0.000000 -0.026148 -1.570839
    1 0.195318 0.128910 0.000000 -1.570795 -1.570796 0.000000
    2 -0.000004 0.000006 3.319508 0.006075 -3.152764 -0.007651
    3 16.904898 0.000000 0.000000 0.000000 0.000000 -0.195336
    4 16.597540 0.000000 0.000000 -0.006728 0.010901 0.144084
    5 0.000005 -0.000003 -3.319508 0.300925 3.013978 0.007444
    6 16.904898 0.000000 0.000000 0.000000 0.000000 -0.213673
    7 16.597540 0.000000 0.000000 0.077220 0.107970 0.131282
    8 3.488968 -0.004234 0.000004 -0.000004 0.015564 -0.061552
    9 5.318531 -0.004538 0.000000 -0.046740 0.001527 0.032148
    10 5.701826 -0.005492 0.000000 -0.031158 0.000176 0.004988
    11 6.899484 -0.001818 0.000000 0.000000 -0.023382 0.125849
    12 0.046880 0.001927 2.008302 -0.492418 -1.361534 3.495936
    13 4.746895 0.000000 0.000000 0.326957 0.773025 -1.275173
    14 10.954378 0.000000 0.000000 0.000000 0.000000 -1.686141
    15 10.954373 0.000000 0.000000 -1.573818 0.017323 0.211453
    16 -0.046873 0.001941 -2.008302 -0.465670 1.350297 2.556717
    17 4.746896 0.000000 -0.000003 -0.704337 -0.757945 -0.662338
    18 10.954372 0.000000 0.000000 0.000000 0.000000 -1.662275
    19 10.954377 0.000000 0.000000 1.801956 -0.006262 -0.213865
    20 2.428221 0.000000 0.000000 0.066028 -0.026326 0.135873
    21 1.681022 0.975106 0.213387 0.000000 0.000001 -1.745239
  time 30
    0 1.279987 0.024072 37.149776 0.000000 -0.026148 -1.570839
    1 0.156255 0.105472 0.000000 -1.570795 -1.570796 0.000000
    2 -0.000004 0.000006 3.319508 0.006362 -3.143082 -0.007475
    3 16.904898 0.000000 0.000000 0.000000 0.000000 -0.192497
    4 16.597540 0.000000 0.000000 -0.006430 0.001148 0.141451
    5 0.000005 -0.000003 -3.319508 0.233745 3.044159 -0.004077
    6 16.904898 0.000000 0.000000 0.000000 0.000000 -0.226509
    7 16.597540 0.000000 0.000000 0.061719 0.081236 0.147441
    8 3.488968 -0.004234 0.000004 -0.000004 0.012975 -0.051191
    9 5.318531 -0.004538 0.000000 -0.038998 0.000974 0.024438
    10 5.701826 -0.005492 0.000000 -0.026006 0.000016 -0.000166
    11 6.899484 -0.001818 0.000000 0.000000 -0.019485 0.162908
    12 0.039067 0.001927 2.008302 -0.388204 -1.354496 3.356341
    13 4.746895 0.000000 0.000000 0.255557 0.821877 -1.069944
    14 10.954378 0.000000 0.000000 0.000000 0.000000 -1.423513
    15 10.954373 0.000000 0.000000 -1.573250 0.014393 0.176370
    16 -0.039060 0.001941 -2.008302 -0.378233 1.348954 2.606571
    17 4.746896 0.000000 -0.000003 -0.626182 -0.810815 -0.499588
    18 10.954372 0.000000 0.000000 0.000000 0.000000 -1.446742
    19 10.954377 0.000000 0.000000 1.763218 -0.008481 -0.179033
    20 2.428221 0.000000 0.000000 0.050471 -0.023634 0.097873
    21 1.681022 0.975106 0.213387 0.000000 0.000001 -1.745239
  time 31
    0 0.975397 0.024072 37.196707 0.000000 -0.026148 -1.570839
    1 0.117191 0.078127 0.000000 -1.570795 -1.570796 0.000000
    2 -0.000004 0.000006 3.319508 0.006746 -3.133208 -0.006334
    3 16.904898 0.000000 0.000000 0.000000 0.000000 -0.187790
    4 16.597540 0.000000 0.000000 -0.006341 -0.008716 0.137917
    5 0.000005 -0.000003 -3.319508 0.172689 3.065813 0.002242
    6 16.904898 0.000000 0.000000 0.000000 0.000000 -0.189997
    7 16.597540 0.000000 0.000000 -0.032075 0.064339 0.113184
    8 3.488968 -0.004234 0.000004 -0.000004 0.010040 -0.039361
    9 5.318531 -0.004538 0.000000 -0.030113 0.000420 0.013765
    10 5.701826 -0.005492 0.000000 -0.020079 -0.000096 -0.006110
    11 6.899484 -0.001818 0.000000 0.000000 -0.015062 0.205262
    12 0.027348 0.001927 2.008302 -0.279675 -1.343735 3.207446
    13 4.746895 0.000000 0.000000 0.187112 0.886075 -0.827089
    14 10.954378 0.000000 0.000000 0.000000 0.000000 -1.122898
    15 10.954373 0.000000 0.000000 -1.572397 0.011032 0.136208
    16 -0.027341 0.001941 -2.008302 -0.281593 1.345307 2.659781
    17 4.746896 0.000000 -0.000003 -0.548505 -0.880296 -0.307498
    18 10.954372 0.000000 0.000000 0.000000 0.000000 -1.199879
    19 10.954377 0.000000 0.000000 1.718894 -0.009591 -0.138516
    20 2.428221 0.000000 0.000000 0.036857 -0.018498 0.049974
    21 1.681022 0.975106 0.213387 0.000000 0.000001 -1.745239
  time 32
    0 0.676555 0.024072 37.196707 0.000000 -0.026148 -1.570839
    1 0.078127 0.054689 0.000000 -1.570795 -1.570796 0.000000
    2 -0.000004 0.000006 3.319508 0.006842 -3.123430 -0.004228
    3 16.904898 0.000000 0.000000 0.000000 0.000000 -0.181214
    4 16.597540 0.000000 0.000000 -0.006044 -0.018433 0.133621
    5 0.000005 -0.000003 -3.319508 0.113451 3.084880 0.010214
    6 16.904898 0.000000 0.000000 0.000000 0.000000 -0.152842
    7 16.597540 0.000000 0.000000 -0.117300 0.048370 0.077164
    8 3.488968 -0.004234 0.000004 -0.000004 0.006990 -0.027163
    9 5.318531 -0.004538 0.000000 -0.020979 0.000044 0.001886
    10 5.701826 -0.005492 0.000000 -0.013986 -0.000144 -0.012200
    11 6.899484 -0.001818 0.000000 0.000000 -0.010480 0.248798
    12 0.019535 0.001927 2.008302 -0.180926 -1.330204 3.067371
    13 4.746895 0.000000 0.000000 0.135064 0.957810 -0.565095
    14 10.954378 0.000000 0.000000 0.000000 0.000000 -0.814045
    15 10.954373 0.000000 0.000000 -1.571449 0.007584 0.094895
    16 -0.019529 0.001941 -2.008302 -0.188021 1.339358 2.708484
    17 4.746896 0.000000 -0.000003 -0.484300 -0.958605 -0.100787
    18 10.954372 0.000000 0.000000 0.000000 0.000000 -0.946301
    19 10.954377 0.000000 0.000000 1.673195 -0.008878 -0.096465
    20 2.428221 0.000000 0.000000 0.025096 -0.012515 -0.001629
    21 1.681022 0.975106 0.213387 0.000000 0.000001 -1.745239
  time 33
    0 0.394953 0.024072 37.196707 0.000000 -0.026148 -1.570839
    1 0.046876 0.031251 0.000000 -1.570795 -1.570796 0.000000
    2 -0.000004 0.000006 3.319508 0.006938 -3.114132 -0.001156
    3 16.904898 0.000000 0.000000 0.000000 0.000000 -0.173070
    4 16.597540 0.000000 0.000000 -0.005716 -0.027706 0.128563
    5 0.000005 -0.000003 -3.319508 0.062157 3.097814 0.005694
    6 16.904898 0.000000 0.000000 0.000000 0.000000 -0.159332
    7 16.597540 0.000000 0.000000 -0.065269 0.039023 0.082570
    8 3.488968 -0.004234 0.000004 -0.000004 0.004113 -0.015737
    9 5.318531 -0.004538 0.000000 -0.012381 -0.000111 -0.009717
    10 5.701826 -0.005492 0.000000 -0.008253 -0.000128 -0.017910
    11 6.899484 -0.001818 0.000000 0.000000 -0.006189 0.289781
    12 0.011722 0.001927 2.008302 -0.099530 -1.315675 2.947239
    13 4.746895 0.000000 0.000000 0.107610 1.028002 -0.302079
    14 10.954378 0.000000 0.000000 0.000000 0.000000 -0.523499
    15 10.954373 0.000000 0.000000 -1.570406 0.004482 0.056074
    16 -0.011716 0.001941 -2.008302 -0.106241 1.331911 2.747696
    17 4.746896 0.000000 -0.000003 -0.442356 -1.036249 0.106784
    18 10.954372 0.000000 0.000000 0.000000 0.000000 -0.707849
    19 10.954377 0.000000 0.000000 1.630336 -0.006421 -0.056760
    20 2.428221 0.000000 0.000000 0.015002 -0.006831 -0.051444
    21 1.681022 0.975106 0.213387 0.000000 0.000001 -1.745239
  time 34
    0 0.136339 0.024072 37.196707 0.000000 -0.026148 -1.570839
    1 0.019532 0.011719 0.000000 -1.570795 -1.570796 0.000000
    2 -0.000004 0.000006 3.319508 0.006842 -3.105888 0.002443
    3 16.904898 0.000000 0.000000 0.000000 0.000000 -0.164029
    4 16.597540 0.000000 0.000000 -0.005419 -0.035907 0.123158
    5 0.000005 -0.000003 -3.319508 0.020049 3.109312 0.002728
    6 16.904898 0.000000 0.000000 0.000000 0.000000 -0.163397
    7 16.597540 0.000000 0.000000 -0.022525 0.030684 0.085626
    8 3.488968 -0.004234 0.000004 -0.000004 0.001696 -0.006038
    9 5.318531 -0.004538 0.000000 -0.005102 -0.000089 -0.019587
    10 5.701826 -0.005492 0.000000 -0.003407 -0.000064 -0.022770
    11 6.899484 -0.001818 0.000000 0.000000 -0.002555 0.324474
    12 0.003910 0.001927 2.008302 -0.038746 -1.302235 2.853664
    13 4.746895 0.000000 0.000000 0.105322 1.087387 -0.061361
    14 10.954378 0.000000 0.000000 0.000000 0.000000 -0.277423
    15 10.954373 0.000000 0.000000 -1.569458 0.001810 0.023101
    16 -0.003903 0.001941 -2.008302 -0.042197 1.324387 2.775404
    17 4.746896 0.000000 -0.000003 -0.425445 -1.103453 0.298109
    18 10.954372 0.000000 0.000000 0.000000 0.000000 -0.505744
    19 10.954377 0.000000 0.000000 1.594162 -0.003091 -0.023281
    20 2.428221 0.000000 0.000000 0.006668 -0.002393 -0.093850
    21 1.681022 0.975106 0.213387 0.000000 0.000001 -1.745239
  time 35
    0 -0.001589 0.024072 37.196707 0.000000 0.000000 -1.570839
    1 0.000000 0.000000 0.000000 -1.570795 -1.570796 0.000000
    2 -0.000004 0.000006 3.319508 -0.000732 -3.100711 -0.021168
    3 16.904898 0.000000 0.000000 0.000000 0.000000 -0.157678
    4 16.597540 0.000000 0.000000 0.002284 -0.040858 0.119070
    5 0.000005 -0.000003 -3.319508 0.001962 3.115348 -0.024688
    6 16.904898 0.000000 0.000000 0.000000 0.000000 -0.164609
    7 16.597540 0.000000 0.000000 -0.003983 0.026023 0.086213
    8 3.488968 -0.004234 0.000004 -0.000004 -0.000001 0.000796
    9 5.318531 -0.004538 0.000000 0.000000 0.000000 -0.026167
    10 5.701826 -0.005492 0.000000 0.000000 0.000000 -0.026167
    11 6.899484 -0.001818 0.000000 0.000000 -0.000001 0.348889
    12 0.000003 0.001927 2.008302 -0.000013 -1.292336 2.791920
    13 4.746895 0.000000 0.000000 0.117714 1.128249 0.120920
    14 10.954378 0.000000 0.000000 0.000000 0.000000 -0.104118
    15 10.954373 0.000000 0.000000 -1.568795 0.000000 0.000000
    16 0.000003 0.001941 -2.008302 -0.000013 1.318476 2.791894
    17 4.746896 0.000000 -0.000003 -0.427069 -1.150817 0.444804
    18 10.954372 0.000000 0.000000 0.000000 0.000000 -0.363444
    19 10.954377 0.000000 0.000000 1.568795 0.000000 0.000000
    20 2.428221 0.000000 0.000000 0.000000 0.000000 -0.122909
    21 1.681022 0.975106 0.213387 0.000000 0.000001 -1.745239
end
