version 1
nodes
  0 "Bip02" -1
  1 "Bip02 Pelvis" 0
  2 "Bip02 L Leg" 1
  3 "Bip02 L Leg1" 2
  4 "Bip02 L Foot" 3
  5 "Bip02 R Leg" 1
  6 "Bip02 R Leg1" 5
  7 "Bip02 R Foot" 6
  8 "Bip02 Spine" 1
  9 "Bip02 Spine1" 8
  10 "Bip02 Spine2" 9
  11 "Bip02 Neck" 10
  12 "Bip02 L Arm" 11
  13 "Bip02 L Arm1" 12
  14 "Bip02 L Arm2" 13
  15 "Bip02 L Hand" 14
  16 "Bip02 R Arm" 11
  17 "Bip02 R Arm1" 16
  18 "Bip02 R Arm2" 17
  19 "Bip02 R Hand" 18
  20 "Bip02 Head" 11
  21 "Bone01" 20
end
skeleton
  time 0
    0 -0.001589 0.024072 36.821262 0.000000 0.000000 -1.570839
    1 0.000000 0.000000 0.000000 -1.570795 -1.570796 0.000000
    2 -0.000004 0.000006 3.319508 -0.000732 -3.100711 -0.021168
    3 16.897085 0.000000 0.000000 0.000000 0.000000 -0.157678
    4 16.589727 0.000000 0.000000 0.001600 -0.040858 0.136462
    5 0.000005 -0.000003 -3.319508 0.001962 3.115348 -0.024688
    6 16.897085 0.000000 0.000000 0.000000 0.000000 -0.164609
    7 16.589727 0.000000 0.000000 -0.002609 0.026187 0.139861
    8 3.488968 -0.004234 0.000004 -0.000004 -0.000001 0.000796
    9 5.318531 -0.004538 0.000000 0.000000 0.000000 -0.026167
    10 5.701826 -0.005492 0.000000 0.000000 0.000000 -0.026167
    11 6.899484 -0.001818 0.000000 0.000000 -0.000001 0.348889
    12 0.000003 0.001927 2.008302 -0.000013 -1.292336 2.791920
    13 4.746895 0.000000 0.000000 0.117714 1.128249 0.120920
    14 10.950472 0.000000 0.000000 0.000000 0.000000 -0.104118
    15 10.950467 0.000000 0.000000 -1.568795 0.000000 0.000000
    16 0.000003 0.001941 -2.008302 -0.000013 1.318476 2.791894
    17 4.746896 0.000000 -0.000003 -0.427069 -1.150817 0.444804
    18 10.950466 0.000000 0.000000 0.000000 0.000000 -0.363444
    19 10.950471 0.000000 0.000000 1.568795 0.000000 0.000000
    20 2.428221 0.000000 0.000000 0.000000 0.000000 -0.122909
    21 1.681022 0.975106 0.213387 0.000000 0.000001 -1.745239
  time 1
    0 -0.001589 0.024072 36.821262 0.000000 -0.004502 -1.570839
    1 0.238289 0.000000 0.000000 -1.570795 -1.570796 0.000000
    2 -0.000004 0.000006 3.319508 0.006554 -3.101190 -0.003965
    3 16.897085 0.000000 0.000000 0.000000 0.000000 -0.146769
    4 16.589727 0.000000 0.000000 -0.006222 -0.040378 0.138471
    5 0.000005 -0.000003 -3.319508 -0.008373 3.116115 -0.007723
    6 16.897085 0.000000 0.000000 0.000000 0.000000 -0.154197
    7 16.589727 0.000000 0.000000 0.008150 0.025533 0.142094
    8 3.488968 -0.004234 0.000004 -0.000545 -0.000001 -0.038626
    9 5.318531 -0.004538 0.000000 0.000000 0.000000 -0.014439
    10 5.701826 -0.005492 0.000000 0.000000 0.000000 -0.011029
    11 6.899484 -0.001818 0.000000 0.000000 -0.004530 0.267608
    12 0.007816 0.001927 2.008302 -0.071726 -1.309726 2.942445
    13 4.746895 0.000000 0.000000 -0.028326 1.092200 -0.185669
    14 10.950472 0.000000 0.000000 0.000000 0.000000 -0.481545
    15 10.950467 0.000000 0.000000 -1.570027 0.003275 0.041121
    16 -0.007809 0.001941 -2.008302 -0.077191 1.328571 2.798030
    17 4.746896 0.000000 -0.000003 -0.398597 -1.110572 0.172152
    18 10.950466 0.000000 0.000000 0.000000 0.000000 -0.606603
    19 10.950471 0.000000 0.000000 1.537383 -0.063492 0.014980
    20 2.428221 0.000000 0.000000 0.000648 0.002942 -0.046079
    21 1.681022 0.975106 0.213387 0.000000 0.000001 -1.745239
  time 2
    0 -0.001589 0.006861 36.821262 0.000000 -0.010632 -1.570839
    1 0.558611 0.000000 0.000000 -1.570795 -1.570796 0.000000
    2 -0.000004 0.000006 3.319508 0.006171 -3.101190 0.021402
    3 16.897085 0.000000 0.000000 0.000000 0.000000 -0.127791
    4 16.589727 0.000000 0.000000 -0.006668 -0.040304 0.138749
    5 0.000005 -0.000003 -3.319508 -0.008373 3.116115 0.017068
    6 16.897085 0.000000 0.000000 0.000000 0.000000 -0.136297
    7 16.589727 0.000000 0.000000 0.008608 0.025397 0.142917
    8 3.488968 -0.004234 0.000004 -0.001229 -0.000087 -0.091421
    9 5.318531 -0.004538 0.000000 0.000000 0.000000 0.001308
    10 5.701826 -0.005492 0.000000 0.000000 0.000000 0.009292
    11 6.899484 -0.001818 0.000000 0.000000 -0.010638 0.158735
    12 0.019535 0.001927 2.008302 -0.187829 -1.330704 3.164110
    13 4.746895 0.000000 0.000000 -0.176464 1.021736 -0.549859
    14 10.950472 0.000000 0.000000 0.000000 0.000000 -0.987045
    15 10.950467 0.000000 0.000000 -1.571449 0.007670 0.096237
    16 -0.019529 0.001941 -2.008302 -0.194636 1.339204 2.791894
    17 4.746896 0.000000 -0.000003 -0.391431 -1.057417 -0.165295
    18 10.950466 0.000000 0.000000 0.000000 0.000000 -0.932334
    19 10.950471 0.000000 0.000000 1.493425 -0.147672 0.038351
    20 2.428221 0.000000 0.000000 0.002778 0.007030 0.056744
    21 1.681022 0.975106 0.213387 0.000000 0.000001 -1.745239
  time 3
    0 -0.001589 0.006861 36.821262 0.000000 -0.018294 -1.570839
    1 0.964873 0.000000 0.000000 -1.570795 -1.570796 0.000000
    2 -0.000004 0.000006 3.319508 0.005500 -3.101095 0.059232
    3 16.897085 0.000000 0.000000 0.000000 0.000000 -0.092225
    4 16.589727 0.000000 0.000000 -0.007203 -0.040230 0.133413
    5 0.000005 -0.000003 -3.319508 -0.008278 3.116115 0.053332
    6 16.897085 0.000000 0.000000 0.000000 0.000000 -0.103921
    7 16.589727 0.000000 0.000000 0.009230 0.025179 0.139156
    8 3.488968 -0.004234 0.000004 -0.002254 -0.000346 -0.158509
    9 5.318531 -0.004538 0.000000 0.000000 0.000000 0.021198
    10 5.701826 -0.005492 0.000000 0.000000 0.000000 0.035088
    11 6.895578 -0.001818 0.000000 0.000000 -0.018380 0.020402
    12 0.035161 0.001927 2.008302 -0.372097 -1.351318 3.482897
    13 4.746895 0.000000 0.000000 -0.290475 0.906688 -0.941735
    14 10.950472 0.000000 0.000000 0.000000 0.000000 -1.629313
    15 10.950467 0.000000 0.000000 -1.573060 0.013531 0.166210
    16 -0.035154 0.001941 -2.008302 -0.364811 1.347035 2.762461
    17 4.746896 0.000000 -0.000003 -0.414171 -0.995719 -0.567918
    18 10.950466 0.000000 0.000000 0.000000 0.000000 -1.346114
    19 10.950471 0.000000 0.000000 1.433624 -0.253016 0.074086
    20 2.428221 0.000000 0.000000 0.007409 0.011917 0.187539
    21 1.681022 0.975106 0.213387 0.000000 0.000001 -1.745239
  time 4
    0 -0.001589 -0.010349 36.821262 0.000000 -0.026148 -1.570839
    1 1.375042 -0.003906 0.000000 -1.570795 -1.570796 0.000000
    2 -0.000004 0.000006 3.319508 0.003678 -3.100807 0.124447
    3 16.897085 0.000000 0.000000 0.000000 0.000000 -0.002039
    4 16.589727 0.000000 0.000000 -0.007739 -0.040230 0.100569
    5 0.000005 -0.000003 -3.319508 -0.007799 3.116019 0.105005
    6 16.897085 0.000000 0.000000 0.000000 0.000000 -0.041022
    7 16.589727 0.000000 0.000000 0.009818 0.024879 0.120059
    8 3.488968 -0.004234 0.000004 -0.004077 -0.000922 -0.225963
    9 5.318531 -0.004538 0.000000 0.000000 0.000000 0.040612
    10 5.701826 -0.005492 0.000000 0.000000 0.000000 0.061031
    11 6.895578 -0.001818 0.000000 0.000000 -0.026147 -0.118679
    12 0.050786 0.001927 2.008302 -0.594619 -1.361898 3.840994
    13 4.746895 0.000000 0.000000 -0.340330 0.773479 -1.276567
    14 10.950472 0.000000 0.000000 0.000000 0.000000 -2.275318
    15 10.950467 0.000000 0.000000 -1.574103 0.019392 0.236566
    16 -0.050780 0.001941 -2.008302 -0.551572 1.347265 2.716154
    17 4.746896 0.000000 -0.000003 -0.457261 -0.942279 -0.958309
    18 10.950466 0.000000 0.000000 0.000000 0.000000 -1.762286
    19 10.950471 0.000000 0.000000 1.367412 -0.356458 0.117941
    20 2.428221 0.000000 0.000000 0.014910 0.016155 0.319676
    21 1.681022 0.975106 0.213387 0.000000 0.000001 -1.745239
  time 5
    0 -0.001589 -0.044770 36.821262 0.000000 -0.026148 -1.570839
    1 1.398480 -0.019532 0.000000 -1.570795 -1.570796 0.000000
    2 -0.000004 0.000006 3.319508 0.003678 -3.100519 0.125851
    3 16.897085 0.000000 0.000000 0.000000 0.000000 -0.002039
    4 16.589727 0.000000 0.000000 -0.007769 -0.040599 0.101955
    5 0.000005 -0.000003 -3.319508 -0.007608 3.116306 0.111762
    6 16.897085 0.000000 0.000000 0.000000 0.000000 -0.030254
    7 16.589727 0.000000 0.000000 0.009786 0.024470 0.116063
    8 3.488968 -0.004234 0.000004 -0.012566 -0.002878 -0.225927
    9 5.318531 -0.004538 0.000000 0.000000 0.000000 0.034383
    10 5.701826 -0.005492 0.000000 0.000000 0.000000 0.061031
    11 6.895578 -0.001818 0.000000 0.000000 -0.026147 -0.118679
    12 0.050786 0.001927 2.008302 -0.594619 -1.361898 3.840994
    13 4.746895 0.000000 0.000000 -0.336136 0.776929 -1.263931
    14 10.950472 0.000000 0.000000 0.000000 0.000000 -2.275318
    15 10.950467 0.000000 0.000000 -1.574103 0.019392 0.236566
    16 -0.050780 0.001941 -2.008302 -0.551572 1.347265 2.716154
    17 4.746896 0.000000 -0.000003 -0.461942 -0.949398 -0.962036
    18 10.950466 0.000000 0.000000 0.000000 0.000000 -1.762286
    19 10.950471 0.000000 0.000000 1.367412 -0.356458 0.117941
    20 2.428221 0.000000 0.000000 0.023800 0.015407 0.325871
    21 1.681022 0.975106 0.213387 0.000000 0.000001 -1.745239
  time 6
    0 -0.001589 -0.061981 36.821262 0.000000 -0.026148 -1.570839
    1 1.425825 -0.031251 0.000000 -1.570795 -1.570796 0.000000
    2 -0.000004 0.000006 3.319508 0.003582 -3.100040 0.127431
    3 16.897085 0.000000 0.000000 0.000000 0.000000 -0.002039
    4 16.589727 0.000000 0.000000 -0.007798 -0.041006 0.103548
    5 0.000005 -0.000003 -3.319508 -0.007321 3.116689 0.124935
    6 16.897085 0.000000 0.000000 0.000000 0.000000 -0.006792
    7 16.589727 0.000000 0.000000 0.009753 0.024007 0.105780
    8 3.488968 -0.004234 0.000004 -0.021253 -0.004863 -0.225927
    9 5.318531 -0.004538 0.000000 0.000000 0.000000 0.028004
    10 5.701826 -0.005492 0.000000 0.000000 0.000000 0.061031
    11 6.895578 -0.001818 0.000000 0.000000 -0.026147 -0.118679
    12 0.050786 0.001927 2.008302 -0.594619 -1.361898 3.840994
    13 4.746895 0.000000 0.000000 -0.331656 0.780470 -1.250925
    14 10.950472 0.000000 0.000000 0.000000 0.000000 -2.275318
    15 10.950467 0.000000 0.000000 -1.574103 0.019392 0.236566
    16 -0.050780 0.001941 -2.008302 -0.551572 1.347265 2.716154
    17 4.746896 0.000000 -0.000003 -0.466624 -0.956707 -0.965859
    18 10.950466 0.000000 0.000000 0.000000 0.000000 -1.762286
    19 10.950471 0.000000 0.000000 1.367412 -0.356458 0.117941
    20 2.428221 0.000000 0.000000 0.032875 0.014709 0.332130
    21 1.681022 0.975106 0.213387 0.000000 0.000001 -1.745239
  time 7
    0 -0.001589 -0.096401 36.821262 0.000000 -0.026148 -1.570839
    1 1.453169 -0.046876 0.000000 -1.570795 -1.570796 0.000000
    2 -0.000004 0.000006 3.319508 0.003486 -3.099657 0.129099
    3 16.897085 0.000000 0.000000 0.000000 0.000000 -0.002039
    4 16.589727 0.000000 0.000000 -0.007858 -0.041412 0.105211
    5 0.000005 -0.000003 -3.319508 -0.007225 3.117073 0.128970
    6 16.897085 0.000000 0.000000 0.000000 0.000000 -0.002014
    7 16.589727 0.000000 0.000000 0.009720 0.023571 0.105017
    8 3.488968 -0.004234 0.000004 -0.029770 -0.006820 -0.225853
    9 5.318531 -0.004538 0.000000 0.000000 0.000000 0.021776
    10 5.701826 -0.005492 0.000000 0.000000 0.000000 0.061031
    11 6.895578 -0.001818 0.000000 0.000000 -0.026147 -0.118679
    12 0.050786 0.001927 2.008302 -0.594619 -1.361898 3.840994
    13 4.746895 0.000000 0.000000 -0.327271 0.783830 -1.238104
    14 10.950472 0.000000 0.000000 0.000000 0.000000 -2.275318
    15 10.950467 0.000000 0.000000 -1.574103 0.019392 0.236566
    16 -0.050780 0.001941 -2.008302 -0.551572 1.347265 2.716154
    17 4.746896 0.000000 -0.000003 -0.471210 -0.963921 -0.969681
    18 10.950466 0.000000 0.000000 0.000000 0.000000 -1.762286
    19 10.950471 0.000000 0.000000 1.367412 -0.356458 0.117941
    20 2.428221 0.000000 0.000000 0.041673 0.013961 0.338261
    21 1.681022 0.975106 0.213387 0.000000 0.000001 -1.745239
  time 8
    0 -0.001589 -0.113612 36.821262 0.000000 -0.026148 -1.570839
    1 1.476608 -0.062502 0.000000 -1.570795 -1.570796 0.000000
    2 -0.000004 0.000006 3.319508 0.003390 -3.099177 0.130854
    3 16.897085 0.000000 0.000000 0.000000 0.000000 -0.002039
    4 16.589727 0.000000 0.000000 -0.007888 -0.041819 0.106944
    5 0.000005 -0.000003 -3.319508 -0.007225 3.117552 0.130720
    6 16.897085 0.000000 0.000000 0.000000 0.000000 -0.002014
    7 16.589727 0.000000 0.000000 0.009687 0.023108 0.106779
    8 3.488968 -0.004234 0.000004 -0.038002 -0.008719 -0.225780
    9 5.318531 -0.004538 0.000000 0.000000 0.000000 0.015723
    10 5.701826 -0.005492 0.000000 0.000000 0.000000 0.061031
    11 6.895578 -0.001818 0.000000 0.000000 -0.026147 -0.118679
    12 0.050786 0.001927 2.008302 -0.594619 -1.361898 3.840994
    13 4.746895 0.000000 0.000000 -0.322790 0.787099 -1.225561
    14 10.950472 0.000000 0.000000 0.000000 0.000000 -2.275318
    15 10.950467 0.000000 0.000000 -1.574103 0.019392 0.236566
    16 -0.050780 0.001941 -2.008302 -0.551572 1.347265 2.716154
    17 4.746896 0.000000 -0.000003 -0.475510 -0.970850 -0.973409
    18 10.950466 0.000000 0.000000 0.000000 0.000000 -1.762286
    19 10.950471 0.000000 0.000000 1.367412 -0.356458 0.117941
    20 2.428221 0.000000 0.000000 0.050285 0.013263 0.344201
    21 1.681022 0.975106 0.213387 0.000000 0.000001 -1.745239
  time 9
    0 -0.001589 -0.148033 36.821262 0.000000 -0.026148 -1.570839
    1 1.500046 -0.074221 0.000000 -1.570795 -1.570796 0.000000
    2 -0.000004 0.000006 3.319508 0.003390 -3.098794 0.132610
    3 16.897085 0.000000 0.000000 0.000000 0.000000 -0.002039
    4 16.589727 0.000000 0.000000 -0.007917 -0.042262 0.108745
    5 0.000005 -0.000003 -3.319508 -0.007225 3.118031 0.132470
    6 16.897085 0.000000 0.000000 0.000000 0.000000 -0.002014
    7 16.589727 0.000000 0.000000 0.009687 0.022672 0.108542
    8 3.488968 -0.004234 0.000004 -0.045892 -0.010531 -0.225706
    9 5.318531 -0.004538 0.000000 0.000000 0.000000 0.009947
    10 5.701826 -0.005492 0.000000 0.000000 0.000000 0.061031
    11 6.895578 -0.001818 0.000000 0.000000 -0.026147 -0.118679
    12 0.050786 0.001927 2.008302 -0.594619 -1.361898 3.840994
    13 4.746895 0.000000 0.000000 -0.318310 0.790096 -1.213484
    14 10.950472 0.000000 0.000000 0.000000 0.000000 -2.275318
    15 10.950467 0.000000 0.000000 -1.574103 0.019392 0.236566
    16 -0.050780 0.001941 -2.008302 -0.551572 1.347265 2.716154
    17 4.746896 0.000000 -0.000003 -0.479618 -0.977589 -0.976945
    18 10.950466 0.000000 0.000000 0.000000 0.000000 -1.762286
    19 10.950471 0.000000 0.000000 1.367412 -0.356458 0.117941
    20 2.428221 0.000000 0.000000 0.058435 0.012615 0.349885
    21 1.681022 0.975106 0.213387 0.000000 0.000001 -1.745239
  time 10
    0 -0.001589 -0.199664 36.821262 0.000000 -0.026148 -1.570839
    1 1.523484 -0.089846 0.000000 -1.570795 -1.570796 0.000000
    2 -0.000004 0.000006 3.319508 0.003295 -3.098410 0.134453
    3 16.897085 0.000000 0.000000 0.000000 0.000000 -0.002039
    4 16.589727 0.000000 0.000000 -0.007977 -0.042631 0.110547
    5 0.000005 -0.000003 -3.319508 -0.007129 3.118414 0.134317
    6 16.897085 0.000000 0.000000 0.000000 0.000000 -0.002014
    7 16.589727 0.000000 0.000000 0.009655 0.022235 0.110364
    8 3.488968 -0.004234 0.000004 -0.053270 -0.012229 -0.225633
    9 5.318531 -0.004538 0.000000 0.000000 0.000000 0.004548
    10 5.701826 -0.005492 0.000000 0.000000 0.000000 0.061031
    11 6.895578 -0.001818 0.000000 0.000000 -0.026147 -0.118679
    12 0.050786 0.001927 2.008302 -0.594619 -1.361898 3.840994
    13 4.746895 0.000000 0.000000 -0.314116 0.792820 -1.202149
    14 10.950472 0.000000 0.000000 0.000000 0.000000 -2.275318
    15 10.950467 0.000000 0.000000 -1.574103 0.019392 0.236566
    16 -0.050780 0.001941 -2.008302 -0.551572 1.347265 2.716154
    17 4.746896 0.000000 -0.000003 -0.483344 -0.983949 -0.980385
    18 10.950466 0.000000 0.000000 0.000000 0.000000 -1.762286
    19 10.950471 0.000000 0.000000 1.367412 -0.356458 0.117941
    20 2.428221 0.000000 0.000000 0.066121 0.011966 0.355185
    21 1.681022 0.975106 0.213387 0.000000 0.000001 -1.745239
  time 11
    0 -0.001589 -0.234085 36.821262 0.000000 -0.026148 -1.570839
    1 1.527390 -0.093753 0.000000 -1.570795 -1.570796 0.000000
    2 -0.000004 0.000006 3.319508 0.003199 -3.098219 0.135857
    3 16.897085 0.000000 0.000000 0.000000 0.000000 -0.002039
    4 16.589727 0.000000 0.000000 -0.007977 -0.042742 0.112002
    5 0.000005 -0.000003 -3.319508 -0.007129 3.118510 0.135775
    6 16.897085 0.000000 0.000000 0.000000 0.000000 -0.002014
    7 16.589727 0.000000 0.000000 0.009622 0.022126 0.111833
    8 3.488968 -0.004234 0.000004 -0.055377 -0.012718 -0.225596
    9 5.318531 -0.004538 0.000000 0.000000 0.000000 0.002991
    10 5.701826 -0.005492 0.000000 0.000000 0.000000 0.061031
    11 6.895578 -0.001818 0.000000 0.000000 -0.026147 -0.118679
    12 0.050786 0.001927 2.008302 -0.594619 -1.361898 3.840994
    13 4.746895 0.000000 0.000000 -0.312876 0.793637 -1.198897
    14 10.950472 0.000000 0.000000 0.000000 0.000000 -2.275318
    15 10.950467 0.000000 0.000000 -1.574103 0.019392 0.236566
    16 -0.050780 0.001941 -2.008302 -0.551572 1.347265 2.716154
    17 4.746896 0.000000 -0.000003 -0.484395 -0.985752 -0.981341
    18 10.950466 0.000000 0.000000 0.000000 0.000000 -1.762286
    19 10.950471 0.000000 0.000000 1.367412 -0.356458 0.117941
    20 2.428221 0.000000 0.000000 0.068344 0.011817 0.356718
    21 1.681022 0.975106 0.213387 0.000000 0.000001 -1.745239
  time 12
    0 -0.001589 -0.268506 36.821262 0.000000 -0.026148 -1.570839
    1 1.531297 -0.097659 0.000000 -1.570795 -1.570796 0.000000
    2 -0.000004 0.000006 3.319508 0.003103 -3.098219 0.137349
    3 16.897085 0.000000 0.000000 0.000000 0.000000 -0.002039
    4 16.589727 0.000000 0.000000 -0.007977 -0.042816 0.113457
    5 0.000005 -0.000003 -3.319508 -0.007129 3.118606 0.137185
    6 16.897085 0.000000 0.000000 0.000000 0.000000 -0.002014
    7 16.589727 0.000000 0.000000 0.009622 0.022017 0.113243
    8 3.488968 -0.004234 0.000004 -0.056688 -0.013005 -0.225596
    9 5.318531 -0.004538 0.000000 0.000000 0.000000 0.002036
    10 5.701826 -0.005492 0.000000 0.000000 0.000000 0.061031
    11 6.895578 -0.001818 0.000000 0.000000 -0.026147 -0.118679
    12 0.050786 0.001927 2.008302 -0.594619 -1.361898 3.840994
    13 4.746895 0.000000 0.000000 -0.312114 0.794091 -1.196853
    14 10.950472 0.000000 0.000000 0.000000 0.000000 -2.275318
    15 10.950467 0.000000 0.000000 -1.574103 0.019392 0.236566
    16 -0.050780 0.001941 -2.008302 -0.551572 1.347265 2.716154
    17 4.746896 0.000000 -0.000003 -0.485064 -0.986891 -0.982010
    18 10.950466 0.000000 0.000000 0.000000 0.000000 -1.762286
    19 10.950471 0.000000 0.000000 1.367412 -0.356458 0.117941
    20 2.428221 0.000000 0.000000 0.069733 0.011717 0.357676
    21 1.681022 0.975106 0.213387 0.000000 0.000001 -1.745239
  time 13
    0 -0.001589 -0.320137 36.821262 0.000000 -0.026148 -1.570839
    1 1.535203 -0.097659 0.000000 -1.570795 -1.570796 0.000000
    2 -0.000004 0.000006 3.319508 0.003103 -3.098123 0.138841
    3 16.897085 0.000000 0.000000 0.000000 0.000000 -0.002039
    4 16.589727 0.000000 0.000000 -0.007977 -0.042890 0.114982
    5 0.000005 -0.000003 -3.319508 -0.007034 3.118702 0.138692
    6 16.897085 0.000000 0.000000 0.000000 0.000000 -0.002014
    7 16.589727 0.000000 0.000000 0.009622 0.021936 0.114771
    8 3.488968 -0.004234 0.000004 -0.057941 -0.013293 -0.225559
    9 5.318531 -0.004538 0.000000 0.000000 0.000000 0.001132
    10 5.701826 -0.005492 0.000000 0.000000 0.000000 0.061031
    11 6.895578 -0.001818 0.000000 0.000000 -0.026147 -0.118679
    12 0.050786 0.001927 2.008302 -0.594619 -1.361898 3.840994
    13 4.746895 0.000000 0.000000 -0.311351 0.794545 -1.194902
    14 10.950472 0.000000 0.000000 0.000000 0.000000 -2.275318
    15 10.950467 0.000000 0.000000 -1.574103 0.019392 0.236566
    16 -0.050780 0.001941 -2.008302 -0.551572 1.347265 2.716154
    17 4.746896 0.000000 -0.000003 -0.485637 -0.987935 -0.982583
    18 10.950466 0.000000 0.000000 0.000000 0.000000 -1.762286
    19 10.950471 0.000000 0.000000 1.367412 -0.356458 0.117941
    20 2.428221 0.000000 0.000000 0.071029 0.011568 0.358570
    21 1.681022 0.975106 0.213387 0.000000 0.000001 -1.745239
  time 14
    0 -0.001589 -0.354558 36.821262 0.000000 -0.026148 -1.570839
    1 1.543016 -0.101566 0.000000 -1.570795 -1.570796 0.000000
    2 -0.000004 0.000006 3.319508 0.003007 -3.098027 0.140421
    3 16.897085 0.000000 0.000000 0.000000 0.000000 -0.002039
    4 16.589727 0.000000 0.000000 -0.008006 -0.042964 0.116575
    5 0.000005 -0.000003 -3.319508 -0.007034 3.118797 0.140296
    6 16.897085 0.000000 0.000000 0.000000 0.000000 -0.002014
    7 16.589727 0.000000 0.000000 0.009622 0.021827 0.116357
    8 3.488968 -0.004234 0.000004 -0.059764 -0.013725 -0.225559
    9 5.318531 -0.004538 0.000000 0.000000 0.000000 -0.000023
    10 5.701826 -0.005492 0.000000 0.000000 0.000000 0.061031
    11 6.895578 -0.001818 0.000000 0.000000 -0.026147 -0.118679
    12 0.050786 0.001927 2.008302 -0.594619 -1.361898 3.840994
    13 4.746895 0.000000 0.000000 -0.310303 0.795271 -1.192115
    14 10.950472 0.000000 0.000000 0.000000 0.000000 -2.275318
    15 10.950467 0.000000 0.000000 -1.574103 0.019392 0.236566
    16 -0.050780 0.001941 -2.008302 -0.551572 1.347265 2.716154
    17 4.746896 0.000000 -0.000003 -0.486593 -0.989454 -0.983443
    18 10.950466 0.000000 0.000000 0.000000 0.000000 -1.762286
    19 10.950471 0.000000 0.000000 1.367412 -0.356458 0.117941
    20 2.428221 0.000000 0.000000 0.072881 0.011418 0.359848
    21 1.681022 0.975106 0.213387 0.000000 0.000001 -1.745239
  time 15
    0 -0.001589 -0.406189 36.821262 0.000000 -0.026148 -1.570839
    1 1.554735 -0.109378 0.000000 -1.570795 -1.570796 0.000000
    2 -0.000004 0.000006 3.319508 0.002911 -3.097739 0.142089
    3 16.897085 0.000000 0.000000 0.000000 0.000000 -0.002039
    4 16.589727 0.000000 0.000000 -0.008006 -0.043222 0.118238
    5 0.000005 -0.000003 -3.319508 -0.007034 3.119085 0.141949
    6 16.897085 0.000000 0.000000 0.000000 0.000000 -0.002014
    7 16.589727 0.000000 0.000000 0.009589 0.021554 0.118002
    8 3.488968 -0.004234 0.000004 -0.064236 -0.014760 -0.225486
    9 5.318531 -0.004538 0.000000 0.000000 0.000000 -0.003489
    10 5.701826 -0.005492 0.000000 0.000000 0.000000 0.061031
    11 6.895578 -0.001818 0.000000 0.000000 -0.026147 -0.118679
    12 0.050786 0.001927 2.008302 -0.594619 -1.361898 3.840994
    13 4.746895 0.000000 0.000000 -0.307633 0.796906 -1.185147
    14 10.950472 0.000000 0.000000 0.000000 0.000000 -2.275318
    15 10.950467 0.000000 0.000000 -1.574103 0.019392 0.236566
    16 -0.050780 0.001941 -2.008302 -0.551572 1.347265 2.716154
    17 4.746896 0.000000 -0.000003 -0.488790 -0.993346 -0.985546
    18 10.950466 0.000000 0.000000 0.000000 0.000000 -1.762286
    19 10.950471 0.000000 0.000000 1.367412 -0.356458 0.117941
    20 2.428221 0.000000 0.000000 0.077512 0.011069 0.363041
    21 1.681022 0.975106 0.213387 0.000000 0.000001 -1.745239
  time 16
    0 -0.001589 -0.337348 36.821262 0.000000 -0.026148 -1.570839
    1 1.543016 -0.101566 0.000000 -1.570795 -1.570796 0.000000
    2 -0.000004 0.000006 3.319508 0.003007 -3.098027 0.139807
    3 16.897085 0.000000 0.000000 0.000000 0.000000 -0.002039
    4 16.589727 0.000000 0.000000 -0.008006 -0.042964 0.115952
    5 0.000005 -0.000003 -3.319508 -0.007034 3.118797 0.139664
    6 16.897085 0.000000 0.000000 0.000000 0.000000 -0.002014
    7 16.589727 0.000000 0.000000 0.009622 0.021854 0.115711
    8 3.488968 -0.004234 0.000004 -0.059508 -0.013667 -0.225559
    9 5.318531 -0.004538 0.000000 0.000000 0.000000 -0.000023
    10 5.701826 -0.005492 0.000000 0.000000 0.000000 0.061031
    11 6.895578 -0.001818 0.000000 0.000000 -0.026147 -0.118679
    12 0.050786 0.001927 2.008302 -0.594619 -1.361898 3.840994
    13 4.746895 0.000000 0.000000 -0.310493 0.795181 -1.192487
    14 10.950472 0.000000 0.000000 0.000000 0.000000 -2.275318
    15 10.950467 0.000000 0.000000 -1.574103 0.019392 0.236566
    16 -0.050780 0.001941 -2.008302 -0.551572 1.347265 2.716154
    17 4.746896 0.000000 -0.000003 -0.486402 -0.989264 -0.983348
    18 10.950466 0.000000 0.000000 0.000000 0.000000 -1.762286
    19 10.950471 0.000000 0.000000 1.367412 -0.356458 0.117941
    20 2.428221 0.000000 0.000000 0.072604 0.011468 0.359656
    21 1.681022 0.975106 0.213387 0.000000 0.000001 -1.745239
  time 17
    0 -0.001589 -0.268506 36.821262 0.000000 -0.026148 -1.570839
    1 1.519578 -0.085940 0.000000 -1.570795 -1.570796 0.000000
    2 -0.000004 0.000006 3.319508 0.003199 -3.098410 0.136647
    3 16.897085 0.000000 0.000000 0.000000 0.000000 -0.002039
    4 16.589727 0.000000 0.000000 -0.007947 -0.042557 0.112764
    5 0.000005 -0.000003 -3.319508 -0.007129 3.118318 0.136504
    6 16.897085 0.000000 0.000000 0.000000 0.000000 -0.002014
    7 16.589727 0.000000 0.000000 0.009655 0.022290 0.112597
    8 3.488968 -0.004234 0.000004 -0.052073 -0.011970 -0.225669
    9 5.318531 -0.004538 0.000000 0.000000 0.000000 0.005427
    10 5.701826 -0.005492 0.000000 0.000000 0.000000 0.061031
    11 6.895578 -0.001818 0.000000 0.000000 -0.026147 -0.118679
    12 0.050786 0.001927 2.008302 -0.594619 -1.361898 3.840994
    13 4.746895 0.000000 0.000000 -0.314783 0.792366 -1.204007
    14 10.950472 0.000000 0.000000 0.000000 0.000000 -2.275318
    15 10.950467 0.000000 0.000000 -1.574103 0.019392 0.236566
    16 -0.050780 0.001941 -2.008302 -0.551572 1.347265 2.716154
    17 4.746896 0.000000 -0.000003 -0.482771 -0.982905 -0.979812
    18 10.950466 0.000000 0.000000 0.000000 0.000000 -1.762286
    19 10.950471 0.000000 0.000000 1.367412 -0.356458 0.117941
    20 2.428221 0.000000 0.000000 0.064917 0.012066 0.354355
    21 1.681022 0.975106 0.213387 0.000000 0.000001 -1.745239
  time 18
    0 -0.001589 -0.165243 36.821262 0.000000 -0.026148 -1.570839
    1 1.496139 -0.074221 0.000000 -1.570795 -1.570796 0.000000
    2 -0.000004 0.000006 3.319508 0.003295 -3.098794 0.132961
    3 16.897085 0.000000 0.000000 0.000000 0.000000 -0.002039
    4 16.589727 0.000000 0.000000 -0.007917 -0.042188 0.109161
    5 0.000005 -0.000003 -3.319508 -0.007416 3.118031 0.121873
    6 16.897085 0.000000 0.000000 0.000000 0.000000 -0.024263
    7 16.589727 0.000000 0.000000 0.009687 0.022753 0.120177
    8 3.488968 -0.004234 0.000004 -0.044639 -0.010243 -0.225743
    9 5.318531 -0.004538 0.000000 0.000000 0.000000 0.010876
    10 5.701826 -0.005492 0.000000 0.000000 0.000000 0.061031
    11 6.895578 -0.001818 0.000000 0.000000 -0.026147 -0.118679
    12 0.050786 0.001927 2.008302 -0.594619 -1.361898 3.840994
    13 4.746895 0.000000 0.000000 -0.319073 0.789642 -1.215435
    14 10.950472 0.000000 0.000000 0.000000 0.000000 -2.275318
    15 10.950467 0.000000 0.000000 -1.574103 0.019392 0.236566
    16 -0.050780 0.001941 -2.008302 -0.551572 1.347265 2.716154
    17 4.746896 0.000000 -0.000003 -0.478949 -0.976545 -0.976371
    18 10.950466 0.000000 0.000000 0.000000 0.000000 -1.762286
    19 10.950471 0.000000 0.000000 1.367412 -0.356458 0.117941
    20 2.428221 0.000000 0.000000 0.057138 0.012714 0.348991
    21 1.681022 0.975106 0.213387 0.000000 0.000001 -1.745239
  time 19
    0 -0.001589 -0.061981 36.821262 0.000000 -0.026148 -1.570839
    1 1.476608 -0.062502 0.000000 -1.570795 -1.570796 0.000000
    2 -0.000004 0.000006 3.319508 0.004157 -3.099273 0.113563
    3 16.897085 0.000000 0.000000 0.000000 0.000000 -0.033421
    4 16.589727 0.000000 0.000000 -0.007888 -0.041856 0.121149
    5 0.000005 -0.000003 -3.319508 -0.007991 3.117743 0.097227
    6 16.897085 0.000000 0.000000 0.000000 0.000000 -0.066196
    7 16.589727 0.000000 0.000000 0.009720 0.023189 0.137511
    8 3.488968 -0.004234 0.000004 -0.037404 -0.008575 -0.225816
    9 5.318531 -0.004538 0.000000 0.000000 0.000000 0.016175
    10 5.701826 -0.005492 0.000000 0.000000 0.000000 0.061031
    11 6.895578 -0.001818 0.000000 0.000000 -0.026147 -0.118679
    12 0.050786 0.001927 2.008302 -0.594619 -1.361898 3.840994
    13 4.746895 0.000000 0.000000 -0.323076 0.786827 -1.226490
    14 10.950472 0.000000 0.000000 0.000000 0.000000 -2.275318
    15 10.950467 0.000000 0.000000 -1.574103 0.019392 0.236566
    16 -0.050780 0.001941 -2.008302 -0.551572 1.347265 2.716154
    17 4.746896 0.000000 -0.000003 -0.475223 -0.970375 -0.973122
    18 10.950466 0.000000 0.000000 0.000000 0.000000 -1.762286
    19 10.950471 0.000000 0.000000 1.367412 -0.356458 0.117941
    20 2.428221 0.000000 0.000000 0.049637 0.013313 0.343754
    21 1.681022 0.975106 0.213387 0.000000 0.000001 -1.745239
  time 20
    0 -0.001589 0.041282 36.821262 0.000000 -0.026148 -1.570839
    1 1.453169 -0.046876 0.000000 -1.570795 -1.570796 0.000000
    2 -0.000004 0.000006 3.319508 0.005116 -3.099657 0.091093
    3 16.897085 0.000000 0.000000 0.000000 0.000000 -0.070930
    4 16.589727 0.000000 0.000000 -0.007858 -0.041523 0.136185
    5 0.000005 -0.000003 -3.319508 -0.008373 3.117456 0.081575
    6 16.897085 0.000000 0.000000 0.000000 0.000000 -0.090015
    7 16.589727 0.000000 0.000000 0.009753 0.023598 0.145561
    8 3.488968 -0.004234 0.000004 -0.030425 -0.006992 -0.225853
    9 5.318531 -0.004538 0.000000 0.000000 0.000000 0.021299
    10 5.701826 -0.005492 0.000000 0.000000 0.000000 0.061031
    11 6.895578 -0.001818 0.000000 0.000000 -0.026147 -0.118679
    12 0.050786 0.001927 2.008302 -0.594619 -1.361898 3.840994
    13 4.746895 0.000000 0.000000 -0.326889 0.784103 -1.237082
    14 10.950472 0.000000 0.000000 0.000000 0.000000 -2.275318
    15 10.950467 0.000000 0.000000 -1.574103 0.019392 0.236566
    16 -0.050780 0.001941 -2.008302 -0.551572 1.347265 2.716154
    17 4.746896 0.000000 -0.000003 -0.471592 -0.964490 -0.969968
    18 10.950466 0.000000 0.000000 0.000000 0.000000 -1.762286
    19 10.950471 0.000000 0.000000 1.367412 -0.356458 0.117941
    20 2.428221 0.000000 0.000000 0.042414 0.013911 0.338708
    21 1.681022 0.975106 0.213387 0.000000 0.000001 -1.745239
  time 21
    0 -0.001589 0.127334 36.821262 0.000000 -0.026148 -1.570839
    1 1.449263 -0.042970 0.000000 -1.570795 -1.570796 0.000000
    2 -0.000004 0.000006 3.319508 0.005691 -3.099848 0.077927
    3 16.897085 0.000000 0.000000 0.000000 0.000000 -0.090880
    4 16.589727 0.000000 0.000000 -0.007858 -0.041412 0.142837
    5 0.000005 -0.000003 -3.319508 -0.008661 3.117456 0.070248
    6 16.897085 0.000000 0.000000 0.000000 0.000000 -0.106132
    7 16.589727 0.000000 0.000000 0.009753 0.023734 0.150438
    8 3.488968 -0.004234 0.000004 -0.028346 -0.006503 -0.225853
    9 5.318531 -0.004538 0.000000 0.000000 0.000000 0.022806
    10 5.701826 -0.005492 0.000000 0.000000 0.000000 0.061031
    11 6.895578 -0.001818 0.000000 0.000000 -0.026147 -0.118679
    12 0.050786 0.001927 2.008302 -0.594619 -1.361898 3.840994
    13 4.746895 0.000000 0.000000 -0.327938 0.783285 -1.240240
    14 10.950472 0.000000 0.000000 0.000000 0.000000 -2.275318
    15 10.950467 0.000000 0.000000 -1.574103 0.019392 0.236566
    16 -0.050780 0.001941 -2.008302 -0.551572 1.347265 2.716154
    17 4.746896 0.000000 -0.000003 -0.470446 -0.962687 -0.969012
    18 10.950466 0.000000 0.000000 0.000000 0.000000 -1.762286
    19 10.950471 0.000000 0.000000 1.367412 -0.356458 0.117941
    20 2.428221 0.000000 0.000000 0.040191 0.014110 0.337239
    21 1.681022 0.975106 0.213387 0.000000 0.000001 -1.745239
  time 22
    0 -0.001589 0.213386 36.821262 0.000000 -0.026148 -1.570839
    1 1.445357 -0.042970 0.000000 -1.570795 -1.570796 0.000000
    2 -0.000004 0.000006 3.319508 0.006075 -3.099944 0.068009
    3 16.897085 0.000000 0.000000 0.000000 0.000000 -0.105076
    4 16.589727 0.000000 0.000000 -0.007858 -0.041375 0.147133
    5 0.000005 -0.000003 -3.319508 -0.008852 3.117360 0.061304
    6 16.897085 0.000000 0.000000 0.000000 0.000000 -0.118398
    7 16.589727 0.000000 0.000000 0.009753 0.023816 0.153670
    8 3.488968 -0.004234 0.000004 -0.027064 -0.006215 -0.225890
    9 5.318531 -0.004538 0.000000 0.000000 0.000000 0.023760
    10 5.701826 -0.005492 0.000000 0.000000 0.000000 0.061031
    11 6.895578 -0.001818 0.000000 0.000000 -0.026147 -0.118679
    12 0.050786 0.001927 2.008302 -0.594619 -1.361898 3.840994
    13 4.746895 0.000000 0.000000 -0.328701 0.782741 -1.242191
    14 10.950472 0.000000 0.000000 0.000000 0.000000 -2.275318
    15 10.950467 0.000000 0.000000 -1.574103 0.019392 0.236566
    16 -0.050780 0.001941 -2.008302 -0.551572 1.347265 2.716154
    17 4.746896 0.000000 -0.000003 -0.469777 -0.961643 -0.968439
    18 10.950466 0.000000 0.000000 0.000000 0.000000 -1.762286
    19 10.950471 0.000000 0.000000 1.367412 -0.356458 0.117941
    20 2.428221 0.000000 0.000000 0.038895 0.014210 0.336281
    21 1.681022 0.975106 0.213387 0.000000 0.000001 -1.745239
  time 23
    0 -0.001589 0.265018 36.821262 0.000000 -0.026148 -1.570839
    1 1.441450 -0.039064 0.000000 -1.570795 -1.570796 0.000000
    2 -0.000004 0.000006 3.319508 0.006362 -3.100040 0.060548
    3 16.897085 0.000000 0.000000 0.000000 0.000000 -0.115313
    4 16.589727 0.000000 0.000000 -0.007828 -0.041338 0.149974
    5 0.000005 -0.000003 -3.319508 -0.009043 3.117360 0.054498
    6 16.897085 0.000000 0.000000 0.000000 0.000000 -0.127383
    7 16.589727 0.000000 0.000000 0.009753 0.023925 0.155902
    8 3.488968 -0.004234 0.000004 -0.025782 -0.005928 -0.225890
    9 5.318531 -0.004538 0.000000 0.000000 0.000000 0.024714
    10 5.701826 -0.005492 0.000000 0.000000 0.000000 0.061031
    11 6.895578 -0.001818 0.000000 0.000000 -0.026147 -0.118679
    12 0.050786 0.001927 2.008302 -0.594619 -1.361898 3.840994
    13 4.746895 0.000000 0.000000 -0.329368 0.782287 -1.244142
    14 10.950472 0.000000 0.000000 0.000000 0.000000 -2.275318
    15 10.950467 0.000000 0.000000 -1.574103 0.019392 0.236566
    16 -0.050780 0.001941 -2.008302 -0.551572 1.347265 2.716154
    17 4.746896 0.000000 -0.000003 -0.469108 -0.960504 -0.967866
    18 10.950466 0.000000 0.000000 0.000000 0.000000 -1.762286
    19 10.950471 0.000000 0.000000 1.367412 -0.356458 0.117941
    20 2.428221 0.000000 0.000000 0.037506 0.014310 0.335387
    21 1.681022 0.975106 0.213387 0.000000 0.000001 -1.745239
  time 24
    0 -0.001589 0.316649 36.821262 0.000000 -0.026148 -1.570839
    1 1.433637 -0.035157 0.000000 -1.570795 -1.570796 0.000000
    2 -0.000004 0.000006 3.319508 0.006554 -3.100136 0.055457
    3 16.897085 0.000000 0.000000 0.000000 0.000000 -0.122187
    4 16.589727 0.000000 0.000000 -0.007828 -0.041264 0.151775
    5 0.000005 -0.000003 -3.319508 -0.009139 3.117264 0.049832
    6 16.897085 0.000000 0.000000 0.000000 0.000000 -0.133516
    7 16.589727 0.000000 0.000000 0.009786 0.024034 0.157313
    8 3.488968 -0.004234 0.000004 -0.023788 -0.005467 -0.225890
    9 5.318531 -0.004538 0.000000 0.000000 0.000000 0.026171
    10 5.701826 -0.005492 0.000000 0.000000 0.000000 0.061031
    11 6.895578 -0.001818 0.000000 0.000000 -0.026147 -0.118679
    12 0.050786 0.001927 2.008302 -0.594619 -1.361898 3.840994
    13 4.746895 0.000000 0.000000 -0.330416 0.781469 -1.247208
    14 10.950472 0.000000 0.000000 0.000000 0.000000 -2.275318
    15 10.950467 0.000000 0.000000 -1.574103 0.019392 0.236566
    16 -0.050780 0.001941 -2.008302 -0.551572 1.347265 2.716154
    17 4.746896 0.000000 -0.000003 -0.468057 -0.958890 -0.967006
    18 10.950466 0.000000 0.000000 0.000000 0.000000 -1.762286
    19 10.950471 0.000000 0.000000 1.367412 -0.356458 0.117941
    20 2.428221 0.000000 0.000000 0.035468 0.014459 0.333918
    21 1.681022 0.975106 0.213387 0.000000 0.000001 -1.745239
  time 25
    0 -0.001589 0.333859 36.821262 0.000000 -0.026148 -1.570839
    1 1.414106 -0.027345 0.000000 -1.570795 -1.570796 0.000000
    2 -0.000004 0.000006 3.319508 0.006746 -3.100519 0.052034
    3 16.897085 0.000000 0.000000 0.000000 0.000000 -0.127043
    4 16.589727 0.000000 0.000000 -0.007798 -0.040969 0.153092
    5 0.000005 -0.000003 -3.319508 -0.009235 3.116977 0.046818
    6 16.897085 0.000000 0.000000 0.000000 0.000000 -0.137296
    7 16.589727 0.000000 0.000000 0.009786 0.024361 0.158135
    8 3.488968 -0.004234 0.000004 -0.017550 -0.004029 -0.225927
    9 5.318531 -0.004538 0.000000 0.000000 0.000000 0.030742
    10 5.701826 -0.005492 0.000000 0.000000 0.000000 0.061031
    11 6.895578 -0.001818 0.000000 0.000000 -0.026147 -0.118679
    12 0.050786 0.001927 2.008302 -0.594619 -1.361898 3.840994
    13 4.746895 0.000000 0.000000 -0.333562 0.778927 -1.256499
    14 10.950472 0.000000 0.000000 0.000000 0.000000 -2.275318
    15 10.950467 0.000000 0.000000 -1.574103 0.019392 0.236566
    16 -0.050780 0.001941 -2.008302 -0.551572 1.347265 2.716154
    17 4.746896 0.000000 -0.000003 -0.464618 -0.953574 -0.964234
    18 10.950466 0.000000 0.000000 0.000000 0.000000 -1.762286
    19 10.950471 0.000000 0.000000 1.367412 -0.356458 0.117941
    20 2.428221 0.000000 0.000000 0.028986 0.015008 0.329448
    21 1.681022 0.975106 0.213387 0.000000 0.000001 -1.745239
  time 26
    0 -0.001589 0.333859 36.821262 0.000000 -0.026148 -1.570839
    1 1.398480 -0.015625 0.000000 -1.570795 -1.570796 0.000000
    2 -0.000004 0.000006 3.319508 0.006746 -3.100711 0.050630
    3 16.897085 0.000000 0.000000 0.000000 0.000000 -0.128837
    4 16.589727 0.000000 0.000000 -0.007769 -0.040710 0.153508
    5 0.000005 -0.000003 -3.319508 -0.009235 3.116689 0.045749
    6 16.897085 0.000000 0.000000 0.000000 0.000000 -0.138437
    7 16.589727 0.000000 0.000000 0.009786 0.024661 0.158194
    8 3.488968 -0.004234 0.000004 -0.011853 -0.002705 -0.225963
    9 5.318531 -0.004538 0.000000 0.000000 0.000000 0.034886
    10 5.701826 -0.005492 0.000000 0.000000 0.000000 0.061031
    11 6.895578 -0.001818 0.000000 0.000000 -0.026147 -0.118679
    12 0.050786 0.001927 2.008302 -0.594619 -1.361898 3.840994
    13 4.746895 0.000000 0.000000 -0.336517 0.776657 -1.265046
    14 10.950472 0.000000 0.000000 0.000000 0.000000 -2.275318
    15 10.950467 0.000000 0.000000 -1.574103 0.019392 0.236566
    16 -0.050780 0.001941 -2.008302 -0.551572 1.347265 2.716154
    17 4.746896 0.000000 -0.000003 -0.461560 -0.948828 -0.961749
    18 10.950466 0.000000 0.000000 0.000000 0.000000 -1.762286
    19 10.950471 0.000000 0.000000 1.367412 -0.356458 0.117941
    20 2.428221 0.000000 0.000000 0.023059 0.015506 0.325360
    21 1.681022 0.975106 0.213387 0.000000 0.000001 -1.745239
  time 27
    0 -0.001589 0.333859 36.821262 0.000000 -0.026148 -1.570839
    1 1.382855 -0.007813 0.000000 -1.570795 -1.570796 0.000000
    2 -0.000004 0.000006 3.319508 0.006746 -3.100903 0.049401
    3 16.897085 0.000000 0.000000 0.000000 0.000000 -0.130331
    4 16.589727 0.000000 0.000000 -0.007739 -0.040489 0.153854
    5 0.000005 -0.000003 -3.319508 -0.009330 3.116498 0.044825
    6 16.897085 0.000000 0.000000 0.000000 0.000000 -0.139364
    7 16.589727 0.000000 0.000000 0.009818 0.024906 0.158253
    8 3.488968 -0.004234 0.000004 -0.006897 -0.001583 -0.225963
    9 5.318531 -0.004538 0.000000 0.000000 0.000000 0.038552
    10 5.701826 -0.005492 0.000000 0.000000 0.000000 0.061031
    11 6.895578 -0.001818 0.000000 0.000000 -0.026147 -0.118679
    12 0.050786 0.001927 2.008302 -0.594619 -1.361898 3.840994
    13 4.746895 0.000000 0.000000 -0.338901 0.774568 -1.272386
    14 10.950472 0.000000 0.000000 0.000000 0.000000 -2.275318
    15 10.950467 0.000000 0.000000 -1.574103 0.019392 0.236566
    16 -0.050780 0.001941 -2.008302 -0.551572 1.347265 2.716154
    17 4.746896 0.000000 -0.000003 -0.458790 -0.944652 -0.959551
    18 10.950466 0.000000 0.000000 0.000000 0.000000 -1.762286
    19 10.950471 0.000000 0.000000 1.367412 -0.356458 0.117941
    20 2.428221 0.000000 0.000000 0.017873 0.015905 0.321720
    21 1.681022 0.975106 0.213387 0.000000 0.000001 -1.745239
  time 28
    0 -0.001589 0.333859 36.821262 0.000000 -0.026148 -1.570839
    1 1.371136 -0.003906 0.000000 -1.570795 -1.570796 0.000000
    2 -0.000004 0.000006 3.319508 0.006842 -3.101095 0.048348
    3 16.897085 0.000000 0.000000 0.000000 0.000000 -0.131601
    4 16.589727 0.000000 0.000000 -0.007739 -0.040304 0.154062
    5 0.000005 -0.000003 -3.319508 -0.009330 3.116306 0.044047
    6 16.897085 0.000000 0.000000 0.000000 0.000000 -0.140148
    7 16.589727 0.000000 0.000000 0.009818 0.025097 0.158253
    8 3.488968 -0.004234 0.000004 -0.002795 -0.000634 -0.225963
    9 5.318531 -0.004538 0.000000 0.000000 0.000000 0.041541
    10 5.701826 -0.005492 0.000000 0.000000 0.000000 0.061031
    11 6.895578 -0.001818 0.000000 0.000000 -0.026147 -0.118679
    12 0.050786 0.001927 2.008302 -0.594619 -1.361898 3.840994
    13 4.746895 0.000000 0.000000 -0.340902 0.772934 -1.278425
    14 10.950472 0.000000 0.000000 0.000000 0.000000 -2.275318
    15 10.950467 0.000000 0.000000 -1.574103 0.019392 0.236566
    16 -0.050780 0.001941 -2.008302 -0.551572 1.347265 2.716154
    17 4.746896 0.000000 -0.000003 -0.456496 -0.941235 -0.957736
    18 10.950466 0.000000 0.000000 0.000000 0.000000 -1.762286
    19 10.950471 0.000000 0.000000 1.367412 -0.356458 0.117941
    20 2.428221 0.000000 0.000000 0.013613 0.016254 0.318782
    21 1.681022 0.975106 0.213387 0.000000 0.000001 -1.745239
  time 29
    0 -0.001589 0.333859 36.821262 0.000000 -0.026148 -1.570839
    1 1.363323 0.000000 0.000000 -1.570795 -1.570796 0.000000
    2 -0.000004 0.000006 3.319508 0.006842 -3.101286 0.047733
    3 16.897085 0.000000 0.000000 0.000000 0.000000 -0.132423
    4 16.589727 0.000000 0.000000 -0.007709 -0.040156 0.154270
    5 0.000005 -0.000003 -3.319508 -0.009330 3.116210 0.043513
    6 16.897085 0.000000 0.000000 0.000000 0.000000 -0.140719
    7 16.589727 0.000000 0.000000 0.009818 0.025233 0.158312
    8 3.488968 -0.004234 0.000004 -0.000004 -0.000001 -0.225963
    9 5.318531 -0.004538 0.000000 0.000000 0.000000 0.043600
    10 5.701826 -0.005492 0.000000 0.000000 0.000000 0.061031
    11 6.895578 -0.001818 0.000000 0.000000 -0.026147 -0.118679
    12 0.050786 0.001927 2.008302 -0.594619 -1.361898 3.840994
    13 4.746895 0.000000 0.000000 -0.342237 0.771753 -1.282605
    14 10.950472 0.000000 0.000000 0.000000 0.000000 -2.275318
    15 10.950467 0.000000 0.000000 -1.574103 0.019392 0.236566
    16 -0.050780 0.001941 -2.008302 -0.551572 1.347265 2.716154
    17 4.746896 0.000000 -0.000003 -0.454968 -0.938957 -0.956589
    18 10.950466 0.000000 0.000000 0.000000 0.000000 -1.762286
    19 10.950471 0.000000 0.000000 1.367412 -0.356458 0.117941
    20 2.428221 0.000000 0.000000 0.010650 0.016504 0.316739
    21 1.681022 0.975106 0.213387 0.000000 0.000001 -1.745239
  time 30
    0 -0.001589 0.333859 36.821262 0.000000 -0.020785 -1.570839
    1 1.085971 0.000000 0.000000 -1.570795 -1.570796 0.000000
    2 -0.000004 0.000006 3.319508 0.007129 -3.101286 0.024737
    3 16.897085 0.000000 0.000000 0.000000 0.000000 -0.151551
    4 16.589727 0.000000 0.000000 -0.007352 -0.040267 0.155725
    5 0.000005 -0.000003 -3.319508 -0.009426 3.116210 0.021103
    6 16.897085 0.000000 0.000000 0.000000 0.000000 -0.158833
    7 16.589727 0.000000 0.000000 0.009426 0.025342 0.159252
    8 3.488968 -0.004234 0.000004 -0.000004 -0.000001 -0.180075
    9 5.318531 -0.004538 0.000000 0.000000 0.000000 0.029612
    10 5.701826 -0.005492 0.000000 0.000000 0.000000 0.043375
    11 6.895578 -0.001818 0.000000 0.000000 -0.020855 -0.024007
    12 0.039067 0.001927 2.008302 -0.439880 -1.355949 3.593922
    13 4.746895 0.000000 0.000000 -0.314306 0.864464 -1.058610
    14 10.950472 0.000000 0.000000 0.000000 0.000000 -1.835800
    15 10.950467 0.000000 0.000000 -1.573439 0.015341 0.188735
    16 -0.039060 0.001941 -2.008302 -0.423389 1.347994 2.748943
    17 4.746896 0.000000 -0.000003 -0.423343 -0.975691 -0.693780
    18 10.950466 0.000000 0.000000 0.000000 0.000000 -1.479153
    19 10.950471 0.000000 0.000000 1.413202 -0.286387 0.087170
    20 2.428221 0.000000 0.000000 0.006668 0.013612 0.227583
    21 1.681022 0.975106 0.213387 0.000000 0.000001 -1.745239
  time 31
    0 -0.001589 0.333859 36.821262 0.000000 -0.015038 -1.570839
    1 0.785180 0.000000 0.000000 -1.570795 -1.570796 0.000000
    2 -0.000004 0.000006 3.319508 0.007513 -3.101286 0.001653
    3 16.897085 0.000000 0.000000 0.000000 0.000000 -0.168288
    4 16.589727 0.000000 0.000000 -0.006966 -0.040341 0.155171
    5 0.000005 -0.000003 -3.319508 -0.009330 3.116210 -0.001695
    6 16.897085 0.000000 0.000000 0.000000 0.000000 -0.174807
    7 16.589727 0.000000 0.000000 0.008968 0.025451 0.158312
    8 3.488968 -0.004234 0.000004 -0.000004 -0.000001 -0.129778
    9 5.318531 -0.004538 0.000000 0.000000 0.000000 0.014141
    10 5.701826 -0.005492 0.000000 0.000000 0.000000 0.024050
    11 6.899484 -0.001818 0.000000 0.000000 -0.015062 0.079634
    12 0.027348 0.001927 2.008302 -0.288112 -1.343508 3.341289
    13 4.746895 0.000000 0.000000 -0.252249 0.958174 -0.785839
    14 10.950472 0.000000 0.000000 0.000000 0.000000 -1.354328
    15 10.950467 0.000000 0.000000 -1.572397 0.011032 0.136208
    16 -0.027341 0.001941 -2.008302 -0.289454 1.344540 2.777705
    17 4.746896 0.000000 -0.000003 -0.398310 -1.020208 -0.399052
    18 10.950466 0.000000 0.000000 0.000000 0.000000 -1.168934
    19 10.950471 0.000000 0.000000 1.459907 -0.208152 0.057933
    20 2.428221 0.000000 0.000000 0.003334 0.010072 0.130061
    21 1.681022 0.975106 0.213387 0.000000 0.000001 -1.745239
  time 32
    0 -0.001589 0.333859 36.821262 0.000000 -0.010153 -1.570839
    1 0.531266 0.000000 0.000000 -1.570795 -1.570796 0.000000
    2 -0.000004 0.000006 3.319508 0.007705 -3.101286 -0.016604
    3 16.897085 0.000000 0.000000 0.000000 0.000000 -0.179869
    4 16.589727 0.000000 0.000000 -0.006638 -0.040415 0.153369
    5 0.000005 -0.000003 -3.319508 -0.009330 3.116306 -0.019730
    6 16.897085 0.000000 0.000000 0.000000 0.000000 -0.186003
    7 16.589727 0.000000 0.000000 0.008576 0.025560 0.156314
    8 3.488968 -0.004234 0.000004 -0.000004 -0.000001 -0.087417
    9 5.318531 -0.004538 0.000000 0.000000 0.000000 0.001082
    10 5.701826 -0.005492 0.000000 0.000000 0.000000 0.007769
    11 6.899484 -0.001818 0.000000 0.000000 -0.010165 0.166957
    12 0.019535 0.001927 2.008302 -0.178146 -1.329251 3.146565
    13 4.746895 0.000000 0.000000 -0.168361 1.027548 -0.526632
    14 10.950472 0.000000 0.000000 0.000000 0.000000 -0.948906
    15 10.950467 0.000000 0.000000 -1.571354 0.007412 0.092019
    16 -0.019529 0.001941 -2.008302 -0.185240 1.338513 2.792949
    17 4.746896 0.000000 -0.000003 -0.388661 -1.061023 -0.141786
    18 10.950466 0.000000 0.000000 0.000000 0.000000 -0.907717
    19 10.950471 0.000000 0.000000 1.496814 -0.141331 0.036456
    20 2.428221 0.000000 0.000000 0.001389 0.006881 0.048058
    21 1.681022 0.975106 0.213387 0.000000 0.000001 -1.745239
  time 33
    0 -0.001589 0.333859 36.821262 0.000000 -0.006130 -1.570839
    1 0.320322 0.000000 0.000000 -1.570795 -1.570796 0.000000
    2 -0.000004 0.000006 3.319508 0.007800 -3.101382 -0.030823
    3 16.897085 0.000000 0.000000 0.000000 0.000000 -0.187864
    4 16.589727 0.000000 0.000000 -0.006341 -0.040489 0.151152
    5 0.000005 -0.000003 -3.319508 -0.009235 3.116306 -0.033827
    6 16.897085 0.000000 0.000000 0.000000 0.000000 -0.193776
    7 16.589727 0.000000 0.000000 0.008281 0.025615 0.153963
    8 3.488968 -0.004234 0.000004 -0.000004 -0.000001 -0.052734
    9 5.318531 -0.004538 0.000000 0.000000 0.000000 -0.009642
    10 5.701826 -0.005492 0.000000 0.000000 0.000000 -0.005583
    11 6.899484 -0.001818 0.000000 0.000000 -0.006162 0.238521
    12 0.011722 0.001927 2.008302 -0.100392 -1.315629 2.999299
    13 4.746895 0.000000 0.000000 -0.074274 1.075492 -0.290002
    14 10.950472 0.000000 0.000000 0.000000 0.000000 -0.616711
    15 10.950467 0.000000 0.000000 -1.570406 0.004395 0.055883
    16 -0.011716 0.001941 -2.008302 -0.107103 1.331757 2.798030
    17 4.746896 0.000000 -0.000003 -0.392100 -1.096049 0.078592
    18 10.950466 0.000000 0.000000 0.000000 0.000000 -0.693727
    19 10.950471 0.000000 0.000000 1.525844 -0.086083 0.020845
    20 2.428221 0.000000 0.000000 0.000370 0.004138 -0.019192
    21 1.681022 0.975106 0.213387 0.000000 0.000001 -1.745239
  time 34
    0 -0.001589 0.333859 36.821262 0.000000 -0.002682 -1.570839
    1 0.144536 0.000000 0.000000 -1.570795 -1.570796 0.000000
    2 -0.000004 0.000006 3.319508 0.007896 -3.101382 -0.042585
    3 16.897085 0.000000 0.000000 0.000000 0.000000 -0.193916
    4 16.589727 0.000000 0.000000 -0.006103 -0.040525 0.148796
    5 0.000005 -0.000003 -3.319508 -0.009235 3.116306 -0.045493
    6 16.897085 0.000000 0.000000 0.000000 0.000000 -0.199553
    7 16.589727 0.000000 0.000000 0.007987 0.025669 0.151554
    8 3.488968 -0.004234 0.000004 -0.000004 -0.000001 -0.023122
    9 5.318531 -0.004538 0.000000 0.000000 0.000000 -0.018809
    10 5.701826 -0.005492 0.000000 0.000000 0.000000 -0.016973
    11 6.899484 -0.001818 0.000000 0.000000 -0.002739 0.299622
    12 0.003910 0.001927 2.008302 -0.042101 -1.303006 2.881756
    13 4.746895 0.000000 0.000000 0.025343 1.108272 -0.069165
    14 10.950472 0.000000 0.000000 0.000000 0.000000 -0.333107
    15 10.950467 0.000000 0.000000 -1.569553 0.001982 0.024922
    16 -0.003903 0.001941 -2.008302 -0.045745 1.324810 2.796783
    17 4.746896 0.000000 -0.000003 -0.406145 -1.126518 0.276320
    18 10.950466 0.000000 0.000000 0.000000 0.000000 -0.510991
    19 10.950471 0.000000 0.000000 1.549930 -0.038523 0.008843
    20 2.428221 0.000000 0.000000 0.000000 0.001845 -0.076607
    21 1.681022 0.975106 0.213387 0.000000 0.000001 -1.745239
  time 35
    0 -0.001589 0.333859 36.821262 0.000000 0.000000 -1.570839
    1 0.000000 0.000000 0.000000 -1.570795 -1.570796 0.000000
    2 -0.000004 0.000006 3.319508 0.000514 -3.100711 -0.051801
    3 16.897085 0.000000 0.000000 0.000000 0.000000 -0.198175
    4 16.589727 0.000000 0.000000 0.001600 -0.040858 0.146301
    5 0.000005 -0.000003 -3.319508 0.001196 3.115348 -0.054632
    6 16.897085 0.000000 0.000000 0.000000 0.000000 -0.203760
    7 16.589727 0.000000 0.000000 -0.002609 0.026187 0.149028
    8 3.488968 -0.004234 0.000004 -0.000004 -0.000001 0.000796
    9 5.318531 -0.004538 0.000000 0.000000 0.000000 -0.026167
    10 5.701826 -0.005492 0.000000 0.000000 0.000000 -0.026167
    11 6.899484 -0.001818 0.000000 0.000000 -0.000001 0.348889
    12 0.000003 0.001927 2.008302 -0.000013 -1.292336 2.791920
    13 4.746895 0.000000 0.000000 0.117714 1.128249 0.120920
    14 10.950472 0.000000 0.000000 0.000000 0.000000 -0.104118
    15 10.950467 0.000000 0.000000 -1.568795 0.000000 0.000000
    16 0.000003 0.001941 -2.008302 -0.000013 1.318476 2.791894
    17 4.746896 0.000000 -0.000003 -0.427069 -1.150817 0.444804
    18 10.950466 0.000000 0.000000 0.000000 0.000000 -0.363444
    19 10.950471 0.000000 0.000000 1.568795 0.000000 0.000000
    20 2.428221 0.000000 0.000000 0.000000 0.000000 -0.122909
    21 1.681022 0.975106 0.213387 0.000000 0.000001 -1.745239
end
