version 1
nodes
  0 "Bip02" -1
  1 "Bip02 Pelvis" 0
  2 "Bip02 L Leg" 1
  3 "Bip02 L Leg1" 2
  4 "Bip02 L Foot" 3
  5 "Bip02 R Leg" 1
  6 "Bip02 R Leg1" 5
  7 "Bip02 R Foot" 6
  8 "Bip02 Spine" 1
  9 "Bip02 Spine1" 8
  10 "Bip02 Spine2" 9
  11 "Bip02 Neck" 10
  12 "Bip02 L Arm" 11
  13 "Bip02 L Arm1" 12
  14 "Bip02 L Arm2" 13
  15 "Bip02 L Hand" 14
  16 "Bip02 R Arm" 11
  17 "Bip02 R Arm1" 16
  18 "Bip02 R Arm2" 17
  19 "Bip02 R Hand" 18
  20 "Bip02 Head" 11
  21 "Bone01" 20
end
skeleton
  time 0
    0 -0.001589 17.045194 32.175135 0.000000 -0.017432 -1.570839
    1 0.000000 0.000000 0.000000 -0.000019 -1.413815 -1.570788
    2 -0.000004 0.000006 3.077313 -0.041573 -3.249871 -0.394465
    3 15.654860 0.000000 0.000000 0.000000 0.000000 -0.690421
    4 15.370940 0.000000 0.000000 -0.002742 -0.041006 0.289735
    5 0.000005 -0.000003 -3.077313 0.410022 2.720791 -0.345712
    6 15.654860 0.000000 0.000000 0.000000 0.000000 -0.899854
    7 15.370940 0.000000 0.000000 0.009916 0.061287 0.446351
    8 3.192084 -0.004234 0.503926 0.003072 -0.156945 -0.019778
    9 4.927894 -0.004538 0.000000 0.000000 0.000000 0.262746
    10 5.279938 -0.005492 0.000000 0.000000 0.000000 -0.325710
    11 6.387750 -0.001818 0.000000 0.000000 -0.026147 -0.273206
    12 0.046880 0.001927 1.859860 -1.190951 -1.110169 4.554214
    13 4.395322 0.000000 0.000000 0.742867 0.902965 -0.761405
    14 10.145760 0.000000 0.000000 0.000000 0.000000 -1.966847
    15 10.145755 0.000000 0.000000 -2.557247 0.351031 -0.201005
    16 -0.046873 0.001941 -1.859860 0.616356 0.806763 3.897887
    17 4.395323 0.000000 -0.000003 -0.956476 -0.006466 -0.165391
    18 10.145754 0.000000 0.000000 0.000000 0.000000 -0.122136
    19 10.145759 0.000000 0.000000 0.288790 -0.048114 0.003519
    20 2.248528 0.000000 0.000000 0.621483 0.166184 0.127826
    21 1.559925 0.904791 0.197762 0.000000 0.000001 -1.745239
end
