version 1
nodes
  0 "Bip02" -1
  1 "Bip02 Pelvis" 0
  2 "Bip02 L Leg" 1
  3 "Bip02 L Leg1" 2
  4 "Bip02 L Foot" 3
  5 "Bip02 R Leg" 1
  6 "Bip02 R Leg1" 5
  7 "Bip02 R Foot" 6
  8 "Bip02 Spine" 1
  9 "Bip02 Spine1" 8
  10 "Bip02 Spine2" 9
  11 "Bip02 Neck" 10
  12 "Bip02 L Arm" 11
  13 "Bip02 L Arm1" 12
  14 "Bip02 L Arm2" 13
  15 "Bip02 L Hand" 14
  16 "Bip02 R Arm" 11
  17 "Bip02 R Arm1" 16
  18 "Bip02 R Arm2" 17
  19 "Bip02 R Hand" 18
  20 "Bip02 Head" 11
  21 "Bone01" 20
end
skeleton
  time 0
    0 -0.202733 -0.578294 36.962054 0.000000 0.000000 -1.570839
    1 0.000000 0.000000 0.000000 -1.570795 -1.570796 0.000000
    2 -0.000004 0.000006 3.319508 -0.000732 -3.100711 -0.021168
    3 16.897085 0.000000 0.000000 0.000000 0.000000 -0.157678
    4 16.589727 0.000000 0.000000 0.001600 -0.040858 0.136462
    5 0.000005 -0.000003 -3.319508 0.001962 3.115348 -0.024688
    6 16.897085 0.000000 0.000000 0.000000 0.000000 -0.164609
    7 16.589727 0.000000 0.000000 -0.002609 0.026187 0.139861
    8 3.488968 -0.004234 0.000004 -0.000004 -0.000001 0.000796
    9 5.318531 -0.004538 0.000000 0.000000 0.000000 -0.026167
    10 5.701826 -0.005492 0.000000 0.000000 0.000000 -0.026167
    11 6.899484 -0.001818 0.000000 0.000000 -0.000001 0.348889
    12 0.000003 0.001927 2.008302 -0.000013 -1.370797 2.791920
    13 4.746895 0.000000 0.000000 0.124578 1.145502 0.123986
    14 10.950472 0.000000 0.000000 0.000000 0.000000 -0.200000
    15 10.950467 0.000000 0.000000 -1.568795 0.000000 0.000000
    16 0.000003 0.001941 -2.008302 -0.000013 1.370795 2.791894
    17 4.746896 0.000000 -0.000003 -0.124578 -1.145502 0.123986
    18 10.950466 0.000000 0.000000 0.000000 0.000000 -0.200000
    19 10.950471 0.000000 0.000000 1.568795 0.000000 0.000000
    20 2.428221 0.000000 0.000000 0.000000 0.000000 -0.122909
    21 1.681022 0.975106 0.213387 0.000000 0.000001 -1.745239
  time 1
    0 -0.202733 -0.578294 36.962054 0.000000 0.000000 -1.570839
    1 0.000000 0.000000 0.000000 -1.570795 -1.570796 0.000000
    2 -0.000004 0.000006 3.319508 -0.000732 -3.100711 -0.021168
    3 16.897085 0.000000 0.000000 0.000000 0.000000 -0.157678
    4 16.589727 0.000000 0.000000 0.001600 -0.040858 0.136462
    5 0.000005 -0.000003 -3.319508 0.001962 3.115348 -0.024688
    6 16.897085 0.000000 0.000000 0.000000 0.000000 -0.164609
    7 16.589727 0.000000 0.000000 -0.002609 0.026187 0.139861
    8 3.488968 -0.004234 0.000004 -0.000004 -0.000001 0.000796
    9 5.318531 -0.004538 0.000000 -0.007742 -0.000155 -0.020993
    10 5.701826 -0.005492 0.000000 -0.009472 -0.000128 -0.015831
    11 6.899484 -0.001818 0.000000 0.000000 -0.000001 0.348889
    12 0.000003 0.001927 2.008302 -0.000013 -1.370797 2.791920
    13 4.746895 0.000000 0.000000 0.194452 1.136331 0.199797
    14 10.950472 0.000000 0.000000 0.000000 0.000000 -0.334556
    15 10.950467 0.000000 0.000000 -1.568795 0.000000 0.000000
    16 0.000003 0.001941 -2.008302 -0.000013 1.370795 2.791894
    17 4.746896 0.000000 -0.000003 -0.130406 -1.145122 0.117679
    18 10.950466 0.000000 0.000000 0.000000 0.000000 -0.229324
    19 10.950471 0.000000 0.000000 1.568795 0.000000 0.000000
    20 2.428221 0.000000 0.000000 0.015928 -0.003590 -0.105282
    21 1.681022 0.975106 0.213387 0.000000 0.000001 -1.745239
  time 2
    0 -0.202733 -0.578294 36.962054 0.000000 0.000000 -1.570839
    1 0.000000 0.000000 0.000000 -1.570795 -1.570796 0.000000
    2 -0.000004 0.000006 3.319508 -0.000732 -3.100711 -0.021168
    3 16.897085 0.000000 0.000000 0.000000 0.000000 -0.157678
    4 16.589727 0.000000 0.000000 0.001600 -0.040858 0.136462
    5 0.000005 -0.000003 -3.319508 0.001962 3.115348 -0.024688
    6 16.897085 0.000000 0.000000 0.000000 0.000000 -0.164609
    7 16.589727 0.000000 0.000000 -0.002609 0.026187 0.139861
    8 3.488968 -0.004234 0.000004 -0.000004 -0.000001 0.000796
    9 5.318531 -0.004538 0.000000 -0.018518 -0.000221 -0.013836
    10 5.701826 -0.005492 0.000000 -0.022627 0.000000 -0.001483
    11 6.899484 -0.001818 0.000000 0.000000 -0.000001 0.348889
    12 0.000003 0.001927 2.008302 -0.000013 -1.370797 2.791920
    13 4.746895 0.000000 0.000000 0.301790 1.118261 0.317973
    14 10.950472 0.000000 0.000000 0.000000 0.000000 -0.531126
    15 10.950467 0.000000 0.000000 -1.568795 0.000000 0.000000
    16 0.000003 0.001941 -2.008302 -0.000013 1.370795 2.791894
    17 4.746896 0.000000 -0.000003 -0.138336 -1.144078 0.108695
    18 10.950466 0.000000 0.000000 0.000000 0.000000 -0.269915
    19 10.950471 0.000000 0.000000 1.568795 0.000000 0.000000
    20 2.428221 0.000000 0.000000 0.037691 -0.010171 -0.080950
    21 1.681022 0.975106 0.213387 0.000000 0.000001 -1.745239
  time 3
    0 -0.202733 -0.578294 36.962054 0.000000 0.000000 -1.570839
    1 0.000000 0.000000 0.000000 -1.570795 -1.570796 0.000000
    2 -0.000004 0.000006 3.319508 -0.000732 -3.100711 -0.021168
    3 16.897085 0.000000 0.000000 0.000000 0.000000 -0.157678
    4 16.589727 0.000000 0.000000 0.001600 -0.040858 0.136462
    5 0.000005 -0.000003 -3.319508 0.001962 3.115348 -0.024688
    6 16.897085 0.000000 0.000000 0.000000 0.000000 -0.164609
    7 16.589727 0.000000 0.000000 -0.002609 0.026187 0.139861
    8 3.488968 -0.004234 0.000004 -0.000004 -0.000001 0.000796
    9 5.318531 -0.004538 0.000000 -0.031612 -0.000133 -0.005096
    10 5.701826 -0.005492 0.000000 -0.038663 0.000639 0.015997
    11 6.899484 -0.001818 0.000000 0.000000 -0.000001 0.348889
    12 0.000003 0.001927 2.008302 -0.000013 -1.370797 2.791920
    13 4.746895 0.000000 0.000000 0.415706 1.093199 0.445347
    14 10.950472 0.000000 0.000000 0.000000 0.000000 -0.762709
    15 10.950467 0.000000 0.000000 -1.568795 0.000000 0.000000
    16 0.000003 0.001941 -2.008302 -0.000013 1.370795 2.791894
    17 4.746896 0.000000 -0.000003 -0.147795 -1.141895 0.097323
    18 10.950466 0.000000 0.000000 0.000000 0.000000 -0.319458
    19 10.950471 0.000000 0.000000 1.568795 0.000000 0.000000
    20 2.428221 0.000000 0.000000 0.063343 -0.020792 -0.051572
    21 1.681022 0.975106 0.213387 0.000000 0.000001 -1.745239
  time 4
    0 -0.202733 -0.578294 36.962054 0.000000 0.000000 -1.570839
    1 0.000000 0.000000 0.000000 -1.570795 -1.570796 0.000000
    2 -0.000004 0.000006 3.319508 -0.000732 -3.100711 -0.021168
    3 16.897085 0.000000 0.000000 0.000000 0.000000 -0.157678
    4 16.589727 0.000000 0.000000 0.001600 -0.040858 0.136462
    5 0.000005 -0.000003 -3.319508 0.001962 3.115348 -0.024688
    6 16.897085 0.000000 0.000000 0.000000 0.000000 -0.164609
    7 16.589727 0.000000 0.000000 -0.002609 0.026187 0.139861
    8 3.488968 -0.004234 0.000004 -0.000004 -0.000001 0.000796
    9 5.318531 -0.004538 0.000000 -0.046455 0.000243 0.004799
    10 5.701826 -0.005492 0.000000 -0.056776 0.002077 0.035733
    11 6.899484 -0.001818 0.000000 0.000000 -0.000001 0.348889
    12 0.000003 0.001927 2.008302 -0.000013 -1.370797 2.791920
    13 4.746895 0.000000 0.000000 0.514178 1.066503 0.557762
    14 10.950472 0.000000 0.000000 0.000000 0.000000 -1.004208
    15 10.950467 0.000000 0.000000 -1.568795 0.000000 0.000000
    16 0.000003 0.001941 -2.008302 -0.000013 1.370795 2.791894
    17 4.746896 0.000000 -0.000003 -0.157923 -1.138193 0.084230
    18 10.950466 0.000000 0.000000 0.000000 0.000000 -0.375559
    19 10.950471 0.000000 0.000000 1.568795 0.000000 0.000000
    20 2.428221 0.000000 0.000000 0.091217 -0.035999 -0.018745
    21 1.681022 0.975106 0.213387 0.000000 0.000001 -1.745239
  time 5
    0 -0.202733 -0.578294 36.962054 0.000000 0.000000 -1.570839
    1 0.000000 0.000000 0.000000 -1.570795 -1.570796 0.000000
    2 -0.000004 0.000006 3.319508 -0.000732 -3.100711 -0.021168
    3 16.897085 0.000000 0.000000 0.000000 0.000000 -0.157678
    4 16.589727 0.000000 0.000000 0.001600 -0.040858 0.136462
    5 0.000005 -0.000003 -3.319508 0.001962 3.115348 -0.024688
    6 16.897085 0.000000 0.000000 0.000000 0.000000 -0.164609
    7 16.589727 0.000000 0.000000 -0.002609 0.026187 0.139861
    8 3.488968 -0.004234 0.000004 -0.000004 -0.000001 0.000796
    9 5.318531 -0.004538 0.000000 -0.062439 0.000996 0.015422
    10 5.701826 -0.005492 0.000000 -0.076191 0.004410 0.056932
    11 6.899484 -0.001818 0.000000 0.000000 -0.000001 0.348889
    12 0.000003 0.001927 2.008302 -0.000013 -1.370797 2.791920
    13 4.746895 0.000000 0.000000 0.583100 1.046980 0.638405
    14 10.950472 0.000000 0.000000 0.000000 0.000000 -1.229841
    15 10.950467 0.000000 0.000000 -1.568795 0.000000 0.000000
    16 0.000003 0.001941 -2.008302 -0.000013 1.370795 2.791894
    17 4.746896 0.000000 -0.000003 -0.168146 -1.132973 0.069608
    18 10.950466 0.000000 0.000000 0.000000 0.000000 -0.435906
    19 10.950471 0.000000 0.000000 1.568795 0.000000 0.000000
    20 2.428221 0.000000 0.000000 0.119277 -0.056043 0.015870
    21 1.681022 0.975106 0.213387 0.000000 0.000001 -1.745239
  time 6
    0 -0.202733 -0.578294 36.962054 0.000000 0.000000 -1.570839
    1 0.000000 0.000000 0.000000 -1.570795 -1.570796 0.000000
    2 -0.000004 0.000006 3.319508 -0.000732 -3.100711 -0.021168
    3 16.897085 0.000000 0.000000 0.000000 0.000000 -0.157678
    4 16.589727 0.000000 0.000000 0.001600 -0.040858 0.136462
    5 0.000005 -0.000003 -3.319508 0.001962 3.115348 -0.024688
    6 16.897085 0.000000 0.000000 0.000000 0.000000 -0.164609
    7 16.589727 0.000000 0.000000 -0.002609 0.026187 0.139861
    8 3.488968 -0.004234 0.000004 -0.000004 -0.000001 0.000796
    9 5.318531 -0.004538 0.000000 -0.078923 0.002146 0.026372
    10 5.701826 -0.005492 0.000000 -0.096187 0.007686 0.078746
    11 6.899484 -0.001818 0.000000 0.000000 -0.000001 0.348889
    12 0.000003 0.001927 2.008302 -0.000013 -1.370797 2.791920
    13 4.746895 0.000000 0.000000 0.608266 1.045073 0.671107
    14 10.950472 0.000000 0.000000 0.000000 0.000000 -1.410088
    15 10.950467 0.000000 0.000000 -1.568795 0.000000 0.000000
    16 0.000003 0.001941 -2.008302 -0.000013 1.370795 2.791894
    17 4.746896 0.000000 -0.000003 -0.178178 -1.125949 0.054031
    18 10.950466 0.000000 0.000000 0.000000 0.000000 -0.498258
    19 10.950471 0.000000 0.000000 1.568795 0.000000 0.000000
    20 2.428221 0.000000 0.000000 0.146041 -0.080524 0.050804
    21 1.681022 0.975106 0.213387 0.000000 0.000001 -1.745239
  time 7
    0 -0.202733 -0.578294 36.962054 0.000000 0.000000 -1.570839
    1 0.000000 0.000000 0.000000 -1.570795 -1.570796 0.000000
    2 -0.000004 0.000006 3.319508 -0.000732 -3.100711 -0.021168
    3 16.897085 0.000000 0.000000 0.000000 0.000000 -0.157678
    4 16.589727 0.000000 0.000000 0.001600 -0.040858 0.136462
    5 0.000005 -0.000003 -3.319508 0.001962 3.115348 -0.024688
    6 16.897085 0.000000 0.000000 0.000000 0.000000 -0.164609
    7 16.589727 0.000000 0.000000 -0.002609 0.026187 0.139861
    8 3.488968 -0.004234 0.000004 -0.000004 -0.000001 0.000796
    9 5.318531 -0.004538 0.000000 -0.095335 0.003629 0.037246
    10 5.701826 -0.005492 0.000000 -0.115989 0.011824 0.100355
    11 6.899484 -0.001818 0.000000 0.000000 -0.000001 0.348889
    12 0.000003 0.001927 2.008302 -0.000013 -1.370797 2.791920
    13 4.746895 0.000000 0.000000 0.563081 1.070952 0.627163
    14 10.950472 0.000000 0.000000 0.000000 0.000000 -1.509250
    15 10.950467 0.000000 0.000000 -1.568795 0.000000 0.000000
    16 0.000003 0.001941 -2.008302 -0.000013 1.370795 2.791894
    17 4.746896 0.000000 -0.000003 -0.187350 -1.117596 0.038167
    18 10.950466 0.000000 0.000000 0.000000 0.000000 -0.560379
    19 10.950471 0.000000 0.000000 1.568795 0.000000 0.000000
    20 2.428221 0.000000 0.000000 0.170026 -0.108545 0.084653
    21 1.681022 0.975106 0.213387 0.000000 0.000001 -1.745239
  time 8
    0 -0.202733 -0.578294 36.962054 0.000000 0.000000 -1.570839
    1 0.000000 0.000000 0.000000 -1.570795 -1.570796 0.000000
    2 -0.000004 0.000006 3.319508 -0.000732 -3.100711 -0.021168
    3 16.897085 0.000000 0.000000 0.000000 0.000000 -0.157678
    4 16.589727 0.000000 0.000000 0.001600 -0.040858 0.136462
    5 0.000005 -0.000003 -3.319508 0.001962 3.115348 -0.024688
    6 16.897085 0.000000 0.000000 0.000000 0.000000 -0.164609
    7 16.589727 0.000000 0.000000 -0.002609 0.026187 0.139861
    8 3.488968 -0.004234 0.000004 -0.000004 -0.000001 0.000796
    9 5.318531 -0.004538 0.000000 -0.111034 0.005399 0.047644
    10 5.701826 -0.005492 0.000000 -0.134878 0.016602 0.120940
    11 6.899484 -0.001818 0.000000 0.000000 -0.000001 0.348889
    12 0.000003 0.001927 2.008302 -0.000013 -1.370797 2.791920
    13 4.746895 0.000000 0.000000 0.374811 1.126070 0.422678
    14 10.950472 0.000000 0.000000 0.000000 0.000000 -1.496054
    15 10.950467 0.000000 0.000000 -1.568795 0.000000 0.000000
    16 0.000003 0.001941 -2.008302 -0.000013 1.370795 2.791894
    17 4.746896 0.000000 -0.000003 -0.195567 -1.108199 0.022494
    18 10.950466 0.000000 0.000000 0.000000 0.000000 -0.619954
    19 10.950471 0.000000 0.000000 1.568795 0.000000 0.000000
    20 2.428221 0.000000 0.000000 0.190214 -0.138461 0.116330
    21 1.681022 0.975106 0.213387 0.000000 0.000001 -1.745239
  time 9
    0 -0.202733 -0.578294 36.962054 0.000000 0.000000 -1.570839
    1 0.000000 0.000000 0.000000 -1.570795 -1.570796 0.000000
    2 -0.000004 0.000006 3.319508 -0.000732 -3.100711 -0.021168
    3 16.897085 0.000000 0.000000 0.000000 0.000000 -0.157678
    4 16.589727 0.000000 0.000000 0.001600 -0.040858 0.136462
    5 0.000005 -0.000003 -3.319508 0.001962 3.115348 -0.024688
    6 16.897085 0.000000 0.000000 0.000000 0.000000 -0.164609
    7 16.589727 0.000000 0.000000 -0.002609 0.026187 0.139861
    8 3.488968 -0.004234 0.000004 -0.000004 -0.000001 0.000796
    9 5.318531 -0.004538 0.000000 -0.125449 0.007301 0.057137
    10 5.701826 -0.005492 0.000000 -0.152049 0.021668 0.139709
    11 6.899484 -0.001818 0.000000 0.000000 -0.000001 0.348889
    12 0.000003 0.001927 2.008302 -0.000013 -1.370797 2.791920
    13 4.746895 0.000000 0.000000 -0.018126 1.158215 -0.007661
    14 10.950472 0.000000 0.000000 0.000000 0.000000 -1.384763
    15 10.950467 0.000000 0.000000 -1.568795 0.000000 0.000000
    16 0.000003 0.001941 -2.008302 -0.000013 1.370795 2.791894
    17 4.746896 0.000000 -0.000003 -0.202446 -1.098327 0.007872
    18 10.950466 0.000000 0.000000 0.000000 0.000000 -0.674667
    19 10.950471 0.000000 0.000000 1.568795 0.000000 0.000000
    20 2.428221 0.000000 0.000000 0.206235 -0.168377 0.144750
    21 1.681022 0.975106 0.213387 0.000000 0.000001 -1.745239
  time 10
    0 -0.202733 -0.578294 36.962054 0.000000 0.000000 -1.570839
    1 0.000000 0.000000 0.000000 -1.570795 -1.570796 0.000000
    2 -0.000004 0.000006 3.319508 -0.000732 -3.100711 -0.021168
    3 16.897085 0.000000 0.000000 0.000000 0.000000 -0.157678
    4 16.589727 0.000000 0.000000 0.001600 -0.040858 0.136462
    5 0.000005 -0.000003 -3.319508 0.001962 3.115348 -0.024688
    6 16.897085 0.000000 0.000000 0.000000 0.000000 -0.164609
    7 16.589727 0.000000 0.000000 -0.002609 0.026187 0.139861
    8 3.488968 -0.004234 0.000004 -0.000004 -0.000001 0.000796
    9 5.318531 -0.004538 0.000000 -0.137865 0.009182 0.065324
    10 5.701826 -0.005492 0.000000 -0.166811 0.026589 0.155872
    11 6.899484 -0.001818 0.000000 0.000000 -0.000001 0.348889
    12 0.000003 0.001927 2.008302 -0.000013 -1.370797 2.791920
    13 4.746895 0.000000 0.000000 -0.463969 1.095651 -0.501826
    14 10.950472 0.000000 0.000000 0.000000 0.000000 -1.210695
    15 10.950467 0.000000 0.000000 -1.568795 0.000000 0.000000
    16 0.000003 0.001941 -2.008302 -0.000013 1.370795 2.791894
    17 4.746896 0.000000 -0.000003 -0.207988 -1.088930 -0.004838
    18 10.950466 0.000000 0.000000 0.000000 0.000000 -0.722048
    19 10.950471 0.000000 0.000000 1.568795 0.000000 0.000000
    20 2.428221 0.000000 0.000000 0.217996 -0.196000 0.168891
    21 1.681022 0.975106 0.213387 0.000000 0.000001 -1.745239
  time 11
    0 -0.202733 -0.578294 36.962054 0.000000 0.000000 -1.570839
    1 0.000000 0.000000 0.000000 -1.570795 -1.570796 0.000000
    2 -0.000004 0.000006 3.319508 -0.000732 -3.100711 -0.021168
    3 16.897085 0.000000 0.000000 0.000000 0.000000 -0.157678
    4 16.589727 0.000000 0.000000 0.001600 -0.040858 0.136462
    5 0.000005 -0.000003 -3.319508 0.001962 3.115348 -0.024688
    6 16.897085 0.000000 0.000000 0.000000 0.000000 -0.164609
    7 16.589727 0.000000 0.000000 -0.002609 0.026187 0.139861
    8 3.488968 -0.004234 0.000004 -0.000004 -0.000001 0.000796
    9 5.318531 -0.004538 0.000000 -0.147677 0.010797 0.071753
    10 5.701826 -0.005492 0.000000 -0.178388 0.030823 0.168521
    11 6.899484 -0.001818 0.000000 0.000000 -0.000001 0.348889
    12 0.000003 0.001927 2.008302 -0.000013 -1.370797 2.791920
    13 4.746895 0.000000 0.000000 -0.743086 0.959899 -0.829876
    14 10.950472 0.000000 0.000000 0.000000 0.000000 -1.018701
    15 10.950467 0.000000 0.000000 -1.568795 0.000000 0.000000
    16 0.000003 0.001941 -2.008302 -0.000013 1.370795 2.791894
    17 4.746896 0.000000 -0.000003 -0.212096 -1.080957 -0.015064
    18 10.950466 0.000000 0.000000 0.000000 0.000000 -0.759475
    19 10.950471 0.000000 0.000000 1.568795 0.000000 0.000000
    20 2.428221 0.000000 0.000000 0.225775 -0.218786 0.187731
    21 1.681022 0.975106 0.213387 0.000000 0.000001 -1.745239
  time 12
    0 -0.202733 -0.578294 36.962054 0.000000 0.000000 -1.570839
    1 0.000000 0.000000 0.000000 -1.570795 -1.570796 0.000000
    2 -0.000004 0.000006 3.319508 -0.000732 -3.100711 -0.021168
    3 16.897085 0.000000 0.000000 0.000000 0.000000 -0.157678
    4 16.589727 0.000000 0.000000 0.001600 -0.040858 0.136462
    5 0.000005 -0.000003 -3.319508 0.001962 3.115348 -0.024688
    6 16.897085 0.000000 0.000000 0.000000 0.000000 -0.164609
    7 16.589727 0.000000 0.000000 -0.002609 0.026187 0.139861
    8 3.488968 -0.004234 0.000004 -0.000004 -0.000001 0.000796
    9 5.318531 -0.004538 0.000000 -0.154171 0.011948 0.075997
    10 5.701826 -0.005492 0.000000 -0.185976 0.033780 0.176837
    11 6.899484 -0.001818 0.000000 0.000000 -0.000001 0.348889
    12 0.000003 0.001927 2.008302 -0.000013 -1.370797 2.791920
    13 4.746895 0.000000 0.000000 -0.872730 0.829141 -0.997943
    14 10.950472 0.000000 0.000000 0.000000 0.000000 -0.857829
    15 10.950467 0.000000 0.000000 -1.568795 0.000000 0.000000
    16 0.000003 0.001941 -2.008302 -0.000013 1.370795 2.791894
    17 4.746896 0.000000 -0.000003 -0.214676 -1.075356 -0.021849
    18 10.950466 0.000000 0.000000 0.000000 0.000000 -0.784169
    19 10.950471 0.000000 0.000000 1.568795 0.000000 0.000000
    20 2.428221 0.000000 0.000000 0.230127 -0.234342 0.200057
    21 1.681022 0.975106 0.213387 0.000000 0.000001 -1.745239
  time 13
    0 -0.202733 -0.578294 36.962054 0.000000 0.000000 -1.570839
    1 0.000000 0.000000 0.000000 -1.570795 -1.570796 0.000000
    2 -0.000004 0.000006 3.319508 -0.000732 -3.100711 -0.021168
    3 16.897085 0.000000 0.000000 0.000000 0.000000 -0.157678
    4 16.589727 0.000000 0.000000 0.001600 -0.040858 0.136462
    5 0.000005 -0.000003 -3.319508 0.001962 3.115348 -0.024688
    6 16.897085 0.000000 0.000000 0.000000 0.000000 -0.164609
    7 16.589727 0.000000 0.000000 -0.002609 0.026187 0.139861
    8 3.488968 -0.004234 0.000004 -0.000004 -0.000001 0.000796
    9 5.318531 -0.004538 0.000000 -0.156490 0.012368 0.077504
    10 5.701826 -0.005492 0.000000 -0.188718 0.034882 0.179853
    11 6.899484 -0.001818 0.000000 0.000000 -0.000001 0.348889
    12 0.000003 0.001927 2.008302 -0.000013 -1.370797 2.791920
    13 4.746895 0.000000 0.000000 -0.917915 0.765397 -1.058145
    14 10.950472 0.000000 0.000000 0.000000 0.000000 -0.775600
    15 10.950467 0.000000 0.000000 -1.568795 0.000000 0.000000
    16 0.000003 0.001941 -2.008302 -0.000013 1.370795 2.791894
    17 4.746896 0.000000 -0.000003 -0.215631 -1.073268 -0.024238
    18 10.950466 0.000000 0.000000 0.000000 0.000000 -0.793044
    19 10.950471 0.000000 0.000000 1.568795 0.000000 0.000000
    20 2.428221 0.000000 0.000000 0.231609 -0.240026 0.204464
    21 1.681022 0.975106 0.213387 0.000000 0.000001 -1.745239
  time 14
    0 -0.202733 -0.578294 36.962054 0.000000 0.000000 -1.570839
    1 0.000000 0.000000 0.000000 -1.570795 -1.570796 0.000000
    2 -0.000004 0.000006 3.319508 -0.000732 -3.100711 -0.021168
    3 16.897085 0.000000 0.000000 0.000000 0.000000 -0.157678
    4 16.589727 0.000000 0.000000 0.001600 -0.040858 0.136462
    5 0.000005 -0.000003 -3.319508 0.001962 3.115348 -0.024688
    6 16.897085 0.000000 0.000000 0.000000 0.000000 -0.164609
    7 16.589727 0.000000 0.000000 -0.002609 0.026187 0.139861
    8 3.488968 -0.004234 0.000004 -0.000004 -0.000001 0.000796
    9 5.318531 -0.004538 0.000000 -0.154099 0.011948 0.075947
    10 5.701826 -0.005492 0.000000 -0.185921 0.033764 0.176778
    11 6.899484 -0.001818 0.000000 0.000000 -0.000001 0.348889
    12 0.000003 0.001927 2.008302 -0.000013 -1.370797 2.791920
    13 4.746895 0.000000 0.000000 -0.908478 0.794363 -1.032503
    14 10.950472 0.000000 0.000000 0.000000 0.000000 -0.791390
    15 10.950467 0.000000 0.000000 -1.568795 0.000000 0.000000
    16 0.000003 0.001941 -2.008302 -0.000013 1.370795 2.791894
    17 4.746896 0.000000 -0.000003 -0.214676 -1.075451 -0.021754
    18 10.950466 0.000000 0.000000 0.000000 0.000000 -0.783938
    19 10.950471 0.000000 0.000000 1.568795 0.000000 0.000000
    20 2.428221 0.000000 0.000000 0.230127 -0.234193 0.199929
    21 1.681022 0.975106 0.213387 0.000000 0.000001 -1.745239
  time 15
    0 -0.202733 -0.578294 36.962054 0.000000 0.000000 -1.570839
    1 0.000000 0.000000 0.000000 -1.570795 -1.570796 0.000000
    2 -0.000004 0.000006 3.319508 -0.000732 -3.100711 -0.021168
    3 16.897085 0.000000 0.000000 0.000000 0.000000 -0.157678
    4 16.589727 0.000000 0.000000 0.001600 -0.040858 0.136462
    5 0.000005 -0.000003 -3.319508 0.001962 3.115348 -0.024688
    6 16.897085 0.000000 0.000000 0.000000 0.000000 -0.164609
    7 16.589727 0.000000 0.000000 -0.002609 0.026187 0.139861
    8 3.488968 -0.004234 0.000004 -0.000004 -0.000001 0.000796
    9 5.318531 -0.004538 0.000000 -0.147285 0.010731 0.071502
    10 5.701826 -0.005492 0.000000 -0.177917 0.030648 0.168023
    11 6.899484 -0.001818 0.000000 0.000000 -0.000001 0.348889
    12 0.000003 0.001927 2.008302 -0.000013 -1.370797 2.791920
    13 4.746895 0.000000 0.000000 -0.847564 0.890071 -0.933001
    14 10.950472 0.000000 0.000000 0.000000 0.000000 -0.872779
    15 10.950467 0.000000 0.000000 -1.568795 0.000000 0.000000
    16 0.000003 0.001941 -2.008302 -0.000013 1.370795 2.791894
    17 4.746896 0.000000 -0.000003 -0.212000 -1.081241 -0.014682
    18 10.950466 0.000000 0.000000 0.000000 0.000000 -0.757932
    19 10.950471 0.000000 0.000000 1.568795 0.000000 0.000000
    20 2.428221 0.000000 0.000000 0.225497 -0.217839 0.186965
    21 1.681022 0.975106 0.213387 0.000000 0.000001 -1.745239
  time 16
    0 -0.202733 -0.578294 36.962054 0.000000 0.000000 -1.570839
    1 0.000000 0.000000 0.000000 -1.570795 -1.570796 0.000000
    2 -0.000004 0.000006 3.319508 -0.000732 -3.100711 -0.021168
    3 16.897085 0.000000 0.000000 0.000000 0.000000 -0.157678
    4 16.589727 0.000000 0.000000 0.001600 -0.040858 0.136462
    5 0.000005 -0.000003 -3.319508 0.001962 3.115348 -0.024688
    6 16.897085 0.000000 0.000000 0.000000 0.000000 -0.164609
    7 16.589727 0.000000 0.000000 -0.002609 0.026187 0.139861
    8 3.488968 -0.004234 0.000004 -0.000004 -0.000001 0.000796
    9 5.318531 -0.004538 0.000000 -0.136688 0.008983 0.064545
    10 5.701826 -0.005492 0.000000 -0.165399 0.026094 0.154320
    11 6.899484 -0.001818 0.000000 0.000000 -0.000001 0.348889
    12 0.000003 0.001927 2.008302 -0.000013 -1.370797 2.791920
    13 4.746895 0.000000 0.000000 -0.706957 1.013927 -0.744682
    14 10.950472 0.000000 0.000000 0.000000 0.000000 -0.985443
    15 10.950467 0.000000 0.000000 -1.568795 0.000000 0.000000
    16 0.000003 0.001941 -2.008302 -0.000013 1.370795 2.791894
    17 4.746896 0.000000 -0.000003 -0.207510 -1.089879 -0.003691
    18 10.950466 0.000000 0.000000 0.000000 0.000000 -0.717495
    19 10.950471 0.000000 0.000000 1.568795 0.000000 0.000000
    20 2.428221 0.000000 0.000000 0.216885 -0.193258 0.166592
    21 1.681022 0.975106 0.213387 0.000000 0.000001 -1.745239
  time 17
    0 -0.202733 -0.578294 36.962054 0.000000 0.000000 -1.570839
    1 0.000000 0.000000 0.000000 -1.570795 -1.570796 0.000000
    2 -0.000004 0.000006 3.319508 -0.000732 -3.100711 -0.021168
    3 16.897085 0.000000 0.000000 0.000000 0.000000 -0.157678
    4 16.589727 0.000000 0.000000 0.001600 -0.040858 0.136462
    5 0.000005 -0.000003 -3.319508 0.001962 3.115348 -0.024688
    6 16.897085 0.000000 0.000000 0.000000 0.000000 -0.164609
    7 16.589727 0.000000 0.000000 -0.002609 0.026187 0.139861
    8 3.488968 -0.004234 0.000004 -0.000004 -0.000001 0.000796
    9 5.318531 -0.004538 0.000000 -0.122987 0.006969 0.055529
    10 5.701826 -0.005492 0.000000 -0.149114 0.020757 0.136517
    11 6.899484 -0.001818 0.000000 0.000000 -0.000001 0.348889
    12 0.000003 0.001927 2.008302 -0.000013 -1.370797 2.791920
    13 4.746895 0.000000 0.000000 -0.450051 1.119441 -0.441809
    14 10.950472 0.000000 0.000000 0.000000 0.000000 -1.094903
    15 10.950467 0.000000 0.000000 -1.568795 0.000000 0.000000
    16 0.000003 0.001941 -2.008302 -0.000013 1.370795 2.791894
    17 4.746896 0.000000 -0.000003 -0.201300 -1.100130 0.010453
    18 10.950466 0.000000 0.000000 0.000000 0.000000 -0.665329
    19 10.950471 0.000000 0.000000 1.568795 0.000000 0.000000
    20 2.428221 0.000000 0.000000 0.203734 -0.163092 0.139960
    21 1.681022 0.975106 0.213387 0.000000 0.000001 -1.745239
  time 18
    0 -0.202733 -0.578294 36.962054 0.000000 0.000000 -1.570839
    1 0.000000 0.000000 0.000000 -1.570795 -1.570796 0.000000
    2 -0.000004 0.000006 3.319508 -0.000732 -3.100711 -0.021168
    3 16.897085 0.000000 0.000000 0.000000 0.000000 -0.157678
    4 16.589727 0.000000 0.000000 0.001600 -0.040858 0.136462
    5 0.000005 -0.000003 -3.319508 0.001962 3.115348 -0.024688
    6 16.897085 0.000000 0.000000 0.000000 0.000000 -0.164609
    7 16.589727 0.000000 0.000000 -0.002609 0.026187 0.139861
    8 3.488968 -0.004234 0.000004 -0.000004 -0.000001 0.000796
    9 5.318531 -0.004538 0.000000 -0.106931 0.004912 0.044931
    10 5.701826 -0.005492 0.000000 -0.129920 0.015276 0.115552
    11 6.899484 -0.001818 0.000000 0.000000 -0.000001 0.348889
    12 0.000003 0.001927 2.008302 -0.000013 -1.370797 2.791920
    13 4.746895 0.000000 0.000000 -0.113358 1.165660 -0.070187
    14 10.950472 0.000000 0.000000 0.000000 0.000000 -1.166605
    15 10.950467 0.000000 0.000000 -1.568795 0.000000 0.000000
    16 0.000003 0.001941 -2.008302 -0.000013 1.370795 2.791894
    17 4.746896 0.000000 -0.000003 -0.193465 -1.110761 0.026603
    18 10.950466 0.000000 0.000000 0.000000 0.000000 -0.604366
    19 10.950471 0.000000 0.000000 1.568795 0.000000 0.000000
    20 2.428221 0.000000 0.000000 0.185213 -0.130334 0.108155
    21 1.681022 0.975106 0.213387 0.000000 0.000001 -1.745239
  time 19
    0 -0.202733 -0.578294 36.962054 0.000000 0.000000 -1.570839
    1 0.000000 0.000000 0.000000 -1.570795 -1.570796 0.000000
    2 -0.000004 0.000006 3.319508 -0.000732 -3.100711 -0.021168
    3 16.897085 0.000000 0.000000 0.000000 0.000000 -0.157678
    4 16.589727 0.000000 0.000000 0.001600 -0.040858 0.136462
    5 0.000005 -0.000003 -3.319508 0.001962 3.115348 -0.024688
    6 16.897085 0.000000 0.000000 0.000000 0.000000 -0.164609
    7 16.589727 0.000000 0.000000 -0.002609 0.026187 0.139861
    8 3.488968 -0.004234 0.000004 -0.000004 -0.000001 0.000796
    9 5.318531 -0.004538 0.000000 -0.089306 0.003053 0.033278
    10 5.701826 -0.005492 0.000000 -0.108761 0.010211 0.092450
    11 6.899484 -0.001818 0.000000 0.000000 -0.000001 0.348889
    12 0.000003 0.001927 2.008302 -0.000013 -1.370797 2.791920
    13 4.746895 0.000000 0.000000 0.141927 1.159032 0.199147
    14 10.950472 0.000000 0.000000 0.000000 0.000000 -1.166224
    15 10.950467 0.000000 0.000000 -1.568795 0.000000 0.000000
    16 0.000003 0.001941 -2.008302 -0.000013 1.370795 2.791894
    17 4.746896 0.000000 -0.000003 -0.184102 -1.120823 0.043997
    18 10.950466 0.000000 0.000000 0.000000 0.000000 -0.537692
    19 10.950471 0.000000 0.000000 1.568795 0.000000 0.000000
    20 2.428221 0.000000 0.000000 0.161598 -0.097875 0.072391
    21 1.681022 0.975106 0.213387 0.000000 0.000001 -1.745239
  time 20
    0 -0.202733 -0.578294 36.962054 0.000000 0.000000 -1.570839
    1 0.000000 0.000000 0.000000 -1.570795 -1.570796 0.000000
    2 -0.000004 0.000006 3.319508 -0.000732 -3.100711 -0.021168
    3 16.897085 0.000000 0.000000 0.000000 0.000000 -0.157678
    4 16.589727 0.000000 0.000000 0.001600 -0.040858 0.136462
    5 0.000005 -0.000003 -3.319508 0.001962 3.115348 -0.024688
    6 16.897085 0.000000 0.000000 0.000000 0.000000 -0.164609
    7 16.589727 0.000000 0.000000 -0.002609 0.026187 0.139861
    8 3.488968 -0.004234 0.000004 -0.000004 -0.000001 0.000796
    9 5.318531 -0.004538 0.000000 -0.071038 0.001549 0.021148
    10 5.701826 -0.005492 0.000000 -0.086632 0.006008 0.068322
    11 6.899484 -0.001818 0.000000 0.000000 -0.000001 0.348889
    12 0.000003 0.001927 2.008302 -0.000013 -1.370797 2.791920
    13 4.746895 0.000000 0.000000 0.253078 1.142596 0.306731
    14 10.950472 0.000000 0.000000 0.000000 0.000000 -1.072554
    15 10.950467 0.000000 0.000000 -1.568795 0.000000 0.000000
    16 0.000003 0.001941 -2.008302 -0.000013 1.370795 2.791894
    17 4.746896 0.000000 -0.000003 -0.173496 -1.129461 0.061581
    18 10.950466 0.000000 0.000000 0.000000 0.000000 -0.468471
    19 10.950471 0.000000 0.000000 1.568795 0.000000 0.000000
    20 2.428221 0.000000 0.000000 0.133539 -0.068358 0.034199
    21 1.681022 0.975106 0.213387 0.000000 0.000001 -1.745239
  time 21
    0 -0.202733 -0.578294 36.962054 0.000000 0.000000 -1.570839
    1 0.000000 0.000000 0.000000 -1.570795 -1.570796 0.000000
    2 -0.000004 0.000006 3.319508 -0.000732 -3.100711 -0.021168
    3 16.897085 0.000000 0.000000 0.000000 0.000000 -0.157678
    4 16.589727 0.000000 0.000000 0.001600 -0.040858 0.136462
    5 0.000005 -0.000003 -3.319508 0.001962 3.115348 -0.024688
    6 16.897085 0.000000 0.000000 0.000000 0.000000 -0.164609
    7 16.589727 0.000000 0.000000 -0.002609 0.026187 0.139861
    8 3.488968 -0.004234 0.000004 -0.000004 -0.000001 0.000796
    9 5.318531 -0.004538 0.000000 -0.052948 0.000509 0.009118
    10 5.701826 -0.005492 0.000000 -0.064642 0.002924 0.044341
    11 6.899484 -0.001818 0.000000 0.000000 -0.000001 0.348889
    12 0.000003 0.001927 2.008302 -0.000013 -1.370797 2.791920
    13 4.746895 0.000000 0.000000 0.279675 1.133425 0.323640
    14 10.950472 0.000000 0.000000 0.000000 0.000000 -0.908859
    15 10.950467 0.000000 0.000000 -1.568795 0.000000 0.000000
    16 0.000003 0.001941 -2.008302 -0.000013 1.370795 2.791894
    17 4.746896 0.000000 -0.000003 -0.162127 -1.136295 0.078305
    18 10.950466 0.000000 0.000000 0.000000 0.000000 -0.400022
    19 10.950471 0.000000 0.000000 1.568795 0.000000 0.000000
    20 2.428221 0.000000 0.000000 0.102793 -0.043677 -0.004631
    21 1.681022 0.975106 0.213387 0.000000 0.000001 -1.745239
  time 22
    0 -0.202733 -0.578294 36.962054 0.000000 0.000000 -1.570839
    1 0.000000 0.000000 0.000000 -1.570795 -1.570796 0.000000
    2 -0.000004 0.000006 3.319508 -0.000732 -3.100711 -0.021168
    3 16.897085 0.000000 0.000000 0.000000 0.000000 -0.157678
    4 16.589727 0.000000 0.000000 0.001600 -0.040858 0.136462
    5 0.000005 -0.000003 -3.319508 0.001962 3.115348 -0.024688
    6 16.897085 0.000000 0.000000 0.000000 0.000000 -0.164609
    7 16.589727 0.000000 0.000000 -0.002609 0.026187 0.139861
    8 3.488968 -0.004234 0.000004 -0.000004 -0.000001 0.000796
    9 5.318531 -0.004538 0.000000 -0.035929 -0.000044 -0.002233
    10 5.701826 -0.005492 0.000000 -0.043898 0.000975 0.021707
    11 6.899484 -0.001818 0.000000 0.000000 -0.000001 0.348889
    12 0.000003 0.001927 2.008302 -0.000013 -1.370797 2.791920
    13 4.746895 0.000000 0.000000 0.255176 1.133062 0.286013
    14 10.950472 0.000000 0.000000 0.000000 0.000000 -0.707483
    15 10.950467 0.000000 0.000000 -1.568795 0.000000 0.000000
    16 0.000003 0.001941 -2.008302 -0.000013 1.370795 2.791894
    17 4.746896 0.000000 -0.000003 -0.150757 -1.140946 0.093596
    18 10.950466 0.000000 0.000000 0.000000 0.000000 -0.335663
    19 10.950471 0.000000 0.000000 1.568795 0.000000 0.000000
    20 2.428221 0.000000 0.000000 0.071585 -0.024830 -0.041992
    21 1.681022 0.975106 0.213387 0.000000 0.000001 -1.745239
  time 23
    0 -0.202733 -0.578294 36.962054 0.000000 0.000000 -1.570839
    1 0.000000 0.000000 0.000000 -1.570795 -1.570796 0.000000
    2 -0.000004 0.000006 3.319508 -0.000732 -3.100711 -0.021168
    3 16.897085 0.000000 0.000000 0.000000 0.000000 -0.157678
    4 16.589727 0.000000 0.000000 0.001600 -0.040858 0.136462
    5 0.000005 -0.000003 -3.319508 0.001962 3.115348 -0.024688
    6 16.897085 0.000000 0.000000 0.000000 0.000000 -0.164609
    7 16.589727 0.000000 0.000000 -0.002609 0.026187 0.139861
    8 3.488968 -0.004234 0.000004 -0.000004 -0.000001 0.000796
    9 5.318531 -0.004538 0.000000 -0.020837 -0.000221 -0.012254
    10 5.701826 -0.005492 0.000000 -0.025480 0.000048 0.001650
    11 6.899484 -0.001818 0.000000 0.000000 -0.000001 0.348889
    12 0.000003 0.001927 2.008302 -0.000013 -1.370797 2.791920
    13 4.746895 0.000000 0.000000 0.204652 1.137693 0.221723
    14 10.950472 0.000000 0.000000 0.000000 0.000000 -0.500691
    15 10.950467 0.000000 0.000000 -1.568795 0.000000 0.000000
    16 0.000003 0.001941 -2.008302 -0.000013 1.370795 2.791894
    17 4.746896 0.000000 -0.000003 -0.140056 -1.143793 0.106688
    18 10.950466 0.000000 0.000000 0.000000 0.000000 -0.278790
    19 10.950471 0.000000 0.000000 1.568795 0.000000 0.000000
    20 2.428221 0.000000 0.000000 0.042321 -0.011867 -0.075649
    21 1.681022 0.975106 0.213387 0.000000 0.000001 -1.745239
  time 24
    0 -0.202733 -0.578294 36.962054 0.000000 0.000000 -1.570839
    1 0.000000 0.000000 0.000000 -1.570795 -1.570796 0.000000
    2 -0.000004 0.000006 3.319508 -0.000732 -3.100711 -0.021168
    3 16.897085 0.000000 0.000000 0.000000 0.000000 -0.157678
    4 16.589727 0.000000 0.000000 0.001600 -0.040858 0.136462
    5 0.000005 -0.000003 -3.319508 0.001962 3.115348 -0.024688
    6 16.897085 0.000000 0.000000 0.000000 0.000000 -0.164609
    7 16.589727 0.000000 0.000000 -0.002609 0.026187 0.139861
    8 3.488968 -0.004234 0.000004 -0.000004 -0.000001 0.000796
    9 5.318531 -0.004538 0.000000 -0.008599 -0.000155 -0.020441
    10 5.701826 -0.005492 0.000000 -0.010524 -0.000144 -0.014689
    11 6.899484 -0.001818 0.000000 0.000000 -0.000001 0.348889
    12 0.000003 0.001927 2.008302 -0.000013 -1.370797 2.791920
    13 4.746895 0.000000 0.000000 0.152318 1.142959 0.157989
    14 10.950472 0.000000 0.000000 0.000000 0.000000 -0.320826
    15 10.950467 0.000000 0.000000 -1.568795 0.000000 0.000000
    16 0.000003 0.001941 -2.008302 -0.000013 1.370795 2.791894
    17 4.746896 0.000000 -0.000003 -0.131075 -1.145122 0.116914
    18 10.950466 0.000000 0.000000 0.000000 0.000000 -0.232488
    19 10.950471 0.000000 0.000000 1.568795 0.000000 0.000000
    20 2.428221 0.000000 0.000000 0.017688 -0.004039 -0.103366
    21 1.681022 0.975106 0.213387 0.000000 0.000001 -1.745239
  time 25
    0 -0.202733 -0.578294 36.962054 0.000000 0.000000 -1.570839
    1 0.000000 0.000000 0.000000 -1.570795 -1.570796 0.000000
    2 -0.000004 0.000006 3.319508 -0.000732 -3.100711 -0.021168
    3 16.897085 0.000000 0.000000 0.000000 0.000000 -0.157678
    4 16.589727 0.000000 0.000000 0.001600 -0.040858 0.136462
    5 0.000005 -0.000003 -3.319508 0.001962 3.115348 -0.024688
    6 16.897085 0.000000 0.000000 0.000000 0.000000 -0.164609
    7 16.589727 0.000000 0.000000 -0.002609 0.026187 0.139861
    8 3.488968 -0.004234 0.000004 -0.000004 -0.000001 0.000796
    9 5.318531 -0.004538 0.000000 0.000000 0.000000 -0.026167
    10 5.701826 -0.005492 0.000000 0.000000 0.000000 -0.026167
    11 6.899484 -0.001818 0.000000 0.000000 -0.000001 0.348889
    12 0.000003 0.001927 2.008302 -0.000013 -1.370797 2.791920
    13 4.746895 0.000000 0.000000 0.124578 1.145502 0.123986
    14 10.950472 0.000000 0.000000 0.000000 0.000000 -0.200000
    15 10.950467 0.000000 0.000000 -1.568795 0.000000 0.000000
    16 0.000003 0.001941 -2.008302 -0.000013 1.370795 2.791894
    17 4.746896 0.000000 -0.000003 -0.124578 -1.145502 0.123986
    18 10.950466 0.000000 0.000000 0.000000 0.000000 -0.200000
    19 10.950471 0.000000 0.000000 1.568795 0.000000 0.000000
    20 2.428221 0.000000 0.000000 0.000000 0.000000 -0.122909
    21 1.681022 0.975106 0.213387 0.000000 0.000001 -1.745239
end
