version 1
nodes
  0 "Bip02" -1
  1 "Bip02 Pelvis" 0
  2 "Bip02 L Leg" 1
  3 "Bip02 L Leg1" 2
  4 "Bip02 L Foot" 3
  5 "Bip02 R Leg" 1
  6 "Bip02 R Leg1" 5
  7 "Bip02 R Foot" 6
  8 "Bip02 Spine" 1
  9 "Bip02 Spine1" 8
  10 "Bip02 Spine2" 9
  11 "Bip02 Neck" 10
  12 "Bip02 L Arm" 11
  13 "Bip02 L Arm1" 12
  14 "Bip02 L Arm2" 13
  15 "Bip02 L Hand" 14
  16 "Bip02 R Arm" 11
  17 "Bip02 R Arm1" 16
  18 "Bip02 R Arm2" 17
  19 "Bip02 R Hand" 18
  20 "Bip02 Head" 11
  21 "Bone01" 20
end
skeleton
  time 0
    0 -0.001589 0.024072 37.196707 0.000000 -0.026148 -1.570839
    1 0.000000 0.000000 0.000000 -1.570795 -1.570796 0.000000
    2 -0.000004 0.000006 3.319508 0.003103 -3.144999 -0.077430
    3 16.904898 0.000000 0.000000 0.000000 0.000000 -0.149608
    4 16.597540 0.000000 0.000000 -0.003456 0.003069 0.054698
    5 0.000005 -0.000003 -3.319508 -0.004641 3.159135 -0.031493
    6 16.904898 0.000000 0.000000 0.000000 0.000000 -0.275573
    7 16.597540 0.000000 0.000000 -0.016312 -0.018315 0.190336
    8 3.488968 -0.004234 0.000004 -0.000004 -0.000001 0.000796
    9 5.318531 -0.004538 0.000000 0.000000 0.000000 -0.026167
    10 5.701826 -0.005492 0.000000 0.000000 0.000000 -0.026167
    11 6.899484 -0.001818 0.000000 0.000000 -0.026147 0.099378
    12 0.050786 0.001927 2.008302 -0.571514 -1.365031 3.600345
    13 4.746895 0.000000 0.000000 0.673374 1.128703 0.459654
    14 10.954378 0.000000 0.000000 0.000000 0.000000 -0.722739
    15 10.954373 0.000000 0.000000 -1.574103 0.019392 0.236566
    16 -0.050780 0.001941 -2.008302 -0.529234 1.350105 2.519998
    17 4.746896 0.000000 -0.000003 -0.653890 -1.177775 0.585670
    18 10.954372 0.000000 0.000000 0.000000 0.000000 -0.672043
    19 10.954377 0.000000 0.000000 1.767889 -0.169629 0.443611
    20 2.428221 0.000000 0.000000 0.004816 0.017451 0.116138
    21 1.681022 0.975106 0.213387 0.000000 0.000001 -1.745239
  time 1
    0 -0.001589 2.364691 37.196707 0.003546 -0.025861 -1.710457
    1 0.000000 0.000000 0.000000 -1.570795 -1.570796 0.000000
    2 -0.000004 0.000006 3.319508 0.003199 -3.135317 -0.061017
    3 16.904898 0.000000 0.000000 0.000000 0.000000 -0.002039
    4 16.597540 0.000000 0.000000 -0.142259 -0.008901 -0.076263
    5 0.000005 -0.000003 -3.319508 -0.003397 3.155302 -0.142228
    6 16.904898 0.000000 0.000000 0.000000 0.000000 -0.330841
    7 16.597540 0.000000 0.000000 -0.155792 -0.021449 0.135572
    8 3.488968 -0.004234 0.000004 -0.078393 -0.004029 -0.051375
    9 5.318531 -0.004538 0.000000 -0.069539 -0.005399 -0.078304
    10 5.701826 -0.005492 0.000000 -0.078379 -0.004027 -0.052168
    11 6.899484 -0.001818 0.000000 -0.442554 0.019378 0.100873
    12 -0.035154 -0.857475 1.816890 -1.825153 -0.994611 4.896683
    13 4.746895 0.000000 0.000000 0.510747 1.198259 0.618709
    14 10.954378 0.000000 0.000000 0.000000 0.000000 -1.902849
    15 10.954373 0.000000 0.000000 -1.584244 0.012928 -0.365202
    16 0.035161 0.861342 -1.816890 -0.911864 1.263470 2.146476
    17 4.746896 0.000000 -0.000003 -1.031573 -0.534504 0.588441
    18 10.954372 0.000000 0.000000 0.000000 0.000000 -1.978051
    19 10.954377 0.000000 0.000000 1.767889 -0.169629 0.443611
    20 2.428221 0.000000 0.000000 0.164655 0.088601 0.322423
    21 1.681022 0.975106 0.213387 0.000000 0.000001 -1.745239
  time 2
    0 -0.001589 1.521380 37.149776 0.003162 -0.025957 -1.695614
    1 0.000000 0.000000 0.000000 -1.570795 -1.570796 0.000000
    2 -0.000004 0.000006 3.319508 0.003199 -3.139631 -0.110345
    3 16.904898 0.000000 0.000000 0.000000 0.000000 -0.149160
    4 16.597540 0.000000 0.000000 -0.127627 -0.004505 0.021507
    5 0.000005 -0.000003 -3.319508 -0.004163 3.152523 -0.120353
    6 16.904898 0.000000 0.000000 0.000000 0.000000 -0.341039
    7 16.597540 0.000000 0.000000 -0.140944 -0.017961 0.167478
    8 3.488968 -0.004234 0.000004 -0.157807 -0.010790 -0.067798
    9 5.318531 -0.004538 0.000000 -0.137080 -0.003629 -0.027172
    10 5.701826 -0.005492 0.000000 -0.126929 0.000304 0.001591
    11 6.899484 -0.001818 0.000000 -0.440980 0.032728 0.129150
    12 -0.062499 -0.853568 1.816890 -1.560064 -1.016179 4.552201
    13 4.746895 0.000000 0.000000 0.109802 1.094016 0.432340
    14 10.954378 0.000000 0.000000 0.000000 0.000000 -1.853420
    15 10.954373 0.000000 0.000000 -1.584244 0.012928 -0.365202
    16 0.062505 0.857436 -1.816890 -0.671605 1.177641 2.370435
    17 4.746896 0.000000 -0.000003 -1.018102 -0.474230 0.394727
    18 10.954372 0.000000 0.000000 0.000000 0.000000 -1.658803
    19 10.954377 0.000000 0.000000 1.767889 -0.169629 0.443611
    20 2.428221 0.000000 0.000000 0.281431 0.093687 0.072710
    21 1.681022 0.975106 0.213387 0.000000 0.000001 -1.745239
  time 3
    0 -0.001589 0.850173 37.102846 0.002491 -0.025957 -1.668897
    1 0.000000 0.000000 0.000000 -1.570795 -1.570796 0.000000
    2 -0.000004 0.000006 3.319508 0.003007 -3.142603 -0.116050
    3 16.904898 0.000000 0.000000 0.000000 0.000000 -0.195037
    4 16.597540 0.000000 0.000000 -0.101127 -0.001032 0.061696
    5 0.000005 -0.000003 -3.319508 -0.004546 3.151949 -0.098965
    6 16.904898 0.000000 0.000000 0.000000 0.000000 -0.343179
    7 16.597540 0.000000 0.000000 -0.114193 -0.016053 0.190806
    8 3.488968 -0.004234 0.000004 -0.227024 -0.018098 -0.078232
    9 5.318531 -0.004538 0.000000 -0.195523 0.005332 0.026146
    10 5.701826 -0.005492 0.000000 -0.166063 0.009396 0.055292
    11 6.899484 -0.001818 0.000000 -0.439019 0.046288 0.157988
    12 -0.089843 -0.849662 1.816890 -1.566775 -1.017042 4.528328
    13 4.746895 0.000000 0.000000 0.127914 1.170564 0.363683
    14 10.954378 0.000000 0.000000 0.000000 0.000000 -1.708795
    15 10.954373 0.000000 0.000000 -1.609550 0.679483 -0.435750
    16 0.089850 0.853529 -1.816890 -0.909083 1.264890 2.086075
    17 4.746896 0.000000 -0.000003 -0.993356 -0.667297 0.176548
    18 10.954372 0.000000 0.000000 0.000000 0.000000 -1.588039
    19 10.954377 0.000000 0.000000 1.767889 -0.169629 0.443611
    20 2.428221 0.000000 0.000000 0.434973 -0.023584 0.140279
    21 1.681022 0.975106 0.213387 0.000000 0.000001 -1.745239
  time 4
    0 -0.001589 0.333859 37.102846 0.001821 -0.026053 -1.642946
    1 0.000000 0.000000 0.000000 -1.570795 -1.570796 0.000000
    2 -0.000004 0.000006 3.319508 0.002911 -3.144328 -0.115348
    3 16.904898 0.000000 0.000000 0.000000 0.000000 -0.219545
    4 16.597540 0.000000 0.000000 -0.075282 0.001111 0.086780
    5 0.000005 -0.000003 -3.319508 -0.004737 3.152715 -0.079278
    6 16.904898 0.000000 0.000000 0.000000 0.000000 -0.339470
    7 16.597540 0.000000 0.000000 -0.088194 -0.015535 0.206729
    8 3.488968 -0.004234 0.000004 -0.275475 -0.023679 -0.083559
    9 5.318531 -0.004538 0.000000 -0.235841 0.016395 0.067358
    10 5.701826 -0.005492 0.000000 -0.191599 0.018839 0.096051
    11 6.899484 -0.001818 0.000000 -0.437003 0.057952 0.182901
    12 -0.113281 -0.845755 1.816890 -1.562652 -1.017723 4.496113
    13 4.746895 0.000000 0.000000 0.097601 1.247202 0.314907
    14 10.954378 0.000000 0.000000 0.000000 0.000000 -1.523896
    15 10.954373 0.000000 0.000000 -1.597703 1.007072 -0.389453
    16 0.113288 0.849623 -1.816890 -0.907837 1.265504 2.059710
    17 4.746896 0.000000 -0.000003 -0.936125 -0.829135 -0.045836
    18 10.954372 0.000000 0.000000 0.000000 0.000000 -1.061669
    19 10.954377 0.000000 0.000000 1.767889 -0.169629 0.443611
    20 2.428221 0.000000 0.000000 0.542119 -0.049212 -0.014147
    21 1.681022 0.975106 0.213387 0.000000 0.000001 -1.745239
  time 5
    0 -0.001589 -0.044770 37.055915 0.001246 -0.026053 -1.620443
    1 0.000000 0.000000 0.000000 -1.570795 -1.570796 0.000000
    2 -0.000004 0.000006 3.319508 0.002815 -3.145095 -0.111223
    3 16.904898 0.000000 0.000000 0.000000 0.000000 -0.230977
    4 16.597540 0.000000 0.000000 -0.052916 0.002293 0.102371
    5 0.000005 -0.000003 -3.319508 -0.004833 3.154152 -0.060903
    6 16.904898 0.000000 0.000000 0.000000 0.000000 -0.330841
    7 16.597540 0.000000 0.000000 -0.065759 -0.015835 0.216366
    8 3.488968 -0.004234 0.000004 -0.295500 -0.025204 -0.082641
    9 5.318531 -0.004538 0.000000 -0.251790 0.024161 0.092874
    10 5.701826 -0.005492 0.000000 -0.199132 0.024432 0.119652
    11 6.899484 -0.001818 0.000000 -0.436562 0.060217 0.187760
    12 -0.117188 -0.841849 1.816890 -1.495062 -1.016088 4.411359
    13 4.746895 0.000000 0.000000 -0.025752 1.288155 0.277931
    14 10.954378 0.000000 0.000000 0.000000 0.000000 -1.295822
    15 10.954373 0.000000 0.000000 -1.492687 0.832202 -0.160842
    16 0.117194 0.845717 -1.816890 -0.907645 1.265620 2.054629
    17 4.746896 0.000000 -0.000003 -0.818225 -0.955852 -0.252548
    18 10.954372 0.000000 0.000000 0.000000 0.000000 -0.806626
    19 10.954377 0.000000 0.000000 1.767889 -0.169629 0.443611
    20 2.428221 0.000000 0.000000 0.637596 -0.139758 -0.003353
    21 1.681022 0.975106 0.213387 0.000000 0.000001 -1.745239
  time 6
    0 -0.001589 0.006861 37.102846 0.000767 -0.026148 -1.601099
    1 0.000000 0.000000 0.000000 -1.570795 -1.570796 0.000000
    2 -0.000004 0.000006 3.319508 0.002911 -3.144999 -0.106922
    3 16.904898 0.000000 0.000000 0.000000 0.000000 -0.215958
    4 16.597540 0.000000 0.000000 -0.033644 0.002552 0.091630
    5 0.000005 -0.000003 -3.319508 -0.004641 3.156164 -0.054972
    6 16.904898 0.000000 0.000000 0.000000 0.000000 -0.319645
    7 16.597540 0.000000 0.000000 -0.046464 -0.016844 0.210960
    8 3.488968 -0.004234 0.000004 -0.231552 -0.014991 -0.063536
    9 5.318531 -0.004538 0.000000 -0.197129 0.014979 0.074139
    10 5.701826 -0.005492 0.000000 -0.154376 0.014717 0.093533
    11 6.899484 -0.001818 0.000000 -0.282150 0.020431 0.162285
    12 -0.039060 -0.556684 1.930175 -1.340034 -1.164474 4.288926
    13 4.746895 0.000000 0.000000 0.081109 1.263547 0.306360
    14 10.954378 0.000000 0.000000 0.000000 0.000000 -1.062943
    15 10.954373 0.000000 0.000000 -1.480745 0.517455 0.012940
    16 0.039067 0.560552 -1.930175 -0.821839 1.293410 2.171594
    17 4.746896 0.000000 -0.000003 -0.365061 -1.175307 -0.489553
    18 10.954372 0.000000 0.000000 0.000000 0.000000 -0.305027
    19 10.954377 0.000000 0.000000 1.829155 -0.015378 -0.195546
    20 2.428221 0.000000 0.000000 0.518875 -0.103609 0.040713
    21 1.681022 0.975106 0.213387 0.000000 0.000001 -1.745239
  time 7
    0 -0.001589 0.024072 37.149776 0.000287 -0.026148 -1.584150
    1 0.000000 0.000000 0.000000 -1.570795 -1.570796 0.000000
    2 -0.000004 0.000006 3.319508 0.003007 -3.144999 -0.091825
    3 16.904898 0.000000 0.000000 0.000000 0.000000 -0.181140
    4 16.597540 0.000000 0.000000 -0.016721 0.002811 0.071952
    5 0.000005 -0.000003 -3.319508 -0.004641 3.157793 -0.042334
    6 16.904898 0.000000 0.000000 0.000000 0.000000 -0.295612
    7 16.597540 0.000000 0.000000 -0.029557 -0.017661 0.199561
    8 3.488968 -0.004234 0.000004 -0.099955 -0.002734 -0.027310
    9 5.318531 -0.004538 0.000000 -0.085167 0.001615 0.018210
    10 5.701826 -0.005492 0.000000 -0.066636 0.001806 0.026304
    11 6.899484 -0.001818 0.000000 -0.112054 -0.011981 0.126036
    12 0.023441 -0.220736 1.996583 -1.010997 -1.306775 4.006092
    13 4.746895 0.000000 0.000000 0.414371 1.187272 0.392390
    14 10.954378 0.000000 0.000000 0.000000 0.000000 -0.865380
    15 10.954373 0.000000 0.000000 -1.523396 0.221840 0.140521
    16 -0.023435 0.224604 -1.996583 -0.649267 1.332218 2.377626
    17 4.746896 0.000000 -0.000003 -0.482675 -1.203023 0.075629
    18 10.954372 0.000000 0.000000 0.000000 0.000000 -0.479120
    19 10.954377 0.000000 0.000000 1.811480 -0.096625 0.118483
    20 2.428221 0.000000 0.000000 0.231702 -0.025578 0.127187
    21 1.681022 0.975106 0.213387 0.000000 0.000001 -1.745239
  time 8
    0 -0.001589 0.024072 37.196707 0.000000 -0.026148 -1.570839
    1 0.000000 0.000000 0.000000 -1.570795 -1.570796 0.000000
    2 -0.000004 0.000006 3.319508 0.003103 -3.144999 -0.077430
    3 16.904898 0.000000 0.000000 0.000000 0.000000 -0.149608
    4 16.597540 0.000000 0.000000 -0.003456 0.003069 0.054698
    5 0.000005 -0.000003 -3.319508 -0.004641 3.159135 -0.031493
    6 16.904898 0.000000 0.000000 0.000000 0.000000 -0.275573
    7 16.597540 0.000000 0.000000 -0.016312 -0.018315 0.190336
    8 3.488968 -0.004234 0.000004 -0.000004 -0.000001 0.000796
    9 5.318531 -0.004538 0.000000 0.000000 0.000000 -0.026167
    10 5.701826 -0.005492 0.000000 0.000000 0.000000 -0.026167
    11 6.899484 -0.001818 0.000000 0.000000 -0.026147 0.099378
    12 0.050786 0.001927 2.008302 -0.571514 -1.365031 3.600345
    13 4.746895 0.000000 0.000000 0.673374 1.128703 0.459654
    14 10.954378 0.000000 0.000000 0.000000 0.000000 -0.722739
    15 10.954373 0.000000 0.000000 -1.574103 0.019392 0.236566
    16 -0.050780 0.001941 -2.008302 -0.529234 1.350105 2.519998
    17 4.746896 0.000000 -0.000003 -0.653890 -1.177775 0.585670
    18 10.954372 0.000000 0.000000 0.000000 0.000000 -0.672043
    19 10.954377 0.000000 0.000000 1.767889 -0.169629 0.443611
    20 2.428221 0.000000 0.000000 0.004816 0.017451 0.116138
    21 1.681022 0.975106 0.213387 0.000000 0.000001 -1.745239
end
