version 1
nodes
  0 "Bip02" -1
  1 "Bip02 Pelvis" 0
  2 "Bip02 L Leg" 1
  3 "Bip02 L Leg1" 2
  4 "Bip02 L Foot" 3
  5 "Bip02 R Leg" 1
  6 "Bip02 R Leg1" 5
  7 "Bip02 R Foot" 6
  8 "Bip02 Spine" 1
  9 "Bip02 Spine1" 8
  10 "Bip02 Spine2" 9
  11 "Bip02 Neck" 10
  12 "Bip02 L Arm" 11
  13 "Bip02 L Arm1" 12
  14 "Bip02 L Arm2" 13
  15 "Bip02 L Hand" 14
  16 "Bip02 R Arm" 11
  17 "Bip02 R Arm1" 16
  18 "Bip02 R Arm2" 17
  19 "Bip02 R Hand" 18
  20 "Bip02 Head" 11
  21 "Bone01" 20
end
skeleton
  time 0
    0 -1.122249 0.006861 34.005427 0.000000 0.218000 -1.570839
    1 0.000000 0.000000 0.000000 -0.000019 -1.710327 -1.570788
    2 -0.000004 0.000006 3.319508 0.017388 -2.950113 -0.063299
    3 16.897085 0.000000 0.000000 0.000000 0.000000 -1.351680
    4 16.589727 0.000000 0.000000 0.052547 0.006099 -0.498180
    5 0.000005 -0.000003 -3.319508 0.088857 3.330256 -0.562417
    6 16.897085 0.000000 0.000000 0.000000 0.000000 -0.778835
    7 16.589727 0.000000 0.000000 0.009426 -0.071047 0.444236
    8 3.453811 -0.004234 -0.484385 0.013384 0.069106 0.096724
    9 5.318531 -0.004538 0.000000 -0.157525 0.103059 0.036644
    10 5.701826 -0.005492 0.000000 -0.208715 0.024991 0.074940
    11 6.899484 -0.001818 0.000000 0.000000 -0.000001 0.479686
    12 0.000003 0.001927 2.008302 -0.000013 -1.370797 2.661145
    13 4.746895 0.000000 0.000000 -0.382655 0.959445 -0.106048
    14 10.950472 0.000000 0.000000 0.000000 0.000000 -1.383466
    15 10.950467 0.000000 0.000000 -1.568795 0.000000 -0.348811
    16 0.000003 0.001941 -2.008302 -0.000013 1.370795 2.661123
    17 4.746896 0.000000 -0.000003 -0.910424 -0.544376 0.831850
    18 10.950466 0.000000 0.000000 0.000000 0.000000 -1.130735
    19 10.950471 0.000000 0.000000 1.568795 -0.130788 -0.156924
    20 2.428221 0.000000 0.000000 0.372464 0.005285 -0.686263
    21 1.681022 0.975106 0.213387 0.000000 0.000001 -1.745239
  time 1
    0 -1.105008 -4.693460 35.366414 0.000000 0.218000 -1.570839
    1 0.000000 0.000000 0.000000 -0.000019 -1.536671 -1.570788
    2 -0.000004 0.000006 3.319508 0.033206 -3.113940 -0.808049
    3 16.897085 0.000000 0.000000 0.000000 0.000000 -1.625001
    4 16.589727 0.000000 0.000000 0.031044 -0.070820 0.364709
    5 0.000005 -0.000003 -3.319508 0.007800 3.174465 -0.288886
    6 16.897085 0.000000 0.000000 0.000000 0.000000 -0.530948
    7 16.589727 0.000000 0.000000 -0.012911 -0.066742 0.460571
    8 3.488968 -0.004234 0.117195 -0.000915 -0.089535 0.026110
    9 5.318531 -0.004538 0.000000 -0.125021 0.079518 0.020671
    10 5.701826 -0.005492 0.000000 -0.165149 0.026717 0.116782
    11 6.899484 -0.001818 0.000000 0.080161 -0.033388 0.393173
    12 0.066412 0.162088 2.000489 0.412913 -1.352998 2.342070
    13 4.746895 0.000000 0.000000 -0.154634 1.009569 0.061832
    14 10.950472 0.000000 0.000000 0.000000 0.000000 -1.336021
    15 10.950467 0.000000 0.000000 -1.570406 0.013790 -0.327915
    16 -0.066405 -0.158220 -2.000489 0.306590 1.361314 3.046533
    17 4.746896 0.000000 -0.000003 -0.872780 -0.561556 0.884412
    18 10.950466 0.000000 0.000000 0.000000 0.000000 -1.262077
    19 10.950471 0.000000 0.000000 1.570260 -0.108356 -0.188688
    20 2.428221 0.000000 0.000000 0.346997 -0.034553 -0.557000
    21 1.681022 0.975106 0.213387 0.000000 0.000001 -1.745239
  time 2
    0 -0.536057 -9.101204 36.727401 0.000000 0.218000 -1.570839
    1 0.000000 0.000000 0.000000 -0.000019 -1.431265 -1.570788
    2 -0.000004 0.000006 3.319508 -0.051447 -3.184398 -0.891345
    3 16.897085 0.000000 0.000000 0.000000 0.000000 -1.392551
    4 16.589727 0.000000 0.000000 0.016619 -0.070598 0.257999
    5 0.000005 -0.000003 -3.319508 -0.015934 3.031129 -0.195894
    6 16.897085 0.000000 0.000000 0.000000 0.000000 -0.524458
    7 16.589727 0.000000 0.000000 -0.003950 -0.028344 0.264314
    8 3.453811 -0.004234 0.484394 0.005636 -0.175474 -0.040830
    9 5.318531 -0.004538 0.000000 -0.081135 0.050246 0.005854
    10 5.701826 -0.005492 0.000000 -0.106739 0.021540 0.156633
    11 6.899484 -0.001818 0.000000 0.171090 -0.049792 0.279816
    12 0.097662 0.341781 1.977051 0.736198 -1.303778 2.138430
    13 4.746895 0.000000 0.000000 0.150793 1.012474 0.296140
    14 10.950472 0.000000 0.000000 0.000000 0.000000 -1.271336
    15 10.950467 0.000000 0.000000 -1.572302 0.032664 -0.300309
    16 -0.097656 -0.337913 -1.977051 0.584047 1.332448 3.427725
    17 4.746896 0.000000 -0.000003 -0.814689 -0.645275 0.916331
    18 10.950466 0.000000 0.000000 0.000000 0.000000 -1.331066
    19 10.950471 0.000000 0.000000 1.570260 -0.075857 -0.210436
    20 2.428221 0.000000 0.000000 0.290414 -0.051057 -0.399573
    21 1.681022 0.975106 0.213387 0.000000 0.000001 -1.745239
  time 3
    0 0.153580 -17.708294 37.666013 0.000000 0.218000 -1.570839
    1 0.000000 0.000000 0.000000 -0.000019 -1.435425 -1.570788
    2 -0.000004 0.000006 3.319508 -0.053940 -3.185932 -0.891521
    3 16.897085 0.000000 0.000000 0.000000 0.000000 -1.132082
    4 16.589727 0.000000 0.000000 0.010909 -0.064539 0.064884
    5 0.000005 -0.000003 -3.319508 0.000239 3.016374 -0.114569
    6 16.897085 0.000000 0.000000 0.000000 0.000000 -0.686127
    7 16.589727 0.000000 0.000000 -0.004702 -0.017525 -0.086128
    8 3.457717 -0.004234 0.468769 0.013555 -0.152141 -0.100864
    9 5.318531 -0.004538 0.000000 -0.039176 0.023696 -0.007834
    10 5.701826 -0.005492 0.000000 -0.051320 0.012048 0.189135
    11 6.899484 -0.001818 0.000000 0.247247 -0.047422 0.184895
    12 0.093756 0.490223 1.945800 0.912893 -1.250699 2.062592
    13 4.746895 0.000000 0.000000 0.449928 0.952090 0.543083
    14 10.950472 0.000000 0.000000 0.000000 0.000000 -1.195744
    15 10.950467 0.000000 0.000000 -1.573723 0.054814 -0.268102
    16 -0.093750 -0.486355 -1.945800 0.754222 1.299514 3.685720
    17 4.746896 0.000000 -0.000003 -0.761089 -0.726906 0.938694
    18 10.950466 0.000000 0.000000 0.000000 0.000000 -1.373663
    19 10.950471 0.000000 0.000000 1.569711 -0.048669 -0.225144
    20 2.428221 0.000000 0.000000 0.235869 -0.042680 -0.262263
    21 1.681022 0.975106 0.213387 0.000000 0.000001 -1.745239
  time 4
    0 0.348977 -30.050049 38.088388 0.000000 0.218000 -1.570839
    1 0.000000 0.000000 0.000000 -0.000019 -1.458656 -1.570788
    2 -0.000004 0.000006 3.319508 -0.040710 -3.177592 -0.890555
    3 16.897085 0.000000 0.000000 0.000000 0.000000 -0.839111
    4 16.589727 0.000000 0.000000 0.001213 -0.057853 -0.111671
    5 0.000005 -0.000003 -3.319508 0.011149 3.018577 -0.029938
    6 16.897085 0.000000 0.000000 0.000000 0.000000 -0.828826
    7 16.589727 0.000000 0.000000 -0.014742 -0.010603 -0.438275
    8 3.465530 -0.004234 0.386735 0.017514 -0.110768 -0.157149
    9 5.318531 -0.004538 0.000000 0.000000 0.000000 -0.017452
    10 5.701826 -0.005492 0.000000 0.000000 0.000000 0.209309
    11 6.899484 -0.001818 0.000000 0.311889 -0.034283 0.105171
    12 0.066412 0.615227 1.910643 1.021230 -1.200571 2.040733
    13 4.746895 0.000000 0.000000 0.685480 0.831502 0.746268
    14 10.950472 0.000000 0.000000 0.000000 0.000000 -1.112676
    15 10.950467 0.000000 0.000000 -1.574576 0.079118 -0.232540
    16 -0.066405 -0.611359 -1.910643 0.862367 1.268767 3.869700
    17 4.746896 0.000000 -0.000003 -0.705196 -0.804645 0.945383
    18 10.950466 0.000000 0.000000 0.000000 0.000000 -1.407772
    19 10.950471 0.000000 0.000000 1.568978 -0.024731 -0.236695
    20 2.428221 0.000000 0.000000 0.193177 -0.014958 -0.140153
    21 1.681022 0.975106 0.213387 0.000000 0.000001 -1.745239
  time 5
    0 0.446676 -43.097432 37.290568 0.000000 0.218000 -1.570839
    1 0.000000 0.000000 0.000000 -0.000019 -1.485907 -1.570788
    2 -0.000004 0.000006 3.319508 -0.020673 -3.170977 -0.910743
    3 16.897085 0.000000 0.000000 0.000000 0.000000 -0.459018
    4 16.589727 0.000000 0.000000 -0.022610 -0.046326 -0.201889
    5 0.000005 -0.000003 -3.319508 0.032586 3.063897 0.049249
    6 16.897085 0.000000 0.000000 0.000000 0.000000 -0.957119
    7 16.589727 0.000000 0.000000 0.011257 -0.027036 -0.764273
    8 3.477249 -0.004234 0.292982 0.013213 -0.083839 -0.156745
    9 5.318531 -0.004538 0.000000 0.000000 0.000000 0.006632
    10 5.701826 -0.005492 0.000000 0.000000 0.000000 0.154174
    11 6.899484 -0.001818 0.000000 0.369269 -0.014035 0.035537
    12 0.027348 0.724605 1.875486 1.096874 -1.152805 2.043321
    13 4.746895 0.000000 0.000000 0.843341 0.712458 0.967012
    14 10.950472 0.000000 0.000000 0.000000 0.000000 -1.025413
    15 10.950467 0.000000 0.000000 -1.574387 0.104715 -0.194295
    16 -0.027341 -0.720738 -1.875486 0.933505 1.242435 4.009675
    17 4.746896 0.000000 -0.000003 -0.584143 -0.870140 0.794292
    18 10.950466 0.000000 0.000000 0.000000 0.000000 -1.442884
    19 10.950471 0.000000 0.000000 1.568245 -0.003250 -0.246170
    20 2.428221 0.000000 0.000000 0.256798 -0.003939 -0.037777
    21 1.681022 0.975106 0.213387 0.000000 0.000001 -1.745239
  time 6
    0 0.567362 -56.230868 35.647998 0.000000 0.218000 -1.570839
    1 0.000000 0.000000 0.000000 -0.000019 -1.518798 -1.570788
    2 -0.000004 0.000006 3.319508 0.005116 -3.166760 -0.923470
    3 16.897085 0.000000 0.000000 0.000000 0.000000 -0.067567
    4 16.589727 0.000000 0.000000 -0.042804 -0.019430 -0.226972
    5 0.000005 -0.000003 -3.319508 0.046271 3.116594 0.118130
    6 16.897085 0.000000 0.000000 0.000000 0.000000 -1.092401
    7 16.589727 0.000000 0.000000 0.042522 -0.022730 -0.970696
    8 3.485062 -0.004234 0.179697 0.008086 -0.051357 -0.156378
    9 5.318531 -0.004538 0.000000 0.000000 0.000000 0.052315
    10 5.701826 -0.005492 0.000000 0.000000 0.000000 0.078483
    11 6.895578 -0.001818 0.000000 0.401217 -0.000264 -0.000152
    12 0.000003 0.783201 1.848141 1.132730 -1.124926 2.048882
    13 4.746895 0.000000 0.000000 0.950107 0.573256 1.140188
    14 10.950472 0.000000 0.000000 0.000000 0.000000 -0.938608
    15 10.950467 0.000000 0.000000 -1.573155 0.129967 -0.154803
    16 0.000003 -0.779333 -1.848141 0.948270 1.236217 4.061926
    17 4.746896 0.000000 -0.000003 -0.420094 -0.923105 0.574106
    18 10.950466 0.000000 0.000000 0.000000 0.000000 -1.483398
    19 10.950471 0.000000 0.000000 1.568795 0.000000 -0.247614
    20 2.428221 0.000000 0.000000 0.357739 0.013612 0.031389
    21 1.681022 0.975106 0.213387 0.000000 0.000001 -1.745239
  time 7
    0 0.797241 -69.863406 34.193150 0.000000 0.218000 -1.570839
    1 0.000000 0.000000 0.000000 -0.000019 -1.542065 -1.570788
    2 -0.000004 0.000006 3.319508 0.012498 -3.173374 -0.909953
    3 16.897085 0.000000 0.000000 0.000000 0.000000 -0.135860
    4 16.589727 0.000000 0.000000 -0.037242 0.007244 -0.053674
    5 0.000005 -0.000003 -3.319508 0.038040 3.125792 0.125178
    6 16.897085 0.000000 0.000000 0.000000 0.000000 -1.291509
    7 16.589727 0.000000 0.000000 0.015639 -0.033222 -0.364767
    8 3.488968 -0.004234 0.097664 -0.000004 0.034179 0.002560
    9 5.318531 -0.004538 0.000000 0.079958 -0.063875 0.079765
    10 5.701826 -0.005492 0.000000 0.096492 -0.041450 0.129753
    11 6.899484 -0.001818 0.000000 0.320780 -0.041366 0.123109
    12 0.082037 0.630852 1.906737 1.035611 -1.192444 2.008135
    13 4.746895 0.000000 0.000000 0.870700 0.623289 0.956978
    14 10.950472 0.000000 0.000000 0.000000 0.000000 -0.861795
    15 10.950467 0.000000 0.000000 -1.571070 0.152117 -0.117037
    16 -0.082031 -0.626985 -1.906737 0.667936 1.318131 3.663381
    17 4.746896 0.000000 -0.000003 0.347025 -0.884188 -0.206006
    18 10.950466 0.000000 0.000000 0.000000 0.000000 -1.523526
    19 10.950471 0.000000 0.000000 1.576213 -0.136178 -0.192027
    20 2.428221 0.000000 0.000000 0.425990 -0.022537 -0.313610
    21 1.681022 0.975106 0.213387 0.000000 0.000001 -1.745239
  time 8
    0 1.073096 -82.635422 33.676913 0.000000 0.218000 -1.570839
    1 0.000000 0.000000 0.000000 -0.000019 -1.412404 -1.570788
    2 -0.000004 0.000006 3.319508 -0.074073 -3.325985 -0.647952
    3 16.897085 0.000000 0.000000 0.000000 0.000000 -0.001815
    4 16.589727 0.000000 0.000000 -0.042596 0.044041 -0.411912
    5 0.000005 -0.000003 -3.319508 0.021485 2.968371 0.016680
    6 16.897085 0.000000 0.000000 0.000000 0.000000 -1.560933
    7 16.589727 0.000000 0.000000 -0.016900 -0.017062 0.104546
    8 3.445998 -0.004234 0.546896 -0.013449 -0.061858 0.085518
    9 5.318531 -0.004538 0.000000 0.122059 -0.098324 0.084586
    10 5.701826 -0.005492 0.000000 0.146344 -0.068582 0.164071
    11 6.899484 -0.001818 0.000000 0.109927 -0.049818 0.423007
    12 0.097662 0.220683 1.996583 0.547903 -1.337651 2.179177
    13 4.746895 0.000000 0.000000 0.840291 0.628646 0.871783
    14 10.950472 0.000000 0.000000 0.000000 0.000000 -0.813129
    15 10.950467 0.000000 0.000000 -1.568795 0.165648 -0.087131
    16 -0.097656 -0.216816 -1.996583 -0.264623 1.363809 2.455858
    17 4.746896 0.000000 -0.000003 0.535533 -0.653723 -0.520422
    18 10.950466 0.000000 0.000000 0.000000 0.000000 -1.484632
    19 10.950471 0.000000 0.000000 1.568795 -0.305252 -0.087170
    20 2.428221 0.000000 0.000000 0.694364 0.024182 -0.695077
    21 1.681022 0.975106 0.213387 0.000000 0.000001 -1.745239
  time 9
    0 1.394927 -90.020571 34.005427 0.000000 0.218000 -1.570839
    1 0.000000 0.000000 0.000000 -0.000019 -1.531771 -1.570788
    2 -0.000004 0.000006 3.319508 -0.043107 -3.237505 -0.793830
    3 16.897085 0.000000 0.000000 0.000000 0.000000 -0.724343
    4 16.589727 0.000000 0.000000 -0.024216 0.065912 0.153161
    5 0.000005 -0.000003 -3.319508 -0.007512 3.071466 -0.204498
    6 16.897085 0.000000 0.000000 0.000000 0.000000 -1.596019
    7 16.589727 0.000000 0.000000 -0.031944 0.000461 0.051369
    8 3.485062 -0.004234 0.132821 -0.002368 0.050233 0.062189
    9 5.318531 -0.004538 0.000000 0.114424 -0.091665 0.082452
    10 5.701826 -0.005492 0.000000 0.137675 -0.062702 0.157599
    11 6.899484 -0.001818 0.000000 0.000000 -0.000001 0.540724
    12 0.000003 0.001927 2.008302 0.050896 -1.370570 2.550217
    13 4.746895 0.000000 0.000000 0.873751 0.592052 0.922696
    14 10.950472 0.000000 0.000000 0.000000 0.000000 -0.810307
    15 10.950467 0.000000 0.000000 -1.567278 0.158580 -0.068631
    16 0.000003 0.001941 -2.008302 -0.374590 1.356362 2.233241
    17 4.746896 0.000000 -0.000003 0.399288 -0.971135 -0.214703
    18 10.950466 0.000000 0.000000 0.000000 0.000000 -1.348275
    19 10.950471 0.000000 0.000000 1.564399 -0.148940 -0.028064
    20 2.428221 0.000000 0.000000 0.900877 0.071400 -0.755238
    21 1.681022 0.975106 0.213387 0.000000 0.000001 -1.745239
  time 10
    0 1.044361 -100.245443 34.615525 0.000000 0.218000 -1.570839
    1 0.000000 0.000000 0.000000 -0.000019 -1.654099 -1.570788
    2 -0.000004 0.000006 3.319508 0.017675 -3.122663 -0.488469
    3 16.897085 0.000000 0.000000 0.000000 0.000000 -0.776123
    4 16.589727 0.000000 0.000000 0.006121 0.058338 0.508350
    5 0.000005 -0.000003 -3.319508 0.014786 3.176764 -0.391163
    6 16.897085 0.000000 0.000000 0.000000 0.000000 -1.606788
    7 16.589727 0.000000 0.000000 -0.042867 0.014087 -0.032128
    8 3.477249 -0.004234 -0.289067 0.001933 0.160367 0.022509
    9 5.318531 -0.004538 0.000000 0.100545 -0.079673 0.078584
    10 5.701826 -0.005492 0.000000 0.121639 -0.052523 0.146063
    11 6.899484 -0.001818 0.000000 0.000000 -0.000001 0.480371
    12 0.000003 0.001927 2.008302 0.141400 -1.368845 2.521838
    13 4.746895 0.000000 0.000000 0.869652 0.610304 0.894917
    14 10.950472 0.000000 0.000000 0.000000 0.000000 -0.870949
    15 10.950467 0.000000 0.000000 -1.567278 0.122641 -0.066139
    16 0.000003 0.001941 -2.008302 -0.000013 1.370795 2.660356
    17 4.746896 0.000000 -0.000003 -0.287193 -1.131359 0.627623
    18 10.950466 0.000000 0.000000 0.000000 0.000000 -1.202811
    19 10.950471 0.000000 0.000000 1.568795 0.000000 0.000000
    20 2.428221 0.000000 0.000000 0.946254 0.071798 -0.644432
    21 1.681022 0.975106 0.213387 0.000000 0.000001 -1.745239
  time 11
    0 0.906434 -107.785486 35.319484 0.000000 0.218000 -1.570839
    1 0.000000 0.000000 0.000000 -0.000019 -1.719070 -1.570788
    2 -0.000004 0.000006 3.319508 -0.001020 -3.042811 -0.061982
    3 16.897085 0.000000 0.000000 0.000000 0.000000 -0.340365
    4 16.589727 0.000000 0.000000 0.017839 0.046885 0.499966
    5 0.000005 -0.000003 -3.319508 0.045696 3.217772 -0.580549
    6 16.897085 0.000000 0.000000 0.000000 0.000000 -1.606716
    7 16.589727 0.000000 0.000000 -0.052743 0.027659 -0.119386
    8 3.449904 -0.004234 -0.511730 -0.002511 0.212845 -0.017354
    9 5.318531 -0.004538 0.000000 0.085845 -0.067238 0.074440
    10 5.701826 -0.005492 0.000000 0.104523 -0.042488 0.134175
    11 6.899484 -0.001818 0.000000 0.000000 -0.000001 0.377727
    12 0.000003 0.001927 2.008302 0.257215 -1.364213 2.511100
    13 4.746895 0.000000 0.000000 0.815601 0.681494 0.780643
    14 10.950472 0.000000 0.000000 0.000000 0.000000 -0.978273
    15 10.950467 0.000000 0.000000 -1.567847 0.084203 -0.074957
    16 0.000003 0.001941 -2.008302 -0.000013 1.370795 2.763036
    17 4.746896 0.000000 -0.000003 -0.638411 -1.031883 1.005113
    18 10.950466 0.000000 0.000000 0.000000 0.000000 -1.124485
    19 10.950471 0.000000 0.000000 1.568795 0.000000 0.000000
    20 2.428221 0.000000 0.000000 0.976166 0.065965 -0.497861
    21 1.681022 0.975106 0.213387 0.000000 0.000001 -1.745239
  time 12
    0 0.745518 -114.000326 36.070373 0.000000 0.218000 -1.570839
    1 0.000000 0.000000 0.000000 -0.000019 -1.709305 -1.570788
    2 -0.000004 0.000006 3.319508 -0.030931 -3.051726 0.157010
    3 16.897085 0.000000 0.000000 0.000000 0.000000 -0.246294
    4 16.589727 0.000000 0.000000 0.009065 0.046922 0.241300
    5 0.000005 -0.000003 -3.319508 0.041868 3.187878 -0.804498
    6 16.897085 0.000000 0.000000 0.000000 0.000000 -1.580544
    7 16.589727 0.000000 0.000000 -0.060461 0.046599 -0.193835
    8 3.453811 -0.004234 -0.480479 -0.007638 0.190145 -0.055673
    9 5.318531 -0.004538 0.000000 0.070467 -0.054450 0.070045
    10 5.701826 -0.005492 0.000000 0.086355 -0.032757 0.122140
    11 6.899484 -0.001818 0.000000 0.000000 -0.000001 0.266300
    12 0.000003 0.001927 2.008302 0.368045 -1.356858 2.514168
    13 4.746895 0.000000 0.000000 0.746108 0.748053 0.656986
    14 10.950472 0.000000 0.000000 0.000000 0.000000 -1.081249
    15 10.950467 0.000000 0.000000 -1.568037 0.078601 -0.080133
    16 0.000003 0.001941 -2.008302 -0.000013 1.370795 2.874537
    17 4.746896 0.000000 -0.000003 -0.805517 -0.904216 1.164709
    18 10.950466 0.000000 0.000000 0.000000 0.000000 -1.065219
    19 10.950471 0.000000 0.000000 1.568795 0.000000 0.000000
    20 2.428221 0.000000 0.000000 0.996262 0.056890 -0.345543
    21 1.681022 0.975106 0.213387 0.000000 0.000001 -1.745239
  time 13
    0 0.458170 -127.409128 36.868193 0.000000 0.218000 -1.570839
    1 0.000000 0.000000 0.000000 -0.000019 -1.663300 -1.570788
    2 -0.000004 0.000006 3.319508 -0.033807 -3.098506 0.151305
    3 16.897085 0.000000 0.000000 0.000000 0.000000 -0.449827
    4 16.589727 0.000000 0.000000 -0.011813 0.050839 -0.169322
    5 0.000005 -0.000003 -3.319508 0.011915 3.152523 -0.950912
    6 16.897085 0.000000 0.000000 0.000000 0.000000 -1.273538
    7 16.589727 0.000000 0.000000 -0.016246 0.074641 0.082159
    8 3.473343 -0.004234 -0.320318 -0.008692 0.129352 -0.094691
    9 5.318531 -0.004538 0.000000 0.052377 -0.039781 0.064922
    10 5.701826 -0.005492 0.000000 0.064725 -0.022387 0.108671
    11 6.899484 -0.001818 0.000000 0.000000 -0.000001 0.146092
    12 0.000003 0.001927 2.008302 0.468903 -1.347368 2.535931
    13 4.746895 0.000000 0.000000 0.672897 0.803353 0.542433
    14 10.950472 0.000000 0.000000 0.000000 0.000000 -1.176217
    15 10.950467 0.000000 0.000000 -1.567942 0.109196 -0.079654
    16 0.000003 0.001941 -2.008302 -0.000013 1.370795 2.994666
    17 4.746896 0.000000 -0.000003 -0.903736 -0.766678 1.241163
    18 10.950466 0.000000 0.000000 0.000000 0.000000 -1.011432
    19 10.950471 0.000000 0.000000 1.568795 0.000000 0.000000
    20 2.428221 0.000000 0.000000 1.008856 0.043927 -0.182878
    21 1.681022 0.975106 0.213387 0.000000 0.000001 -1.745239
  time 14
    0 0.147833 -142.125923 37.666013 0.000000 0.218000 -1.570839
    1 0.000000 0.000000 0.000000 -0.000019 -1.615215 -1.570788
    2 -0.000004 0.000006 3.319508 -0.035054 -3.146245 0.124798
    3 16.897085 0.000000 0.000000 0.000000 0.000000 -0.655229
    4 16.589727 0.000000 0.000000 -0.033822 0.045925 -0.524164
    5 0.000005 -0.000003 -3.319508 -0.019475 3.157889 -0.956989
    6 16.897085 0.000000 0.000000 0.000000 0.000000 -0.585646
    7 16.589727 0.000000 0.000000 0.043699 0.035970 0.061946
    8 3.485062 -0.004234 -0.152344 -0.005900 0.063611 -0.133893
    9 5.318531 -0.004538 0.000000 0.029114 -0.021550 0.058618
    10 5.701826 -0.005492 0.000000 0.036420 -0.010882 0.093006
    11 6.895578 -0.001818 0.000000 0.000000 -0.000001 0.017973
    12 0.000003 0.001927 2.008302 0.563818 -1.335426 2.571597
    13 4.746895 0.000000 0.000000 0.572232 0.858834 0.409206
    14 10.950472 0.000000 0.000000 0.000000 0.000000 -1.278049
    15 10.950467 0.000000 0.000000 -1.567847 0.154874 -0.079079
    16 0.000003 0.001941 -2.008302 -0.000013 1.370795 3.122752
    17 4.746896 0.000000 -0.000003 -0.976063 -0.604650 1.281014
    18 10.950466 0.000000 0.000000 0.000000 0.000000 -0.946687
    19 10.950471 0.000000 0.000000 1.568795 0.000000 0.000000
    20 2.428221 0.000000 0.000000 1.007745 0.024731 -0.010890
    21 1.681022 0.975106 0.213387 0.000000 0.000001 -1.745239
  time 15
    0 -0.202733 -156.068249 38.088388 0.000000 0.218000 -1.570839
    1 0.000000 0.000000 0.000000 -0.000019 -1.591666 -1.570788
    2 -0.000004 0.000006 3.319508 -0.038217 -3.162062 0.096008
    3 16.897085 0.000000 0.000000 0.000000 0.000000 -0.922646
    4 16.589727 0.000000 0.000000 -0.047503 0.027600 -0.842005
    5 0.000005 -0.000003 -3.319508 -0.029140 3.177818 -0.916302
    6 16.897085 0.000000 0.000000 0.000000 0.000000 -0.052932
    7 16.589727 0.000000 0.000000 0.047656 -0.019432 -0.035360
    8 3.488968 -0.004234 -0.070310 -0.003251 0.020628 -0.156231
    9 5.318531 -0.004538 0.000000 0.000000 0.000000 0.052315
    10 5.701826 -0.005492 0.000000 0.000000 0.000000 0.078483
    11 6.895578 -0.001818 0.000000 0.000000 -0.000001 -0.078443
    12 0.000003 0.001927 2.008302 0.651542 -1.321169 2.582815
    13 4.746895 0.000000 0.000000 0.404362 0.908776 0.226182
    14 10.950472 0.000000 0.000000 0.000000 0.000000 -1.383542
    15 10.950467 0.000000 0.000000 -1.567752 0.207620 -0.079079
    16 0.000003 0.001941 -2.008302 -0.000013 1.370795 3.219201
    17 4.746896 0.000000 -0.000003 -1.021923 -0.441768 1.291049
    18 10.950466 0.000000 0.000000 0.000000 0.000000 -0.861956
    19 10.950471 0.000000 0.000000 1.568795 0.000000 0.000000
    20 2.428221 0.000000 0.000000 0.968109 0.000000 0.112562
    21 1.681022 0.975106 0.213387 0.000000 0.000001 -1.745239
  time 16
    0 -0.633756 -166.878275 36.586609 0.000000 0.218000 -1.570839
    1 0.000000 0.000000 0.000000 -3.141571 -1.534697 1.570788
    2 -0.000004 0.000006 3.319508 -0.006676 -3.073486 0.110140
    3 16.897085 0.000000 0.000000 0.000000 0.000000 -1.375889
    4 16.589727 0.000000 0.000000 0.031758 0.006394 -0.309014
    5 0.000005 -0.000003 -3.319508 -0.008469 3.222371 -0.780727
    6 16.897085 0.000000 0.000000 0.000000 0.000000 0.102889
    7 16.589727 0.000000 0.000000 0.043601 -0.047911 -0.290494
    8 3.485062 -0.004234 -0.124999 -0.002482 0.000459 -0.068422
    9 5.318531 -0.004538 0.000000 -0.073393 0.049516 0.048824
    10 5.701826 -0.005492 0.000000 -0.096658 0.013646 0.070958
    11 6.895578 -0.001818 0.000000 0.000000 -0.000001 -0.034907
    12 0.000003 0.001927 2.008302 0.733034 -1.304505 2.460477
    13 4.746895 0.000000 0.000000 -0.030900 0.904781 -0.095271
    14 10.950472 0.000000 0.000000 0.000000 0.000000 -1.492240
    15 10.950467 0.000000 0.000000 -1.567847 0.263812 -0.080709
    16 0.000003 0.001941 -2.008302 -0.000013 1.370795 3.175674
    17 4.746896 0.000000 -0.000003 -0.996413 -0.402281 1.134510
    18 10.950466 0.000000 0.000000 0.000000 0.000000 -0.652288
    19 10.950471 0.000000 0.000000 1.568795 0.000000 0.000000
    20 2.428221 0.000000 0.000000 0.717701 -0.029318 -0.018042
    21 1.681022 0.975106 0.213387 0.000000 0.000001 -1.745239
  time 17
    0 -1.122249 -178.789770 34.005427 0.000000 0.218000 -1.570839
    1 0.000000 0.000000 0.000000 -0.000019 -1.710327 -1.570788
    2 -0.000004 0.000006 3.319508 0.017388 -2.950113 -0.063299
    3 16.897085 0.000000 0.000000 0.000000 0.000000 -1.351680
    4 16.589727 0.000000 0.000000 0.052547 0.006099 -0.498180
    5 0.000005 -0.000003 -3.319508 0.088857 3.330256 -0.562417
    6 16.897085 0.000000 0.000000 0.000000 0.000000 -0.778835
    7 16.589727 0.000000 0.000000 0.009426 -0.071047 0.444236
    8 3.481155 -0.004234 -0.484385 0.013384 0.069106 0.096724
    9 5.318531 -0.004538 0.000000 -0.157525 0.103059 0.036644
    10 5.701826 -0.005492 0.000000 -0.208715 0.024991 0.074940
    11 6.899484 -0.001818 0.000000 0.000000 -0.000001 0.479686
    12 0.000003 0.001927 2.008302 -0.000013 -1.370797 2.661145
    13 4.746895 0.000000 0.000000 -0.382655 0.959445 -0.106048
    14 10.950472 0.000000 0.000000 0.000000 0.000000 -1.383466
    15 10.950467 0.000000 0.000000 -1.568795 0.000000 -0.348811
    16 0.000003 0.001941 -2.008302 -0.000013 1.370795 2.661123
    17 4.746896 0.000000 -0.000003 -0.910424 -0.544376 0.831850
    18 10.950466 0.000000 0.000000 0.000000 0.000000 -1.130735
    19 10.950471 0.000000 0.000000 1.568795 -0.130788 -0.156924
    20 2.428221 0.000000 0.000000 0.372464 0.005285 -0.686263
    21 1.681022 0.975106 0.213387 0.000000 0.000001 -1.745239
end
