version 1
nodes
  0 "Bip02" -1
  1 "Bip02 Pelvis" 0
  2 "Bip02 L Leg" 1
  3 "Bip02 L Leg1" 2
  4 "Bip02 L Foot" 3
  5 "Bip02 R Leg" 1
  6 "Bip02 R Leg1" 5
  7 "Bip02 R Foot" 6
  8 "Bip02 Spine" 1
  9 "Bip02 Spine1" 8
  10 "Bip02 Spine2" 9
  11 "Bip02 Neck" 10
  12 "Bip02 L Arm" 11
  13 "Bip02 L Arm1" 12
  14 "Bip02 L Arm2" 13
  15 "Bip02 L Hand" 14
  16 "Bip02 R Arm" 11
  17 "Bip02 R Arm1" 16
  18 "Bip02 R Arm2" 17
  19 "Bip02 R Hand" 18
  20 "Bip02 Head" 11
  21 "Bone01" 20
end
skeleton
  time 0
    0 -0.208480 -1.180659 31.518107 0.000000 -0.026148 -1.570839
    1 -1.398480 0.050783 0.000000 -1.570795 -1.570796 0.000000
    2 -0.000004 0.000006 3.077313 -0.104272 -2.831628 -0.541835
    3 16.897085 0.000000 0.000000 0.000000 0.000000 -1.107276
    4 16.589727 0.000000 0.000000 -0.178782 -0.203303 0.505301
    5 0.000005 -0.000003 -3.077313 0.190106 2.808077 -0.567424
    6 16.897085 0.000000 0.000000 0.000000 0.000000 -1.136901
    7 16.589727 0.000000 0.000000 -0.055425 0.152008 0.456634
    8 3.488968 -0.004234 0.000004 -0.000004 -0.000001 0.035662
    9 5.318531 -0.004538 0.000000 -0.050986 0.011793 0.226456
    10 5.701826 -0.005492 0.000000 -0.034869 0.000320 0.008706
    11 6.899484 -0.001818 0.000000 0.000000 -0.026147 0.099378
    12 0.050786 0.001927 2.008302 -2.015078 -1.448032 5.056604
    13 4.746895 0.000000 0.000000 -0.881310 -0.478253 -0.630315
    14 10.950472 0.000000 0.000000 0.000000 0.000000 -1.837249
    15 10.950467 0.000000 0.000000 -2.836277 -0.065156 0.502751
    16 -0.050780 0.001941 -2.008302 -1.879417 1.454513 1.157160
    17 4.746896 0.000000 -0.000003 0.805252 -0.093507 -1.135490
    18 10.950466 0.000000 0.000000 0.000000 0.000000 -1.817617
    19 10.950471 0.000000 0.000000 2.959703 0.245724 0.111264
    20 2.428221 0.000000 0.000000 0.082790 -0.015357 0.139960
    21 1.681022 0.975106 0.213387 0.000000 0.000001 -1.745239
  time 1
    0 -0.622262 -1.180659 31.799690 0.002779 -0.025957 -1.679718
    1 -1.398480 0.050783 0.000000 -1.570795 -1.570796 0.000000
    2 -0.000004 0.000006 3.077313 -0.124788 -2.839106 -0.473811
    3 16.897085 0.000000 0.000000 0.000000 0.000000 -1.107276
    4 16.589727 0.000000 0.000000 -0.164863 -0.214682 0.503569
    5 0.000005 -0.000003 -3.077313 0.202260 2.819957 -0.584243
    6 16.897085 0.000000 0.000000 0.000000 0.000000 -1.115935
    7 16.589727 0.000000 0.000000 -0.168055 0.124130 0.424081
    8 3.488968 -0.004234 0.000004 -0.000004 -0.000001 0.035662
    9 5.318531 -0.004538 0.000000 -0.050986 0.011793 0.226456
    10 5.701826 -0.005492 0.000000 -0.034869 0.000320 0.008706
    11 6.899484 -0.001818 0.000000 0.000000 -0.026147 0.099378
    12 0.050786 0.001927 2.008302 -2.015078 -1.448032 5.056604
    13 4.746895 0.000000 0.000000 -0.881310 -0.478253 -0.630315
    14 10.950472 0.000000 0.000000 0.000000 0.000000 -1.837249
    15 10.950467 0.000000 0.000000 -2.836277 -0.065156 0.502751
    16 -0.050780 0.001941 -2.008302 -1.879417 1.454513 1.157160
    17 4.746896 0.000000 -0.000003 0.804679 -0.099582 -1.129565
    18 10.950466 0.000000 0.000000 0.000000 0.000000 -1.817617
    19 10.950471 0.000000 0.000000 2.959703 0.245724 0.111264
    20 2.428221 0.000000 0.000000 0.082420 -0.017102 0.160652
    21 1.681022 0.975106 0.213387 0.000000 0.000001 -1.745239
  time 2
    0 -1.852115 -1.180659 32.128204 0.006899 -0.025191 -1.838297
    1 -1.398480 0.050783 0.000000 -1.570795 -1.570796 0.000000
    2 -0.000004 0.000006 3.077313 -0.153549 -2.852334 -0.375330
    3 16.897085 0.000000 0.000000 0.000000 0.000000 -1.107276
    4 16.589727 0.000000 0.000000 -0.143241 -0.229571 0.500520
    5 0.000005 -0.000003 -3.077313 0.234702 2.857037 -0.597709
    6 16.897085 0.000000 0.000000 0.000000 0.000000 -1.095753
    7 16.589727 0.000000 0.000000 -0.329152 0.063549 0.403515
    8 3.488968 -0.004234 0.000004 -0.000004 -0.000001 0.035662
    9 5.318531 -0.004538 0.000000 -0.050986 0.011793 0.226456
    10 5.701826 -0.005492 0.000000 -0.034869 0.000320 0.008706
    11 6.899484 -0.001818 0.000000 0.000000 -0.026147 0.099378
    12 0.050786 0.001927 2.008302 -2.015078 -1.448032 5.056604
    13 4.746895 0.000000 0.000000 -0.881310 -0.478253 -0.630315
    14 10.950472 0.000000 0.000000 0.000000 0.000000 -1.837249
    15 10.950467 0.000000 0.000000 -2.836277 -0.065156 0.502751
    16 -0.050780 0.001941 -2.008302 -1.879417 1.454513 1.157160
    17 4.746896 0.000000 -0.000003 0.804297 -0.103379 -1.125933
    18 10.950466 0.000000 0.000000 0.000000 0.000000 -1.817617
    19 10.950471 0.000000 0.000000 2.959703 0.245724 0.111264
    20 2.428221 0.000000 0.000000 0.081957 -0.019246 0.187029
    21 1.681022 0.975106 0.213387 0.000000 0.000001 -1.745239
  time 3
    0 -3.921026 -1.180659 32.503649 0.011499 -0.023371 -2.029817
    1 -1.398480 0.050783 0.000000 -1.570795 -1.570796 0.000000
    2 -0.000004 0.000006 3.077313 -0.186050 -2.871794 -0.257540
    3 16.897085 0.000000 0.000000 0.000000 0.000000 -1.107276
    4 16.589727 0.000000 0.000000 -0.115165 -0.244644 0.496085
    5 0.000005 -0.000003 -3.077313 0.285613 2.917974 -0.584632
    6 16.897085 0.000000 0.000000 0.000000 0.000000 -1.070722
    7 16.589727 0.000000 0.000000 -0.522625 -0.017225 0.413093
    8 3.488968 -0.004234 0.000004 -0.000004 -0.000001 0.035662
    9 5.318531 -0.004538 0.000000 -0.050986 0.011793 0.226456
    10 5.701826 -0.005492 0.000000 -0.034869 0.000320 0.008706
    11 6.899484 -0.001818 0.000000 0.000000 -0.026147 0.099378
    12 0.050786 0.001927 2.008302 -2.015078 -1.448032 5.056604
    13 4.746895 0.000000 0.000000 -0.881310 -0.478253 -0.630315
    14 10.950472 0.000000 0.000000 0.000000 0.000000 -1.837249
    15 10.950467 0.000000 0.000000 -2.836277 -0.065156 0.502751
    16 -0.050780 0.001941 -2.008302 -1.879417 1.454513 1.157160
    17 4.746896 0.000000 -0.000003 0.804010 -0.106511 -1.122875
    18 10.950466 0.000000 0.000000 0.000000 0.000000 -1.817617
    19 10.950471 0.000000 0.000000 2.959703 0.245724 0.111264
    20 2.428221 0.000000 0.000000 0.081309 -0.021739 0.217237
    21 1.681022 0.975106 0.213387 0.000000 0.000001 -1.745239
  time 4
    0 -6.823249 -1.180659 32.926024 0.016099 -0.020497 -2.236659
    1 -1.398480 0.050783 0.000000 -1.570795 -1.570796 0.000000
    2 -0.000004 0.000006 3.077313 -0.218166 -2.896718 -0.131761
    3 16.897085 0.000000 0.000000 0.000000 0.000000 -1.107276
    4 16.589727 0.000000 0.000000 -0.082866 -0.257169 0.490334
    5 0.000005 -0.000003 -3.077313 0.339300 2.997594 -0.524355
    6 16.897085 0.000000 0.000000 0.000000 0.000000 -1.029788
    7 16.589727 0.000000 0.000000 -0.731469 -0.095492 0.462040
    8 3.488968 -0.004234 0.000004 -0.000004 -0.000001 0.035662
    9 5.318531 -0.004538 0.000000 -0.050986 0.011793 0.226456
    10 5.701826 -0.005492 0.000000 -0.034869 0.000320 0.008706
    11 6.899484 -0.001818 0.000000 0.000000 -0.026147 0.099378
    12 0.050786 0.001927 2.008302 -2.015078 -1.448032 5.056604
    13 4.746895 0.000000 0.000000 -0.881310 -0.478253 -0.630315
    14 10.950472 0.000000 0.000000 0.000000 0.000000 -1.837249
    15 10.950467 0.000000 0.000000 -2.836277 -0.065156 0.502751
    16 -0.050780 0.001941 -2.008302 -1.879417 1.454513 1.157160
    17 4.746896 0.000000 -0.000003 0.803628 -0.110023 -1.119530
    18 10.950466 0.000000 0.000000 0.000000 0.000000 -1.817617
    19 10.950471 0.000000 0.000000 2.959703 0.245724 0.111264
    20 2.428221 0.000000 0.000000 0.080568 -0.024431 0.250638
    21 1.681022 0.975106 0.213387 0.000000 0.000001 -1.745239
  time 5
    0 -10.576024 -1.180659 33.395330 0.018494 -0.018486 -2.355976
    1 -1.398480 0.050783 0.000000 -1.570795 -1.570796 0.000000
    2 -0.000004 0.000006 3.077313 -0.234943 -2.912823 -0.060051
    3 16.897085 0.000000 0.000000 0.000000 0.000000 -1.107276
    4 16.589727 0.000000 0.000000 -0.063534 -0.262489 0.486662
    5 0.000005 -0.000003 -3.077313 0.367531 3.069933 -0.395294
    6 16.897085 0.000000 0.000000 0.000000 0.000000 -0.931304
    7 16.589727 0.000000 0.000000 -0.838246 -0.180572 0.495709
    8 3.488968 -0.004234 0.000004 -0.000004 -0.000001 0.035662
    9 5.318531 -0.004538 0.000000 -0.050986 0.011793 0.226456
    10 5.701826 -0.005492 0.000000 -0.034869 0.000320 0.008706
    11 6.899484 -0.001818 0.000000 0.000000 -0.026147 0.099378
    12 0.050786 0.001927 2.008302 -2.015078 -1.448032 5.056604
    13 4.746895 0.000000 0.000000 -0.881310 -0.478253 -0.630315
    14 10.950472 0.000000 0.000000 0.000000 0.000000 -1.837249
    15 10.950467 0.000000 0.000000 -2.836277 -0.065156 0.502751
    16 -0.050780 0.001941 -2.008302 -1.879417 1.454513 1.157160
    17 4.746896 0.000000 -0.000003 0.803055 -0.115054 -1.114561
    18 10.950466 0.000000 0.000000 0.000000 0.000000 -1.817617
    19 10.950471 0.000000 0.000000 2.959703 0.245724 0.111264
    20 2.428221 0.000000 0.000000 0.079642 -0.027373 0.286850
    21 1.681022 0.975106 0.213387 0.000000 0.000001 -1.745239
  time 6
    0 -15.524171 -1.180659 33.676913 0.050883 0.082277 -2.546251
    1 -2.039125 0.050783 0.000000 -1.570795 -1.570796 0.000000
    2 -0.000004 0.000006 3.077313 -0.185666 -2.873807 -0.436157
    3 16.897085 0.000000 0.000000 0.000000 0.000000 -1.346301
    4 16.589727 0.000000 0.000000 -0.060798 -0.204670 0.360412
    5 0.000005 -0.000003 -3.077313 0.381504 3.132211 -0.279067
    6 16.897085 0.000000 0.000000 0.000000 0.000000 -0.837882
    7 16.589727 0.000000 0.000000 -0.919513 -0.251618 0.525324
    8 3.488968 -0.004234 0.000004 -0.000004 -0.000001 0.117850
    9 5.318531 -0.004538 0.000000 -0.050986 0.011793 0.226456
    10 5.701826 -0.005492 0.000000 -0.034869 0.000320 0.008706
    11 6.899484 -0.001818 0.000000 0.000000 -0.026147 0.099378
    12 0.050786 0.001927 2.008302 -2.015078 -1.448032 5.056604
    13 4.746895 0.000000 0.000000 -0.959477 -0.523382 -0.589529
    14 10.950472 0.000000 0.000000 0.000000 0.000000 -1.837249
    15 10.950467 0.000000 0.000000 -2.836277 -0.065156 0.502751
    16 -0.050780 0.001941 -2.008302 -1.879417 1.454513 1.157160
    17 4.746896 0.000000 -0.000003 0.836973 -0.048800 -1.105578
    18 10.950466 0.000000 0.000000 0.000000 0.000000 -1.817617
    19 10.950471 0.000000 0.000000 2.959703 0.245724 0.111264
    20 2.428221 0.000000 0.000000 0.080012 -0.023684 0.243805
    21 1.681022 0.975106 0.213387 0.000000 0.000001 -1.745239
  time 7
    0 -21.656194 -1.180659 33.817705 0.064874 0.187924 -2.726472
    1 -2.668050 0.050783 0.000000 -1.570795 -1.570796 0.000000
    2 -0.000004 0.000006 3.077313 -0.120187 -2.854348 -0.836312
    3 16.897085 0.000000 0.000000 0.000000 0.000000 -1.593245
    4 16.589727 0.000000 0.000000 -0.080278 -0.148182 0.227511
    5 0.000005 -0.000003 -3.077313 0.386001 3.203687 -0.134305
    6 16.897085 0.000000 0.000000 0.000000 0.000000 -0.689550
    7 16.589727 0.000000 0.000000 -1.004477 -0.306067 0.540837
    8 3.488968 -0.004234 0.000004 -0.000004 -0.000001 0.200698
    9 5.318531 -0.004538 0.000000 -0.050986 0.011793 0.226456
    10 5.701826 -0.005492 0.000000 -0.034869 0.000320 0.008706
    11 6.899484 -0.001818 0.000000 0.000000 -0.026147 0.099378
    12 0.050786 0.001927 2.008302 -2.015078 -1.448032 5.056604
    13 4.746895 0.000000 0.000000 -1.042507 -0.565878 -0.543262
    14 10.950472 0.000000 0.000000 0.000000 0.000000 -1.837249
    15 10.950467 0.000000 0.000000 -2.836277 -0.065156 0.502751
    16 -0.050780 0.001941 -2.008302 -1.879417 1.454513 1.157160
    17 4.746896 0.000000 -0.000003 0.872419 0.011948 -1.090096
    18 10.950466 0.000000 0.000000 0.000000 0.000000 -1.817617
    19 10.950471 0.000000 0.000000 2.959703 0.245724 0.111264
    20 2.428221 0.000000 0.000000 0.080290 -0.020094 0.202228
    21 1.681022 0.975106 0.213387 0.000000 0.000001 -1.745239
  time 8
    0 -28.460614 -1.180659 33.864636 0.060849 0.283706 -2.890030
    1 -3.222755 0.050783 0.000000 -1.570795 -1.570796 0.000000
    2 -0.000004 0.000006 3.077313 -0.067266 -2.859524 -1.152995
    3 16.897085 0.000000 0.000000 0.000000 0.000000 -1.788784
    4 16.589727 0.000000 0.000000 -0.111923 -0.110129 0.125098
    5 0.000005 -0.000003 -3.077313 0.361885 3.246707 0.079290
    6 16.897085 0.000000 0.000000 0.000000 0.000000 -0.221090
    7 16.589727 0.000000 0.000000 -0.971970 -0.115713 0.341406
    8 3.488968 -0.004234 0.000004 -0.000004 -0.000001 0.275170
    9 5.318531 -0.004538 0.000000 -0.050986 0.011793 0.226456
    10 5.701826 -0.005492 0.000000 -0.034869 0.000320 0.008706
    11 6.899484 -0.001818 0.000000 0.000000 -0.026147 0.099378
    12 0.050786 0.001927 2.008302 -2.015078 -1.448032 5.056604
    13 4.746895 0.000000 0.000000 -1.121152 -0.601110 -0.496995
    14 10.950472 0.000000 0.000000 0.000000 0.000000 -1.837249
    15 10.950467 0.000000 0.000000 -2.836277 -0.065156 0.502751
    16 -0.050780 0.001941 -2.008302 -1.879417 1.454513 1.157160
    17 4.746896 0.000000 -0.000003 0.906433 0.055042 -1.066204
    18 10.950466 0.000000 0.000000 0.000000 0.000000 -1.817617
    19 10.950471 0.000000 0.000000 2.959703 0.245724 0.111264
    20 2.428221 0.000000 0.000000 0.080290 -0.017252 0.169721
    21 1.681022 0.975106 0.213387 0.000000 0.000001 -1.745239
  time 9
    0 -35.402961 -1.180659 33.770775 0.046379 0.356309 -3.019689
    1 -3.636830 0.050783 0.000000 -1.570795 -1.570796 0.000000
    2 -0.000004 0.000006 3.077313 -0.031027 -2.878025 -1.402006
    3 16.897085 0.000000 0.000000 0.000000 0.000000 -1.945917
    4 16.589727 0.000000 0.000000 -0.147910 -0.086152 0.047145
    5 0.000005 -0.000003 -3.077313 0.331549 3.276218 0.285836
    6 16.897085 0.000000 0.000000 0.000000 0.000000 -0.035317
    7 16.589727 0.000000 0.000000 -0.583552 -0.706095 -0.385685
    8 3.488968 -0.004234 0.000004 -0.000004 -0.000001 0.332558
    9 5.318531 -0.004538 0.000000 -0.050986 0.011793 0.226456
    10 5.701826 -0.005492 0.000000 -0.034869 0.000320 0.008706
    11 6.899484 -0.001818 0.000000 0.000000 -0.026147 0.099378
    12 0.050786 0.001927 2.008302 -2.015078 -1.448032 5.056604
    13 4.746895 0.000000 0.000000 -1.184258 -0.626081 -0.458347
    14 10.950472 0.000000 0.000000 0.000000 0.000000 -1.837249
    15 10.950467 0.000000 0.000000 -2.836277 -0.065156 0.502751
    16 -0.050780 0.001941 -2.008302 -1.879417 1.454513 1.157160
    17 4.746896 0.000000 -0.000003 0.935478 0.066337 -1.031991
    18 10.950466 0.000000 0.000000 0.000000 0.000000 -1.817617
    19 10.950471 0.000000 0.000000 2.959703 0.245724 0.111264
    20 2.428221 0.000000 0.000000 0.080105 -0.015606 0.151967
    21 1.681022 0.975106 0.213387 0.000000 0.000001 -1.745239
  time 10
    0 -41.960260 -1.180659 33.536122 0.028460 0.409468 -3.120716
    1 -3.941527 0.050783 0.000000 -1.570795 -1.570796 0.000000
    2 -0.000004 0.000006 3.077313 -0.018756 -2.900265 -1.552185
    3 16.897085 0.000000 0.000000 0.000000 0.000000 -2.049178
    4 16.589727 0.000000 0.000000 -0.181667 -0.072889 0.008203
    5 0.000005 -0.000003 -3.077313 0.303796 3.326424 0.466521
    6 16.897085 0.000000 0.000000 0.000000 0.000000 -0.352735
    7 16.589727 0.000000 0.000000 -0.000712 -0.866799 -0.686887
    8 3.488968 -0.004234 0.000004 -0.000004 -0.000001 0.375838
    9 5.318531 -0.004538 0.000000 -0.050986 0.011793 0.226456
    10 5.701826 -0.005492 0.000000 -0.034869 0.000320 0.008706
    11 6.899484 -0.001818 0.000000 0.000000 -0.026147 0.099378
    12 0.050786 0.001927 2.008302 -2.015078 -1.448032 5.056604
    13 4.746895 0.000000 0.000000 -1.233446 -0.643516 -0.427502
    14 10.950472 0.000000 0.000000 0.000000 0.000000 -1.837249
    15 10.950467 0.000000 0.000000 -2.836277 -0.065156 0.502751
    16 -0.050780 0.001941 -2.008302 -1.879417 1.454513 1.157160
    17 4.746896 0.000000 -0.000003 0.960033 0.039380 -0.982487
    18 10.950466 0.000000 0.000000 0.000000 0.000000 -1.817617
    19 10.950471 0.000000 0.000000 2.959703 0.245724 0.111264
    20 2.428221 0.000000 0.000000 0.079919 -0.014509 0.140024
    21 1.681022 0.975106 0.213387 0.000000 0.000001 -1.745239
  time 11
    0 -48.155501 -1.180659 33.019885 0.028460 0.409468 -3.120716
    1 -3.941527 0.050783 0.000000 -1.570795 -1.570796 0.000000
    2 -0.000004 0.000006 3.077313 -0.053940 -2.916178 -1.453090
    3 16.897085 0.000000 0.000000 0.000000 0.000000 -2.020934
    4 16.589727 0.000000 0.000000 -0.184730 -0.097900 -0.082569
    5 0.000005 -0.000003 -3.077313 0.270493 3.370018 0.634081
    6 16.897085 0.000000 0.000000 0.000000 0.000000 -0.670152
    7 16.589727 0.000000 0.000000 0.501088 -0.727624 -0.894955
    8 3.488968 -0.004234 0.000004 -0.000004 -0.000001 0.375838
    9 5.318531 -0.004538 0.000000 -0.050986 0.011793 0.226456
    10 5.701826 -0.005492 0.000000 -0.034869 0.000320 0.008706
    11 6.899484 -0.001818 0.000000 0.000000 -0.026147 0.099378
    12 0.050786 0.001927 2.008302 -2.015078 -1.448032 5.056604
    13 4.746895 0.000000 0.000000 -1.268813 -0.489149 -0.350948
    14 10.950472 0.000000 0.000000 0.000000 0.000000 -1.739612
    15 10.950467 0.000000 0.000000 -2.836277 -0.065156 0.502751
    16 -0.050780 0.001941 -2.008302 -1.879417 1.454513 1.157160
    17 4.746896 0.000000 -0.000003 0.951147 -0.090090 -0.881664
    18 10.950466 0.000000 0.000000 0.000000 0.000000 -1.674468
    19 10.950471 0.000000 0.000000 2.959703 0.245724 0.111264
    20 2.428221 0.000000 0.000000 0.079919 -0.014509 0.140024
    21 1.681022 0.975106 0.213387 0.000000 0.000001 -1.745239
  time 12
    0 -54.316259 -1.180659 31.611968 0.028460 0.409468 -3.120716
    1 -3.941527 0.050783 0.000000 -1.570795 -1.570796 0.000000
    2 -0.000004 0.000006 3.077313 -0.121625 -2.942061 -1.148958
    3 16.897085 0.000000 0.000000 0.000000 0.000000 -1.883676
    4 16.589727 0.000000 0.000000 -0.155316 -0.138983 -0.177914
    5 0.000005 -0.000003 -3.077313 0.241879 3.397996 0.757260
    6 16.897085 0.000000 0.000000 0.000000 0.000000 -0.942785
    7 16.589727 0.000000 0.000000 0.719907 -0.497619 -0.884613
    8 3.488968 -0.004234 0.000004 -0.000004 -0.000001 0.375838
    9 5.318531 -0.004538 0.000000 -0.050986 0.011793 0.226456
    10 5.701826 -0.005492 0.000000 -0.034869 0.000320 0.008706
    11 6.899484 -0.001818 0.000000 0.000000 -0.026147 0.099378
    12 0.050786 0.001927 2.008302 -2.015078 -1.448032 5.056604
    13 4.746895 0.000000 0.000000 -1.298555 -0.184502 -0.215305
    14 10.950472 0.000000 0.000000 0.000000 0.000000 -1.544186
    15 10.950467 0.000000 0.000000 -2.836277 -0.065156 0.502751
    16 -0.050780 0.001941 -2.008302 -1.879417 1.454513 1.157160
    17 4.746896 0.000000 -0.000003 0.890668 -0.321504 -0.674093
    18 10.950466 0.000000 0.000000 0.000000 0.000000 -1.388017
    19 10.950471 0.000000 0.000000 2.959703 0.245724 0.111264
    20 2.428221 0.000000 0.000000 0.079919 -0.014509 0.140024
    21 1.681022 0.975106 0.213387 0.000000 0.000001 -1.745239
  time 13
    0 -60.390812 -1.180659 29.593953 0.028460 0.409468 -3.120716
    1 -3.941527 0.050783 0.000000 -1.570795 -1.570796 0.000000
    2 -0.000004 0.000006 3.077313 -0.187871 -2.992580 -0.759774
    3 16.897085 0.000000 0.000000 0.000000 0.000000 -1.684327
    4 16.589727 0.000000 0.000000 -0.102227 -0.172307 -0.268755
    5 0.000005 -0.000003 -3.077313 0.219294 3.415050 0.846558
    6 16.897085 0.000000 0.000000 0.000000 0.000000 -1.227398
    7 16.589727 0.000000 0.000000 0.813373 -0.248375 -0.781431
    8 3.488968 -0.004234 0.000004 -0.000004 -0.000001 0.375838
    9 5.318531 -0.004538 0.000000 -0.050986 0.011793 0.226456
    10 5.701826 -0.005492 0.000000 -0.034869 0.000320 0.008706
    11 6.899484 -0.001818 0.000000 0.000000 -0.026147 0.099378
    12 0.050786 0.001927 2.008302 -2.015078 -1.448032 5.056604
    13 4.746895 0.000000 0.000000 -1.277297 0.243366 -0.068236
    14 10.950472 0.000000 0.000000 0.000000 0.000000 -1.282626
    15 10.950467 0.000000 0.000000 -2.836277 -0.065156 0.502751
    16 -0.050780 0.001941 -2.008302 -1.879417 1.454513 1.157160
    17 4.746896 0.000000 -0.000003 0.733786 -0.601422 -0.360729
    18 10.950466 0.000000 0.000000 0.000000 0.000000 -1.004487
    19 10.950471 0.000000 0.000000 2.959703 0.245724 0.111264
    20 2.428221 0.000000 0.000000 0.079919 -0.014509 0.140024
    21 1.681022 0.975106 0.213387 0.000000 0.000001 -1.745239
  time 14
    0 -66.333186 -1.180659 27.904452 0.028460 0.409468 -3.120716
    1 -3.941527 0.050783 0.000000 -1.570795 -1.570796 0.000000
    2 -0.000004 0.000006 3.077313 -0.216249 -3.031979 -0.522086
    3 16.897085 0.000000 0.000000 0.000000 0.000000 -1.517107
    4 16.589727 0.000000 0.000000 -0.072545 -0.181802 -0.314488
    5 0.000005 -0.000003 -3.077313 0.228481 3.404415 0.814281
    6 16.897085 0.000000 0.000000 0.000000 0.000000 -1.523422
    7 16.589727 0.000000 0.000000 0.832799 -0.079386 -0.670610
    8 3.488968 -0.004234 0.000004 -0.000004 -0.000001 0.375838
    9 5.318531 -0.004538 0.000000 -0.050986 0.011793 0.226456
    10 5.701826 -0.005492 0.000000 -0.034869 0.000320 0.008706
    11 6.899484 -0.001818 0.000000 0.000000 -0.026147 0.099378
    12 0.050786 0.001927 2.008302 -2.015078 -1.448032 5.056604
    13 4.746895 0.000000 0.000000 -1.228966 0.660065 -0.005339
    14 10.950472 0.000000 0.000000 0.000000 0.000000 -1.069731
    15 10.950467 0.000000 0.000000 -2.836277 -0.065156 0.502751
    16 -0.050780 0.001941 -2.008302 -1.879417 1.454513 1.157160
    17 4.746896 0.000000 -0.000003 0.556552 -0.829989 -0.084732
    18 10.950466 0.000000 0.000000 0.000000 0.000000 -0.692415
    19 10.950471 0.000000 0.000000 2.959703 0.245724 0.111264
    20 2.428221 0.000000 0.000000 0.079919 -0.014509 0.140024
    21 1.681022 0.975106 0.213387 0.000000 0.000001 -1.745239
  time 15
    0 -73.189328 -1.180659 27.529007 0.029610 0.492320 -3.118034
    1 -3.941527 0.050783 0.000000 -1.570795 -1.570796 0.000000
    2 -0.000004 0.000006 3.077313 -0.125172 -2.978584 -1.007117
    3 16.897085 0.000000 0.000000 0.000000 0.000000 -1.536011
    4 16.589727 0.000000 0.000000 -0.154929 -0.150436 -0.109523
    5 0.000005 -0.000003 -3.077313 0.345999 3.138535 -0.029160
    6 16.897085 0.000000 0.000000 0.000000 0.000000 -1.756761
    7 16.589727 0.000000 0.000000 0.557305 -0.653881 -0.608619
    8 3.488968 -0.004234 0.000004 -0.000004 -0.000001 0.375838
    9 5.318531 -0.004538 0.000000 -0.050986 0.011793 0.226456
    10 5.701826 -0.005492 0.000000 -0.034869 0.000320 0.008706
    11 6.899484 -0.001818 0.000000 0.000000 -0.026147 0.099378
    12 0.050786 0.001927 2.008302 -2.015078 -1.448032 5.056604
    13 4.746895 0.000000 0.000000 -1.645925 1.106820 -0.635982
    14 10.950472 0.000000 0.000000 0.000000 0.000000 -1.069731
    15 10.950467 0.000000 0.000000 -2.836277 -0.065156 0.502751
    16 -0.050780 0.001941 -2.008302 -1.879417 1.454513 1.157160
    17 4.746896 0.000000 -0.000003 0.915796 -1.092537 -0.480952
    18 10.950466 0.000000 0.000000 0.000000 0.000000 -0.692415
    19 10.950471 0.000000 0.000000 2.959703 0.245724 0.111264
    20 2.428221 0.000000 0.000000 0.079919 -0.014509 0.140024
    21 1.681022 0.975106 0.213387 0.000000 0.000001 -1.745239
  time 16
    0 -77.114513 -1.180659 27.294354 0.031143 0.575171 -3.115162
    1 -3.941527 0.050783 0.000000 -1.570795 -1.570796 0.000000
    2 -0.000004 0.000006 3.077313 -0.027384 -2.901128 -1.516286
    3 16.897085 0.000000 0.000000 0.000000 0.000000 -1.534591
    4 16.589727 0.000000 0.000000 -0.194188 0.023610 0.025457
    5 0.000005 -0.000003 -3.077313 0.196518 2.854354 -0.984648
    6 16.897085 0.000000 0.000000 0.000000 0.000000 -1.750200
    7 16.589727 0.000000 0.000000 -0.499700 -0.701081 -0.100525
    8 3.488968 -0.004234 0.000004 -0.000004 -0.000001 0.375838
    9 5.318531 -0.004538 0.000000 -0.050986 0.011793 0.226456
    10 5.701826 -0.005492 0.000000 -0.034869 0.000320 0.008706
    11 6.899484 -0.001818 0.000000 0.000000 -0.026147 0.099378
    12 0.050786 0.001927 2.008302 -2.015078 -1.448032 5.056604
    13 4.746895 0.000000 0.000000 0.810263 2.103574 1.494251
    14 10.950472 0.000000 0.000000 0.000000 0.000000 -1.069731
    15 10.950467 0.000000 0.000000 -2.836277 -0.065156 0.502751
    16 -0.050780 0.001941 -2.008302 -1.879417 1.454513 1.157160
    17 4.746896 0.000000 -0.000003 1.651195 -1.003882 -1.309517
    18 10.950466 0.000000 0.000000 0.000000 0.000000 -0.692415
    19 10.950471 0.000000 0.000000 2.959703 0.245724 0.111264
    20 2.428221 0.000000 0.000000 0.079919 -0.014509 0.140024
    21 1.681022 0.975106 0.213387 0.000000 0.000001 -1.745239
  time 17
    0 -77.114513 -1.180659 26.449604 0.031143 0.575171 -3.115162
    1 -3.464949 0.039064 0.000000 -1.570795 -1.570796 0.000000
    2 -0.000004 0.000006 3.077313 -0.099191 -2.773441 -1.354609
    3 16.897085 0.000000 0.000000 0.000000 0.000000 -1.358853
    4 16.589727 0.000000 0.000000 -0.188329 0.176857 -0.125945
    5 0.000005 -0.000003 -3.077313 0.164841 2.835383 -1.092952
    6 16.897085 0.000000 0.000000 0.000000 0.000000 -1.649219
    7 16.589727 0.000000 0.000000 -0.511833 -0.693069 -0.287909
    8 3.488968 -0.004234 0.000004 -0.000004 -0.000001 0.335865
    9 5.318531 -0.004538 0.000000 -0.051557 0.008939 0.171055
    10 5.701826 -0.005492 0.000000 -0.034869 0.000559 0.015353
    11 6.899484 -0.001818 0.000000 0.000000 -0.026147 0.099378
    12 0.050786 0.001927 2.008302 0.678195 -1.453617 2.368436
    13 4.746895 0.000000 0.000000 -1.878904 1.028910 -1.275545
    14 10.950472 0.000000 0.000000 0.000000 0.000000 -0.881017
    15 10.950467 0.000000 0.000000 -2.830780 -0.027665 0.384085
    16 -0.050780 0.001941 -2.008302 -1.179446 1.340279 1.865855
    17 4.746896 0.000000 -0.000003 1.542753 -0.931743 -1.174768
    18 10.950466 0.000000 0.000000 0.000000 0.000000 -0.543711
    19 10.950471 0.000000 0.000000 2.959703 0.245724 0.111264
    20 2.428221 0.000000 0.000000 0.080290 -0.019944 0.228669
    21 1.681022 0.975106 0.213387 0.000000 0.000001 -1.745239
  time 18
    0 -77.114513 -1.180659 25.464062 0.031143 0.575171 -3.115162
    1 -2.886807 0.023438 0.000000 -1.570795 -1.570796 0.000000
    2 -0.000004 0.000006 3.077313 -0.253638 -2.662433 -1.030114
    3 16.897085 0.000000 0.000000 0.000000 0.000000 -1.151659
    4 16.589727 0.000000 0.000000 -0.224346 0.322677 -0.323634
    5 0.000005 -0.000003 -3.077313 0.185321 2.847072 -1.023925
    6 16.897085 0.000000 0.000000 0.000000 0.000000 -1.507875
    7 16.589727 0.000000 0.000000 -0.362150 -0.770982 -0.585468
    8 3.488968 -0.004234 0.000004 -0.000004 -0.000001 0.289168
    9 5.318531 -0.004538 0.000000 -0.052021 0.005576 0.106260
    10 5.701826 -0.005492 0.000000 -0.034869 0.000831 0.023142
    11 6.899484 -0.001818 0.000000 0.000000 -0.026147 0.099378
    12 0.050786 0.001927 2.008302 0.859108 -1.185360 2.227882
    13 4.746895 0.000000 0.000000 -1.336113 0.908958 -0.773018
    14 10.950472 0.000000 0.000000 0.000000 0.000000 -0.660495
    15 10.950467 0.000000 0.000000 -2.830022 0.016548 0.245672
    16 -0.050780 0.001941 -2.008302 -0.976003 1.166164 2.096046
    17 4.746896 0.000000 -0.000003 1.361794 -0.835874 -0.949708
    18 10.950466 0.000000 0.000000 0.000000 0.000000 -0.369849
    19 10.950471 0.000000 0.000000 2.959703 0.245724 0.111264
    20 2.428221 0.000000 0.000000 0.080105 -0.026376 0.332258
    21 1.681022 0.975106 0.213387 0.000000 0.000001 -1.745239
  time 19
    0 -77.114513 -1.180659 24.619311 0.031143 0.575171 -3.115162
    1 -2.355541 0.011719 0.000000 -1.570795 -1.570796 0.000000
    2 -0.000004 0.000006 3.077313 -0.429273 -2.616899 -0.696490
    3 16.897085 0.000000 0.000000 0.000000 0.000000 -0.969345
    4 16.589727 0.000000 0.000000 -0.293762 0.427415 -0.505317
    5 0.000005 -0.000003 -3.077313 0.213552 2.866618 -0.923253
    6 16.897085 0.000000 0.000000 0.000000 0.000000 -1.379011
    7 16.589727 0.000000 0.000000 -0.160043 -0.823877 -0.897305
    8 3.488968 -0.004234 0.000004 -0.000004 -0.000001 0.248130
    9 5.318531 -0.004538 0.000000 -0.052235 0.002611 0.049351
    10 5.701826 -0.005492 0.000000 -0.034869 0.001071 0.029964
    11 6.899484 -0.001818 0.000000 0.000000 -0.026147 0.099378
    12 0.050786 0.001927 2.008302 0.920275 -0.954791 2.234498
    13 4.746895 0.000000 0.000000 -1.020391 0.729075 -0.477299
    14 10.950472 0.000000 0.000000 0.000000 0.000000 -0.466747
    15 10.950467 0.000000 0.000000 -2.834382 0.055158 0.123939
    16 -0.050780 0.001941 -2.008302 -0.919054 1.009552 2.191919
    17 4.746896 0.000000 -0.000003 1.237300 -0.726906 -0.783039
    18 10.950466 0.000000 0.000000 0.000000 0.000000 -0.217209
    19 10.950471 0.000000 0.000000 2.959703 0.245724 0.111264
    20 2.428221 0.000000 0.000000 0.079456 -0.032010 0.423202
    21 1.681022 0.975106 0.213387 0.000000 0.000001 -1.745239
  time 20
    0 -77.114513 -1.180659 24.009214 0.031143 0.575171 -3.115162
    1 -1.972716 0.003906 0.000000 -1.570795 -1.570796 0.000000
    2 -0.000004 0.000006 3.077313 -0.560807 -2.615078 -0.456871
    3 16.897085 0.000000 0.000000 0.000000 0.000000 -0.839186
    4 16.589727 0.000000 0.000000 -0.360978 0.489039 -0.636694
    5 0.000005 -0.000003 -3.077313 0.230204 2.880224 -0.860691
    6 16.897085 0.000000 0.000000 0.000000 0.000000 -1.287872
    7 16.589727 0.000000 0.000000 -0.011472 -0.835596 -1.127584
    8 3.488968 -0.004234 0.000004 -0.000004 -0.000001 0.218848
    9 5.318531 -0.004538 0.000000 -0.052306 0.000487 0.008691
    10 5.701826 -0.005492 0.000000 -0.034841 0.001230 0.034854
    11 6.899484 -0.001818 0.000000 0.000000 -0.026147 0.099378
    12 0.050786 0.001927 2.008302 0.965335 -0.796007 2.258467
    13 4.746895 0.000000 0.000000 -0.870824 0.593778 -0.340449
    14 10.950472 0.000000 0.000000 0.000000 0.000000 -0.328301
    15 10.950467 0.000000 0.000000 -2.840353 0.082307 0.036616
    16 -0.050780 0.001941 -2.008302 -0.905249 0.898734 2.243020
    17 4.746896 0.000000 -0.000003 1.179019 -0.638821 -0.694640
    18 10.950466 0.000000 0.000000 0.000000 0.000000 -0.108169
    19 10.950471 0.000000 0.000000 2.959703 0.245724 0.111264
    20 2.428221 0.000000 0.000000 0.078716 -0.036049 0.488217
    21 1.681022 0.975106 0.213387 0.000000 0.000001 -1.745239
end
