version 1
nodes
  0 "Bip02" -1
  1 "Bip02 Pelvis" 0
  2 "Bip02 L Leg" 1
  3 "Bip02 L Leg1" 2
  4 "Bip02 L Foot" 3
  5 "Bip02 R Leg" 1
  6 "Bip02 R Leg1" 5
  7 "Bip02 R Foot" 6
  8 "Bip02 Spine" 1
  9 "Bip02 Spine1" 8
  10 "Bip02 Spine2" 9
  11 "Bip02 Neck" 10
  12 "Bip02 L Arm" 11
  13 "Bip02 L Arm1" 12
  14 "Bip02 L Arm2" 13
  15 "Bip02 L Hand" 14
  16 "Bip02 R Arm" 11
  17 "Bip02 R Arm1" 16
  18 "Bip02 R Arm2" 17
  19 "Bip02 R Hand" 18
  20 "Bip02 Head" 11
  21 "Bone01" 20
end
skeleton
  time 0
    0 -0.001589 0.024072 -0.441619 0.000000 1.395544 -1.570839
    1 -0.515641 0.183599 0.000000 -1.570795 -1.570796 0.000000
    2 -0.000004 0.000006 3.319508 -0.175983 -3.114228 0.064849
    3 16.904898 0.000000 0.000000 0.000000 0.000000 -0.289930
    4 16.597540 0.000000 0.000000 0.104119 0.144789 -0.808745
    5 0.000005 -0.000003 -3.319508 -0.011819 3.116402 -0.242706
    6 16.904898 0.000000 0.000000 0.000000 0.000000 -0.248046
    7 16.597540 0.000000 0.000000 -0.022395 0.016458 -1.129817
    8 3.488968 -0.004234 0.000004 -0.244200 0.000172 0.000796
    9 5.318531 -0.004538 0.000000 -0.225744 0.021705 0.093477
    10 5.701826 -0.005492 0.000000 -0.183152 0.000144 -0.000019
    11 6.899484 -0.001818 0.000000 0.000000 -0.026147 0.099378
    12 0.050786 0.001927 2.008302 -2.847259 -1.179866 5.906831
    13 4.746895 0.000000 0.000000 -2.184998 -0.410876 -0.289351
    14 10.954378 0.000000 0.000000 0.000000 0.000000 -0.722739
    15 10.954373 0.000000 0.000000 -1.579600 0.016978 -0.059908
    16 -0.050780 0.001941 -2.008302 -1.654211 1.459618 1.383804
    17 4.746896 0.000000 -0.000003 -0.717999 -0.903931 0.082606
    18 10.954372 0.000000 0.000000 0.000000 0.000000 -0.672043
    19 10.954377 0.000000 0.000000 1.825126 -0.048828 -0.068942
    20 2.428221 0.000000 0.000000 -0.814568 0.374848 -0.658738
    21 1.681022 0.975106 0.213387 0.000000 0.000001 -1.745239
  time 1
    0 -0.001589 0.024072 -0.441619 0.000000 1.395544 -1.570839
    1 -0.523453 0.167974 0.000000 -1.570795 -1.570796 0.000000
    2 -0.000004 0.000006 3.319508 -0.173491 -3.100999 -0.010284
    3 16.904898 0.000000 0.000000 0.000000 0.000000 -0.289930
    4 16.597540 0.000000 0.000000 0.104119 0.144789 -0.884965
    5 0.000005 -0.000003 -3.319508 -0.010575 3.115827 -0.194339
    6 16.904898 0.000000 0.000000 0.000000 0.000000 -0.248046
    7 16.597540 0.000000 0.000000 -0.022395 0.016458 -1.081458
    8 3.488968 -0.004234 0.000004 -0.222694 0.000172 0.000796
    9 5.318531 -0.004538 0.000000 -0.204336 0.019669 0.093904
    10 5.701826 -0.005492 0.000000 -0.140722 0.000112 -0.000019
    11 6.899484 -0.001818 0.000000 0.000000 -0.026147 0.099378
    12 0.050786 0.001927 2.008302 -2.808430 -1.225998 5.865221
    13 4.746895 0.000000 0.000000 -2.031617 -0.352943 -0.539918
    14 10.954378 0.000000 0.000000 0.000000 0.000000 -0.687727
    15 10.954373 0.000000 0.000000 -1.579600 0.016978 -0.059908
    16 -0.050780 0.001941 -2.008302 -1.953048 1.451366 1.082954
    17 4.746896 0.000000 -0.000003 -0.694018 -0.871564 0.241724
    18 10.954372 0.000000 0.000000 0.000000 0.000000 -0.672043
    19 10.954377 0.000000 0.000000 1.825126 -0.048828 -0.068942
    20 2.428221 0.000000 0.000000 -0.777154 0.334661 -0.646475
    21 1.681022 0.975106 0.213387 0.000000 0.000001 -1.745239
  time 2
    0 -0.001589 0.024072 -0.441619 0.000000 1.395544 -1.570839
    1 -0.535173 0.144536 0.000000 -1.570795 -1.570796 0.000000
    2 -0.000004 0.000006 3.319508 -0.167642 -3.081347 -0.124740
    3 16.904898 0.000000 0.000000 0.000000 0.000000 -0.289930
    4 16.597540 0.000000 0.000000 0.104119 0.144789 -1.001098
    5 0.000005 -0.000003 -3.319508 -0.008661 3.115252 -0.120597
    6 16.904898 0.000000 0.000000 0.000000 0.000000 -0.248046
    7 16.597540 0.000000 0.000000 -0.022395 0.016458 -1.007773
    8 3.488968 -0.004234 0.000004 -0.191447 0.000143 0.000796
    9 5.318531 -0.004538 0.000000 -0.173224 0.016705 0.094481
    10 5.701826 -0.005492 0.000000 -0.079127 0.000048 -0.000019
    11 6.899484 -0.001818 0.000000 0.000000 -0.026147 0.099378
    12 0.050786 0.001927 2.008302 -2.731252 -1.290020 5.784206
    13 4.746895 0.000000 0.000000 -1.821994 -0.240437 -0.870755
    14 10.954378 0.000000 0.000000 0.000000 0.000000 -0.638069
    15 10.954373 0.000000 0.000000 -1.579600 0.016978 -0.059908
    16 -0.050780 0.001941 -2.008302 -2.278633 1.424765 0.754589
    17 4.746896 0.000000 -0.000003 -0.689432 -0.818788 0.497844
    18 10.954372 0.000000 0.000000 0.000000 0.000000 -0.672043
    19 10.954377 0.000000 0.000000 1.825126 -0.048828 -0.068942
    20 2.428221 0.000000 0.000000 -0.738630 0.275427 -0.629040
    21 1.681022 0.975106 0.213387 0.000000 0.000001 -1.745239
  time 3
    0 -0.001589 0.024072 -0.488550 0.000000 1.395544 -1.570839
    1 -0.542985 0.113285 0.000000 -1.570795 -1.570796 0.000000
    2 -0.000004 0.000006 3.319508 -0.159110 -3.061216 -0.246744
    3 16.904898 0.000000 0.000000 0.000000 0.000000 -0.289930
    4 16.597540 0.000000 0.000000 0.104119 0.144789 -1.124437
    5 0.000005 -0.000003 -3.319508 -0.006555 3.114677 -0.042285
    6 16.904898 0.000000 0.000000 0.000000 0.000000 -0.248046
    7 16.597540 0.000000 0.000000 -0.022395 0.016458 -0.929505
    8 3.488968 -0.004234 0.000004 -0.153306 0.000114 0.000796
    9 5.318531 -0.004538 0.000000 -0.135225 0.013076 0.095034
    10 5.701826 -0.005492 0.000000 -0.003877 0.000000 -0.000019
    11 6.899484 -0.001818 0.000000 0.000000 -0.026147 0.099378
    12 0.050786 0.001927 2.008302 -2.578238 -1.362306 5.626682
    13 4.746895 0.000000 0.000000 -1.585965 -0.039125 -1.204472
    14 10.954378 0.000000 0.000000 0.000000 0.000000 -0.579106
    15 10.954373 0.000000 0.000000 -1.579600 0.016978 -0.059908
    16 -0.050780 0.001941 -2.008302 -2.513427 1.381543 0.516631
    17 4.746896 0.000000 -0.000003 -0.631723 -0.753104 0.732938
    18 10.954372 0.000000 0.000000 0.000000 0.000000 -0.672043
    19 10.954377 0.000000 0.000000 1.825126 -0.048828 -0.068942
    20 2.428221 0.000000 0.000000 -0.702051 0.203928 -0.602792
    21 1.681022 0.975106 0.213387 0.000000 0.000001 -1.745239
  time 4
    0 -0.001589 0.024072 -0.488550 0.000000 1.395544 -1.570839
    1 -0.550798 0.082034 0.000000 -1.570795 -1.570796 0.000000
    2 -0.000004 0.000006 3.319508 -0.150577 -3.046166 -0.343908
    3 16.904898 0.000000 0.000000 0.000000 0.000000 -0.289930
    4 16.597540 0.000000 0.000000 0.104119 0.144789 -1.222415
    5 0.000005 -0.000003 -3.319508 -0.004833 3.114294 0.019839
    6 16.904898 0.000000 0.000000 0.000000 0.000000 -0.248046
    7 16.597540 0.000000 0.000000 -0.022395 0.016458 -0.867337
    8 3.488968 -0.004234 0.000004 -0.111064 0.000085 0.000796
    9 5.318531 -0.004538 0.000000 -0.093195 0.009027 0.095511
    10 5.701826 -0.005492 0.000000 0.079404 -0.000048 -0.000019
    11 6.899484 -0.001818 0.000000 0.000000 -0.026147 0.099378
    12 0.050786 0.001927 2.008302 -2.243736 -1.428962 5.287185
    13 4.746895 0.000000 0.000000 -1.344502 0.256714 -1.469903
    14 10.954378 0.000000 0.000000 0.000000 0.000000 -0.515260
    15 10.954373 0.000000 0.000000 -1.579600 0.016978 -0.059908
    16 -0.050780 0.001941 -2.008302 -2.656566 1.331450 0.370137
    17 4.746896 0.000000 -0.000003 -0.461274 -0.685711 0.847810
    18 10.954372 0.000000 0.000000 0.000000 0.000000 -0.672043
    19 10.954377 0.000000 0.000000 1.825126 -0.048828 -0.068942
    20 2.428221 0.000000 0.000000 -0.666675 0.127642 -0.564345
    21 1.681022 0.975106 0.213387 0.000000 0.000001 -1.745239
  time 5
    0 -0.001589 0.024072 -0.488550 0.000000 1.395544 -1.570839
    1 -0.558611 0.046876 0.000000 -1.570795 -1.570796 0.000000
    2 -0.000004 0.000006 3.319508 -0.146647 -3.040223 -0.383581
    3 16.904898 0.000000 0.000000 0.000000 0.000000 -0.289930
    4 16.597540 0.000000 0.000000 0.104119 0.144789 -1.262327
    5 0.000005 -0.000003 -3.319508 -0.004163 3.114198 0.045214
    6 16.904898 0.000000 0.000000 0.000000 0.000000 -0.248046
    7 16.597540 0.000000 0.000000 -0.022395 0.016458 -0.842012
    8 3.488968 -0.004234 0.000004 -0.067597 0.000028 0.000796
    9 5.318531 -0.004538 0.000000 -0.049915 0.004823 0.095813
    10 5.701826 -0.005492 0.000000 0.165149 -0.000128 -0.000019
    11 6.899484 -0.001818 0.000000 0.000000 -0.026147 0.099378
    12 0.050786 0.001927 2.008302 -1.568788 -1.460019 4.607329
    13 4.746895 0.000000 0.000000 -1.073584 0.615298 -1.604988
    14 10.954378 0.000000 0.000000 0.000000 0.000000 -0.450957
    15 10.954373 0.000000 0.000000 -1.579600 0.016978 -0.059908
    16 -0.050780 0.001941 -2.008302 -2.748412 1.278095 0.274935
    17 4.746896 0.000000 -0.000003 -0.148846 -0.566112 0.812450
    18 10.954372 0.000000 0.000000 0.000000 0.000000 -0.672043
    19 10.954377 0.000000 0.000000 1.825126 -0.048828 -0.068942
    20 2.428221 0.000000 0.000000 -0.629817 0.054098 -0.512231
    21 1.681022 0.975106 0.213387 0.000000 0.000001 -1.745239
  time 6
    0 -0.001589 0.024072 -0.488550 0.000000 1.395544 -1.570839
    1 -0.562517 0.011719 0.000000 -1.570795 -1.570796 0.000000
    2 -0.000004 0.000006 3.319508 -0.151249 -3.047220 -0.336710
    3 16.904898 0.000000 0.000000 0.000000 0.000000 -0.289930
    4 16.597540 0.000000 0.000000 0.104119 0.144789 -1.215140
    5 0.000005 -0.000003 -3.319508 -0.005024 3.114294 0.015270
    6 16.904898 0.000000 0.000000 0.000000 0.000000 -0.248046
    7 16.597540 0.000000 0.000000 -0.022395 0.016458 -0.871921
    8 3.488968 -0.004234 0.000004 -0.025668 -0.000001 0.000796
    9 5.318531 -0.004538 0.000000 -0.008171 0.000774 0.095938
    10 5.701826 -0.005492 0.000000 0.247849 -0.000192 -0.000048
    11 6.899484 -0.001818 0.000000 0.000000 -0.026147 0.099378
    12 0.050786 0.001927 2.008302 -0.929792 -1.432412 3.963715
    13 4.746895 0.000000 0.000000 -0.653002 0.961715 -1.492108
    14 10.954378 0.000000 0.000000 0.000000 0.000000 -0.391002
    15 10.954373 0.000000 0.000000 -1.579600 0.016978 -0.059908
    16 -0.050780 0.001941 -2.008302 -2.813990 1.220095 0.205810
    17 4.746896 0.000000 -0.000003 0.187945 -0.344000 0.742973
    18 10.954372 0.000000 0.000000 0.000000 0.000000 -0.672043
    19 10.954377 0.000000 0.000000 1.825126 -0.048828 -0.068942
    20 2.428221 0.000000 0.000000 -0.588237 -0.010072 -0.447983
    21 1.681022 0.975106 0.213387 0.000000 0.000001 -1.745239
  time 7
    0 -0.001589 0.024072 -0.488550 0.000000 1.395544 -1.570839
    1 -0.562517 -0.015625 0.000000 -1.570795 -1.570796 0.000000
    2 -0.000004 0.000006 3.319508 -0.160836 -3.064667 -0.225151
    3 16.904898 0.000000 0.000000 0.000000 0.000000 -0.289930
    4 16.597540 0.000000 0.000000 0.104119 0.144789 -1.102680
    5 0.000005 -0.000003 -3.319508 -0.006938 3.114773 -0.056090
    6 16.904898 0.000000 0.000000 0.000000 0.000000 -0.248046
    7 16.597540 0.000000 0.000000 -0.022395 0.016458 -0.943314
    8 3.488968 -0.004234 0.000004 0.011817 -0.000001 0.000796
    9 5.318531 -0.004538 0.000000 0.029150 -0.002810 0.095888
    10 5.701826 -0.005492 0.000000 0.321851 -0.000240 -0.000048
    11 6.899484 -0.001818 0.000000 0.000000 -0.026147 0.099378
    12 0.050786 0.001927 2.008302 -0.636995 -1.383874 3.667171
    13 4.746895 0.000000 0.000000 0.138782 1.130610 -0.923153
    14 10.954378 0.000000 0.000000 0.000000 0.000000 -0.342031
    15 10.954373 0.000000 0.000000 -1.579600 0.016978 -0.059908
    16 -0.050780 0.001941 -2.008302 -2.862789 1.157412 0.153272
    17 4.746896 0.000000 -0.000003 0.486328 -0.042440 0.676745
    18 10.954372 0.000000 0.000000 0.000000 0.000000 -0.672043
    19 10.954377 0.000000 0.000000 1.825126 -0.048828 -0.068942
    20 2.428221 0.000000 0.000000 -0.539896 -0.060580 -0.377028
    21 1.681022 0.975106 0.213387 0.000000 0.000001 -1.745239
  time 8
    0 -0.001589 0.024072 -0.488550 0.000000 1.395544 -1.570839
    1 -0.558611 -0.039064 0.000000 -1.570795 -1.570796 0.000000
    2 -0.000004 0.000006 3.319508 -0.169560 -3.086811 -0.092439
    3 16.904898 0.000000 0.000000 0.000000 0.000000 -0.289930
    4 16.597540 0.000000 0.000000 0.104119 0.144789 -0.968392
    5 0.000005 -0.000003 -3.319508 -0.009139 3.115348 -0.141353
    6 16.904898 0.000000 0.000000 0.000000 0.000000 -0.248046
    7 16.597540 0.000000 0.000000 -0.022395 0.016458 -1.028515
    8 3.488968 -0.004234 0.000004 0.042124 -0.000030 0.000796
    9 5.318531 -0.004538 0.000000 0.059299 -0.005753 0.095762
    10 5.701826 -0.005492 0.000000 0.381591 -0.000288 -0.000078
    11 6.899484 -0.001818 0.000000 0.000000 -0.026147 0.099378
    12 0.050786 0.001927 2.008302 -0.529330 -1.350137 3.557201
    13 4.746895 0.000000 0.000000 0.803018 1.030181 -0.403439
    14 10.954378 0.000000 0.000000 0.000000 0.000000 -0.312816
    15 10.954373 0.000000 0.000000 -1.579600 0.016978 -0.059908
    16 -0.050780 0.001941 -2.008302 -2.897495 1.095765 0.114923
    17 4.746896 0.000000 -0.000003 0.709709 0.237383 0.602394
    18 10.954372 0.000000 0.000000 0.000000 0.000000 -0.672043
    19 10.954377 0.000000 0.000000 1.825126 -0.048828 -0.068942
    20 2.428221 0.000000 0.000000 -0.486833 -0.095283 -0.308373
    21 1.681022 0.975106 0.213387 0.000000 0.000001 -1.745239
  time 9
    0 -0.001589 0.024072 -0.488550 0.000000 1.395544 -1.570839
    1 -0.558611 -0.054689 0.000000 -1.570795 -1.570796 0.000000
    2 -0.000004 0.000006 3.319508 -0.174545 -3.105983 0.018330
    3 16.904898 0.000000 0.000000 0.000000 0.000000 -0.289930
    4 16.597540 0.000000 0.000000 0.104119 0.144789 -0.855932
    5 0.000005 -0.000003 -3.319508 -0.011053 3.116019 -0.212762
    6 16.904898 0.000000 0.000000 0.000000 0.000000 -0.248046
    7 16.597540 0.000000 0.000000 -0.022395 0.016458 -1.099908
    8 3.488968 -0.004234 0.000004 0.062377 -0.000030 0.000796
    9 5.318531 -0.004538 0.000000 0.079458 -0.007700 0.095637
    10 5.701826 -0.005492 0.000000 0.421556 -0.000320 -0.000078
    11 6.899484 -0.001818 0.000000 0.000000 -0.026147 0.099378
    12 0.050786 0.001927 2.008302 -0.519359 -1.346233 3.547038
    13 4.746895 0.000000 0.000000 1.041621 0.881081 -0.225804
    14 10.954378 0.000000 0.000000 0.000000 0.000000 -0.309536
    15 10.954373 0.000000 0.000000 -1.579600 0.016978 -0.059908
    16 -0.050780 0.001941 -2.008302 -2.935653 0.999533 0.070917
    17 4.746896 0.000000 -0.000003 0.934809 0.358310 0.300020
    18 10.954372 0.000000 0.000000 0.000000 0.000000 -0.672043
    19 10.954377 0.000000 0.000000 1.825126 -0.048828 -0.068942
    20 2.428221 0.000000 0.000000 -0.440344 -0.113083 -0.255110
    21 1.681022 0.975106 0.213387 0.000000 0.000001 -1.745239
  time 10
    0 -0.001589 0.024072 -0.488550 0.000000 1.395544 -1.570839
    1 -0.554704 -0.062502 0.000000 -1.570795 -1.570796 0.000000
    2 -0.000004 0.000006 3.319508 -0.175983 -3.114228 0.064849
    3 16.904898 0.000000 0.000000 0.000000 0.000000 -0.289930
    4 16.597540 0.000000 0.000000 0.104119 0.144789 -0.808745
    5 0.000005 -0.000003 -3.319508 -0.011819 3.116402 -0.242706
    6 16.904898 0.000000 0.000000 0.000000 0.000000 -0.248046
    7 16.597540 0.000000 0.000000 -0.022395 0.016458 -1.129817
    8 3.488968 -0.004234 0.000004 0.069754 -0.000030 0.000796
    9 5.318531 -0.004538 0.000000 0.086808 -0.008408 0.095561
    10 5.701826 -0.005492 0.000000 0.436096 -0.000336 -0.000078
    11 6.899484 -0.001818 0.000000 0.000000 -0.026147 0.099378
    12 0.050786 0.001927 2.008302 -0.572089 -1.365212 3.600920
    13 4.746895 0.000000 0.000000 1.102058 0.756498 -0.135685
    14 10.954378 0.000000 0.000000 0.000000 0.000000 -0.325555
    15 10.954373 0.000000 0.000000 -1.579600 0.016978 -0.059908
    16 -0.050780 0.001941 -2.008302 -2.931914 1.010819 0.075327
    17 4.746896 0.000000 -0.000003 0.937102 0.149392 0.036447
    18 10.954372 0.000000 0.000000 0.000000 0.000000 -0.672043
    19 10.954377 0.000000 0.000000 1.825126 -0.048828 -0.068942
    20 2.428221 0.000000 0.000000 -0.387651 -0.111836 -0.219729
    21 1.681022 0.975106 0.213387 0.000000 0.000001 -1.745239
  time 11
    0 -0.001589 0.024072 -0.488550 0.000000 1.395544 -1.570839
    1 -0.558611 -0.054689 0.000000 -1.570795 -1.570796 0.000000
    2 -0.000004 0.000006 3.319508 -0.174545 -3.105983 0.018330
    3 16.904898 0.000000 0.000000 0.000000 0.000000 -0.289930
    4 16.597540 0.000000 0.000000 0.104119 0.144789 -0.855932
    5 0.000005 -0.000003 -3.319508 -0.011053 3.116019 -0.212762
    6 16.904898 0.000000 0.000000 0.000000 0.000000 -0.248046
    7 16.597540 0.000000 0.000000 -0.022395 0.016458 -1.099908
    8 3.488968 -0.004234 0.000004 0.062377 -0.000030 0.000796
    9 5.318531 -0.004538 0.000000 0.079458 -0.007700 0.095637
    10 5.701826 -0.005492 0.000000 0.421556 -0.000320 -0.000078
    11 6.899484 -0.001818 0.000000 0.000000 -0.026147 0.099378
    12 0.050786 0.001927 2.008302 -0.709763 -1.400356 3.741091
    13 4.746895 0.000000 0.000000 1.065357 0.666239 -0.042965
    14 10.954378 0.000000 0.000000 0.000000 0.000000 -0.357211
    15 10.954373 0.000000 0.000000 -1.579600 0.016978 -0.059908
    16 -0.050780 0.001941 -2.008302 -2.911972 1.063637 0.098528
    17 4.746896 0.000000 -0.000003 0.874139 -0.026969 -0.029017
    18 10.954372 0.000000 0.000000 0.000000 0.000000 -0.672043
    19 10.954377 0.000000 0.000000 1.825126 -0.048828 -0.068942
    20 2.428221 0.000000 0.000000 -0.321993 -0.089798 -0.202166
    21 1.681022 0.975106 0.213387 0.000000 0.000001 -1.745239
  time 12
    0 -0.001589 0.024072 -0.488550 0.000000 1.395544 -1.570839
    1 -0.558611 -0.039064 0.000000 -1.570795 -1.570796 0.000000
    2 -0.000004 0.000006 3.319508 -0.169560 -3.086811 -0.092439
    3 16.904898 0.000000 0.000000 0.000000 0.000000 -0.289930
    4 16.597540 0.000000 0.000000 0.104119 0.144789 -0.968392
    5 0.000005 -0.000003 -3.319508 -0.009139 3.115348 -0.141353
    6 16.904898 0.000000 0.000000 0.000000 0.000000 -0.248046
    7 16.597540 0.000000 0.000000 -0.022395 0.016458 -1.028515
    8 3.488968 -0.004234 0.000004 0.042124 -0.000030 0.000796
    9 5.318531 -0.004538 0.000000 0.059299 -0.005753 0.095762
    10 5.701826 -0.005492 0.000000 0.381591 -0.000288 -0.000078
    11 6.899484 -0.001818 0.000000 0.000000 -0.026147 0.099378
    12 0.050786 0.001927 2.008302 -1.031035 -1.441584 4.065918
    13 4.746895 0.000000 0.000000 0.959449 0.611394 0.077626
    14 10.954378 0.000000 0.000000 0.000000 0.000000 -0.402902
    15 10.954373 0.000000 0.000000 -1.579600 0.016978 -0.059908
    16 -0.050780 0.001941 -2.008302 -2.878513 1.131694 0.136015
    17 4.746896 0.000000 -0.000003 0.796653 -0.237785 -0.103176
    18 10.954372 0.000000 0.000000 0.000000 0.000000 -0.672043
    19 10.954377 0.000000 0.000000 1.825126 -0.048828 -0.068942
    20 2.428221 0.000000 0.000000 -0.270596 -0.050409 -0.206508
    21 1.681022 0.975106 0.213387 0.000000 0.000001 -1.745239
  time 13
    0 -0.001589 0.024072 -0.488550 0.000000 1.395544 -1.570839
    1 -0.562517 -0.015625 0.000000 -1.570795 -1.570796 0.000000
    2 -0.000004 0.000006 3.319508 -0.160836 -3.064667 -0.225151
    3 16.904898 0.000000 0.000000 0.000000 0.000000 -0.289930
    4 16.597540 0.000000 0.000000 0.104119 0.144789 -1.102680
    5 0.000005 -0.000003 -3.319508 -0.006938 3.114773 -0.056090
    6 16.904898 0.000000 0.000000 0.000000 0.000000 -0.248046
    7 16.597540 0.000000 0.000000 -0.022395 0.016458 -0.943314
    8 3.488968 -0.004234 0.000004 0.011817 -0.000001 0.000796
    9 5.318531 -0.004538 0.000000 0.029150 -0.002810 0.095888
    10 5.701826 -0.005492 0.000000 0.321851 -0.000240 -0.000048
    11 6.899484 -0.001818 0.000000 0.000000 -0.026147 0.099378
    12 0.050786 0.001927 2.008302 1.485832 -1.681916 1.553204
    13 4.746895 0.000000 0.000000 0.790626 0.585605 0.222931
    14 10.954378 0.000000 0.000000 0.000000 0.000000 -0.457899
    15 10.954373 0.000000 0.000000 -1.579600 0.016978 -0.059908
    16 -0.050780 0.001941 -2.008302 -2.831343 1.200250 0.187307
    17 4.746896 0.000000 -0.000003 0.705791 -0.438445 -0.182306
    18 10.954372 0.000000 0.000000 0.000000 0.000000 -0.672043
    19 10.954377 0.000000 0.000000 1.825126 -0.048828 -0.068942
    20 2.428221 0.000000 0.000000 -0.240129 -0.001596 -0.230458
    21 1.681022 0.975106 0.213387 0.000000 0.000001 -1.745239
  time 14
    0 -0.001589 0.024072 -0.488550 0.000000 1.395544 -1.570839
    1 -0.562517 0.011719 0.000000 -1.570795 -1.570796 0.000000
    2 -0.000004 0.000006 3.319508 -0.151249 -3.047220 -0.336710
    3 16.904898 0.000000 0.000000 0.000000 0.000000 -0.289930
    4 16.597540 0.000000 0.000000 0.104119 0.144789 -1.215140
    5 0.000005 -0.000003 -3.319508 -0.005024 3.114294 0.015270
    6 16.904898 0.000000 0.000000 0.000000 0.000000 -0.248046
    7 16.597540 0.000000 0.000000 -0.022395 0.016458 -0.871921
    8 3.488968 -0.004234 0.000004 -0.025668 -0.000001 0.000796
    9 5.318531 -0.004538 0.000000 -0.008171 0.000774 0.095938
    10 5.701826 -0.005492 0.000000 0.247849 -0.000192 -0.000048
    11 6.899484 -0.001818 0.000000 0.000000 -0.026147 0.099378
    12 0.050786 0.001927 2.008302 -2.171927 -1.436317 5.214703
    13 4.746895 0.000000 0.000000 0.548973 0.559363 0.364705
    14 10.954378 0.000000 0.000000 0.000000 0.000000 -0.506336
    15 10.954373 0.000000 0.000000 -1.579600 0.016978 -0.059908
    16 -0.050780 0.001941 -2.008302 -2.768258 1.262894 0.254226
    17 4.746896 0.000000 -0.000003 0.593432 -0.610725 -0.256275
    18 10.954372 0.000000 0.000000 0.000000 0.000000 -0.672043
    19 10.954377 0.000000 0.000000 1.825126 -0.048828 -0.068942
    20 2.428221 0.000000 0.000000 -0.218089 0.047666 -0.266733
    21 1.681022 0.975106 0.213387 0.000000 0.000001 -1.745239
  time 15
    0 -0.001589 0.024072 -0.488550 0.000000 1.395544 -1.570839
    1 -0.558611 0.046876 0.000000 -1.570795 -1.570796 0.000000
    2 -0.000004 0.000006 3.319508 -0.146647 -3.040223 -0.383581
    3 16.904898 0.000000 0.000000 0.000000 0.000000 -0.289930
    4 16.597540 0.000000 0.000000 0.104119 0.144789 -1.262327
    5 0.000005 -0.000003 -3.319508 -0.004163 3.114198 0.045214
    6 16.904898 0.000000 0.000000 0.000000 0.000000 -0.248046
    7 16.597540 0.000000 0.000000 -0.022395 0.016458 -0.842012
    8 3.488968 -0.004234 0.000004 -0.067597 0.000028 0.000796
    9 5.318531 -0.004538 0.000000 -0.049915 0.004823 0.095813
    10 5.701826 -0.005492 0.000000 0.165149 -0.000128 -0.000019
    11 6.899484 -0.001818 0.000000 0.000000 -0.026147 0.099378
    12 0.050786 0.001927 2.008302 -2.446508 -1.397314 5.492455
    13 4.746895 0.000000 0.000000 -0.337471 0.331445 0.360152
    14 10.954378 0.000000 0.000000 0.000000 0.000000 -0.547832
    15 10.954373 0.000000 0.000000 -1.579600 0.016978 -0.059908
    16 -0.050780 0.001941 -2.008302 -2.684465 1.317670 0.341375
    17 4.746896 0.000000 -0.000003 0.448875 -0.749307 -0.307976
    18 10.954372 0.000000 0.000000 0.000000 0.000000 -0.672043
    19 10.954377 0.000000 0.000000 1.825126 -0.048828 -0.068942
    20 2.428221 0.000000 0.000000 -0.237165 0.104307 -0.321721
    21 1.681022 0.975106 0.213387 0.000000 0.000001 -1.745239
  time 16
    0 -0.001589 0.024072 -0.488550 0.000000 1.395544 -1.570839
    1 -0.550798 0.082034 0.000000 -1.570795 -1.570796 0.000000
    2 -0.000004 0.000006 3.319508 -0.150577 -3.046166 -0.343908
    3 16.904898 0.000000 0.000000 0.000000 0.000000 -0.289930
    4 16.597540 0.000000 0.000000 0.104119 0.144789 -1.222415
    5 0.000005 -0.000003 -3.319508 -0.004833 3.114294 0.019839
    6 16.904898 0.000000 0.000000 0.000000 0.000000 -0.248046
    7 16.597540 0.000000 0.000000 -0.022395 0.016458 -0.867337
    8 3.488968 -0.004234 0.000004 -0.111064 0.000085 0.000796
    9 5.318531 -0.004538 0.000000 -0.093195 0.009027 0.095511
    10 5.701826 -0.005492 0.000000 0.079404 -0.000048 -0.000019
    11 6.899484 -0.001818 0.000000 0.000000 -0.026147 0.099378
    12 0.050786 0.001927 2.008302 -2.597413 -1.355632 5.646240
    13 4.746895 0.000000 0.000000 -1.324865 0.038875 0.321782
    14 10.954378 0.000000 0.000000 0.000000 0.000000 -0.584750
    15 10.954373 0.000000 0.000000 -1.579600 0.016978 -0.059908
    16 -0.050780 0.001941 -2.008302 -2.571814 1.364461 0.457094
    17 4.746896 0.000000 -0.000003 0.261800 -0.853434 -0.317533
    18 10.954372 0.000000 0.000000 0.000000 0.000000 -0.672043
    19 10.954377 0.000000 0.000000 1.825126 -0.048828 -0.068942
    20 2.428221 0.000000 0.000000 -0.321345 0.172964 -0.396252
    21 1.681022 0.975106 0.213387 0.000000 0.000001 -1.745239
  time 17
    0 -0.001589 0.024072 -0.488550 0.000000 1.395544 -1.570839
    1 -0.542985 0.113285 0.000000 -1.570795 -1.570796 0.000000
    2 -0.000004 0.000006 3.319508 -0.159110 -3.061216 -0.246744
    3 16.904898 0.000000 0.000000 0.000000 0.000000 -0.289930
    4 16.597540 0.000000 0.000000 0.104119 0.144789 -1.124437
    5 0.000005 -0.000003 -3.319508 -0.006555 3.114677 -0.042285
    6 16.904898 0.000000 0.000000 0.000000 0.000000 -0.248046
    7 16.597540 0.000000 0.000000 -0.022395 0.016458 -0.929505
    8 3.488968 -0.004234 0.000004 -0.153306 0.000114 0.000796
    9 5.318531 -0.004538 0.000000 -0.135225 0.013076 0.095034
    10 5.701826 -0.005492 0.000000 -0.003877 0.000000 -0.000019
    11 6.899484 -0.001818 0.000000 0.000000 -0.026147 0.099378
    12 0.050786 0.001927 2.008302 -2.706133 -1.305685 5.758127
    13 4.746895 0.000000 0.000000 -1.697688 -0.056015 0.205093
    14 10.954378 0.000000 0.000000 0.000000 0.000000 -0.625636
    15 10.954373 0.000000 0.000000 -1.579600 0.016978 -0.059908
    16 -0.050780 0.001941 -2.008302 -2.416787 1.403269 0.614805
    17 4.746896 0.000000 -0.000003 0.027910 -0.921397 -0.270227
    18 10.954372 0.000000 0.000000 0.000000 0.000000 -0.672043
    19 10.954377 0.000000 0.000000 1.825126 -0.048828 -0.068942
    20 2.428221 0.000000 0.000000 -0.444141 0.242469 -0.476594
    21 1.681022 0.975106 0.213387 0.000000 0.000001 -1.745239
  time 18
    0 -0.001589 0.024072 -0.441619 0.000000 1.395544 -1.570839
    1 -0.535173 0.144536 0.000000 -1.570795 -1.570796 0.000000
    2 -0.000004 0.000006 3.319508 -0.167642 -3.081347 -0.124740
    3 16.904898 0.000000 0.000000 0.000000 0.000000 -0.289930
    4 16.597540 0.000000 0.000000 0.104119 0.144789 -1.001098
    5 0.000005 -0.000003 -3.319508 -0.008661 3.115252 -0.120597
    6 16.904898 0.000000 0.000000 0.000000 0.000000 -0.248046
    7 16.597540 0.000000 0.000000 -0.022395 0.016458 -1.007773
    8 3.488968 -0.004234 0.000004 -0.191447 0.000143 0.000796
    9 5.318531 -0.004538 0.000000 -0.173224 0.016705 0.094481
    10 5.701826 -0.005492 0.000000 -0.079127 0.000048 -0.000019
    11 6.899484 -0.001818 0.000000 0.000000 -0.026147 0.099378
    12 0.050786 0.001927 2.008302 -2.777751 -1.254967 5.832815
    13 4.746895 0.000000 0.000000 -1.940294 -0.171699 0.010455
    14 10.954378 0.000000 0.000000 0.000000 0.000000 -0.665377
    15 10.954373 0.000000 0.000000 -1.579600 0.016978 -0.059908
    16 -0.050780 0.001941 -2.008302 -2.202989 1.433324 0.830999
    17 4.746896 0.000000 -0.000003 -0.239899 -0.949398 -0.167875
    18 10.954372 0.000000 0.000000 0.000000 0.000000 -0.672043
    19 10.954377 0.000000 0.000000 1.825126 -0.048828 -0.068942
    20 2.428221 0.000000 0.000000 -0.583792 0.302601 -0.552913
    21 1.681022 0.975106 0.213387 0.000000 0.000001 -1.745239
  time 19
    0 -0.001589 0.024072 -0.441619 0.000000 1.395544 -1.570839
    1 -0.523453 0.167974 0.000000 -1.570795 -1.570796 0.000000
    2 -0.000004 0.000006 3.319508 -0.173491 -3.100999 -0.010284
    3 16.904898 0.000000 0.000000 0.000000 0.000000 -0.289930
    4 16.597540 0.000000 0.000000 0.104119 0.144789 -0.884965
    5 0.000005 -0.000003 -3.319508 -0.010575 3.115827 -0.194339
    6 16.904898 0.000000 0.000000 0.000000 0.000000 -0.248046
    7 16.597540 0.000000 0.000000 -0.022395 0.016458 -1.081458
    8 3.488968 -0.004234 0.000004 -0.222694 0.000172 0.000796
    9 5.318531 -0.004538 0.000000 -0.204336 0.019669 0.093904
    10 5.701826 -0.005492 0.000000 -0.140722 0.000112 -0.000019
    11 6.899484 -0.001818 0.000000 0.000000 -0.026147 0.099378
    12 0.050786 0.001927 2.008302 -2.821661 -1.211650 5.879314
    13 4.746895 0.000000 0.000000 -2.089099 -0.296282 -0.170246
    14 10.954378 0.000000 0.000000 0.000000 0.000000 -0.698635
    15 10.954373 0.000000 0.000000 -1.579600 0.016978 -0.059908
    16 -0.050780 0.001941 -2.008302 -1.930038 1.452440 1.106156
    17 4.746896 0.000000 -0.000003 -0.504459 -0.938292 -0.037426
    18 10.954372 0.000000 0.000000 0.000000 0.000000 -0.672043
    19 10.954377 0.000000 0.000000 1.825126 -0.048828 -0.068942
    20 2.428221 0.000000 0.000000 -0.716775 0.347076 -0.616650
    21 1.681022 0.975106 0.213387 0.000000 0.000001 -1.745239
  time 20
    0 -0.001589 0.024072 -0.441619 0.000000 1.395544 -1.570839
    1 -0.515641 0.183599 0.000000 -1.570795 -1.570796 0.000000
    2 -0.000004 0.000006 3.319508 -0.175983 -3.114228 0.064849
    3 16.904898 0.000000 0.000000 0.000000 0.000000 -0.289930
    4 16.597540 0.000000 0.000000 0.104119 0.144789 -0.808745
    5 0.000005 -0.000003 -3.319508 -0.011819 3.116402 -0.242706
    6 16.904898 0.000000 0.000000 0.000000 0.000000 -0.248046
    7 16.597540 0.000000 0.000000 -0.022395 0.016458 -1.129817
    8 3.488968 -0.004234 0.000004 -0.244200 0.000172 0.000796
    9 5.318531 -0.004538 0.000000 -0.225744 0.021705 0.093477
    10 5.701826 -0.005492 0.000000 -0.183152 0.000144 -0.000019
    11 6.899484 -0.001818 0.000000 0.000000 -0.026147 0.099378
    12 0.050786 0.001927 2.008302 -2.847259 -1.179866 5.906831
    13 4.746895 0.000000 0.000000 -2.184998 -0.410876 -0.289351
    14 10.954378 0.000000 0.000000 0.000000 0.000000 -0.722739
    15 10.954373 0.000000 0.000000 -1.579600 0.016978 -0.059908
    16 -0.050780 0.001941 -2.008302 -1.654211 1.459618 1.383804
    17 4.746896 0.000000 -0.000003 -0.717999 -0.903931 0.082606
    18 10.954372 0.000000 0.000000 0.000000 0.000000 -0.672043
    19 10.954377 0.000000 0.000000 1.825126 -0.048828 -0.068942
    20 2.428221 0.000000 0.000000 -0.814568 0.374848 -0.658738
    21 1.681022 0.975106 0.213387 0.000000 0.000001 -1.745239
end
