version 1
nodes
  0 "Bip02" -1
  1 "Bip02 Pelvis" 0
  2 "Bip02 L Leg" 1
  3 "Bip02 L Leg1" 2
  4 "Bip02 L Foot" 3
  5 "Bip02 R Leg" 1
  6 "Bip02 R Leg1" 5
  7 "Bip02 R Foot" 6
  8 "Bip02 Spine" 1
  9 "Bip02 Spine1" 8
  10 "Bip02 Spine2" 9
  11 "Bip02 Neck" 10
  12 "Bip02 L Arm" 11
  13 "Bip02 L Arm1" 12
  14 "Bip02 L Arm2" 13
  15 "Bip02 L Hand" 14
  16 "Bip02 R Arm" 11
  17 "Bip02 R Arm1" 16
  18 "Bip02 R Arm2" 17
  19 "Bip02 R Hand" 18
  20 "Bip02 Head" 11
  21 "Bone01" 20
end
skeleton
  time 0
    0 -0.208480 -1.025765 0.215409 0.000000 1.422363 -4.712344
    1 -1.921934 0.218757 0.000000 -1.570795 -1.570796 0.000000
    2 -0.000004 0.000006 3.077313 -0.026809 -2.972545 0.098993
    3 16.897085 0.000000 0.000000 0.000000 0.000000 -0.411347
    4 16.589727 0.000000 0.000000 0.109234 -0.132000 -0.127400
    5 0.000005 -0.000003 -3.077313 -0.007608 3.156548 0.146324
    6 16.897085 0.000000 0.000000 0.000000 0.000000 -0.272578
    7 16.589727 0.000000 0.000000 -0.062260 0.035889 -0.769973
    8 3.488968 -0.004234 0.000004 -0.000004 -0.000001 0.035662
    9 5.318531 -0.004538 0.000000 -0.133512 0.040777 0.293938
    10 5.701826 -0.005492 0.000000 -0.034287 0.006376 0.183132
    11 6.899484 -0.001818 0.000000 0.000000 -0.026147 0.099378
    12 0.050786 0.001927 2.008302 2.135853 -0.738796 0.736150
    13 4.746895 0.000000 0.000000 -1.846397 0.311468 -0.879767
    14 10.950472 0.000000 0.000000 0.000000 0.000000 -0.722739
    15 10.950467 0.000000 0.000000 -1.574103 0.019392 0.236566
    16 -0.050780 0.001941 -2.008302 -1.536191 1.023524 1.495305
    17 4.746896 0.000000 -0.000003 1.180356 -1.222956 0.439930
    18 10.950466 0.000000 0.000000 0.000000 0.000000 -1.388866
    19 10.950471 0.000000 0.000000 1.773933 0.060955 -0.222528
    20 2.428221 0.000000 0.000000 -1.374374 0.146838 -1.228415
    21 1.681022 0.975106 0.213387 0.000000 0.000001 -1.745239
  time 1
    0 -0.208480 -1.025765 0.215409 0.000000 1.422363 -4.712344
    1 -1.921934 0.218757 0.000000 -1.570795 -1.570796 0.000000
    2 -0.000004 0.000006 3.077313 -0.026809 -2.972545 0.098993
    3 16.897085 0.000000 0.000000 0.000000 0.000000 -0.411347
    4 16.589727 0.000000 0.000000 0.109234 -0.132000 -0.127400
    5 0.000005 -0.000003 -3.077313 -0.007608 3.156548 0.146324
    6 16.897085 0.000000 0.000000 0.000000 0.000000 -0.272578
    7 16.589727 0.000000 0.000000 -0.062260 0.035889 -0.769973
    8 3.488968 -0.004234 0.000004 -0.000004 -0.000001 0.035662
    9 5.318531 -0.004538 0.000000 -0.133512 0.040777 0.293938
    10 5.701826 -0.005492 0.000000 -0.034287 0.006376 0.183132
    11 6.899484 -0.001818 0.000000 0.000000 -0.026147 0.099378
    12 0.050786 0.001927 2.008302 2.135853 -0.738796 0.736150
    13 4.746895 0.000000 0.000000 -1.846397 0.311468 -0.879767
    14 10.950472 0.000000 0.000000 0.000000 0.000000 -0.722739
    15 10.950467 0.000000 0.000000 -1.574103 0.019392 0.236566
    16 -0.050780 0.001941 -2.008302 -1.536191 1.023524 1.495305
    17 4.746896 0.000000 -0.000003 1.166598 -1.221533 0.449869
    18 10.950466 0.000000 0.000000 0.000000 0.000000 -1.388866
    19 10.950471 0.000000 0.000000 1.777413 0.065473 -0.222347
    20 2.428221 0.000000 0.000000 -1.374374 0.146838 -1.228415
    21 1.681022 0.975106 0.213387 0.000000 0.000001 -1.745239
  time 2
    0 -0.208480 -3.194280 0.590854 0.000000 1.422363 -4.712344
    1 -1.460982 0.148442 0.000000 -1.570795 -1.570796 0.000000
    2 -0.000004 0.000006 3.077313 -0.026809 -2.972545 0.098993
    3 16.897085 0.000000 0.000000 0.000000 0.000000 -0.411347
    4 16.589727 0.000000 0.000000 0.109234 -0.132000 -0.127400
    5 0.000005 -0.000003 -3.077313 -0.007608 3.156548 0.146324
    6 16.897085 0.000000 0.000000 0.000000 0.000000 -0.272578
    7 16.589727 0.000000 0.000000 -0.062260 0.035889 -0.769973
    8 3.488968 -0.004234 0.000004 -0.000004 -0.000001 0.035662
    9 5.318531 -0.004538 0.000000 -0.136688 0.028320 0.202221
    10 5.701826 -0.005492 0.000000 -0.034620 0.004091 0.117075
    11 6.899484 -0.001818 0.000000 0.000000 -0.026147 0.099378
    12 0.050786 0.001927 2.008302 2.135853 -0.738796 0.736150
    13 4.746895 0.000000 0.000000 -1.846588 0.331082 -0.904479
    14 10.950472 0.000000 0.000000 0.000000 0.000000 -0.617016
    15 10.950467 0.000000 0.000000 -1.574103 0.019392 0.236566
    16 -0.050780 0.001941 -2.008302 -1.536191 1.023524 1.495305
    17 4.746896 0.000000 -0.000003 0.841368 -1.172744 0.714016
    18 10.950466 0.000000 0.000000 0.000000 0.000000 -1.475681
    19 10.950471 0.000000 0.000000 1.755434 0.086241 -0.076071
    20 2.428221 0.000000 0.000000 -1.170732 0.083067 -1.182112
    21 1.681022 0.975106 0.213387 0.000000 0.000001 -1.745239
  time 3
    0 -0.208480 -5.552110 0.966298 0.000000 1.422363 -4.712344
    1 -0.960967 0.074221 0.000000 -1.570795 -1.570796 0.000000
    2 -0.000004 0.000006 3.077313 -0.026809 -2.972545 0.098993
    3 16.897085 0.000000 0.000000 0.000000 0.000000 -0.411347
    4 16.589727 0.000000 0.000000 0.109234 -0.132000 -0.127400
    5 0.000005 -0.000003 -3.077313 -0.007608 3.156548 0.146324
    6 16.897085 0.000000 0.000000 0.000000 0.000000 -0.272578
    7 16.589727 0.000000 0.000000 -0.062260 0.035889 -0.769973
    8 3.488968 -0.004234 0.000004 -0.000004 -0.000001 0.035662
    9 5.318531 -0.004538 0.000000 -0.138757 0.015089 0.106938
    10 5.701826 -0.005492 0.000000 -0.034841 0.001710 0.048441
    11 6.899484 -0.001818 0.000000 0.000000 -0.026147 0.099378
    12 0.050786 0.001927 2.008302 2.135853 -0.738796 0.736150
    13 4.746895 0.000000 0.000000 -1.850210 0.351331 -0.931050
    14 10.950472 0.000000 0.000000 0.000000 0.000000 -0.507099
    15 10.950467 0.000000 0.000000 -1.574103 0.019392 0.236566
    16 -0.050780 0.001941 -2.008302 -1.536191 1.023524 1.495305
    17 4.746896 0.000000 -0.000003 0.631554 -1.079628 0.845038
    18 10.950466 0.000000 0.000000 0.000000 0.000000 -1.549454
    19 10.950471 0.000000 0.000000 1.736660 0.109466 0.095472
    20 2.428221 0.000000 0.000000 -0.953477 0.042580 -1.145390
    21 1.681022 0.975106 0.213387 0.000000 0.000001 -1.745239
  time 4
    0 -0.208480 -7.909940 1.294812 0.000000 1.422363 -4.712344
    1 -0.468764 0.003906 0.000000 -1.570795 -1.570796 0.000000
    2 -0.000004 0.000006 3.077313 -0.026809 -2.972545 0.098993
    3 16.897085 0.000000 0.000000 0.000000 0.000000 -0.411347
    4 16.589727 0.000000 0.000000 0.109234 -0.132000 -0.127400
    5 0.000005 -0.000003 -3.077313 -0.007608 3.156548 0.146324
    6 16.897085 0.000000 0.000000 0.000000 0.000000 -0.272578
    7 16.589727 0.000000 0.000000 -0.062260 0.035889 -0.769973
    8 3.488968 -0.004234 0.000004 -0.000004 -0.000001 0.035662
    9 5.318531 -0.004538 0.000000 -0.139578 0.002301 0.015623
    10 5.701826 -0.005492 0.000000 -0.034869 -0.000575 -0.017383
    11 6.899484 -0.001818 0.000000 0.000000 -0.026147 0.099378
    12 0.050786 0.001927 2.008302 2.135853 -0.738796 0.736150
    13 4.746895 0.000000 0.000000 -1.856693 0.370491 -0.957250
    14 10.950472 0.000000 0.000000 0.000000 0.000000 -0.401758
    15 10.950467 0.000000 0.000000 -1.574103 0.019392 0.236566
    16 -0.050780 0.001941 -2.008302 -1.536191 1.023524 1.495305
    17 4.746896 0.000000 -0.000003 0.528176 -0.967528 0.851250
    18 10.950466 0.000000 0.000000 0.000000 0.000000 -1.589582
    19 10.950471 0.000000 0.000000 1.724297 0.130788 0.272249
    20 2.428221 0.000000 0.000000 -0.741964 0.030913 -1.115948
    21 1.681022 0.975106 0.213387 0.000000 0.000001 -1.745239
  time 5
    0 -0.208480 -10.267770 1.670257 0.000000 1.422363 -4.712344
    1 -0.007813 -0.062502 0.000000 -1.570795 -1.570796 0.000000
    2 -0.000004 0.000006 3.077313 -0.026809 -2.972545 0.098993
    3 16.897085 0.000000 0.000000 0.000000 0.000000 -0.411347
    4 16.589727 0.000000 0.000000 0.109234 -0.132000 -0.127400
    5 0.000005 -0.000003 -3.077313 -0.007608 3.156548 0.146324
    6 16.897085 0.000000 0.000000 0.000000 0.000000 -0.272578
    7 16.589727 0.000000 0.000000 -0.062260 0.035889 -0.769973
    8 3.488968 -0.004234 0.000004 -0.000004 -0.000001 0.035662
    9 5.318531 -0.004538 0.000000 -0.139257 -0.009691 -0.069941
    10 5.701826 -0.005492 0.000000 -0.034758 -0.002716 -0.079048
    11 6.899484 -0.001818 0.000000 0.000000 -0.026147 0.099378
    12 0.050786 0.001927 2.008302 2.135853 -0.738796 0.736150
    13 4.746895 0.000000 0.000000 -1.865558 0.388379 -0.982056
    14 10.950472 0.000000 0.000000 0.000000 0.000000 -0.302976
    15 10.950467 0.000000 0.000000 -1.574103 0.019392 0.236566
    16 -0.050780 0.001941 -2.008302 -1.536191 1.023524 1.495305
    17 4.746896 0.000000 -0.000003 0.484512 -0.850776 0.778619
    18 10.950466 0.000000 0.000000 0.000000 0.000000 -1.586264
    19 10.950471 0.000000 0.000000 1.718710 0.145849 0.440724
    20 2.428221 0.000000 0.000000 -0.543786 0.044874 -1.088550
    21 1.681022 0.975106 0.213387 0.000000 0.000001 -1.745239
  time 6
    0 -0.208480 -12.573968 1.998771 0.000000 1.422363 -4.712344
    1 0.406262 -0.125004 0.000000 -1.570795 -1.570796 0.000000
    2 -0.000004 0.000006 3.077313 -0.026809 -2.972545 0.098993
    3 16.897085 0.000000 0.000000 0.000000 0.000000 -0.411347
    4 16.589727 0.000000 0.000000 0.109234 -0.132000 -0.127400
    5 0.000005 -0.000003 -3.077313 -0.007608 3.156548 0.146324
    6 16.897085 0.000000 0.000000 0.000000 0.000000 -0.272578
    7 16.589727 0.000000 0.000000 -0.062260 0.035889 -0.769973
    8 3.488968 -0.004234 0.000004 -0.000004 -0.000001 0.035662
    9 5.318531 -0.004538 0.000000 -0.138044 -0.020599 -0.148046
    10 5.701826 -0.005492 0.000000 -0.034564 -0.004682 -0.135355
    11 6.899484 -0.001818 0.000000 0.000000 -0.026147 0.099378
    12 0.050786 0.001927 2.008302 2.135853 -0.738796 0.736150
    13 4.746895 0.000000 0.000000 -1.875758 0.404542 -1.004818
    14 10.950472 0.000000 0.000000 0.000000 0.000000 -0.212815
    15 10.950467 0.000000 0.000000 -1.574103 0.019392 0.236566
    16 -0.050780 0.001941 -2.008302 -1.536191 1.023524 1.495305
    17 4.746896 0.000000 -0.000003 0.470754 -0.737347 0.659830
    18 10.950466 0.000000 0.000000 0.000000 0.000000 -1.534252
    19 10.950471 0.000000 0.000000 1.717703 0.151239 0.586007
    20 2.428221 0.000000 0.000000 -0.365148 0.078081 -1.059555
    21 1.681022 0.975106 0.213387 0.000000 0.000001 -1.745239
  time 7
    0 -0.208480 -14.794115 2.233424 0.000000 1.422363 -4.712344
    1 0.765648 -0.175787 0.000000 -1.570795 -1.570796 0.000000
    2 -0.000004 0.000006 3.077313 -0.026809 -2.972545 0.098993
    3 16.897085 0.000000 0.000000 0.000000 0.000000 -0.411347
    4 16.589727 0.000000 0.000000 0.109234 -0.132000 -0.127400
    5 0.000005 -0.000003 -3.077313 -0.007608 3.156548 0.146324
    6 16.897085 0.000000 0.000000 0.000000 0.000000 -0.272578
    7 16.589727 0.000000 0.000000 -0.062260 0.035889 -0.769973
    8 3.488968 -0.004234 0.000004 -0.000004 -0.000001 0.035662
    9 5.318531 -0.004538 0.000000 -0.136331 -0.030046 -0.216482
    10 5.701826 -0.005492 0.000000 -0.034287 -0.006376 -0.184635
    11 6.899484 -0.001818 0.000000 0.000000 -0.026147 0.099378
    12 0.050786 0.001927 2.008302 2.135853 -0.738796 0.736150
    13 4.746895 0.000000 0.000000 -1.886435 0.418617 -1.024606
    14 10.950472 0.000000 0.000000 0.000000 0.000000 -0.134019
    15 10.950467 0.000000 0.000000 -1.574103 0.019392 0.236566
    16 -0.050780 0.001941 -2.008302 -1.536191 1.023524 1.495305
    17 4.746896 0.000000 -0.000003 0.471519 -0.633031 0.517530
    18 10.950466 0.000000 0.000000 0.000000 0.000000 -1.434627
    19 10.950471 0.000000 0.000000 1.717795 0.146879 0.694203
    20 2.428221 0.000000 0.000000 -0.211791 0.122157 -1.028517
    21 1.681022 0.975106 0.213387 0.000000 0.000001 -1.745239
  time 8
    0 -0.208480 -16.773315 2.468077 0.000000 1.422363 -4.712344
    1 1.054720 -0.218757 0.000000 -1.570795 -1.570796 0.000000
    2 -0.000004 0.000006 3.077313 -0.026809 -2.972545 0.098993
    3 16.897085 0.000000 0.000000 0.000000 0.000000 -0.411347
    4 16.589727 0.000000 0.000000 0.109234 -0.132000 -0.127400
    5 0.000005 -0.000003 -3.077313 -0.007608 3.156548 0.146324
    6 16.897085 0.000000 0.000000 0.000000 0.000000 -0.272578
    7 16.589727 0.000000 0.000000 -0.062260 0.035889 -0.769973
    8 3.488968 -0.004234 0.000004 -0.000004 -0.000001 0.035662
    9 5.318531 -0.004538 0.000000 -0.134404 -0.037701 -0.272713
    10 5.701826 -0.005492 0.000000 -0.034010 -0.007750 -0.225130
    11 6.899484 -0.001818 0.000000 0.000000 -0.026147 0.099378
    12 0.050786 0.001927 2.008302 2.135853 -0.738796 0.736150
    13 4.746895 0.000000 0.000000 -1.896253 0.430149 -1.040865
    14 10.950472 0.000000 0.000000 0.000000 0.000000 -0.069182
    15 10.950467 0.000000 0.000000 -1.574103 0.019392 0.236566
    16 -0.050780 0.001941 -2.008302 -1.536191 1.023524 1.495305
    17 4.746896 0.000000 -0.000003 0.476964 -0.544281 0.373416
    18 10.950466 0.000000 0.000000 0.000000 0.000000 -1.299504
    19 10.950471 0.000000 0.000000 1.716696 0.137050 0.756828
    20 2.428221 0.000000 0.000000 -0.088161 0.167929 -0.997734
    21 1.681022 0.975106 0.213387 0.000000 0.000001 -1.745239
  time 9
    0 -0.208480 -17.874783 2.608869 0.000000 1.422363 -4.712344
    1 1.246132 -0.246101 0.000000 -1.570795 -1.570796 0.000000
    2 -0.000004 0.000006 3.077313 -0.026809 -2.972545 0.098993
    3 16.897085 0.000000 0.000000 0.000000 0.000000 -0.411347
    4 16.589727 0.000000 0.000000 0.109234 -0.132000 -0.127400
    5 0.000005 -0.000003 -3.077313 -0.007608 3.156548 0.146324
    6 16.897085 0.000000 0.000000 0.000000 0.000000 -0.272578
    7 16.589727 0.000000 0.000000 -0.062260 0.035889 -0.769973
    8 3.488968 -0.004234 0.000004 -0.000004 -0.000001 0.035662
    9 5.318531 -0.004538 0.000000 -0.132870 -0.042901 -0.311313
    10 5.697919 -0.005492 0.000000 -0.033761 -0.008693 -0.252918
    11 6.899484 -0.001818 0.000000 0.000000 -0.026147 0.099378
    12 0.050786 0.001927 2.008302 2.135853 -0.738796 0.736150
    13 4.746895 0.000000 0.000000 -1.903593 0.437958 -1.051828
    14 10.950472 0.000000 0.000000 0.000000 0.000000 -0.024711
    15 10.950467 0.000000 0.000000 -1.574103 0.019392 0.236566
    16 -0.050780 0.001941 -2.008302 -1.536191 1.023524 1.495305
    17 4.746896 0.000000 -0.000003 0.467601 -0.498150 0.280238
    18 10.950466 0.000000 0.000000 0.000000 0.000000 -1.185680
    19 10.950471 0.000000 0.000000 1.716329 0.134831 0.770364
    20 2.428221 0.000000 0.000000 -0.004630 0.203828 -0.973401
    21 1.681022 0.975106 0.213387 0.000000 0.000001 -1.745239
  time 10
    0 1.216770 -16.291423 2.937383 0.000000 1.422363 -4.712344
    1 1.089877 -0.746117 0.000000 -1.570795 -1.570796 0.000000
    2 -0.000004 0.000006 3.077313 -0.026809 -2.972545 0.098993
    3 16.897085 0.000000 0.000000 0.000000 0.000000 -0.411347
    4 16.589727 0.000000 0.000000 0.109234 -0.132000 -0.127400
    5 0.000005 -0.000003 -3.077313 -0.007608 3.156548 0.146324
    6 16.897085 0.000000 0.000000 0.000000 0.000000 -0.272578
    7 16.589727 0.000000 0.000000 -0.062260 0.035889 -0.769973
    8 3.488968 -0.004234 0.000004 -0.000004 -0.000001 0.035662
    9 5.318531 -0.004538 0.000000 -0.431864 -0.134809 -0.284542
    10 5.697919 -0.005492 0.000000 -0.033761 -0.008693 -0.252918
    11 6.899484 -0.001818 0.000000 0.000000 -0.026147 0.099378
    12 0.050786 0.001927 2.008302 2.135853 -0.738796 0.736150
    13 4.746895 0.000000 0.000000 -1.640015 0.629464 -0.753694
    14 10.950472 0.000000 0.000000 0.000000 0.000000 -0.024711
    15 10.950467 0.000000 0.000000 -1.574103 0.019392 0.236566
    16 -0.050780 0.001941 -2.008302 -1.536191 1.023524 1.495305
    17 4.746896 0.000000 -0.000003 0.533335 -0.737727 -0.102603
    18 10.950466 0.000000 0.000000 0.000000 0.000000 -1.098865
    19 10.950471 0.000000 0.000000 1.733821 0.255236 0.693030
    20 2.428221 0.000000 0.000000 -0.116870 0.335059 -0.630062
    21 1.681022 0.975106 0.213387 0.000000 0.000001 -1.745239
  time 11
    0 2.607539 -14.587589 3.172036 0.000000 1.422363 -4.712344
    1 0.792993 -1.164098 0.000000 -1.570795 -1.570796 0.000000
    2 -0.000004 0.000006 3.077313 -0.026809 -2.972545 0.098993
    3 16.897085 0.000000 0.000000 0.000000 0.000000 -0.411347
    4 16.589727 0.000000 0.000000 0.109234 -0.132000 -0.127400
    5 0.000005 -0.000003 -3.077313 -0.007608 3.156548 0.146324
    6 16.897085 0.000000 0.000000 0.000000 0.000000 -0.272578
    7 16.589727 0.000000 0.000000 -0.062260 0.035889 -0.769973
    8 3.488968 -0.004234 0.000004 -0.000004 -0.000001 0.035662
    9 5.318531 -0.004538 0.000000 -0.731820 -0.213243 -0.232179
    10 5.697919 -0.005492 0.000000 -0.033761 -0.008693 -0.252918
    11 6.899484 -0.001818 0.000000 0.000000 -0.026147 0.099378
    12 0.050786 0.001927 2.008302 2.135853 -0.738796 0.736150
    13 4.746895 0.000000 0.000000 -1.309231 0.739881 -0.358659
    14 10.950472 0.000000 0.000000 0.000000 0.000000 -0.024711
    15 10.950467 0.000000 0.000000 -1.574103 0.019392 0.236566
    16 -0.050780 0.001941 -2.008302 -1.536191 1.023524 1.495305
    17 4.746896 0.000000 -0.000003 0.733404 -0.899185 -0.568874
    18 10.950466 0.000000 0.000000 0.000000 0.000000 -0.965825
    19 10.950471 0.000000 0.000000 1.741239 0.338227 0.569403
    20 2.428221 0.000000 0.000000 -0.080568 0.418675 -0.218196
    21 1.681022 0.975106 0.213387 0.000000 0.000001 -1.745239
  time 12
    0 3.843138 -13.038650 3.172036 0.000000 1.422363 -4.712344
    1 0.460952 -1.433637 0.000000 -1.570795 -1.570796 0.000000
    2 -0.000004 0.000006 3.077313 -0.026809 -2.972545 0.098993
    3 16.897085 0.000000 0.000000 0.000000 0.000000 -0.411347
    4 16.589727 0.000000 0.000000 0.109234 -0.132000 -0.127400
    5 0.000005 -0.000003 -3.077313 -0.007608 3.156548 0.146324
    6 16.897085 0.000000 0.000000 0.000000 0.000000 -0.272578
    7 16.589727 0.000000 0.000000 -0.062260 0.035889 -0.769973
    8 3.488968 -0.004234 0.000004 -0.000004 -0.000001 0.035662
    9 5.318531 -0.004538 0.000000 -0.988784 -0.264352 -0.171051
    10 5.697919 -0.005492 0.000000 -0.033761 -0.008693 -0.252918
    11 6.899484 -0.001818 0.000000 0.000000 -0.026147 0.099378
    12 0.050786 0.001927 2.008302 2.135853 -0.738796 0.736150
    13 4.746895 0.000000 0.000000 -1.012384 0.746237 0.015844
    14 10.950472 0.000000 0.000000 0.000000 0.000000 -0.024711
    15 10.950467 0.000000 0.000000 -1.574103 0.019392 0.236566
    16 -0.050780 0.001941 -2.008302 -1.536191 1.023524 1.495305
    17 4.746896 0.000000 -0.000003 0.972836 -0.969711 -1.006666
    18 10.950466 0.000000 0.000000 0.000000 0.000000 -0.862882
    19 10.950471 0.000000 0.000000 1.742429 0.385390 0.455162
    20 2.428221 0.000000 0.000000 0.025189 0.391750 0.150051
    21 1.681022 0.975106 0.213387 0.000000 0.000001 -1.745239
  time 13
    0 4.532776 -12.178128 3.125105 0.000000 1.422363 -4.712344
    1 0.195318 -1.566454 0.000000 -1.570795 -1.570796 0.000000
    2 -0.000004 0.000006 3.077313 -0.026809 -2.972545 0.098993
    3 16.897085 0.000000 0.000000 0.000000 0.000000 -0.411347
    4 16.589727 0.000000 0.000000 0.109234 -0.132000 -0.127400
    5 0.000005 -0.000003 -3.077313 -0.007608 3.156548 0.146324
    6 16.897085 0.000000 0.000000 0.000000 0.000000 -0.272578
    7 16.589727 0.000000 0.000000 -0.062260 0.035889 -0.769973
    8 3.488968 -0.004234 0.000004 -0.000004 -0.000001 0.035662
    9 5.318531 -0.004538 0.003906 -1.169143 -0.289862 -0.121601
    10 5.697919 -0.005492 0.000000 -0.033761 -0.008693 -0.252918
    11 6.899484 -0.001818 0.000000 0.000000 -0.026147 0.099378
    12 0.050786 0.001927 2.008302 2.135853 -0.738796 0.736150
    13 4.746895 0.000000 0.000000 -0.830500 0.704558 0.265017
    14 10.950472 0.000000 0.000000 0.000000 0.000000 -0.024711
    15 10.950467 0.000000 0.000000 -1.574103 0.019392 0.236566
    16 -0.050780 0.001941 -2.008302 -1.536191 1.023524 1.495305
    17 4.746896 0.000000 -0.000003 1.152171 -0.956612 -1.312958
    18 10.950466 0.000000 0.000000 0.000000 0.000000 -0.767192
    19 10.950471 0.000000 0.000000 1.742246 0.397676 0.366367
    20 2.428221 0.000000 0.000000 0.097978 0.308185 0.384372
    21 1.681022 0.975106 0.213387 0.000000 0.000001 -1.745239
  time 14
    0 4.607486 -14.880167 3.218966 0.000000 1.422363 -4.712344
    1 0.234382 -1.101596 0.000000 -1.570795 -1.570796 0.000000
    2 -0.000004 0.000006 3.077313 -0.026809 -2.972545 0.098993
    3 16.897085 0.000000 0.000000 0.000000 0.000000 -0.411347
    4 16.589727 0.000000 0.000000 0.109234 -0.132000 -0.127400
    5 0.000005 -0.000003 -3.077313 -0.007608 3.156548 0.146324
    6 16.897085 0.000000 0.000000 0.000000 0.000000 -0.272578
    7 16.589727 0.000000 0.000000 -0.062260 0.035889 -0.769973
    8 3.488968 -0.004234 0.000004 -0.000004 -0.000001 0.035662
    9 5.318531 -0.004538 0.000000 -1.011012 -0.191604 -0.119567
    10 5.701826 -0.005492 0.000000 -0.034066 -0.007494 -0.217605
    11 6.899484 -0.001818 0.000000 0.000000 -0.026147 0.099378
    12 0.050786 0.001927 2.008302 2.135853 -0.738796 0.736150
    13 4.746895 0.000000 0.000000 -1.177585 0.431693 -0.120542
    14 10.950472 0.000000 0.000000 0.000000 0.000000 -0.024711
    15 10.950467 0.000000 0.000000 -1.574103 0.019392 0.236566
    16 -0.050780 0.001941 -2.008302 -1.536191 1.023524 1.495305
    17 4.746896 0.000000 -0.000003 0.989651 -0.839576 -1.021001
    18 10.950466 0.000000 0.000000 0.000000 0.000000 -1.086286
    19 10.950471 0.000000 0.000000 1.739133 0.377067 0.680938
    20 2.428221 0.000000 0.000000 -0.027134 0.258973 0.117288
    21 1.681022 0.975106 0.213387 0.000000 0.000001 -1.745239
  time 15
    0 4.630474 -17.616626 3.125105 0.000000 1.422363 -4.712344
    1 0.136723 -0.644551 0.000000 -1.570795 -1.570796 0.000000
    2 -0.000004 0.000006 3.077313 -0.026809 -2.972545 0.098993
    3 16.897085 0.000000 0.000000 0.000000 0.000000 -0.411347
    4 16.589727 0.000000 0.000000 0.109234 -0.132000 -0.127400
    5 0.000005 -0.000003 -3.077313 -0.007608 3.156548 0.146324
    6 16.897085 0.000000 0.000000 0.000000 0.000000 -0.272578
    7 16.589727 0.000000 0.000000 -0.062260 0.035889 -0.769973
    8 3.488968 -0.004234 0.000004 -0.000004 -0.000001 0.035662
    9 5.318531 -0.004538 0.000000 -0.834863 -0.100006 -0.090962
    10 5.701826 -0.005492 0.000000 -0.034315 -0.006264 -0.181414
    11 6.899484 -0.001818 0.000000 0.000000 -0.026147 0.099378
    12 0.050786 0.001927 2.008302 2.135853 -0.738796 0.736150
    13 4.746895 0.000000 0.000000 -1.400459 0.040601 -0.343980
    14 10.950472 0.000000 0.000000 0.000000 0.000000 -0.024711
    15 10.950467 0.000000 0.000000 -1.574103 0.019392 0.236566
    16 -0.050780 0.001941 -2.008302 -1.536191 1.023524 1.495305
    17 4.746896 0.000000 -0.000003 0.977995 -0.585856 -0.816392
    18 10.950466 0.000000 0.000000 0.000000 0.000000 -1.281292
    19 10.950471 0.000000 0.000000 1.712025 0.304063 0.973490
    20 2.428221 0.000000 0.000000 -0.144281 0.175956 -0.155544
    21 1.681022 0.975106 0.213387 0.000000 0.000001 -1.745239
  time 16
    0 4.613233 -20.456348 2.843521 0.000000 1.422363 -4.712344
    1 -0.074221 -0.289071 0.000000 -1.570795 -1.570796 0.000000
    2 -0.000004 0.000006 3.077313 -0.026809 -2.972545 0.098993
    3 16.897085 0.000000 0.000000 0.000000 0.000000 -0.411347
    4 16.589727 0.000000 0.000000 0.109234 -0.132000 -0.127400
    5 0.000005 -0.000003 -3.077313 -0.007608 3.156548 0.146324
    6 16.897085 0.000000 0.000000 0.000000 0.000000 -0.272578
    7 16.589727 0.000000 0.000000 -0.062260 0.035889 -0.769973
    8 3.488968 -0.004234 0.000004 -0.000004 -0.000001 0.035662
    9 5.318531 -0.004538 0.000000 -0.668882 -0.031794 -0.040984
    10 5.701826 -0.005492 0.000000 -0.034509 -0.005113 -0.148122
    11 6.899484 -0.001818 0.000000 0.000000 -0.026147 0.099378
    12 0.050786 0.001927 2.008302 2.135853 -0.738796 0.736150
    13 4.746895 0.000000 0.000000 -1.551361 -0.367018 -0.436978
    14 10.950472 0.000000 0.000000 0.000000 0.000000 -0.024711
    15 10.950467 0.000000 0.000000 -1.574103 0.019392 0.236566
    16 -0.050780 0.001941 -2.008302 -1.536191 1.023524 1.495305
    17 4.746896 0.000000 -0.000003 1.065704 -0.243480 -0.679349
    18 10.950466 0.000000 0.000000 0.000000 0.000000 -1.300816
    19 10.950471 0.000000 0.000000 1.647278 0.199036 1.180497
    20 2.428221 0.000000 0.000000 -0.231979 0.068308 -0.385395
    21 1.681022 0.975106 0.213387 0.000000 0.000001 -1.745239
  time 17
    0 4.584498 -23.399333 2.468077 0.000000 1.422363 -4.712344
    1 -0.343760 -0.054689 0.000000 -1.570795 -1.570796 0.000000
    2 -0.000004 0.000006 3.077313 -0.026809 -2.972545 0.098993
    3 16.897085 0.000000 0.000000 0.000000 0.000000 -0.411347
    4 16.589727 0.000000 0.000000 0.109234 -0.132000 -0.127400
    5 0.000005 -0.000003 -3.077313 -0.007608 3.156548 0.146324
    6 16.897085 0.000000 0.000000 0.000000 0.000000 -0.272578
    7 16.589727 0.000000 0.000000 -0.062260 0.035889 -0.769973
    8 3.488968 -0.004234 0.000004 -0.000004 -0.000001 0.035662
    9 5.318531 -0.004538 0.000000 -0.520420 0.010819 0.018109
    10 5.701826 -0.005492 0.000000 -0.034620 -0.004107 -0.118929
    11 6.899484 -0.001818 0.000000 0.000000 -0.026147 0.099378
    12 0.050786 0.001927 2.008302 2.135853 -0.738796 0.736150
    13 4.746895 0.000000 0.000000 -1.699022 -0.739132 -0.433634
    14 10.950472 0.000000 0.000000 0.000000 0.000000 -0.024711
    15 10.950467 0.000000 0.000000 -1.574103 0.019392 0.236566
    16 -0.050780 0.001941 -2.008302 -1.536191 1.023524 1.495305
    17 4.746896 0.000000 -0.000003 1.171280 0.115886 -0.549856
    18 10.950466 0.000000 0.000000 0.000000 0.000000 -1.168625
    19 10.950471 0.000000 0.000000 1.564674 0.101619 1.276691
    20 2.428221 0.000000 0.000000 -0.291989 -0.045522 -0.567538
    21 1.681022 0.975106 0.213387 0.000000 0.000001 -1.745239
  time 18
    0 4.550016 -26.462791 2.139563 0.000000 1.422363 -4.712344
    1 -0.609394 0.066408 0.000000 -1.570795 -1.570796 0.000000
    2 -0.000004 0.000006 3.077313 -0.026809 -2.972545 0.098993
    3 16.897085 0.000000 0.000000 0.000000 0.000000 -0.411347
    4 16.589727 0.000000 0.000000 0.109234 -0.132000 -0.127400
    5 0.000005 -0.000003 -3.077313 -0.007608 3.156548 0.146324
    6 16.897085 0.000000 0.000000 0.000000 0.000000 -0.272578
    7 16.589727 0.000000 0.000000 -0.062260 0.035889 -0.769973
    8 3.488968 -0.004234 0.000004 -0.000004 -0.000001 0.035662
    9 5.318531 -0.004538 0.000000 -0.396898 0.031661 0.074616
    10 5.701826 -0.005492 0.000000 -0.034730 -0.003276 -0.094948
    11 6.899484 -0.001818 0.000000 0.000000 -0.026147 0.099378
    12 0.050786 0.001927 2.008302 2.135853 -0.738796 0.736150
    13 4.746895 0.000000 0.000000 -1.909599 -1.040056 -0.314064
    14 10.950472 0.000000 0.000000 0.000000 0.000000 -0.024711
    15 10.950467 0.000000 0.000000 -1.574103 0.019392 0.236566
    16 -0.050780 0.001941 -2.008302 -1.536191 1.023524 1.495305
    17 4.746896 0.000000 -0.000003 1.270072 0.412984 -0.408035
    18 10.950466 0.000000 0.000000 0.000000 0.000000 -0.977169
    19 10.950471 0.000000 0.000000 1.491685 0.031072 1.287790
    20 2.428221 0.000000 0.000000 -0.330142 -0.149580 -0.704018
    21 1.681022 0.975106 0.213387 0.000000 0.000001 -1.745239
  time 19
    0 4.532776 -29.715564 1.811049 0.000000 1.422363 -4.712344
    1 -0.804712 0.117191 0.000000 -1.570795 -1.570796 0.000000
    2 -0.000004 0.000006 3.077313 -0.026809 -2.972545 0.098993
    3 16.897085 0.000000 0.000000 0.000000 0.000000 -0.411347
    4 16.589727 0.000000 0.000000 0.109234 -0.132000 -0.127400
    5 0.000005 -0.000003 -3.077313 -0.007608 3.156548 0.146324
    6 16.897085 0.000000 0.000000 0.000000 0.000000 -0.272578
    7 16.589727 0.000000 0.000000 -0.062260 0.035889 -0.769973
    8 3.488968 -0.004234 0.000004 -0.000004 -0.000001 0.035662
    9 5.318531 -0.004538 0.000000 -0.311909 0.037900 0.116180
    10 5.701826 -0.005492 0.000000 -0.034758 -0.002700 -0.078492
    11 6.899484 -0.001818 0.000000 0.000000 -0.026147 0.099378
    12 0.050786 0.001927 2.008302 2.135853 -0.738796 0.736150
    13 4.746895 0.000000 0.000000 -2.227895 -1.224297 -0.049376
    14 10.950472 0.000000 0.000000 0.000000 0.000000 -0.024711
    15 10.950467 0.000000 0.000000 -1.574103 0.019392 0.236566
    16 -0.050780 0.001941 -2.008302 -1.536191 1.023524 1.495305
    17 4.746896 0.000000 -0.000003 1.358259 0.554225 -0.268507
    18 10.950466 0.000000 0.000000 0.000000 0.000000 -0.894907
    19 10.950471 0.000000 0.000000 1.444888 -0.010384 1.292663
    20 2.428221 0.000000 0.000000 -0.351349 -0.225268 -0.791066
    21 1.681022 0.975106 0.213387 0.000000 0.000001 -1.745239
  time 20
    0 4.532776 -35.481060 1.811049 0.000000 1.422363 -4.712344
    1 -0.804712 0.117191 0.000000 -1.570795 -1.570796 0.000000
    2 -0.000004 0.000006 3.077313 -0.026809 -2.972545 0.098993
    3 16.897085 0.000000 0.000000 0.000000 0.000000 -0.411347
    4 16.589727 0.000000 0.000000 0.109234 -0.132000 -0.127400
    5 0.000005 -0.000003 -3.077313 -0.007608 3.156548 0.146324
    6 16.897085 0.000000 0.000000 0.000000 0.000000 -0.272578
    7 16.589727 0.000000 0.000000 -0.062260 0.035889 -0.769973
    8 3.488968 -0.004234 0.000004 -0.000004 -0.000001 0.035662
    9 5.318531 -0.004538 0.000000 -0.311909 0.037900 0.116180
    10 5.701826 -0.005492 0.000000 -0.034758 -0.002700 -0.078492
    11 6.899484 -0.001818 0.000000 0.000000 -0.026147 0.099378
    12 0.050786 0.001927 2.008302 2.135853 -0.738796 0.736150
    13 4.746895 0.000000 0.000000 -2.166790 -1.192244 -0.114781
    14 10.950472 0.000000 0.000000 0.000000 0.000000 -0.024711
    15 10.950467 0.000000 0.000000 -1.574103 0.019392 0.236566
    16 -0.050780 0.001941 -2.008302 -1.660442 1.021451 1.349769
    17 4.746896 0.000000 -0.000003 1.608965 0.677051 -0.059885
    18 10.950466 0.000000 0.000000 0.000000 0.000000 -0.894907
    19 10.950471 0.000000 0.000000 1.452947 -0.056516 0.941546
    20 2.428221 0.000000 0.000000 -0.085476 -0.190864 -1.002971
    21 1.681022 0.975106 0.213387 0.000000 0.000001 -1.745239
  time 21
    0 3.486826 -43.363440 2.655799 0.000000 1.422363 -4.712344
    1 -0.804712 0.117191 0.000000 -1.570795 -1.570796 0.000000
    2 -0.000004 0.000006 3.077313 -0.026809 -2.972545 0.098993
    3 16.897085 0.000000 0.000000 0.000000 0.000000 -0.411347
    4 16.589727 0.000000 0.000000 0.109234 -0.132000 -0.127400
    5 0.000005 -0.000003 -3.077313 -0.007608 3.156548 0.146324
    6 16.897085 0.000000 0.000000 0.000000 0.000000 -0.272578
    7 16.589727 0.000000 0.000000 -0.062260 0.035889 -0.769973
    8 3.488968 -0.004234 0.000004 -0.000004 -0.000001 0.035662
    9 5.318531 -0.004538 0.000000 -0.311909 0.037900 0.116180
    10 5.701826 -0.005492 0.000000 -0.034758 -0.002700 -0.078492
    11 6.899484 -0.001818 0.000000 0.000000 -0.026147 0.099378
    12 0.050786 0.001927 2.008302 2.135853 -0.738796 0.736150
    13 4.746895 0.000000 0.000000 -2.101110 -1.148294 -0.186040
    14 10.950472 0.000000 0.000000 0.000000 0.000000 -0.024711
    15 10.950467 0.000000 0.000000 -1.574103 0.019392 0.236566
    16 -0.050780 0.001941 -2.008302 -1.778175 1.010512 1.211328
    17 4.746896 0.000000 -0.000003 1.884990 0.740457 0.195279
    18 10.950466 0.000000 0.000000 0.000000 0.000000 -0.894907
    19 10.950471 0.000000 0.000000 1.478498 -0.090838 0.598370
    20 2.428221 0.000000 0.000000 0.153449 -0.107149 -1.187413
    21 1.681022 0.975106 0.213387 0.000000 0.000001 -1.745239
  time 22
    0 2.216744 -52.089132 3.406688 0.000000 1.422363 -4.712344
    1 -0.804712 0.117191 0.000000 -1.570795 -1.570796 0.000000
    2 -0.000004 0.000006 3.077313 -0.026809 -2.972545 0.098993
    3 16.897085 0.000000 0.000000 0.000000 0.000000 -0.411347
    4 16.589727 0.000000 0.000000 0.109234 -0.132000 -0.127400
    5 0.000005 -0.000003 -3.077313 -0.007608 3.156548 0.146324
    6 16.897085 0.000000 0.000000 0.000000 0.000000 -0.272578
    7 16.589727 0.000000 0.000000 -0.062260 0.035889 -0.769973
    8 3.488968 -0.004234 0.000004 -0.000004 -0.000001 0.035662
    9 5.318531 -0.004538 0.000000 -0.311909 0.037900 0.116180
    10 5.701826 -0.005492 0.000000 -0.034758 -0.002700 -0.078492
    11 6.899484 -0.001818 0.000000 0.000000 -0.026147 0.099378
    12 0.050786 0.001927 2.008302 2.135853 -0.738796 0.736150
    13 4.746895 0.000000 0.000000 -2.054305 -1.108341 -0.237881
    14 10.950472 0.000000 0.000000 0.000000 0.000000 -0.024711
    15 10.950467 0.000000 0.000000 -1.574103 0.019392 0.236566
    16 -0.050780 0.001941 -2.008302 -1.871172 0.995081 1.100978
    17 4.746896 0.000000 -0.000003 2.124423 0.749284 0.431138
    18 10.950466 0.000000 0.000000 0.000000 0.000000 -0.894907
    19 10.950471 0.000000 0.000000 1.508078 -0.110417 0.311502
    20 2.428221 0.000000 0.000000 0.335977 -0.007280 -1.320700
    21 1.681022 0.975106 0.213387 0.000000 0.000001 -1.745239
  time 23
    0 0.871952 -61.090190 4.016786 0.000000 1.422363 -4.712344
    1 -0.804712 0.117191 0.000000 -1.570795 -1.570796 0.000000
    2 -0.000004 0.000006 3.077313 -0.026809 -2.972545 0.098993
    3 16.897085 0.000000 0.000000 0.000000 0.000000 -0.411347
    4 16.589727 0.000000 0.000000 0.109234 -0.132000 -0.127400
    5 0.000005 -0.000003 -3.077313 -0.007608 3.156548 0.146324
    6 16.897085 0.000000 0.000000 0.000000 0.000000 -0.272578
    7 16.589727 0.000000 0.000000 -0.062260 0.035889 -0.769973
    8 3.488968 -0.004234 0.000004 -0.000004 -0.000001 0.035662
    9 5.318531 -0.004538 0.000000 -0.311909 0.037900 0.116180
    10 5.701826 -0.005492 0.000000 -0.034758 -0.002700 -0.078492
    11 6.899484 -0.001818 0.000000 0.000000 -0.026147 0.099378
    12 0.050786 0.001927 2.008302 2.135853 -0.738796 0.736150
    13 4.746895 0.000000 0.000000 -2.021989 -1.075016 -0.274300
    14 10.950472 0.000000 0.000000 0.000000 0.000000 -0.024711
    15 10.950467 0.000000 0.000000 -1.574103 0.019392 0.236566
    16 -0.050780 0.001941 -2.008302 -1.943940 0.978230 1.013734
    17 4.746896 0.000000 -0.000003 2.316083 0.726883 0.628675
    18 10.950466 0.000000 0.000000 0.000000 0.000000 -0.894907
    19 10.950471 0.000000 0.000000 1.536101 -0.120008 0.072281
    20 2.428221 0.000000 0.000000 0.477480 0.092490 -1.416817
    21 1.681022 0.975106 0.213387 0.000000 0.000001 -1.745239
  time 24
    0 -0.392383 -69.781461 4.720745 0.000000 1.422363 -4.712344
    1 -0.804712 0.117191 0.000000 -1.570795 -1.570796 0.000000
    2 -0.000004 0.000006 3.077313 -0.026809 -2.972545 0.098993
    3 16.897085 0.000000 0.000000 0.000000 0.000000 -0.411347
    4 16.589727 0.000000 0.000000 0.109234 -0.132000 -0.127400
    5 0.000005 -0.000003 -3.077313 -0.007608 3.156548 0.146324
    6 16.897085 0.000000 0.000000 0.000000 0.000000 -0.272578
    7 16.589727 0.000000 0.000000 -0.062260 0.035889 -0.769973
    8 3.488968 -0.004234 0.000004 -0.000004 -0.000001 0.035662
    9 5.318531 -0.004538 0.000000 -0.311909 0.037900 0.116180
    10 5.701826 -0.005492 0.000000 -0.034758 -0.002700 -0.078492
    11 6.899484 -0.001818 0.000000 0.000000 -0.026147 0.099378
    12 0.050786 0.001927 2.008302 2.135853 -0.738796 0.736150
    13 4.746895 0.000000 0.000000 -2.021989 -1.075016 -0.274300
    14 10.950472 0.000000 0.000000 0.000000 0.000000 -0.024711
    15 10.950467 0.000000 0.000000 -1.574103 0.019392 0.236566
    16 -0.050780 0.001941 -2.008302 -1.943940 0.978230 1.013734
    17 4.746896 0.000000 -0.000003 2.316083 0.726883 0.628675
    18 10.950466 0.000000 0.000000 0.000000 0.000000 -0.894907
    19 10.950471 0.000000 0.000000 1.536101 -0.120008 0.072281
    20 2.428221 0.000000 0.000000 0.477480 0.092490 -1.416817
    21 1.681022 0.975106 0.213387 0.000000 0.000001 -1.745239
  time 25
    0 -1.432586 -77.612210 5.283912 0.000000 1.422363 -4.712344
    1 -0.804712 0.117191 0.000000 -1.570795 -1.570796 0.000000
    2 -0.000004 0.000006 3.077313 -0.026809 -2.972545 0.098993
    3 16.897085 0.000000 0.000000 0.000000 0.000000 -0.411347
    4 16.589727 0.000000 0.000000 0.109234 -0.132000 -0.127400
    5 0.000005 -0.000003 -3.077313 -0.007608 3.156548 0.146324
    6 16.897085 0.000000 0.000000 0.000000 0.000000 -0.272578
    7 16.589727 0.000000 0.000000 -0.062260 0.035889 -0.769973
    8 3.488968 -0.004234 0.000004 -0.000004 -0.000001 0.035662
    9 5.318531 -0.004538 0.000000 -0.311909 0.037900 0.116180
    10 5.701826 -0.005492 0.000000 -0.034758 -0.002700 -0.078492
    11 6.899484 -0.001818 0.000000 0.000000 -0.026147 0.099378
    12 0.050786 0.001927 2.008302 2.135853 -0.738796 0.736150
    13 4.746895 0.000000 0.000000 -2.021989 -1.075016 -0.274300
    14 10.950472 0.000000 0.000000 0.000000 0.000000 -0.024711
    15 10.950467 0.000000 0.000000 -1.574103 0.019392 0.236566
    16 -0.050780 0.001941 -2.008302 -1.943940 0.978230 1.013734
    17 4.746896 0.000000 -0.000003 2.316083 0.726883 0.628675
    18 10.950466 0.000000 0.000000 0.000000 0.000000 -0.894907
    19 10.950471 0.000000 0.000000 1.536101 -0.120008 0.072281
    20 2.428221 0.000000 0.000000 0.477480 0.092490 -1.416817
    21 1.681022 0.975106 0.213387 0.000000 0.000001 -1.745239
  time 26
    0 -1.432586 -82.878603 2.421146 0.000000 1.422363 -4.712344
    1 -0.804712 0.117191 0.000000 -1.570795 -1.570796 0.000000
    2 -0.000004 0.000006 3.077313 -0.026809 -2.972545 0.098993
    3 16.897085 0.000000 0.000000 0.000000 0.000000 -0.411347
    4 16.589727 0.000000 0.000000 0.109234 -0.132000 -0.127400
    5 0.000005 -0.000003 -3.077313 -0.007608 3.156548 0.146324
    6 16.897085 0.000000 0.000000 0.000000 0.000000 -0.272578
    7 16.589727 0.000000 0.000000 -0.062260 0.035889 -0.769973
    8 3.488968 -0.004234 0.000004 -0.000004 -0.000001 0.035662
    9 5.318531 -0.004538 0.000000 -0.311909 0.037900 0.116180
    10 5.701826 -0.005492 0.000000 -0.034758 -0.002700 -0.078492
    11 6.899484 -0.001818 0.000000 0.000000 -0.026147 0.099378
    12 0.050786 0.001927 2.008302 2.135853 -0.738796 0.736150
    13 4.746895 0.000000 0.000000 -2.021989 -1.075016 -0.274300
    14 10.950472 0.000000 0.000000 0.000000 0.000000 -0.024711
    15 10.950467 0.000000 0.000000 -1.574103 0.019392 0.236566
    16 -0.050780 0.001941 -2.008302 -1.943940 0.978230 1.013734
    17 4.746896 0.000000 -0.000003 2.316083 0.726883 0.628675
    18 10.950466 0.000000 0.000000 0.000000 0.000000 -0.894907
    19 10.950471 0.000000 0.000000 1.536101 -0.120008 0.072281
    20 2.428221 0.000000 0.000000 0.477480 0.092490 -1.416817
    21 1.681022 0.975106 0.213387 0.000000 0.000001 -1.745239
  time 27
    0 -1.432586 -89.917672 -2.788148 0.000000 1.422363 -4.712344
    1 -0.804712 0.117191 0.000000 -1.570795 -1.570796 0.000000
    2 -0.000004 0.000006 3.077313 -0.026809 -2.972545 0.098993
    3 16.897085 0.000000 0.000000 0.000000 0.000000 -0.411347
    4 16.589727 0.000000 0.000000 0.109234 -0.132000 -0.127400
    5 0.000005 -0.000003 -3.077313 -0.007608 3.156548 0.146324
    6 16.897085 0.000000 0.000000 0.000000 0.000000 -0.272578
    7 16.589727 0.000000 0.000000 -0.062260 0.035889 -0.769973
    8 3.488968 -0.004234 0.000004 -0.000004 -0.000001 0.035662
    9 5.318531 -0.004538 0.000000 -0.311909 0.037900 0.116180
    10 5.701826 -0.005492 0.000000 -0.034758 -0.002700 -0.078492
    11 6.899484 -0.001818 0.000000 0.000000 -0.026147 0.099378
    12 0.050786 0.001927 2.008302 2.357128 -0.882414 0.569613
    13 4.746895 0.000000 0.000000 -2.338188 -1.166455 -0.051141
    14 10.950472 0.000000 0.000000 0.000000 0.000000 -0.121204
    15 10.950467 0.000000 0.000000 -1.574103 0.019392 0.236566
    16 -0.050780 0.001941 -2.008302 -1.943940 0.978230 1.013734
    17 4.746896 0.000000 -0.000003 2.316083 0.726883 0.628675
    18 10.950466 0.000000 0.000000 0.000000 0.000000 -0.894907
    19 10.950471 0.000000 0.000000 1.536101 -0.120008 0.072281
    20 2.428221 0.000000 0.000000 0.477480 0.092490 -1.416817
    21 1.681022 0.975106 0.213387 0.000000 0.000001 -1.745239
  time 28
    0 -1.432586 -98.023788 -8.701402 0.000000 1.422363 -4.712344
    1 -0.804712 0.117191 0.000000 -1.570795 -1.570796 0.000000
    2 -0.000004 0.000006 3.077313 -0.026809 -2.972545 0.098993
    3 16.897085 0.000000 0.000000 0.000000 0.000000 -0.411347
    4 16.589727 0.000000 0.000000 0.109234 -0.132000 -0.127400
    5 0.000005 -0.000003 -3.077313 -0.007608 3.156548 0.146324
    6 16.897085 0.000000 0.000000 0.000000 0.000000 -0.272578
    7 16.589727 0.000000 0.000000 -0.062260 0.035889 -0.769973
    8 3.488968 -0.004234 0.000004 -0.000004 -0.000001 0.035662
    9 5.318531 -0.004538 0.000000 -0.311909 0.037900 0.116180
    10 5.701826 -0.005492 0.000000 -0.034758 -0.002700 -0.078492
    11 6.899484 -0.001818 0.000000 0.000000 -0.026147 0.099378
    12 0.050786 0.001927 2.008302 2.761043 -1.013364 0.232322
    13 4.746895 0.000000 0.000000 -2.895373 -1.183617 0.393041
    14 10.950472 0.000000 0.000000 0.000000 0.000000 -0.244699
    15 10.950467 0.000000 0.000000 -1.574103 0.019392 0.236566
    16 -0.050780 0.001941 -2.008302 -1.943940 0.978230 1.013734
    17 4.746896 0.000000 -0.000003 2.316083 0.726883 0.628675
    18 10.950466 0.000000 0.000000 0.000000 0.000000 -0.894907
    19 10.950471 0.000000 0.000000 1.536101 -0.120008 0.072281
    20 2.428221 0.000000 0.000000 0.477480 0.092490 -1.416817
    21 1.681022 0.975106 0.213387 0.000000 0.000001 -1.745239
  time 29
    0 -1.432586 -106.560165 -14.004557 0.000000 1.422363 -4.712344
    1 -0.804712 0.117191 0.000000 -1.570795 -1.570796 0.000000
    2 -0.000004 0.000006 3.077313 -0.026809 -2.972545 0.098993
    3 16.897085 0.000000 0.000000 0.000000 0.000000 -0.411347
    4 16.589727 0.000000 0.000000 0.109234 -0.132000 -0.127400
    5 0.000005 -0.000003 -3.077313 -0.007608 3.156548 0.146324
    6 16.897085 0.000000 0.000000 0.000000 0.000000 -0.272578
    7 16.589727 0.000000 0.000000 -0.062260 0.035889 -0.769973
    8 3.488968 -0.004234 0.000004 -0.000004 -0.000001 0.035662
    9 5.318531 -0.004538 0.000000 -0.311909 0.037900 0.116180
    10 5.701826 -0.005492 0.000000 -0.034758 -0.002700 -0.078492
    11 6.899484 -0.001818 0.000000 0.000000 -0.026147 0.099378
    12 0.050786 0.001927 2.008302 -3.009668 -1.042787 -0.215898
    13 4.746895 0.000000 0.000000 2.949395 -1.079193 0.724621
    14 10.950472 0.000000 0.000000 0.000000 0.000000 -0.366593
    15 10.950467 0.000000 0.000000 -1.574103 0.019392 0.236566
    16 -0.050780 0.001941 -2.008302 -1.943940 0.978230 1.013734
    17 4.746896 0.000000 -0.000003 2.316083 0.726883 0.628675
    18 10.950466 0.000000 0.000000 0.000000 0.000000 -0.894907
    19 10.950471 0.000000 0.000000 1.536101 -0.120008 0.072281
    20 2.428221 0.000000 0.000000 0.477480 0.092490 -1.416817
    21 1.681022 0.975106 0.213387 0.000000 0.000001 -1.745239
  time 30
    0 -1.432586 -114.924437 -18.416032 0.000000 1.422363 -4.712344
    1 -0.804712 0.117191 0.000000 -1.570795 -1.570796 0.000000
    2 -0.000004 0.000006 3.077313 -0.026809 -2.972545 0.098993
    3 16.897085 0.000000 0.000000 0.000000 0.000000 -0.411347
    4 16.589727 0.000000 0.000000 0.109234 -0.132000 -0.127400
    5 0.000005 -0.000003 -3.077313 -0.007608 3.156548 0.146324
    6 16.897085 0.000000 0.000000 0.000000 0.000000 -0.272578
    7 16.589727 0.000000 0.000000 -0.062260 0.035889 -0.769973
    8 3.488968 -0.004234 0.000004 -0.000004 -0.000001 0.035662
    9 5.318531 -0.004538 0.000000 -0.311909 0.037900 0.116180
    10 5.701826 -0.005492 0.000000 -0.034758 -0.002700 -0.078492
    11 6.899484 -0.001818 0.000000 0.000000 -0.026147 0.099378
    12 0.050786 0.001927 2.008302 -2.595016 -0.974633 5.708655
    13 4.746895 0.000000 0.000000 2.738055 -0.933271 0.844841
    14 10.950472 0.000000 0.000000 0.000000 0.000000 -0.472697
    15 10.950467 0.000000 0.000000 -1.574103 0.019392 0.236566
    16 -0.050780 0.001941 -2.008302 -1.943940 0.978230 1.013734
    17 4.746896 0.000000 -0.000003 2.316083 0.726883 0.628675
    18 10.950466 0.000000 0.000000 0.000000 0.000000 -0.894907
    19 10.950471 0.000000 0.000000 1.536101 -0.120008 0.072281
    20 2.428221 0.000000 0.000000 0.477480 0.092490 -1.416817
    21 1.681022 0.975106 0.213387 0.000000 0.000001 -1.745239
  time 31
    0 -1.432586 -122.497029 -22.170478 0.000000 1.422363 -4.712344
    1 -0.804712 0.117191 0.000000 -1.570795 -1.570796 0.000000
    2 -0.000004 0.000006 3.077313 -0.026809 -2.972545 0.098993
    3 16.897085 0.000000 0.000000 0.000000 0.000000 -0.411347
    4 16.589727 0.000000 0.000000 0.109234 -0.132000 -0.127400
    5 0.000005 -0.000003 -3.077313 -0.007608 3.156548 0.146324
    6 16.897085 0.000000 0.000000 0.000000 0.000000 -0.272578
    7 16.589727 0.000000 0.000000 -0.062260 0.035889 -0.769973
    8 3.488968 -0.004234 0.000004 -0.000004 -0.000001 0.035662
    9 5.318531 -0.004538 0.000000 -0.311909 0.037900 0.116180
    10 5.701826 -0.005492 0.000000 -0.034758 -0.002700 -0.078492
    11 6.899484 -0.001818 0.000000 0.000000 -0.026147 0.099378
    12 0.050786 0.001927 2.008302 -2.364153 -0.885956 5.518821
    13 4.746895 0.000000 0.000000 2.650260 -0.815861 0.867974
    14 10.950472 0.000000 0.000000 0.000000 0.000000 -0.548213
    15 10.950467 0.000000 0.000000 -1.574103 0.019392 0.236566
    16 -0.050780 0.001941 -2.008302 -1.943940 0.978230 1.013734
    17 4.746896 0.000000 -0.000003 2.316083 0.726883 0.628675
    18 10.950466 0.000000 0.000000 0.000000 0.000000 -0.894907
    19 10.950471 0.000000 0.000000 1.536101 -0.120008 0.072281
    20 2.428221 0.000000 0.000000 0.477480 0.092490 -1.416817
    21 1.681022 0.975106 0.213387 0.000000 0.000001 -1.745239
  time 32
    0 -1.432586 -128.658366 -25.502550 0.000000 1.422363 -4.712344
    1 -0.804712 0.117191 0.000000 -1.570795 -1.570796 0.000000
    2 -0.000004 0.000006 3.077313 -0.026809 -2.972545 0.098993
    3 16.897085 0.000000 0.000000 0.000000 0.000000 -0.411347
    4 16.589727 0.000000 0.000000 0.109234 -0.132000 -0.127400
    5 0.000005 -0.000003 -3.077313 -0.007608 3.156548 0.146324
    6 16.897085 0.000000 0.000000 0.000000 0.000000 -0.272578
    7 16.589727 0.000000 0.000000 -0.062260 0.035889 -0.769973
    8 3.488968 -0.004234 0.000004 -0.000004 -0.000001 0.035662
    9 5.318531 -0.004538 0.000000 -0.311909 0.037900 0.116180
    10 5.701826 -0.005492 0.000000 -0.034758 -0.002700 -0.078492
    11 6.899484 -0.001818 0.000000 0.000000 -0.026147 0.099378
    12 0.050786 0.001927 2.008302 -2.364153 -0.885956 5.518821
    13 4.746895 0.000000 0.000000 2.650260 -0.815861 0.867974
    14 10.950472 0.000000 0.000000 0.000000 0.000000 -0.548213
    15 10.950467 0.000000 0.000000 -1.574103 0.019392 0.236566
    16 -0.050780 0.001941 -2.008302 -1.943940 0.978230 1.013734
    17 4.746896 0.000000 -0.000003 2.316083 0.726883 0.628675
    18 10.950466 0.000000 0.000000 0.000000 0.000000 -0.894907
    19 10.950471 0.000000 0.000000 1.536101 -0.120008 0.072281
    20 2.428221 0.000000 0.000000 0.477480 0.092490 -1.416817
    21 1.681022 0.975106 0.213387 0.000000 0.000001 -1.745239
  time 33
    0 -1.432586 -132.823291 -28.459176 0.000000 1.422363 -4.712344
    1 -0.804712 0.117191 0.000000 -1.570795 -1.570796 0.000000
    2 -0.000004 0.000006 3.077313 -0.026809 -2.972545 0.098993
    3 16.897085 0.000000 0.000000 0.000000 0.000000 -0.411347
    4 16.589727 0.000000 0.000000 0.109234 -0.132000 -0.127400
    5 0.000005 -0.000003 -3.077313 -0.007608 3.156548 0.146324
    6 16.897085 0.000000 0.000000 0.000000 0.000000 -0.272578
    7 16.589727 0.000000 0.000000 -0.062260 0.035889 -0.769973
    8 3.488968 -0.004234 0.000004 -0.000004 -0.000001 0.035662
    9 5.318531 -0.004538 0.000000 -0.311909 0.037900 0.116180
    10 5.701826 -0.005492 0.000000 -0.034758 -0.002700 -0.078492
    11 6.899484 -0.001818 0.000000 0.000000 -0.026147 0.099378
    12 0.050786 0.001927 2.008302 -2.364153 -0.885956 5.518821
    13 4.746895 0.000000 0.000000 2.650260 -0.815861 0.867974
    14 10.950472 0.000000 0.000000 0.000000 0.000000 -0.548213
    15 10.950467 0.000000 0.000000 -1.574103 0.019392 0.236566
    16 -0.050780 0.001941 -2.008302 -1.943940 0.978230 1.013734
    17 4.746896 0.000000 -0.000003 2.316083 0.726883 0.628675
    18 10.950466 0.000000 0.000000 0.000000 0.000000 -0.894907
    19 10.950471 0.000000 0.000000 1.536101 -0.120008 0.072281
    20 2.428221 0.000000 0.000000 0.477480 0.092490 -1.416817
    21 1.681022 0.975106 0.213387 0.000000 0.000001 -1.745239
  time 34
    0 -1.432586 -134.337810 -30.946497 0.000000 1.422363 -4.712344
    1 -0.804712 0.117191 0.000000 -1.570795 -1.570796 0.000000
    2 -0.000004 0.000006 3.077313 -0.026809 -2.972545 0.098993
    3 16.897085 0.000000 0.000000 0.000000 0.000000 -0.411347
    4 16.589727 0.000000 0.000000 0.109234 -0.132000 -0.127400
    5 0.000005 -0.000003 -3.077313 -0.007608 3.156548 0.146324
    6 16.897085 0.000000 0.000000 0.000000 0.000000 -0.272578
    7 16.589727 0.000000 0.000000 -0.062260 0.035889 -0.769973
    8 3.488968 -0.004234 0.000004 -0.000004 -0.000001 0.035662
    9 5.318531 -0.004538 0.000000 -0.311909 0.037900 0.116180
    10 5.701826 -0.005492 0.000000 -0.034758 -0.002700 -0.078492
    11 6.899484 -0.001818 0.000000 0.000000 -0.026147 0.099378
    12 0.050786 0.001927 2.008302 -2.364153 -0.885956 5.518821
    13 4.746895 0.000000 0.000000 2.650260 -0.815861 0.867974
    14 10.950472 0.000000 0.000000 0.000000 0.000000 -0.548213
    15 10.950467 0.000000 0.000000 -1.574103 0.019392 0.236566
    16 -0.050780 0.001941 -2.008302 -1.943940 0.978230 1.013734
    17 4.746896 0.000000 -0.000003 2.316083 0.726883 0.628675
    18 10.950466 0.000000 0.000000 0.000000 0.000000 -0.894907
    19 10.950471 0.000000 0.000000 1.536101 -0.120008 0.072281
    20 2.428221 0.000000 0.000000 0.477480 0.092490 -1.416817
    21 1.681022 0.975106 0.213387 0.000000 0.000001 -1.745239
  time 35
    0 -1.432586 -134.337810 -30.946497 0.000000 1.422363 -4.712344
    1 -0.804712 0.117191 0.000000 -1.570795 -1.570796 0.000000
    2 -0.000004 0.000006 3.077313 -0.026809 -2.972545 0.098993
    3 16.897085 0.000000 0.000000 0.000000 0.000000 -0.411347
    4 16.589727 0.000000 0.000000 0.109234 -0.132000 -0.127400
    5 0.000005 -0.000003 -3.077313 -0.007608 3.156548 0.146324
    6 16.897085 0.000000 0.000000 0.000000 0.000000 -0.272578
    7 16.589727 0.000000 0.000000 -0.062260 0.035889 -0.769973
    8 3.488968 -0.004234 0.000004 -0.000004 -0.000001 0.035662
    9 5.318531 -0.004538 0.000000 -0.311909 0.037900 0.116180
    10 5.701826 -0.005492 0.000000 -0.034758 -0.002700 -0.078492
    11 6.899484 -0.001818 0.000000 0.000000 -0.026147 0.099378
    12 0.050786 0.001927 2.008302 -2.364153 -0.885956 5.518821
    13 4.746895 0.000000 0.000000 2.650260 -0.815861 0.867974
    14 10.950472 0.000000 0.000000 0.000000 0.000000 -0.548213
    15 10.950467 0.000000 0.000000 -1.574103 0.019392 0.236566
    16 -0.050780 0.001941 -2.008302 -1.943940 0.978230 1.013734
    17 4.746896 0.000000 -0.000003 2.316083 0.726883 0.628675
    18 10.950466 0.000000 0.000000 0.000000 0.000000 -0.894907
    19 10.950471 0.000000 0.000000 1.536101 -0.120008 0.072281
    20 2.428221 0.000000 0.000000 0.477480 0.092490 -1.416817
    21 1.681022 0.975106 0.213387 0.000000 0.000001 -1.745239
  time 36
    0 -1.432586 -134.337810 -30.946497 0.000000 1.422363 -4.712344
    1 -0.804712 0.117191 0.000000 -1.570795 -1.570796 0.000000
    2 -0.000004 0.000006 3.077313 -0.026809 -2.972545 0.098993
    3 16.897085 0.000000 0.000000 0.000000 0.000000 -0.411347
    4 16.589727 0.000000 0.000000 0.109234 -0.132000 -0.127400
    5 0.000005 -0.000003 -3.077313 -0.007608 3.156548 0.146324
    6 16.897085 0.000000 0.000000 0.000000 0.000000 -0.272578
    7 16.589727 0.000000 0.000000 -0.062260 0.035889 -0.769973
    8 3.488968 -0.004234 0.000004 -0.000004 -0.000001 0.035662
    9 5.318531 -0.004538 0.000000 -0.311909 0.037900 0.116180
    10 5.701826 -0.005492 0.000000 -0.034758 -0.002700 -0.078492
    11 6.899484 -0.001818 0.000000 0.000000 -0.026147 0.099378
    12 0.050786 0.001927 2.008302 -2.364153 -0.885956 5.518821
    13 4.746895 0.000000 0.000000 2.650260 -0.815861 0.867974
    14 10.950472 0.000000 0.000000 0.000000 0.000000 -0.548213
    15 10.950467 0.000000 0.000000 -1.574103 0.019392 0.236566
    16 -0.050780 0.001941 -2.008302 -1.943940 0.978230 1.013734
    17 4.746896 0.000000 -0.000003 2.316083 0.726883 0.628675
    18 10.950466 0.000000 0.000000 0.000000 0.000000 -0.894907
    19 10.950471 0.000000 0.000000 1.536101 -0.120008 0.072281
    20 2.428221 0.000000 0.000000 0.477480 0.092490 -1.416817
    21 1.681022 0.975106 0.213387 0.000000 0.000001 -1.745239
  time 37
    0 -1.432586 -134.337810 -30.946497 0.000000 1.422363 -4.712344
    1 -0.804712 0.117191 0.000000 -1.570795 -1.570796 0.000000
    2 -0.000004 0.000006 3.077313 -0.026809 -2.972545 0.098993
    3 16.897085 0.000000 0.000000 0.000000 0.000000 -0.411347
    4 16.589727 0.000000 0.000000 0.109234 -0.132000 -0.127400
    5 0.000005 -0.000003 -3.077313 -0.007608 3.156548 0.146324
    6 16.897085 0.000000 0.000000 0.000000 0.000000 -0.272578
    7 16.589727 0.000000 0.000000 -0.062260 0.035889 -0.769973
    8 3.488968 -0.004234 0.000004 -0.000004 -0.000001 0.035662
    9 5.318531 -0.004538 0.000000 -0.311909 0.037900 0.116180
    10 5.701826 -0.005492 0.000000 -0.034758 -0.002700 -0.078492
    11 6.899484 -0.001818 0.000000 0.000000 -0.026147 0.099378
    12 0.050786 0.001927 2.008302 -2.364153 -0.885956 5.518821
    13 4.746895 0.000000 0.000000 2.650260 -0.815861 0.867974
    14 10.950472 0.000000 0.000000 0.000000 0.000000 -0.548213
    15 10.950467 0.000000 0.000000 -1.574103 0.019392 0.236566
    16 -0.050780 0.001941 -2.008302 -1.943940 0.978230 1.013734
    17 4.746896 0.000000 -0.000003 2.316083 0.726883 0.628675
    18 10.950466 0.000000 0.000000 0.000000 0.000000 -0.894907
    19 10.950471 0.000000 0.000000 1.536101 -0.120008 0.072281
    20 2.428221 0.000000 0.000000 0.477480 0.092490 -1.416817
    21 1.681022 0.975106 0.213387 0.000000 0.000001 -1.745239
  time 38
    0 -1.432586 -134.337810 -30.946497 0.000000 1.422363 -4.712344
    1 -0.804712 0.117191 0.000000 -1.570795 -1.570796 0.000000
    2 -0.000004 0.000006 3.077313 -0.026809 -2.972545 0.098993
    3 16.897085 0.000000 0.000000 0.000000 0.000000 -0.411347
    4 16.589727 0.000000 0.000000 0.109234 -0.132000 -0.127400
    5 0.000005 -0.000003 -3.077313 -0.007608 3.156548 0.146324
    6 16.897085 0.000000 0.000000 0.000000 0.000000 -0.272578
    7 16.589727 0.000000 0.000000 -0.062260 0.035889 -0.769973
    8 3.488968 -0.004234 0.000004 -0.000004 -0.000001 0.035662
    9 5.318531 -0.004538 0.000000 -0.311909 0.037900 0.116180
    10 5.701826 -0.005492 0.000000 -0.034758 -0.002700 -0.078492
    11 6.899484 -0.001818 0.000000 0.000000 -0.026147 0.099378
    12 0.050786 0.001927 2.008302 -2.364153 -0.885956 5.518821
    13 4.746895 0.000000 0.000000 2.650260 -0.815861 0.867974
    14 10.950472 0.000000 0.000000 0.000000 0.000000 -0.548213
    15 10.950467 0.000000 0.000000 -1.574103 0.019392 0.236566
    16 -0.050780 0.001941 -2.008302 -1.943940 0.978230 1.013734
    17 4.746896 0.000000 -0.000003 2.316083 0.726883 0.628675
    18 10.950466 0.000000 0.000000 0.000000 0.000000 -0.894907
    19 10.950471 0.000000 0.000000 1.536101 -0.120008 0.072281
    20 2.428221 0.000000 0.000000 0.477480 0.092490 -1.416817
    21 1.681022 0.975106 0.213387 0.000000 0.000001 -1.745239
  time 39
    0 -1.432586 -134.337810 -30.946497 0.000000 1.422363 -4.712344
    1 -0.804712 0.117191 0.000000 -1.570795 -1.570796 0.000000
    2 -0.000004 0.000006 3.077313 -0.026809 -2.972545 0.098993
    3 16.897085 0.000000 0.000000 0.000000 0.000000 -0.411347
    4 16.589727 0.000000 0.000000 0.109234 -0.132000 -0.127400
    5 0.000005 -0.000003 -3.077313 -0.007608 3.156548 0.146324
    6 16.897085 0.000000 0.000000 0.000000 0.000000 -0.272578
    7 16.589727 0.000000 0.000000 -0.062260 0.035889 -0.769973
    8 3.488968 -0.004234 0.000004 -0.000004 -0.000001 0.035662
    9 5.318531 -0.004538 0.000000 -0.311909 0.037900 0.116180
    10 5.701826 -0.005492 0.000000 -0.034758 -0.002700 -0.078492
    11 6.899484 -0.001818 0.000000 0.000000 -0.026147 0.099378
    12 0.050786 0.001927 2.008302 -2.364153 -0.885956 5.518821
    13 4.746895 0.000000 0.000000 2.650260 -0.815861 0.867974
    14 10.950472 0.000000 0.000000 0.000000 0.000000 -0.548213
    15 10.950467 0.000000 0.000000 -1.574103 0.019392 0.236566
    16 -0.050780 0.001941 -2.008302 -1.943940 0.978230 1.013734
    17 4.746896 0.000000 -0.000003 2.316083 0.726883 0.628675
    18 10.950466 0.000000 0.000000 0.000000 0.000000 -0.894907
    19 10.950471 0.000000 0.000000 1.536101 -0.120008 0.072281
    20 2.428221 0.000000 0.000000 0.477480 0.092490 -1.416817
    21 1.681022 0.975106 0.213387 0.000000 0.000001 -1.745239
  time 40
    0 -1.432586 -134.337810 -30.946497 0.000000 1.422363 -4.712344
    1 -0.804712 0.117191 0.000000 -1.570795 -1.570796 0.000000
    2 -0.000004 0.000006 3.077313 -0.026809 -2.972545 0.098993
    3 16.897085 0.000000 0.000000 0.000000 0.000000 -0.411347
    4 16.589727 0.000000 0.000000 0.109234 -0.132000 -0.127400
    5 0.000005 -0.000003 -3.077313 -0.007608 3.156548 0.146324
    6 16.897085 0.000000 0.000000 0.000000 0.000000 -0.272578
    7 16.589727 0.000000 0.000000 -0.062260 0.035889 -0.769973
    8 3.488968 -0.004234 0.000004 -0.000004 -0.000001 0.035662
    9 5.318531 -0.004538 0.000000 -0.311909 0.037900 0.116180
    10 5.701826 -0.005492 0.000000 -0.034758 -0.002700 -0.078492
    11 6.899484 -0.001818 0.000000 0.000000 -0.026147 0.099378
    12 0.050786 0.001927 2.008302 -2.364153 -0.885956 5.518821
    13 4.746895 0.000000 0.000000 2.650260 -0.815861 0.867974
    14 10.950472 0.000000 0.000000 0.000000 0.000000 -0.548213
    15 10.950467 0.000000 0.000000 -1.574103 0.019392 0.236566
    16 -0.050780 0.001941 -2.008302 -1.943940 0.978230 1.013734
    17 4.746896 0.000000 -0.000003 2.316083 0.726883 0.628675
    18 10.950466 0.000000 0.000000 0.000000 0.000000 -0.894907
    19 10.950471 0.000000 0.000000 1.536101 -0.120008 0.072281
    20 2.428221 0.000000 0.000000 0.477480 0.092490 -1.416817
    21 1.681022 0.975106 0.213387 0.000000 0.000001 -1.745239
  time 41
    0 -1.432586 -134.337810 -30.946497 0.000000 1.422363 -4.712344
    1 -0.804712 0.117191 0.000000 -1.570795 -1.570796 0.000000
    2 -0.000004 0.000006 3.077313 -0.026809 -2.972545 0.098993
    3 16.897085 0.000000 0.000000 0.000000 0.000000 -0.411347
    4 16.589727 0.000000 0.000000 0.109234 -0.132000 -0.127400
    5 0.000005 -0.000003 -3.077313 -0.007608 3.156548 0.146324
    6 16.897085 0.000000 0.000000 0.000000 0.000000 -0.272578
    7 16.589727 0.000000 0.000000 -0.062260 0.035889 -0.769973
    8 3.488968 -0.004234 0.000004 -0.000004 -0.000001 0.035662
    9 5.318531 -0.004538 0.000000 -0.311909 0.037900 0.116180
    10 5.701826 -0.005492 0.000000 -0.034758 -0.002700 -0.078492
    11 6.899484 -0.001818 0.000000 0.000000 -0.026147 0.099378
    12 0.050786 0.001927 2.008302 -2.364153 -0.885956 5.518821
    13 4.746895 0.000000 0.000000 2.650260 -0.815861 0.867974
    14 10.950472 0.000000 0.000000 0.000000 0.000000 -0.548213
    15 10.950467 0.000000 0.000000 -1.574103 0.019392 0.236566
    16 -0.050780 0.001941 -2.008302 -1.943940 0.978230 1.013734
    17 4.746896 0.000000 -0.000003 2.316083 0.726883 0.628675
    18 10.950466 0.000000 0.000000 0.000000 0.000000 -0.894907
    19 10.950471 0.000000 0.000000 1.536101 -0.120008 0.072281
    20 2.428221 0.000000 0.000000 0.477480 0.092490 -1.416817
    21 1.681022 0.975106 0.213387 0.000000 0.000001 -1.745239
  time 42
    0 -1.432586 -134.337810 -30.946497 0.000000 1.422363 -4.712344
    1 -0.804712 0.117191 0.000000 -1.570795 -1.570796 0.000000
    2 -0.000004 0.000006 3.077313 -0.026809 -2.972545 0.098993
    3 16.897085 0.000000 0.000000 0.000000 0.000000 -0.411347
    4 16.589727 0.000000 0.000000 0.109234 -0.132000 -0.127400
    5 0.000005 -0.000003 -3.077313 -0.007608 3.156548 0.146324
    6 16.897085 0.000000 0.000000 0.000000 0.000000 -0.272578
    7 16.589727 0.000000 0.000000 -0.062260 0.035889 -0.769973
    8 3.488968 -0.004234 0.000004 -0.000004 -0.000001 0.035662
    9 5.318531 -0.004538 0.000000 -0.311909 0.037900 0.116180
    10 5.701826 -0.005492 0.000000 -0.034758 -0.002700 -0.078492
    11 6.899484 -0.001818 0.000000 0.000000 -0.026147 0.099378
    12 0.050786 0.001927 2.008302 -2.364153 -0.885956 5.518821
    13 4.746895 0.000000 0.000000 2.650260 -0.815861 0.867974
    14 10.950472 0.000000 0.000000 0.000000 0.000000 -0.548213
    15 10.950467 0.000000 0.000000 -1.574103 0.019392 0.236566
    16 -0.050780 0.001941 -2.008302 -1.943940 0.978230 1.013734
    17 4.746896 0.000000 -0.000003 2.316083 0.726883 0.628675
    18 10.950466 0.000000 0.000000 0.000000 0.000000 -0.894907
    19 10.950471 0.000000 0.000000 1.536101 -0.120008 0.072281
    20 2.428221 0.000000 0.000000 0.477480 0.092490 -1.416817
    21 1.681022 0.975106 0.213387 0.000000 0.000001 -1.745239
  time 43
    0 -1.432586 -134.337810 -30.946497 0.000000 1.422363 -4.712344
    1 -0.804712 0.117191 0.000000 -1.570795 -1.570796 0.000000
    2 -0.000004 0.000006 3.077313 -0.026809 -2.972545 0.098993
    3 16.897085 0.000000 0.000000 0.000000 0.000000 -0.411347
    4 16.589727 0.000000 0.000000 0.109234 -0.132000 -0.127400
    5 0.000005 -0.000003 -3.077313 -0.007608 3.156548 0.146324
    6 16.897085 0.000000 0.000000 0.000000 0.000000 -0.272578
    7 16.589727 0.000000 0.000000 -0.062260 0.035889 -0.769973
    8 3.488968 -0.004234 0.000004 -0.000004 -0.000001 0.035662
    9 5.318531 -0.004538 0.000000 -0.311909 0.037900 0.116180
    10 5.701826 -0.005492 0.000000 -0.034758 -0.002700 -0.078492
    11 6.899484 -0.001818 0.000000 0.000000 -0.026147 0.099378
    12 0.050786 0.001927 2.008302 -2.364153 -0.885956 5.518821
    13 4.746895 0.000000 0.000000 2.650260 -0.815861 0.867974
    14 10.950472 0.000000 0.000000 0.000000 0.000000 -0.548213
    15 10.950467 0.000000 0.000000 -1.574103 0.019392 0.236566
    16 -0.050780 0.001941 -2.008302 -1.943940 0.978230 1.013734
    17 4.746896 0.000000 -0.000003 2.316083 0.726883 0.628675
    18 10.950466 0.000000 0.000000 0.000000 0.000000 -0.894907
    19 10.950471 0.000000 0.000000 1.536101 -0.120008 0.072281
    20 2.428221 0.000000 0.000000 0.477480 0.092490 -1.416817
    21 1.681022 0.975106 0.213387 0.000000 0.000001 -1.745239
  time 44
    0 -1.432586 -134.337810 -30.946497 0.000000 1.422363 -4.712344
    1 -0.804712 0.117191 0.000000 -1.570795 -1.570796 0.000000
    2 -0.000004 0.000006 3.077313 -0.026809 -2.972545 0.098993
    3 16.897085 0.000000 0.000000 0.000000 0.000000 -0.411347
    4 16.589727 0.000000 0.000000 0.109234 -0.132000 -0.127400
    5 0.000005 -0.000003 -3.077313 -0.007608 3.156548 0.146324
    6 16.897085 0.000000 0.000000 0.000000 0.000000 -0.272578
    7 16.589727 0.000000 0.000000 -0.062260 0.035889 -0.769973
    8 3.488968 -0.004234 0.000004 -0.000004 -0.000001 0.035662
    9 5.318531 -0.004538 0.000000 -0.311909 0.037900 0.116180
    10 5.701826 -0.005492 0.000000 -0.034758 -0.002700 -0.078492
    11 6.899484 -0.001818 0.000000 0.000000 -0.026147 0.099378
    12 0.050786 0.001927 2.008302 -2.364153 -0.885956 5.518821
    13 4.746895 0.000000 0.000000 2.650260 -0.815861 0.867974
    14 10.950472 0.000000 0.000000 0.000000 0.000000 -0.548213
    15 10.950467 0.000000 0.000000 -1.574103 0.019392 0.236566
    16 -0.050780 0.001941 -2.008302 -1.943940 0.978230 1.013734
    17 4.746896 0.000000 -0.000003 2.316083 0.726883 0.628675
    18 10.950466 0.000000 0.000000 0.000000 0.000000 -0.894907
    19 10.950471 0.000000 0.000000 1.536101 -0.120008 0.072281
    20 2.428221 0.000000 0.000000 0.477480 0.092490 -1.416817
    21 1.681022 0.975106 0.213387 0.000000 0.000001 -1.745239
  time 45
    0 -1.432586 -134.337810 -30.946497 0.000000 1.422363 -4.712344
    1 -0.804712 0.117191 0.000000 -1.570795 -1.570796 0.000000
    2 -0.000004 0.000006 3.077313 -0.026809 -2.972545 0.098993
    3 16.897085 0.000000 0.000000 0.000000 0.000000 -0.411347
    4 16.589727 0.000000 0.000000 0.109234 -0.132000 -0.127400
    5 0.000005 -0.000003 -3.077313 -0.007608 3.156548 0.146324
    6 16.897085 0.000000 0.000000 0.000000 0.000000 -0.272578
    7 16.589727 0.000000 0.000000 -0.062260 0.035889 -0.769973
    8 3.488968 -0.004234 0.000004 -0.000004 -0.000001 0.035662
    9 5.318531 -0.004538 0.000000 -0.311909 0.037900 0.116180
    10 5.701826 -0.005492 0.000000 -0.034758 -0.002700 -0.078492
    11 6.899484 -0.001818 0.000000 0.000000 -0.026147 0.099378
    12 0.050786 0.001927 2.008302 -2.364153 -0.885956 5.518821
    13 4.746895 0.000000 0.000000 2.650260 -0.815861 0.867974
    14 10.950472 0.000000 0.000000 0.000000 0.000000 -0.548213
    15 10.950467 0.000000 0.000000 -1.574103 0.019392 0.236566
    16 -0.050780 0.001941 -2.008302 -1.943940 0.978230 1.013734
    17 4.746896 0.000000 -0.000003 2.316083 0.726883 0.628675
    18 10.950466 0.000000 0.000000 0.000000 0.000000 -0.894907
    19 10.950471 0.000000 0.000000 1.536101 -0.120008 0.072281
    20 2.428221 0.000000 0.000000 0.477480 0.092490 -1.416817
    21 1.681022 0.975106 0.213387 0.000000 0.000001 -1.745239
  time 46
    0 -1.432586 -134.337810 -30.946497 0.000000 1.422363 -4.712344
    1 -0.804712 0.117191 0.000000 -1.570795 -1.570796 0.000000
    2 -0.000004 0.000006 3.077313 -0.026809 -2.972545 0.098993
    3 16.897085 0.000000 0.000000 0.000000 0.000000 -0.411347
    4 16.589727 0.000000 0.000000 0.109234 -0.132000 -0.127400
    5 0.000005 -0.000003 -3.077313 -0.007608 3.156548 0.146324
    6 16.897085 0.000000 0.000000 0.000000 0.000000 -0.272578
    7 16.589727 0.000000 0.000000 -0.062260 0.035889 -0.769973
    8 3.488968 -0.004234 0.000004 -0.000004 -0.000001 0.035662
    9 5.318531 -0.004538 0.000000 -0.311909 0.037900 0.116180
    10 5.701826 -0.005492 0.000000 -0.034758 -0.002700 -0.078492
    11 6.899484 -0.001818 0.000000 0.000000 -0.026147 0.099378
    12 0.050786 0.001927 2.008302 -2.364153 -0.885956 5.518821
    13 4.746895 0.000000 0.000000 2.650260 -0.815861 0.867974
    14 10.950472 0.000000 0.000000 0.000000 0.000000 -0.548213
    15 10.950467 0.000000 0.000000 -1.574103 0.019392 0.236566
    16 -0.050780 0.001941 -2.008302 -1.943940 0.978230 1.013734
    17 4.746896 0.000000 -0.000003 2.316083 0.726883 0.628675
    18 10.950466 0.000000 0.000000 0.000000 0.000000 -0.894907
    19 10.950471 0.000000 0.000000 1.536101 -0.120008 0.072281
    20 2.428221 0.000000 0.000000 0.477480 0.092490 -1.416817
    21 1.681022 0.975106 0.213387 0.000000 0.000001 -1.745239
  time 47
    0 -1.432586 -134.337810 -30.946497 0.000000 1.422363 -4.712344
    1 -0.804712 0.117191 0.000000 -1.570795 -1.570796 0.000000
    2 -0.000004 0.000006 3.077313 -0.026809 -2.972545 0.098993
    3 16.897085 0.000000 0.000000 0.000000 0.000000 -0.411347
    4 16.589727 0.000000 0.000000 0.109234 -0.132000 -0.127400
    5 0.000005 -0.000003 -3.077313 -0.007608 3.156548 0.146324
    6 16.897085 0.000000 0.000000 0.000000 0.000000 -0.272578
    7 16.589727 0.000000 0.000000 -0.062260 0.035889 -0.769973
    8 3.488968 -0.004234 0.000004 -0.000004 -0.000001 0.035662
    9 5.318531 -0.004538 0.000000 -0.311909 0.037900 0.116180
    10 5.701826 -0.005492 0.000000 -0.034758 -0.002700 -0.078492
    11 6.899484 -0.001818 0.000000 0.000000 -0.026147 0.099378
    12 0.050786 0.001927 2.008302 -2.364153 -0.885956 5.518821
    13 4.746895 0.000000 0.000000 2.650260 -0.815861 0.867974
    14 10.950472 0.000000 0.000000 0.000000 0.000000 -0.548213
    15 10.950467 0.000000 0.000000 -1.574103 0.019392 0.236566
    16 -0.050780 0.001941 -2.008302 -1.943940 0.978230 1.013734
    17 4.746896 0.000000 -0.000003 2.316083 0.726883 0.628675
    18 10.950466 0.000000 0.000000 0.000000 0.000000 -0.894907
    19 10.950471 0.000000 0.000000 1.536101 -0.120008 0.072281
    20 2.428221 0.000000 0.000000 0.477480 0.092490 -1.416817
    21 1.681022 0.975106 0.213387 0.000000 0.000001 -1.745239
  time 48
    0 -1.432586 -134.337810 -30.946497 0.000000 1.422363 -4.712344
    1 -0.804712 0.117191 0.000000 -1.570795 -1.570796 0.000000
    2 -0.000004 0.000006 3.077313 -0.026809 -2.972545 0.098993
    3 16.897085 0.000000 0.000000 0.000000 0.000000 -0.411347
    4 16.589727 0.000000 0.000000 0.109234 -0.132000 -0.127400
    5 0.000005 -0.000003 -3.077313 -0.007608 3.156548 0.146324
    6 16.897085 0.000000 0.000000 0.000000 0.000000 -0.272578
    7 16.589727 0.000000 0.000000 -0.062260 0.035889 -0.769973
    8 3.488968 -0.004234 0.000004 -0.000004 -0.000001 0.035662
    9 5.318531 -0.004538 0.000000 -0.311909 0.037900 0.116180
    10 5.701826 -0.005492 0.000000 -0.034758 -0.002700 -0.078492
    11 6.899484 -0.001818 0.000000 0.000000 -0.026147 0.099378
    12 0.050786 0.001927 2.008302 -2.364153 -0.885956 5.518821
    13 4.746895 0.000000 0.000000 2.650260 -0.815861 0.867974
    14 10.950472 0.000000 0.000000 0.000000 0.000000 -0.548213
    15 10.950467 0.000000 0.000000 -1.574103 0.019392 0.236566
    16 -0.050780 0.001941 -2.008302 -1.943940 0.978230 1.013734
    17 4.746896 0.000000 -0.000003 2.316083 0.726883 0.628675
    18 10.950466 0.000000 0.000000 0.000000 0.000000 -0.894907
    19 10.950471 0.000000 0.000000 1.536101 -0.120008 0.072281
    20 2.428221 0.000000 0.000000 0.477480 0.092490 -1.416817
    21 1.681022 0.975106 0.213387 0.000000 0.000001 -1.745239
  time 49
    0 -1.432586 -134.337810 -30.946497 0.000000 1.422363 -4.712344
    1 -0.804712 0.117191 0.000000 -1.570795 -1.570796 0.000000
    2 -0.000004 0.000006 3.077313 -0.026809 -2.972545 0.098993
    3 16.897085 0.000000 0.000000 0.000000 0.000000 -0.411347
    4 16.589727 0.000000 0.000000 0.109234 -0.132000 -0.127400
    5 0.000005 -0.000003 -3.077313 -0.007608 3.156548 0.146324
    6 16.897085 0.000000 0.000000 0.000000 0.000000 -0.272578
    7 16.589727 0.000000 0.000000 -0.062260 0.035889 -0.769973
    8 3.488968 -0.004234 0.000004 -0.000004 -0.000001 0.035662
    9 5.318531 -0.004538 0.000000 -0.311909 0.037900 0.116180
    10 5.701826 -0.005492 0.000000 -0.034758 -0.002700 -0.078492
    11 6.899484 -0.001818 0.000000 0.000000 -0.026147 0.099378
    12 0.050786 0.001927 2.008302 -2.364153 -0.885956 5.518821
    13 4.746895 0.000000 0.000000 2.650260 -0.815861 0.867974
    14 10.950472 0.000000 0.000000 0.000000 0.000000 -0.548213
    15 10.950467 0.000000 0.000000 -1.574103 0.019392 0.236566
    16 -0.050780 0.001941 -2.008302 -1.943940 0.978230 1.013734
    17 4.746896 0.000000 -0.000003 2.316083 0.726883 0.628675
    18 10.950466 0.000000 0.000000 0.000000 0.000000 -0.894907
    19 10.950471 0.000000 0.000000 1.536101 -0.120008 0.072281
    20 2.428221 0.000000 0.000000 0.477480 0.092490 -1.416817
    21 1.681022 0.975106 0.213387 0.000000 0.000001 -1.745239
  time 50
    0 -1.432586 -134.337810 -30.946497 0.000000 1.422363 -4.712344
    1 -0.804712 0.117191 0.000000 -1.570795 -1.570796 0.000000
    2 -0.000004 0.000006 3.077313 -0.026809 -2.972545 0.098993
    3 16.897085 0.000000 0.000000 0.000000 0.000000 -0.411347
    4 16.589727 0.000000 0.000000 0.109234 -0.132000 -0.127400
    5 0.000005 -0.000003 -3.077313 -0.007608 3.156548 0.146324
    6 16.897085 0.000000 0.000000 0.000000 0.000000 -0.272578
    7 16.589727 0.000000 0.000000 -0.062260 0.035889 -0.769973
    8 3.488968 -0.004234 0.000004 -0.000004 -0.000001 0.035662
    9 5.318531 -0.004538 0.000000 -0.311909 0.037900 0.116180
    10 5.701826 -0.005492 0.000000 -0.034758 -0.002700 -0.078492
    11 6.899484 -0.001818 0.000000 0.000000 -0.026147 0.099378
    12 0.050786 0.001927 2.008302 -2.364153 -0.885956 5.518821
    13 4.746895 0.000000 0.000000 2.650260 -0.815861 0.867974
    14 10.950472 0.000000 0.000000 0.000000 0.000000 -0.548213
    15 10.950467 0.000000 0.000000 -1.574103 0.019392 0.236566
    16 -0.050780 0.001941 -2.008302 -1.943940 0.978230 1.013734
    17 4.746896 0.000000 -0.000003 2.316083 0.726883 0.628675
    18 10.950466 0.000000 0.000000 0.000000 0.000000 -0.894907
    19 10.950471 0.000000 0.000000 1.536101 -0.120008 0.072281
    20 2.428221 0.000000 0.000000 0.477480 0.092490 -1.416817
    21 1.681022 0.975106 0.213387 0.000000 0.000001 -1.745239
  time 51
    0 -1.432586 -134.337810 -30.946497 0.000000 1.422363 -4.712344
    1 -0.804712 0.117191 0.000000 -1.570795 -1.570796 0.000000
    2 -0.000004 0.000006 3.077313 -0.026809 -2.972545 0.098993
    3 16.897085 0.000000 0.000000 0.000000 0.000000 -0.411347
    4 16.589727 0.000000 0.000000 0.109234 -0.132000 -0.127400
    5 0.000005 -0.000003 -3.077313 -0.007608 3.156548 0.146324
    6 16.897085 0.000000 0.000000 0.000000 0.000000 -0.272578
    7 16.589727 0.000000 0.000000 -0.062260 0.035889 -0.769973
    8 3.488968 -0.004234 0.000004 -0.000004 -0.000001 0.035662
    9 5.318531 -0.004538 0.000000 -0.311909 0.037900 0.116180
    10 5.701826 -0.005492 0.000000 -0.034758 -0.002700 -0.078492
    11 6.899484 -0.001818 0.000000 0.000000 -0.026147 0.099378
    12 0.050786 0.001927 2.008302 -2.364153 -0.885956 5.518821
    13 4.746895 0.000000 0.000000 2.650260 -0.815861 0.867974
    14 10.950472 0.000000 0.000000 0.000000 0.000000 -0.548213
    15 10.950467 0.000000 0.000000 -1.574103 0.019392 0.236566
    16 -0.050780 0.001941 -2.008302 -1.943940 0.978230 1.013734
    17 4.746896 0.000000 -0.000003 2.316083 0.726883 0.628675
    18 10.950466 0.000000 0.000000 0.000000 0.000000 -0.894907
    19 10.950471 0.000000 0.000000 1.536101 -0.120008 0.072281
    20 2.428221 0.000000 0.000000 0.477480 0.092490 -1.416817
    21 1.681022 0.975106 0.213387 0.000000 0.000001 -1.745239
  time 52
    0 -1.432586 -134.337810 -30.946497 0.000000 1.422363 -4.712344
    1 -0.804712 0.117191 0.000000 -1.570795 -1.570796 0.000000
    2 -0.000004 0.000006 3.077313 -0.026809 -2.972545 0.098993
    3 16.897085 0.000000 0.000000 0.000000 0.000000 -0.411347
    4 16.589727 0.000000 0.000000 0.109234 -0.132000 -0.127400
    5 0.000005 -0.000003 -3.077313 -0.007608 3.156548 0.146324
    6 16.897085 0.000000 0.000000 0.000000 0.000000 -0.272578
    7 16.589727 0.000000 0.000000 -0.062260 0.035889 -0.769973
    8 3.488968 -0.004234 0.000004 -0.000004 -0.000001 0.035662
    9 5.318531 -0.004538 0.000000 -0.311909 0.037900 0.116180
    10 5.701826 -0.005492 0.000000 -0.034758 -0.002700 -0.078492
    11 6.899484 -0.001818 0.000000 0.000000 -0.026147 0.099378
    12 0.050786 0.001927 2.008302 -2.364153 -0.885956 5.518821
    13 4.746895 0.000000 0.000000 2.650260 -0.815861 0.867974
    14 10.950472 0.000000 0.000000 0.000000 0.000000 -0.548213
    15 10.950467 0.000000 0.000000 -1.574103 0.019392 0.236566
    16 -0.050780 0.001941 -2.008302 -1.943940 0.978230 1.013734
    17 4.746896 0.000000 -0.000003 2.316083 0.726883 0.628675
    18 10.950466 0.000000 0.000000 0.000000 0.000000 -0.894907
    19 10.950471 0.000000 0.000000 1.536101 -0.120008 0.072281
    20 2.428221 0.000000 0.000000 0.477480 0.092490 -1.416817
    21 1.681022 0.975106 0.213387 0.000000 0.000001 -1.745239
  time 53
    0 -1.432586 -134.337810 -30.946497 0.000000 1.422363 -4.712344
    1 -0.804712 0.117191 0.000000 -1.570795 -1.570796 0.000000
    2 -0.000004 0.000006 3.077313 -0.026809 -2.972545 0.098993
    3 16.897085 0.000000 0.000000 0.000000 0.000000 -0.411347
    4 16.589727 0.000000 0.000000 0.109234 -0.132000 -0.127400
    5 0.000005 -0.000003 -3.077313 -0.007608 3.156548 0.146324
    6 16.897085 0.000000 0.000000 0.000000 0.000000 -0.272578
    7 16.589727 0.000000 0.000000 -0.062260 0.035889 -0.769973
    8 3.488968 -0.004234 0.000004 -0.000004 -0.000001 0.035662
    9 5.318531 -0.004538 0.000000 -0.311909 0.037900 0.116180
    10 5.701826 -0.005492 0.000000 -0.034758 -0.002700 -0.078492
    11 6.899484 -0.001818 0.000000 0.000000 -0.026147 0.099378
    12 0.050786 0.001927 2.008302 -2.364153 -0.885956 5.518821
    13 4.746895 0.000000 0.000000 2.650260 -0.815861 0.867974
    14 10.950472 0.000000 0.000000 0.000000 0.000000 -0.548213
    15 10.950467 0.000000 0.000000 -1.574103 0.019392 0.236566
    16 -0.050780 0.001941 -2.008302 -1.943940 0.978230 1.013734
    17 4.746896 0.000000 -0.000003 2.316083 0.726883 0.628675
    18 10.950466 0.000000 0.000000 0.000000 0.000000 -0.894907
    19 10.950471 0.000000 0.000000 1.536101 -0.120008 0.072281
    20 2.428221 0.000000 0.000000 0.477480 0.092490 -1.416817
    21 1.681022 0.975106 0.213387 0.000000 0.000001 -1.745239
  time 54
    0 -1.432586 -134.337810 -30.946497 0.000000 1.422363 -4.712344
    1 -0.804712 0.117191 0.000000 -1.570795 -1.570796 0.000000
    2 -0.000004 0.000006 3.077313 -0.026809 -2.972545 0.098993
    3 16.897085 0.000000 0.000000 0.000000 0.000000 -0.411347
    4 16.589727 0.000000 0.000000 0.109234 -0.132000 -0.127400
    5 0.000005 -0.000003 -3.077313 -0.007608 3.156548 0.146324
    6 16.897085 0.000000 0.000000 0.000000 0.000000 -0.272578
    7 16.589727 0.000000 0.000000 -0.062260 0.035889 -0.769973
    8 3.488968 -0.004234 0.000004 -0.000004 -0.000001 0.035662
    9 5.318531 -0.004538 0.000000 -0.311909 0.037900 0.116180
    10 5.701826 -0.005492 0.000000 -0.034758 -0.002700 -0.078492
    11 6.899484 -0.001818 0.000000 0.000000 -0.026147 0.099378
    12 0.050786 0.001927 2.008302 -2.364153 -0.885956 5.518821
    13 4.746895 0.000000 0.000000 2.650260 -0.815861 0.867974
    14 10.950472 0.000000 0.000000 0.000000 0.000000 -0.548213
    15 10.950467 0.000000 0.000000 -1.574103 0.019392 0.236566
    16 -0.050780 0.001941 -2.008302 -1.943940 0.978230 1.013734
    17 4.746896 0.000000 -0.000003 2.316083 0.726883 0.628675
    18 10.950466 0.000000 0.000000 0.000000 0.000000 -0.894907
    19 10.950471 0.000000 0.000000 1.536101 -0.120008 0.072281
    20 2.428221 0.000000 0.000000 0.477480 0.092490 -1.416817
    21 1.681022 0.975106 0.213387 0.000000 0.000001 -1.745239
  time 55
    0 -1.432586 -134.337810 -30.946497 0.000000 1.422363 -4.712344
    1 -0.804712 0.117191 0.000000 -1.570795 -1.570796 0.000000
    2 -0.000004 0.000006 3.077313 -0.026809 -2.972545 0.098993
    3 16.897085 0.000000 0.000000 0.000000 0.000000 -0.411347
    4 16.589727 0.000000 0.000000 0.109234 -0.132000 -0.127400
    5 0.000005 -0.000003 -3.077313 -0.007608 3.156548 0.146324
    6 16.897085 0.000000 0.000000 0.000000 0.000000 -0.272578
    7 16.589727 0.000000 0.000000 -0.062260 0.035889 -0.769973
    8 3.488968 -0.004234 0.000004 -0.000004 -0.000001 0.035662
    9 5.318531 -0.004538 0.000000 -0.311909 0.037900 0.116180
    10 5.701826 -0.005492 0.000000 -0.034758 -0.002700 -0.078492
    11 6.899484 -0.001818 0.000000 0.000000 -0.026147 0.099378
    12 0.050786 0.001927 2.008302 -2.364153 -0.885956 5.518821
    13 4.746895 0.000000 0.000000 2.650260 -0.815861 0.867974
    14 10.950472 0.000000 0.000000 0.000000 0.000000 -0.548213
    15 10.950467 0.000000 0.000000 -1.574103 0.019392 0.236566
    16 -0.050780 0.001941 -2.008302 -1.943940 0.978230 1.013734
    17 4.746896 0.000000 -0.000003 2.316083 0.726883 0.628675
    18 10.950466 0.000000 0.000000 0.000000 0.000000 -0.894907
    19 10.950471 0.000000 0.000000 1.536101 -0.120008 0.072281
    20 2.428221 0.000000 0.000000 0.477480 0.092490 -1.416817
    21 1.681022 0.975106 0.213387 0.000000 0.000001 -1.745239
  time 56
    0 -1.432586 -134.337810 -30.946497 0.000000 1.422363 -4.712344
    1 -0.804712 0.117191 0.000000 -1.570795 -1.570796 0.000000
    2 -0.000004 0.000006 3.077313 -0.026809 -2.972545 0.098993
    3 16.897085 0.000000 0.000000 0.000000 0.000000 -0.411347
    4 16.589727 0.000000 0.000000 0.109234 -0.132000 -0.127400
    5 0.000005 -0.000003 -3.077313 -0.007608 3.156548 0.146324
    6 16.897085 0.000000 0.000000 0.000000 0.000000 -0.272578
    7 16.589727 0.000000 0.000000 -0.062260 0.035889 -0.769973
    8 3.488968 -0.004234 0.000004 -0.000004 -0.000001 0.035662
    9 5.318531 -0.004538 0.000000 -0.311909 0.037900 0.116180
    10 5.701826 -0.005492 0.000000 -0.034758 -0.002700 -0.078492
    11 6.899484 -0.001818 0.000000 0.000000 -0.026147 0.099378
    12 0.050786 0.001927 2.008302 -2.364153 -0.885956 5.518821
    13 4.746895 0.000000 0.000000 2.650260 -0.815861 0.867974
    14 10.950472 0.000000 0.000000 0.000000 0.000000 -0.548213
    15 10.950467 0.000000 0.000000 -1.574103 0.019392 0.236566
    16 -0.050780 0.001941 -2.008302 -1.943940 0.978230 1.013734
    17 4.746896 0.000000 -0.000003 2.316083 0.726883 0.628675
    18 10.950466 0.000000 0.000000 0.000000 0.000000 -0.894907
    19 10.950471 0.000000 0.000000 1.536101 -0.120008 0.072281
    20 2.428221 0.000000 0.000000 0.477480 0.092490 -1.416817
    21 1.681022 0.975106 0.213387 0.000000 0.000001 -1.745239
  time 57
    0 -1.432586 -134.337810 -30.946497 0.000000 1.422363 -4.712344
    1 -0.804712 0.117191 0.000000 -1.570795 -1.570796 0.000000
    2 -0.000004 0.000006 3.077313 -0.026809 -2.972545 0.098993
    3 16.897085 0.000000 0.000000 0.000000 0.000000 -0.411347
    4 16.589727 0.000000 0.000000 0.109234 -0.132000 -0.127400
    5 0.000005 -0.000003 -3.077313 -0.007608 3.156548 0.146324
    6 16.897085 0.000000 0.000000 0.000000 0.000000 -0.272578
    7 16.589727 0.000000 0.000000 -0.062260 0.035889 -0.769973
    8 3.488968 -0.004234 0.000004 -0.000004 -0.000001 0.035662
    9 5.318531 -0.004538 0.000000 -0.311909 0.037900 0.116180
    10 5.701826 -0.005492 0.000000 -0.034758 -0.002700 -0.078492
    11 6.899484 -0.001818 0.000000 0.000000 -0.026147 0.099378
    12 0.050786 0.001927 2.008302 -2.364153 -0.885956 5.518821
    13 4.746895 0.000000 0.000000 2.650260 -0.815861 0.867974
    14 10.950472 0.000000 0.000000 0.000000 0.000000 -0.548213
    15 10.950467 0.000000 0.000000 -1.574103 0.019392 0.236566
    16 -0.050780 0.001941 -2.008302 -1.943940 0.978230 1.013734
    17 4.746896 0.000000 -0.000003 2.316083 0.726883 0.628675
    18 10.950466 0.000000 0.000000 0.000000 0.000000 -0.894907
    19 10.950471 0.000000 0.000000 1.536101 -0.120008 0.072281
    20 2.428221 0.000000 0.000000 0.477480 0.092490 -1.416817
    21 1.681022 0.975106 0.213387 0.000000 0.000001 -1.745239
  time 58
    0 -1.432586 -134.337810 -30.946497 0.000000 1.422363 -4.712344
    1 -0.804712 0.117191 0.000000 -1.570795 -1.570796 0.000000
    2 -0.000004 0.000006 3.077313 -0.026809 -2.972545 0.098993
    3 16.897085 0.000000 0.000000 0.000000 0.000000 -0.411347
    4 16.589727 0.000000 0.000000 0.109234 -0.132000 -0.127400
    5 0.000005 -0.000003 -3.077313 -0.007608 3.156548 0.146324
    6 16.897085 0.000000 0.000000 0.000000 0.000000 -0.272578
    7 16.589727 0.000000 0.000000 -0.062260 0.035889 -0.769973
    8 3.488968 -0.004234 0.000004 -0.000004 -0.000001 0.035662
    9 5.318531 -0.004538 0.000000 -0.311909 0.037900 0.116180
    10 5.701826 -0.005492 0.000000 -0.034758 -0.002700 -0.078492
    11 6.899484 -0.001818 0.000000 0.000000 -0.026147 0.099378
    12 0.050786 0.001927 2.008302 -2.364153 -0.885956 5.518821
    13 4.746895 0.000000 0.000000 2.650260 -0.815861 0.867974
    14 10.950472 0.000000 0.000000 0.000000 0.000000 -0.548213
    15 10.950467 0.000000 0.000000 -1.574103 0.019392 0.236566
    16 -0.050780 0.001941 -2.008302 -1.943940 0.978230 1.013734
    17 4.746896 0.000000 -0.000003 2.316083 0.726883 0.628675
    18 10.950466 0.000000 0.000000 0.000000 0.000000 -0.894907
    19 10.950471 0.000000 0.000000 1.536101 -0.120008 0.072281
    20 2.428221 0.000000 0.000000 0.477480 0.092490 -1.416817
    21 1.681022 0.975106 0.213387 0.000000 0.000001 -1.745239
end
