version 1
nodes
  0 "Bip02" -1
  1 "Bip02 Pelvis" 0
  2 "Bip02 L Leg" 1
  3 "Bip02 L Leg1" 2
  4 "Bip02 L Foot" 3
  5 "Bip02 R Leg" 1
  6 "Bip02 R Leg1" 5
  7 "Bip02 R Foot" 6
  8 "Bip02 Spine" 1
  9 "Bip02 Spine1" 8
  10 "Bip02 Spine2" 9
  11 "Bip02 Neck" 10
  12 "Bip02 L Arm" 11
  13 "Bip02 L Arm1" 12
  14 "Bip02 L Arm2" 13
  15 "Bip02 L Hand" 14
  16 "Bip02 R Arm" 11
  17 "Bip02 R Arm1" 16
  18 "Bip02 R Arm2" 17
  19 "Bip02 R Hand" 18
  20 "Bip02 Head" 11
  21 "Bone01" 20
end
skeleton
  time 0
    0 -0.208480 -1.025765 0.215409 0.000000 1.422363 -4.712344
    1 -1.921934 0.218757 0.000000 -1.570795 -1.570796 0.000000
    2 -0.000004 0.000006 3.077313 -0.026809 -2.972545 0.098993
    3 16.897085 0.000000 0.000000 0.000000 0.000000 -0.411347
    4 16.589727 0.000000 0.000000 0.109234 -0.132000 -0.127400
    5 0.000005 -0.000003 -3.077313 -0.007608 3.156548 0.146324
    6 16.897085 0.000000 0.000000 0.000000 0.000000 -0.272578
    7 16.589727 0.000000 0.000000 -0.062260 0.035889 -0.769973
    8 3.488968 -0.004234 0.000004 -0.000004 -0.000001 0.035662
    9 5.318531 -0.004538 0.000000 -0.133512 0.040777 0.293938
    10 5.701826 -0.005492 0.000000 -0.034287 0.006376 0.183132
    11 6.899484 -0.001818 0.000000 0.000000 -0.026147 0.099378
    12 0.050786 0.001927 2.008302 2.135853 -0.738796 0.736150
    13 4.746895 0.000000 0.000000 -1.846397 0.311468 -0.879767
    14 10.950472 0.000000 0.000000 0.000000 0.000000 -0.722739
    15 10.950467 0.000000 0.000000 -1.574103 0.019392 0.236566
    16 -0.050780 0.001941 -2.008302 -1.536191 1.023524 1.495305
    17 4.746896 0.000000 -0.000003 1.180356 -1.222956 0.439930
    18 10.950466 0.000000 0.000000 0.000000 0.000000 -1.388866
    19 10.950471 0.000000 0.000000 1.773933 0.060955 -0.222528
    20 2.428221 0.000000 0.000000 -1.374374 0.146838 -1.228415
    21 1.681022 0.975106 0.213387 0.000000 0.000001 -1.745239
  time 1
    0 -0.208480 -1.025765 0.262340 0.000000 1.422363 -4.712344
    1 -1.921934 0.218757 0.000000 -1.570795 -1.570796 0.000000
    2 -0.000004 0.000006 3.077313 -0.026809 -2.972545 0.098993
    3 16.897085 0.000000 0.000000 0.000000 0.000000 -0.411347
    4 16.589727 0.000000 0.000000 0.109234 -0.132000 -0.127400
    5 0.000005 -0.000003 -3.077313 -0.007608 3.156548 0.146324
    6 16.897085 0.000000 0.000000 0.000000 0.000000 -0.272578
    7 16.589727 0.000000 0.000000 -0.062260 0.035889 -0.769973
    8 3.488968 -0.004234 0.000004 -0.000004 -0.000001 0.035662
    9 5.318531 -0.004538 0.000000 -0.133512 0.040777 0.293938
    10 5.701826 -0.005492 0.000000 -0.034287 0.006376 0.183132
    11 6.899484 -0.001818 0.000000 0.000000 -0.026147 0.099378
    12 0.050786 0.001927 2.008302 2.135853 -0.738796 0.736150
    13 4.746895 0.000000 0.000000 -1.846397 0.311468 -0.879767
    14 10.950472 0.000000 0.000000 0.000000 0.000000 -0.722739
    15 10.950467 0.000000 0.000000 -1.574103 0.019392 0.236566
    16 -0.050780 0.001941 -2.008302 -1.536191 1.023524 1.495305
    17 4.746896 0.000000 -0.000003 1.183127 -1.222482 0.436012
    18 10.950466 0.000000 0.000000 0.000000 0.000000 -1.388943
    19 10.950471 0.000000 0.000000 1.772834 0.061827 -0.221715
    20 2.428221 0.000000 0.000000 -1.374374 0.146838 -1.228415
    21 1.681022 0.975106 0.213387 0.000000 0.000001 -1.745239
  time 2
    0 -0.208480 -1.490447 0.590854 0.000000 1.422363 -4.712344
    1 -1.601611 0.246101 0.000000 -1.570795 -1.570796 0.000000
    2 -0.000004 0.000006 3.077313 -0.026809 -2.972545 0.098993
    3 16.897085 0.000000 0.000000 0.000000 0.000000 -0.411347
    4 16.589727 0.000000 0.000000 0.109234 -0.132000 -0.127400
    5 0.000005 -0.000003 -3.077313 -0.007608 3.156548 0.146324
    6 16.897085 0.000000 0.000000 0.000000 0.000000 -0.272578
    7 16.589727 0.000000 0.000000 -0.062260 0.035889 -0.769973
    8 3.488968 -0.004234 0.000004 -0.000004 -0.000001 -0.004825
    9 5.318531 -0.004538 0.000000 -0.149782 0.043078 0.277237
    10 5.701826 -0.005492 0.000000 -0.034010 0.007766 0.223716
    11 6.899484 -0.001818 0.000000 0.000000 -0.026147 0.099378
    12 0.050786 0.001927 2.008302 2.135853 -0.738796 0.736150
    13 4.746895 0.000000 0.000000 -1.858218 0.354510 -0.889243
    14 10.950472 0.000000 0.000000 0.000000 0.000000 -0.800696
    15 10.950467 0.000000 0.000000 -1.574103 0.019392 0.236566
    16 -0.050780 0.001941 -2.008302 -1.536191 1.023524 1.495305
    17 4.746896 0.000000 -0.000003 1.157235 -1.198657 0.413363
    18 10.950466 0.000000 0.000000 0.000000 0.000000 -1.429148
    19 10.950471 0.000000 0.000000 1.757815 0.091948 -0.164685
    20 2.428221 0.000000 0.000000 -1.267969 0.156311 -1.199420
    21 1.681022 0.975106 0.213387 0.000000 0.000001 -1.745239
  time 3
    0 -0.208480 -2.006760 0.966298 0.000000 1.422363 -4.712344
    1 -1.265664 0.273446 0.000000 -1.570795 -1.570796 0.000000
    2 -0.000004 0.000006 3.077313 -0.026809 -2.972545 0.098993
    3 16.897085 0.000000 0.000000 0.000000 0.000000 -0.411347
    4 16.589727 0.000000 0.000000 0.109234 -0.132000 -0.127400
    5 0.000005 -0.000003 -3.077313 -0.007608 3.156548 0.146324
    6 16.897085 0.000000 0.000000 0.000000 0.000000 -0.272578
    7 16.589727 0.000000 0.000000 -0.062260 0.035889 -0.769973
    8 3.488968 -0.004234 0.000004 -0.000004 -0.000001 -0.047076
    9 5.318531 -0.004538 0.000000 -0.166801 0.044914 0.259808
    10 5.701826 -0.005492 0.000000 -0.033623 0.009220 0.266817
    11 6.899484 -0.001818 0.000000 0.000000 -0.026147 0.099378
    12 0.050786 0.001927 2.008302 2.135853 -0.738796 0.736150
    13 4.746895 0.000000 0.000000 -1.872898 0.398731 -0.901228
    14 10.950472 0.000000 0.000000 0.000000 0.000000 -0.883306
    15 10.950467 0.000000 0.000000 -1.574103 0.019392 0.236566
    16 -0.050780 0.001941 -2.008302 -1.536191 1.023524 1.495305
    17 4.746896 0.000000 -0.000003 1.134496 -1.167998 0.386508
    18 10.950466 0.000000 0.000000 0.000000 0.000000 -1.469662
    19 10.950471 0.000000 0.000000 1.744261 0.122783 -0.101338
    20 2.428221 0.000000 0.000000 -1.156656 0.163142 -1.169339
    21 1.681022 0.975106 0.213387 0.000000 0.000001 -1.745239
  time 4
    0 -0.208480 -2.540284 1.341743 0.000000 1.422363 -4.712344
    1 -0.941435 0.296884 0.000000 -1.570795 -1.570796 0.000000
    2 -0.000004 0.000006 3.077313 -0.026809 -2.972545 0.098993
    3 16.897085 0.000000 0.000000 0.000000 0.000000 -0.411347
    4 16.589727 0.000000 0.000000 0.109234 -0.132000 -0.127400
    5 0.000005 -0.000003 -3.077313 -0.007608 3.156548 0.146324
    6 16.897085 0.000000 0.000000 0.000000 0.000000 -0.272578
    7 16.589727 0.000000 0.000000 -0.062260 0.035889 -0.769973
    8 3.488968 -0.004234 0.000004 -0.000004 -0.000001 -0.087674
    9 5.318531 -0.004538 0.000000 -0.183285 0.046131 0.243082
    10 5.701826 -0.005492 0.000000 -0.033207 0.010642 0.309303
    11 6.899484 -0.001818 0.000000 0.000000 -0.026147 0.099378
    12 0.050786 0.001927 2.008302 2.135853 -0.738796 0.736150
    13 4.746895 0.000000 0.000000 -1.889580 0.440410 -0.914885
    14 10.950472 0.000000 0.000000 0.000000 0.000000 -0.964619
    15 10.950467 0.000000 0.000000 -1.574103 0.019392 0.236566
    16 -0.050780 0.001941 -2.008302 -1.536191 1.023524 1.495305
    17 4.746896 0.000000 -0.000003 1.117489 -1.132308 0.357647
    18 10.950466 0.000000 0.000000 0.000000 0.000000 -1.508786
    19 10.950471 0.000000 0.000000 1.733913 0.150843 -0.034200
    20 2.428221 0.000000 0.000000 -1.045806 0.166782 -1.140600
    21 1.681022 0.975106 0.213387 0.000000 0.000001 -1.745239
  time 5
    0 -0.208480 -3.108228 1.670257 0.000000 1.422363 -4.712344
    1 -0.636738 0.320322 0.000000 -1.570795 -1.570796 0.000000
    2 -0.000004 0.000006 3.077313 -0.026809 -2.972545 0.098993
    3 16.897085 0.000000 0.000000 0.000000 0.000000 -0.411347
    4 16.589727 0.000000 0.000000 0.109234 -0.132000 -0.127400
    5 0.000005 -0.000003 -3.077313 -0.007608 3.156548 0.146324
    6 16.897085 0.000000 0.000000 0.000000 0.000000 -0.272578
    7 16.589727 0.000000 0.000000 -0.062260 0.035889 -0.769973
    8 3.488968 -0.004234 0.000004 -0.000004 -0.000001 -0.125810
    9 5.318531 -0.004538 0.000000 -0.198806 0.046795 0.227411
    10 5.701826 -0.005492 0.000000 -0.032736 0.012000 0.350502
    11 6.899484 -0.001818 0.000000 0.000000 -0.026147 0.099378
    12 0.050786 0.001927 2.008302 2.135853 -0.738796 0.736150
    13 4.746895 0.000000 0.000000 -1.907692 0.478729 -0.930121
    14 10.950472 0.000000 0.000000 0.000000 0.000000 -1.043415
    15 10.950467 0.000000 0.000000 -1.574103 0.019392 0.236566
    16 -0.050780 0.001941 -2.008302 -1.536191 1.023524 1.495305
    17 4.746896 0.000000 -0.000003 1.107170 -1.091872 0.327161
    18 10.950466 0.000000 0.000000 0.000000 0.000000 -1.545905
    19 10.950471 0.000000 0.000000 1.726769 0.175098 0.035644
    20 2.428221 0.000000 0.000000 -0.936160 0.167380 -1.114032
    21 1.681022 0.975106 0.213387 0.000000 0.000001 -1.745239
  time 6
    0 -0.208480 -3.710593 1.998771 0.000000 1.422363 -4.712344
    1 -0.359386 0.343760 0.000000 -1.570795 -1.570796 0.000000
    2 -0.000004 0.000006 3.077313 -0.026809 -2.972545 0.098993
    3 16.897085 0.000000 0.000000 0.000000 0.000000 -0.411347
    4 16.589727 0.000000 0.000000 0.109234 -0.132000 -0.127400
    5 0.000005 -0.000003 -3.077313 -0.007608 3.156548 0.146324
    6 16.897085 0.000000 0.000000 0.000000 0.000000 -0.272578
    7 16.589727 0.000000 0.000000 -0.062260 0.035889 -0.769973
    8 3.488968 -0.004234 0.000004 -0.000004 -0.000001 -0.160566
    9 5.318531 -0.004538 0.000000 -0.213042 0.047016 0.213146
    10 5.701826 -0.005492 0.000000 -0.032238 0.013263 0.389504
    11 6.899484 -0.001818 0.000000 0.000000 -0.026147 0.099378
    12 0.050786 0.001927 2.008302 2.135853 -0.738796 0.736150
    13 4.746895 0.000000 0.000000 -1.926472 0.512871 -0.946380
    14 10.950472 0.000000 0.000000 0.000000 0.000000 -1.118245
    15 10.950467 0.000000 0.000000 -1.574103 0.019392 0.236566
    16 -0.050780 0.001941 -2.008302 -1.536191 1.023524 1.495305
    17 4.746896 0.000000 -0.000003 1.103635 -1.047830 0.296006
    18 10.950466 0.000000 0.000000 0.000000 0.000000 -1.580090
    19 10.950471 0.000000 0.000000 1.722465 0.194518 0.106752
    20 2.428221 0.000000 0.000000 -0.828459 0.165336 -1.090274
    21 1.681022 0.975106 0.213387 0.000000 0.000001 -1.745239
  time 7
    0 -0.208480 -4.312959 2.280354 0.000000 1.422363 -4.712344
    1 -0.121097 0.359386 0.000000 -1.570795 -1.570796 0.000000
    2 -0.000004 0.000006 3.077313 -0.026809 -2.972545 0.098993
    3 16.897085 0.000000 0.000000 0.000000 0.000000 -0.411347
    4 16.589727 0.000000 0.000000 0.109234 -0.132000 -0.127400
    5 0.000005 -0.000003 -3.077313 -0.007608 3.156548 0.146324
    6 16.897085 0.000000 0.000000 0.000000 0.000000 -0.272578
    7 16.589727 0.000000 0.000000 -0.062260 0.035889 -0.769973
    8 3.488968 -0.004234 0.000004 -0.000004 -0.000001 -0.190803
    9 5.318531 -0.004538 0.000000 -0.225423 0.046883 0.200765
    10 5.701826 -0.005492 0.000000 -0.031767 0.014365 0.423879
    11 6.899484 -0.001818 0.000000 0.000000 -0.026147 0.099378
    12 0.050786 0.001927 2.008302 2.135853 -0.738796 0.736150
    13 4.746895 0.000000 0.000000 -1.944774 0.542474 -0.962824
    14 10.950472 0.000000 0.000000 0.000000 0.000000 -1.185751
    15 10.950467 0.000000 0.000000 -1.574103 0.019392 0.236566
    16 -0.050780 0.001941 -2.008302 -1.536191 1.023524 1.495305
    17 4.746896 0.000000 -0.000003 1.104781 -1.001983 0.266858
    18 10.950466 0.000000 0.000000 0.000000 0.000000 -1.610418
    19 10.950471 0.000000 0.000000 1.720817 0.208627 0.176867
    20 2.428221 0.000000 0.000000 -0.723350 0.161098 -1.068816
    21 1.681022 0.975106 0.213387 0.000000 0.000001 -1.745239
  time 8
    0 -0.208480 -4.932534 2.515007 0.000000 1.422363 -4.712344
    1 0.085940 0.371105 0.000000 -1.570795 -1.570796 0.000000
    2 -0.000004 0.000006 3.077313 -0.026809 -2.972545 0.098993
    3 16.897085 0.000000 0.000000 0.000000 0.000000 -0.411347
    4 16.589727 0.000000 0.000000 0.109234 -0.132000 -0.127400
    5 0.000005 -0.000003 -3.077313 -0.007608 3.156548 0.146324
    6 16.897085 0.000000 0.000000 0.000000 0.000000 -0.272578
    7 16.589727 0.000000 0.000000 -0.062260 0.035889 -0.769973
    8 3.488968 -0.004234 0.000004 -0.000004 -0.000001 -0.215676
    9 5.318531 -0.004538 0.000000 -0.235663 0.046551 0.190619
    10 5.701826 -0.005492 0.000000 -0.031490 0.014972 0.442736
    11 6.899484 -0.001818 0.000000 0.000000 -0.026147 0.099378
    12 0.050786 0.001927 2.008302 2.135853 -0.738796 0.736150
    13 4.746895 0.000000 0.000000 -1.961075 0.569170 -0.978990
    14 10.950472 0.000000 0.000000 0.000000 0.000000 -1.230375
    15 10.950467 0.000000 0.000000 -1.574103 0.019392 0.236566
    16 -0.050780 0.001941 -2.008302 -1.536191 1.023524 1.495305
    17 4.746896 0.000000 -0.000003 1.094845 -0.958036 0.248701
    18 10.950466 0.000000 0.000000 0.000000 0.000000 -1.631562
    19 10.950471 0.000000 0.000000 1.719443 0.220596 0.240936
    20 2.428221 0.000000 0.000000 -0.621483 0.155563 -1.040076
    21 1.681022 0.975106 0.213387 0.000000 0.000001 -1.745239
  time 9
    0 -0.208480 -5.552110 2.937383 0.000000 1.422363 -4.712344
    1 0.457045 0.351573 0.000000 -1.570795 -1.570796 0.000000
    2 -0.000004 0.000006 3.077313 -0.026809 -2.972545 0.098993
    3 16.897085 0.000000 0.000000 0.000000 0.000000 -0.411347
    4 16.589727 0.000000 0.000000 0.109234 -0.132000 -0.127400
    5 0.000005 -0.000003 -3.077313 -0.007608 3.156548 0.146324
    6 16.897085 0.000000 0.000000 0.000000 0.000000 -0.272578
    7 16.589727 0.000000 0.000000 -0.062260 0.035889 -0.769973
    8 3.488968 -0.004234 0.000004 -0.000004 -0.000001 -0.243856
    9 5.318531 -0.004538 0.000000 -0.247258 0.045932 0.179141
    10 5.701826 -0.005492 0.000000 -0.032487 0.012671 0.371145
    11 6.899484 -0.001818 0.000000 0.000000 -0.026147 0.099378
    12 0.050786 0.001927 2.008302 2.135853 -0.738796 0.736150
    13 4.746895 0.000000 0.000000 -1.972515 0.605945 -0.994226
    14 10.950472 0.000000 0.000000 0.000000 0.000000 -1.123127
    15 10.950467 0.000000 0.000000 -1.574103 0.019392 0.236566
    16 -0.050780 0.001941 -2.008302 -1.536191 1.023524 1.495305
    17 4.746896 0.000000 -0.000003 0.979906 -0.931458 0.268101
    18 10.950466 0.000000 0.000000 0.000000 0.000000 -1.592746
    19 10.950471 0.000000 0.000000 1.685650 0.258961 0.270625
    20 2.428221 0.000000 0.000000 -0.517393 0.149530 -0.916817
    21 1.681022 0.975106 0.213387 0.000000 0.000001 -1.745239
  time 10
    0 -0.208480 -6.154475 3.312827 0.000000 1.422363 -4.712344
    1 0.789087 0.316416 0.000000 -1.570795 -1.570796 0.000000
    2 -0.000004 0.000006 3.077313 -0.026809 -2.972545 0.098993
    3 16.897085 0.000000 0.000000 0.000000 0.000000 -0.411347
    4 16.589727 0.000000 0.000000 0.109234 -0.132000 -0.127400
    5 0.000005 -0.000003 -3.077313 -0.007608 3.156548 0.146324
    6 16.897085 0.000000 0.000000 0.000000 0.000000 -0.272578
    7 16.589727 0.000000 0.000000 -0.062260 0.035889 -0.769973
    8 3.488968 -0.004234 0.000004 -0.000004 -0.000001 -0.265165
    9 5.318531 -0.004538 0.000000 -0.255215 0.044582 0.168443
    10 5.701826 -0.005492 0.000000 -0.033401 0.010067 0.291911
    11 6.899484 -0.001818 0.000000 0.000000 -0.026147 0.099378
    12 0.050786 0.001927 2.008302 2.135853 -0.738796 0.736150
    13 4.746895 0.000000 0.000000 -1.964984 0.596320 -0.981220
    14 10.950472 0.000000 0.000000 0.000000 0.000000 -0.917021
    15 10.950467 0.000000 0.000000 -1.574103 0.019392 0.236566
    16 -0.050780 0.001941 -2.008302 -1.536191 1.023524 1.495305
    17 4.746896 0.000000 -0.000003 0.864394 -0.906779 0.287405
    18 10.950466 0.000000 0.000000 0.000000 0.000000 -1.543667
    19 10.950471 0.000000 0.000000 1.664679 0.296691 0.295260
    20 2.428221 0.000000 0.000000 -0.418119 0.142400 -0.794579
    21 1.681022 0.975106 0.213387 0.000000 0.000001 -1.745239
  time 11
    0 -0.208480 -6.739630 3.735203 0.000000 1.422363 -4.712344
    1 1.117222 0.277352 0.000000 -1.570795 -1.570796 0.000000
    2 -0.000004 0.000006 3.077313 -0.026809 -2.972545 0.098993
    3 16.897085 0.000000 0.000000 0.000000 0.000000 -0.411347
    4 16.589727 0.000000 0.000000 0.109234 -0.132000 -0.127400
    5 0.000005 -0.000003 -3.077313 -0.007608 3.156548 0.146324
    6 16.897085 0.000000 0.000000 0.000000 0.000000 -0.272578
    7 16.589727 0.000000 0.000000 -0.062260 0.035889 -0.769973
    8 3.488968 -0.004234 0.000004 -0.000004 -0.000001 -0.285997
    9 5.318531 -0.004538 0.000000 -0.262886 0.043033 0.157744
    10 5.701826 -0.005492 0.000000 -0.034093 0.007398 0.212940
    11 6.899484 -0.001818 0.000000 0.000000 -0.026147 0.099378
    12 0.050786 0.001927 2.008302 2.135853 -0.738796 0.736150
    13 4.746895 0.000000 0.000000 -1.956214 0.586150 -0.967191
    14 10.950472 0.000000 0.000000 0.000000 0.000000 -0.709848
    15 10.950467 0.000000 0.000000 -1.574103 0.019392 0.236566
    16 -0.050780 0.001941 -2.008302 -1.536191 1.023524 1.495305
    17 4.746896 0.000000 -0.000003 0.763977 -0.882480 0.289030
    18 10.950466 0.000000 0.000000 0.000000 0.000000 -1.483629
    19 10.950471 0.000000 0.000000 1.647278 0.332282 0.316827
    20 2.428221 0.000000 0.000000 -0.320141 0.133575 -0.674193
    21 1.681022 0.975106 0.213387 0.000000 0.000001 -1.745239
  time 12
    0 -0.208480 -7.307575 4.110647 0.000000 1.422363 -4.712344
    1 1.445357 0.238289 0.000000 -1.570795 -1.570796 0.000000
    2 -0.000004 0.000006 3.077313 -0.026809 -2.972545 0.098993
    3 16.897085 0.000000 0.000000 0.000000 0.000000 -0.411347
    4 16.589727 0.000000 0.000000 0.109234 -0.132000 -0.127400
    5 0.000005 -0.000003 -3.077313 -0.007608 3.156548 0.146324
    6 16.897085 0.000000 0.000000 0.000000 0.000000 -0.272578
    7 16.589727 0.000000 0.000000 -0.062260 0.035889 -0.769973
    8 3.488968 -0.004234 0.000004 -0.000004 -0.000001 -0.306755
    9 5.318531 -0.004538 0.000000 -0.270486 0.041308 0.147020
    10 5.701826 -0.005492 0.000000 -0.034564 0.004714 0.134907
    11 6.899484 -0.001818 0.000000 0.000000 -0.026147 0.099378
    12 0.050786 0.001927 2.008302 2.135853 -0.738796 0.736150
    13 4.746895 0.000000 0.000000 -1.947825 0.580430 -0.955206
    14 10.950472 0.000000 0.000000 0.000000 0.000000 -0.511752
    15 10.950467 0.000000 0.000000 -1.574103 0.019392 0.236566
    16 -0.050780 0.001941 -2.008302 -1.536191 1.023524 1.495305
    17 4.746896 0.000000 -0.000003 0.678084 -0.860553 0.274122
    18 10.950466 0.000000 0.000000 0.000000 0.000000 -1.411553
    19 10.950471 0.000000 0.000000 1.633175 0.365098 0.333791
    20 2.428221 0.000000 0.000000 -0.223367 0.123204 -0.556106
    21 1.681022 0.975106 0.213387 0.000000 0.000001 -1.745239
  time 13
    0 -0.208480 -7.858309 4.486092 0.000000 1.422363 -4.712344
    1 1.769585 0.195318 0.000000 -1.570795 -1.570796 0.000000
    2 -0.000004 0.000006 3.077313 -0.026809 -2.972545 0.098993
    3 16.897085 0.000000 0.000000 0.000000 0.000000 -0.411347
    4 16.589727 0.000000 0.000000 0.109234 -0.132000 -0.127400
    5 0.000005 -0.000003 -3.077313 -0.007608 3.156548 0.146324
    6 16.897085 0.000000 0.000000 0.000000 0.000000 -0.272578
    7 16.589727 0.000000 0.000000 -0.062260 0.035889 -0.769973
    8 3.488968 -0.004234 0.000004 -0.000004 -0.000001 -0.327439
    9 5.318531 -0.004538 0.000000 -0.277978 0.039361 0.136271
    10 5.701826 -0.005492 0.000000 -0.034813 0.002045 0.058045
    11 6.899484 -0.001818 0.000000 0.000000 -0.026147 0.099378
    12 0.050786 0.001927 2.008302 2.135853 -0.738796 0.736150
    13 4.746895 0.000000 0.000000 -1.940103 0.580793 -0.946008
    14 10.950472 0.000000 0.000000 0.000000 0.000000 -0.326547
    15 10.950467 0.000000 0.000000 -1.574103 0.019392 0.236566
    16 -0.050780 0.001941 -2.008302 -1.536191 1.023524 1.495305
    17 4.746896 0.000000 -0.000003 0.606235 -0.842708 0.244400
    18 10.950466 0.000000 0.000000 0.000000 0.000000 -1.326436
    19 10.950471 0.000000 0.000000 1.622186 0.394664 0.344620
    20 2.428221 0.000000 0.000000 -0.128353 0.111387 -0.440766
    21 1.681022 0.975106 0.213387 0.000000 0.000001 -1.745239
  time 14
    0 -0.208480 -8.357411 4.861536 0.000000 1.422363 -4.712344
    1 2.086001 0.148442 0.000000 -1.570795 -1.570796 0.000000
    2 -0.000004 0.000006 3.077313 -0.026809 -2.972545 0.098993
    3 16.897085 0.000000 0.000000 0.000000 0.000000 -0.411347
    4 16.589727 0.000000 0.000000 0.109234 -0.132000 -0.127400
    5 0.000005 -0.000003 -3.077313 -0.007608 3.156548 0.146324
    6 16.897085 0.000000 0.000000 0.000000 0.000000 -0.272578
    7 16.589727 0.000000 0.000000 -0.062260 0.035889 -0.769973
    8 3.488968 -0.004234 0.000004 -0.000004 -0.000001 -0.347977
    9 5.318531 -0.004538 0.000000 -0.285400 0.037237 0.125472
    10 5.701826 -0.005492 0.000000 -0.034869 -0.000575 -0.017324
    11 6.899484 -0.001818 0.000000 0.000000 -0.026147 0.099378
    12 0.050786 0.001927 2.008302 2.135853 -0.738796 0.736150
    13 4.746895 0.000000 0.000000 -1.933812 0.589782 -0.941084
    14 10.950472 0.000000 0.000000 0.000000 0.000000 -0.159725
    15 10.950467 0.000000 0.000000 -1.574103 0.019392 0.236566
    16 -0.050780 0.001941 -2.008302 -1.536191 1.023524 1.495305
    17 4.746896 0.000000 -0.000003 0.548049 -0.829799 0.201108
    18 10.950466 0.000000 0.000000 0.000000 0.000000 -1.226965
    19 10.950471 0.000000 0.000000 1.613669 0.420663 0.347688
    20 2.428221 0.000000 0.000000 -0.035283 0.098424 -0.328746
    21 1.681022 0.975106 0.213387 0.000000 0.000001 -1.745239
  time 15
    0 -0.208480 -8.822093 5.190051 0.000000 1.422363 -4.712344
    1 2.394604 0.097659 0.000000 -1.570795 -1.570796 0.000000
    2 -0.000004 0.000006 3.077313 -0.026809 -2.972545 0.098993
    3 16.897085 0.000000 0.000000 0.000000 0.000000 -0.411347
    4 16.589727 0.000000 0.000000 0.109234 -0.132000 -0.127400
    5 0.000005 -0.000003 -3.077313 -0.007608 3.156548 0.146324
    6 16.897085 0.000000 0.000000 0.000000 0.000000 -0.272578
    7 16.589727 0.000000 0.000000 -0.062260 0.035889 -0.769973
    8 3.488968 -0.004234 0.000004 -0.000004 -0.000001 -0.368331
    9 5.318531 -0.004538 0.000000 -0.292607 0.034936 0.114623
    10 5.701826 -0.005492 0.000000 -0.034730 -0.003132 -0.090702
    11 6.899484 -0.001818 0.000000 0.000000 -0.026147 0.099378
    12 0.050786 0.001927 2.008302 2.135853 -0.738796 0.736150
    13 4.746895 0.000000 0.000000 -1.930761 0.613391 -0.943407
    14 10.950472 0.000000 0.000000 0.000000 0.000000 -0.024482
    15 10.950467 0.000000 0.000000 -1.574103 0.019392 0.236566
    16 -0.050780 0.001941 -2.008302 -1.536191 1.023524 1.495305
    17 4.746896 0.000000 -0.000003 0.504194 -0.822111 0.144915
    18 10.950466 0.000000 0.000000 0.000000 0.000000 -1.111597
    19 10.950471 0.000000 0.000000 1.607258 0.443095 0.340830
    20 2.428221 0.000000 0.000000 0.055101 0.084563 -0.220814
    21 1.681022 0.975106 0.213387 0.000000 0.000001 -1.745239
  time 16
    0 -0.208480 -9.235144 5.565495 0.000000 1.422363 -4.712344
    1 2.687582 0.050783 0.000000 -1.570795 -1.570796 0.000000
    2 -0.000004 0.000006 3.077313 -0.026809 -2.972545 0.098993
    3 16.897085 0.000000 0.000000 0.000000 0.000000 -0.411347
    4 16.589727 0.000000 0.000000 0.109234 -0.132000 -0.127400
    5 0.000005 -0.000003 -3.077313 -0.007608 3.156548 0.146324
    6 16.897085 0.000000 0.000000 0.000000 0.000000 -0.272578
    7 16.589727 0.000000 0.000000 -0.062260 0.035889 -0.769973
    8 3.488968 -0.004234 0.000004 -0.000004 -0.000001 -0.388354
    9 5.318531 -0.004538 0.000000 -0.299636 0.032413 0.103774
    10 5.701826 -0.005492 0.000000 -0.034426 -0.005577 -0.161503
    11 6.899484 -0.001818 0.000000 0.000000 -0.026147 0.099378
    12 0.050786 0.001927 2.008302 2.135853 -0.738796 0.736150
    13 4.746895 0.000000 0.000000 -1.942391 0.684128 -0.970814
    14 10.950472 0.000000 0.000000 0.000000 0.000000 -0.002438
    15 10.950467 0.000000 0.000000 -1.574103 0.019392 0.236566
    16 -0.050780 0.001941 -2.008302 -1.536191 1.023524 1.495305
    17 4.746896 0.000000 -0.000003 0.476773 -0.818788 0.074865
    18 10.950466 0.000000 0.000000 0.000000 0.000000 -0.978172
    19 10.950471 0.000000 0.000000 1.602221 0.461802 0.322241
    20 2.428221 0.000000 0.000000 0.142058 0.070153 -0.117928
    21 1.681022 0.975106 0.213387 0.000000 0.000001 -1.745239
  time 17
    0 -0.208480 -9.579352 5.894009 0.000000 1.422363 -4.712344
    1 2.961028 0.000000 0.000000 -1.570795 -1.570796 0.000000
    2 -0.000004 0.000006 3.077313 -0.026809 -2.972545 0.098993
    3 16.897085 0.000000 0.000000 0.000000 0.000000 -0.411347
    4 16.589727 0.000000 0.000000 0.109234 -0.132000 -0.127400
    5 0.000005 -0.000003 -3.077313 -0.007608 3.156548 0.146324
    6 16.897085 0.000000 0.000000 0.000000 0.000000 -0.272578
    7 16.589727 0.000000 0.000000 -0.062260 0.035889 -0.769973
    8 3.488968 -0.004234 0.000004 -0.000004 -0.000001 -0.407863
    9 5.318531 -0.004538 0.000000 -0.306343 0.029758 0.093000
    10 5.701826 -0.005492 0.000000 -0.033983 -0.007878 -0.228703
    11 6.899484 -0.001818 0.000000 0.000000 -0.026147 0.099378
    12 0.050786 0.001927 2.008302 2.135853 -0.738796 0.736150
    13 4.746895 0.000000 0.000000 -1.978234 0.801083 -1.031017
    14 10.950472 0.000000 0.000000 0.000000 0.000000 -0.103584
    15 10.950467 0.000000 0.000000 -1.574103 0.019392 0.236566
    16 -0.050780 0.001941 -2.008302 -1.536191 1.023524 1.495305
    17 4.746896 0.000000 -0.000003 0.468939 -0.818124 -0.011337
    18 10.950466 0.000000 0.000000 0.000000 0.000000 -0.822600
    19 10.950471 0.000000 0.000000 1.597917 0.477100 0.288492
    20 2.428221 0.000000 0.000000 0.224571 0.055694 -0.021427
    21 1.681022 0.975106 0.213387 0.000000 0.000001 -1.745239
  time 18
    0 -0.208480 -9.871930 6.222523 0.000000 1.422363 -4.712344
    1 3.214942 -0.042970 0.000000 -1.570795 -1.570796 0.000000
    2 -0.000004 0.000006 3.077313 -0.026809 -2.972545 0.098993
    3 16.897085 0.000000 0.000000 0.000000 0.000000 -0.411347
    4 16.589727 0.000000 0.000000 0.109234 -0.132000 -0.127400
    5 0.000005 -0.000003 -3.077313 -0.007608 3.156548 0.146324
    6 16.897085 0.000000 0.000000 0.000000 0.000000 -0.272578
    7 16.589727 0.000000 0.000000 -0.062260 0.035889 -0.769973
    8 3.488968 -0.004234 0.000004 -0.000004 -0.000001 -0.426343
    9 5.318531 -0.004538 0.000000 -0.312552 0.026993 0.082577
    10 5.697919 -0.005492 0.000000 -0.033429 -0.009971 -0.290631
    11 6.899484 -0.001818 0.000000 0.000000 -0.026147 0.099378
    12 0.050786 0.001927 2.008302 2.135853 -0.738796 0.736150
    13 4.746895 0.000000 0.000000 -2.028948 0.913135 -1.103855
    14 10.950472 0.000000 0.000000 0.000000 0.000000 -0.209840
    15 10.950467 0.000000 0.000000 -1.574103 0.019392 0.236566
    16 -0.050780 0.001941 -2.008302 -1.536191 1.023524 1.495305
    17 4.746896 0.000000 -0.000003 0.486805 -0.815371 -0.118658
    18 10.950466 0.000000 0.000000 0.000000 0.000000 -0.637934
    19 10.950471 0.000000 0.000000 1.593613 0.489228 0.235071
    20 2.428221 0.000000 0.000000 0.300323 0.041882 0.066323
    21 1.681022 0.975106 0.213387 0.000000 0.000001 -1.745239
  time 19
    0 -0.208480 -10.078455 6.504107 0.000000 1.422363 -4.712344
    1 3.421979 -0.085940 0.000000 -1.570795 -1.570796 0.000000
    2 -0.000004 0.000006 3.077313 -0.026809 -2.972545 0.098993
    3 16.897085 0.000000 0.000000 0.000000 0.000000 -0.411347
    4 16.589727 0.000000 0.000000 0.109234 -0.132000 -0.127400
    5 0.000005 -0.000003 -3.077313 -0.007608 3.156548 0.146324
    6 16.897085 0.000000 0.000000 0.000000 0.000000 -0.272578
    7 16.589727 0.000000 0.000000 -0.062260 0.035889 -0.769973
    8 3.488968 -0.004234 0.000004 -0.000004 -0.000001 -0.442325
    9 5.318531 -0.004538 0.000000 -0.317904 0.024515 0.073586
    10 5.697919 -0.005492 0.000000 -0.032847 -0.011729 -0.343864
    11 6.899484 -0.001818 0.000000 0.000000 -0.026147 0.099378
    12 0.050786 0.001927 2.008302 2.135853 -0.738796 0.736150
    13 4.746895 0.000000 0.000000 -2.092340 1.009024 -1.185705
    14 10.950472 0.000000 0.000000 0.000000 0.000000 -0.307324
    15 10.950467 0.000000 0.000000 -1.574103 0.019392 0.236566
    16 -0.050780 0.001941 -2.008302 -1.536191 1.023524 1.495305
    17 4.746896 0.000000 -0.000003 0.539354 -0.800944 -0.254363
    18 10.950466 0.000000 0.000000 0.000000 0.000000 -0.411520
    19 10.950471 0.000000 0.000000 1.588576 0.498185 0.152773
    20 2.428221 0.000000 0.000000 0.365518 0.029816 0.141301
    21 1.681022 0.975106 0.213387 0.000000 0.000001 -1.745239
  time 20
    0 -0.208480 -10.216138 6.644899 0.000000 1.422363 -4.712344
    1 3.511826 -0.105472 0.000000 -1.570795 -1.570796 0.000000
    2 -0.000004 0.000006 3.077313 -0.026809 -2.972545 0.098993
    3 16.897085 0.000000 0.000000 0.000000 0.000000 -0.411347
    4 16.589727 0.000000 0.000000 0.109234 -0.132000 -0.127400
    5 0.000005 -0.000003 -3.077313 -0.007608 3.156548 0.146324
    6 16.897085 0.000000 0.000000 0.000000 0.000000 -0.272578
    7 16.589727 0.000000 0.000000 -0.062260 0.035889 -0.769973
    8 3.488968 -0.004234 0.000004 -0.000004 -0.000001 -0.448645
    9 5.318531 -0.004538 0.000000 -0.320794 0.024183 0.071828
    10 5.697919 -0.005492 0.000000 -0.032432 -0.012847 -0.377800
    11 6.899484 -0.001818 0.000000 0.000000 -0.026147 0.099378
    12 0.050786 0.001927 2.008302 2.135853 -0.738796 0.736150
    13 4.746895 0.000000 0.000000 -2.144389 1.066957 -1.249252
    14 10.950472 0.000000 0.000000 0.000000 0.000000 -0.389095
    15 10.950467 0.000000 0.000000 -1.574103 0.019392 0.236566
    16 -0.050780 0.001941 -2.008302 -1.536191 1.023524 1.495305
    17 4.746896 0.000000 -0.000003 0.609006 -0.770285 -0.377167
    18 10.950466 0.000000 0.000000 0.000000 0.000000 -0.205247
    19 10.950471 0.000000 0.000000 1.581799 0.501990 0.063889
    20 2.428221 0.000000 0.000000 0.407006 0.022487 0.191755
    21 1.681022 0.975106 0.213387 0.000000 0.000001 -1.745239
  time 21
    0 -0.208480 -10.267770 6.175593 0.000000 1.422363 -4.712344
    1 2.961028 -0.023438 0.000000 -1.570795 -1.570796 0.000000
    2 -0.000004 0.000006 3.077313 -0.026809 -2.972545 0.098993
    3 16.897085 0.000000 0.000000 0.000000 0.000000 -0.411347
    4 16.589727 0.000000 0.000000 0.109234 -0.132000 -0.127400
    5 0.000005 -0.000003 -3.077313 -0.007608 3.156548 0.146324
    6 16.897085 0.000000 0.000000 0.000000 0.000000 -0.272578
    7 16.589727 0.000000 0.000000 -0.062260 0.035889 -0.769973
    8 3.488968 -0.004234 0.000004 -0.000004 -0.000001 -0.400625
    9 5.318531 -0.004538 0.000000 -0.311909 0.037900 0.116180
    10 5.697919 -0.005492 0.000000 -0.032875 -0.011617 -0.340145
    11 6.899484 -0.001818 0.000000 0.000000 -0.026147 0.099378
    12 0.050786 0.001927 2.008302 2.135853 -0.738796 0.736150
    13 4.746895 0.000000 0.000000 -2.054019 0.966982 -1.143619
    14 10.950472 0.000000 0.000000 0.000000 0.000000 -0.418463
    15 10.950467 0.000000 0.000000 -1.574103 0.019392 0.236566
    16 -0.050780 0.001941 -2.008302 -1.536191 1.023524 1.495305
    17 4.746896 0.000000 -0.000003 0.501615 -0.826477 -0.095244
    18 10.950466 0.000000 0.000000 0.000000 0.000000 -0.694653
    19 10.950471 0.000000 0.000000 1.573557 0.477417 0.256186
    20 2.428221 0.000000 0.000000 0.361443 0.037495 0.166975
    21 1.681022 0.975106 0.213387 0.000000 0.000001 -1.745239
  time 22
    0 -0.208480 -10.284980 5.894009 0.000000 1.422363 -4.712344
    1 2.628986 0.019532 0.000000 -1.570795 -1.570796 0.000000
    2 -0.000004 0.000006 3.077313 -0.026809 -2.972545 0.098993
    3 16.897085 0.000000 0.000000 0.000000 0.000000 -0.411347
    4 16.589727 0.000000 0.000000 0.109234 -0.132000 -0.127400
    5 0.000005 -0.000003 -3.077313 -0.007608 3.156548 0.146324
    6 16.897085 0.000000 0.000000 0.000000 0.000000 -0.272578
    7 16.589727 0.000000 0.000000 -0.062260 0.035889 -0.769973
    8 3.488968 -0.004234 0.000004 -0.000004 -0.000001 -0.373438
    9 5.318531 -0.004538 0.000000 -0.306272 0.045025 0.140616
    10 5.697919 -0.005492 0.000000 -0.033179 -0.010706 -0.313031
    11 6.899484 -0.001818 0.000000 0.000000 -0.026147 0.099378
    12 0.050786 0.001927 2.008302 2.135853 -0.738796 0.736150
    13 4.746895 0.000000 0.000000 -2.019797 0.912136 -1.100789
    14 10.950472 0.000000 0.000000 0.000000 0.000000 -0.388561
    15 10.950467 0.000000 0.000000 -1.574103 0.019392 0.236566
    16 -0.050780 0.001941 -2.008302 -1.536191 1.023524 1.495305
    17 4.746896 0.000000 -0.000003 0.503143 -0.829704 -0.012006
    18 10.950466 0.000000 0.000000 0.000000 0.000000 -0.858252
    19 10.950471 0.000000 0.000000 1.570718 0.459979 0.309517
    20 2.428221 0.000000 0.000000 0.329957 0.049561 0.143536
    21 1.681022 0.975106 0.213387 0.000000 0.000001 -1.745239
  time 23
    0 -0.208480 -10.198928 5.659356 0.000000 1.422363 -4.712344
    1 2.304758 0.066408 0.000000 -1.570795 -1.570796 0.000000
    2 -0.000004 0.000006 3.077313 -0.026809 -2.972545 0.098993
    3 16.897085 0.000000 0.000000 0.000000 0.000000 -0.411347
    4 16.589727 0.000000 0.000000 0.109234 -0.132000 -0.127400
    5 0.000005 -0.000003 -3.077313 -0.007608 3.156548 0.146324
    6 16.897085 0.000000 0.000000 0.000000 0.000000 -0.272578
    7 16.589727 0.000000 0.000000 -0.062260 0.035889 -0.769973
    8 3.488968 -0.004234 0.000004 -0.000004 -0.000001 -0.347169
    9 5.318531 -0.004538 0.000000 -0.300706 0.051662 0.164249
    10 5.697919 -0.005492 0.000000 -0.033456 -0.009827 -0.286474
    11 6.899484 -0.001818 0.000000 0.000000 -0.026147 0.099378
    12 0.050786 0.001927 2.008302 2.135853 -0.738796 0.736150
    13 4.746895 0.000000 0.000000 -1.991199 0.857381 -1.063441
    14 10.950472 0.000000 0.000000 0.000000 0.000000 -0.356067
    15 10.950467 0.000000 0.000000 -1.574103 0.019392 0.236566
    16 -0.050780 0.001941 -2.008302 -1.536191 1.023524 1.495305
    17 4.746896 0.000000 -0.000003 0.517475 -0.833596 0.053362
    18 10.950466 0.000000 0.000000 0.000000 0.000000 -0.988976
    19 10.950471 0.000000 0.000000 1.569985 0.442223 0.343627
    20 2.428221 0.000000 0.000000 0.299953 0.062874 0.120034
    21 1.681022 0.975106 0.213387 0.000000 0.000001 -1.745239
  time 24
    0 -0.208480 -10.044034 5.424703 0.000000 1.422363 -4.712344
    1 1.972716 0.109378 0.000000 -1.570795 -1.570796 0.000000
    2 -0.000004 0.000006 3.077313 -0.026809 -2.972545 0.098993
    3 16.897085 0.000000 0.000000 0.000000 0.000000 -0.411347
    4 16.589727 0.000000 0.000000 0.109234 -0.132000 -0.127400
    5 0.000005 -0.000003 -3.077313 -0.007608 3.156548 0.146324
    6 16.897085 0.000000 0.000000 0.000000 0.000000 -0.272578
    7 16.589727 0.000000 0.000000 -0.062260 0.035889 -0.769973
    8 3.488968 -0.004234 0.000004 -0.000004 -0.000001 -0.321047
    9 5.318531 -0.004538 0.000000 -0.294997 0.058034 0.187831
    10 5.697919 -0.005492 0.000000 -0.033706 -0.008932 -0.260033
    11 6.899484 -0.001818 0.000000 0.000000 -0.026147 0.099378
    12 0.050786 0.001927 2.008302 2.135853 -0.738796 0.736150
    13 4.746895 0.000000 0.000000 -1.964221 0.797360 -1.026279
    14 10.950472 0.000000 0.000000 0.000000 0.000000 -0.326928
    15 10.950467 0.000000 0.000000 -1.574103 0.019392 0.236566
    16 -0.050780 0.001941 -2.008302 -1.536191 1.023524 1.495305
    17 4.746896 0.000000 -0.000003 0.541552 -0.838722 0.106975
    18 10.950466 0.000000 0.000000 0.000000 0.000000 -1.101257
    19 10.950471 0.000000 0.000000 1.571451 0.422724 0.367631
    20 2.428221 0.000000 0.000000 0.270967 0.077582 0.096532
    21 1.681022 0.975106 0.213387 0.000000 0.000001 -1.745239
  time 25
    0 -0.208480 -9.854719 5.190051 0.000000 1.422363 -4.712344
    1 1.636769 0.148442 0.000000 -1.570795 -1.570796 0.000000
    2 -0.000004 0.000006 3.077313 -0.026809 -2.972545 0.098993
    3 16.897085 0.000000 0.000000 0.000000 0.000000 -0.411347
    4 16.589727 0.000000 0.000000 0.109234 -0.132000 -0.127400
    5 0.000005 -0.000003 -3.077313 -0.007608 3.156548 0.146324
    6 16.897085 0.000000 0.000000 0.000000 0.000000 -0.272578
    7 16.589727 0.000000 0.000000 -0.062260 0.035889 -0.769973
    8 3.488968 -0.004234 0.000004 -0.000004 -0.000001 -0.295035
    9 5.318531 -0.004538 0.000000 -0.289182 0.064141 0.211363
    10 5.701826 -0.005492 0.000000 -0.033927 -0.008053 -0.233710
    11 6.899484 -0.001818 0.000000 0.000000 -0.026147 0.099378
    12 0.050786 0.001927 2.008302 2.135853 -0.738796 0.736150
    13 4.746895 0.000000 0.000000 -1.927806 0.705466 -0.971279
    14 10.950472 0.000000 0.000000 0.000000 0.000000 -0.281542
    15 10.950467 0.000000 0.000000 -1.574103 0.019392 0.236566
    16 -0.050780 0.001941 -2.008302 -1.536191 1.023524 1.495305
    17 4.746896 0.000000 -0.000003 0.572699 -0.846030 0.152178
    18 10.950466 0.000000 0.000000 0.000000 0.000000 -1.199416
    19 10.950471 0.000000 0.000000 1.574931 0.401719 0.383513
    20 2.428221 0.000000 0.000000 0.243185 0.093637 0.072902
    21 1.681022 0.975106 0.213387 0.000000 0.000001 -1.745239
  time 26
    0 -0.208480 -9.613773 4.955398 0.000000 1.422363 -4.712344
    1 1.300821 0.191412 0.000000 -1.570795 -1.570796 0.000000
    2 -0.000004 0.000006 3.077313 -0.026809 -2.972545 0.098993
    3 16.897085 0.000000 0.000000 0.000000 0.000000 -0.411347
    4 16.589727 0.000000 0.000000 0.109234 -0.132000 -0.127400
    5 0.000005 -0.000003 -3.077313 -0.007608 3.156548 0.146324
    6 16.897085 0.000000 0.000000 0.000000 0.000000 -0.272578
    7 16.589727 0.000000 0.000000 -0.062260 0.035889 -0.769973
    8 3.488968 -0.004234 0.000004 -0.000004 -0.000001 -0.269206
    9 5.318531 -0.004538 0.000000 -0.283295 0.069960 0.234819
    10 5.701826 -0.005492 0.000000 -0.034121 -0.007159 -0.207591
    11 6.899484 -0.001818 0.000000 0.000000 -0.026147 0.099378
    12 0.050786 0.001927 2.008302 2.135853 -0.738796 0.736150
    13 4.746895 0.000000 0.000000 -1.896063 0.598954 -0.916371
    14 10.950472 0.000000 0.000000 0.000000 0.000000 -0.236385
    15 10.950467 0.000000 0.000000 -1.574103 0.019392 0.236566
    16 -0.050780 0.001941 -2.008302 -1.536191 1.023524 1.495305
    17 4.746896 0.000000 -0.000003 0.609866 -0.855427 0.190118
    18 10.950466 0.000000 0.000000 0.000000 0.000000 -1.286077
    19 10.950471 0.000000 0.000000 1.580517 0.379128 0.393168
    20 2.428221 0.000000 0.000000 0.216607 0.110939 0.049208
    21 1.681022 0.975106 0.213387 0.000000 0.000001 -1.745239
  time 27
    0 -0.208480 -9.338406 4.720745 0.000000 1.422363 -4.712344
    1 0.960967 0.226569 0.000000 -1.570795 -1.570796 0.000000
    2 -0.000004 0.000006 3.077313 -0.026809 -2.972545 0.098993
    3 16.897085 0.000000 0.000000 0.000000 0.000000 -0.411347
    4 16.589727 0.000000 0.000000 0.109234 -0.132000 -0.127400
    5 0.000005 -0.000003 -3.077313 -0.007608 3.156548 0.146324
    6 16.897085 0.000000 0.000000 0.000000 0.000000 -0.272578
    7 16.589727 0.000000 0.000000 -0.062260 0.035889 -0.769973
    8 3.488968 -0.004234 0.000004 -0.000004 -0.000001 -0.243562
    9 5.318531 -0.004538 0.000000 -0.277372 0.075491 0.258201
    10 5.701826 -0.005492 0.000000 -0.034315 -0.006264 -0.181619
    11 6.899484 -0.001818 0.000000 0.000000 -0.026147 0.099378
    12 0.050786 0.001927 2.008302 2.135853 -0.738796 0.736150
    13 4.746895 0.000000 0.000000 -1.873279 0.491987 -0.868525
    14 10.950472 0.000000 0.000000 0.000000 0.000000 -0.192525
    15 10.950467 0.000000 0.000000 -1.574103 0.019392 0.236566
    16 -0.050780 0.001941 -2.008302 -1.536191 1.023524 1.495305
    17 4.746896 0.000000 -0.000003 0.652096 -0.867387 0.221846
    18 10.950466 0.000000 0.000000 0.000000 0.000000 -1.362705
    19 10.950471 0.000000 0.000000 1.588118 0.355031 0.397139
    20 2.428221 0.000000 0.000000 0.191325 0.129337 0.025450
    21 1.681022 0.975106 0.213387 0.000000 0.000001 -1.745239
  time 28
    0 -0.208480 -9.028618 4.533022 0.000000 1.422363 -4.712344
    1 0.625019 0.265633 0.000000 -1.570795 -1.570796 0.000000
    2 -0.000004 0.000006 3.077313 -0.026809 -2.972545 0.098993
    3 16.897085 0.000000 0.000000 0.000000 0.000000 -0.411347
    4 16.589727 0.000000 0.000000 0.109234 -0.132000 -0.127400
    5 0.000005 -0.000003 -3.077313 -0.007608 3.156548 0.146324
    6 16.897085 0.000000 0.000000 0.000000 0.000000 -0.272578
    7 16.589727 0.000000 0.000000 -0.062260 0.035889 -0.769973
    8 3.488968 -0.004234 0.000004 -0.000004 -0.000001 -0.218138
    9 5.318531 -0.004538 0.000000 -0.271342 0.080757 0.281456
    10 5.701826 -0.005492 0.000000 -0.034453 -0.005385 -0.155881
    11 6.899484 -0.001818 0.000000 0.000000 -0.026147 0.099378
    12 0.050786 0.001927 2.008302 2.135853 -0.738796 0.736150
    13 4.746895 0.000000 0.000000 -1.857455 0.386382 -0.826067
    14 10.950472 0.000000 0.000000 0.000000 0.000000 -0.150266
    15 10.950467 0.000000 0.000000 -1.574103 0.019392 0.236566
    16 -0.050780 0.001941 -2.008302 -1.536191 1.023524 1.495305
    17 4.746896 0.000000 -0.000003 0.699294 -0.881341 0.247172
    18 10.950466 0.000000 0.000000 0.000000 0.000000 -1.430614
    19 10.950471 0.000000 0.000000 1.597917 0.329507 0.396778
    20 2.428221 0.000000 0.000000 0.167340 0.148733 0.001756
    21 1.681022 0.975106 0.213387 0.000000 0.000001 -1.745239
  time 29
    0 -0.208480 -8.684410 4.298369 0.000000 1.422363 -4.712344
    1 0.289071 0.300790 0.000000 -1.570795 -1.570796 0.000000
    2 -0.000004 0.000006 3.077313 -0.026809 -2.972545 0.098993
    3 16.897085 0.000000 0.000000 0.000000 0.000000 -0.411347
    4 16.589727 0.000000 0.000000 0.109234 -0.132000 -0.127400
    5 0.000005 -0.000003 -3.077313 -0.007608 3.156548 0.146324
    6 16.897085 0.000000 0.000000 0.000000 0.000000 -0.272578
    7 16.589727 0.000000 0.000000 -0.062260 0.035889 -0.769973
    8 3.488968 -0.004234 0.000004 -0.000004 -0.000001 -0.192934
    9 5.318531 -0.004538 0.000000 -0.265312 0.085757 0.304561
    10 5.701826 -0.005492 0.000000 -0.034592 -0.004506 -0.130377
    11 6.899484 -0.001818 0.000000 0.000000 -0.026147 0.099378
    12 0.050786 0.001927 2.008302 2.135853 -0.738796 0.736150
    13 4.746895 0.000000 0.000000 -1.847160 0.282956 -0.787511
    14 10.950472 0.000000 0.000000 0.000000 0.000000 -0.110220
    15 10.950467 0.000000 0.000000 -1.574103 0.019392 0.236566
    16 -0.050780 0.001941 -2.008302 -1.536191 1.023524 1.495305
    17 4.746896 0.000000 -0.000003 0.750984 -0.897192 0.266476
    18 10.950466 0.000000 0.000000 0.000000 0.000000 -1.490420
    19 10.950471 0.000000 0.000000 1.609639 0.302953 0.392356
    20 2.428221 0.000000 0.000000 0.144651 0.169026 -0.022002
    21 1.681022 0.975106 0.213387 0.000000 0.000001 -1.745239
  time 30
    0 -0.208480 -8.322990 4.063717 0.000000 1.422363 -4.712344
    1 -0.039064 0.332041 0.000000 -1.570795 -1.570796 0.000000
    2 -0.000004 0.000006 3.077313 -0.026809 -2.972545 0.098993
    3 16.897085 0.000000 0.000000 0.000000 0.000000 -0.411347
    4 16.589727 0.000000 0.000000 0.109234 -0.132000 -0.127400
    5 0.000005 -0.000003 -3.077313 -0.007608 3.156548 0.146324
    6 16.897085 0.000000 0.000000 0.000000 0.000000 -0.272578
    7 16.589727 0.000000 0.000000 -0.062260 0.035889 -0.769973
    8 3.488968 -0.004234 0.000004 -0.000004 -0.000001 -0.168024
    9 5.318531 -0.004538 0.000000 -0.259247 0.090448 0.327466
    10 5.701826 -0.005492 0.000000 -0.034675 -0.003627 -0.105167
    11 6.899484 -0.001818 0.000000 0.000000 -0.026147 0.099378
    12 0.050786 0.001927 2.008302 2.135853 -0.738796 0.736150
    13 4.746895 0.000000 0.000000 -1.841440 0.182890 -0.752021
    14 10.950472 0.000000 0.000000 0.000000 0.000000 -0.073225
    15 10.950467 0.000000 0.000000 -1.574103 0.019392 0.236566
    16 -0.050780 0.001941 -2.008302 -1.536191 1.023524 1.495305
    17 4.746896 0.000000 -0.000003 0.807354 -0.914467 0.279282
    18 10.950466 0.000000 0.000000 0.000000 0.000000 -1.543049
    19 10.950471 0.000000 0.000000 1.623376 0.275290 0.384776
    20 2.428221 0.000000 0.000000 0.123537 0.190066 -0.045632
    21 1.681022 0.975106 0.213387 0.000000 0.000001 -1.745239
  time 31
    0 -0.208480 -7.927150 3.875994 0.000000 1.422363 -4.712344
    1 -0.363292 0.363292 0.000000 -1.570795 -1.570796 0.000000
    2 -0.000004 0.000006 3.077313 -0.026809 -2.972545 0.098993
    3 16.897085 0.000000 0.000000 0.000000 0.000000 -0.411347
    4 16.589727 0.000000 0.000000 0.109234 -0.132000 -0.127400
    5 0.000005 -0.000003 -3.077313 -0.007608 3.156548 0.146324
    6 16.897085 0.000000 0.000000 0.000000 0.000000 -0.272578
    7 16.589727 0.000000 0.000000 -0.062260 0.035889 -0.769973
    8 3.488968 -0.004234 0.000004 -0.000004 -0.000001 -0.143445
    9 5.318531 -0.004538 0.000000 -0.253217 0.094851 0.350119
    10 5.701826 -0.005492 0.000000 -0.034758 -0.002764 -0.080278
    11 6.899484 -0.001818 0.000000 0.000000 -0.026147 0.099378
    12 0.050786 0.001927 2.008302 2.135853 -0.738796 0.736150
    13 4.746895 0.000000 0.000000 -1.839438 0.087274 -0.718947
    14 10.950472 0.000000 0.000000 0.000000 0.000000 -0.040425
    15 10.950467 0.000000 0.000000 -1.574103 0.019392 0.236566
    16 -0.050780 0.001941 -2.008302 -1.536191 1.023524 1.495305
    17 4.746896 0.000000 -0.000003 0.868407 -0.932692 0.285590
    18 10.950466 0.000000 0.000000 0.000000 0.000000 -1.588811
    19 10.950471 0.000000 0.000000 1.639036 0.246992 0.374399
    20 2.428221 0.000000 0.000000 0.103719 0.211706 -0.069071
    21 1.681022 0.975106 0.213387 0.000000 0.000001 -1.745239
  time 32
    0 -0.208480 -7.531310 3.688272 0.000000 1.422363 -4.712344
    1 -0.683615 0.394543 0.000000 -1.570795 -1.570796 0.000000
    2 -0.000004 0.000006 3.077313 -0.026809 -2.972545 0.098993
    3 16.897085 0.000000 0.000000 0.000000 0.000000 -0.411347
    4 16.589727 0.000000 0.000000 0.109234 -0.132000 -0.127400
    5 0.000005 -0.000003 -3.077313 -0.007608 3.156548 0.146324
    6 16.897085 0.000000 0.000000 0.000000 0.000000 -0.272578
    7 16.589727 0.000000 0.000000 -0.062260 0.035889 -0.769973
    8 3.488968 -0.004234 0.000004 -0.000004 -0.000001 -0.119270
    9 5.318531 -0.004538 0.000000 -0.247187 0.098988 0.372470
    10 5.701826 -0.005492 0.000000 -0.034813 -0.001917 -0.055828
    11 6.899484 -0.001818 0.000000 0.000000 -0.026147 0.099378
    12 0.050786 0.001927 2.008302 2.135853 -0.738796 0.736150
    13 4.746895 0.000000 0.000000 -1.840582 -0.002259 -0.688102
    14 10.950472 0.000000 0.000000 0.000000 0.000000 -0.014490
    15 10.950467 0.000000 0.000000 -1.574103 0.019392 0.236566
    16 -0.050780 0.001941 -2.008302 -1.536191 1.023524 1.495305
    17 4.746896 0.000000 -0.000003 0.933950 -0.951296 0.285016
    18 10.950466 0.000000 0.000000 0.000000 0.000000 -1.628475
    19 10.950471 0.000000 0.000000 1.656345 0.218218 0.361946
    20 2.428221 0.000000 0.000000 0.085476 0.233794 -0.092190
    21 1.681022 0.975106 0.213387 0.000000 0.000001 -1.745239
  time 33
    0 -0.208480 -7.135470 3.453619 0.000000 1.422363 -4.712344
    1 -0.992218 0.421888 0.000000 -1.570795 -1.570796 0.000000
    2 -0.000004 0.000006 3.077313 -0.026809 -2.972545 0.098993
    3 16.897085 0.000000 0.000000 0.000000 0.000000 -0.411347
    4 16.589727 0.000000 0.000000 0.109234 -0.132000 -0.127400
    5 0.000005 -0.000003 -3.077313 -0.007608 3.156548 0.146324
    6 16.897085 0.000000 0.000000 0.000000 0.000000 -0.272578
    7 16.589727 0.000000 0.000000 -0.062260 0.035889 -0.769973
    8 3.488968 -0.004234 0.000004 -0.000004 -0.000001 -0.095573
    9 5.318531 -0.004538 0.000000 -0.241229 0.102816 0.394420
    10 5.701826 -0.005492 0.000000 -0.034869 -0.001071 -0.031877
    11 6.899484 -0.001818 0.000000 0.000000 -0.026147 0.099378
    12 0.050786 0.001927 2.008302 2.135853 -0.738796 0.736150
    13 4.746895 0.000000 0.000000 -1.844395 -0.087342 -0.657258
    14 10.950472 0.000000 0.000000 0.000000 0.000000 -0.002438
    15 10.950467 0.000000 0.000000 -1.574103 0.019392 0.236566
    16 -0.050780 0.001941 -2.008302 -1.536191 1.023524 1.495305
    17 4.746896 0.000000 -0.000003 1.003983 -0.969616 0.277466
    18 10.950466 0.000000 0.000000 0.000000 0.000000 -1.662507
    19 10.950471 0.000000 0.000000 1.675210 0.189366 0.348049
    20 2.428221 0.000000 0.000000 0.068807 0.256131 -0.114990
    21 1.681022 0.975106 0.213387 0.000000 0.000001 -1.745239
  time 34
    0 -0.208480 -6.739630 3.265897 0.000000 1.422363 -4.712344
    1 -1.293008 0.445326 0.000000 -1.570795 -1.570796 0.000000
    2 -0.000004 0.000006 3.077313 -0.026809 -2.972545 0.098993
    3 16.897085 0.000000 0.000000 0.000000 0.000000 -0.411347
    4 16.589727 0.000000 0.000000 0.109234 -0.132000 -0.127400
    5 0.000005 -0.000003 -3.077313 -0.007608 3.156548 0.146324
    6 16.897085 0.000000 0.000000 0.000000 0.000000 -0.272578
    7 16.589727 0.000000 0.000000 -0.062260 0.035889 -0.769973
    8 3.488968 -0.004234 0.000004 -0.000004 -0.000001 -0.072500
    9 5.318531 -0.004538 0.000000 -0.235377 0.106334 0.415867
    10 5.701826 -0.005492 0.000000 -0.034869 -0.000256 -0.008540
    11 6.899484 -0.001818 0.000000 0.000000 -0.026147 0.099378
    12 0.050786 0.001927 2.008302 2.135853 -0.738796 0.736150
    13 4.746895 0.000000 0.000000 -1.850496 -0.166977 -0.627621
    14 10.950472 0.000000 0.000000 0.000000 0.000000 -0.002438
    15 10.950467 0.000000 0.000000 -1.574103 0.019392 0.236566
    16 -0.050780 0.001941 -2.008302 -1.536191 1.023524 1.495305
    17 4.746896 0.000000 -0.000003 1.077934 -0.986986 0.263227
    18 10.950466 0.000000 0.000000 0.000000 0.000000 -1.691291
    19 10.950471 0.000000 0.000000 1.695358 0.160672 0.333069
    20 2.428221 0.000000 0.000000 0.053619 0.278468 -0.137151
    21 1.681022 0.975106 0.213387 0.000000 0.000001 -1.745239
  time 35
    0 -0.208480 -6.326580 3.078174 0.000000 1.422363 -4.712344
    1 -1.578173 0.468764 0.000000 -1.570795 -1.570796 0.000000
    2 -0.000004 0.000006 3.077313 -0.026809 -2.972545 0.098993
    3 16.897085 0.000000 0.000000 0.000000 0.000000 -0.411347
    4 16.589727 0.000000 0.000000 0.109234 -0.132000 -0.127400
    5 0.000005 -0.000003 -3.077313 -0.007608 3.156548 0.146324
    6 16.897085 0.000000 0.000000 0.000000 0.000000 -0.272578
    7 16.589727 0.000000 0.000000 -0.062260 0.035889 -0.769973
    8 3.488968 -0.004234 0.000004 -0.000004 -0.000001 -0.050126
    9 5.318531 -0.004538 0.000000 -0.229668 0.109564 0.436687
    10 5.701826 -0.005492 0.000000 -0.034869 0.000511 0.014065
    11 6.899484 -0.001818 0.000000 0.000000 -0.026147 0.099378
    12 0.050786 0.001927 2.008302 2.135853 -0.738796 0.736150
    13 4.746895 0.000000 0.000000 -1.858790 -0.243797 -0.597705
    14 10.950472 0.000000 0.000000 0.000000 0.000000 -0.002438
    15 10.950467 0.000000 0.000000 -1.574103 0.019392 0.236566
    16 -0.050780 0.001941 -2.008302 -1.536191 1.023524 1.495305
    17 4.746896 0.000000 -0.000003 1.155228 -1.003028 0.242776
    18 10.950466 0.000000 0.000000 0.000000 0.000000 -1.715522
    19 10.950471 0.000000 0.000000 1.716421 0.132532 0.317548
    20 2.428221 0.000000 0.000000 0.040099 0.300656 -0.158610
    21 1.681022 0.975106 0.213387 0.000000 0.000001 -1.745239
  time 36
    0 -0.208480 -5.930740 2.890452 0.000000 1.422363 -4.712344
    1 -1.847713 0.492203 0.000000 -1.570795 -1.570796 0.000000
    2 -0.000004 0.000006 3.077313 -0.026809 -2.972545 0.098993
    3 16.897085 0.000000 0.000000 0.000000 0.000000 -0.411347
    4 16.589727 0.000000 0.000000 0.109234 -0.132000 -0.127400
    5 0.000005 -0.000003 -3.077313 -0.007608 3.156548 0.146324
    6 16.897085 0.000000 0.000000 0.000000 0.000000 -0.272578
    7 16.589727 0.000000 0.000000 -0.062260 0.035889 -0.769973
    8 3.488968 -0.004234 0.000004 -0.000004 -0.000001 -0.028669
    9 5.318531 -0.004538 0.000000 -0.224174 0.112484 0.456703
    10 5.701826 -0.005492 0.000000 -0.034841 0.001262 0.035762
    11 6.899484 -0.001818 0.000000 0.000000 -0.026147 0.099378
    12 0.050786 0.001927 2.008302 2.135853 -0.738796 0.736150
    13 4.746895 0.000000 0.000000 -1.869371 -0.317439 -0.567418
    14 10.950472 0.000000 0.000000 0.000000 0.000000 -0.002438
    15 10.950467 0.000000 0.000000 -1.574103 0.019392 0.236566
    16 -0.050780 0.001941 -2.008302 -1.536191 1.023524 1.495305
    17 4.746896 0.000000 -0.000003 1.234434 -1.017171 0.216877
    18 10.950466 0.000000 0.000000 0.000000 0.000000 -1.735509
    19 10.950471 0.000000 0.000000 1.738125 0.105265 0.301847
    20 2.428221 0.000000 0.000000 0.028060 0.322395 -0.179174
    21 1.681022 0.975106 0.213387 0.000000 0.000001 -1.745239
  time 37
    0 -0.208480 -5.552110 2.702730 0.000000 1.422363 -4.712344
    1 -2.101627 0.511734 0.000000 -1.570795 -1.570796 0.000000
    2 -0.000004 0.000006 3.077313 -0.026809 -2.972545 0.098993
    3 16.897085 0.000000 0.000000 0.000000 0.000000 -0.411347
    4 16.589727 0.000000 0.000000 0.109234 -0.132000 -0.127400
    5 0.000005 -0.000003 -3.077313 -0.007608 3.156548 0.146324
    6 16.897085 0.000000 0.000000 0.000000 0.000000 -0.272578
    7 16.589727 0.000000 0.000000 -0.062260 0.035889 -0.769973
    8 3.488968 -0.004234 0.000004 -0.000004 -0.000001 -0.008352
    9 5.318531 -0.004538 0.000000 -0.218929 0.115117 0.475715
    10 5.701826 -0.005492 0.000000 -0.034813 0.001981 0.056317
    11 6.899484 -0.001818 0.000000 0.000000 -0.026147 0.099378
    12 0.050786 0.001927 2.008302 2.135853 -0.738796 0.736150
    13 4.746895 0.000000 0.000000 -1.881859 -0.386995 -0.536945
    14 10.950472 0.000000 0.000000 0.000000 0.000000 -0.002438
    15 10.950467 0.000000 0.000000 -1.574103 0.019392 0.236566
    16 -0.050780 0.001941 -2.008302 -1.536191 1.023524 1.495305
    17 4.746896 0.000000 -0.000003 1.314022 -1.029036 0.187156
    18 10.950466 0.000000 0.000000 0.000000 0.000000 -1.751637
    19 10.950471 0.000000 0.000000 1.760013 0.079424 0.286236
    20 2.428221 0.000000 0.000000 0.017780 0.343286 -0.198525
    21 1.681022 0.975106 0.213387 0.000000 0.000001 -1.745239
  time 38
    0 -0.208480 -5.190691 2.515007 0.000000 1.422363 -4.712344
    1 -2.332102 0.527360 0.000000 -1.570795 -1.570796 0.000000
    2 -0.000004 0.000006 3.077313 -0.026809 -2.972545 0.098993
    3 16.897085 0.000000 0.000000 0.000000 0.000000 -0.411347
    4 16.589727 0.000000 0.000000 0.109234 -0.132000 -0.127400
    5 0.000005 -0.000003 -3.077313 -0.007608 3.156548 0.146324
    6 16.897085 0.000000 0.000000 0.000000 0.000000 -0.272578
    7 16.589727 0.000000 0.000000 -0.062260 0.035889 -0.769973
    8 3.488968 -0.004234 0.000004 -0.000004 -0.000001 0.010532
    9 5.318531 -0.004538 0.000000 -0.214041 0.117396 0.493470
    10 5.701826 -0.005492 0.000000 -0.034786 0.002653 0.075467
    11 6.899484 -0.001818 0.000000 0.000000 -0.026147 0.099378
    12 0.050786 0.001927 2.008302 2.135853 -0.738796 0.736150
    13 4.746895 0.000000 0.000000 -1.896158 -0.451829 -0.506379
    14 10.950472 0.000000 0.000000 0.000000 0.000000 -0.002438
    15 10.950467 0.000000 0.000000 -1.574103 0.019392 0.236566
    16 -0.050780 0.001941 -2.008302 -1.536191 1.023524 1.495305
    17 4.746896 0.000000 -0.000003 1.391699 -1.038717 0.155141
    18 10.950466 0.000000 0.000000 0.000000 0.000000 -1.764370
    19 10.950471 0.000000 0.000000 1.781534 0.055169 0.271076
    20 2.428221 0.000000 0.000000 0.009075 0.362981 -0.216408
    21 1.681022 0.975106 0.213387 0.000000 0.000001 -1.745239
  time 39
    0 -0.208480 -4.846482 2.327285 0.000000 1.422363 -4.712344
    1 -2.539140 0.539079 0.000000 -1.570795 -1.570796 0.000000
    2 -0.000004 0.000006 3.077313 -0.026809 -2.972545 0.098993
    3 16.897085 0.000000 0.000000 0.000000 0.000000 -0.411347
    4 16.589727 0.000000 0.000000 0.109234 -0.132000 -0.127400
    5 0.000005 -0.000003 -3.077313 -0.007608 3.156548 0.146324
    6 16.897085 0.000000 0.000000 0.000000 0.000000 -0.272578
    7 16.589727 0.000000 0.000000 -0.062260 0.035889 -0.769973
    8 3.488968 -0.004234 0.000004 -0.000004 -0.000001 0.027837
    9 5.318531 -0.004538 0.000000 -0.209545 0.119387 0.509719
    10 5.701826 -0.005492 0.000000 -0.034730 0.003260 0.092947
    11 6.899484 -0.001818 0.000000 0.000000 -0.026147 0.099378
    12 0.050786 0.001927 2.008302 2.135853 -0.738796 0.736150
    13 4.746895 0.000000 0.000000 -1.911696 -0.511033 -0.476370
    14 10.950472 0.000000 0.000000 0.000000 0.000000 -0.002438
    15 10.950467 0.000000 0.000000 -1.574103 0.019392 0.236566
    16 -0.050780 0.001941 -2.008302 -1.536191 1.023524 1.495305
    17 4.746896 0.000000 -0.000003 1.465267 -1.046311 0.122839
    18 10.950466 0.000000 0.000000 0.000000 0.000000 -1.773939
    19 10.950471 0.000000 0.000000 1.802231 0.032975 0.256186
    20 2.428221 0.000000 0.000000 0.001852 0.381180 -0.232629
    21 1.681022 0.975106 0.213387 0.000000 0.000001 -1.745239
  time 40
    0 -0.208480 -4.536694 2.139563 0.000000 1.422363 -4.712344
    1 -2.722739 0.554704 0.000000 -1.570795 -1.570796 0.000000
    2 -0.000004 0.000006 3.077313 -0.026809 -2.972545 0.098993
    3 16.897085 0.000000 0.000000 0.000000 0.000000 -0.411347
    4 16.589727 0.000000 0.000000 0.109234 -0.132000 -0.127400
    5 0.000005 -0.000003 -3.077313 -0.007608 3.156548 0.146324
    6 16.897085 0.000000 0.000000 0.000000 0.000000 -0.272578
    7 16.589727 0.000000 0.000000 -0.062260 0.035889 -0.769973
    8 3.488968 -0.004234 0.000004 -0.000004 -0.000001 0.043635
    9 5.318531 -0.004538 0.000000 -0.205442 0.121113 0.524587
    10 5.701826 -0.005492 0.000000 -0.034675 0.003819 0.108964
    11 6.899484 -0.001818 0.000000 0.000000 -0.026147 0.099378
    12 0.050786 0.001927 2.008302 2.135853 -0.738796 0.736150
    13 4.746895 0.000000 0.000000 -1.928283 -0.564607 -0.446919
    14 10.950472 0.000000 0.000000 0.000000 0.000000 -0.002438
    15 10.950467 0.000000 0.000000 -1.574103 0.019392 0.236566
    16 -0.050780 0.001941 -2.008302 -1.536191 1.023524 1.495305
    17 4.746896 0.000000 -0.000003 1.534537 -1.052196 0.091589
    18 10.950466 0.000000 0.000000 0.000000 0.000000 -1.781424
    19 10.950471 0.000000 0.000000 1.822287 0.012128 0.242109
    20 2.428221 0.000000 0.000000 -0.003982 0.398033 -0.247382
    21 1.681022 0.975106 0.213387 0.000000 0.000001 -1.745239
  time 41
    0 -0.208480 -4.261327 1.998771 0.000000 1.422363 -4.712344
    1 -2.894620 0.562517 0.000000 -1.570795 -1.570796 0.000000
    2 -0.000004 0.000006 3.077313 -0.026809 -2.972545 0.098993
    3 16.897085 0.000000 0.000000 0.000000 0.000000 -0.411347
    4 16.589727 0.000000 0.000000 0.109234 -0.132000 -0.127400
    5 0.000005 -0.000003 -3.077313 -0.007608 3.156548 0.146324
    6 16.897085 0.000000 0.000000 0.000000 0.000000 -0.272578
    7 16.589727 0.000000 0.000000 -0.062260 0.035889 -0.769973
    8 3.488968 -0.004234 0.000004 -0.000004 -0.000001 0.058588
    9 5.318531 -0.004538 0.000000 -0.201339 0.122264 0.537822
    10 5.701826 -0.005492 0.000000 -0.034592 0.004346 0.124395
    11 6.899484 -0.001818 0.000000 0.000000 -0.026147 0.099378
    12 0.050786 0.001927 2.008302 2.135853 -0.738796 0.736150
    13 4.746895 0.000000 0.000000 -1.937339 -0.584221 -0.432798
    14 10.950472 0.000000 0.000000 0.000000 0.000000 -0.002438
    15 10.950467 0.000000 0.000000 -1.574103 0.019392 0.236566
    16 -0.050780 0.001941 -2.008302 -1.536191 1.023524 1.495305
    17 4.746896 0.000000 -0.000003 1.600557 -1.056657 0.062536
    18 10.950466 0.000000 0.000000 0.000000 0.000000 -1.787444
    19 10.950471 0.000000 0.000000 1.842617 -0.008561 0.229025
    20 2.428221 0.000000 0.000000 -0.014261 0.416381 -0.264817
    21 1.681022 0.975106 0.213387 0.000000 0.000001 -1.745239
  time 42
    0 -0.208480 -4.020381 1.857979 0.000000 1.422363 -4.712344
    1 -2.992279 0.558611 0.000000 -1.570795 -1.570796 0.000000
    2 -0.000004 0.000006 3.077313 -0.026809 -2.972545 0.098993
    3 16.897085 0.000000 0.000000 0.000000 0.000000 -0.411347
    4 16.589727 0.000000 0.000000 0.109234 -0.132000 -0.127400
    5 0.000005 -0.000003 -3.077313 -0.007608 3.156548 0.146324
    6 16.897085 0.000000 0.000000 0.000000 0.000000 -0.272578
    7 16.589727 0.000000 0.000000 -0.062260 0.035889 -0.769973
    8 3.488968 -0.004234 0.000004 -0.000004 -0.000001 0.068839
    9 5.318531 -0.004538 0.000000 -0.196879 0.120272 0.540735
    10 5.701826 -0.005492 0.000000 -0.034537 0.004794 0.137249
    11 6.899484 -0.001818 0.000000 0.000000 -0.026147 0.099378
    12 0.050786 0.001927 2.008302 2.135853 -0.738796 0.736150
    13 4.746895 0.000000 0.000000 -1.895205 -0.373193 -0.524774
    14 10.950472 0.000000 0.000000 0.000000 0.000000 -0.539670
    15 10.950467 0.000000 0.000000 -1.574103 0.019392 0.236566
    16 -0.050780 0.001941 -2.008302 -1.536191 1.023524 1.495305
    17 4.746896 0.000000 -0.000003 1.640590 -1.064535 0.045430
    18 10.950466 0.000000 0.000000 0.000000 0.000000 -1.783739
    19 10.950471 0.000000 0.000000 1.855164 -0.019499 0.210526
    20 2.428221 0.000000 0.000000 -0.059731 0.445799 -0.304350
    21 1.681022 0.975106 0.213387 0.000000 0.000001 -1.745239
  time 43
    0 -0.208480 -3.779435 1.857979 0.000000 1.422363 -4.712344
    1 -2.925871 0.527360 0.000000 -1.570795 -1.570796 0.000000
    2 -0.000004 0.000006 3.077313 -0.026809 -2.972545 0.098993
    3 16.897085 0.000000 0.000000 0.000000 0.000000 -0.411347
    4 16.589727 0.000000 0.000000 0.109234 -0.132000 -0.127400
    5 0.000005 -0.000003 -3.077313 -0.007608 3.156548 0.146324
    6 16.897085 0.000000 0.000000 0.000000 0.000000 -0.272578
    7 16.589727 0.000000 0.000000 -0.062260 0.035889 -0.769973
    8 3.488968 -0.004234 0.000004 -0.000004 -0.000001 0.066818
    9 5.318531 -0.004538 0.000000 -0.192990 0.113015 0.522603
    10 5.701826 -0.005492 0.000000 -0.034537 0.004938 0.141261
    11 6.899484 -0.001818 0.000000 0.000000 -0.026147 0.099378
    12 0.050786 0.001927 2.008302 2.135853 -0.738796 0.736150
    13 4.746895 0.000000 0.000000 -1.882621 -0.313444 -0.558220
    14 10.950472 0.000000 0.000000 0.000000 0.000000 -0.577351
    15 10.950467 0.000000 0.000000 -1.574103 0.019392 0.236566
    16 -0.050780 0.001941 -2.008302 -1.536191 1.023524 1.495305
    17 4.746896 0.000000 -0.000003 1.618806 -1.081431 0.053075
    18 10.950466 0.000000 0.000000 0.000000 0.000000 -1.758814
    19 10.950471 0.000000 0.000000 1.844540 -0.005945 0.179484
    20 2.428221 0.000000 0.000000 -0.164284 0.481100 -0.379455
    21 1.681022 0.975106 0.213387 0.000000 0.000001 -1.745239
  time 44
    0 -0.208480 -3.538489 1.811049 0.000000 1.422363 -4.712344
    1 -2.847743 0.496109 0.000000 -1.570795 -1.570796 0.000000
    2 -0.000004 0.000006 3.077313 -0.026809 -2.972545 0.098993
    3 16.897085 0.000000 0.000000 0.000000 0.000000 -0.411347
    4 16.589727 0.000000 0.000000 0.109234 -0.132000 -0.127400
    5 0.000005 -0.000003 -3.077313 -0.007608 3.156548 0.146324
    6 16.897085 0.000000 0.000000 0.000000 0.000000 -0.272578
    7 16.589727 0.000000 0.000000 -0.062260 0.035889 -0.769973
    8 3.488968 -0.004234 0.000004 -0.000004 -0.000001 0.064209
    9 5.318531 -0.004538 0.000000 -0.188958 0.105758 0.503591
    10 5.701826 -0.005492 0.000000 -0.034509 0.005049 0.144833
    11 6.899484 -0.001818 0.000000 0.000000 -0.026147 0.099378
    12 0.050786 0.001927 2.008302 2.135853 -0.738796 0.736150
    13 4.746895 0.000000 0.000000 -1.872517 -0.261141 -0.587950
    14 10.950472 0.000000 0.000000 0.000000 0.000000 -0.590853
    15 10.950467 0.000000 0.000000 -1.574103 0.019392 0.236566
    16 -0.050780 0.001941 -2.008302 -1.536191 1.023524 1.495305
    17 4.746896 0.000000 -0.000003 1.595493 -1.097568 0.062919
    18 10.950466 0.000000 0.000000 0.000000 0.000000 -1.732422
    19 10.950471 0.000000 0.000000 1.832818 0.006500 0.148261
    20 2.428221 0.000000 0.000000 -0.275968 0.506827 -0.461075
    21 1.681022 0.975106 0.213387 0.000000 0.000001 -1.745239
  time 45
    0 -0.208480 -3.314753 1.811049 0.000000 1.422363 -4.712344
    1 -2.769616 0.468764 0.000000 -1.570795 -1.570796 0.000000
    2 -0.000004 0.000006 3.077313 -0.026809 -2.972545 0.098993
    3 16.897085 0.000000 0.000000 0.000000 0.000000 -0.411347
    4 16.589727 0.000000 0.000000 0.109234 -0.132000 -0.127400
    5 0.000005 -0.000003 -3.077313 -0.007608 3.156548 0.146324
    6 16.897085 0.000000 0.000000 0.000000 0.000000 -0.272578
    7 16.589727 0.000000 0.000000 -0.062260 0.035889 -0.769973
    8 3.488968 -0.004234 0.000004 -0.000004 -0.000001 0.061601
    9 5.318531 -0.004538 0.000000 -0.184784 0.098767 0.484655
    10 5.701826 -0.005492 0.000000 -0.034481 0.005177 0.148317
    11 6.899484 -0.001818 0.000000 0.000000 -0.026147 0.099378
    12 0.050786 0.001927 2.008302 2.135853 -0.738796 0.736150
    13 4.746895 0.000000 0.000000 -1.864033 -0.209473 -0.616286
    14 10.950472 0.000000 0.000000 0.000000 0.000000 -0.602981
    15 10.950467 0.000000 0.000000 -1.574103 0.019392 0.236566
    16 -0.050780 0.001941 -2.008302 -1.536191 1.023524 1.495305
    17 4.746896 0.000000 -0.000003 1.571034 -1.112565 0.075725
    18 10.950466 0.000000 0.000000 0.000000 0.000000 -1.705644
    19 10.950471 0.000000 0.000000 1.822012 0.017676 0.117580
    20 2.428221 0.000000 0.000000 -0.390337 0.521935 -0.545760
    21 1.681022 0.975106 0.213387 0.000000 0.000001 -1.745239
  time 46
    0 -0.208480 -3.108228 1.764118 0.000000 1.422363 -4.712344
    1 -2.691488 0.441420 0.000000 -1.570795 -1.570796 0.000000
    2 -0.000004 0.000006 3.077313 -0.026809 -2.972545 0.098993
    3 16.897085 0.000000 0.000000 0.000000 0.000000 -0.411347
    4 16.589727 0.000000 0.000000 0.109234 -0.132000 -0.127400
    5 0.000005 -0.000003 -3.077313 -0.007608 3.156548 0.146324
    6 16.897085 0.000000 0.000000 0.000000 0.000000 -0.272578
    7 16.589727 0.000000 0.000000 -0.062260 0.035889 -0.769973
    8 3.488968 -0.004234 0.000004 -0.000004 -0.000001 0.059029
    9 5.318531 -0.004538 0.000000 -0.180431 0.092019 0.465870
    10 5.701826 -0.005492 0.000000 -0.034481 0.005289 0.151773
    11 6.899484 -0.001818 0.000000 0.000000 -0.026147 0.099378
    12 0.050786 0.001927 2.008302 2.135853 -0.738796 0.736150
    13 4.746895 0.000000 0.000000 -1.856979 -0.158260 -0.643600
    14 10.950472 0.000000 0.000000 0.000000 0.000000 -0.614881
    15 10.950467 0.000000 0.000000 -1.574103 0.019392 0.236566
    16 -0.050780 0.001941 -2.008302 -1.536191 1.023524 1.495305
    17 4.746896 0.000000 -0.000003 1.545429 -1.126518 0.091302
    18 10.950466 0.000000 0.000000 0.000000 0.000000 -1.678558
    19 10.950471 0.000000 0.000000 1.812121 0.027584 0.087531
    20 2.428221 0.000000 0.000000 -0.505354 0.526273 -0.631403
    21 1.681022 0.975106 0.213387 0.000000 0.000001 -1.745239
  time 47
    0 -0.208480 -2.901703 1.717188 0.000000 1.422363 -4.712344
    1 -2.609455 0.414075 0.000000 -1.570795 -1.570796 0.000000
    2 -0.000004 0.000006 3.077313 -0.026809 -2.972545 0.098993
    3 16.897085 0.000000 0.000000 0.000000 0.000000 -0.411347
    4 16.589727 0.000000 0.000000 0.109234 -0.132000 -0.127400
    5 0.000005 -0.000003 -3.077313 -0.007608 3.156548 0.146324
    6 16.897085 0.000000 0.000000 0.000000 0.000000 -0.272578
    7 16.589727 0.000000 0.000000 -0.062260 0.035889 -0.769973
    8 3.488968 -0.004234 0.000004 -0.000004 -0.000001 0.056494
    9 5.318531 -0.004538 0.000000 -0.175971 0.085580 0.447336
    10 5.701826 -0.005492 0.000000 -0.034453 0.005417 0.155198
    11 6.899484 -0.001818 0.000000 0.000000 -0.026147 0.099378
    12 0.050786 0.001927 2.008302 2.135853 -0.738796 0.736150
    13 4.746895 0.000000 0.000000 -1.851259 -0.107410 -0.669986
    14 10.950472 0.000000 0.000000 0.000000 0.000000 -0.626628
    15 10.950467 0.000000 0.000000 -1.574103 0.019392 0.236566
    16 -0.050780 0.001941 -2.008302 -1.536191 1.023524 1.495305
    17 4.746896 0.000000 -0.000003 1.518676 -1.139427 0.109651
    18 10.950466 0.000000 0.000000 0.000000 0.000000 -1.651395
    19 10.950471 0.000000 0.000000 1.803055 0.036304 0.058023
    20 2.428221 0.000000 0.000000 -0.618612 0.520090 -0.715769
    21 1.681022 0.975106 0.213387 0.000000 0.000001 -1.745239
  time 48
    0 -0.208480 -2.712388 1.670257 0.000000 1.422363 -4.712344
    1 -2.531327 0.386731 0.000000 -1.570795 -1.570796 0.000000
    2 -0.000004 0.000006 3.077313 -0.026809 -2.972545 0.098993
    3 16.897085 0.000000 0.000000 0.000000 0.000000 -0.411347
    4 16.589727 0.000000 0.000000 0.109234 -0.132000 -0.127400
    5 0.000005 -0.000003 -3.077313 -0.007608 3.156548 0.146324
    6 16.897085 0.000000 0.000000 0.000000 0.000000 -0.272578
    7 16.589727 0.000000 0.000000 -0.062260 0.035889 -0.769973
    8 3.488968 -0.004234 0.000004 -0.000004 -0.000001 0.053996
    9 5.318531 -0.004538 0.000000 -0.171404 0.079452 0.429027
    10 5.701826 -0.005492 0.000000 -0.034426 0.005529 0.158566
    11 6.899484 -0.001818 0.000000 0.000000 -0.026147 0.099378
    12 0.050786 0.001927 2.008302 2.135853 -0.738796 0.736150
    13 4.746895 0.000000 0.000000 -1.846779 -0.057286 -0.695442
    14 10.950472 0.000000 0.000000 0.000000 0.000000 -0.638146
    15 10.950467 0.000000 0.000000 -1.574103 0.019392 0.236566
    16 -0.050780 0.001941 -2.008302 -1.536191 1.023524 1.495305
    17 4.746896 0.000000 -0.000003 1.490395 -1.151292 0.130867
    18 10.950466 0.000000 0.000000 0.000000 0.000000 -1.624154
    19 10.950471 0.000000 0.000000 1.795088 0.043834 0.028966
    20 2.428221 0.000000 0.000000 -0.727980 0.504035 -0.796686
    21 1.681022 0.975106 0.213387 0.000000 0.000001 -1.745239
  time 49
    0 -0.208480 -2.505863 1.576396 0.000000 1.422363 -4.712344
    1 -2.453200 0.363292 0.000000 -1.570795 -1.570796 0.000000
    2 -0.000004 0.000006 3.077313 -0.026809 -2.972545 0.098993
    3 16.897085 0.000000 0.000000 0.000000 0.000000 -0.411347
    4 16.589727 0.000000 0.000000 0.109234 -0.132000 -0.127400
    5 0.000005 -0.000003 -3.077313 -0.007608 3.156548 0.146324
    6 16.897085 0.000000 0.000000 0.000000 0.000000 -0.272578
    7 16.589727 0.000000 0.000000 -0.062260 0.035889 -0.769973
    8 3.488968 -0.004234 0.000004 -0.000004 -0.000001 0.051534
    9 5.318531 -0.004538 0.000000 -0.166801 0.073610 0.411071
    10 5.701826 -0.005492 0.000000 -0.034426 0.005641 0.161845
    11 6.899484 -0.001818 0.000000 0.000000 -0.026147 0.099378
    12 0.050786 0.001927 2.008302 2.135853 -0.738796 0.736150
    13 4.746895 0.000000 0.000000 -1.843347 -0.008070 -0.720155
    14 10.950472 0.000000 0.000000 0.000000 0.000000 -0.649511
    15 10.950467 0.000000 0.000000 -1.574103 0.019392 0.236566
    16 -0.050780 0.001941 -2.008302 -1.536191 1.023524 1.495305
    17 4.746896 0.000000 -0.000003 1.460586 -1.162588 0.155332
    18 10.950466 0.000000 0.000000 0.000000 0.000000 -1.596990
    19 10.950471 0.000000 0.000000 1.788219 0.050096 0.000271
    20 2.428221 0.000000 0.000000 -0.831700 0.479105 -0.872430
    21 1.681022 0.975106 0.213387 0.000000 0.000001 -1.745239
  time 50
    0 -0.208480 -2.316548 1.482535 0.000000 1.422363 -4.712344
    1 -2.375072 0.339854 0.000000 -1.570795 -1.570796 0.000000
    2 -0.000004 0.000006 3.077313 -0.026809 -2.972545 0.098993
    3 16.897085 0.000000 0.000000 0.000000 0.000000 -0.411347
    4 16.589727 0.000000 0.000000 0.109234 -0.132000 -0.127400
    5 0.000005 -0.000003 -3.077313 -0.007608 3.156548 0.146324
    6 16.897085 0.000000 0.000000 0.000000 0.000000 -0.272578
    7 16.589727 0.000000 0.000000 -0.062260 0.035889 -0.769973
    8 3.488968 -0.004234 0.000004 -0.000004 -0.000001 0.049146
    9 5.318531 -0.004538 0.000000 -0.162163 0.068123 0.393516
    10 5.701826 -0.005492 0.000000 -0.034398 0.005752 0.165037
    11 6.899484 -0.001818 0.000000 0.000000 -0.026147 0.099378
    12 0.050786 0.001927 2.008302 2.135853 -0.738796 0.736150
    13 4.746895 0.000000 0.000000 -1.841059 0.039965 -0.744031
    14 10.950472 0.000000 0.000000 0.000000 0.000000 -0.660495
    15 10.950467 0.000000 0.000000 -1.574103 0.019392 0.236566
    16 -0.050780 0.001941 -2.008302 -1.536191 1.023524 1.495305
    17 4.746896 0.000000 -0.000003 1.428961 -1.173124 0.183333
    18 10.950466 0.000000 0.000000 0.000000 0.000000 -1.569981
    19 10.950471 0.000000 0.000000 1.782541 0.055090 -0.028154
    20 2.428221 0.000000 0.000000 -0.928474 0.446646 -0.941724
    21 1.681022 0.975106 0.213387 0.000000 0.000001 -1.745239
  time 51
    0 -0.208480 -2.144443 1.341743 0.000000 1.422363 -4.712344
    1 -2.300851 0.316416 0.000000 -1.570795 -1.570796 0.000000
    2 -0.000004 0.000006 3.077313 -0.026809 -2.972545 0.098993
    3 16.897085 0.000000 0.000000 0.000000 0.000000 -0.411347
    4 16.589727 0.000000 0.000000 0.109234 -0.132000 -0.127400
    5 0.000005 -0.000003 -3.077313 -0.007608 3.156548 0.146324
    6 16.897085 0.000000 0.000000 0.000000 0.000000 -0.272578
    7 16.589727 0.000000 0.000000 -0.062260 0.035889 -0.769973
    8 3.488968 -0.004234 0.000004 -0.000004 -0.000001 0.046831
    9 5.318531 -0.004538 0.000000 -0.157525 0.062968 0.376488
    10 5.701826 -0.005492 0.000000 -0.034370 0.005864 0.168170
    11 6.899484 -0.001818 0.000000 0.000000 -0.026147 0.099378
    12 0.050786 0.001927 2.008302 2.135853 -0.738796 0.736150
    13 4.746895 0.000000 0.000000 -1.839724 0.086638 -0.767072
    14 10.950472 0.000000 0.000000 0.000000 0.000000 -0.671251
    15 10.950467 0.000000 0.000000 -1.574103 0.019392 0.236566
    16 -0.050780 0.001941 -2.008302 -1.536191 1.023524 1.495305
    17 4.746896 0.000000 -0.000003 1.395234 -1.183090 0.214870
    18 10.950466 0.000000 0.000000 0.000000 0.000000 -1.543126
    19 10.950471 0.000000 0.000000 1.778237 0.058736 -0.056579
    20 2.428221 0.000000 0.000000 -1.017283 0.408154 -1.003865
    21 1.681022 0.975106 0.213387 0.000000 0.000001 -1.745239
  time 52
    0 -0.208480 -1.955129 1.200951 0.000000 1.422363 -4.712344
    1 -2.226630 0.296884 0.000000 -1.570795 -1.570796 0.000000
    2 -0.000004 0.000006 3.077313 -0.026809 -2.972545 0.098993
    3 16.897085 0.000000 0.000000 0.000000 0.000000 -0.411347
    4 16.589727 0.000000 0.000000 0.109234 -0.132000 -0.127400
    5 0.000005 -0.000003 -3.077313 -0.007608 3.156548 0.146324
    6 16.897085 0.000000 0.000000 0.000000 0.000000 -0.272578
    7 16.589727 0.000000 0.000000 -0.062260 0.035889 -0.769973
    8 3.488968 -0.004234 0.000004 -0.000004 -0.000001 0.044590
    9 5.318531 -0.004538 0.000000 -0.152958 0.058211 0.360089
    10 5.701826 -0.005492 0.000000 -0.034370 0.005960 0.171157
    11 6.899484 -0.001818 0.000000 0.000000 -0.026147 0.099378
    12 0.050786 0.001927 2.008302 2.135853 -0.738796 0.736150
    13 4.746895 0.000000 0.000000 -1.839343 0.131495 -0.789184
    14 10.950472 0.000000 0.000000 0.000000 0.000000 -0.681472
    15 10.950467 0.000000 0.000000 -1.574103 0.019392 0.236566
    16 -0.050780 0.001941 -2.008302 -1.536191 1.023524 1.495305
    17 4.746896 0.000000 -0.000003 1.359501 -1.192297 0.250325
    18 10.950466 0.000000 0.000000 0.000000 0.000000 -1.516658
    19 10.950471 0.000000 0.000000 1.775398 0.060955 -0.085004
    20 2.428221 0.000000 0.000000 -1.097758 0.365325 -1.058469
    21 1.681022 0.975106 0.213387 0.000000 0.000001 -1.745239
  time 53
    0 -0.208480 -1.765814 1.013229 0.000000 1.422363 -4.712344
    1 -2.156316 0.277352 0.000000 -1.570795 -1.570796 0.000000
    2 -0.000004 0.000006 3.077313 -0.026809 -2.972545 0.098993
    3 16.897085 0.000000 0.000000 0.000000 0.000000 -0.411347
    4 16.589727 0.000000 0.000000 0.109234 -0.132000 -0.127400
    5 0.000005 -0.000003 -3.077313 -0.007608 3.156548 0.146324
    6 16.897085 0.000000 0.000000 0.000000 0.000000 -0.272578
    7 16.589727 0.000000 0.000000 -0.062260 0.035889 -0.769973
    8 3.488968 -0.004234 0.000004 -0.000004 -0.000001 0.042496
    9 5.318531 -0.004538 0.000000 -0.148498 0.053853 0.344543
    10 5.701826 -0.005492 0.000000 -0.034343 0.006056 0.173967
    11 6.899484 -0.001818 0.000000 0.000000 -0.026147 0.099378
    12 0.050786 0.001927 2.008302 2.135853 -0.738796 0.736150
    13 4.746895 0.000000 0.000000 -1.839724 0.173901 -0.810273
    14 10.950472 0.000000 0.000000 0.000000 0.000000 -0.691236
    15 10.950467 0.000000 0.000000 -1.574103 0.019392 0.236566
    16 -0.050780 0.001941 -2.008302 -1.536191 1.023524 1.495305
    17 4.746896 0.000000 -0.000003 1.321857 -1.200935 0.289126
    18 10.950466 0.000000 0.000000 0.000000 0.000000 -1.490497
    19 10.950471 0.000000 0.000000 1.773933 0.061907 -0.113520
    20 2.428221 0.000000 0.000000 -1.169621 0.319902 -1.105602
    21 1.681022 0.975106 0.213387 0.000000 0.000001 -1.745239
  time 54
    0 -0.208480 -1.593709 0.825506 0.000000 1.422363 -4.712344
    1 -2.089908 0.257820 0.000000 -1.570795 -1.570796 0.000000
    2 -0.000004 0.000006 3.077313 -0.026809 -2.972545 0.098993
    3 16.897085 0.000000 0.000000 0.000000 0.000000 -0.411347
    4 16.589727 0.000000 0.000000 0.109234 -0.132000 -0.127400
    5 0.000005 -0.000003 -3.077313 -0.007608 3.156548 0.146324
    6 16.897085 0.000000 0.000000 0.000000 0.000000 -0.272578
    7 16.589727 0.000000 0.000000 -0.062260 0.035889 -0.769973
    8 3.488968 -0.004234 0.000004 -0.000004 -0.000001 0.040512
    9 5.318531 -0.004538 0.000000 -0.144288 0.049914 0.330002
    10 5.701826 -0.005492 0.000000 -0.034315 0.006152 0.176603
    11 6.899484 -0.001818 0.000000 0.000000 -0.026147 0.099378
    12 0.050786 0.001927 2.008302 2.135853 -0.738796 0.736150
    13 4.746895 0.000000 0.000000 -1.840773 0.213582 -0.829969
    14 10.950472 0.000000 0.000000 0.000000 0.000000 -0.700313
    15 10.950467 0.000000 0.000000 -1.574103 0.019392 0.236566
    16 -0.050780 0.001941 -2.008302 -1.536191 1.023524 1.495305
    17 4.746896 0.000000 -0.000003 1.282875 -1.208529 0.330506
    18 10.950466 0.000000 0.000000 0.000000 0.000000 -1.464646
    19 10.950471 0.000000 0.000000 1.773750 0.061827 -0.141945
    20 2.428221 0.000000 0.000000 -1.232779 0.273881 -1.145518
    21 1.681022 0.975106 0.213387 0.000000 0.000001 -1.745239
  time 55
    0 -0.208480 -1.404395 0.590854 0.000000 1.422363 -4.712344
    1 -2.027406 0.246101 0.000000 -1.570795 -1.570796 0.000000
    2 -0.000004 0.000006 3.077313 -0.026809 -2.972545 0.098993
    3 16.897085 0.000000 0.000000 0.000000 0.000000 -0.411347
    4 16.589727 0.000000 0.000000 0.109234 -0.132000 -0.127400
    5 0.000005 -0.000003 -3.077313 -0.007608 3.156548 0.146324
    6 16.897085 0.000000 0.000000 0.000000 0.000000 -0.272578
    7 16.589727 0.000000 0.000000 -0.062260 0.035889 -0.769973
    8 3.488968 -0.004234 0.000004 -0.000004 -0.000001 0.038712
    9 5.318531 -0.004538 0.000000 -0.140363 0.046441 0.316692
    10 5.701826 -0.005492 0.000000 -0.034315 0.006232 0.179033
    11 6.899484 -0.001818 0.000000 0.000000 -0.026147 0.099378
    12 0.050786 0.001927 2.008302 2.135853 -0.738796 0.736150
    13 4.746895 0.000000 0.000000 -1.842298 0.249813 -0.848179
    14 10.950472 0.000000 0.000000 0.000000 0.000000 -0.708627
    15 10.950467 0.000000 0.000000 -1.574103 0.019392 0.236566
    16 -0.050780 0.001941 -2.008302 -1.536191 1.023524 1.495305
    17 4.746896 0.000000 -0.000003 1.244275 -1.214983 0.372269
    18 10.950466 0.000000 0.000000 0.000000 0.000000 -1.439180
    19 10.950471 0.000000 0.000000 1.774391 0.061035 -0.170009
    20 2.428221 0.000000 0.000000 -1.287417 0.228907 -1.178727
    21 1.681022 0.975106 0.213387 0.000000 0.000001 -1.745239
  time 56
    0 -0.208480 -1.215080 0.403131 0.000000 1.422363 -4.712344
    1 -1.972716 0.230476 0.000000 -1.570795 -1.570796 0.000000
    2 -0.000004 0.000006 3.077313 -0.026809 -2.972545 0.098993
    3 16.897085 0.000000 0.000000 0.000000 0.000000 -0.411347
    4 16.589727 0.000000 0.000000 0.109234 -0.132000 -0.127400
    5 0.000005 -0.000003 -3.077313 -0.007608 3.156548 0.146324
    6 16.897085 0.000000 0.000000 0.000000 0.000000 -0.272578
    7 16.589727 0.000000 0.000000 -0.062260 0.035889 -0.769973
    8 3.488968 -0.004234 0.000004 -0.000004 -0.000001 0.037095
    9 5.318531 -0.004538 0.000000 -0.136724 0.043365 0.304486
    10 5.701826 -0.005492 0.000000 -0.034287 0.006312 0.181229
    11 6.899484 -0.001818 0.000000 0.000000 -0.026147 0.099378
    12 0.050786 0.001927 2.008302 2.135853 -0.738796 0.736150
    13 4.746895 0.000000 0.000000 -1.844300 0.282865 -0.865087
    14 10.950472 0.000000 0.000000 0.000000 0.000000 -0.716179
    15 10.950467 0.000000 0.000000 -1.574103 0.019392 0.236566
    16 -0.050780 0.001941 -2.008302 -1.536191 1.023524 1.495305
    17 4.746896 0.000000 -0.000003 1.208446 -1.219824 0.410973
    18 10.950466 0.000000 0.000000 0.000000 0.000000 -1.413791
    19 10.950471 0.000000 0.000000 1.774849 0.060400 -0.197351
    20 2.428221 0.000000 0.000000 -1.335017 0.185679 -1.206445
    21 1.681022 0.975106 0.213387 0.000000 0.000001 -1.745239
  time 57
    0 -0.208480 -1.025765 0.215409 0.000000 1.422363 -4.712344
    1 -1.921934 0.218757 0.000000 -1.570795 -1.570796 0.000000
    2 -0.000004 0.000006 3.077313 -0.026809 -2.972545 0.098993
    3 16.897085 0.000000 0.000000 0.000000 0.000000 -0.411347
    4 16.589727 0.000000 0.000000 0.109234 -0.132000 -0.127400
    5 0.000005 -0.000003 -3.077313 -0.007608 3.156548 0.146324
    6 16.897085 0.000000 0.000000 0.000000 0.000000 -0.272578
    7 16.589727 0.000000 0.000000 -0.062260 0.035889 -0.769973
    8 3.488968 -0.004234 0.000004 -0.000004 -0.000001 0.035662
    9 5.318531 -0.004538 0.000000 -0.133512 0.040777 0.293938
    10 5.701826 -0.005492 0.000000 -0.034287 0.006376 0.183132
    11 6.899484 -0.001818 0.000000 0.000000 -0.026147 0.099378
    12 0.050786 0.001927 2.008302 2.135853 -0.738796 0.736150
    13 4.746895 0.000000 0.000000 -1.846397 0.311468 -0.879767
    14 10.950472 0.000000 0.000000 0.000000 0.000000 -0.722739
    15 10.950467 0.000000 0.000000 -1.574103 0.019392 0.236566
    16 -0.050780 0.001941 -2.008302 -1.536191 1.023524 1.495305
    17 4.746896 0.000000 -0.000003 1.180356 -1.222956 0.439930
    18 10.950466 0.000000 0.000000 0.000000 0.000000 -1.388866
    19 10.950471 0.000000 0.000000 1.773933 0.060955 -0.222528
    20 2.428221 0.000000 0.000000 -1.374374 0.146838 -1.228415
    21 1.681022 0.975106 0.213387 0.000000 0.000001 -1.745239
  time 58
    0 -0.208480 -1.025765 0.215409 0.000000 1.422363 -4.712344
    1 -1.921934 0.218757 0.000000 -1.570795 -1.570796 0.000000
    2 -0.000004 0.000006 3.077313 -0.026809 -2.972545 0.098993
    3 16.897085 0.000000 0.000000 0.000000 0.000000 -0.411347
    4 16.589727 0.000000 0.000000 0.109234 -0.132000 -0.127400
    5 0.000005 -0.000003 -3.077313 -0.007608 3.156548 0.146324
    6 16.897085 0.000000 0.000000 0.000000 0.000000 -0.272578
    7 16.589727 0.000000 0.000000 -0.062260 0.035889 -0.769973
    8 3.488968 -0.004234 0.000004 -0.000004 -0.000001 0.035662
    9 5.318531 -0.004538 0.000000 -0.133512 0.040777 0.293938
    10 5.701826 -0.005492 0.000000 -0.034287 0.006376 0.183132
    11 6.899484 -0.001818 0.000000 0.000000 -0.026147 0.099378
    12 0.050786 0.001927 2.008302 2.135853 -0.738796 0.736150
    13 4.746895 0.000000 0.000000 -1.846397 0.311468 -0.879767
    14 10.950472 0.000000 0.000000 0.000000 0.000000 -0.722739
    15 10.950467 0.000000 0.000000 -1.574103 0.019392 0.236566
    16 -0.050780 0.001941 -2.008302 -1.536191 1.023524 1.495305
    17 4.746896 0.000000 -0.000003 1.180356 -1.222956 0.439930
    18 10.950466 0.000000 0.000000 0.000000 0.000000 -1.388866
    19 10.950471 0.000000 0.000000 1.773933 0.060955 -0.222528
    20 2.428221 0.000000 0.000000 -1.374374 0.146838 -1.228415
    21 1.681022 0.975106 0.213387 0.000000 0.000001 -1.745239
end
