version 1
nodes
  0 "Bip02" -1
  1 "Bip02 Pelvis" 0
  2 "Bip02 L Leg" 1
  3 "Bip02 L Leg1" 2
  4 "Bip02 L Foot" 3
  5 "Bip02 R Leg" 1
  6 "Bip02 R Leg1" 5
  7 "Bip02 R Foot" 6
  8 "Bip02 Spine" 1
  9 "Bip02 Spine1" 8
  10 "Bip02 Spine2" 9
  11 "Bip02 Neck" 10
  12 "Bip02 L Arm" 11
  13 "Bip02 L Arm1" 12
  14 "Bip02 L Arm2" 13
  15 "Bip02 L Hand" 14
  16 "Bip02 R Arm" 11
  17 "Bip02 R Arm1" 16
  18 "Bip02 R Arm2" 17
  19 "Bip02 R Hand" 18
  20 "Bip02 Head" 11
  21 "Bone01" 20
end
skeleton
  time 0
    0 -0.202733 -0.182454 35.788790 0.000000 0.000000 -1.570839
    1 0.000000 0.000000 0.000000 -1.570795 -1.570796 0.000000
    2 -0.000004 0.000006 3.319508 -0.015784 -3.171265 0.160258
    3 16.897085 0.000000 0.000000 0.000000 0.000000 -0.220217
    4 16.589727 0.000000 0.000000 0.019861 0.027120 0.363600
    5 0.000005 -0.000003 -3.319508 0.003015 3.193531 -0.375218
    6 16.897085 0.000000 0.000000 0.000000 0.000000 -0.265589
    7 16.589727 0.000000 0.000000 0.016228 -0.049491 -0.109867
    8 3.488968 -0.004234 0.000004 0.034519 -0.004863 0.140261
    9 5.318531 -0.004538 0.000000 0.034787 -0.002146 0.061004
    10 5.701826 -0.005492 0.000000 0.043482 -0.003068 0.069698
    11 6.899484 -0.001818 0.000000 0.000000 -0.000001 0.287850
    12 0.000003 0.001927 2.008302 1.601263 -1.274128 1.250236
    13 4.746895 0.000000 0.000000 0.931233 1.358255 0.558041
    14 10.950472 0.000000 0.000000 0.000000 0.000000 -1.829011
    15 10.950467 0.000000 0.000000 -1.706225 0.686291 -0.214808
    16 0.000003 0.001941 -2.008302 -1.451439 1.430215 1.402691
    17 4.746896 0.000000 -0.000003 -0.908895 -1.368753 0.503291
    18 10.950466 0.000000 0.000000 0.000000 0.000000 -1.595061
    19 10.950471 0.000000 0.000000 1.568795 -0.488435 0.000000
    20 2.428221 0.000000 0.000000 -0.112054 0.013911 -0.315846
    21 1.681022 0.975106 0.213387 0.000000 0.000001 -1.745239
  time 1
    0 -0.271696 -1.194974 36.070373 0.000000 0.000000 -1.570839
    1 0.000000 0.000000 0.000000 -0.000019 -1.549891 -1.570788
    2 -0.000004 0.000006 3.319508 -0.013195 -3.171073 0.081526
    3 16.897085 0.000000 0.000000 0.000000 0.000000 -0.440488
    4 16.589727 0.000000 0.000000 0.013972 0.010126 0.336091
    5 0.000005 -0.000003 -3.319508 -0.003493 3.175998 -0.342503
    6 16.897085 0.000000 0.000000 0.000000 0.000000 -0.262309
    7 16.589727 0.000000 0.000000 0.014953 -0.052135 -0.080781
    8 3.488968 -0.004234 0.070319 0.031699 -0.025463 0.136330
    9 5.318531 -0.004538 0.000000 0.034823 -0.002013 0.057061
    10 5.701826 -0.005492 0.000000 0.043510 -0.002892 0.065746
    11 6.899484 -0.001818 0.000000 0.000000 -0.000001 0.283677
    12 0.000003 0.001927 2.008302 1.714394 -1.271086 1.136144
    13 4.746895 0.000000 0.000000 1.070410 1.382137 0.697028
    14 10.950472 0.000000 0.000000 0.000000 0.000000 -1.796745
    15 10.950467 0.000000 0.000000 -1.706225 0.686291 -0.214808
    16 0.000003 0.001941 -2.008302 -1.698600 1.430062 1.157352
    17 4.746896 0.000000 -0.000003 -1.035873 -1.406721 0.625521
    18 10.950466 0.000000 0.000000 0.000000 0.000000 -1.552695
    19 10.950471 0.000000 0.000000 1.568795 -0.488435 0.000000
    20 2.428221 0.000000 0.000000 -0.112054 0.014110 -0.302370
    21 1.681022 0.975106 0.213387 0.000000 0.000001 -1.745239
  time 2
    0 -0.484335 -3.601539 36.539679 0.000000 0.000000 -1.570839
    1 0.000000 0.000000 0.000000 -0.000019 -1.519009 -1.570788
    2 -0.000004 0.000006 3.319508 -0.006580 -3.182768 0.081087
    3 16.897085 0.000000 0.000000 0.000000 0.000000 -0.537696
    4 16.589727 0.000000 0.000000 0.013199 -0.007128 0.268670
    5 0.000005 -0.000003 -3.319508 -0.009139 3.152140 -0.283442
    6 16.897085 0.000000 0.000000 0.000000 0.000000 -0.291120
    7 16.589727 0.000000 0.000000 0.011813 -0.059384 0.007006
    8 3.485062 -0.004234 0.179697 0.027825 -0.055874 0.130635
    9 5.318531 -0.004538 0.000000 0.034823 -0.001814 0.051210
    10 5.701826 -0.005492 0.000000 0.043510 -0.002637 0.059889
    11 6.899484 -0.001818 0.000000 0.000000 -0.000001 0.278321
    12 0.000003 0.001927 2.008302 1.487366 -1.273220 1.378997
    13 4.746895 0.000000 0.000000 0.975750 1.316122 0.602822
    14 10.950472 0.000000 0.000000 0.000000 0.000000 -1.853878
    15 10.950467 0.000000 0.000000 -1.706225 0.686291 -0.214808
    16 0.000003 0.001941 -2.008302 -1.218083 1.422001 1.648031
    17 4.746896 0.000000 -0.000003 -0.974629 -1.324426 0.567990
    18 10.950466 0.000000 0.000000 0.000000 0.000000 -1.622148
    19 10.950471 0.000000 0.000000 1.568795 -0.488435 0.000000
    20 2.428221 0.000000 0.000000 -0.112054 0.014459 -0.282763
    21 1.681022 0.975106 0.213387 0.000000 0.000001 -1.745239
  time 3
    0 -0.708467 -6.541628 36.868193 0.000000 0.000000 -1.570839
    1 0.000000 0.000000 0.000000 -0.000019 -1.490067 -1.570788
    2 -0.000004 0.000006 3.319508 -0.020194 -3.208747 -0.148702
    3 16.897085 0.000000 0.000000 0.000000 0.000000 -0.791964
    4 16.589727 0.000000 0.000000 0.014151 -0.005502 0.169445
    5 0.000005 -0.000003 -3.319508 -0.009522 3.129337 -0.184276
    6 16.897085 0.000000 0.000000 0.000000 0.000000 -0.271722
    7 16.589727 0.000000 0.000000 0.007202 -0.066960 0.087036
    8 3.477249 -0.004234 0.277357 0.024492 -0.084472 0.125565
    9 5.318531 -0.004538 0.000000 0.034823 -0.001615 0.045886
    10 5.701826 -0.005492 0.000000 0.043538 -0.002413 0.054590
    11 6.899484 -0.001818 0.000000 0.000000 -0.000001 0.272030
    12 0.000003 0.001927 2.008302 1.714394 -1.271086 1.147745
    13 4.746895 0.000000 0.000000 1.231035 1.369515 0.849951
    14 10.950472 0.000000 0.000000 0.000000 0.000000 -1.798728
    15 10.950467 0.000000 0.000000 -1.706225 0.686291 -0.214808
    16 0.000003 0.001941 -2.008302 -1.698600 1.430062 1.168952
    17 4.746896 0.000000 -0.000003 -1.200017 -1.383845 0.788845
    18 10.950466 0.000000 0.000000 0.000000 0.000000 -1.560490
    19 10.950471 0.000000 0.000000 1.568795 -0.488435 0.000000
    20 2.428221 0.000000 0.000000 -0.112054 0.014659 -0.264370
    21 1.681022 0.975106 0.213387 0.000000 0.000001 -1.745239
  time 4
    0 -0.794671 -9.189139 37.055915 0.000000 0.000000 -1.570839
    1 0.000000 0.000000 0.000000 -0.000019 -1.474873 -1.570788
    2 -0.000004 0.000006 3.319508 -0.039655 -3.219579 -0.351895
    3 16.897085 0.000000 0.000000 0.000000 0.000000 -0.966955
    4 16.589727 0.000000 0.000000 0.013497 -0.002805 0.101539
    5 0.000005 -0.000003 -3.319508 -0.004354 3.115348 -0.079083
    6 16.897085 0.000000 0.000000 0.000000 0.000000 -0.220448
    7 16.589727 0.000000 0.000000 0.002297 -0.069521 0.141212
    8 3.473343 -0.004234 0.332046 0.022812 -0.099490 0.123434
    9 5.318531 -0.004538 0.000000 0.034823 -0.001549 0.043575
    10 5.701826 -0.005492 0.000000 0.043538 -0.002301 0.052276
    11 6.899484 -0.001818 0.000000 0.000000 -0.000001 0.264805
    12 0.000003 0.001927 2.008302 1.487366 -1.273220 1.392516
    13 4.746895 0.000000 0.000000 1.063737 1.309494 0.686623
    14 10.950472 0.000000 0.000000 0.000000 0.000000 -1.858989
    15 10.950467 0.000000 0.000000 -1.706225 0.686291 -0.214808
    16 0.000003 0.001941 -2.008302 -1.218083 1.422001 1.661549
    17 4.746896 0.000000 -0.000003 -1.060428 -1.310472 0.653904
    18 10.950466 0.000000 0.000000 0.000000 0.000000 -1.631253
    19 10.950471 0.000000 0.000000 1.568795 -0.488435 0.000000
    20 2.428221 0.000000 0.000000 -0.112147 0.014459 -0.254599
    21 1.681022 0.975106 0.213387 0.000000 0.000001 -1.745239
  time 5
    0 -0.719961 -11.354759 36.868193 0.000000 0.000000 -1.570839
    1 0.000000 0.000000 0.000000 -0.000019 -1.477270 -1.570788
    2 -0.000004 0.000006 3.319508 -0.046079 -3.211910 -0.450903
    3 16.897085 0.000000 0.000000 0.000000 0.000000 -0.935124
    4 16.589727 0.000000 0.000000 0.013705 -0.005687 0.126969
    5 0.000005 -0.000003 -3.319508 0.000909 3.115540 -0.032855
    6 16.897085 0.000000 0.000000 0.000000 0.000000 -0.259100
    7 16.589727 0.000000 0.000000 -0.001726 -0.067532 0.226414
    8 3.473343 -0.004234 0.324233 0.022840 -0.097188 0.126006
    9 5.318531 -0.004538 0.000000 0.034823 -0.001637 0.046162
    10 5.701826 -0.005492 0.000000 0.043538 -0.002413 0.054853
    11 6.899484 -0.001818 0.000000 0.000000 -0.000001 0.257020
    12 0.000003 0.001927 2.008302 1.686399 -1.272221 1.192135
    13 4.746895 0.000000 0.000000 1.207680 1.361615 0.826074
    14 10.950472 0.000000 0.000000 0.000000 0.000000 -1.828096
    15 10.950467 0.000000 0.000000 -1.706225 0.686291 -0.214808
    16 0.000003 0.001941 -2.008302 -1.637049 1.430906 1.246130
    17 4.746896 0.000000 -0.000003 -1.184443 -1.367899 0.774510
    18 10.950466 0.000000 0.000000 0.000000 0.000000 -1.596373
    19 10.950471 0.000000 0.000000 1.568795 -0.488435 0.000000
    20 2.428221 0.000000 0.000000 -0.112239 0.013612 -0.259325
    21 1.681022 0.975106 0.213387 0.000000 0.000001 -1.745239
  time 6
    0 -0.564792 -13.468746 36.445818 0.000000 0.000000 -1.570839
    1 0.000000 0.000000 0.000000 -0.000019 -1.490666 -1.570788
    2 -0.000004 0.000006 3.319508 -0.043107 -3.202037 -0.483993
    3 16.897085 0.000000 0.000000 0.000000 0.000000 -0.792337
    4 16.589727 0.000000 0.000000 0.011028 -0.004837 0.147757
    5 0.000005 -0.000003 -3.319508 0.004833 3.124354 -0.001161
    6 16.897085 0.000000 0.000000 0.000000 0.000000 -0.326349
    7 16.589727 0.000000 0.000000 -0.004866 -0.062899 0.325541
    8 3.477249 -0.004234 0.277357 0.024065 -0.083983 0.131517
    9 5.318531 -0.004538 0.000000 0.034823 -0.001814 0.051812
    10 5.701826 -0.005492 0.000000 0.043510 -0.002668 0.060504
    11 6.899484 -0.001818 0.000000 0.000000 -0.000001 0.248674
    12 0.000003 0.001927 2.008302 1.515744 -1.273811 1.378997
    13 4.746895 0.000000 0.000000 0.989191 1.322206 0.616758
    14 10.950472 0.000000 0.000000 0.000000 0.000000 -1.859065
    15 10.950467 0.000000 0.000000 -1.706225 0.686291 -0.214808
    16 0.000003 0.001941 -2.008302 -1.273785 1.424803 1.621378
    17 4.746896 0.000000 -0.000003 -0.991636 -1.332589 0.583854
    18 10.950466 0.000000 0.000000 0.000000 0.000000 -1.626701
    19 10.950471 0.000000 0.000000 1.568795 -0.488435 0.000000
    20 2.428221 0.000000 0.000000 -0.112332 0.012315 -0.273056
    21 1.681022 0.975106 0.213387 0.000000 0.000001 -1.745239
  time 7
    0 -0.352154 -15.599945 35.976512 0.000000 0.000000 -1.570839
    1 0.000000 0.000000 0.000000 -0.000019 -1.511465 -1.570788
    2 -0.000004 0.000006 3.319508 -0.035725 -3.202037 -0.452746
    3 16.897085 0.000000 0.000000 0.000000 0.000000 -0.570050
    4 16.589727 0.000000 0.000000 0.004991 0.010975 0.052896
    5 0.000005 -0.000003 -3.319508 0.006938 3.139110 0.065971
    6 16.897085 0.000000 0.000000 0.000000 0.000000 -0.323496
    7 16.589727 0.000000 0.000000 -0.006828 -0.056468 0.389883
    8 3.485062 -0.004234 0.203136 0.026429 -0.063556 0.137395
    9 5.318531 -0.004538 0.000000 0.034823 -0.002036 0.057865
    10 5.701826 -0.005492 0.000000 0.043510 -0.002924 0.066565
    11 6.899484 -0.001818 0.000000 0.000000 -0.000001 0.240016
    12 0.000003 0.001927 2.008302 1.714394 -1.271086 1.179767
    13 4.746895 0.000000 0.000000 1.065453 1.379322 0.693312
    14 10.950472 0.000000 0.000000 0.000000 0.000000 -1.818713
    15 10.950467 0.000000 0.000000 -1.706225 0.686291 -0.214808
    16 0.000003 0.001941 -2.008302 -1.698600 1.430062 1.200974
    17 4.746896 0.000000 -0.000003 -1.047147 -1.403399 0.636129
    18 10.950466 0.000000 0.000000 0.000000 0.000000 -1.576695
    19 10.950471 0.000000 0.000000 1.568795 -0.488435 0.000000
    20 2.428221 0.000000 0.000000 -0.112424 0.010969 -0.287873
    21 1.681022 0.975106 0.213387 0.000000 0.000001 -1.745239
  time 8
    0 -0.128022 -17.817195 35.741859 0.000000 0.000000 -1.570839
    1 0.000000 0.000000 0.000000 -0.000019 -1.535931 -1.570788
    2 -0.000004 0.000006 3.319508 -0.027192 -3.203570 -0.390954
    3 16.897085 0.000000 0.000000 0.000000 0.000000 -0.334686
    4 16.589727 0.000000 0.000000 0.001600 0.032810 -0.055406
    5 0.000005 -0.000003 -3.319508 0.022537 3.157506 0.290794
    6 16.897085 0.000000 0.000000 0.000000 0.000000 -0.001800
    7 16.589727 0.000000 0.000000 -0.026221 -0.043632 0.293752
    8 3.488968 -0.004234 0.121102 0.029648 -0.039417 0.140371
    9 5.318531 -0.004538 0.000000 0.034787 -0.002146 0.061004
    10 5.701826 -0.005492 0.000000 0.043482 -0.003068 0.069698
    11 6.899484 -0.001818 0.000000 0.000000 -0.000001 0.231172
    12 0.000003 0.001927 2.008302 1.459083 -1.272358 1.455698
    13 4.746895 0.000000 0.000000 0.846678 1.319664 0.474798
    14 10.950472 0.000000 0.000000 0.000000 0.000000 -1.851132
    15 10.950467 0.000000 0.000000 -1.706225 0.686291 -0.214808
    16 0.000003 0.001941 -2.008302 -1.164586 1.418777 1.749273
    17 4.746896 0.000000 -0.000003 -0.841633 -1.323571 0.439070
    18 10.950466 0.000000 0.000000 0.000000 0.000000 -1.622148
    19 10.950471 0.000000 0.000000 1.568795 -0.488435 0.000000
    20 2.428221 0.000000 0.000000 -0.112517 0.010022 -0.293812
    21 1.681022 0.975106 0.213387 0.000000 0.000001 -1.745239
  time 9
    0 0.153580 -20.258182 36.023442 0.000000 0.000000 -1.570839
    1 0.000000 0.000000 0.000000 -1.570795 -1.570796 0.000000
    2 -0.000004 0.000006 3.319508 -0.017509 -3.179222 -0.364973
    3 16.897085 0.000000 0.000000 0.000000 0.000000 -0.432717
    4 16.589727 0.000000 0.000000 0.002968 0.041676 0.068140
    5 0.000005 -0.000003 -3.319508 0.016221 3.160284 0.211510
    6 16.897085 0.000000 0.000000 0.000000 0.000000 -0.297324
    7 16.589727 0.000000 0.000000 -0.017097 -0.017825 0.338468
    8 3.488968 -0.004234 0.000004 0.034576 -0.004547 0.137028
    9 5.318531 -0.004538 0.000000 0.034823 -0.002036 0.057765
    10 5.701826 -0.005492 0.000000 0.043510 -0.002924 0.066478
    11 6.899484 -0.001818 0.000000 0.000000 -0.000001 0.222327
    12 0.000003 0.001927 2.008302 1.714394 -1.271086 1.197409
    13 4.746895 0.000000 0.000000 1.074413 1.388130 0.696285
    14 10.950472 0.000000 0.000000 0.000000 0.000000 -1.804144
    15 10.950467 0.000000 0.000000 -1.706225 0.686291 -0.214808
    16 0.000003 0.001941 -2.008302 -1.698600 1.430062 1.218615
    17 4.746896 0.000000 -0.000003 -1.031096 -1.398083 0.624470
    18 10.950466 0.000000 0.000000 0.000000 0.000000 -1.569055
    19 10.950471 0.000000 0.000000 1.568795 -0.488435 0.000000
    20 2.428221 0.000000 0.000000 -0.112517 0.009773 -0.280656
    21 1.681022 0.975106 0.213387 0.000000 0.000001 -1.745239
  time 10
    0 0.515639 -22.888483 36.539679 0.000000 0.000000 -1.570839
    1 0.000000 0.000000 0.000000 -0.000019 -1.616026 -1.570788
    2 -0.000004 0.000006 3.319508 -0.007826 -3.146533 -0.269301
    3 16.897085 0.000000 0.000000 0.000000 0.000000 -0.403427
    4 16.589727 0.000000 0.000000 0.006240 0.052132 0.134453
    5 0.000005 -0.000003 -3.319508 0.014881 3.179926 -0.065667
    6 16.897085 0.000000 0.000000 0.000000 0.000000 -0.726704
    7 16.589727 0.000000 0.000000 -0.013663 0.001388 0.316081
    8 3.485062 -0.004234 -0.156250 0.040415 0.040336 0.129496
    9 5.318531 -0.004538 0.000000 0.034823 -0.001770 0.050155
    10 5.701826 -0.005492 0.000000 0.043510 -0.002589 0.058865
    11 6.899484 -0.001818 0.000000 0.000000 -0.000001 0.213670
    12 0.000003 0.001927 2.008302 1.459083 -1.272358 1.473243
    13 4.746895 0.000000 0.000000 0.966504 1.313852 0.590744
    14 10.950472 0.000000 0.000000 0.000000 0.000000 -1.832977
    15 10.950467 0.000000 0.000000 -1.706225 0.686291 -0.214808
    16 0.000003 0.001941 -2.008302 -1.164586 1.418777 1.766722
    17 4.746896 0.000000 -0.000003 -0.951412 -1.315883 0.547634
    18 10.950466 0.000000 0.000000 0.000000 0.000000 -1.603010
    19 10.950471 0.000000 0.000000 1.568795 -0.488435 0.000000
    20 2.428221 0.000000 0.000000 -0.112610 0.010122 -0.254535
    21 1.681022 0.975106 0.213387 0.000000 0.000001 -1.745239
  time 11
    0 0.802988 -25.449942 37.008985 0.000000 0.000000 -1.570839
    1 0.000000 0.000000 0.000000 -0.000019 -1.655897 -1.570788
    2 -0.000004 0.000006 3.319508 -0.007443 -3.114515 -0.135536
    3 16.897085 0.000000 0.000000 0.000000 0.000000 -0.291275
    4 16.589727 0.000000 0.000000 0.011028 0.059336 0.156418
    5 0.000005 -0.000003 -3.319508 0.029236 3.210299 -0.242123
    6 16.897085 0.000000 0.000000 0.000000 0.000000 -0.921890
    7 16.589727 0.000000 0.000000 -0.015887 0.004331 0.185400
    8 3.477249 -0.004234 -0.292973 0.045058 0.080183 0.123214
    9 5.318531 -0.004538 0.000000 0.034823 -0.001549 0.043575
    10 5.701826 -0.005492 0.000000 0.043538 -0.002301 0.052276
    11 6.899484 -0.001818 0.000000 0.000000 -0.000001 0.205324
    12 0.000003 0.001927 2.008302 1.459083 -1.272358 1.481585
    13 4.746895 0.000000 0.000000 1.029038 1.309221 0.652062
    14 10.950472 0.000000 0.000000 0.000000 0.000000 -1.805288
    15 10.950467 0.000000 0.000000 -1.706225 0.686291 -0.214808
    16 0.000003 0.001941 -2.008302 -1.164586 1.418777 1.775063
    17 4.746896 0.000000 -0.000003 -1.002433 -1.315788 0.597138
    18 10.950466 0.000000 0.000000 0.000000 0.000000 -1.570213
    19 10.950471 0.000000 0.000000 1.568795 -0.488435 0.000000
    20 2.428221 0.000000 0.000000 -0.112610 0.010321 -0.231480
    21 1.681022 0.975106 0.213387 0.000000 0.000001 -1.745239
  time 12
    0 0.894940 -27.736034 37.243638 0.000000 0.000000 -1.570839
    1 0.000000 0.000000 0.000000 -0.000019 -1.675427 -1.570788
    2 -0.000004 0.000006 3.319508 0.000514 -3.098794 0.008060
    3 16.897085 0.000000 0.000000 0.000000 0.000000 -0.138998
    4 16.589727 0.000000 0.000000 -0.000898 0.061774 0.147064
    5 0.000005 -0.000003 -3.319508 0.042634 3.227736 -0.352128
    6 16.897085 0.000000 0.000000 0.000000 0.000000 -0.966960
    7 16.589727 0.000000 0.000000 -0.013499 0.002805 0.101550
    8 3.469436 -0.004234 -0.363288 0.049217 0.098740 0.140922
    9 5.318531 -0.004538 0.000000 0.034787 -0.002146 0.061004
    10 5.701826 -0.005492 0.000000 0.043482 -0.003068 0.069698
    11 6.899484 -0.001818 0.000000 0.000000 -0.000001 0.197538
    12 0.000003 0.001927 2.008302 1.686399 -1.272221 1.251674
    13 4.746895 0.000000 0.000000 1.014739 1.379140 0.638869
    14 10.950472 0.000000 0.000000 0.000000 0.000000 -1.850903
    15 10.950467 0.000000 0.000000 -1.706225 0.686291 -0.214808
    16 0.000003 0.001941 -2.008302 -1.637049 1.430906 1.305572
    17 4.746896 0.000000 -0.000003 -1.002241 -1.384415 0.595991
    18 10.950466 0.000000 0.000000 0.000000 0.000000 -1.621993
    19 10.950471 0.000000 0.000000 1.568795 -0.488435 0.000000
    20 2.428221 0.000000 0.000000 -0.112702 0.007678 -0.280720
    21 1.681022 0.975106 0.213387 0.000000 0.000001 -1.745239
  time 13
    0 0.670808 -29.867233 37.055915 0.000000 0.000000 -1.570839
    1 0.000000 0.000000 0.000000 -0.000019 -1.664005 -1.570788
    2 -0.000004 0.000006 3.319508 -0.008402 -3.103779 0.103996
    3 16.897085 0.000000 0.000000 0.000000 0.000000 -0.075039
    4 16.589727 0.000000 0.000000 0.004455 0.054755 0.179146
    5 0.000005 -0.000003 -3.319508 0.041199 3.225054 -0.395829
    6 16.897085 0.000000 0.000000 0.000000 0.000000 -0.859205
    7 16.589727 0.000000 0.000000 -0.005618 -0.001773 0.113772
    8 3.473343 -0.004234 -0.324224 0.047593 0.087404 0.140775
    9 5.318531 -0.004538 0.000000 0.034787 -0.002146 0.061004
    10 5.701826 -0.005492 0.000000 0.043482 -0.003068 0.069698
    11 6.899484 -0.001818 0.000000 0.000000 -0.000001 0.190313
    12 0.000003 0.001927 2.008302 1.487366 -1.273220 1.467011
    13 4.746895 0.000000 0.000000 0.854781 1.335827 0.477956
    14 10.950472 0.000000 0.000000 0.000000 0.000000 -1.818484
    15 10.950467 0.000000 0.000000 -1.706225 0.686291 -0.214808
    16 0.000003 0.001941 -2.008302 -1.218083 1.422001 1.736042
    17 4.746896 0.000000 -0.000003 -0.830263 -1.331829 0.430660
    18 10.950466 0.000000 0.000000 0.000000 0.000000 -1.591357
    19 10.950471 0.000000 0.000000 1.568795 -0.488435 0.000000
    20 2.428221 0.000000 0.000000 -0.112702 0.007180 -0.277974
    21 1.681022 0.975106 0.213387 0.000000 0.000001 -1.745239
  time 14
    0 0.222544 -31.895168 36.633540 0.000000 0.000000 -1.570839
    1 0.000000 0.000000 0.000000 -0.000019 -1.631819 -1.570788
    2 -0.000004 0.000006 3.319508 -0.013770 -3.122759 0.148233
    3 16.897085 0.000000 0.000000 0.000000 0.000000 -0.109933
    4 16.589727 0.000000 0.000000 0.010850 0.040383 0.258554
    5 0.000005 -0.000003 -3.319508 0.029236 3.207137 -0.414253
    6 16.897085 0.000000 0.000000 0.000000 0.000000 -0.700532
    7 16.589727 0.000000 0.000000 0.000988 -0.010739 0.151554
    8 3.485062 -0.004234 -0.210940 0.043064 0.055555 0.140482
    9 5.318531 -0.004538 0.000000 0.034787 -0.002146 0.061004
    10 5.701826 -0.005492 0.000000 0.043482 -0.003068 0.069698
    11 6.899484 -0.001818 0.000000 0.000000 -0.000001 0.184023
    12 0.000003 0.001927 2.008302 1.714394 -1.271086 1.235759
    13 4.746895 0.000000 0.000000 1.047531 1.391490 0.667484
    14 10.950472 0.000000 0.000000 0.000000 0.000000 -1.842207
    15 10.950467 0.000000 0.000000 -1.706225 0.686291 -0.214808
    16 0.000003 0.001941 -2.008302 -1.698600 1.430062 1.256964
    17 4.746896 0.000000 -0.000003 -1.020108 -1.388117 0.616251
    18 10.950466 0.000000 0.000000 0.000000 0.000000 -1.617672
    19 10.950471 0.000000 0.000000 1.568795 -0.488435 0.000000
    20 2.428221 0.000000 0.000000 -0.112702 0.006731 -0.275483
    21 1.681022 0.975106 0.213387 0.000000 0.000001 -1.745239
  time 15
    0 -0.122275 -33.406791 36.117304 0.000000 0.000000 -1.570839
    1 0.000000 0.000000 0.000000 -0.000019 -1.595297 -1.570788
    2 -0.000004 0.000006 3.319508 -0.015304 -3.148067 0.172019
    3 16.897085 0.000000 0.000000 0.000000 0.000000 -0.156781
    4 16.589727 0.000000 0.000000 0.016292 0.028339 0.329301
    5 0.000005 -0.000003 -3.319508 0.014403 3.189507 -0.424218
    6 16.897085 0.000000 0.000000 0.000000 0.000000 -0.502850
    7 16.589727 0.000000 0.000000 0.004357 -0.025591 0.164834
    8 3.488968 -0.004234 -0.082029 0.037966 0.019390 0.140261
    9 5.318531 -0.004538 0.000000 0.034787 -0.002146 0.061004
    10 5.701826 -0.005492 0.000000 0.043482 -0.003068 0.069698
    11 6.899484 -0.001818 0.000000 0.000000 -0.000001 0.178666
    12 0.000003 0.001927 2.008302 1.459083 -1.272358 1.508238
    13 4.746895 0.000000 0.000000 0.828947 1.326383 0.455195
    14 10.950472 0.000000 0.000000 0.000000 0.000000 -1.801474
    15 10.950467 0.000000 0.000000 -1.706225 0.686291 -0.214808
    16 0.000003 0.001941 -2.008302 -1.164586 1.418777 1.801811
    17 4.746896 0.000000 -0.000003 -0.796249 -1.331355 0.394918
    18 10.950466 0.000000 0.000000 0.000000 0.000000 -1.567589
    19 10.950471 0.000000 0.000000 1.568795 -0.488435 0.000000
    20 2.428221 0.000000 0.000000 -0.112795 0.006382 -0.273375
    21 1.681022 0.975106 0.213387 0.000000 0.000001 -1.745239
  time 16
    0 -0.202733 -34.006260 35.788790 0.000000 0.000000 -1.570839
    1 0.000000 0.000000 0.000000 -1.570795 -1.570796 0.000000
    2 -0.000004 0.000006 3.319508 -0.015784 -3.171265 0.160258
    3 16.897085 0.000000 0.000000 0.000000 0.000000 -0.220217
    4 16.589727 0.000000 0.000000 0.019861 0.027120 0.363600
    5 0.000005 -0.000003 -3.319508 0.003015 3.193531 -0.375218
    6 16.897085 0.000000 0.000000 0.000000 0.000000 -0.265589
    7 16.589727 0.000000 0.000000 0.016228 -0.049491 -0.109867
    8 3.488968 -0.004234 0.000004 0.034519 -0.004863 0.140261
    9 5.318531 -0.004538 0.000000 0.034787 -0.002146 0.061004
    10 5.701826 -0.005492 0.000000 0.043482 -0.003068 0.069698
    11 6.899484 -0.001818 0.000000 0.000000 -0.000001 0.287850
    12 0.000003 0.001927 2.008302 1.601263 -1.274128 1.250236
    13 4.746895 0.000000 0.000000 0.931233 1.358255 0.558041
    14 10.950472 0.000000 0.000000 0.000000 0.000000 -1.829011
    15 10.950467 0.000000 0.000000 -1.706225 0.686291 -0.214808
    16 0.000003 0.001941 -2.008302 -1.451439 1.430215 1.402691
    17 4.746896 0.000000 -0.000003 -0.908895 -1.368753 0.503291
    18 10.950466 0.000000 0.000000 0.000000 0.000000 -1.595061
    19 10.950471 0.000000 0.000000 1.568795 -0.488435 0.000000
    20 2.428221 0.000000 0.000000 -0.112054 0.013911 -0.315846
    21 1.681022 0.975106 0.213387 0.000000 0.000001 -1.745239
end
