// Created by Crowbar 0.68

// Stored modelname (without quotes): "valve/models/w_egon.mdl"
$modelname "w_egon.mdl"
$cd "."
$cdtexture "."
$cliptotextures
$scale 1.0

$bodygroup "body"
{
	studio "world_egon"
}

$flags 0

$cbox 0 0 0 0 0 0

$bbox 0 0 0 0 0 0

$hbox 0 "Box02" -28.68 -36.290001 -32.209999 12.37 3.9 0

$sequence "stayput" {
	"w_egon_anims\stayput"
	fps 1
}
