version 1
nodes
  0 "Bip01" -1
  1 "Bip01 Pelvis" 0
  2 "Bip01 L Leg" 1
  3 "Bip01 L Leg1" 2
  4 "Bip01 L Foot" 3
  5 "Bip01 R Leg" 1
  6 "Bip01 R Leg1" 5
  7 "Bip01 R Foot" 6
  8 "Bip01 Spine" 1
  9 "Bip01 Spine1" 8
  10 "Bip01 Spine2" 9
  11 "Bip01 Spine3" 10
  12 "Bip01 Neck" 11
  13 "Bip01 L Arm" 12
  14 "Bip01 L Arm1" 13
  15 "Bip01 L Arm2" 14
  16 "Bip01 L Hand" 15
  17 "Bip01 R Arm" 12
  18 "Bip01 R Arm1" 17
  19 "Bip01 R Arm2" 18
  20 "Bip01 R Hand" 19
  21 "Bip01 Head" 12
  22 "Bone05" 21
  23 "Bone03" 1
end
skeleton
  time 0
    0 0.420091 1.059590 41.444572 0.000000 0.000000 -1.570795
    1 0.000000 0.000000 0.000000 -1.570795 -1.570796 0.000000
    2 -0.000007 0.000008 4.427393 0.000001 3.089258 -0.100000
    3 18.301065 0.000000 0.000000 0.000000 0.000000 -0.252333
    4 17.106758 0.000000 0.000000 -0.005229 0.052072 0.152197
    5 0.000006 -0.000004 -4.427393 0.000001 -3.106705 -0.100000
    6 18.133167 0.000000 0.000000 0.000000 0.000000 -0.234889
    7 17.375956 0.000000 0.000000 0.003485 -0.034715 0.134828
    8 2.255203 -0.002685 0.000003 -0.000004 -0.000001 0.000796
    9 3.373776 -0.004248 0.000000 0.000000 0.000000 0.000000
    10 5.335510 -0.004100 0.000000 0.000000 0.000000 0.095944
    11 5.172566 -0.004197 0.000000 0.000000 0.000000 -0.017444
    12 5.271970 -0.001935 0.000000 0.000000 0.000000 0.134667
    13 -3.129044 0.428427 2.530066 -0.672806 -1.317183 -2.620035
    14 6.063949 0.000000 0.000002 -0.058899 0.068878 -0.347601
    15 7.685221 0.000000 0.000000 0.000000 0.000000 -0.200000
    16 10.246255 0.000000 -0.000003 -1.569107 0.000000 0.000000
    17 -3.024093 0.414136 -2.427872 0.672786 1.317186 -2.620054
    18 6.269507 0.000000 -0.000001 0.060496 -0.087094 -0.331165
    19 8.573802 0.000000 -0.000004 0.000000 0.000000 -0.200000
    20 9.913458 0.000000 0.000003 1.568967 0.165722 0.000000
    21 2.452246 0.000000 0.000000 0.000000 0.000000 -0.056964
    22 0.946167 3.213873 -0.420090 -3.141592 -0.000002 1.413798
    23 1.827063 1.152534 -7.643625 -1.570796 -1.570796 0.000000
end
triangles
BX_Hand1.bmp
  20 -25.525448 -4.664550 52.642770 0.338300 -0.112400 -0.934301 0.015873 0.842105
  20 -26.440085 -2.263255 53.513070 -0.230209 0.972137 0.044202 0.365079 1.000000
  19 -25.313732 -2.053094 53.805692 0.060498 0.765172 -0.640977 0.365079 1.000000
BX_Hand1.bmp
  19 -25.313732 -2.053094 53.805692 0.060498 0.765172 -0.640977 0.365079 1.000000
  20 -26.440085 -2.263255 53.513070 -0.230209 0.972137 0.044202 0.365079 1.000000
  19 -25.821101 -2.753785 54.728411 -0.424908 0.533510 0.731314 0.507937 0.894737
BX_Hand1.bmp
  20 -26.440085 -2.263255 53.513070 -0.230209 0.972137 0.044202 0.365079 1.000000
  19 -26.448779 -2.804032 54.361265 -0.453803 0.131101 0.881405 0.507937 0.894737
  19 -25.821101 -2.753785 54.728411 -0.424908 0.533510 0.731314 0.507937 0.894737
BX_Hand1.bmp
  19 -25.821101 -2.753785 54.728411 -0.424908 0.533510 0.731314 0.507937 0.894737
  19 -26.448779 -2.804032 54.361265 -0.453803 0.131101 0.881405 0.507937 0.894737
  19 -25.198302 -4.484609 54.529993 -0.212006 -0.586217 0.781923 0.666667 0.894737
BX_Hand1.bmp
  19 -26.448779 -2.804032 54.361265 -0.453803 0.131101 0.881405 0.507937 0.894737
  20 -26.075740 -4.825042 54.092467 0.090993 -0.899534 0.427269 0.666667 0.894737
  19 -25.198302 -4.484609 54.529993 -0.212006 -0.586217 0.781923 0.666667 0.894737
BX_Hand1.bmp
  19 -25.198302 -4.484609 54.529993 -0.212006 -0.586217 0.781923 0.666667 0.894737
  20 -26.075740 -4.825042 54.092467 0.090993 -0.899534 0.427269 0.666667 0.894737
  19 -24.617144 -4.420438 53.002793 0.425808 -0.800215 -0.422308 0.952381 0.842105
BX_Hand1.bmp
  20 -26.075740 -4.825042 54.092467 0.090993 -0.899534 0.427269 0.666667 0.894737
  20 -25.525448 -4.664550 52.642770 0.338300 -0.112400 -0.934301 0.952381 0.842105
  19 -24.617144 -4.420438 53.002793 0.425808 -0.800215 -0.422308 0.952381 0.842105
BX_Hand1.bmp
  19 -24.617144 -4.420438 53.002793 0.425808 -0.800215 -0.422308 0.015873 0.842105
  20 -25.525448 -4.664550 52.642770 0.338300 -0.112400 -0.934301 0.015873 0.842105
  19 -25.313732 -2.053094 53.805692 0.060498 0.765172 -0.640977 0.365079 1.000000
BX_Palm1.bmp
  20 -27.497286 -5.668373 52.134049 0.945721 0.282406 -0.160804 0.701493 0.938776
  20 -30.325510 -2.827659 53.028693 -0.430799 0.532499 0.728599 0.328358 0.000000
  20 -30.230549 -6.439963 52.356353 0.304600 0.428800 0.850500 0.208955 0.938776
BX_Palm1.bmp
  20 -27.497286 -5.668373 52.134049 0.945721 0.282406 -0.160804 0.701493 0.938776
  20 -27.131759 -4.602705 52.700565 0.537793 0.451494 -0.711991 0.805970 0.673469
  20 -30.325510 -2.827659 53.028693 -0.430799 0.532499 0.728599 0.328358 0.000000
BX_Palm1.bmp
  20 -27.497286 -5.668373 52.134049 0.945721 0.282406 -0.160804 0.701493 0.938776
  20 -27.340364 -4.485854 52.189948 0.659722 0.253609 -0.707424 0.761194 0.653061
  20 -27.131759 -4.602705 52.700565 0.537793 0.451494 -0.711991 0.805970 0.673469
BX_Palm1.bmp
  20 -27.497286 -5.668373 52.134049 0.945721 0.282406 -0.160804 0.701493 0.938776
  20 -28.529617 -4.840747 51.742480 0.316206 0.320207 -0.893018 0.552239 0.673469
  20 -27.340364 -4.485854 52.189948 0.659722 0.253609 -0.707424 0.761194 0.653061
BX_Palm1.bmp
  20 -27.497286 -5.668373 52.134049 0.945721 0.282406 -0.160804 0.701493 0.938776
  20 -28.579239 -5.322764 51.489898 0.397292 0.124697 -0.909181 0.522388 0.795918
  20 -28.529617 -4.840747 51.742480 0.316206 0.320207 -0.893018 0.552239 0.673469
BX_Palm1.bmp
  20 -27.497286 -5.668373 52.134049 0.945721 0.282406 -0.160804 0.701493 0.938776
  20 -27.452834 -5.868361 52.111054 0.877693 -0.227098 -0.421997 0.701493 1.000000
  20 -28.579239 -5.322764 51.489898 0.397292 0.124697 -0.909181 0.522388 0.795918
BX_Palm1.bmp
  20 -27.497286 -5.668373 52.134049 0.945721 0.282406 -0.160804 0.701493 0.938776
  20 -27.735833 -6.009753 53.141598 0.748479 -0.576084 0.328491 0.656716 0.979592
  20 -27.452834 -5.868361 52.111054 0.877693 -0.227098 -0.421997 0.701493 1.000000
BX_Palm1.bmp
  20 -27.497286 -5.668373 52.134049 0.945721 0.282406 -0.160804 0.701493 0.938776
  20 -30.230549 -6.439963 52.356353 0.304600 0.428800 0.850500 0.208955 0.938776
  20 -27.735833 -6.009753 53.141598 0.748479 -0.576084 0.328491 0.656716 0.979592
BX_Palm1.bmp
  20 -27.017872 -5.218620 51.841159 0.606564 0.082395 -0.790753 0.791045 0.857143
  20 -27.735833 -6.009753 53.141598 0.748479 -0.576084 0.328491 0.656716 0.979592
  20 -27.452834 -5.868361 52.111054 0.877693 -0.227098 -0.421997 0.701493 1.000000
BX_Palm1.bmp
  20 -27.017872 -5.218620 51.841159 0.606564 0.082395 -0.790753 0.791045 0.857143
  20 -25.525448 -4.664550 52.642770 0.582945 -0.556043 -0.592446 0.940299 0.918367
  20 -27.735833 -6.009753 53.141598 0.748479 -0.576084 0.328491 0.656716 0.979592
BX_Palm1.bmp
  20 -27.017872 -5.218620 51.841159 0.606564 0.082395 -0.790753 0.791045 0.857143
  20 -27.131759 -4.602705 52.700565 0.537793 0.451494 -0.711991 0.805970 0.673469
  20 -25.525448 -4.664550 52.642770 0.582945 -0.556043 -0.592446 0.940299 0.918367
BX_Palm1.bmp
  20 -27.017872 -5.218620 51.841159 0.606564 0.082395 -0.790753 0.791045 0.857143
  20 -27.340364 -4.485854 52.189948 0.659722 0.253609 -0.707424 0.761194 0.653061
  20 -27.131759 -4.602705 52.700565 0.537793 0.451494 -0.711991 0.805970 0.673469
BX_Palm1.bmp
  20 -27.017872 -5.218620 51.841159 0.606564 0.082395 -0.790753 0.791045 0.857143
  20 -28.529617 -4.840747 51.742480 0.316206 0.320207 -0.893018 0.552239 0.673469
  20 -27.340364 -4.485854 52.189948 0.659722 0.253609 -0.707424 0.761194 0.653061
BX_Palm1.bmp
  20 -27.017872 -5.218620 51.841159 0.606564 0.082395 -0.790753 0.791045 0.857143
  20 -28.579239 -5.322764 51.489898 0.397292 0.124697 -0.909181 0.522388 0.795918
  20 -28.529617 -4.840747 51.742480 0.316206 0.320207 -0.893018 0.552239 0.673469
BX_Palm1.bmp
  20 -27.017872 -5.218620 51.841159 0.606564 0.082395 -0.790753 0.791045 0.857143
  20 -27.452834 -5.868361 52.111054 0.877693 -0.227098 -0.421997 0.701493 1.000000
  20 -28.579239 -5.322764 51.489898 0.397292 0.124697 -0.909181 0.522388 0.795918
BX_Palm1.bmp
  20 -30.545631 -4.988898 51.199488 -0.279613 -0.829238 -0.483922 0.208955 0.571429
  20 -30.057606 -4.893175 51.766999 0.780607 -0.584305 -0.221902 0.298507 0.571429
  20 -30.190684 -5.093841 52.437390 0.287309 -0.518716 -0.805225 0.268657 0.591837
BX_Palm1.bmp
  20 -30.190684 -5.093841 52.437390 0.287309 -0.518716 -0.805225 0.268657 0.591837
  20 -30.057606 -4.893175 51.766999 0.780607 -0.584305 -0.221902 0.298507 0.571429
  20 -30.325510 -2.827659 53.028693 -0.430799 0.532499 0.728599 0.328358 0.000000
BX_Palm1.bmp
  20 -30.057606 -4.893175 51.766999 0.780607 -0.584305 -0.221902 0.298507 0.571429
  20 -29.972412 -2.836435 52.056765 0.172000 0.733201 -0.657900 0.373134 0.040816
  20 -30.325510 -2.827659 53.028693 -0.430799 0.532499 0.728599 0.328358 0.000000
BX_Palm1.bmp
  20 -30.325510 -2.827659 53.028693 -0.430799 0.532499 0.728599 0.328358 0.000000
  20 -29.972412 -2.836435 52.056765 0.172000 0.733201 -0.657900 0.373134 0.040816
  20 -30.312116 -2.861396 51.556286 -0.065497 0.729372 -0.680974 0.313433 0.040816
BX_Palm1.bmp
  20 -29.972412 -2.836435 52.056765 0.172000 0.733201 -0.657900 0.373134 0.040816
  20 -29.494402 -3.049167 51.760705 0.011200 0.450503 -0.892705 0.447761 0.142857
  20 -30.312116 -2.861396 51.556286 -0.065497 0.729372 -0.680974 0.313433 0.040816
BX_Palm1.bmp
  20 -30.312116 -2.861396 51.556286 -0.065497 0.729372 -0.680974 0.313433 0.040816
  20 -29.494402 -3.049167 51.760705 0.011200 0.450503 -0.892705 0.447761 0.142857
  20 -29.155665 -4.618166 51.623223 0.021901 -0.151404 -0.988229 0.447761 0.571429
BX_Palm1.bmp
  20 -30.190684 -5.093841 52.437390 0.287309 -0.518716 -0.805225 0.268657 0.591837
  20 -30.230549 -6.439963 52.356353 0.304600 0.428800 0.850500 0.208955 0.938776
  20 -30.991757 -5.816585 51.942998 -0.594080 0.552782 -0.584381 0.029851 0.693878
BX_Palm1.bmp
  20 -30.991757 -5.816585 51.942998 -0.594080 0.552782 -0.584381 0.029851 0.693878
  20 -30.230549 -6.439963 52.356353 0.304600 0.428800 0.850500 0.208955 0.938776
  20 -30.161593 -5.886529 51.303283 0.687569 0.669170 -0.281887 0.119403 0.795918
BX_Palm1.bmp
  20 -30.230549 -6.439963 52.356353 0.304600 0.428800 0.850500 0.208955 0.938776
  20 -30.209943 -6.355271 51.272562 -0.263784 0.530569 -0.805552 0.089552 0.918367
  20 -30.161593 -5.886529 51.303283 0.687569 0.669170 -0.281887 0.119403 0.795918
BX_Palm1.bmp
  20 -30.161593 -5.886529 51.303283 0.687569 0.669170 -0.281887 0.119403 0.795918
  20 -30.209943 -6.355271 51.272562 -0.263784 0.530569 -0.805552 0.089552 0.918367
  20 -30.991757 -5.816585 51.942998 -0.594080 0.552782 -0.584381 0.029851 0.693878
BX_Palm1.bmp
  20 -30.209943 -6.355271 51.272562 -0.263784 0.530569 -0.805552 0.089552 0.918367
  20 -31.053049 -6.623189 51.990262 -0.914978 -0.153196 0.373291 0.000000 0.918367
  20 -30.991757 -5.816585 51.942998 -0.594080 0.552782 -0.584381 0.029851 0.693878
BX_Palm1.bmp
  19 -26.448779 -2.804032 54.361265 -0.201701 0.211201 0.956405 0.955224 0.367347
  20 -26.440085 -2.263255 53.513070 -0.065497 0.729372 -0.680974 0.970149 0.428571
  20 -30.325510 -2.827659 53.028693 -0.430799 0.532499 0.728599 0.328358 0.000000
BX_Palm1.bmp
  20 -30.325510 -2.827659 53.028693 -0.430799 0.532499 0.728599 0.328358 0.000000
  20 -26.440085 -2.263255 53.513070 -0.065497 0.729372 -0.680974 0.970149 0.428571
  20 -27.131759 -4.602705 52.700565 0.537793 0.451494 -0.711991 0.805970 0.673469
BX_Palm1.bmp
  20 -26.440085 -2.263255 53.513070 -0.065497 0.729372 -0.680974 0.970149 0.428571
  20 -25.525448 -4.664550 52.642770 0.582945 -0.556043 -0.592446 0.940299 0.918367
  20 -27.131759 -4.602705 52.700565 0.537793 0.451494 -0.711991 0.805970 0.673469
BX_Palm1.bmp
  20 -30.057606 -4.893175 51.766999 0.780607 -0.584305 -0.221902 0.298507 0.571429
  20 -29.972412 -2.836435 52.056765 0.172000 0.733201 -0.657900 0.373134 0.040816
  20 -29.155665 -4.618166 51.623223 0.021901 -0.151404 -0.988229 0.447761 0.571429
BX_Palm1.bmp
  20 -29.155665 -4.618166 51.623223 0.021901 -0.151404 -0.988229 0.447761 0.571429
  20 -29.972412 -2.836435 52.056765 0.172000 0.733201 -0.657900 0.373134 0.040816
  20 -29.494402 -3.049167 51.760705 0.011200 0.450503 -0.892705 0.447761 0.142857
BX_Palm1.bmp
  20 -30.312116 -2.861396 51.556286 -0.065497 0.729372 -0.680974 0.313433 0.040816
  20 -29.155665 -4.618166 51.623223 0.021901 -0.151404 -0.988229 0.447761 0.571429
  20 -30.545631 -4.988898 51.199488 -0.279613 -0.829238 -0.483922 0.208955 0.571429
BX_Palm1.bmp
  20 -30.545631 -4.988898 51.199488 -0.279613 -0.829238 -0.483922 0.208955 0.571429
  20 -29.155665 -4.618166 51.623223 0.021901 -0.151404 -0.988229 0.447761 0.571429
  20 -30.057606 -4.893175 51.766999 0.780607 -0.584305 -0.221902 0.298507 0.571429
BX_Palm1.bmp
  20 -30.325510 -2.827659 53.028693 -0.430799 0.532499 0.728599 0.328358 0.000000
  20 -30.190684 -5.093841 52.437390 0.287309 -0.518716 -0.805225 0.268657 0.591837
  20 -30.230549 -6.439963 52.356353 0.304600 0.428800 0.850500 0.208955 0.938776
BX_Palm1.bmp
  20 -30.209943 -6.355271 51.272562 -0.263784 0.530569 -0.805552 0.089552 0.918367
  20 -31.053049 -6.623189 51.990262 -0.914978 -0.153196 0.373291 0.000000 0.918367
  20 -30.230549 -6.439963 52.356353 0.304600 0.428800 0.850500 0.208955 0.938776
BX_Hsd1.bmp
  20 -30.645271 -5.316794 53.175863 -0.767572 -0.126395 0.628377 0.806452 0.640000
  19 -26.448779 -2.804032 54.361265 -0.201701 0.211201 0.956405 0.032258 0.120000
  20 -30.325510 -2.827659 53.028693 -0.430799 0.532499 0.728599 0.774194 0.000000
BX_Hsd1.bmp
  20 -30.645271 -5.316794 53.175863 -0.767572 -0.126395 0.628377 0.806452 0.640000
  20 -27.398853 -5.549660 54.031631 0.085201 -0.710907 0.698106 0.193548 0.720000
  19 -26.448779 -2.804032 54.361265 -0.201701 0.211201 0.956405 0.032258 0.120000
BX_Hsd1.bmp
  20 -30.645271 -5.316794 53.175863 -0.767572 -0.126395 0.628377 0.806452 0.640000
  20 -31.053049 -6.623189 51.990262 -0.914978 -0.153196 0.373291 1.000000 1.000000
  20 -27.398853 -5.549660 54.031631 0.085201 -0.710907 0.698106 0.193548 0.720000
BX_Hsd1.bmp
  20 -30.645271 -5.316794 53.175863 -0.767572 -0.126395 0.628377 0.806452 0.640000
  20 -30.991757 -5.816585 51.942998 -0.594080 0.552782 -0.584381 1.000000 0.760000
  20 -31.053049 -6.623189 51.990262 -0.914978 -0.153196 0.373291 1.000000 1.000000
BX_Hsd1.bmp
  20 -27.398853 -5.549660 54.031631 0.085201 -0.710907 0.698106 0.193548 0.400000
  20 -25.525448 -4.664550 52.642770 0.582945 -0.556043 -0.592446 0.032258 0.600000
  20 -26.075740 -4.825042 54.092467 0.320097 -0.641994 0.696693 0.000000 0.480000
BX_Hsd1.bmp
  20 -27.398853 -5.549660 54.031631 0.085201 -0.710907 0.698106 0.193548 0.400000
  20 -27.735833 -6.009753 53.141598 0.748479 -0.576084 0.328491 0.290323 0.520000
  20 -25.525448 -4.664550 52.642770 0.582945 -0.556043 -0.592446 0.032258 0.600000
BX_Hsd1.bmp
  20 -27.398853 -5.549660 54.031631 0.085201 -0.710907 0.698106 0.193548 0.400000
  20 -30.230549 -6.439963 52.356353 0.304600 0.428800 0.850500 0.774194 0.440000
  20 -27.735833 -6.009753 53.141598 0.748479 -0.576084 0.328491 0.290323 0.520000
BX_Hsd1.bmp
  20 -27.398853 -5.549660 54.031631 0.085201 -0.710907 0.698106 0.193548 0.400000
  20 -31.053049 -6.623189 51.990262 -0.914978 -0.153196 0.373291 1.000000 0.400000
  20 -30.230549 -6.439963 52.356353 0.304600 0.428800 0.850500 0.774194 0.440000
BX_Hsd1.bmp
  20 -30.545631 -4.988898 51.199488 -0.279613 -0.829238 -0.483922 0.903226 0.560000
  20 -30.190684 -5.093841 52.437390 0.287309 -0.518716 -0.805225 0.774194 0.440000
  20 -30.645271 -5.316794 53.175863 -0.767572 -0.126395 0.628377 0.806452 0.360000
BX_Hsd1.bmp
  20 -30.645271 -5.316794 53.175863 -0.767572 -0.126395 0.628377 0.806452 0.360000
  20 -30.190684 -5.093841 52.437390 0.287309 -0.518716 -0.805225 0.774194 0.440000
  20 -30.991757 -5.816585 51.942998 -0.594080 0.552782 -0.584381 1.000000 0.400000
BX_Hsd1.bmp
  20 -26.075740 -4.825042 54.092467 0.320097 -0.641994 0.696693 0.000000 0.560000
  19 -26.448779 -2.804032 54.361265 -0.201701 0.211201 0.956405 0.032258 0.120000
  20 -27.398853 -5.549660 54.031631 0.085201 -0.710907 0.698106 0.193548 0.720000
BX_Knuc.bmp
  20 -30.312116 -2.861396 51.556286 -0.076695 0.722257 -0.687359 0.052632 0.931034
  20 -30.545631 -4.988898 51.199488 -0.279613 -0.829238 -0.483922 0.000000 0.103448
  20 -30.325510 -2.827659 53.028693 -0.430799 0.532499 0.728599 0.789474 1.000000
BX_Knuc.bmp
  20 -30.325510 -2.827659 53.028693 -0.430799 0.532499 0.728599 0.789474 1.000000
  20 -30.545631 -4.988898 51.199488 -0.279613 -0.829238 -0.483922 0.000000 0.103448
  20 -30.645271 -5.316794 53.175863 -0.767572 -0.126395 0.628377 0.894737 0.000000
BX_Pstl.bmp
  20 -30.230549 -6.439963 52.356353 -0.260201 -0.131900 0.956503 0.358209 0.590909
  20 -27.494155 -1.649240 53.797887 -0.260201 -0.131900 0.956503 0.029851 0.022727
  20 -30.179667 -2.270932 52.956682 -0.260201 -0.131900 0.956503 0.268657 0.022727
BX_Pstl.bmp
  20 -30.230549 -6.439963 52.356353 -0.260201 -0.131900 0.956503 0.358209 0.590909
  20 -27.735833 -6.009753 53.141598 -0.260201 -0.131900 0.956503 0.134328 0.613636
  20 -27.494155 -1.649240 53.797887 -0.260201 -0.131900 0.956503 0.029851 0.022727
BX_Pstl.bmp
  20 -30.230549 -6.439963 52.356353 -0.260201 -0.131900 0.956503 0.358209 0.590909
  20 -26.562572 -8.187830 53.204350 -0.260201 -0.131900 0.956503 0.089552 0.954545
  20 -27.735833 -6.009753 53.141598 -0.260201 -0.131900 0.956503 0.134328 0.613636
BX_Pstl.bmp
  20 -30.230549 -6.439963 52.356353 -0.260201 -0.131900 0.956503 0.358209 0.590909
  20 -36.396502 -10.491581 50.116350 -0.260201 -0.131900 0.956503 0.955224 0.954545
  20 -26.562572 -8.187830 53.204350 -0.260201 -0.131900 0.956503 0.089552 0.954545
BX_Pstl.bmp
  20 -30.230549 -6.439963 52.356353 -0.260201 -0.131900 0.956503 0.358209 0.590909
  20 -36.763300 -7.973925 50.337857 -0.260201 -0.131900 0.956503 0.925373 0.590909
  20 -36.396502 -10.491581 50.116350 -0.260201 -0.131900 0.956503 0.955224 0.954545
BX_Pstl.bmp
  20 -29.962233 -6.323087 51.345390 0.260201 0.131900 -0.956503 0.358209 0.613636
  20 -36.121461 -10.354196 49.074823 0.260201 0.131900 -0.956503 0.955224 0.954545
  20 -36.490270 -7.866979 49.317995 0.260201 0.131900 -0.956503 0.940299 0.613636
BX_Pstl.bmp
  20 -29.962233 -6.323087 51.345390 0.260201 0.131900 -0.956503 0.358209 0.613636
  20 -26.321477 -8.073602 52.159446 0.260201 0.131900 -0.956503 0.089552 0.977273
  20 -36.121461 -10.354196 49.074823 0.260201 0.131900 -0.956503 0.955224 0.954545
BX_Pstl.bmp
  20 -29.962233 -6.323087 51.345390 0.260201 0.131900 -0.956503 0.358209 0.613636
  20 -27.452834 -5.868361 52.111054 0.260201 0.131900 -0.956503 0.149254 0.636364
  20 -26.321477 -8.073602 52.159446 0.260201 0.131900 -0.956503 0.089552 0.977273
BX_Pstl.bmp
  20 -29.962233 -6.323087 51.345390 0.260201 0.131900 -0.956503 0.358209 0.613636
  20 -27.229187 -1.522993 52.785932 0.260201 0.131900 -0.956503 0.029851 0.022727
  20 -27.452834 -5.868361 52.111054 0.260201 0.131900 -0.956503 0.149254 0.636364
BX_Pstl.bmp
  20 -29.962233 -6.323087 51.345390 0.260201 0.131900 -0.956503 0.358209 0.613636
  20 -29.914699 -2.144686 51.944727 0.260201 0.131900 -0.956503 0.268657 0.022727
  20 -27.229187 -1.522993 52.785932 0.260201 0.131900 -0.956503 0.029851 0.022727
BX_GTip1.bmp
  20 -36.396502 -10.491581 50.116350 -0.954248 -0.114594 -0.276185 0.866667 1.000000
  20 -36.763300 -7.973925 50.337857 -0.954248 -0.114594 -0.276185 0.800000 0.000000
  20 -36.121461 -10.354196 49.074823 -0.954248 -0.114594 -0.276185 0.000000 1.000000
BX_GTip1.bmp
  20 -36.121461 -10.354196 49.074823 -0.954248 -0.114594 -0.276185 0.000000 1.000000
  20 -36.763300 -7.973925 50.337857 -0.954248 -0.114594 -0.276185 0.800000 0.000000
  20 -36.490270 -7.866979 49.317995 -0.954248 -0.114594 -0.276185 0.000000 0.000000
BX_Gxttra1.bmp
  20 -27.494155 -1.649240 53.797887 0.963086 -0.088599 0.254196 0.871795 1.000000
  20 -27.735833 -6.009753 53.141598 0.918888 0.282396 0.275496 0.897436 0.433333
  20 -27.452834 -5.868361 52.111054 0.956679 0.091498 0.276394 0.487179 0.400000
BX_Gxttra1.bmp
  20 -27.452834 -5.868361 52.111054 0.956679 0.091498 0.276394 0.487179 0.400000
  20 -27.735833 -6.009753 53.141598 0.918888 0.282396 0.275496 0.897436 0.433333
  20 -26.321477 -8.073602 52.159446 0.849803 0.463501 0.251001 0.564103 0.100000
BX_Gxttra1.bmp
  20 -27.735833 -6.009753 53.141598 0.918888 0.282396 0.275496 0.897436 0.433333
  20 -26.562572 -8.187830 53.204350 0.849803 0.463501 0.251001 1.000000 0.133333
  20 -26.321477 -8.073602 52.159446 0.849803 0.463501 0.251001 0.564103 0.100000
BX_Gxttra1.bmp
  20 -30.230549 -6.439963 52.356353 -0.243904 0.968317 0.053601 0.743590 0.633333
  20 -29.962233 -6.323087 51.345390 -0.243904 0.968317 0.053601 0.333333 0.633333
  20 -36.763300 -7.973925 50.337857 -0.243904 0.968317 0.053601 0.384615 0.000000
BX_Gxttra1.bmp
  20 -36.763300 -7.973925 50.337857 -0.243904 0.968317 0.053601 0.384615 0.000000
  20 -29.962233 -6.323087 51.345390 -0.243904 0.968317 0.053601 0.333333 0.633333
  20 -36.490270 -7.866979 49.317995 -0.243904 0.968317 0.053601 0.000000 0.000000
BX_Gxttra1.bmp
  20 -26.321477 -8.073602 52.159446 0.242911 -0.968442 -0.055803 0.564103 0.966667
  20 -26.562572 -8.187830 53.204350 0.242911 -0.968442 -0.055803 1.000000 0.966667
  20 -36.121461 -10.354196 49.074823 0.242911 -0.968442 -0.055803 0.025641 0.000000
BX_Gxttra1.bmp
  20 -36.121461 -10.354196 49.074823 0.242911 -0.968442 -0.055803 0.025641 0.000000
  20 -26.562572 -8.187830 53.204350 0.242911 -0.968442 -0.055803 1.000000 0.966667
  20 -36.396502 -10.491581 50.116350 0.242911 -0.968442 -0.055803 0.435897 0.000000
BX_Gxttra1.bmp
  20 -30.230549 -6.439963 52.356353 -0.964371 0.047299 -0.260292 0.743590 0.400000
  20 -30.179667 -2.270932 52.956682 -0.964371 0.047299 -0.260292 0.743590 0.933333
  20 -29.962233 -6.323087 51.345390 -0.964371 0.047299 -0.260292 0.333333 0.400000
BX_Gxttra1.bmp
  20 -29.962233 -6.323087 51.345390 -0.964371 0.047299 -0.260292 0.333333 0.400000
  20 -30.179667 -2.270932 52.956682 -0.964371 0.047299 -0.260292 0.743590 0.933333
  20 -29.914699 -2.144686 51.944727 -0.964371 0.047299 -0.260292 0.333333 0.933333
BX_Gxttra1.bmp
  20 -29.914699 -2.144686 51.944727 -0.243904 0.968317 0.053601 0.333333 0.733333
  20 -30.179667 -2.270932 52.956682 -0.243904 0.968317 0.053601 0.743590 0.700000
  20 -27.229187 -1.522993 52.785932 -0.243904 0.968317 0.053601 0.487179 1.000000
BX_Gxttra1.bmp
  20 -27.229187 -1.522993 52.785932 -0.243904 0.968317 0.053601 0.487179 1.000000
  20 -30.179667 -2.270932 52.956682 -0.243904 0.968317 0.053601 0.743590 0.700000
  20 -27.494155 -1.649240 53.797887 -0.243904 0.968317 0.053601 0.871795 0.966667
BX_Gxttra1.bmp
  20 -27.494155 -1.649240 53.797887 0.963086 -0.088599 0.254196 0.871795 1.000000
  20 -27.452834 -5.868361 52.111054 0.956679 0.091498 0.276394 0.487179 0.400000
  20 -27.229187 -1.522993 52.785932 0.963086 -0.088599 0.254196 0.487179 0.966667
end
