version 1
nodes
  0 "Bip02" -1
  1 "Bip02 Pelvis" 0
  2 "Bip02 L Leg" 1
  3 "Bip02 L Leg1" 2
  4 "Bip02 L Foot" 3
  5 "Bip02 R Leg" 1
  6 "Bip02 R Leg1" 5
  7 "Bip02 R Foot" 6
  8 "Bip02 Spine" 1
  9 "Bip02 Spine1" 8
  10 "Bip02 Spine2" 9
  11 "Bip02 Neck" 10
  12 "Bip02 L Arm" 11
  13 "Bip02 L Arm1" 12
  14 "Bip02 L Arm2" 13
  15 "Bip02 L Hand" 14
  16 "Bip02 R Arm" 11
  17 "Bip02 R Arm1" 16
  18 "Bip02 R Arm2" 17
  19 "Bip02 R Hand" 18
  20 "Bip02 Head" 11
  21 "Bone01" 20
end
skeleton
  time 0
    0 -0.213386 -0.633756 36.821262 0.000000 0.000000 -1.570795
    1 0.000000 0.000000 0.000000 -1.570795 -1.570796 0.000000
    2 -0.000004 0.000006 3.319508 -0.000732 -3.100711 -0.021168
    3 16.904898 0.000000 0.000000 0.000000 0.000000 -0.157678
    4 16.597540 0.000000 0.000000 0.001600 -0.040858 0.136462
    5 0.000005 -0.000003 -3.319508 0.001962 3.115348 -0.024688
    6 16.904898 0.000000 0.000000 0.000000 0.000000 -0.164609
    7 16.597540 0.000000 0.000000 -0.002609 0.026187 0.139861
    8 3.488968 -0.004234 0.000004 -0.000004 -0.000001 0.000796
    9 5.318531 -0.004538 0.000000 0.000000 0.000000 -0.026167
    10 5.701826 -0.005492 0.000000 0.000000 0.000000 -0.026167
    11 6.899484 -0.001818 0.000000 0.000000 -0.000001 0.348889
    12 0.000003 0.001927 2.008302 -0.000013 -1.370797 2.791920
    13 4.746895 0.000000 0.000000 0.124578 1.145502 0.123986
    14 10.954378 0.000000 0.000000 0.000000 0.000000 -0.200000
    15 10.954373 0.000000 0.000000 -1.568795 0.000000 0.000000
    16 0.000003 0.001941 -2.008302 -0.000013 1.370795 2.791894
    17 4.746896 0.000000 -0.000003 -0.124578 -1.145502 0.123986
    18 10.954372 0.000000 0.000000 0.000000 0.000000 -0.200000
    19 10.954377 0.000000 0.000000 1.568795 0.000000 0.000000
    20 2.428221 0.000000 0.000000 0.000000 0.000000 -0.122909
    21 1.681022 0.975106 0.213387 0.000000 0.000001 -1.745239
end
triangles
Sci2_Hand1.bmp
  15 11.023894 -1.380779 32.033214 -0.675543 0.493032 -0.548235 0.478873 0.000000
  15 10.647624 -1.127599 34.468870 -0.694293 0.713593 0.093499 0.464789 0.619048
  15 12.793180 -1.364952 32.324889 0.728061 0.607667 -0.317283 0.577465 0.047619
Sci2_Hand1.bmp
  15 12.793180 -1.364952 32.324889 0.728061 0.607667 -0.317283 0.577465 0.047619
  15 10.647624 -1.127599 34.468870 -0.694293 0.713593 0.093499 0.464789 0.619048
  14 11.703743 -1.373428 35.589409 -0.070099 0.918485 0.389194 0.521127 0.857143
Sci2_Hand1.bmp
  15 10.647624 -1.127599 34.468870 -0.694293 0.713593 0.093499 0.464789 0.619048
  15 10.412886 -2.379856 34.634255 -0.749113 0.662112 -0.020900 0.394366 0.666667
  14 11.703743 -1.373428 35.589409 -0.070099 0.918485 0.389194 0.521127 0.857143
Sci2_Hand1.bmp
  14 11.703743 -1.373428 35.589409 -0.070099 0.918485 0.389194 0.521127 0.857143
  15 10.412886 -2.379856 34.634255 -0.749113 0.662112 -0.020900 0.394366 0.666667
  14 10.475765 -2.241317 35.670275 -0.883882 0.411992 0.221395 0.408451 0.904762
Sci2_Hand1.bmp
  15 10.412886 -2.379856 34.634255 -0.749113 0.662112 -0.020900 0.394366 0.666667
  15 9.882366 -2.880102 33.938481 -0.919985 0.377094 -0.106898 0.323944 0.476190
  14 10.475765 -2.241317 35.670275 -0.883882 0.411992 0.221395 0.408451 0.904762
Sci2_Hand1.bmp
  14 10.475765 -2.241317 35.670275 -0.883882 0.411992 0.221395 0.408451 0.904762
  15 9.882366 -2.880102 33.938481 -0.919985 0.377094 -0.106898 0.323944 0.476190
  15 10.329305 -4.558058 34.848376 -0.734132 -0.630027 0.253211 0.169014 0.666667
Sci2_Hand1.bmp
  15 9.882366 -2.880102 33.938481 -0.919985 0.377094 -0.106898 0.323944 0.476190
  15 10.238088 -2.992601 33.090303 -0.795354 0.209288 -0.568867 0.309859 0.238095
  15 10.329305 -4.558058 34.848376 -0.734132 -0.630027 0.253211 0.169014 0.666667
Sci2_Hand1.bmp
  15 10.329305 -4.558058 34.848376 -0.734132 -0.630027 0.253211 0.169014 0.666667
  15 10.238088 -2.992601 33.090303 -0.795354 0.209288 -0.568867 0.309859 0.238095
  15 10.624042 -4.820322 33.588675 -0.214601 -0.746605 -0.629704 0.140845 0.333333
Sci2_Hand1.bmp
  15 10.238088 -2.992601 33.090303 -0.795354 0.209288 -0.568867 0.309859 0.238095
  15 10.624389 -2.609134 33.108313 -0.901285 0.057499 -0.429393 0.366197 0.190476
  15 10.624042 -4.820322 33.588675 -0.214601 -0.746605 -0.629704 0.140845 0.333333
Sci2_Hand1.bmp
  15 10.624042 -4.820322 33.588675 -0.214601 -0.746605 -0.629704 0.140845 0.333333
  15 10.624389 -2.609134 33.108313 -0.901285 0.057499 -0.429393 0.366197 0.190476
  15 11.000819 -4.561063 33.285156 -0.257504 -0.892214 -0.371006 0.140845 0.285714
Sci2_Hand1.bmp
  15 10.624389 -2.609134 33.108313 -0.901285 0.057499 -0.429393 0.366197 0.190476
  15 11.161369 -4.434188 32.259472 -0.624304 -0.574804 -0.529004 0.126761 0.047619
  15 11.000819 -4.561063 33.285156 -0.257504 -0.892214 -0.371006 0.140845 0.285714
Sci2_Hand1.bmp
  15 13.360365 -4.051387 34.099140 0.582891 -0.785689 0.207197 0.816901 0.523810
  15 10.624042 -4.820322 33.588675 -0.214601 -0.746605 -0.629704 0.971831 0.333333
  15 11.000819 -4.561063 33.285156 -0.257504 -0.892214 -0.371006 0.971831 0.285714
Sci2_Hand1.bmp
  15 13.360365 -4.051387 34.099140 0.582891 -0.785689 0.207197 0.816901 0.523810
  15 10.329305 -4.558058 34.848376 -0.734132 -0.630027 0.253211 1.000000 0.666667
  15 10.624042 -4.820322 33.588675 -0.214601 -0.746605 -0.629704 0.971831 0.333333
Sci2_Hand1.bmp
  15 13.360365 -4.051387 34.099140 0.582891 -0.785689 0.207197 0.816901 0.523810
  14 10.955518 -3.880412 35.951884 -0.149791 -0.814450 0.560565 0.985915 0.952381
  15 10.329305 -4.558058 34.848376 -0.734132 -0.630027 0.253211 1.000000 0.666667
Sci2_Hand1.bmp
  15 13.360365 -4.051387 34.099140 0.582891 -0.785689 0.207197 0.816901 0.523810
  14 12.271479 -3.545733 35.980777 0.879169 -0.087097 0.468483 0.845070 0.952381
  14 10.955518 -3.880412 35.951884 -0.149791 -0.814450 0.560565 0.985915 0.952381
Sci2_Hand1.bmp
  15 13.360365 -4.051387 34.099140 0.582891 -0.785689 0.207197 0.816901 0.523810
  15 12.793180 -1.364952 32.324889 0.728061 0.607667 -0.317283 0.577465 0.047619
  14 12.271479 -3.545733 35.980777 0.879169 -0.087097 0.468483 0.845070 0.952381
Sci2_Hand1.bmp
  15 13.360365 -4.051387 34.099140 0.582891 -0.785689 0.207197 0.816901 0.523810
  15 13.263314 -4.267931 32.668235 0.503100 -0.609700 -0.612500 0.845070 0.142857
  15 12.793180 -1.364952 32.324889 0.728061 0.607667 -0.317283 0.577465 0.047619
Sci2_Hand1.bmp
  15 13.360365 -4.051387 34.099140 0.582891 -0.785689 0.207197 0.816901 0.523810
  15 11.000819 -4.561063 33.285156 -0.257504 -0.892214 -0.371006 0.971831 0.285714
  15 13.263314 -4.267931 32.668235 0.503100 -0.609700 -0.612500 0.845070 0.142857
Sci2_Hand1.bmp
  15 10.624389 -2.609134 33.108313 -0.901285 0.057499 -0.429393 0.366197 0.190476
  15 10.807469 -2.739348 32.026081 -0.386818 -0.075703 -0.919043 0.352113 0.000000
  15 11.161369 -4.434188 32.259472 -0.624304 -0.574804 -0.529004 0.126761 0.047619
Sci2_Hand1.bmp
  15 10.624389 -2.609134 33.108313 -0.901285 0.057499 -0.429393 0.366197 0.190476
  15 11.023894 -1.380779 32.033214 -0.675543 0.493032 -0.548235 0.478873 0.000000
  15 10.807469 -2.739348 32.026081 -0.386818 -0.075703 -0.919043 0.352113 0.000000
Sci2_Hand1.bmp
  15 10.624389 -2.609134 33.108313 -0.901285 0.057499 -0.429393 0.366197 0.190476
  15 10.647624 -1.127599 34.468870 -0.694293 0.713593 0.093499 0.464789 0.619048
  15 11.023894 -1.380779 32.033214 -0.675543 0.493032 -0.548235 0.478873 0.000000
Sci2_Hand1.bmp
  15 10.624389 -2.609134 33.108313 -0.901285 0.057499 -0.429393 0.366197 0.190476
  15 10.412886 -2.379856 34.634255 -0.749113 0.662112 -0.020900 0.394366 0.666667
  15 10.647624 -1.127599 34.468870 -0.694293 0.713593 0.093499 0.464789 0.619048
Sci2_Hand1.bmp
  15 10.624389 -2.609134 33.108313 -0.901285 0.057499 -0.429393 0.366197 0.190476
  15 10.238088 -2.992601 33.090303 -0.795354 0.209288 -0.568867 0.309859 0.238095
  15 10.412886 -2.379856 34.634255 -0.749113 0.662112 -0.020900 0.394366 0.666667
Sci2_Hand1.bmp
  14 12.271479 -3.545733 35.980777 0.879169 -0.087097 0.468483 0.845070 0.952381
  15 12.793180 -1.364952 32.324889 0.728061 0.607667 -0.317283 0.577465 0.047619
  14 11.703743 -1.373428 35.589409 -0.070099 0.918485 0.389194 0.521127 0.857143
Sci2_Hand1.bmp
  14 10.475765 -2.241317 35.670275 -0.883882 0.411992 0.221395 0.408451 0.904762
  15 10.329305 -4.558058 34.848376 -0.734132 -0.630027 0.253211 0.169014 0.666667
  14 10.955518 -3.880412 35.951884 -0.149791 -0.814450 0.560565 0.154930 0.952381
Sci2_Hand1.bmp
  15 10.412886 -2.379856 34.634255 -0.749113 0.662112 -0.020900 0.394366 0.666667
  15 10.238088 -2.992601 33.090303 -0.795354 0.209288 -0.568867 0.309859 0.238095
  15 9.882366 -2.880102 33.938481 -0.919985 0.377094 -0.106898 0.323944 0.476190
Sci2_Hand1.bmp
  15 13.263314 -4.267931 32.668235 0.503100 -0.609700 -0.612500 0.845070 0.142857
  15 11.000819 -4.561063 33.285156 -0.257504 -0.892214 -0.371006 0.971831 0.285714
  15 11.161369 -4.434188 32.259472 -0.624304 -0.574804 -0.529004 0.957746 0.047619
Sci2_Knuckles.bmp
  15 11.023894 -1.380779 32.033214 -0.675543 0.493032 -0.548235 0.043478 0.968750
  15 12.793180 -1.364952 32.324889 0.728061 0.607667 -0.317283 0.782609 1.000000
  15 10.807469 -2.739348 32.026081 -0.386818 -0.075703 -0.919043 0.000000 0.562500
Sci2_Knuckles.bmp
  15 10.807469 -2.739348 32.026081 -0.386818 -0.075703 -0.919043 0.000000 0.562500
  15 12.793180 -1.364952 32.324889 0.728061 0.607667 -0.317283 0.782609 1.000000
  15 13.263314 -4.267931 32.668235 0.503100 -0.609700 -0.612500 1.000000 0.031250
Sci2_Knuckles.bmp
  15 10.807469 -2.739348 32.026081 -0.386818 -0.075703 -0.919043 0.000000 0.562500
  15 13.263314 -4.267931 32.668235 0.503100 -0.609700 -0.612500 1.000000 0.031250
  15 11.161369 -4.434188 32.259472 -0.624304 -0.574804 -0.529004 0.130435 0.000000
SCI2_Needle1.bmp
  15 11.167566 -4.154577 33.729975 0.049401 -0.993422 0.103302 0.217391 0.974359
  15 11.878651 -3.809764 30.680801 0.998578 0.038199 0.037199 0.391304 0.025641
  15 11.756047 -3.458748 33.310318 0.996397 0.077700 0.034000 0.608696 0.820513
SCI2_Needle1.bmp
  15 11.756047 -3.458748 33.310318 0.996397 0.077700 0.034000 0.608696 0.820513
  15 11.878651 -3.809764 30.680801 0.998578 0.038199 0.037199 0.391304 0.025641
  15 11.168551 -2.862535 33.555834 0.316089 0.944668 -0.087697 1.000000 0.897436
SCI2_Needle1.bmp
  15 11.878651 -3.809764 30.680801 0.998578 0.038199 0.037199 0.391304 0.025641
  15 11.276245 -3.147554 30.584965 -0.349688 0.932068 -0.094697 0.826087 0.000000
  15 11.168551 -2.862535 33.555834 0.316089 0.944668 -0.087697 1.000000 0.897436
SCI2_Needle1.bmp
  15 11.168551 -2.862535 33.555834 0.316089 0.944668 -0.087697 1.000000 0.897436
  15 11.276245 -3.147554 30.584965 -0.349688 0.932068 -0.094697 0.826087 0.000000
  15 10.526909 -3.572133 33.893125 -0.963993 0.258598 -0.062000 0.565217 1.000000
SCI2_Needle1.bmp
  15 11.276245 -3.147554 30.584965 -0.349688 0.932068 -0.094697 0.826087 0.000000
  15 10.656751 -3.800921 30.643603 -0.942178 -0.335092 -0.003700 0.391304 0.000000
  15 10.526909 -3.572133 33.893125 -0.963993 0.258598 -0.062000 0.565217 1.000000
SCI2_Needle1.bmp
  15 10.526909 -3.572133 33.893125 -0.963993 0.258598 -0.062000 0.565217 1.000000
  15 10.656751 -3.800921 30.643603 -0.942178 -0.335092 -0.003700 0.391304 0.000000
  15 11.167566 -4.154577 33.729975 0.049401 -0.993422 0.103302 0.217391 0.974359
SCI2_Needle1.bmp
  15 10.656751 -3.800921 30.643603 -0.942178 -0.335092 -0.003700 0.391304 0.000000
  15 11.281280 -4.455357 30.732360 0.009700 -0.994809 0.101301 0.000000 0.051282
  15 11.167566 -4.154577 33.729975 0.049401 -0.993422 0.103302 0.217391 0.974359
SCI2_Needle1.bmp
  15 11.167566 -4.154577 33.729975 0.049401 -0.993422 0.103302 0.217391 0.974359
  15 11.281280 -4.455357 30.732360 0.009700 -0.994809 0.101301 0.000000 0.051282
  15 11.878651 -3.809764 30.680801 0.998578 0.038199 0.037199 0.391304 0.025641
SCI2_Needle1.bmp
  15 10.656751 -3.800921 30.643603 0.025900 -0.113599 -0.993189 0.391304 0.000000
  15 11.276245 -3.147554 30.584965 0.025900 -0.113599 -0.993189 0.826087 0.000000
  15 11.281280 -4.455357 30.732360 0.025900 -0.113599 -0.993189 0.000000 0.051282
SCI2_Needle1.bmp
  15 11.281280 -4.455357 30.732360 0.025900 -0.113599 -0.993189 0.000000 0.051282
  15 11.276245 -3.147554 30.584965 0.025900 -0.113599 -0.993189 0.826087 0.000000
  15 11.878651 -3.809764 30.680801 0.025900 -0.113599 -0.993189 0.391304 0.025641
Sci2_Chrome1.bmp
  15 11.496463 -3.944015 30.737453 0.857399 -0.514400 -0.016100 0.000000 0.000000
  15 11.366315 -4.067987 27.595719 -0.060601 -0.277807 -0.958724 0.000000 0.000000
  15 11.255470 -3.496404 30.673690 0.004000 0.983494 -0.180899 0.000000 0.000000
Sci2_Chrome1.bmp
  15 11.255470 -3.496404 30.673690 0.004000 0.983494 -0.180899 0.000000 0.000000
  15 11.366315 -4.067987 27.595719 -0.060601 -0.277807 -0.958724 0.000000 0.000000
  15 11.008410 -3.934995 30.719502 -0.858483 -0.507090 -0.076599 0.000000 0.000000
Sci2_Chrome1.bmp
  15 11.811947 -2.292585 33.028293 0.428812 0.504914 0.749121 0.000000 0.000000
  15 11.825307 -2.344594 32.560942 0.690010 0.625609 -0.364005 0.000000 0.000000
  15 10.263434 -2.304230 33.120338 -0.379014 0.865231 0.328212 0.000000 0.000000
Sci2_Chrome1.bmp
  15 10.263434 -2.304230 33.120338 -0.379014 0.865231 0.328212 0.000000 0.000000
  15 11.825307 -2.344594 32.560942 0.690010 0.625609 -0.364005 0.000000 0.000000
  15 10.274025 -2.319230 32.529607 -0.666625 0.246010 -0.703627 0.000000 0.000000
Sci2_Chrome1.bmp
  15 11.784372 -4.717701 33.400519 0.808507 -0.334603 0.484104 0.000000 0.000000
  15 10.228722 -4.721512 33.478863 -0.561487 -0.494088 0.663784 0.000000 0.000000
  15 11.798520 -4.801099 32.929409 0.345612 -0.761727 -0.548019 0.000000 0.000000
Sci2_Chrome1.bmp
  15 11.798520 -4.801099 32.929409 0.345612 -0.761727 -0.548019 0.000000 0.000000
  15 10.228722 -4.721512 33.478863 -0.561487 -0.494088 0.663784 0.000000 0.000000
  15 10.245867 -4.805136 32.903874 -0.568492 -0.650391 -0.503793 0.000000 0.000000
Sci2_Chrome1.bmp
  15 11.784372 -4.717701 33.400519 0.808507 -0.334603 0.484104 0.000000 0.000000
  15 11.811947 -2.292585 33.028293 0.428812 0.504914 0.749121 0.000000 0.000000
  15 10.228722 -4.721512 33.478863 -0.561487 -0.494088 0.663784 0.000000 0.000000
Sci2_Chrome1.bmp
  15 10.228722 -4.721512 33.478863 -0.561487 -0.494088 0.663784 0.000000 0.000000
  15 11.811947 -2.292585 33.028293 0.428812 0.504914 0.749121 0.000000 0.000000
  15 10.263434 -2.304230 33.120338 -0.379014 0.865231 0.328212 0.000000 0.000000
Sci2_Chrome1.bmp
  15 10.245867 -4.805136 32.903874 -0.568492 -0.650391 -0.503793 0.000000 0.000000
  15 10.228722 -4.721512 33.478863 -0.561487 -0.494088 0.663784 0.000000 0.000000
  15 10.274025 -2.319230 32.529607 -0.666625 0.246010 -0.703627 0.000000 0.000000
Sci2_Chrome1.bmp
  15 10.274025 -2.319230 32.529607 -0.666625 0.246010 -0.703627 0.000000 0.000000
  15 10.228722 -4.721512 33.478863 -0.561487 -0.494088 0.663784 0.000000 0.000000
  15 10.263434 -2.304230 33.120338 -0.379014 0.865231 0.328212 0.000000 0.000000
Sci2_Chrome1.bmp
  15 11.798520 -4.801099 32.929409 0.345612 -0.761727 -0.548019 0.000000 0.000000
  15 11.825307 -2.344594 32.560942 0.690010 0.625609 -0.364005 0.000000 0.000000
  15 11.784372 -4.717701 33.400519 0.808507 -0.334603 0.484104 0.000000 0.000000
Sci2_Chrome1.bmp
  15 11.784372 -4.717701 33.400519 0.808507 -0.334603 0.484104 0.000000 0.000000
  15 11.825307 -2.344594 32.560942 0.690010 0.625609 -0.364005 0.000000 0.000000
  15 11.811947 -2.292585 33.028293 0.428812 0.504914 0.749121 0.000000 0.000000
Sci2_Chrome1.bmp
  15 10.245867 -4.805136 32.903874 -0.568492 -0.650391 -0.503793 0.000000 0.000000
  15 10.274025 -2.319230 32.529607 -0.666625 0.246010 -0.703627 0.000000 0.000000
  15 11.798520 -4.801099 32.929409 0.345612 -0.761727 -0.548019 0.000000 0.000000
Sci2_Chrome1.bmp
  15 11.798520 -4.801099 32.929409 0.345612 -0.761727 -0.548019 0.000000 0.000000
  15 10.274025 -2.319230 32.529607 -0.666625 0.246010 -0.703627 0.000000 0.000000
  15 11.825307 -2.344594 32.560942 0.690010 0.625609 -0.364005 0.000000 0.000000
Sci2_Chrome1.bmp
  15 11.366315 -4.067987 27.595719 -0.060601 -0.277807 -0.958724 0.000000 0.000000
  15 11.496463 -3.944015 30.737453 0.857399 -0.514400 -0.016100 0.000000 0.000000
  15 11.008410 -3.934995 30.719502 -0.858483 -0.507090 -0.076599 0.000000 0.000000
end
