version 1
nodes
  0 "Bip01" -1
  1 "Bip01 Pelvis" 0
  2 "Bip01 L Leg" 1
  3 "Bip01 L Leg1" 2
  4 "Bip01 L Foot" 3
  5 "Bip01 L Toe0" 4
  6 "Bone13" 4
  7 "Bip01 R Leg" 1
  8 "Bip01 R Leg1" 7
  9 "Bip01 R Foot" 8
  10 "Bone19" 9
  11 "Bone16" 9
  12 "Bip01 Spine" 1
  13 "Bip01 Spine1" 12
  14 "Bip01 Spine2" 13
  15 "Bip01 Spine3" 14
  16 "Bip01 Neck" 15
  17 "Bip01 L Arm" 16
  18 "Bip01 L Arm1" 17
  19 "Bip01 L Arm2" 18
  20 "Bip01 L Hand" 19
  21 "Bip01 L Finger0" 20
  22 "Bip01 L Finger01" 21
  23 "Bip01 L Finger02" 22
  24 "Bip01 L Finger1" 20
  25 "Bip01 L Finger11" 24
  26 "Bip01 L Finger12" 25
  27 "Bip01 R Arm" 16
  28 "Bip01 R Arm1" 27
  29 "Bip01 R Arm2" 28
  30 "Bip01 R Hand" 29
  31 "Bip01 R Finger0" 30
  32 "Bip01 R Finger01" 31
  33 "Bip01 R Finger02" 32
  34 "Bip01 R Finger1" 30
  35 "Bip01 R Finger11" 34
  36 "Bip01 R Finger12" 35
  37 "Bip01 Neck1" 16
  38 "Bip01 Head" 37
  39 "Dummy04" 14
  40 "Bone05" 39
  41 "Bone06" 40
  42 "Bone07" 41
  43 "Bone08" 42
  44 "Bone09" 43
  45 "Bone22" 44
  46 "Bone23" 45
  47 "Bone26" 44
  48 "Bone27" 47
  49 "Bone30" 43
  50 "Bone31" 49
end
skeleton
  time 0
    0 -0.019043 4.541981 30.214938 0.000000 0.000000 -1.570836
    1 0.000000 0.000000 0.000000 -1.570795 -1.570796 0.000000
    2 -0.000009 0.000010 6.353378 -0.042743 -0.054264 -2.326123
    3 18.507666 0.000000 0.000000 0.000000 0.000000 -1.658999
    4 13.411352 -0.000002 0.000000 3.052912 0.068311 0.844342
    5 8.701365 6.675650 0.000000 0.000000 0.000000 1.527185
    6 6.262099 -1.461580 3.610131 -1.570796 1.492295 1.570796
    7 0.000009 -0.000007 -6.353378 0.042747 0.054264 -2.326123
    8 18.507668 0.000002 0.000000 0.000000 0.000000 -1.658999
    9 13.411351 -0.000001 0.000000 -3.052911 -0.068311 0.844342
    10 6.262099 -1.470858 -4.185178 1.570795 1.492297 -1.570797
    11 6.280028 -0.742184 5.288615 1.570795 1.492297 -1.570797
    12 3.416504 -0.970599 0.000006 -0.000005 0.000000 0.611352
    13 6.150890 -0.004767 0.000000 0.000000 -0.000001 0.252944
    14 6.181768 -0.006276 0.000000 0.000000 -0.000001 0.191889
    15 8.035378 -0.006650 0.000000 0.000000 -0.000001 0.392500
    16 9.041867 -0.002309 0.000000 0.000000 -0.000002 0.553333
    17 -5.018904 6.569210 3.525343 -0.000012 -1.370798 2.587475
    18 8.356073 -0.000002 0.000000 -1.439322 0.499205 -1.142276
    19 22.314196 0.000000 0.000002 0.000000 0.000000 -1.310386
    20 13.466397 -0.000001 -0.000001 -0.357579 -0.061315 -0.369455
    21 6.645414 -0.843864 -1.119306 0.002213 0.139545 0.017460
    22 3.530614 0.000000 -0.000001 0.000000 0.000000 -0.008722
    23 3.530614 -0.000001 0.000000 0.000000 0.000000 0.654167
    24 6.690087 -0.762451 1.047432 -0.001003 -0.183167 0.000183
    25 3.608304 0.000001 0.000000 0.000000 0.000000 -0.008722
    26 3.608304 0.000000 0.000001 0.000000 0.000000 0.654167
    27 -4.808103 6.472240 -3.100415 -0.000011 1.362073 2.587452
    28 8.356073 0.000003 0.000000 1.412914 -0.489034 -1.127477
    29 22.314196 0.000001 0.000001 0.000000 0.000000 -1.297787
    30 13.466398 -0.000001 -0.000002 0.358256 0.085814 -0.360240
    31 6.635592 -0.843576 1.110600 -0.002229 -0.183156 0.017559
    32 3.530615 0.000000 0.000001 0.000000 0.000000 -0.008722
    33 3.530611 0.000001 -0.000003 0.000000 0.000000 0.654167
    34 6.681007 -0.762752 -1.054662 0.001003 0.183167 0.000183
    35 3.608305 -0.000001 0.000000 0.000000 0.000000 -0.008722
    36 3.608305 -0.000001 0.000000 0.000000 0.000000 0.654167
    37 3.408091 -0.002199 0.000000 -0.000028 -0.034890 0.256778
    38 2.848662 0.000000 0.000000 -0.016613 0.030683 -0.497164
    39 5.067991 7.235520 0.022323 -0.000003 0.000000 -2.626981
    40 -0.604384 -2.957996 0.000000 0.000000 0.000000 0.000000
    41 0.107995 -6.585735 0.000000 0.000000 0.000000 0.000000
    42 -3.080979 -5.452278 0.000000 0.000000 0.000000 0.000000
    43 -3.048778 -2.270235 0.000000 0.000000 0.000000 0.000000
    44 -1.890806 -0.908390 0.000000 0.000000 0.000000 0.000000
    45 -0.454460 -0.402742 -1.764821 0.000000 -1.570796 0.000000
    46 -0.928989 -2.456182 2.268051 0.000000 0.000000 0.000000
    47 -0.447595 -0.389067 1.486638 0.000000 -1.570796 0.000000
    48 1.132205 -2.455431 2.290455 0.000000 0.000000 0.000000
    49 0.424462 -1.191061 -0.110061 0.000000 -1.570796 0.000000
    50 -0.087093 -2.917876 -0.217384 0.000000 0.000000 0.000000
  time 1
    0 -0.019043 4.541981 30.050870 0.000000 0.000000 -1.570836
    1 0.109378 0.000000 0.000000 -1.570795 -1.570796 0.000000
    2 -0.000009 0.000010 6.353378 -0.042743 -0.054264 -2.326123
    3 18.507666 0.000000 0.000000 0.000000 0.000000 -1.658999
    4 13.411352 -0.000002 0.000000 3.052912 0.068311 0.844342
    5 8.701365 6.675650 0.000000 0.000000 0.000000 1.527185
    6 6.262099 -1.461580 3.610131 -1.570796 1.492295 1.570796
    7 0.000009 -0.000007 -6.353378 0.042747 0.054264 -2.326123
    8 18.507668 0.000002 0.000000 0.000000 0.000000 -1.658999
    9 13.411351 -0.000001 0.000000 -3.052911 -0.068311 0.844342
    10 6.262099 -1.470858 -4.185178 1.570795 1.492297 -1.570797
    11 6.280028 -0.742184 5.288615 1.570795 1.492297 -1.570797
    12 3.416504 -0.970599 0.000006 -0.000005 0.000000 0.611352
    13 6.150890 -0.004767 0.000000 0.000000 -0.000001 0.230580
    14 6.181768 -0.006276 0.000000 0.000000 -0.000001 0.178002
    15 8.035378 -0.006650 0.000000 0.000000 -0.000001 0.373158
    16 9.041867 -0.002309 0.000000 0.000000 -0.000002 0.553333
    17 -5.018904 6.569210 3.525343 -0.000012 -1.370798 2.587475
    18 8.356073 -0.000002 0.000000 -1.395047 0.469671 -1.061926
    19 22.314196 0.000000 0.000002 0.000000 0.000000 -1.390492
    20 13.466397 -0.000001 -0.000001 -0.357579 -0.061315 -0.369455
    21 6.645414 -0.843864 -1.119306 0.002213 0.139545 0.017460
    22 3.530614 0.000000 -0.000001 0.000000 0.000000 -0.008722
    23 3.530614 -0.000001 0.000000 0.000000 0.000000 0.654167
    24 6.690087 -0.762451 1.047432 -0.001003 -0.183167 0.000183
    25 3.608304 0.000001 0.000000 0.000000 0.000000 -0.008722
    26 3.608304 0.000000 0.000001 0.000000 0.000000 0.654167
    27 -4.808103 6.472240 -3.100415 -0.000011 1.362073 2.587452
    28 8.356073 0.000003 0.000000 1.372566 -0.439694 -1.046269
    29 22.314196 0.000001 0.000001 0.000000 0.000000 -1.368120
    30 13.466398 -0.000001 -0.000002 0.358256 0.085814 -0.360240
    31 6.635592 -0.843576 1.110600 -0.002229 -0.183156 0.017559
    32 3.530615 0.000000 0.000001 0.000000 0.000000 -0.008722
    33 3.530611 0.000001 -0.000003 0.000000 0.000000 0.654167
    34 6.681007 -0.762752 -1.054662 0.001003 0.183167 0.000183
    35 3.608305 -0.000001 0.000000 0.000000 0.000000 -0.008722
    36 3.608305 -0.000001 0.000000 0.000000 0.000000 0.654167
    37 3.408091 -0.002199 0.000000 -0.000028 -0.034890 0.212678
    38 2.848662 0.000000 0.000000 -0.015619 0.031179 -0.464546
    39 5.067991 7.235520 0.022323 -0.000003 0.000000 -2.626981
    40 -0.604384 -2.957996 0.000000 0.000000 0.000000 0.000000
    41 0.107995 -6.585735 0.000000 0.000000 0.000000 0.000000
    42 -3.080979 -5.452278 0.000000 0.000000 0.000000 0.000000
    43 -3.048778 -2.270235 0.000000 0.000000 0.000000 0.000000
    44 -1.890806 -0.908390 0.000000 0.000000 0.000000 0.000000
    45 -0.454460 -0.402742 -1.764821 0.000000 -1.570796 0.000000
    46 -0.928989 -2.456182 2.268051 0.000000 0.000000 0.000000
    47 -0.447595 -0.389067 1.486638 0.000000 -1.570796 0.000000
    48 1.132205 -2.455431 2.290455 0.000000 0.000000 0.000000
    49 0.424462 -1.191061 -0.110061 0.000000 -1.570796 0.000000
    50 -0.087093 -2.917876 -0.217384 0.000000 0.000000 0.000000
  time 2
    0 -0.019043 4.541981 29.972743 0.000000 0.000000 -1.570836
    1 0.292978 0.000000 0.000000 -1.570795 -1.570796 0.000000
    2 -0.000009 0.000010 6.353378 -0.042743 -0.054264 -2.326123
    3 18.507666 0.000000 0.000000 0.000000 0.000000 -1.658999
    4 13.411352 -0.000002 0.000000 3.052912 0.068311 0.844342
    5 8.701365 6.675650 0.000000 0.000000 0.000000 1.527185
    6 6.262099 -1.461580 3.610131 -1.570796 1.492295 1.570796
    7 0.000009 -0.000007 -6.353378 0.042747 0.054264 -2.326123
    8 18.507668 0.000002 0.000000 0.000000 0.000000 -1.658999
    9 13.411351 -0.000001 0.000000 -3.052911 -0.068311 0.844342
    10 6.262099 -1.470858 -4.185178 1.570795 1.492297 -1.570797
    11 6.280028 -0.742184 5.288615 1.570795 1.492297 -1.570797
    12 3.416504 -0.970599 0.000006 -0.000005 0.000000 0.611352
    13 6.150890 -0.004767 0.000000 0.000000 -0.000001 0.197979
    14 6.181768 -0.006276 0.000000 0.000000 -0.000001 0.157723
    15 8.035378 -0.006650 0.000000 0.000000 -0.000001 0.344967
    16 9.041867 -0.002309 0.000000 0.000000 -0.000002 0.553333
    17 -5.018904 6.569210 3.525343 -0.000012 -1.370798 2.587475
    18 8.356073 -0.000002 0.000000 -1.330563 0.418979 -0.952020
    19 22.314196 0.000000 0.000002 0.000000 0.000000 -1.507257
    20 13.466397 -0.000001 -0.000001 -0.357579 -0.061315 -0.369455
    21 6.645414 -0.843864 -1.119306 0.002213 0.139545 0.017460
    22 3.530614 0.000000 -0.000001 0.000000 0.000000 -0.008722
    23 3.530614 -0.000001 0.000000 0.000000 0.000000 0.654167
    24 6.690087 -0.762451 1.047432 -0.001003 -0.183167 0.000183
    25 3.608304 0.000001 0.000000 0.000000 0.000000 -0.008722
    26 3.608304 0.000000 0.000001 0.000000 0.000000 0.654167
    27 -4.808103 6.472240 -3.100415 -0.000011 1.362073 2.587452
    28 8.356073 0.000003 0.000000 1.316554 -0.360484 -0.937992
    29 22.314196 0.000001 0.000001 0.000000 0.000000 -1.470644
    30 13.466398 -0.000001 -0.000002 0.358256 0.085814 -0.360240
    31 6.635592 -0.843576 1.110600 -0.002229 -0.183156 0.017559
    32 3.530615 0.000000 0.000001 0.000000 0.000000 -0.008722
    33 3.530611 0.000001 -0.000003 0.000000 0.000000 0.654167
    34 6.681007 -0.762752 -1.054662 0.001003 0.183167 0.000183
    35 3.608305 -0.000001 0.000000 0.000000 0.000000 -0.008722
    36 3.608305 -0.000001 0.000000 0.000000 0.000000 0.654167
    37 3.408091 -0.002199 0.000000 -0.000028 -0.034890 0.148334
    38 2.848662 0.000000 0.000000 -0.014115 0.031888 -0.416920
    39 5.067991 7.235520 0.022323 -0.000003 0.000000 -2.626981
    40 -0.604384 -2.957996 0.000000 0.000000 0.000000 0.000000
    41 0.107995 -6.585735 0.000000 0.000000 0.000000 0.000000
    42 -3.080979 -5.452278 0.000000 0.000000 0.000000 0.000000
    43 -3.048778 -2.270235 0.000000 0.000000 0.000000 0.000000
    44 -1.890806 -0.908390 0.000000 0.000000 0.000000 0.000000
    45 -0.454460 -0.402742 -1.764821 0.000000 -1.570796 0.000000
    46 -0.928989 -2.456182 2.268051 0.000000 0.000000 0.000000
    47 -0.447595 -0.389067 1.486638 0.000000 -1.570796 0.000000
    48 1.132205 -2.455431 2.290455 0.000000 0.000000 0.000000
    49 0.424462 -1.191061 -0.110061 0.000000 -1.570796 0.000000
    50 -0.087093 -2.917876 -0.217384 0.000000 0.000000 0.000000
  time 3
    0 -0.019043 4.541981 30.546979 0.000000 0.000000 -1.570836
    1 0.539079 0.000000 0.000000 -1.570795 -1.570796 0.000000
    2 -0.000009 0.000010 6.353378 -0.042743 -0.054264 -2.326123
    3 18.507666 0.000000 0.000000 0.000000 0.000000 -1.658999
    4 13.411352 -0.000002 0.000000 3.052912 0.068311 0.844342
    5 8.701365 6.675650 0.000000 0.000000 0.000000 1.527185
    6 6.262099 -1.461580 3.610131 -1.570796 1.492295 1.570796
    7 0.000009 -0.000007 -6.353378 0.042747 0.054264 -2.326123
    8 18.507668 0.000002 0.000000 0.000000 0.000000 -1.658999
    9 13.411351 -0.000001 0.000000 -3.052911 -0.068311 0.844342
    10 6.262099 -1.470858 -4.185178 1.570795 1.492297 -1.570797
    11 6.280028 -0.742184 5.288615 1.570795 1.492297 -1.570797
    12 3.416504 -0.970599 0.000006 -0.000005 0.000000 0.611352
    13 6.150890 -0.004767 0.000000 0.000000 -0.000001 0.158280
    14 6.181768 -0.006276 0.000000 0.000000 -0.000001 0.133049
    15 8.035378 -0.006650 0.000000 0.000000 -0.000001 0.310620
    16 9.041867 -0.002309 0.000000 0.000000 -0.000002 0.553333
    17 -5.018904 6.569210 3.525343 -0.000012 -1.370798 2.587475
    18 8.356073 -0.000002 0.000000 -1.253953 0.345453 -0.831886
    19 22.314196 0.000000 0.000002 0.000000 0.000000 -1.649420
    20 13.466397 -0.000001 -0.000001 -0.357579 -0.061315 -0.369455
    21 6.645414 -0.843864 -1.119306 0.002213 0.139545 0.017460
    22 3.530614 0.000000 -0.000001 0.000000 0.000000 -0.008722
    23 3.530614 -0.000001 0.000000 0.000000 0.000000 0.654167
    24 6.690087 -0.762451 1.047432 -0.001003 -0.183167 0.000183
    25 3.608304 0.000001 0.000000 0.000000 0.000000 -0.008722
    26 3.608304 0.000000 0.000001 0.000000 0.000000 0.654167
    27 -4.808103 6.472240 -3.100415 -0.000011 1.362073 2.587452
    28 8.356073 0.000003 0.000000 1.253137 -0.253024 -0.823298
    29 22.314196 0.000001 0.000001 0.000000 0.000000 -1.595509
    30 13.466398 -0.000001 -0.000002 0.358256 0.085814 -0.360240
    31 6.635592 -0.843576 1.110600 -0.002229 -0.183156 0.017559
    32 3.530615 0.000000 0.000001 0.000000 0.000000 -0.008722
    33 3.530611 0.000001 -0.000003 0.000000 0.000000 0.654167
    34 6.681007 -0.762752 -1.054662 0.001003 0.183167 0.000183
    35 3.608305 -0.000001 0.000000 0.000000 0.000000 -0.008722
    36 3.608305 -0.000001 0.000000 0.000000 0.000000 0.654167
    37 3.408091 -0.002199 0.000000 -0.000028 -0.034890 0.070007
    38 2.848662 0.000000 0.000000 -0.012229 0.032668 -0.358974
    39 5.067991 7.235520 0.022323 -0.000003 0.000000 -2.626981
    40 -0.604384 -2.957996 0.000000 0.000000 0.000000 0.000000
    41 0.107995 -6.585735 0.000000 0.000000 0.000000 0.000000
    42 -3.080979 -5.452278 0.000000 0.000000 0.000000 0.000000
    43 -3.048778 -2.270235 0.000000 0.000000 0.000000 0.000000
    44 -1.890806 -0.908390 0.000000 0.000000 0.000000 0.000000
    45 -0.454460 -0.402742 -1.764821 0.000000 -1.570796 0.000000
    46 -0.928989 -2.456182 2.268051 0.000000 0.000000 0.000000
    47 -0.447595 -0.389067 1.486638 0.000000 -1.570796 0.000000
    48 1.132205 -2.455431 2.290455 0.000000 0.000000 0.000000
    49 0.424462 -1.191061 -0.110061 0.000000 -1.570796 0.000000
    50 -0.087093 -2.917876 -0.217384 0.000000 0.000000 0.000000
  time 4
    0 -0.019043 4.541981 31.800924 0.000000 0.000000 -1.570836
    1 0.851588 0.000000 0.000000 -1.570795 -1.570796 0.000000
    2 -0.000009 0.000010 6.353378 -0.038592 -0.053729 -2.373709
    3 18.507666 0.000000 0.000000 0.000000 0.000000 -1.546279
    4 13.411352 -0.000002 0.000000 3.059426 0.072710 0.865339
    5 8.701365 6.675650 0.000000 0.000000 0.000000 1.527185
    6 6.262099 -1.461580 3.610131 -1.570796 1.492295 1.570796
    7 0.000009 -0.000007 -6.353378 0.035326 0.059276 -2.456263
    8 18.507668 0.000002 0.000000 0.000000 0.000000 -1.602917
    9 13.411351 -0.000001 0.000000 -3.053486 -0.068981 0.926667
    10 6.262099 -1.470858 -4.185178 1.570795 1.492297 -1.570797
    11 6.280028 -0.742184 5.288615 1.570795 1.492297 -1.570797
    12 3.416504 -0.970599 0.000006 -0.000005 0.000000 0.611352
    13 6.150890 -0.004767 0.000000 0.000000 -0.000001 0.112946
    14 6.181768 -0.006276 0.000000 0.000000 -0.000001 0.104872
    15 8.035378 -0.006650 0.000000 0.000000 -0.000001 0.271432
    16 9.041867 -0.002309 0.000000 0.000000 -0.000002 0.553333
    17 -5.018904 6.569210 3.525343 -0.000012 -1.370798 2.587475
    18 8.356073 -0.000002 0.000000 -1.170546 0.246802 -0.715565
    19 22.314196 0.000000 0.000002 0.000000 0.000000 -1.811789
    20 13.466397 -0.000001 -0.000001 -0.357579 -0.061315 -0.369455
    21 6.645414 -0.843864 -1.119306 0.002213 0.139545 0.017460
    22 3.530614 0.000000 -0.000001 0.000000 0.000000 -0.008722
    23 3.530614 -0.000001 0.000000 0.000000 0.000000 0.654167
    24 6.690087 -0.762451 1.047432 -0.001003 -0.183167 0.000183
    25 3.608304 0.000001 0.000000 0.000000 0.000000 -0.008722
    26 3.608304 0.000000 0.000001 0.000000 0.000000 0.654167
    27 -4.808103 6.472240 -3.100415 -0.000011 1.362073 2.587452
    28 8.356073 0.000003 0.000000 1.186776 -0.117126 -0.716173
    29 22.314196 0.000001 0.000001 0.000000 0.000000 -1.738081
    30 13.466398 -0.000001 -0.000002 0.358256 0.085814 -0.360240
    31 6.635592 -0.843576 1.110600 -0.002229 -0.183156 0.017559
    32 3.530615 0.000000 0.000001 0.000000 0.000000 -0.008722
    33 3.530611 0.000001 -0.000003 0.000000 0.000000 0.654167
    34 6.681007 -0.762752 -1.054662 0.001003 0.183167 0.000183
    35 3.608305 -0.000001 0.000000 0.000000 0.000000 -0.008722
    36 3.608305 -0.000001 0.000000 0.000000 0.000000 0.654167
    37 3.408091 -0.002199 0.000000 -0.000028 -0.034890 -0.019422
    38 2.848662 0.000000 0.000000 -0.010063 0.033412 -0.292742
    39 5.067991 7.235520 0.022323 -0.000003 0.000000 -2.626981
    40 -0.604384 -2.957996 0.000000 0.000000 0.000000 0.000000
    41 0.107995 -6.585735 0.000000 0.000000 0.000000 0.000000
    42 -3.080979 -5.452278 0.000000 0.000000 0.000000 0.000000
    43 -3.048778 -2.270235 0.000000 0.000000 0.000000 0.000000
    44 -1.890806 -0.908390 0.000000 0.000000 0.000000 0.000000
    45 -0.454460 -0.402742 -1.764821 0.000000 -1.570796 0.000000
    46 -0.928989 -2.456182 2.268051 0.000000 0.000000 0.000000
    47 -0.447595 -0.389067 1.486638 0.000000 -1.570796 0.000000
    48 1.132205 -2.455431 2.290455 0.000000 0.000000 0.000000
    49 0.424462 -1.191061 -0.110061 0.000000 -1.570796 0.000000
    50 -0.087093 -2.917876 -0.217384 0.000000 0.000000 0.000000
  time 5
    0 -0.019043 4.541981 33.383003 0.000000 0.000000 -1.570836
    1 1.234413 0.000000 0.000000 -1.570795 -1.570796 0.000000
    2 -0.000009 0.000010 6.353378 -0.034235 -0.052938 -2.423707
    3 18.507666 0.000000 0.000000 0.000000 0.000000 -1.427997
    4 13.411352 -0.000002 0.000000 3.066324 0.076726 0.887515
    5 8.701365 6.675650 0.000000 0.000000 0.000000 1.527185
    6 6.262099 -1.461580 3.610131 -1.570796 1.492295 1.570796
    7 0.000009 -0.000007 -6.353378 0.026884 0.063489 -2.592868
    8 18.507668 0.000002 0.000000 0.000000 0.000000 -1.544054
    9 13.411351 -0.000001 0.000000 -3.054061 -0.069652 1.013023
    10 6.262099 -1.470858 -4.185178 1.570795 1.492297 -1.570797
    11 6.280028 -0.742184 5.288615 1.570795 1.492297 -1.570797
    12 3.416504 -0.970599 0.000006 -0.000005 0.000000 0.611352
    13 6.150890 -0.004767 0.000000 0.000000 -0.000001 0.063278
    14 6.181768 -0.006276 0.000000 0.000000 -0.000001 0.073997
    15 8.035378 -0.006650 0.000000 0.000000 -0.000001 0.228477
    16 9.041867 -0.002309 0.000000 0.000000 -0.000002 0.553333
    17 -5.018904 6.569210 3.525343 -0.000012 -1.370798 2.587475
    18 8.356073 -0.000002 0.000000 -1.084384 0.123290 -0.615626
    19 22.314196 0.000000 0.000002 0.000000 0.000000 -1.989652
    20 13.466397 -0.000001 -0.000001 -0.357579 -0.061315 -0.369455
    21 6.645414 -0.843864 -1.119306 0.002213 0.139545 0.017460
    22 3.530614 0.000000 -0.000001 0.000000 0.000000 -0.008722
    23 3.530614 -0.000001 0.000000 0.000000 0.000000 0.654167
    24 6.690087 -0.762451 1.047432 -0.001003 -0.183167 0.000183
    25 3.608304 0.000001 0.000000 0.000000 0.000000 -0.008722
    26 3.608304 0.000000 0.000001 0.000000 0.000000 0.654167
    27 -4.808103 6.472240 -3.100415 -0.000011 1.362073 2.587452
    28 8.356073 0.000003 0.000000 1.119562 0.045018 -0.628630
    29 22.314196 0.000001 0.000001 0.000000 0.000000 -1.894274
    30 13.466398 -0.000001 -0.000002 0.358256 0.085814 -0.360240
    31 6.635592 -0.843576 1.110600 -0.002229 -0.183156 0.017559
    32 3.530615 0.000000 0.000001 0.000000 0.000000 -0.008722
    33 3.530611 0.000001 -0.000003 0.000000 0.000000 0.654167
    34 6.681007 -0.762752 -1.054662 0.001003 0.183167 0.000183
    35 3.608305 -0.000001 0.000000 0.000000 0.000000 -0.008722
    36 3.608305 -0.000001 0.000000 0.000000 0.000000 0.654167
    37 3.408091 -0.002199 0.000000 -0.000028 -0.034890 -0.117418
    38 2.848662 0.000000 0.000000 -0.007616 0.034050 -0.220215
    39 5.067991 7.235520 0.022323 -0.000003 0.000000 -2.626981
    40 -0.604384 -2.957996 0.000000 0.000000 0.000000 0.000000
    41 0.107995 -6.585735 0.000000 0.000000 0.000000 0.000000
    42 -3.080979 -5.452278 0.000000 0.000000 0.000000 0.000000
    43 -3.048778 -2.270235 0.000000 0.000000 0.000000 0.000000
    44 -1.890806 -0.908390 0.000000 0.000000 0.000000 0.000000
    45 -0.454460 -0.402742 -1.764821 0.000000 -1.570796 0.000000
    46 -0.928989 -2.456182 2.268051 0.000000 0.000000 0.000000
    47 -0.447595 -0.389067 1.486638 0.000000 -1.570796 0.000000
    48 1.132205 -2.455431 2.290455 0.000000 0.000000 0.000000
    49 0.424462 -1.191061 -0.110061 0.000000 -1.570796 0.000000
    50 -0.087093 -2.917876 -0.217384 0.000000 0.000000 0.000000
  time 6
    0 -0.019043 4.541981 34.933832 0.000000 0.000000 -1.570836
    1 1.679739 0.000000 0.000000 -1.570795 -1.570796 0.000000
    2 -0.000009 0.000010 6.353378 -0.030754 -0.052146 -2.464245
    3 18.507666 0.000000 0.000000 0.000000 0.000000 -1.332016
    4 13.411352 -0.000002 0.000000 3.071880 0.079594 0.905492
    5 8.701365 6.675650 0.000000 0.000000 0.000000 1.527185
    6 6.262099 -1.461580 3.610131 -1.570796 1.492295 1.570796
    7 0.000009 -0.000007 -6.353378 0.019702 0.066007 -2.703732
    8 18.507668 0.000002 0.000000 0.000000 0.000000 -1.496316
    9 13.411351 -0.000001 0.000000 -3.054540 -0.070226 1.083105
    10 6.262099 -1.470858 -4.185178 1.570795 1.492297 -1.570797
    11 6.280028 -0.742184 5.288615 1.570795 1.492297 -1.570797
    12 3.416504 -0.970599 0.000006 -0.000005 0.000000 0.611352
    13 6.150890 -0.004767 0.000000 0.000000 -0.000001 0.010453
    14 6.181768 -0.006276 0.000000 0.000000 -0.000001 0.041169
    15 8.035378 -0.006650 0.000000 0.000000 -0.000001 0.182783
    16 9.041867 -0.002309 0.000000 0.000000 -0.000002 0.553333
    17 -5.018904 6.569210 3.525343 -0.000012 -1.370798 2.587475
    18 8.356073 -0.000002 0.000000 -0.997027 -0.021558 -0.542297
    19 22.314196 0.000000 0.000002 0.000000 0.000000 -2.178816
    20 13.466397 -0.000001 -0.000001 -0.357579 -0.061315 -0.369455
    21 6.645414 -0.843864 -1.119306 0.002213 0.139545 0.017460
    22 3.530614 0.000000 -0.000001 0.000000 0.000000 -0.008722
    23 3.530614 -0.000001 0.000000 0.000000 0.000000 0.654167
    24 6.690087 -0.762451 1.047432 -0.001003 -0.183167 0.000183
    25 3.608304 0.000001 0.000000 0.000000 0.000000 -0.008722
    26 3.608304 0.000000 0.000001 0.000000 0.000000 0.654167
    27 -4.808103 6.472240 -3.100415 -0.000011 1.362073 2.587452
    28 8.356073 0.000003 0.000000 1.049879 0.228634 -0.570789
    29 22.314196 0.000001 0.000001 0.000000 0.000000 -2.060367
    30 13.466398 -0.000001 -0.000002 0.358256 0.085814 -0.360240
    31 6.635592 -0.843576 1.110600 -0.002229 -0.183156 0.017559
    32 3.530615 0.000000 0.000001 0.000000 0.000000 -0.008722
    33 3.530611 0.000001 -0.000003 0.000000 0.000000 0.654167
    34 6.681007 -0.762752 -1.054662 0.001003 0.183167 0.000183
    35 3.608305 -0.000001 0.000000 0.000000 0.000000 -0.008722
    36 3.608305 -0.000001 0.000000 0.000000 0.000000 0.654167
    37 3.408091 -0.002199 0.000000 -0.000028 -0.034890 -0.221636
    38 2.848662 0.000000 0.000000 -0.004966 0.034511 -0.143095
    39 5.067991 7.235520 0.022323 -0.000003 0.000000 -2.626981
    40 -0.604384 -2.957996 0.000000 0.000000 0.000000 0.000000
    41 0.107995 -6.585735 0.000000 0.000000 0.000000 0.000000
    42 -3.080979 -5.452278 0.000000 0.000000 0.000000 0.000000
    43 -3.048778 -2.270235 0.000000 0.000000 0.000000 0.000000
    44 -1.890806 -0.908390 0.000000 0.000000 0.000000 0.000000
    45 -0.454460 -0.402742 -1.764821 0.000000 -1.570796 0.000000
    46 -0.928989 -2.456182 2.268051 0.000000 0.000000 0.000000
    47 -0.447595 -0.389067 1.486638 0.000000 -1.570796 0.000000
    48 1.132205 -2.455431 2.290455 0.000000 0.000000 0.000000
    49 0.424462 -1.191061 -0.110061 0.000000 -1.570796 0.000000
    50 -0.087093 -2.917876 -0.217384 0.000000 0.000000 0.000000
  time 7
    0 -0.019043 4.541981 36.281529 0.000000 0.000000 -1.570836
    1 2.113346 0.000000 0.000000 -1.570795 -1.570796 0.000000
    2 -0.000009 0.000010 6.353378 -0.027944 -0.051376 -2.497309
    3 18.507666 0.000000 0.000000 0.000000 0.000000 -1.253633
    4 13.411352 -0.000002 0.000000 3.076287 0.081603 0.920227
    5 8.701365 6.675650 0.000000 0.000000 0.000000 1.527185
    6 6.262099 -1.461580 3.610131 -1.570796 1.492295 1.570796
    7 0.000009 -0.000007 -6.353378 0.013608 0.067484 -2.794282
    8 18.507668 0.000002 0.000000 0.000000 0.000000 -1.457327
    9 13.411351 -0.000001 0.000000 -3.054924 -0.070705 1.140359
    10 6.262099 -1.470858 -4.185178 1.570795 1.492297 -1.570797
    11 6.280028 -0.742184 5.288615 1.570795 1.492297 -1.570797
    12 3.416504 -0.970599 0.000006 -0.000005 0.000000 0.611352
    13 6.150890 -0.004767 0.000000 0.000000 -0.000001 -0.036825
    14 6.181768 -0.006276 0.000000 0.000000 -0.000001 0.011760
    15 8.035378 -0.006650 0.000000 0.000000 -0.000001 0.141887
    16 9.041867 -0.002309 0.000000 0.000000 -0.000002 0.553333
    17 -5.018904 6.569210 3.525343 -0.000012 -1.370798 2.587475
    18 8.356073 -0.000002 0.000000 -0.919224 -0.159000 -0.506673
    19 22.314196 0.000000 0.000002 0.000000 0.000000 -2.348173
    20 13.466397 -0.000001 -0.000001 -0.357579 -0.061315 -0.369455
    21 6.645414 -0.843864 -1.119306 0.002213 0.139545 0.017460
    22 3.530614 0.000000 -0.000001 0.000000 0.000000 -0.008722
    23 3.530614 -0.000001 0.000000 0.000000 0.000000 0.654167
    24 6.690087 -0.762451 1.047432 -0.001003 -0.183167 0.000183
    25 3.608304 0.000001 0.000000 0.000000 0.000000 -0.008722
    26 3.608304 0.000000 0.000001 0.000000 0.000000 0.654167
    27 -4.808103 6.472240 -3.100415 -0.000011 1.362073 2.587452
    28 8.356073 0.000003 0.000000 0.983518 0.398889 -0.552276
    29 22.314196 0.000001 0.000001 0.000000 0.000000 -2.209114
    30 13.466398 -0.000001 -0.000002 0.358256 0.085814 -0.360240
    31 6.635592 -0.843576 1.110600 -0.002229 -0.183156 0.017559
    32 3.530615 0.000000 0.000001 0.000000 0.000000 -0.008722
    33 3.530611 0.000001 -0.000003 0.000000 0.000000 0.654167
    34 6.681007 -0.762752 -1.054662 0.001003 0.183167 0.000183
    35 3.608305 -0.000001 0.000000 0.000000 0.000000 -0.008722
    36 3.608305 -0.000001 0.000000 0.000000 0.000000 0.654167
    37 3.408091 -0.002199 0.000000 -0.000028 -0.034890 -0.314945
    38 2.848662 0.000000 0.000000 -0.002570 0.034795 -0.074024
    39 5.067991 7.235520 0.022323 -0.000003 0.000000 -2.626981
    40 -0.604384 -2.957996 0.000000 0.000000 0.000000 0.000000
    41 0.107995 -6.585735 0.000000 0.000000 0.000000 0.000000
    42 -3.080979 -5.452278 0.000000 0.000000 0.000000 0.000000
    43 -3.048778 -2.270235 0.000000 0.000000 0.000000 0.000000
    44 -1.890806 -0.908390 0.000000 0.000000 0.000000 0.000000
    45 -0.454460 -0.402742 -1.764821 0.000000 -1.570796 0.000000
    46 -0.928989 -2.456182 2.268051 0.000000 0.000000 0.000000
    47 -0.447595 -0.389067 1.486638 0.000000 -1.570796 0.000000
    48 1.132205 -2.455431 2.290455 0.000000 0.000000 0.000000
    49 0.424462 -1.191061 -0.110061 0.000000 -1.570796 0.000000
    50 -0.087093 -2.917876 -0.217384 0.000000 0.000000 0.000000
  time 8
    0 -0.019043 4.541981 37.242496 0.000000 0.000000 -1.570836
    1 2.433668 0.000000 0.000000 -1.570795 -1.570796 0.000000
    2 -0.000009 0.000010 6.353378 -0.025727 -0.050735 -2.523231
    3 18.507666 0.000000 0.000000 0.000000 0.000000 -1.192241
    4 13.411352 -0.000002 0.000000 3.079736 0.083037 0.931794
    5 8.701365 6.675650 0.000000 0.000000 0.000000 1.527185
    6 6.262099 -1.461580 3.610131 -1.570796 1.492295 1.570796
    7 0.000009 -0.000007 -6.353378 0.008775 0.068259 -2.865268
    8 18.507668 0.000002 0.000000 0.000000 0.000000 -1.426783
    9 13.411351 -0.000001 0.000000 -3.055307 -0.071088 1.185223
    10 6.262099 -1.470858 -4.185178 1.570795 1.492297 -1.570797
    11 6.280028 -0.742184 5.288615 1.570795 1.492297 -1.570797
    12 3.416504 -0.970599 0.000006 -0.000005 0.000000 0.611352
    13 6.150890 -0.004767 0.000000 0.000000 -0.000001 -0.069765
    14 6.181768 -0.006276 0.000000 0.000000 -0.000001 -0.008710
    15 8.035378 -0.006650 0.000000 0.000000 -0.000001 0.113411
    16 9.041867 -0.002309 0.000000 0.000000 -0.000002 0.553333
    17 -5.018904 6.569210 3.525343 -0.000012 -1.370798 2.587475
    18 8.356073 -0.000002 0.000000 -0.862823 -0.256769 -0.499392
    19 22.314196 0.000000 0.000002 0.000000 0.000000 -2.466136
    20 13.466397 -0.000001 -0.000001 -0.357579 -0.061315 -0.369455
    21 6.645414 -0.843864 -1.119306 0.002213 0.139545 0.017460
    22 3.530614 0.000000 -0.000001 0.000000 0.000000 -0.008722
    23 3.530614 -0.000001 0.000000 0.000000 0.000000 0.654167
    24 6.690087 -0.762451 1.047432 -0.001003 -0.183167 0.000183
    25 3.608304 0.000001 0.000000 0.000000 0.000000 -0.008722
    26 3.608304 0.000000 0.000001 0.000000 0.000000 0.654167
    27 -4.808103 6.472240 -3.100415 -0.000011 1.362073 2.587452
    28 8.356073 0.000003 0.000000 0.931019 0.518564 -0.560586
    29 22.314196 0.000001 0.000001 0.000000 0.000000 -2.312683
    30 13.466398 -0.000001 -0.000002 0.358256 0.085814 -0.360240
    31 6.635592 -0.843576 1.110600 -0.002229 -0.183156 0.017559
    32 3.530615 0.000000 0.000001 0.000000 0.000000 -0.008722
    33 3.530611 0.000001 -0.000003 0.000000 0.000000 0.654167
    34 6.681007 -0.762752 -1.054662 0.001003 0.183167 0.000183
    35 3.608305 -0.000001 0.000000 0.000000 0.000000 -0.008722
    36 3.608305 -0.000001 0.000000 0.000000 0.000000 0.654167
    37 3.408091 -0.002199 0.000000 -0.000028 -0.034890 -0.379943
    38 2.848662 0.000000 0.000000 -0.000888 0.034866 -0.025925
    39 5.067991 7.235520 0.022323 -0.000003 0.000000 -2.626981
    40 -0.604384 -2.957996 0.000000 0.000000 0.000000 0.000000
    41 0.107995 -6.585735 0.000000 0.000000 0.000000 0.000000
    42 -3.080979 -5.452278 0.000000 0.000000 0.000000 0.000000
    43 -3.048778 -2.270235 0.000000 0.000000 0.000000 0.000000
    44 -1.890806 -0.908390 0.000000 0.000000 0.000000 0.000000
    45 -0.454460 -0.402742 -1.764821 0.000000 -1.570796 0.000000
    46 -0.928989 -2.456182 2.268051 0.000000 0.000000 0.000000
    47 -0.447595 -0.389067 1.486638 0.000000 -1.570796 0.000000
    48 1.132205 -2.455431 2.290455 0.000000 0.000000 0.000000
    49 0.424462 -1.191061 -0.110061 0.000000 -1.570796 0.000000
    50 -0.087093 -2.917876 -0.217384 0.000000 0.000000 0.000000
end
