version 1
nodes
  0 "Bip01" -1
  1 "Bip01 Pelvis" 0
  2 "Bip01 L Leg" 1
  3 "Bip01 L Leg1" 2
  4 "Bip01 L Foot" 3
  5 "Bip01 L Toe0" 4
  6 "Bone13" 4
  7 "Bip01 R Leg" 1
  8 "Bip01 R Leg1" 7
  9 "Bip01 R Foot" 8
  10 "Bone19" 9
  11 "Bone16" 9
  12 "Bip01 Spine" 1
  13 "Bip01 Spine1" 12
  14 "Bip01 Spine2" 13
  15 "Bip01 Spine3" 14
  16 "Bip01 Neck" 15
  17 "Bip01 L Arm" 16
  18 "Bip01 L Arm1" 17
  19 "Bip01 L Arm2" 18
  20 "Bip01 L Hand" 19
  21 "Bip01 L Finger0" 20
  22 "Bip01 L Finger01" 21
  23 "Bip01 L Finger02" 22
  24 "Bip01 L Finger1" 20
  25 "Bip01 L Finger11" 24
  26 "Bip01 L Finger12" 25
  27 "Bip01 R Arm" 16
  28 "Bip01 R Arm1" 27
  29 "Bip01 R Arm2" 28
  30 "Bip01 R Hand" 29
  31 "Bip01 R Finger0" 30
  32 "Bip01 R Finger01" 31
  33 "Bip01 R Finger02" 32
  34 "Bip01 R Finger1" 30
  35 "Bip01 R Finger11" 34
  36 "Bip01 R Finger12" 35
  37 "Bip01 Neck1" 16
  38 "Bip01 Head" 37
  39 "Dummy04" 14
  40 "Bone05" 39
  41 "Bone06" 40
  42 "Bone07" 41
  43 "Bone08" 42
  44 "Bone09" 43
  45 "Bone22" 44
  46 "Bone23" 45
  47 "Bone26" 44
  48 "Bone27" 47
  49 "Bone30" 43
  50 "Bone31" 49
end
skeleton
  time 0
    0 -0.019043 -0.040190 35.152588 0.000000 -0.244194 -1.570836
    1 0.000000 0.000000 0.000000 0.000008 -1.562083 -1.570763
    2 -0.000009 0.000010 6.353378 -0.040784 -0.034200 -2.090038
    3 18.507666 0.000000 0.000000 0.000000 0.000000 -0.798000
    4 13.411352 -0.000002 0.000000 2.895801 0.048804 0.011006
    5 8.701365 6.675650 0.000000 0.000000 0.000000 1.614392
    6 6.262099 -1.461580 3.610131 1.570796 1.649286 -1.570796
    7 0.000009 -0.000007 -6.353378 -0.001608 -0.018715 -3.083939
    8 18.507668 0.000002 0.000000 0.000000 0.000000 -0.773423
    9 13.411351 -0.000001 0.000000 -2.934551 0.031943 0.934804
    10 6.262099 -1.470858 -4.185178 1.570795 1.492297 -1.570797
    11 6.280028 -0.742184 5.288615 1.570795 1.492297 -1.570797
    12 3.416504 -0.970599 0.027351 0.148125 -0.148696 0.740751
    13 6.150890 -0.004767 0.000000 0.000000 -0.000001 0.305269
    14 6.181768 -0.006276 0.000000 0.016479 -0.005682 0.331376
    15 8.035378 -0.006650 0.000000 -0.045760 0.025382 0.505288
    16 9.041867 -0.002309 0.000000 0.000000 -0.000002 0.553333
    17 -5.018904 6.569210 3.525343 -0.000012 -1.370798 2.587475
    18 8.356073 -0.000002 0.000000 -1.093478 0.501585 -0.963115
    19 22.314196 0.000000 0.000002 0.000000 0.000000 -2.190916
    20 13.466397 -0.000001 -0.000001 -0.601406 -0.123836 -0.277155
    21 6.645414 -0.843864 -1.119306 -0.045898 0.131846 -0.334599
    22 3.530614 0.000000 -0.000001 0.000000 0.000000 -0.357609
    23 3.530614 -0.000001 0.000000 0.000000 0.000000 0.828590
    24 6.690087 -0.762451 1.047432 0.062290 -0.172366 -0.354159
    25 3.608304 0.000001 0.000000 0.000000 0.000000 -0.357609
    26 3.608304 0.000000 0.000001 0.000000 0.000000 0.828590
    27 -4.808103 6.472240 -3.100415 -3.141493 1.264940 -0.554122
    28 8.356073 0.000003 0.000000 1.619495 0.129573 -1.023643
    29 22.314196 0.000001 0.000001 0.000000 0.000000 -1.313179
    30 13.466398 -0.000001 -0.000002 1.012313 -0.226548 0.603989
    31 6.635592 -0.843576 1.110600 0.070167 -0.169348 -0.389802
    32 3.530615 0.000000 0.000001 0.000000 0.000000 0.113358
    33 3.530611 0.000001 -0.000003 0.000000 0.000000 0.366368
    34 6.681007 -0.762752 -1.054662 0.013910 0.182656 0.071133
    35 3.608305 -0.000001 0.000000 0.000000 0.000000 0.113359
    36 3.608305 -0.000001 0.000000 0.000000 0.000000 0.776267
    37 3.408091 -0.002199 0.000000 -0.000028 -0.034890 0.256778
    38 2.848662 0.000000 0.000000 0.047764 0.218128 -0.936116
    39 5.067991 7.235520 0.022323 -0.000003 0.000000 -2.626981
    40 -0.604384 -2.957996 0.000000 0.182703 -0.425340 0.176026
    41 0.107995 -6.585735 0.000000 0.000000 0.000000 0.244172
    42 -3.080979 -5.452278 0.000000 0.000000 0.000000 0.191888
    43 -3.048778 -2.270235 0.000000 0.000000 0.000000 0.000000
    44 -1.890806 -0.908390 0.000000 0.000000 0.000000 -0.220941
    45 -0.454460 -0.402742 -1.764821 0.000000 -1.570796 0.000000
    46 -0.928989 -2.456182 2.268051 0.000000 0.000000 0.000000
    47 -0.447595 -0.389067 1.486638 0.000000 -1.570796 0.000000
    48 1.132205 -2.455431 2.290455 0.000000 0.000000 0.000000
    49 0.424462 -1.191061 -0.110061 0.000000 -1.570796 0.000000
    50 -0.087093 -2.917876 -0.217384 0.000000 0.000000 0.000000
  time 1
    0 0.445815 -0.126130 33.007992 0.018981 -0.123595 -1.576635
    1 0.000000 0.000000 0.000000 0.000008 -1.562083 -1.570811
    2 -0.000009 0.000010 6.353378 0.197212 -0.105216 -2.081051
    3 18.507666 0.000000 0.000000 0.000000 0.000000 -1.050899
    4 13.411352 -0.000002 0.000000 2.684277 -0.078470 0.129623
    5 8.701365 6.675650 0.000000 0.000000 0.000000 1.614392
    6 6.262099 -1.461580 3.610131 1.570796 1.649286 -1.570796
    7 0.000009 -0.000007 -6.353378 -0.156118 0.084410 -3.131897
    8 18.507668 0.000002 0.000000 0.000000 0.000000 -1.064098
    9 13.411351 -0.000001 0.000000 -2.795777 -0.064577 1.143658
    10 6.262099 -1.470858 -4.185178 1.570795 1.492297 -1.570797
    11 6.280028 -0.742184 5.288615 1.570795 1.492297 -1.570797
    12 3.416504 -0.970599 0.027351 0.127080 -0.158612 0.750686
    13 6.150890 -0.004767 0.000000 0.000000 0.011492 0.207253
    14 6.181768 -0.006276 0.000000 0.015975 0.009539 0.413467
    15 8.035378 -0.006650 0.000000 -0.041502 0.040675 0.653518
    16 9.041867 -0.002309 0.000000 -0.000207 -0.261750 0.626602
    17 -3.460263 6.916877 4.576156 1.702891 -1.479454 0.813699
    18 8.356073 -0.000002 0.000000 -1.231264 0.212420 -1.153197
    19 22.314196 0.000000 0.000002 0.000000 0.000000 -2.139601
    20 13.466397 -0.000001 -0.000001 -0.523313 0.254288 0.357990
    21 6.645414 -0.843864 -1.119306 0.053011 0.129158 0.392564
    22 3.530614 0.000000 -0.000001 0.000000 0.000000 0.363104
    23 3.530614 -0.000001 0.000000 0.000000 0.000000 1.549311
    24 6.690087 -0.762451 1.047432 -0.067719 -0.170315 0.375394
    25 3.608304 0.000001 0.000000 0.000000 0.000000 0.360803
    26 3.608304 0.000000 0.000001 0.000000 0.000000 1.547031
    27 -4.976077 6.804281 -1.877721 -1.162092 1.794400 1.389324
    28 8.356073 0.000003 0.000000 1.724969 0.273202 -0.952967
    29 22.314196 0.000001 0.000001 0.000000 0.000000 -1.370435
    30 13.466398 -0.000001 -0.000002 0.918618 -0.341538 0.661234
    31 6.635592 -0.843576 1.110600 0.015137 -0.182552 -0.077895
    32 3.530615 0.000000 0.000001 0.000000 0.000000 0.420700
    33 3.530611 0.000001 -0.000003 0.000000 0.000000 0.673643
    34 6.681007 -0.762752 -1.054662 0.061132 0.172781 0.336706
    35 3.608305 -0.000001 0.000000 0.000000 0.000000 0.374931
    36 3.608305 -0.000001 0.000000 0.000000 0.000000 1.037838
    37 3.408091 -0.002199 0.000000 -0.000285 -0.359061 0.146144
    38 2.848662 0.000000 0.000000 -0.756519 -0.215143 -0.415215
    39 5.067991 7.235520 0.022323 -0.000003 0.000000 -2.626981
    40 -0.604384 -2.957996 0.000000 0.150877 -0.477391 0.301474
    41 0.107995 -6.585735 0.000000 -0.002447 0.000826 -0.288050
    42 -3.080979 -5.452278 0.000000 0.026244 -0.006669 -0.136044
    43 -3.048778 -2.270235 0.000000 0.016659 0.000000 0.000000
    44 -1.890806 -0.908390 0.000000 0.000000 0.000000 -0.441883
    45 -0.454460 -0.402742 -1.764821 -1.426812 -1.574714 1.526427
    46 -0.928989 -2.456182 2.268051 -0.179059 0.000899 0.006062
    47 -0.447595 -0.389067 1.486638 -0.057227 -1.566915 0.165573
    48 1.132205 -2.455431 2.290455 -0.179065 0.000895 0.006063
    49 0.424462 -1.191061 -0.110061 -1.358654 -1.566913 0.907495
    50 -0.087093 -2.917876 -0.217384 0.039947 0.000000 0.000000
  time 2
    0 1.648976 -0.368325 29.871177 0.055134 0.053734 -1.583208
    1 0.000000 0.000000 0.000000 0.000008 -1.562083 -1.570763
    2 -0.000009 0.000010 6.353378 -0.128211 0.153435 -2.080152
    3 18.507666 0.000000 0.000000 0.000000 0.000000 -1.321447
    4 13.411352 -0.000002 0.000000 3.069773 0.094798 0.230336
    5 8.701365 6.675650 0.000000 0.000000 0.000000 1.614392
    6 6.262099 -1.461580 3.610131 1.570796 1.649286 -1.570796
    7 0.000009 -0.000007 -6.353378 0.261968 -0.069442 -3.266885
    8 18.507668 0.000002 0.000000 0.000000 0.000000 -1.389614
    9 13.411351 -0.000001 0.000000 -3.219765 0.145124 1.398329
    10 6.262099 -1.470858 -4.185178 1.570795 1.492297 -1.570797
    11 6.280028 -0.742184 5.288615 1.570795 1.492297 -1.570797
    12 3.416504 -0.970599 0.027351 0.090802 -0.175156 0.769959
    13 6.150890 -0.004767 0.000000 0.000024 0.030967 0.069163
    14 6.181768 -0.006276 0.000000 0.016719 0.039704 0.296785
    15 8.035378 -0.006650 0.000000 -0.046808 0.046943 0.462157
    16 9.041867 -0.002309 0.000000 0.000000 0.012355 0.300601
    17 -6.542388 5.108228 3.447216 -0.717720 -1.292480 3.540700
    18 8.356073 -0.000002 0.000000 -1.122321 0.274132 -1.266224
    19 22.314196 0.000000 0.000002 0.000000 0.000000 -2.047196
    20 13.466397 -0.000001 -0.000001 -0.491253 -0.091214 -0.166459
    21 6.645414 -0.843864 -1.119306 -0.036393 0.134772 -0.263225
    22 3.530614 0.000000 -0.000001 0.000000 0.000000 -0.286804
    23 3.530614 -0.000001 0.000000 0.000000 0.000000 0.899392
    24 6.690087 -0.762451 1.047432 0.050994 -0.176008 -0.288970
    25 3.608304 0.000001 0.000000 0.000000 0.000000 -0.293272
    26 3.608304 0.000000 0.000001 0.000000 0.000000 0.892924
    27 -6.233928 5.065947 -3.174636 2.752225 1.229182 5.611389
    28 8.356073 0.000003 0.000000 1.495793 0.004363 -1.080332
    29 22.314196 0.000001 0.000001 0.000000 0.000000 -1.452664
    30 13.466398 -0.000001 -0.000002 0.811972 -0.399811 0.656067
    31 6.635592 -0.843576 1.110600 -0.040268 -0.178755 0.228199
    32 3.530615 0.000000 0.000001 0.000000 0.000000 0.721797
    33 3.530611 0.000001 -0.000003 0.000000 0.000000 0.974774
    34 6.681007 -0.762752 -1.054662 0.099954 0.153746 0.574528
    35 3.608305 -0.000001 0.000000 0.000000 0.000000 0.610336
    36 3.608305 -0.000001 0.000000 0.000000 0.000000 1.273217
    37 3.408091 -0.002199 0.000000 -0.000043 -0.055000 -0.140044
    38 2.848662 0.000000 0.000000 0.100189 -0.040034 -0.279108
    39 5.067991 7.235520 0.022323 -0.000003 0.000000 -2.626981
    40 -0.604384 -2.957996 0.000000 0.101649 -0.450137 0.366778
    41 0.107995 -6.585735 0.000000 0.000000 0.000000 -0.750079
    42 -3.080979 -5.452278 0.000000 0.000000 0.000000 -0.453520
    43 -3.048778 -2.270235 0.000000 0.033485 0.000000 0.000000
    44 -1.890806 -0.908390 0.000000 0.000000 0.000000 -0.662877
    45 -0.454460 -0.402742 -1.764821 1.766399 -1.562228 -1.554098
    46 -0.928989 -2.456182 2.268051 -0.403320 0.003188 0.012894
    47 -0.447595 -0.389067 1.486638 -0.243816 -1.558018 0.482460
    48 1.132205 -2.455431 2.290455 -0.403315 0.003182 0.012901
    49 0.424462 -1.191061 -0.110061 -0.662847 -1.570796 0.000000
    50 -0.087093 -2.917876 -0.217384 0.087210 0.000000 0.000000
  time 3
    0 3.305277 -0.719898 26.367164 0.081536 0.251221 -1.581198
    1 0.000000 0.000000 0.000000 0.000008 -1.562083 -1.570763
    2 -0.000009 0.000010 6.353378 0.240578 0.031767 -2.100397
    3 18.507666 0.000000 0.000000 0.000000 0.000000 -1.556241
    4 13.411352 -0.000002 0.000000 2.817055 -0.163765 0.288466
    5 8.701365 6.675650 0.000000 0.000000 0.000000 1.614392
    6 6.262099 -1.461580 3.610131 1.570796 1.649286 -1.570796
    7 0.000009 -0.000007 -6.353378 0.016808 0.193732 -3.435289
    8 18.507668 0.000002 0.000000 0.000000 0.000000 -1.663753
    9 13.411351 -0.000001 0.000000 -6.137656 -3.039925 -1.460234
    10 6.262099 -1.470858 -4.185178 1.570795 1.492297 -1.570797
    11 6.280028 -0.742184 5.288615 1.570795 1.492297 -1.570797
    12 3.416504 -0.970599 0.027351 0.056982 -0.189848 0.790453
    13 6.150890 -0.004767 0.000000 0.000036 0.047590 0.129728
    14 6.181768 -0.006276 0.000000 0.016826 0.073429 0.289438
    15 8.035378 -0.006650 0.000000 -0.049179 0.061995 0.348077
    16 9.041867 -0.002309 0.000000 0.000225 0.279021 0.334290
    17 -7.050216 5.323078 1.646379 -0.694039 -0.972460 3.500687
    18 8.356073 -0.000002 0.000000 -1.195256 0.010885 -1.457607
    19 22.314196 0.000000 0.000002 0.000000 0.000000 -1.958424
    20 13.466397 -0.000001 -0.000001 -0.441572 0.019357 0.162873
    21 6.645414 -0.843864 -1.119306 0.007948 0.139344 0.058740
    22 3.530614 0.000000 -0.000001 0.000000 0.000000 0.032167
    23 3.530614 -0.000001 0.000000 0.000000 0.000000 1.218370
    24 6.690087 -0.762451 1.047432 -0.006618 -0.183061 0.031056
    25 3.608304 0.000001 0.000000 0.000000 0.000000 0.021654
    26 3.608304 0.000000 0.000001 0.000000 0.000000 1.207866
    27 -5.007328 5.272985 -4.659056 2.922592 0.988716 5.719439
    28 8.356073 0.000003 0.000000 1.490477 0.054466 -1.081566
    29 22.314196 0.000001 0.000001 0.000000 0.000000 -1.544519
    30 13.466398 -0.000001 -0.000002 0.757057 0.203088 -0.026812
    31 6.635592 -0.843576 1.110600 0.070571 -0.169173 -0.392254
    32 3.530615 0.000000 0.000001 0.000000 0.000000 0.110970
    33 3.530611 0.000001 -0.000003 0.000000 0.000000 0.363960
    34 6.681007 -0.762752 -1.054662 -0.020747 0.182009 -0.119489
    35 3.608305 -0.000001 0.000000 0.000000 0.000000 -0.074073
    36 3.608305 -0.000001 0.000000 0.000000 0.000000 0.588841
    37 3.408091 -0.002199 0.000000 0.000199 0.251841 -0.124179
    38 2.848662 0.000000 0.000000 0.526414 0.236560 -0.209279
    39 5.067991 7.235520 0.022323 -0.000003 0.000000 -2.626981
    40 -0.604384 -2.957996 0.000000 0.082894 -0.441302 0.318082
    41 0.107995 -6.585735 0.000000 0.009877 -0.004448 -0.836959
    42 -3.080979 -5.452278 0.000000 -0.187467 0.001268 -0.519082
    43 -3.048778 -2.270235 0.000000 0.050467 0.000000 0.000000
    44 -1.890806 -0.908390 0.000000 0.000000 0.000000 -0.662877
    45 -0.454460 -0.402742 -1.764821 1.825402 -1.557578 -1.496154
    46 -0.928989 -2.456182 2.268051 -0.621684 0.007071 0.019113
    47 -0.447595 -0.389067 1.486638 -0.158526 -1.551894 0.527356
    48 1.132205 -2.455431 2.290455 -0.621672 0.007066 0.019116
    49 0.424462 -1.191061 -0.110061 -1.083960 -1.594945 1.019735
    50 -0.087093 -2.917876 -0.217384 0.087210 0.000000 0.000000
  time 4
    0 5.141270 -1.059752 23.117065 0.073068 0.431775 -1.573156
    1 0.000000 0.000000 0.000000 -0.000040 -1.562083 -1.570763
    2 -0.000009 0.000010 6.353378 0.078536 0.260643 -2.070644
    3 18.507666 0.000000 0.000000 0.000000 0.000000 -1.733185
    4 13.411352 -0.000002 0.000000 3.105793 -0.040221 0.262311
    5 8.701365 6.675650 0.000000 0.000000 0.000000 1.614392
    6 6.262099 -1.461580 3.610131 1.570796 1.649286 -1.570796
    7 0.000009 -0.000007 -6.353378 0.278307 0.091504 -3.676640
    8 18.507668 0.000002 0.000000 0.000000 0.000000 -1.850355
    9 13.411351 -0.000001 0.000000 -0.122465 -3.150233 -1.214433
    10 6.262099 -1.470858 -4.185178 1.570795 1.492297 -1.570797
    11 6.280028 -0.742184 5.288615 1.570795 1.492297 -1.570797
    12 3.416504 -0.970599 0.027351 0.030400 -0.200811 0.808315
    13 6.150890 -0.004767 0.000000 0.000048 0.066142 0.201029
    14 6.181768 -0.006276 0.000000 0.016862 0.101784 0.295703
    15 8.035378 -0.006650 0.000000 -0.050542 0.075118 0.264160
    16 9.041867 -0.002309 0.000000 -0.000017 -0.042445 0.215086
    17 -6.757239 4.533992 3.814414 -1.202456 -1.160592 4.081353
    18 8.356073 -0.000002 0.000000 -1.263231 -0.284187 -1.594904
    19 22.314196 0.000000 0.000002 0.000000 0.000000 -1.876521
    20 13.466397 -0.000001 -0.000001 -0.383662 -0.047285 0.121273
    21 6.645414 -0.843864 -1.119306 -0.004342 0.139508 -0.029826
    22 3.530614 0.000000 -0.000001 0.000000 0.000000 -0.055545
    23 3.530614 -0.000001 0.000000 0.000000 0.000000 1.130635
    24 6.690087 -0.762451 1.047432 0.010293 -0.182884 -0.061922
    25 3.608304 0.000001 0.000000 0.000000 0.000000 -0.069789
    26 3.608304 0.000000 0.000001 0.000000 0.000000 1.116430
    27 -6.804258 4.511243 -2.815250 2.248219 1.166117 5.228663
    28 8.356073 0.000003 0.000000 1.535761 0.141407 -1.070130
    29 22.314196 0.000001 0.000001 0.000000 0.000000 -1.628609
    30 13.466398 -0.000001 -0.000002 0.597595 0.322583 -0.274778
    31 6.635592 -0.843576 1.110600 0.066183 -0.170925 -0.366314
    32 3.530615 0.000000 0.000001 0.000000 0.000000 0.136561
    33 3.530611 0.000001 -0.000003 0.000000 0.000000 0.389582
    34 6.681007 -0.762752 -1.054662 -0.029352 0.180834 -0.167119
    35 3.608305 -0.000001 0.000000 0.000000 0.000000 -0.120956
    36 3.608305 -0.000001 0.000000 0.000000 0.000000 0.541956
    37 3.408091 -0.002199 0.000000 -0.000028 -0.049847 -0.331502
    38 2.848662 0.000000 0.000000 0.085483 -0.002460 -0.489826
    39 5.067991 7.235520 0.022323 -0.000003 0.000000 -2.626981
    40 -0.604384 -2.957996 0.000000 0.073585 -0.431286 0.225743
    41 0.107995 -6.585735 0.000000 0.020638 -0.013772 -0.883080
    42 -3.080979 -5.452278 0.000000 -0.421238 0.009550 -0.499729
    43 -3.048778 -2.270235 0.000000 0.067593 0.000000 0.000000
    44 -1.890806 -0.908390 0.000000 0.000000 0.000000 -0.662877
    45 -0.454460 -0.402742 -1.764821 1.886810 -1.553476 -1.445254
    46 -0.928989 -2.456182 2.268051 -0.783108 0.011649 0.023793
    47 -0.447595 -0.389067 1.486638 0.237594 -1.555689 0.239084
    48 1.132205 -2.455431 2.290455 -0.783120 0.011652 0.023794
    49 0.424462 -1.191061 -0.110061 -0.668435 -1.621068 1.465126
    50 -0.087093 -2.917876 -0.217384 0.087210 0.000000 0.000000
  time 5
    0 6.887417 -1.270696 20.753712 0.000000 0.558192 -1.570836
    1 0.000000 0.000000 0.000000 0.000008 -1.562083 -1.570763
    2 -0.000009 0.000010 6.353378 0.247384 0.164066 -2.075185
    3 18.507666 0.000000 0.000000 0.000000 0.000000 -1.851518
    4 13.411352 -0.000002 0.000000 3.057223 -0.246670 0.244997
    5 8.701365 6.675650 0.000000 0.000000 0.000000 1.614392
    6 6.262099 -1.461580 3.610131 1.570796 1.649286 -1.570796
    7 0.000009 -0.000007 -6.353378 0.185241 0.291554 -3.780060
    8 18.507668 0.000002 0.000000 0.000000 0.000000 -1.938093
    9 13.411351 -0.000001 0.000000 -0.012347 -2.878293 -1.094942
    10 6.262099 -1.470858 -4.185178 1.570795 1.492297 -1.570797
    11 6.280028 -0.742184 5.288615 1.570795 1.492297 -1.570797
    12 3.416504 -0.970599 0.027351 0.017624 -0.205882 0.817489
    13 6.150890 -0.004767 0.000000 0.000060 0.087211 0.235520
    14 6.181768 -0.006276 0.000000 0.016886 0.116981 0.298548
    15 8.035378 -0.006650 0.000000 -0.051092 0.081482 0.222935
    16 9.041867 -0.002309 0.000000 0.000069 0.087220 0.152115
    17 -7.464291 4.088666 2.888605 -1.076862 -0.995453 4.035596
    18 8.356073 -0.000002 0.000000 -1.328082 -0.585519 -1.659738
    19 22.314196 0.000000 0.000002 0.000000 0.000000 -1.780681
    20 13.466397 -0.000001 -0.000001 -0.325053 -0.124620 0.029525
    21 6.645414 -0.843864 -1.119306 -0.022170 0.137808 -0.158661
    22 3.530614 0.000000 -0.000001 0.000000 0.000000 -0.183153
    23 3.530614 -0.000001 0.000000 0.000000 0.000000 1.003051
    24 6.690087 -0.762451 1.047432 0.034315 -0.179967 -0.194881
    25 3.608304 0.000001 0.000000 0.000000 0.000000 -0.200594
    26 3.608304 0.000000 0.000001 0.000000 0.000000 0.985594
    27 -6.655816 4.081542 -3.694183 2.409766 1.057453 5.435750
    28 8.356073 0.000003 0.000000 1.626615 0.203248 -1.012453
    29 22.314196 0.000001 0.000001 0.000000 0.000000 -1.566086
    30 13.466398 -0.000001 -0.000002 0.746060 0.427360 -0.264386
    31 6.635592 -0.843576 1.110600 0.055024 -0.174801 -0.301466
    32 3.530615 0.000000 0.000001 0.000000 0.000000 0.200601
    33 3.530611 0.000001 -0.000003 0.000000 0.000000 0.453581
    34 6.681007 -0.762752 -1.054662 -0.024759 0.181515 -0.141716
    35 3.608305 -0.000001 0.000000 0.000000 0.000000 -0.095913
    36 3.608305 -0.000001 0.000000 0.000000 0.000000 0.566964
    37 3.408091 -0.002199 0.000000 0.000123 0.156995 -0.440983
    38 2.848662 0.000000 0.000000 0.280909 0.291504 -0.336250
    39 5.067991 7.235520 0.022323 -0.000003 0.000000 -2.626981
    40 -0.604384 -2.957996 0.000000 0.092745 -0.453508 0.161514
    41 0.107995 -6.585735 0.000000 0.032225 -0.024462 -0.895390
    42 -3.080979 -5.452278 0.000000 -0.523739 0.043996 -0.470618
    43 -3.048778 -2.270235 0.000000 0.084851 0.000000 0.000000
    44 -1.890806 -0.908390 0.000000 0.000000 0.000000 -0.662877
    45 -0.454460 -0.402742 -1.764821 1.947175 -1.550525 -1.406793
    46 -0.928989 -2.456182 2.268051 -0.836577 0.015448 0.026699
    47 -0.447595 -0.389067 1.486638 1.947224 -1.550529 -1.406776
    48 1.132205 -2.455431 2.290455 -0.836582 0.015451 0.026701
    49 0.424462 -1.191061 -0.110061 2.653494 -1.507888 -1.363350
    50 -0.087093 -2.917876 -0.217384 0.087210 0.000000 0.000000
  time 6
    0 8.516373 -1.352730 19.613052 -0.148801 0.617455 -1.575862
    1 0.000000 0.000000 0.000000 -0.000040 -1.599679 -1.570763
    2 -0.000009 0.000010 6.353378 0.139331 0.170740 -2.050730
    3 18.507666 0.000000 0.000000 0.000000 0.000000 -1.941886
    4 13.411352 -0.000002 0.000000 3.177642 -0.272966 0.214864
    5 8.701365 6.675650 0.000000 0.000000 0.000000 1.614392
    6 6.262099 -1.461580 3.610131 1.570796 1.649286 -1.570796
    7 0.000009 -0.000007 -6.353378 0.339274 0.240391 -3.754609
    8 18.507668 0.000002 0.000000 0.000000 0.000000 -1.935362
    9 13.411351 -0.000001 0.000000 -0.052216 -2.773922 -1.111583
    10 6.262099 -1.470858 -4.185178 1.570795 1.492297 -1.570797
    11 6.280028 -0.742184 5.288615 1.570795 1.492297 -1.570797
    12 3.416504 -0.970599 -0.097653 0.045512 -0.180080 0.812115
    13 6.150890 -0.004767 0.000000 0.000084 0.110689 0.235520
    14 6.181768 -0.006276 0.000000 0.016910 0.124483 0.298675
    15 8.035378 -0.006650 0.000000 -0.051092 0.081482 0.222935
    16 9.041867 -0.002309 0.000000 0.000086 0.107946 0.152157
    17 -7.518981 4.088666 2.732350 -1.113389 -0.914939 4.072833
    18 8.356073 -0.000002 0.000000 -1.699371 -0.844975 -1.210231
    19 22.314196 0.000000 0.000002 0.000000 0.000000 -1.580535
    20 13.466397 -0.000001 -0.000001 -0.301920 -0.145835 -0.004078
    21 6.645414 -0.843864 -1.119306 -0.022170 0.137808 -0.158661
    22 3.530614 0.000000 -0.000001 0.000000 0.000000 -0.183153
    23 3.530614 -0.000001 0.000000 0.000000 0.000000 1.003051
    24 6.690087 -0.762451 1.047432 0.034315 -0.179967 -0.194881
    25 3.608304 0.000001 0.000000 0.000000 0.000000 -0.200594
    26 3.608304 0.000000 0.000001 0.000000 0.000000 0.985594
    27 -6.577688 4.081542 -3.830906 2.440637 1.043518 5.462498
    28 8.356073 0.000003 0.000000 1.750981 0.221190 -0.876449
    29 22.314196 0.000001 0.000001 0.000000 0.000000 -1.384647
    30 13.466398 -0.000001 -0.000002 1.208820 0.548758 -0.028148
    31 6.635592 -0.843576 1.110600 0.055024 -0.174801 -0.301466
    32 3.530615 0.000000 0.000001 0.000000 0.000000 0.200601
    33 3.530611 0.000001 -0.000003 0.000000 0.000000 0.453581
    34 6.681007 -0.762752 -1.054662 -0.024759 0.181515 -0.141716
    35 3.608305 -0.000001 0.000000 0.000000 0.000000 -0.095913
    36 3.608305 -0.000001 0.000000 0.000000 0.000000 0.566964
    37 3.408091 -0.002199 0.000000 0.000123 0.162185 -0.440983
    38 2.848662 0.000000 0.000000 0.311492 0.354990 -0.307987
    39 5.067991 7.235520 0.022323 -0.000003 0.000000 -2.626981
    40 -0.604384 -2.957996 0.000000 0.162190 -0.541600 0.140767
    41 0.107995 -6.585735 0.000000 0.044254 -0.032944 -0.880727
    42 -3.080979 -5.452278 0.000000 -0.436726 0.097889 -0.451060
    43 -3.048778 -2.270235 0.000000 0.102217 0.000000 0.000000
    44 -1.890806 -0.908390 0.000000 0.000000 0.000000 -0.662877
    45 -0.454460 -0.402742 -1.764821 1.830051 -1.538665 -1.202114
    46 -0.928989 -2.456182 2.268051 -0.717957 0.017042 0.028002
    47 -0.447595 -0.389067 1.486638 -0.727301 -1.805261 0.930138
    48 1.132205 -2.455431 2.290455 -0.700190 0.008046 0.030037
    49 0.424462 -1.191061 -0.110061 2.417914 -1.495751 -1.250813
    50 -0.087093 -2.917876 -0.217384 0.087210 0.000000 0.000000
  time 7
    0 10.219550 -1.372262 19.175538 -0.337941 0.642565 -1.583827
    1 0.000000 0.000000 0.000000 -0.000040 -1.650194 -1.570763
    2 -0.000009 0.000010 6.353378 0.056261 0.087489 -2.043587
    3 18.507666 0.000000 0.000000 0.000000 0.000000 -2.011672
    4 13.411352 -0.000002 0.000000 3.234547 -0.383793 0.209560
    5 8.701365 6.675650 0.000000 0.000000 0.000000 1.614392
    6 6.262099 -1.461580 3.610131 1.570796 1.649286 -1.570796
    7 0.000009 -0.000007 -6.353378 0.419371 0.179277 -3.628739
    8 18.507668 0.000002 0.000000 0.000000 0.000000 -1.881758
    9 13.411351 -0.000001 0.000000 0.027425 -2.582798 -1.255266
    10 6.262099 -1.470858 -4.185178 1.570795 1.492297 -1.570797
    11 6.280028 -0.742184 5.288615 1.570795 1.492297 -1.570797
    12 3.408691 -0.970599 -0.269533 0.082545 -0.145221 0.806116
    13 6.150890 -0.004767 0.000000 0.000096 0.133951 0.235520
    14 6.181768 -0.006276 0.000000 0.016922 0.129157 0.298760
    15 8.035378 -0.006650 0.000000 -0.051092 0.081482 0.222935
    16 9.041867 -0.002309 0.000000 0.000086 0.123671 0.152157
    17 -7.561951 4.088666 2.615159 -1.150396 -0.833307 4.110644
    18 8.356073 -0.000002 0.000000 -2.030702 -1.032315 -0.852341
    19 22.314196 0.000000 0.000002 0.000000 0.000000 -1.265221
    20 13.466397 -0.000001 -0.000001 -0.290664 -0.178798 -0.102681
    21 6.645414 -0.843864 -1.119306 -0.022170 0.137808 -0.158661
    22 3.530614 0.000000 -0.000001 0.000000 0.000000 -0.183153
    23 3.530614 -0.000001 0.000000 0.000000 0.000000 1.003051
    24 6.690087 -0.762451 1.047432 0.034315 -0.179967 -0.194881
    25 3.608304 0.000001 0.000000 0.000000 0.000000 -0.200594
    26 3.608304 0.000000 0.000001 0.000000 0.000000 0.985594
    27 -6.515186 4.081542 -3.932472 2.463071 1.032663 5.481865
    28 8.356073 0.000003 0.000000 1.882753 0.220617 -0.738552
    29 22.314196 0.000001 0.000001 0.000000 0.000000 -1.181323
    30 13.466398 -0.000001 -0.000002 1.766360 0.529852 0.296804
    31 6.635592 -0.843576 1.110600 0.055024 -0.174801 -0.301466
    32 3.530615 0.000000 0.000001 0.000000 0.000000 0.200601
    33 3.530611 0.000001 -0.000003 0.000000 0.000000 0.453581
    34 6.681007 -0.762752 -1.054662 -0.024759 0.181515 -0.141716
    35 3.608305 -0.000001 0.000000 0.000000 0.000000 -0.095913
    36 3.608305 -0.000001 0.000000 0.000000 0.000000 0.566964
    37 3.408091 -0.002199 0.000000 0.000123 0.157259 -0.440983
    38 2.848662 0.000000 0.000000 0.336366 0.407700 -0.277120
    39 5.067991 7.235520 0.022323 -0.000003 0.000000 -2.626981
    40 -0.604384 -2.957996 0.000000 0.269387 -0.666768 0.121901
    41 0.107995 -6.585735 0.000000 0.056814 -0.035581 -0.845767
    42 -3.080979 -5.452278 0.000000 -0.254198 0.160673 -0.410591
    43 -3.048778 -2.270235 0.000000 0.119666 0.000000 0.000000
    44 -1.890806 -0.908390 0.000000 0.000000 0.000000 -0.662877
    45 -0.454460 -0.402742 -1.764821 1.753652 -1.520274 -1.047130
    46 -0.928989 -2.456182 2.268051 -0.454927 0.016730 0.028081
    47 -0.447595 -0.389067 1.486638 -0.788352 -1.812750 0.994916
    48 1.132205 -2.455431 2.290455 -0.407599 -0.007187 0.029843
    49 0.424462 -1.191061 -0.110061 2.029438 -1.482327 -1.272239
    50 -0.087093 -2.917876 -0.217384 0.087210 0.000000 0.000000
  time 8
    0 12.004761 -1.344917 19.038815 -0.571275 0.646539 -1.594962
    1 0.000000 0.000000 0.000000 -0.000040 -1.705946 -1.570763
    2 -0.000009 0.000010 6.353378 -0.056562 -0.041088 -2.018706
    3 18.507666 0.000000 0.000000 0.000000 0.000000 -2.078373
    4 13.411352 -0.000002 0.000000 3.266831 -0.522637 0.223337
    5 8.701365 6.675650 0.000000 0.000000 0.000000 1.614392
    6 6.262099 -1.461580 3.610131 -1.570796 1.492295 1.570796
    7 0.000009 -0.000007 -6.353378 0.456986 0.070560 -3.494790
    8 18.507668 0.000002 0.000000 0.000000 0.000000 -1.719935
    9 13.411351 -0.000001 0.000000 -6.146569 -2.480246 -1.533029
    10 6.262099 -1.470858 -4.185178 1.570795 1.492297 -1.570797
    11 6.280028 -0.742184 5.288615 1.570795 1.492297 -1.570797
    12 3.389159 -0.970599 -0.457039 0.123005 -0.106510 0.801040
    13 6.150890 -0.004767 0.000000 0.000120 0.155247 0.235520
    14 6.181768 -0.006276 0.000000 0.016934 0.132249 0.298824
    15 8.035378 -0.006650 0.000000 -0.051092 0.081482 0.222935
    16 9.041867 -0.002309 0.000000 0.000104 0.133775 0.152157
    17 -7.589295 4.088666 2.537032 -1.179925 -0.764808 4.140702
    18 8.356073 -0.000002 0.000000 -2.345406 -1.270084 -0.552179
    19 22.314196 0.000000 0.000002 0.000000 0.000000 -0.985169
    20 13.466397 -0.000001 -0.000001 -0.236713 -0.255962 -0.378200
    21 6.645414 -0.843864 -1.119306 -0.047471 0.131298 -0.346673
    22 3.530614 0.000000 -0.000001 0.000000 0.000000 -0.369599
    23 3.530614 -0.000001 0.000000 0.000000 0.000000 0.816591
    24 6.690087 -0.762451 1.047432 0.067374 -0.170457 -0.383992
    25 3.608304 0.000001 0.000000 0.000000 0.000000 -0.387040
    26 3.608304 0.000000 0.000001 0.000000 0.000000 0.799171
    27 -6.476123 4.081542 -3.998880 2.477069 1.025601 5.493849
    28 8.356073 0.000003 0.000000 1.999999 0.214605 -0.628547
    29 22.314196 0.000001 0.000001 0.000000 0.000000 -0.990076
    30 13.466398 -0.000001 -0.000002 2.215952 0.375907 0.530023
    31 6.635592 -0.843576 1.110600 0.055024 -0.174801 -0.301466
    32 3.530615 0.000000 0.000001 0.000000 0.000000 0.200601
    33 3.530611 0.000001 -0.000003 0.000000 0.000000 0.453581
    34 6.681007 -0.762752 -1.054662 -0.024759 0.181515 -0.141716
    35 3.608305 -0.000001 0.000000 0.000000 0.000000 -0.095913
    36 3.608305 -0.000001 0.000000 0.000000 0.000000 0.566964
    37 3.408091 -0.002199 0.000000 0.000108 0.149265 -0.440983
    38 2.848662 0.000000 0.000000 0.353926 0.442721 -0.253496
    39 5.067991 7.235520 0.022323 -0.000003 0.000000 -2.626981
    40 -0.604384 -2.957996 0.000000 0.377288 -0.768486 0.102552
    41 0.107995 -6.585735 0.000000 0.070435 -0.028624 -0.797294
    42 -3.080979 -5.452278 0.000000 -0.028946 0.217051 -0.350729
    43 -3.048778 -2.270235 0.000000 0.137212 0.000000 0.000000
    44 -1.890806 -0.908390 0.000000 0.000000 0.000000 -0.662877
    45 -0.454460 -0.402742 -1.764821 1.778263 -1.517453 -1.010764
    46 -0.928989 -2.456182 2.268051 -0.134139 0.015844 0.027296
    47 -0.447595 -0.389067 1.486638 -0.846422 -1.816933 1.063839
    48 1.132205 -2.455431 2.290455 -0.080837 -0.010055 0.024943
    49 0.424462 -1.191061 -0.110061 1.659507 -1.484325 -1.359829
    50 -0.087093 -2.917876 -0.217384 0.087210 0.000000 0.000000
  time 9
    0 13.895444 -1.298041 18.882561 -0.864548 0.628455 -1.610505
    1 0.000000 0.000000 0.000000 -0.000040 -1.761914 -1.570763
    2 -0.000009 0.000010 6.353378 0.297840 -0.523266 -2.219362
    3 18.507666 0.000000 0.000000 0.000000 0.000000 -2.006210
    4 13.411352 -0.000002 0.000000 2.982404 0.064104 0.634000
    5 8.701365 6.675650 0.000000 0.000000 0.000000 1.614392
    6 6.262099 -1.461580 3.610131 -1.570796 1.492295 1.570796
    7 0.000009 -0.000007 -6.353378 0.461037 -0.003727 -3.389523
    8 18.507668 0.000002 0.000000 0.000000 0.000000 -1.268854
    9 13.411351 -0.000001 0.000000 -2.947777 -0.293140 1.250834
    10 6.262099 -1.470858 -4.185178 1.570795 1.492297 -1.570797
    11 6.280028 -0.742184 5.288615 1.570795 1.492297 -1.570797
    12 3.357908 -0.970599 -0.648451 0.163273 -0.067491 0.797538
    13 6.150890 -0.004767 0.000000 0.000132 0.175957 0.235520
    14 6.181768 -0.006276 0.000000 0.016934 0.134418 0.298845
    15 8.035378 -0.006650 0.000000 -0.051092 0.081482 0.222935
    16 9.041867 -0.002309 0.000000 0.000104 0.140243 0.152157
    17 -7.604921 4.088666 2.486249 -1.209071 -0.697467 4.169611
    18 8.356073 -0.000002 0.000000 -3.437685 -1.396946 0.510482
    19 22.314196 0.000000 0.000002 0.000000 0.000000 -0.711426
    20 13.466397 -0.000001 -0.000001 -0.175543 -0.306565 -0.619369
    21 6.645414 -0.843864 -1.119306 -0.066020 0.123050 -0.492639
    22 3.530614 0.000000 -0.000001 0.000000 0.000000 -0.514600
    23 3.530614 -0.000001 0.000000 0.000000 0.000000 0.671587
    24 6.690087 -0.762451 1.047432 0.091429 -0.158931 -0.530505
    25 3.608304 0.000001 0.000000 0.000000 0.000000 -0.532040
    26 3.608304 0.000000 0.000001 0.000000 0.000000 0.654167
    27 -6.448778 4.081542 -4.041850 2.485889 1.021019 5.501327
    28 8.356073 0.000003 0.000000 2.105188 0.217754 -0.550631
    29 22.314196 0.000001 0.000001 0.000000 0.000000 -0.804551
    30 13.466398 -0.000001 -0.000002 2.548190 0.161597 0.646255
    31 6.635592 -0.843576 1.110600 0.055024 -0.174801 -0.301466
    32 3.530615 0.000000 0.000001 0.000000 0.000000 0.200601
    33 3.530611 0.000001 -0.000003 0.000000 0.000000 0.453581
    34 6.681007 -0.762752 -1.054662 -0.024759 0.181515 -0.141716
    35 3.608305 -0.000001 0.000000 0.000000 0.000000 -0.095913
    36 3.608305 -0.000001 0.000000 0.000000 0.000000 0.566964
    37 3.408091 -0.002199 0.000000 0.000108 0.139570 -0.440983
    38 2.848662 0.000000 0.000000 0.366312 0.466577 -0.236169
    39 5.067991 7.235520 0.022323 -0.000003 0.000000 -2.626981
    40 -0.604384 -2.957996 0.000000 0.427760 -0.788902 0.108679
    41 0.107995 -6.585735 0.000000 0.086385 -0.008228 -0.741818
    42 -3.080979 -5.452278 0.000000 0.182688 0.258809 -0.283158
    43 -3.048778 -2.270235 0.000000 0.154817 0.000000 0.000000
    44 -1.890806 -0.908390 0.000000 0.000000 0.000000 -0.662877
    45 -0.454460 -0.402742 -1.764821 2.208840 -1.550525 -1.406793
    46 -0.928989 -2.456182 2.268051 0.157728 0.015448 0.026699
    47 -0.447595 -0.389067 1.486638 -0.903779 -1.818456 1.138337
    48 1.132205 -2.455431 2.290455 0.157713 0.015451 0.026701
    49 0.424462 -1.191061 -0.110061 1.397526 -1.507888 -1.363350
    50 -0.087093 -2.917876 -0.217384 0.087210 0.000000 0.000000
  time 10
    0 15.911130 -1.270696 18.003628 -1.174993 0.586412 -1.646772
    1 0.000000 0.000000 0.000000 -0.000040 -1.814347 -1.570763
    2 -0.000009 0.000010 6.353378 0.642393 -0.755179 -2.470820
    3 18.507666 0.000000 0.000000 0.000000 0.000000 -1.931064
    4 13.411352 -0.000002 0.000000 2.773466 0.144905 0.821871
    5 8.701365 6.675650 0.000000 0.000000 0.000000 1.614392
    6 6.262099 -1.461580 3.610131 -1.570796 1.492295 1.570796
    7 0.000009 -0.000007 -6.353378 0.445446 -0.037650 -3.274388
    8 18.507668 0.000002 0.000000 0.000000 0.000000 -1.316187
    9 13.411351 -0.000001 0.000000 -2.951035 -0.146254 1.049237
    10 6.262099 -1.470858 -4.185178 1.570795 1.492297 -1.570797
    11 6.280028 -0.742184 5.288615 1.570795 1.492297 -1.570797
    12 3.318845 -0.970599 -0.820332 0.200809 -0.030821 0.795692
    13 6.150890 -0.004767 0.000000 0.000156 0.198032 0.235520
    14 6.181768 -0.006276 0.000000 0.016946 0.135904 0.298888
    15 8.035378 -0.006650 0.000000 -0.051092 0.081482 0.222935
    16 9.041867 -0.002309 0.000000 0.000104 0.143880 0.152157
    17 -7.612733 4.088666 2.458904 -1.243394 -0.617912 4.202444
    18 8.356073 -0.000002 0.000000 -4.212413 -1.289391 1.195751
    19 22.314196 0.000000 0.000002 0.000000 0.000000 -0.446588
    20 13.466397 -0.000001 -0.000001 -0.248823 -0.245201 -0.378673
    21 6.645414 -0.843864 -1.119306 -0.022170 0.137808 -0.158661
    22 3.530614 0.000000 -0.000001 0.000000 0.000000 -0.183153
    23 3.530614 -0.000001 0.000000 0.000000 0.000000 1.003051
    24 6.690087 -0.762451 1.047432 0.034315 -0.179967 -0.194881
    25 3.608304 0.000001 0.000000 0.000000 0.000000 -0.200594
    26 3.608304 0.000000 0.000001 0.000000 0.000000 0.985594
    27 -6.433153 4.081542 -4.065288 2.490683 1.018427 5.505545
    28 8.356073 0.000003 0.000000 2.177719 0.268430 -0.541087
    29 22.314196 0.000001 0.000001 0.000000 0.000000 -0.641546
    30 13.466398 -0.000001 -0.000002 2.728996 -0.016171 0.662570
    31 6.635592 -0.843576 1.110600 0.055024 -0.174801 -0.301466
    32 3.530615 0.000000 0.000001 0.000000 0.000000 0.200601
    33 3.530611 0.000001 -0.000003 0.000000 0.000000 0.453581
    34 6.681007 -0.762752 -1.054662 -0.024759 0.181515 -0.141716
    35 3.608305 -0.000001 0.000000 0.000000 0.000000 -0.095913
    36 3.608305 -0.000001 0.000000 0.000000 0.000000 0.566964
    37 3.408091 -0.002199 0.000000 0.000093 0.126399 -0.440983
    38 2.848662 0.000000 0.000000 0.374417 0.485187 -0.223576
    39 5.067991 7.235520 0.022323 -0.000003 0.000000 -2.626981
    40 -0.604384 -2.957996 0.000000 0.421617 -0.740486 0.143024
    41 0.107995 -6.585735 0.000000 0.133499 0.069161 -0.583814
    42 -3.080979 -5.452278 0.000000 0.182688 0.258809 -0.283158
    43 -3.048778 -2.270235 0.000000 0.172482 0.000000 0.000000
    44 -1.890806 -0.908390 0.000000 0.000000 0.000000 -0.662877
    45 -0.454460 -0.402742 -1.764821 1.342797 -1.623094 -0.525881
    46 -0.928989 -2.456182 2.268051 0.157728 0.015448 0.026699
    47 -0.447595 -0.389067 1.486638 -0.962432 -1.817996 1.219249
    48 1.132205 -2.455431 2.290455 0.309113 0.074254 0.044931
    49 0.424462 -1.191061 -0.110061 1.054158 -1.542476 -1.092595
    50 -0.087093 -2.917876 -0.217384 0.087210 0.000000 0.000000
  time 11
    0 19.055758 -1.270696 13.015194 -1.507988 0.261012 -1.878445
    1 0.000000 0.000000 0.000000 -0.000040 -1.859685 -1.570763
    2 -0.000009 0.000010 6.353378 0.184115 -0.413213 -2.169742
    3 18.507666 0.000000 0.000000 0.000000 0.000000 -1.893592
    4 13.411352 -0.000002 0.000000 2.908064 0.141462 1.025803
    5 8.701365 6.675650 0.000000 0.000000 0.000000 1.614392
    6 6.262099 -1.461580 3.610131 -1.570796 1.492295 1.570796
    7 0.000009 -0.000007 -6.353378 0.422095 -0.066560 -3.178702
    8 18.507668 0.000002 0.000000 0.000000 0.000000 -1.400183
    9 13.411351 -0.000001 0.000000 -2.976432 -0.040542 0.891039
    10 6.262099 -1.470858 -4.185178 1.570795 1.492297 -1.570797
    11 6.280028 -0.742184 5.288615 1.570795 1.492297 -1.570797
    12 3.275875 -0.970599 -0.972680 0.233191 0.000899 0.795231
    13 6.150890 -0.004767 0.000000 0.000180 0.222097 0.235538
    14 6.181768 -0.006276 0.000000 0.016946 0.136336 0.298888
    15 8.035378 -0.006650 0.000000 -0.051092 0.081482 0.222935
    16 9.041867 -0.002309 0.000000 0.000104 0.141772 0.152157
    17 -7.608827 4.088666 2.474530 -1.357770 -0.496602 4.371015
    18 8.356073 -0.000002 0.000000 -3.979278 -1.158385 0.461510
    19 22.314196 0.000000 0.000002 0.000000 0.000000 -0.446588
    20 13.466397 -0.000001 -0.000001 -0.237723 -0.137900 -0.436621
    21 6.645414 -0.843864 -1.119306 -0.022170 0.137808 -0.158661
    22 3.530614 0.000000 -0.000001 0.000000 0.000000 -0.183153
    23 3.530614 -0.000001 0.000000 0.000000 0.000000 1.003051
    24 6.690087 -0.762451 1.047432 0.034315 -0.179967 -0.194881
    25 3.608304 0.000001 0.000000 0.000000 0.000000 -0.200594
    26 3.608304 0.000000 0.000001 0.000000 0.000000 0.985594
    27 -6.444872 4.081542 -4.049663 2.679170 1.076647 5.684732
    28 8.356073 0.000003 0.000000 2.086296 0.455195 -0.656604
    29 22.314196 0.000001 0.000001 0.000000 0.000000 -0.539657
    30 13.466398 -0.000001 -0.000002 2.532996 -0.044022 0.574147
    31 6.635592 -0.843576 1.110600 0.030930 -0.180585 -0.165323
    32 3.530615 0.000000 0.000001 0.000000 0.000000 0.334681
    33 3.530611 0.000001 -0.000003 0.000000 0.000000 0.587688
    34 6.681007 -0.762752 -1.054662 -0.000004 0.183167 -0.005341
    35 3.608305 -0.000001 0.000000 0.000000 0.000000 0.038127
    36 3.608305 -0.000001 0.000000 0.000000 0.000000 0.701014
    37 3.408091 -0.002199 0.000000 0.000078 0.105533 -0.440983
    38 2.848662 0.000000 0.000000 0.373066 0.496956 -0.221446
    39 5.067991 7.235520 0.022323 -0.000003 0.000000 -2.626981
    40 -0.604384 -2.957996 0.000000 0.406489 -0.675218 0.182529
    41 0.107995 -6.585735 0.000000 0.216317 0.176015 -0.329411
    42 -3.080979 -5.452278 0.000000 0.182688 0.258809 -0.283158
    43 -3.048778 -2.270235 0.000000 0.190183 0.000000 0.000000
    44 -1.890806 -0.908390 0.000000 0.000000 0.000000 -0.662877
    45 -0.454460 -0.402742 -1.764821 1.485895 -1.697832 -0.660366
    46 -0.928989 -2.456182 2.268051 0.157728 0.015448 0.026699
    47 -0.447595 -0.389067 1.486638 -1.023548 -1.816300 1.307067
    48 1.132205 -2.455431 2.290455 0.451399 0.153142 0.081169
    49 0.424462 -1.191061 -0.110061 -0.905311 -1.549057 0.824666
    50 -0.087093 -2.917876 -0.217384 0.087210 0.000000 0.000000
  time 12
    0 21.465987 -1.270696 8.726001 -1.555273 -0.052237 -1.581275
    1 0.000000 0.000000 0.000000 -0.000040 -1.893505 -1.570763
    2 -0.000009 0.000010 6.353378 -0.107431 -0.064959 -2.090180
    3 18.507666 0.000000 0.000000 0.000000 0.000000 -1.851518
    4 13.411352 -0.000002 0.000000 2.971291 0.055306 1.119812
    5 8.701365 6.675650 0.000000 0.000000 0.000000 1.614392
    6 6.262099 -1.461580 3.610131 1.570796 1.649286 -1.570796
    7 0.000009 -0.000007 -6.353378 0.383152 -0.108449 -3.107600
    8 18.507668 0.000002 0.000000 0.000000 0.000000 -1.427946
    9 13.411351 -0.000001 0.000000 -3.052432 0.045157 0.719059
    10 6.262099 -1.470858 -4.185178 1.570795 1.492297 -1.570797
    11 6.280028 -0.742184 5.288615 1.570795 1.492297 -1.570797
    12 3.244624 -0.970599 -1.082058 0.257352 0.024581 0.795529
    13 6.150890 -0.004767 0.000000 0.000192 0.244221 0.235538
    14 6.181768 -0.006276 0.000000 0.016934 0.134418 0.298845
    15 8.035378 -0.006650 0.000000 -0.051092 0.081482 0.222935
    16 9.041867 -0.002309 0.000000 0.000086 0.122100 0.152157
    17 -7.558044 4.088666 2.626878 -1.266978 -0.628410 4.216133
    18 8.356073 -0.000002 0.000000 1.413961 -2.389631 0.883367
    19 22.314196 0.000000 0.000002 0.000000 0.000000 -0.823120
    20 13.466397 -0.000001 -0.000001 -0.241915 0.076395 -0.459430
    21 6.645414 -0.843864 -1.119306 -0.022170 0.137808 -0.158661
    22 3.530614 0.000000 -0.000001 0.000000 0.000000 -0.183153
    23 3.530614 -0.000001 0.000000 0.000000 0.000000 1.003051
    24 6.690087 -0.762451 1.047432 0.034315 -0.179967 -0.194881
    25 3.608304 0.000001 0.000000 0.000000 0.000000 -0.200594
    26 3.608304 0.000000 0.000001 0.000000 0.000000 0.985594
    27 -6.522999 4.081542 -3.920753 3.074743 1.143355 -0.218182
    28 8.356073 0.000003 0.000000 1.684051 0.638907 -1.069060
    29 22.314196 0.000001 0.000001 0.000000 0.000000 -0.517091
    30 13.466398 -0.000001 -0.000002 1.936313 0.014187 0.371234
    31 6.635592 -0.843576 1.110600 -0.009996 -0.182903 0.060264
    32 3.530615 0.000000 0.000001 0.000000 0.000000 0.556555
    33 3.530611 0.000001 -0.000003 0.000000 0.000000 0.809548
    34 6.681007 -0.762752 -1.054662 0.040730 0.178638 0.220176
    35 3.608305 -0.000001 0.000000 0.000000 0.000000 0.260040
    36 3.608305 -0.000001 0.000000 0.000000 0.000000 0.922916
    37 3.408091 -0.002199 0.000000 0.000048 0.069771 -0.440983
    38 2.848662 0.000000 0.000000 0.341311 0.478700 -0.255106
    39 5.067991 7.235520 0.022323 -0.000003 0.000000 -2.626981
    40 -0.604384 -2.957996 0.000000 0.386787 -0.595601 0.223593
    41 0.107995 -6.585735 0.000000 0.256090 0.242968 -0.155925
    42 -3.080979 -5.452278 0.000000 0.182688 0.258809 -0.283158
    43 -3.048778 -2.270235 0.000000 0.207909 0.000000 0.000000
    44 -1.890806 -0.908390 0.000000 0.000000 0.000000 -0.662877
    45 -0.454460 -0.402742 -1.764821 1.525657 -1.780120 -0.696733
    46 -0.928989 -2.456182 2.268051 0.157728 0.015448 0.026699
    47 -0.447595 -0.389067 1.486638 -1.088034 -1.814101 1.401596
    48 1.132205 -2.455431 2.290455 0.577968 0.236338 0.131055
    49 0.424462 -1.191061 -0.110061 -1.398174 -1.507725 1.300361
    50 -0.087093 -2.917876 -0.217384 0.087210 0.000000 0.000000
  time 13
    0 21.465987 -1.270696 8.132233 -1.558793 -0.071991 -1.609345
    1 0.000000 0.000000 0.000000 -0.000040 -1.914358 -1.570763
    2 -0.000009 0.000010 6.353378 -0.188619 -0.068660 -2.111419
    3 18.507666 0.000000 0.000000 0.000000 0.000000 -1.782187
    4 13.411352 -0.000002 0.000000 2.788123 0.178373 1.056231
    5 8.701365 6.675650 0.000000 0.000000 0.000000 1.614392
    6 6.262099 -1.461580 3.610131 1.570796 1.649286 -1.570796
    7 0.000009 -0.000007 -6.353378 0.319565 -0.211186 -3.114641
    8 18.507668 0.000002 0.000000 0.000000 0.000000 -1.257628
    9 13.411351 -0.000001 0.000000 -3.263947 0.030507 0.527286
    10 6.262099 -1.470858 -4.185178 1.570795 1.492297 -1.570797
    11 6.280028 -0.742184 5.288615 1.570795 1.492297 -1.570797
    12 3.221185 -0.970599 -1.148467 0.272249 0.039180 0.795991
    13 6.150890 -0.004767 0.000000 0.000192 0.244221 0.235538
    14 6.181768 -0.006276 0.000000 0.016874 0.111240 0.298463
    15 8.035378 -0.006650 0.000000 -0.050987 0.034730 0.225322
    16 9.041867 -0.002309 0.000000 -0.000017 -0.037982 0.152115
    17 -7.042403 4.088666 3.794882 -1.450864 -0.696629 4.329567
    18 8.356073 -0.000002 0.000000 1.177060 -1.825229 1.289622
    19 22.314196 0.000000 0.000002 0.000000 0.000000 -0.543107
    20 13.466397 -0.000001 -0.000001 -0.279874 0.392986 -0.347276
    21 6.645414 -0.843864 -1.119306 0.007162 0.139380 0.053254
    22 3.530614 0.000000 -0.000001 0.000000 0.000000 0.037980
    23 3.530614 -0.000001 0.000000 0.000000 0.000000 1.296760
    24 6.690087 -0.762451 1.047432 -0.005023 -0.183114 0.022307
    25 3.608304 0.000001 0.000000 0.000000 0.000000 0.015525
    26 3.608304 0.000000 0.000001 0.000000 0.000000 1.289321
    27 -7.062078 4.081542 -2.834782 -2.751480 1.282068 0.218329
    28 8.356073 0.000003 0.000000 1.408262 0.569621 -1.402201
    29 22.314196 0.000001 0.000001 0.000000 0.000000 -0.563041
    30 13.466398 -0.000001 -0.000002 1.406484 0.045718 0.176914
    31 6.635592 -0.843576 1.110600 -0.031144 -0.180546 0.177150
    32 3.530615 0.000000 0.000001 0.000000 0.000000 0.671594
    33 3.530611 0.000001 -0.000003 0.000000 0.000000 0.924538
    34 6.681007 -0.762752 -1.054662 0.061149 0.172781 0.336805
    35 3.608305 -0.000001 0.000000 0.000000 0.000000 0.375034
    36 3.608305 -0.000001 0.000000 0.000000 0.000000 1.037914
    37 3.408091 -0.002199 0.000000 -0.000058 -0.082577 -0.440983
    38 2.848662 0.000000 0.000000 0.069580 0.213945 -0.455456
    39 5.067991 7.235520 0.022323 -0.000003 0.000000 -2.626981
    40 -0.604384 -2.957996 0.000000 0.365786 -0.504307 0.263797
    41 0.107995 -6.585735 0.000000 -0.056843 0.143548 -0.495074
    42 -3.080979 -5.452278 0.000000 0.182688 0.258809 -0.283158
    43 -3.048778 -2.270235 0.000000 0.225646 0.000000 0.000000
    44 -1.890806 -0.908390 0.000000 0.000000 0.000000 -0.662877
    45 -0.454460 -0.402742 -1.764821 1.542733 -1.867998 -0.714630
    46 -0.928989 -2.456182 2.268051 0.157728 0.015448 0.026699
    47 -0.447595 -0.389067 1.486638 -1.155891 -1.812132 1.501995
    48 1.132205 -2.455431 2.290455 0.679739 0.310931 0.184678
    49 0.424462 -1.191061 -0.110061 -1.500294 -1.460837 1.405112
    50 -0.087093 -2.917876 -0.217384 0.087210 0.000000 0.000000
  time 14
    0 21.465987 -1.270696 8.042386 -1.555844 -0.072740 -1.662778
    1 0.000000 0.000000 0.000000 -0.000040 -1.926115 -1.570763
    2 -0.000009 0.000010 6.353378 -0.187458 -0.163568 -2.150443
    3 18.507666 0.000000 0.000000 0.000000 0.000000 -1.691768
    4 13.411352 -0.000002 0.000000 2.618846 0.295319 0.938940
    5 8.701365 6.675650 0.000000 0.000000 0.000000 1.614392
    6 6.262099 -1.461580 3.610131 -1.570796 1.492295 1.570796
    7 0.000009 -0.000007 -6.353378 0.240693 -0.390485 -3.172815
    8 18.507668 0.000002 0.000000 0.000000 0.000000 -0.966802
    9 13.411351 -0.000001 0.000000 -3.532677 0.020931 0.370187
    10 6.262099 -1.470858 -4.185178 1.570795 1.492297 -1.570797
    11 6.280028 -0.742184 5.288615 1.570795 1.492297 -1.570797
    12 3.205560 -0.970599 -1.187530 0.280650 0.047392 0.796371
    13 6.150890 -0.004767 0.000000 0.000192 0.244221 0.235538
    14 6.181768 -0.006276 0.000000 0.016802 0.082093 0.297953
    15 8.035378 -0.006650 0.000000 -0.051066 -0.040461 0.229156
    16 9.041867 -0.002309 0.000000 -0.000190 -0.244207 0.152157
    17 -6.116594 4.088666 5.158205 1.426296 -2.384786 1.364402
    18 8.356073 -0.000002 0.000000 -4.118167 -1.479641 0.412017
    19 22.314196 0.000000 0.000002 0.000000 0.000000 -0.446588
    20 13.466397 -0.000001 -0.000001 -0.097450 0.509311 -0.192026
    21 6.645414 -0.843864 -1.119306 0.024138 0.137479 0.175960
    22 3.530614 0.000000 -0.000001 0.000000 0.000000 0.148269
    23 3.530614 -0.000001 0.000000 0.000000 0.000000 1.334478
    24 6.690087 -0.762451 1.047432 -0.026752 -0.181240 0.142070
    25 3.608304 0.000001 0.000000 0.000000 0.000000 0.130828
    26 3.608304 0.000000 0.000001 0.000000 0.000000 1.317021
    27 -7.495685 4.081542 -1.326923 -2.006257 1.423861 0.940733
    28 8.356073 0.000003 0.000000 1.436553 0.482776 -1.448935
    29 22.314196 0.000001 0.000001 0.000000 0.000000 -0.673194
    30 13.466398 -0.000001 -0.000002 1.129595 0.159662 0.039606
    31 6.635592 -0.843576 1.110600 -0.009635 -0.182922 0.058287
    32 3.530615 0.000000 0.000001 0.000000 0.000000 0.576575
    33 3.530611 0.000001 -0.000003 0.000000 0.000000 0.829563
    34 6.681007 -0.762752 -1.054662 0.039791 0.178842 0.214917
    35 3.608305 -0.000001 0.000000 0.000000 0.000000 0.281369
    36 3.608305 -0.000001 0.000000 0.000000 0.000000 0.944258
    37 3.408091 -0.002199 0.000000 -0.000209 -0.261662 -0.440945
    38 2.848662 0.000000 0.000000 -0.241551 -0.213761 -0.368158
    39 5.067991 7.235520 0.022323 -0.000003 0.000000 -2.626981
    40 -0.604384 -2.957996 0.000000 0.345732 -0.404226 0.301797
    41 0.107995 -6.585735 0.000000 -0.129991 0.177540 -0.369295
    42 -3.080979 -5.452278 0.000000 0.182688 0.258809 -0.283158
    43 -3.048778 -2.270235 0.000000 0.243371 0.000000 0.000000
    44 -1.890806 -0.908390 0.000000 0.000000 0.000000 -0.662877
    45 -0.454460 -0.402742 -1.764821 1.550669 -1.959872 -0.726562
    46 -0.928989 -2.456182 2.268051 0.157728 0.015448 0.026699
    47 -0.447595 -0.389067 1.486638 1.915143 -1.330524 -1.535001
    48 1.132205 -2.455431 2.290455 0.743475 0.367157 0.227297
    49 0.424462 -1.191061 -0.110061 -1.537060 -1.411615 1.459025
    50 -0.087093 -2.917876 -0.217384 0.087210 0.000000 0.000000
  time 15
    0 21.465987 -1.270696 8.155671 -1.551800 -0.067441 -1.715207
    1 0.000000 0.000000 0.000000 -0.000040 -1.931041 -1.570763
    2 -0.000009 0.000010 6.353378 -0.149095 -0.139675 -2.237857
    3 18.507666 0.000000 0.000000 0.000000 0.000000 -1.533940
    4 13.411352 -0.000002 0.000000 2.808049 0.172253 0.902324
    5 8.701365 6.675650 0.000000 0.000000 0.000000 1.614392
    6 6.262099 -1.461580 3.610131 -1.570796 1.492295 1.570796
    7 0.000009 -0.000007 -6.353378 0.127440 -0.737243 -3.207384
    8 18.507668 0.000002 0.000000 0.000000 0.000000 -0.761994
    9 13.411351 -0.000001 0.000000 -3.627174 0.375028 0.112217
    10 6.262099 -1.470858 -4.185178 1.570795 1.492297 -1.570797
    11 6.280028 -0.742184 5.288615 1.570795 1.492297 -1.570797
    12 3.201654 -0.970599 -1.203156 0.284186 0.050840 0.796534
    13 6.150890 -0.004767 0.000000 0.000216 0.265038 0.235538
    14 6.181768 -0.006276 0.000000 0.016862 0.110221 0.298442
    15 8.035378 -0.006650 0.000000 -0.051262 -0.089262 0.231653
    16 9.041867 -0.002309 0.000000 -0.000086 -0.121588 0.152157
    17 -6.702549 4.088666 4.369119 -1.570226 -0.650404 4.398105
    18 8.356073 -0.000002 0.000000 1.397059 -1.729751 1.103353
    19 22.314196 0.000000 0.000002 0.000000 0.000000 -0.610515
    20 13.466397 -0.000001 -0.000001 0.226177 0.394621 -0.061553
    21 6.645414 -0.843864 -1.119306 0.025351 0.137259 0.184939
    22 3.530614 0.000000 -0.000001 0.000000 0.000000 0.124481
    23 3.530614 -0.000001 0.000000 0.000000 0.000000 1.099945
    24 6.690087 -0.762451 1.047432 -0.026387 -0.181293 0.140026
    25 3.608304 0.000001 0.000000 0.000000 0.000000 0.121575
    26 3.608304 0.000000 0.000001 0.000000 0.000000 1.053405
    27 -7.276928 4.081542 -2.237107 -2.345840 1.311403 0.602205
    28 8.356073 0.000003 0.000000 1.429338 0.384097 -1.431985
    29 22.314196 0.000001 0.000001 0.000000 0.000000 -0.842964
    30 13.466398 -0.000001 -0.000002 0.903569 0.330197 -0.126672
    31 6.635592 -0.843576 1.110600 0.031234 -0.180527 -0.167023
    32 3.530615 0.000000 0.000001 0.000000 0.000000 0.376986
    33 3.530611 0.000001 -0.000003 0.000000 0.000000 0.629947
    34 6.681007 -0.762752 -1.054662 -0.001507 0.183167 -0.013610
    35 3.608305 -0.000001 0.000000 0.000000 0.000000 0.083000
    36 3.608305 -0.000001 0.000000 0.000000 0.000000 0.745875
    37 3.408091 -0.002199 0.000000 -0.000134 -0.177195 -0.440983
    38 2.848662 0.000000 0.000000 -0.111701 -0.107384 -0.552317
    39 5.067991 7.235520 0.022323 -0.000003 0.000000 -2.626981
    40 -0.604384 -2.957996 0.000000 0.328087 -0.298390 0.337056
    41 0.107995 -6.585735 0.000000 -0.271214 0.163181 -0.400589
    42 -3.080979 -5.452278 0.000000 0.182688 0.258809 -0.283158
    43 -3.048778 -2.270235 0.000000 0.261084 0.000000 0.000000
    44 -1.890806 -0.908390 0.000000 0.000000 0.000000 -0.662877
    45 -0.454460 -0.402742 -1.764821 1.554037 -2.054255 -0.735891
    46 -0.928989 -2.456182 2.268051 0.157728 0.015448 0.026699
    47 -0.447595 -0.389067 1.486638 1.843722 -1.330107 -1.428928
    48 1.132205 -2.455431 2.290455 0.753008 0.396450 0.241665
    49 0.424462 -1.191061 -0.110061 -1.549532 -1.361118 1.497811
    50 -0.087093 -2.917876 -0.217384 0.087210 0.000000 0.000000
  time 16
    0 21.465987 -1.270696 8.327551 -1.548232 -0.060876 -1.760521
    1 0.000000 0.000000 0.000000 -0.000040 -1.931448 -1.570763
    2 -0.000009 0.000010 6.353378 -0.117769 -0.111440 -2.290031
    3 18.507666 0.000000 0.000000 0.000000 0.000000 -1.443067
    4 13.411352 -0.000002 0.000000 2.968130 0.054828 0.914407
    5 8.701365 6.675650 0.000000 0.000000 0.000000 1.614392
    6 6.262099 -1.461580 3.610131 -1.570796 1.492295 1.570796
    7 0.000009 -0.000007 -6.353378 0.134452 -0.628865 -3.148576
    8 18.507668 0.000002 0.000000 0.000000 0.000000 -0.938533
    9 13.411351 -0.000001 0.000000 -3.590468 0.258017 0.269096
    10 6.262099 -1.470858 -4.185178 1.570795 1.492297 -1.570797
    11 6.280028 -0.742184 5.288615 1.570795 1.492297 -1.570797
    12 3.197747 -0.970599 -1.203156 0.284473 0.051122 0.796561
    13 6.150890 -0.004767 0.000000 0.000228 0.279108 0.235538
    14 6.181768 -0.006276 0.000000 0.016934 0.134418 0.298845
    15 8.035378 -0.006650 0.000000 -0.051380 -0.110139 0.232748
    16 9.041867 -0.002309 0.000000 -0.000017 -0.034882 0.152115
    17 -7.054123 4.088666 3.771444 -1.491706 -0.533965 4.347180
    18 8.356073 -0.000002 0.000000 1.570578 -2.077367 0.823646
    19 22.314196 0.000000 0.000002 0.000000 0.000000 -0.835100
    20 13.466397 -0.000001 -0.000001 0.545070 0.199054 -0.007308
    21 6.645414 -0.843864 -1.119306 0.022827 0.137698 0.166490
    22 3.530614 0.000000 -0.000001 0.000000 0.000000 0.067896
    23 3.530614 -0.000001 0.000000 0.000000 0.000000 0.796592
    24 6.690087 -0.762451 1.047432 -0.020672 -0.182018 0.108472
    25 3.608304 0.000001 0.000000 0.000000 0.000000 0.081994
    26 3.608304 0.000000 0.000001 0.000000 0.000000 0.716034
    27 -7.054265 4.081542 -2.858220 -2.297999 1.176484 0.640458
    28 8.356073 0.000003 0.000000 1.386902 0.287612 -1.377765
    29 22.314196 0.000001 0.000001 0.000000 0.000000 -1.021133
    30 13.466398 -0.000001 -0.000002 0.746060 0.427360 -0.264386
    31 6.635592 -0.843576 1.110600 0.055024 -0.174801 -0.301466
    32 3.530615 0.000000 0.000001 0.000000 0.000000 0.200601
    33 3.530611 0.000001 -0.000003 0.000000 0.000000 0.453581
    34 6.681007 -0.762752 -1.054662 -0.024759 0.181515 -0.141716
    35 3.608305 -0.000001 0.000000 0.000000 0.000000 -0.095913
    36 3.608305 -0.000001 0.000000 0.000000 0.000000 0.566964
    37 3.408091 -0.002199 0.000000 -0.000058 -0.087215 -0.440983
    38 2.848662 0.000000 0.000000 -0.011822 0.070419 -0.470795
    39 5.067991 7.235520 0.022323 -0.000003 0.000000 -2.626981
    40 -0.604384 -2.957996 0.000000 0.313825 -0.189979 0.369735
    41 0.107995 -6.585735 0.000000 -0.418276 0.136892 -0.444686
    42 -3.080979 -5.452278 0.000000 0.182688 0.258809 -0.283158
    43 -3.048778 -2.270235 0.000000 0.278762 0.000000 0.000000
    44 -1.890806 -0.908390 0.000000 0.000000 0.000000 -0.662877
    45 -0.454460 -0.402742 -1.764821 1.554918 -2.149604 -0.743761
    46 -0.928989 -2.456182 2.268051 0.157728 0.015448 0.026699
    47 -0.447595 -0.389067 1.486638 1.773727 -1.327779 -1.324533
    48 1.132205 -2.455431 2.290455 -0.002802 0.069838 -0.005481
    49 0.424462 -1.191061 -0.110061 -1.550665 -1.310147 1.529107
    50 -0.087093 -2.917876 -0.217384 0.087210 0.000000 0.000000
  time 17
    0 21.465987 -1.270696 8.503338 -1.545330 -0.054483 -1.799648
    1 0.000000 0.000000 0.000000 -0.000040 -1.929627 -1.570763
    2 -0.000009 0.000010 6.353378 -0.134657 -0.125429 -2.254555
    3 18.507666 0.000000 0.000000 0.000000 0.000000 -1.507138
    4 13.411352 -0.000002 0.000000 2.904902 0.103500 1.018878
    5 8.701365 6.675650 0.000000 0.000000 0.000000 1.538168
    6 6.262099 -1.461580 3.610131 -1.570796 1.492295 1.570796
    7 0.000009 -0.000007 -6.353378 0.137244 -0.670632 -3.180144
    8 18.507668 0.000002 0.000000 0.000000 0.000000 -0.856206
    9 13.411351 -0.000001 0.000000 -3.596889 0.320161 0.233835
    10 6.262099 -1.470858 -4.185178 1.570795 1.492297 -1.570797
    11 6.280028 -0.742184 5.288615 1.570795 1.492297 -1.570797
    12 3.201654 -0.970599 -1.199249 0.283167 0.049847 0.796479
    13 6.150890 -0.004767 0.000000 0.000216 0.270120 0.258633
    14 6.181768 -0.006276 0.000000 0.016635 0.120168 0.344817
    15 8.035378 -0.006650 0.000000 -0.050908 -0.090724 0.260633
    16 9.041867 -0.002309 0.000000 -0.017480 -0.183889 0.184236
    17 -6.284568 4.233201 4.826164 1.467234 -2.650637 1.255851
    18 8.356073 -0.000002 0.000000 -1.556073 -0.827166 -2.436538
    19 22.314196 0.000000 0.000002 0.000000 0.000000 -1.047305
    20 13.466397 -0.000001 -0.000001 0.814048 0.009720 -0.024720
    21 6.645414 -0.843864 -1.119306 0.019517 0.138210 0.142311
    22 3.530614 0.000000 -0.000001 0.000000 0.000000 0.009179
    23 3.530614 -0.000001 0.000000 0.000000 0.000000 0.513873
    24 6.690087 -0.762451 1.047432 -0.014127 -0.182637 0.072364
    25 3.608304 0.000001 0.000000 0.000000 0.000000 0.038755
    26 3.608304 0.000000 0.000001 0.000000 0.000000 0.402438
    27 -7.269116 4.335456 -1.729279 -1.740592 1.056664 1.088091
    28 8.356073 0.000003 0.000000 1.280763 0.281982 -1.254266
    29 22.314196 0.000001 0.000001 0.000000 0.000000 -1.213061
    30 13.466398 -0.000001 -0.000002 0.744251 0.420635 -0.284939
    31 6.635592 -0.843576 1.110600 0.043749 -0.177937 -0.237210
    32 3.530615 0.000000 0.000001 0.000000 0.000000 0.088134
    33 3.530611 0.000001 -0.000003 0.000000 0.000000 0.341142
    34 6.681007 -0.762752 -1.054662 -0.008319 0.182997 -0.051053
    35 3.608305 -0.000001 0.000000 0.000000 0.000000 -0.218675
    36 3.608305 -0.000001 0.000000 0.000000 0.000000 0.444215
    37 3.408091 -0.002199 0.000000 -0.000104 -0.132157 -0.377407
    38 2.848662 0.000000 0.000000 -0.175135 0.072865 -0.132727
    39 5.067991 7.235520 0.022323 -0.000003 0.000000 -2.626981
    40 -0.604384 -2.957996 0.000000 0.303730 -0.082241 0.400264
    41 0.107995 -6.585735 0.000000 -0.566900 0.099341 -0.492557
    42 -3.080979 -5.452278 0.000000 0.182688 0.258809 -0.283158
    43 -3.048778 -2.270235 0.000000 0.296391 0.000000 0.000000
    44 -1.890806 -0.908390 0.000000 0.000000 0.000000 -0.662877
    45 -0.454460 -0.402742 -1.764821 1.554598 -2.244456 -0.750298
    46 -0.928989 -2.456182 2.268051 0.157728 0.015448 0.026699
    47 -0.447595 -0.389067 1.486638 1.707944 -1.323280 -1.225613
    48 1.132205 -2.455431 2.290455 0.485473 0.216798 0.102291
    49 0.424462 -1.191061 -0.110061 -1.547183 -1.259451 1.554055
    50 -0.087093 -2.917876 -0.217384 0.087210 0.000000 0.000000
  time 18
    0 21.465987 -1.270696 8.655686 -1.543000 -0.048954 -1.833904
    1 0.000000 0.000000 0.000000 -0.000040 -1.927841 -1.570763
    2 -0.000009 0.000010 6.353378 -0.164847 -0.148231 -2.194718
    3 18.507666 0.000000 0.000000 0.000000 0.000000 -1.613790
    4 13.411352 -0.000002 0.000000 2.796649 0.200653 1.144493
    5 8.701365 6.675650 0.000000 0.000000 0.000000 1.412960
    6 6.262099 -1.461580 3.610131 1.570796 1.649286 -1.570796
    7 0.000009 -0.000007 -6.353378 0.139524 -0.727388 -3.218581
    8 18.507668 0.000002 0.000000 0.000000 0.000000 -0.755522
    9 13.411351 -0.000001 0.000000 -3.599860 0.402796 0.188897
    10 6.262099 -1.470858 -4.185178 1.570795 1.492297 -1.570797
    11 6.280028 -0.742184 5.288615 1.570795 1.492297 -1.570797
    12 3.205560 -0.970599 -1.191437 0.281897 0.048599 0.796425
    13 6.150890 -0.004767 0.000000 0.000204 0.255163 0.285812
    14 6.181768 -0.006276 0.000000 0.016227 0.096858 0.398773
    15 8.035378 -0.006650 0.000000 -0.050280 -0.059145 0.293008
    16 9.041867 -0.002309 0.000000 -0.040061 -0.383976 0.230129
    17 -5.022811 4.401175 6.009794 1.240398 -2.668081 1.303617
    18 8.356073 -0.000002 0.000000 -1.560942 -0.654813 -2.523388
    19 22.314196 0.000000 0.000002 0.000000 0.000000 -1.229202
    20 13.466397 -0.000001 -0.000001 1.045687 -0.143519 -0.082117
    21 6.645414 -0.843864 -1.119306 0.016436 0.138612 0.120001
    22 3.530614 0.000000 -0.000001 0.000000 0.000000 -0.042344
    23 3.530614 -0.000001 0.000000 0.000000 0.000000 0.272462
    24 6.690087 -0.762451 1.047432 -0.008213 -0.182990 0.039877
    25 3.608304 0.000001 0.000000 0.000000 0.000000 -0.000002
    26 3.608304 0.000000 0.000001 0.000000 0.000000 0.134822
    27 -7.292554 4.624527 -0.213608 -1.333609 0.834303 1.298820
    28 8.356073 0.000003 0.000000 1.124498 0.283318 -1.098598
    29 22.314196 0.000001 0.000001 0.000000 0.000000 -1.413343
    30 13.466398 -0.000001 -0.000002 0.848365 0.379746 -0.234312
    31 6.635592 -0.843576 1.110600 0.015931 -0.182494 -0.082284
    32 3.530615 0.000000 0.000001 0.000000 0.000000 -0.001008
    33 3.530611 0.000001 -0.000003 0.000000 0.000000 0.251989
    34 6.681007 -0.762752 -1.054662 0.026390 0.181294 0.140098
    35 3.608305 -0.000001 0.000000 0.000000 0.000000 -0.322050
    36 3.608305 -0.000001 0.000000 0.000000 0.000000 0.340824
    37 3.408091 -0.002199 0.000000 -0.000164 -0.206941 -0.302653
    38 2.848662 0.000000 0.000000 -0.295097 0.176406 0.308687
    39 5.067991 7.235520 0.022323 -0.000003 0.000000 -2.626981
    40 -0.604384 -2.957996 0.000000 0.298453 0.021523 0.429341
    41 0.107995 -6.585735 0.000000 -0.713902 0.053721 -0.536216
    42 -3.080979 -5.452278 0.000000 0.182688 0.258809 -0.283158
    43 -3.048778 -2.270235 0.000000 0.313948 0.000000 0.000000
    44 -1.890806 -0.908390 0.000000 0.000000 0.000000 -0.662877
    45 -0.454460 -0.402742 -1.764821 1.554277 -2.337350 -0.755312
    46 -0.928989 -2.456182 2.268051 0.157728 0.015448 0.026699
    47 -0.447595 -0.389067 1.486638 1.649032 -1.316538 -1.135722
    48 1.132205 -2.455431 2.290455 0.485473 0.216798 0.102291
    49 0.424462 -1.191061 -0.110061 -1.543539 -1.209741 1.571761
    50 -0.087093 -2.917876 -0.217384 0.087210 0.000000 0.000000
  time 19
    0 21.465987 -1.270696 8.726001 -1.541477 -0.045959 -1.860660
    1 0.000000 0.000000 0.000000 -0.000040 -1.928404 -1.570763
    2 -0.000009 0.000010 6.353378 -0.189392 -0.164830 -2.150112
    3 18.507666 0.000000 0.000000 0.000000 0.000000 -1.691768
    4 13.411352 -0.000002 0.000000 2.721255 0.276577 1.231798
    5 8.701365 6.675650 0.000000 0.000000 0.000000 1.352753
    6 6.262099 -1.461580 3.610131 1.570796 1.649286 -1.570796
    7 0.000009 -0.000007 -6.353378 0.123695 -0.739156 -3.201209
    8 18.507668 0.000002 0.000000 0.000000 0.000000 -0.785155
    9 13.411351 -0.000001 0.000000 -3.575900 0.440044 0.265504
    10 6.262099 -1.470858 -4.185178 1.570795 1.492297 -1.570797
    11 6.280028 -0.742184 5.288615 1.570795 1.492297 -1.570797
    12 3.201654 -0.970599 -1.195343 0.282292 0.048988 0.796452
    13 6.150890 -0.004767 0.000000 0.000192 0.244221 0.305287
    14 6.181768 -0.006276 0.000000 0.015916 0.079828 0.437419
    15 8.035378 -0.006650 0.000000 -0.049821 -0.036063 0.316206
    16 9.041867 -0.002309 0.000000 -0.059305 -0.527548 0.269454
    17 -3.979810 4.514460 6.673877 1.082398 -2.678819 1.324485
    18 8.356073 -0.000002 0.000000 -1.567004 -0.530948 -2.586142
    19 22.314196 0.000000 0.000002 0.000000 0.000000 -1.361421
    20 13.466397 -0.000001 -0.000001 1.227645 -0.244827 -0.145068
    21 6.645414 -0.843864 -1.119306 0.014437 0.138832 0.105505
    22 3.530614 0.000000 -0.000001 0.000000 0.000000 -0.078485
    23 3.530614 -0.000001 0.000000 0.000000 0.000000 0.095945
    24 6.690087 -0.762451 1.047432 -0.004226 -0.183132 0.017897
    25 3.608304 0.000001 0.000000 0.000000 0.000000 -0.026163
    26 3.608304 0.000000 0.000001 0.000000 0.000000 -0.061021
    27 -7.112861 4.827659 0.841112 -1.138315 0.676209 1.310325
    28 8.356073 0.000003 0.000000 0.995480 0.275874 -0.993118
    29 22.314196 0.000001 0.000001 0.000000 0.000000 -1.554417
    30 13.466398 -0.000001 -0.000002 0.928964 0.344249 -0.195703
    31 6.635592 -0.843576 1.110600 -0.005448 -0.183098 0.035274
    32 3.530615 0.000000 0.000001 0.000000 0.000000 -0.061007
    33 3.530611 0.000001 -0.000003 0.000000 0.000000 0.191906
    34 6.681007 -0.762752 -1.054662 0.051947 0.175744 0.283750
    35 3.608305 -0.000001 0.000000 0.000000 0.000000 -0.392478
    36 3.608305 -0.000001 0.000000 0.000000 0.000000 0.270420
    37 3.408091 -0.002199 0.000000 -0.000209 -0.261662 -0.249064
    38 2.848662 0.000000 0.000000 -0.263444 0.280728 0.655512
    39 5.067991 7.235520 0.022323 -0.000003 0.000000 -2.626981
    40 -0.604384 -2.957996 0.000000 0.298777 0.117993 0.457828
    41 0.107995 -6.585735 0.000000 -0.857190 0.005528 -0.568933
    42 -3.080979 -5.452278 0.000000 0.182688 0.258809 -0.283158
    43 -3.048778 -2.270235 0.000000 0.331434 0.000000 0.000000
    44 -1.890806 -0.908390 0.000000 0.000000 0.000000 -0.662877
    45 -0.454460 -0.402742 -1.764821 1.554758 -2.426795 -0.758295
    46 -0.928989 -2.456182 2.268051 0.157728 0.015448 0.026699
    47 -0.447595 -0.389067 1.486638 1.599387 -1.307627 -1.058116
    48 1.132205 -2.455431 2.290455 0.485473 0.216798 0.102291
    49 0.424462 -1.191061 -0.110061 -1.543539 -1.161654 1.580342
    50 -0.087093 -2.917876 -0.217384 0.087210 0.000000 0.000000
end
