version 1
nodes
  0 "Bip01" -1
  1 "Bip01 Pelvis" 0
  2 "Bip01 L Leg" 1
  3 "Bip01 L Leg1" 2
  4 "Bip01 L Foot" 3
  5 "Bip01 L Toe0" 4
  6 "Bone13" 4
  7 "Bip01 R Leg" 1
  8 "Bip01 R Leg1" 7
  9 "Bip01 R Foot" 8
  10 "Bone19" 9
  11 "Bone16" 9
  12 "Bip01 Spine" 1
  13 "Bip01 Spine1" 12
  14 "Bip01 Spine2" 13
  15 "Bip01 Spine3" 14
  16 "Bip01 Neck" 15
  17 "Bip01 L Arm" 16
  18 "Bip01 L Arm1" 17
  19 "Bip01 L Arm2" 18
  20 "Bip01 L Hand" 19
  21 "Bip01 L Finger0" 20
  22 "Bip01 L Finger01" 21
  23 "Bip01 L Finger02" 22
  24 "Bip01 L Finger1" 20
  25 "Bip01 L Finger11" 24
  26 "Bip01 L Finger12" 25
  27 "Bip01 R Arm" 16
  28 "Bip01 R Arm1" 27
  29 "Bip01 R Arm2" 28
  30 "Bip01 R Hand" 29
  31 "Bip01 R Finger0" 30
  32 "Bip01 R Finger01" 31
  33 "Bip01 R Finger02" 32
  34 "Bip01 R Finger1" 30
  35 "Bip01 R Finger11" 34
  36 "Bip01 R Finger12" 35
  37 "Bip01 Neck1" 16
  38 "Bip01 Head" 37
  39 "Dummy04" 14
  40 "Bone05" 39
  41 "Bone06" 40
  42 "Bone07" 41
  43 "Bone08" 42
  44 "Bone09" 43
  45 "Bone22" 44
  46 "Bone23" 45
  47 "Bone26" 44
  48 "Bone27" 47
  49 "Bone30" 43
  50 "Bone31" 49
end
skeleton
  time 0
    0 -0.019043 -0.040190 35.152588 0.000000 -0.244194 -1.570836
    1 0.000000 0.000000 0.000000 0.000008 -1.562083 -1.570763
    2 -0.000009 0.000010 6.353378 -0.040784 -0.034200 -2.090038
    3 18.507666 0.000000 0.000000 0.000000 0.000000 -0.798000
    4 13.411352 -0.000002 0.000000 2.895801 0.048804 0.011006
    5 8.701365 6.675650 0.000000 0.000000 0.000000 1.614392
    6 6.262099 -1.461580 3.610131 -1.570796 1.492295 1.570796
    7 0.000009 -0.000007 -6.353378 -0.001608 -0.018715 -3.083939
    8 18.507668 0.000002 0.000000 0.000000 0.000000 -0.773423
    9 13.411351 -0.000001 0.000000 -2.934551 0.031943 0.934804
    10 6.262099 -1.470858 -4.185178 1.570795 1.492297 -1.570797
    11 6.280028 -0.742184 5.288615 1.570795 1.492297 -1.570797
    12 3.416504 -0.970599 0.027351 0.148125 -0.148696 0.740751
    13 6.150890 -0.004767 0.000000 0.000000 -0.000001 0.305269
    14 6.181768 -0.006276 0.000000 0.016479 -0.005682 0.331376
    15 8.035378 -0.006650 0.000000 -0.045760 0.025382 0.505288
    16 9.041867 -0.002309 0.000000 -0.000104 -0.139545 0.553333
    17 -4.479825 6.569210 4.189426 0.735624 -1.461651 1.859107
    18 8.356073 -0.000002 0.000000 -1.093478 0.501585 -0.963115
    19 22.314196 0.000000 0.000002 0.000000 0.000000 -2.190916
    20 13.466397 -0.000001 -0.000001 -0.601406 -0.123836 -0.277155
    21 6.645414 -0.843864 -1.119306 -0.045898 0.131846 -0.334599
    22 3.530614 0.000000 -0.000001 0.000000 0.000000 -0.357609
    23 3.530614 -0.000001 0.000000 0.000000 0.000000 0.828590
    24 6.690087 -0.762451 1.047432 0.062290 -0.172366 -0.354159
    25 3.608304 0.000001 0.000000 0.000000 0.000000 -0.357609
    26 3.608304 0.000000 0.000001 0.000000 0.000000 0.828590
    27 -5.190927 6.472240 -2.401175 2.765935 1.370186 5.364612
    28 8.356073 0.000003 0.000000 1.619495 0.129573 -1.023643
    29 22.314196 0.000001 0.000001 0.000000 0.000000 -1.313179
    30 13.466398 -0.000001 -0.000002 1.012313 -0.226548 0.603989
    31 6.635592 -0.843576 1.110600 0.070167 -0.169348 -0.389802
    32 3.530615 0.000000 0.000001 0.000000 0.000000 0.113358
    33 3.530611 0.000001 -0.000003 0.000000 0.000000 0.366368
    34 6.681007 -0.762752 -1.054662 0.013910 0.182656 0.071133
    35 3.608305 -0.000001 0.000000 0.000000 0.000000 0.113359
    36 3.608305 -0.000001 0.000000 0.000000 0.000000 0.776267
    37 3.408091 -0.002199 0.000000 -0.000073 -0.104664 0.256778
    38 2.848662 0.000000 0.000000 -0.108974 0.434391 -0.991033
    39 5.067991 7.235520 0.022323 -0.000003 0.000000 -2.626981
    40 -0.604384 -2.957996 0.000000 0.182703 -0.425340 0.176026
    41 0.107995 -6.585735 0.000000 0.000000 0.000000 0.244172
    42 -3.080979 -5.452278 0.000000 0.000000 0.000000 0.191888
    43 -3.048778 -2.270235 0.000000 0.000000 0.000000 0.000000
    44 -1.890806 -0.908390 0.000000 0.000000 0.000000 -0.067252
    45 -0.454460 -0.402742 -1.764821 0.000000 -1.570796 0.000000
    46 -0.928989 -2.456182 2.268051 0.000000 0.000000 0.000000
    47 -0.447595 -0.389067 1.486638 0.000000 -1.570796 0.000000
    48 1.132205 -2.455431 2.290455 0.000000 0.000000 0.000000
    49 0.424462 -1.191061 -0.110061 0.000000 -1.570796 0.000000
    50 -0.087093 -2.917876 -0.217384 0.000000 0.000000 0.000000
  time 1
    0 -0.019043 2.288006 32.988460 0.198464 -0.187926 -1.923450
    1 0.000000 0.000000 0.000000 -0.000040 -1.352748 -1.570763
    2 -0.000009 0.000010 6.353378 0.243775 0.346033 -2.088856
    3 18.507666 0.000000 0.000000 0.000000 0.000000 -0.800984
    4 13.411352 -0.000002 0.000000 2.706023 -0.011916 0.035540
    5 8.701365 6.675650 0.000000 0.000000 0.000000 1.614392
    6 6.262099 -1.461580 3.610131 -1.570796 1.492295 1.570796
    7 0.000009 -0.000007 -6.353378 -0.224267 0.251287 -3.195380
    8 18.507668 0.000002 0.000000 0.000000 0.000000 -1.133378
    9 13.411351 -0.000001 0.000000 -3.075721 0.120802 1.237785
    10 6.262099 -1.470858 -4.185178 1.570795 1.492297 -1.570797
    11 6.280028 -0.742184 5.288615 1.570795 1.492297 -1.570797
    12 3.338377 -0.970599 0.738310 -0.123147 -0.061225 0.750958
    13 6.150890 -0.004767 0.000000 -0.149807 0.047122 0.301738
    14 6.181768 -0.006276 0.000000 -0.132562 -0.092953 0.346834
    15 8.035378 -0.006650 0.000000 0.013389 -0.150755 0.695816
    16 9.041867 -0.002309 0.000000 -0.000104 -0.139545 0.553333
    17 -4.479825 6.569210 4.189426 -1.036403 -1.414109 3.597848
    18 8.356073 -0.000002 0.000000 -1.408825 0.470024 -1.199743
    19 22.314196 0.000000 0.000002 0.000000 0.000000 -2.158170
    20 13.466397 -0.000001 -0.000001 -0.582310 -0.201886 -0.394391
    21 6.645414 -0.843864 -1.119306 -0.063857 0.124184 -0.475110
    22 3.530614 0.000000 -0.000001 0.000000 0.000000 -0.497159
    23 3.530614 -0.000001 0.000000 0.000000 0.000000 0.689044
    24 6.690087 -0.762451 1.047432 0.085814 -0.162025 -0.495293
    25 3.608304 0.000001 0.000000 0.000000 0.000000 -0.497159
    26 3.608304 0.000000 0.000001 0.000000 0.000000 0.689044
    27 -5.190927 6.472240 -2.401175 2.163851 1.251080 4.803466
    28 8.356073 0.000003 0.000000 1.935632 0.516274 -0.773438
    29 22.314196 0.000001 0.000001 0.000000 0.000000 -1.971055
    30 13.466398 -0.000001 -0.000002 1.451486 -0.244502 0.172850
    31 6.635592 -0.843576 1.110600 0.101334 -0.152852 -0.583518
    32 3.530615 0.000000 0.000001 0.000000 0.000000 -0.078456
    33 3.530611 0.000001 -0.000003 0.000000 0.000000 0.174478
    34 6.681007 -0.762752 -1.054662 -0.021550 0.181924 -0.123954
    35 3.608305 -0.000001 0.000000 0.000000 0.000000 -0.078468
    36 3.608305 -0.000001 0.000000 0.000000 0.000000 0.584412
    37 3.408091 -0.002199 0.000000 -0.000073 -0.104664 0.256778
    38 2.848662 0.000000 0.000000 -0.129719 -0.170303 -1.146976
    39 5.067991 7.235520 0.022323 -0.000003 0.000000 -2.626981
    40 -0.604384 -2.957996 0.000000 0.219293 -0.596323 -0.002956
    41 0.107995 -6.585735 0.000000 0.000000 0.000000 -0.018164
    42 -3.080979 -5.452278 0.000000 0.000000 0.000000 -0.036328
    43 -3.048778 -2.270235 0.000000 0.000000 0.000000 0.000000
    44 -1.890806 -0.908390 0.000000 0.000000 0.000000 -0.134557
    45 -0.454460 -0.402742 -1.764821 0.000000 -1.570796 0.000000
    46 -0.928989 -2.456182 2.268051 -0.356143 0.000000 0.000000
    47 -0.447595 -0.389067 1.486638 0.000000 -1.570796 0.000000
    48 1.132205 -2.455431 2.290455 -0.345956 0.000000 0.000000
    49 0.424462 -1.191061 -0.110061 0.376491 -1.570796 0.000000
    50 -0.087093 -2.917876 -0.217384 -0.108791 0.000000 0.000000
  time 2
    0 -1.991760 2.018467 31.136841 0.194944 -0.186601 -1.943710
    1 0.000000 0.000000 0.000000 -0.000040 -1.553167 -1.570763
    2 -0.000009 0.000010 6.353378 0.079284 0.186162 -1.936022
    3 18.507666 0.000000 0.000000 0.000000 0.000000 -1.104553
    4 13.411352 -0.000002 0.000000 2.672398 0.033982 0.133527
    5 8.701365 6.675650 0.000000 0.000000 0.000000 1.614392
    6 6.262099 -1.461580 3.610131 -1.570796 1.492295 1.570796
    7 0.000009 -0.000007 -6.353378 -0.250240 -0.035422 -3.185338
    8 18.507668 0.000002 0.000000 0.000000 0.000000 -1.043212
    9 13.411351 -0.000001 0.000000 -3.144916 0.181127 1.305594
    10 6.262099 -1.470858 -4.185178 1.570795 1.492297 -1.570797
    11 6.280028 -0.742184 5.288615 1.570795 1.492297 -1.570797
    12 3.416504 -0.970599 0.058602 -0.014878 0.111864 0.749112
    13 6.150890 -0.004767 0.000000 -0.190927 0.059886 0.299527
    14 6.181768 -0.006276 0.000000 -0.172051 -0.072472 0.381297
    15 8.035378 -0.006650 0.000000 0.012773 -0.151462 0.749461
    16 9.041867 -0.002309 0.000000 0.000121 0.152104 0.553333
    17 -5.491575 6.569210 2.724537 -0.714269 -1.139715 3.286456
    18 8.356073 -0.000002 0.000000 -1.530077 0.322708 -1.469742
    19 22.314196 0.000000 0.000002 0.000000 0.000000 -1.918530
    20 13.466397 -0.000001 -0.000001 -0.836150 0.092979 -0.286807
    21 6.645414 -0.843864 -1.119306 -0.044030 0.132486 -0.320471
    22 3.530614 0.000000 -0.000001 0.000000 0.000000 -0.511136
    23 3.530614 -0.000001 0.000000 0.000000 0.000000 0.675063
    24 6.690087 -0.762451 1.047432 0.068470 -0.170033 -0.390411
    25 3.608304 0.000001 0.000000 0.000000 0.000000 -0.513074
    26 3.608304 0.000000 0.000001 0.000000 0.000000 0.673120
    27 -4.284650 6.472240 -3.791842 2.907157 1.124274 5.498547
    28 8.356073 0.000003 0.000000 1.566900 0.578401 -1.026440
    29 22.314196 0.000001 0.000001 0.000000 0.000000 -1.958659
    30 13.466398 -0.000001 -0.000002 1.507342 -0.449138 0.040245
    31 6.635592 -0.843576 1.110600 0.039895 -0.228028 -0.349153
    32 3.530615 0.000000 0.000001 0.000000 0.000000 -0.100435
    33 3.530611 0.000001 -0.000003 0.000000 0.000000 0.152486
    34 6.681007 -0.762752 -1.054662 -0.023291 0.181703 -0.133546
    35 3.608305 -0.000001 0.000000 0.000000 0.000000 -0.087906
    36 3.608305 -0.000001 0.000000 0.000000 0.000000 0.574982
    37 3.408091 -0.002199 0.000000 0.000032 0.046557 0.256778
    38 2.848662 0.000000 0.000000 -0.131937 -0.063358 -0.769474
    39 5.067991 7.235520 0.022323 -0.000003 0.000000 -2.626981
    40 -0.604384 -2.957996 0.000000 0.217317 -0.615415 -0.213542
    41 0.107995 -6.585735 0.000000 0.000000 0.000000 -0.261625
    42 -3.080979 -5.452278 0.000000 0.000000 0.000000 -0.226739
    43 -3.048778 -2.270235 0.000000 0.000000 0.000000 0.000000
    44 -1.890806 -0.908390 0.000000 0.000000 0.000000 -0.201809
    45 -0.454460 -0.402742 -1.764821 0.000000 -1.570796 0.000000
    46 -0.928989 -2.456182 2.268051 -0.610539 0.000000 0.000000
    47 -0.447595 -0.389067 1.486638 0.000000 -1.570796 0.000000
    48 1.132205 -2.455431 2.290455 -0.593105 0.000000 0.000000
    49 0.424462 -1.191061 -0.110061 0.645436 -1.570796 0.000000
    50 -0.087093 -2.917876 -0.217384 -0.242560 0.000000 0.000000
  time 3
    0 -2.866786 1.534077 30.019619 0.172443 -0.194492 -1.928553
    1 0.000000 0.000000 0.000000 -0.000040 -1.396228 -1.570763
    2 -0.000009 0.000010 6.353378 0.206468 0.181328 -1.893687
    3 18.507666 0.000000 0.000000 0.000000 0.000000 -1.108346
    4 13.411352 -0.000002 0.000000 2.651705 0.062861 0.117908
    5 8.701365 6.675650 0.000000 0.000000 0.000000 1.614392
    6 6.262099 -1.461580 3.610131 1.570796 1.649286 -1.570796
    7 0.000009 -0.000007 -6.353378 -0.236079 0.077000 -3.106215
    8 18.507668 0.000002 0.000000 0.000000 0.000000 -1.266427
    9 13.411351 -0.000001 0.000000 -3.009784 0.221631 1.464526
    10 6.262099 -1.470858 -4.185178 1.570795 1.492297 -1.570797
    11 6.280028 -0.742184 5.288615 1.570795 1.492297 -1.570797
    12 3.365721 -0.970599 0.589868 -0.131344 0.005528 0.740968
    13 6.150890 -0.004767 0.000000 -0.199855 0.062654 0.298992
    14 6.181768 -0.006276 0.000000 -0.176881 -0.062692 0.419115
    15 8.035378 -0.006650 0.000000 0.012983 -0.151223 0.730754
    16 9.041867 -0.002309 0.000000 0.000259 0.331424 0.553375
    17 -5.890025 6.569210 1.701069 -0.628174 -0.979805 3.204899
    18 8.356073 -0.000002 0.000000 -1.493334 0.193113 -1.645783
    19 22.314196 0.000000 0.000002 0.000000 0.000000 -1.697739
    20 13.466397 -0.000001 -0.000001 -1.058785 0.395642 -0.243040
    21 6.645414 -0.843864 -1.119306 -0.021810 0.137863 -0.156056
    22 3.530614 0.000000 -0.000001 0.000000 0.000000 -0.505298
    23 3.530614 -0.000001 0.000000 0.000000 0.000000 0.680895
    24 6.690087 -0.762451 1.047432 0.048004 -0.176838 -0.272081
    25 3.608304 0.000001 0.000000 0.000000 0.000000 -0.508568
    26 3.608304 0.000000 0.000001 0.000000 0.000000 0.677605
    27 -3.538533 6.472240 -4.494989 -3.093556 0.983796 -0.531784
    28 8.356073 0.000003 0.000000 1.220953 0.424179 -1.242089
    29 22.314196 0.000001 0.000001 0.000000 0.000000 -1.876112
    30 13.466398 -0.000001 -0.000002 1.530205 -0.641814 -0.051487
    31 6.635592 -0.843576 1.110600 -0.041134 -0.282578 -0.090035
    32 3.530615 0.000000 0.000001 0.000000 0.000000 -0.088680
    33 3.530611 0.000001 -0.000003 0.000000 0.000000 0.164237
    34 6.681007 -0.762752 -1.054662 -0.019791 0.182111 -0.114196
    35 3.608305 -0.000001 0.000000 0.000000 0.000000 -0.068859
    36 3.608305 -0.000001 0.000000 0.000000 0.000000 0.594034
    37 3.408091 -0.002199 0.000000 0.000108 0.139546 0.256778
    38 2.848662 0.000000 0.000000 -0.176053 0.045713 -0.488122
    39 5.067991 7.235520 0.022323 -0.000003 0.000000 -2.626981
    40 -0.604384 -2.957996 0.000000 0.128361 -0.467785 -0.350063
    41 0.107995 -6.585735 0.000000 0.000000 0.000000 -0.268573
    42 -3.080979 -5.452278 0.000000 0.000000 0.000000 -0.214480
    43 -3.048778 -2.270235 0.000000 0.000000 0.000000 0.000000
    44 -1.890806 -0.908390 0.000000 0.000000 0.000000 -0.269114
    45 -0.454460 -0.402742 -1.764821 0.000000 -1.570796 0.000000
    46 -0.928989 -2.456182 2.268051 -0.592650 0.000000 0.000000
    47 -0.447595 -0.389067 1.486638 0.000000 -1.570796 0.000000
    48 1.132205 -2.455431 2.290455 -0.575714 0.000000 0.000000
    49 0.424462 -1.191061 -0.110061 0.626486 -1.570796 0.000000
    50 -0.087093 -2.917876 -0.217384 -0.381258 0.000000 0.000000
  time 4
    0 0.172369 1.178597 30.312597 0.148944 -0.203188 -1.902726
    1 0.000000 0.000000 0.000000 -0.000040 -1.639072 -1.570763
    2 -0.000009 0.000010 6.353378 0.028442 0.184772 -1.840094
    3 18.507666 0.000000 0.000000 0.000000 0.000000 -1.248727
    4 13.411352 -0.000002 0.000000 2.724034 -0.040316 0.178764
    5 8.701365 6.675650 0.000000 0.000000 0.000000 1.614392
    6 6.262099 -1.461580 3.610131 -1.570796 1.492295 1.570796
    7 0.000009 -0.000007 -6.353378 -0.142604 -0.097674 -3.144594
    8 18.507668 0.000002 0.000000 0.000000 0.000000 -1.130546
    9 13.411351 -0.000001 0.000000 -3.098913 0.144549 1.336237
    10 6.262099 -1.470858 -4.185178 1.570795 1.492297 -1.570797
    11 6.280028 -0.742184 5.288615 1.570795 1.492297 -1.570797
    12 3.408691 -0.970599 -0.230470 0.048832 0.031290 0.640071
    13 6.150890 -0.004767 0.000000 -0.092042 0.056602 0.323656
    14 6.181768 -0.006276 0.000000 -0.056268 -0.096561 0.459800
    15 8.035378 -0.006650 0.000000 0.006852 -0.155070 0.345865
    16 9.041867 -0.002309 0.000000 0.000069 0.090443 0.376073
    17 -6.390040 5.584805 2.962826 -0.532013 -1.242782 3.285690
    18 8.356073 -0.000002 0.000000 -1.131048 0.530943 -1.561446
    19 22.314196 0.000000 0.000002 0.000000 0.000000 -1.475271
    20 13.466397 -0.000001 -0.000001 -1.322562 0.712063 -0.280898
    21 6.645414 -0.843864 -1.119306 0.009489 0.139252 0.069864
    22 3.530614 0.000000 -0.000001 0.000000 0.000000 -0.445224
    23 3.530614 -0.000001 0.000000 0.000000 0.000000 0.740968
    24 6.690087 -0.762451 1.047432 0.015211 -0.182548 -0.088922
    25 3.608304 0.000001 0.000000 0.000000 0.000000 -0.445224
    26 3.608304 0.000000 0.000001 0.000000 0.000000 0.740968
    27 -5.565939 5.522992 -3.616056 2.916456 1.171413 5.689718
    28 8.356073 0.000003 0.000000 1.158296 -0.243672 -1.554003
    29 22.314196 0.000001 0.000001 0.000000 0.000000 -1.792612
    30 13.466398 -0.000001 -0.000002 1.532809 -0.759596 -0.132420
    31 6.635592 -0.843576 1.110600 -0.132788 -0.302054 0.189092
    32 3.530615 0.000000 0.000001 0.000000 0.000000 -0.007130
    33 3.530611 0.000001 -0.000003 0.000000 0.000000 0.245844
    34 6.681007 -0.762752 -1.054662 -0.008387 0.182980 -0.051384
    35 3.608305 -0.000001 0.000000 0.000000 0.000000 -0.007121
    36 3.608305 -0.000001 0.000000 0.000000 0.000000 0.655771
    37 3.408091 -0.002199 0.000000 0.000002 0.014594 0.079495
    38 2.848662 0.000000 0.000000 -0.104463 0.074638 0.031974
    39 5.067991 7.235520 0.022323 -0.000003 0.000000 -2.626981
    40 -0.604384 -2.957996 0.000000 -0.017023 -0.262686 -0.494162
    41 0.107995 -6.585735 0.000000 0.000000 0.000000 -0.213316
    42 -3.080979 -5.452278 0.000000 0.000000 0.000000 -0.180982
    43 -3.048778 -2.270235 0.000000 0.000000 0.000000 0.000000
    44 -1.890806 -0.908390 0.000000 0.000000 0.000000 -0.336419
    45 -0.454460 -0.402742 -1.764821 0.000000 -1.570796 0.000000
    46 -0.928989 -2.456182 2.268051 -0.543751 0.000000 0.000000
    47 -0.447595 -0.389067 1.486638 0.000000 -1.570796 0.000000
    48 1.132205 -2.455431 2.290455 -0.528210 0.000000 0.000000
    49 0.424462 -1.191061 -0.110061 0.574818 -1.570796 0.000000
    50 -0.087093 -2.917876 -0.217384 -0.505048 0.000000 0.000000
  time 5
    0 4.004517 0.772335 31.289189 0.126585 -0.211539 -1.869011
    1 0.000000 0.000000 0.000000 -0.000040 -1.512359 -1.570763
    2 -0.000009 0.000010 6.353378 0.171713 0.326525 -1.912324
    3 18.507666 0.000000 0.000000 0.000000 0.000000 -1.080988
    4 13.411352 -0.000002 0.000000 2.808049 -0.150569 0.119677
    5 8.701365 6.675650 0.000000 0.000000 0.000000 1.614392
    6 6.262099 -1.461580 3.610131 -1.570796 1.492295 1.570796
    7 0.000009 -0.000007 -6.353378 -0.052771 0.146056 -3.152270
    8 18.507668 0.000002 0.000000 0.000000 0.000000 -1.130748
    9 13.411351 -0.000001 0.000000 -3.181622 0.025719 1.328760
    10 6.262099 -1.470858 -4.185178 1.570795 1.492297 -1.570797
    11 6.280028 -0.742184 5.288615 1.570795 1.492297 -1.570797
    12 3.412598 -0.970599 0.199231 0.014209 -0.189634 0.575955
    13 6.150890 -0.004767 0.000000 -0.134707 -0.021501 0.346306
    14 6.181768 -0.006276 0.000000 -0.112104 -0.069979 0.481204
    15 8.035378 -0.006650 0.000000 -0.005790 -0.143001 0.345930
    16 9.041867 -0.002309 0.000000 -0.000104 -0.139545 0.274243
    17 -6.077530 4.932441 4.412089 -0.802856 -1.476779 3.655474
    18 8.356073 -0.000002 0.000000 -1.102572 0.472757 -1.194976
    19 22.314196 0.000000 0.000002 0.000000 0.000000 -1.589719
    20 13.466397 -0.000001 -0.000001 -1.267369 0.634899 -0.271365
    21 6.645414 -0.843864 -1.119306 0.070938 0.120289 0.536232
    22 3.530614 0.000000 -0.000001 0.000000 0.000000 0.050383
    23 3.530614 -0.000001 0.000000 0.000000 0.000000 1.236613
    24 6.690087 -0.762451 1.047432 -0.077786 -0.166002 0.435562
    25 3.608304 0.000001 0.000000 0.000000 0.000000 0.094905
    26 3.608304 0.000000 0.000001 0.000000 0.000000 1.281134
    27 -6.773007 4.897973 -2.182418 2.469878 1.354486 5.363557
    28 8.356073 0.000003 0.000000 1.235479 -0.221436 -1.696260
    29 22.314196 0.000001 0.000001 0.000000 0.000000 -1.734403
    30 13.466398 -0.000001 -0.000002 1.415021 -0.619927 -0.146470
    31 6.635592 -0.843576 1.110600 -0.217498 -0.246666 0.538089
    32 3.530615 0.000000 0.000001 0.000000 0.000000 0.348762
    33 3.530611 0.000001 -0.000003 0.000000 0.000000 0.601739
    34 6.681007 -0.762752 -1.054662 0.036616 0.179523 0.197023
    35 3.608305 -0.000001 0.000000 0.000000 0.000000 0.237245
    36 3.608305 -0.000001 0.000000 0.000000 0.000000 0.900122
    37 3.408091 -0.002199 0.000000 -0.000073 -0.104664 -0.022303
    38 2.848662 0.000000 0.000000 0.286465 0.076410 -0.207433
    39 5.067991 7.235520 0.022323 -0.000003 0.000000 -2.626981
    40 -0.604384 -2.957996 0.000000 -0.163624 -0.083229 -0.613376
    41 0.107995 -6.585735 0.000000 0.000000 0.000000 -0.129828
    42 -3.080979 -5.452278 0.000000 0.000000 0.000000 -0.131082
    43 -3.048778 -2.270235 0.000000 0.000000 0.000000 0.000000
    44 -1.890806 -0.908390 0.000000 0.000000 0.000000 -0.403671
    45 -0.454460 -0.402742 -1.764821 0.000000 -1.570796 0.000000
    46 -0.928989 -2.456182 2.268051 -0.471010 0.000000 0.000000
    47 -0.447595 -0.389067 1.486638 0.000000 -1.570796 0.000000
    48 1.132205 -2.455431 2.290455 -0.457550 0.000000 0.000000
    49 0.424462 -1.191061 -0.110061 0.497884 -1.570796 0.000000
    50 -0.087093 -2.917876 -0.217384 -0.593912 0.000000 0.000000
  time 6
    0 2.680258 0.401230 32.183748 0.101516 -0.220754 -1.816274
    1 0.000000 0.000000 0.000000 -0.000040 -1.584902 -1.570763
    2 -0.000009 0.000010 6.353378 0.056802 0.222312 -1.939570
    3 18.507666 0.000000 0.000000 0.000000 0.000000 -1.045184
    4 13.411352 -0.000002 0.000000 2.813414 -0.097307 0.091533
    5 8.701365 6.675650 0.000000 0.000000 0.000000 1.614392
    6 6.262099 -1.461580 3.610131 -1.570796 1.492295 1.570796
    7 0.000009 -0.000007 -6.353378 -0.044839 0.032593 -3.119489
    8 18.507668 0.000002 0.000000 0.000000 0.000000 -1.043364
    9 13.411351 -0.000001 0.000000 -3.130732 0.044774 1.218578
    10 6.262099 -1.470858 -4.185178 1.570795 1.492297 -1.570797
    11 6.280028 -0.742184 5.288615 1.570795 1.492297 -1.570797
    12 3.416504 -0.970599 -0.046870 0.086799 -0.133829 0.603561
    13 6.150890 -0.004767 0.000000 -0.105608 -0.023023 0.337032
    14 6.181768 -0.006276 0.000000 -0.086685 -0.056137 0.444469
    15 8.035378 -0.006650 0.000000 -0.016991 -0.102625 0.385600
    16 9.041867 -0.002309 0.000000 -0.000104 -0.139545 0.312636
    17 -5.886118 5.186355 4.384744 -0.485611 -1.494862 3.305026
    18 8.356073 -0.000002 0.000000 -1.107440 0.461561 -0.994318
    19 22.314196 0.000000 0.000002 0.000000 0.000000 -1.843496
    20 13.466397 -0.000001 -0.000001 -1.099307 0.405279 -0.259980
    21 6.645414 -0.843864 -1.119306 0.030562 0.136199 0.223032
    22 3.530614 0.000000 -0.000001 0.000000 0.000000 -0.151833
    23 3.530614 -0.000001 0.000000 0.000000 0.000000 1.034377
    24 6.690087 -0.762451 1.047432 -0.040541 -0.178677 0.219092
    25 3.608304 0.000001 0.000000 0.000000 0.000000 -0.041012
    26 3.608304 0.000000 0.000001 0.000000 0.000000 1.145177
    27 -6.581595 5.140168 -2.205856 2.539770 1.362824 5.390977
    28 8.356073 0.000003 0.000000 1.406174 -0.189274 -1.431080
    29 22.314196 0.000001 0.000001 0.000000 0.000000 -1.676330
    30 13.466398 -0.000001 -0.000002 1.238122 -0.326883 -0.137877
    31 6.635592 -0.843576 1.110600 -0.235326 -0.174489 0.756756
    32 3.530615 0.000000 0.000001 0.000000 0.000000 0.724919
    33 3.530611 0.000001 -0.000003 0.000000 0.000000 0.977900
    34 6.681007 -0.762752 -1.054662 0.075182 0.167196 0.419795
    35 3.608305 -0.000001 0.000000 0.000000 0.000000 0.457011
    36 3.608305 -0.000001 0.000000 0.000000 0.000000 1.119924
    37 3.408091 -0.002199 0.000000 -0.000073 -0.104664 0.016073
    38 2.848662 0.000000 0.000000 0.247828 0.130999 -0.365128
    39 5.067991 7.235520 0.022323 -0.000003 0.000000 -2.626981
    40 -0.604384 -2.957996 0.000000 -0.232527 0.011340 -0.643152
    41 0.107995 -6.585735 0.000000 0.000000 0.000000 -0.052303
    42 -3.080979 -5.452278 0.000000 0.000000 0.000000 -0.069744
    43 -3.048778 -2.270235 0.000000 0.000000 0.000000 0.000000
    44 -1.890806 -0.908390 0.000000 0.000000 0.000000 -0.470976
    45 -0.454460 -0.402742 -1.764821 0.000000 -1.570796 0.000000
    46 -0.928989 -2.456182 2.268051 -0.381594 0.000000 0.000000
    47 -0.447595 -0.389067 1.486638 0.000000 -1.570796 0.000000
    48 1.132205 -2.455431 2.290455 -0.370691 0.000000 0.000000
    49 0.424462 -1.191061 -0.110061 0.403377 -1.570796 0.000000
    50 -0.087093 -2.917876 -0.217384 -0.627981 0.000000 0.000000
  time 7
    0 1.531785 0.217630 33.121276 0.072545 -0.229969 -1.747839
    1 0.000000 0.000000 0.000000 -0.000040 -1.496276 -1.570763
    2 -0.000009 0.000010 6.353378 0.083848 0.172301 -2.003381
    3 18.507666 0.000000 0.000000 0.000000 0.000000 -0.917243
    4 13.411352 -0.000002 0.000000 2.828071 -0.040890 0.043644
    5 8.701365 6.675650 0.000000 0.000000 0.000000 1.614392
    6 6.262099 -1.461580 3.610131 -1.570796 1.492295 1.570796
    7 0.000009 -0.000007 -6.353378 -0.030406 0.091141 -3.073954
    8 18.507668 0.000002 0.000000 0.000000 0.000000 -1.043718
    9 13.411351 -0.000001 0.000000 -3.070354 0.050136 1.182657
    10 6.262099 -1.470858 -4.185178 1.570795 1.492297 -1.570797
    11 6.280028 -0.742184 5.288615 1.570795 1.492297 -1.570797
    12 3.408691 -0.970599 0.250014 0.061104 -0.202689 0.655707
    13 6.150890 -0.004767 0.000000 -0.071165 -0.017223 0.325779
    14 6.181768 -0.006276 0.000000 -0.054074 -0.041528 0.405398
    15 8.035378 -0.006650 0.000000 -0.027210 -0.060451 0.426365
    16 9.041867 -0.002309 0.000000 -0.000104 -0.139545 0.381794
    17 -5.515013 5.616056 4.333961 -0.042580 -1.500171 2.797686
    18 8.356073 -0.000002 0.000000 -1.120760 0.452833 -0.852601
    19 22.314196 0.000000 0.000002 0.000000 0.000000 -2.069359
    20 13.466397 -0.000001 -0.000001 -0.954920 0.196160 -0.282119
    21 6.645414 -0.843864 -1.119306 -0.016894 0.138558 -0.120231
    22 3.530614 0.000000 -0.000001 0.000000 0.000000 -0.390480
    23 3.530614 -0.000001 0.000000 0.000000 0.000000 0.795694
    24 6.690087 -0.762451 1.047432 0.006605 -0.183061 -0.041698
    25 3.608304 0.000001 0.000000 0.000000 0.000000 -0.225181
    26 3.608304 0.000000 0.000001 0.000000 0.000000 0.960997
    27 -6.214396 5.558150 -2.260546 2.602567 1.366768 5.381006
    28 8.356073 0.000003 0.000000 1.558451 -0.186411 -1.154546
    29 22.314196 0.000001 0.000001 0.000000 0.000000 -1.615033
    30 13.466398 -0.000001 -0.000002 1.084520 -0.063309 -0.161217
    31 6.635592 -0.843576 1.110600 -0.186461 -0.180371 0.631132
    32 3.530615 0.000000 0.000001 0.000000 0.000000 0.745307
    33 3.530611 0.000001 -0.000003 0.000000 0.000000 0.998275
    34 6.681007 -0.762752 -1.054662 0.054866 0.174858 0.300520
    35 3.608305 -0.000001 0.000000 0.000000 0.000000 0.339224
    36 3.608305 -0.000001 0.000000 0.000000 0.000000 1.002101
    37 3.408091 -0.002199 0.000000 -0.000073 -0.104664 0.085219
    38 2.848662 0.000000 0.000000 0.147771 0.226033 -0.532528
    39 5.067991 7.235520 0.022323 -0.000003 0.000000 -2.626981
    40 -0.604384 -2.957996 0.000000 -0.171364 0.001758 -0.522272
    41 0.107995 -6.585735 0.000000 0.000000 0.000000 0.015647
    42 -3.080979 -5.452278 0.000000 0.000000 0.000000 -0.001886
    43 -3.048778 -2.270235 0.000000 0.000000 0.000000 0.000000
    44 -1.890806 -0.908390 0.000000 0.000000 0.000000 -0.470976
    45 -0.454460 -0.402742 -1.764821 0.000000 -1.570796 0.000000
    46 -0.928989 -2.456182 2.268051 -0.282612 0.000000 0.000000
    47 -0.447595 -0.389067 1.486638 0.000000 -1.570796 0.000000
    48 1.132205 -2.455431 2.290455 -0.274524 0.000000 0.000000
    49 0.424462 -1.191061 -0.110061 0.298747 -1.570796 0.000000
    50 -0.087093 -2.917876 -0.217384 -0.559291 0.000000 0.000000
  time 8
    0 0.680197 0.080908 33.945520 0.043622 -0.237168 -1.677161
    1 0.000000 0.000000 0.000000 -0.000040 -1.515271 -1.570763
    2 -0.000009 0.000010 6.353378 0.026740 0.090120 -2.041695
    3 18.507666 0.000000 0.000000 0.000000 0.000000 -0.863437
    4 13.411352 -0.000002 0.000000 2.857386 0.005296 0.025889
    5 8.701365 6.675650 0.000000 0.000000 0.000000 1.614392
    6 6.262099 -1.461580 3.610131 -1.570796 1.492295 1.570796
    7 0.000009 -0.000007 -6.353378 -0.024619 0.049881 -3.064490
    8 18.507668 0.000002 0.000000 0.000000 0.000000 -0.957042
    9 13.411351 -0.000001 0.000000 -3.008825 0.046689 1.093149
    10 6.262099 -1.470858 -4.185178 1.570795 1.492297 -1.570797
    11 6.280028 -0.742184 5.288615 1.570795 1.492297 -1.570797
    12 3.412598 -0.970599 0.187512 0.091689 -0.184656 0.690696
    13 6.150890 -0.004767 0.000000 -0.042294 -0.010571 0.316933
    14 6.181768 -0.006276 0.000000 -0.025827 -0.028189 0.374439
    15 8.035378 -0.006650 0.000000 -0.034965 -0.025876 0.458872
    16 9.041867 -0.002309 0.000000 -0.000104 -0.139545 0.450740
    17 -5.116563 6.022318 4.279272 0.363156 -1.491190 2.327679
    18 8.356073 -0.000002 0.000000 -1.135089 0.453097 -0.753616
    19 22.314196 0.000000 0.000002 0.000000 0.000000 -2.251055
    20 13.466397 -0.000001 -0.000001 -0.813173 0.013431 -0.317258
    21 6.645414 -0.843864 -1.119306 -0.054615 0.128500 -0.401835
    22 3.530614 0.000000 -0.000001 0.000000 0.000000 -0.571258
    23 3.530614 -0.000001 0.000000 0.000000 0.000000 0.614991
    24 6.690087 -0.762451 1.047432 0.047638 -0.176945 -0.269858
    25 3.608304 0.000001 0.000000 0.000000 0.000000 -0.379361
    26 3.608304 0.000000 0.000001 0.000000 0.000000 0.806834
    27 -5.823759 5.948786 -2.315235 2.672842 1.369773 5.378705
    28 8.356073 0.000003 0.000000 1.708070 -0.176581 -0.894468
    29 22.314196 0.000001 0.000001 0.000000 0.000000 -1.541386
    30 13.466398 -0.000001 -0.000002 0.941336 0.174507 -0.162784
    31 6.635592 -0.843576 1.110600 -0.093421 -0.201307 0.303012
    32 3.530615 0.000000 0.000001 0.000000 0.000000 0.589309
    33 3.530611 0.000001 -0.000003 0.000000 0.000000 0.842284
    34 6.681007 -0.762752 -1.054662 0.008378 0.182997 0.040702
    35 3.608305 -0.000001 0.000000 0.000000 0.000000 0.083443
    36 3.608305 -0.000001 0.000000 0.000000 0.000000 0.746333
    37 3.408091 -0.002199 0.000000 -0.000073 -0.104664 0.154173
    38 2.848662 0.000000 0.000000 0.047560 0.316388 -0.700071
    39 5.067991 7.235520 0.022323 -0.000003 0.000000 -2.626981
    40 -0.604384 -2.957996 0.000000 -0.037104 -0.094737 -0.297873
    41 0.107995 -6.585735 0.000000 0.000000 0.000000 0.090491
    42 -3.080979 -5.452278 0.000000 0.000000 0.000000 0.067571
    43 -3.048778 -2.270235 0.000000 0.000000 0.000000 0.000000
    44 -1.890806 -0.908390 0.000000 0.000000 0.000000 -0.470976
    45 -0.454460 -0.402742 -1.764821 0.000000 -1.570796 0.000000
    46 -0.928989 -2.456182 2.268051 -0.181232 0.000000 0.000000
    47 -0.447595 -0.389067 1.486638 0.000000 -1.570796 0.000000
    48 1.132205 -2.455431 2.290455 -0.176070 0.000000 0.000000
    49 0.424462 -1.191061 -0.110061 0.191606 -1.570796 0.000000
    50 -0.087093 -2.917876 -0.217384 -0.392492 0.000000 0.000000
  time 9
    0 0.156743 -0.008939 34.633041 0.018220 -0.241833 -1.614603
    1 0.000000 0.000000 0.000000 -0.000040 -1.542632 -1.570763
    2 -0.000009 0.000010 6.353378 -0.020493 0.016153 -2.069367
    3 18.507666 0.000000 0.000000 0.000000 0.000000 -0.826622
    4 13.411352 -0.000002 0.000000 2.883156 0.036756 0.017195
    5 8.701365 6.675650 0.000000 0.000000 0.000000 1.614392
    6 6.262099 -1.461580 3.610131 -1.570796 1.492295 1.570796
    7 0.000009 -0.000007 -6.353378 -0.020636 0.009518 -3.070376
    8 18.507668 0.000002 0.000000 0.000000 0.000000 -0.859392
    9 13.411351 -0.000001 0.000000 -2.955827 0.036922 1.005472
    10 6.262099 -1.470858 -4.185178 1.570795 1.492297 -1.570797
    11 6.280028 -0.742184 5.288615 1.570795 1.492297 -1.570797
    12 3.416504 -0.970599 0.093759 0.123952 -0.162463 0.718710
    13 6.150890 -0.004767 0.000000 -0.018468 -0.004483 0.310156
    14 6.181768 -0.006276 0.000000 -0.002049 -0.016072 0.349934
    15 8.035378 -0.006650 0.000000 -0.041057 0.002684 0.485048
    16 9.041867 -0.002309 0.000000 -0.000104 -0.139545 0.510702
    17 -4.753271 6.350453 4.224583 0.619330 -1.474903 2.015616
    18 8.356073 -0.000002 0.000000 -1.118922 0.476107 -0.820964
    19 22.314196 0.000000 0.000002 0.000000 0.000000 -2.266150
    20 13.466397 -0.000001 -0.000001 -0.683458 -0.088626 -0.310483
    21 6.645414 -0.843864 -1.119306 -0.058417 0.126817 -0.431654
    22 3.530614 0.000000 -0.000001 0.000000 0.000000 -0.511790
    23 3.530614 -0.000001 0.000000 0.000000 0.000000 0.674391
    24 6.690087 -0.762451 1.047432 0.062523 -0.172295 -0.355486
    25 3.608304 0.000001 0.000000 0.000000 0.000000 -0.400218
    26 3.608304 0.000000 0.000001 0.000000 0.000000 0.785975
    27 -5.460467 6.265202 -2.366018 2.727873 1.370449 5.370939
    28 8.356073 0.000003 0.000000 1.693450 -0.022264 -0.923265
    29 22.314196 0.000001 0.000001 0.000000 0.000000 -1.418837
    30 13.466398 -0.000001 -0.000002 1.002763 0.016217 0.221096
    31 6.635592 -0.843576 1.110600 0.061419 -0.186408 -0.392649
    32 3.530615 0.000000 0.000001 0.000000 0.000000 0.028869
    33 3.530611 0.000001 -0.000003 0.000000 0.000000 0.281850
    34 6.681007 -0.762752 -1.054662 -0.050624 0.176118 -0.286890
    35 3.608305 -0.000001 0.000000 0.000000 0.000000 -0.238914
    36 3.608305 -0.000001 0.000000 0.000000 0.000000 0.423980
    37 3.408091 -0.002199 0.000000 -0.000073 -0.104664 0.214138
    38 2.848662 0.000000 0.000000 -0.041564 0.389763 -0.859375
    39 5.067991 7.235520 0.022323 -0.000003 0.000000 -2.626981
    40 -0.604384 -2.957996 0.000000 0.096155 -0.257245 -0.047245
    41 0.107995 -6.585735 0.000000 0.000000 0.000000 0.168016
    42 -3.080979 -5.452278 0.000000 0.000000 0.000000 0.133830
    43 -3.048778 -2.270235 0.000000 0.000000 0.000000 0.000000
    44 -1.890806 -0.908390 0.000000 0.000000 0.000000 -0.470976
    45 -0.454460 -0.402742 -1.764821 0.000000 -1.570796 0.000000
    46 -0.928989 -2.456182 2.268051 -0.084648 0.000000 0.000000
    47 -0.447595 -0.389067 1.486638 0.000000 -1.570796 0.000000
    48 1.132205 -2.455431 2.290455 -0.082222 0.000000 0.000000
    49 0.424462 -1.191061 -0.110061 0.089486 -1.570796 0.000000
    50 -0.087093 -2.917876 -0.217384 -0.186420 0.000000 0.000000
  time 10
    0 -0.019043 -0.040190 35.152588 0.000000 -0.244194 -1.570836
    1 0.000000 0.000000 0.000000 0.000008 -1.562083 -1.570763
    2 -0.000009 0.000010 6.353378 -0.036555 -0.035655 -2.089991
    3 18.507666 0.000000 0.000000 0.000000 0.000000 -0.798000
    4 13.411352 -0.000002 0.000000 2.891778 0.046892 0.010785
    5 8.701365 6.675650 0.000000 0.000000 0.000000 1.614392
    6 6.262099 -1.461580 3.610131 -1.570796 1.492295 1.570796
    7 0.000009 -0.000007 -6.353378 -0.017369 -0.013460 -3.083996
    8 18.507668 0.000002 0.000000 0.000000 0.000000 -0.773423
    9 13.411351 -0.000001 0.000000 -2.919888 0.024187 0.935244
    10 6.262099 -1.470858 -4.185178 1.570795 1.492297 -1.570797
    11 6.280028 -0.742184 5.288615 1.570795 1.492297 -1.570797
    12 3.416504 -0.970599 0.027351 0.148125 -0.148696 0.740751
    13 6.150890 -0.004767 0.000000 0.000000 -0.000001 0.305269
    14 6.181768 -0.006276 0.000000 0.016479 -0.005682 0.331376
    15 8.035378 -0.006650 0.000000 -0.045760 0.025382 0.505288
    16 9.041867 -0.002309 0.000000 -0.000104 -0.139545 0.553333
    17 -4.479825 6.569210 4.189426 0.735624 -1.461651 1.859107
    18 8.356073 -0.000002 0.000000 -1.093478 0.501585 -0.963115
    19 22.314196 0.000000 0.000002 0.000000 0.000000 -2.190916
    20 13.466397 -0.000001 -0.000001 -0.601406 -0.123836 -0.277155
    21 6.645414 -0.843864 -1.119306 -0.045898 0.131846 -0.334599
    22 3.530614 0.000000 -0.000001 0.000000 0.000000 -0.357609
    23 3.530614 -0.000001 0.000000 0.000000 0.000000 0.828590
    24 6.690087 -0.762451 1.047432 0.062290 -0.172366 -0.354159
    25 3.608304 0.000001 0.000000 0.000000 0.000000 -0.357609
    26 3.608304 0.000000 0.000001 0.000000 0.000000 0.828590
    27 -5.190927 6.472240 -2.401175 2.765935 1.370186 5.364612
    28 8.356073 0.000003 0.000000 1.619495 0.129573 -1.023643
    29 22.314196 0.000001 0.000001 0.000000 0.000000 -1.313179
    30 13.466398 -0.000001 -0.000002 1.012313 -0.226548 0.603989
    31 6.635592 -0.843576 1.110600 0.070167 -0.169348 -0.389802
    32 3.530615 0.000000 0.000001 0.000000 0.000000 0.113358
    33 3.530611 0.000001 -0.000003 0.000000 0.000000 0.366368
    34 6.681007 -0.762752 -1.054662 0.013910 0.182656 0.071133
    35 3.608305 -0.000001 0.000000 0.000000 0.000000 0.113359
    36 3.608305 -0.000001 0.000000 0.000000 0.000000 0.776267
    37 3.408091 -0.002199 0.000000 -0.000073 -0.104664 0.256778
    38 2.848662 0.000000 0.000000 -0.108974 0.434391 -0.991033
    39 5.067991 7.235520 0.022323 -0.000003 0.000000 -2.626981
    40 -0.604384 -2.957996 0.000000 0.182703 -0.425340 0.176026
    41 0.107995 -6.585735 0.000000 0.000000 0.000000 0.244172
    42 -3.080979 -5.452278 0.000000 0.000000 0.000000 0.191888
    43 -3.048778 -2.270235 0.000000 0.000000 0.000000 0.000000
    44 -1.890806 -0.908390 0.000000 0.000000 0.000000 -0.470976
    45 -0.454460 -0.402742 -1.764821 0.000000 -1.570796 0.000000
    46 -0.928989 -2.456182 2.268051 0.000000 0.000000 0.000000
    47 -0.447595 -0.389067 1.486638 0.000000 -1.570796 0.000000
    48 1.132205 -2.455431 2.290455 0.000000 0.000000 0.000000
    49 0.424462 -1.191061 -0.110061 0.000000 -1.570796 0.000000
    50 -0.087093 -2.917876 -0.217384 0.000000 0.000000 0.000000
end
