version 1
nodes
  0 "Bip01" -1
  1 "Bip01 Pelvis" 0
  2 "Bip01 L Leg" 1
  3 "Bip01 L Leg1" 2
  4 "Bip01 L Foot" 3
  5 "Bip01 L Toe0" 4
  6 "Bone13" 4
  7 "Bip01 R Leg" 1
  8 "Bip01 R Leg1" 7
  9 "Bip01 R Foot" 8
  10 "Bone19" 9
  11 "Bone16" 9
  12 "Bip01 Spine" 1
  13 "Bip01 Spine1" 12
  14 "Bip01 Spine2" 13
  15 "Bip01 Spine3" 14
  16 "Bip01 Neck" 15
  17 "Bip01 L Arm" 16
  18 "Bip01 L Arm1" 17
  19 "Bip01 L Arm2" 18
  20 "Bip01 L Hand" 19
  21 "Bip01 L Finger0" 20
  22 "Bip01 L Finger01" 21
  23 "Bip01 L Finger02" 22
  24 "Bip01 L Finger1" 20
  25 "Bip01 L Finger11" 24
  26 "Bip01 L Finger12" 25
  27 "Bip01 R Arm" 16
  28 "Bip01 R Arm1" 27
  29 "Bip01 R Arm2" 28
  30 "Bip01 R Hand" 29
  31 "Bip01 R Finger0" 30
  32 "Bip01 R Finger01" 31
  33 "Bip01 R Finger02" 32
  34 "Bip01 R Finger1" 30
  35 "Bip01 R Finger11" 34
  36 "Bip01 R Finger12" 35
  37 "Bip01 Neck1" 16
  38 "Bip01 Head" 37
  39 "Dummy04" 14
  40 "Bone05" 39
  41 "Bone06" 40
  42 "Bone07" 41
  43 "Bone08" 42
  44 "Bone09" 43
  45 "Bone22" 44
  46 "Bone23" 45
  47 "Bone26" 44
  48 "Bone27" 47
  49 "Bone30" 43
  50 "Bone31" 49
end
skeleton
  time 0
    0 -0.019043 -0.114411 34.332251 0.000000 -0.244194 -1.570836
    1 0.792993 0.644551 0.000000 0.000008 -1.562083 -1.570763
    2 -0.000009 0.000010 6.353378 -0.003296 0.043425 -2.127028
    3 18.507666 0.000000 0.000000 0.000000 0.000000 -1.184908
    4 13.411352 -0.000002 0.000000 2.923392 -0.033718 0.433458
    5 8.701365 6.675650 0.000000 0.000000 0.000000 1.614392
    6 6.262099 -1.461580 3.610131 1.570796 1.649286 -1.570796
    7 0.000009 -0.000007 -6.353378 0.061844 0.063441 -2.586058
    8 18.507668 0.000002 0.000000 0.000000 0.000000 -1.890557
    9 13.411351 -0.000001 0.000000 -2.976720 -0.066587 1.556967
    10 6.262099 -1.470858 -4.185178 1.570795 1.492297 -1.570797
    11 6.280028 -0.742184 5.288615 1.570795 1.492297 -1.570797
    12 3.416504 -0.970599 0.027351 0.174563 0.013981 0.555189
    13 6.150890 -0.004767 0.000000 0.000012 0.026161 0.104671
    14 6.181768 -0.006276 0.000000 0.016563 0.055356 0.332395
    15 8.035378 -0.006650 0.000000 -0.048118 0.330330 0.490809
    16 9.041867 -0.002309 0.000000 -0.000329 -0.392490 0.274328
    17 -4.780616 4.932441 5.794943 2.612825 -1.364012 0.264335
    18 8.356073 -0.000002 0.000000 -1.199573 1.109627 -0.995705
    19 22.314196 0.000000 0.000002 0.000000 0.000000 -2.067482
    20 13.466397 -0.000001 -0.000001 -0.600086 0.130812 0.088537
    21 6.645414 -0.843864 -1.119306 -0.045898 0.131846 -0.334599
    22 3.530614 0.000000 -0.000001 0.000000 0.000000 -0.357609
    23 3.530614 -0.000001 0.000000 0.000000 0.000000 0.828590
    24 6.690087 -0.762451 1.047432 0.062290 -0.172366 -0.354159
    25 3.608304 0.000001 0.000000 0.000000 0.000000 -0.357609
    26 3.608304 0.000000 0.000001 0.000000 0.000000 0.828590
    27 -7.101142 4.897973 -0.416739 2.701796 1.325038 5.599980
    28 8.356073 0.000003 0.000000 1.301554 -0.067977 -0.840082
    29 22.314196 0.000001 0.000001 0.000000 0.000000 -1.917431
    30 13.466398 -0.000001 -0.000002 1.012313 -0.226548 0.603989
    31 6.635592 -0.843576 1.110600 0.070167 -0.169348 -0.389802
    32 3.530615 0.000000 0.000001 0.000000 0.000000 0.113358
    33 3.530611 0.000001 -0.000003 0.000000 0.000000 0.366368
    34 6.681007 -0.762752 -1.054662 0.013910 0.182656 0.071133
    35 3.608305 -0.000001 0.000000 0.000000 0.000000 0.113359
    36 3.608305 -0.000001 0.000000 0.000000 0.000000 0.776267
    37 3.408091 -0.002199 0.000000 -0.000028 -0.034890 0.030017
    38 2.848662 0.000000 0.000000 -0.268515 0.125752 -0.416446
    39 5.067991 7.235520 0.022323 -0.000003 0.000000 -2.626981
    40 -0.604384 -2.957996 0.000000 0.182703 -0.425340 0.176026
    41 0.107995 -6.585735 0.000000 0.000000 0.000000 0.244172
    42 -3.080979 -5.452278 0.000000 0.000000 0.000000 0.191888
    43 -3.048778 -2.270235 0.000000 0.000000 0.000000 0.000000
    44 -1.890806 -0.908390 0.000000 0.000000 0.000000 0.000000
    45 -0.454460 -0.402742 -1.764821 0.000000 -1.570796 0.000000
    46 -0.928989 -2.456182 2.268051 0.000000 0.000000 0.000000
    47 -0.447595 -0.389067 1.486638 0.000000 -1.570796 0.000000
    48 1.132205 -2.455431 2.290455 0.000000 0.000000 0.000000
    49 0.424462 -1.191061 -0.110061 0.000000 -1.570796 0.000000
    50 -0.087093 -2.917876 -0.217384 0.000000 0.000000 0.000000
  time 1
    0 -0.019043 0.461449 33.647985 0.000000 -0.237974 -1.570836
    1 0.679708 0.570330 0.000000 0.000008 -1.562083 -1.570763
    2 -0.000009 0.000010 6.353378 -0.001801 0.044773 -2.110331
    3 18.507666 0.000000 0.000000 0.000000 0.000000 -1.279777
    4 13.411352 -0.000002 0.000000 2.923871 -0.034961 0.505733
    5 8.701365 6.675650 0.000000 0.000000 0.000000 1.614392
    6 6.262099 -1.461580 3.610131 -1.570796 1.492295 1.570796
    7 0.000009 -0.000007 -6.353378 0.056942 0.064409 -2.633439
    8 18.507668 0.000002 0.000000 0.000000 0.000000 -1.919534
    9 13.411351 -0.000001 0.000000 -6.116572 -3.077173 -1.514702
    10 6.262099 -1.470858 -4.185178 1.570795 1.492297 -1.570797
    11 6.280028 -0.742184 5.288615 1.570795 1.492297 -1.570797
    12 3.416504 -0.970599 0.027351 0.174563 0.013981 0.555189
    13 6.150890 -0.004767 0.000000 0.000012 0.026161 0.130049
    14 6.181768 -0.006276 0.000000 0.016563 0.055356 0.332395
    15 8.035378 -0.006650 0.000000 -0.047686 0.302035 0.492233
    16 9.041867 -0.002309 0.000000 -0.000294 -0.365648 0.223391
    17 -5.159534 4.588681 5.751973 2.672362 -1.394749 0.253231
    18 8.356073 -0.000002 0.000000 -1.207749 1.057083 -1.014427
    19 22.314196 0.000000 0.000002 0.000000 0.000000 -2.073032
    20 13.466397 -0.000001 -0.000001 -0.595273 0.153628 0.122376
    21 6.645414 -0.843864 -1.119306 -0.039310 0.133949 -0.284952
    22 3.530614 0.000000 -0.000001 0.000000 0.000000 -0.308363
    23 3.530614 -0.000001 0.000000 0.000000 0.000000 0.877822
    24 6.690087 -0.762451 1.047432 0.053652 -0.175230 -0.304245
    25 3.608304 0.000001 0.000000 0.000000 0.000000 -0.308363
    26 3.608304 0.000000 0.000001 0.000000 0.000000 0.877822
    27 -7.312086 4.565932 -0.518305 2.794889 1.335592 -0.547603
    28 8.356073 0.000003 0.000000 1.323579 -0.095462 -0.819348
    29 22.314196 0.000001 0.000001 0.000000 0.000000 -1.947399
    30 13.466398 -0.000001 -0.000002 1.007248 -0.259189 0.625064
    31 6.635592 -0.843576 1.110600 0.063541 -0.171919 -0.350814
    32 3.530615 0.000000 0.000001 0.000000 0.000000 0.151867
    33 3.530611 0.000001 -0.000003 0.000000 0.000000 0.404854
    34 6.681007 -0.762752 -1.054662 0.021012 0.181975 0.110262
    35 3.608305 -0.000001 0.000000 0.000000 0.000000 0.151860
    36 3.608305 -0.000001 0.000000 0.000000 0.000000 0.814752
    37 3.408091 -0.002199 0.000000 -0.000028 -0.034890 0.030017
    38 2.848662 0.000000 0.000000 -0.243845 0.133196 -0.394669
    39 5.067991 7.235520 0.022323 -0.000003 0.000000 -2.626981
    40 -0.604384 -2.957996 0.000000 0.182703 -0.425340 0.176026
    41 0.107995 -6.585735 0.000000 0.000000 0.000000 0.244172
    42 -3.080979 -5.452278 0.000000 0.000000 0.000000 0.191888
    43 -3.048778 -2.270235 0.000000 0.000000 0.000000 0.000000
    44 -1.890806 -0.908390 0.000000 0.000000 0.000000 0.000000
    45 -0.454460 -0.402742 -1.764821 0.000000 -1.570796 0.000000
    46 -0.928989 -2.456182 2.268051 0.000000 0.000000 0.000000
    47 -0.447595 -0.389067 1.486638 0.000000 -1.570796 0.000000
    48 1.132205 -2.455431 2.290455 0.000000 0.000000 0.000000
    49 0.424462 -1.191061 -0.110061 0.000000 -1.570796 0.000000
    50 -0.087093 -2.917876 -0.217384 0.000000 0.000000 0.000000
  time 2
    0 -0.003418 0.302912 32.756681 0.000000 -0.229105 -1.570836
    1 0.546892 0.460952 0.000000 -0.000040 -1.562071 -1.570763
    2 -0.000009 0.000010 6.353378 0.000442 0.045543 -2.068705
    3 18.507666 0.000000 0.000000 0.000000 0.000000 -1.369033
    4 13.411352 -0.000002 0.000000 2.924254 -0.035440 0.545591
    5 8.701365 6.675650 0.000000 0.000000 0.000000 1.614392
    6 6.262099 -1.461580 3.610131 -1.570796 1.492295 1.570796
    7 0.000009 -0.000007 -6.353378 0.054865 0.064530 -2.647001
    8 18.507668 0.000002 0.000000 0.000000 0.000000 -1.986387
    9 13.411351 -0.000001 0.000000 -6.114942 -3.077844 -1.443227
    10 6.262099 -1.470858 -4.185178 1.570795 1.492297 -1.570797
    11 6.280028 -0.742184 5.288615 1.570795 1.492297 -1.570797
    12 3.416504 -0.970599 0.027351 0.174563 0.013981 0.555189
    13 6.150890 -0.004767 0.000000 0.000012 0.026161 0.161116
    14 6.181768 -0.006276 0.000000 0.016563 0.055356 0.332395
    15 8.035378 -0.006650 0.000000 -0.047122 0.257572 0.494423
    16 9.041867 -0.002309 0.000000 -0.000277 -0.334879 0.154276
    17 -5.616579 4.104291 5.685565 2.772837 -1.430235 0.218866
    18 8.356073 -0.000002 0.000000 -1.196358 0.989112 -1.020235
    19 22.314196 0.000000 0.000002 0.000000 0.000000 -2.080300
    20 13.466397 -0.000001 -0.000001 -0.588365 0.181074 0.163661
    21 6.645414 -0.843864 -1.119306 -0.031314 0.136034 -0.225530
    22 3.530614 0.000000 -0.000001 0.000000 0.000000 -0.249428
    23 3.530614 -0.000001 0.000000 0.000000 0.000000 0.936773
    24 6.690087 -0.762451 1.047432 0.043153 -0.178076 -0.244471
    25 3.608304 0.000001 0.000000 0.000000 0.000000 -0.249428
    26 3.608304 0.000000 0.000001 0.000000 0.000000 0.936773
    27 -7.573812 4.097167 -0.647215 2.911567 1.347499 -0.371004
    28 8.356073 0.000003 0.000000 1.356902 -0.136308 -0.794583
    29 22.314196 0.000001 0.000001 0.000000 0.000000 -1.986901
    30 13.466398 -0.000001 -0.000002 0.999217 -0.302806 0.653977
    31 6.635592 -0.843576 1.110600 0.054504 -0.174976 -0.298421
    32 3.530615 0.000000 0.000001 0.000000 0.000000 0.203540
    33 3.530611 0.000001 -0.000003 0.000000 0.000000 0.456563
    34 6.681007 -0.762752 -1.054662 0.030487 0.180647 0.162821
    35 3.608305 -0.000001 0.000000 0.000000 0.000000 0.203582
    36 3.608305 -0.000001 0.000000 0.000000 0.000000 0.866448
    37 3.408091 -0.002199 0.000000 -0.000028 -0.034890 0.030017
    38 2.848662 0.000000 0.000000 -0.217085 0.154039 -0.360867
    39 5.067991 7.235520 0.022323 -0.000003 0.000000 -2.626981
    40 -0.604384 -2.957996 0.000000 0.182703 -0.425340 0.176026
    41 0.107995 -6.585735 0.000000 0.000000 0.000000 0.244172
    42 -3.080979 -5.452278 0.000000 0.000000 0.000000 0.191888
    43 -3.048778 -2.270235 0.000000 0.000000 0.000000 0.000000
    44 -1.890806 -0.908390 0.000000 0.000000 0.000000 0.000000
    45 -0.454460 -0.402742 -1.764821 0.000000 -1.570796 0.000000
    46 -0.928989 -2.456182 2.268051 0.000000 0.000000 0.000000
    47 -0.447595 -0.389067 1.486638 0.000000 -1.570796 0.000000
    48 1.132205 -2.455431 2.290455 0.000000 0.000000 0.000000
    49 0.424462 -1.191061 -0.110061 0.000000 -1.570796 0.000000
    50 -0.087093 -2.917876 -0.217384 0.000000 0.000000 0.000000
  time 3
    0 -0.019043 -0.054851 32.955255 0.000000 -0.218220 -1.570836
    1 0.515641 0.371105 0.000000 0.000008 -1.562083 -1.570763
    2 -0.000009 0.000010 6.353378 -0.000177 0.045201 -2.077030
    3 18.507666 0.000000 0.000000 0.000000 0.000000 -1.340309
    4 13.411352 -0.000002 0.000000 2.924350 -0.034675 0.515752
    5 8.701365 6.675650 0.000000 0.000000 0.000000 1.614392
    6 6.262099 -1.461580 3.610131 -1.570796 1.492295 1.570796
    7 0.000009 -0.000007 -6.353378 0.051325 0.059518 -2.637017
    8 18.507668 0.000002 0.000000 0.000000 0.000000 -1.986437
    9 13.411351 -0.000001 0.000000 -6.111588 -3.083014 -1.464486
    10 6.262099 -1.470858 -4.185178 1.570795 1.492297 -1.570797
    11 6.280028 -0.742184 5.288615 1.570795 1.492297 -1.570797
    12 3.416504 -0.970599 0.027351 0.174563 0.013981 0.555189
    13 6.150890 -0.004767 0.000000 0.000012 0.026161 0.165735
    14 6.181768 -0.006276 0.000000 0.016563 0.055356 0.332395
    15 8.035378 -0.006650 0.000000 -0.046559 0.202622 0.497074
    16 9.041867 -0.002309 0.000000 -0.000242 -0.300144 0.074015
    17 -6.100968 3.514429 5.580093 2.924797 -1.469035 0.144201
    18 8.356073 -0.000002 0.000000 -1.147215 0.936392 -1.002813
    19 22.314196 0.000000 0.000002 0.000000 0.000000 -2.088527
    20 13.466397 -0.000001 -0.000001 -0.579360 0.211279 0.210145
    21 6.645414 -0.843864 -1.119306 -0.022301 0.137789 -0.159519
    22 3.530614 0.000000 -0.000001 0.000000 0.000000 -0.184001
    23 3.530614 -0.000001 0.000000 0.000000 0.000000 1.002191
    24 6.690087 -0.762451 1.047432 0.031292 -0.180515 -0.178028
    25 3.608304 0.000001 0.000000 0.000000 0.000000 -0.184001
    26 3.608304 0.000000 0.000001 0.000000 0.000000 1.002191
    27 -7.839446 3.526838 -0.819095 3.039270 1.355124 -0.171300
    28 8.356073 0.000003 0.000000 1.376079 -0.208743 -0.772944
    29 22.314196 0.000001 0.000001 0.000000 0.000000 -2.032533
    30 13.466398 -0.000001 -0.000002 0.988075 -0.353053 0.688406
    31 6.635592 -0.843576 1.110600 0.043836 -0.177917 -0.237645
    32 3.530615 0.000000 0.000001 0.000000 0.000000 0.263478
    33 3.530611 0.000001 -0.000003 0.000000 0.000000 0.516466
    34 6.681007 -0.762752 -1.054662 0.041345 0.178502 0.223683
    35 3.608305 -0.000001 0.000000 0.000000 0.000000 0.263481
    36 3.608305 -0.000001 0.000000 0.000000 0.000000 0.926390
    37 3.408091 -0.002199 0.000000 -0.000028 -0.034890 0.030017
    38 2.848662 0.000000 0.000000 -0.190631 0.182645 -0.287914
    39 5.067991 7.235520 0.022323 -0.000003 0.000000 -2.626981
    40 -0.604384 -2.957996 0.000000 0.182703 -0.425340 0.176026
    41 0.107995 -6.585735 0.000000 0.000000 0.000000 0.244172
    42 -3.080979 -5.452278 0.000000 0.000000 0.000000 0.191888
    43 -3.048778 -2.270235 0.000000 0.000000 0.000000 0.000000
    44 -1.890806 -0.908390 0.000000 0.000000 0.000000 0.000000
    45 -0.454460 -0.402742 -1.764821 0.000000 -1.570796 0.000000
    46 -0.928989 -2.456182 2.268051 0.000000 0.000000 0.000000
    47 -0.447595 -0.389067 1.486638 0.000000 -1.570796 0.000000
    48 1.132205 -2.455431 2.290455 0.000000 0.000000 0.000000
    49 0.424462 -1.191061 -0.110061 0.000000 -1.570796 0.000000
    50 -0.087093 -2.917876 -0.217384 0.000000 0.000000 0.000000
  time 4
    0 -0.526871 -1.459520 34.204642 0.000000 -0.205953 -1.570836
    1 0.585955 0.304697 0.000000 0.000008 -1.562083 -1.570763
    2 -0.000009 0.000010 6.353378 -0.002342 0.043618 -2.108817
    3 18.507666 0.000000 0.000000 0.000000 0.000000 -1.218841
    4 13.411352 -0.000002 0.000000 2.923296 -0.033910 0.449150
    5 8.701365 6.675650 0.000000 0.000000 0.000000 1.614392
    6 6.262099 -1.461580 3.610131 -1.570796 1.492295 1.570796
    7 0.000009 -0.000007 -6.353378 0.034475 0.030293 -2.558702
    8 18.507668 0.000002 0.000000 0.000000 0.000000 -1.944566
    9 13.411351 -0.000001 0.000000 -2.959373 -0.027616 1.543038
    10 6.262099 -1.470858 -4.185178 1.570795 1.492297 -1.570797
    11 6.280028 -0.742184 5.288615 1.570795 1.492297 -1.570797
    12 3.416504 -0.970599 0.027351 0.174563 0.013981 0.555189
    13 6.150890 -0.004767 0.000000 0.000012 0.026161 0.144940
    14 6.181768 -0.006276 0.000000 0.016563 0.055356 0.332395
    15 8.035378 -0.006650 0.000000 -0.046127 0.143347 0.499856
    16 9.041867 -0.002309 0.000000 -0.000207 -0.260283 -0.014424
    17 -6.593171 2.842534 5.404307 -3.079752 -1.510390 -0.048397
    18 8.356073 -0.000002 0.000000 -1.076301 0.900334 -0.975249
    19 22.314196 0.000000 0.000002 0.000000 0.000000 -2.097751
    20 13.466397 -0.000001 -0.000001 -0.567250 0.244992 0.263642
    21 6.645414 -0.843864 -1.119306 -0.011912 0.139070 -0.084376
    22 3.530614 0.000000 -0.000001 0.000000 0.000000 -0.109563
    23 3.530614 -0.000001 0.000000 0.000000 0.000000 1.076619
    24 6.690087 -0.762451 1.047432 0.017636 -0.182336 -0.102369
    25 3.608304 0.000001 0.000000 0.000000 0.000000 -0.109563
    26 3.608304 0.000000 0.000001 0.000000 0.000000 1.076619
    27 -8.073828 2.874474 -1.057384 -3.124044 1.355875 0.030321
    28 8.356073 0.000003 0.000000 1.375509 -0.307136 -0.752704
    29 22.314196 0.000001 0.000001 0.000000 0.000000 -2.083160
    30 13.466398 -0.000001 -0.000002 0.973388 -0.408090 0.728001
    31 6.635592 -0.843576 1.110600 0.031854 -0.180410 -0.170423
    32 3.530615 0.000000 0.000001 0.000000 0.000000 0.329660
    33 3.530611 0.000001 -0.000003 0.000000 0.000000 0.582657
    34 6.681007 -0.762752 -1.054662 0.053176 0.175369 0.290828
    35 3.608305 -0.000001 0.000000 0.000000 0.000000 0.329683
    36 3.608305 -0.000001 0.000000 0.000000 0.000000 0.992556
    37 3.408091 -0.002199 0.000000 -0.000028 -0.034890 0.030017
    38 2.848662 0.000000 0.000000 -0.163972 0.208486 -0.178554
    39 5.067991 7.235520 0.022323 -0.000003 0.000000 -2.626981
    40 -0.604384 -2.957996 0.000000 0.182703 -0.425340 0.176026
    41 0.107995 -6.585735 0.000000 0.000000 0.000000 0.244172
    42 -3.080979 -5.452278 0.000000 0.000000 0.000000 0.191888
    43 -3.048778 -2.270235 0.000000 0.000000 0.000000 0.000000
    44 -1.890806 -0.908390 0.000000 0.000000 0.000000 0.000000
    45 -0.454460 -0.402742 -1.764821 0.000000 -1.570796 0.000000
    46 -0.928989 -2.456182 2.268051 0.000000 0.000000 0.000000
    47 -0.447595 -0.389067 1.486638 0.000000 -1.570796 0.000000
    48 1.132205 -2.455431 2.290455 0.000000 0.000000 0.000000
    49 0.424462 -1.191061 -0.110061 0.000000 -1.570796 0.000000
    50 -0.087093 -2.917876 -0.217384 0.000000 0.000000 0.000000
  time 5
    0 -1.159703 -3.137635 35.700130 0.000000 -0.192879 -1.570836
    1 0.699240 0.246101 0.000000 -0.000040 -1.562083 -1.570763
    2 -0.000009 0.000010 6.353378 0.003536 0.043618 -1.975662
    3 18.507666 0.000000 0.000000 0.000000 0.000000 -1.378742
    4 13.411352 -0.000002 0.000000 2.920805 0.000706 0.631053
    5 8.701365 6.675650 0.000000 0.000000 0.000000 1.614392
    6 6.262099 -1.461580 3.610131 -1.570796 1.492295 1.570796
    7 0.000009 -0.000007 -6.353378 0.016025 -0.003194 -2.477328
    8 18.507668 0.000002 0.000000 0.000000 0.000000 -1.873111
    9 13.411351 -0.000001 0.000000 -2.955252 0.008962 1.376263
    10 6.262099 -1.470858 -4.185178 1.570795 1.492297 -1.570797
    11 6.280028 -0.742184 5.288615 1.570795 1.492297 -1.570797
    12 3.416504 -0.970599 0.027351 0.174563 0.013981 0.555189
    13 6.150890 -0.004767 0.000000 0.000012 0.026161 0.116299
    14 6.181768 -0.006276 0.000000 0.016563 0.055356 0.332395
    15 8.035378 -0.006650 0.000000 -0.045865 0.083675 0.502616
    16 9.041867 -0.002309 0.000000 -0.000156 -0.213294 -0.108711
    17 -7.065842 2.096417 5.134767 -2.054770 -1.544799 5.302032
    18 8.356073 -0.000002 0.000000 -1.006948 0.867274 -0.956007
    19 22.314196 0.000000 0.000002 0.000000 0.000000 -2.108294
    20 13.466397 -0.000001 -0.000001 -0.550483 0.283744 0.327657
    21 6.645414 -0.843864 -1.119306 0.000410 0.139545 0.004374
    22 3.530614 0.000000 -0.000001 0.000000 0.000000 -0.021681
    23 3.530614 -0.000001 0.000000 0.000000 0.000000 1.164503
    24 6.690087 -0.762451 1.047432 0.001389 -0.183167 -0.012977
    25 3.608304 0.000001 0.000000 0.000000 0.000000 -0.021681
    26 3.608304 0.000000 0.000001 0.000000 0.000000 1.164503
    27 -8.249614 2.151796 -1.385519 -3.036799 1.349152 0.207687
    28 8.356073 0.000003 0.000000 1.362218 -0.416695 -0.728761
    29 22.314196 0.000001 0.000001 0.000000 0.000000 -2.138146
    30 13.466398 -0.000001 -0.000002 0.954432 -0.466521 0.772706
    31 6.635592 -0.843576 1.110600 0.018819 -0.182221 -0.098220
    32 3.530615 0.000000 0.000001 0.000000 0.000000 0.400680
    33 3.530611 0.000001 -0.000003 0.000000 0.000000 0.653700
    34 6.681007 -0.762752 -1.054662 0.065588 0.171147 0.362836
    35 3.608305 -0.000001 0.000000 0.000000 0.000000 0.400724
    36 3.608305 -0.000001 0.000000 0.000000 0.000000 1.063609
    37 3.408091 -0.002199 0.000000 -0.000028 -0.034890 0.030017
    38 2.848662 0.000000 0.000000 -0.140016 0.223480 -0.053146
    39 5.067991 7.235520 0.022323 -0.000003 0.000000 -2.626981
    40 -0.604384 -2.957996 0.000000 0.182703 -0.425340 0.176026
    41 0.107995 -6.585735 0.000000 0.000000 0.000000 0.244172
    42 -3.080979 -5.452278 0.000000 0.000000 0.000000 0.191888
    43 -3.048778 -2.270235 0.000000 0.000000 0.000000 0.000000
    44 -1.890806 -0.908390 0.000000 0.000000 0.000000 0.000000
    45 -0.454460 -0.402742 -1.764821 0.000000 -1.570796 0.000000
    46 -0.928989 -2.456182 2.268051 0.000000 0.000000 0.000000
    47 -0.447595 -0.389067 1.486638 0.000000 -1.570796 0.000000
    48 1.132205 -2.455431 2.290455 0.000000 0.000000 0.000000
    49 0.424462 -1.191061 -0.110061 0.000000 -1.570796 0.000000
    50 -0.087093 -2.917876 -0.217384 0.000000 0.000000 0.000000
  time 6
    0 -1.870662 -4.983724 37.301090 0.000000 -0.179633 -1.570836
    1 0.832057 0.191412 0.000000 0.000008 -1.562083 -1.570763
    2 -0.000009 0.000010 6.353378 0.011064 0.042719 -1.804759
    3 18.507666 0.000000 0.000000 0.000000 0.000000 -1.645143
    4 13.411352 -0.000002 0.000000 2.922913 0.029966 0.858930
    5 8.701365 6.675650 0.000000 0.000000 0.000000 1.614392
    6 6.262099 -1.461580 3.610131 -1.570796 1.492295 1.570796
    7 0.000009 -0.000007 -6.353378 -0.000621 -0.036923 -2.407035
    8 18.507668 0.000002 0.000000 0.000000 0.000000 -1.771820
    9 13.411351 -0.000001 0.000000 -2.959469 0.045061 1.191014
    10 6.262099 -1.470858 -4.185178 1.570795 1.492297 -1.570797
    11 6.280028 -0.742184 5.288615 1.570795 1.492297 -1.570797
    12 3.416504 -0.970599 0.027351 0.174563 0.013981 0.555189
    13 6.150890 -0.004767 0.000000 0.000012 0.026161 0.084786
    14 6.181768 -0.006276 0.000000 0.016563 0.055356 0.332395
    15 8.035378 -0.006650 0.000000 -0.045760 0.023968 0.505354
    16 9.041867 -0.002309 0.000000 -0.000121 -0.156448 -0.203634
    17 -7.507261 1.330769 4.751943 -0.593852 -1.514422 3.935181
    18 8.356073 -0.000002 0.000000 -0.944852 0.833068 -0.950720
    19 22.314196 0.000000 0.000002 0.000000 0.000000 -2.119794
    20 13.466397 -0.000001 -0.000001 -0.527350 0.327673 0.404435
    21 6.645414 -0.843864 -1.119306 0.014962 0.138777 0.109459
    22 3.530614 0.000000 -0.000001 0.000000 0.000000 0.082382
    23 3.530614 -0.000001 0.000000 0.000000 0.000000 1.268611
    24 6.690087 -0.762451 1.047432 -0.017848 -0.182318 0.092838
    25 3.608304 0.000001 0.000000 0.000000 0.000000 0.082382
    26 3.608304 0.000000 0.000001 0.000000 0.000000 1.268611
    27 -8.323835 1.405679 -1.826939 -3.006216 1.334916 0.332130
    28 8.356073 0.000003 0.000000 1.337725 -0.534652 -0.699059
    29 22.314196 0.000001 0.000001 0.000000 0.000000 -2.195492
    30 13.466398 -0.000001 -0.000002 0.931424 -0.525270 0.821068
    31 6.635592 -0.843576 1.110600 0.005422 -0.183098 -0.024474
    32 3.530615 0.000000 0.000001 0.000000 0.000000 0.473230
    33 3.530611 0.000001 -0.000003 0.000000 0.000000 0.726180
    34 6.681007 -0.762752 -1.054662 0.077914 0.165954 0.436201
    35 3.608305 -0.000001 0.000000 0.000000 0.000000 0.473264
    36 3.608305 -0.000001 0.000000 0.000000 0.000000 1.136151
    37 3.408091 -0.002199 0.000000 -0.000028 -0.034890 0.030017
    38 2.848662 0.000000 0.000000 -0.124597 0.225217 0.076239
    39 5.067991 7.235520 0.022323 -0.000003 0.000000 -2.626981
    40 -0.604384 -2.957996 0.000000 0.182703 -0.425340 0.176026
    41 0.107995 -6.585735 0.000000 0.000000 0.000000 0.244172
    42 -3.080979 -5.452278 0.000000 0.000000 0.000000 0.191888
    43 -3.048778 -2.270235 0.000000 0.000000 0.000000 0.000000
    44 -1.890806 -0.908390 0.000000 0.000000 0.000000 0.000000
    45 -0.454460 -0.402742 -1.764821 0.000000 -1.570796 0.000000
    46 -0.928989 -2.456182 2.268051 0.000000 0.000000 0.000000
    47 -0.447595 -0.389067 1.486638 0.000000 -1.570796 0.000000
    48 1.132205 -2.455431 2.290455 0.000000 0.000000 0.000000
    49 0.424462 -1.191061 -0.110061 0.000000 -1.570796 0.000000
    50 -0.087093 -2.917876 -0.217384 0.000000 0.000000 0.000000
  time 7
    0 -2.577715 -6.911846 39.105181 0.000000 -0.166905 -1.570836
    1 0.992218 0.136723 0.000000 0.000008 -1.562083 -1.570763
    2 -0.000009 0.000010 6.353378 0.017252 0.045115 -1.708357
    3 18.507666 0.000000 0.000000 0.000000 0.000000 -1.810708
    4 13.411352 -0.000002 0.000000 2.926840 -0.041751 0.622433
    5 8.701365 6.675650 0.000000 0.000000 0.000000 1.614392
    6 6.262099 -1.461580 3.610131 -1.570796 1.492295 1.570796
    7 0.000009 -0.000007 -6.353378 -0.011684 -0.066948 -2.361385
    8 18.507668 0.000002 0.000000 0.000000 0.000000 -1.626028
    9 13.411351 -0.000001 0.000000 -2.970394 0.074553 0.986412
    10 6.262099 -1.470858 -4.185178 1.570795 1.492297 -1.570797
    11 6.280028 -0.742184 5.288615 1.570795 1.492297 -1.570797
    12 3.416504 -0.970599 0.027351 0.174563 0.013981 0.555189
    13 6.150890 -0.004767 0.000000 0.000012 0.026161 0.049885
    14 6.181768 -0.006276 0.000000 0.016563 0.055356 0.332395
    15 8.035378 -0.006650 0.000000 -0.045839 -0.040389 0.508311
    16 9.041867 -0.002309 0.000000 -0.000052 -0.086501 -0.285971
    17 -7.901805 0.654967 4.220677 -0.205948 -1.451312 3.630299
    18 8.356073 -0.000002 0.000000 -0.882389 0.795600 -0.952540
    19 22.314196 0.000000 0.000002 0.000000 0.000000 -2.130097
    20 13.466397 -0.000001 -0.000001 -0.498162 0.372793 0.489526
    21 6.645414 -0.843864 -1.119306 0.030857 0.136125 0.225392
    22 3.530614 0.000000 -0.000001 0.000000 0.000000 0.197272
    23 3.530614 -0.000001 0.000000 0.000000 0.000000 1.383486
    24 6.690087 -0.762451 1.047432 -0.038846 -0.179048 0.209554
    25 3.608304 0.000001 0.000000 0.000000 0.000000 0.197272
    26 3.608304 0.000000 0.000001 0.000000 0.000000 1.383486
    27 -8.261333 0.749409 -2.397269 -3.046674 1.310614 0.375944
    28 8.356073 0.000003 0.000000 1.304402 -0.665492 -0.667053
    29 22.314196 0.000001 0.000001 0.000000 0.000000 -2.249615
    30 13.466398 -0.000001 -0.000002 0.907186 -0.577039 0.867283
    31 6.635592 -0.843576 1.110600 -0.006618 -0.183059 0.041640
    32 3.530615 0.000000 0.000001 0.000000 0.000000 0.538310
    33 3.530611 0.000001 -0.000003 0.000000 0.000000 0.791257
    34 6.681007 -0.762752 -1.054662 0.088584 0.160539 0.501924
    35 3.608305 -0.000001 0.000000 0.000000 0.000000 0.538308
    36 3.608305 -0.000001 0.000000 0.000000 0.000000 1.201171
    37 3.408091 -0.002199 0.000000 -0.000028 -0.034890 0.030017
    38 2.848662 0.000000 0.000000 -0.124775 0.218057 0.194640
    39 5.067991 7.235520 0.022323 -0.000003 0.000000 -2.626981
    40 -0.604384 -2.957996 0.000000 0.182703 -0.425340 0.176026
    41 0.107995 -6.585735 0.000000 0.000000 0.000000 0.244172
    42 -3.080979 -5.452278 0.000000 0.000000 0.000000 0.191888
    43 -3.048778 -2.270235 0.000000 0.000000 0.000000 0.000000
    44 -1.890806 -0.908390 0.000000 0.000000 0.000000 0.000000
    45 -0.454460 -0.402742 -1.764821 0.000000 -1.570796 0.000000
    46 -0.928989 -2.456182 2.268051 0.000000 0.000000 0.000000
    47 -0.447595 -0.389067 1.486638 0.000000 -1.570796 0.000000
    48 1.132205 -2.455431 2.290455 0.000000 0.000000 0.000000
    49 0.424462 -1.191061 -0.110061 0.000000 -1.570796 0.000000
    50 -0.087093 -2.917876 -0.217384 0.000000 0.000000 0.000000
  time 8
    0 -3.538682 -10.019693 41.483509 0.000000 -0.155213 -1.570836
    1 1.156285 0.078127 0.000000 0.000008 -1.562083 -1.570763
    2 -0.000009 0.000010 6.353378 0.022898 0.066655 -1.919750
    3 18.507666 0.000000 0.000000 0.000000 0.000000 -2.116604
    4 13.411352 -0.000002 0.000000 2.971291 -0.136035 0.771330
    5 8.701365 6.675650 0.000000 0.000000 0.000000 1.614392
    6 6.262099 -1.461580 3.610131 -1.570796 1.492295 1.570796
    7 0.000009 -0.000007 -6.353378 -0.015530 -0.102033 -2.322718
    8 18.507668 0.000002 0.000000 0.000000 0.000000 -1.379753
    9 13.411351 -0.000001 0.000000 -2.993012 0.102417 0.688490
    10 6.262099 -1.470858 -4.185178 1.570795 1.492297 -1.570797
    11 6.280028 -0.742184 5.288615 1.570795 1.492297 -1.570797
    12 3.416504 -0.970599 0.027351 0.174563 0.013981 0.555189
    13 6.150890 -0.004767 0.000000 0.000012 0.026161 0.017302
    14 6.181768 -0.006276 0.000000 0.016563 0.055356 0.332395
    15 8.035378 -0.006650 0.000000 -0.046101 -0.104591 0.511268
    16 9.041867 -0.002309 0.000000 0.000000 -0.000002 -0.326271
    17 -8.257284 0.322926 3.525343 -0.000012 -1.370798 3.467088
    18 8.356073 -0.000002 0.000000 -0.824243 0.753547 -0.957394
    19 22.314196 0.000000 0.000002 0.000000 0.000000 -2.132693
    20 13.466397 -0.000001 -0.000001 -0.471691 0.406812 0.559095
    21 6.645414 -0.843864 -1.119306 0.044293 0.132395 0.325511
    22 3.530614 0.000000 -0.000001 0.000000 0.000000 0.296539
    23 3.530614 -0.000001 0.000000 0.000000 0.000000 1.482772
    24 6.690087 -0.762451 1.047432 -0.056555 -0.174311 0.310313
    25 3.608304 0.000001 0.000000 0.000000 0.000000 0.296539
    26 3.608304 0.000000 0.000001 0.000000 0.000000 1.482772
    27 -8.046483 0.425180 -3.100415 -3.141493 1.264940 0.325515
    28 8.356073 0.000003 0.000000 1.271459 -0.801868 -0.645003
    29 22.314196 0.000001 0.000001 0.000000 0.000000 -2.287301
    30 13.466398 -0.000001 -0.000002 0.891631 -0.606318 0.895208
    31 6.635592 -0.843576 1.110600 -0.013518 -0.182689 0.079640
    32 3.530615 0.000000 0.000001 0.000000 0.000000 0.575656
    33 3.530611 0.000001 -0.000003 0.000000 0.000000 0.828593
    34 6.681007 -0.762752 -1.054662 0.094542 0.157117 0.539566
    35 3.608305 -0.000001 0.000000 0.000000 0.000000 0.575651
    36 3.608305 -0.000001 0.000000 0.000000 0.000000 1.238550
    37 3.408091 -0.002199 0.000000 -0.000028 -0.034890 0.030017
    38 2.848662 0.000000 0.000000 -0.144348 0.197781 0.264754
    39 5.067991 7.235520 0.022323 -0.000003 0.000000 -2.626981
    40 -0.604384 -2.957996 0.000000 0.182703 -0.425340 0.176026
    41 0.107995 -6.585735 0.000000 0.000000 0.000000 0.244172
    42 -3.080979 -5.452278 0.000000 0.000000 0.000000 0.191888
    43 -3.048778 -2.270235 0.000000 0.000000 0.000000 0.000000
    44 -1.890806 -0.908390 0.000000 0.000000 0.000000 0.000000
    45 -0.454460 -0.402742 -1.764821 0.000000 -1.570796 0.000000
    46 -0.928989 -2.456182 2.268051 0.000000 0.000000 0.000000
    47 -0.447595 -0.389067 1.486638 0.000000 -1.570796 0.000000
    48 1.132205 -2.455431 2.290455 0.000000 0.000000 0.000000
    49 0.424462 -1.191061 -0.110061 0.000000 -1.570796 0.000000
    50 -0.087093 -2.917876 -0.217384 0.000000 0.000000 0.000000
  time 9
    0 -1.956602 -13.330670 44.307162 0.000000 -0.145250 -1.570836
    1 1.308634 0.031251 0.000000 0.000008 -1.562083 -1.570811
    2 -0.000009 0.000010 6.353378 0.009492 0.075511 -2.171209
    3 18.507666 0.000000 0.000000 0.000000 0.000000 -2.048284
    4 13.411352 -0.000002 0.000000 3.141526 -0.141389 0.721231
    5 8.701365 6.675650 0.000000 0.000000 0.000000 1.614392
    6 6.262099 -1.461580 3.610131 -1.570796 1.492295 1.570796
    7 0.000009 -0.000007 -6.353378 0.032909 -0.045398 -2.365944
    8 18.507668 0.000002 0.000000 0.000000 0.000000 -1.005892
    9 13.411351 -0.000001 0.000000 -2.993875 0.029741 0.348342
    10 6.262099 -1.470858 -4.185178 1.570795 1.492297 -1.570797
    11 6.280028 -0.742184 5.288615 1.570795 1.492297 -1.570797
    12 3.416504 -0.970599 0.027351 0.174563 0.013981 0.555189
    13 6.150890 -0.004767 0.000000 0.000012 0.026161 -0.010805
    14 6.181768 -0.006276 0.000000 0.016563 0.055356 0.332395
    15 8.035378 -0.006650 0.000000 -0.046480 -0.159492 0.513831
    16 9.041867 -0.002309 0.000000 0.000104 0.146752 -0.264613
    17 -8.647921 0.830754 2.287024 0.184928 -1.361298 3.221650
    18 8.356073 -0.000002 0.000000 -0.983616 0.636294 -1.147650
    19 22.314196 0.000000 0.000002 0.000000 0.000000 -2.018483
    20 13.466397 -0.000001 -0.000001 -0.512290 0.352191 0.449738
    21 6.645414 -0.843864 -1.119306 0.044719 0.132249 0.328790
    22 3.530614 0.000000 -0.000001 0.000000 0.000000 0.299785
    23 3.530614 -0.000001 0.000000 0.000000 0.000000 1.486024
    24 6.690087 -0.762451 1.047432 -0.057120 -0.174134 0.313576
    25 3.608304 0.000001 0.000000 0.000000 0.000000 0.299785
    26 3.608304 0.000000 0.000001 0.000000 0.000000 1.486024
    27 -7.468341 0.917383 -4.237168 3.053363 1.121682 0.181705
    28 8.356073 0.000003 0.000000 1.268991 -0.972219 -0.675528
    29 22.314196 0.000001 0.000001 0.000000 0.000000 -2.285077
    30 13.466398 -0.000001 -0.000002 0.903641 -0.584049 0.873843
    31 6.635592 -0.843576 1.110600 -0.008263 -0.183000 0.050695
    32 3.530615 0.000000 0.000001 0.000000 0.000000 0.547188
    33 3.530611 0.000001 -0.000003 0.000000 0.000000 0.800133
    34 6.681007 -0.762752 -1.054662 0.090018 0.159739 0.510888
    35 3.608305 -0.000001 0.000000 0.000000 0.000000 0.547201
    36 3.608305 -0.000001 0.000000 0.000000 0.000000 1.210067
    37 3.408091 -0.002199 0.000000 -0.000028 -0.034890 0.030017
    38 2.848662 0.000000 0.000000 -0.182501 0.111609 0.224797
    39 5.067991 7.235520 0.022323 -0.000003 0.000000 -2.626981
    40 -0.604384 -2.957996 0.000000 0.182703 -0.425340 0.176026
    41 0.107995 -6.585735 0.000000 0.000000 0.000000 0.244172
    42 -3.080979 -5.452278 0.000000 0.000000 0.000000 0.191888
    43 -3.048778 -2.270235 0.000000 0.000000 0.000000 0.000000
    44 -1.890806 -0.908390 0.000000 0.000000 0.000000 0.000000
    45 -0.454460 -0.402742 -1.764821 0.000000 -1.570796 0.000000
    46 -0.928989 -2.456182 2.268051 0.000000 0.000000 0.000000
    47 -0.447595 -0.389067 1.486638 0.000000 -1.570796 0.000000
    48 1.132205 -2.455431 2.290455 0.000000 0.000000 0.000000
    49 0.424462 -1.191061 -0.110061 0.000000 -1.570796 0.000000
    50 -0.087093 -2.917876 -0.217384 0.000000 0.000000 0.000000
  time 10
    0 -0.019043 -16.626022 46.326104 0.000000 -0.137532 -1.570836
    1 1.289102 -0.015625 0.000000 0.000008 -1.562083 -1.570763
    2 -0.000009 0.000010 6.353378 -0.017657 0.076195 -2.556910
    3 18.507666 0.000000 0.000000 0.000000 0.000000 -1.721099
    4 13.411352 -0.000002 0.000000 3.162698 -0.114615 1.095720
    5 8.701365 6.675650 0.000000 0.000000 0.000000 1.614392
    6 6.262099 -1.461580 3.610131 -1.570796 1.492295 1.570796
    7 0.000009 -0.000007 -6.353378 0.060312 0.023295 -2.478944
    8 18.507668 0.000002 0.000000 0.000000 0.000000 -0.526087
    9 13.411351 -0.000001 0.000000 -2.979403 -0.037574 -0.023109
    10 6.262099 -1.470858 -4.185178 1.570795 1.492297 -1.570797
    11 6.280028 -0.742184 5.288615 1.570795 1.492297 -1.570797
    12 3.416504 -0.970599 0.027351 0.174563 0.013981 0.555189
    13 6.150890 -0.004767 0.000000 0.000012 0.026161 -0.004474
    14 6.181768 -0.006276 0.000000 0.016563 0.055356 0.332395
    15 8.035378 -0.006650 0.000000 -0.046729 -0.186709 0.515123
    16 9.041867 -0.002309 0.000000 0.000329 0.401454 -0.034171
    17 -8.569794 2.686279 0.193210 0.064415 -1.361617 3.109174
    18 8.356073 -0.000002 0.000000 -1.246972 0.513751 -1.338513
    19 22.314196 0.000000 0.000002 0.000000 0.000000 -1.858551
    20 13.466397 -0.000001 -0.000001 -0.589762 0.175966 0.155900
    21 6.645414 -0.843864 -1.119306 0.024433 0.137424 0.178136
    22 3.530614 0.000000 -0.000001 0.000000 0.000000 0.150449
    23 3.530614 -0.000001 0.000000 0.000000 0.000000 1.336646
    24 6.690087 -0.762451 1.047432 -0.030341 -0.180674 0.162007
    25 3.608304 0.000001 0.000000 0.000000 0.000000 0.150449
    26 3.608304 0.000000 0.000001 0.000000 0.000000 1.336646
    27 -5.772976 2.722126 -5.819248 3.120954 0.863563 0.015173
    28 8.356073 0.000003 0.000000 1.326712 -1.133599 -0.800507
    29 22.314196 0.000001 0.000001 0.000000 0.000000 -2.219602
    30 13.466398 -0.000001 -0.000002 0.951466 -0.474832 0.779325
    31 6.635592 -0.843576 1.110600 0.016942 -0.182396 -0.087820
    32 3.530615 0.000000 0.000001 0.000000 0.000000 0.410904
    33 3.530611 0.000001 -0.000003 0.000000 0.000000 0.663869
    34 6.681007 -0.762752 -1.054662 0.067346 0.170465 0.373156
    35 3.608305 -0.000001 0.000000 0.000000 0.000000 0.410946
    36 3.608305 -0.000001 0.000000 0.000000 0.000000 1.073803
    37 3.408091 -0.002199 0.000000 -0.000028 -0.034890 0.030017
    38 2.848662 0.000000 0.000000 -0.163080 -0.119755 -0.007651
    39 5.067991 7.235520 0.022323 -0.000003 0.000000 -2.626981
    40 -0.604384 -2.957996 0.000000 0.182703 -0.425340 0.176026
    41 0.107995 -6.585735 0.000000 0.000000 0.000000 0.244172
    42 -3.080979 -5.452278 0.000000 0.000000 0.000000 0.191888
    43 -3.048778 -2.270235 0.000000 0.000000 0.000000 0.000000
    44 -1.890806 -0.908390 0.000000 0.000000 0.000000 0.000000
    45 -0.454460 -0.402742 -1.764821 0.000000 -1.570796 0.000000
    46 -0.928989 -2.456182 2.268051 0.000000 0.000000 0.000000
    47 -0.447595 -0.389067 1.486638 0.000000 -1.570796 0.000000
    48 1.132205 -2.455431 2.290455 0.000000 0.000000 0.000000
    49 0.424462 -1.191061 -0.110061 0.000000 -1.570796 0.000000
    50 -0.087093 -2.917876 -0.217384 0.000000 0.000000 0.000000
  time 11
    0 -0.007324 -17.202541 45.634025 0.000000 -0.132579 -1.570836
    1 0.453139 -0.027345 0.000000 0.000008 -1.562083 -1.570763
    2 -0.000009 0.000010 6.353378 -0.028073 0.076109 -2.726488
    3 18.507666 0.000000 0.000000 0.000000 0.000000 -1.632450
    4 13.411352 -0.000002 0.000000 2.989685 -0.070151 1.366623
    5 8.701365 6.675650 0.000000 0.000000 0.000000 1.614392
    6 6.262099 -1.461580 3.610131 -1.570796 1.492295 1.570796
    7 0.000009 -0.000007 -6.353378 0.060959 0.019881 -2.409690
    8 18.507668 0.000002 0.000000 0.000000 0.000000 -0.706014
    9 13.411351 -0.000001 0.000000 -2.978061 -0.037957 0.082454
    10 6.262099 -1.470858 -4.185178 1.570795 1.492297 -1.570797
    11 6.280028 -0.742184 5.288615 1.570795 1.492297 -1.570797
    12 3.416504 -0.970599 0.027351 0.174563 0.013981 0.555189
    13 6.150890 -0.004767 0.000000 0.000012 0.026161 0.183177
    14 6.181768 -0.006276 0.000000 0.016563 0.055356 0.332395
    15 8.035378 -0.006650 0.000000 -0.251149 -0.037141 0.533436
    16 9.041867 -0.002309 0.000000 0.000622 0.662872 0.240130
    17 -7.526793 4.705872 -1.404495 -0.388778 -1.174842 3.311631
    18 8.356073 -0.000002 0.000000 -1.532282 0.405314 -1.225226
    19 22.314196 0.000000 0.000002 0.000000 0.000000 -1.858551
    20 13.466397 -0.000001 -0.000001 -0.606374 0.092230 0.032361
    21 6.645414 -0.843864 -1.119306 0.003721 0.139527 0.028462
    22 3.530614 0.000000 -0.000001 0.000000 0.000000 0.002154
    23 3.530614 -0.000001 0.000000 0.000000 0.000000 1.188390
    24 6.690087 -0.762451 1.047432 -0.002996 -0.183149 0.011263
    25 3.608304 0.000001 0.000000 0.000000 0.000000 0.002154
    26 3.608304 0.000000 0.000001 0.000000 0.000000 1.188390
    27 -3.268994 4.675310 -6.487237 -2.962402 0.608486 -0.088082
    28 8.356073 0.000003 0.000000 1.478800 -1.001327 -1.161211
    29 22.314196 0.000001 0.000001 0.000000 0.000000 -2.159032
    30 13.466398 -0.000001 -0.000002 0.991114 -0.340238 0.679523
    31 6.635592 -0.843576 1.110600 0.046579 -0.177216 -0.253185
    32 3.530615 0.000000 0.000001 0.000000 0.000000 0.248172
    33 3.530611 0.000001 -0.000003 0.000000 0.000000 0.501158
    34 6.681007 -0.762752 -1.054662 0.038579 0.179115 0.208103
    35 3.608305 -0.000001 0.000000 0.000000 0.000000 0.248183
    36 3.608305 -0.000001 0.000000 0.000000 0.000000 0.911042
    37 3.408091 -0.002199 0.000000 -0.000028 -0.034890 0.030017
    38 2.848662 0.000000 0.000000 0.330224 -0.428075 -0.511367
    39 5.067991 7.235520 0.022323 -0.000003 0.000000 -2.626981
    40 -0.604384 -2.957996 0.000000 0.182703 -0.425340 0.176026
    41 0.107995 -6.585735 0.000000 0.000000 0.000000 0.244172
    42 -3.080979 -5.452278 0.000000 0.000000 0.000000 0.191888
    43 -3.048778 -2.270235 0.000000 0.000000 0.000000 0.000000
    44 -1.890806 -0.908390 0.000000 0.000000 0.000000 0.000000
    45 -0.454460 -0.402742 -1.764821 0.000000 -1.570796 0.000000
    46 -0.928989 -2.456182 2.268051 0.000000 0.000000 0.000000
    47 -0.447595 -0.389067 1.486638 0.000000 -1.570796 0.000000
    48 1.132205 -2.455431 2.290455 0.000000 0.000000 0.000000
    49 0.424462 -1.191061 -0.110061 0.000000 -1.570796 0.000000
    50 -0.087093 -2.917876 -0.217384 0.000000 0.000000 0.000000
  time 12
    0 -0.019043 -17.345453 43.586436 0.000000 -0.130794 -1.570836
    1 0.269539 -0.140629 0.000000 -0.000040 -1.562083 -1.570763
    2 -0.000009 0.000010 6.353378 -0.027686 0.076730 -2.713953
    3 18.507666 0.000000 0.000000 0.000000 0.000000 -1.797661
    4 13.411352 -0.000002 0.000000 2.990355 -0.070151 1.517509
    5 8.701365 6.675650 0.000000 0.000000 0.000000 1.614392
    6 6.262099 -1.461580 3.610131 -1.570796 1.492295 1.570796
    7 0.000009 -0.000007 -6.353378 0.061061 0.010293 -2.266680
    8 18.507668 0.000002 0.000000 0.000000 0.000000 -1.013477
    9 13.411351 -0.000001 0.000000 -2.976911 -0.036042 0.244831
    10 6.262099 -1.470858 -4.185178 1.570795 1.492297 -1.570797
    11 6.280028 -0.742184 5.288615 1.570795 1.492297 -1.570797
    12 3.416504 -0.970599 0.027351 0.174563 0.013981 0.555189
    13 6.150890 -0.004767 0.000000 0.000012 0.026161 0.237892
    14 6.181768 -0.006276 0.000000 0.016563 0.055356 0.332395
    15 8.035378 -0.006650 0.000000 -0.198485 -0.068169 0.530654
    16 9.041867 -0.002309 0.000000 0.000622 0.662872 0.240130
    17 -7.526793 4.705872 -1.404495 -0.943022 -1.389120 3.885500
    18 8.356073 -0.000002 0.000000 -1.842393 0.348098 -1.376304
    19 22.314196 0.000000 0.000002 0.000000 0.000000 -1.958424
    20 13.466397 -0.000001 -0.000001 -0.603424 0.112083 0.061119
    21 6.645414 -0.843864 -1.119306 -0.037606 0.134443 -0.272204
    22 3.530614 0.000000 -0.000001 0.000000 0.000000 -0.295694
    23 3.530614 -0.000001 0.000000 0.000000 0.000000 0.890495
    24 6.690087 -0.762451 1.047432 0.051426 -0.175884 -0.291409
    25 3.608304 0.000001 0.000000 0.000000 0.000000 -0.295694
    26 3.608304 0.000000 0.000001 0.000000 0.000000 0.890495
    27 -3.268994 4.675310 -6.487237 -2.667016 1.245108 0.261759
    28 8.356073 0.000003 0.000000 0.626654 -0.865237 -0.448442
    29 22.314196 0.000001 0.000001 0.000000 0.000000 -2.366261
    30 13.466398 -0.000001 -0.000002 0.985109 -0.365171 0.696940
    31 6.635592 -0.843576 1.110600 0.041223 -0.178521 -0.222935
    32 3.530615 0.000000 0.000001 0.000000 0.000000 0.277988
    33 3.530611 0.000001 -0.000003 0.000000 0.000000 0.530984
    34 6.681007 -0.762752 -1.054662 0.043957 0.177872 0.238402
    35 3.608305 -0.000001 0.000000 0.000000 0.000000 0.277996
    36 3.608305 -0.000001 0.000000 0.000000 0.000000 0.940899
    37 3.408091 -0.002199 0.000000 -0.000028 -0.034890 0.030017
    38 2.848662 0.000000 0.000000 0.296761 -0.388268 -0.558566
    39 5.067991 7.235520 0.022323 -0.000003 0.000000 -2.626981
    40 -0.604384 -2.957996 0.000000 0.182703 -0.425340 0.176026
    41 0.107995 -6.585735 0.000000 0.000000 0.000000 0.244172
    42 -3.080979 -5.452278 0.000000 0.000000 0.000000 0.191888
    43 -3.048778 -2.270235 0.000000 0.000000 0.000000 0.000000
    44 -1.890806 -0.908390 0.000000 0.000000 0.000000 0.000000
    45 -0.454460 -0.402742 -1.764821 0.000000 -1.570796 0.000000
    46 -0.928989 -2.456182 2.268051 0.000000 0.000000 0.000000
    47 -0.447595 -0.389067 1.486638 0.000000 -1.570796 0.000000
    48 1.132205 -2.455431 2.290455 0.000000 0.000000 0.000000
    49 0.424462 -1.191061 -0.110061 0.000000 -1.570796 0.000000
    50 -0.087093 -2.917876 -0.217384 0.000000 0.000000 0.000000
  time 13
    0 -0.019043 -17.300859 42.800605 0.000000 -0.132522 -1.570836
    1 0.398450 -0.046876 0.000000 0.000008 -1.562083 -1.570811
    2 -0.000009 0.000010 6.353378 -0.022865 0.082270 -2.705486
    3 18.507666 0.000000 0.000000 0.000000 0.000000 -1.858496
    4 13.411352 -0.000002 0.000000 6.129310 -3.065052 -1.569834
    5 8.701365 6.675650 0.000000 0.000000 0.000000 1.614392
    6 6.262099 -1.461580 3.610131 -1.570796 1.492295 1.570796
    7 0.000009 -0.000007 -6.353378 0.063682 0.011576 -2.218029
    8 18.507668 0.000002 0.000000 0.000000 0.000000 -1.102480
    9 13.411351 -0.000001 0.000000 -2.975378 -0.040447 0.286983
    10 6.262099 -1.470858 -4.185178 1.570795 1.492297 -1.570797
    11 6.280028 -0.742184 5.288615 1.570795 1.492297 -1.570797
    12 3.416504 -0.970599 0.027351 0.174563 0.013981 0.555189
    13 6.150890 -0.004767 0.000000 0.000012 0.026161 0.197979
    14 6.181768 -0.006276 0.000000 0.016563 0.055356 0.332395
    15 8.035378 -0.006650 0.000000 -0.133861 -0.040245 0.516306
    16 9.041867 -0.002309 0.000000 0.000380 0.453547 0.257081
    17 -7.581482 4.819157 0.224461 -1.488062 -1.458816 4.396382
    18 8.356073 -0.000002 0.000000 -1.768724 0.384949 -1.443305
    19 22.314196 0.000000 0.000002 0.000000 0.000000 -1.956148
    20 13.466397 -0.000001 -0.000001 -0.595196 0.154036 0.122967
    21 6.645414 -0.843864 -1.119306 -0.023219 0.137643 -0.166231
    22 3.530614 0.000000 -0.000001 0.000000 0.000000 -0.190687
    23 3.530614 -0.000001 0.000000 0.000000 0.000000 0.995500
    24 6.690087 -0.762451 1.047432 0.032521 -0.180303 -0.184805
    25 3.608304 0.000001 0.000000 0.000000 0.000000 -0.190687
    26 3.608304 0.000000 0.000001 0.000000 0.000000 0.995500
    27 -4.476062 4.784688 -5.627836 -2.490705 1.385924 0.409883
    28 8.356073 0.000003 0.000000 0.695197 -0.810076 -0.417341
    29 22.314196 0.000001 0.000001 0.000000 0.000000 -2.373526
    30 13.466398 -0.000001 -0.000002 0.969409 -0.421445 0.737987
    31 6.635592 -0.843576 1.110600 0.028895 -0.180916 -0.154014
    32 3.530615 0.000000 0.000001 0.000000 0.000000 0.345823
    33 3.530611 0.000001 -0.000003 0.000000 0.000000 0.598828
    34 6.681007 -0.762752 -1.054662 0.056027 0.174484 0.307234
    35 3.608305 -0.000001 0.000000 0.000000 0.000000 0.345834
    36 3.608305 -0.000001 0.000000 0.000000 0.000000 1.008744
    37 3.408091 -0.002199 0.000000 -0.000028 -0.034890 0.030017
    38 2.848662 0.000000 0.000000 0.127866 -0.257255 -0.512313
    39 5.067991 7.235520 0.022323 -0.000003 0.000000 -2.626981
    40 -0.604384 -2.957996 0.000000 0.182703 -0.425340 0.176026
    41 0.107995 -6.585735 0.000000 0.000000 0.000000 0.244172
    42 -3.080979 -5.452278 0.000000 0.000000 0.000000 0.191888
    43 -3.048778 -2.270235 0.000000 0.000000 0.000000 0.000000
    44 -1.890806 -0.908390 0.000000 0.000000 0.000000 0.000000
    45 -0.454460 -0.402742 -1.764821 0.000000 -1.570796 0.000000
    46 -0.928989 -2.456182 2.268051 0.000000 0.000000 0.000000
    47 -0.447595 -0.389067 1.486638 0.000000 -1.570796 0.000000
    48 1.132205 -2.455431 2.290455 0.000000 0.000000 0.000000
    49 0.424462 -1.191061 -0.110061 0.000000 -1.570796 0.000000
    50 -0.087093 -2.917876 -0.217384 0.000000 0.000000 0.000000
  time 14
    0 -0.019043 -17.252359 42.381972 0.000000 -0.137244 -1.570836
    1 0.566424 0.062502 0.000000 0.000008 -1.562083 -1.570763
    2 -0.000009 0.000010 6.353378 -0.017451 0.087275 -2.694134
    3 18.507666 0.000000 0.000000 0.000000 0.000000 -1.891013
    4 13.411352 -0.000002 0.000000 6.126052 -3.058932 -1.543753
    5 8.701365 6.675650 0.000000 0.000000 0.000000 1.614392
    6 6.262099 -1.461580 3.610131 -1.570796 1.492295 1.570796
    7 0.000009 -0.000007 -6.353378 0.066746 0.014143 -2.189115
    8 18.507668 0.000002 0.000000 0.000000 0.000000 -1.142228
    9 13.411351 -0.000001 0.000000 -2.974132 -0.045330 0.302671
    10 6.262099 -1.470858 -4.185178 1.570795 1.492297 -1.570797
    11 6.280028 -0.742184 5.288615 1.570795 1.492297 -1.570797
    12 3.416504 -0.970599 0.027351 0.174563 0.013981 0.555189
    13 6.150890 -0.004767 0.000000 0.000012 0.026161 0.151700
    14 6.181768 -0.006276 0.000000 0.016563 0.055356 0.332395
    15 8.035378 -0.006650 0.000000 -0.079428 -0.005802 0.508092
    16 9.041867 -0.002309 0.000000 0.000294 0.356180 0.127155
    17 -8.054153 3.908973 0.763540 -0.653389 -1.498015 3.673662
    18 8.356073 -0.000002 0.000000 -1.664098 0.479545 -1.488031
    19 22.314196 0.000000 0.000002 0.000000 0.000000 -1.972760
    20 13.466397 -0.000001 -0.000001 -0.584173 0.195887 0.186312
    21 6.645414 -0.843864 -1.119306 -0.004538 0.139490 -0.031144
    22 3.530614 0.000000 -0.000001 0.000000 0.000000 -0.056854
    23 3.530614 -0.000001 0.000000 0.000000 0.000000 1.129327
    24 6.690087 -0.762451 1.047432 0.007901 -0.183008 -0.048762
    25 3.608304 0.000001 0.000000 0.000000 0.000000 -0.056854
    26 3.608304 0.000000 0.000001 0.000000 0.000000 1.129327
    27 -5.526875 3.905755 -5.366109 -2.894427 1.389042 0.123222
    28 8.356073 0.000003 0.000000 0.788804 -0.770280 -0.408456
    29 22.314196 0.000001 0.000001 0.000000 0.000000 -2.369666
    30 13.466398 -0.000001 -0.000002 0.947920 -0.484444 0.787046
    31 6.635592 -0.843576 1.110600 0.014762 -0.182591 -0.075839
    32 3.530615 0.000000 0.000001 0.000000 0.000000 0.422720
    33 3.530611 0.000001 -0.000003 0.000000 0.000000 0.675692
    34 6.681007 -0.762752 -1.054662 0.069378 0.169665 0.385130
    35 3.608305 -0.000001 0.000000 0.000000 0.000000 0.422735
    36 3.608305 -0.000001 0.000000 0.000000 0.000000 1.085639
    37 3.408091 -0.002199 0.000000 -0.000028 -0.034890 0.030017
    38 2.848662 0.000000 0.000000 -0.017352 -0.238220 -0.330569
    39 5.067991 7.235520 0.022323 -0.000003 0.000000 -2.626981
    40 -0.604384 -2.957996 0.000000 0.182703 -0.425340 0.176026
    41 0.107995 -6.585735 0.000000 0.000000 0.000000 0.244172
    42 -3.080979 -5.452278 0.000000 0.000000 0.000000 0.191888
    43 -3.048778 -2.270235 0.000000 0.000000 0.000000 0.000000
    44 -1.890806 -0.908390 0.000000 0.000000 0.000000 0.000000
    45 -0.454460 -0.402742 -1.764821 0.000000 -1.570796 0.000000
    46 -0.928989 -2.456182 2.268051 0.000000 0.000000 0.000000
    47 -0.447595 -0.389067 1.486638 0.000000 -1.570796 0.000000
    48 1.132205 -2.455431 2.290455 0.000000 0.000000 0.000000
    49 0.424462 -1.191061 -0.110061 0.000000 -1.570796 0.000000
    50 -0.087093 -2.917876 -0.217384 0.000000 0.000000 0.000000
  time 15
    0 -0.019043 -16.750720 43.318849 0.000000 -0.144386 -1.570836
    1 0.714866 0.164068 0.000000 -0.000040 -1.562083 -1.570763
    2 -0.000009 0.000010 6.353378 -0.017193 0.088494 -2.708182
    3 18.507666 0.000000 0.000000 0.000000 0.000000 -1.806308
    4 13.411352 -0.000002 0.000000 2.982979 -0.084685 1.534307
    5 8.701365 6.675650 0.000000 0.000000 0.000000 1.614392
    6 6.262099 -1.461580 3.610131 -1.570796 1.492295 1.570796
    7 0.000009 -0.000007 -6.353378 0.066405 0.019639 -2.244403
    8 18.507668 0.000002 0.000000 0.000000 0.000000 -1.043364
    9 13.411351 -0.000001 0.000000 -2.973653 -0.046766 0.266457
    10 6.262099 -1.470858 -4.185178 1.570795 1.492297 -1.570797
    11 6.280028 -0.742184 5.288615 1.570795 1.492297 -1.570797
    12 3.416504 -0.970599 0.027351 0.174563 0.013981 0.555189
    13 6.150890 -0.004767 0.000000 0.000012 0.026161 0.112982
    14 6.181768 -0.006276 0.000000 0.016563 0.055356 0.332395
    15 8.035378 -0.006650 0.000000 -0.045760 0.028846 0.505135
    16 9.041867 -0.002309 0.000000 0.000207 0.267925 -0.019552
    17 -8.429165 2.803470 1.341683 0.050130 -1.467239 3.109748
    18 8.356073 -0.000002 0.000000 -1.552950 0.565502 -1.494445
    19 22.314196 0.000000 0.000002 0.000000 0.000000 -1.931629
    20 13.466397 -0.000001 -0.000001 -0.570898 0.235321 0.248121
    21 6.645414 -0.843864 -1.119306 0.013782 0.138887 0.100970
    22 3.530614 0.000000 -0.000001 0.000000 0.000000 0.074000
    23 3.530614 -0.000001 0.000000 0.000000 0.000000 1.260201
    24 6.690087 -0.762451 1.047432 -0.016286 -0.182460 0.084304
    25 3.608304 0.000001 0.000000 0.000000 0.000000 0.074000
    26 3.608304 0.000000 0.000001 0.000000 0.000000 1.260201
    27 -6.456591 2.835410 -4.987191 3.116065 1.365942 -0.006782
    28 8.356073 0.000003 0.000000 0.865323 -0.736400 -0.409690
    29 22.314196 0.000001 0.000001 0.000000 0.000000 -2.360767
    30 13.466398 -0.000001 -0.000002 0.926721 -0.535991 0.830358
    31 6.635592 -0.843576 1.110600 0.002939 -0.183156 -0.010832
    32 3.530615 0.000000 0.000001 0.000000 0.000000 0.486637
    33 3.530611 0.000001 -0.000003 0.000000 0.000000 0.739583
    34 6.681007 -0.762752 -1.054662 0.080133 0.164881 0.449762
    35 3.608305 -0.000001 0.000000 0.000000 0.000000 0.486654
    36 3.608305 -0.000001 0.000000 0.000000 0.000000 1.149552
    37 3.408091 -0.002199 0.000000 -0.000028 -0.034890 0.030017
    38 2.848662 0.000000 0.000000 -0.116721 -0.201957 -0.140207
    39 5.067991 7.235520 0.022323 -0.000003 0.000000 -2.626981
    40 -0.604384 -2.957996 0.000000 0.182703 -0.425340 0.176026
    41 0.107995 -6.585735 0.000000 0.000000 0.000000 0.244172
    42 -3.080979 -5.452278 0.000000 0.000000 0.000000 0.191888
    43 -3.048778 -2.270235 0.000000 0.000000 0.000000 0.000000
    44 -1.890806 -0.908390 0.000000 0.000000 0.000000 0.000000
    45 -0.454460 -0.402742 -1.764821 0.000000 -1.570796 0.000000
    46 -0.928989 -2.456182 2.268051 0.000000 0.000000 0.000000
    47 -0.447595 -0.389067 1.486638 0.000000 -1.570796 0.000000
    48 1.132205 -2.455431 2.290455 0.000000 0.000000 0.000000
    49 0.424462 -1.191061 -0.110061 0.000000 -1.570796 0.000000
    50 -0.087093 -2.917876 -0.217384 0.000000 0.000000 0.000000
  time 16
    0 1.387250 -18.108513 44.853401 0.000000 -0.153428 -1.570836
    1 0.859401 0.277352 0.000000 0.000008 -1.562083 -1.570811
    2 -0.000009 0.000010 6.353378 0.030324 0.137585 -2.626444
    3 18.507666 0.000000 0.000000 0.000000 0.000000 -1.717913
    4 13.411352 -0.000002 0.000000 2.960466 -0.143780 1.376569
    5 8.701365 6.675650 0.000000 0.000000 0.000000 1.614392
    6 6.262099 -1.461580 3.610131 -1.570796 1.492295 1.570796
    7 0.000009 -0.000007 -6.353378 0.079443 0.022060 -2.081136
    8 18.507668 0.000002 0.000000 0.000000 0.000000 -1.316288
    9 13.411351 -0.000001 0.000000 -2.980649 -0.090334 0.539235
    10 6.262099 -1.470858 -4.185178 1.570795 1.492297 -1.570797
    11 6.280028 -0.742184 5.288615 1.570795 1.492297 -1.570797
    12 3.416504 -0.970599 0.027351 0.174563 0.013981 0.555189
    13 6.150890 -0.004767 0.000000 0.000012 0.026161 0.077652
    14 6.181768 -0.006276 0.000000 0.016563 0.055356 0.332395
    15 8.035378 -0.006650 0.000000 -0.045825 0.073141 0.503097
    16 9.041867 -0.002309 0.000000 0.000156 0.194052 -0.138247
    17 -8.581513 1.862035 1.908106 0.176107 -1.418539 3.102282
    18 8.356073 -0.000002 0.000000 -1.451355 0.680991 -1.444866
    19 22.314196 0.000000 0.000002 0.000000 0.000000 -1.978151
    20 13.466397 -0.000001 -0.000001 -0.556149 0.271485 0.307054
    21 6.645414 -0.843864 -1.119306 0.030824 0.136144 0.225146
    22 3.530614 0.000000 -0.000001 0.000000 0.000000 0.197006
    23 3.530614 -0.000001 0.000000 0.000000 0.000000 1.383224
    24 6.690087 -0.762451 1.047432 -0.038780 -0.179066 0.209303
    25 3.608304 0.000001 0.000000 0.000000 0.000000 0.197006
    26 3.608304 0.000000 0.000001 0.000000 0.000000 1.383224
    27 -7.081610 1.921320 -4.549678 3.025944 1.338334 0.022460
    28 8.356073 0.000003 0.000000 0.914215 -0.696032 -0.428778
    29 22.314196 0.000001 0.000001 0.000000 0.000000 -2.349098
    30 13.466398 -0.000001 -0.000002 0.908127 -0.575263 0.865599
    31 6.635592 -0.843576 1.110600 -0.006199 -0.183078 0.039347
    32 3.530615 0.000000 0.000001 0.000000 0.000000 0.536045
    33 3.530611 0.000001 -0.000003 0.000000 0.000000 0.788993
    34 6.681007 -0.762752 -1.054662 0.088226 0.160727 0.499642
    35 3.608305 -0.000001 0.000000 0.000000 0.000000 0.536059
    36 3.608305 -0.000001 0.000000 0.000000 0.000000 1.198919
    37 3.408091 -0.002199 0.000000 -0.000028 -0.034890 0.030017
    38 2.848662 0.000000 0.000000 -0.148502 -0.173068 0.016446
    39 5.067991 7.235520 0.022323 -0.000003 0.000000 -2.626981
    40 -0.604384 -2.957996 0.000000 0.182703 -0.425340 0.176026
    41 0.107995 -6.585735 0.000000 0.000000 0.000000 0.244172
    42 -3.080979 -5.452278 0.000000 0.000000 0.000000 0.191888
    43 -3.048778 -2.270235 0.000000 0.000000 0.000000 0.000000
    44 -1.890806 -0.908390 0.000000 0.000000 0.000000 0.000000
    45 -0.454460 -0.402742 -1.764821 0.000000 -1.570796 0.000000
    46 -0.928989 -2.456182 2.268051 0.000000 0.000000 0.000000
    47 -0.447595 -0.389067 1.486638 0.000000 -1.570796 0.000000
    48 1.132205 -2.455431 2.290455 0.000000 0.000000 0.000000
    49 0.424462 -1.191061 -0.110061 0.000000 -1.570796 0.000000
    50 -0.087093 -2.917876 -0.217384 0.000000 0.000000 0.000000
  time 17
    0 2.707602 -19.903819 46.282481 0.000000 -0.163910 -1.570836
    1 1.007843 0.382824 0.000000 0.000008 -1.562083 -1.570811
    2 -0.000009 0.000010 6.353378 0.070389 0.179275 -2.537516
    3 18.507666 0.000000 0.000000 0.000000 0.000000 -1.621122
    4 13.411352 -0.000002 0.000000 2.951557 -0.196277 1.205938
    5 8.701365 6.675650 0.000000 0.000000 0.000000 1.614392
    6 6.262099 -1.461580 3.610131 -1.570796 1.492295 1.570796
    7 0.000009 -0.000007 -6.353378 0.091833 0.021964 -1.923524
    8 18.507668 0.000002 0.000000 0.000000 0.000000 -1.582740
    9 13.411351 -0.000001 0.000000 -2.993012 -0.129019 0.794346
    10 6.262099 -1.470858 -4.185178 1.570795 1.492297 -1.570797
    11 6.280028 -0.742184 5.288615 1.570795 1.492297 -1.570797
    12 3.416504 -0.970599 0.027351 0.174563 0.013981 0.555189
    13 6.150890 -0.004767 0.000000 0.000012 0.026161 0.044213
    14 6.181768 -0.006276 0.000000 0.016563 0.055356 0.332395
    15 8.035378 -0.006650 0.000000 -0.045970 0.111767 0.501323
    16 9.041867 -0.002309 0.000000 0.000104 0.129663 -0.227916
    17 -8.573700 1.131544 2.439372 0.150989 -1.375389 3.218587
    18 8.356073 -0.000002 0.000000 -1.320183 0.866657 -1.344494
    19 22.314196 0.000000 0.000002 0.000000 0.000000 -2.076347
    20 13.466397 -0.000001 -0.000001 -0.540857 0.303222 0.361063
    21 6.645414 -0.843864 -1.119306 0.045768 0.131901 0.336697
    22 3.530614 0.000000 -0.000001 0.000000 0.000000 0.307657
    23 3.530614 -0.000001 0.000000 0.000000 0.000000 1.493874
    24 6.690087 -0.762451 1.047432 -0.058515 -0.173674 0.321536
    25 3.608304 0.000001 0.000000 0.000000 0.000000 0.307657
    26 3.608304 0.000000 0.000001 0.000000 0.000000 1.493874
    27 -7.499591 1.210361 -4.104352 3.027669 1.310689 0.115361
    28 8.356073 0.000003 0.000000 0.955797 -0.659766 -0.446879
    29 22.314196 0.000001 0.000001 0.000000 0.000000 -2.334659
    30 13.466398 -0.000001 -0.000002 0.892354 -0.605049 0.893989
    31 6.635592 -0.843576 1.110600 -0.013215 -0.182708 0.077979
    32 3.530615 0.000000 0.000001 0.000000 0.000000 0.574003
    33 3.530611 0.000001 -0.000003 0.000000 0.000000 0.826976
    34 6.681007 -0.762752 -1.054662 0.094286 0.157270 0.537945
    35 3.608305 -0.000001 0.000000 0.000000 0.000000 0.574015
    36 3.608305 -0.000001 0.000000 0.000000 0.000000 1.236908
    37 3.408091 -0.002199 0.000000 -0.000028 -0.034890 0.030017
    38 2.848662 0.000000 0.000000 -0.159257 -0.145773 0.140103
    39 5.067991 7.235520 0.022323 -0.000003 0.000000 -2.626981
    40 -0.604384 -2.957996 0.000000 0.182703 -0.425340 0.176026
    41 0.107995 -6.585735 0.000000 0.000000 0.000000 0.244172
    42 -3.080979 -5.452278 0.000000 0.000000 0.000000 0.191888
    43 -3.048778 -2.270235 0.000000 0.000000 0.000000 0.000000
    44 -1.890806 -0.908390 0.000000 0.000000 0.000000 0.000000
    45 -0.454460 -0.402742 -1.764821 0.000000 -1.570796 0.000000
    46 -0.928989 -2.456182 2.268051 0.000000 0.000000 0.000000
    47 -0.447595 -0.389067 1.486638 0.000000 -1.570796 0.000000
    48 1.132205 -2.455431 2.290455 0.000000 0.000000 0.000000
    49 0.424462 -1.191061 -0.110061 0.000000 -1.570796 0.000000
    50 -0.087093 -2.917876 -0.217384 0.000000 0.000000 0.000000
  time 18
    0 1.992737 -21.578028 47.520148 0.000000 -0.175313 -1.570836
    1 1.136753 0.472671 0.000000 0.000008 -1.562083 -1.570763
    2 -0.000009 0.000010 6.353378 0.047443 0.152045 -2.467320
    3 18.507666 0.000000 0.000000 0.000000 0.000000 -1.544661
    4 13.411352 -0.000002 0.000000 2.971100 -0.160801 1.066472
    5 8.701365 6.675650 0.000000 0.000000 0.000000 1.614392
    6 6.262099 -1.461580 3.610131 -1.570796 1.492295 1.570796
    7 0.000009 -0.000007 -6.353378 0.104837 0.021988 -1.768741
    8 18.507668 0.000002 0.000000 0.000000 0.000000 -1.868003
    9 13.411351 -0.000001 0.000000 -3.002979 -0.160905 1.009798
    10 6.262099 -1.470858 -4.185178 1.570795 1.492297 -1.570797
    11 6.280028 -0.742184 5.288615 1.570795 1.492297 -1.570797
    12 3.416504 -0.970599 0.027351 0.174563 0.013981 0.555189
    13 6.150890 -0.004767 0.000000 0.000012 0.026161 0.016035
    14 6.181768 -0.006276 0.000000 0.016563 0.055356 0.332395
    15 8.035378 -0.006650 0.000000 -0.046153 0.146906 0.499680
    16 9.041867 -0.002309 0.000000 0.000052 0.067114 -0.292878
    17 -8.460415 0.600278 2.966732 0.088958 -1.351318 3.346092
    18 8.356073 -0.000002 0.000000 -1.156033 1.018116 -1.186481
    19 22.314196 0.000000 0.000002 0.000000 0.000000 -2.158130
    20 13.466397 -0.000001 -0.000001 -0.530377 0.322428 0.395020
    21 6.645414 -0.843864 -1.119306 0.054387 0.128591 0.403168
    22 3.530614 0.000000 -0.000001 0.000000 0.000000 0.373641
    23 3.530614 -0.000001 0.000000 0.000000 0.000000 1.559853
    24 6.690087 -0.762451 1.047432 -0.069911 -0.169432 0.388374
    25 3.608304 0.000001 0.000000 0.000000 0.000000 0.373641
    26 3.608304 0.000000 0.000001 0.000000 0.000000 1.559853
    27 -7.804288 0.690814 -3.631681 3.073209 1.283458 0.225998
    28 8.356073 0.000003 0.000000 1.000417 -0.621211 -0.471480
    29 22.314196 0.000001 0.000001 0.000000 0.000000 -2.315407
    30 13.466398 -0.000001 -0.000002 0.880416 -0.625732 0.914600
    31 6.635592 -0.843576 1.110600 -0.018137 -0.182280 0.105105
    32 3.530615 0.000000 0.000001 0.000000 0.000000 0.600697
    33 3.530611 0.000001 -0.000003 0.000000 0.000000 0.853639
    34 6.681007 -0.762752 -1.054662 0.098469 0.154699 0.564803
    35 3.608305 -0.000001 0.000000 0.000000 0.000000 0.600694
    36 3.608305 -0.000001 0.000000 0.000000 0.000000 1.263596
    37 3.408091 -0.002199 0.000000 -0.000028 -0.034890 0.030017
    38 2.848662 0.000000 0.000000 -0.155231 -0.118337 0.232277
    39 5.067991 7.235520 0.022323 -0.000003 0.000000 -2.626981
    40 -0.604384 -2.957996 0.000000 0.182703 -0.425340 0.176026
    41 0.107995 -6.585735 0.000000 0.000000 0.000000 0.244172
    42 -3.080979 -5.452278 0.000000 0.000000 0.000000 0.191888
    43 -3.048778 -2.270235 0.000000 0.000000 0.000000 0.000000
    44 -1.890806 -0.908390 0.000000 0.000000 0.000000 0.000000
    45 -0.454460 -0.402742 -1.764821 0.000000 -1.570796 0.000000
    46 -0.928989 -2.456182 2.268051 0.000000 0.000000 0.000000
    47 -0.447595 -0.389067 1.486638 0.000000 -1.570796 0.000000
    48 1.132205 -2.455431 2.290455 0.000000 0.000000 0.000000
    49 0.424462 -1.191061 -0.110061 0.000000 -1.570796 0.000000
    50 -0.087093 -2.917876 -0.217384 0.000000 0.000000 0.000000
  time 19
    0 1.445845 -23.220985 48.605468 0.000000 -0.187177 -1.570836
    1 1.234413 0.550798 0.000000 0.000008 -1.562083 -1.570763
    2 -0.000009 0.000010 6.353378 0.032438 0.130077 -2.409800
    3 18.507666 0.000000 0.000000 0.000000 0.000000 -1.459451
    4 13.411352 -0.000002 0.000000 2.980392 -0.132879 0.933931
    5 8.701365 6.675650 0.000000 0.000000 0.000000 1.614392
    6 6.262099 -1.461580 3.610131 -1.570796 1.492295 1.570796
    7 0.000009 -0.000007 -6.353378 0.103339 0.043731 -1.896342
    8 18.507668 0.000002 0.000000 0.000000 0.000000 -1.875488
    9 13.411351 -0.000001 0.000000 -2.946722 -0.070322 0.475017
    10 6.262099 -1.470858 -4.185178 1.570795 1.492297 -1.570797
    11 6.280028 -0.742184 5.288615 1.570795 1.492297 -1.570797
    12 3.416504 -0.970599 0.027351 0.174563 0.013981 0.555189
    13 6.150890 -0.004767 0.000000 0.000012 0.026161 -0.003743
    14 6.181768 -0.006276 0.000000 0.016563 0.055356 0.332395
    15 8.035378 -0.006650 0.000000 -0.046376 0.180391 0.498125
    16 9.041867 -0.002309 0.000000 0.000000 -0.000002 -0.321821
    17 -8.253378 0.361989 3.525343 -0.000012 -1.370798 3.462589
    18 8.356073 -0.000002 0.000000 -1.036618 1.100634 -1.051438
    19 22.314196 0.000000 0.000002 0.000000 0.000000 -2.190916
    20 13.466397 -0.000001 -0.000001 -0.532551 0.318512 0.388008
    21 6.645414 -0.843864 -1.119306 0.051602 0.129725 0.381501
    22 3.530614 0.000000 -0.000001 0.000000 0.000000 0.352131
    23 3.530614 -0.000001 0.000000 0.000000 0.000000 1.538321
    24 6.690087 -0.762451 1.047432 -0.066223 -0.170899 0.366609
    25 3.608304 0.000001 0.000000 0.000000 0.000000 0.352131
    26 3.608304 0.000000 0.000001 0.000000 0.000000 1.538321
    27 -8.046483 0.460338 -3.100415 -3.141493 1.264940 0.321105
    28 8.356073 0.000003 0.000000 1.048549 -0.572921 -0.506777
    29 22.314196 0.000001 0.000001 0.000000 0.000000 -2.287301
    30 13.466398 -0.000001 -0.000002 0.877812 -0.630046 0.919070
    31 6.635592 -0.843576 1.110600 -0.019177 -0.182182 0.110799
    32 3.530615 0.000000 0.000001 0.000000 0.000000 0.606329
    33 3.530611 0.000001 -0.000003 0.000000 0.000000 0.859245
    34 6.681007 -0.762752 -1.054662 0.099340 0.154154 0.570459
    35 3.608305 -0.000001 0.000000 0.000000 0.000000 0.606316
    36 3.608305 -0.000001 0.000000 0.000000 0.000000 1.269208
    37 3.408091 -0.002199 0.000000 -0.000028 -0.034890 0.030017
    38 2.848662 0.000000 0.000000 -0.139761 -0.087250 0.278814
    39 5.067991 7.235520 0.022323 -0.000003 0.000000 -2.626981
    40 -0.604384 -2.957996 0.000000 0.182703 -0.425340 0.176026
    41 0.107995 -6.585735 0.000000 0.000000 0.000000 0.244172
    42 -3.080979 -5.452278 0.000000 0.000000 0.000000 0.191888
    43 -3.048778 -2.270235 0.000000 0.000000 0.000000 0.000000
    44 -1.890806 -0.908390 0.000000 0.000000 0.000000 0.000000
    45 -0.454460 -0.402742 -1.764821 0.000000 -1.570796 0.000000
    46 -0.928989 -2.456182 2.268051 0.000000 0.000000 0.000000
    47 -0.447595 -0.389067 1.486638 0.000000 -1.570796 0.000000
    48 1.132205 -2.455431 2.290455 0.000000 0.000000 0.000000
    49 0.424462 -1.191061 -0.110061 0.000000 -1.570796 0.000000
    50 -0.087093 -2.917876 -0.217384 0.000000 0.000000 0.000000
  time 20
    0 0.883328 -24.965509 49.561877 0.000000 -0.199099 -1.570836
    1 1.285195 0.609394 0.000000 0.000008 -1.562083 -1.570763
    2 -0.000009 0.000010 6.353378 0.018438 0.108002 -2.358478
    3 18.507666 0.000000 0.000000 0.000000 0.000000 -1.369285
    4 13.411352 -0.000002 0.000000 2.985565 -0.105148 0.803526
    5 8.701365 6.675650 0.000000 0.000000 0.000000 1.614392
    6 6.262099 -1.461580 3.610131 -1.570796 1.492295 1.570796
    7 0.000009 -0.000007 -6.353378 0.101263 0.085548 -2.120726
    8 18.507668 0.000002 0.000000 0.000000 0.000000 -2.074631
    9 13.411351 -0.000001 0.000000 -2.967711 -0.084206 0.742737
    10 6.262099 -1.470858 -4.185178 1.570795 1.492297 -1.570797
    11 6.280028 -0.742184 5.288615 1.570795 1.492297 -1.570797
    12 3.416504 -0.970599 0.027351 0.174563 0.013981 0.555189
    13 6.150890 -0.004767 0.000000 0.000012 0.026161 -0.013141
    14 6.181768 -0.006276 0.000000 0.016563 0.055356 0.332395
    15 8.035378 -0.006650 0.000000 -0.046638 0.211191 0.496657
    16 9.041867 -0.002309 0.000000 -0.000052 -0.073482 -0.283556
    17 -7.956494 0.674499 4.119111 -0.157820 -1.439736 3.580139
    18 8.356073 -0.000002 0.000000 -1.015215 1.147447 -0.997179
    19 22.314196 0.000000 0.000002 0.000000 0.000000 -2.185325
    20 13.466397 -0.000001 -0.000001 -0.545747 0.293517 0.344281
    21 6.645414 -0.843864 -1.119306 0.038132 0.134297 0.279206
    22 3.530614 0.000000 -0.000001 0.000000 0.000000 0.250636
    23 3.530614 -0.000001 0.000000 0.000000 0.000000 1.436830
    24 6.690087 -0.762451 1.047432 -0.048415 -0.176732 0.263734
    25 3.608304 0.000001 0.000000 0.000000 0.000000 0.250636
    26 3.608304 0.000000 0.000001 0.000000 0.000000 1.436830
    27 -8.230083 0.768941 -2.506647 -3.073327 1.264414 0.347086
    28 8.356073 0.000003 0.000000 1.096872 -0.510602 -0.559928
    29 22.314196 0.000001 0.000001 0.000000 0.000000 -2.241351
    30 13.466398 -0.000001 -0.000002 0.894380 -0.601401 0.890448
    31 6.635592 -0.843576 1.110600 -0.012349 -0.182766 0.073195
    32 3.530615 0.000000 0.000001 0.000000 0.000000 0.569350
    33 3.530611 0.000001 -0.000003 0.000000 0.000000 0.822268
    34 6.681007 -0.762752 -1.054662 0.093552 0.157713 0.533215
    35 3.608305 -0.000001 0.000000 0.000000 0.000000 0.569348
    36 3.608305 -0.000001 0.000000 0.000000 0.000000 1.232212
    37 3.408091 -0.002199 0.000000 -0.000028 -0.034890 0.030017
    38 2.848662 0.000000 0.000000 -0.122532 -0.047053 0.248042
    39 5.067991 7.235520 0.022323 -0.000003 0.000000 -2.626981
    40 -0.604384 -2.957996 0.000000 0.182703 -0.425340 0.176026
    41 0.107995 -6.585735 0.000000 0.000000 0.000000 0.244172
    42 -3.080979 -5.452278 0.000000 0.000000 0.000000 0.191888
    43 -3.048778 -2.270235 0.000000 0.000000 0.000000 0.000000
    44 -1.890806 -0.908390 0.000000 0.000000 0.000000 0.000000
    45 -0.454460 -0.402742 -1.764821 0.000000 -1.570796 0.000000
    46 -0.928989 -2.456182 2.268051 0.000000 0.000000 0.000000
    47 -0.447595 -0.389067 1.486638 0.000000 -1.570796 0.000000
    48 1.132205 -2.455431 2.290455 0.000000 0.000000 0.000000
    49 0.424462 -1.191061 -0.110061 0.000000 -1.570796 0.000000
    50 -0.087093 -2.917876 -0.217384 0.000000 0.000000 0.000000
  time 21
    0 0.375500 -26.647530 50.596413 0.000000 -0.210618 -1.570836
    1 1.300821 0.656270 0.000000 0.000008 -1.562083 -1.570763
    2 -0.000009 0.000010 6.353378 0.005753 0.088024 -2.328157
    3 18.507666 0.000000 0.000000 0.000000 0.000000 -1.251711
    4 13.411352 -0.000002 0.000000 2.987098 -0.080765 0.666859
    5 8.701365 6.675650 0.000000 0.000000 0.000000 1.614392
    6 6.262099 -1.461580 3.610131 -1.570796 1.492295 1.570796
    7 0.000009 -0.000007 -6.353378 0.075426 0.111553 -2.362308
    8 18.507668 0.000002 0.000000 0.000000 0.000000 -2.097944
    9 13.411351 -0.000001 0.000000 -3.006238 -0.072045 0.817218
    10 6.262099 -1.470858 -4.185178 1.570795 1.492297 -1.570797
    11 6.280028 -0.742184 5.288615 1.570795 1.492297 -1.570797
    12 3.416504 -0.970599 0.027351 0.174563 0.013981 0.555189
    13 6.150890 -0.004767 0.000000 0.000012 0.026161 -0.015567
    14 6.181768 -0.006276 0.000000 0.016563 0.055356 0.332395
    15 8.035378 -0.006650 0.000000 -0.046913 0.239259 0.495299
    16 9.041867 -0.002309 0.000000 -0.000104 -0.149876 -0.188082
    17 -7.515074 1.455773 4.697254 -0.487432 -1.511108 3.813611
    18 8.356073 -0.000002 0.000000 -1.005570 1.168518 -0.951500
    19 22.314196 0.000000 0.000002 0.000000 0.000000 -2.162603
    20 13.466397 -0.000001 -0.000001 -0.562049 0.257762 0.284363
    21 6.645414 -0.843864 -1.119306 0.019025 0.138283 0.138817
    22 3.530614 0.000000 -0.000001 0.000000 0.000000 0.111474
    23 3.530614 -0.000001 0.000000 0.000000 0.000000 1.297694
    24 6.690087 -0.762451 1.047432 -0.023197 -0.181717 0.122385
    25 3.608304 0.000001 0.000000 0.000000 0.000000 0.111474
    26 3.608304 0.000000 0.000001 0.000000 0.000000 1.297694
    27 -8.288678 1.530683 -1.885534 -3.044661 1.277899 0.278058
    28 8.356073 0.000003 0.000000 1.143485 -0.436640 -0.628136
    29 22.314196 0.000001 0.000001 0.000000 0.000000 -2.176740
    30 13.466398 -0.000001 -0.000002 0.925130 -0.539544 0.833435
    31 6.635592 -0.843576 1.110600 0.002116 -0.183156 -0.006324
    32 3.530615 0.000000 0.000001 0.000000 0.000000 0.491046
    33 3.530611 0.000001 -0.000003 0.000000 0.000000 0.744039
    34 6.681007 -0.762752 -1.054662 0.080867 0.164540 0.454228
    35 3.608305 -0.000001 0.000000 0.000000 0.000000 0.491084
    36 3.608305 -0.000001 0.000000 0.000000 0.000000 1.153981
    37 3.408091 -0.002199 0.000000 -0.000028 -0.034890 0.030017
    38 2.848662 0.000000 0.000000 -0.118862 0.002183 0.154873
    39 5.067991 7.235520 0.022323 -0.000003 0.000000 -2.626981
    40 -0.604384 -2.957996 0.000000 0.182703 -0.425340 0.176026
    41 0.107995 -6.585735 0.000000 0.000000 0.000000 0.244172
    42 -3.080979 -5.452278 0.000000 0.000000 0.000000 0.191888
    43 -3.048778 -2.270235 0.000000 0.000000 0.000000 0.000000
    44 -1.890806 -0.908390 0.000000 0.000000 0.000000 0.000000
    45 -0.454460 -0.402742 -1.764821 0.000000 -1.570796 0.000000
    46 -0.928989 -2.456182 2.268051 0.000000 0.000000 0.000000
    47 -0.447595 -0.389067 1.486638 0.000000 -1.570796 0.000000
    48 1.132205 -2.455431 2.290455 0.000000 0.000000 0.000000
    49 0.424462 -1.191061 -0.110061 0.000000 -1.570796 0.000000
    50 -0.087093 -2.917876 -0.217384 0.000000 0.000000 0.000000
  time 22
    0 -0.019043 -28.079544 51.689545 0.000000 -0.221330 -1.570836
    1 1.289102 0.691427 0.000000 0.000008 -1.562083 -1.570763
    2 -0.000009 0.000010 6.353378 -0.004456 0.072366 -2.325319
    3 18.507666 0.000000 0.000000 0.000000 0.000000 -1.108245
    4 13.411352 -0.000002 0.000000 2.986619 -0.062405 0.531224
    5 8.701365 6.675650 0.000000 0.000000 0.000000 1.614392
    6 6.262099 -1.461580 3.610131 -1.570796 1.492295 1.570796
    7 0.000009 -0.000007 -6.353378 0.046185 0.116371 -2.482522
    8 18.507668 0.000002 0.000000 0.000000 0.000000 -2.012531
    9 13.411351 -0.000001 0.000000 -3.042752 -0.063332 0.787748
    10 6.262099 -1.470858 -4.185178 1.570795 1.492297 -1.570797
    11 6.280028 -0.742184 5.288615 1.570795 1.492297 -1.570797
    12 3.416504 -0.970599 0.027351 0.174563 0.013981 0.555189
    13 6.150890 -0.004767 0.000000 0.000012 0.026161 -0.011750
    14 6.181768 -0.006276 0.000000 0.016563 0.055356 0.332395
    15 8.035378 -0.006650 0.000000 -0.047227 0.266884 0.493963
    16 9.041867 -0.002309 0.000000 -0.000173 -0.224597 -0.059936
    17 -6.897868 2.483148 5.189456 -2.637392 -1.543122 -0.446228
    18 8.356073 -0.000002 0.000000 -1.014480 1.177158 -0.924543
    19 22.314196 0.000000 0.000002 0.000000 0.000000 -2.134889
    20 13.466397 -0.000001 -0.000001 -0.576410 0.220099 0.223972
    21 6.645414 -0.843864 -1.119306 -0.000868 0.139545 -0.004850
    22 3.530614 0.000000 -0.000001 0.000000 0.000000 -0.030814
    23 3.530614 -0.000001 0.000000 0.000000 0.000000 1.155382
    24 6.690087 -0.762451 1.047432 0.003084 -0.183149 -0.022264
    25 3.608304 0.000001 0.000000 0.000000 0.000000 -0.030814
    26 3.608304 0.000000 0.000001 0.000000 0.000000 1.155382
    27 -8.151955 2.526807 -1.319111 -3.091255 1.301900 0.106157
    28 8.356073 0.000003 0.000000 1.181935 -0.352849 -0.700375
    29 22.314196 0.000001 0.000001 0.000000 0.000000 -2.101776
    30 13.466398 -0.000001 -0.000002 0.958484 -0.455006 0.763649
    31 6.635592 -0.843576 1.110600 0.021403 -0.181929 -0.112495
    32 3.530615 0.000000 0.000001 0.000000 0.000000 0.386659
    33 3.530611 0.000001 -0.000003 0.000000 0.000000 0.639649
    34 6.681007 -0.762752 -1.054662 0.063163 0.172049 0.348613
    35 3.608305 -0.000001 0.000000 0.000000 0.000000 0.386686
    36 3.608305 -0.000001 0.000000 0.000000 0.000000 1.049559
    37 3.408091 -0.002199 0.000000 -0.000028 -0.034890 0.030017
    38 2.848662 0.000000 0.000000 -0.137543 0.051845 0.024778
    39 5.067991 7.235520 0.022323 -0.000003 0.000000 -2.626981
    40 -0.604384 -2.957996 0.000000 0.182703 -0.425340 0.176026
    41 0.107995 -6.585735 0.000000 0.000000 0.000000 0.244172
    42 -3.080979 -5.452278 0.000000 0.000000 0.000000 0.191888
    43 -3.048778 -2.270235 0.000000 0.000000 0.000000 0.000000
    44 -1.890806 -0.908390 0.000000 0.000000 0.000000 0.000000
    45 -0.454460 -0.402742 -1.764821 0.000000 -1.570796 0.000000
    46 -0.928989 -2.456182 2.268051 0.000000 0.000000 0.000000
    47 -0.447595 -0.389067 1.486638 0.000000 -1.570796 0.000000
    48 1.132205 -2.455431 2.290455 0.000000 0.000000 0.000000
    49 0.424462 -1.191061 -0.110061 0.000000 -1.570796 0.000000
    50 -0.087093 -2.917876 -0.217384 0.000000 0.000000 0.000000
  time 23
    0 -0.019043 -29.257644 52.052186 0.000000 -0.230833 -1.570836
    1 1.238319 0.718772 0.000000 -0.000040 -1.562071 -1.570763
    2 -0.000009 0.000010 6.353378 -0.004972 0.071232 -2.304269
    3 18.507666 0.000000 0.000000 0.000000 0.000000 -1.040431
    4 13.411352 -0.000002 0.000000 2.987194 -0.060684 0.451803
    5 8.701365 6.675650 0.000000 0.000000 0.000000 1.614392
    6 6.262099 -1.461580 3.610131 -1.570796 1.492295 1.570796
    7 0.000009 -0.000007 -6.353378 0.020314 0.122303 -2.617049
    8 18.507668 0.000002 0.000000 0.000000 0.000000 -1.989725
    9 13.411351 -0.000001 0.000000 -3.080321 -0.079514 1.091902
    10 6.262099 -1.470858 -4.185178 1.570795 1.492297 -1.570797
    11 6.280028 -0.742184 5.288615 1.570795 1.492297 -1.570797
    12 3.416504 -0.970599 0.027351 0.174563 0.013981 0.555189
    13 6.150890 -0.004767 0.000000 0.000012 0.026161 0.000609
    14 6.181768 -0.006276 0.000000 0.016563 0.055356 0.332395
    15 8.035378 -0.006650 0.000000 -0.047581 0.293717 0.492649
    16 9.041867 -0.002309 0.000000 -0.000225 -0.292994 0.076219
    17 -6.136126 3.530055 5.533217 2.907156 -1.475981 0.159708
    18 8.356073 -0.000002 0.000000 -1.044058 1.176893 -0.919083
    19 22.314196 0.000000 0.000002 0.000000 0.000000 -2.107535
    20 13.466397 -0.000001 -0.000001 -0.587433 0.184514 0.168900
    21 6.645414 -0.843864 -1.119306 -0.019286 0.138228 -0.137730
    22 3.530614 0.000000 -0.000001 0.000000 0.000000 -0.162418
    23 3.530614 -0.000001 0.000000 0.000000 0.000000 1.023761
    24 6.690087 -0.762451 1.047432 0.027338 -0.181152 -0.156083
    25 3.608304 0.000001 0.000000 0.000000 0.000000 -0.162418
    26 3.608304 0.000000 0.000001 0.000000 0.000000 1.023761
    27 -7.827726 3.542463 -0.877691 3.051350 1.324287 -0.161138
    28 8.356073 0.000003 0.000000 1.212409 -0.263904 -0.766938
    29 22.314196 0.000001 0.000001 0.000000 0.000000 -2.026494
    30 13.466398 -0.000001 -0.000002 0.985688 -0.362824 0.695314
    31 6.635592 -0.843576 1.110600 0.041728 -0.178404 -0.225782
    32 3.530615 0.000000 0.000001 0.000000 0.000000 0.275171
    33 3.530611 0.000001 -0.000003 0.000000 0.000000 0.528181
    34 6.681007 -0.762752 -1.054662 0.043462 0.178008 0.235557
    35 3.608305 -0.000001 0.000000 0.000000 0.000000 0.275202
    36 3.608305 -0.000001 0.000000 0.000000 0.000000 0.938073
    37 3.408091 -0.002199 0.000000 -0.000028 -0.034890 0.030017
    38 2.848662 0.000000 0.000000 -0.177378 0.092148 -0.120750
    39 5.067991 7.235520 0.022323 -0.000003 0.000000 -2.626981
    40 -0.604384 -2.957996 0.000000 0.182703 -0.425340 0.176026
    41 0.107995 -6.585735 0.000000 0.000000 0.000000 0.244172
    42 -3.080979 -5.452278 0.000000 0.000000 0.000000 0.191888
    43 -3.048778 -2.270235 0.000000 0.000000 0.000000 0.000000
    44 -1.890806 -0.908390 0.000000 0.000000 0.000000 0.000000
    45 -0.454460 -0.402742 -1.764821 0.000000 -1.570796 0.000000
    46 -0.928989 -2.456182 2.268051 0.000000 0.000000 0.000000
    47 -0.447595 -0.389067 1.486638 0.000000 -1.570796 0.000000
    48 1.132205 -2.455431 2.290455 0.000000 0.000000 0.000000
    49 0.424462 -1.191061 -0.110061 0.000000 -1.570796 0.000000
    50 -0.087093 -2.917876 -0.217384 0.000000 0.000000 0.000000
  time 24
    0 -0.019043 -31.299051 51.219478 0.000000 -0.238608 -1.570836
    1 1.035188 0.695334 0.000000 0.000008 -1.562083 -1.570763
    2 -0.000009 0.000010 6.353378 0.002402 0.068323 -2.201056
    3 18.507666 0.000000 0.000000 0.000000 0.000000 -1.099345
    4 13.411352 -0.000002 0.000000 2.984799 -0.058676 0.415702
    5 8.701365 6.675650 0.000000 0.000000 0.000000 1.614392
    6 6.262099 -1.461580 3.610131 -1.570796 1.492295 1.570796
    7 0.000009 -0.000007 -6.353378 0.046321 0.089131 -2.566897
    8 18.507668 0.000002 0.000000 0.000000 0.000000 -1.962467
    9 13.411351 -0.000001 0.000000 -3.028281 -0.070513 1.355004
    10 6.262099 -1.470858 -4.185178 1.570795 1.492297 -1.570797
    11 6.280028 -0.742184 5.288615 1.570795 1.492297 -1.570797
    12 3.416504 -0.970599 0.027351 0.174563 0.013981 0.555189
    13 6.150890 -0.004767 0.000000 0.000012 0.026161 0.047513
    14 6.181768 -0.006276 0.000000 0.016563 0.055356 0.332395
    15 8.035378 -0.006650 0.000000 -0.047922 0.317734 0.491444
    16 9.041867 -0.002309 0.000000 -0.000277 -0.350501 0.195847
    17 -5.362665 4.397269 5.712910 2.705918 -1.411833 0.245861
    18 8.356073 -0.000002 0.000000 -1.126363 1.149034 -0.960254
    19 22.314196 0.000000 0.000002 0.000000 0.000000 -2.083735
    20 13.466397 -0.000001 -0.000001 -0.595351 0.153491 0.122140
    21 6.645414 -0.843864 -1.119306 -0.034853 0.135174 -0.251824
    22 3.530614 0.000000 -0.000001 0.000000 0.000000 -0.275492
    23 3.530614 -0.000001 0.000000 0.000000 0.000000 0.910681
    24 6.690087 -0.762451 1.047432 0.047804 -0.176891 -0.270934
    25 3.608304 0.000001 0.000000 0.000000 0.000000 -0.275492
    26 3.608304 0.000000 0.000001 0.000000 0.000000 0.910681
    27 -7.417558 4.382332 -0.588620 2.855673 1.331686 -0.463042
    28 8.356073 0.000003 0.000000 1.254751 -0.159212 -0.816716
    29 22.314196 0.000001 0.000001 0.000000 0.000000 -1.961610
    30 13.466398 -0.000001 -0.000002 1.003414 -0.280728 0.639230
    31 6.635592 -0.843576 1.110600 0.059109 -0.173477 -0.324993
    32 3.530615 0.000000 0.000001 0.000000 0.000000 0.177397
    33 3.530611 0.000001 -0.000003 0.000000 0.000000 0.430367
    34 6.681007 -0.762752 -1.054662 0.025690 0.181379 0.136195
    35 3.608305 -0.000001 0.000000 0.000000 0.000000 0.177381
    36 3.608305 -0.000001 0.000000 0.000000 0.000000 0.840256
    37 3.408091 -0.002199 0.000000 -0.000028 -0.034890 0.030017
    38 2.848662 0.000000 0.000000 -0.226820 0.114480 -0.283700
    39 5.067991 7.235520 0.022323 -0.000003 0.000000 -2.626981
    40 -0.604384 -2.957996 0.000000 0.182703 -0.425340 0.176026
    41 0.107995 -6.585735 0.000000 0.000000 0.000000 0.244172
    42 -3.080979 -5.452278 0.000000 0.000000 0.000000 0.191888
    43 -3.048778 -2.270235 0.000000 0.000000 0.000000 0.000000
    44 -1.890806 -0.908390 0.000000 0.000000 0.000000 0.000000
    45 -0.454460 -0.402742 -1.764821 0.000000 -1.570796 0.000000
    46 -0.928989 -2.456182 2.268051 0.000000 0.000000 0.000000
    47 -0.447595 -0.389067 1.486638 0.000000 -1.570796 0.000000
    48 1.132205 -2.455431 2.290455 0.000000 0.000000 0.000000
    49 0.424462 -1.191061 -0.110061 0.000000 -1.570796 0.000000
    50 -0.087093 -2.917876 -0.217384 0.000000 0.000000 0.000000
  time 25
    0 -0.019043 -32.594342 50.527399 0.000000 -0.244194 -1.570836
    1 0.792993 0.644551 0.000000 0.000008 -1.562083 -1.570763
    2 -0.000009 0.000010 6.353378 -0.003296 0.043425 -2.127028
    3 18.507666 0.000000 0.000000 0.000000 0.000000 -1.184908
    4 13.411352 -0.000002 0.000000 2.923392 -0.033718 0.433458
    5 8.701365 6.675650 0.000000 0.000000 0.000000 1.614392
    6 6.262099 -1.461580 3.610131 1.570796 1.649286 -1.570796
    7 0.000009 -0.000007 -6.353378 0.061844 0.063441 -2.586058
    8 18.507668 0.000002 0.000000 0.000000 0.000000 -1.890557
    9 13.411351 -0.000001 0.000000 -2.976720 -0.066587 1.556967
    10 6.262099 -1.470858 -4.185178 1.570795 1.492297 -1.570797
    11 6.280028 -0.742184 5.288615 1.570795 1.492297 -1.570797
    12 3.416504 -0.970599 0.027351 0.174563 0.013981 0.555189
    13 6.150890 -0.004767 0.000000 0.000012 0.026161 0.104671
    14 6.181768 -0.006276 0.000000 0.016563 0.055356 0.332395
    15 8.035378 -0.006650 0.000000 -0.048118 0.330330 0.490809
    16 9.041867 -0.002309 0.000000 -0.000329 -0.392490 0.274328
    17 -4.780616 4.932441 5.794943 2.612825 -1.364012 0.264335
    18 8.356073 -0.000002 0.000000 -1.199573 1.109627 -0.995705
    19 22.314196 0.000000 0.000002 0.000000 0.000000 -2.067482
    20 13.466397 -0.000001 -0.000001 -0.600086 0.130812 0.088537
    21 6.645414 -0.843864 -1.119306 -0.045898 0.131846 -0.334599
    22 3.530614 0.000000 -0.000001 0.000000 0.000000 -0.357609
    23 3.530614 -0.000001 0.000000 0.000000 0.000000 0.828590
    24 6.690087 -0.762451 1.047432 0.062290 -0.172366 -0.354159
    25 3.608304 0.000001 0.000000 0.000000 0.000000 -0.357609
    26 3.608304 0.000000 0.000001 0.000000 0.000000 0.828590
    27 -7.101142 4.897973 -0.416739 2.701796 1.325038 5.599980
    28 8.356073 0.000003 0.000000 1.301554 -0.067977 -0.840082
    29 22.314196 0.000001 0.000001 0.000000 0.000000 -1.917431
    30 13.466398 -0.000001 -0.000002 1.012313 -0.226548 0.603989
    31 6.635592 -0.843576 1.110600 0.070167 -0.169348 -0.389802
    32 3.530615 0.000000 0.000001 0.000000 0.000000 0.113358
    33 3.530611 0.000001 -0.000003 0.000000 0.000000 0.366368
    34 6.681007 -0.762752 -1.054662 0.013910 0.182656 0.071133
    35 3.608305 -0.000001 0.000000 0.000000 0.000000 0.113359
    36 3.608305 -0.000001 0.000000 0.000000 0.000000 0.776267
    37 3.408091 -0.002199 0.000000 -0.000028 -0.034890 0.030017
    38 2.848662 0.000000 0.000000 -0.268515 0.125752 -0.416446
    39 5.067991 7.235520 0.022323 -0.000003 0.000000 -2.626981
    40 -0.604384 -2.957996 0.000000 0.182703 -0.425340 0.176026
    41 0.107995 -6.585735 0.000000 0.000000 0.000000 0.244172
    42 -3.080979 -5.452278 0.000000 0.000000 0.000000 0.191888
    43 -3.048778 -2.270235 0.000000 0.000000 0.000000 0.000000
    44 -1.890806 -0.908390 0.000000 0.000000 0.000000 0.000000
    45 -0.454460 -0.402742 -1.764821 0.000000 -1.570796 0.000000
    46 -0.928989 -2.456182 2.268051 0.000000 0.000000 0.000000
    47 -0.447595 -0.389067 1.486638 0.000000 -1.570796 0.000000
    48 1.132205 -2.455431 2.290455 0.000000 0.000000 0.000000
    49 0.424462 -1.191061 -0.110061 0.000000 -1.570796 0.000000
    50 -0.087093 -2.917876 -0.217384 0.000000 0.000000 0.000000
end
