// Created by Crowbar 0.68

// Stored modelname (without quotes): "valve/models/w_satchel.mdl"
$modelname "w_satchel.mdl"
$cd "."
$cdtexture "."
$cliptotextures
$scale 1.0

$bodygroup "studio"
{
	studio "world_satchel"
}

$flags 0

$externaltextures


$cbox 0 0 0 0 0 0

$bbox 0 0 0 0 0 0

$hbox 0 "Box05" -7.71 -7.55 -7.11 5.48 16.639999 6.29

$sequence "idle" {
	"w_satchel_anims\idle"
	fps 30
}
$sequence "onback" {
	"w_satchel_anims\onback"
	fps 30
}
