version 1
nodes
  0 "Box05" -1
end
skeleton
  time 0
    0 0.000000 0.000000 0.000000 1.570796 0.000000 -1.570796
end
triangles
wrldsatchel.bmp
  0 -4.539996 -4.180001 9.170002 -0.353508 -0.490012 0.796819 0.340909 0.611940
  0 -5.329996 -3.340002 7.910002 -0.800335 -0.449620 0.396618 0.318182 0.567164
  0 -4.689996 -5.170002 7.890001 -0.402207 -0.875015 0.269405 0.375000 0.567164
wrldsatchel.bmp
  0 -4.689996 -5.170002 7.890001 -0.402207 -0.875015 0.269405 0.375000 0.567164
  0 -5.329996 -3.340002 7.910002 -0.800335 -0.449620 0.396618 0.318182 0.567164
  0 -4.819999 -5.320002 -1.049998 -0.362000 -0.929999 0.063700 0.375000 0.268657
wrldsatchel.bmp
  0 -5.329996 -3.340002 7.910002 -0.800335 -0.449620 0.396618 0.318182 0.567164
  0 -5.749999 -4.770002 -1.019998 -0.863223 -0.503413 0.037701 0.363636 0.268657
  0 -4.819999 -5.320002 -1.049998 -0.362000 -0.929999 0.063700 0.375000 0.268657
wrldsatchel.bmp
  0 -4.819999 -5.320002 -1.049998 -0.362000 -0.929999 0.063700 0.375000 0.268657
  0 -5.749999 -4.770002 -1.019998 -0.863223 -0.503413 0.037701 0.363636 0.268657
  0 -4.990000 -5.480002 -5.969998 -0.390826 -0.919061 -0.050803 0.386364 0.104478
wrldsatchel.bmp
  0 -5.749999 -4.770002 -1.019998 -0.863223 -0.503413 0.037701 0.363636 0.268657
  0 -5.750001 -3.560002 -6.139998 -0.924458 -0.380283 -0.027599 0.318182 0.104478
  0 -4.990000 -5.480002 -5.969998 -0.390826 -0.919061 -0.050803 0.386364 0.104478
wrldsatchel.bmp
  0 -4.990000 -5.480002 -5.969998 -0.390826 -0.919061 -0.050803 0.386364 0.104478
  0 -5.750001 -3.560002 -6.139998 -0.924458 -0.380283 -0.027599 0.318182 0.104478
  0 -5.010001 -5.260002 -7.419999 -0.605699 -0.513999 -0.607399 0.375000 0.059701
wrldsatchel.bmp
  0 -5.750001 -3.560002 -6.139998 -0.924458 -0.380283 -0.027599 0.318182 0.104478
  0 -6.290001 -2.000002 -6.069998 -0.974412 -0.210203 -0.079601 0.272727 0.104478
  0 -5.010001 -5.260002 -7.419999 -0.605699 -0.513999 -0.607399 0.375000 0.059701
wrldsatchel.bmp
  0 -5.010001 -5.260002 -7.419999 -0.605699 -0.513999 -0.607399 0.375000 0.059701
  0 -6.290001 -2.000002 -6.069998 -0.974412 -0.210203 -0.079601 0.272727 0.104478
  0 -6.030002 -1.580002 -7.409998 -0.764330 -0.000200 -0.644825 0.261364 0.059701
wrldsatchel.bmp
  0 -6.290001 -2.000002 -6.069998 -0.974412 -0.210203 -0.079601 0.272727 0.104478
  0 -6.030003 1.819998 -5.999998 -0.782425 0.548918 -0.294109 0.147727 0.104478
  0 -6.030002 -1.580002 -7.409998 -0.764330 -0.000200 -0.644825 0.261364 0.059701
wrldsatchel.bmp
  0 -6.030002 -1.580002 -7.409998 -0.764330 -0.000200 -0.644825 0.261364 0.059701
  0 -6.030003 1.819998 -5.999998 -0.782425 0.548918 -0.294109 0.147727 0.104478
  0 -5.050003 1.949998 -7.549999 -0.229410 0.452719 -0.861636 0.147727 0.044776
wrldsatchel.bmp
  0 -6.030003 1.819998 -5.999998 -0.782425 0.548918 -0.294109 0.147727 0.104478
  0 -4.980003 2.319998 -6.009999 -0.315496 0.939289 -0.134898 0.136364 0.104478
  0 -5.050003 1.949998 -7.549999 -0.229410 0.452719 -0.861636 0.147727 0.044776
wrldsatchel.bmp
  0 3.399998 6.170001 0.139999 0.488594 0.866990 -0.097999 0.272727 0.358209
  0 2.760000 2.450001 1.039999 0.958710 0.275303 -0.071301 0.215909 0.462687
  0 2.989997 5.320001 -5.390001 0.956651 0.267486 -0.115194 0.284091 0.059701
wrldsatchel.bmp
  0 3.399998 6.170001 0.139999 0.488594 0.866990 -0.097999 0.272727 0.358209
  0 3.780002 2.200001 9.329999 0.888905 0.250701 0.383402 0.159091 0.865672
  0 2.760000 2.450001 1.039999 0.958710 0.275303 -0.071301 0.215909 0.462687
wrldsatchel.bmp
  0 3.399998 6.170001 0.139999 0.488594 0.866990 -0.097999 0.272727 0.358209
  0 2.790000 6.630001 7.709999 0.328885 0.666269 0.669269 0.306818 0.746269
  0 3.780002 2.200001 9.329999 0.888905 0.250701 0.383402 0.159091 0.865672
wrldsatchel.bmp
  0 3.399998 6.170001 0.139999 0.488594 0.866990 -0.097999 0.272727 0.358209
  0 -1.490000 6.940000 7.700000 -0.027501 0.934836 0.354014 0.545455 0.791045
  0 2.790000 6.630001 7.709999 0.328885 0.666269 0.669269 0.306818 0.746269
wrldsatchel.bmp
  0 3.399998 6.170001 0.139999 0.488594 0.866990 -0.097999 0.272727 0.358209
  0 -4.750000 5.999999 5.790001 -0.710102 0.701302 -0.062700 0.704545 0.746269
  0 -1.490000 6.940000 7.700000 -0.027501 0.934836 0.354014 0.545455 0.791045
wrldsatchel.bmp
  0 3.399998 6.170001 0.139999 0.488594 0.866990 -0.097999 0.272727 0.358209
  0 -4.520003 5.059999 -5.389998 -0.688536 0.725138 0.009601 0.681818 0.164179
  0 -4.750000 5.999999 5.790001 -0.710102 0.701302 -0.062700 0.704545 0.746269
wrldsatchel.bmp
  0 3.399998 6.170001 0.139999 0.488594 0.866990 -0.097999 0.272727 0.358209
  0 -1.040003 5.830000 -5.400000 -0.033899 0.999170 -0.022599 0.511364 0.104478
  0 -4.520003 5.059999 -5.389998 -0.688536 0.725138 0.009601 0.681818 0.164179
wrldsatchel.bmp
  0 3.399998 6.170001 0.139999 0.488594 0.866990 -0.097999 0.272727 0.358209
  0 2.989997 5.320001 -5.390001 0.956651 0.267486 -0.115194 0.284091 0.059701
  0 -1.040003 5.830000 -5.400000 -0.033899 0.999170 -0.022599 0.511364 0.104478
wrldsatchel.bmp
  0 -1.089999 -5.390000 -2.680000 -0.025900 -0.996914 -0.074101 0.272727 0.194030
  0 3.769999 -4.629999 -7.490001 0.346188 -0.938067 0.013600 0.397727 0.014925
  0 3.090000 -5.209999 -6.220001 0.685176 -0.714875 -0.139595 0.386364 0.059701
wrldsatchel.bmp
  0 -1.089999 -5.390000 -2.680000 -0.025900 -0.996914 -0.074101 0.272727 0.194030
  0 -1.200001 -5.250000 -7.449999 0.031001 -0.677223 -0.735125 0.272727 0.029851
  0 3.769999 -4.629999 -7.490001 0.346188 -0.938067 0.013600 0.397727 0.014925
wrldsatchel.bmp
  0 -1.089999 -5.390000 -2.680000 -0.025900 -0.996914 -0.074101 0.272727 0.194030
  0 -4.990000 -5.480002 -5.969998 -0.390826 -0.919061 -0.050803 0.170455 0.089552
  0 -1.200001 -5.250000 -7.449999 0.031001 -0.677223 -0.735125 0.272727 0.029851
wrldsatchel.bmp
  0 -1.089999 -5.390000 -2.680000 -0.025900 -0.996914 -0.074101 0.272727 0.194030
  0 -4.819999 -5.320002 -1.049998 -0.362000 -0.929999 0.063700 0.181818 0.268657
  0 -4.990000 -5.480002 -5.969998 -0.390826 -0.919061 -0.050803 0.170455 0.089552
wrldsatchel.bmp
  0 -1.089999 -5.390000 -2.680000 -0.025900 -0.996914 -0.074101 0.272727 0.194030
  0 -4.689996 -5.170002 7.890001 -0.402207 -0.875015 0.269405 0.193182 0.597015
  0 -4.819999 -5.320002 -1.049998 -0.362000 -0.929999 0.063700 0.181818 0.268657
wrldsatchel.bmp
  0 -1.089999 -5.390000 -2.680000 -0.025900 -0.996914 -0.074101 0.272727 0.194030
  0 -0.669996 -5.130000 7.750000 -0.013600 -0.982227 0.187205 0.295455 0.582090
  0 -4.689996 -5.170002 7.890001 -0.402207 -0.875015 0.269405 0.193182 0.597015
wrldsatchel.bmp
  0 -1.089999 -5.390000 -2.680000 -0.025900 -0.996914 -0.074101 0.272727 0.194030
  0 2.780002 -5.339999 0.789999 0.159708 -0.986947 0.020701 0.375000 0.328358
  0 -0.669996 -5.130000 7.750000 -0.013600 -0.982227 0.187205 0.295455 0.582090
wrldsatchel.bmp
  0 -1.089999 -5.390000 -2.680000 -0.025900 -0.996914 -0.074101 0.272727 0.194030
  0 3.090000 -5.209999 -6.220001 0.685176 -0.714875 -0.139595 0.386364 0.059701
  0 2.780002 -5.339999 0.789999 0.159708 -0.986947 0.020701 0.375000 0.328358
wrldsatchel.bmp
  0 3.069998 -1.549999 -7.340001 0.965215 0.018500 0.260804 0.386364 0.179104
  0 3.559999 -1.539999 -6.060001 0.964765 -0.044098 -0.259391 0.386364 0.238806
  0 3.090000 -5.209999 -6.220001 0.685176 -0.714875 -0.139595 0.625000 0.223881
wrldsatchel.bmp
  0 3.090000 -5.209999 -6.220001 0.685176 -0.714875 -0.139595 0.625000 0.223881
  0 3.559999 -1.539999 -6.060001 0.964765 -0.044098 -0.259391 0.386364 0.238806
  0 3.710002 -4.809999 0.809999 0.875283 -0.482890 0.026399 0.602273 0.522388
wrldsatchel.bmp
  0 3.559999 -1.539999 -6.060001 0.964765 -0.044098 -0.259391 0.386364 0.238806
  0 3.489998 1.370001 -3.650001 0.913308 0.405604 0.036800 0.204545 0.343284
  0 3.710002 -4.809999 0.809999 0.875283 -0.482890 0.026399 0.602273 0.522388
wrldsatchel.bmp
  0 3.710002 -4.809999 0.809999 0.875283 -0.482890 0.026399 0.602273 0.522388
  0 3.489998 1.370001 -3.650001 0.913308 0.405604 0.036800 0.204545 0.343284
  0 3.380004 -3.909999 7.069999 0.961725 -0.242806 0.127003 0.545455 0.791045
wrldsatchel.bmp
  0 3.489998 1.370001 -3.650001 0.913308 0.405604 0.036800 0.204545 0.343284
  0 3.510002 1.690001 6.939999 0.937358 0.345421 -0.045203 0.181818 0.791045
  0 3.380004 -3.909999 7.069999 0.961725 -0.242806 0.127003 0.545455 0.791045
wrldsatchel.bmp
  0 3.380004 -3.909999 7.069999 0.961725 -0.242806 0.127003 0.545455 0.791045
  0 3.510002 1.690001 6.939999 0.937358 0.345421 -0.045203 0.181818 0.791045
  0 3.000004 -3.839999 9.589999 0.647425 -0.373514 0.664325 0.534091 0.895522
wrldsatchel.bmp
  0 3.510002 1.690001 6.939999 0.937358 0.345421 -0.045203 0.181818 0.791045
  0 3.780002 2.200001 9.329999 0.888905 0.250701 0.383402 0.147727 0.880597
  0 3.000004 -3.839999 9.589999 0.647425 -0.373514 0.664325 0.534091 0.895522
wrldsatchel.bmp
  0 -5.740000 -1.390002 -0.959998 -0.991810 -0.105701 0.071701 0.250000 0.268657
  0 -5.750001 -3.560002 -6.139998 -0.924458 -0.380283 -0.027599 0.318182 0.104478
  0 -5.749999 -4.770002 -1.019998 -0.863223 -0.503413 0.037701 0.363636 0.268657
wrldsatchel.bmp
  0 -5.740000 -1.390002 -0.959998 -0.991810 -0.105701 0.071701 0.250000 0.268657
  0 -6.290001 -2.000002 -6.069998 -0.974412 -0.210203 -0.079601 0.272727 0.104478
  0 -5.750001 -3.560002 -6.139998 -0.924458 -0.380283 -0.027599 0.318182 0.104478
wrldsatchel.bmp
  0 -5.740000 -1.390002 -0.959998 -0.991810 -0.105701 0.071701 0.250000 0.268657
  0 -6.250001 2.299998 -0.909998 -0.789611 0.612709 0.033200 0.136364 0.268657
  0 -6.290001 -2.000002 -6.069998 -0.974412 -0.210203 -0.079601 0.272727 0.104478
wrldsatchel.bmp
  0 -5.740000 -1.390002 -0.959998 -0.991810 -0.105701 0.071701 0.250000 0.268657
  0 -5.449998 1.639998 8.490001 -0.697191 0.646492 0.309796 0.159091 0.582090
  0 -6.250001 2.299998 -0.909998 -0.789611 0.612709 0.033200 0.136364 0.268657
wrldsatchel.bmp
  0 -5.740000 -1.390002 -0.959998 -0.991810 -0.105701 0.071701 0.250000 0.268657
  0 -5.859997 -1.260002 7.980002 -0.903294 -0.019100 0.428597 0.250000 0.567164
  0 -5.449998 1.639998 8.490001 -0.697191 0.646492 0.309796 0.159091 0.582090
wrldsatchel.bmp
  0 -5.740000 -1.390002 -0.959998 -0.991810 -0.105701 0.071701 0.250000 0.268657
  0 -5.749999 -4.770002 -1.019998 -0.863223 -0.503413 0.037701 0.363636 0.268657
  0 -5.859997 -1.260002 7.980002 -0.903294 -0.019100 0.428597 0.250000 0.567164
wrldsatchel.bmp
  0 3.079997 2.070001 -7.250001 0.504608 0.668110 -0.546809 0.397727 0.567164
  0 -4.980003 2.319998 -6.009999 -0.315496 0.939289 -0.134898 0.386364 0.208955
  0 2.629998 2.330001 -5.980001 0.563897 0.825696 -0.015700 0.409091 0.537313
wrldsatchel.bmp
  0 3.079997 2.070001 -7.250001 0.504608 0.668110 -0.546809 0.397727 0.567164
  0 -5.050003 1.949998 -7.549999 -0.229410 0.452719 -0.861636 0.375000 0.208955
  0 -4.980003 2.319998 -6.009999 -0.315496 0.939289 -0.134898 0.386364 0.208955
wrldsatchel.bmp
  0 3.079997 2.070001 -7.250001 0.504608 0.668110 -0.546809 0.397727 0.567164
  0 -1.200001 -5.250000 -7.449999 0.031001 -0.677223 -0.735125 0.136364 0.388060
  0 -5.050003 1.949998 -7.549999 -0.229410 0.452719 -0.861636 0.375000 0.208955
wrldsatchel.bmp
  0 3.079997 2.070001 -7.250001 0.504608 0.668110 -0.546809 0.397727 0.567164
  0 3.769999 -4.629999 -7.490001 0.346188 -0.938067 0.013600 0.170455 0.597015
  0 -1.200001 -5.250000 -7.449999 0.031001 -0.677223 -0.735125 0.136364 0.388060
wrldsatchel.bmp
  0 3.079997 2.070001 -7.250001 0.504608 0.668110 -0.546809 0.397727 0.567164
  0 3.069998 -1.549999 -7.340001 0.965215 0.018500 0.260804 0.272727 0.567164
  0 3.769999 -4.629999 -7.490001 0.346188 -0.938067 0.013600 0.170455 0.597015
wrldsatchel.bmp
  0 -6.290001 -2.000002 -6.069998 -0.974412 -0.210203 -0.079601 0.272727 0.104478
  0 -6.250001 2.299998 -0.909998 -0.789611 0.612709 0.033200 0.136364 0.268657
  0 -6.030003 1.819998 -5.999998 -0.782425 0.548918 -0.294109 0.147727 0.104478
wrldsatchel.bmp
  0 -6.030003 1.819998 -5.999998 -0.782425 0.548918 -0.294109 0.147727 0.104478
  0 -6.250001 2.299998 -0.909998 -0.789611 0.612709 0.033200 0.136364 0.268657
  0 -4.980003 2.319998 -6.009999 -0.315496 0.939289 -0.134898 0.136364 0.104478
wrldsatchel.bmp
  0 -6.250001 2.299998 -0.909998 -0.789611 0.612709 0.033200 0.136364 0.268657
  0 -4.820001 2.479999 -1.159998 -0.732531 0.679828 0.035101 0.136364 0.268657
  0 -4.980003 2.319998 -6.009999 -0.315496 0.939289 -0.134898 0.136364 0.104478
wrldsatchel.bmp
  0 -4.980003 2.319998 -6.009999 -0.315496 0.939289 -0.134898 0.136364 0.104478
  0 -4.820001 2.479999 -1.159998 -0.732531 0.679828 0.035101 0.136364 0.268657
  0 -4.520003 5.059999 -5.389998 -0.688536 0.725138 0.009601 0.034091 0.104478
wrldsatchel.bmp
  0 -4.820001 2.479999 -1.159998 -0.732531 0.679828 0.035101 0.136364 0.268657
  0 -4.750000 5.999999 5.790001 -0.710102 0.701302 -0.062700 0.022727 0.492537
  0 -4.520003 5.059999 -5.389998 -0.688536 0.725138 0.009601 0.034091 0.104478
wrldsatchel.bmp
  0 -0.889997 0.720000 9.480000 -0.017100 0.120200 0.992602 0.375000 0.940299
  0 -4.339998 1.879999 9.300002 -0.624716 0.288207 0.725718 0.590909 0.970149
  0 -4.949997 -0.080002 9.250002 -0.497114 -0.010200 0.867625 0.579545 1.000000
wrldsatchel.bmp
  0 -0.889997 0.720000 9.480000 -0.017100 0.120200 0.992602 0.375000 0.940299
  0 -4.130000 6.779999 7.710001 -0.345495 0.621190 0.703389 0.681818 0.820896
  0 -4.339998 1.879999 9.300002 -0.624716 0.288207 0.725718 0.590909 0.970149
wrldsatchel.bmp
  0 -0.889997 0.720000 9.480000 -0.017100 0.120200 0.992602 0.375000 0.940299
  0 -1.490000 6.940000 7.700000 -0.027501 0.934836 0.354014 0.545455 0.791045
  0 -4.130000 6.779999 7.710001 -0.345495 0.621190 0.703389 0.681818 0.820896
wrldsatchel.bmp
  0 -0.889997 0.720000 9.480000 -0.017100 0.120200 0.992602 0.375000 0.940299
  0 2.790000 6.630001 7.709999 0.328885 0.666269 0.669269 0.306818 0.746269
  0 -1.490000 6.940000 7.700000 -0.027501 0.934836 0.354014 0.545455 0.791045
wrldsatchel.bmp
  0 -0.889997 0.720000 9.480000 -0.017100 0.120200 0.992602 0.375000 0.940299
  0 3.780002 2.200001 9.329999 0.888905 0.250701 0.383402 0.159091 0.865672
  0 2.790000 6.630001 7.709999 0.328885 0.666269 0.669269 0.306818 0.746269
wrldsatchel.bmp
  0 3.780002 2.200001 9.329999 0.888905 0.250701 0.383402 0.159091 0.865672
  0 3.510002 1.690001 6.939999 0.937358 0.345421 -0.045203 0.159091 0.761194
  0 3.000002 2.700001 8.069999 0.712480 0.683581 -0.158396 0.204545 0.805970
wrldsatchel.bmp
  0 3.000002 2.700001 8.069999 0.712480 0.683581 -0.158396 0.204545 0.805970
  0 3.510002 1.690001 6.939999 0.937358 0.345421 -0.045203 0.159091 0.761194
  0 2.760000 2.450001 1.039999 0.958710 0.275303 -0.071301 0.215909 0.462687
wrldsatchel.bmp
  0 3.510002 1.690001 6.939999 0.937358 0.345421 -0.045203 0.159091 0.761194
  0 3.489998 1.370001 -3.650001 0.913308 0.405604 0.036800 0.159091 0.223881
  0 2.760000 2.450001 1.039999 0.958710 0.275303 -0.071301 0.215909 0.462687
wrldsatchel.bmp
  0 2.760000 2.450001 1.039999 0.958710 0.275303 -0.071301 0.215909 0.462687
  0 3.489998 1.370001 -3.650001 0.913308 0.405604 0.036800 0.159091 0.223881
  0 2.629998 2.330001 -5.980001 0.563897 0.825696 -0.015700 0.227273 0.119403
wrldsatchel.bmp
  0 3.489998 1.370001 -3.650001 0.913308 0.405604 0.036800 0.159091 0.223881
  0 3.559997 1.830001 -5.990001 0.809121 0.582615 -0.076702 0.170455 0.104478
  0 2.629998 2.330001 -5.980001 0.563897 0.825696 -0.015700 0.227273 0.119403
wrldsatchel.bmp
  0 6.800000 1.560002 2.309998 0.711003 0.701703 -0.045700 0.784091 0.477612
  0 6.390001 2.020002 6.719998 0.111998 0.951784 0.285595 0.818182 0.701493
  0 7.110002 1.640002 6.919998 0.524082 0.529981 0.666677 0.772727 0.716418
wrldsatchel.bmp
  0 7.110002 1.640002 6.919998 0.524082 0.529981 0.666677 0.772727 0.716418
  0 6.390001 2.020002 6.719998 0.111998 0.951784 0.285595 0.818182 0.701493
  0 3.510002 1.690001 6.939999 -0.022799 0.677485 0.735183 0.965909 0.761194
wrldsatchel.bmp
  0 6.390001 2.020002 6.719998 0.111998 0.951784 0.285595 0.818182 0.701493
  0 6.800000 1.560002 2.309998 0.711003 0.701703 -0.045700 0.784091 0.477612
  0 3.510002 1.690001 6.939999 -0.022799 0.677485 0.735183 0.965909 0.761194
wrldsatchel.bmp
  0 3.510002 1.690001 6.939999 -0.022799 0.677485 0.735183 0.965909 0.761194
  0 6.800000 1.560002 2.309998 0.711003 0.701703 -0.045700 0.784091 0.477612
  0 3.489998 1.370001 -3.650001 -0.109894 0.900950 -0.419777 0.965909 0.223881
wrldsatchel.bmp
  0 6.800000 1.560002 2.309998 0.711003 0.701703 -0.045700 0.784091 0.477612
  0 6.479998 2.050002 -4.030002 0.357083 0.328084 -0.874558 0.818182 0.164179
  0 3.489998 1.370001 -3.650001 -0.109894 0.900950 -0.419777 0.965909 0.223881
wrldsatchel.bmp
  0 3.090000 -5.209999 -6.220001 0.685176 -0.714875 -0.139595 0.625000 0.223881
  0 3.710002 -4.809999 0.809999 0.875283 -0.482890 0.026399 0.602273 0.522388
  0 2.780002 -5.339999 0.789999 0.159708 -0.986947 0.020701 0.636364 0.522388
wrldsatchel.bmp
  0 2.780002 -5.339999 0.789999 0.159708 -0.986947 0.020701 0.636364 0.522388
  0 3.710002 -4.809999 0.809999 0.875283 -0.482890 0.026399 0.602273 0.522388
  0 2.630004 -5.059999 8.029999 0.382308 -0.897118 0.221404 0.613636 0.835821
wrldsatchel.bmp
  0 3.710002 -4.809999 0.809999 0.875283 -0.482890 0.026399 0.602273 0.522388
  0 3.380004 -3.909999 7.069999 0.961725 -0.242806 0.127003 0.545455 0.791045
  0 2.630004 -5.059999 8.029999 0.382308 -0.897118 0.221404 0.613636 0.835821
wrldsatchel.bmp
  0 2.630004 -5.059999 8.029999 0.382308 -0.897118 0.221404 0.613636 0.835821
  0 3.380004 -3.909999 7.069999 0.961725 -0.242806 0.127003 0.545455 0.791045
  0 3.000004 -3.839999 9.589999 0.647425 -0.373514 0.664325 0.534091 0.895522
wrldsatchel.bmp
  0 3.000004 -3.839999 9.589999 0.647425 -0.373514 0.664325 0.386364 0.641791
  0 -0.639996 -4.850000 9.140001 -0.020300 -0.694808 0.718908 0.295455 0.641791
  0 2.630004 -5.059999 8.029999 0.382308 -0.897118 0.221404 0.375000 0.597015
wrldsatchel.bmp
  0 2.630004 -5.059999 8.029999 0.382308 -0.897118 0.221404 0.375000 0.597015
  0 -0.639996 -4.850000 9.140001 -0.020300 -0.694808 0.718908 0.295455 0.641791
  0 -0.669996 -5.130000 7.750000 -0.013600 -0.982227 0.187205 0.295455 0.582090
wrldsatchel.bmp
  0 -0.639996 -4.850000 9.140001 -0.020300 -0.694808 0.718908 0.295455 0.641791
  0 -4.539996 -4.180001 9.170002 -0.353508 -0.490012 0.796819 0.193182 0.641791
  0 -0.669996 -5.130000 7.750000 -0.013600 -0.982227 0.187205 0.295455 0.582090
wrldsatchel.bmp
  0 -0.669996 -5.130000 7.750000 -0.013600 -0.982227 0.187205 0.295455 0.582090
  0 -4.539996 -4.180001 9.170002 -0.353508 -0.490012 0.796819 0.193182 0.641791
  0 -4.689996 -5.170002 7.890001 -0.402207 -0.875015 0.269405 0.193182 0.597015
wrldsatchel.bmp
  0 -4.539996 -4.180001 9.170002 -0.353508 -0.490012 0.796819 0.340909 0.611940
  0 -4.949997 -0.080002 9.250002 -0.497114 -0.010200 0.867625 0.215909 0.611940
  0 -5.329996 -3.340002 7.910002 -0.800335 -0.449620 0.396618 0.318182 0.567164
wrldsatchel.bmp
  0 -5.329996 -3.340002 7.910002 -0.800335 -0.449620 0.396618 0.318182 0.567164
  0 -4.949997 -0.080002 9.250002 -0.497114 -0.010200 0.867625 0.215909 0.611940
  0 -5.859997 -1.260002 7.980002 -0.903294 -0.019100 0.428597 0.250000 0.567164
wrldsatchel.bmp
  0 -4.949997 -0.080002 9.250002 -0.497114 -0.010200 0.867625 0.215909 0.611940
  0 -4.339998 1.879999 9.300002 -0.624716 0.288207 0.725718 0.147727 0.611940
  0 -5.859997 -1.260002 7.980002 -0.903294 -0.019100 0.428597 0.250000 0.567164
wrldsatchel.bmp
  0 -5.859997 -1.260002 7.980002 -0.903294 -0.019100 0.428597 0.250000 0.567164
  0 -4.339998 1.879999 9.300002 -0.624716 0.288207 0.725718 0.147727 0.611940
  0 -5.449998 1.639998 8.490001 -0.697191 0.646492 0.309796 0.159091 0.582090
wrldsatchel.bmp
  0 -0.889997 0.720000 9.480000 -0.017100 0.120200 0.992602 0.602273 0.477612
  0 3.000004 -3.839999 9.589999 0.647425 -0.373514 0.664325 0.295455 0.179104
  0 3.780002 2.200001 9.329999 0.888905 0.250701 0.383402 0.693182 0.119403
wrldsatchel.bmp
  0 -0.889997 0.720000 9.480000 -0.017100 0.120200 0.992602 0.602273 0.477612
  0 -0.639996 -4.850000 9.140001 -0.020300 -0.694808 0.718908 0.227273 0.462687
  0 3.000004 -3.839999 9.589999 0.647425 -0.373514 0.664325 0.295455 0.179104
wrldsatchel.bmp
  0 -0.889997 0.720000 9.480000 -0.017100 0.120200 0.992602 0.602273 0.477612
  0 -4.539996 -4.180001 9.170002 -0.353508 -0.490012 0.796819 0.272727 0.761194
  0 -0.639996 -4.850000 9.140001 -0.020300 -0.694808 0.718908 0.227273 0.462687
wrldsatchel.bmp
  0 -0.889997 0.720000 9.480000 -0.017100 0.120200 0.992602 0.602273 0.477612
  0 -4.949997 -0.080002 9.250002 -0.497114 -0.010200 0.867625 0.545455 0.805970
  0 -4.539996 -4.180001 9.170002 -0.353508 -0.490012 0.796819 0.272727 0.761194
wrldsatchel.bmp
  0 3.620002 -4.009999 1.469999 0.089199 -0.995687 0.025500 0.204545 0.328358
  0 6.540001 -3.849998 0.009998 0.089199 -0.995687 0.025500 0.147727 0.283582
  0 3.380004 -3.909999 7.069999 0.089199 -0.995687 0.025500 0.215909 0.522388
wrldsatchel.bmp
  0 3.620002 -4.009999 1.469999 0.089199 -0.995687 0.025500 0.204545 0.328358
  0 6.910000 -3.739998 -3.980002 0.089199 -0.995687 0.025500 0.147727 0.149254
  0 6.540001 -3.849998 0.009998 0.089199 -0.995687 0.025500 0.147727 0.283582
wrldsatchel.bmp
  0 3.620002 -4.009999 1.469999 0.089199 -0.995687 0.025500 0.204545 0.328358
  0 5.170000 -4.089999 -3.810002 0.089199 -0.995687 0.025500 0.181818 0.149254
  0 6.910000 -3.739998 -3.980002 0.089199 -0.995687 0.025500 0.147727 0.149254
wrldsatchel.bmp
  0 3.620002 -4.009999 1.469999 0.089199 -0.995687 0.025500 0.204545 0.328358
  0 3.500000 -4.119999 -3.820001 0.012200 -0.999735 0.019501 0.215909 0.149254
  0 5.170000 -4.089999 -3.810002 0.089199 -0.995687 0.025500 0.181818 0.149254
wrldsatchel.bmp
  0 6.479998 2.050002 -4.030002 0.357083 0.328084 -0.874558 0.409091 0.716418
  0 3.500000 -4.119999 -3.820001 -0.030499 -0.026999 -0.999170 0.181818 0.597015
  0 3.489998 1.370001 -3.650001 -0.109894 0.900950 -0.419777 0.375000 0.582090
wrldsatchel.bmp
  0 6.479998 2.050002 -4.030002 0.357083 0.328084 -0.874558 0.409091 0.716418
  0 5.170000 -4.089999 -3.810002 -0.030499 -0.026999 -0.999170 0.193182 0.656716
  0 3.500000 -4.119999 -3.820001 -0.030499 -0.026999 -0.999170 0.181818 0.597015
wrldsatchel.bmp
  0 6.479998 2.050002 -4.030002 0.357083 0.328084 -0.874558 0.409091 0.716418
  0 6.910000 -3.739998 -3.980002 0.761425 0.017301 -0.648022 0.204545 0.731343
  0 5.170000 -4.089999 -3.810002 -0.030499 -0.026999 -0.999170 0.193182 0.656716
wrldsatchel.bmp
  0 6.479998 2.050002 -4.030002 0.357083 0.328084 -0.874558 0.409091 0.716418
  0 6.929999 0.080002 -3.450002 0.990339 0.067903 -0.120905 0.340909 0.731343
  0 6.910000 -3.739998 -3.980002 0.761425 0.017301 -0.648022 0.204545 0.731343
wrldsatchel.bmp
  0 -4.520003 5.059999 -5.389998 -0.037399 0.227892 -0.972968 0.181818 0.537313
  0 -1.040003 5.830000 -5.400000 0.010700 0.178594 -0.983865 0.147727 0.417910
  0 -4.980003 2.319998 -6.009999 0.010700 0.178594 -0.983865 0.329545 0.552239
wrldsatchel.bmp
  0 -4.980003 2.319998 -6.009999 0.010700 0.178594 -0.983865 0.329545 0.552239
  0 -1.040003 5.830000 -5.400000 0.010700 0.178594 -0.983865 0.147727 0.417910
  0 2.629998 2.330001 -5.980001 0.010700 0.178594 -0.983865 0.329545 0.283582
wrldsatchel.bmp
  0 -1.040003 5.830000 -5.400000 0.010700 0.178594 -0.983865 0.147727 0.417910
  0 2.989997 5.320001 -5.390001 0.010700 0.178594 -0.983865 0.170455 0.283582
  0 2.629998 2.330001 -5.980001 0.010700 0.178594 -0.983865 0.329545 0.283582
wrldsatchel.bmp
  0 -6.250001 2.299998 -0.909998 -0.789611 0.612709 0.033200 0.125000 0.447761
  0 -5.449998 1.639998 8.490001 -0.697191 0.646492 0.309796 0.136364 0.776119
  0 -4.820001 2.479999 -1.159998 -0.732531 0.679828 0.035101 0.113636 0.447761
wrldsatchel.bmp
  0 -4.820001 2.479999 -1.159998 -0.732531 0.679828 0.035101 0.113636 0.447761
  0 -5.449998 1.639998 8.490001 -0.697191 0.646492 0.309796 0.136364 0.776119
  0 -3.269998 2.619999 8.040001 -0.279502 0.948607 0.148401 0.113636 0.761194
wrldsatchel.bmp
  0 -5.449998 1.639998 8.490001 -0.697191 0.646492 0.309796 0.136364 0.776119
  0 -4.339998 1.879999 9.300002 -0.624716 0.288207 0.725718 0.136364 0.805970
  0 -3.269998 2.619999 8.040001 -0.279502 0.948607 0.148401 0.113636 0.761194
wrldsatchel.bmp
  0 3.489998 1.370001 -3.650001 0.913308 0.405604 0.036800 0.204545 0.343284
  0 3.559999 -1.539999 -6.060001 0.964765 -0.044098 -0.259391 0.386364 0.238806
  0 3.559997 1.830001 -5.990001 0.809121 0.582615 -0.076702 0.170455 0.238806
wrldsatchel.bmp
  0 3.559997 1.830001 -5.990001 0.809121 0.582615 -0.076702 0.170455 0.238806
  0 3.559999 -1.539999 -6.060001 0.964765 -0.044098 -0.259391 0.386364 0.238806
  0 3.079997 2.070001 -7.250001 0.504608 0.668110 -0.546809 0.159091 0.179104
wrldsatchel.bmp
  0 3.559999 -1.539999 -6.060001 0.964765 -0.044098 -0.259391 0.386364 0.238806
  0 3.069998 -1.549999 -7.340001 0.965215 0.018500 0.260804 0.386364 0.179104
  0 3.079997 2.070001 -7.250001 0.504608 0.668110 -0.546809 0.159091 0.179104
wrldsatchel.bmp
  0 6.929999 0.080002 -3.450002 0.990339 0.067903 -0.120905 0.818182 0.388060
  0 6.800000 1.560002 2.309998 0.711003 0.701703 -0.045700 0.761364 0.582090
  0 6.540001 -3.849998 0.009998 0.997975 -0.050399 0.038799 0.988636 0.507463
wrldsatchel.bmp
  0 6.540001 -3.849998 0.009998 0.997975 -0.050399 0.038799 0.988636 0.507463
  0 6.800000 1.560002 2.309998 0.711003 0.701703 -0.045700 0.761364 0.582090
  0 6.900003 -3.439998 7.119998 0.733719 -0.013600 0.679317 0.965909 0.761194
wrldsatchel.bmp
  0 6.800000 1.560002 2.309998 0.711003 0.701703 -0.045700 0.761364 0.582090
  0 7.110002 1.640002 6.919998 0.524082 0.529981 0.666677 0.750000 0.746269
  0 6.900003 -3.439998 7.119998 0.733719 -0.013600 0.679317 0.965909 0.761194
wrldsatchel.bmp
  0 -1.200001 -5.250000 -7.449999 0.031001 -0.677223 -0.735125 0.136364 0.388060
  0 -5.010001 -5.260002 -7.419999 -0.605699 -0.513999 -0.607399 0.125000 0.223881
  0 -5.050003 1.949998 -7.549999 -0.229410 0.452719 -0.861636 0.375000 0.208955
wrldsatchel.bmp
  0 -5.050003 1.949998 -7.549999 -0.229410 0.452719 -0.861636 0.375000 0.208955
  0 -5.010001 -5.260002 -7.419999 -0.605699 -0.513999 -0.607399 0.125000 0.223881
  0 -6.030002 -1.580002 -7.409998 -0.764330 -0.000200 -0.644825 0.250000 0.164179
wrldsatchel.bmp
  0 3.380004 -3.909999 7.069999 -0.013301 0.023001 0.999647 0.852273 0.820896
  0 6.900003 -3.439998 7.119998 0.733719 -0.013600 0.679317 0.670455 0.776119
  0 3.510002 1.690001 6.939999 -0.022799 0.677485 0.735183 0.965909 0.761194
wrldsatchel.bmp
  0 3.510002 1.690001 6.939999 -0.022799 0.677485 0.735183 0.965909 0.761194
  0 6.900003 -3.439998 7.119998 0.733719 -0.013600 0.679317 0.670455 0.776119
  0 7.110002 1.640002 6.919998 0.524082 0.529981 0.666677 0.772727 0.716418
wrldsatchel.bmp
  0 2.989997 5.320001 -5.390001 0.956651 0.267486 -0.115194 0.284091 0.059701
  0 2.760000 2.450001 1.039999 0.958710 0.275303 -0.071301 0.215909 0.462687
  0 2.629998 2.330001 -5.980001 0.563897 0.825696 -0.015700 0.227273 0.119403
wrldsatchel.bmp
  0 -4.339998 1.879999 9.300002 -0.624716 0.288207 0.725718 0.147727 0.611940
  0 -4.750000 5.999999 5.790001 -0.710102 0.701302 -0.062700 0.022727 0.492537
  0 -4.820001 2.479999 -1.159998 -0.732531 0.679828 0.035101 0.136364 0.268657
wrldsatchel.bmp
  0 -4.750000 5.999999 5.790001 -0.710102 0.701302 -0.062700 0.829545 0.492537
  0 -4.339998 1.879999 9.300002 -0.624716 0.288207 0.725718 0.954545 0.611940
  0 -4.130000 6.779999 7.710001 -0.345495 0.621190 0.703389 0.806818 0.567164
wrldsatchel.bmp
  0 -1.490000 6.940000 7.700000 -0.027501 0.934836 0.354014 0.545455 0.791045
  0 -4.750000 5.999999 5.790001 -0.710102 0.701302 -0.062700 0.704545 0.746269
  0 -4.130000 6.779999 7.710001 -0.345495 0.621190 0.703389 0.681818 0.820896
wrldsatchel.bmp
  0 -1.200001 -5.250000 -7.449999 0.031001 -0.677223 -0.735125 0.272727 0.029851
  0 -4.990000 -5.480002 -5.969998 -0.390826 -0.919061 -0.050803 0.170455 0.089552
  0 -5.010001 -5.260002 -7.419999 -0.605699 -0.513999 -0.607399 0.170455 0.029851
wrldsatchel.bmp
  0 -0.669996 -5.130000 7.750000 -0.013600 -0.982227 0.187205 0.295455 0.582090
  0 2.780002 -5.339999 0.789999 0.159708 -0.986947 0.020701 0.375000 0.328358
  0 2.630004 -5.059999 8.029999 0.382308 -0.897118 0.221404 0.375000 0.597015
wrldsatchel.bmp
  0 -5.050003 1.949998 -7.549999 -0.025600 -0.022800 0.999412 0.375000 0.208955
  0 3.069998 -1.549999 -7.340001 -0.025600 -0.022800 0.999412 0.272727 0.567164
  0 3.079997 2.070001 -7.250001 -0.025600 -0.022800 0.999412 0.397727 0.567164
wrldsatchel.bmp
  0 3.069998 -1.549999 -7.340001 0.025600 0.022800 -0.999412 0.272727 0.567164
  0 -5.050003 1.949998 -7.549999 0.025600 0.022800 -0.999412 0.375000 0.208955
  0 3.079997 2.070001 -7.250001 0.025600 0.022800 -0.999412 0.397727 0.567164
wrldsatchel.bmp
  0 -5.859997 -1.260002 7.980002 -0.903294 -0.019100 0.428597 0.250000 0.567164
  0 -5.749999 -4.770002 -1.019998 -0.863223 -0.503413 0.037701 0.363636 0.268657
  0 -5.329996 -3.340002 7.910002 -0.800335 -0.449620 0.396618 0.318182 0.567164
wrldsatchel.bmp
  0 3.069998 -1.549999 -7.340001 0.965215 0.018500 0.260804 0.386364 0.179104
  0 3.090000 -5.209999 -6.220001 0.685176 -0.714875 -0.139595 0.625000 0.223881
  0 3.769999 -4.629999 -7.490001 0.346188 -0.938067 0.013600 0.590909 0.179104
wrldsatchel.bmp
  0 3.559997 1.830001 -5.990001 0.809121 0.582615 -0.076702 0.170455 0.238806
  0 3.079997 2.070001 -7.250001 0.504608 0.668110 -0.546809 0.159091 0.179104
  0 2.629998 2.330001 -5.980001 0.563897 0.825696 -0.015700 0.136364 0.238806
wrldsatchel.bmp
  0 3.380004 -3.909999 7.069999 0.089199 -0.995687 0.025500 0.215909 0.522388
  0 6.540001 -3.849998 0.009998 0.089199 -0.995687 0.025500 0.147727 0.283582
  0 6.900003 -3.439998 7.119998 0.089199 -0.995687 0.025500 0.147727 0.522388
wrldsatchel.bmp
  0 6.800000 1.560002 2.309998 0.711003 0.701703 -0.045700 0.000000 0.537313
  0 6.929999 0.080002 -3.450002 0.990339 0.067903 -0.120905 0.409091 0.477612
  0 6.479998 2.050002 -4.030002 0.357083 0.328084 -0.874558 0.431818 0.597015
wrldsatchel.bmp
  0 6.929999 0.080002 -3.450002 0.990339 0.067903 -0.120905 0.011364 0.388060
  0 6.540001 -3.849998 0.009998 0.997975 -0.050399 0.038799 0.181818 0.507463
  0 6.910000 -3.739998 -3.980002 0.761425 0.017301 -0.648022 0.170455 0.358209
tag.bmp
  0 -2.370002 7.709999 0.970001 -1.000000 0.000000 0.000000 0.916667 0.062500
  0 -3.800001 6.749999 4.910001 0.447214 0.000000 0.894427 0.083333 1.000000
  0 -4.260002 7.399999 1.150001 -1.000000 0.000000 0.000000 0.916667 1.000000
tag.bmp
  0 -4.260002 7.399999 1.150001 -1.000000 0.000000 0.000000 0.916667 1.000000
  0 -3.800001 6.749999 4.910001 0.447214 0.000000 0.894427 0.083333 1.000000
  0 -2.370002 7.709999 0.970001 -1.000000 0.000000 0.000000 0.916667 0.062500
tag.bmp
  0 -3.800001 6.749999 4.910001 0.447214 0.000000 0.894427 0.083333 1.000000
  0 -1.910001 7.059999 4.730001 -0.447214 0.000000 0.894427 0.083333 0.062500
  0 -2.370002 7.709999 0.970001 -1.000000 0.000000 0.000000 0.916667 0.062500
tag.bmp
  0 -2.370002 7.709999 0.970001 -1.000000 0.000000 0.000000 0.916667 0.062500
  0 -1.910001 7.059999 4.730001 -0.447214 0.000000 0.894427 0.083333 0.062500
  0 -3.800001 6.749999 4.910001 0.447214 0.000000 0.894427 0.083333 1.000000
tag.bmp
  0 -1.910001 7.059999 4.730001 -0.447214 0.000000 0.894427 0.083333 0.062500
  0 -2.770000 6.819999 5.310001 0.000000 -1.000000 0.000000 0.000000 0.500000
  0 -3.800001 6.749999 4.910001 0.447214 0.000000 0.894427 0.083333 1.000000
tag.bmp
  0 -3.800001 6.749999 4.910001 0.447214 0.000000 0.894427 0.083333 1.000000
  0 -2.770000 6.819999 5.310001 0.000000 -1.000000 0.000000 0.000000 0.500000
  0 -1.910001 7.059999 4.730001 -0.447214 0.000000 0.894427 0.083333 0.062500
radioside.bmp
  0 5.510006 -1.969998 16.639998 0.000000 -1.000000 0.000000 0.458333 0.750000
  0 5.510006 -1.969998 16.639998 0.000000 -1.000000 0.000000 0.458333 0.750000
  0 5.510006 -1.969998 16.639998 0.000000 -1.000000 0.000000 0.458333 0.750000
radioside.bmp
  0 5.510006 -1.969998 16.639998 0.000000 -1.000000 0.000000 0.458333 0.750000
  0 5.510006 -1.969998 16.639998 0.000000 -1.000000 0.000000 0.458333 0.750000
  0 5.510006 -1.969998 16.639998 0.000000 -1.000000 0.000000 0.458333 0.750000
radioside.bmp
  0 5.510006 -1.969998 16.639998 0.000000 -1.000000 0.000000 0.458333 0.750000
  0 5.510006 -1.969998 16.639998 0.000000 -1.000000 0.000000 0.458333 0.750000
  0 5.510006 -1.969998 16.639998 0.000000 -1.000000 0.000000 0.458333 0.750000
radioside.bmp
  0 6.350003 0.470002 9.199998 1.000000 0.000000 0.000000 0.958333 1.000000
  0 6.350004 -3.099998 9.199998 1.000000 0.000000 0.000000 0.000000 1.000000
  0 6.350002 0.470002 6.239998 1.000000 0.000000 0.000000 0.958333 0.025000
radioside.bmp
  0 6.350002 0.470002 6.239998 1.000000 0.000000 0.000000 0.958333 0.025000
  0 6.350004 -3.099998 9.199998 1.000000 0.000000 0.000000 0.000000 1.000000
  0 6.350003 -3.099998 6.239998 1.000000 0.000000 0.000000 0.000000 0.025000
radioside.bmp
  0 6.350004 -3.099998 9.199998 0.000000 -1.000000 0.000000 0.000000 0.025000
  0 2.650004 -3.099999 9.199999 0.000000 -1.000000 0.000000 0.000000 1.000000
  0 6.350003 -3.099998 6.239998 0.000000 -1.000000 0.000000 0.958333 0.025000
radioside.bmp
  0 6.350003 -3.099998 6.239998 0.000000 -1.000000 0.000000 0.958333 0.025000
  0 2.650004 -3.099999 9.199999 0.000000 -1.000000 0.000000 0.000000 1.000000
  0 2.650003 -3.099999 6.239999 0.000000 -1.000000 0.000000 0.958333 1.000000
radioside.bmp
  0 6.350003 0.470002 9.199998 0.000000 0.000000 1.000000 0.958333 1.000000
  0 2.650003 0.470001 9.199999 0.000000 0.000000 1.000000 0.958333 1.000000
  0 6.350004 -3.099998 9.199998 0.000000 0.000000 1.000000 0.000000 1.000000
radioside.bmp
  0 6.350004 -3.099998 9.199998 0.000000 0.000000 1.000000 0.000000 1.000000
  0 2.650003 0.470001 9.199999 0.000000 0.000000 1.000000 0.958333 1.000000
  0 2.650004 -3.099999 9.199999 0.000000 0.000000 1.000000 0.000000 1.000000
radioside.bmp
  0 6.350002 0.470002 6.239998 0.000000 1.000000 0.000000 0.000000 0.025000
  0 2.650002 0.470001 6.239999 0.000000 1.000000 0.000000 0.958333 0.025000
  0 6.350003 0.470002 9.199998 0.000000 1.000000 0.000000 0.000000 1.000000
radioside.bmp
  0 6.350003 0.470002 9.199998 0.000000 1.000000 0.000000 0.000000 1.000000
  0 2.650002 0.470001 6.239999 0.000000 1.000000 0.000000 0.958333 0.025000
  0 2.650003 0.470001 9.199999 0.000000 1.000000 0.000000 0.958333 1.000000
black.bmp
  0 5.510006 -1.969998 16.639998 -0.378604 0.924610 0.041900 0.375000 1.000000
  0 5.510006 -1.969998 16.639998 0.998470 0.000000 0.055298 0.375000 1.000000
  0 5.810003 -1.449998 8.929998 0.554695 0.827493 0.086999 0.875000 0.200000
black.bmp
  0 5.810003 -1.449998 8.929998 0.554695 0.827493 0.086999 0.875000 0.200000
  0 5.510006 -1.969998 16.639998 0.998470 0.000000 0.055298 0.375000 1.000000
  0 5.810004 -2.499998 8.929998 0.554695 -0.827493 0.086999 0.000000 0.200000
black.bmp
  0 5.510006 -1.969998 16.639998 0.998470 0.000000 0.055298 0.375000 1.000000
  0 5.510006 -1.969998 16.639998 -0.378604 -0.924610 0.041900 0.375000 1.000000
  0 5.810004 -2.499998 8.929998 0.554695 -0.827493 0.086999 0.000000 0.200000
black.bmp
  0 5.510006 -1.969998 16.639998 -0.378604 0.924610 0.041900 0.375000 1.000000
  0 4.900004 -1.969998 8.929999 -0.993931 0.000000 0.110003 0.375000 0.200000
  0 5.510006 -1.969998 16.639998 -0.378604 -0.924610 0.041900 0.375000 1.000000
black.bmp
  0 5.510006 -1.969998 16.639998 -0.378604 -0.924610 0.041900 0.500000 1.000000
  0 4.900004 -1.969998 8.929999 -0.993931 0.000000 0.110003 0.000000 0.200000
  0 5.810004 -2.499998 8.929998 0.554695 -0.827493 0.086999 0.875000 0.200000
black.bmp
  0 5.510006 -1.969998 16.639998 -0.378604 0.924610 0.041900 0.500000 1.000000
  0 5.810003 -1.449998 8.929998 0.554695 0.827493 0.086999 0.875000 0.200000
  0 4.900004 -1.969998 8.929999 -0.993931 0.000000 0.110003 0.000000 0.200000
end
