version 1
nodes
  0 "Bip01" -1
  1 "Bip01 Pelvis" 0
  2 "Bip01 L Leg" 1
  3 "Bip01 L Leg1" 2
  4 "Bip01 L Foot" 3
  5 "Bip01 R Leg" 1
  6 "Bip01 R Leg1" 5
  7 "Bip01 R Foot" 6
  8 "Bip01 Spine" 1
  9 "Bip01 Spine1" 8
  10 "Bip01 Spine2" 9
  11 "Bip01 Spine3" 10
  12 "Bip01 Neck" 11
  13 "Bip01 Head" 12
  14 "Bip01 L Arm" 12
  15 "Bip01 L Arm1" 14
  16 "Bip01 L Arm2" 15
  17 "Bip01 L Hand" 16
  18 "Bip01 L Finger0" 17
  19 "Bip01 L Finger01" 18
  20 "Bip01 L Finger02" 19
  21 "Bip01 L Finger1" 17
  22 "Bip01 L Finger11" 21
  23 "Bip01 L Finger12" 22
  24 "Bip01 L Finger2" 17
  25 "Bip01 L Finger21" 24
  26 "Bip01 L Finger22" 25
  27 "Bip01 L Finger3" 17
  28 "Bip01 L Finger31" 27
  29 "Bip01 L Finger32" 28
  30 "Bip01 R Arm" 12
  31 "Bip01 R Arm1" 30
  32 "Bip01 R Arm2" 31
  33 "Bip01 R Hand" 32
  34 "Bip01 R Finger0" 33
  35 "Bip01 R Finger01" 34
  36 "Bip01 R Finger02" 35
  37 "Bip01 R Finger1" 33
  38 "Bip01 R Finger11" 37
  39 "Bip01 R Finger12" 38
  40 "Bip01 R Finger2" 33
  41 "Bip01 R Finger21" 40
  42 "Bip01 R Finger22" 41
  43 "Bip01 R Finger3" 33
  44 "Bip01 R Finger31" 43
  45 "Bip01 R Finger32" 44
  46 "Bone04" 10
  47 "Bone01" 10
  48 "Bone07" 8
end
skeleton
  time 0
    0 -1.838672 0.043808 37.346258 0.000000 0.000000 -1.570843
    1 0.000000 0.000000 0.000000 -1.570795 -1.570796 0.000000
    2 -0.000006 0.000007 4.412639 0.000001 3.141591 -0.309283
    3 18.172446 0.000000 0.000000 0.000000 0.000000 -0.374444
    4 18.172448 0.000000 0.000000 0.000000 0.000000 0.065163
    5 0.000005 -0.000004 -4.412639 0.173921 3.119828 -0.143994
    6 18.172446 0.000000 0.000000 0.000000 0.000000 -0.434390
    7 18.172448 0.000000 0.000000 -0.175319 -0.003577 0.288880
    8 1.543485 -0.003309 0.000002 -0.000005 -0.000001 0.297352
    9 4.914082 -0.003328 0.000000 0.087218 -0.000062 0.000000
    10 4.723547 -0.003328 0.000000 0.104600 -0.003727 0.034703
    11 4.723426 -0.004061 0.000000 0.000000 0.000000 0.000000
    12 5.764155 -0.001278 0.000000 0.000000 0.000000 -0.052333
    13 1.814902 0.000000 0.000000 -0.191765 0.006644 0.050952
    14 0.000002 0.001271 3.345887 -0.000014 -1.370796 -3.090042
    15 5.196163 -0.000001 0.000000 0.194648 1.193155 0.386176
    16 17.447268 0.000000 0.000000 0.000000 0.000000 -1.197971
    17 14.671302 0.000000 0.000001 0.063784 -0.128570 -0.643889
    18 -0.855723 0.397333 -0.933874 2.162674 1.011277 1.047279
    19 2.395825 0.000000 0.000000 0.000000 0.000000 0.261624
    20 3.805020 0.000001 0.000000 0.000000 0.000000 0.662889
    21 5.526140 0.002785 -2.136711 -0.220659 0.473934 -0.219044
    22 4.189501 0.000000 0.000000 0.000000 0.000000 0.139556
    23 4.031743 0.000000 0.000000 0.000000 0.000000 0.750111
    24 5.825805 0.000000 0.000000 0.058804 0.107310 0.735763
    25 3.879723 -0.000001 -0.000001 0.000000 0.000000 1.116419
    26 6.859092 0.000001 0.000000 0.000000 0.000000 0.680333
    27 5.783545 0.047045 2.258376 0.056829 -0.178381 -0.036662
    28 4.014331 0.000000 0.000001 0.000000 0.000000 1.046660
    29 5.658608 0.000000 -0.000001 0.000000 0.000000 1.360666
    30 0.000002 0.001288 -3.345887 -0.000014 1.370796 -3.090069
    31 5.196163 0.000000 0.000002 1.006123 -0.981775 -0.526427
    32 17.447265 -0.000001 0.000000 0.000000 0.000000 -1.229055
    33 15.517796 0.000000 0.000000 0.107984 0.060803 0.439537
    34 -0.583662 0.317722 1.560229 -2.730167 -1.099996 1.413207
    35 4.198554 0.000000 -0.000001 0.000000 0.000000 -0.017440
    36 2.796431 0.000000 0.000001 0.000000 0.000000 0.662889
    37 4.943466 0.034090 2.463415 -0.459344 -0.209623 0.990827
    38 5.945773 0.000000 0.000000 0.000000 0.000000 0.610556
    39 2.359761 -0.000001 -0.000001 0.000000 0.000000 0.540778
    40 5.276138 -0.083883 0.333405 0.031401 -0.041879 -0.628643
    41 4.481988 0.000000 0.000001 0.000000 0.000000 0.697778
    42 4.884455 0.000000 0.000000 0.000000 0.000000 1.029204
    43 5.119217 -0.009372 -1.601968 -0.215262 0.150026 -0.977513
    44 4.394951 0.000001 -0.000002 0.000000 0.000000 0.662895
    45 5.252212 0.000000 0.000002 0.000000 0.000000 0.558222
    46 1.931486 0.427439 2.092860 -3.141592 -0.000001 1.273445
    47 2.856726 0.265086 -3.572757 -3.141592 -0.000001 1.273445
    48 3.406512 1.007598 -3.741175 -3.141592 -0.000001 1.273445
  time 1
    0 -1.381084 0.069184 36.376682 -0.043002 0.000645 -1.538533
    1 0.000000 0.000000 0.000000 -0.000015 -1.501243 -1.570760
    2 -0.000006 0.000007 4.412639 -0.223847 3.161103 -0.407128
    3 18.172446 0.000000 0.000000 0.000000 0.000000 -0.568077
    4 18.172448 0.000000 0.000000 0.245569 0.044405 0.161368
    5 0.000005 -0.000004 -4.412639 0.263374 3.031432 -0.241091
    6 18.172446 0.000000 0.000000 0.000000 0.000000 -0.655090
    7 18.172448 0.000000 0.000000 -0.249641 0.015660 0.401583
    8 1.539578 -0.003309 0.105474 -0.017435 -0.067339 0.253573
    9 4.914082 -0.003328 0.000000 0.087156 -0.016953 -0.038608
    10 4.723547 -0.003328 0.000000 0.104685 -0.034156 -0.017232
    11 4.723426 -0.004061 0.000000 -0.000025 -0.033006 -0.053839
    12 5.764155 -0.001278 0.000000 0.000000 0.000000 -0.052333
    13 1.814902 0.000000 0.000000 -0.203161 -0.067802 0.108318
    14 0.000002 0.001271 3.345887 -0.000014 -1.370796 -3.090042
    15 5.196163 -0.000001 0.000000 0.376266 0.966434 0.617592
    16 17.447268 0.000000 0.000000 0.000000 0.000000 -1.322346
    17 14.671302 0.000000 0.000001 -0.053396 -0.106259 -0.489405
    18 -0.855723 0.397333 -0.933874 2.051706 0.876083 0.910623
    19 2.395825 0.000000 0.000000 0.000000 0.000000 0.418624
    20 3.805020 0.000001 0.000000 0.000000 0.000000 0.819889
    21 5.526140 0.002785 -2.136711 -0.138457 0.502055 -0.044111
    22 4.189501 0.000000 0.000000 0.000000 0.000000 0.296554
    23 4.031743 0.000000 0.000000 0.000000 0.000000 0.907073
    24 5.825805 0.000000 0.000000 0.074867 0.096782 0.893244
    25 3.879723 -0.000001 -0.000001 0.000000 0.000000 1.273410
    26 6.859092 0.000001 0.000000 0.000000 0.000000 0.837327
    27 5.783545 0.047045 2.258376 0.027952 -0.185023 0.122839
    28 4.014331 0.000000 0.000001 0.000000 0.000000 1.203632
    29 5.658608 0.000000 -0.000001 0.000000 0.000000 1.517642
    30 0.000002 0.001288 -3.345887 -0.000014 1.370796 -3.090069
    31 5.196163 0.000000 0.000002 0.574585 -1.044595 -0.073037
    32 17.447265 -0.000001 0.000000 0.000000 0.000000 -1.229055
    33 15.517796 0.000000 0.000000 0.123376 0.009307 0.872866
    34 -0.583662 0.317722 1.560229 -2.226161 -0.820094 0.809679
    35 4.198554 0.000000 -0.000001 0.000000 0.000000 0.418650
    36 2.796431 0.000000 0.000001 0.000000 0.000000 1.098981
    37 4.943466 0.034090 2.463415 -0.501753 -0.005444 1.379132
    38 5.945773 0.000000 0.000000 0.000000 0.000000 1.046626
    39 2.359761 -0.000001 -0.000001 0.000000 0.000000 0.976864
    40 5.276138 -0.083883 0.333405 0.010764 -0.051236 -0.192158
    41 4.481988 0.000000 0.000001 0.000000 0.000000 1.133876
    42 4.884455 0.000000 0.000000 0.000000 0.000000 1.465322
    43 5.119217 -0.009372 -1.601968 -0.132053 0.226623 -0.540208
    44 4.394951 0.000001 -0.000002 0.000000 0.000000 1.098993
    45 5.252212 0.000000 0.000002 0.000000 0.000000 0.994310
    46 1.931486 0.427439 2.092860 -3.141592 -0.000001 1.273445
    47 2.856726 0.265086 -3.572757 -3.141592 -0.000001 1.273445
    48 3.406512 1.007598 -3.741175 -3.141592 -0.000001 1.273445
  time 2
    0 -0.399350 0.162229 35.088963 -0.098998 0.003871 -1.494717
    1 0.000000 0.000000 0.000000 -0.000015 -1.452681 -1.570760
    2 -0.000006 0.000007 4.412639 -0.019243 3.071673 -0.532478
    3 18.172446 0.000000 0.000000 0.000000 0.000000 -0.775176
    4 18.172448 0.000000 0.000000 0.057392 0.051006 0.246987
    5 0.000005 -0.000004 -4.412639 0.180537 3.018489 -0.334067
    6 18.172446 0.000000 0.000000 0.000000 0.000000 -0.840548
    7 18.172448 0.000000 0.000000 -0.134727 0.037427 0.497264
    8 1.531765 -0.003309 0.179695 -0.022486 -0.115968 0.192110
    9 4.914082 -0.003328 0.000000 0.086881 -0.040274 -0.093870
    10 4.723547 -0.003328 0.000000 0.104548 -0.073993 -0.087610
    11 4.723426 -0.004061 0.000000 -0.000049 -0.075095 -0.127021
    12 5.764155 -0.001278 0.000000 0.000000 0.000000 -0.052333
    13 1.814902 0.000000 0.000000 -0.200556 0.139796 0.119631
    14 0.000002 0.001271 3.345887 -0.000014 -1.370796 -3.090042
    15 5.196163 -0.000001 0.000000 0.451442 0.633666 0.766148
    16 17.447268 0.000000 0.000000 0.000000 0.000000 -1.500179
    17 14.671302 0.000000 0.000001 -0.170004 -0.123223 -0.787422
    18 -0.855723 0.397333 -0.933874 2.290662 1.104982 1.193918
    19 2.395825 0.000000 0.000000 0.000000 0.000000 0.143678
    20 3.805020 0.000001 0.000000 0.000000 0.000000 0.544946
    21 5.526140 0.002785 -2.136711 -0.284512 0.440424 -0.363531
    22 4.189501 0.000000 0.000000 0.000000 0.000000 0.005716
    23 4.031743 0.000000 0.000000 0.000000 0.000000 0.616269
    24 5.825805 0.000000 0.000000 0.046249 0.113263 0.621844
    25 3.879723 -0.000001 -0.000001 0.000000 0.000000 1.003071
    26 6.859092 0.000001 0.000000 0.000000 0.000000 0.568750
    27 5.783545 0.047045 2.258376 0.081315 -0.168720 -0.178184
    28 4.014331 0.000000 0.000001 0.000000 0.000000 0.938141
    29 5.658608 0.000000 -0.000001 0.000000 0.000000 1.252169
    30 0.000002 0.001288 -3.345887 -0.000014 1.370796 -3.090069
    31 5.196163 0.000000 0.000002 -0.027470 -0.930648 0.501287
    32 17.447265 -0.000001 0.000000 0.000000 0.000000 -1.229055
    33 15.517796 0.000000 0.000000 0.048711 0.076990 0.357050
    34 -0.583662 0.317722 1.560229 0.143298 -1.958854 -1.435755
    35 4.198554 0.000000 -0.000001 0.000000 0.000000 -0.157373
    36 2.796431 0.000000 0.000001 0.000000 0.000000 0.522953
    37 4.943466 0.034090 2.463415 -0.207893 -0.460079 0.261759
    38 5.945773 0.000000 0.000000 0.000000 0.000000 0.494080
    39 2.359761 -0.000001 -0.000001 0.000000 0.000000 0.424317
    40 5.276138 -0.083883 0.333405 0.036327 -0.037706 -0.752249
    41 4.481988 0.000000 0.000001 0.000000 0.000000 0.574219
    42 4.884455 0.000000 0.000000 0.000000 0.000000 0.905643
    43 5.119217 -0.009372 -1.601968 -0.232040 0.122140 -1.101112
    44 4.394951 0.000001 -0.000002 0.000000 0.000000 0.537325
    45 5.252212 0.000000 0.000002 0.000000 0.000000 0.432647
    46 1.931486 0.427439 2.092860 -3.141592 -0.000001 1.273445
    47 2.856726 0.265086 -3.572757 -3.141592 -0.000001 1.273445
    48 3.406512 1.007598 -3.741175 -3.141592 -0.000001 1.273445
  time 3
    0 0.490867 0.043808 34.422380 -0.121715 0.007245 -1.466433
    1 0.000000 0.000000 0.000000 -0.000015 -1.745235 -1.570760
    2 -0.000006 0.000007 4.412639 0.352911 3.186832 -0.645072
    3 18.172446 0.000000 0.000000 0.000000 0.000000 -1.025552
    4 18.172448 0.000000 0.000000 -0.148839 0.044174 0.352332
    5 0.000005 -0.000004 -4.412639 0.418790 3.247915 -0.255565
    6 18.172446 0.000000 0.000000 0.000000 0.000000 -0.730198
    7 18.172448 0.000000 0.000000 -0.274093 0.079759 0.432478
    8 1.520046 -0.003309 -0.265631 0.024627 0.172706 0.142494
    9 4.914082 -0.003328 0.000000 0.086452 -0.057461 -0.145049
    10 4.723547 -0.003328 0.000000 0.104241 -0.091454 -0.132322
    11 4.723426 -0.004061 0.000000 -0.000062 -0.087212 -0.174435
    12 5.764155 -0.001278 0.000000 0.000000 0.000000 -0.052333
    13 1.814902 0.000000 0.000000 -0.189595 -0.093670 0.232246
    14 0.000002 0.001271 3.345887 -0.000014 -1.370796 -3.090042
    15 5.196163 -0.000001 0.000000 0.476152 0.372292 0.860624
    16 17.447268 0.000000 0.000000 0.000000 0.000000 -1.579865
    17 14.671302 0.000000 0.000001 -0.441995 -0.128570 -0.643889
    18 -0.855723 0.397333 -0.933874 2.162674 1.011277 1.047279
    19 2.395825 0.000000 0.000000 0.000000 0.000000 0.261624
    20 3.805020 0.000001 0.000000 0.000000 0.000000 0.662889
    21 5.526140 0.002785 -2.136711 -0.220659 0.473934 -0.219044
    22 4.189501 0.000000 0.000000 0.000000 0.000000 0.139556
    23 4.031743 0.000000 0.000000 0.000000 0.000000 0.750111
    24 5.825805 0.000000 0.000000 0.058804 0.107310 0.735763
    25 3.879723 -0.000001 -0.000001 0.000000 0.000000 1.116419
    26 6.859092 0.000001 0.000000 0.000000 0.000000 0.680333
    27 5.783545 0.047045 2.258376 0.056829 -0.178381 -0.036662
    28 4.014331 0.000000 0.000001 0.000000 0.000000 1.046660
    29 5.658608 0.000000 -0.000001 0.000000 0.000000 1.360666
    30 0.000002 0.001288 -3.345887 -0.000014 1.370796 -3.090069
    31 5.196163 0.000000 0.000002 -0.263197 -0.736953 0.665920
    32 17.447265 -0.000001 0.000000 0.000000 0.000000 -1.229055
    33 15.517796 0.000000 0.000000 0.107984 0.060803 0.439537
    34 -0.583662 0.317722 1.560229 -2.730167 -1.099996 1.413207
    35 4.198554 0.000000 -0.000001 0.000000 0.000000 -0.017440
    36 2.796431 0.000000 0.000001 0.000000 0.000000 0.662889
    37 4.943466 0.034090 2.463415 -0.459344 -0.209623 0.990827
    38 5.945773 0.000000 0.000000 0.000000 0.000000 0.610556
    39 2.359761 -0.000001 -0.000001 0.000000 0.000000 0.540778
    40 5.276138 -0.083883 0.333405 0.031401 -0.041879 -0.628643
    41 4.481988 0.000000 0.000001 0.000000 0.000000 0.697778
    42 4.884455 0.000000 0.000000 0.000000 0.000000 1.029204
    43 5.119217 -0.009372 -1.601968 -0.215262 0.150026 -0.977513
    44 4.394951 0.000001 -0.000002 0.000000 0.000000 0.662895
    45 5.252212 0.000000 0.000002 0.000000 0.000000 0.558222
    46 1.931486 0.427439 2.092860 -3.141592 -0.000001 1.273445
    47 2.856726 0.265086 -3.572757 -3.141592 -0.000001 1.273445
    48 3.406512 1.007598 -3.741175 -3.141592 -0.000001 1.273445
  time 4
    0 0.079038 -0.565212 34.594076 -0.098531 0.003424 -1.450326
    1 0.000000 0.000000 0.000000 -0.000015 -1.504087 -1.570760
    2 -0.000006 0.000007 4.412639 0.019628 3.086976 -0.565758
    3 18.172446 0.000000 0.000000 0.000000 0.000000 -0.879372
    4 18.172448 0.000000 0.000000 0.074742 0.067531 0.314151
    5 0.000005 -0.000004 -4.412639 0.290028 3.014271 -0.301094
    6 18.172446 0.000000 0.000000 0.000000 0.000000 -0.862091
    7 18.172448 0.000000 0.000000 -0.194327 0.062795 0.530750
    8 1.539578 -0.003309 0.101568 -0.044318 -0.045279 0.108500
    9 4.914082 -0.003328 0.000000 0.085932 -0.069838 -0.187940
    10 4.723547 -0.003328 0.000000 0.104173 -0.083521 -0.131491
    11 4.723426 -0.004061 0.000000 -0.000049 -0.063878 -0.174435
    12 5.764155 -0.001278 0.000000 0.000000 0.000000 -0.052333
    13 1.814902 0.000000 0.000000 -0.141952 0.046208 0.236844
    14 0.000002 0.001271 3.345887 -0.845040 -1.274377 -2.267233
    15 5.196163 -0.000001 0.000000 0.489837 0.179527 0.769404
    16 17.447268 0.000000 0.000000 0.000000 0.000000 -1.519067
    17 14.671302 0.000000 0.000001 -0.939486 -0.233010 -0.564652
    18 -0.855723 0.397333 -0.933874 2.237681 1.071551 1.134176
    19 2.395825 0.000000 0.000000 0.000000 0.000000 0.187116
    20 3.805020 0.000001 0.000000 0.000000 0.000000 0.588347
    21 5.526140 0.002785 -2.136711 -0.219163 0.474576 -0.215839
    22 4.189501 0.000000 0.000000 0.000000 0.000000 0.142471
    23 4.031743 0.000000 0.000000 0.000000 0.000000 0.753018
    24 5.825805 0.000000 0.000000 0.048250 0.112416 0.639676
    25 3.879723 -0.000001 -0.000001 0.000000 0.000000 1.020777
    26 6.859092 0.000001 0.000000 0.000000 0.000000 0.574792
    27 5.783545 0.047045 2.258376 0.051208 -0.180061 -0.005076
    28 4.014331 0.000000 0.000001 0.000000 0.000000 0.927534
    29 5.658608 0.000000 -0.000001 0.000000 0.000000 1.241555
    30 0.000002 0.001288 -3.345887 -1.203891 1.056449 -4.245147
    31 5.196163 0.000000 0.000002 0.018814 -0.703639 0.752874
    32 17.447265 -0.000001 0.000000 0.000000 0.000000 -1.175207
    33 15.517796 0.000000 0.000000 0.618783 0.051745 -0.075577
    34 -0.583662 0.317722 1.560229 -2.869243 -0.629832 1.504499
    35 4.198554 0.000000 -0.000001 0.000000 0.000000 0.088809
    36 2.796431 0.000000 0.000001 0.000000 0.000000 0.769123
    37 4.943466 0.034090 2.463415 -0.162414 -0.476914 0.161117
    38 5.945773 0.000000 0.000000 0.000000 0.000000 0.471032
    39 2.359761 -0.000001 -0.000001 0.000000 0.000000 0.401257
    40 5.276138 -0.083883 0.333405 0.035117 -0.038817 -0.720553
    41 4.481988 0.000000 0.000001 0.000000 0.000000 0.605945
    42 4.884455 0.000000 0.000000 0.000000 0.000000 0.937338
    43 5.119217 -0.009372 -1.601968 -0.226132 0.132899 -1.054623
    44 4.394951 0.000001 -0.000002 0.000000 0.000000 0.584663
    45 5.252212 0.000000 0.000002 0.000000 0.000000 0.479993
    46 1.931486 0.427439 2.092860 -3.141592 -0.000001 1.273445
    47 2.856726 0.265086 -3.572757 -3.141592 -0.000001 1.273445
    48 3.406512 1.007598 -3.741175 -3.141592 -0.000001 1.273445
  time 5
    0 -0.474228 -1.081187 35.139462 -0.054875 -0.004020 -1.439588
    1 0.000000 0.000000 0.000000 -0.000015 -1.522343 -1.570760
    2 -0.000006 0.000007 4.412639 0.070468 3.059908 -0.504395
    3 18.172446 0.000000 0.000000 0.000000 0.000000 -0.803224
    4 18.172448 0.000000 0.000000 0.029738 0.043228 0.289333
    5 0.000005 -0.000004 -4.412639 0.322434 3.007080 -0.244925
    6 18.172446 0.000000 0.000000 0.000000 0.000000 -0.796817
    7 18.172448 0.000000 0.000000 -0.214526 0.051325 0.515811
    8 1.539578 -0.003309 0.074223 -0.085954 -0.004067 0.081260
    9 4.910175 -0.003328 0.000000 0.085319 -0.080984 -0.227743
    10 4.723547 -0.003328 0.000000 0.104053 -0.065640 -0.129614
    11 4.723426 -0.004061 0.000000 -0.000012 -0.028751 -0.174435
    12 5.764155 -0.001278 0.000000 0.000000 0.000000 -0.052333
    13 1.814902 0.000000 0.000000 -0.095232 -0.129476 0.286619
    14 0.000002 0.001271 3.345887 -1.159984 -1.101063 -1.973660
    15 5.196163 -0.000001 0.000000 0.512362 0.024287 0.677518
    16 17.447268 0.000000 0.000000 0.000000 0.000000 -1.445297
    17 14.671302 0.000000 0.000001 -1.394391 -0.296049 -0.458664
    18 -0.855723 0.397333 -0.933874 2.345395 1.133567 1.254698
    19 2.395825 0.000000 0.000000 0.000000 0.000000 0.104667
    20 3.805020 0.000001 0.000000 0.000000 0.000000 0.505939
    21 5.526140 0.002785 -2.136711 -0.224575 0.472193 -0.227644
    22 4.189501 0.000000 0.000000 0.000000 0.000000 0.131730
    23 4.031743 0.000000 0.000000 0.000000 0.000000 0.742285
    24 5.825805 0.000000 0.000000 0.036505 0.116748 0.536924
    25 3.879723 -0.000001 -0.000001 0.000000 0.000000 0.918621
    26 6.859092 0.000001 0.000000 0.000000 0.000000 0.463742
    27 5.783545 0.047045 2.258376 0.048423 -0.180796 0.010446
    28 4.014331 0.000000 0.000001 0.000000 0.000000 0.803587
    29 5.658608 0.000000 -0.000001 0.000000 0.000000 1.117618
    30 0.000002 0.001288 -3.345887 -1.329964 0.866204 -4.349074
    31 5.196163 0.000000 0.000002 0.017379 -0.703027 0.901333
    32 17.447265 -0.000001 0.000000 0.000000 0.000000 -1.145795
    33 15.517796 0.000000 0.000000 0.827577 0.116744 -0.266202
    34 -0.583662 0.317722 1.560229 -2.889836 -0.426316 1.496723
    35 4.198554 0.000000 -0.000001 0.000000 0.000000 0.149780
    36 2.796431 0.000000 0.000001 0.000000 0.000000 0.830088
    37 4.943466 0.034090 2.463415 0.038373 -0.500425 -0.261557
    38 5.945773 0.000000 0.000000 0.000000 0.000000 0.428906
    39 2.359761 -0.000001 -0.000001 0.000000 0.000000 0.359118
    40 5.276138 -0.083883 0.333405 0.034505 -0.039360 -0.705102
    41 4.481988 0.000000 0.000001 0.000000 0.000000 0.621366
    42 4.884455 0.000000 0.000000 0.000000 0.000000 0.952766
    43 5.119217 -0.009372 -1.601968 -0.221865 0.139961 -1.023260
    44 4.394951 0.000001 -0.000002 0.000000 0.000000 0.616554
    45 5.252212 0.000000 0.000002 0.000000 0.000000 0.511883
    46 1.931486 0.427439 2.092860 -3.141592 -0.000001 1.273445
    47 2.856726 0.265086 -3.572757 -3.141592 -0.000001 1.273445
    48 3.406512 1.007598 -3.741175 -3.141592 -0.000001 1.273445
  time 6
    0 -0.931816 -1.571787 35.735348 -0.010844 -0.005856 -1.442272
    1 0.000000 0.000000 0.000000 -0.000015 -1.322264 -1.570760
    2 -0.000006 0.000007 4.412639 0.028820 2.853405 -0.367286
    3 18.172446 0.000000 0.000000 0.000000 0.000000 -0.539088
    4 18.172448 0.000000 0.000000 -0.000881 0.021279 0.175889
    5 0.000005 -0.000004 -4.412639 0.234036 2.782831 -0.274351
    6 18.172446 0.000000 0.000000 0.000000 0.000000 -0.853719
    7 18.172448 0.000000 0.000000 -0.193231 0.042230 0.562813
    8 1.496608 -0.003309 0.378920 -0.149147 -0.178628 0.052074
    9 4.910175 -0.003328 0.000000 0.084523 -0.088862 -0.269379
    10 4.723547 -0.003328 0.000000 0.103933 -0.039321 -0.126862
    11 4.723426 -0.004061 0.000000 0.000012 0.017258 -0.174435
    12 5.764155 -0.001278 0.000000 0.000000 0.000000 -0.052333
    13 1.814902 0.000000 0.000000 -0.041728 -0.039102 0.319681
    14 0.000002 0.001271 3.345887 -1.317791 -0.890071 -1.840489
    15 5.196163 -0.000001 0.000000 0.561401 -0.096300 0.541021
    16 17.447268 0.000000 0.000000 0.000000 0.000000 -1.276944
    17 14.671302 0.000000 0.000001 -1.871304 -0.295128 -0.288145
    18 -0.855723 0.397333 -0.933874 2.513932 1.196237 1.437997
    19 2.395825 0.000000 0.000000 0.000000 0.000000 0.009243
    20 3.805020 0.000001 0.000000 0.000000 0.000000 0.410451
    21 5.526140 0.002785 -2.136711 -0.232480 0.468563 -0.245110
    22 4.189501 0.000000 0.000000 0.000000 0.000000 0.115719
    23 4.031743 0.000000 0.000000 0.000000 0.000000 0.726276
    24 5.825805 0.000000 0.000000 0.022129 0.120281 0.415547
    25 3.879723 -0.000001 -0.000001 0.000000 0.000000 0.798079
    26 6.859092 0.000001 0.000000 0.000000 0.000000 0.336454
    27 5.783545 0.047045 2.258376 0.045877 -0.181453 0.024544
    28 4.014331 0.000000 0.000001 0.000000 0.000000 0.658146
    29 5.658608 0.000000 -0.000001 0.000000 0.000000 0.972145
    30 0.000002 0.001288 -3.345887 -1.297080 0.927248 -4.323380
    31 5.196163 0.000000 0.000002 -0.199063 -0.677192 1.037551
    32 17.447265 -0.000001 0.000000 0.000000 0.000000 -1.149657
    33 15.517796 0.000000 0.000000 0.771937 0.073635 -0.166251
    34 -0.583662 0.317722 1.560229 -2.849607 -0.476519 1.454255
    35 4.198554 0.000000 -0.000001 0.000000 0.000000 0.173641
    36 2.796431 0.000000 0.000001 0.000000 0.000000 0.853945
    37 4.943466 0.034090 2.463415 -0.044398 -0.499993 -0.089314
    38 5.945773 0.000000 0.000000 0.000000 0.000000 0.485373
    39 2.359761 -0.000001 -0.000001 0.000000 0.000000 0.415592
    40 5.276138 -0.083883 0.333405 0.030155 -0.042792 -0.599181
    41 4.481988 0.000000 0.000001 0.000000 0.000000 0.727241
    42 4.884455 0.000000 0.000000 0.000000 0.000000 1.058685
    43 5.119217 -0.009372 -1.601968 -0.203804 0.165356 -0.904592
    44 4.394951 0.000001 -0.000002 0.000000 0.000000 0.736548
    45 5.252212 0.000000 0.000002 0.000000 0.000000 0.631868
    46 1.931486 0.427439 2.092860 -3.141592 -0.000001 1.273445
    47 2.856726 0.265086 -3.572757 -3.141592 -0.000001 1.273445
    48 3.406512 1.007598 -3.741175 -3.141592 -0.000001 1.273445
  time 7
    0 -1.177249 -1.969341 36.134288 0.017762 0.007245 -1.466433
    1 0.000000 0.000000 0.000000 -0.000015 -1.466129 -1.570760
    2 -0.000006 0.000007 4.412639 -0.097944 3.016484 -0.371748
    3 18.172446 0.000000 0.000000 0.000000 0.000000 -0.568489
    4 18.172448 0.000000 0.000000 0.150688 0.029127 0.208053
    5 0.000005 -0.000004 -4.412639 0.258484 2.928080 -0.210515
    6 18.172446 0.000000 0.000000 0.000000 0.000000 -0.720597
    7 18.172448 0.000000 0.000000 -0.192684 0.032496 0.503006
    8 1.535672 -0.003309 0.160163 -0.194435 -0.012221 0.018309
    9 4.910175 -0.003328 0.000000 0.083573 -0.078898 -0.304222
    10 4.723547 -0.003328 0.000000 0.103865 -0.004698 -0.123251
    11 4.723426 -0.004061 0.000000 0.000049 0.069774 -0.174435
    12 5.764155 -0.001278 0.000000 0.000000 0.000000 -0.052333
    13 1.814902 0.000000 0.000000 0.004395 -0.230307 0.437624
    14 0.000002 0.001271 3.345887 -1.345882 -0.832935 -1.819108
    15 5.196163 -0.000001 0.000000 0.768965 0.313435 0.406447
    16 17.447268 0.000000 0.000000 0.000000 0.000000 -0.434183
    17 14.671302 0.000000 0.000001 -1.715731 -0.206590 0.059932
    18 -0.855723 0.397333 -0.933874 -0.487949 1.912663 -1.554448
    19 2.395825 0.000000 0.000000 0.000000 0.000000 -0.052290
    20 3.805020 0.000001 0.000000 0.000000 0.000000 0.348889
    21 5.526140 0.002785 -2.136711 -0.246390 0.461817 -0.276091
    22 4.189501 0.000000 0.000000 0.000000 0.000000 0.087250
    23 4.031743 0.000000 0.000000 0.000000 0.000000 0.697790
    24 5.825805 0.000000 0.000000 0.009921 0.121903 0.314516
    25 3.879723 -0.000001 -0.000001 0.000000 0.000000 0.697761
    26 6.859092 0.000001 0.000000 0.000000 0.000000 0.261683
    27 5.783545 0.047045 2.258376 0.047346 -0.181085 0.016439
    28 4.014331 0.000000 0.000001 0.000000 0.000000 0.540748
    29 5.658608 0.000000 -0.000001 0.000000 0.000000 0.854808
    30 0.000002 0.001288 -3.345887 -1.231024 1.024328 -4.268540
    31 5.196163 0.000000 0.000002 -0.387070 -0.573784 1.135188
    32 17.447265 -0.000001 0.000000 0.000000 0.000000 -1.160501
    33 15.517796 0.000000 0.000000 0.670408 0.025913 -0.023341
    34 -0.583662 0.317722 1.560229 -2.796448 -0.563508 1.404011
    35 4.198554 0.000000 -0.000001 0.000000 0.000000 0.188375
    36 2.796431 0.000000 0.000001 0.000000 0.000000 0.868701
    37 4.943466 0.034090 2.463415 -0.161457 -0.477202 0.159055
    38 5.945773 0.000000 0.000000 0.000000 0.000000 0.552852
    39 2.359761 -0.000001 -0.000001 0.000000 0.000000 0.483072
    40 5.276138 -0.083883 0.333405 0.025205 -0.045879 -0.487541
    41 4.481988 0.000000 0.000001 0.000000 0.000000 0.838791
    42 4.884455 0.000000 0.000000 0.000000 0.000000 1.170239
    43 5.119217 -0.009372 -1.601968 -0.181945 0.189185 -0.780770
    44 4.394951 0.000001 -0.000002 0.000000 0.000000 0.860716
    45 5.252212 0.000000 0.000002 0.000000 0.000000 0.756017
    46 1.931486 0.427439 2.092860 -3.141592 -0.000001 1.273445
    47 2.856726 0.265086 -3.572757 -3.141592 -0.000001 1.273445
    48 3.406512 1.007598 -3.741175 -3.141592 -0.000001 1.273445
  time 8
    0 -1.256287 -2.316144 36.220136 0.021688 0.051958 -1.534218
    1 0.000000 0.000000 0.000000 -0.000015 -1.502390 -1.570760
    2 -0.000006 0.000007 4.412639 -0.211975 3.092715 -0.402036
    3 18.172446 0.000000 0.000000 0.000000 0.000000 -0.588364
    4 18.172448 0.000000 0.000000 0.214245 0.028780 0.238136
    5 0.000005 -0.000004 -4.412639 0.241802 2.966238 -0.238024
    6 18.172446 0.000000 0.000000 0.000000 0.000000 -0.683599
    7 18.172448 0.000000 0.000000 -0.238172 0.035741 0.483799
    8 1.539578 -0.003309 0.105474 -0.193785 0.023997 0.018309
    9 4.910175 -0.003328 0.000000 0.085503 0.112120 -0.222802
    10 4.723547 -0.003328 0.000000 0.104565 0.068959 -0.079499
    11 4.723426 -0.004061 0.000000 0.000086 0.122111 -0.131100
    12 5.764155 -0.001278 0.000000 0.000000 0.000000 -0.052333
    13 1.814902 0.000000 0.000000 -0.075968 -0.333480 0.511192
    14 0.000002 0.001271 3.345887 -1.086257 -1.160339 -2.040390
    15 5.196163 -0.000001 0.000000 0.834732 1.022505 0.464449
    16 17.447268 0.000000 0.000000 0.000000 0.000000 -0.585786
    17 14.671302 0.000000 0.000001 -2.477972 -0.079733 0.342696
    18 -0.855723 0.397333 -0.933874 -0.487949 1.912663 -1.554448
    19 2.395825 0.000000 0.000000 0.000000 0.000000 -0.052290
    20 3.805020 0.000001 0.000000 0.000000 0.000000 0.348889
    21 5.526140 0.002785 -2.136711 -0.289069 0.437565 -0.374214
    22 4.189501 0.000000 0.000000 0.000000 0.000000 -0.004386
    23 4.031743 0.000000 0.000000 0.000000 0.000000 0.484036
    24 5.825805 0.000000 0.000000 -0.057043 0.108229 -0.253266
    25 3.879723 -0.000001 -0.000001 0.000000 0.000000 0.587212
    26 6.859092 0.000001 0.000000 0.000000 0.000000 0.170942
    27 5.783545 0.047045 2.258376 0.062895 -0.176360 -0.071048
    28 4.014331 0.000000 0.000001 0.000000 0.000000 0.425680
    29 5.658608 0.000000 -0.000001 0.000000 0.000000 0.303598
    30 0.000002 0.001288 -3.345887 -1.139561 1.119258 -4.188103
    31 5.196163 0.000000 0.000002 -0.190362 -0.366627 1.022044
    32 17.447265 -0.000001 0.000000 0.000000 0.000000 -1.170676
    33 15.517796 0.000000 0.000000 0.561709 -0.005454 0.120349
    34 -0.583662 0.317722 1.560229 -2.738117 -0.650389 1.349505
    35 4.198554 0.000000 -0.000001 0.000000 0.000000 0.198892
    36 2.796431 0.000000 0.000001 0.000000 0.000000 0.879200
    37 4.943466 0.034090 2.463415 -0.265744 -0.430853 0.395853
    38 5.945773 0.000000 0.000000 0.000000 0.000000 0.616446
    39 2.359761 -0.000001 -0.000001 0.000000 0.000000 0.546679
    40 5.276138 -0.083883 0.333405 0.020423 -0.048200 -0.385899
    41 4.481988 0.000000 0.000001 0.000000 0.000000 0.940368
    42 4.884455 0.000000 0.000000 0.000000 0.000000 1.271797
    43 5.119217 -0.009372 -1.601968 -0.159605 0.208315 -0.667774
    44 4.394951 0.000001 -0.000002 0.000000 0.000000 0.973081
    45 5.252212 0.000000 0.000002 0.000000 0.000000 0.868428
    46 1.931486 0.427439 2.092860 -3.141592 -0.000001 1.273445
    47 2.856726 0.265086 -3.572757 -3.141592 -0.000001 1.273445
    48 3.406512 1.007598 -3.741175 -3.141592 -0.000001 1.273445
  time 9
    0 -1.268767 -2.755992 36.149437 0.006357 0.117216 -1.635368
    1 0.000000 0.000000 0.000000 -0.000015 -1.618306 -1.570760
    2 -0.000006 0.000007 4.412639 -0.091530 3.203762 -0.507702
    3 18.172446 0.000000 0.000000 0.000000 0.000000 -0.707143
    4 18.172448 0.000000 0.000000 0.048615 0.018141 0.317043
    5 0.000005 -0.000004 -4.412639 0.253882 3.097585 -0.259782
    6 18.172446 0.000000 0.000000 0.000000 0.000000 -0.594617
    7 18.172448 0.000000 0.000000 -0.317553 0.045960 0.435171
    8 1.539578 -0.003309 -0.070313 -0.191634 0.139922 0.018481
    9 4.914082 -0.003328 0.000000 0.087126 0.086122 -0.096321
    10 4.723547 -0.003328 0.000000 0.104975 0.075575 -0.019854
    11 4.723426 -0.004061 0.000000 0.000086 0.108532 -0.060185
    12 5.764155 -0.001278 0.000000 0.000000 0.000000 -0.052333
    13 1.814902 0.000000 0.000000 -0.037333 -0.189844 0.399234
    14 0.000002 0.001271 3.345887 -0.956349 -1.232687 -2.161482
    15 5.196163 -0.000001 0.000000 0.518539 1.182272 0.317076
    16 17.447268 0.000000 0.000000 0.000000 0.000000 -0.702250
    17 14.671302 0.000000 0.000001 -2.134625 -0.267611 0.272142
    18 -0.855723 0.397333 -0.933874 2.528617 1.200320 1.453811
    19 2.395825 0.000000 0.000000 0.000000 0.000000 0.002170
    20 3.805020 0.000001 0.000000 0.000000 0.000000 0.403391
    21 5.526140 0.002785 -2.136711 -0.280548 0.442862 -0.354237
    22 4.189501 0.000000 0.000000 0.000000 0.000000 0.014420
    23 4.031743 0.000000 0.000000 0.000000 0.000000 0.515876
    24 5.825805 0.000000 0.000000 -0.042172 0.114836 -0.119883
    25 3.879723 -0.000001 -0.000001 0.000000 0.000000 0.671583
    26 6.859092 0.000001 0.000000 0.000000 0.000000 0.253246
    27 5.783545 0.047045 2.258376 0.062878 -0.176360 -0.070950
    28 4.014331 0.000000 0.000001 0.000000 0.000000 0.525681
    29 5.658608 0.000000 -0.000001 0.000000 0.000000 0.450037
    30 0.000002 0.001288 -3.345887 -0.984151 1.219785 -4.044868
    31 5.196163 0.000000 0.000002 -0.092950 -0.537411 0.917656
    32 17.447265 -0.000001 0.000000 0.000000 0.000000 -1.179812
    33 15.517796 0.000000 0.000000 0.435037 -0.020718 0.282594
    34 -0.583662 0.317722 1.560229 -2.662066 -0.745709 1.278101
    35 4.198554 0.000000 -0.000001 0.000000 0.000000 0.208403
    36 2.796431 0.000000 0.000001 0.000000 0.000000 0.888716
    37 4.943466 0.034090 2.463415 -0.361977 -0.355516 0.645711
    38 5.945773 0.000000 0.000000 0.000000 0.000000 0.685717
    39 2.359761 -0.000001 -0.000001 0.000000 0.000000 0.615969
    40 5.276138 -0.083883 0.333405 0.015078 -0.050125 -0.277289
    41 4.481988 0.000000 0.000001 0.000000 0.000000 1.048868
    42 4.884455 0.000000 0.000000 0.000000 0.000000 1.380299
    43 5.119217 -0.009372 -1.601968 -0.133467 0.225801 -0.546510
    44 4.394951 0.000001 -0.000002 0.000000 0.000000 1.092795
    45 5.252212 0.000000 0.000002 0.000000 0.000000 0.988134
    46 1.931486 0.427439 2.092860 -3.141592 -0.000001 1.273445
    47 2.856726 0.265086 -3.572757 -3.141592 -0.000001 1.273445
    48 3.406512 1.007598 -3.741175 -3.141592 -0.000001 1.273445
  time 10
    0 -1.235488 -3.305802 36.063590 -0.018510 0.173789 -1.732108
    1 0.000000 0.000000 0.000000 -0.000015 -1.717600 -1.570760
    2 -0.000006 0.000007 4.412639 0.037341 3.288219 -0.596518
    3 18.172446 0.000000 0.000000 0.000000 0.000000 -0.802871
    4 18.172448 0.000000 0.000000 -0.106947 0.013686 0.387505
    5 0.000005 -0.000004 -4.412639 0.266730 3.216660 -0.267929
    6 18.172446 0.000000 0.000000 0.000000 0.000000 -0.496151
    7 18.172448 0.000000 0.000000 -0.391617 0.061084 0.385272
    8 1.527859 -0.003309 -0.222661 -0.189759 0.239201 0.018825
    9 4.914082 -0.003328 0.000000 0.087310 0.040539 0.010778
    10 4.723547 -0.003328 0.000000 0.104958 0.071920 0.030360
    11 4.723426 -0.004061 0.000000 0.000062 0.088302 0.000373
    12 5.764155 -0.001278 0.000000 0.000000 0.000000 -0.052333
    13 1.814902 0.000000 0.000000 0.019535 -0.046889 0.318659
    14 0.000002 0.001271 3.345887 -0.799980 -1.287683 -2.310377
    15 5.196163 -0.000001 0.000000 0.174120 1.254276 0.127534
    16 17.447268 0.000000 0.000000 0.000000 0.000000 -0.823275
    17 14.671302 0.000000 0.000001 -1.642374 -0.434523 0.078314
    18 -0.855723 0.397333 -0.933874 2.410974 1.161880 1.326660
    19 2.395825 0.000000 0.000000 0.000000 0.000000 0.063876
    20 3.805020 0.000001 0.000000 0.000000 0.000000 0.465071
    21 5.526140 0.002785 -2.136711 -0.267729 0.450397 -0.324592
    22 4.189501 0.000000 0.000000 0.000000 0.000000 0.042251
    23 4.031743 0.000000 0.000000 0.000000 0.000000 0.567034
    24 5.825805 0.000000 0.000000 -0.019624 0.120717 0.071452
    25 3.879723 -0.000001 -0.000001 0.000000 0.000000 0.774978
    26 6.859092 0.000001 0.000000 0.000000 0.000000 0.352824
    27 5.783545 0.047045 2.258376 0.061785 -0.176753 -0.064662
    28 4.014331 0.000000 0.000001 0.000000 0.000000 0.647057
    29 5.658608 0.000000 -0.000001 0.000000 0.000000 0.654835
    30 0.000002 0.001288 -3.345887 -0.630763 1.324889 -3.706341
    31 5.196163 0.000000 0.000002 -0.126138 -0.748103 0.869801
    32 17.447265 -0.000001 0.000000 0.000000 0.000000 -1.184862
    33 15.517796 0.000000 0.000000 0.274904 -0.010067 0.484757
    34 -0.583662 0.317722 1.560229 -2.543392 -0.859531 1.165575
    35 4.198554 0.000000 -0.000001 0.000000 0.000000 0.218321
    36 2.796431 0.000000 0.000001 0.000000 0.000000 0.898626
    37 4.943466 0.034090 2.463415 -0.447396 -0.235367 0.936697
    38 5.945773 0.000000 0.000000 0.000000 0.000000 0.770780
    39 2.359761 -0.000001 -0.000001 0.000000 0.000000 0.701007
    40 5.276138 -0.083883 0.333405 0.008391 -0.051681 -0.145844
    41 4.481988 0.000000 0.000001 0.000000 0.000000 1.180137
    42 4.884455 0.000000 0.000000 0.000000 0.000000 1.511574
    43 5.119217 -0.009372 -1.601968 -0.099167 0.242594 -0.398999
    44 4.394951 0.000001 -0.000002 0.000000 0.000000 1.237269
    45 5.252212 0.000000 0.000002 0.000000 0.000000 1.132602
    46 1.931486 0.427439 2.092860 -3.141592 -0.000001 1.273445
    47 2.856726 0.265086 -3.572757 -3.141592 -0.000001 1.273445
    48 3.406512 1.007598 -3.741175 -3.141592 -0.000001 1.273445
  time 11
    0 -1.177249 -3.948656 36.109038 -0.034215 0.196567 -1.783018
    1 0.000000 0.000000 0.000000 -0.000015 -1.762674 -1.570760
    2 -0.000006 0.000007 4.412639 -0.071519 3.397735 -0.617567
    3 18.172446 0.000000 0.000000 0.000000 0.000000 -0.832449
    4 18.172448 0.000000 0.000000 0.000998 0.014771 0.427191
    5 0.000005 -0.000004 -4.412639 0.258964 3.277348 -0.238695
    6 18.172446 0.000000 0.000000 0.000000 0.000000 -0.404768
    7 18.172448 0.000000 0.000000 -0.421836 0.073730 0.347569
    8 1.516140 -0.003309 -0.292976 -0.188884 0.284269 0.019053
    9 4.914082 -0.003328 0.000000 0.087003 0.011224 0.071020
    10 4.723547 -0.003328 0.000000 0.104788 0.063842 0.059323
    11 4.723426 -0.004061 0.000000 0.000049 0.069774 0.034884
    12 5.764155 -0.001278 0.000000 0.000000 0.000000 -0.052333
    13 1.814902 0.000000 0.000000 0.048186 -0.105651 0.265818
    14 0.000002 0.001271 3.345887 -0.633065 -1.324492 -2.471545
    15 5.196163 -0.000001 0.000000 0.044582 1.286839 0.113255
    16 17.447268 0.000000 0.000000 0.000000 0.000000 -0.926340
    17 14.671302 0.000000 0.000001 -1.150124 -0.483643 -0.163776
    18 -0.855723 0.397333 -0.933874 2.326205 1.124148 1.233453
    19 2.395825 0.000000 0.000000 0.000000 0.000000 0.117772
    20 3.805020 0.000001 0.000000 0.000000 0.000000 0.519053
    21 5.526140 0.002785 -2.136711 -0.255457 0.457106 -0.296549
    22 4.189501 0.000000 0.000000 0.000000 0.000000 0.068284
    23 4.031743 0.000000 0.000000 0.000000 0.000000 0.615822
    24 5.825805 0.000000 0.000000 0.002030 0.122290 0.249723
    25 3.879723 -0.000001 -0.000001 0.000000 0.000000 0.867542
    26 6.859092 0.000001 0.000000 0.000000 0.000000 0.441702
    27 5.783545 0.047045 2.258376 0.060520 -0.177173 -0.057490
    28 4.014331 0.000000 0.000001 0.000000 0.000000 0.755455
    29 5.658608 0.000000 -0.000001 0.000000 0.000000 0.844387
    30 0.000002 0.001288 -3.345887 -0.000014 1.370796 -3.090069
    31 5.196163 0.000000 0.000002 -0.336122 -0.891420 0.969516
    32 17.447265 -0.000001 0.000000 0.000000 0.000000 -1.165997
    33 15.517796 0.000000 0.000000 0.119361 0.032791 0.682398
    34 -0.583662 0.317722 1.560229 -2.386213 -0.963020 1.014618
    35 4.198554 0.000000 -0.000001 0.000000 0.000000 0.226778
    36 2.796431 0.000000 0.000001 0.000000 0.000000 0.907095
    37 4.943466 0.034090 2.463415 -0.493076 -0.097207 1.210326
    38 5.945773 0.000000 0.000000 0.000000 0.000000 0.854776
    39 2.359761 -0.000001 -0.000001 0.000000 0.000000 0.784995
    40 5.276138 -0.083883 0.333405 0.001716 -0.052298 -0.017541
    41 4.481988 0.000000 0.000001 0.000000 0.000000 1.308322
    42 4.884455 0.000000 0.000000 0.000000 0.000000 1.639763
    43 5.119217 -0.009372 -1.601968 -0.063513 0.254072 -0.254195
    44 4.394951 0.000001 -0.000002 0.000000 0.000000 1.378098
    45 5.252212 0.000000 0.000002 0.000000 0.000000 1.273437
    46 1.931486 0.427439 2.092860 -3.141592 -0.000001 1.273445
    47 2.856726 0.265086 -3.572757 -3.141592 -0.000001 1.273445
    48 3.406512 1.007598 -3.741175 -3.141592 -0.000001 1.273445
  time 12
    0 -1.381084 -2.908247 36.356482 -0.028980 0.170067 -1.761638
    1 0.000000 0.000000 0.000000 -0.000015 -1.738275 -1.570760
    2 -0.000006 0.000007 4.412639 -0.114125 3.391040 -0.590796
    3 18.172446 0.000000 0.000000 0.000000 0.000000 -0.779939
    4 18.172448 0.000000 0.000000 0.047910 0.010501 0.369167
    5 0.000005 -0.000004 -4.412639 0.240076 3.265843 -0.241283
    6 18.172446 0.000000 0.000000 0.000000 0.000000 -0.410739
    7 18.172448 0.000000 0.000000 -0.388589 0.051708 0.329276
    8 1.520046 -0.003309 -0.253912 -0.134193 0.247734 0.085838
    9 4.914082 -0.003328 0.000000 0.086973 0.001417 0.076180
    10 4.723547 -0.003328 0.000000 0.104634 0.048286 0.063765
    11 4.723426 -0.004061 0.000000 0.000037 0.050323 0.038990
    12 5.764155 -0.001278 0.000000 0.000000 0.000000 -0.052333
    13 1.814902 0.000000 0.000000 -0.120355 -0.092744 0.170647
    14 0.000002 0.001271 3.345887 -0.467012 -1.347560 -2.633096
    15 5.196163 -0.000001 0.000000 0.008373 1.286404 0.131307
    16 17.447268 0.000000 0.000000 0.000000 0.000000 -1.010730
    17 14.671302 0.000000 0.000001 -0.737231 -0.438099 -0.366443
    18 -0.855723 0.397333 -0.933874 2.266716 1.090662 1.167082
    19 2.395825 0.000000 0.000000 0.000000 0.000000 0.162511
    20 3.805020 0.000001 0.000000 0.000000 0.000000 0.563762
    21 5.526140 0.002785 -2.136711 -0.244823 0.462606 -0.272566
    22 4.189501 0.000000 0.000000 0.000000 0.000000 0.090484
    23 4.031743 0.000000 0.000000 0.000000 0.000000 0.657633
    24 5.825805 0.000000 0.000000 0.020392 0.120596 0.401114
    25 3.879723 -0.000001 -0.000001 0.000000 0.000000 0.944919
    26 6.859092 0.000001 0.000000 0.000000 0.000000 0.515913
    27 5.783545 0.047045 2.258376 0.059375 -0.177567 -0.051006
    28 4.014331 0.000000 0.000001 0.000000 0.000000 0.846014
    29 5.658608 0.000000 -0.000001 0.000000 0.000000 1.004991
    30 0.000002 0.001288 -3.345887 -0.000014 1.370796 -3.090069
    31 5.196163 0.000000 0.000002 -0.278266 -1.055133 0.877295
    32 17.447265 -0.000001 0.000000 0.000000 0.000000 -0.812012
    33 15.517796 0.000000 0.000000 0.071560 0.056022 0.702513
    34 -0.583662 0.317722 1.560229 -2.370409 -1.020094 1.009759
    35 4.198554 0.000000 -0.000001 0.000000 0.000000 0.189501
    36 2.796431 0.000000 0.000001 0.000000 0.000000 0.869814
    37 4.943466 0.034090 2.463415 -0.497103 -0.071510 1.258098
    38 5.945773 0.000000 0.000000 0.000000 0.000000 0.840904
    39 2.359761 -0.000001 -0.000001 0.000000 0.000000 0.771130
    40 5.276138 -0.083883 0.333405 0.004843 -0.052125 -0.077565
    41 4.481988 0.000000 0.000001 0.000000 0.000000 1.248314
    42 4.884455 0.000000 0.000000 0.000000 0.000000 1.579760
    43 5.119217 -0.009372 -1.601968 -0.082269 0.248731 -0.329526
    44 4.394951 0.000001 -0.000002 0.000000 0.000000 1.304912
    45 5.252212 0.000000 0.000002 0.000000 0.000000 1.200239
    46 1.931486 0.427439 2.092860 -3.141592 -0.000001 1.273445
    47 2.856726 0.265086 -3.572757 -3.141592 -0.000001 1.273445
    48 3.406512 1.007598 -3.741175 -3.141592 -0.000001 1.273445
  time 13
    0 -1.589078 -1.571787 36.725123 -0.015331 0.110764 -1.695483
    1 0.000000 0.000000 0.000000 -0.000015 -1.678118 -1.570760
    2 -0.000006 0.000007 4.412639 -0.146965 3.322460 -0.508384
    3 18.172446 0.000000 0.000000 0.000000 0.000000 -0.663982
    4 18.172448 0.000000 0.000000 0.094352 0.011678 0.267639
    5 0.000005 -0.000004 -4.412639 0.211217 3.215606 -0.220771
    6 18.172446 0.000000 0.000000 0.000000 0.000000 -0.431346
    7 18.172448 0.000000 0.000000 -0.313010 0.024628 0.315150
    8 1.535672 -0.003309 -0.164066 -0.072276 0.162993 0.169906
    9 4.914082 -0.003328 0.000000 0.087095 -0.000747 0.051597
    10 4.723547 -0.003328 0.000000 0.104583 0.028236 0.054809
    11 4.723426 -0.004061 0.000000 0.000012 0.030177 0.026646
    12 5.764155 -0.001278 0.000000 0.000000 0.000000 -0.052333
    13 1.814902 0.000000 0.000000 -0.203595 -0.057182 0.112916
    14 0.000002 0.001271 3.345887 -0.304603 -1.361435 -2.791676
    15 5.196163 -0.000001 0.000000 0.060549 1.256975 0.210542
    16 17.447268 0.000000 0.000000 0.000000 0.000000 -1.082148
    17 14.671302 0.000000 0.000001 -0.408461 -0.344532 -0.507161
    18 -0.855723 0.397333 -0.933874 2.222830 1.060934 1.117164
    19 2.395825 0.000000 0.000000 0.000000 0.000000 0.200525
    20 3.805020 0.000001 0.000000 0.000000 0.000000 0.601779
    21 5.526140 0.002785 -2.136711 -0.235542 0.467133 -0.251894
    22 4.189501 0.000000 0.000000 0.000000 0.000000 0.109530
    23 4.031743 0.000000 0.000000 0.000000 0.000000 0.693587
    24 5.825805 0.000000 0.000000 0.035794 0.116966 0.530877
    25 3.879723 -0.000001 -0.000001 0.000000 0.000000 1.010945
    26 6.859092 0.000001 0.000000 0.000000 0.000000 0.579184
    27 5.783545 0.047045 2.258376 0.058367 -0.177882 -0.045308
    28 4.014331 0.000000 0.000001 0.000000 0.000000 0.923195
    29 5.658608 0.000000 -0.000001 0.000000 0.000000 1.142629
    30 0.000002 0.001288 -3.345887 -0.000014 1.370796 -3.090069
    31 5.196163 0.000000 0.000002 0.257860 -1.151470 0.270252
    32 17.447265 -0.000001 0.000000 0.000000 0.000000 -0.947263
    33 15.517796 0.000000 0.000000 0.082172 0.058287 0.602640
    34 -0.583662 0.317722 1.560229 -2.494447 -1.063156 1.151519
    35 4.198554 0.000000 -0.000001 0.000000 0.000000 0.107161
    36 2.796431 0.000000 0.000001 0.000000 0.000000 0.787459
    37 4.943466 0.034090 2.463415 -0.487491 -0.124008 1.159862
    38 5.945773 0.000000 0.000000 0.000000 0.000000 0.751189
    39 2.359761 -0.000001 -0.000001 0.000000 0.000000 0.681422
    40 5.276138 -0.083883 0.333405 0.015917 -0.049878 -0.294141
    41 4.481988 0.000000 0.000001 0.000000 0.000000 1.032037
    42 4.884455 0.000000 0.000000 0.000000 0.000000 1.363462
    43 5.119217 -0.009372 -1.601968 -0.142527 0.220255 -0.587475
    44 4.394951 0.000001 -0.000002 0.000000 0.000000 1.052465
    45 5.252212 0.000000 0.000002 0.000000 0.000000 0.947775
    46 1.931486 0.427439 2.092860 -3.141592 -0.000001 1.273445
    47 2.856726 0.265086 -3.572757 -3.141592 -0.000001 1.273445
    48 3.406512 1.007598 -3.741175 -3.141592 -0.000001 1.273445
  time 14
    0 -1.759634 -0.438333 37.093764 -0.004487 0.044862 -1.620603
    1 0.000000 0.000000 0.000000 -0.000015 -1.614237 -1.570760
    2 -0.000006 0.000007 4.412639 -0.002680 3.194580 -0.404293
    3 18.172446 0.000000 0.000000 0.000000 0.000000 -0.509629
    4 18.172448 0.000000 0.000000 -0.026333 -0.000808 0.150724
    5 0.000005 -0.000004 -4.412639 0.185139 3.159424 -0.182909
    6 18.172446 0.000000 0.000000 0.000000 0.000000 -0.439834
    7 18.172448 0.000000 0.000000 -0.228508 0.004394 0.298737
    8 1.543485 -0.003309 -0.066406 -0.025912 0.068391 0.245790
    9 4.914082 -0.003328 0.000000 0.087187 -0.000109 0.020479
    10 4.723547 -0.003328 0.000000 0.104583 0.009396 0.042628
    11 4.723426 -0.004061 0.000000 0.000000 0.012500 0.010557
    12 5.764155 -0.001278 0.000000 0.000000 0.000000 -0.052333
    13 1.814902 0.000000 0.000000 -0.113030 -0.019986 0.077591
    14 0.000002 0.001271 3.345887 -0.145645 -1.368723 -2.947378
    15 5.196163 -0.000001 0.000000 0.138385 1.219450 0.307903
    16 17.447268 0.000000 0.000000 0.000000 0.000000 -1.145227
    17 14.671302 0.000000 0.000001 -0.141138 -0.232089 -0.596096
    18 -0.855723 0.397333 -0.933874 2.188372 1.033982 1.077390
    19 2.395825 0.000000 0.000000 0.000000 0.000000 0.234025
    20 3.805020 0.000001 0.000000 0.000000 0.000000 0.635286
    21 5.526140 0.002785 -2.136711 -0.227281 0.470965 -0.233626
    22 4.189501 0.000000 0.000000 0.000000 0.000000 0.126260
    23 4.031743 0.000000 0.000000 0.000000 0.000000 0.725158
    24 5.825805 0.000000 0.000000 0.048829 0.112174 0.644796
    25 3.879723 -0.000001 -0.000001 0.000000 0.000000 1.069058
    26 6.859092 0.000001 0.000000 0.000000 0.000000 0.634896
    27 5.783545 0.047045 2.258376 0.057479 -0.178171 -0.040346
    28 4.014331 0.000000 0.000001 0.000000 0.000000 0.991215
    29 5.658608 0.000000 -0.000001 0.000000 0.000000 1.263671
    30 0.000002 0.001288 -3.345887 -0.000014 1.370796 -3.090069
    31 5.196163 0.000000 0.000002 0.762054 -1.088242 -0.269647
    32 17.447265 -0.000001 0.000000 0.000000 0.000000 -1.112223
    33 15.517796 0.000000 0.000000 0.097372 0.059293 0.506821
    34 -0.583662 0.317722 1.560229 -2.628542 -1.088419 1.300831
    35 4.198554 0.000000 -0.000001 0.000000 0.000000 0.033948
    36 2.796431 0.000000 0.000001 0.000000 0.000000 0.714249
    37 4.943466 0.034090 2.463415 -0.472806 -0.174825 1.061225
    38 5.945773 0.000000 0.000000 0.000000 0.000000 0.668559
    39 2.359761 -0.000001 -0.000001 0.000000 0.000000 0.598809
    40 5.276138 -0.083883 0.333405 0.025349 -0.045805 -0.490684
    41 4.481988 0.000000 0.000001 0.000000 0.000000 0.835642
    42 4.884455 0.000000 0.000000 0.000000 0.000000 1.167086
    43 5.119217 -0.009372 -1.601968 -0.188800 0.182329 -0.817880
    44 4.394951 0.000001 -0.000002 0.000000 0.000000 0.823594
    45 5.252212 0.000000 0.000002 0.000000 0.000000 0.718901
    46 1.931486 0.427439 2.092860 -3.141592 -0.000001 1.273445
    47 2.856726 0.265086 -3.572757 -3.141592 -0.000001 1.273445
    48 3.406512 1.007598 -3.741175 -3.141592 -0.000001 1.273445
  time 15
    0 -1.838672 0.043808 37.346258 0.000000 0.000000 -1.570843
    1 0.000000 0.000000 0.000000 -1.570795 -1.570796 0.000000
    2 -0.000006 0.000007 4.412639 -0.002105 3.141974 -0.309283
    3 18.172446 0.000000 0.000000 0.000000 0.000000 -0.374444
    4 18.172448 0.000000 0.000000 0.002114 0.000254 0.065163
    5 0.000005 -0.000004 -4.412639 0.169703 3.120786 -0.144090
    6 18.172446 0.000000 0.000000 0.000000 0.000000 -0.434390
    7 18.172448 0.000000 0.000000 -0.170970 -0.003883 0.288880
    8 1.543485 -0.003309 0.000002 -0.000005 -0.000001 0.297352
    9 4.914082 -0.003328 0.000000 0.087218 -0.000062 0.000000
    10 4.723547 -0.003328 0.000000 0.104600 -0.003727 0.034703
    11 4.723426 -0.004061 0.000000 0.000000 0.000000 0.000000
    12 5.764155 -0.001278 0.000000 0.000000 0.000000 -0.052333
    13 1.814902 0.000000 0.000000 -0.191765 0.006644 0.050952
    14 0.000002 0.001271 3.345887 -0.000014 -1.370796 -3.090042
    15 5.196163 -0.000001 0.000000 0.194648 1.193155 0.386176
    16 17.447268 0.000000 0.000000 0.000000 0.000000 -1.197971
    17 14.671302 0.000000 0.000001 0.063784 -0.128570 -0.643889
    18 -0.855723 0.397333 -0.933874 2.162674 1.011277 1.047279
    19 2.395825 0.000000 0.000000 0.000000 0.000000 0.261624
    20 3.805020 0.000001 0.000000 0.000000 0.000000 0.662889
    21 5.526140 0.002785 -2.136711 -0.220659 0.473934 -0.219044
    22 4.189501 0.000000 0.000000 0.000000 0.000000 0.139556
    23 4.031743 0.000000 0.000000 0.000000 0.000000 0.750111
    24 5.825805 0.000000 0.000000 0.058804 0.107310 0.735763
    25 3.879723 -0.000001 -0.000001 0.000000 0.000000 1.116419
    26 6.859092 0.000001 0.000000 0.000000 0.000000 0.680333
    27 5.783545 0.047045 2.258376 0.056829 -0.178381 -0.036662
    28 4.014331 0.000000 0.000001 0.000000 0.000000 1.046660
    29 5.658608 0.000000 -0.000001 0.000000 0.000000 1.360666
    30 0.000002 0.001288 -3.345887 -0.000014 1.370796 -3.090069
    31 5.196163 0.000000 0.000002 1.006123 -0.981775 -0.526427
    32 17.447265 -0.000001 0.000000 0.000000 0.000000 -1.229055
    33 15.517796 0.000000 0.000000 0.107984 0.060803 0.439537
    34 -0.583662 0.317722 1.560229 -2.730167 -1.099996 1.413207
    35 4.198554 0.000000 -0.000001 0.000000 0.000000 -0.017440
    36 2.796431 0.000000 0.000001 0.000000 0.000000 0.662889
    37 4.943466 0.034090 2.463415 -0.459344 -0.209623 0.990827
    38 5.945773 0.000000 0.000000 0.000000 0.000000 0.610556
    39 2.359761 -0.000001 -0.000001 0.000000 0.000000 0.540778
    40 5.276138 -0.083883 0.333405 0.031401 -0.041879 -0.628643
    41 4.481988 0.000000 0.000001 0.000000 0.000000 0.697778
    42 4.884455 0.000000 0.000000 0.000000 0.000000 1.029204
    43 5.119217 -0.009372 -1.601968 -0.215262 0.150026 -0.977513
    44 4.394951 0.000001 -0.000002 0.000000 0.000000 0.662895
    45 5.252212 0.000000 0.000002 0.000000 0.000000 0.558222
    46 1.931486 0.427439 2.092860 -3.141592 -0.000001 1.273445
    47 2.856726 0.265086 -3.572757 -3.141592 -0.000001 1.273445
    48 3.406512 1.007598 -3.741175 -3.141592 -0.000001 1.273445
end
