version 1
nodes
  0 "Bip01" -1
  1 "Bip01 Pelvis" 0
  2 "Bip01 L Leg" 1
  3 "Bip01 L Leg1" 2
  4 "Bip01 L Foot" 3
  5 "Bip01 R Leg" 1
  6 "Bip01 R Leg1" 5
  7 "Bip01 R Foot" 6
  8 "Bip01 Spine" 1
  9 "Bip01 Spine1" 8
  10 "Bip01 Spine2" 9
  11 "Bip01 Spine3" 10
  12 "Bip01 Neck" 11
  13 "Bip01 Head" 12
  14 "Bip01 L Arm" 12
  15 "Bip01 L Arm1" 14
  16 "Bip01 L Arm2" 15
  17 "Bip01 L Hand" 16
  18 "Bip01 L Finger0" 17
  19 "Bip01 L Finger01" 18
  20 "Bip01 L Finger02" 19
  21 "Bip01 L Finger1" 17
  22 "Bip01 L Finger11" 21
  23 "Bip01 L Finger12" 22
  24 "Bip01 L Finger2" 17
  25 "Bip01 L Finger21" 24
  26 "Bip01 L Finger22" 25
  27 "Bip01 L Finger3" 17
  28 "Bip01 L Finger31" 27
  29 "Bip01 L Finger32" 28
  30 "Bip01 R Arm" 12
  31 "Bip01 R Arm1" 30
  32 "Bip01 R Arm2" 31
  33 "Bip01 R Hand" 32
  34 "Bip01 R Finger0" 33
  35 "Bip01 R Finger01" 34
  36 "Bip01 R Finger02" 35
  37 "Bip01 R Finger1" 33
  38 "Bip01 R Finger11" 37
  39 "Bip01 R Finger12" 38
  40 "Bip01 R Finger2" 33
  41 "Bip01 R Finger21" 40
  42 "Bip01 R Finger22" 41
  43 "Bip01 R Finger3" 33
  44 "Bip01 R Finger31" 43
  45 "Bip01 R Finger32" 44
  46 "Bone04" 10
  47 "Bone01" 10
  48 "Bone07" 8
end
skeleton
  time 0
    0 0.661423 -0.006943 38.098690 0.000000 0.000000 -1.570843
    1 0.000000 0.000000 0.000000 -1.570795 -1.570796 0.000000
    2 -0.000006 0.000007 4.447796 0.000001 3.141591 -0.309283
    3 18.328701 0.000000 0.000000 0.000000 0.000000 -0.374444
    4 18.328703 0.000000 0.000000 0.000000 0.000000 0.065163
    5 0.000005 -0.000004 -4.447796 0.174401 3.124430 -0.114472
    6 18.328701 0.000000 0.000000 0.000000 0.000000 -0.374444
    7 18.328703 0.000000 0.000000 -0.175255 -0.002989 0.258747
    8 1.559110 -0.003309 0.000002 -0.000005 -0.000001 0.297352
    9 4.953145 -0.003328 0.000000 0.087218 -0.000062 0.000000
    10 4.762611 -0.003328 0.000000 0.104600 -0.003727 0.034703
    11 4.762490 -0.004061 0.000000 0.000000 0.000000 0.000000
    12 5.811031 -0.001278 0.000000 0.000000 0.000000 -0.052333
    13 1.830527 0.000000 0.000000 -0.191765 0.006644 0.050952
    14 0.000002 0.001271 3.377138 -0.000014 -1.370796 -3.090042
    15 5.239133 -0.000001 0.000000 0.194648 1.193155 0.386176
    16 17.595710 0.000000 0.000000 0.000000 0.000000 -1.197971
    17 14.796306 0.000000 0.000001 0.063784 -0.128570 -0.643889
    18 -0.863536 0.401239 -0.941687 2.162674 1.011277 1.047279
    19 2.419263 0.000000 0.000000 0.000000 0.000000 0.261624
    20 3.836271 0.000001 0.000000 0.000000 0.000000 0.662889
    21 5.573017 0.002785 -2.152337 -0.220659 0.473934 -0.219044
    22 4.224659 0.000000 0.000000 0.000000 0.000000 0.139556
    23 4.062994 0.000000 0.000000 0.000000 0.000000 0.750111
    24 5.872681 0.000000 0.000000 0.058804 0.107310 0.735763
    25 3.914880 -0.000001 -0.000001 0.000000 0.000000 1.116419
    26 6.917688 0.000001 0.000000 0.000000 0.000000 0.680333
    27 5.834328 0.047045 2.277908 0.056829 -0.178381 -0.036662
    28 4.049488 0.000000 0.000001 0.000000 0.000000 1.046660
    29 5.705484 0.000000 -0.000001 0.000000 0.000000 1.360666
    30 0.000002 0.001288 -3.377138 -0.000014 1.370796 -3.090069
    31 5.239133 0.000000 0.000002 1.006123 -0.981775 -0.526427
    32 17.595707 -0.000001 0.000000 0.000000 0.000000 -1.229055
    33 15.650612 0.000000 0.000000 0.107984 0.060803 0.439537
    34 -0.587569 0.321629 1.571948 -2.730167 -1.099996 1.413207
    35 4.233711 0.000000 -0.000001 0.000000 0.000000 -0.017440
    36 2.819870 0.000000 0.000001 0.000000 0.000000 0.662889
    37 4.982530 0.034090 2.486853 -0.459344 -0.209623 0.990827
    38 5.996555 0.000000 0.000000 0.000000 0.000000 0.610556
    39 2.379293 -0.000001 -0.000001 0.000000 0.000000 0.540778
    40 5.323015 -0.083883 0.337312 0.031401 -0.041879 -0.628643
    41 4.521051 0.000000 0.000001 0.000000 0.000000 0.697778
    42 4.923519 0.000000 0.000000 0.000000 0.000000 1.029204
    43 5.162187 -0.009372 -1.613688 -0.215262 0.150026 -0.977513
    44 4.434014 0.000001 -0.000002 0.000000 0.000000 0.662895
    45 5.295182 0.000000 0.000002 0.000000 0.000000 0.558222
    46 1.947111 0.431346 2.112391 -3.141592 -0.000001 1.273445
    47 2.880164 0.268992 -3.604008 -3.141592 -0.000001 1.273445
    48 3.437763 1.019317 -3.772426 -3.141592 -0.000001 1.273445
  time 1
    0 0.661423 -0.006943 38.098690 0.000000 0.000000 -1.551476
    1 0.000000 0.000000 0.000000 -1.570795 -1.570796 0.000000
    2 -0.000006 0.000007 4.447796 -0.000382 3.139582 -0.308863
    3 18.328701 0.000000 0.000000 0.000000 0.000000 -0.370152
    4 18.328703 0.000000 0.000000 0.019111 0.002100 0.061287
    5 0.000005 -0.000004 -4.447796 0.167593 3.117047 -0.123769
    6 18.328701 0.000000 0.000000 0.000000 0.000000 -0.405939
    7 18.328703 0.000000 0.000000 -0.169424 -0.000766 0.254936
    8 1.559110 -0.003309 0.000002 0.011573 -0.003541 0.297352
    9 4.953145 -0.003328 0.000000 0.093802 -0.000062 0.000000
    10 4.762611 -0.003328 0.000000 0.110135 -0.003919 0.034674
    11 4.762490 -0.004061 0.000000 0.000000 0.000000 0.000000
    12 5.811031 -0.001278 0.000000 0.000000 0.000000 -0.052333
    13 1.830527 0.000000 0.000000 -0.143417 0.010919 0.050003
    14 0.000002 0.001271 3.377138 -0.000014 -1.370796 -3.090042
    15 5.239133 -0.000001 0.000000 0.237891 1.180531 0.442180
    16 17.595710 0.000000 0.000000 0.000000 0.000000 -1.169175
    17 14.796306 0.000000 0.000001 0.063784 -0.128570 -0.643889
    18 -0.863536 0.401239 -0.941687 2.162674 1.011277 1.047279
    19 2.419263 0.000000 0.000000 0.000000 0.000000 0.261624
    20 3.836271 0.000001 0.000000 0.000000 0.000000 0.662889
    21 5.573017 0.002785 -2.152337 -0.220659 0.473934 -0.219044
    22 4.224659 0.000000 0.000000 0.000000 0.000000 0.139556
    23 4.062994 0.000000 0.000000 0.000000 0.000000 0.750111
    24 5.872681 0.000000 0.000000 0.053759 0.109899 0.689242
    25 3.914880 -0.000001 -0.000001 0.000000 0.000000 1.116419
    26 6.917688 0.000001 0.000000 0.000000 0.000000 0.680333
    27 5.834328 0.047045 2.277908 0.056829 -0.178381 -0.036662
    28 4.049488 0.000000 0.000001 0.000000 0.000000 1.046660
    29 5.705484 0.000000 -0.000001 0.000000 0.000000 1.360666
    30 0.000002 0.001288 -3.377138 -0.000014 1.370796 -3.090069
    31 5.239133 0.000000 0.000002 0.964324 -0.951044 -0.502686
    32 17.595707 -0.000001 0.000000 0.000000 0.000000 -1.237076
    33 15.650612 0.000000 0.000000 0.107506 0.061726 0.430415
    34 -0.587569 0.321629 1.571948 -2.730167 -1.099996 1.413207
    35 4.233711 0.000000 -0.000001 0.000000 0.000000 -0.017440
    36 2.819870 0.000000 0.000001 0.000000 0.000000 0.662889
    37 4.982530 0.034090 2.486853 -0.447129 -0.235872 0.935551
    38 5.996555 0.000000 0.000000 0.000000 0.000000 0.610556
    39 2.379293 -0.000001 -0.000001 0.000000 0.000000 0.540778
    40 5.323015 -0.083883 0.337312 0.031401 -0.041879 -0.628643
    41 4.521051 0.000000 0.000001 0.000000 0.000000 0.697778
    42 4.923519 0.000000 0.000000 0.000000 0.000000 1.029204
    43 5.162187 -0.009372 -1.613688 -0.215262 0.150026 -0.977513
    44 4.434014 0.000001 -0.000002 0.000000 0.000000 0.662895
    45 5.295182 0.000000 0.000002 0.000000 0.000000 0.558222
    46 1.947111 0.431346 2.112391 -3.141592 -0.000001 1.273445
    47 2.880164 0.268992 -3.604008 -3.141592 -0.000001 1.273445
    48 3.437763 1.019317 -3.772426 -3.141592 -0.000001 1.273445
  time 2
    0 0.661423 -0.006943 38.098690 0.000000 0.000000 -1.526452
    1 0.000000 0.000000 0.000000 -1.570795 -1.570796 0.000000
    2 -0.000006 0.000007 4.447796 -0.000861 3.136809 -0.308286
    3 18.328701 0.000000 0.000000 0.000000 0.000000 -0.364565
    4 18.328703 0.000000 0.000000 0.043800 0.004847 0.056254
    5 0.000005 -0.000004 -4.447796 0.158677 3.107556 -0.135942
    6 18.328701 0.000000 0.000000 0.000000 0.000000 -0.446625
    7 18.328703 0.000000 0.000000 -0.162304 0.002580 0.249906
    8 1.559110 -0.003309 0.000002 0.026528 -0.008134 0.297295
    9 4.953145 -0.003328 0.000000 0.102285 -0.000078 0.000000
    10 4.762611 -0.003328 0.000000 0.117275 -0.004171 0.034645
    11 4.762490 -0.004061 0.000000 0.000000 0.000000 0.000000
    12 5.811031 -0.001278 0.000000 0.000000 0.000000 -0.052333
    13 1.830527 0.000000 0.000000 -0.080635 0.016392 0.048617
    14 0.000002 0.001271 3.377138 -0.000014 -1.370796 -3.090042
    15 5.239133 -0.000001 0.000000 0.285410 1.163205 0.506249
    16 17.595710 0.000000 0.000000 0.000000 0.000000 -1.129831
    17 14.796306 0.000000 0.000001 0.063784 -0.128570 -0.643889
    18 -0.863536 0.401239 -0.941687 2.162674 1.011277 1.047279
    19 2.419263 0.000000 0.000000 0.000000 0.000000 0.261624
    20 3.836271 0.000001 0.000000 0.000000 0.000000 0.662889
    21 5.573017 0.002785 -2.152337 -0.220659 0.473934 -0.219044
    22 4.224659 0.000000 0.000000 0.000000 0.000000 0.139556
    23 4.062994 0.000000 0.000000 0.000000 0.000000 0.750111
    24 5.872681 0.000000 0.000000 0.047225 0.112852 0.630451
    25 3.914880 -0.000001 -0.000001 0.000000 0.000000 1.116419
    26 6.917688 0.000001 0.000000 0.000000 0.000000 0.680333
    27 5.834328 0.047045 2.277908 0.056829 -0.178381 -0.036662
    28 4.049488 0.000000 0.000001 0.000000 0.000000 1.046660
    29 5.705484 0.000000 -0.000001 0.000000 0.000000 1.360666
    30 0.000002 0.001288 -3.377138 -0.000014 1.370796 -3.090069
    31 5.239133 0.000000 0.000002 0.911312 -0.910932 -0.473231
    32 17.595707 -0.000001 0.000000 0.000000 0.000000 -1.247103
    33 15.650612 0.000000 0.000000 0.106741 0.062984 0.418876
    34 -0.587569 0.321629 1.571948 -2.730167 -1.099996 1.413207
    35 4.233711 0.000000 -0.000001 0.000000 0.000000 -0.017440
    36 2.819870 0.000000 0.000001 0.000000 0.000000 0.662889
    37 4.982530 0.034090 2.486853 -0.429484 -0.268004 0.864810
    38 5.996555 0.000000 0.000000 0.000000 0.000000 0.610556
    39 2.379293 -0.000001 -0.000001 0.000000 0.000000 0.540778
    40 5.323015 -0.083883 0.337312 0.031401 -0.041879 -0.628643
    41 4.521051 0.000000 0.000001 0.000000 0.000000 0.697778
    42 4.923519 0.000000 0.000000 0.000000 0.000000 1.029204
    43 5.162187 -0.009372 -1.613688 -0.215262 0.150026 -0.977513
    44 4.434014 0.000001 -0.000002 0.000000 0.000000 0.662895
    45 5.295182 0.000000 0.000002 0.000000 0.000000 0.558222
    46 1.947111 0.431346 2.112391 -3.141592 -0.000001 1.273445
    47 2.880164 0.268992 -3.604008 -3.141592 -0.000001 1.273445
    48 3.437763 1.019317 -3.772426 -3.141592 -0.000001 1.273445
  time 3
    0 0.661423 -0.006943 38.098690 0.000000 0.000000 -1.496635
    1 0.000000 0.000000 0.000000 -1.570795 -1.570796 0.000000
    2 -0.000006 0.000007 4.447796 -0.001435 3.133557 -0.307603
    3 18.328701 0.000000 0.000000 0.000000 0.000000 -0.357980
    4 18.328703 0.000000 0.000000 0.073186 0.008101 0.050353
    5 0.000005 -0.000004 -4.447796 0.147939 3.096435 -0.150416
    6 18.328701 0.000000 0.000000 0.000000 0.000000 -0.495039
    7 18.328703 0.000000 0.000000 -0.154540 0.007281 0.243961
    8 1.559110 -0.003309 0.000002 0.044358 -0.013591 0.297066
    9 4.953145 -0.003328 0.000000 0.112391 -0.000078 0.000000
    10 4.762611 -0.003328 0.000000 0.125800 -0.004470 0.034617
    11 4.762490 -0.004061 0.000000 0.000000 0.000000 0.000000
    12 5.811031 -0.001278 0.000000 0.000000 0.000000 -0.052333
    13 1.830527 0.000000 0.000000 -0.008628 0.022818 0.046719
    14 0.000002 0.001271 3.377138 -0.000014 -1.370796 -3.090042
    15 5.239133 -0.000001 0.000000 0.331884 1.141090 0.571427
    16 17.595710 0.000000 0.000000 0.000000 0.000000 -1.083431
    17 14.796306 0.000000 0.000001 0.063784 -0.128570 -0.643889
    18 -0.863536 0.401239 -0.941687 2.162674 1.011277 1.047279
    19 2.419263 0.000000 0.000000 0.000000 0.000000 0.261624
    20 3.836271 0.000001 0.000000 0.000000 0.000000 0.662889
    21 5.573017 0.002785 -2.152337 -0.220659 0.473934 -0.219044
    22 4.224659 0.000000 0.000000 0.000000 0.000000 0.139556
    23 4.062994 0.000000 0.000000 0.000000 0.000000 0.750111
    24 5.872681 0.000000 0.000000 0.039483 0.115780 0.562612
    25 3.914880 -0.000001 -0.000001 0.000000 0.000000 1.116419
    26 6.917688 0.000001 0.000000 0.000000 0.000000 0.680333
    27 5.834328 0.047045 2.277908 0.056829 -0.178381 -0.036662
    28 4.049488 0.000000 0.000001 0.000000 0.000000 1.046660
    29 5.705484 0.000000 -0.000001 0.000000 0.000000 1.360666
    30 0.000002 0.001288 -3.377138 -0.000014 1.370796 -3.090069
    31 5.239133 0.000000 0.000002 0.852919 -0.864225 -0.441700
    32 17.595707 -0.000001 0.000000 0.000000 0.000000 -1.258615
    33 15.650612 0.000000 0.000000 0.105881 0.064409 0.405544
    34 -0.587569 0.321629 1.571948 -2.730167 -1.099996 1.413207
    35 4.233711 0.000000 -0.000001 0.000000 0.000000 -0.017440
    36 2.819870 0.000000 0.000001 0.000000 0.000000 0.662889
    37 4.982530 0.034090 2.486853 -0.406055 -0.303427 0.781753
    38 5.996555 0.000000 0.000000 0.000000 0.000000 0.610556
    39 2.379293 -0.000001 -0.000001 0.000000 0.000000 0.540778
    40 5.323015 -0.083883 0.337312 0.031401 -0.041879 -0.628643
    41 4.521051 0.000000 0.000001 0.000000 0.000000 0.697778
    42 4.923519 0.000000 0.000000 0.000000 0.000000 1.029204
    43 5.162187 -0.009372 -1.613688 -0.215262 0.150026 -0.977513
    44 4.434014 0.000001 -0.000002 0.000000 0.000000 0.662895
    45 5.295182 0.000000 0.000002 0.000000 0.000000 0.558222
    46 1.947111 0.431346 2.112391 -3.141592 -0.000001 1.273445
    47 2.880164 0.268992 -3.604008 -3.141592 -0.000001 1.273445
    48 3.437763 1.019317 -3.772426 -3.141592 -0.000001 1.273445
  time 4
    0 0.661423 -0.006943 38.098690 0.000000 0.000000 -1.462886
    1 0.000000 0.000000 0.000000 -1.570795 -1.570796 0.000000
    2 -0.000006 0.000007 4.447796 -0.002105 3.129922 -0.306816
    3 18.328701 0.000000 0.000000 0.000000 0.000000 -0.350453
    4 18.328703 0.000000 0.000000 0.106447 0.011794 0.043585
    5 0.000005 -0.000004 -4.447796 0.135571 3.083971 -0.166902
    6 18.328701 0.000000 0.000000 0.000000 0.000000 -0.549833
    7 18.328703 0.000000 0.000000 -0.146711 0.013463 0.237253
    8 1.559110 -0.003309 0.000002 0.064513 -0.019743 0.296722
    9 4.953145 -0.003328 0.000000 0.123844 -0.000093 0.000000
    10 4.762611 -0.003328 0.000000 0.135417 -0.004818 0.034574
    11 4.762490 -0.004061 0.000000 0.000000 0.000000 0.000000
    12 5.811031 -0.001278 0.000000 0.000000 0.000000 -0.052333
    13 1.830527 0.000000 0.000000 0.070054 0.029952 0.044092
    14 0.000002 0.001271 3.377138 -0.000014 -1.370796 -3.090042
    15 5.239133 -0.000001 0.000000 0.373986 1.114447 0.633868
    16 17.595710 0.000000 0.000000 0.000000 0.000000 -1.032184
    17 14.796306 0.000000 0.000001 0.063784 -0.128570 -0.643889
    18 -0.863536 0.401239 -0.941687 2.162674 1.011277 1.047279
    19 2.419263 0.000000 0.000000 0.000000 0.000000 0.261624
    20 3.836271 0.000001 0.000000 0.000000 0.000000 0.662889
    21 5.573017 0.002785 -2.152337 -0.220659 0.473934 -0.219044
    22 4.224659 0.000000 0.000000 0.000000 0.000000 0.139556
    23 4.062994 0.000000 0.000000 0.000000 0.000000 0.750111
    24 5.872681 0.000000 0.000000 0.030699 0.118394 0.487490
    25 3.914880 -0.000001 -0.000001 0.000000 0.000000 1.116419
    26 6.917688 0.000001 0.000000 0.000000 0.000000 0.680333
    27 5.834328 0.047045 2.277908 0.056829 -0.178381 -0.036662
    28 4.049488 0.000000 0.000001 0.000000 0.000000 1.046660
    29 5.705484 0.000000 -0.000001 0.000000 0.000000 1.360666
    30 0.000002 0.001288 -3.377138 -0.000014 1.370796 -3.090069
    31 5.239133 0.000000 0.000002 0.792103 -0.812691 -0.410390
    32 17.595707 -0.000001 0.000000 0.000000 0.000000 -1.271390
    33 15.650612 0.000000 0.000000 0.104925 0.066003 0.390731
    34 -0.587569 0.321629 1.571948 -2.730167 -1.099996 1.413207
    35 4.233711 0.000000 -0.000001 0.000000 0.000000 -0.017440
    36 2.819870 0.000000 0.000001 0.000000 0.000000 0.662889
    37 4.982530 0.034090 2.486853 -0.376239 -0.340291 0.687583
    38 5.996555 0.000000 0.000000 0.000000 0.000000 0.610556
    39 2.379293 -0.000001 -0.000001 0.000000 0.000000 0.540778
    40 5.323015 -0.083883 0.337312 0.031401 -0.041879 -0.628643
    41 4.521051 0.000000 0.000001 0.000000 0.000000 0.697778
    42 4.923519 0.000000 0.000000 0.000000 0.000000 1.029204
    43 5.162187 -0.009372 -1.613688 -0.215262 0.150026 -0.977513
    44 4.434014 0.000001 -0.000002 0.000000 0.000000 0.662895
    45 5.295182 0.000000 0.000002 0.000000 0.000000 0.558222
    46 1.947111 0.431346 2.112391 -3.141592 -0.000001 1.273445
    47 2.880164 0.268992 -3.604008 -3.141592 -0.000001 1.273445
    48 3.437763 1.019317 -3.772426 -3.141592 -0.000001 1.273445
  time 5
    0 0.661423 -0.006943 38.098690 0.000000 0.000000 -1.426165
    1 0.000000 0.000000 0.000000 -1.570795 -1.570796 0.000000
    2 -0.000006 0.000007 4.447796 -0.002776 3.126001 -0.305976
    3 18.328701 0.000000 0.000000 0.000000 0.000000 -0.342280
    4 18.328703 0.000000 0.000000 0.142703 0.015810 0.036238
    5 0.000005 -0.000004 -4.447796 0.121860 3.070644 -0.185210
    6 18.328701 0.000000 0.000000 0.000000 0.000000 -0.609603
    7 18.328703 0.000000 0.000000 -0.139431 0.021102 0.229885
    8 1.559110 -0.003309 0.000002 0.086495 -0.026464 0.296207
    9 4.953145 -0.003328 0.000000 0.136308 -0.000093 0.000000
    10 4.762611 -0.003328 0.000000 0.145924 -0.005189 0.034516
    11 4.762490 -0.004061 0.000000 0.000000 0.000000 0.000000
    12 5.811031 -0.001278 0.000000 0.000000 0.000000 -0.052333
    13 1.830527 0.000000 0.000000 0.154324 0.037577 0.040807
    14 0.000002 0.001271 3.377138 -0.000014 -1.370796 -3.090042
    15 5.239133 -0.000001 0.000000 0.410005 1.083626 0.691796
    16 17.595710 0.000000 0.000000 0.000000 0.000000 -0.977801
    17 14.796306 0.000000 0.000001 0.063784 -0.128570 -0.643889
    18 -0.863536 0.401239 -0.941687 2.162674 1.011277 1.047279
    19 2.419263 0.000000 0.000000 0.000000 0.000000 0.261624
    20 3.836271 0.000001 0.000000 0.000000 0.000000 0.662889
    21 5.573017 0.002785 -2.152337 -0.220659 0.473934 -0.219044
    22 4.224659 0.000000 0.000000 0.000000 0.000000 0.139556
    23 4.062994 0.000000 0.000000 0.000000 0.000000 0.750111
    24 5.872681 0.000000 0.000000 0.020971 0.120499 0.405925
    25 3.914880 -0.000001 -0.000001 0.000000 0.000000 1.116419
    26 6.917688 0.000001 0.000000 0.000000 0.000000 0.680333
    27 5.834328 0.047045 2.277908 0.056829 -0.178381 -0.036662
    28 4.049488 0.000000 0.000001 0.000000 0.000000 1.046660
    29 5.705484 0.000000 -0.000001 0.000000 0.000000 1.360666
    30 0.000002 0.001288 -3.377138 -0.000014 1.370796 -3.090069
    31 5.239133 0.000000 0.000002 0.730301 -0.757485 -0.380936
    32 17.595707 -0.000001 0.000000 0.000000 0.000000 -1.285279
    33 15.650612 0.000000 0.000000 0.103873 0.067680 0.374748
    34 -0.587569 0.321629 1.571948 -2.730167 -1.099996 1.413207
    35 4.233711 0.000000 -0.000001 0.000000 0.000000 -0.017440
    36 2.819870 0.000000 0.000001 0.000000 0.000000 0.662889
    37 4.982530 0.034090 2.486853 -0.339415 -0.377034 0.582760
    38 5.996555 0.000000 0.000000 0.000000 0.000000 0.610556
    39 2.379293 -0.000001 -0.000001 0.000000 0.000000 0.540778
    40 5.323015 -0.083883 0.337312 0.031401 -0.041879 -0.628643
    41 4.521051 0.000000 0.000001 0.000000 0.000000 0.697778
    42 4.923519 0.000000 0.000000 0.000000 0.000000 1.029204
    43 5.162187 -0.009372 -1.613688 -0.215262 0.150026 -0.977513
    44 4.434014 0.000001 -0.000002 0.000000 0.000000 0.662895
    45 5.295182 0.000000 0.000002 0.000000 0.000000 0.558222
    46 1.947111 0.431346 2.112391 -3.141592 -0.000001 1.273445
    47 2.880164 0.268992 -3.604008 -3.141592 -0.000001 1.273445
    48 3.437763 1.019317 -3.772426 -3.141592 -0.000001 1.273445
  time 6
    0 0.661423 -0.006943 38.098690 0.000000 0.000000 -1.387143
    1 0.000000 0.000000 0.000000 -1.570795 -1.570796 0.000000
    2 -0.000006 0.000007 4.447796 -0.003542 3.121696 -0.305136
    3 18.328701 0.000000 0.000000 0.000000 0.000000 -0.333636
    4 18.328703 0.000000 0.000000 0.181102 0.020056 0.028486
    5 0.000005 -0.000004 -4.447796 0.107095 3.056839 -0.204764
    6 18.328701 0.000000 0.000000 0.000000 0.000000 -0.672828
    7 18.328703 0.000000 0.000000 -0.133213 0.030095 0.222111
    8 1.559110 -0.003309 0.000002 0.109776 -0.033544 0.295521
    9 4.953145 -0.003328 0.000000 0.149507 -0.000109 0.000000
    10 4.762611 -0.003328 0.000000 0.157028 -0.005573 0.034459
    11 4.762490 -0.004061 0.000000 0.000000 0.000000 0.000000
    12 5.811031 -0.001278 0.000000 0.000000 0.000000 -0.052333
    13 1.830527 0.000000 0.000000 0.243098 0.045446 0.036720
    14 0.000002 0.001271 3.377138 -0.000014 -1.370796 -3.090042
    15 5.239133 -0.000001 0.000000 0.438897 1.048799 0.744768
    16 17.595710 0.000000 0.000000 0.000000 0.000000 -0.921849
    17 14.796306 0.000000 0.000001 0.063784 -0.128570 -0.643889
    18 -0.863536 0.401239 -0.941687 2.162674 1.011277 1.047279
    19 2.419263 0.000000 0.000000 0.000000 0.000000 0.261624
    20 3.836271 0.000001 0.000000 0.000000 0.000000 0.662889
    21 5.573017 0.002785 -2.152337 -0.220659 0.473934 -0.219044
    22 4.224659 0.000000 0.000000 0.000000 0.000000 0.139556
    23 4.062994 0.000000 0.000000 0.000000 0.000000 0.750111
    24 5.872681 0.000000 0.000000 0.010417 0.121854 0.318621
    25 3.914880 -0.000001 -0.000001 0.000000 0.000000 1.116419
    26 6.917688 0.000001 0.000000 0.000000 0.000000 0.680333
    27 5.834328 0.047045 2.277908 0.056829 -0.178381 -0.036662
    28 4.049488 0.000000 0.000001 0.000000 0.000000 1.046660
    29 5.705484 0.000000 -0.000001 0.000000 0.000000 1.360666
    30 0.000002 0.001288 -3.377138 -0.000014 1.370796 -3.090069
    31 5.239133 0.000000 0.000002 0.668320 -0.699764 -0.354449
    32 17.595707 -0.000001 0.000000 0.000000 0.000000 -1.300282
    33 15.650612 0.000000 0.000000 0.102726 0.069442 0.357596
    34 -0.587569 0.321629 1.571948 -2.730167 -1.099996 1.413207
    35 4.233711 0.000000 -0.000001 0.000000 0.000000 -0.017440
    36 2.819870 0.000000 0.000001 0.000000 0.000000 0.662889
    37 4.982530 0.034090 2.486853 -0.295003 -0.412049 0.467339
    38 5.996555 0.000000 0.000000 0.000000 0.000000 0.610556
    39 2.379293 -0.000001 -0.000001 0.000000 0.000000 0.540778
    40 5.323015 -0.083883 0.337312 0.031401 -0.041879 -0.628643
    41 4.521051 0.000000 0.000001 0.000000 0.000000 0.697778
    42 4.923519 0.000000 0.000000 0.000000 0.000000 1.029204
    43 5.162187 -0.009372 -1.613688 -0.215262 0.150026 -0.977513
    44 4.434014 0.000001 -0.000002 0.000000 0.000000 0.662895
    45 5.295182 0.000000 0.000002 0.000000 0.000000 0.558222
    46 1.947111 0.431346 2.112391 -3.141592 -0.000001 1.273445
    47 2.880164 0.268992 -3.604008 -3.141592 -0.000001 1.273445
    48 3.437763 1.019317 -3.772426 -3.141592 -0.000001 1.273445
  time 7
    0 0.661423 -0.006943 38.098690 0.000000 0.000000 -1.346971
    1 0.000000 0.000000 0.000000 -1.570795 -1.570796 0.000000
    2 -0.000006 0.000007 4.447796 -0.004307 3.117392 -0.304191
    3 18.328701 0.000000 0.000000 0.000000 0.000000 -0.324698
    4 18.328703 0.000000 0.000000 0.220792 0.024464 0.020445
    5 0.000005 -0.000004 -4.447796 0.091467 3.042841 -0.225276
    6 18.328701 0.000000 0.000000 0.000000 0.000000 -0.738218
    7 18.328703 0.000000 0.000000 -0.128477 0.040160 0.214032
    8 1.559110 -0.003309 0.000002 0.133858 -0.040876 0.294662
    9 4.953145 -0.003328 0.000000 0.163166 -0.000125 0.000000
    10 4.762611 -0.003328 0.000000 0.168524 -0.005980 0.034387
    11 4.762490 -0.004061 0.000000 0.000000 0.000000 0.000000
    12 5.811031 -0.001278 0.000000 0.000000 0.000000 -0.052333
    13 1.830527 0.000000 0.000000 0.334369 0.053288 0.032049
    14 0.000002 0.001271 3.377138 -0.000014 -1.370796 -3.090042
    15 5.239133 -0.000001 0.000000 0.460566 1.010751 0.792264
    16 17.595710 0.000000 0.000000 0.000000 0.000000 -0.866825
    17 14.796306 0.000000 0.000001 0.063784 -0.128570 -0.643889
    18 -0.863536 0.401239 -0.941687 2.162674 1.011277 1.047279
    19 2.419263 0.000000 0.000000 0.000000 0.000000 0.261624
    20 3.836271 0.000001 0.000000 0.000000 0.000000 0.662889
    21 5.573017 0.002785 -2.152337 -0.220659 0.473934 -0.219044
    22 4.224659 0.000000 0.000000 0.000000 0.000000 0.139556
    23 4.062994 0.000000 0.000000 0.000000 0.000000 0.750111
    24 5.872681 0.000000 0.000000 -0.000782 0.122290 0.226683
    25 3.914880 -0.000001 -0.000001 0.000000 0.000000 1.116419
    26 6.917688 0.000001 0.000000 0.000000 0.000000 0.680333
    27 5.834328 0.047045 2.277908 0.056829 -0.178381 -0.036662
    28 4.049488 0.000000 0.000001 0.000000 0.000000 1.046660
    29 5.705484 0.000000 -0.000001 0.000000 0.000000 1.360666
    30 0.000002 0.001288 -3.377138 -0.000014 1.370796 -3.090069
    31 5.239133 0.000000 0.000002 0.607594 -0.641363 -0.332043
    32 17.595707 -0.000001 0.000000 0.000000 0.000000 -1.316177
    33 15.650612 0.000000 0.000000 0.101387 0.071371 0.339508
    34 -0.587569 0.321629 1.571948 -2.730167 -1.099996 1.413207
    35 4.233711 0.000000 -0.000001 0.000000 0.000000 -0.017440
    36 2.819870 0.000000 0.000001 0.000000 0.000000 0.662889
    37 4.982530 0.034090 2.486853 -0.243027 -0.443485 0.342181
    38 5.996555 0.000000 0.000000 0.000000 0.000000 0.610556
    39 2.379293 -0.000001 -0.000001 0.000000 0.000000 0.540778
    40 5.323015 -0.083883 0.337312 0.031401 -0.041879 -0.628643
    41 4.521051 0.000000 0.000001 0.000000 0.000000 0.697778
    42 4.923519 0.000000 0.000000 0.000000 0.000000 1.029204
    43 5.162187 -0.009372 -1.613688 -0.215262 0.150026 -0.977513
    44 4.434014 0.000001 -0.000002 0.000000 0.000000 0.662895
    45 5.295182 0.000000 0.000002 0.000000 0.000000 0.558222
    46 1.947111 0.431346 2.112391 -3.141592 -0.000001 1.273445
    47 2.880164 0.268992 -3.604008 -3.141592 -0.000001 1.273445
    48 3.437763 1.019317 -3.772426 -3.141592 -0.000001 1.273445
  time 8
    0 0.661423 -0.006943 38.098690 0.000000 0.000000 -1.306319
    1 0.000000 0.000000 0.000000 -1.570795 -1.570796 0.000000
    2 -0.000006 0.000007 4.447796 -0.005169 3.112992 -0.303299
    3 18.328701 0.000000 0.000000 0.000000 0.000000 -0.315643
    4 18.328703 0.000000 0.000000 0.260923 0.028896 0.012346
    5 0.000005 -0.000004 -4.447796 0.075456 3.029035 -0.246171
    6 18.328701 0.000000 0.000000 0.000000 0.000000 -0.804311
    7 18.328703 0.000000 0.000000 -0.125513 0.051018 0.205800
    8 1.559110 -0.003309 0.000002 0.158190 -0.048229 0.293575
    9 4.953145 -0.003328 0.000000 0.176977 -0.000125 0.000000
    10 4.762611 -0.003328 0.000000 0.180141 -0.006388 0.034316
    11 4.762490 -0.004061 0.000000 0.000000 0.000000 0.000000
    12 5.811031 -0.001278 0.000000 0.000000 0.000000 -0.052333
    13 1.830527 0.000000 0.000000 0.423631 0.060912 0.026648
    14 0.000002 0.001271 3.377138 -0.000014 -1.370796 -3.090042
    15 5.239133 -0.000001 0.000000 0.475487 0.970091 0.833324
    16 17.595710 0.000000 0.000000 0.000000 0.000000 -0.816718
    17 14.796306 0.000000 0.000001 0.063784 -0.128570 -0.643889
    18 -0.863536 0.401239 -0.941687 2.162674 1.011277 1.047279
    19 2.419263 0.000000 0.000000 0.000000 0.000000 0.261624
    20 3.836271 0.000001 0.000000 0.000000 0.000000 0.662889
    21 5.573017 0.002785 -2.152337 -0.220659 0.473934 -0.219044
    22 4.224659 0.000000 0.000000 0.000000 0.000000 0.139556
    23 4.062994 0.000000 0.000000 0.000000 0.000000 0.750111
    24 5.872681 0.000000 0.000000 -0.012279 0.121685 0.132273
    25 3.914880 -0.000001 -0.000001 0.000000 0.000000 1.116419
    26 6.917688 0.000001 0.000000 0.000000 0.000000 0.680333
    27 5.834328 0.047045 2.277908 0.056829 -0.178381 -0.036662
    28 4.049488 0.000000 0.000001 0.000000 0.000000 1.046660
    29 5.705484 0.000000 -0.000001 0.000000 0.000000 1.360666
    30 0.000002 0.001288 -3.377138 -0.000014 1.370796 -3.090069
    31 5.239133 0.000000 0.000002 0.550815 -0.585002 -0.314385
    32 17.595707 -0.000001 0.000000 0.000000 0.000000 -1.332740
    33 15.650612 0.000000 0.000000 0.100049 0.073216 0.321030
    34 -0.587569 0.321629 1.571948 -2.730167 -1.099996 1.413207
    35 4.233711 0.000000 -0.000001 0.000000 0.000000 -0.017440
    36 2.819870 0.000000 0.000001 0.000000 0.000000 0.662889
    37 4.982530 0.034090 2.486853 -0.184820 -0.469229 0.210321
    38 5.996555 0.000000 0.000000 0.000000 0.000000 0.610556
    39 2.379293 -0.000001 -0.000001 0.000000 0.000000 0.540778
    40 5.323015 -0.083883 0.337312 0.031401 -0.041879 -0.628643
    41 4.521051 0.000000 0.000001 0.000000 0.000000 0.697778
    42 4.923519 0.000000 0.000000 0.000000 0.000000 1.029204
    43 5.162187 -0.009372 -1.613688 -0.215262 0.150026 -0.977513
    44 4.434014 0.000001 -0.000002 0.000000 0.000000 0.662895
    45 5.295182 0.000000 0.000002 0.000000 0.000000 0.558222
    46 1.947111 0.431346 2.112391 -3.141592 -0.000001 1.273445
    47 2.880164 0.268992 -3.604008 -3.141592 -0.000001 1.273445
    48 3.437763 1.019317 -3.772426 -3.141592 -0.000001 1.273445
  time 9
    0 0.661423 -0.006943 38.098690 0.000000 0.000000 -1.266051
    1 0.000000 0.000000 0.000000 -1.570795 -1.570796 0.000000
    2 -0.000006 0.000007 4.447796 -0.005935 3.108593 -0.302407
    3 18.328701 0.000000 0.000000 0.000000 0.000000 -0.306646
    4 18.328703 0.000000 0.000000 0.300613 0.033304 0.004304
    5 0.000005 -0.000004 -4.447796 0.059157 3.015709 -0.267163
    6 18.328701 0.000000 0.000000 0.000000 0.000000 -0.869701
    7 18.328703 0.000000 0.000000 -0.124450 0.062182 0.197619
    8 1.559110 -0.003309 0.000002 0.182297 -0.055498 0.292316
    9 4.953145 -0.003328 0.000000 0.190605 -0.000140 0.000000
    10 4.762611 -0.003328 0.000000 0.191621 -0.006795 0.034244
    11 4.762490 -0.004061 0.000000 0.000000 0.000000 0.000000
    12 5.811031 -0.001278 0.000000 0.000000 0.000000 -0.052333
    13 1.830527 0.000000 0.000000 0.502150 0.068128 0.020810
    14 0.000002 0.001271 3.377138 -0.000014 -1.370796 -3.090042
    15 5.239133 -0.000001 0.000000 0.484990 0.928125 0.865285
    16 17.595710 0.000000 0.000000 0.000000 0.000000 -0.778087
    17 14.796306 0.000000 0.000001 0.063784 -0.128570 -0.643889
    18 -0.863536 0.401239 -0.941687 2.162674 1.011277 1.047279
    19 2.419263 0.000000 0.000000 0.000000 0.000000 0.261624
    20 3.836271 0.000001 0.000000 0.000000 0.000000 0.662889
    21 5.573017 0.002785 -2.152337 -0.220659 0.473934 -0.219044
    22 4.224659 0.000000 0.000000 0.000000 0.000000 0.139556
    23 4.062994 0.000000 0.000000 0.000000 0.000000 0.750111
    24 5.872681 0.000000 0.000000 -0.023429 0.120039 0.039850
    25 3.914880 -0.000001 -0.000001 0.000000 0.000000 1.116419
    26 6.917688 0.000001 0.000000 0.000000 0.000000 0.680333
    27 5.834328 0.047045 2.277908 0.056829 -0.178381 -0.036662
    28 4.049488 0.000000 0.000001 0.000000 0.000000 1.046660
    29 5.705484 0.000000 -0.000001 0.000000 0.000000 1.360666
    30 0.000002 0.001288 -3.377138 -0.000014 1.370796 -3.090069
    31 5.239133 0.000000 0.000002 0.503544 -0.535303 -0.301550
    32 17.595707 -0.000001 0.000000 0.000000 0.000000 -1.349451
    33 15.650612 0.000000 0.000000 0.098711 0.075061 0.302864
    34 -0.587569 0.321629 1.571948 -2.730167 -1.099996 1.413207
    35 4.233711 0.000000 -0.000001 0.000000 0.000000 -0.017440
    36 2.819870 0.000000 0.000001 0.000000 0.000000 0.662889
    37 4.982530 0.034090 2.486853 -0.123921 -0.487505 0.078175
    38 5.996555 0.000000 0.000000 0.000000 0.000000 0.610556
    39 2.379293 -0.000001 -0.000001 0.000000 0.000000 0.540778
    40 5.323015 -0.083883 0.337312 0.031401 -0.041879 -0.628643
    41 4.521051 0.000000 0.000001 0.000000 0.000000 0.697778
    42 4.923519 0.000000 0.000000 0.000000 0.000000 1.029204
    43 5.162187 -0.009372 -1.613688 -0.215262 0.150026 -0.977513
    44 4.434014 0.000001 -0.000002 0.000000 0.000000 0.662895
    45 5.295182 0.000000 0.000002 0.000000 0.000000 0.558222
    46 1.947111 0.431346 2.112391 -3.141592 -0.000001 1.273445
    47 2.880164 0.268992 -3.604008 -3.141592 -0.000001 1.273445
    48 3.437763 1.019317 -3.772426 -3.141592 -0.000001 1.273445
  time 10
    0 0.661423 -0.006943 38.098690 0.000000 0.000000 -1.227125
    1 0.000000 0.000000 0.000000 -1.570795 -1.570796 0.000000
    2 -0.000006 0.000007 4.447796 -0.006605 3.104384 -0.301514
    3 18.328701 0.000000 0.000000 0.000000 0.000000 -0.298002
    4 18.328703 0.000000 0.000000 0.339011 0.037551 -0.003505
    5 0.000005 -0.000004 -4.447796 0.043241 3.003149 -0.287675
    6 18.328701 0.000000 0.000000 0.000000 0.000000 -0.932984
    7 18.328703 0.000000 0.000000 -0.125256 0.073244 0.189591
    8 1.559110 -0.003309 0.000002 0.205653 -0.062493 0.290942
    9 4.953145 -0.003328 0.000000 0.203835 -0.000156 0.000000
    10 4.762611 -0.003328 0.000000 0.202742 -0.007179 0.034158
    11 4.762490 -0.004061 0.000000 0.000000 0.000000 0.000000
    12 5.811031 -0.001278 0.000000 0.000000 0.000000 -0.052333
    13 1.830527 0.000000 0.000000 0.553971 0.074745 0.014679
    14 0.000002 0.001271 3.377138 -0.000014 -1.370796 -3.090042
    15 5.239133 -0.000001 0.000000 0.491643 0.886681 0.882966
    16 17.595710 0.000000 0.000000 0.000000 0.000000 -0.761836
    17 14.796306 0.000000 0.000001 0.063784 -0.128570 -0.643889
    18 -0.863536 0.401239 -0.941687 2.162674 1.011277 1.047279
    19 2.419263 0.000000 0.000000 0.000000 0.000000 0.261624
    20 3.836271 0.000001 0.000000 0.000000 0.000000 0.662889
    21 5.573017 0.002785 -2.152337 -0.220659 0.473934 -0.219044
    22 4.224659 0.000000 0.000000 0.000000 0.000000 0.139556
    23 4.062994 0.000000 0.000000 0.000000 0.000000 0.750111
    24 5.872681 0.000000 0.000000 -0.033222 0.117716 -0.042687
    25 3.914880 -0.000001 -0.000001 0.000000 0.000000 1.116419
    26 6.917688 0.000001 0.000000 0.000000 0.000000 0.680333
    27 5.834328 0.047045 2.277908 0.056829 -0.178381 -0.036662
    28 4.049488 0.000000 0.000001 0.000000 0.000000 1.046660
    29 5.705484 0.000000 -0.000001 0.000000 0.000000 1.360666
    30 0.000002 0.001288 -3.377138 -0.000014 1.370796 -3.090069
    31 5.239133 0.000000 0.000002 0.475468 -0.499746 -0.292350
    32 17.595707 -0.000001 0.000000 0.000000 0.000000 -1.365048
    33 15.650612 0.000000 0.000000 0.097468 0.076654 0.286570
    34 -0.587569 0.321629 1.571948 -2.730167 -1.099996 1.413207
    35 4.233711 0.000000 -0.000001 0.000000 0.000000 -0.017440
    36 2.819870 0.000000 0.000001 0.000000 0.000000 0.662889
    37 4.982530 0.034090 2.486853 -0.067182 -0.497639 -0.041714
    38 5.996555 0.000000 0.000000 0.000000 0.000000 0.610556
    39 2.379293 -0.000001 -0.000001 0.000000 0.000000 0.540778
    40 5.323015 -0.083883 0.337312 0.031401 -0.041879 -0.628643
    41 4.521051 0.000000 0.000001 0.000000 0.000000 0.697778
    42 4.923519 0.000000 0.000000 0.000000 0.000000 1.029204
    43 5.162187 -0.009372 -1.613688 -0.215262 0.150026 -0.977513
    44 4.434014 0.000001 -0.000002 0.000000 0.000000 0.662895
    45 5.295182 0.000000 0.000002 0.000000 0.000000 0.558222
    46 1.947111 0.431346 2.112391 -3.141592 -0.000001 1.273445
    47 2.880164 0.268992 -3.604008 -3.141592 -0.000001 1.273445
    48 3.437763 1.019317 -3.772426 -3.141592 -0.000001 1.273445
  time 11
    0 0.661423 -0.006943 38.098690 0.000000 0.000000 -1.190404
    1 0.000000 0.000000 0.000000 -1.570795 -1.570796 0.000000
    2 -0.000006 0.000007 4.447796 -0.007371 3.100367 -0.300727
    3 18.328701 0.000000 0.000000 0.000000 0.000000 -0.289829
    4 18.328703 0.000000 0.000000 0.375296 0.041590 -0.010852
    5 0.000005 -0.000004 -4.447796 0.027901 2.991645 -0.307324
    6 18.328701 0.000000 0.000000 0.000000 0.000000 -0.992696
    7 18.328703 0.000000 0.000000 -0.127672 0.083744 0.181969
    8 1.559110 -0.003309 0.000002 0.227710 -0.069067 0.289455
    9 4.953145 -0.003328 0.000000 0.216299 -0.000156 0.000000
    10 4.762611 -0.003328 0.000000 0.213231 -0.007550 0.034086
    11 4.762490 -0.004061 0.000000 0.000000 0.000000 0.000000
    12 5.811031 -0.001278 0.000000 0.000000 0.000000 -0.052333
    13 1.830527 0.000000 0.000000 0.573397 0.080654 0.008475
    14 0.000002 0.001271 3.377138 -0.000014 -1.370796 -3.090042
    15 5.239133 -0.000001 0.000000 0.501907 0.839926 0.891844
    16 17.595710 0.000000 0.000000 0.000000 0.000000 -0.786284
    17 14.796306 0.000000 0.000001 0.063784 -0.128570 -0.643889
    18 -0.863536 0.401239 -0.941687 2.162674 1.011277 1.047279
    19 2.419263 0.000000 0.000000 0.000000 0.000000 0.261624
    20 3.836271 0.000001 0.000000 0.000000 0.000000 0.662889
    21 5.573017 0.002785 -2.152337 -0.220659 0.473934 -0.219044
    22 4.224659 0.000000 0.000000 0.000000 0.000000 0.139556
    23 4.062994 0.000000 0.000000 0.000000 0.000000 0.750111
    24 5.872681 0.000000 0.000000 -0.042519 0.114715 -0.122796
    25 3.914880 -0.000001 -0.000001 0.000000 0.000000 1.116419
    26 6.917688 0.000001 0.000000 0.000000 0.000000 0.680333
    27 5.834328 0.047045 2.277908 0.056829 -0.178381 -0.036662
    28 4.049488 0.000000 0.000001 0.000000 0.000000 1.046660
    29 5.705484 0.000000 -0.000001 0.000000 0.000000 1.360666
    30 0.000002 0.001288 -3.377138 -0.000014 1.370796 -3.090069
    31 5.239133 0.000000 0.000002 0.476545 -0.481797 -0.293537
    32 17.595707 -0.000001 0.000000 0.000000 0.000000 -1.381834
    33 15.650612 0.000000 0.000000 0.096321 0.078164 0.270821
    34 -0.587569 0.321629 1.571948 -2.730167 -1.099996 1.413207
    35 4.233711 0.000000 -0.000001 0.000000 0.000000 -0.017440
    36 2.819870 0.000000 0.000001 0.000000 0.000000 0.662889
    37 4.982530 0.034090 2.486853 -0.010934 -0.501674 -0.159025
    38 5.996555 0.000000 0.000000 0.000000 0.000000 0.610556
    39 2.379293 -0.000001 -0.000001 0.000000 0.000000 0.540778
    40 5.323015 -0.083883 0.337312 0.031401 -0.041879 -0.628643
    41 4.521051 0.000000 0.000001 0.000000 0.000000 0.697778
    42 4.923519 0.000000 0.000000 0.000000 0.000000 1.029204
    43 5.162187 -0.009372 -1.613688 -0.215262 0.150026 -0.977513
    44 4.434014 0.000001 -0.000002 0.000000 0.000000 0.662895
    45 5.295182 0.000000 0.000002 0.000000 0.000000 0.558222
    46 1.947111 0.431346 2.112391 -3.141592 -0.000001 1.273445
    47 2.880164 0.268992 -3.604008 -3.141592 -0.000001 1.273445
    48 3.437763 1.019317 -3.772426 -3.141592 -0.000001 1.273445
  time 12
    0 0.661423 -0.006943 38.098690 0.000000 0.000000 -1.156656
    1 0.000000 0.000000 0.000000 -1.570795 -1.570796 0.000000
    2 -0.000006 0.000007 4.447796 -0.007946 3.096732 -0.299940
    3 18.328701 0.000000 0.000000 0.000000 0.000000 -0.282361
    4 18.328703 0.000000 0.000000 0.408587 0.045259 -0.017621
    5 0.000005 -0.000004 -4.447796 0.013520 2.981290 -0.325440
    6 18.328701 0.000000 0.000000 0.000000 0.000000 -1.047490
    7 18.328703 0.000000 0.000000 -0.131312 0.093273 0.174855
    8 1.559110 -0.003309 0.000002 0.247966 -0.075072 0.288024
    9 4.953145 -0.003328 0.000000 0.227752 -0.000171 -0.000020
    10 4.762611 -0.003328 0.000000 0.222866 -0.007886 0.034015
    11 4.762490 -0.004061 0.000000 0.000000 0.000000 0.000000
    12 5.811031 -0.001278 0.000000 0.000000 0.000000 -0.052333
    13 1.830527 0.000000 0.000000 0.551909 0.085746 0.002417
    14 0.000002 0.001271 3.377138 -0.000014 -1.370796 -3.090042
    15 5.239133 -0.000001 0.000000 0.519775 0.782985 0.893250
    16 17.595710 0.000000 0.000000 0.000000 0.000000 -0.868393
    17 14.796306 0.000000 0.000001 0.063784 -0.128570 -0.643889
    18 -0.863536 0.401239 -0.941687 2.162674 1.011277 1.047279
    19 2.419263 0.000000 0.000000 0.000000 0.000000 0.261624
    20 3.836271 0.000001 0.000000 0.000000 0.000000 0.662889
    21 5.573017 0.002785 -2.152337 -0.220659 0.473934 -0.219044
    22 4.224659 0.000000 0.000000 0.000000 0.000000 0.139556
    23 4.062994 0.000000 0.000000 0.000000 0.000000 0.750111
    24 5.872681 0.000000 0.000000 -0.051700 0.110891 -0.204362
    25 3.914880 -0.000001 -0.000001 0.000000 0.000000 1.116419
    26 6.917688 0.000001 0.000000 0.000000 0.000000 0.680333
    27 5.834328 0.047045 2.277908 0.056829 -0.178381 -0.036662
    28 4.049488 0.000000 0.000001 0.000000 0.000000 1.046660
    29 5.705484 0.000000 -0.000001 0.000000 0.000000 1.360666
    30 0.000002 0.001288 -3.377138 -0.000014 1.370796 -3.090069
    31 5.239133 0.000000 0.000002 0.518344 -0.484585 -0.311492
    32 17.595707 -0.000001 0.000000 0.000000 0.000000 -1.401219
    33 15.650612 0.000000 0.000000 0.094982 0.079758 0.254760
    34 -0.587569 0.321629 1.571948 -2.730167 -1.099996 1.413207
    35 4.233711 0.000000 -0.000001 0.000000 0.000000 -0.017440
    36 2.819870 0.000000 0.000001 0.000000 0.000000 0.662889
    37 4.982530 0.034090 2.486853 0.046561 -0.499801 -0.278684
    38 5.996555 0.000000 0.000000 0.000000 0.000000 0.610556
    39 2.379293 -0.000001 -0.000001 0.000000 0.000000 0.540778
    40 5.323015 -0.083883 0.337312 0.031401 -0.041879 -0.628643
    41 4.521051 0.000000 0.000001 0.000000 0.000000 0.697778
    42 4.923519 0.000000 0.000000 0.000000 0.000000 1.029204
    43 5.162187 -0.009372 -1.613688 -0.215262 0.150026 -0.977513
    44 4.434014 0.000001 -0.000002 0.000000 0.000000 0.662895
    45 5.295182 0.000000 0.000002 0.000000 0.000000 0.558222
    46 1.947111 0.431346 2.112391 -3.141592 -0.000001 1.273445
    47 2.880164 0.268992 -3.604008 -3.141592 -0.000001 1.273445
    48 3.437763 1.019317 -3.772426 -3.141592 -0.000001 1.273445
  time 13
    0 0.661423 -0.006943 38.098690 0.000000 0.000000 -1.126838
    1 0.000000 0.000000 0.000000 -1.570795 -1.570796 0.000000
    2 -0.000006 0.000007 4.447796 -0.008520 3.093480 -0.299310
    3 18.328701 0.000000 0.000000 0.000000 0.000000 -0.275716
    4 18.328703 0.000000 0.000000 0.438002 0.048537 -0.023580
    5 0.000005 -0.000004 -4.447796 0.000672 2.972374 -0.341735
    6 18.328701 0.000000 0.000000 0.000000 0.000000 -1.095962
    7 18.328703 0.000000 0.000000 -0.135661 0.101551 0.168452
    8 1.559110 -0.003309 0.000002 0.265896 -0.080339 0.286650
    9 4.953145 -0.003328 0.000000 0.237858 -0.000187 -0.000020
    10 4.762611 -0.003328 0.000000 0.231373 -0.008185 0.033943
    11 4.762490 -0.004061 0.000000 0.000000 0.000000 0.000000
    12 5.811031 -0.001278 0.000000 0.000000 0.000000 -0.052333
    13 1.830527 0.000000 0.000000 0.489507 0.090021 -0.003202
    14 0.000002 0.001271 3.377138 -0.000014 -1.370796 -3.090042
    15 5.239133 -0.000001 0.000000 0.542584 0.723606 0.882079
    16 17.595710 0.000000 0.000000 0.000000 0.000000 -0.993695
    17 14.796306 0.000000 0.000001 0.063784 -0.128570 -0.643889
    18 -0.863536 0.401239 -0.941687 2.162674 1.011277 1.047279
    19 2.419263 0.000000 0.000000 0.000000 0.000000 0.261624
    20 3.836271 0.000001 0.000000 0.000000 0.000000 0.662889
    21 5.573017 0.002785 -2.152337 -0.220659 0.473934 -0.219044
    22 4.224659 0.000000 0.000000 0.000000 0.000000 0.139556
    23 4.062994 0.000000 0.000000 0.000000 0.000000 0.750111
    24 5.872681 0.000000 0.000000 -0.059409 0.106971 -0.275290
    25 3.914880 -0.000001 -0.000001 0.000000 0.000000 1.116419
    26 6.917688 0.000001 0.000000 0.000000 0.000000 0.680333
    27 5.834328 0.047045 2.277908 0.056829 -0.178381 -0.036662
    28 4.049488 0.000000 0.000001 0.000000 0.000000 1.046660
    29 5.705484 0.000000 -0.000001 0.000000 0.000000 1.360666
    30 0.000002 0.001288 -3.377138 -0.000014 1.370796 -3.090069
    31 5.239133 0.000000 0.000002 0.597099 -0.503961 -0.341391
    32 17.595707 -0.000001 0.000000 0.000000 0.000000 -1.420233
    33 15.650612 0.000000 0.000000 0.093931 0.081099 0.240726
    34 -0.587569 0.321629 1.571948 -2.730167 -1.099996 1.413207
    35 4.233711 0.000000 -0.000001 0.000000 0.000000 -0.017440
    36 2.819870 0.000000 0.000001 0.000000 0.000000 0.662889
    37 4.982530 0.034090 2.486853 0.095957 -0.493293 -0.382304
    38 5.996555 0.000000 0.000000 0.000000 0.000000 0.610556
    39 2.379293 -0.000001 -0.000001 0.000000 0.000000 0.540778
    40 5.323015 -0.083883 0.337312 0.031401 -0.041879 -0.628643
    41 4.521051 0.000000 0.000001 0.000000 0.000000 0.697778
    42 4.923519 0.000000 0.000000 0.000000 0.000000 1.029204
    43 5.162187 -0.009372 -1.613688 -0.215262 0.150026 -0.977513
    44 4.434014 0.000001 -0.000002 0.000000 0.000000 0.662895
    45 5.295182 0.000000 0.000002 0.000000 0.000000 0.558222
    46 1.947111 0.431346 2.112391 -3.141592 -0.000001 1.273445
    47 2.880164 0.268992 -3.604008 -3.141592 -0.000001 1.273445
    48 3.437763 1.019317 -3.772426 -3.141592 -0.000001 1.273445
  time 14
    0 0.661423 -0.006943 38.098690 0.000000 0.000000 -1.101814
    1 0.000000 0.000000 0.000000 -1.570795 -1.570796 0.000000
    2 -0.000006 0.000007 4.447796 -0.008999 3.090802 -0.298732
    3 18.328701 0.000000 0.000000 0.000000 0.000000 -0.270130
    4 18.328703 0.000000 0.000000 0.462721 0.051260 -0.028555
    5 0.000005 -0.000004 -4.447796 -0.010066 2.964992 -0.355441
    6 18.328701 0.000000 0.000000 0.000000 0.000000 -1.136648
    7 18.328703 0.000000 0.000000 -0.140107 0.108295 0.163066
    8 1.559110 -0.003309 0.000002 0.280950 -0.084764 0.285391
    9 4.953145 -0.003328 0.000000 0.246341 -0.000187 -0.000020
    10 4.762611 -0.003328 0.000000 0.238531 -0.008425 0.033886
    11 4.762490 -0.004061 0.000000 0.000000 0.000000 0.000000
    12 5.811031 -0.001278 0.000000 0.000000 0.000000 -0.052333
    13 1.830527 0.000000 0.000000 0.416034 0.093397 -0.008165
    14 0.000002 0.001271 3.377138 -0.000014 -1.370796 -3.090042
    15 5.239133 -0.000001 0.000000 0.563777 0.671888 0.864397
    16 17.595710 0.000000 0.000000 0.000000 0.000000 -1.119425
    17 14.796306 0.000000 0.000001 0.063784 -0.128570 -0.643889
    18 -0.863536 0.401239 -0.941687 2.162674 1.011277 1.047279
    19 2.419263 0.000000 0.000000 0.000000 0.000000 0.261624
    20 3.836271 0.000001 0.000000 0.000000 0.000000 0.662889
    21 5.573017 0.002785 -2.152337 -0.220659 0.473934 -0.219044
    22 4.224659 0.000000 0.000000 0.000000 0.000000 0.139556
    23 4.062994 0.000000 0.000000 0.000000 0.000000 0.750111
    24 5.872681 0.000000 0.000000 -0.065199 0.103534 -0.330374
    25 3.914880 -0.000001 -0.000001 0.000000 0.000000 1.116419
    26 6.917688 0.000001 0.000000 0.000000 0.000000 0.680333
    27 5.834328 0.047045 2.277908 0.056829 -0.178381 -0.036662
    28 4.049488 0.000000 0.000001 0.000000 0.000000 1.046660
    29 5.705484 0.000000 -0.000001 0.000000 0.000000 1.360666
    30 0.000002 0.001288 -3.377138 -0.000014 1.370796 -3.090069
    31 5.239133 0.000000 0.000002 0.683568 -0.524901 -0.373071
    32 17.595707 -0.000001 0.000000 0.000000 0.000000 -1.436128
    33 15.650612 0.000000 0.000000 0.092975 0.082106 0.229889
    34 -0.587569 0.321629 1.571948 -2.730167 -1.099996 1.413207
    35 4.233711 0.000000 -0.000001 0.000000 0.000000 -0.017440
    36 2.819870 0.000000 0.000001 0.000000 0.000000 0.662889
    37 4.982530 0.034090 2.486853 0.133516 -0.485151 -0.462154
    38 5.996555 0.000000 0.000000 0.000000 0.000000 0.610556
    39 2.379293 -0.000001 -0.000001 0.000000 0.000000 0.540778
    40 5.323015 -0.083883 0.337312 0.031401 -0.041879 -0.628643
    41 4.521051 0.000000 0.000001 0.000000 0.000000 0.697778
    42 4.923519 0.000000 0.000000 0.000000 0.000000 1.029204
    43 5.162187 -0.009372 -1.613688 -0.215262 0.150026 -0.977513
    44 4.434014 0.000001 -0.000002 0.000000 0.000000 0.662895
    45 5.295182 0.000000 0.000002 0.000000 0.000000 0.558222
    46 1.947111 0.431346 2.112391 -3.141592 -0.000001 1.273445
    47 2.880164 0.268992 -3.604008 -3.141592 -0.000001 1.273445
    48 3.437763 1.019317 -3.772426 -3.141592 -0.000001 1.273445
  time 15
    0 0.661423 -0.006943 38.098690 0.000000 0.000000 -1.082351
    1 0.000000 0.000000 0.000000 -1.570795 -1.570796 0.000000
    2 -0.000006 0.000007 4.447796 -0.009382 3.088698 -0.298312
    3 18.328701 0.000000 0.000000 0.000000 0.000000 -0.265838
    4 18.328703 0.000000 0.000000 0.481861 0.053383 -0.032431
    5 0.000005 -0.000004 -4.447796 -0.018599 2.959431 -0.366081
    6 18.328701 0.000000 0.000000 0.000000 0.000000 -1.168143
    7 18.328703 0.000000 0.000000 -0.144102 0.113404 0.158798
    8 1.559110 -0.003309 0.000002 0.292628 -0.088156 0.284361
    9 4.953145 -0.003328 0.000000 0.252925 -0.000187 -0.000020
    10 4.762611 -0.003328 0.000000 0.244066 -0.008617 0.033843
    11 4.762490 -0.004061 0.000000 0.000000 0.000000 0.000000
    12 5.811031 -0.001278 0.000000 0.000000 0.000000 -0.052333
    13 1.830527 0.000000 0.000000 0.370888 0.095875 -0.012106
    14 0.000002 0.001271 3.377138 -0.000014 -1.370796 -3.090042
    15 5.239133 -0.000001 0.000000 0.575752 0.636278 0.851006
    16 17.595710 0.000000 0.000000 0.000000 0.000000 -1.197971
    17 14.796306 0.000000 0.000001 0.063784 -0.128570 -0.643889
    18 -0.863536 0.401239 -0.941687 2.162674 1.011277 1.047279
    19 2.419263 0.000000 0.000000 0.000000 0.000000 0.261624
    20 3.836271 0.000001 0.000000 0.000000 0.000000 0.662889
    21 5.573017 0.002785 -2.152337 -0.220659 0.473934 -0.219044
    22 4.224659 0.000000 0.000000 0.000000 0.000000 0.139556
    23 4.062994 0.000000 0.000000 0.000000 0.000000 0.750111
    24 5.872681 0.000000 0.000000 -0.069219 0.100896 -0.369877
    25 3.914880 -0.000001 -0.000001 0.000000 0.000000 1.116419
    26 6.917688 0.000001 0.000000 0.000000 0.000000 0.680333
    27 5.834328 0.047045 2.277908 0.056829 -0.178381 -0.036662
    28 4.049488 0.000000 0.000001 0.000000 0.000000 1.046660
    29 5.705484 0.000000 -0.000001 0.000000 0.000000 1.360666
    30 0.000002 0.001288 -3.377138 -0.000014 1.370796 -3.090069
    31 5.239133 0.000000 0.000002 0.737926 -0.533807 -0.392213
    32 17.595707 -0.000001 0.000000 0.000000 0.000000 -1.447120
    33 15.650612 0.000000 0.000000 0.092401 0.082861 0.222093
    34 -0.587569 0.321629 1.571948 -2.730167 -1.099996 1.413207
    35 4.233711 0.000000 -0.000001 0.000000 0.000000 -0.017440
    36 2.819870 0.000000 0.000001 0.000000 0.000000 0.662889
    37 4.982530 0.034090 2.486853 0.159860 -0.477707 -0.519033
    38 5.996555 0.000000 0.000000 0.000000 0.000000 0.610556
    39 2.379293 -0.000001 -0.000001 0.000000 0.000000 0.540778
    40 5.323015 -0.083883 0.337312 0.031401 -0.041879 -0.628643
    41 4.521051 0.000000 0.000001 0.000000 0.000000 0.697778
    42 4.923519 0.000000 0.000000 0.000000 0.000000 1.029204
    43 5.162187 -0.009372 -1.613688 -0.215262 0.150026 -0.977513
    44 4.434014 0.000001 -0.000002 0.000000 0.000000 0.662895
    45 5.295182 0.000000 0.000002 0.000000 0.000000 0.558222
    46 1.947111 0.431346 2.112391 -3.141592 -0.000001 1.273445
    47 2.880164 0.268992 -3.604008 -3.141592 -0.000001 1.273445
    48 3.437763 1.019317 -3.772426 -3.141592 -0.000001 1.273445
end
