version 1
nodes
  0 "Bip01" -1
  1 "Bip01 Pelvis" 0
  2 "Bip01 Spine" 1
  3 "Bip01 Spine1" 2
  4 "Bip01 Spine2" 3
  5 "Bip01 Spine3" 4
  6 "Bip01 Neck" 5
  7 "Bip01 R Arm" 6
  8 "Bip01 R Arm1" 7
  9 "Bip01 R Arm2" 8
end
skeleton
  time 0
    0 0.235347 0.367732 39.526119 0.000000 0.000000 -1.570795
    1 0.000000 0.000000 0.000000 -1.570795 -1.570796 0.000000
    2 1.293670 0.684478 -0.000001 -0.000004 -0.000001 0.114185
    3 5.309685 -0.003834 0.000000 0.000000 0.000000 -0.069778
    4 4.826790 -0.004591 0.000000 0.000000 0.000000 -0.095944
    5 5.792767 -0.005304 0.000000 0.000000 0.000000 0.017444
    6 6.662317 -0.001453 0.000000 0.000000 -0.000001 0.471000
    7 -2.869898 1.399663 -4.140396 -0.000013 1.370795 2.669783
    8 4.972048 0.000000 0.000001 -0.115194 -1.268795 0.116957
    9 11.585355 0.000000 0.000000 0.000000 0.000000 -0.200000
end
