version 1
nodes
  0 "Line02" -1
end
skeleton
  time 0
    0 0.003085 -0.001564 2.600047 0.000049 0.000000 -0.000048
  time 1
    0 0.014804 0.021875 2.611766 -0.096116 1.879663 -0.251437
  time 2
    0 -0.016446 -0.126567 2.357852 0.649997 1.024443 0.266489
  time 3
    0 -0.090667 0.236725 3.115688 -0.762267 -0.975354 -0.883264
  time 4
    0 -0.035978 -0.079691 2.178159 2.887759 -1.414469 1.471660
  time 5
    0 0.003085 -0.001564 2.600047 0.000049 0.000000 -0.000048
  time 6
    0 -0.035978 -0.114848 2.654736 2.446727 1.347068 -1.228133
  time 7
    0 -0.160982 0.178129 2.900837 -0.042520 1.032592 1.089879
  time 8
    0 0.147621 -0.146099 2.728957 -0.204456 -0.419940 -1.138968
  time 9
    0 0.089025 -0.009376 2.357852 -0.074927 0.113997 -2.066095
  time 10
    0 0.003085 -0.001564 2.600047 0.000049 0.000000 -0.000048
  time 11
    0 -0.227390 -0.200788 2.955526 -0.381157 -1.249178 0.879046
  time 12
    0 0.366378 0.197661 2.600047 -0.182500 -0.543142 0.131782
  time 13
    0 -0.047697 0.076564 2.643017 -0.195156 0.422625 0.382788
  time 14
    0 -0.043791 -0.060159 2.100032 -0.795632 0.873820 0.724013
  time 15
    0 0.003085 -0.001564 2.600047 0.000049 0.000000 -0.000048
  time 16
    0 0.006992 0.096096 3.166470 0.712796 -0.692422 0.307429
  time 17
    0 0.085119 -0.376575 1.982841 0.124880 -0.268742 0.492375
  time 18
    0 -0.407083 0.264069 2.236755 0.414236 -0.037488 -0.590457
  time 19
    0 0.217936 0.064845 2.932088 0.966774 -0.261743 -0.612892
  time 20
    0 0.003085 -0.001564 2.600047 0.000049 0.000000 -0.000048
  time 21
    0 0.003085 0.123440 2.338320 4.502515 -0.914856 0.918643
  time 22
    0 0.085119 -0.103129 3.119594 -1.104739 -0.960781 0.849899
  time 23
    0 0.143715 -0.239852 2.740676 1.100713 0.979189 -0.555941
  time 24
    0 -0.223484 0.139066 2.400822 1.767824 0.972094 -0.002637
  time 25
    0 0.003085 -0.001564 2.600047 0.000049 0.000000 -0.000048
  time 26
    0 0.018711 0.107815 2.592234 -0.243862 0.375549 0.101006
  time 27
    0 -0.125825 -0.353137 1.892994 0.192473 0.164237 0.639450
  time 28
    0 0.124183 0.287508 3.525856 -0.222960 -0.288781 -1.217395
  time 29
    0 0.116370 -0.161725 2.271912 0.148466 -0.763562 -1.901379
  time 30
    0 0.003085 -0.001564 2.600047 0.000049 0.000000 -0.000048
  time 31
    0 0.112464 0.041406 3.143032 -0.386814 0.976121 -4.210666
  time 32
    0 -0.047697 0.178129 1.670331 0.020758 0.469125 1.362456
  time 33
    0 -0.383645 -0.122661 2.885212 -0.018647 -0.738730 -1.178756
  time 34
    0 0.214029 0.021875 2.728957 0.393335 -1.815905 -1.500039
  time 35
    0 0.003085 -0.001564 2.600047 0.000049 0.000000 -0.000048
  time 36
    0 -0.078948 0.146878 2.439886 4.308844 1.276790 -0.879429
  time 37
    0 -0.149263 -0.044534 2.146908 -1.322762 0.281302 -0.840120
  time 38
    0 -0.028166 0.057032 2.869586 1.053254 0.331254 0.799180
  time 39
    0 0.256999 -0.173444 2.982871 1.134558 0.631636 0.752009
  time 40
    0 0.003085 -0.001564 2.600047 0.000049 0.000000 -0.000048
  time 41
    0 -0.039885 0.021875 2.693800 0.114813 0.472385 -0.560352
  time 42
    0 -0.211765 -0.134380 2.053155 0.006760 0.605461 -0.636574
  time 43
    0 0.198404 0.295320 2.814897 0.160738 -0.609584 0.859007
  time 44
    0 -0.102387 -0.228133 2.916463 0.406950 -0.485040 1.253732
  time 45
    0 0.003085 -0.001564 2.600047 0.000049 0.000000 -0.000048
  time 46
    0 -0.016446 0.021875 2.584421 0.681732 -1.147644 0.332452
  time 47
    0 0.104651 0.158597 2.861774 0.762940 -0.775738 0.486718
  time 48
    0 -0.118012 -0.005470 2.639111 -1.087577 0.681779 -0.484801
  time 49
    0 0.147621 -0.001564 2.100032 4.589955 0.855029 -0.326125
  time 50
    0 0.003085 -0.001564 2.600047 0.000049 0.000000 -0.000048
  time 51
    0 -0.110199 0.115627 2.451605 0.516537 0.565193 -0.275214
  time 52
    0 -0.176608 -0.587519 2.803178 0.089310 0.523199 -0.025455
  time 53
    0 0.546071 0.146878 2.783646 -0.123920 -0.886668 -0.613755
  time 54
    0 -0.180514 0.053126 2.701612 2.516908 -1.443903 1.425543
  time 55
    0 0.003085 -0.001564 2.600047 0.000049 0.000000 -0.000048
  time 56
    0 0.092932 -0.040627 2.017998 0.583171 1.391746 -4.048730
  time 57
    0 0.120276 0.131253 2.701612 0.088831 0.627130 1.053445
  time 58
    0 -0.043791 0.057032 2.682081 0.560640 -0.774204 -0.794195
  time 59
    0 -0.020353 -0.032815 2.611766 1.439925 -1.849749 -1.426502
  time 60
    0 0.003085 -0.001564 2.600047 0.000049 0.000000 -0.000048
end
