version 1
nodes
  0 "Line02" -1
end
skeleton
  time 0
    0 0.003085 -0.001564 7.483008 0.000049 0.000000 -0.000048
  time 1
    0 0.003085 -0.001564 7.483008 0.104746 0.036050 0.011649
  time 2
    0 0.003085 -0.001564 7.483008 0.209444 0.068456 0.022675
  time 3
    0 0.003085 -0.001564 7.483008 0.314237 0.097219 0.032742
  time 4
    0 0.003085 -0.001564 7.483008 0.418934 0.122339 0.042042
  time 5
    0 0.003085 -0.001564 7.483008 0.523632 0.143815 0.050575
  time 6
    0 0.003085 -0.001564 7.483008 0.628329 0.161744 0.058341
  time 7
    0 0.003085 -0.001564 7.483008 0.733122 0.175934 0.065244
  time 8
    0 0.003085 -0.001564 7.483008 0.837820 0.186480 0.071284
  time 9
    0 0.003085 -0.001564 7.483008 0.942517 0.193479 0.076653
  time 10
    0 0.003085 -0.001564 7.483008 1.047214 0.196739 0.081064
  time 11
    0 0.003085 -0.001564 7.483008 1.152007 0.196356 0.084803
  time 12
    0 0.003085 -0.001564 7.483008 1.256705 0.192425 0.087679
  time 13
    0 0.003085 -0.001564 7.483008 1.361402 0.184754 0.089788
  time 14
    0 0.003085 -0.001564 7.483008 1.466100 0.173537 0.091035
  time 15
    0 0.003085 -0.001564 7.483008 1.570797 0.158580 0.091514
  time 16
    0 0.003085 -0.001564 7.483008 1.668879 0.136433 0.091131
  time 17
    0 0.003085 -0.001564 7.483008 1.766961 0.104410 0.089980
  time 18
    0 0.003085 -0.001564 7.483008 1.865043 0.064429 0.088063
  time 19
    0 0.003085 -0.001564 7.483008 1.963220 0.018408 0.085282
  time 20
    0 0.003085 -0.001564 7.483008 2.061302 -0.031735 0.081735
  time 21
    0 0.003085 -0.001564 7.483008 2.159384 -0.084467 0.076462
  time 22
    0 0.003085 -0.001564 7.483008 2.257562 -0.137775 0.068887
  time 23
    0 0.003085 -0.001564 7.483008 2.355644 -0.189740 0.059300
  time 24
    0 0.003085 -0.001564 7.483008 2.453726 -0.238637 0.047890
  time 25
    0 0.003085 -0.001564 7.483008 2.551903 -0.282549 0.034947
  time 26
    0 0.003085 -0.001564 7.483008 2.649985 -0.319749 0.020661
  time 27
    0 0.003085 -0.001564 7.483008 2.748067 -0.348224 0.005513
  time 28
    0 0.003085 -0.001564 7.483008 2.846245 -0.366249 -0.010403
  time 29
    0 0.003085 -0.001564 7.483008 2.956024 -0.373440 -0.026798
  time 30
    0 0.003085 -0.001564 7.483008 3.065803 -0.371235 -0.043288
  time 31
    0 0.003085 -0.001564 7.483008 3.175486 -0.360784 -0.059779
  time 32
    0 0.003085 -0.001564 7.483008 3.285264 -0.343047 -0.075791
  time 33
    0 0.003085 -0.001564 7.483008 3.395043 -0.319269 -0.091227
  time 34
    0 0.003085 -0.001564 7.483008 3.504822 -0.290411 -0.105800
  time 35
    0 0.003085 -0.001564 7.483008 3.614601 -0.257525 -0.119127
  time 36
    0 0.003085 -0.001564 7.483008 3.724380 -0.221763 -0.131016
  time 37
    0 0.003085 -0.001564 7.483008 3.834159 -0.184275 -0.141179
  time 38
    0 0.003085 -0.001564 7.483008 3.943937 -0.145924 -0.149424
  time 39
    0 0.003085 -0.001564 7.483008 4.053716 -0.107957 -0.155272
  time 40
    0 0.003085 -0.001564 7.483008 4.163495 -0.071332 -0.158724
  time 41
    0 0.003085 -0.001564 7.483008 4.273274 -0.037200 -0.160258
  time 42
    0 0.003085 -0.001564 7.483008 4.383053 -0.006615 -0.160833
  time 43
    0 0.003085 -0.001564 7.483008 4.492832 0.019175 -0.160354
  time 44
    0 0.003085 -0.001564 7.483008 4.602610 0.039405 -0.158916
  time 45
    0 0.003085 -0.001564 7.483008 4.712389 0.052828 -0.156423
  time 46
    0 0.003085 -0.001564 7.483008 -1.466002 0.061649 -0.153067
  time 47
    0 0.003085 -0.001564 7.483008 -1.361305 0.068648 -0.148561
  time 48
    0 0.003085 -0.001564 7.483008 -1.256607 0.074017 -0.143096
  time 49
    0 0.003085 -0.001564 7.483008 -1.151910 0.077468 -0.136672
  time 50
    0 0.003085 -0.001564 7.483008 -1.047117 0.079290 -0.129290
  time 51
    0 0.003085 -0.001564 7.483008 -0.942419 0.079290 -0.120853
  time 52
    0 0.003085 -0.001564 7.483008 -0.837722 0.077468 -0.111361
  time 53
    0 0.003085 -0.001564 7.483008 -0.733025 0.073921 -0.101006
  time 54
    0 0.003085 -0.001564 7.483008 -0.628231 0.068648 -0.089597
  time 55
    0 0.003085 -0.001564 7.483008 -0.523534 0.061649 -0.077133
  time 56
    0 0.003085 -0.001564 7.483008 -0.418837 0.052828 -0.063710
  time 57
    0 0.003085 -0.001564 7.483008 -0.314139 0.042282 -0.049329
  time 58
    0 0.003085 -0.001564 7.483008 -0.209346 0.029914 -0.033893
  time 59
    0 0.003085 -0.001564 7.483008 -0.104649 0.015820 -0.017498
  time 60
    0 0.003085 -0.001564 7.483008 0.000049 0.000000 -0.000048
end
