version 1
nodes
  0 "Bip01" -1
  1 "Bip01 Pelvis" 0
  2 "Bip01 L Leg" 1
  3 "Bip01 L Leg1" 2
  4 "Bip01 L Foot" 3
  5 "Bip01 R Leg" 1
  6 "Bip01 R Leg1" 5
  7 "Bip01 R Foot" 6
  8 "Bip01 Spine" 1
  9 "Bip01 Spine1" 8
  10 "Bip01 Spine2" 9
  11 "Bip01 Spine3" 10
  12 "Bip01 Neck" 11
  13 "Bip01 Head" 12
  14 "Bip01 L Arm" 12
  15 "Bip01 L Arm1" 14
  16 "Bip01 L Arm2" 15
  17 "Bip01 L Hand" 16
  18 "Bip01 L Finger1" 17
  19 "Bip01 L Finger11" 18
  20 "Bip01 L Finger12" 19
  21 "Bip01 R Arm" 12
  22 "Bip01 R Arm1" 21
  23 "Bip01 R Arm2" 22
  24 "Bip01 R Hand" 23
  25 "Bip01 R Finger1" 24
  26 "Bip01 R Finger11" 25
  27 "Bip01 R Finger12" 26
  28 "Bip01 L Finger0" 17
  29 "Bip01 L Finger01" 28
  30 "Bip01 L Finger02" 29
  31 "Bip01 R Finger0" 24
  32 "Bip01 R Finger01" 31
  33 "Bip01 R Finger02" 32
end
skeleton
  time 0
    0 0.235347 0.367732 -14.483341 -0.045585 0.257873 -1.742273
    1 0.000000 0.000000 0.000000 -1.570795 -1.570796 0.000000
    2 -0.000005 0.000007 3.713255 2.914525 6.061903 1.331528
    3 18.045721 0.000000 0.000000 0.000000 0.000000 -1.349242
    4 17.597597 0.000000 0.000000 -0.205057 0.225938 -0.216505
    5 0.000005 -0.000003 -3.713255 -0.067002 -3.740518 -0.837425
    6 18.045725 0.000000 0.000000 0.000000 0.000000 -2.074647
    7 17.597597 0.000000 0.000000 -0.092081 0.087821 0.559948
    8 1.293670 0.684478 -0.000001 -0.000004 -0.000001 0.218799
    9 5.309685 -0.003834 0.000000 0.000000 0.000000 0.349065
    10 4.826790 -0.004591 0.000000 -0.173330 0.019775 0.111669
    11 5.792767 -0.005304 0.000000 -0.139462 -0.004746 -0.034629
    12 6.662317 -0.001453 0.000000 0.000000 -0.000001 -0.139840
    13 2.046985 -0.000002 0.000000 0.211796 0.232872 -0.710340
    14 -3.416721 -0.541403 4.341911 2.184455 -0.889664 0.973379
    15 4.827230 0.000000 0.000001 -1.238751 -0.496435 -0.859622
    16 11.139763 0.000000 0.000000 0.000000 0.000000 -0.961277
    17 10.314597 0.000001 0.000000 -3.445988 0.666597 -0.277495
    18 2.975834 -0.386307 -0.044143 -0.000797 -0.043611 0.000035
    19 1.438886 0.000000 0.000000 0.000000 0.000000 0.872212
    20 1.485303 0.000000 0.000000 0.000000 0.000000 0.907076
    21 -3.151157 -0.498832 -4.140396 -1.093255 1.155366 2.224644
    22 4.972048 0.000000 0.000001 0.918652 -0.285002 -1.303518
    23 11.585355 0.000000 0.000000 0.000000 0.000000 -1.922688
    24 10.127057 0.000000 0.000001 1.661610 0.465277 -0.038358
    25 2.683750 -0.427338 0.044205 -0.005786 0.043239 -0.157091
    26 1.438885 -0.000001 0.000000 0.000000 0.000000 0.732658
    27 1.485305 0.000001 0.000000 0.000000 0.000000 1.168770
    28 1.646738 0.449549 -1.702246 -0.161934 0.581206 -0.284024
    29 0.928312 0.000000 -0.000002 0.000000 0.000000 0.000000
    30 0.928314 0.000000 0.000001 0.000000 0.000000 0.000000
    31 1.533672 0.109715 1.664491 -0.264755 -0.055959 0.783109
    32 0.928313 0.000000 0.000000 0.000000 0.000000 -0.453556
    33 0.928314 0.000000 0.000001 0.000000 0.000000 0.000000
  time 1
    0 0.235347 0.367732 -14.483341 -0.045585 0.257873 -1.742273
    1 0.000000 0.000000 0.000000 -1.570795 -1.570796 0.000000
    2 -0.000005 0.000007 3.713255 2.914525 6.061903 1.331528
    3 18.045721 0.000000 0.000000 0.000000 0.000000 -1.349242
    4 17.597597 0.000000 0.000000 -0.205057 0.225938 -0.216505
    5 0.000005 -0.000003 -3.713255 -0.067002 -3.740518 -0.837425
    6 18.045725 0.000000 0.000000 0.000000 0.000000 -2.074647
    7 17.597597 0.000000 0.000000 -0.092081 0.087821 0.559948
    8 1.293670 0.684478 -0.000001 -0.000004 -0.000001 0.218799
    9 5.309685 -0.003834 0.000000 0.000000 0.000000 0.349065
    10 4.826790 -0.004591 0.000000 -0.173297 0.019954 0.112727
    11 5.792767 -0.005304 0.000000 -0.139479 -0.004243 -0.031016
    12 6.662317 -0.001453 0.000000 0.000000 -0.000001 -0.139840
    13 2.046985 -0.000002 0.000000 0.211666 0.232962 -0.715059
    14 -3.416721 -0.541403 4.341911 2.181866 -0.891126 0.976735
    15 4.827230 0.000000 0.000001 -1.236989 -0.502477 -0.858834
    16 11.139763 0.000000 0.000000 0.000000 0.000000 -0.961277
    17 10.314597 0.000001 0.000000 -3.445988 0.666597 -0.277495
    18 2.975834 -0.386307 -0.044143 -0.000797 -0.043611 0.000035
    19 1.438886 0.000000 0.000000 0.000000 0.000000 0.872212
    20 1.485303 0.000000 0.000000 0.000000 0.000000 0.907076
    21 -3.151157 -0.498832 -4.140396 -1.095076 1.154122 2.223014
    22 4.972048 0.000000 0.000001 0.918342 -0.280095 -1.302859
    23 11.585355 0.000000 0.000000 0.000000 0.000000 -1.922688
    24 10.127057 0.000000 0.000001 1.662184 0.465169 -0.037142
    25 2.683750 -0.427338 0.044205 -0.005786 0.043239 -0.157091
    26 1.438885 -0.000001 0.000000 0.000000 0.000000 0.732658
    27 1.485305 0.000001 0.000000 0.000000 0.000000 1.168770
    28 1.646738 0.449549 -1.702246 -0.161934 0.581206 -0.284024
    29 0.928312 0.000000 -0.000002 0.000000 0.000000 0.000000
    30 0.928314 0.000000 0.000001 0.000000 0.000000 0.000000
    31 1.533672 0.109715 1.664491 -0.264755 -0.055959 0.783109
    32 0.928313 0.000000 0.000000 0.000000 0.000000 -0.453556
    33 0.928314 0.000000 0.000001 0.000000 0.000000 0.000000
  time 2
    0 0.235347 0.367732 -14.483341 -0.045585 0.257873 -1.742273
    1 0.000000 0.000000 0.000000 -1.570795 -1.570796 0.000000
    2 -0.000005 0.000007 3.713255 2.914525 6.061903 1.331528
    3 18.045721 0.000000 0.000000 0.000000 0.000000 -1.349242
    4 17.597597 0.000000 0.000000 -0.205057 0.225938 -0.216505
    5 0.000005 -0.000003 -3.713255 -0.067002 -3.740518 -0.837425
    6 18.045725 0.000000 0.000000 0.000000 0.000000 -2.074647
    7 17.597597 0.000000 0.000000 -0.092081 0.087821 0.559948
    8 1.293670 0.684478 -0.000001 -0.000004 -0.000001 0.218799
    9 5.309685 -0.003834 0.000000 0.000000 0.000000 0.349065
    10 4.826790 -0.004591 0.000000 -0.173264 0.020218 0.114205
    11 5.792767 -0.005304 0.000000 -0.139495 -0.003547 -0.026116
    12 6.662317 -0.001453 0.000000 0.000000 -0.000001 -0.139840
    13 2.046985 -0.000002 0.000000 0.211494 0.233097 -0.721532
    14 -3.416721 -0.541403 4.341911 2.178319 -0.893126 0.981241
    15 4.827230 0.000000 0.000001 -1.234640 -0.510817 -0.857696
    16 11.139763 0.000000 0.000000 0.000000 0.000000 -0.961277
    17 10.314597 0.000001 0.000000 -3.445988 0.666597 -0.277495
    18 2.975834 -0.386307 -0.044143 -0.000797 -0.043611 0.000035
    19 1.438886 0.000000 0.000000 0.000000 0.000000 0.872212
    20 1.485303 0.000000 0.000000 0.000000 0.000000 0.907076
    21 -3.151157 -0.498832 -4.140396 -1.097473 1.152370 2.220809
    22 4.972048 0.000000 0.000001 0.917956 -0.273418 -1.302002
    23 11.585355 0.000000 0.000000 0.000000 0.000000 -1.922688
    24 10.127057 0.000000 0.000001 1.662884 0.465034 -0.035495
    25 2.683750 -0.427338 0.044205 -0.005786 0.043239 -0.157091
    26 1.438885 -0.000001 0.000000 0.000000 0.000000 0.732658
    27 1.485305 0.000001 0.000000 0.000000 0.000000 1.168770
    28 1.646738 0.449549 -1.702246 -0.161934 0.581206 -0.284024
    29 0.928312 0.000000 -0.000002 0.000000 0.000000 0.000000
    30 0.928314 0.000000 0.000001 0.000000 0.000000 0.000000
    31 1.533672 0.109715 1.664491 -0.264755 -0.055959 0.783109
    32 0.928313 0.000000 0.000000 0.000000 0.000000 -0.453556
    33 0.928314 0.000000 0.000001 0.000000 0.000000 0.000000
  time 3
    0 0.235347 0.367732 -14.483341 -0.045585 0.257873 -1.742273
    1 0.000000 0.000000 0.000000 -1.570795 -1.570796 0.000000
    2 -0.000005 0.000007 3.713255 2.914525 6.061903 1.331528
    3 18.045721 0.000000 0.000000 0.000000 0.000000 -1.349242
    4 17.597597 0.000000 0.000000 -0.205057 0.225938 -0.216505
    5 0.000005 -0.000003 -3.713255 -0.067002 -3.740518 -0.837425
    6 18.045725 0.000000 0.000000 0.000000 0.000000 -2.074647
    7 17.597597 0.000000 0.000000 -0.092081 0.087821 0.559948
    8 1.293670 0.684478 -0.000001 -0.000004 -0.000001 0.218799
    9 5.309685 -0.003834 0.000000 0.000000 0.000000 0.349065
    10 4.826790 -0.004591 0.000000 -0.173231 0.020530 0.115991
    11 5.792767 -0.005304 0.000000 -0.139528 -0.002709 -0.020116
    12 6.662317 -0.001453 0.000000 0.000000 -0.000001 -0.139840
    13 2.046985 -0.000002 0.000000 0.211322 0.233255 -0.729443
    14 -3.416721 -0.541403 4.341911 2.174004 -0.895511 0.986802
    15 4.827230 0.000000 0.000001 -1.231761 -0.520859 -0.856384
    16 11.139763 0.000000 0.000000 0.000000 0.000000 -0.961277
    17 10.314597 0.000001 0.000000 -3.445988 0.666597 -0.277495
    18 2.975834 -0.386307 -0.044143 -0.000797 -0.043611 0.000035
    19 1.438886 0.000000 0.000000 0.000000 0.000000 0.872212
    20 1.485303 0.000000 0.000000 0.000000 0.000000 0.907076
    21 -3.151157 -0.498832 -4.140396 -1.100349 1.150278 2.218125
    22 4.972048 0.000000 0.000001 0.917491 -0.265294 -1.301014
    23 11.585355 0.000000 0.000000 0.000000 0.000000 -1.922688
    24 10.127057 0.000000 0.000001 1.663840 0.464871 -0.033495
    25 2.683750 -0.427338 0.044205 -0.005786 0.043239 -0.157091
    26 1.438885 -0.000001 0.000000 0.000000 0.000000 0.732658
    27 1.485305 0.000001 0.000000 0.000000 0.000000 1.168770
    28 1.646738 0.449549 -1.702246 -0.161934 0.581206 -0.284024
    29 0.928312 0.000000 -0.000002 0.000000 0.000000 0.000000
    30 0.928314 0.000000 0.000001 0.000000 0.000000 0.000000
    31 1.533672 0.109715 1.664491 -0.264755 -0.055959 0.783109
    32 0.928313 0.000000 0.000000 0.000000 0.000000 -0.453556
    33 0.928314 0.000000 0.000001 0.000000 0.000000 0.000000
  time 4
    0 0.235347 0.367732 -14.483341 -0.045585 0.257873 -1.742273
    1 0.000000 0.000000 0.000000 -1.570795 -1.570796 0.000000
    2 -0.000005 0.000007 3.713255 2.914525 6.061903 1.331528
    3 18.045721 0.000000 0.000000 0.000000 0.000000 -1.349242
    4 17.597597 0.000000 0.000000 -0.205057 0.225938 -0.216505
    5 0.000005 -0.000003 -3.713255 -0.067002 -3.740518 -0.837425
    6 18.045725 0.000000 0.000000 0.000000 0.000000 -2.074647
    7 17.597597 0.000000 0.000000 -0.092081 0.087821 0.559948
    8 1.293670 0.684478 -0.000001 -0.000004 -0.000001 0.218799
    9 5.309685 -0.003834 0.000000 0.000000 0.000000 0.349065
    10 4.826790 -0.004591 0.000000 -0.173199 0.020889 0.118019
    11 5.792767 -0.005304 0.000000 -0.139544 -0.001750 -0.013285
    12 6.662317 -0.001453 0.000000 0.000000 -0.000001 -0.139840
    13 2.046985 -0.000002 0.000000 0.211063 0.233435 -0.738432
    14 -3.416721 -0.541403 4.341911 2.169019 -0.898242 0.993226
    15 4.827230 0.000000 0.000001 -1.228531 -0.532433 -0.854896
    16 11.139763 0.000000 0.000000 0.000000 0.000000 -0.961277
    17 10.314597 0.000001 0.000000 -3.445988 0.666597 -0.277495
    18 2.975834 -0.386307 -0.044143 -0.000797 -0.043611 0.000035
    19 1.438886 0.000000 0.000000 0.000000 0.000000 0.872212
    20 1.485303 0.000000 0.000000 0.000000 0.000000 0.907076
    21 -3.151157 -0.498832 -4.140396 -1.103609 1.147848 2.215153
    22 4.972048 0.000000 0.000001 0.916950 -0.255963 -1.299829
    23 11.585355 0.000000 0.000000 0.000000 0.000000 -1.922688
    24 10.127057 0.000000 0.000001 1.664859 0.464655 -0.031180
    25 2.683750 -0.427338 0.044205 -0.005786 0.043239 -0.157091
    26 1.438885 -0.000001 0.000000 0.000000 0.000000 0.732658
    27 1.485305 0.000001 0.000000 0.000000 0.000000 1.168770
    28 1.646738 0.449549 -1.702246 -0.161934 0.581206 -0.284024
    29 0.928312 0.000000 -0.000002 0.000000 0.000000 0.000000
    30 0.928314 0.000000 0.000001 0.000000 0.000000 0.000000
    31 1.533672 0.109715 1.664491 -0.264755 -0.055959 0.783109
    32 0.928313 0.000000 0.000000 0.000000 0.000000 -0.453556
    33 0.928314 0.000000 0.000001 0.000000 0.000000 0.000000
  time 5
    0 0.235347 0.367732 -14.483341 -0.045585 0.257873 -1.742273
    1 0.000000 0.000000 0.000000 -1.570795 -1.570796 0.000000
    2 -0.000005 0.000007 3.713255 2.914525 6.061903 1.331528
    3 18.045721 0.000000 0.000000 0.000000 0.000000 -1.349242
    4 17.597597 0.000000 0.000000 -0.205057 0.225938 -0.216505
    5 0.000005 -0.000003 -3.713255 -0.067002 -3.740518 -0.837425
    6 18.045725 0.000000 0.000000 0.000000 0.000000 -2.074647
    7 17.597597 0.000000 0.000000 -0.092081 0.087821 0.559948
    8 1.293670 0.684478 -0.000001 -0.000004 -0.000001 0.218799
    9 5.309685 -0.003834 0.000000 0.000000 0.000000 0.349065
    10 4.826790 -0.004591 0.000000 -0.173149 0.021273 0.120246
    11 5.792767 -0.005304 0.000000 -0.139544 -0.000707 -0.005852
    12 6.662317 -0.001453 0.000000 0.000000 -0.000001 -0.139840
    13 2.046985 -0.000002 0.000000 0.210848 0.233638 -0.748276
    14 -3.416721 -0.541403 4.341911 2.163458 -0.901204 1.000225
    15 4.827230 0.000000 0.000001 -1.225007 -0.545028 -0.853408
    16 11.139763 0.000000 0.000000 0.000000 0.000000 -0.961277
    17 10.314597 0.000001 0.000000 -3.445988 0.666597 -0.277495
    18 2.975834 -0.386307 -0.044143 -0.000797 -0.043611 0.000035
    19 1.438886 0.000000 0.000000 0.000000 0.000000 0.872212
    20 1.485303 0.000000 0.000000 0.000000 0.000000 0.907076
    21 -3.151157 -0.498832 -4.140396 -1.107156 1.145219 2.211893
    22 4.972048 0.000000 0.000001 0.916331 -0.245827 -1.298511
    23 11.585355 0.000000 0.000000 0.000000 0.000000 -1.922688
    24 10.127057 0.000000 0.000001 1.666006 0.464438 -0.028670
    25 2.683750 -0.427338 0.044205 -0.005786 0.043239 -0.157091
    26 1.438885 -0.000001 0.000000 0.000000 0.000000 0.732658
    27 1.485305 0.000001 0.000000 0.000000 0.000000 1.168770
    28 1.646738 0.449549 -1.702246 -0.161934 0.581206 -0.284024
    29 0.928312 0.000000 -0.000002 0.000000 0.000000 0.000000
    30 0.928314 0.000000 0.000001 0.000000 0.000000 0.000000
    31 1.533672 0.109715 1.664491 -0.264755 -0.055959 0.783109
    32 0.928313 0.000000 0.000000 0.000000 0.000000 -0.453556
    33 0.928314 0.000000 0.000001 0.000000 0.000000 0.000000
  time 6
    0 0.235347 0.367732 -14.483341 -0.045585 0.257873 -1.742273
    1 0.000000 0.000000 0.000000 -1.570795 -1.570796 0.000000
    2 -0.000005 0.000007 3.713255 2.914525 6.061903 1.331528
    3 18.045721 0.000000 0.000000 0.000000 0.000000 -1.349242
    4 17.597597 0.000000 0.000000 -0.205057 0.225938 -0.216505
    5 0.000005 -0.000003 -3.713255 -0.067002 -3.740518 -0.837425
    6 18.045725 0.000000 0.000000 0.000000 0.000000 -2.074647
    7 17.597597 0.000000 0.000000 -0.092081 0.087821 0.559948
    8 1.293670 0.684478 -0.000001 -0.000004 -0.000001 0.218799
    9 5.309685 -0.003834 0.000000 0.000000 0.000000 0.349065
    10 4.826790 -0.004591 0.000000 -0.173100 0.021680 0.122583
    11 5.792767 -0.005304 0.000000 -0.139544 0.000384 0.001996
    12 6.662317 -0.001453 0.000000 0.000000 -0.000001 -0.139840
    13 2.046985 -0.000002 0.000000 0.210546 0.233840 -0.758569
    14 -3.416721 -0.541403 4.341911 2.157610 -0.904282 1.007607
    15 4.827230 0.000000 0.000001 -1.221248 -0.558218 -0.851833
    16 11.139763 0.000000 0.000000 0.000000 0.000000 -0.961277
    17 10.314597 0.000001 0.000000 -3.445988 0.666597 -0.277495
    18 2.975834 -0.386307 -0.044143 -0.000797 -0.043611 0.000035
    19 1.438886 0.000000 0.000000 0.000000 0.000000 0.872212
    20 1.485303 0.000000 0.000000 0.000000 0.000000 0.907076
    21 -3.151157 -0.498832 -4.140396 -1.110800 1.142449 2.208633
    22 4.972048 0.000000 0.000001 0.915635 -0.235209 -1.297194
    23 11.585355 0.000000 0.000000 0.000000 0.000000 -1.922688
    24 10.127057 0.000000 0.000001 1.667152 0.464222 -0.026002
    25 2.683750 -0.427338 0.044205 -0.005786 0.043239 -0.157091
    26 1.438885 -0.000001 0.000000 0.000000 0.000000 0.732658
    27 1.485305 0.000001 0.000000 0.000000 0.000000 1.168770
    28 1.646738 0.449549 -1.702246 -0.161934 0.581206 -0.284024
    29 0.928312 0.000000 -0.000002 0.000000 0.000000 0.000000
    30 0.928314 0.000000 0.000001 0.000000 0.000000 0.000000
    31 1.533672 0.109715 1.664491 -0.264755 -0.055959 0.783109
    32 0.928313 0.000000 0.000000 0.000000 0.000000 -0.453556
    33 0.928314 0.000000 0.000001 0.000000 0.000000 0.000000
  time 7
    0 0.235347 0.367732 -14.483341 -0.045585 0.257873 -1.742273
    1 0.000000 0.000000 0.000000 -1.570795 -1.570796 0.000000
    2 -0.000005 0.000007 3.713255 2.914525 6.061903 1.331528
    3 18.045721 0.000000 0.000000 0.000000 0.000000 -1.349242
    4 17.597597 0.000000 0.000000 -0.205057 0.225938 -0.216505
    5 0.000005 -0.000003 -3.713255 -0.067002 -3.740518 -0.837425
    6 18.045725 0.000000 0.000000 0.000000 0.000000 -2.074647
    7 17.597597 0.000000 0.000000 -0.092081 0.087821 0.559948
    8 1.293670 0.684478 -0.000001 -0.000004 -0.000001 0.218799
    9 5.309685 -0.003834 0.000000 0.000000 0.000000 0.349065
    10 4.826790 -0.004591 0.000000 -0.173051 0.022100 0.124964
    11 5.792767 -0.005304 0.000000 -0.139544 0.001510 0.009969
    12 6.662317 -0.001453 0.000000 0.000000 -0.000001 -0.139840
    13 2.046985 -0.000002 0.000000 0.210288 0.234043 -0.769087
    14 -3.416721 -0.541403 4.341911 2.151666 -0.907397 1.015277
    15 4.827230 0.000000 0.000001 -1.217489 -0.571749 -0.850345
    16 11.139763 0.000000 0.000000 0.000000 0.000000 -0.961277
    17 10.314597 0.000001 0.000000 -3.445988 0.666597 -0.277495
    18 2.975834 -0.386307 -0.044143 -0.000797 -0.043611 0.000035
    19 1.438886 0.000000 0.000000 0.000000 0.000000 0.872212
    20 1.485303 0.000000 0.000000 0.000000 0.000000 0.907076
    21 -3.151157 -0.498832 -4.140396 -1.114443 1.139623 2.205278
    22 4.972048 0.000000 0.000001 0.914939 -0.224349 -1.295810
    23 11.585355 0.000000 0.000000 0.000000 0.000000 -1.922688
    24 10.127057 0.000000 0.000001 1.668363 0.463978 -0.023335
    25 2.683750 -0.427338 0.044205 -0.005786 0.043239 -0.157091
    26 1.438885 -0.000001 0.000000 0.000000 0.000000 0.732658
    27 1.485305 0.000001 0.000000 0.000000 0.000000 1.168770
    28 1.646738 0.449549 -1.702246 -0.161934 0.581206 -0.284024
    29 0.928312 0.000000 -0.000002 0.000000 0.000000 0.000000
    30 0.928314 0.000000 0.000001 0.000000 0.000000 0.000000
    31 1.533672 0.109715 1.664491 -0.264755 -0.055959 0.783109
    32 0.928313 0.000000 0.000000 0.000000 0.000000 -0.453556
    33 0.928314 0.000000 0.000001 0.000000 0.000000 0.000000
  time 8
    0 0.235347 0.367732 -14.483341 -0.045585 0.257873 -1.742273
    1 0.000000 0.000000 0.000000 -1.570795 -1.570796 0.000000
    2 -0.000005 0.000007 3.713255 2.914525 6.061903 1.331528
    3 18.045721 0.000000 0.000000 0.000000 0.000000 -1.349242
    4 17.597597 0.000000 0.000000 -0.205057 0.225938 -0.216505
    5 0.000005 -0.000003 -3.713255 -0.067002 -3.740518 -0.837425
    6 18.045725 0.000000 0.000000 0.000000 0.000000 -2.074647
    7 17.597597 0.000000 0.000000 -0.092081 0.087821 0.559948
    8 1.293670 0.684478 -0.000001 -0.000004 -0.000001 0.218799
    9 5.309685 -0.003834 0.000000 0.000000 0.000000 0.349065
    10 4.826790 -0.004591 0.000000 -0.172985 0.022507 0.127346
    11 5.792767 -0.005304 0.000000 -0.139528 0.002613 0.017859
    12 6.662317 -0.001453 0.000000 0.000000 -0.000001 -0.139840
    13 2.046985 -0.000002 0.000000 0.210029 0.234246 -0.779514
    14 -3.416721 -0.541403 4.341911 2.145626 -0.910436 1.022852
    15 4.827230 0.000000 0.000001 -1.213788 -0.585195 -0.849033
    16 11.139763 0.000000 0.000000 0.000000 0.000000 -0.961277
    17 10.314597 0.000001 0.000000 -3.445988 0.666597 -0.277495
    18 2.975834 -0.386307 -0.044143 -0.000797 -0.043611 0.000035
    19 1.438886 0.000000 0.000000 0.000000 0.000000 0.872212
    20 1.485303 0.000000 0.000000 0.000000 0.000000 0.907076
    21 -3.151157 -0.498832 -4.140396 -1.118086 1.136796 2.202018
    22 4.972048 0.000000 0.000001 0.914243 -0.213570 -1.294493
    23 11.585355 0.000000 0.000000 0.000000 0.000000 -1.922688
    24 10.127057 0.000000 0.000001 1.669573 0.463734 -0.020668
    25 2.683750 -0.427338 0.044205 -0.005786 0.043239 -0.157091
    26 1.438885 -0.000001 0.000000 0.000000 0.000000 0.732658
    27 1.485305 0.000001 0.000000 0.000000 0.000000 1.168770
    28 1.646738 0.449549 -1.702246 -0.161934 0.581206 -0.284024
    29 0.928312 0.000000 -0.000002 0.000000 0.000000 0.000000
    30 0.928314 0.000000 0.000001 0.000000 0.000000 0.000000
    31 1.533672 0.109715 1.664491 -0.264755 -0.055959 0.783109
    32 0.928313 0.000000 0.000000 0.000000 0.000000 -0.453556
    33 0.928314 0.000000 0.000001 0.000000 0.000000 0.000000
  time 9
    0 0.235347 0.367732 -14.483341 -0.045585 0.257873 -1.742273
    1 0.000000 0.000000 0.000000 -1.570795 -1.570796 0.000000
    2 -0.000005 0.000007 3.713255 2.914525 6.061903 1.331528
    3 18.045721 0.000000 0.000000 0.000000 0.000000 -1.349242
    4 17.597597 0.000000 0.000000 -0.205057 0.225938 -0.216505
    5 0.000005 -0.000003 -3.713255 -0.067002 -3.740518 -0.837425
    6 18.045725 0.000000 0.000000 0.000000 0.000000 -2.074647
    7 17.597597 0.000000 0.000000 -0.092081 0.087821 0.559948
    8 1.293670 0.684478 -0.000001 -0.000004 -0.000001 0.218799
    9 5.309685 -0.003834 0.000000 0.000000 0.000000 0.349065
    10 4.826790 -0.004591 0.000000 -0.172936 0.022903 0.129595
    11 5.792767 -0.005304 0.000000 -0.139495 0.003679 0.025458
    12 6.662317 -0.001453 0.000000 0.000000 -0.000001 -0.139840
    13 2.046985 -0.000002 0.000000 0.209771 0.234448 -0.789538
    14 -3.416721 -0.541403 4.341911 2.139778 -0.913359 1.030234
    15 4.827230 0.000000 0.000001 -1.210146 -0.598131 -0.847808
    16 11.139763 0.000000 0.000000 0.000000 0.000000 -0.961277
    17 10.314597 0.000001 0.000000 -3.445988 0.666597 -0.277495
    18 2.975834 -0.386307 -0.044143 -0.000797 -0.043611 0.000035
    19 1.438886 0.000000 0.000000 0.000000 0.000000 0.872212
    20 1.485303 0.000000 0.000000 0.000000 0.000000 0.907076
    21 -3.151157 -0.498832 -4.140396 -1.121537 1.134083 2.198854
    22 4.972048 0.000000 0.000001 0.913546 -0.203274 -1.293176
    23 11.585355 0.000000 0.000000 0.000000 0.000000 -1.922688
    24 10.127057 0.000000 0.000001 1.670720 0.463518 -0.018118
    25 2.683750 -0.427338 0.044205 -0.005786 0.043239 -0.157091
    26 1.438885 -0.000001 0.000000 0.000000 0.000000 0.732658
    27 1.485305 0.000001 0.000000 0.000000 0.000000 1.168770
    28 1.646738 0.449549 -1.702246 -0.161934 0.581206 -0.284024
    29 0.928312 0.000000 -0.000002 0.000000 0.000000 0.000000
    30 0.928314 0.000000 0.000001 0.000000 0.000000 0.000000
    31 1.533672 0.109715 1.664491 -0.264755 -0.055959 0.783109
    32 0.928313 0.000000 0.000000 0.000000 0.000000 -0.453556
    33 0.928314 0.000000 0.000001 0.000000 0.000000 0.000000
  time 10
    0 0.235347 0.367732 -14.483341 -0.045585 0.257873 -1.742273
    1 0.000000 0.000000 0.000000 -1.570795 -1.570796 0.000000
    2 -0.000005 0.000007 3.713255 2.914525 6.061903 1.331528
    3 18.045721 0.000000 0.000000 0.000000 0.000000 -1.349242
    4 17.597597 0.000000 0.000000 -0.205057 0.225938 -0.216505
    5 0.000005 -0.000003 -3.713255 -0.067002 -3.740518 -0.837425
    6 18.045725 0.000000 0.000000 0.000000 0.000000 -2.074647
    7 17.597597 0.000000 0.000000 -0.092081 0.087821 0.559948
    8 1.293670 0.684478 -0.000001 -0.000004 -0.000001 0.218799
    9 5.309685 -0.003834 0.000000 0.000000 0.000000 0.349065
    10 4.826790 -0.004591 0.000000 -0.172887 0.023274 0.131711
    11 5.792767 -0.005304 0.000000 -0.139462 0.004674 0.032518
    12 6.662317 -0.001453 0.000000 0.000000 -0.000001 -0.139840
    13 2.046985 -0.000002 0.000000 0.209512 0.234629 -0.798842
    14 -3.416721 -0.541403 4.341911 2.134313 -0.916052 1.037137
    15 4.827230 0.000000 0.000001 -1.206857 -0.610130 -0.846670
    16 11.139763 0.000000 0.000000 0.000000 0.000000 -0.961277
    17 10.314597 0.000001 0.000000 -3.445988 0.666597 -0.277495
    18 2.975834 -0.386307 -0.044143 -0.000797 -0.043611 0.000035
    19 1.438886 0.000000 0.000000 0.000000 0.000000 0.872212
    20 1.485303 0.000000 0.000000 0.000000 0.000000 0.907076
    21 -3.151157 -0.498832 -4.140396 -1.124701 1.131567 2.195978
    22 4.972048 0.000000 0.000001 0.912928 -0.193621 -1.291990
    23 11.585355 0.000000 0.000000 0.000000 0.000000 -1.922688
    24 10.127057 0.000000 0.000001 1.671739 0.463301 -0.015725
    25 2.683750 -0.427338 0.044205 -0.005786 0.043239 -0.157091
    26 1.438885 -0.000001 0.000000 0.000000 0.000000 0.732658
    27 1.485305 0.000001 0.000000 0.000000 0.000000 1.168770
    28 1.646738 0.449549 -1.702246 -0.161934 0.581206 -0.284024
    29 0.928312 0.000000 -0.000002 0.000000 0.000000 0.000000
    30 0.928314 0.000000 0.000001 0.000000 0.000000 0.000000
    31 1.533672 0.109715 1.664491 -0.264755 -0.055959 0.783109
    32 0.928313 0.000000 0.000000 0.000000 0.000000 -0.453556
    33 0.928314 0.000000 0.000001 0.000000 0.000000 0.000000
  time 11
    0 0.235347 0.367732 -14.483341 -0.045585 0.257873 -1.742273
    1 0.000000 0.000000 0.000000 -1.570795 -1.570796 0.000000
    2 -0.000005 0.000007 3.713255 2.914525 6.061903 1.331528
    3 18.045721 0.000000 0.000000 0.000000 0.000000 -1.349242
    4 17.597597 0.000000 0.000000 -0.205057 0.225938 -0.216505
    5 0.000005 -0.000003 -3.713255 -0.067002 -3.740518 -0.837425
    6 18.045725 0.000000 0.000000 0.000000 0.000000 -2.074647
    7 17.597597 0.000000 0.000000 -0.092081 0.087821 0.559948
    8 1.293670 0.684478 -0.000001 -0.000004 -0.000001 0.218799
    9 5.309685 -0.003834 0.000000 0.000000 0.000000 0.349065
    10 4.826790 -0.004591 0.000000 -0.172854 0.023610 0.133586
    11 5.792767 -0.005304 0.000000 -0.139430 0.005561 0.038830
    12 6.662317 -0.001453 0.000000 0.000000 -0.000001 -0.139840
    13 2.046985 -0.000002 0.000000 0.209297 0.234809 -0.807112
    14 -3.416721 -0.541403 4.341911 2.129424 -0.918399 1.043369
    15 4.827230 0.000000 0.000001 -1.203862 -0.620853 -0.845795
    16 11.139763 0.000000 0.000000 0.000000 0.000000 -0.961277
    17 10.314597 0.000001 0.000000 -3.445988 0.666597 -0.277495
    18 2.975834 -0.386307 -0.044143 -0.000797 -0.043611 0.000035
    19 1.438886 0.000000 0.000000 0.000000 0.000000 0.872212
    20 1.485303 0.000000 0.000000 0.000000 0.000000 0.907076
    21 -3.151157 -0.498832 -4.140396 -1.127481 1.129306 2.193486
    22 4.972048 0.000000 0.000001 0.912309 -0.185094 -1.290936
    23 11.585355 0.000000 0.000000 0.000000 0.000000 -1.922688
    24 10.127057 0.000000 0.000001 1.672695 0.463112 -0.013607
    25 2.683750 -0.427338 0.044205 -0.005786 0.043239 -0.157091
    26 1.438885 -0.000001 0.000000 0.000000 0.000000 0.732658
    27 1.485305 0.000001 0.000000 0.000000 0.000000 1.168770
    28 1.646738 0.449549 -1.702246 -0.161934 0.581206 -0.284024
    29 0.928312 0.000000 -0.000002 0.000000 0.000000 0.000000
    30 0.928314 0.000000 0.000001 0.000000 0.000000 0.000000
    31 1.533672 0.109715 1.664491 -0.264755 -0.055959 0.783109
    32 0.928313 0.000000 0.000000 0.000000 0.000000 -0.453556
    33 0.928314 0.000000 0.000001 0.000000 0.000000 0.000000
  time 12
    0 0.235347 0.367732 -14.483341 -0.045585 0.257873 -1.742273
    1 0.000000 0.000000 0.000000 -1.570795 -1.570796 0.000000
    2 -0.000005 0.000007 3.713255 2.914525 6.061903 1.331528
    3 18.045721 0.000000 0.000000 0.000000 0.000000 -1.349242
    4 17.597597 0.000000 0.000000 -0.205057 0.225938 -0.216505
    5 0.000005 -0.000003 -3.713255 -0.067002 -3.740518 -0.837425
    6 18.045725 0.000000 0.000000 0.000000 0.000000 -2.074647
    7 17.597597 0.000000 0.000000 -0.092081 0.087821 0.559948
    8 1.293670 0.684478 -0.000001 -0.000004 -0.000001 0.218799
    9 5.309685 -0.003834 0.000000 0.000000 0.000000 0.349065
    10 4.826790 -0.004591 0.000000 -0.172805 0.023885 0.135173
    11 5.792767 -0.005304 0.000000 -0.139413 0.006304 0.044124
    12 6.662317 -0.001453 0.000000 0.000000 -0.000001 -0.139840
    13 2.046985 -0.000002 0.000000 0.209124 0.234944 -0.814124
    14 -3.416721 -0.541403 4.341911 2.125205 -0.920399 1.048642
    15 4.827230 0.000000 0.000001 -1.201336 -0.629873 -0.845095
    16 11.139763 0.000000 0.000000 0.000000 0.000000 -0.961277
    17 10.314597 0.000001 0.000000 -3.445988 0.666597 -0.277495
    18 2.975834 -0.386307 -0.044143 -0.000797 -0.043611 0.000035
    19 1.438886 0.000000 0.000000 0.000000 0.000000 0.872212
    20 1.485303 0.000000 0.000000 0.000000 0.000000 0.907076
    21 -3.151157 -0.498832 -4.140396 -1.129782 1.127413 2.191376
    22 4.972048 0.000000 0.000001 0.911767 -0.177854 -1.290014
    23 11.585355 0.000000 0.000000 0.000000 0.000000 -1.922688
    24 10.127057 0.000000 0.000001 1.673523 0.462949 -0.011803
    25 2.683750 -0.427338 0.044205 -0.005786 0.043239 -0.157091
    26 1.438885 -0.000001 0.000000 0.000000 0.000000 0.732658
    27 1.485305 0.000001 0.000000 0.000000 0.000000 1.168770
    28 1.646738 0.449549 -1.702246 -0.161934 0.581206 -0.284024
    29 0.928312 0.000000 -0.000002 0.000000 0.000000 0.000000
    30 0.928314 0.000000 0.000001 0.000000 0.000000 0.000000
    31 1.533672 0.109715 1.664491 -0.264755 -0.055959 0.783109
    32 0.928313 0.000000 0.000000 0.000000 0.000000 -0.453556
    33 0.928314 0.000000 0.000001 0.000000 0.000000 0.000000
  time 13
    0 0.235347 0.367732 -14.483341 -0.045585 0.257873 -1.742273
    1 0.000000 0.000000 0.000000 -1.570795 -1.570796 0.000000
    2 -0.000005 0.000007 3.713255 2.914525 6.061903 1.331528
    3 18.045721 0.000000 0.000000 0.000000 0.000000 -1.349242
    4 17.597597 0.000000 0.000000 -0.205057 0.225938 -0.216505
    5 0.000005 -0.000003 -3.713255 -0.067002 -3.740518 -0.837425
    6 18.045725 0.000000 0.000000 0.000000 0.000000 -2.074647
    7 17.597597 0.000000 0.000000 -0.092081 0.087821 0.559948
    8 1.293670 0.684478 -0.000001 -0.000004 -0.000001 0.218799
    9 5.309685 -0.003834 0.000000 0.000000 0.000000 0.349065
    10 4.826790 -0.004591 0.000000 -0.172788 0.024089 0.136386
    11 5.792767 -0.005304 0.000000 -0.139381 0.006867 0.048194
    12 6.662317 -0.001453 0.000000 0.000000 -0.000001 -0.139840
    13 2.046985 -0.000002 0.000000 0.208995 0.235034 -0.819473
    14 -3.416721 -0.541403 4.341911 2.122041 -0.921899 1.052669
    15 4.827230 0.000000 0.000001 -1.199456 -0.636766 -0.844570
    16 11.139763 0.000000 0.000000 0.000000 0.000000 -0.961277
    17 10.314597 0.000001 0.000000 -3.445988 0.666597 -0.277495
    18 2.975834 -0.386307 -0.044143 -0.000797 -0.043611 0.000035
    19 1.438886 0.000000 0.000000 0.000000 0.000000 0.872212
    20 1.485303 0.000000 0.000000 0.000000 0.000000 0.907076
    21 -3.151157 -0.498832 -4.140396 -1.131508 1.125971 2.189842
    22 4.972048 0.000000 0.000001 0.911380 -0.172384 -1.289355
    23 11.585355 0.000000 0.000000 0.000000 0.000000 -1.922688
    24 10.127057 0.000000 0.000001 1.674096 0.462814 -0.010430
    25 2.683750 -0.427338 0.044205 -0.005786 0.043239 -0.157091
    26 1.438885 -0.000001 0.000000 0.000000 0.000000 0.732658
    27 1.485305 0.000001 0.000000 0.000000 0.000000 1.168770
    28 1.646738 0.449549 -1.702246 -0.161934 0.581206 -0.284024
    29 0.928312 0.000000 -0.000002 0.000000 0.000000 0.000000
    30 0.928314 0.000000 0.000001 0.000000 0.000000 0.000000
    31 1.533672 0.109715 1.664491 -0.264755 -0.055959 0.783109
    32 0.928313 0.000000 0.000000 0.000000 0.000000 -0.453556
    33 0.928314 0.000000 0.000001 0.000000 0.000000 0.000000
  time 14
    0 0.235347 0.367732 -14.483341 -0.045585 0.257873 -1.742273
    1 0.000000 0.000000 0.000000 -1.570795 -1.570796 0.000000
    2 -0.000005 0.000007 3.713255 2.914525 6.061903 1.331528
    3 18.045721 0.000000 0.000000 0.000000 0.000000 -1.349242
    4 17.597597 0.000000 0.000000 -0.205057 0.225938 -0.216505
    5 0.000005 -0.000003 -3.713255 -0.067002 -3.740518 -0.837425
    6 18.045725 0.000000 0.000000 0.000000 0.000000 -2.074647
    7 17.597597 0.000000 0.000000 -0.092081 0.087821 0.559948
    8 1.293670 0.684478 -0.000001 -0.000004 -0.000001 0.218799
    9 5.309685 -0.003834 0.000000 0.000000 0.000000 0.349065
    10 4.826790 -0.004591 0.000000 -0.172755 0.024233 0.137158
    11 5.792767 -0.005304 0.000000 -0.139364 0.007239 0.050789
    12 6.662317 -0.001453 0.000000 0.000000 -0.000001 -0.139840
    13 2.046985 -0.000002 0.000000 0.208909 0.235101 -0.822934
    14 -3.416721 -0.541403 4.341911 2.119932 -0.922861 1.055258
    15 4.827230 0.000000 0.000001 -1.198164 -0.641277 -0.844220
    16 11.139763 0.000000 0.000000 0.000000 0.000000 -0.961277
    17 10.314597 0.000001 0.000000 -3.445988 0.666597 -0.277495
    18 2.975834 -0.386307 -0.044143 -0.000797 -0.043611 0.000035
    19 1.438886 0.000000 0.000000 0.000000 0.000000 0.872212
    20 1.485303 0.000000 0.000000 0.000000 0.000000 0.907076
    21 -3.151157 -0.498832 -4.140396 -1.132659 1.125038 2.188788
    22 4.972048 0.000000 0.000001 0.911071 -0.168765 -1.288894
    23 11.585355 0.000000 0.000000 0.000000 0.000000 -1.922688
    24 10.127057 0.000000 0.000001 1.674542 0.462733 -0.009567
    25 2.683750 -0.427338 0.044205 -0.005786 0.043239 -0.157091
    26 1.438885 -0.000001 0.000000 0.000000 0.000000 0.732658
    27 1.485305 0.000001 0.000000 0.000000 0.000000 1.168770
    28 1.646738 0.449549 -1.702246 -0.161934 0.581206 -0.284024
    29 0.928312 0.000000 -0.000002 0.000000 0.000000 0.000000
    30 0.928314 0.000000 0.000001 0.000000 0.000000 0.000000
    31 1.533672 0.109715 1.664491 -0.264755 -0.055959 0.783109
    32 0.928313 0.000000 0.000000 0.000000 0.000000 -0.453556
    33 0.928314 0.000000 0.000001 0.000000 0.000000 0.000000
  time 15
    0 0.235347 0.367732 -14.483341 -0.045585 0.257873 -1.742273
    1 0.000000 0.000000 0.000000 -1.570795 -1.570796 0.000000
    2 -0.000005 0.000007 3.713255 2.914525 6.061903 1.331528
    3 18.045721 0.000000 0.000000 0.000000 0.000000 -1.349242
    4 17.597597 0.000000 0.000000 -0.205057 0.225938 -0.216505
    5 0.000005 -0.000003 -3.713255 -0.067002 -3.740518 -0.837425
    6 18.045725 0.000000 0.000000 0.000000 0.000000 -2.074647
    7 17.597597 0.000000 0.000000 -0.092081 0.087821 0.559948
    8 1.293670 0.684478 -0.000001 -0.000004 -0.000001 0.218799
    9 5.309685 -0.003834 0.000000 0.000000 0.000000 0.349065
    10 4.826790 -0.004591 0.000000 -0.172755 0.024281 0.137444
    11 5.792767 -0.005304 0.000000 -0.139348 0.007371 0.051723
    12 6.662317 -0.001453 0.000000 0.000000 -0.000001 -0.139840
    13 2.046985 -0.000002 0.000000 0.208866 0.235124 -0.824148
    14 -3.416721 -0.541403 4.341911 2.119261 -0.923207 1.056216
    15 4.827230 0.000000 0.000001 -1.197753 -0.642809 -0.844132
    16 11.139763 0.000000 0.000000 0.000000 0.000000 -0.961277
    17 10.314597 0.000001 0.000000 -3.445988 0.666597 -0.277495
    18 2.975834 -0.386307 -0.044143 -0.000797 -0.043611 0.000035
    19 1.438886 0.000000 0.000000 0.000000 0.000000 0.872212
    20 1.485303 0.000000 0.000000 0.000000 0.000000 0.907076
    21 -3.151157 -0.498832 -4.140396 -1.133042 1.124699 2.188404
    22 4.972048 0.000000 0.000001 0.910994 -0.167558 -1.288762
    23 11.585355 0.000000 0.000000 0.000000 0.000000 -1.922688
    24 10.127057 0.000000 0.000001 1.674669 0.462706 -0.009253
    25 2.683750 -0.427338 0.044205 -0.005786 0.043239 -0.157091
    26 1.438885 -0.000001 0.000000 0.000000 0.000000 0.732658
    27 1.485305 0.000001 0.000000 0.000000 0.000000 1.168770
    28 1.646738 0.449549 -1.702246 -0.161934 0.581206 -0.284024
    29 0.928312 0.000000 -0.000002 0.000000 0.000000 0.000000
    30 0.928314 0.000000 0.000001 0.000000 0.000000 0.000000
    31 1.533672 0.109715 1.664491 -0.264755 -0.055959 0.783109
    32 0.928313 0.000000 0.000000 0.000000 0.000000 -0.453556
    33 0.928314 0.000000 0.000001 0.000000 0.000000 0.000000
  time 16
    0 0.235347 0.367732 -14.483341 -0.045585 0.257873 -1.742273
    1 0.000000 0.000000 0.000000 -1.570795 -1.570796 0.000000
    2 -0.000005 0.000007 3.713255 2.914525 6.061903 1.331528
    3 18.045721 0.000000 0.000000 0.000000 0.000000 -1.349242
    4 17.597597 0.000000 0.000000 -0.205057 0.225938 -0.216505
    5 0.000005 -0.000003 -3.713255 -0.067002 -3.740518 -0.837425
    6 18.045725 0.000000 0.000000 0.000000 0.000000 -2.074647
    7 17.597597 0.000000 0.000000 -0.092081 0.087821 0.559948
    8 1.293670 0.684478 -0.000001 -0.000004 -0.000001 0.218799
    9 5.309685 -0.003834 0.000000 0.000000 0.000000 0.349065
    10 4.826790 -0.004591 0.000000 -0.172755 0.024233 0.137158
    11 5.792767 -0.005304 0.000000 -0.139364 0.007239 0.050789
    12 6.662317 -0.001453 0.000000 0.000000 -0.000001 -0.139840
    13 2.046985 -0.000002 0.000000 0.208909 0.235101 -0.822934
    14 -3.416721 -0.541403 4.341911 2.119932 -0.922861 1.055258
    15 4.827230 0.000000 0.000001 -1.198164 -0.641277 -0.844220
    16 11.139763 0.000000 0.000000 0.000000 0.000000 -0.961277
    17 10.314597 0.000001 0.000000 -3.445988 0.666597 -0.277495
    18 2.975834 -0.386307 -0.044143 -0.000797 -0.043611 0.000035
    19 1.438886 0.000000 0.000000 0.000000 0.000000 0.872212
    20 1.485303 0.000000 0.000000 0.000000 0.000000 0.907076
    21 -3.151157 -0.498832 -4.140396 -1.132659 1.125038 2.188788
    22 4.972048 0.000000 0.000001 0.911071 -0.168765 -1.288894
    23 11.585355 0.000000 0.000000 0.000000 0.000000 -1.922688
    24 10.127057 0.000000 0.000001 1.674542 0.462733 -0.009567
    25 2.683750 -0.427338 0.044205 -0.005786 0.043239 -0.157091
    26 1.438885 -0.000001 0.000000 0.000000 0.000000 0.732658
    27 1.485305 0.000001 0.000000 0.000000 0.000000 1.168770
    28 1.646738 0.449549 -1.702246 -0.161934 0.581206 -0.284024
    29 0.928312 0.000000 -0.000002 0.000000 0.000000 0.000000
    30 0.928314 0.000000 0.000001 0.000000 0.000000 0.000000
    31 1.533672 0.109715 1.664491 -0.264755 -0.055959 0.783109
    32 0.928313 0.000000 0.000000 0.000000 0.000000 -0.453556
    33 0.928314 0.000000 0.000001 0.000000 0.000000 0.000000
  time 17
    0 0.235347 0.367732 -14.483341 -0.045585 0.257873 -1.742273
    1 0.000000 0.000000 0.000000 -1.570795 -1.570796 0.000000
    2 -0.000005 0.000007 3.713255 2.914525 6.061903 1.331528
    3 18.045721 0.000000 0.000000 0.000000 0.000000 -1.349242
    4 17.597597 0.000000 0.000000 -0.205057 0.225938 -0.216505
    5 0.000005 -0.000003 -3.713255 -0.067002 -3.740518 -0.837425
    6 18.045725 0.000000 0.000000 0.000000 0.000000 -2.074647
    7 17.597597 0.000000 0.000000 -0.092081 0.087821 0.559948
    8 1.293670 0.684478 -0.000001 -0.000004 -0.000001 0.218799
    9 5.309685 -0.003834 0.000000 0.000000 0.000000 0.349065
    10 4.826790 -0.004591 0.000000 -0.172788 0.024089 0.136386
    11 5.792767 -0.005304 0.000000 -0.139381 0.006867 0.048194
    12 6.662317 -0.001453 0.000000 0.000000 -0.000001 -0.139840
    13 2.046985 -0.000002 0.000000 0.208995 0.235034 -0.819473
    14 -3.416721 -0.541403 4.341911 2.122041 -0.921899 1.052669
    15 4.827230 0.000000 0.000001 -1.199456 -0.636766 -0.844570
    16 11.139763 0.000000 0.000000 0.000000 0.000000 -0.961277
    17 10.314597 0.000001 0.000000 -3.445988 0.666597 -0.277495
    18 2.975834 -0.386307 -0.044143 -0.000797 -0.043611 0.000035
    19 1.438886 0.000000 0.000000 0.000000 0.000000 0.872212
    20 1.485303 0.000000 0.000000 0.000000 0.000000 0.907076
    21 -3.151157 -0.498832 -4.140396 -1.131508 1.125971 2.189842
    22 4.972048 0.000000 0.000001 0.911380 -0.172384 -1.289355
    23 11.585355 0.000000 0.000000 0.000000 0.000000 -1.922688
    24 10.127057 0.000000 0.000001 1.674096 0.462814 -0.010430
    25 2.683750 -0.427338 0.044205 -0.005786 0.043239 -0.157091
    26 1.438885 -0.000001 0.000000 0.000000 0.000000 0.732658
    27 1.485305 0.000001 0.000000 0.000000 0.000000 1.168770
    28 1.646738 0.449549 -1.702246 -0.161934 0.581206 -0.284024
    29 0.928312 0.000000 -0.000002 0.000000 0.000000 0.000000
    30 0.928314 0.000000 0.000001 0.000000 0.000000 0.000000
    31 1.533672 0.109715 1.664491 -0.264755 -0.055959 0.783109
    32 0.928313 0.000000 0.000000 0.000000 0.000000 -0.453556
    33 0.928314 0.000000 0.000001 0.000000 0.000000 0.000000
  time 18
    0 0.235347 0.367732 -14.483341 -0.045585 0.257873 -1.742273
    1 0.000000 0.000000 0.000000 -1.570795 -1.570796 0.000000
    2 -0.000005 0.000007 3.713255 2.914525 6.061903 1.331528
    3 18.045721 0.000000 0.000000 0.000000 0.000000 -1.349242
    4 17.597597 0.000000 0.000000 -0.205057 0.225938 -0.216505
    5 0.000005 -0.000003 -3.713255 -0.067002 -3.740518 -0.837425
    6 18.045725 0.000000 0.000000 0.000000 0.000000 -2.074647
    7 17.597597 0.000000 0.000000 -0.092081 0.087821 0.559948
    8 1.293670 0.684478 -0.000001 -0.000004 -0.000001 0.218799
    9 5.309685 -0.003834 0.000000 0.000000 0.000000 0.349065
    10 4.826790 -0.004591 0.000000 -0.172805 0.023885 0.135173
    11 5.792767 -0.005304 0.000000 -0.139413 0.006304 0.044124
    12 6.662317 -0.001453 0.000000 0.000000 -0.000001 -0.139840
    13 2.046985 -0.000002 0.000000 0.209124 0.234944 -0.814124
    14 -3.416721 -0.541403 4.341911 2.125205 -0.920399 1.048642
    15 4.827230 0.000000 0.000001 -1.201336 -0.629873 -0.845095
    16 11.139763 0.000000 0.000000 0.000000 0.000000 -0.961277
    17 10.314597 0.000001 0.000000 -3.445988 0.666597 -0.277495
    18 2.975834 -0.386307 -0.044143 -0.000797 -0.043611 0.000035
    19 1.438886 0.000000 0.000000 0.000000 0.000000 0.872212
    20 1.485303 0.000000 0.000000 0.000000 0.000000 0.907076
    21 -3.151157 -0.498832 -4.140396 -1.129782 1.127413 2.191376
    22 4.972048 0.000000 0.000001 0.911767 -0.177854 -1.290014
    23 11.585355 0.000000 0.000000 0.000000 0.000000 -1.922688
    24 10.127057 0.000000 0.000001 1.673523 0.462949 -0.011803
    25 2.683750 -0.427338 0.044205 -0.005786 0.043239 -0.157091
    26 1.438885 -0.000001 0.000000 0.000000 0.000000 0.732658
    27 1.485305 0.000001 0.000000 0.000000 0.000000 1.168770
    28 1.646738 0.449549 -1.702246 -0.161934 0.581206 -0.284024
    29 0.928312 0.000000 -0.000002 0.000000 0.000000 0.000000
    30 0.928314 0.000000 0.000001 0.000000 0.000000 0.000000
    31 1.533672 0.109715 1.664491 -0.264755 -0.055959 0.783109
    32 0.928313 0.000000 0.000000 0.000000 0.000000 -0.453556
    33 0.928314 0.000000 0.000001 0.000000 0.000000 0.000000
  time 19
    0 0.235347 0.367732 -14.483341 -0.045585 0.257873 -1.742273
    1 0.000000 0.000000 0.000000 -1.570795 -1.570796 0.000000
    2 -0.000005 0.000007 3.713255 2.914525 6.061903 1.331528
    3 18.045721 0.000000 0.000000 0.000000 0.000000 -1.349242
    4 17.597597 0.000000 0.000000 -0.205057 0.225938 -0.216505
    5 0.000005 -0.000003 -3.713255 -0.067002 -3.740518 -0.837425
    6 18.045725 0.000000 0.000000 0.000000 0.000000 -2.074647
    7 17.597597 0.000000 0.000000 -0.092081 0.087821 0.559948
    8 1.293670 0.684478 -0.000001 -0.000004 -0.000001 0.218799
    9 5.309685 -0.003834 0.000000 0.000000 0.000000 0.349065
    10 4.826790 -0.004591 0.000000 -0.172854 0.023610 0.133586
    11 5.792767 -0.005304 0.000000 -0.139430 0.005561 0.038830
    12 6.662317 -0.001453 0.000000 0.000000 -0.000001 -0.139840
    13 2.046985 -0.000002 0.000000 0.209297 0.234809 -0.807112
    14 -3.416721 -0.541403 4.341911 2.129424 -0.918399 1.043369
    15 4.827230 0.000000 0.000001 -1.203862 -0.620853 -0.845795
    16 11.139763 0.000000 0.000000 0.000000 0.000000 -0.961277
    17 10.314597 0.000001 0.000000 -3.445988 0.666597 -0.277495
    18 2.975834 -0.386307 -0.044143 -0.000797 -0.043611 0.000035
    19 1.438886 0.000000 0.000000 0.000000 0.000000 0.872212
    20 1.485303 0.000000 0.000000 0.000000 0.000000 0.907076
    21 -3.151157 -0.498832 -4.140396 -1.127481 1.129306 2.193486
    22 4.972048 0.000000 0.000001 0.912309 -0.185094 -1.290936
    23 11.585355 0.000000 0.000000 0.000000 0.000000 -1.922688
    24 10.127057 0.000000 0.000001 1.672695 0.463112 -0.013607
    25 2.683750 -0.427338 0.044205 -0.005786 0.043239 -0.157091
    26 1.438885 -0.000001 0.000000 0.000000 0.000000 0.732658
    27 1.485305 0.000001 0.000000 0.000000 0.000000 1.168770
    28 1.646738 0.449549 -1.702246 -0.161934 0.581206 -0.284024
    29 0.928312 0.000000 -0.000002 0.000000 0.000000 0.000000
    30 0.928314 0.000000 0.000001 0.000000 0.000000 0.000000
    31 1.533672 0.109715 1.664491 -0.264755 -0.055959 0.783109
    32 0.928313 0.000000 0.000000 0.000000 0.000000 -0.453556
    33 0.928314 0.000000 0.000001 0.000000 0.000000 0.000000
  time 20
    0 0.235347 0.367732 -14.483341 -0.045585 0.257873 -1.742273
    1 0.000000 0.000000 0.000000 -1.570795 -1.570796 0.000000
    2 -0.000005 0.000007 3.713255 2.914525 6.061903 1.331528
    3 18.045721 0.000000 0.000000 0.000000 0.000000 -1.349242
    4 17.597597 0.000000 0.000000 -0.205057 0.225938 -0.216505
    5 0.000005 -0.000003 -3.713255 -0.067002 -3.740518 -0.837425
    6 18.045725 0.000000 0.000000 0.000000 0.000000 -2.074647
    7 17.597597 0.000000 0.000000 -0.092081 0.087821 0.559948
    8 1.293670 0.684478 -0.000001 -0.000004 -0.000001 0.218799
    9 5.309685 -0.003834 0.000000 0.000000 0.000000 0.349065
    10 4.826790 -0.004591 0.000000 -0.172887 0.023274 0.131711
    11 5.792767 -0.005304 0.000000 -0.139462 0.004674 0.032518
    12 6.662317 -0.001453 0.000000 0.000000 -0.000001 -0.139840
    13 2.046985 -0.000002 0.000000 0.209512 0.234629 -0.798842
    14 -3.416721 -0.541403 4.341911 2.134313 -0.916052 1.037137
    15 4.827230 0.000000 0.000001 -1.206857 -0.610130 -0.846670
    16 11.139763 0.000000 0.000000 0.000000 0.000000 -0.961277
    17 10.314597 0.000001 0.000000 -3.445988 0.666597 -0.277495
    18 2.975834 -0.386307 -0.044143 -0.000797 -0.043611 0.000035
    19 1.438886 0.000000 0.000000 0.000000 0.000000 0.872212
    20 1.485303 0.000000 0.000000 0.000000 0.000000 0.907076
    21 -3.151157 -0.498832 -4.140396 -1.124701 1.131567 2.195978
    22 4.972048 0.000000 0.000001 0.912928 -0.193621 -1.291990
    23 11.585355 0.000000 0.000000 0.000000 0.000000 -1.922688
    24 10.127057 0.000000 0.000001 1.671739 0.463301 -0.015725
    25 2.683750 -0.427338 0.044205 -0.005786 0.043239 -0.157091
    26 1.438885 -0.000001 0.000000 0.000000 0.000000 0.732658
    27 1.485305 0.000001 0.000000 0.000000 0.000000 1.168770
    28 1.646738 0.449549 -1.702246 -0.161934 0.581206 -0.284024
    29 0.928312 0.000000 -0.000002 0.000000 0.000000 0.000000
    30 0.928314 0.000000 0.000001 0.000000 0.000000 0.000000
    31 1.533672 0.109715 1.664491 -0.264755 -0.055959 0.783109
    32 0.928313 0.000000 0.000000 0.000000 0.000000 -0.453556
    33 0.928314 0.000000 0.000001 0.000000 0.000000 0.000000
  time 21
    0 0.235347 0.367732 -14.483341 -0.045585 0.257873 -1.742273
    1 0.000000 0.000000 0.000000 -1.570795 -1.570796 0.000000
    2 -0.000005 0.000007 3.713255 2.914525 6.061903 1.331528
    3 18.045721 0.000000 0.000000 0.000000 0.000000 -1.349242
    4 17.597597 0.000000 0.000000 -0.205057 0.225938 -0.216505
    5 0.000005 -0.000003 -3.713255 -0.067002 -3.740518 -0.837425
    6 18.045725 0.000000 0.000000 0.000000 0.000000 -2.074647
    7 17.597597 0.000000 0.000000 -0.092081 0.087821 0.559948
    8 1.293670 0.684478 -0.000001 -0.000004 -0.000001 0.218799
    9 5.309685 -0.003834 0.000000 0.000000 0.000000 0.349065
    10 4.826790 -0.004591 0.000000 -0.172936 0.022903 0.129595
    11 5.792767 -0.005304 0.000000 -0.139495 0.003679 0.025458
    12 6.662317 -0.001453 0.000000 0.000000 -0.000001 -0.139840
    13 2.046985 -0.000002 0.000000 0.209771 0.234448 -0.789538
    14 -3.416721 -0.541403 4.341911 2.139778 -0.913359 1.030234
    15 4.827230 0.000000 0.000001 -1.210146 -0.598131 -0.847808
    16 11.139763 0.000000 0.000000 0.000000 0.000000 -0.961277
    17 10.314597 0.000001 0.000000 -3.445988 0.666597 -0.277495
    18 2.975834 -0.386307 -0.044143 -0.000797 -0.043611 0.000035
    19 1.438886 0.000000 0.000000 0.000000 0.000000 0.872212
    20 1.485303 0.000000 0.000000 0.000000 0.000000 0.907076
    21 -3.151157 -0.498832 -4.140396 -1.121537 1.134083 2.198854
    22 4.972048 0.000000 0.000001 0.913546 -0.203274 -1.293176
    23 11.585355 0.000000 0.000000 0.000000 0.000000 -1.922688
    24 10.127057 0.000000 0.000001 1.670720 0.463518 -0.018118
    25 2.683750 -0.427338 0.044205 -0.005786 0.043239 -0.157091
    26 1.438885 -0.000001 0.000000 0.000000 0.000000 0.732658
    27 1.485305 0.000001 0.000000 0.000000 0.000000 1.168770
    28 1.646738 0.449549 -1.702246 -0.161934 0.581206 -0.284024
    29 0.928312 0.000000 -0.000002 0.000000 0.000000 0.000000
    30 0.928314 0.000000 0.000001 0.000000 0.000000 0.000000
    31 1.533672 0.109715 1.664491 -0.264755 -0.055959 0.783109
    32 0.928313 0.000000 0.000000 0.000000 0.000000 -0.453556
    33 0.928314 0.000000 0.000001 0.000000 0.000000 0.000000
  time 22
    0 0.235347 0.367732 -14.483341 -0.045585 0.257873 -1.742273
    1 0.000000 0.000000 0.000000 -1.570795 -1.570796 0.000000
    2 -0.000005 0.000007 3.713255 2.914525 6.061903 1.331528
    3 18.045721 0.000000 0.000000 0.000000 0.000000 -1.349242
    4 17.597597 0.000000 0.000000 -0.205057 0.225938 -0.216505
    5 0.000005 -0.000003 -3.713255 -0.067002 -3.740518 -0.837425
    6 18.045725 0.000000 0.000000 0.000000 0.000000 -2.074647
    7 17.597597 0.000000 0.000000 -0.092081 0.087821 0.559948
    8 1.293670 0.684478 -0.000001 -0.000004 -0.000001 0.218799
    9 5.309685 -0.003834 0.000000 0.000000 0.000000 0.349065
    10 4.826790 -0.004591 0.000000 -0.172985 0.022507 0.127346
    11 5.792767 -0.005304 0.000000 -0.139528 0.002613 0.017859
    12 6.662317 -0.001453 0.000000 0.000000 -0.000001 -0.139840
    13 2.046985 -0.000002 0.000000 0.210029 0.234246 -0.779514
    14 -3.416721 -0.541403 4.341911 2.145626 -0.910436 1.022852
    15 4.827230 0.000000 0.000001 -1.213788 -0.585195 -0.849033
    16 11.139763 0.000000 0.000000 0.000000 0.000000 -0.961277
    17 10.314597 0.000001 0.000000 -3.445988 0.666597 -0.277495
    18 2.975834 -0.386307 -0.044143 -0.000797 -0.043611 0.000035
    19 1.438886 0.000000 0.000000 0.000000 0.000000 0.872212
    20 1.485303 0.000000 0.000000 0.000000 0.000000 0.907076
    21 -3.151157 -0.498832 -4.140396 -1.118086 1.136796 2.202018
    22 4.972048 0.000000 0.000001 0.914243 -0.213570 -1.294493
    23 11.585355 0.000000 0.000000 0.000000 0.000000 -1.922688
    24 10.127057 0.000000 0.000001 1.669573 0.463734 -0.020668
    25 2.683750 -0.427338 0.044205 -0.005786 0.043239 -0.157091
    26 1.438885 -0.000001 0.000000 0.000000 0.000000 0.732658
    27 1.485305 0.000001 0.000000 0.000000 0.000000 1.168770
    28 1.646738 0.449549 -1.702246 -0.161934 0.581206 -0.284024
    29 0.928312 0.000000 -0.000002 0.000000 0.000000 0.000000
    30 0.928314 0.000000 0.000001 0.000000 0.000000 0.000000
    31 1.533672 0.109715 1.664491 -0.264755 -0.055959 0.783109
    32 0.928313 0.000000 0.000000 0.000000 0.000000 -0.453556
    33 0.928314 0.000000 0.000001 0.000000 0.000000 0.000000
  time 23
    0 0.235347 0.367732 -14.483341 -0.045585 0.257873 -1.742273
    1 0.000000 0.000000 0.000000 -1.570795 -1.570796 0.000000
    2 -0.000005 0.000007 3.713255 2.914525 6.061903 1.331528
    3 18.045721 0.000000 0.000000 0.000000 0.000000 -1.349242
    4 17.597597 0.000000 0.000000 -0.205057 0.225938 -0.216505
    5 0.000005 -0.000003 -3.713255 -0.067002 -3.740518 -0.837425
    6 18.045725 0.000000 0.000000 0.000000 0.000000 -2.074647
    7 17.597597 0.000000 0.000000 -0.092081 0.087821 0.559948
    8 1.293670 0.684478 -0.000001 -0.000004 -0.000001 0.218799
    9 5.309685 -0.003834 0.000000 0.000000 0.000000 0.349065
    10 4.826790 -0.004591 0.000000 -0.173051 0.022100 0.124964
    11 5.792767 -0.005304 0.000000 -0.139544 0.001510 0.009969
    12 6.662317 -0.001453 0.000000 0.000000 -0.000001 -0.139840
    13 2.046985 -0.000002 0.000000 0.210288 0.234043 -0.769087
    14 -3.416721 -0.541403 4.341911 2.151666 -0.907397 1.015277
    15 4.827230 0.000000 0.000001 -1.217489 -0.571749 -0.850345
    16 11.139763 0.000000 0.000000 0.000000 0.000000 -0.961277
    17 10.314597 0.000001 0.000000 -3.445988 0.666597 -0.277495
    18 2.975834 -0.386307 -0.044143 -0.000797 -0.043611 0.000035
    19 1.438886 0.000000 0.000000 0.000000 0.000000 0.872212
    20 1.485303 0.000000 0.000000 0.000000 0.000000 0.907076
    21 -3.151157 -0.498832 -4.140396 -1.114443 1.139623 2.205278
    22 4.972048 0.000000 0.000001 0.914939 -0.224349 -1.295810
    23 11.585355 0.000000 0.000000 0.000000 0.000000 -1.922688
    24 10.127057 0.000000 0.000001 1.668363 0.463978 -0.023335
    25 2.683750 -0.427338 0.044205 -0.005786 0.043239 -0.157091
    26 1.438885 -0.000001 0.000000 0.000000 0.000000 0.732658
    27 1.485305 0.000001 0.000000 0.000000 0.000000 1.168770
    28 1.646738 0.449549 -1.702246 -0.161934 0.581206 -0.284024
    29 0.928312 0.000000 -0.000002 0.000000 0.000000 0.000000
    30 0.928314 0.000000 0.000001 0.000000 0.000000 0.000000
    31 1.533672 0.109715 1.664491 -0.264755 -0.055959 0.783109
    32 0.928313 0.000000 0.000000 0.000000 0.000000 -0.453556
    33 0.928314 0.000000 0.000001 0.000000 0.000000 0.000000
  time 24
    0 0.235347 0.367732 -14.483341 -0.045585 0.257873 -1.742273
    1 0.000000 0.000000 0.000000 -1.570795 -1.570796 0.000000
    2 -0.000005 0.000007 3.713255 2.914525 6.061903 1.331528
    3 18.045721 0.000000 0.000000 0.000000 0.000000 -1.349242
    4 17.597597 0.000000 0.000000 -0.205057 0.225938 -0.216505
    5 0.000005 -0.000003 -3.713255 -0.067002 -3.740518 -0.837425
    6 18.045725 0.000000 0.000000 0.000000 0.000000 -2.074647
    7 17.597597 0.000000 0.000000 -0.092081 0.087821 0.559948
    8 1.293670 0.684478 -0.000001 -0.000004 -0.000001 0.218799
    9 5.309685 -0.003834 0.000000 0.000000 0.000000 0.349065
    10 4.826790 -0.004591 0.000000 -0.173100 0.021680 0.122583
    11 5.792767 -0.005304 0.000000 -0.139544 0.000384 0.001996
    12 6.662317 -0.001453 0.000000 0.000000 -0.000001 -0.139840
    13 2.046985 -0.000002 0.000000 0.210546 0.233840 -0.758569
    14 -3.416721 -0.541403 4.341911 2.157610 -0.904282 1.007607
    15 4.827230 0.000000 0.000001 -1.221248 -0.558218 -0.851833
    16 11.139763 0.000000 0.000000 0.000000 0.000000 -0.961277
    17 10.314597 0.000001 0.000000 -3.445988 0.666597 -0.277495
    18 2.975834 -0.386307 -0.044143 -0.000797 -0.043611 0.000035
    19 1.438886 0.000000 0.000000 0.000000 0.000000 0.872212
    20 1.485303 0.000000 0.000000 0.000000 0.000000 0.907076
    21 -3.151157 -0.498832 -4.140396 -1.110800 1.142449 2.208633
    22 4.972048 0.000000 0.000001 0.915635 -0.235209 -1.297194
    23 11.585355 0.000000 0.000000 0.000000 0.000000 -1.922688
    24 10.127057 0.000000 0.000001 1.667152 0.464222 -0.026002
    25 2.683750 -0.427338 0.044205 -0.005786 0.043239 -0.157091
    26 1.438885 -0.000001 0.000000 0.000000 0.000000 0.732658
    27 1.485305 0.000001 0.000000 0.000000 0.000000 1.168770
    28 1.646738 0.449549 -1.702246 -0.161934 0.581206 -0.284024
    29 0.928312 0.000000 -0.000002 0.000000 0.000000 0.000000
    30 0.928314 0.000000 0.000001 0.000000 0.000000 0.000000
    31 1.533672 0.109715 1.664491 -0.264755 -0.055959 0.783109
    32 0.928313 0.000000 0.000000 0.000000 0.000000 -0.453556
    33 0.928314 0.000000 0.000001 0.000000 0.000000 0.000000
  time 25
    0 0.235347 0.367732 -14.483341 -0.045585 0.257873 -1.742273
    1 0.000000 0.000000 0.000000 -1.570795 -1.570796 0.000000
    2 -0.000005 0.000007 3.713255 2.914525 6.061903 1.331528
    3 18.045721 0.000000 0.000000 0.000000 0.000000 -1.349242
    4 17.597597 0.000000 0.000000 -0.205057 0.225938 -0.216505
    5 0.000005 -0.000003 -3.713255 -0.067002 -3.740518 -0.837425
    6 18.045725 0.000000 0.000000 0.000000 0.000000 -2.074647
    7 17.597597 0.000000 0.000000 -0.092081 0.087821 0.559948
    8 1.293670 0.684478 -0.000001 -0.000004 -0.000001 0.218799
    9 5.309685 -0.003834 0.000000 0.000000 0.000000 0.349065
    10 4.826790 -0.004591 0.000000 -0.173149 0.021273 0.120246
    11 5.792767 -0.005304 0.000000 -0.139544 -0.000707 -0.005852
    12 6.662317 -0.001453 0.000000 0.000000 -0.000001 -0.139840
    13 2.046985 -0.000002 0.000000 0.210848 0.233638 -0.748276
    14 -3.416721 -0.541403 4.341911 2.163458 -0.901204 1.000225
    15 4.827230 0.000000 0.000001 -1.225007 -0.545028 -0.853408
    16 11.139763 0.000000 0.000000 0.000000 0.000000 -0.961277
    17 10.314597 0.000001 0.000000 -3.445988 0.666597 -0.277495
    18 2.975834 -0.386307 -0.044143 -0.000797 -0.043611 0.000035
    19 1.438886 0.000000 0.000000 0.000000 0.000000 0.872212
    20 1.485303 0.000000 0.000000 0.000000 0.000000 0.907076
    21 -3.151157 -0.498832 -4.140396 -1.107156 1.145219 2.211893
    22 4.972048 0.000000 0.000001 0.916331 -0.245827 -1.298511
    23 11.585355 0.000000 0.000000 0.000000 0.000000 -1.922688
    24 10.127057 0.000000 0.000001 1.666006 0.464438 -0.028670
    25 2.683750 -0.427338 0.044205 -0.005786 0.043239 -0.157091
    26 1.438885 -0.000001 0.000000 0.000000 0.000000 0.732658
    27 1.485305 0.000001 0.000000 0.000000 0.000000 1.168770
    28 1.646738 0.449549 -1.702246 -0.161934 0.581206 -0.284024
    29 0.928312 0.000000 -0.000002 0.000000 0.000000 0.000000
    30 0.928314 0.000000 0.000001 0.000000 0.000000 0.000000
    31 1.533672 0.109715 1.664491 -0.264755 -0.055959 0.783109
    32 0.928313 0.000000 0.000000 0.000000 0.000000 -0.453556
    33 0.928314 0.000000 0.000001 0.000000 0.000000 0.000000
  time 26
    0 0.235347 0.367732 -14.483341 -0.045585 0.257873 -1.742273
    1 0.000000 0.000000 0.000000 -1.570795 -1.570796 0.000000
    2 -0.000005 0.000007 3.713255 2.914525 6.061903 1.331528
    3 18.045721 0.000000 0.000000 0.000000 0.000000 -1.349242
    4 17.597597 0.000000 0.000000 -0.205057 0.225938 -0.216505
    5 0.000005 -0.000003 -3.713255 -0.067002 -3.740518 -0.837425
    6 18.045725 0.000000 0.000000 0.000000 0.000000 -2.074647
    7 17.597597 0.000000 0.000000 -0.092081 0.087821 0.559948
    8 1.293670 0.684478 -0.000001 -0.000004 -0.000001 0.218799
    9 5.309685 -0.003834 0.000000 0.000000 0.000000 0.349065
    10 4.826790 -0.004591 0.000000 -0.173199 0.020889 0.118019
    11 5.792767 -0.005304 0.000000 -0.139544 -0.001750 -0.013285
    12 6.662317 -0.001453 0.000000 0.000000 -0.000001 -0.139840
    13 2.046985 -0.000002 0.000000 0.211063 0.233435 -0.738432
    14 -3.416721 -0.541403 4.341911 2.169019 -0.898242 0.993226
    15 4.827230 0.000000 0.000001 -1.228531 -0.532433 -0.854896
    16 11.139763 0.000000 0.000000 0.000000 0.000000 -0.961277
    17 10.314597 0.000001 0.000000 -3.445988 0.666597 -0.277495
    18 2.975834 -0.386307 -0.044143 -0.000797 -0.043611 0.000035
    19 1.438886 0.000000 0.000000 0.000000 0.000000 0.872212
    20 1.485303 0.000000 0.000000 0.000000 0.000000 0.907076
    21 -3.151157 -0.498832 -4.140396 -1.103609 1.147848 2.215153
    22 4.972048 0.000000 0.000001 0.916950 -0.255963 -1.299829
    23 11.585355 0.000000 0.000000 0.000000 0.000000 -1.922688
    24 10.127057 0.000000 0.000001 1.664859 0.464655 -0.031180
    25 2.683750 -0.427338 0.044205 -0.005786 0.043239 -0.157091
    26 1.438885 -0.000001 0.000000 0.000000 0.000000 0.732658
    27 1.485305 0.000001 0.000000 0.000000 0.000000 1.168770
    28 1.646738 0.449549 -1.702246 -0.161934 0.581206 -0.284024
    29 0.928312 0.000000 -0.000002 0.000000 0.000000 0.000000
    30 0.928314 0.000000 0.000001 0.000000 0.000000 0.000000
    31 1.533672 0.109715 1.664491 -0.264755 -0.055959 0.783109
    32 0.928313 0.000000 0.000000 0.000000 0.000000 -0.453556
    33 0.928314 0.000000 0.000001 0.000000 0.000000 0.000000
  time 27
    0 0.235347 0.367732 -14.483341 -0.045585 0.257873 -1.742273
    1 0.000000 0.000000 0.000000 -1.570795 -1.570796 0.000000
    2 -0.000005 0.000007 3.713255 2.914525 6.061903 1.331528
    3 18.045721 0.000000 0.000000 0.000000 0.000000 -1.349242
    4 17.597597 0.000000 0.000000 -0.205057 0.225938 -0.216505
    5 0.000005 -0.000003 -3.713255 -0.067002 -3.740518 -0.837425
    6 18.045725 0.000000 0.000000 0.000000 0.000000 -2.074647
    7 17.597597 0.000000 0.000000 -0.092081 0.087821 0.559948
    8 1.293670 0.684478 -0.000001 -0.000004 -0.000001 0.218799
    9 5.309685 -0.003834 0.000000 0.000000 0.000000 0.349065
    10 4.826790 -0.004591 0.000000 -0.173231 0.020530 0.115991
    11 5.792767 -0.005304 0.000000 -0.139528 -0.002709 -0.020116
    12 6.662317 -0.001453 0.000000 0.000000 -0.000001 -0.139840
    13 2.046985 -0.000002 0.000000 0.211322 0.233255 -0.729443
    14 -3.416721 -0.541403 4.341911 2.174004 -0.895511 0.986802
    15 4.827230 0.000000 0.000001 -1.231761 -0.520859 -0.856384
    16 11.139763 0.000000 0.000000 0.000000 0.000000 -0.961277
    17 10.314597 0.000001 0.000000 -3.445988 0.666597 -0.277495
    18 2.975834 -0.386307 -0.044143 -0.000797 -0.043611 0.000035
    19 1.438886 0.000000 0.000000 0.000000 0.000000 0.872212
    20 1.485303 0.000000 0.000000 0.000000 0.000000 0.907076
    21 -3.151157 -0.498832 -4.140396 -1.100349 1.150278 2.218125
    22 4.972048 0.000000 0.000001 0.917491 -0.265294 -1.301014
    23 11.585355 0.000000 0.000000 0.000000 0.000000 -1.922688
    24 10.127057 0.000000 0.000001 1.663840 0.464871 -0.033495
    25 2.683750 -0.427338 0.044205 -0.005786 0.043239 -0.157091
    26 1.438885 -0.000001 0.000000 0.000000 0.000000 0.732658
    27 1.485305 0.000001 0.000000 0.000000 0.000000 1.168770
    28 1.646738 0.449549 -1.702246 -0.161934 0.581206 -0.284024
    29 0.928312 0.000000 -0.000002 0.000000 0.000000 0.000000
    30 0.928314 0.000000 0.000001 0.000000 0.000000 0.000000
    31 1.533672 0.109715 1.664491 -0.264755 -0.055959 0.783109
    32 0.928313 0.000000 0.000000 0.000000 0.000000 -0.453556
    33 0.928314 0.000000 0.000001 0.000000 0.000000 0.000000
  time 28
    0 0.235347 0.367732 -14.483341 -0.045585 0.257873 -1.742273
    1 0.000000 0.000000 0.000000 -1.570795 -1.570796 0.000000
    2 -0.000005 0.000007 3.713255 2.914525 6.061903 1.331528
    3 18.045721 0.000000 0.000000 0.000000 0.000000 -1.349242
    4 17.597597 0.000000 0.000000 -0.205057 0.225938 -0.216505
    5 0.000005 -0.000003 -3.713255 -0.067002 -3.740518 -0.837425
    6 18.045725 0.000000 0.000000 0.000000 0.000000 -2.074647
    7 17.597597 0.000000 0.000000 -0.092081 0.087821 0.559948
    8 1.293670 0.684478 -0.000001 -0.000004 -0.000001 0.218799
    9 5.309685 -0.003834 0.000000 0.000000 0.000000 0.349065
    10 4.826790 -0.004591 0.000000 -0.173264 0.020218 0.114205
    11 5.792767 -0.005304 0.000000 -0.139495 -0.003547 -0.026116
    12 6.662317 -0.001453 0.000000 0.000000 -0.000001 -0.139840
    13 2.046985 -0.000002 0.000000 0.211494 0.233097 -0.721532
    14 -3.416721 -0.541403 4.341911 2.178319 -0.893126 0.981241
    15 4.827230 0.000000 0.000001 -1.234640 -0.510817 -0.857696
    16 11.139763 0.000000 0.000000 0.000000 0.000000 -0.961277
    17 10.314597 0.000001 0.000000 -3.445988 0.666597 -0.277495
    18 2.975834 -0.386307 -0.044143 -0.000797 -0.043611 0.000035
    19 1.438886 0.000000 0.000000 0.000000 0.000000 0.872212
    20 1.485303 0.000000 0.000000 0.000000 0.000000 0.907076
    21 -3.151157 -0.498832 -4.140396 -1.097473 1.152370 2.220809
    22 4.972048 0.000000 0.000001 0.917956 -0.273418 -1.302002
    23 11.585355 0.000000 0.000000 0.000000 0.000000 -1.922688
    24 10.127057 0.000000 0.000001 1.662884 0.465034 -0.035495
    25 2.683750 -0.427338 0.044205 -0.005786 0.043239 -0.157091
    26 1.438885 -0.000001 0.000000 0.000000 0.000000 0.732658
    27 1.485305 0.000001 0.000000 0.000000 0.000000 1.168770
    28 1.646738 0.449549 -1.702246 -0.161934 0.581206 -0.284024
    29 0.928312 0.000000 -0.000002 0.000000 0.000000 0.000000
    30 0.928314 0.000000 0.000001 0.000000 0.000000 0.000000
    31 1.533672 0.109715 1.664491 -0.264755 -0.055959 0.783109
    32 0.928313 0.000000 0.000000 0.000000 0.000000 -0.453556
    33 0.928314 0.000000 0.000001 0.000000 0.000000 0.000000
  time 29
    0 0.235347 0.367732 -14.483341 -0.045585 0.257873 -1.742273
    1 0.000000 0.000000 0.000000 -1.570795 -1.570796 0.000000
    2 -0.000005 0.000007 3.713255 2.914525 6.061903 1.331528
    3 18.045721 0.000000 0.000000 0.000000 0.000000 -1.349242
    4 17.597597 0.000000 0.000000 -0.205057 0.225938 -0.216505
    5 0.000005 -0.000003 -3.713255 -0.067002 -3.740518 -0.837425
    6 18.045725 0.000000 0.000000 0.000000 0.000000 -2.074647
    7 17.597597 0.000000 0.000000 -0.092081 0.087821 0.559948
    8 1.293670 0.684478 -0.000001 -0.000004 -0.000001 0.218799
    9 5.309685 -0.003834 0.000000 0.000000 0.000000 0.349065
    10 4.826790 -0.004591 0.000000 -0.173297 0.019954 0.112727
    11 5.792767 -0.005304 0.000000 -0.139479 -0.004243 -0.031016
    12 6.662317 -0.001453 0.000000 0.000000 -0.000001 -0.139840
    13 2.046985 -0.000002 0.000000 0.211666 0.232962 -0.715059
    14 -3.416721 -0.541403 4.341911 2.181866 -0.891126 0.976735
    15 4.827230 0.000000 0.000001 -1.236989 -0.502477 -0.858834
    16 11.139763 0.000000 0.000000 0.000000 0.000000 -0.961277
    17 10.314597 0.000001 0.000000 -3.445988 0.666597 -0.277495
    18 2.975834 -0.386307 -0.044143 -0.000797 -0.043611 0.000035
    19 1.438886 0.000000 0.000000 0.000000 0.000000 0.872212
    20 1.485303 0.000000 0.000000 0.000000 0.000000 0.907076
    21 -3.151157 -0.498832 -4.140396 -1.095076 1.154122 2.223014
    22 4.972048 0.000000 0.000001 0.918342 -0.280095 -1.302859
    23 11.585355 0.000000 0.000000 0.000000 0.000000 -1.922688
    24 10.127057 0.000000 0.000001 1.662184 0.465169 -0.037142
    25 2.683750 -0.427338 0.044205 -0.005786 0.043239 -0.157091
    26 1.438885 -0.000001 0.000000 0.000000 0.000000 0.732658
    27 1.485305 0.000001 0.000000 0.000000 0.000000 1.168770
    28 1.646738 0.449549 -1.702246 -0.161934 0.581206 -0.284024
    29 0.928312 0.000000 -0.000002 0.000000 0.000000 0.000000
    30 0.928314 0.000000 0.000001 0.000000 0.000000 0.000000
    31 1.533672 0.109715 1.664491 -0.264755 -0.055959 0.783109
    32 0.928313 0.000000 0.000000 0.000000 0.000000 -0.453556
    33 0.928314 0.000000 0.000001 0.000000 0.000000 0.000000
  time 30
    0 0.235347 0.367732 -14.483341 -0.045585 0.257873 -1.742273
    1 0.000000 0.000000 0.000000 -1.570795 -1.570796 0.000000
    2 -0.000005 0.000007 3.713255 2.914525 6.061903 1.331528
    3 18.045721 0.000000 0.000000 0.000000 0.000000 -1.349242
    4 17.597597 0.000000 0.000000 -0.205057 0.225938 -0.216505
    5 0.000005 -0.000003 -3.713255 -0.067002 -3.740518 -0.837425
    6 18.045725 0.000000 0.000000 0.000000 0.000000 -2.074647
    7 17.597597 0.000000 0.000000 -0.092081 0.087821 0.559948
    8 1.293670 0.684478 -0.000001 -0.000004 -0.000001 0.218799
    9 5.309685 -0.003834 0.000000 0.000000 0.000000 0.349065
    10 4.826790 -0.004591 0.000000 -0.173330 0.019775 0.111669
    11 5.792767 -0.005304 0.000000 -0.139462 -0.004746 -0.034629
    12 6.662317 -0.001453 0.000000 0.000000 -0.000001 -0.139840
    13 2.046985 -0.000002 0.000000 0.211796 0.232872 -0.710340
    14 -3.416721 -0.541403 4.341911 2.184455 -0.889664 0.973379
    15 4.827230 0.000000 0.000001 -1.238751 -0.496435 -0.859622
    16 11.139763 0.000000 0.000000 0.000000 0.000000 -0.961277
    17 10.314597 0.000001 0.000000 -3.445988 0.666597 -0.277495
    18 2.975834 -0.386307 -0.044143 -0.000797 -0.043611 0.000035
    19 1.438886 0.000000 0.000000 0.000000 0.000000 0.872212
    20 1.485303 0.000000 0.000000 0.000000 0.000000 0.907076
    21 -3.151157 -0.498832 -4.140396 -1.093255 1.155366 2.224644
    22 4.972048 0.000000 0.000001 0.918652 -0.285002 -1.303518
    23 11.585355 0.000000 0.000000 0.000000 0.000000 -1.922688
    24 10.127057 0.000000 0.000001 1.661610 0.465277 -0.038358
    25 2.683750 -0.427338 0.044205 -0.005786 0.043239 -0.157091
    26 1.438885 -0.000001 0.000000 0.000000 0.000000 0.732658
    27 1.485305 0.000001 0.000000 0.000000 0.000000 1.168770
    28 1.646738 0.449549 -1.702246 -0.161934 0.581206 -0.284024
    29 0.928312 0.000000 -0.000002 0.000000 0.000000 0.000000
    30 0.928314 0.000000 0.000001 0.000000 0.000000 0.000000
    31 1.533672 0.109715 1.664491 -0.264755 -0.055959 0.783109
    32 0.928313 0.000000 0.000000 0.000000 0.000000 -0.453556
    33 0.928314 0.000000 0.000001 0.000000 0.000000 0.000000
end
