version 1
nodes
  0 "Bip01" -1
  1 "Bip01 Pelvis" 0
  2 "Bip01 L Leg" 1
  3 "Bip01 L Leg1" 2
  4 "Bip01 L Foot" 3
  5 "Bip01 R Leg" 1
  6 "Bip01 R Leg1" 5
  7 "Bip01 R Foot" 6
  8 "Bip01 Spine" 1
  9 "Bip01 Spine1" 8
  10 "Bip01 Spine2" 9
  11 "Bip01 Spine3" 10
  12 "Bip01 Neck" 11
  13 "Bip01 Head" 12
  14 "Bip01 L Arm" 12
  15 "Bip01 L Arm1" 14
  16 "Bip01 L Arm2" 15
  17 "Bip01 L Hand" 16
  18 "Bip01 L Finger1" 17
  19 "Bip01 L Finger11" 18
  20 "Bip01 L Finger12" 19
  21 "Bip01 R Arm" 12
  22 "Bip01 R Arm1" 21
  23 "Bip01 R Arm2" 22
  24 "Bip01 R Hand" 23
  25 "Bip01 R Finger1" 24
  26 "Bip01 R Finger11" 25
  27 "Bip01 R Finger12" 26
  28 "Bip01 L Finger0" 17
  29 "Bip01 L Finger01" 28
  30 "Bip01 L Finger02" 29
  31 "Bip01 R Finger0" 24
  32 "Bip01 R Finger01" 31
  33 "Bip01 R Finger02" 32
end
skeleton
  time 0
    0 0.235347 0.039597 -13.307524 0.000000 0.270322 -1.570874
    1 -5.808771 0.265633 0.000000 -1.570795 -1.570796 0.000000
    2 -0.000005 0.000007 3.713255 2.893246 6.073186 1.567094
    3 18.045721 0.000000 0.000000 0.000000 0.000000 -1.744785
    4 17.597597 0.000000 0.000000 -0.164903 0.191688 0.413694
    5 0.000005 -0.000003 -3.713255 0.311735 -3.346321 -0.928284
    6 18.045725 0.000000 0.000000 0.000000 0.000000 -1.993364
    7 17.597597 0.000000 0.000000 0.131027 -0.129953 1.055714
    8 1.293670 0.684478 -0.000001 -0.000004 -0.000001 0.436901
    9 5.309685 -0.003834 0.000000 -0.032981 0.011373 0.331245
    10 4.826790 -0.004591 0.000000 -0.141853 0.043288 0.293463
    11 5.792767 -0.005304 0.000000 0.000000 0.000000 0.191872
    12 6.662317 -0.001453 0.000000 0.000000 -0.000001 0.471000
    13 2.046985 -0.000002 0.000000 0.170824 -0.061939 -0.678517
    14 -3.112024 1.517254 4.341911 1.374615 -0.765689 1.378264
    15 4.827230 0.000000 0.000001 -0.191776 -0.515498 -0.765022
    16 11.139763 0.000000 0.000000 0.000000 0.000000 -0.545003
    17 10.314597 0.000001 0.000000 -2.966205 0.000000 -0.069778
    18 2.975834 -0.386307 -0.044143 -0.012063 -0.041921 0.262037
    19 1.438886 0.000000 0.000000 0.000000 0.000000 0.924863
    20 1.485303 0.000000 0.000000 0.000000 0.000000 0.540993
    21 -2.869898 1.399663 -4.140396 -1.206002 1.054067 1.512882
    22 4.972048 0.000000 0.000001 0.696644 0.250011 -1.462204
    23 11.585355 0.000000 0.000000 0.000000 0.000000 -0.532575
    24 10.127057 0.000000 0.000001 2.168870 0.289773 0.489419
    25 2.683750 -0.427338 0.044205 0.001045 0.043611 0.000046
    26 1.438885 -0.000001 0.000000 0.000000 0.000000 0.767762
    27 1.485305 0.000001 0.000000 0.000000 0.000000 1.221689
    28 1.646738 0.449549 -1.702246 0.154002 0.442277 0.277235
    29 0.928312 0.000000 -0.000002 0.000000 0.000000 0.000000
    30 0.928314 0.000000 0.000001 0.000000 0.000000 0.000000
    31 1.533672 0.109715 1.664491 -0.233255 -0.412980 0.435684
    32 0.928313 0.000000 0.000000 0.000000 0.000000 0.000000
    33 0.928314 0.000000 0.000001 0.000000 0.000000 0.000000
  time 1
    0 0.235347 0.039597 -13.311431 0.000000 0.270322 -1.570874
    1 -5.812677 0.265633 0.000000 -1.570795 -1.570796 0.000000
    2 -0.000005 0.000007 3.713255 2.893246 6.073186 1.567094
    3 18.045721 0.000000 0.000000 0.000000 0.000000 -1.744785
    4 17.597597 0.000000 0.000000 -0.164903 0.191688 0.413694
    5 0.000005 -0.000003 -3.713255 0.311735 -3.346321 -0.928284
    6 18.045725 0.000000 0.000000 0.000000 0.000000 -1.993364
    7 17.597597 0.000000 0.000000 0.131027 -0.129953 1.055714
    8 1.293670 0.684478 -0.000001 -0.000004 -0.000001 0.436901
    9 5.309685 -0.003834 0.000000 -0.032981 0.011373 0.331245
    10 4.826790 -0.004591 0.000000 -0.141787 0.043492 0.294918
    11 5.792767 -0.005304 0.000000 0.000000 0.000000 0.191872
    12 6.662317 -0.001453 0.000000 0.000000 -0.000001 0.471000
    13 2.046985 -0.000002 0.000000 0.170910 -0.061691 -0.681439
    14 -3.112024 1.517254 4.341911 1.376436 -0.761111 1.377018
    15 4.827230 0.000000 0.000001 -0.192598 -0.517625 -0.760209
    16 11.139763 0.000000 0.000000 0.000000 0.000000 -0.545003
    17 10.314597 0.000001 0.000000 -2.966205 0.000000 -0.069778
    18 2.975834 -0.386307 -0.044143 -0.012063 -0.041921 0.262037
    19 1.438886 0.000000 0.000000 0.000000 0.000000 0.924863
    20 1.485303 0.000000 0.000000 0.000000 0.000000 0.540993
    21 -2.869898 1.399663 -4.140396 -1.208590 1.051071 1.510581
    22 4.972048 0.000000 0.000001 0.696180 0.252022 -1.459372
    23 11.585355 0.000000 0.000000 0.000000 0.000000 -0.532575
    24 10.127057 0.000000 0.000001 2.168870 0.289773 0.489419
    25 2.683750 -0.427338 0.044205 0.001045 0.043611 0.000046
    26 1.438885 -0.000001 0.000000 0.000000 0.000000 0.767762
    27 1.485305 0.000001 0.000000 0.000000 0.000000 1.221689
    28 1.646738 0.449549 -1.702246 0.154002 0.442277 0.277235
    29 0.928312 0.000000 -0.000002 0.000000 0.000000 0.000000
    30 0.928314 0.000000 0.000001 0.000000 0.000000 0.000000
    31 1.533672 0.109715 1.664491 -0.233255 -0.412980 0.435684
    32 0.928313 0.000000 0.000000 0.000000 0.000000 0.000000
    33 0.928314 0.000000 0.000001 0.000000 0.000000 0.000000
  time 2
    0 0.235347 0.039597 -13.311431 0.000000 0.270322 -1.570874
    1 -5.812677 0.269539 0.000000 -1.570795 -1.570796 0.000000
    2 -0.000005 0.000007 3.713255 2.893246 6.073186 1.567094
    3 18.045721 0.000000 0.000000 0.000000 0.000000 -1.744785
    4 17.597597 0.000000 0.000000 -0.164903 0.191688 0.413694
    5 0.000005 -0.000003 -3.713255 0.311735 -3.346321 -0.928284
    6 18.045725 0.000000 0.000000 0.000000 0.000000 -1.993364
    7 17.597597 0.000000 0.000000 0.131027 -0.129953 1.055714
    8 1.293670 0.684478 -0.000001 -0.000004 -0.000001 0.436901
    9 5.309685 -0.003834 0.000000 -0.032981 0.011373 0.331245
    10 4.826790 -0.004591 0.000000 -0.141705 0.043780 0.296880
    11 5.792767 -0.005304 0.000000 0.000000 0.000000 0.191872
    12 6.662317 -0.001453 0.000000 0.000000 -0.000001 0.471000
    13 2.046985 -0.000002 0.000000 0.170996 -0.061398 -0.685169
    14 -3.112024 1.517254 4.341911 1.378833 -0.754918 1.375292
    15 4.827230 0.000000 0.000001 -0.193714 -0.520434 -0.753646
    16 11.139763 0.000000 0.000000 0.000000 0.000000 -0.545003
    17 10.314597 0.000001 0.000000 -2.966205 0.000000 -0.069778
    18 2.975834 -0.386307 -0.044143 -0.012063 -0.041921 0.262037
    19 1.438886 0.000000 0.000000 0.000000 0.000000 0.924863
    20 1.485303 0.000000 0.000000 0.000000 0.000000 0.540993
    21 -2.869898 1.399663 -4.140396 -1.212233 1.046973 1.507513
    22 4.972048 0.000000 0.000001 0.695561 0.254677 -1.455485
    23 11.585355 0.000000 0.000000 0.000000 0.000000 -0.532575
    24 10.127057 0.000000 0.000001 2.168870 0.289773 0.489419
    25 2.683750 -0.427338 0.044205 0.001045 0.043611 0.000046
    26 1.438885 -0.000001 0.000000 0.000000 0.000000 0.767762
    27 1.485305 0.000001 0.000000 0.000000 0.000000 1.221689
    28 1.646738 0.449549 -1.702246 0.154002 0.442277 0.277235
    29 0.928312 0.000000 -0.000002 0.000000 0.000000 0.000000
    30 0.928314 0.000000 0.000001 0.000000 0.000000 0.000000
    31 1.533672 0.109715 1.664491 -0.233255 -0.412980 0.435684
    32 0.928313 0.000000 0.000000 0.000000 0.000000 0.000000
    33 0.928314 0.000000 0.000001 0.000000 0.000000 0.000000
  time 3
    0 0.235347 0.039597 -13.311431 0.000000 0.270322 -1.570874
    1 -5.816584 0.269539 0.000000 -1.570795 -1.570796 0.000000
    2 -0.000005 0.000007 3.713255 2.893246 6.073186 1.567094
    3 18.045721 0.000000 0.000000 0.000000 0.000000 -1.744785
    4 17.597597 0.000000 0.000000 -0.164903 0.191688 0.413694
    5 0.000005 -0.000003 -3.713255 0.311735 -3.346321 -0.928284
    6 18.045725 0.000000 0.000000 0.000000 0.000000 -1.993364
    7 17.597597 0.000000 0.000000 0.131027 -0.129953 1.055714
    8 1.293670 0.684478 -0.000001 -0.000004 -0.000001 0.436901
    9 5.309685 -0.003834 0.000000 -0.032981 0.011373 0.331245
    10 4.826790 -0.004591 0.000000 -0.141590 0.044115 0.299283
    11 5.792767 -0.005304 0.000000 0.000000 0.000000 0.191872
    12 6.662317 -0.001453 0.000000 0.000000 -0.000001 0.471000
    13 2.046985 -0.000002 0.000000 0.171125 -0.061038 -0.689619
    14 -3.112024 1.517254 4.341911 1.381805 -0.747340 1.373278
    15 4.827230 0.000000 0.000001 -0.195065 -0.523923 -0.745594
    16 11.139763 0.000000 0.000000 0.000000 0.000000 -0.545003
    17 10.314597 0.000001 0.000000 -2.966205 0.000000 -0.069778
    18 2.975834 -0.386307 -0.044143 -0.012063 -0.041921 0.262037
    19 1.438886 0.000000 0.000000 0.000000 0.000000 0.924863
    20 1.485303 0.000000 0.000000 0.000000 0.000000 0.540993
    21 -2.869898 1.399663 -4.140396 -1.216452 1.041970 1.503774
    22 4.972048 0.000000 0.000001 0.694710 0.257975 -1.450808
    23 11.585355 0.000000 0.000000 0.000000 0.000000 -0.532575
    24 10.127057 0.000000 0.000001 2.168870 0.289773 0.489419
    25 2.683750 -0.427338 0.044205 0.001045 0.043611 0.000046
    26 1.438885 -0.000001 0.000000 0.000000 0.000000 0.767762
    27 1.485305 0.000001 0.000000 0.000000 0.000000 1.221689
    28 1.646738 0.449549 -1.702246 0.154002 0.442277 0.277235
    29 0.928312 0.000000 -0.000002 0.000000 0.000000 0.000000
    30 0.928314 0.000000 0.000001 0.000000 0.000000 0.000000
    31 1.533672 0.109715 1.664491 -0.233255 -0.412980 0.435684
    32 0.928313 0.000000 0.000000 0.000000 0.000000 0.000000
    33 0.928314 0.000000 0.000001 0.000000 0.000000 0.000000
  time 4
    0 0.235347 0.039597 -13.311431 0.000000 0.270322 -1.570874
    1 -5.820490 0.269539 0.000000 -1.570795 -1.570796 0.000000
    2 -0.000005 0.000007 3.713255 2.893246 6.073186 1.567094
    3 18.045721 0.000000 0.000000 0.000000 0.000000 -1.744785
    4 17.597597 0.000000 0.000000 -0.164903 0.191688 0.413694
    5 0.000005 -0.000003 -3.713255 0.311735 -3.346321 -0.928284
    6 18.045725 0.000000 0.000000 0.000000 0.000000 -1.993364
    7 17.597597 0.000000 0.000000 0.131027 -0.129953 1.055714
    8 1.293670 0.684478 -0.000001 -0.000004 -0.000001 0.436901
    9 5.309685 -0.003834 0.000000 -0.032981 0.011373 0.331245
    10 4.826790 -0.004591 0.000000 -0.141475 0.044511 0.302018
    11 5.792767 -0.005304 0.000000 0.000000 0.000000 0.191872
    12 6.662317 -0.001453 0.000000 0.000000 -0.000001 0.471000
    13 2.046985 -0.000002 0.000000 0.171255 -0.060655 -0.694653
    14 -3.112024 1.517254 4.341911 1.385065 -0.738724 1.371073
    15 4.827230 0.000000 0.000001 -0.196592 -0.527837 -0.736406
    16 11.139763 0.000000 0.000000 0.000000 0.000000 -0.545003
    17 10.314597 0.000001 0.000000 -2.966205 0.000000 -0.069778
    18 2.975834 -0.386307 -0.044143 -0.012063 -0.041921 0.262037
    19 1.438886 0.000000 0.000000 0.000000 0.000000 0.924863
    20 1.485303 0.000000 0.000000 0.000000 0.000000 0.540993
    21 -2.869898 1.399663 -4.140396 -1.221245 1.036261 1.499652
    22 4.972048 0.000000 0.000001 0.693859 0.261756 -1.445407
    23 11.585355 0.000000 0.000000 0.000000 0.000000 -0.532575
    24 10.127057 0.000000 0.000001 2.168870 0.289773 0.489419
    25 2.683750 -0.427338 0.044205 0.001045 0.043611 0.000046
    26 1.438885 -0.000001 0.000000 0.000000 0.000000 0.767762
    27 1.485305 0.000001 0.000000 0.000000 0.000000 1.221689
    28 1.646738 0.449549 -1.702246 0.154002 0.442277 0.277235
    29 0.928312 0.000000 -0.000002 0.000000 0.000000 0.000000
    30 0.928314 0.000000 0.000001 0.000000 0.000000 0.000000
    31 1.533672 0.109715 1.664491 -0.233255 -0.412980 0.435684
    32 0.928313 0.000000 0.000000 0.000000 0.000000 0.000000
    33 0.928314 0.000000 0.000001 0.000000 0.000000 0.000000
  time 5
    0 0.235347 0.039597 -13.315337 0.000000 0.270322 -1.570874
    1 -5.824396 0.273446 0.000000 -1.570795 -1.570796 0.000000
    2 -0.000005 0.000007 3.713255 2.893246 6.073186 1.567094
    3 18.045721 0.000000 0.000000 0.000000 0.000000 -1.744785
    4 17.597597 0.000000 0.000000 -0.164903 0.191688 0.413694
    5 0.000005 -0.000003 -3.713255 0.311735 -3.346321 -0.928284
    6 18.045725 0.000000 0.000000 0.000000 0.000000 -1.993364
    7 17.597597 0.000000 0.000000 0.131027 -0.129953 1.055714
    8 1.293670 0.684478 -0.000001 -0.000004 -0.000001 0.436901
    9 5.309685 -0.003834 0.000000 -0.032981 0.011373 0.331245
    10 4.826790 -0.004591 0.000000 -0.141344 0.044930 0.304994
    11 5.792767 -0.005304 0.000000 0.000000 0.000000 0.191872
    12 6.662317 -0.001453 0.000000 0.000000 -0.000001 0.471000
    13 2.046985 -0.000002 0.000000 0.171427 -0.060228 -0.700092
    14 -3.112024 1.517254 4.341911 1.388612 -0.729300 1.368772
    15 4.827230 0.000000 0.000001 -0.198296 -0.532093 -0.726342
    16 11.139763 0.000000 0.000000 0.000000 0.000000 -0.545003
    17 10.314597 0.000001 0.000000 -2.966205 0.000000 -0.069778
    18 2.975834 -0.386307 -0.044143 -0.012063 -0.041921 0.262037
    19 1.438886 0.000000 0.000000 0.000000 0.000000 0.924863
    20 1.485303 0.000000 0.000000 0.000000 0.000000 0.540993
    21 -2.869898 1.399663 -4.140396 -1.226423 1.030014 1.495242
    22 4.972048 0.000000 0.000001 0.692853 0.265778 -1.439544
    23 11.585355 0.000000 0.000000 0.000000 0.000000 -0.532575
    24 10.127057 0.000000 0.000001 2.168870 0.289773 0.489419
    25 2.683750 -0.427338 0.044205 0.001045 0.043611 0.000046
    26 1.438885 -0.000001 0.000000 0.000000 0.000000 0.767762
    27 1.485305 0.000001 0.000000 0.000000 0.000000 1.221689
    28 1.646738 0.449549 -1.702246 0.154002 0.442277 0.277235
    29 0.928312 0.000000 -0.000002 0.000000 0.000000 0.000000
    30 0.928314 0.000000 0.000001 0.000000 0.000000 0.000000
    31 1.533672 0.109715 1.664491 -0.233255 -0.412980 0.435684
    32 0.928313 0.000000 0.000000 0.000000 0.000000 0.000000
    33 0.928314 0.000000 0.000001 0.000000 0.000000 0.000000
  time 6
    0 0.235347 0.039597 -13.315337 0.000000 0.270322 -1.570874
    1 -5.828303 0.273446 0.000000 -1.570795 -1.570796 0.000000
    2 -0.000005 0.000007 3.713255 2.893246 6.073186 1.567094
    3 18.045721 0.000000 0.000000 0.000000 0.000000 -1.744785
    4 17.597597 0.000000 0.000000 -0.164903 0.191688 0.413694
    5 0.000005 -0.000003 -3.713255 0.311735 -3.346321 -0.928284
    6 18.045725 0.000000 0.000000 0.000000 0.000000 -1.993364
    7 17.597597 0.000000 0.000000 0.131027 -0.129953 1.055714
    8 1.293670 0.684478 -0.000001 -0.000004 -0.000001 0.436901
    9 5.309685 -0.003834 0.000000 -0.032981 0.011373 0.331245
    10 4.826790 -0.004591 0.000000 -0.141196 0.045374 0.308125
    11 5.792767 -0.005304 0.000000 0.000000 0.000000 0.191872
    12 6.662317 -0.001453 0.000000 0.000000 -0.000001 0.471000
    13 2.046985 -0.000002 0.000000 0.171556 -0.059777 -0.705800
    14 -3.112024 1.517254 4.341911 1.392255 -0.719375 1.366279
    15 4.827230 0.000000 0.000001 -0.200117 -0.536603 -0.715753
    16 11.139763 0.000000 0.000000 0.000000 0.000000 -0.545003
    17 10.314597 0.000001 0.000000 -2.966205 0.000000 -0.069778
    18 2.975834 -0.386307 -0.044143 -0.012063 -0.041921 0.262037
    19 1.438886 0.000000 0.000000 0.000000 0.000000 0.924863
    20 1.485303 0.000000 0.000000 0.000000 0.000000 0.540993
    21 -2.869898 1.399663 -4.140396 -1.231696 1.023457 1.490736
    22 4.972048 0.000000 0.000001 0.691848 0.270121 -1.433418
    23 11.585355 0.000000 0.000000 0.000000 0.000000 -0.532575
    24 10.127057 0.000000 0.000001 2.168870 0.289773 0.489419
    25 2.683750 -0.427338 0.044205 0.001045 0.043611 0.000046
    26 1.438885 -0.000001 0.000000 0.000000 0.000000 0.767762
    27 1.485305 0.000001 0.000000 0.000000 0.000000 1.221689
    28 1.646738 0.449549 -1.702246 0.154002 0.442277 0.277235
    29 0.928312 0.000000 -0.000002 0.000000 0.000000 0.000000
    30 0.928314 0.000000 0.000001 0.000000 0.000000 0.000000
    31 1.533672 0.109715 1.664491 -0.233255 -0.412980 0.435684
    32 0.928313 0.000000 0.000000 0.000000 0.000000 0.000000
    33 0.928314 0.000000 0.000001 0.000000 0.000000 0.000000
  time 7
    0 0.235347 0.039597 -13.315337 0.000000 0.270322 -1.570874
    1 -5.832209 0.273446 0.000000 -1.570795 -1.570796 0.000000
    2 -0.000005 0.000007 3.713255 2.893246 6.073186 1.567094
    3 18.045721 0.000000 0.000000 0.000000 0.000000 -1.744785
    4 17.597597 0.000000 0.000000 -0.164903 0.191688 0.413694
    5 0.000005 -0.000003 -3.713255 0.311735 -3.346321 -0.928284
    6 18.045725 0.000000 0.000000 0.000000 0.000000 -1.993364
    7 17.597597 0.000000 0.000000 0.131027 -0.129953 1.055714
    8 1.293670 0.684478 -0.000001 -0.000004 -0.000001 0.436901
    9 5.309685 -0.003834 0.000000 -0.032981 0.011373 0.331245
    10 4.826790 -0.004591 0.000000 -0.141048 0.045829 0.311322
    11 5.792767 -0.005304 0.000000 0.000000 0.000000 0.191872
    12 6.662317 -0.001453 0.000000 0.000000 -0.000001 0.471000
    13 2.046985 -0.000002 0.000000 0.171729 -0.059304 -0.711778
    14 -3.112024 1.517254 4.341911 1.395898 -0.709259 1.363978
    15 4.827230 0.000000 0.000001 -0.201996 -0.541198 -0.704989
    16 11.139763 0.000000 0.000000 0.000000 0.000000 -0.545003
    17 10.314597 0.000001 0.000000 -2.966205 0.000000 -0.069778
    18 2.975834 -0.386307 -0.044143 -0.012063 -0.041921 0.262037
    19 1.438886 0.000000 0.000000 0.000000 0.000000 0.924863
    20 1.485303 0.000000 0.000000 0.000000 0.000000 0.540993
    21 -2.869898 1.399663 -4.140396 -1.236969 1.016730 1.486230
    22 4.972048 0.000000 0.000001 0.690842 0.274465 -1.427160
    23 11.585355 0.000000 0.000000 0.000000 0.000000 -0.532575
    24 10.127057 0.000000 0.000001 2.168870 0.289773 0.489419
    25 2.683750 -0.427338 0.044205 0.001045 0.043611 0.000046
    26 1.438885 -0.000001 0.000000 0.000000 0.000000 0.767762
    27 1.485305 0.000001 0.000000 0.000000 0.000000 1.221689
    28 1.646738 0.449549 -1.702246 0.154002 0.442277 0.277235
    29 0.928312 0.000000 -0.000002 0.000000 0.000000 0.000000
    30 0.928314 0.000000 0.000001 0.000000 0.000000 0.000000
    31 1.533672 0.109715 1.664491 -0.233255 -0.412980 0.435684
    32 0.928313 0.000000 0.000000 0.000000 0.000000 0.000000
    33 0.928314 0.000000 0.000001 0.000000 0.000000 0.000000
  time 8
    0 0.235347 0.039597 -13.315337 0.000000 0.270322 -1.570874
    1 -5.836116 0.277352 0.000000 -1.570795 -1.570796 0.000000
    2 -0.000005 0.000007 3.713255 2.893246 6.073186 1.567094
    3 18.045721 0.000000 0.000000 0.000000 0.000000 -1.744785
    4 17.597597 0.000000 0.000000 -0.164903 0.191688 0.413694
    5 0.000005 -0.000003 -3.713255 0.311735 -3.346321 -0.928284
    6 18.045725 0.000000 0.000000 0.000000 0.000000 -1.993364
    7 17.597597 0.000000 0.000000 0.131027 -0.129953 1.055714
    8 1.293670 0.684478 -0.000001 -0.000004 -0.000001 0.436901
    9 5.309685 -0.003834 0.000000 -0.032981 0.011373 0.331245
    10 4.826790 -0.004591 0.000000 -0.140917 0.046284 0.314497
    11 5.792767 -0.005304 0.000000 0.000000 0.000000 0.191872
    12 6.662317 -0.001453 0.000000 0.000000 -0.000001 0.471000
    13 2.046985 -0.000002 0.000000 0.171901 -0.058832 -0.717756
    14 -3.112024 1.517254 4.341911 1.399446 -0.699258 1.361677
    15 4.827230 0.000000 0.000001 -0.203876 -0.545624 -0.694225
    16 11.139763 0.000000 0.000000 0.000000 0.000000 -0.545003
    17 10.314597 0.000001 0.000000 -2.966205 0.000000 -0.069778
    18 2.975834 -0.386307 -0.044143 -0.012063 -0.041921 0.262037
    19 1.438886 0.000000 0.000000 0.000000 0.000000 0.924863
    20 1.485303 0.000000 0.000000 0.000000 0.000000 0.540993
    21 -2.869898 1.399663 -4.140396 -1.242050 1.010088 1.481915
    22 4.972048 0.000000 0.000001 0.689837 0.278809 -1.420902
    23 11.585355 0.000000 0.000000 0.000000 0.000000 -0.532575
    24 10.127057 0.000000 0.000001 2.168870 0.289773 0.489419
    25 2.683750 -0.427338 0.044205 0.001045 0.043611 0.000046
    26 1.438885 -0.000001 0.000000 0.000000 0.000000 0.767762
    27 1.485305 0.000001 0.000000 0.000000 0.000000 1.221689
    28 1.646738 0.449549 -1.702246 0.154002 0.442277 0.277235
    29 0.928312 0.000000 -0.000002 0.000000 0.000000 0.000000
    30 0.928314 0.000000 0.000001 0.000000 0.000000 0.000000
    31 1.533672 0.109715 1.664491 -0.233255 -0.412980 0.435684
    32 0.928313 0.000000 0.000000 0.000000 0.000000 0.000000
    33 0.928314 0.000000 0.000001 0.000000 0.000000 0.000000
  time 9
    0 0.235347 0.039597 -13.319243 0.000000 0.270322 -1.570874
    1 -5.840022 0.277352 0.000000 -1.570795 -1.570796 0.000000
    2 -0.000005 0.000007 3.713255 2.893246 6.073186 1.567094
    3 18.045721 0.000000 0.000000 0.000000 0.000000 -1.744785
    4 17.597597 0.000000 0.000000 -0.164903 0.191688 0.413694
    5 0.000005 -0.000003 -3.713255 0.311735 -3.346321 -0.928284
    6 18.045725 0.000000 0.000000 0.000000 0.000000 -1.993364
    7 17.597597 0.000000 0.000000 0.131027 -0.129953 1.055714
    8 1.293670 0.684478 -0.000001 -0.000004 -0.000001 0.436901
    9 5.309685 -0.003834 0.000000 -0.032981 0.011373 0.331245
    10 4.826790 -0.004591 0.000000 -0.140769 0.046716 0.317540
    11 5.792767 -0.005304 0.000000 0.000000 0.000000 0.191872
    12 6.662317 -0.001453 0.000000 0.000000 -0.000001 0.471000
    13 2.046985 -0.000002 0.000000 0.172073 -0.058314 -0.723779
    14 -3.112024 1.517254 4.341911 1.402801 -0.689603 1.359472
    15 4.827230 0.000000 0.000001 -0.205755 -0.549964 -0.683899
    16 11.139763 0.000000 0.000000 0.000000 0.000000 -0.545003
    17 10.314597 0.000001 0.000000 -2.966205 0.000000 -0.069778
    18 2.975834 -0.386307 -0.044143 -0.012063 -0.041921 0.262037
    19 1.438886 0.000000 0.000000 0.000000 0.000000 0.924863
    20 1.485303 0.000000 0.000000 0.000000 0.000000 0.540993
    21 -2.869898 1.399663 -4.140396 -1.246844 1.003672 1.477889
    22 4.972048 0.000000 0.000001 0.688831 0.282992 -1.414974
    23 11.585355 0.000000 0.000000 0.000000 0.000000 -0.532575
    24 10.127057 0.000000 0.000001 2.168870 0.289773 0.489419
    25 2.683750 -0.427338 0.044205 0.001045 0.043611 0.000046
    26 1.438885 -0.000001 0.000000 0.000000 0.000000 0.767762
    27 1.485305 0.000001 0.000000 0.000000 0.000000 1.221689
    28 1.646738 0.449549 -1.702246 0.154002 0.442277 0.277235
    29 0.928312 0.000000 -0.000002 0.000000 0.000000 0.000000
    30 0.928314 0.000000 0.000001 0.000000 0.000000 0.000000
    31 1.533672 0.109715 1.664491 -0.233255 -0.412980 0.435684
    32 0.928313 0.000000 0.000000 0.000000 0.000000 0.000000
    33 0.928314 0.000000 0.000001 0.000000 0.000000 0.000000
  time 10
    0 0.235347 0.039597 -13.319243 0.000000 0.270322 -1.570874
    1 -5.843928 0.281259 0.000000 -1.570795 -1.570796 0.000000
    2 -0.000005 0.000007 3.713255 2.893246 6.073186 1.567094
    3 18.045721 0.000000 0.000000 0.000000 0.000000 -1.744785
    4 17.597597 0.000000 0.000000 -0.164903 0.191688 0.413694
    5 0.000005 -0.000003 -3.713255 0.311735 -3.346321 -0.928284
    6 18.045725 0.000000 0.000000 0.000000 0.000000 -1.993364
    7 17.597597 0.000000 0.000000 0.131027 -0.129953 1.055714
    8 1.293670 0.684478 -0.000001 -0.000004 -0.000001 0.436901
    9 5.309685 -0.003834 0.000000 -0.032981 0.011373 0.331245
    10 4.826790 -0.004591 0.000000 -0.140638 0.047111 0.320362
    11 5.792767 -0.005304 0.000000 0.000000 0.000000 0.191872
    12 6.662317 -0.001453 0.000000 0.000000 -0.000001 0.471000
    13 2.046985 -0.000002 0.000000 0.172246 -0.057796 -0.729623
    14 -3.112024 1.517254 4.341911 1.405869 -0.680640 1.357555
    15 4.827230 0.000000 0.000001 -0.207459 -0.553963 -0.674273
    16 11.139763 0.000000 0.000000 0.000000 0.000000 -0.545003
    17 10.314597 0.000001 0.000000 -2.966205 0.000000 -0.069778
    18 2.975834 -0.386307 -0.044143 -0.012063 -0.041921 0.262037
    19 1.438886 0.000000 0.000000 0.000000 0.000000 0.924863
    20 1.485303 0.000000 0.000000 0.000000 0.000000 0.540993
    21 -2.869898 1.399663 -4.140396 -1.251254 0.997708 1.474150
    22 4.972048 0.000000 0.000001 0.687980 0.286853 -1.409375
    23 11.585355 0.000000 0.000000 0.000000 0.000000 -0.532575
    24 10.127057 0.000000 0.000001 2.168870 0.289773 0.489419
    25 2.683750 -0.427338 0.044205 0.001045 0.043611 0.000046
    26 1.438885 -0.000001 0.000000 0.000000 0.000000 0.767762
    27 1.485305 0.000001 0.000000 0.000000 0.000000 1.221689
    28 1.646738 0.449549 -1.702246 0.154002 0.442277 0.277235
    29 0.928312 0.000000 -0.000002 0.000000 0.000000 0.000000
    30 0.928314 0.000000 0.000001 0.000000 0.000000 0.000000
    31 1.533672 0.109715 1.664491 -0.233255 -0.412980 0.435684
    32 0.928313 0.000000 0.000000 0.000000 0.000000 0.000000
    33 0.928314 0.000000 0.000001 0.000000 0.000000 0.000000
  time 11
    0 0.235347 0.039597 -13.319243 0.000000 0.270322 -1.570874
    1 -5.847835 0.281259 0.000000 -1.570795 -1.570796 0.000000
    2 -0.000005 0.000007 3.713255 2.893246 6.073186 1.567094
    3 18.045721 0.000000 0.000000 0.000000 0.000000 -1.744785
    4 17.597597 0.000000 0.000000 -0.164903 0.191688 0.413694
    5 0.000005 -0.000003 -3.713255 0.311735 -3.346321 -0.928284
    6 18.045725 0.000000 0.000000 0.000000 0.000000 -1.993364
    7 17.597597 0.000000 0.000000 0.131027 -0.129953 1.055714
    8 1.293670 0.684478 -0.000001 -0.000004 -0.000001 0.436901
    9 5.309685 -0.003834 0.000000 -0.032981 0.011373 0.331245
    10 4.826790 -0.004591 0.000000 -0.140523 0.047471 0.322876
    11 5.792767 -0.005304 0.000000 0.000000 0.000000 0.191872
    12 6.662317 -0.001453 0.000000 0.000000 -0.000001 0.471000
    13 2.046985 -0.000002 0.000000 0.172418 -0.057256 -0.735241
    14 -3.112024 1.517254 4.341911 1.408554 -0.672639 1.355829
    15 4.827230 0.000000 0.000001 -0.209045 -0.557453 -0.665697
    16 11.139763 0.000000 0.000000 0.000000 0.000000 -0.545003
    17 10.314597 0.000001 0.000000 -2.966205 0.000000 -0.069778
    18 2.975834 -0.386307 -0.044143 -0.012063 -0.041921 0.262037
    19 1.438886 0.000000 0.000000 0.000000 0.000000 0.924863
    20 1.485303 0.000000 0.000000 0.000000 0.000000 0.540993
    21 -2.869898 1.399663 -4.140396 -1.255089 0.992367 1.470986
    22 4.972048 0.000000 0.000001 0.687129 0.290232 -1.404434
    23 11.585355 0.000000 0.000000 0.000000 0.000000 -0.532575
    24 10.127057 0.000000 0.000001 2.168870 0.289773 0.489419
    25 2.683750 -0.427338 0.044205 0.001045 0.043611 0.000046
    26 1.438885 -0.000001 0.000000 0.000000 0.000000 0.767762
    27 1.485305 0.000001 0.000000 0.000000 0.000000 1.221689
    28 1.646738 0.449549 -1.702246 0.154002 0.442277 0.277235
    29 0.928312 0.000000 -0.000002 0.000000 0.000000 0.000000
    30 0.928314 0.000000 0.000001 0.000000 0.000000 0.000000
    31 1.533672 0.109715 1.664491 -0.233255 -0.412980 0.435684
    32 0.928313 0.000000 0.000000 0.000000 0.000000 0.000000
    33 0.928314 0.000000 0.000001 0.000000 0.000000 0.000000
  time 12
    0 0.235347 0.039597 -13.319243 0.000000 0.270322 -1.570874
    1 -5.847835 0.281259 0.000000 -1.570795 -1.570796 0.000000
    2 -0.000005 0.000007 3.713255 2.893246 6.073186 1.567094
    3 18.045721 0.000000 0.000000 0.000000 0.000000 -1.744785
    4 17.597597 0.000000 0.000000 -0.164903 0.191688 0.413694
    5 0.000005 -0.000003 -3.713255 0.311735 -3.346321 -0.928284
    6 18.045725 0.000000 0.000000 0.000000 0.000000 -1.993364
    7 17.597597 0.000000 0.000000 0.131027 -0.129953 1.055714
    8 1.293670 0.684478 -0.000001 -0.000004 -0.000001 0.436901
    9 5.309685 -0.003834 0.000000 -0.032981 0.011373 0.331245
    10 4.826790 -0.004591 0.000000 -0.140408 0.047771 0.324993
    11 5.792767 -0.005304 0.000000 0.000000 0.000000 0.191872
    12 6.662317 -0.001453 0.000000 0.000000 -0.000001 0.471000
    13 2.046985 -0.000002 0.000000 0.172590 -0.056715 -0.740500
    14 -3.112024 1.517254 4.341911 1.410855 -0.665946 1.354487
    15 4.827230 0.000000 0.000001 -0.210337 -0.560431 -0.658433
    16 11.139763 0.000000 0.000000 0.000000 0.000000 -0.545003
    17 10.314597 0.000001 0.000000 -2.966205 0.000000 -0.069778
    18 2.975834 -0.386307 -0.044143 -0.012063 -0.041921 0.262037
    19 1.438886 0.000000 0.000000 0.000000 0.000000 0.924863
    20 1.485303 0.000000 0.000000 0.000000 0.000000 0.540993
    21 -2.869898 1.399663 -4.140396 -1.258252 0.987873 1.468301
    22 4.972048 0.000000 0.000001 0.686510 0.293128 -1.400284
    23 11.585355 0.000000 0.000000 0.000000 0.000000 -0.532575
    24 10.127057 0.000000 0.000001 2.168870 0.289773 0.489419
    25 2.683750 -0.427338 0.044205 0.001045 0.043611 0.000046
    26 1.438885 -0.000001 0.000000 0.000000 0.000000 0.767762
    27 1.485305 0.000001 0.000000 0.000000 0.000000 1.221689
    28 1.646738 0.449549 -1.702246 0.154002 0.442277 0.277235
    29 0.928312 0.000000 -0.000002 0.000000 0.000000 0.000000
    30 0.928314 0.000000 0.000001 0.000000 0.000000 0.000000
    31 1.533672 0.109715 1.664491 -0.233255 -0.412980 0.435684
    32 0.928313 0.000000 0.000000 0.000000 0.000000 0.000000
    33 0.928314 0.000000 0.000001 0.000000 0.000000 0.000000
  time 13
    0 0.235347 0.039597 -13.319243 0.000000 0.270322 -1.570874
    1 -5.851741 0.285165 0.000000 -1.570795 -1.570796 0.000000
    2 -0.000005 0.000007 3.713255 2.893246 6.073186 1.567094
    3 18.045721 0.000000 0.000000 0.000000 0.000000 -1.744785
    4 17.597597 0.000000 0.000000 -0.164903 0.191688 0.413694
    5 0.000005 -0.000003 -3.713255 0.311735 -3.346321 -0.928284
    6 18.045725 0.000000 0.000000 0.000000 0.000000 -1.993364
    7 17.597597 0.000000 0.000000 0.131027 -0.129953 1.055714
    8 1.293670 0.684478 -0.000001 -0.000004 -0.000001 0.436901
    9 5.309685 -0.003834 0.000000 -0.032981 0.011373 0.331245
    10 4.826790 -0.004591 0.000000 -0.140342 0.047998 0.326624
    11 5.792767 -0.005304 0.000000 0.000000 0.000000 0.191872
    12 6.662317 -0.001453 0.000000 0.000000 -0.000001 0.471000
    13 2.046985 -0.000002 0.000000 0.172762 -0.056175 -0.745309
    14 -3.112024 1.517254 4.341911 1.412484 -0.660753 1.353432
    15 4.827230 0.000000 0.000001 -0.211335 -0.562729 -0.652833
    16 11.139763 0.000000 0.000000 0.000000 0.000000 -0.545003
    17 10.314597 0.000001 0.000000 -2.966205 0.000000 -0.069778
    18 2.975834 -0.386307 -0.044143 -0.012063 -0.041921 0.262037
    19 1.438886 0.000000 0.000000 0.000000 0.000000 0.924863
    20 1.485303 0.000000 0.000000 0.000000 0.000000 0.540993
    21 -2.869898 1.399663 -4.140396 -1.260649 0.984424 1.466288
    22 4.972048 0.000000 0.000001 0.685969 0.295380 -1.397056
    23 11.585355 0.000000 0.000000 0.000000 0.000000 -0.532575
    24 10.127057 0.000000 0.000001 2.168870 0.289773 0.489419
    25 2.683750 -0.427338 0.044205 0.001045 0.043611 0.000046
    26 1.438885 -0.000001 0.000000 0.000000 0.000000 0.767762
    27 1.485305 0.000001 0.000000 0.000000 0.000000 1.221689
    28 1.646738 0.449549 -1.702246 0.154002 0.442277 0.277235
    29 0.928312 0.000000 -0.000002 0.000000 0.000000 0.000000
    30 0.928314 0.000000 0.000001 0.000000 0.000000 0.000000
    31 1.533672 0.109715 1.664491 -0.233255 -0.412980 0.435684
    32 0.928313 0.000000 0.000000 0.000000 0.000000 0.000000
    33 0.928314 0.000000 0.000001 0.000000 0.000000 0.000000
  time 14
    0 0.235347 0.039597 -13.319243 0.000000 0.270322 -1.570874
    1 -5.851741 0.285165 0.000000 -1.570795 -1.570796 0.000000
    2 -0.000005 0.000007 3.713255 2.893246 6.073186 1.567094
    3 18.045721 0.000000 0.000000 0.000000 0.000000 -1.744785
    4 17.597597 0.000000 0.000000 -0.164903 0.191688 0.413694
    5 0.000005 -0.000003 -3.713255 0.311735 -3.346321 -0.928284
    6 18.045725 0.000000 0.000000 0.000000 0.000000 -1.993364
    7 17.597597 0.000000 0.000000 0.131027 -0.129953 1.055714
    8 1.293670 0.684478 -0.000001 -0.000004 -0.000001 0.436901
    9 5.309685 -0.003834 0.000000 -0.032981 0.011373 0.331245
    10 4.826790 -0.004591 0.000000 -0.140293 0.048142 0.327682
    11 5.792767 -0.005304 0.000000 0.000000 0.000000 0.191872
    12 6.662317 -0.001453 0.000000 0.000000 -0.000001 0.471000
    13 2.046985 -0.000002 0.000000 0.172935 -0.055634 -0.749489
    14 -3.112024 1.517254 4.341911 1.413635 -0.657445 1.352761
    15 4.827230 0.000000 0.000001 -0.212040 -0.564175 -0.649245
    16 11.139763 0.000000 0.000000 0.000000 0.000000 -0.545003
    17 10.314597 0.000001 0.000000 -2.966205 0.000000 -0.069778
    18 2.975834 -0.386307 -0.044143 -0.012063 -0.041921 0.262037
    19 1.438886 0.000000 0.000000 0.000000 0.000000 0.924863
    20 1.485303 0.000000 0.000000 0.000000 0.000000 0.540993
    21 -2.869898 1.399663 -4.140396 -1.262183 0.982220 1.465042
    22 4.972048 0.000000 0.000001 0.685659 0.296828 -1.395014
    23 11.585355 0.000000 0.000000 0.000000 0.000000 -0.532575
    24 10.127057 0.000000 0.000001 2.168870 0.289773 0.489419
    25 2.683750 -0.427338 0.044205 0.001045 0.043611 0.000046
    26 1.438885 -0.000001 0.000000 0.000000 0.000000 0.767762
    27 1.485305 0.000001 0.000000 0.000000 0.000000 1.221689
    28 1.646738 0.449549 -1.702246 0.154002 0.442277 0.277235
    29 0.928312 0.000000 -0.000002 0.000000 0.000000 0.000000
    30 0.928314 0.000000 0.000001 0.000000 0.000000 0.000000
    31 1.533672 0.109715 1.664491 -0.233255 -0.412980 0.435684
    32 0.928313 0.000000 0.000000 0.000000 0.000000 0.000000
    33 0.928314 0.000000 0.000001 0.000000 0.000000 0.000000
  time 15
    0 0.235347 0.039597 -13.319243 0.000000 0.270322 -1.570874
    1 -5.851741 0.285165 0.000000 -1.570795 -1.570796 0.000000
    2 -0.000005 0.000007 3.713255 2.893246 6.073186 1.567094
    3 18.045721 0.000000 0.000000 0.000000 0.000000 -1.744785
    4 17.597597 0.000000 0.000000 -0.164903 0.191688 0.413694
    5 0.000005 -0.000003 -3.713255 0.311735 -3.346321 -0.928284
    6 18.045725 0.000000 0.000000 0.000000 0.000000 -1.993364
    7 17.597597 0.000000 0.000000 0.131027 -0.129953 1.055714
    8 1.293670 0.684478 -0.000001 -0.000004 -0.000001 0.436901
    9 5.309685 -0.003834 0.000000 -0.032981 0.011373 0.331245
    10 4.826790 -0.004591 0.000000 -0.140276 0.048202 0.328035
    11 5.792767 -0.005304 0.000000 0.000000 0.000000 0.191872
    12 6.662317 -0.001453 0.000000 0.000000 -0.000001 0.471000
    13 2.046985 -0.000002 0.000000 0.173107 -0.055094 -0.752950
    14 -3.112024 1.517254 4.341911 1.414018 -0.656291 1.352473
    15 4.827230 0.000000 0.000001 -0.212275 -0.564686 -0.648020
    16 11.139763 0.000000 0.000000 0.000000 0.000000 -0.545003
    17 10.314597 0.000001 0.000000 -2.966205 0.000000 -0.069778
    18 2.975834 -0.386307 -0.044143 -0.012063 -0.041921 0.262037
    19 1.438886 0.000000 0.000000 0.000000 0.000000 0.924863
    20 1.485303 0.000000 0.000000 0.000000 0.000000 0.540993
    21 -2.869898 1.399663 -4.140396 -1.262759 0.981428 1.464562
    22 4.972048 0.000000 0.000001 0.685505 0.297311 -1.394290
    23 11.585355 0.000000 0.000000 0.000000 0.000000 -0.532575
    24 10.127057 0.000000 0.000001 2.168870 0.289773 0.489419
    25 2.683750 -0.427338 0.044205 0.001045 0.043611 0.000046
    26 1.438885 -0.000001 0.000000 0.000000 0.000000 0.767762
    27 1.485305 0.000001 0.000000 0.000000 0.000000 1.221689
    28 1.646738 0.449549 -1.702246 0.154002 0.442277 0.277235
    29 0.928312 0.000000 -0.000002 0.000000 0.000000 0.000000
    30 0.928314 0.000000 0.000001 0.000000 0.000000 0.000000
    31 1.533672 0.109715 1.664491 -0.233255 -0.412980 0.435684
    32 0.928313 0.000000 0.000000 0.000000 0.000000 0.000000
    33 0.928314 0.000000 0.000001 0.000000 0.000000 0.000000
  time 16
    0 0.235347 0.039597 -13.319243 0.000000 0.270322 -1.570874
    1 -5.851741 0.285165 0.000000 -1.570795 -1.570796 0.000000
    2 -0.000005 0.000007 3.713255 2.893246 6.073186 1.567094
    3 18.045721 0.000000 0.000000 0.000000 0.000000 -1.744785
    4 17.597597 0.000000 0.000000 -0.164903 0.191688 0.413694
    5 0.000005 -0.000003 -3.713255 0.311735 -3.346321 -0.928284
    6 18.045725 0.000000 0.000000 0.000000 0.000000 -1.993364
    7 17.597597 0.000000 0.000000 0.131027 -0.129953 1.055714
    8 1.293670 0.684478 -0.000001 -0.000004 -0.000001 0.436901
    9 5.309685 -0.003834 0.000000 -0.032981 0.011373 0.331245
    10 4.826790 -0.004591 0.000000 -0.140293 0.048142 0.327682
    11 5.792767 -0.005304 0.000000 0.000000 0.000000 0.191872
    12 6.662317 -0.001453 0.000000 0.000000 -0.000001 0.471000
    13 2.046985 -0.000002 0.000000 0.173279 -0.054576 -0.755557
    14 -3.112024 1.517254 4.341911 1.413635 -0.657445 1.352761
    15 4.827230 0.000000 0.000001 -0.212040 -0.564175 -0.649245
    16 11.139763 0.000000 0.000000 0.000000 0.000000 -0.545003
    17 10.314597 0.000001 0.000000 -2.966205 0.000000 -0.069778
    18 2.975834 -0.386307 -0.044143 -0.012063 -0.041921 0.262037
    19 1.438886 0.000000 0.000000 0.000000 0.000000 0.924863
    20 1.485303 0.000000 0.000000 0.000000 0.000000 0.540993
    21 -2.869898 1.399663 -4.140396 -1.262183 0.982220 1.465042
    22 4.972048 0.000000 0.000001 0.685659 0.296828 -1.395014
    23 11.585355 0.000000 0.000000 0.000000 0.000000 -0.532575
    24 10.127057 0.000000 0.000001 2.168870 0.289773 0.489419
    25 2.683750 -0.427338 0.044205 0.001045 0.043611 0.000046
    26 1.438885 -0.000001 0.000000 0.000000 0.000000 0.767762
    27 1.485305 0.000001 0.000000 0.000000 0.000000 1.221689
    28 1.646738 0.449549 -1.702246 0.154002 0.442277 0.277235
    29 0.928312 0.000000 -0.000002 0.000000 0.000000 0.000000
    30 0.928314 0.000000 0.000001 0.000000 0.000000 0.000000
    31 1.533672 0.109715 1.664491 -0.233255 -0.412980 0.435684
    32 0.928313 0.000000 0.000000 0.000000 0.000000 0.000000
    33 0.928314 0.000000 0.000001 0.000000 0.000000 0.000000
  time 17
    0 0.235347 0.039597 -13.319243 0.000000 0.270322 -1.570874
    1 -5.851741 0.285165 0.000000 -1.570795 -1.570796 0.000000
    2 -0.000005 0.000007 3.713255 2.893246 6.073186 1.567094
    3 18.045721 0.000000 0.000000 0.000000 0.000000 -1.744785
    4 17.597597 0.000000 0.000000 -0.164903 0.191688 0.413694
    5 0.000005 -0.000003 -3.713255 0.311735 -3.346321 -0.928284
    6 18.045725 0.000000 0.000000 0.000000 0.000000 -1.993364
    7 17.597597 0.000000 0.000000 0.131027 -0.129953 1.055714
    8 1.293670 0.684478 -0.000001 -0.000004 -0.000001 0.436901
    9 5.309685 -0.003834 0.000000 -0.032981 0.011373 0.331245
    10 4.826790 -0.004591 0.000000 -0.140342 0.047998 0.326624
    11 5.792767 -0.005304 0.000000 0.000000 0.000000 0.191872
    12 6.662317 -0.001453 0.000000 0.000000 -0.000001 0.471000
    13 2.046985 -0.000002 0.000000 0.173452 -0.054081 -0.757265
    14 -3.112024 1.517254 4.341911 1.412484 -0.660753 1.353432
    15 4.827230 0.000000 0.000001 -0.211335 -0.562729 -0.652833
    16 11.139763 0.000000 0.000000 0.000000 0.000000 -0.545003
    17 10.314597 0.000001 0.000000 -2.966205 0.000000 -0.069778
    18 2.975834 -0.386307 -0.044143 -0.012063 -0.041921 0.262037
    19 1.438886 0.000000 0.000000 0.000000 0.000000 0.924863
    20 1.485303 0.000000 0.000000 0.000000 0.000000 0.540993
    21 -2.869898 1.399663 -4.140396 -1.260649 0.984424 1.466288
    22 4.972048 0.000000 0.000001 0.685969 0.295380 -1.397056
    23 11.585355 0.000000 0.000000 0.000000 0.000000 -0.532575
    24 10.127057 0.000000 0.000001 2.168870 0.289773 0.489419
    25 2.683750 -0.427338 0.044205 0.001045 0.043611 0.000046
    26 1.438885 -0.000001 0.000000 0.000000 0.000000 0.767762
    27 1.485305 0.000001 0.000000 0.000000 0.000000 1.221689
    28 1.646738 0.449549 -1.702246 0.154002 0.442277 0.277235
    29 0.928312 0.000000 -0.000002 0.000000 0.000000 0.000000
    30 0.928314 0.000000 0.000001 0.000000 0.000000 0.000000
    31 1.533672 0.109715 1.664491 -0.233255 -0.412980 0.435684
    32 0.928313 0.000000 0.000000 0.000000 0.000000 0.000000
    33 0.928314 0.000000 0.000001 0.000000 0.000000 0.000000
  time 18
    0 0.235347 0.039597 -13.319243 0.000000 0.270322 -1.570874
    1 -5.847835 0.281259 0.000000 -1.570795 -1.570796 0.000000
    2 -0.000005 0.000007 3.713255 2.893246 6.073186 1.567094
    3 18.045721 0.000000 0.000000 0.000000 0.000000 -1.744785
    4 17.597597 0.000000 0.000000 -0.164903 0.191688 0.413694
    5 0.000005 -0.000003 -3.713255 0.311735 -3.346321 -0.928284
    6 18.045725 0.000000 0.000000 0.000000 0.000000 -1.993364
    7 17.597597 0.000000 0.000000 0.131027 -0.129953 1.055714
    8 1.293670 0.684478 -0.000001 -0.000004 -0.000001 0.436901
    9 5.309685 -0.003834 0.000000 -0.032981 0.011373 0.331245
    10 4.826790 -0.004591 0.000000 -0.140408 0.047771 0.324993
    11 5.792767 -0.005304 0.000000 0.000000 0.000000 0.191872
    12 6.662317 -0.001453 0.000000 0.000000 -0.000001 0.471000
    13 2.046985 -0.000002 0.000000 0.173581 -0.053653 -0.758074
    14 -3.112024 1.517254 4.341911 1.410855 -0.665946 1.354487
    15 4.827230 0.000000 0.000001 -0.210337 -0.560431 -0.658433
    16 11.139763 0.000000 0.000000 0.000000 0.000000 -0.545003
    17 10.314597 0.000001 0.000000 -2.966205 0.000000 -0.069778
    18 2.975834 -0.386307 -0.044143 -0.012063 -0.041921 0.262037
    19 1.438886 0.000000 0.000000 0.000000 0.000000 0.924863
    20 1.485303 0.000000 0.000000 0.000000 0.000000 0.540993
    21 -2.869898 1.399663 -4.140396 -1.258252 0.987873 1.468301
    22 4.972048 0.000000 0.000001 0.686510 0.293128 -1.400284
    23 11.585355 0.000000 0.000000 0.000000 0.000000 -0.532575
    24 10.127057 0.000000 0.000001 2.168870 0.289773 0.489419
    25 2.683750 -0.427338 0.044205 0.001045 0.043611 0.000046
    26 1.438885 -0.000001 0.000000 0.000000 0.000000 0.767762
    27 1.485305 0.000001 0.000000 0.000000 0.000000 1.221689
    28 1.646738 0.449549 -1.702246 0.154002 0.442277 0.277235
    29 0.928312 0.000000 -0.000002 0.000000 0.000000 0.000000
    30 0.928314 0.000000 0.000001 0.000000 0.000000 0.000000
    31 1.533672 0.109715 1.664491 -0.233255 -0.412980 0.435684
    32 0.928313 0.000000 0.000000 0.000000 0.000000 0.000000
    33 0.928314 0.000000 0.000001 0.000000 0.000000 0.000000
  time 19
    0 0.235347 0.039597 -13.319243 0.000000 0.270322 -1.570874
    1 -5.847835 0.281259 0.000000 -1.570795 -1.570796 0.000000
    2 -0.000005 0.000007 3.713255 2.893246 6.073186 1.567094
    3 18.045721 0.000000 0.000000 0.000000 0.000000 -1.744785
    4 17.597597 0.000000 0.000000 -0.164903 0.191688 0.413694
    5 0.000005 -0.000003 -3.713255 0.311735 -3.346321 -0.928284
    6 18.045725 0.000000 0.000000 0.000000 0.000000 -1.993364
    7 17.597597 0.000000 0.000000 0.131027 -0.129953 1.055714
    8 1.293670 0.684478 -0.000001 -0.000004 -0.000001 0.436901
    9 5.309685 -0.003834 0.000000 -0.032981 0.011373 0.331245
    10 4.826790 -0.004591 0.000000 -0.140523 0.047471 0.322876
    11 5.792767 -0.005304 0.000000 0.000000 0.000000 0.191872
    12 6.662317 -0.001453 0.000000 0.000000 -0.000001 0.471000
    13 2.046985 -0.000002 0.000000 0.173667 -0.053293 -0.757940
    14 -3.112024 1.517254 4.341911 1.408554 -0.672639 1.355829
    15 4.827230 0.000000 0.000001 -0.209045 -0.557453 -0.665697
    16 11.139763 0.000000 0.000000 0.000000 0.000000 -0.545003
    17 10.314597 0.000001 0.000000 -2.966205 0.000000 -0.069778
    18 2.975834 -0.386307 -0.044143 -0.012063 -0.041921 0.262037
    19 1.438886 0.000000 0.000000 0.000000 0.000000 0.924863
    20 1.485303 0.000000 0.000000 0.000000 0.000000 0.540993
    21 -2.869898 1.399663 -4.140396 -1.255089 0.992367 1.470986
    22 4.972048 0.000000 0.000001 0.687129 0.290232 -1.404434
    23 11.585355 0.000000 0.000000 0.000000 0.000000 -0.532575
    24 10.127057 0.000000 0.000001 2.168870 0.289773 0.489419
    25 2.683750 -0.427338 0.044205 0.001045 0.043611 0.000046
    26 1.438885 -0.000001 0.000000 0.000000 0.000000 0.767762
    27 1.485305 0.000001 0.000000 0.000000 0.000000 1.221689
    28 1.646738 0.449549 -1.702246 0.154002 0.442277 0.277235
    29 0.928312 0.000000 -0.000002 0.000000 0.000000 0.000000
    30 0.928314 0.000000 0.000001 0.000000 0.000000 0.000000
    31 1.533672 0.109715 1.664491 -0.233255 -0.412980 0.435684
    32 0.928313 0.000000 0.000000 0.000000 0.000000 0.000000
    33 0.928314 0.000000 0.000001 0.000000 0.000000 0.000000
  time 20
    0 0.235347 0.039597 -13.319243 0.000000 0.270322 -1.570874
    1 -5.843928 0.281259 0.000000 -1.570795 -1.570796 0.000000
    2 -0.000005 0.000007 3.713255 2.893246 6.073186 1.567094
    3 18.045721 0.000000 0.000000 0.000000 0.000000 -1.744785
    4 17.597597 0.000000 0.000000 -0.164903 0.191688 0.413694
    5 0.000005 -0.000003 -3.713255 0.311735 -3.346321 -0.928284
    6 18.045725 0.000000 0.000000 0.000000 0.000000 -1.993364
    7 17.597597 0.000000 0.000000 0.131027 -0.129953 1.055714
    8 1.293670 0.684478 -0.000001 -0.000004 -0.000001 0.436901
    9 5.309685 -0.003834 0.000000 -0.032981 0.011373 0.331245
    10 4.826790 -0.004591 0.000000 -0.140638 0.047111 0.320362
    11 5.792767 -0.005304 0.000000 0.000000 0.000000 0.191872
    12 6.662317 -0.001453 0.000000 0.000000 -0.000001 0.471000
    13 2.046985 -0.000002 0.000000 0.173753 -0.053045 -0.756816
    14 -3.112024 1.517254 4.341911 1.405869 -0.680640 1.357555
    15 4.827230 0.000000 0.000001 -0.207459 -0.553963 -0.674273
    16 11.139763 0.000000 0.000000 0.000000 0.000000 -0.545003
    17 10.314597 0.000001 0.000000 -2.966205 0.000000 -0.069778
    18 2.975834 -0.386307 -0.044143 -0.012063 -0.041921 0.262037
    19 1.438886 0.000000 0.000000 0.000000 0.000000 0.924863
    20 1.485303 0.000000 0.000000 0.000000 0.000000 0.540993
    21 -2.869898 1.399663 -4.140396 -1.251254 0.997708 1.474150
    22 4.972048 0.000000 0.000001 0.687980 0.286853 -1.409375
    23 11.585355 0.000000 0.000000 0.000000 0.000000 -0.532575
    24 10.127057 0.000000 0.000001 2.168870 0.289773 0.489419
    25 2.683750 -0.427338 0.044205 0.001045 0.043611 0.000046
    26 1.438885 -0.000001 0.000000 0.000000 0.000000 0.767762
    27 1.485305 0.000001 0.000000 0.000000 0.000000 1.221689
    28 1.646738 0.449549 -1.702246 0.154002 0.442277 0.277235
    29 0.928312 0.000000 -0.000002 0.000000 0.000000 0.000000
    30 0.928314 0.000000 0.000001 0.000000 0.000000 0.000000
    31 1.533672 0.109715 1.664491 -0.233255 -0.412980 0.435684
    32 0.928313 0.000000 0.000000 0.000000 0.000000 0.000000
    33 0.928314 0.000000 0.000001 0.000000 0.000000 0.000000
  time 21
    0 0.235347 0.039597 -13.319243 0.000000 0.270322 -1.570874
    1 -5.840022 0.277352 0.000000 -1.570795 -1.570796 0.000000
    2 -0.000005 0.000007 3.713255 2.893246 6.073186 1.567094
    3 18.045721 0.000000 0.000000 0.000000 0.000000 -1.744785
    4 17.597597 0.000000 0.000000 -0.164903 0.191688 0.413694
    5 0.000005 -0.000003 -3.713255 0.311735 -3.346321 -0.928284
    6 18.045725 0.000000 0.000000 0.000000 0.000000 -1.993364
    7 17.597597 0.000000 0.000000 0.131027 -0.129953 1.055714
    8 1.293670 0.684478 -0.000001 -0.000004 -0.000001 0.436901
    9 5.309685 -0.003834 0.000000 -0.032981 0.011373 0.331245
    10 4.826790 -0.004591 0.000000 -0.140769 0.046716 0.317540
    11 5.792767 -0.005304 0.000000 0.000000 0.000000 0.191872
    12 6.662317 -0.001453 0.000000 0.000000 -0.000001 0.471000
    13 2.046985 -0.000002 0.000000 0.173796 -0.052955 -0.754479
    14 -3.112024 1.517254 4.341911 1.402801 -0.689603 1.359472
    15 4.827230 0.000000 0.000001 -0.205755 -0.549964 -0.683899
    16 11.139763 0.000000 0.000000 0.000000 0.000000 -0.545003
    17 10.314597 0.000001 0.000000 -2.966205 0.000000 -0.069778
    18 2.975834 -0.386307 -0.044143 -0.012063 -0.041921 0.262037
    19 1.438886 0.000000 0.000000 0.000000 0.000000 0.924863
    20 1.485303 0.000000 0.000000 0.000000 0.000000 0.540993
    21 -2.869898 1.399663 -4.140396 -1.246844 1.003672 1.477889
    22 4.972048 0.000000 0.000001 0.688831 0.282992 -1.414974
    23 11.585355 0.000000 0.000000 0.000000 0.000000 -0.532575
    24 10.127057 0.000000 0.000001 2.168870 0.289773 0.489419
    25 2.683750 -0.427338 0.044205 0.001045 0.043611 0.000046
    26 1.438885 -0.000001 0.000000 0.000000 0.000000 0.767762
    27 1.485305 0.000001 0.000000 0.000000 0.000000 1.221689
    28 1.646738 0.449549 -1.702246 0.154002 0.442277 0.277235
    29 0.928312 0.000000 -0.000002 0.000000 0.000000 0.000000
    30 0.928314 0.000000 0.000001 0.000000 0.000000 0.000000
    31 1.533672 0.109715 1.664491 -0.233255 -0.412980 0.435684
    32 0.928313 0.000000 0.000000 0.000000 0.000000 0.000000
    33 0.928314 0.000000 0.000001 0.000000 0.000000 0.000000
  time 22
    0 0.235347 0.039597 -13.315337 0.000000 0.270322 -1.570874
    1 -5.836116 0.277352 0.000000 -1.570795 -1.570796 0.000000
    2 -0.000005 0.000007 3.713255 2.893246 6.073186 1.567094
    3 18.045721 0.000000 0.000000 0.000000 0.000000 -1.744785
    4 17.597597 0.000000 0.000000 -0.164903 0.191688 0.413694
    5 0.000005 -0.000003 -3.713255 0.311735 -3.346321 -0.928284
    6 18.045725 0.000000 0.000000 0.000000 0.000000 -1.993364
    7 17.597597 0.000000 0.000000 0.131027 -0.129953 1.055714
    8 1.293670 0.684478 -0.000001 -0.000004 -0.000001 0.436901
    9 5.309685 -0.003834 0.000000 -0.032981 0.011373 0.331245
    10 4.826790 -0.004591 0.000000 -0.140917 0.046284 0.314497
    11 5.792767 -0.005304 0.000000 0.000000 0.000000 0.191872
    12 6.662317 -0.001453 0.000000 0.000000 -0.000001 0.471000
    13 2.046985 -0.000002 0.000000 0.173753 -0.053090 -0.750703
    14 -3.112024 1.517254 4.341911 1.399446 -0.699258 1.361677
    15 4.827230 0.000000 0.000001 -0.203876 -0.545624 -0.694225
    16 11.139763 0.000000 0.000000 0.000000 0.000000 -0.545003
    17 10.314597 0.000001 0.000000 -2.966205 0.000000 -0.069778
    18 2.975834 -0.386307 -0.044143 -0.012063 -0.041921 0.262037
    19 1.438886 0.000000 0.000000 0.000000 0.000000 0.924863
    20 1.485303 0.000000 0.000000 0.000000 0.000000 0.540993
    21 -2.869898 1.399663 -4.140396 -1.242050 1.010088 1.481915
    22 4.972048 0.000000 0.000001 0.689837 0.278809 -1.420902
    23 11.585355 0.000000 0.000000 0.000000 0.000000 -0.532575
    24 10.127057 0.000000 0.000001 2.168870 0.289773 0.489419
    25 2.683750 -0.427338 0.044205 0.001045 0.043611 0.000046
    26 1.438885 -0.000001 0.000000 0.000000 0.000000 0.767762
    27 1.485305 0.000001 0.000000 0.000000 0.000000 1.221689
    28 1.646738 0.449549 -1.702246 0.154002 0.442277 0.277235
    29 0.928312 0.000000 -0.000002 0.000000 0.000000 0.000000
    30 0.928314 0.000000 0.000001 0.000000 0.000000 0.000000
    31 1.533672 0.109715 1.664491 -0.233255 -0.412980 0.435684
    32 0.928313 0.000000 0.000000 0.000000 0.000000 0.000000
    33 0.928314 0.000000 0.000001 0.000000 0.000000 0.000000
  time 23
    0 0.235347 0.039597 -13.315337 0.000000 0.270322 -1.570874
    1 -5.832209 0.273446 0.000000 -1.570795 -1.570796 0.000000
    2 -0.000005 0.000007 3.713255 2.893246 6.073186 1.567094
    3 18.045721 0.000000 0.000000 0.000000 0.000000 -1.744785
    4 17.597597 0.000000 0.000000 -0.164903 0.191688 0.413694
    5 0.000005 -0.000003 -3.713255 0.311735 -3.346321 -0.928284
    6 18.045725 0.000000 0.000000 0.000000 0.000000 -1.993364
    7 17.597597 0.000000 0.000000 0.131027 -0.129953 1.055714
    8 1.293670 0.684478 -0.000001 -0.000004 -0.000001 0.436901
    9 5.309685 -0.003834 0.000000 -0.032981 0.011373 0.331245
    10 4.826790 -0.004591 0.000000 -0.141048 0.045829 0.311322
    11 5.792767 -0.005304 0.000000 0.000000 0.000000 0.191872
    12 6.662317 -0.001453 0.000000 0.000000 -0.000001 0.471000
    13 2.046985 -0.000002 0.000000 0.173624 -0.053541 -0.744905
    14 -3.112024 1.517254 4.341911 1.395898 -0.709259 1.363978
    15 4.827230 0.000000 0.000001 -0.201996 -0.541198 -0.704989
    16 11.139763 0.000000 0.000000 0.000000 0.000000 -0.545003
    17 10.314597 0.000001 0.000000 -2.966205 0.000000 -0.069778
    18 2.975834 -0.386307 -0.044143 -0.012063 -0.041921 0.262037
    19 1.438886 0.000000 0.000000 0.000000 0.000000 0.924863
    20 1.485303 0.000000 0.000000 0.000000 0.000000 0.540993
    21 -2.869898 1.399663 -4.140396 -1.236969 1.016730 1.486230
    22 4.972048 0.000000 0.000001 0.690842 0.274465 -1.427160
    23 11.585355 0.000000 0.000000 0.000000 0.000000 -0.532575
    24 10.127057 0.000000 0.000001 2.168870 0.289773 0.489419
    25 2.683750 -0.427338 0.044205 0.001045 0.043611 0.000046
    26 1.438885 -0.000001 0.000000 0.000000 0.000000 0.767762
    27 1.485305 0.000001 0.000000 0.000000 0.000000 1.221689
    28 1.646738 0.449549 -1.702246 0.154002 0.442277 0.277235
    29 0.928312 0.000000 -0.000002 0.000000 0.000000 0.000000
    30 0.928314 0.000000 0.000001 0.000000 0.000000 0.000000
    31 1.533672 0.109715 1.664491 -0.233255 -0.412980 0.435684
    32 0.928313 0.000000 0.000000 0.000000 0.000000 0.000000
    33 0.928314 0.000000 0.000001 0.000000 0.000000 0.000000
  time 24
    0 0.235347 0.039597 -13.315337 0.000000 0.270322 -1.570874
    1 -5.828303 0.273446 0.000000 -1.570795 -1.570796 0.000000
    2 -0.000005 0.000007 3.713255 2.893246 6.073186 1.567094
    3 18.045721 0.000000 0.000000 0.000000 0.000000 -1.744785
    4 17.597597 0.000000 0.000000 -0.164903 0.191688 0.413694
    5 0.000005 -0.000003 -3.713255 0.311735 -3.346321 -0.928284
    6 18.045725 0.000000 0.000000 0.000000 0.000000 -1.993364
    7 17.597597 0.000000 0.000000 0.131027 -0.129953 1.055714
    8 1.293670 0.684478 -0.000001 -0.000004 -0.000001 0.436901
    9 5.309685 -0.003834 0.000000 -0.032981 0.011373 0.331245
    10 4.826790 -0.004591 0.000000 -0.141196 0.045374 0.308125
    11 5.792767 -0.005304 0.000000 0.000000 0.000000 0.191872
    12 6.662317 -0.001453 0.000000 0.000000 -0.000001 0.471000
    13 2.046985 -0.000002 0.000000 0.173366 -0.054374 -0.736859
    14 -3.112024 1.517254 4.341911 1.392255 -0.719375 1.366279
    15 4.827230 0.000000 0.000001 -0.200117 -0.536603 -0.715753
    16 11.139763 0.000000 0.000000 0.000000 0.000000 -0.545003
    17 10.314597 0.000001 0.000000 -2.966205 0.000000 -0.069778
    18 2.975834 -0.386307 -0.044143 -0.012063 -0.041921 0.262037
    19 1.438886 0.000000 0.000000 0.000000 0.000000 0.924863
    20 1.485303 0.000000 0.000000 0.000000 0.000000 0.540993
    21 -2.869898 1.399663 -4.140396 -1.231696 1.023457 1.490736
    22 4.972048 0.000000 0.000001 0.691848 0.270121 -1.433418
    23 11.585355 0.000000 0.000000 0.000000 0.000000 -0.532575
    24 10.127057 0.000000 0.000001 2.168870 0.289773 0.489419
    25 2.683750 -0.427338 0.044205 0.001045 0.043611 0.000046
    26 1.438885 -0.000001 0.000000 0.000000 0.000000 0.767762
    27 1.485305 0.000001 0.000000 0.000000 0.000000 1.221689
    28 1.646738 0.449549 -1.702246 0.154002 0.442277 0.277235
    29 0.928312 0.000000 -0.000002 0.000000 0.000000 0.000000
    30 0.928314 0.000000 0.000001 0.000000 0.000000 0.000000
    31 1.533672 0.109715 1.664491 -0.233255 -0.412980 0.435684
    32 0.928313 0.000000 0.000000 0.000000 0.000000 0.000000
    33 0.928314 0.000000 0.000001 0.000000 0.000000 0.000000
  time 25
    0 0.235347 0.039597 -13.315337 0.000000 0.270322 -1.570874
    1 -5.824396 0.273446 0.000000 -1.570795 -1.570796 0.000000
    2 -0.000005 0.000007 3.713255 2.893246 6.073186 1.567094
    3 18.045721 0.000000 0.000000 0.000000 0.000000 -1.744785
    4 17.597597 0.000000 0.000000 -0.164903 0.191688 0.413694
    5 0.000005 -0.000003 -3.713255 0.311735 -3.346321 -0.928284
    6 18.045725 0.000000 0.000000 0.000000 0.000000 -1.993364
    7 17.597597 0.000000 0.000000 0.131027 -0.129953 1.055714
    8 1.293670 0.684478 -0.000001 -0.000004 -0.000001 0.436901
    9 5.309685 -0.003834 0.000000 -0.032981 0.011373 0.331245
    10 4.826790 -0.004591 0.000000 -0.141344 0.044930 0.304994
    11 5.792767 -0.005304 0.000000 0.000000 0.000000 0.191872
    12 6.662317 -0.001453 0.000000 0.000000 -0.000001 0.471000
    13 2.046985 -0.000002 0.000000 0.172978 -0.055589 -0.726791
    14 -3.112024 1.517254 4.341911 1.388612 -0.729300 1.368772
    15 4.827230 0.000000 0.000001 -0.198296 -0.532093 -0.726342
    16 11.139763 0.000000 0.000000 0.000000 0.000000 -0.545003
    17 10.314597 0.000001 0.000000 -2.966205 0.000000 -0.069778
    18 2.975834 -0.386307 -0.044143 -0.012063 -0.041921 0.262037
    19 1.438886 0.000000 0.000000 0.000000 0.000000 0.924863
    20 1.485303 0.000000 0.000000 0.000000 0.000000 0.540993
    21 -2.869898 1.399663 -4.140396 -1.226423 1.030014 1.495242
    22 4.972048 0.000000 0.000001 0.692853 0.265778 -1.439544
    23 11.585355 0.000000 0.000000 0.000000 0.000000 -0.532575
    24 10.127057 0.000000 0.000001 2.168870 0.289773 0.489419
    25 2.683750 -0.427338 0.044205 0.001045 0.043611 0.000046
    26 1.438885 -0.000001 0.000000 0.000000 0.000000 0.767762
    27 1.485305 0.000001 0.000000 0.000000 0.000000 1.221689
    28 1.646738 0.449549 -1.702246 0.154002 0.442277 0.277235
    29 0.928312 0.000000 -0.000002 0.000000 0.000000 0.000000
    30 0.928314 0.000000 0.000001 0.000000 0.000000 0.000000
    31 1.533672 0.109715 1.664491 -0.233255 -0.412980 0.435684
    32 0.928313 0.000000 0.000000 0.000000 0.000000 0.000000
    33 0.928314 0.000000 0.000001 0.000000 0.000000 0.000000
  time 26
    0 0.235347 0.039597 -13.311431 0.000000 0.270322 -1.570874
    1 -5.820490 0.269539 0.000000 -1.570795 -1.570796 0.000000
    2 -0.000005 0.000007 3.713255 2.893246 6.073186 1.567094
    3 18.045721 0.000000 0.000000 0.000000 0.000000 -1.744785
    4 17.597597 0.000000 0.000000 -0.164903 0.191688 0.413694
    5 0.000005 -0.000003 -3.713255 0.311735 -3.346321 -0.928284
    6 18.045725 0.000000 0.000000 0.000000 0.000000 -1.993364
    7 17.597597 0.000000 0.000000 0.131027 -0.129953 1.055714
    8 1.293670 0.684478 -0.000001 -0.000004 -0.000001 0.436901
    9 5.309685 -0.003834 0.000000 -0.032981 0.011373 0.331245
    10 4.826790 -0.004591 0.000000 -0.141475 0.044511 0.302018
    11 5.792767 -0.005304 0.000000 0.000000 0.000000 0.191872
    12 6.662317 -0.001453 0.000000 0.000000 -0.000001 0.471000
    13 2.046985 -0.000002 0.000000 0.172504 -0.057053 -0.715374
    14 -3.112024 1.517254 4.341911 1.385065 -0.738724 1.371073
    15 4.827230 0.000000 0.000001 -0.196592 -0.527837 -0.736406
    16 11.139763 0.000000 0.000000 0.000000 0.000000 -0.545003
    17 10.314597 0.000001 0.000000 -2.966205 0.000000 -0.069778
    18 2.975834 -0.386307 -0.044143 -0.012063 -0.041921 0.262037
    19 1.438886 0.000000 0.000000 0.000000 0.000000 0.924863
    20 1.485303 0.000000 0.000000 0.000000 0.000000 0.540993
    21 -2.869898 1.399663 -4.140396 -1.221245 1.036261 1.499652
    22 4.972048 0.000000 0.000001 0.693859 0.261756 -1.445407
    23 11.585355 0.000000 0.000000 0.000000 0.000000 -0.532575
    24 10.127057 0.000000 0.000001 2.168870 0.289773 0.489419
    25 2.683750 -0.427338 0.044205 0.001045 0.043611 0.000046
    26 1.438885 -0.000001 0.000000 0.000000 0.000000 0.767762
    27 1.485305 0.000001 0.000000 0.000000 0.000000 1.221689
    28 1.646738 0.449549 -1.702246 0.154002 0.442277 0.277235
    29 0.928312 0.000000 -0.000002 0.000000 0.000000 0.000000
    30 0.928314 0.000000 0.000001 0.000000 0.000000 0.000000
    31 1.533672 0.109715 1.664491 -0.233255 -0.412980 0.435684
    32 0.928313 0.000000 0.000000 0.000000 0.000000 0.000000
    33 0.928314 0.000000 0.000001 0.000000 0.000000 0.000000
  time 27
    0 0.235347 0.039597 -13.311431 0.000000 0.270322 -1.570874
    1 -5.816584 0.269539 0.000000 -1.570795 -1.570796 0.000000
    2 -0.000005 0.000007 3.713255 2.893246 6.073186 1.567094
    3 18.045721 0.000000 0.000000 0.000000 0.000000 -1.744785
    4 17.597597 0.000000 0.000000 -0.164903 0.191688 0.413694
    5 0.000005 -0.000003 -3.713255 0.311735 -3.346321 -0.928284
    6 18.045725 0.000000 0.000000 0.000000 0.000000 -1.993364
    7 17.597597 0.000000 0.000000 0.131027 -0.129953 1.055714
    8 1.293670 0.684478 -0.000001 -0.000004 -0.000001 0.436901
    9 5.309685 -0.003834 0.000000 -0.032981 0.011373 0.331245
    10 4.826790 -0.004591 0.000000 -0.141590 0.044115 0.299283
    11 5.792767 -0.005304 0.000000 0.000000 0.000000 0.191872
    12 6.662317 -0.001453 0.000000 0.000000 -0.000001 0.471000
    13 2.046985 -0.000002 0.000000 0.171987 -0.058606 -0.703688
    14 -3.112024 1.517254 4.341911 1.381805 -0.747340 1.373278
    15 4.827230 0.000000 0.000001 -0.195065 -0.523923 -0.745594
    16 11.139763 0.000000 0.000000 0.000000 0.000000 -0.545003
    17 10.314597 0.000001 0.000000 -2.966205 0.000000 -0.069778
    18 2.975834 -0.386307 -0.044143 -0.012063 -0.041921 0.262037
    19 1.438886 0.000000 0.000000 0.000000 0.000000 0.924863
    20 1.485303 0.000000 0.000000 0.000000 0.000000 0.540993
    21 -2.869898 1.399663 -4.140396 -1.216452 1.041970 1.503774
    22 4.972048 0.000000 0.000001 0.694710 0.257975 -1.450808
    23 11.585355 0.000000 0.000000 0.000000 0.000000 -0.532575
    24 10.127057 0.000000 0.000001 2.168870 0.289773 0.489419
    25 2.683750 -0.427338 0.044205 0.001045 0.043611 0.000046
    26 1.438885 -0.000001 0.000000 0.000000 0.000000 0.767762
    27 1.485305 0.000001 0.000000 0.000000 0.000000 1.221689
    28 1.646738 0.449549 -1.702246 0.154002 0.442277 0.277235
    29 0.928312 0.000000 -0.000002 0.000000 0.000000 0.000000
    30 0.928314 0.000000 0.000001 0.000000 0.000000 0.000000
    31 1.533672 0.109715 1.664491 -0.233255 -0.412980 0.435684
    32 0.928313 0.000000 0.000000 0.000000 0.000000 0.000000
    33 0.928314 0.000000 0.000001 0.000000 0.000000 0.000000
  time 28
    0 0.235347 0.039597 -13.311431 0.000000 0.270322 -1.570874
    1 -5.812677 0.269539 0.000000 -1.570795 -1.570796 0.000000
    2 -0.000005 0.000007 3.713255 2.893246 6.073186 1.567094
    3 18.045721 0.000000 0.000000 0.000000 0.000000 -1.744785
    4 17.597597 0.000000 0.000000 -0.164903 0.191688 0.413694
    5 0.000005 -0.000003 -3.713255 0.311735 -3.346321 -0.928284
    6 18.045725 0.000000 0.000000 0.000000 0.000000 -1.993364
    7 17.597597 0.000000 0.000000 0.131027 -0.129953 1.055714
    8 1.293670 0.684478 -0.000001 -0.000004 -0.000001 0.436901
    9 5.309685 -0.003834 0.000000 -0.032981 0.011373 0.331245
    10 4.826790 -0.004591 0.000000 -0.141705 0.043780 0.296880
    11 5.792767 -0.005304 0.000000 0.000000 0.000000 0.191872
    12 6.662317 -0.001453 0.000000 0.000000 -0.000001 0.471000
    13 2.046985 -0.000002 0.000000 0.171470 -0.060047 -0.692900
    14 -3.112024 1.517254 4.341911 1.378833 -0.754918 1.375292
    15 4.827230 0.000000 0.000001 -0.193714 -0.520434 -0.753646
    16 11.139763 0.000000 0.000000 0.000000 0.000000 -0.545003
    17 10.314597 0.000001 0.000000 -2.966205 0.000000 -0.069778
    18 2.975834 -0.386307 -0.044143 -0.012063 -0.041921 0.262037
    19 1.438886 0.000000 0.000000 0.000000 0.000000 0.924863
    20 1.485303 0.000000 0.000000 0.000000 0.000000 0.540993
    21 -2.869898 1.399663 -4.140396 -1.212233 1.046973 1.507513
    22 4.972048 0.000000 0.000001 0.695561 0.254677 -1.455485
    23 11.585355 0.000000 0.000000 0.000000 0.000000 -0.532575
    24 10.127057 0.000000 0.000001 2.168870 0.289773 0.489419
    25 2.683750 -0.427338 0.044205 0.001045 0.043611 0.000046
    26 1.438885 -0.000001 0.000000 0.000000 0.000000 0.767762
    27 1.485305 0.000001 0.000000 0.000000 0.000000 1.221689
    28 1.646738 0.449549 -1.702246 0.154002 0.442277 0.277235
    29 0.928312 0.000000 -0.000002 0.000000 0.000000 0.000000
    30 0.928314 0.000000 0.000001 0.000000 0.000000 0.000000
    31 1.533672 0.109715 1.664491 -0.233255 -0.412980 0.435684
    32 0.928313 0.000000 0.000000 0.000000 0.000000 0.000000
    33 0.928314 0.000000 0.000001 0.000000 0.000000 0.000000
  time 29
    0 0.235347 0.039597 -13.311431 0.000000 0.270322 -1.570874
    1 -5.812677 0.265633 0.000000 -1.570795 -1.570796 0.000000
    2 -0.000005 0.000007 3.713255 2.893246 6.073186 1.567094
    3 18.045721 0.000000 0.000000 0.000000 0.000000 -1.744785
    4 17.597597 0.000000 0.000000 -0.164903 0.191688 0.413694
    5 0.000005 -0.000003 -3.713255 0.311735 -3.346321 -0.928284
    6 18.045725 0.000000 0.000000 0.000000 0.000000 -1.993364
    7 17.597597 0.000000 0.000000 0.131027 -0.129953 1.055714
    8 1.293670 0.684478 -0.000001 -0.000004 -0.000001 0.436901
    9 5.309685 -0.003834 0.000000 -0.032981 0.011373 0.331245
    10 4.826790 -0.004591 0.000000 -0.141787 0.043492 0.294918
    11 5.792767 -0.005304 0.000000 0.000000 0.000000 0.191872
    12 6.662317 -0.001453 0.000000 0.000000 -0.000001 0.471000
    13 2.046985 -0.000002 0.000000 0.171082 -0.061218 -0.684225
    14 -3.112024 1.517254 4.341911 1.376436 -0.761111 1.377018
    15 4.827230 0.000000 0.000001 -0.192598 -0.517625 -0.760209
    16 11.139763 0.000000 0.000000 0.000000 0.000000 -0.545003
    17 10.314597 0.000001 0.000000 -2.966205 0.000000 -0.069778
    18 2.975834 -0.386307 -0.044143 -0.012063 -0.041921 0.262037
    19 1.438886 0.000000 0.000000 0.000000 0.000000 0.924863
    20 1.485303 0.000000 0.000000 0.000000 0.000000 0.540993
    21 -2.869898 1.399663 -4.140396 -1.208590 1.051071 1.510581
    22 4.972048 0.000000 0.000001 0.696180 0.252022 -1.459372
    23 11.585355 0.000000 0.000000 0.000000 0.000000 -0.532575
    24 10.127057 0.000000 0.000001 2.168870 0.289773 0.489419
    25 2.683750 -0.427338 0.044205 0.001045 0.043611 0.000046
    26 1.438885 -0.000001 0.000000 0.000000 0.000000 0.767762
    27 1.485305 0.000001 0.000000 0.000000 0.000000 1.221689
    28 1.646738 0.449549 -1.702246 0.154002 0.442277 0.277235
    29 0.928312 0.000000 -0.000002 0.000000 0.000000 0.000000
    30 0.928314 0.000000 0.000001 0.000000 0.000000 0.000000
    31 1.533672 0.109715 1.664491 -0.233255 -0.412980 0.435684
    32 0.928313 0.000000 0.000000 0.000000 0.000000 0.000000
    33 0.928314 0.000000 0.000001 0.000000 0.000000 0.000000
  time 30
    0 0.235347 0.039597 -13.307524 0.000000 0.270322 -1.570874
    1 -5.808771 0.265633 0.000000 -1.570795 -1.570796 0.000000
    2 -0.000005 0.000007 3.713255 2.893246 6.073186 1.567094
    3 18.045721 0.000000 0.000000 0.000000 0.000000 -1.744785
    4 17.597597 0.000000 0.000000 -0.164903 0.191688 0.413694
    5 0.000005 -0.000003 -3.713255 0.311735 -3.346321 -0.928284
    6 18.045725 0.000000 0.000000 0.000000 0.000000 -1.993364
    7 17.597597 0.000000 0.000000 0.131027 -0.129953 1.055714
    8 1.293670 0.684478 -0.000001 -0.000004 -0.000001 0.436901
    9 5.309685 -0.003834 0.000000 -0.032981 0.011373 0.331245
    10 4.826790 -0.004591 0.000000 -0.141853 0.043288 0.293463
    11 5.792767 -0.005304 0.000000 0.000000 0.000000 0.191872
    12 6.662317 -0.001453 0.000000 0.000000 -0.000001 0.471000
    13 2.046985 -0.000002 0.000000 0.170824 -0.061939 -0.678517
    14 -3.112024 1.517254 4.341911 1.374615 -0.765689 1.378264
    15 4.827230 0.000000 0.000001 -0.191776 -0.515498 -0.765022
    16 11.139763 0.000000 0.000000 0.000000 0.000000 -0.545003
    17 10.314597 0.000001 0.000000 -2.966205 0.000000 -0.069778
    18 2.975834 -0.386307 -0.044143 -0.012063 -0.041921 0.262037
    19 1.438886 0.000000 0.000000 0.000000 0.000000 0.924863
    20 1.485303 0.000000 0.000000 0.000000 0.000000 0.540993
    21 -2.869898 1.399663 -4.140396 -1.206002 1.054067 1.512882
    22 4.972048 0.000000 0.000001 0.696644 0.250011 -1.462204
    23 11.585355 0.000000 0.000000 0.000000 0.000000 -0.532575
    24 10.127057 0.000000 0.000001 2.168870 0.289773 0.489419
    25 2.683750 -0.427338 0.044205 0.001045 0.043611 0.000046
    26 1.438885 -0.000001 0.000000 0.000000 0.000000 0.767762
    27 1.485305 0.000001 0.000000 0.000000 0.000000 1.221689
    28 1.646738 0.449549 -1.702246 0.154002 0.442277 0.277235
    29 0.928312 0.000000 -0.000002 0.000000 0.000000 0.000000
    30 0.928314 0.000000 0.000001 0.000000 0.000000 0.000000
    31 1.533672 0.109715 1.664491 -0.233255 -0.412980 0.435684
    32 0.928313 0.000000 0.000000 0.000000 0.000000 0.000000
    33 0.928314 0.000000 0.000001 0.000000 0.000000 0.000000
end
