version 1
nodes
  0 "Bip01" -1
  1 "Bip01 Pelvis" 0
  2 "Bip01 L Leg" 1
  3 "Bip01 L Leg1" 2
  4 "Bip01 L Foot" 3
  5 "Bip01 R Leg" 1
  6 "Bip01 R Leg1" 5
  7 "Bip01 R Foot" 6
  8 "Bip01 Spine" 1
  9 "Bip01 Spine1" 8
  10 "Bip01 Spine2" 9
  11 "Bip01 Spine3" 10
  12 "Bip01 Neck" 11
  13 "Bip01 Head" 12
  14 "Bip01 L Arm" 12
  15 "Bip01 L Arm1" 14
  16 "Bip01 L Arm2" 15
  17 "Bip01 L Hand" 16
  18 "Bip01 L Finger1" 17
  19 "Bip01 L Finger11" 18
  20 "Bip01 L Finger12" 19
  21 "Bip01 R Arm" 12
  22 "Bip01 R Arm1" 21
  23 "Bip01 R Arm2" 22
  24 "Bip01 R Hand" 23
  25 "Bip01 R Finger1" 24
  26 "Bip01 R Finger11" 25
  27 "Bip01 R Finger12" 26
  28 "Bip01 L Finger0" 17
  29 "Bip01 L Finger01" 28
  30 "Bip01 L Finger02" 29
  31 "Bip01 R Finger0" 24
  32 "Bip01 R Finger01" 31
  33 "Bip01 R Finger02" 32
end
skeleton
  time 0
    0 0.235347 0.367732 -14.670847 -0.045585 0.257873 -1.742273
    1 0.000000 0.000000 0.000000 -1.570795 -1.570796 0.000000
    2 -0.000005 0.000007 3.713255 2.914525 6.061903 1.331528
    3 18.045721 0.000000 0.000000 0.000000 0.000000 -1.349242
    4 17.597597 0.000000 0.000000 -0.205057 0.225938 -0.216505
    5 0.000005 -0.000003 -3.713255 -0.067002 -3.740518 -0.837425
    6 18.045725 0.000000 0.000000 0.000000 0.000000 -2.074647
    7 17.597597 0.000000 0.000000 -0.092081 0.087821 0.559948
    8 1.293670 0.684478 -0.000001 -0.000004 -0.000001 0.358403
    9 5.309685 -0.003834 0.000000 -0.031855 0.014202 0.418422
    10 4.826790 -0.004591 0.000000 -0.143265 0.038339 0.258912
    11 5.792767 -0.005304 0.000000 0.000000 0.000000 0.122109
    12 6.662317 -0.001453 0.000000 0.000000 -0.000001 0.471000
    13 2.046985 -0.000002 0.000000 0.174227 0.048114 -1.201304
    14 -3.112024 1.517254 4.341911 -0.041815 -1.370643 2.710845
    15 4.827230 0.000000 0.000001 -0.635118 -0.462991 -1.341283
    16 11.139763 0.000000 0.000000 0.000000 0.000000 -1.225128
    17 10.314597 0.000001 0.000000 -2.123665 0.144021 0.096701
    18 2.975834 -0.386307 -0.044143 -0.037781 -0.021799 1.029782
    19 1.438886 0.000000 0.000000 0.000000 0.000000 0.593381
    20 1.485303 0.000000 0.000000 0.000000 0.000000 1.666118
    21 -2.869898 1.399663 -4.140396 -0.000013 1.370795 2.669783
    22 4.972048 0.000000 0.000001 0.847485 0.099747 -1.515627
    23 11.585355 0.000000 0.000000 0.000000 0.000000 -1.291537
    24 10.127057 0.000000 0.000001 2.022610 0.324154 0.083986
    25 2.683750 -0.427338 0.044205 0.001045 0.043611 0.000046
    26 1.438885 -0.000001 0.000000 0.000000 0.000000 0.767762
    27 1.485305 0.000001 0.000000 0.000000 0.000000 1.221689
    28 1.646738 0.449549 -1.702246 0.449790 0.128753 1.240204
    29 0.928312 0.000000 -0.000002 0.000000 0.000000 0.000000
    30 0.928314 0.000000 0.000001 0.000000 0.000000 0.000000
    31 1.533672 0.109715 1.664491 -0.233255 -0.412980 0.435684
    32 0.928313 0.000000 0.000000 0.000000 0.000000 0.000000
    33 0.928314 0.000000 0.000001 0.000000 0.000000 0.000000
  time 1
    0 0.235347 0.367732 -14.670847 -0.045585 0.257873 -1.742273
    1 0.000000 0.000000 0.000000 -1.570795 -1.570796 0.000000
    2 -0.000005 0.000007 3.713255 2.914525 6.061903 1.331528
    3 18.045721 0.000000 0.000000 0.000000 0.000000 -1.349242
    4 17.597597 0.000000 0.000000 -0.205057 0.225938 -0.216505
    5 0.000005 -0.000003 -3.713255 -0.067002 -3.740518 -0.837425
    6 18.045725 0.000000 0.000000 0.000000 0.000000 -2.074647
    7 17.597597 0.000000 0.000000 -0.092081 0.087821 0.559948
    8 1.293670 0.684478 -0.000001 -0.000004 -0.000001 0.358403
    9 5.309685 -0.003834 0.000000 -0.031855 0.014226 0.419146
    10 4.826790 -0.004591 0.000000 -0.143265 0.038339 0.258912
    11 5.792767 -0.005304 0.000000 0.000000 0.000000 0.124268
    12 6.662317 -0.001453 0.000000 0.000000 -0.000001 0.471000
    13 2.046985 -0.000002 0.000000 0.174184 0.048205 -1.204180
    14 -3.112024 1.517254 4.341911 -0.018038 -1.370797 2.687451
    15 4.827230 0.000000 0.000001 -0.635999 -0.466735 -1.336820
    16 11.139763 0.000000 0.000000 0.000000 0.000000 -1.225128
    17 10.314597 0.000001 0.000000 -2.123665 0.144021 0.096701
    18 2.975834 -0.386307 -0.044143 -0.037781 -0.021799 1.029782
    19 1.438886 0.000000 0.000000 0.000000 0.000000 0.593381
    20 1.485303 0.000000 0.000000 0.000000 0.000000 1.666118
    21 -2.869898 1.399663 -4.140396 -0.020146 1.370767 2.650033
    22 4.972048 0.000000 0.000001 0.847795 0.103287 -1.512267
    23 11.585355 0.000000 0.000000 0.000000 0.000000 -1.291537
    24 10.127057 0.000000 0.000001 2.022610 0.324154 0.083986
    25 2.683750 -0.427338 0.044205 0.001045 0.043611 0.000046
    26 1.438885 -0.000001 0.000000 0.000000 0.000000 0.767762
    27 1.485305 0.000001 0.000000 0.000000 0.000000 1.221689
    28 1.646738 0.449549 -1.702246 0.449790 0.128753 1.240204
    29 0.928312 0.000000 -0.000002 0.000000 0.000000 0.000000
    30 0.928314 0.000000 0.000001 0.000000 0.000000 0.000000
    31 1.533672 0.109715 1.664491 -0.233255 -0.412980 0.435684
    32 0.928313 0.000000 0.000000 0.000000 0.000000 0.000000
    33 0.928314 0.000000 0.000001 0.000000 0.000000 0.000000
  time 2
    0 0.235347 0.367732 -14.670847 -0.045585 0.257873 -1.742273
    1 0.000000 0.000000 0.000000 -1.570795 -1.570796 0.000000
    2 -0.000005 0.000007 3.713255 2.914525 6.061903 1.331528
    3 18.045721 0.000000 0.000000 0.000000 0.000000 -1.349242
    4 17.597597 0.000000 0.000000 -0.205057 0.225938 -0.216505
    5 0.000005 -0.000003 -3.713255 -0.067002 -3.740518 -0.837425
    6 18.045725 0.000000 0.000000 0.000000 0.000000 -2.074647
    7 17.597597 0.000000 0.000000 -0.092081 0.087821 0.559948
    8 1.293670 0.684478 -0.000001 -0.000004 -0.000001 0.358403
    9 5.309685 -0.003834 0.000000 -0.031843 0.014250 0.420052
    10 4.826790 -0.004591 0.000000 -0.143265 0.038339 0.258912
    11 5.792767 -0.005304 0.000000 0.000000 0.000000 0.126968
    12 6.662317 -0.001453 0.000000 0.000000 -0.000001 0.471000
    13 2.046985 -0.000002 0.000000 0.174141 0.048340 -1.207776
    14 -3.112024 1.517254 4.341911 0.014367 -1.370797 2.655716
    15 4.827230 0.000000 0.000001 -0.637115 -0.471416 -1.330607
    16 11.139763 0.000000 0.000000 0.000000 0.000000 -1.225128
    17 10.314597 0.000001 0.000000 -2.123665 0.144021 0.096701
    18 2.975834 -0.386307 -0.044143 -0.037781 -0.021799 1.029782
    19 1.438886 0.000000 0.000000 0.000000 0.000000 0.593381
    20 1.485303 0.000000 0.000000 0.000000 0.000000 1.666118
    21 -2.869898 1.399663 -4.140396 -0.047566 1.370597 2.623189
    22 4.972048 0.000000 0.000001 0.848182 0.107872 -1.507656
    23 11.585355 0.000000 0.000000 0.000000 0.000000 -1.291537
    24 10.127057 0.000000 0.000001 2.022610 0.324154 0.083986
    25 2.683750 -0.427338 0.044205 0.001045 0.043611 0.000046
    26 1.438885 -0.000001 0.000000 0.000000 0.000000 0.767762
    27 1.485305 0.000001 0.000000 0.000000 0.000000 1.221689
    28 1.646738 0.449549 -1.702246 0.449790 0.128753 1.240204
    29 0.928312 0.000000 -0.000002 0.000000 0.000000 0.000000
    30 0.928314 0.000000 0.000001 0.000000 0.000000 0.000000
    31 1.533672 0.109715 1.664491 -0.233255 -0.412980 0.435684
    32 0.928313 0.000000 0.000000 0.000000 0.000000 0.000000
    33 0.928314 0.000000 0.000001 0.000000 0.000000 0.000000
  time 3
    0 0.235347 0.367732 -14.670847 -0.045585 0.257873 -1.742273
    1 0.000000 0.000000 0.000000 -1.570795 -1.570796 0.000000
    2 -0.000005 0.000007 3.713255 2.914525 6.061903 1.331528
    3 18.045721 0.000000 0.000000 0.000000 0.000000 -1.349242
    4 17.597597 0.000000 0.000000 -0.205057 0.225938 -0.216505
    5 0.000005 -0.000003 -3.713255 -0.067002 -3.740518 -0.837425
    6 18.045725 0.000000 0.000000 0.000000 0.000000 -2.074647
    7 17.597597 0.000000 0.000000 -0.092081 0.087821 0.559948
    8 1.293670 0.684478 -0.000001 -0.000004 -0.000001 0.358403
    9 5.309685 -0.003834 0.000000 -0.031818 0.014286 0.421066
    10 4.826790 -0.004591 0.000000 -0.143265 0.038339 0.258912
    11 5.792767 -0.005304 0.000000 0.000000 0.000000 0.130082
    12 6.662317 -0.001453 0.000000 0.000000 -0.000001 0.471000
    13 2.046985 -0.000002 0.000000 0.174098 0.048475 -1.211911
    14 -3.112024 1.517254 4.341911 0.053867 -1.370528 2.616982
    15 4.827230 0.000000 0.000001 -0.638466 -0.476947 -1.323081
    16 11.139763 0.000000 0.000000 0.000000 0.000000 -1.225128
    17 10.314597 0.000001 0.000000 -2.123665 0.144021 0.096701
    18 2.975834 -0.386307 -0.044143 -0.037781 -0.021799 1.029782
    19 1.438886 0.000000 0.000000 0.000000 0.000000 0.593381
    20 1.485303 0.000000 0.000000 0.000000 0.000000 1.666118
    21 -2.869898 1.399663 -4.140396 -0.080930 1.370173 2.590496
    22 4.972048 0.000000 0.000001 0.848646 0.113262 -1.501991
    23 11.585355 0.000000 0.000000 0.000000 0.000000 -1.291537
    24 10.127057 0.000000 0.000001 2.022610 0.324154 0.083986
    25 2.683750 -0.427338 0.044205 0.001045 0.043611 0.000046
    26 1.438885 -0.000001 0.000000 0.000000 0.000000 0.767762
    27 1.485305 0.000001 0.000000 0.000000 0.000000 1.221689
    28 1.646738 0.449549 -1.702246 0.449790 0.128753 1.240204
    29 0.928312 0.000000 -0.000002 0.000000 0.000000 0.000000
    30 0.928314 0.000000 0.000001 0.000000 0.000000 0.000000
    31 1.533672 0.109715 1.664491 -0.233255 -0.412980 0.435684
    32 0.928313 0.000000 0.000000 0.000000 0.000000 0.000000
    33 0.928314 0.000000 0.000001 0.000000 0.000000 0.000000
  time 4
    0 0.235347 0.367732 -14.670847 -0.045585 0.257873 -1.742273
    1 0.000000 0.000000 0.000000 -1.570795 -1.570796 0.000000
    2 -0.000005 0.000007 3.713255 2.914525 6.061903 1.331528
    3 18.045721 0.000000 0.000000 0.000000 0.000000 -1.349242
    4 17.597597 0.000000 0.000000 -0.205057 0.225938 -0.216505
    5 0.000005 -0.000003 -3.713255 -0.067002 -3.740518 -0.837425
    6 18.045725 0.000000 0.000000 0.000000 0.000000 -2.074647
    7 17.597597 0.000000 0.000000 -0.092081 0.087821 0.559948
    8 1.293670 0.684478 -0.000001 -0.000004 -0.000001 0.358403
    9 5.309685 -0.003834 0.000000 -0.031806 0.014322 0.422225
    10 4.826790 -0.004591 0.000000 -0.143265 0.038339 0.258912
    11 5.792767 -0.005304 0.000000 0.000000 0.000000 0.133529
    12 6.662317 -0.001453 0.000000 0.000000 -0.000001 0.471000
    13 2.046985 -0.000002 0.000000 0.174055 0.048632 -1.216451
    14 -3.112024 1.517254 4.341911 0.098735 -1.369874 2.572975
    15 4.827230 0.000000 0.000001 -0.639993 -0.483074 -1.314417
    16 11.139763 0.000000 0.000000 0.000000 0.000000 -1.225128
    17 10.314597 0.000001 0.000000 -2.123665 0.144021 0.096701
    18 2.975834 -0.386307 -0.044143 -0.037781 -0.021799 1.029782
    19 1.438886 0.000000 0.000000 0.000000 0.000000 0.593381
    20 1.485303 0.000000 0.000000 0.000000 0.000000 1.666118
    21 -2.869898 1.399663 -4.140396 -0.118800 1.369438 2.553393
    22 4.972048 0.000000 0.000001 0.849110 0.119214 -1.495470
    23 11.585355 0.000000 0.000000 0.000000 0.000000 -1.291537
    24 10.127057 0.000000 0.000001 2.022610 0.324154 0.083986
    25 2.683750 -0.427338 0.044205 0.001045 0.043611 0.000046
    26 1.438885 -0.000001 0.000000 0.000000 0.000000 0.767762
    27 1.485305 0.000001 0.000000 0.000000 0.000000 1.221689
    28 1.646738 0.449549 -1.702246 0.449790 0.128753 1.240204
    29 0.928312 0.000000 -0.000002 0.000000 0.000000 0.000000
    30 0.928314 0.000000 0.000001 0.000000 0.000000 0.000000
    31 1.533672 0.109715 1.664491 -0.233255 -0.412980 0.435684
    32 0.928313 0.000000 0.000000 0.000000 0.000000 0.000000
    33 0.928314 0.000000 0.000001 0.000000 0.000000 0.000000
  time 5
    0 0.235347 0.367732 -14.670847 -0.045585 0.257873 -1.742273
    1 0.000000 0.000000 0.000000 -1.570795 -1.570796 0.000000
    2 -0.000005 0.000007 3.713255 2.914525 6.061903 1.331528
    3 18.045721 0.000000 0.000000 0.000000 0.000000 -1.349242
    4 17.597597 0.000000 0.000000 -0.205057 0.225938 -0.216505
    5 0.000005 -0.000003 -3.713255 -0.067002 -3.740518 -0.837425
    6 18.045725 0.000000 0.000000 0.000000 0.000000 -2.074647
    7 17.597597 0.000000 0.000000 -0.092081 0.087821 0.559948
    8 1.293670 0.684478 -0.000001 -0.000004 -0.000001 0.358403
    9 5.309685 -0.003834 0.000000 -0.031794 0.014358 0.423456
    10 4.826790 -0.004591 0.000000 -0.143265 0.038339 0.258912
    11 5.792767 -0.005304 0.000000 0.000000 0.000000 0.137245
    12 6.662317 -0.001453 0.000000 0.000000 -0.000001 0.471000
    13 2.046985 -0.000002 0.000000 0.173969 0.048812 -1.221395
    14 -3.112024 1.517254 4.341911 0.147247 -1.368681 2.525517
    15 4.827230 0.000000 0.000001 -0.641638 -0.489627 -1.304966
    16 11.139763 0.000000 0.000000 0.000000 0.000000 -1.225128
    17 10.314597 0.000001 0.000000 -2.123665 0.144021 0.096701
    18 2.975834 -0.386307 -0.044143 -0.037781 -0.021799 1.029782
    19 1.438886 0.000000 0.000000 0.000000 0.000000 0.593381
    20 1.485303 0.000000 0.000000 0.000000 0.000000 1.666118
    21 -2.869898 1.399663 -4.140396 -0.159642 1.368308 2.513414
    22 4.972048 0.000000 0.000001 0.849651 0.125649 -1.488356
    23 11.585355 0.000000 0.000000 0.000000 0.000000 -1.291537
    24 10.127057 0.000000 0.000001 2.022610 0.324154 0.083986
    25 2.683750 -0.427338 0.044205 0.001045 0.043611 0.000046
    26 1.438885 -0.000001 0.000000 0.000000 0.000000 0.767762
    27 1.485305 0.000001 0.000000 0.000000 0.000000 1.221689
    28 1.646738 0.449549 -1.702246 0.449790 0.128753 1.240204
    29 0.928312 0.000000 -0.000002 0.000000 0.000000 0.000000
    30 0.928314 0.000000 0.000001 0.000000 0.000000 0.000000
    31 1.533672 0.109715 1.664491 -0.233255 -0.412980 0.435684
    32 0.928313 0.000000 0.000000 0.000000 0.000000 0.000000
    33 0.928314 0.000000 0.000001 0.000000 0.000000 0.000000
  time 6
    0 0.235347 0.367732 -14.670847 -0.045585 0.257873 -1.742273
    1 0.000000 0.000000 0.000000 -1.570795 -1.570796 0.000000
    2 -0.000005 0.000007 3.713255 2.914525 6.061903 1.331528
    3 18.045721 0.000000 0.000000 0.000000 0.000000 -1.349242
    4 17.597597 0.000000 0.000000 -0.205057 0.225938 -0.216505
    5 0.000005 -0.000003 -3.713255 -0.067002 -3.740518 -0.837425
    6 18.045725 0.000000 0.000000 0.000000 0.000000 -2.074647
    7 17.597597 0.000000 0.000000 -0.092081 0.087821 0.559948
    8 1.293670 0.684478 -0.000001 -0.000004 -0.000001 0.358403
    9 5.309685 -0.003834 0.000000 -0.031769 0.014405 0.424760
    10 4.826790 -0.004591 0.000000 -0.143265 0.038339 0.258912
    11 5.792767 -0.005304 0.000000 0.000000 0.000000 0.141190
    12 6.662317 -0.001453 0.000000 0.000000 -0.000001 0.471000
    13 2.046985 -0.000002 0.000000 0.173926 0.048993 -1.226654
    14 -3.112024 1.517254 4.341911 0.197485 -1.366950 2.476236
    15 4.827230 0.000000 0.000001 -0.643458 -0.496691 -1.294990
    16 11.139763 0.000000 0.000000 0.000000 0.000000 -1.225128
    17 10.314597 0.000001 0.000000 -2.123665 0.144021 0.096701
    18 2.975834 -0.386307 -0.044143 -0.037781 -0.021799 1.029782
    19 1.438886 0.000000 0.000000 0.000000 0.000000 0.593381
    20 1.485303 0.000000 0.000000 0.000000 0.000000 1.666118
    21 -2.869898 1.399663 -4.140396 -0.202018 1.366753 2.471805
    22 4.972048 0.000000 0.000001 0.850270 0.132487 -1.480846
    23 11.585355 0.000000 0.000000 0.000000 0.000000 -1.291537
    24 10.127057 0.000000 0.000001 2.022610 0.324154 0.083986
    25 2.683750 -0.427338 0.044205 0.001045 0.043611 0.000046
    26 1.438885 -0.000001 0.000000 0.000000 0.000000 0.767762
    27 1.485305 0.000001 0.000000 0.000000 0.000000 1.221689
    28 1.646738 0.449549 -1.702246 0.449790 0.128753 1.240204
    29 0.928312 0.000000 -0.000002 0.000000 0.000000 0.000000
    30 0.928314 0.000000 0.000001 0.000000 0.000000 0.000000
    31 1.533672 0.109715 1.664491 -0.233255 -0.412980 0.435684
    32 0.928313 0.000000 0.000000 0.000000 0.000000 0.000000
    33 0.928314 0.000000 0.000001 0.000000 0.000000 0.000000
  time 7
    0 0.235347 0.367732 -14.670847 -0.045585 0.257873 -1.742273
    1 0.000000 0.000000 0.000000 -1.570795 -1.570796 0.000000
    2 -0.000005 0.000007 3.713255 2.914525 6.061903 1.331528
    3 18.045721 0.000000 0.000000 0.000000 0.000000 -1.349242
    4 17.597597 0.000000 0.000000 -0.205057 0.225938 -0.216505
    5 0.000005 -0.000003 -3.713255 -0.067002 -3.740518 -0.837425
    6 18.045725 0.000000 0.000000 0.000000 0.000000 -2.074647
    7 17.597597 0.000000 0.000000 -0.092081 0.087821 0.559948
    8 1.293670 0.684478 -0.000001 -0.000004 -0.000001 0.358403
    9 5.309685 -0.003834 0.000000 -0.031745 0.014441 0.426137
    10 4.826790 -0.004591 0.000000 -0.143265 0.038339 0.258912
    11 5.792767 -0.005304 0.000000 0.000000 0.000000 0.145322
    12 6.662317 -0.001453 0.000000 0.000000 -0.000001 0.471000
    13 2.046985 -0.000002 0.000000 0.173840 0.049173 -1.232138
    14 -3.112024 1.517254 4.341911 0.247818 -1.364681 2.427052
    15 4.827230 0.000000 0.000001 -0.645338 -0.504009 -1.284839
    16 11.139763 0.000000 0.000000 0.000000 0.000000 -1.225128
    17 10.314597 0.000001 0.000000 -2.123665 0.144021 0.096701
    18 2.975834 -0.386307 -0.044143 -0.037781 -0.021799 1.029782
    19 1.438886 0.000000 0.000000 0.000000 0.000000 0.593381
    20 1.485303 0.000000 0.000000 0.000000 0.000000 1.666118
    21 -2.869898 1.399663 -4.140396 -0.244585 1.364831 2.430196
    22 4.972048 0.000000 0.000001 0.850889 0.139566 -1.473205
    23 11.585355 0.000000 0.000000 0.000000 0.000000 -1.291537
    24 10.127057 0.000000 0.000001 2.022610 0.324154 0.083986
    25 2.683750 -0.427338 0.044205 0.001045 0.043611 0.000046
    26 1.438885 -0.000001 0.000000 0.000000 0.000000 0.767762
    27 1.485305 0.000001 0.000000 0.000000 0.000000 1.221689
    28 1.646738 0.449549 -1.702246 0.449790 0.128753 1.240204
    29 0.928312 0.000000 -0.000002 0.000000 0.000000 0.000000
    30 0.928314 0.000000 0.000001 0.000000 0.000000 0.000000
    31 1.533672 0.109715 1.664491 -0.233255 -0.412980 0.435684
    32 0.928313 0.000000 0.000000 0.000000 0.000000 0.000000
    33 0.928314 0.000000 0.000001 0.000000 0.000000 0.000000
  time 8
    0 0.235347 0.367732 -14.670847 -0.045585 0.257873 -1.742273
    1 0.000000 0.000000 0.000000 -1.570795 -1.570796 0.000000
    2 -0.000005 0.000007 3.713255 2.914525 6.061903 1.331528
    3 18.045721 0.000000 0.000000 0.000000 0.000000 -1.349242
    4 17.597597 0.000000 0.000000 -0.205057 0.225938 -0.216505
    5 0.000005 -0.000003 -3.713255 -0.067002 -3.740518 -0.837425
    6 18.045725 0.000000 0.000000 0.000000 0.000000 -2.074647
    7 17.597597 0.000000 0.000000 -0.092081 0.087821 0.559948
    8 1.293670 0.684478 -0.000001 -0.000004 -0.000001 0.358403
    9 5.309685 -0.003834 0.000000 -0.031733 0.014489 0.427567
    10 4.826790 -0.004591 0.000000 -0.143265 0.038339 0.258912
    11 5.792767 -0.005304 0.000000 0.000000 0.000000 0.149641
    12 6.662317 -0.001453 0.000000 0.000000 -0.000001 0.471000
    13 2.046985 -0.000002 0.000000 0.173753 0.049375 -1.237891
    14 -3.112024 1.517254 4.341911 0.296426 -1.361950 2.379497
    15 4.827230 0.000000 0.000001 -0.647276 -0.511498 -1.274775
    16 11.139763 0.000000 0.000000 0.000000 0.000000 -1.225128
    17 10.314597 0.000001 0.000000 -2.123665 0.144021 0.096701
    18 2.975834 -0.386307 -0.044143 -0.037781 -0.021799 1.029782
    19 1.438886 0.000000 0.000000 0.000000 0.000000 0.593381
    20 1.485303 0.000000 0.000000 0.000000 0.000000 1.666118
    21 -2.869898 1.399663 -4.140396 -0.285907 1.362570 2.389738
    22 4.972048 0.000000 0.000001 0.851508 0.146886 -1.465761
    23 11.585355 0.000000 0.000000 0.000000 0.000000 -1.291537
    24 10.127057 0.000000 0.000001 2.022610 0.324154 0.083986
    25 2.683750 -0.427338 0.044205 0.001045 0.043611 0.000046
    26 1.438885 -0.000001 0.000000 0.000000 0.000000 0.767762
    27 1.485305 0.000001 0.000000 0.000000 0.000000 1.221689
    28 1.646738 0.449549 -1.702246 0.449790 0.128753 1.240204
    29 0.928312 0.000000 -0.000002 0.000000 0.000000 0.000000
    30 0.928314 0.000000 0.000001 0.000000 0.000000 0.000000
    31 1.533672 0.109715 1.664491 -0.233255 -0.412980 0.435684
    32 0.928313 0.000000 0.000000 0.000000 0.000000 0.000000
    33 0.928314 0.000000 0.000001 0.000000 0.000000 0.000000
  time 9
    0 0.235347 0.367732 -14.670847 -0.045585 0.257873 -1.742273
    1 0.000000 0.000000 0.000000 -1.570795 -1.570796 0.000000
    2 -0.000005 0.000007 3.713255 2.914525 6.061903 1.331528
    3 18.045721 0.000000 0.000000 0.000000 0.000000 -1.349242
    4 17.597597 0.000000 0.000000 -0.205057 0.225938 -0.216505
    5 0.000005 -0.000003 -3.713255 -0.067002 -3.740518 -0.837425
    6 18.045725 0.000000 0.000000 0.000000 0.000000 -2.074647
    7 17.597597 0.000000 0.000000 -0.092081 0.087821 0.559948
    8 1.293670 0.684478 -0.000001 -0.000004 -0.000001 0.358403
    9 5.309685 -0.003834 0.000000 -0.031708 0.014537 0.429034
    10 4.826790 -0.004591 0.000000 -0.143265 0.038339 0.258912
    11 5.792767 -0.005304 0.000000 0.000000 0.000000 0.154105
    12 6.662317 -0.001453 0.000000 0.000000 -0.000001 0.471000
    13 2.046985 -0.000002 0.000000 0.173667 0.049578 -1.243824
    14 -3.112024 1.517254 4.341911 0.341869 -1.358873 2.335011
    15 4.827230 0.000000 0.000001 -0.649273 -0.519072 -1.265061
    16 11.139763 0.000000 0.000000 0.000000 0.000000 -1.225128
    17 10.314597 0.000001 0.000000 -2.123665 0.144021 0.096701
    18 2.975834 -0.386307 -0.044143 -0.037781 -0.021799 1.029782
    19 1.438886 0.000000 0.000000 0.000000 0.000000 0.593381
    20 1.485303 0.000000 0.000000 0.000000 0.000000 1.666118
    21 -2.869898 1.399663 -4.140396 -0.324640 1.360083 2.351868
    22 4.972048 0.000000 0.000001 0.852127 0.154367 -1.458647
    23 11.585355 0.000000 0.000000 0.000000 0.000000 -1.291537
    24 10.127057 0.000000 0.000001 2.022610 0.324154 0.083986
    25 2.683750 -0.427338 0.044205 0.001045 0.043611 0.000046
    26 1.438885 -0.000001 0.000000 0.000000 0.000000 0.767762
    27 1.485305 0.000001 0.000000 0.000000 0.000000 1.221689
    28 1.646738 0.449549 -1.702246 0.449790 0.128753 1.240204
    29 0.928312 0.000000 -0.000002 0.000000 0.000000 0.000000
    30 0.928314 0.000000 0.000001 0.000000 0.000000 0.000000
    31 1.533672 0.109715 1.664491 -0.233255 -0.412980 0.435684
    32 0.928313 0.000000 0.000000 0.000000 0.000000 0.000000
    33 0.928314 0.000000 0.000001 0.000000 0.000000 0.000000
  time 10
    0 0.235347 0.367732 -14.670847 -0.045585 0.257873 -1.742273
    1 0.000000 0.000000 0.000000 -1.570795 -1.570796 0.000000
    2 -0.000005 0.000007 3.713255 2.914525 6.061903 1.331528
    3 18.045721 0.000000 0.000000 0.000000 0.000000 -1.349242
    4 17.597597 0.000000 0.000000 -0.205057 0.225938 -0.216505
    5 0.000005 -0.000003 -3.713255 -0.067002 -3.740518 -0.837425
    6 18.045725 0.000000 0.000000 0.000000 0.000000 -2.074647
    7 17.597597 0.000000 0.000000 -0.092081 0.087821 0.559948
    8 1.293670 0.684478 -0.000001 -0.000004 -0.000001 0.358403
    9 5.309685 -0.003834 0.000000 -0.031684 0.014585 0.430555
    10 4.826790 -0.004591 0.000000 -0.143265 0.038339 0.258912
    11 5.792767 -0.005304 0.000000 0.000000 0.000000 0.158693
    12 6.662317 -0.001453 0.000000 0.000000 -0.000001 0.471000
    13 2.046985 -0.000002 0.000000 0.173624 0.049803 -1.249937
    14 -3.112024 1.517254 4.341911 0.382903 -1.355641 2.294935
    15 4.827230 0.000000 0.000001 -0.651329 -0.526731 -1.256135
    16 11.139763 0.000000 0.000000 0.000000 0.000000 -1.225128
    17 10.314597 0.000001 0.000000 -2.123665 0.144021 0.096701
    18 2.975834 -0.386307 -0.044143 -0.037781 -0.021799 1.029782
    19 1.438886 0.000000 0.000000 0.000000 0.000000 0.593381
    20 1.485303 0.000000 0.000000 0.000000 0.000000 1.666118
    21 -2.869898 1.399663 -4.140396 -0.359921 1.357511 2.317449
    22 4.972048 0.000000 0.000001 0.852823 0.161848 -1.452126
    23 11.585355 0.000000 0.000000 0.000000 0.000000 -1.291537
    24 10.127057 0.000000 0.000001 2.022610 0.324154 0.083986
    25 2.683750 -0.427338 0.044205 0.001045 0.043611 0.000046
    26 1.438885 -0.000001 0.000000 0.000000 0.000000 0.767762
    27 1.485305 0.000001 0.000000 0.000000 0.000000 1.221689
    28 1.646738 0.449549 -1.702246 0.449790 0.128753 1.240204
    29 0.928312 0.000000 -0.000002 0.000000 0.000000 0.000000
    30 0.928314 0.000000 0.000001 0.000000 0.000000 0.000000
    31 1.533672 0.109715 1.664491 -0.233255 -0.412980 0.435684
    32 0.928313 0.000000 0.000000 0.000000 0.000000 0.000000
    33 0.928314 0.000000 0.000001 0.000000 0.000000 0.000000
  time 11
    0 0.235347 0.367732 -14.670847 -0.045585 0.257873 -1.742273
    1 0.000000 0.000000 0.000000 -1.570795 -1.570796 0.000000
    2 -0.000005 0.000007 3.713255 2.914525 6.061903 1.331528
    3 18.045721 0.000000 0.000000 0.000000 0.000000 -1.349242
    4 17.597597 0.000000 0.000000 -0.205057 0.225938 -0.216505
    5 0.000005 -0.000003 -3.713255 -0.067002 -3.740518 -0.837425
    6 18.045725 0.000000 0.000000 0.000000 0.000000 -2.074647
    7 17.597597 0.000000 0.000000 -0.092081 0.087821 0.559948
    8 1.293670 0.684478 -0.000001 -0.000004 -0.000001 0.358403
    9 5.309685 -0.003834 0.000000 -0.031659 0.014633 0.432112
    10 4.826790 -0.004591 0.000000 -0.143265 0.038339 0.258912
    11 5.792767 -0.005304 0.000000 0.000000 0.000000 0.163386
    12 6.662317 -0.001453 0.000000 0.000000 -0.000001 0.471000
    13 2.046985 -0.000002 0.000000 0.173538 0.050006 -1.256140
    14 -3.112024 1.517254 4.341911 0.418472 -1.352487 2.260228
    15 4.827230 0.000000 0.000001 -0.653326 -0.534305 -1.248084
    16 11.139763 0.000000 0.000000 0.000000 0.000000 -1.225128
    17 10.314597 0.000001 0.000000 -2.123665 0.144021 0.096701
    18 2.975834 -0.386307 -0.044143 -0.037781 -0.021799 1.029782
    19 1.438886 0.000000 0.000000 0.000000 0.000000 0.593381
    20 1.485303 0.000000 0.000000 0.000000 0.000000 1.666118
    21 -2.869898 1.399663 -4.140396 -0.390504 1.354995 2.287441
    22 4.972048 0.000000 0.000001 0.853442 0.169249 -1.446527
    23 11.585355 0.000000 0.000000 0.000000 0.000000 -1.291537
    24 10.127057 0.000000 0.000001 2.022610 0.324154 0.083986
    25 2.683750 -0.427338 0.044205 0.001045 0.043611 0.000046
    26 1.438885 -0.000001 0.000000 0.000000 0.000000 0.767762
    27 1.485305 0.000001 0.000000 0.000000 0.000000 1.221689
    28 1.646738 0.449549 -1.702246 0.449790 0.128753 1.240204
    29 0.928312 0.000000 -0.000002 0.000000 0.000000 0.000000
    30 0.928314 0.000000 0.000001 0.000000 0.000000 0.000000
    31 1.533672 0.109715 1.664491 -0.233255 -0.412980 0.435684
    32 0.928313 0.000000 0.000000 0.000000 0.000000 0.000000
    33 0.928314 0.000000 0.000001 0.000000 0.000000 0.000000
  time 12
    0 0.235347 0.367732 -14.670847 -0.045585 0.257873 -1.742273
    1 0.000000 0.000000 0.000000 -1.570795 -1.570796 0.000000
    2 -0.000005 0.000007 3.713255 2.914525 6.061903 1.331528
    3 18.045721 0.000000 0.000000 0.000000 0.000000 -1.349242
    4 17.597597 0.000000 0.000000 -0.205057 0.225938 -0.216505
    5 0.000005 -0.000003 -3.713255 -0.067002 -3.740518 -0.837425
    6 18.045725 0.000000 0.000000 0.000000 0.000000 -2.074647
    7 17.597597 0.000000 0.000000 -0.092081 0.087821 0.559948
    8 1.293670 0.684478 -0.000001 -0.000004 -0.000001 0.358403
    9 5.309685 -0.003834 0.000000 -0.031635 0.014681 0.433706
    10 4.826790 -0.004591 0.000000 -0.143265 0.038339 0.258912
    11 5.792767 -0.005304 0.000000 0.000000 0.000000 0.168161
    12 6.662317 -0.001453 0.000000 0.000000 -0.000001 0.471000
    13 2.046985 -0.000002 0.000000 0.173452 0.050231 -1.262477
    14 -3.112024 1.517254 4.341911 0.447522 -1.349641 2.231848
    15 4.827230 0.000000 0.000001 -0.655264 -0.541709 -1.241433
    16 11.139763 0.000000 0.000000 0.000000 0.000000 -1.225128
    17 10.314597 0.000001 0.000000 -2.123665 0.144021 0.096701
    18 2.975834 -0.386307 -0.044143 -0.037781 -0.021799 1.029782
    19 1.438886 0.000000 0.000000 0.000000 0.000000 0.593381
    20 1.485303 0.000000 0.000000 0.000000 0.000000 1.666118
    21 -2.869898 1.399663 -4.140396 -0.415815 1.352734 2.262802
    22 4.972048 0.000000 0.000001 0.854061 0.176649 -1.441982
    23 11.585355 0.000000 0.000000 0.000000 0.000000 -1.291537
    24 10.127057 0.000000 0.000001 2.022610 0.324154 0.083986
    25 2.683750 -0.427338 0.044205 0.001045 0.043611 0.000046
    26 1.438885 -0.000001 0.000000 0.000000 0.000000 0.767762
    27 1.485305 0.000001 0.000000 0.000000 0.000000 1.221689
    28 1.646738 0.449549 -1.702246 0.449790 0.128753 1.240204
    29 0.928312 0.000000 -0.000002 0.000000 0.000000 0.000000
    30 0.928314 0.000000 0.000001 0.000000 0.000000 0.000000
    31 1.533672 0.109715 1.664491 -0.233255 -0.412980 0.435684
    32 0.928313 0.000000 0.000000 0.000000 0.000000 0.000000
    33 0.928314 0.000000 0.000001 0.000000 0.000000 0.000000
  time 13
    0 0.235347 0.367732 -14.670847 -0.045585 0.257873 -1.742273
    1 0.000000 0.000000 0.000000 -1.570795 -1.570796 0.000000
    2 -0.000005 0.000007 3.713255 2.914525 6.061903 1.331528
    3 18.045721 0.000000 0.000000 0.000000 0.000000 -1.349242
    4 17.597597 0.000000 0.000000 -0.205057 0.225938 -0.216505
    5 0.000005 -0.000003 -3.713255 -0.067002 -3.740518 -0.837425
    6 18.045725 0.000000 0.000000 0.000000 0.000000 -2.074647
    7 17.597597 0.000000 0.000000 -0.092081 0.087821 0.559948
    8 1.293670 0.684478 -0.000001 -0.000004 -0.000001 0.358403
    9 5.309685 -0.003834 0.000000 -0.031622 0.014729 0.435300
    10 4.826790 -0.004591 0.000000 -0.143265 0.038339 0.258912
    11 5.792767 -0.005304 0.000000 0.000000 0.000000 0.172978
    12 6.662317 -0.001453 0.000000 0.000000 -0.000001 0.471000
    13 2.046985 -0.000002 0.000000 0.173366 0.050456 -1.268905
    14 -3.112024 1.517254 4.341911 0.469381 -1.347333 2.210564
    15 4.827230 0.000000 0.000001 -0.657144 -0.548857 -1.236445
    16 11.139763 0.000000 0.000000 0.000000 0.000000 -1.225128
    17 10.314597 0.000001 0.000000 -2.123665 0.144021 0.096701
    18 2.975834 -0.386307 -0.044143 -0.037781 -0.021799 1.029782
    19 1.438886 0.000000 0.000000 0.000000 0.000000 0.593381
    20 1.485303 0.000000 0.000000 0.000000 0.000000 1.666118
    21 -2.869898 1.399663 -4.140396 -0.434798 1.350897 2.244202
    22 4.972048 0.000000 0.000001 0.854602 0.183728 -1.438820
    23 11.585355 0.000000 0.000000 0.000000 0.000000 -1.291537
    24 10.127057 0.000000 0.000001 2.022610 0.324154 0.083986
    25 2.683750 -0.427338 0.044205 0.001045 0.043611 0.000046
    26 1.438885 -0.000001 0.000000 0.000000 0.000000 0.767762
    27 1.485305 0.000001 0.000000 0.000000 0.000000 1.221689
    28 1.646738 0.449549 -1.702246 0.449790 0.128753 1.240204
    29 0.928312 0.000000 -0.000002 0.000000 0.000000 0.000000
    30 0.928314 0.000000 0.000001 0.000000 0.000000 0.000000
    31 1.533672 0.109715 1.664491 -0.233255 -0.412980 0.435684
    32 0.928313 0.000000 0.000000 0.000000 0.000000 0.000000
    33 0.928314 0.000000 0.000001 0.000000 0.000000 0.000000
  time 14
    0 0.235347 0.367732 -14.670847 -0.045585 0.257873 -1.742273
    1 0.000000 0.000000 0.000000 -1.570795 -1.570796 0.000000
    2 -0.000005 0.000007 3.713255 2.914525 6.061903 1.331528
    3 18.045721 0.000000 0.000000 0.000000 0.000000 -1.349242
    4 17.597597 0.000000 0.000000 -0.205057 0.225938 -0.216505
    5 0.000005 -0.000003 -3.713255 -0.067002 -3.740518 -0.837425
    6 18.045725 0.000000 0.000000 0.000000 0.000000 -2.074647
    7 17.597597 0.000000 0.000000 -0.092081 0.087821 0.559948
    8 1.293670 0.684478 -0.000001 -0.000004 -0.000001 0.358403
    9 5.309685 -0.003834 0.000000 -0.031598 0.014789 0.436875
    10 4.826790 -0.004591 0.000000 -0.143265 0.038339 0.258912
    11 5.792767 -0.005304 0.000000 0.000000 0.000000 0.177774
    12 6.662317 -0.001453 0.000000 0.000000 -0.000001 0.471000
    13 2.046985 -0.000002 0.000000 0.173279 0.050681 -1.275287
    14 -3.112024 1.517254 4.341911 0.483091 -1.345794 2.197141
    15 4.827230 0.000000 0.000001 -0.658847 -0.555665 -1.233294
    16 11.139763 0.000000 0.000000 0.000000 0.000000 -1.225128
    17 10.314597 0.000001 0.000000 -2.123665 0.144021 0.096701
    18 2.975834 -0.386307 -0.044143 -0.037781 -0.021799 1.029782
    19 1.438886 0.000000 0.000000 0.000000 0.000000 0.593381
    20 1.485303 0.000000 0.000000 0.000000 0.000000 1.666118
    21 -2.869898 1.399663 -4.140396 -0.446878 1.349710 2.232506
    22 4.972048 0.000000 0.000001 0.855144 0.190565 -1.437239
    23 11.585355 0.000000 0.000000 0.000000 0.000000 -1.291537
    24 10.127057 0.000000 0.000001 2.022610 0.324154 0.083986
    25 2.683750 -0.427338 0.044205 0.001045 0.043611 0.000046
    26 1.438885 -0.000001 0.000000 0.000000 0.000000 0.767762
    27 1.485305 0.000001 0.000000 0.000000 0.000000 1.221689
    28 1.646738 0.449549 -1.702246 0.449790 0.128753 1.240204
    29 0.928312 0.000000 -0.000002 0.000000 0.000000 0.000000
    30 0.928314 0.000000 0.000001 0.000000 0.000000 0.000000
    31 1.533672 0.109715 1.664491 -0.233255 -0.412980 0.435684
    32 0.928313 0.000000 0.000000 0.000000 0.000000 0.000000
    33 0.928314 0.000000 0.000001 0.000000 0.000000 0.000000
  time 15
    0 0.235347 0.367732 -14.670847 -0.045585 0.257873 -1.742273
    1 0.000000 0.000000 0.000000 -1.570795 -1.570796 0.000000
    2 -0.000005 0.000007 3.713255 2.914525 6.061903 1.331528
    3 18.045721 0.000000 0.000000 0.000000 0.000000 -1.349242
    4 17.597597 0.000000 0.000000 -0.205057 0.225938 -0.216505
    5 0.000005 -0.000003 -3.713255 -0.067002 -3.740518 -0.837425
    6 18.045725 0.000000 0.000000 0.000000 0.000000 -2.074647
    7 17.597597 0.000000 0.000000 -0.092081 0.087821 0.559948
    8 1.293670 0.684478 -0.000001 -0.000004 -0.000001 0.358403
    9 5.309685 -0.003834 0.000000 -0.031573 0.014837 0.438451
    10 4.826790 -0.004591 0.000000 -0.143265 0.038339 0.258912
    11 5.792767 -0.005304 0.000000 0.000000 0.000000 0.182487
    12 6.662317 -0.001453 0.000000 0.000000 -0.000001 0.471000
    13 2.046985 -0.000002 0.000000 0.173193 0.050884 -1.281535
    14 -3.112024 1.517254 4.341911 0.487884 -1.345217 2.192443
    15 4.827230 0.000000 0.000001 -0.660374 -0.561963 -1.232507
    16 11.139763 0.000000 0.000000 0.000000 0.000000 -1.225128
    17 10.314597 0.000001 0.000000 -2.123665 0.144021 0.096701
    18 2.975834 -0.386307 -0.044143 -0.037781 -0.021799 1.029782
    19 1.438886 0.000000 0.000000 0.000000 0.000000 0.593381
    20 1.485303 0.000000 0.000000 0.000000 0.000000 1.666118
    21 -2.869898 1.399663 -4.140396 -0.451096 1.349258 2.228383
    22 4.972048 0.000000 0.000001 0.855608 0.196840 -1.437502
    23 11.585355 0.000000 0.000000 0.000000 0.000000 -1.291537
    24 10.127057 0.000000 0.000001 2.022610 0.324154 0.083986
    25 2.683750 -0.427338 0.044205 0.001045 0.043611 0.000046
    26 1.438885 -0.000001 0.000000 0.000000 0.000000 0.767762
    27 1.485305 0.000001 0.000000 0.000000 0.000000 1.221689
    28 1.646738 0.449549 -1.702246 0.449790 0.128753 1.240204
    29 0.928312 0.000000 -0.000002 0.000000 0.000000 0.000000
    30 0.928314 0.000000 0.000001 0.000000 0.000000 0.000000
    31 1.533672 0.109715 1.664491 -0.233255 -0.412980 0.435684
    32 0.928313 0.000000 0.000000 0.000000 0.000000 0.000000
    33 0.928314 0.000000 0.000001 0.000000 0.000000 0.000000
  time 16
    0 0.235347 0.367732 -14.670847 -0.045585 0.257873 -1.742273
    1 0.000000 0.000000 0.000000 -1.570795 -1.570796 0.000000
    2 -0.000005 0.000007 3.713255 2.914525 6.061903 1.331528
    3 18.045721 0.000000 0.000000 0.000000 0.000000 -1.349242
    4 17.597597 0.000000 0.000000 -0.205057 0.225938 -0.216505
    5 0.000005 -0.000003 -3.713255 -0.067002 -3.740518 -0.837425
    6 18.045725 0.000000 0.000000 0.000000 0.000000 -2.074647
    7 17.597597 0.000000 0.000000 -0.092081 0.087821 0.559948
    8 1.293670 0.684478 -0.000001 -0.000004 -0.000001 0.358403
    9 5.309685 -0.003834 0.000000 -0.031549 0.014885 0.439954
    10 4.826790 -0.004591 0.000000 -0.143265 0.038339 0.258912
    11 5.792767 -0.005304 0.000000 0.000000 0.000000 0.187034
    12 6.662317 -0.001453 0.000000 0.000000 -0.000001 0.471000
    13 2.046985 -0.000002 0.000000 0.173107 0.051086 -1.287558
    14 -3.112024 1.517254 4.341911 0.483091 -1.345794 2.197141
    15 4.827230 0.000000 0.000001 -0.661667 -0.567580 -1.234082
    16 11.139763 0.000000 0.000000 0.000000 0.000000 -1.225128
    17 10.314597 0.000001 0.000000 -2.123665 0.144021 0.096701
    18 2.975834 -0.386307 -0.044143 -0.037781 -0.021799 1.029782
    19 1.438886 0.000000 0.000000 0.000000 0.000000 0.593381
    20 1.485303 0.000000 0.000000 0.000000 0.000000 1.666118
    21 -2.869898 1.399663 -4.140396 -0.446878 1.349710 2.232506
    22 4.972048 0.000000 0.000001 0.855994 0.202551 -1.439742
    23 11.585355 0.000000 0.000000 0.000000 0.000000 -1.291537
    24 10.127057 0.000000 0.000001 2.022610 0.324154 0.083986
    25 2.683750 -0.427338 0.044205 0.001045 0.043611 0.000046
    26 1.438885 -0.000001 0.000000 0.000000 0.000000 0.767762
    27 1.485305 0.000001 0.000000 0.000000 0.000000 1.221689
    28 1.646738 0.449549 -1.702246 0.449790 0.128753 1.240204
    29 0.928312 0.000000 -0.000002 0.000000 0.000000 0.000000
    30 0.928314 0.000000 0.000001 0.000000 0.000000 0.000000
    31 1.533672 0.109715 1.664491 -0.233255 -0.412980 0.435684
    32 0.928313 0.000000 0.000000 0.000000 0.000000 0.000000
    33 0.928314 0.000000 0.000001 0.000000 0.000000 0.000000
  time 17
    0 0.235347 0.367732 -14.670847 -0.045585 0.257873 -1.742273
    1 0.000000 0.000000 0.000000 -1.570795 -1.570796 0.000000
    2 -0.000005 0.000007 3.713255 2.914525 6.061903 1.331528
    3 18.045721 0.000000 0.000000 0.000000 0.000000 -1.349242
    4 17.597597 0.000000 0.000000 -0.205057 0.225938 -0.216505
    5 0.000005 -0.000003 -3.713255 -0.067002 -3.740518 -0.837425
    6 18.045725 0.000000 0.000000 0.000000 0.000000 -2.074647
    7 17.597597 0.000000 0.000000 -0.092081 0.087821 0.559948
    8 1.293670 0.684478 -0.000001 -0.000004 -0.000001 0.358403
    9 5.309685 -0.003834 0.000000 -0.031524 0.014921 0.441348
    10 4.826790 -0.004591 0.000000 -0.143265 0.038339 0.258912
    11 5.792767 -0.005304 0.000000 0.000000 0.000000 0.191270
    12 6.662317 -0.001453 0.000000 0.000000 -0.000001 0.471000
    13 2.046985 -0.000002 0.000000 0.173021 0.051289 -1.293177
    14 -3.112024 1.517254 4.341911 0.469381 -1.347333 2.210564
    15 4.827230 0.000000 0.000001 -0.662665 -0.572345 -1.237845
    16 11.139763 0.000000 0.000000 0.000000 0.000000 -1.225128
    17 10.314597 0.000001 0.000000 -2.123665 0.144021 0.096701
    18 2.975834 -0.386307 -0.044143 -0.037781 -0.021799 1.029782
    19 1.438886 0.000000 0.000000 0.000000 0.000000 0.593381
    20 1.485303 0.000000 0.000000 0.000000 0.000000 1.666118
    21 -2.869898 1.399663 -4.140396 -0.434798 1.350897 2.244202
    22 4.972048 0.000000 0.000001 0.856304 0.207458 -1.443694
    23 11.585355 0.000000 0.000000 0.000000 0.000000 -1.291537
    24 10.127057 0.000000 0.000001 2.022610 0.324154 0.083986
    25 2.683750 -0.427338 0.044205 0.001045 0.043611 0.000046
    26 1.438885 -0.000001 0.000000 0.000000 0.000000 0.767762
    27 1.485305 0.000001 0.000000 0.000000 0.000000 1.221689
    28 1.646738 0.449549 -1.702246 0.449790 0.128753 1.240204
    29 0.928312 0.000000 -0.000002 0.000000 0.000000 0.000000
    30 0.928314 0.000000 0.000001 0.000000 0.000000 0.000000
    31 1.533672 0.109715 1.664491 -0.233255 -0.412980 0.435684
    32 0.928313 0.000000 0.000000 0.000000 0.000000 0.000000
    33 0.928314 0.000000 0.000001 0.000000 0.000000 0.000000
  time 18
    0 0.235347 0.367732 -14.670847 -0.045585 0.257873 -1.742273
    1 0.000000 0.000000 0.000000 -1.570795 -1.570796 0.000000
    2 -0.000005 0.000007 3.713255 2.914525 6.061903 1.331528
    3 18.045721 0.000000 0.000000 0.000000 0.000000 -1.349242
    4 17.597597 0.000000 0.000000 -0.205057 0.225938 -0.216505
    5 0.000005 -0.000003 -3.713255 -0.067002 -3.740518 -0.837425
    6 18.045725 0.000000 0.000000 0.000000 0.000000 -2.074647
    7 17.597597 0.000000 0.000000 -0.092081 0.087821 0.559948
    8 1.293670 0.684478 -0.000001 -0.000004 -0.000001 0.358403
    9 5.309685 -0.003834 0.000000 -0.031512 0.014969 0.442598
    10 4.826790 -0.004591 0.000000 -0.143265 0.038339 0.258912
    11 5.792767 -0.005304 0.000000 0.000000 0.000000 0.195028
    12 6.662317 -0.001453 0.000000 0.000000 -0.000001 0.471000
    13 2.046985 -0.000002 0.000000 0.172978 0.051469 -1.298211
    14 -3.112024 1.517254 4.341911 0.447522 -1.349641 2.231848
    15 4.827230 0.000000 0.000001 -0.663429 -0.576175 -1.243621
    16 11.139763 0.000000 0.000000 0.000000 0.000000 -1.225128
    17 10.314597 0.000001 0.000000 -2.123665 0.144021 0.096701
    18 2.975834 -0.386307 -0.044143 -0.037781 -0.021799 1.029782
    19 1.438886 0.000000 0.000000 0.000000 0.000000 0.593381
    20 1.485303 0.000000 0.000000 0.000000 0.000000 1.666118
    21 -2.869898 1.399663 -4.140396 -0.415815 1.352734 2.262802
    22 4.972048 0.000000 0.000001 0.856536 0.211400 -1.449162
    23 11.585355 0.000000 0.000000 0.000000 0.000000 -1.291537
    24 10.127057 0.000000 0.000001 2.022610 0.324154 0.083986
    25 2.683750 -0.427338 0.044205 0.001045 0.043611 0.000046
    26 1.438885 -0.000001 0.000000 0.000000 0.000000 0.767762
    27 1.485305 0.000001 0.000000 0.000000 0.000000 1.221689
    28 1.646738 0.449549 -1.702246 0.449790 0.128753 1.240204
    29 0.928312 0.000000 -0.000002 0.000000 0.000000 0.000000
    30 0.928314 0.000000 0.000001 0.000000 0.000000 0.000000
    31 1.533672 0.109715 1.664491 -0.233255 -0.412980 0.435684
    32 0.928313 0.000000 0.000000 0.000000 0.000000 0.000000
    33 0.928314 0.000000 0.000001 0.000000 0.000000 0.000000
  time 19
    0 0.235347 0.367732 -14.670847 -0.045585 0.257873 -1.742273
    1 0.000000 0.000000 0.000000 -1.570795 -1.570796 0.000000
    2 -0.000005 0.000007 3.713255 2.914525 6.061903 1.331528
    3 18.045721 0.000000 0.000000 0.000000 0.000000 -1.349242
    4 17.597597 0.000000 0.000000 -0.205057 0.225938 -0.216505
    5 0.000005 -0.000003 -3.713255 -0.067002 -3.740518 -0.837425
    6 18.045725 0.000000 0.000000 0.000000 0.000000 -2.074647
    7 17.597597 0.000000 0.000000 -0.092081 0.087821 0.559948
    8 1.293670 0.684478 -0.000001 -0.000004 -0.000001 0.358403
    9 5.309685 -0.003834 0.000000 -0.031488 0.014993 0.443630
    10 4.826790 -0.004591 0.000000 -0.143265 0.038339 0.258912
    11 5.792767 -0.005304 0.000000 0.000000 0.000000 0.198101
    12 6.662317 -0.001453 0.000000 0.000000 -0.000001 0.471000
    13 2.046985 -0.000002 0.000000 0.172935 0.051604 -1.302301
    14 -3.112024 1.517254 4.341911 0.418472 -1.352487 2.260228
    15 4.827230 0.000000 0.000001 -0.663840 -0.578813 -1.250972
    16 11.139763 0.000000 0.000000 0.000000 0.000000 -1.225128
    17 10.314597 0.000001 0.000000 -2.123665 0.144021 0.096701
    18 2.975834 -0.386307 -0.044143 -0.037781 -0.021799 1.029782
    19 1.438886 0.000000 0.000000 0.000000 0.000000 0.593381
    20 1.485303 0.000000 0.000000 0.000000 0.000000 1.666118
    21 -2.869898 1.399663 -4.140396 -0.390504 1.354995 2.287441
    22 4.972048 0.000000 0.000001 0.856691 0.214215 -1.455815
    23 11.585355 0.000000 0.000000 0.000000 0.000000 -1.291537
    24 10.127057 0.000000 0.000001 2.022610 0.324154 0.083986
    25 2.683750 -0.427338 0.044205 0.001045 0.043611 0.000046
    26 1.438885 -0.000001 0.000000 0.000000 0.000000 0.767762
    27 1.485305 0.000001 0.000000 0.000000 0.000000 1.221689
    28 1.646738 0.449549 -1.702246 0.449790 0.128753 1.240204
    29 0.928312 0.000000 -0.000002 0.000000 0.000000 0.000000
    30 0.928314 0.000000 0.000001 0.000000 0.000000 0.000000
    31 1.533672 0.109715 1.664491 -0.233255 -0.412980 0.435684
    32 0.928313 0.000000 0.000000 0.000000 0.000000 0.000000
    33 0.928314 0.000000 0.000001 0.000000 0.000000 0.000000
  time 20
    0 0.235347 0.367732 -14.670847 -0.045585 0.257873 -1.742273
    1 0.000000 0.000000 0.000000 -1.570795 -1.570796 0.000000
    2 -0.000005 0.000007 3.713255 2.914525 6.061903 1.331528
    3 18.045721 0.000000 0.000000 0.000000 0.000000 -1.349242
    4 17.597597 0.000000 0.000000 -0.205057 0.225938 -0.216505
    5 0.000005 -0.000003 -3.713255 -0.067002 -3.740518 -0.837425
    6 18.045725 0.000000 0.000000 0.000000 0.000000 -2.074647
    7 17.597597 0.000000 0.000000 -0.092081 0.087821 0.559948
    8 1.293670 0.684478 -0.000001 -0.000004 -0.000001 0.358403
    9 5.309685 -0.003834 0.000000 -0.031488 0.015017 0.444318
    10 4.826790 -0.004591 0.000000 -0.143265 0.038339 0.258912
    11 5.792767 -0.005304 0.000000 0.000000 0.000000 0.200219
    12 6.662317 -0.001453 0.000000 0.000000 -0.000001 0.471000
    13 2.046985 -0.000002 0.000000 0.172892 0.051694 -1.305088
    14 -3.112024 1.517254 4.341911 0.382903 -1.355641 2.294935
    15 4.827230 0.000000 0.000001 -0.663840 -0.579919 -1.259548
    16 11.139763 0.000000 0.000000 0.000000 0.000000 -1.225128
    17 10.314597 0.000001 0.000000 -2.123665 0.144021 0.096701
    18 2.975834 -0.386307 -0.044143 -0.037781 -0.021799 1.029782
    19 1.438886 0.000000 0.000000 0.000000 0.000000 0.593381
    20 1.485303 0.000000 0.000000 0.000000 0.000000 1.666118
    21 -2.869898 1.399663 -4.140396 -0.359921 1.357511 2.317449
    22 4.972048 0.000000 0.000001 0.856691 0.215583 -1.463258
    23 11.585355 0.000000 0.000000 0.000000 0.000000 -1.291537
    24 10.127057 0.000000 0.000001 2.022610 0.324154 0.083986
    25 2.683750 -0.427338 0.044205 0.001045 0.043611 0.000046
    26 1.438885 -0.000001 0.000000 0.000000 0.000000 0.767762
    27 1.485305 0.000001 0.000000 0.000000 0.000000 1.221689
    28 1.646738 0.449549 -1.702246 0.449790 0.128753 1.240204
    29 0.928312 0.000000 -0.000002 0.000000 0.000000 0.000000
    30 0.928314 0.000000 0.000001 0.000000 0.000000 0.000000
    31 1.533672 0.109715 1.664491 -0.233255 -0.412980 0.435684
    32 0.928313 0.000000 0.000000 0.000000 0.000000 0.000000
    33 0.928314 0.000000 0.000001 0.000000 0.000000 0.000000
  time 21
    0 0.235347 0.367732 -14.670847 -0.045585 0.257873 -1.742273
    1 0.000000 0.000000 0.000000 -1.570795 -1.570796 0.000000
    2 -0.000005 0.000007 3.713255 2.914525 6.061903 1.331528
    3 18.045721 0.000000 0.000000 0.000000 0.000000 -1.349242
    4 17.597597 0.000000 0.000000 -0.205057 0.225938 -0.216505
    5 0.000005 -0.000003 -3.713255 -0.067002 -3.740518 -0.837425
    6 18.045725 0.000000 0.000000 0.000000 0.000000 -2.074647
    7 17.597597 0.000000 0.000000 -0.092081 0.087821 0.559948
    8 1.293670 0.684478 -0.000001 -0.000004 -0.000001 0.358403
    9 5.309685 -0.003834 0.000000 -0.031475 0.015029 0.444590
    10 4.826790 -0.004591 0.000000 -0.143265 0.038339 0.258912
    11 5.792767 -0.005304 0.000000 0.000000 0.000000 0.201028
    12 6.662317 -0.001453 0.000000 0.000000 -0.000001 0.471000
    13 2.046985 -0.000002 0.000000 0.172849 0.051739 -1.306167
    14 -3.112024 1.517254 4.341911 0.341869 -1.358873 2.335011
    15 4.827230 0.000000 0.000001 -0.663429 -0.579238 -1.269086
    16 11.139763 0.000000 0.000000 0.000000 0.000000 -1.225128
    17 10.314597 0.000001 0.000000 -2.123665 0.144021 0.096701
    18 2.975834 -0.386307 -0.044143 -0.037781 -0.021799 1.029782
    19 1.438886 0.000000 0.000000 0.000000 0.000000 0.593381
    20 1.485303 0.000000 0.000000 0.000000 0.000000 1.666118
    21 -2.869898 1.399663 -4.140396 -0.324640 1.360083 2.351868
    22 4.972048 0.000000 0.000001 0.856613 0.215100 -1.471163
    23 11.585355 0.000000 0.000000 0.000000 0.000000 -1.291537
    24 10.127057 0.000000 0.000001 2.022610 0.324154 0.083986
    25 2.683750 -0.427338 0.044205 0.001045 0.043611 0.000046
    26 1.438885 -0.000001 0.000000 0.000000 0.000000 0.767762
    27 1.485305 0.000001 0.000000 0.000000 0.000000 1.221689
    28 1.646738 0.449549 -1.702246 0.449790 0.128753 1.240204
    29 0.928312 0.000000 -0.000002 0.000000 0.000000 0.000000
    30 0.928314 0.000000 0.000001 0.000000 0.000000 0.000000
    31 1.533672 0.109715 1.664491 -0.233255 -0.412980 0.435684
    32 0.928313 0.000000 0.000000 0.000000 0.000000 0.000000
    33 0.928314 0.000000 0.000001 0.000000 0.000000 0.000000
  time 22
    0 0.235347 0.367732 -14.670847 -0.045585 0.257873 -1.742273
    1 0.000000 0.000000 0.000000 -1.570795 -1.570796 0.000000
    2 -0.000005 0.000007 3.713255 2.914525 6.061903 1.331528
    3 18.045721 0.000000 0.000000 0.000000 0.000000 -1.349242
    4 17.597597 0.000000 0.000000 -0.205057 0.225938 -0.216505
    5 0.000005 -0.000003 -3.713255 -0.067002 -3.740518 -0.837425
    6 18.045725 0.000000 0.000000 0.000000 0.000000 -2.074647
    7 17.597597 0.000000 0.000000 -0.092081 0.087821 0.559948
    8 1.293670 0.684478 -0.000001 -0.000004 -0.000001 0.358403
    9 5.309685 -0.003834 0.000000 -0.031488 0.015017 0.444227
    10 4.826790 -0.004591 0.000000 -0.143265 0.038339 0.258912
    11 5.792767 -0.005304 0.000000 0.000000 0.000000 0.199928
    12 6.662317 -0.001453 0.000000 0.000000 -0.000001 0.471000
    13 2.046985 -0.000002 0.000000 0.172892 0.051694 -1.304728
    14 -3.112024 1.517254 4.341911 0.296426 -1.361950 2.379497
    15 4.827230 0.000000 0.000001 -0.662430 -0.575919 -1.279150
    16 11.139763 0.000000 0.000000 0.000000 0.000000 -1.225128
    17 10.314597 0.000001 0.000000 -2.123665 0.144021 0.096701
    18 2.975834 -0.386307 -0.044143 -0.037781 -0.021799 1.029782
    19 1.438886 0.000000 0.000000 0.000000 0.000000 0.593381
    20 1.485303 0.000000 0.000000 0.000000 0.000000 1.666118
    21 -2.869898 1.399663 -4.140396 -0.285907 1.362570 2.389738
    22 4.972048 0.000000 0.000001 0.856304 0.211963 -1.479199
    23 11.585355 0.000000 0.000000 0.000000 0.000000 -1.291537
    24 10.127057 0.000000 0.000001 2.022610 0.324154 0.083986
    25 2.683750 -0.427338 0.044205 0.001045 0.043611 0.000046
    26 1.438885 -0.000001 0.000000 0.000000 0.000000 0.767762
    27 1.485305 0.000001 0.000000 0.000000 0.000000 1.221689
    28 1.646738 0.449549 -1.702246 0.449790 0.128753 1.240204
    29 0.928312 0.000000 -0.000002 0.000000 0.000000 0.000000
    30 0.928314 0.000000 0.000001 0.000000 0.000000 0.000000
    31 1.533672 0.109715 1.664491 -0.233255 -0.412980 0.435684
    32 0.928313 0.000000 0.000000 0.000000 0.000000 0.000000
    33 0.928314 0.000000 0.000001 0.000000 0.000000 0.000000
  time 23
    0 0.235347 0.367732 -14.670847 -0.045585 0.257873 -1.742273
    1 0.000000 0.000000 0.000000 -1.570795 -1.570796 0.000000
    2 -0.000005 0.000007 3.713255 2.914525 6.061903 1.331528
    3 18.045721 0.000000 0.000000 0.000000 0.000000 -1.349242
    4 17.597597 0.000000 0.000000 -0.205057 0.225938 -0.216505
    5 0.000005 -0.000003 -3.713255 -0.067002 -3.740518 -0.837425
    6 18.045725 0.000000 0.000000 0.000000 0.000000 -2.074647
    7 17.597597 0.000000 0.000000 -0.092081 0.087821 0.559948
    8 1.293670 0.684478 -0.000001 -0.000004 -0.000001 0.358403
    9 5.309685 -0.003834 0.000000 -0.031500 0.014981 0.442924
    10 4.826790 -0.004591 0.000000 -0.143265 0.038339 0.258912
    11 5.792767 -0.005304 0.000000 0.000000 0.000000 0.195983
    12 6.662317 -0.001453 0.000000 0.000000 -0.000001 0.471000
    13 2.046985 -0.000002 0.000000 0.172935 0.051514 -1.299469
    14 -3.112024 1.517254 4.341911 0.247818 -1.364681 2.427052
    15 4.827230 0.000000 0.000001 -0.660492 -0.568856 -1.289389
    16 11.139763 0.000000 0.000000 0.000000 0.000000 -1.225128
    17 10.314597 0.000001 0.000000 -2.123665 0.144021 0.096701
    18 2.975834 -0.386307 -0.044143 -0.037781 -0.021799 1.029782
    19 1.438886 0.000000 0.000000 0.000000 0.000000 0.593381
    20 1.485303 0.000000 0.000000 0.000000 0.000000 1.666118
    21 -2.869898 1.399663 -4.140396 -0.244585 1.364831 2.430196
    22 4.972048 0.000000 0.000001 0.855840 0.205125 -1.486775
    23 11.585355 0.000000 0.000000 0.000000 0.000000 -1.291537
    24 10.127057 0.000000 0.000001 2.022610 0.324154 0.083986
    25 2.683750 -0.427338 0.044205 0.001045 0.043611 0.000046
    26 1.438885 -0.000001 0.000000 0.000000 0.000000 0.767762
    27 1.485305 0.000001 0.000000 0.000000 0.000000 1.221689
    28 1.646738 0.449549 -1.702246 0.449790 0.128753 1.240204
    29 0.928312 0.000000 -0.000002 0.000000 0.000000 0.000000
    30 0.928314 0.000000 0.000001 0.000000 0.000000 0.000000
    31 1.533672 0.109715 1.664491 -0.233255 -0.412980 0.435684
    32 0.928313 0.000000 0.000000 0.000000 0.000000 0.000000
    33 0.928314 0.000000 0.000001 0.000000 0.000000 0.000000
  time 24
    0 0.235347 0.367732 -14.670847 -0.045585 0.257873 -1.742273
    1 0.000000 0.000000 0.000000 -1.570795 -1.570796 0.000000
    2 -0.000005 0.000007 3.713255 2.914525 6.061903 1.331528
    3 18.045721 0.000000 0.000000 0.000000 0.000000 -1.349242
    4 17.597597 0.000000 0.000000 -0.205057 0.225938 -0.216505
    5 0.000005 -0.000003 -3.713255 -0.067002 -3.740518 -0.837425
    6 18.045725 0.000000 0.000000 0.000000 0.000000 -2.074647
    7 17.597597 0.000000 0.000000 -0.092081 0.087821 0.559948
    8 1.293670 0.684478 -0.000001 -0.000004 -0.000001 0.358403
    9 5.309685 -0.003834 0.000000 -0.031537 0.014897 0.440479
    10 4.826790 -0.004591 0.000000 -0.143265 0.038339 0.258912
    11 5.792767 -0.005304 0.000000 0.000000 0.000000 0.188633
    12 6.662317 -0.001453 0.000000 0.000000 -0.000001 0.471000
    13 2.046985 -0.000002 0.000000 0.173064 0.051177 -1.289716
    14 -3.112024 1.517254 4.341911 0.197485 -1.366950 2.476236
    15 4.827230 0.000000 0.000001 -0.657614 -0.557453 -1.299453
    16 11.139763 0.000000 0.000000 0.000000 0.000000 -1.225128
    17 10.314597 0.000001 0.000000 -2.123665 0.144021 0.096701
    18 2.975834 -0.386307 -0.044143 -0.037781 -0.021799 1.029782
    19 1.438886 0.000000 0.000000 0.000000 0.000000 0.593381
    20 1.485303 0.000000 0.000000 0.000000 0.000000 1.666118
    21 -2.869898 1.399663 -4.140396 -0.202018 1.366753 2.471805
    22 4.972048 0.000000 0.000001 0.854989 0.193863 -1.493560
    23 11.585355 0.000000 0.000000 0.000000 0.000000 -1.291537
    24 10.127057 0.000000 0.000001 2.022610 0.324154 0.083986
    25 2.683750 -0.427338 0.044205 0.001045 0.043611 0.000046
    26 1.438885 -0.000001 0.000000 0.000000 0.000000 0.767762
    27 1.485305 0.000001 0.000000 0.000000 0.000000 1.221689
    28 1.646738 0.449549 -1.702246 0.449790 0.128753 1.240204
    29 0.928312 0.000000 -0.000002 0.000000 0.000000 0.000000
    30 0.928314 0.000000 0.000001 0.000000 0.000000 0.000000
    31 1.533672 0.109715 1.664491 -0.233255 -0.412980 0.435684
    32 0.928313 0.000000 0.000000 0.000000 0.000000 0.000000
    33 0.928314 0.000000 0.000001 0.000000 0.000000 0.000000
  time 25
    0 0.235347 0.367732 -14.670847 -0.045585 0.257873 -1.742273
    1 0.000000 0.000000 0.000000 -1.570795 -1.570796 0.000000
    2 -0.000005 0.000007 3.713255 2.914525 6.061903 1.331528
    3 18.045721 0.000000 0.000000 0.000000 0.000000 -1.349242
    4 17.597597 0.000000 0.000000 -0.205057 0.225938 -0.216505
    5 0.000005 -0.000003 -3.713255 -0.067002 -3.740518 -0.837425
    6 18.045725 0.000000 0.000000 0.000000 0.000000 -2.074647
    7 17.597597 0.000000 0.000000 -0.092081 0.087821 0.559948
    8 1.293670 0.684478 -0.000001 -0.000004 -0.000001 0.358403
    9 5.309685 -0.003834 0.000000 -0.031598 0.014789 0.436984
    10 4.826790 -0.004591 0.000000 -0.143265 0.038339 0.258912
    11 5.792767 -0.005304 0.000000 0.000000 0.000000 0.178065
    12 6.662317 -0.001453 0.000000 0.000000 -0.000001 0.471000
    13 2.046985 -0.000002 0.000000 0.173279 0.050681 -1.275647
    14 -3.112024 1.517254 4.341911 0.147247 -1.368681 2.525517
    15 4.827230 0.000000 0.000001 -0.653796 -0.541964 -1.308904
    16 11.139763 0.000000 0.000000 0.000000 0.000000 -1.225128
    17 10.314597 0.000001 0.000000 -2.123665 0.144021 0.096701
    18 2.975834 -0.386307 -0.044143 -0.037781 -0.021799 1.029782
    19 1.438886 0.000000 0.000000 0.000000 0.000000 0.593381
    20 1.485303 0.000000 0.000000 0.000000 0.000000 1.666118
    21 -2.869898 1.399663 -4.140396 -0.159642 1.368308 2.513414
    22 4.972048 0.000000 0.000001 0.853906 0.178499 -1.499291
    23 11.585355 0.000000 0.000000 0.000000 0.000000 -1.291537
    24 10.127057 0.000000 0.000001 2.022610 0.324154 0.083986
    25 2.683750 -0.427338 0.044205 0.001045 0.043611 0.000046
    26 1.438885 -0.000001 0.000000 0.000000 0.000000 0.767762
    27 1.485305 0.000001 0.000000 0.000000 0.000000 1.221689
    28 1.646738 0.449549 -1.702246 0.449790 0.128753 1.240204
    29 0.928312 0.000000 -0.000002 0.000000 0.000000 0.000000
    30 0.928314 0.000000 0.000001 0.000000 0.000000 0.000000
    31 1.533672 0.109715 1.664491 -0.233255 -0.412980 0.435684
    32 0.928313 0.000000 0.000000 0.000000 0.000000 0.000000
    33 0.928314 0.000000 0.000001 0.000000 0.000000 0.000000
  time 26
    0 0.235347 0.367732 -14.670847 -0.045585 0.257873 -1.742273
    1 0.000000 0.000000 0.000000 -1.570795 -1.570796 0.000000
    2 -0.000005 0.000007 3.713255 2.914525 6.061903 1.331528
    3 18.045721 0.000000 0.000000 0.000000 0.000000 -1.349242
    4 17.597597 0.000000 0.000000 -0.205057 0.225938 -0.216505
    5 0.000005 -0.000003 -3.713255 -0.067002 -3.740518 -0.837425
    6 18.045725 0.000000 0.000000 0.000000 0.000000 -2.074647
    7 17.597597 0.000000 0.000000 -0.092081 0.087821 0.559948
    8 1.293670 0.684478 -0.000001 -0.000004 -0.000001 0.358403
    9 5.309685 -0.003834 0.000000 -0.031659 0.014657 0.432728
    10 4.826790 -0.004591 0.000000 -0.143265 0.038339 0.258912
    11 5.792767 -0.005304 0.000000 0.000000 0.000000 0.165233
    12 6.662317 -0.001453 0.000000 0.000000 -0.000001 0.471000
    13 2.046985 -0.000002 0.000000 0.173495 0.050096 -1.258612
    14 -3.112024 1.517254 4.341911 0.098735 -1.369874 2.572975
    15 4.827230 0.000000 0.000001 -0.649391 -0.523582 -1.317655
    16 11.139763 0.000000 0.000000 0.000000 0.000000 -1.225128
    17 10.314597 0.000001 0.000000 -2.123665 0.144021 0.096701
    18 2.975834 -0.386307 -0.044143 -0.037781 -0.021799 1.029782
    19 1.438886 0.000000 0.000000 0.000000 0.000000 0.593381
    20 1.485303 0.000000 0.000000 0.000000 0.000000 1.666118
    21 -2.869898 1.399663 -4.140396 -0.118800 1.369438 2.553393
    22 4.972048 0.000000 0.000001 0.852513 0.160239 -1.503968
    23 11.585355 0.000000 0.000000 0.000000 0.000000 -1.291537
    24 10.127057 0.000000 0.000001 2.022610 0.324154 0.083986
    25 2.683750 -0.427338 0.044205 0.001045 0.043611 0.000046
    26 1.438885 -0.000001 0.000000 0.000000 0.000000 0.767762
    27 1.485305 0.000001 0.000000 0.000000 0.000000 1.221689
    28 1.646738 0.449549 -1.702246 0.449790 0.128753 1.240204
    29 0.928312 0.000000 -0.000002 0.000000 0.000000 0.000000
    30 0.928314 0.000000 0.000001 0.000000 0.000000 0.000000
    31 1.533672 0.109715 1.664491 -0.233255 -0.412980 0.435684
    32 0.928313 0.000000 0.000000 0.000000 0.000000 0.000000
    33 0.928314 0.000000 0.000001 0.000000 0.000000 0.000000
  time 27
    0 0.235347 0.367732 -14.670847 -0.045585 0.257873 -1.742273
    1 0.000000 0.000000 0.000000 -1.570795 -1.570796 0.000000
    2 -0.000005 0.000007 3.713255 2.914525 6.061903 1.331528
    3 18.045721 0.000000 0.000000 0.000000 0.000000 -1.349242
    4 17.597597 0.000000 0.000000 -0.205057 0.225938 -0.216505
    5 0.000005 -0.000003 -3.713255 -0.067002 -3.740518 -0.837425
    6 18.045725 0.000000 0.000000 0.000000 0.000000 -2.074647
    7 17.597597 0.000000 0.000000 -0.092081 0.087821 0.559948
    8 1.293670 0.684478 -0.000001 -0.000004 -0.000001 0.358403
    9 5.309685 -0.003834 0.000000 -0.031720 0.014513 0.428201
    10 4.826790 -0.004591 0.000000 -0.143265 0.038339 0.258912
    11 5.792767 -0.005304 0.000000 0.000000 0.000000 0.151551
    12 6.662317 -0.001453 0.000000 0.000000 -0.000001 0.471000
    13 2.046985 -0.000002 0.000000 0.173710 0.049465 -1.240453
    14 -3.112024 1.517254 4.341911 0.053867 -1.370528 2.616982
    15 4.827230 0.000000 0.000001 -0.644809 -0.504435 -1.325356
    16 11.139763 0.000000 0.000000 0.000000 0.000000 -1.225128
    17 10.314597 0.000001 0.000000 -2.123665 0.144021 0.096701
    18 2.975834 -0.386307 -0.044143 -0.037781 -0.021799 1.029782
    19 1.438886 0.000000 0.000000 0.000000 0.000000 0.593381
    20 1.485303 0.000000 0.000000 0.000000 0.000000 1.666118
    21 -2.869898 1.399663 -4.140396 -0.080930 1.370173 2.590496
    22 4.972048 0.000000 0.000001 0.850966 0.141014 -1.507722
    23 11.585355 0.000000 0.000000 0.000000 0.000000 -1.291537
    24 10.127057 0.000000 0.000001 2.022610 0.324154 0.083986
    25 2.683750 -0.427338 0.044205 0.001045 0.043611 0.000046
    26 1.438885 -0.000001 0.000000 0.000000 0.000000 0.767762
    27 1.485305 0.000001 0.000000 0.000000 0.000000 1.221689
    28 1.646738 0.449549 -1.702246 0.449790 0.128753 1.240204
    29 0.928312 0.000000 -0.000002 0.000000 0.000000 0.000000
    30 0.928314 0.000000 0.000001 0.000000 0.000000 0.000000
    31 1.533672 0.109715 1.664491 -0.233255 -0.412980 0.435684
    32 0.928313 0.000000 0.000000 0.000000 0.000000 0.000000
    33 0.928314 0.000000 0.000001 0.000000 0.000000 0.000000
  time 28
    0 0.235347 0.367732 -14.670847 -0.045585 0.257873 -1.742273
    1 0.000000 0.000000 0.000000 -1.570795 -1.570796 0.000000
    2 -0.000005 0.000007 3.713255 2.914525 6.061903 1.331528
    3 18.045721 0.000000 0.000000 0.000000 0.000000 -1.349242
    4 17.597597 0.000000 0.000000 -0.205057 0.225938 -0.216505
    5 0.000005 -0.000003 -3.713255 -0.067002 -3.740518 -0.837425
    6 18.045725 0.000000 0.000000 0.000000 0.000000 -2.074647
    7 17.597597 0.000000 0.000000 -0.092081 0.087821 0.559948
    8 1.293670 0.684478 -0.000001 -0.000004 -0.000001 0.358403
    9 5.309685 -0.003834 0.000000 -0.031782 0.014382 0.423963
    10 4.826790 -0.004591 0.000000 -0.143265 0.038339 0.258912
    11 5.792767 -0.005304 0.000000 0.000000 0.000000 0.138802
    12 6.662317 -0.001453 0.000000 0.000000 -0.000001 0.471000
    13 2.046985 -0.000002 0.000000 0.173926 0.048880 -1.223463
    14 -3.112024 1.517254 4.341911 0.014367 -1.370797 2.655716
    15 4.827230 0.000000 0.000001 -0.640639 -0.486564 -1.331920
    16 11.139763 0.000000 0.000000 0.000000 0.000000 -1.225128
    17 10.314597 0.000001 0.000000 -2.123665 0.144021 0.096701
    18 2.975834 -0.386307 -0.044143 -0.037781 -0.021799 1.029782
    19 1.438886 0.000000 0.000000 0.000000 0.000000 0.593381
    20 1.485303 0.000000 0.000000 0.000000 0.000000 1.666118
    21 -2.869898 1.399663 -4.140396 -0.047566 1.370597 2.623189
    22 4.972048 0.000000 0.000001 0.849497 0.123156 -1.510818
    23 11.585355 0.000000 0.000000 0.000000 0.000000 -1.291537
    24 10.127057 0.000000 0.000001 2.022610 0.324154 0.083986
    25 2.683750 -0.427338 0.044205 0.001045 0.043611 0.000046
    26 1.438885 -0.000001 0.000000 0.000000 0.000000 0.767762
    27 1.485305 0.000001 0.000000 0.000000 0.000000 1.221689
    28 1.646738 0.449549 -1.702246 0.449790 0.128753 1.240204
    29 0.928312 0.000000 -0.000002 0.000000 0.000000 0.000000
    30 0.928314 0.000000 0.000001 0.000000 0.000000 0.000000
    31 1.533672 0.109715 1.664491 -0.233255 -0.412980 0.435684
    32 0.928313 0.000000 0.000000 0.000000 0.000000 0.000000
    33 0.928314 0.000000 0.000001 0.000000 0.000000 0.000000
  time 29
    0 0.235347 0.367732 -14.670847 -0.045585 0.257873 -1.742273
    1 0.000000 0.000000 0.000000 -1.570795 -1.570796 0.000000
    2 -0.000005 0.000007 3.713255 2.914525 6.061903 1.331528
    3 18.045721 0.000000 0.000000 0.000000 0.000000 -1.349242
    4 17.597597 0.000000 0.000000 -0.205057 0.225938 -0.216505
    5 0.000005 -0.000003 -3.713255 -0.067002 -3.740518 -0.837425
    6 18.045725 0.000000 0.000000 0.000000 0.000000 -2.074647
    7 17.597597 0.000000 0.000000 -0.092081 0.087821 0.559948
    8 1.293670 0.684478 -0.000001 -0.000004 -0.000001 0.358403
    9 5.309685 -0.003834 0.000000 -0.031830 0.014274 0.420577
    10 4.826790 -0.004591 0.000000 -0.143265 0.038339 0.258912
    11 5.792767 -0.005304 0.000000 0.000000 0.000000 0.128587
    12 6.662317 -0.001453 0.000000 0.000000 -0.000001 0.471000
    13 2.046985 -0.000002 0.000000 0.174098 0.048407 -1.209889
    14 -3.112024 1.517254 4.341911 -0.018038 -1.370797 2.687451
    15 4.827230 0.000000 0.000001 -0.637291 -0.472267 -1.337258
    16 11.139763 0.000000 0.000000 0.000000 0.000000 -1.225128
    17 10.314597 0.000001 0.000000 -2.123665 0.144021 0.096701
    18 2.975834 -0.386307 -0.044143 -0.037781 -0.021799 1.029782
    19 1.438886 0.000000 0.000000 0.000000 0.000000 0.593381
    20 1.485303 0.000000 0.000000 0.000000 0.000000 1.666118
    21 -2.869898 1.399663 -4.140396 -0.020146 1.370767 2.650033
    22 4.972048 0.000000 0.000001 0.848336 0.108918 -1.513453
    23 11.585355 0.000000 0.000000 0.000000 0.000000 -1.291537
    24 10.127057 0.000000 0.000001 2.022610 0.324154 0.083986
    25 2.683750 -0.427338 0.044205 0.001045 0.043611 0.000046
    26 1.438885 -0.000001 0.000000 0.000000 0.000000 0.767762
    27 1.485305 0.000001 0.000000 0.000000 0.000000 1.221689
    28 1.646738 0.449549 -1.702246 0.449790 0.128753 1.240204
    29 0.928312 0.000000 -0.000002 0.000000 0.000000 0.000000
    30 0.928314 0.000000 0.000001 0.000000 0.000000 0.000000
    31 1.533672 0.109715 1.664491 -0.233255 -0.412980 0.435684
    32 0.928313 0.000000 0.000000 0.000000 0.000000 0.000000
    33 0.928314 0.000000 0.000001 0.000000 0.000000 0.000000
  time 30
    0 0.235347 0.367732 -14.670847 -0.045585 0.257873 -1.742273
    1 0.000000 0.000000 0.000000 -1.570795 -1.570796 0.000000
    2 -0.000005 0.000007 3.713255 2.914525 6.061903 1.331528
    3 18.045721 0.000000 0.000000 0.000000 0.000000 -1.349242
    4 17.597597 0.000000 0.000000 -0.205057 0.225938 -0.216505
    5 0.000005 -0.000003 -3.713255 -0.067002 -3.740518 -0.837425
    6 18.045725 0.000000 0.000000 0.000000 0.000000 -2.074647
    7 17.597597 0.000000 0.000000 -0.092081 0.087821 0.559948
    8 1.293670 0.684478 -0.000001 -0.000004 -0.000001 0.358403
    9 5.309685 -0.003834 0.000000 -0.031855 0.014202 0.418422
    10 4.826790 -0.004591 0.000000 -0.143265 0.038339 0.258912
    11 5.792767 -0.005304 0.000000 0.000000 0.000000 0.122109
    12 6.662317 -0.001453 0.000000 0.000000 -0.000001 0.471000
    13 2.046985 -0.000002 0.000000 0.174227 0.048114 -1.201304
    14 -3.112024 1.517254 4.341911 -0.041815 -1.370643 2.710845
    15 4.827230 0.000000 0.000001 -0.635118 -0.462991 -1.341283
    16 11.139763 0.000000 0.000000 0.000000 0.000000 -1.225128
    17 10.314597 0.000001 0.000000 -2.123665 0.144021 0.096701
    18 2.975834 -0.386307 -0.044143 -0.037781 -0.021799 1.029782
    19 1.438886 0.000000 0.000000 0.000000 0.000000 0.593381
    20 1.485303 0.000000 0.000000 0.000000 0.000000 1.666118
    21 -2.869898 1.399663 -4.140396 -0.000013 1.370795 2.669783
    22 4.972048 0.000000 0.000001 0.847485 0.099747 -1.515627
    23 11.585355 0.000000 0.000000 0.000000 0.000000 -1.291537
    24 10.127057 0.000000 0.000001 2.022610 0.324154 0.083986
    25 2.683750 -0.427338 0.044205 0.001045 0.043611 0.000046
    26 1.438885 -0.000001 0.000000 0.000000 0.000000 0.767762
    27 1.485305 0.000001 0.000000 0.000000 0.000000 1.221689
    28 1.646738 0.449549 -1.702246 0.449790 0.128753 1.240204
    29 0.928312 0.000000 -0.000002 0.000000 0.000000 0.000000
    30 0.928314 0.000000 0.000001 0.000000 0.000000 0.000000
    31 1.533672 0.109715 1.664491 -0.233255 -0.412980 0.435684
    32 0.928313 0.000000 0.000000 0.000000 0.000000 0.000000
    33 0.928314 0.000000 0.000001 0.000000 0.000000 0.000000
end
