version 1
nodes
  0 "Bip01" -1
  1 "Bip01 Pelvis" 0
  2 "Bip01 L Leg" 1
  3 "Bip01 L Leg1" 2
  4 "Bip01 L Foot" 3
  5 "Bip01 R Leg" 1
  6 "Bip01 R Leg1" 5
  7 "Bip01 R Foot" 6
  8 "Bip01 Spine" 1
  9 "Bip01 Spine1" 8
  10 "Bip01 Spine2" 9
  11 "Bip01 Spine3" 10
  12 "Bip01 Neck" 11
  13 "Bip01 Head" 12
  14 "Bip01 L Arm" 12
  15 "Bip01 L Arm1" 14
  16 "Bip01 L Arm2" 15
  17 "Bip01 L Hand" 16
  18 "Bip01 L Finger1" 17
  19 "Bip01 L Finger11" 18
  20 "Bip01 L Finger12" 19
  21 "Bip01 R Arm" 12
  22 "Bip01 R Arm1" 21
  23 "Bip01 R Arm2" 22
  24 "Bip01 R Hand" 23
  25 "Bip01 R Finger1" 24
  26 "Bip01 R Finger11" 25
  27 "Bip01 R Finger12" 26
  28 "Bip01 L Finger0" 17
  29 "Bip01 L Finger01" 28
  30 "Bip01 L Finger02" 29
  31 "Bip01 R Finger0" 24
  32 "Bip01 R Finger01" 31
  33 "Bip01 R Finger02" 32
end
skeleton
  time 0
    0 0.235347 0.367732 -14.553656 -0.045585 0.257873 -1.742273
    1 0.000000 0.000000 0.000000 -1.570795 -1.570796 0.000000
    2 -0.000005 0.000007 3.713255 2.914525 6.061903 1.331528
    3 18.045721 0.000000 0.000000 0.000000 0.000000 -1.349242
    4 17.597597 0.000000 0.000000 -0.205057 0.225938 -0.216505
    5 0.000005 -0.000003 -3.713255 -0.067002 -3.740518 -0.837425
    6 18.045725 0.000000 0.000000 0.000000 0.000000 -2.074647
    7 17.597597 0.000000 0.000000 -0.092081 0.087821 0.559948
    8 1.293670 0.684478 -0.000001 -0.000004 -0.000001 0.218799
    9 5.309685 -0.003834 0.000000 0.000000 0.000000 0.349065
    10 4.826790 -0.004591 0.000000 -0.173330 0.019775 0.111669
    11 5.792767 -0.005304 0.000000 -0.139462 -0.004746 -0.034629
    12 6.662317 -0.001453 0.000000 0.000000 -0.000001 -0.139840
    13 2.046985 -0.000002 0.000000 0.211796 0.232872 -0.710340
    14 -3.416721 -0.541403 4.341911 1.021706 -1.200316 2.290716
    15 4.827230 0.000000 0.000001 -0.298794 -0.741270 -1.812619
    16 11.139763 0.000000 0.000000 0.000000 0.000000 -0.657551
    17 10.314597 0.000001 0.000000 -3.444010 0.558712 -0.152971
    18 2.975834 -0.386307 -0.044143 -0.000797 -0.043611 0.000035
    19 1.438886 0.000000 0.000000 0.000000 0.000000 0.872212
    20 1.485303 0.000000 0.000000 0.000000 0.000000 0.907076
    21 -3.151157 -0.498832 -4.140396 -1.093255 1.155366 2.224644
    22 4.972048 0.000000 0.000001 0.918652 -0.285002 -1.303518
    23 11.585355 0.000000 0.000000 0.000000 0.000000 -1.922688
    24 10.127057 0.000000 0.000001 1.696073 0.457670 0.038994
    25 2.683750 -0.427338 0.044205 -0.005786 0.043239 -0.157091
    26 1.438885 -0.000001 0.000000 0.000000 0.000000 0.732658
    27 1.485305 0.000001 0.000000 0.000000 0.000000 1.168770
    28 1.646738 0.449549 -1.702246 -0.161934 0.581206 -0.284024
    29 0.928312 0.000000 -0.000002 0.000000 0.000000 0.000000
    30 0.928314 0.000000 0.000001 0.000000 0.000000 0.000000
    31 1.533672 0.109715 1.664491 -0.264755 -0.055959 0.783109
    32 0.928313 0.000000 0.000000 0.000000 0.000000 -0.453556
    33 0.928314 0.000000 0.000001 0.000000 0.000000 0.000000
  time 1
    0 0.235347 0.367732 -14.553656 -0.045585 0.257873 -1.742273
    1 0.000000 0.000000 0.000000 -1.570795 -1.570796 0.000000
    2 -0.000005 0.000007 3.713255 2.914525 6.061903 1.331528
    3 18.045721 0.000000 0.000000 0.000000 0.000000 -1.349242
    4 17.597597 0.000000 0.000000 -0.205057 0.225938 -0.216505
    5 0.000005 -0.000003 -3.713255 -0.067002 -3.740518 -0.837425
    6 18.045725 0.000000 0.000000 0.000000 0.000000 -2.074647
    7 17.597597 0.000000 0.000000 -0.092081 0.087821 0.559948
    8 1.293670 0.684478 -0.000001 -0.000004 -0.000001 0.218799
    9 5.309685 -0.003834 0.000000 0.000000 0.000000 0.349065
    10 4.826790 -0.004591 0.000000 -0.173330 0.019775 0.111669
    11 5.792767 -0.005304 0.000000 -0.139479 -0.004243 -0.031016
    12 6.662317 -0.001453 0.000000 0.000000 -0.000001 -0.139840
    13 2.046985 -0.000002 0.000000 0.211796 0.232872 -0.713981
    14 -3.416721 -0.541403 4.341911 1.012214 -1.198008 2.300975
    15 4.827230 0.000000 0.000001 -0.290453 -0.743227 -1.819007
    16 11.139763 0.000000 0.000000 0.000000 0.000000 -0.657551
    17 10.314597 0.000001 0.000000 -3.444010 0.558712 -0.152971
    18 2.975834 -0.386307 -0.044143 -0.000797 -0.043611 0.000035
    19 1.438886 0.000000 0.000000 0.000000 0.000000 0.872212
    20 1.485303 0.000000 0.000000 0.000000 0.000000 0.907076
    21 -3.151157 -0.498832 -4.140396 -1.097665 1.152200 2.220522
    22 4.972048 0.000000 0.000001 0.918420 -0.280738 -1.300553
    23 11.585355 0.000000 0.000000 0.000000 0.000000 -1.922688
    24 10.127057 0.000000 0.000001 1.695054 0.457941 0.036601
    25 2.683750 -0.427338 0.044205 -0.005786 0.043239 -0.157091
    26 1.438885 -0.000001 0.000000 0.000000 0.000000 0.732658
    27 1.485305 0.000001 0.000000 0.000000 0.000000 1.168770
    28 1.646738 0.449549 -1.702246 -0.161934 0.581206 -0.284024
    29 0.928312 0.000000 -0.000002 0.000000 0.000000 0.000000
    30 0.928314 0.000000 0.000001 0.000000 0.000000 0.000000
    31 1.533672 0.109715 1.664491 -0.264755 -0.055959 0.783109
    32 0.928313 0.000000 0.000000 0.000000 0.000000 -0.453556
    33 0.928314 0.000000 0.000001 0.000000 0.000000 0.000000
  time 2
    0 0.235347 0.367732 -14.553656 -0.045585 0.257873 -1.742273
    1 0.000000 0.000000 0.000000 -1.570795 -1.570796 0.000000
    2 -0.000005 0.000007 3.713255 2.914525 6.061903 1.331528
    3 18.045721 0.000000 0.000000 0.000000 0.000000 -1.349242
    4 17.597597 0.000000 0.000000 -0.205057 0.225938 -0.216505
    5 0.000005 -0.000003 -3.713255 -0.067002 -3.740518 -0.837425
    6 18.045725 0.000000 0.000000 0.000000 0.000000 -2.074647
    7 17.597597 0.000000 0.000000 -0.092081 0.087821 0.559948
    8 1.293670 0.684478 -0.000001 -0.000004 -0.000001 0.218799
    9 5.309685 -0.003834 0.000000 0.000000 0.000000 0.349065
    10 4.826790 -0.004591 0.000000 -0.173330 0.019775 0.111669
    11 5.792767 -0.005304 0.000000 -0.139495 -0.003547 -0.026116
    12 6.662317 -0.001453 0.000000 0.000000 -0.000001 -0.139840
    13 2.046985 -0.000002 0.000000 0.211796 0.232872 -0.718925
    14 -3.416721 -0.541403 4.341911 0.999367 -1.194815 2.314685
    15 4.827230 0.000000 0.000001 -0.278999 -0.745866 -1.827671
    16 11.139763 0.000000 0.000000 0.000000 0.000000 -0.657551
    17 10.314597 0.000001 0.000000 -3.444010 0.558712 -0.152971
    18 2.975834 -0.386307 -0.044143 -0.000797 -0.043611 0.000035
    19 1.438886 0.000000 0.000000 0.000000 0.000000 0.872212
    20 1.485303 0.000000 0.000000 0.000000 0.000000 0.907076
    21 -3.151157 -0.498832 -4.140396 -1.103609 1.147876 2.215153
    22 4.972048 0.000000 0.000001 0.918188 -0.274947 -1.296535
    23 11.585355 0.000000 0.000000 0.000000 0.000000 -1.922688
    24 10.127057 0.000000 0.000001 1.693589 0.458320 0.033306
    25 2.683750 -0.427338 0.044205 -0.005786 0.043239 -0.157091
    26 1.438885 -0.000001 0.000000 0.000000 0.000000 0.732658
    27 1.485305 0.000001 0.000000 0.000000 0.000000 1.168770
    28 1.646738 0.449549 -1.702246 -0.161934 0.581206 -0.284024
    29 0.928312 0.000000 -0.000002 0.000000 0.000000 0.000000
    30 0.928314 0.000000 0.000001 0.000000 0.000000 0.000000
    31 1.533672 0.109715 1.664491 -0.264755 -0.055959 0.783109
    32 0.928313 0.000000 0.000000 0.000000 0.000000 -0.453556
    33 0.928314 0.000000 0.000001 0.000000 0.000000 0.000000
  time 3
    0 0.235347 0.367732 -14.553656 -0.045585 0.257873 -1.742273
    1 0.000000 0.000000 0.000000 -1.570795 -1.570796 0.000000
    2 -0.000005 0.000007 3.713255 2.914525 6.061903 1.331528
    3 18.045721 0.000000 0.000000 0.000000 0.000000 -1.349242
    4 17.597597 0.000000 0.000000 -0.205057 0.225938 -0.216505
    5 0.000005 -0.000003 -3.713255 -0.067002 -3.740518 -0.837425
    6 18.045725 0.000000 0.000000 0.000000 0.000000 -2.074647
    7 17.597597 0.000000 0.000000 -0.092081 0.087821 0.559948
    8 1.293670 0.684478 -0.000001 -0.000004 -0.000001 0.218799
    9 5.309685 -0.003834 0.000000 0.000000 0.000000 0.349065
    10 4.826790 -0.004591 0.000000 -0.173330 0.019775 0.111669
    11 5.792767 -0.005304 0.000000 -0.139528 -0.002709 -0.020116
    12 6.662317 -0.001453 0.000000 0.000000 -0.000001 -0.139840
    13 2.046985 -0.000002 0.000000 0.211796 0.232872 -0.724993
    14 -3.416721 -0.541403 4.341911 0.984028 -1.190853 2.331176
    15 4.827230 0.000000 0.000001 -0.265020 -0.748929 -1.838434
    16 11.139763 0.000000 0.000000 0.000000 0.000000 -0.657551
    17 10.314597 0.000001 0.000000 -3.444010 0.558712 -0.152971
    18 2.975834 -0.386307 -0.044143 -0.000797 -0.043611 0.000035
    19 1.438886 0.000000 0.000000 0.000000 0.000000 0.872212
    20 1.485303 0.000000 0.000000 0.000000 0.000000 0.907076
    21 -3.151157 -0.498832 -4.140396 -1.110608 1.142562 2.208729
    22 4.972048 0.000000 0.000001 0.917878 -0.267868 -1.291595
    23 11.585355 0.000000 0.000000 0.000000 0.000000 -1.922688
    24 10.127057 0.000000 0.000001 1.691805 0.458753 0.029305
    25 2.683750 -0.427338 0.044205 -0.005786 0.043239 -0.157091
    26 1.438885 -0.000001 0.000000 0.000000 0.000000 0.732658
    27 1.485305 0.000001 0.000000 0.000000 0.000000 1.168770
    28 1.646738 0.449549 -1.702246 -0.161934 0.581206 -0.284024
    29 0.928312 0.000000 -0.000002 0.000000 0.000000 0.000000
    30 0.928314 0.000000 0.000001 0.000000 0.000000 0.000000
    31 1.533672 0.109715 1.664491 -0.264755 -0.055959 0.783109
    32 0.928313 0.000000 0.000000 0.000000 0.000000 -0.453556
    33 0.928314 0.000000 0.000001 0.000000 0.000000 0.000000
  time 4
    0 0.235347 0.367732 -14.553656 -0.045585 0.257873 -1.742273
    1 0.000000 0.000000 0.000000 -1.570795 -1.570796 0.000000
    2 -0.000005 0.000007 3.713255 2.914525 6.061903 1.331528
    3 18.045721 0.000000 0.000000 0.000000 0.000000 -1.349242
    4 17.597597 0.000000 0.000000 -0.205057 0.225938 -0.216505
    5 0.000005 -0.000003 -3.713255 -0.067002 -3.740518 -0.837425
    6 18.045725 0.000000 0.000000 0.000000 0.000000 -2.074647
    7 17.597597 0.000000 0.000000 -0.092081 0.087821 0.559948
    8 1.293670 0.684478 -0.000001 -0.000004 -0.000001 0.218799
    9 5.309685 -0.003834 0.000000 0.000000 0.000000 0.349065
    10 4.826790 -0.004591 0.000000 -0.173330 0.019775 0.111669
    11 5.792767 -0.005304 0.000000 -0.139544 -0.001750 -0.013285
    12 6.662317 -0.001453 0.000000 0.000000 -0.000001 -0.139840
    13 2.046985 -0.000002 0.000000 0.211796 0.232872 -0.731870
    14 -3.416721 -0.541403 4.341911 0.967058 -1.186199 2.349584
    15 4.827230 0.000000 0.000001 -0.248926 -0.752248 -1.850861
    16 11.139763 0.000000 0.000000 0.000000 0.000000 -0.657551
    17 10.314597 0.000001 0.000000 -3.444010 0.558712 -0.152971
    18 2.975834 -0.386307 -0.044143 -0.000797 -0.043611 0.000035
    19 1.438886 0.000000 0.000000 0.000000 0.000000 0.872212
    20 1.485303 0.000000 0.000000 0.000000 0.000000 0.907076
    21 -3.151157 -0.498832 -4.140396 -1.118469 1.136485 2.201635
    22 4.972048 0.000000 0.000001 0.917491 -0.259824 -1.285995
    23 11.585355 0.000000 0.000000 0.000000 0.000000 -1.922688
    24 10.127057 0.000000 0.000001 1.689767 0.459268 0.024716
    25 2.683750 -0.427338 0.044205 -0.005786 0.043239 -0.157091
    26 1.438885 -0.000001 0.000000 0.000000 0.000000 0.732658
    27 1.485305 0.000001 0.000000 0.000000 0.000000 1.168770
    28 1.646738 0.449549 -1.702246 -0.161934 0.581206 -0.284024
    29 0.928312 0.000000 -0.000002 0.000000 0.000000 0.000000
    30 0.928314 0.000000 0.000001 0.000000 0.000000 0.000000
    31 1.533672 0.109715 1.664491 -0.264755 -0.055959 0.783109
    32 0.928313 0.000000 0.000000 0.000000 0.000000 -0.453556
    33 0.928314 0.000000 0.000001 0.000000 0.000000 0.000000
  time 5
    0 0.235347 0.367732 -14.553656 -0.045585 0.257873 -1.742273
    1 0.000000 0.000000 0.000000 -1.570795 -1.570796 0.000000
    2 -0.000005 0.000007 3.713255 2.914525 6.061903 1.331528
    3 18.045721 0.000000 0.000000 0.000000 0.000000 -1.349242
    4 17.597597 0.000000 0.000000 -0.205057 0.225938 -0.216505
    5 0.000005 -0.000003 -3.713255 -0.067002 -3.740518 -0.837425
    6 18.045725 0.000000 0.000000 0.000000 0.000000 -2.074647
    7 17.597597 0.000000 0.000000 -0.092081 0.087821 0.559948
    8 1.293670 0.684478 -0.000001 -0.000004 -0.000001 0.218799
    9 5.309685 -0.003834 0.000000 0.000000 0.000000 0.349065
    10 4.826790 -0.004591 0.000000 -0.173330 0.019775 0.111669
    11 5.792767 -0.005304 0.000000 -0.139544 -0.000707 -0.005831
    12 6.662317 -0.001453 0.000000 0.000000 -0.000001 -0.139840
    13 2.046985 -0.000002 0.000000 0.211796 0.232872 -0.739421
    14 -3.416721 -0.541403 4.341911 0.948938 -1.181044 2.369143
    15 4.827230 0.000000 0.000001 -0.231306 -0.755737 -1.864600
    16 11.139763 0.000000 0.000000 0.000000 0.000000 -0.657551
    17 10.314597 0.000001 0.000000 -3.444010 0.558712 -0.152971
    18 2.975834 -0.386307 -0.044143 -0.000797 -0.043611 0.000035
    19 1.438886 0.000000 0.000000 0.000000 0.000000 0.872212
    20 1.485303 0.000000 0.000000 0.000000 0.000000 0.907076
    21 -3.151157 -0.498832 -4.140396 -1.126810 1.129843 2.194061
    22 4.972048 0.000000 0.000001 0.917027 -0.251056 -1.279935
    23 11.585355 0.000000 0.000000 0.000000 0.000000 -1.922688
    24 10.127057 0.000000 0.000001 1.687537 0.459782 0.019734
    25 2.683750 -0.427338 0.044205 -0.005786 0.043239 -0.157091
    26 1.438885 -0.000001 0.000000 0.000000 0.000000 0.732658
    27 1.485305 0.000001 0.000000 0.000000 0.000000 1.168770
    28 1.646738 0.449549 -1.702246 -0.161934 0.581206 -0.284024
    29 0.928312 0.000000 -0.000002 0.000000 0.000000 0.000000
    30 0.928314 0.000000 0.000001 0.000000 0.000000 0.000000
    31 1.533672 0.109715 1.664491 -0.264755 -0.055959 0.783109
    32 0.928313 0.000000 0.000000 0.000000 0.000000 -0.453556
    33 0.928314 0.000000 0.000001 0.000000 0.000000 0.000000
  time 6
    0 0.235347 0.367732 -14.553656 -0.045585 0.257873 -1.742273
    1 0.000000 0.000000 0.000000 -1.570795 -1.570796 0.000000
    2 -0.000005 0.000007 3.713255 2.914525 6.061903 1.331528
    3 18.045721 0.000000 0.000000 0.000000 0.000000 -1.349242
    4 17.597597 0.000000 0.000000 -0.205057 0.225938 -0.216505
    5 0.000005 -0.000003 -3.713255 -0.067002 -3.740518 -0.837425
    6 18.045725 0.000000 0.000000 0.000000 0.000000 -2.074647
    7 17.597597 0.000000 0.000000 -0.092081 0.087821 0.559948
    8 1.293670 0.684478 -0.000001 -0.000004 -0.000001 0.218799
    9 5.309685 -0.003834 0.000000 0.000000 0.000000 0.349065
    10 4.826790 -0.004591 0.000000 -0.173330 0.019775 0.111669
    11 5.792767 -0.005304 0.000000 -0.139544 0.000384 0.001996
    12 6.662317 -0.001453 0.000000 0.000000 -0.000001 -0.139840
    13 2.046985 -0.000002 0.000000 0.211796 0.232872 -0.747332
    14 -3.416721 -0.541403 4.341911 0.930434 -1.175428 2.389085
    15 4.827230 0.000000 0.000001 -0.212627 -0.759141 -1.879215
    16 11.139763 0.000000 0.000000 0.000000 0.000000 -0.657551
    17 10.314597 0.000001 0.000000 -3.444010 0.558712 -0.152971
    18 2.975834 -0.386307 -0.044143 -0.000797 -0.043611 0.000035
    19 1.438886 0.000000 0.000000 0.000000 0.000000 0.872212
    20 1.485303 0.000000 0.000000 0.000000 0.000000 0.907076
    21 -3.151157 -0.498832 -4.140396 -1.135343 1.122834 2.186391
    22 4.972048 0.000000 0.000001 0.916641 -0.241805 -1.273546
    23 11.585355 0.000000 0.000000 0.000000 0.000000 -1.922688
    24 10.127057 0.000000 0.000001 1.685244 0.460350 0.014478
    25 2.683750 -0.427338 0.044205 -0.005786 0.043239 -0.157091
    26 1.438885 -0.000001 0.000000 0.000000 0.000000 0.732658
    27 1.485305 0.000001 0.000000 0.000000 0.000000 1.168770
    28 1.646738 0.449549 -1.702246 -0.161934 0.581206 -0.284024
    29 0.928312 0.000000 -0.000002 0.000000 0.000000 0.000000
    30 0.928314 0.000000 0.000001 0.000000 0.000000 0.000000
    31 1.533672 0.109715 1.664491 -0.264755 -0.055959 0.783109
    32 0.928313 0.000000 0.000000 0.000000 0.000000 -0.453556
    33 0.928314 0.000000 0.000001 0.000000 0.000000 0.000000
  time 7
    0 0.235347 0.367732 -14.553656 -0.045585 0.257873 -1.742273
    1 0.000000 0.000000 0.000000 -1.570795 -1.570796 0.000000
    2 -0.000005 0.000007 3.713255 2.914525 6.061903 1.331528
    3 18.045721 0.000000 0.000000 0.000000 0.000000 -1.349242
    4 17.597597 0.000000 0.000000 -0.205057 0.225938 -0.216505
    5 0.000005 -0.000003 -3.713255 -0.067002 -3.740518 -0.837425
    6 18.045725 0.000000 0.000000 0.000000 0.000000 -2.074647
    7 17.597597 0.000000 0.000000 -0.092081 0.087821 0.559948
    8 1.293670 0.684478 -0.000001 -0.000004 -0.000001 0.218799
    9 5.309685 -0.003834 0.000000 0.000000 0.000000 0.349065
    10 4.826790 -0.004591 0.000000 -0.173330 0.019775 0.111669
    11 5.792767 -0.005304 0.000000 -0.139544 0.001510 0.009990
    12 6.662317 -0.001453 0.000000 0.000000 -0.000001 -0.139840
    13 2.046985 -0.000002 0.000000 0.211796 0.232872 -0.755378
    14 -3.416721 -0.541403 4.341911 0.912123 -1.169581 2.409027
    15 4.827230 0.000000 0.000001 -0.193479 -0.762460 -1.894267
    16 11.139763 0.000000 0.000000 0.000000 0.000000 -0.657551
    17 10.314597 0.000001 0.000000 -3.444010 0.558712 -0.152971
    18 2.975834 -0.386307 -0.044143 -0.000797 -0.043611 0.000035
    19 1.438886 0.000000 0.000000 0.000000 0.000000 0.872212
    20 1.485303 0.000000 0.000000 0.000000 0.000000 0.907076
    21 -3.151157 -0.498832 -4.140396 -1.143684 1.115626 2.178817
    22 4.972048 0.000000 0.000001 0.916176 -0.232393 -1.266958
    23 11.585355 0.000000 0.000000 0.000000 0.000000 -1.922688
    24 10.127057 0.000000 0.000001 1.682823 0.460892 0.009104
    25 2.683750 -0.427338 0.044205 -0.005786 0.043239 -0.157091
    26 1.438885 -0.000001 0.000000 0.000000 0.000000 0.732658
    27 1.485305 0.000001 0.000000 0.000000 0.000000 1.168770
    28 1.646738 0.449549 -1.702246 -0.161934 0.581206 -0.284024
    29 0.928312 0.000000 -0.000002 0.000000 0.000000 0.000000
    30 0.928314 0.000000 0.000001 0.000000 0.000000 0.000000
    31 1.533672 0.109715 1.664491 -0.264755 -0.055959 0.783109
    32 0.928313 0.000000 0.000000 0.000000 0.000000 -0.453556
    33 0.928314 0.000000 0.000001 0.000000 0.000000 0.000000
  time 8
    0 0.235347 0.367732 -14.553656 -0.045585 0.257873 -1.742273
    1 0.000000 0.000000 0.000000 -1.570795 -1.570796 0.000000
    2 -0.000005 0.000007 3.713255 2.914525 6.061903 1.331528
    3 18.045721 0.000000 0.000000 0.000000 0.000000 -1.349242
    4 17.597597 0.000000 0.000000 -0.205057 0.225938 -0.216505
    5 0.000005 -0.000003 -3.713255 -0.067002 -3.740518 -0.837425
    6 18.045725 0.000000 0.000000 0.000000 0.000000 -2.074647
    7 17.597597 0.000000 0.000000 -0.092081 0.087821 0.559948
    8 1.293670 0.684478 -0.000001 -0.000004 -0.000001 0.218799
    9 5.309685 -0.003834 0.000000 0.000000 0.000000 0.349065
    10 4.826790 -0.004591 0.000000 -0.173330 0.019775 0.111669
    11 5.792767 -0.005304 0.000000 -0.139528 0.002625 0.017880
    12 6.662317 -0.001453 0.000000 0.000000 -0.000001 -0.139840
    13 2.046985 -0.000002 0.000000 0.211796 0.232872 -0.763378
    14 -3.416721 -0.541403 4.341911 0.894482 -1.163658 2.428107
    15 4.827230 0.000000 0.000001 -0.174390 -0.765524 -1.909406
    16 11.139763 0.000000 0.000000 0.000000 0.000000 -0.657551
    17 10.314597 0.000001 0.000000 -3.444010 0.558712 -0.152971
    18 2.975834 -0.386307 -0.044143 -0.000797 -0.043611 0.000035
    19 1.438886 0.000000 0.000000 0.000000 0.000000 0.872212
    20 1.485303 0.000000 0.000000 0.000000 0.000000 0.907076
    21 -3.151157 -0.498832 -4.140396 -1.151833 1.108504 2.171531
    22 4.972048 0.000000 0.000001 0.915712 -0.223062 -1.260503
    23 11.585355 0.000000 0.000000 0.000000 0.000000 -1.922688
    24 10.127057 0.000000 0.000001 1.680466 0.461433 0.003809
    25 2.683750 -0.427338 0.044205 -0.005786 0.043239 -0.157091
    26 1.438885 -0.000001 0.000000 0.000000 0.000000 0.732658
    27 1.485305 0.000001 0.000000 0.000000 0.000000 1.168770
    28 1.646738 0.449549 -1.702246 -0.161934 0.581206 -0.284024
    29 0.928312 0.000000 -0.000002 0.000000 0.000000 0.000000
    30 0.928314 0.000000 0.000001 0.000000 0.000000 0.000000
    31 1.533672 0.109715 1.664491 -0.264755 -0.055959 0.783109
    32 0.928313 0.000000 0.000000 0.000000 0.000000 -0.453556
    33 0.928314 0.000000 0.000001 0.000000 0.000000 0.000000
  time 9
    0 0.235347 0.367732 -14.553656 -0.045585 0.257873 -1.742273
    1 0.000000 0.000000 0.000000 -1.570795 -1.570796 0.000000
    2 -0.000005 0.000007 3.713255 2.914525 6.061903 1.331528
    3 18.045721 0.000000 0.000000 0.000000 0.000000 -1.349242
    4 17.597597 0.000000 0.000000 -0.205057 0.225938 -0.216505
    5 0.000005 -0.000003 -3.713255 -0.067002 -3.740518 -0.837425
    6 18.045725 0.000000 0.000000 0.000000 0.000000 -2.074647
    7 17.597597 0.000000 0.000000 -0.092081 0.087821 0.559948
    8 1.293670 0.684478 -0.000001 -0.000004 -0.000001 0.218799
    9 5.309685 -0.003834 0.000000 0.000000 0.000000 0.349065
    10 4.826790 -0.004591 0.000000 -0.173330 0.019775 0.111669
    11 5.792767 -0.005304 0.000000 -0.139495 0.003691 0.025500
    12 6.662317 -0.001453 0.000000 0.000000 -0.000001 -0.139840
    13 2.046985 -0.000002 0.000000 0.211796 0.232872 -0.771064
    14 -3.416721 -0.541403 4.341911 0.878088 -1.157811 2.446035
    15 4.827230 0.000000 0.000001 -0.155947 -0.768162 -1.924195
    16 11.139763 0.000000 0.000000 0.000000 0.000000 -0.657551
    17 10.314597 0.000001 0.000000 -3.444010 0.558712 -0.152971
    18 2.975834 -0.386307 -0.044143 -0.000797 -0.043611 0.000035
    19 1.438886 0.000000 0.000000 0.000000 0.000000 0.872212
    20 1.485303 0.000000 0.000000 0.000000 0.000000 0.907076
    21 -3.151157 -0.498832 -4.140396 -1.159407 1.101607 2.164819
    22 4.972048 0.000000 0.000001 0.915326 -0.214133 -1.254245
    23 11.585355 0.000000 0.000000 0.000000 0.000000 -1.922688
    24 10.127057 0.000000 0.000001 1.678173 0.461948 -0.001290
    25 2.683750 -0.427338 0.044205 -0.005786 0.043239 -0.157091
    26 1.438885 -0.000001 0.000000 0.000000 0.000000 0.732658
    27 1.485305 0.000001 0.000000 0.000000 0.000000 1.168770
    28 1.646738 0.449549 -1.702246 -0.161934 0.581206 -0.284024
    29 0.928312 0.000000 -0.000002 0.000000 0.000000 0.000000
    30 0.928314 0.000000 0.000001 0.000000 0.000000 0.000000
    31 1.533672 0.109715 1.664491 -0.264755 -0.055959 0.783109
    32 0.928313 0.000000 0.000000 0.000000 0.000000 -0.453556
    33 0.928314 0.000000 0.000001 0.000000 0.000000 0.000000
  time 10
    0 0.235347 0.367732 -14.553656 -0.045585 0.257873 -1.742273
    1 0.000000 0.000000 0.000000 -1.570795 -1.570796 0.000000
    2 -0.000005 0.000007 3.713255 2.914525 6.061903 1.331528
    3 18.045721 0.000000 0.000000 0.000000 0.000000 -1.349242
    4 17.597597 0.000000 0.000000 -0.205057 0.225938 -0.216505
    5 0.000005 -0.000003 -3.713255 -0.067002 -3.740518 -0.837425
    6 18.045725 0.000000 0.000000 0.000000 0.000000 -2.074647
    7 17.597597 0.000000 0.000000 -0.092081 0.087821 0.559948
    8 1.293670 0.684478 -0.000001 -0.000004 -0.000001 0.218799
    9 5.309685 -0.003834 0.000000 0.000000 0.000000 0.349065
    10 4.826790 -0.004591 0.000000 -0.173330 0.019775 0.111669
    11 5.792767 -0.005304 0.000000 -0.139462 0.004686 0.032559
    12 6.662317 -0.001453 0.000000 0.000000 -0.000001 -0.139840
    13 2.046985 -0.000002 0.000000 0.211796 0.232872 -0.778211
    14 -3.416721 -0.541403 4.341911 0.863227 -1.152310 2.462238
    15 4.827230 0.000000 0.000001 -0.138678 -0.770460 -1.938022
    16 11.139763 0.000000 0.000000 0.000000 0.000000 -0.657551
    17 10.314597 0.000001 0.000000 -3.444010 0.558712 -0.152971
    18 2.975834 -0.386307 -0.044143 -0.000797 -0.043611 0.000035
    19 1.438886 0.000000 0.000000 0.000000 0.000000 0.872212
    20 1.485303 0.000000 0.000000 0.000000 0.000000 0.907076
    21 -3.151157 -0.498832 -4.140396 -1.166214 1.095191 2.158684
    22 4.972048 0.000000 0.000001 0.914939 -0.205848 -1.248448
    23 11.585355 0.000000 0.000000 0.000000 0.000000 -1.922688
    24 10.127057 0.000000 0.000001 1.676071 0.462381 -0.006037
    25 2.683750 -0.427338 0.044205 -0.005786 0.043239 -0.157091
    26 1.438885 -0.000001 0.000000 0.000000 0.000000 0.732658
    27 1.485305 0.000001 0.000000 0.000000 0.000000 1.168770
    28 1.646738 0.449549 -1.702246 -0.161934 0.581206 -0.284024
    29 0.928312 0.000000 -0.000002 0.000000 0.000000 0.000000
    30 0.928314 0.000000 0.000001 0.000000 0.000000 0.000000
    31 1.533672 0.109715 1.664491 -0.264755 -0.055959 0.783109
    32 0.928313 0.000000 0.000000 0.000000 0.000000 -0.453556
    33 0.928314 0.000000 0.000001 0.000000 0.000000 0.000000
  time 11
    0 0.235347 0.367732 -14.553656 -0.045585 0.257873 -1.742273
    1 0.000000 0.000000 0.000000 -1.570795 -1.570796 0.000000
    2 -0.000005 0.000007 3.713255 2.914525 6.061903 1.331528
    3 18.045721 0.000000 0.000000 0.000000 0.000000 -1.349242
    4 17.597597 0.000000 0.000000 -0.205057 0.225938 -0.216505
    5 0.000005 -0.000003 -3.713255 -0.067002 -3.740518 -0.837425
    6 18.045725 0.000000 0.000000 0.000000 0.000000 -2.074647
    7 17.597597 0.000000 0.000000 -0.092081 0.087821 0.559948
    8 1.293670 0.684478 -0.000001 -0.000004 -0.000001 0.218799
    9 5.309685 -0.003834 0.000000 0.000000 0.000000 0.349065
    10 4.826790 -0.004591 0.000000 -0.173330 0.019775 0.111669
    11 5.792767 -0.005304 0.000000 -0.139430 0.005561 0.038850
    12 6.662317 -0.001453 0.000000 0.000000 -0.000001 -0.139840
    13 2.046985 -0.000002 0.000000 0.211796 0.232872 -0.784549
    14 -3.416721 -0.541403 4.341911 0.850380 -1.147310 2.476332
    15 4.827230 0.000000 0.000001 -0.123289 -0.772417 -1.950449
    16 11.139763 0.000000 0.000000 0.000000 0.000000 -0.657551
    17 10.314597 0.000001 0.000000 -3.444010 0.558712 -0.152971
    18 2.975834 -0.386307 -0.044143 -0.000797 -0.043611 0.000035
    19 1.438886 0.000000 0.000000 0.000000 0.000000 0.872212
    20 1.485303 0.000000 0.000000 0.000000 0.000000 0.907076
    21 -3.151157 -0.498832 -4.140396 -1.172158 1.089454 2.153411
    22 4.972048 0.000000 0.000001 0.914552 -0.198447 -1.243310
    23 11.585355 0.000000 0.000000 0.000000 0.000000 -1.922688
    24 10.127057 0.000000 0.000001 1.674223 0.462787 -0.010273
    25 2.683750 -0.427338 0.044205 -0.005786 0.043239 -0.157091
    26 1.438885 -0.000001 0.000000 0.000000 0.000000 0.732658
    27 1.485305 0.000001 0.000000 0.000000 0.000000 1.168770
    28 1.646738 0.449549 -1.702246 -0.161934 0.581206 -0.284024
    29 0.928312 0.000000 -0.000002 0.000000 0.000000 0.000000
    30 0.928314 0.000000 0.000001 0.000000 0.000000 0.000000
    31 1.533672 0.109715 1.664491 -0.264755 -0.055959 0.783109
    32 0.928313 0.000000 0.000000 0.000000 0.000000 -0.453556
    33 0.928314 0.000000 0.000001 0.000000 0.000000 0.000000
  time 12
    0 0.235347 0.367732 -14.553656 -0.045585 0.257873 -1.742273
    1 0.000000 0.000000 0.000000 -1.570795 -1.570796 0.000000
    2 -0.000005 0.000007 3.713255 2.914525 6.061903 1.331528
    3 18.045721 0.000000 0.000000 0.000000 0.000000 -1.349242
    4 17.597597 0.000000 0.000000 -0.205057 0.225938 -0.216505
    5 0.000005 -0.000003 -3.713255 -0.067002 -3.740518 -0.837425
    6 18.045725 0.000000 0.000000 0.000000 0.000000 -2.074647
    7 17.597597 0.000000 0.000000 -0.092081 0.087821 0.559948
    8 1.293670 0.684478 -0.000001 -0.000004 -0.000001 0.218799
    9 5.309685 -0.003834 0.000000 0.000000 0.000000 0.349065
    10 4.826790 -0.004591 0.000000 -0.173330 0.019775 0.111669
    11 5.792767 -0.005304 0.000000 -0.139397 0.006304 0.044166
    12 6.662317 -0.001453 0.000000 0.000000 -0.000001 -0.139840
    13 2.046985 -0.000002 0.000000 0.211796 0.232872 -0.789897
    14 -3.416721 -0.541403 4.341911 0.839834 -1.143040 2.487933
    15 4.827230 0.000000 0.000001 -0.110250 -0.773864 -1.961038
    16 11.139763 0.000000 0.000000 0.000000 0.000000 -0.657551
    17 10.314597 0.000001 0.000000 -3.444010 0.558712 -0.152971
    18 2.975834 -0.386307 -0.044143 -0.000797 -0.043611 0.000035
    19 1.438886 0.000000 0.000000 0.000000 0.000000 0.872212
    20 1.485303 0.000000 0.000000 0.000000 0.000000 0.907076
    21 -3.151157 -0.498832 -4.140396 -1.177144 1.084621 2.149096
    22 4.972048 0.000000 0.000001 0.914243 -0.192173 -1.238962
    23 11.585355 0.000000 0.000000 0.000000 0.000000 -1.922688
    24 10.127057 0.000000 0.000001 1.672631 0.463112 -0.013843
    25 2.683750 -0.427338 0.044205 -0.005786 0.043239 -0.157091
    26 1.438885 -0.000001 0.000000 0.000000 0.000000 0.732658
    27 1.485305 0.000001 0.000000 0.000000 0.000000 1.168770
    28 1.646738 0.449549 -1.702246 -0.161934 0.581206 -0.284024
    29 0.928312 0.000000 -0.000002 0.000000 0.000000 0.000000
    30 0.928314 0.000000 0.000001 0.000000 0.000000 0.000000
    31 1.533672 0.109715 1.664491 -0.264755 -0.055959 0.783109
    32 0.928313 0.000000 0.000000 0.000000 0.000000 -0.453556
    33 0.928314 0.000000 0.000001 0.000000 0.000000 0.000000
  time 13
    0 0.235347 0.367732 -14.553656 -0.045585 0.257873 -1.742273
    1 0.000000 0.000000 0.000000 -1.570795 -1.570796 0.000000
    2 -0.000005 0.000007 3.713255 2.914525 6.061903 1.331528
    3 18.045721 0.000000 0.000000 0.000000 0.000000 -1.349242
    4 17.597597 0.000000 0.000000 -0.205057 0.225938 -0.216505
    5 0.000005 -0.000003 -3.713255 -0.067002 -3.740518 -0.837425
    6 18.045725 0.000000 0.000000 0.000000 0.000000 -2.074647
    7 17.597597 0.000000 0.000000 -0.092081 0.087821 0.559948
    8 1.293670 0.684478 -0.000001 -0.000004 -0.000001 0.218799
    9 5.309685 -0.003834 0.000000 0.000000 0.000000 0.349065
    10 4.826790 -0.004591 0.000000 -0.173330 0.019775 0.111669
    11 5.792767 -0.005304 0.000000 -0.139381 0.006879 0.048235
    12 6.662317 -0.001453 0.000000 0.000000 -0.000001 -0.139840
    13 2.046985 -0.000002 0.000000 0.211796 0.232872 -0.794033
    14 -3.416721 -0.541403 4.341911 0.831781 -1.139732 2.496754
    15 4.827230 0.000000 0.000001 -0.100265 -0.774970 -1.969176
    16 11.139763 0.000000 0.000000 0.000000 0.000000 -0.657551
    17 10.314597 0.000001 0.000000 -3.444010 0.558712 -0.152971
    18 2.975834 -0.386307 -0.044143 -0.000797 -0.043611 0.000035
    19 1.438886 0.000000 0.000000 0.000000 0.000000 0.872212
    20 1.485303 0.000000 0.000000 0.000000 0.000000 0.907076
    21 -3.151157 -0.498832 -4.140396 -1.180787 1.080890 2.145741
    22 4.972048 0.000000 0.000001 0.914010 -0.187427 -1.235669
    23 11.585355 0.000000 0.000000 0.000000 0.000000 -1.922688
    24 10.127057 0.000000 0.000001 1.671357 0.463382 -0.016588
    25 2.683750 -0.427338 0.044205 -0.005786 0.043239 -0.157091
    26 1.438885 -0.000001 0.000000 0.000000 0.000000 0.732658
    27 1.485305 0.000001 0.000000 0.000000 0.000000 1.168770
    28 1.646738 0.449549 -1.702246 -0.161934 0.581206 -0.284024
    29 0.928312 0.000000 -0.000002 0.000000 0.000000 0.000000
    30 0.928314 0.000000 0.000001 0.000000 0.000000 0.000000
    31 1.533672 0.109715 1.664491 -0.264755 -0.055959 0.783109
    32 0.928313 0.000000 0.000000 0.000000 0.000000 -0.453556
    33 0.928314 0.000000 0.000001 0.000000 0.000000 0.000000
  time 14
    0 0.235347 0.367732 -14.553656 -0.045585 0.257873 -1.742273
    1 0.000000 0.000000 0.000000 -1.570795 -1.570796 0.000000
    2 -0.000005 0.000007 3.713255 2.914525 6.061903 1.331528
    3 18.045721 0.000000 0.000000 0.000000 0.000000 -1.349242
    4 17.597597 0.000000 0.000000 -0.205057 0.225938 -0.216505
    5 0.000005 -0.000003 -3.713255 -0.067002 -3.740518 -0.837425
    6 18.045725 0.000000 0.000000 0.000000 0.000000 -2.074647
    7 17.597597 0.000000 0.000000 -0.092081 0.087821 0.559948
    8 1.293670 0.684478 -0.000001 -0.000004 -0.000001 0.218799
    9 5.309685 -0.003834 0.000000 0.000000 0.000000 0.349065
    10 4.826790 -0.004591 0.000000 -0.173330 0.019775 0.111669
    11 5.792767 -0.005304 0.000000 -0.139364 0.007251 0.050851
    12 6.662317 -0.001453 0.000000 0.000000 -0.000001 -0.139840
    13 2.046985 -0.000002 0.000000 0.211796 0.232872 -0.796640
    14 -3.416721 -0.541403 4.341911 0.826700 -1.137616 2.502315
    15 4.827230 0.000000 0.000001 -0.093804 -0.775651 -1.974427
    16 11.139763 0.000000 0.000000 0.000000 0.000000 -0.657551
    17 10.314597 0.000001 0.000000 -3.444010 0.558712 -0.152971
    18 2.975834 -0.386307 -0.044143 -0.000797 -0.043611 0.000035
    19 1.438886 0.000000 0.000000 0.000000 0.000000 0.872212
    20 1.485303 0.000000 0.000000 0.000000 0.000000 0.907076
    21 -3.151157 -0.498832 -4.140396 -1.183184 1.078487 2.143727
    22 4.972048 0.000000 0.000001 0.913856 -0.184290 -1.233495
    23 11.585355 0.000000 0.000000 0.000000 0.000000 -1.922688
    24 10.127057 0.000000 0.000001 1.670592 0.463545 -0.018314
    25 2.683750 -0.427338 0.044205 -0.005786 0.043239 -0.157091
    26 1.438885 -0.000001 0.000000 0.000000 0.000000 0.732658
    27 1.485305 0.000001 0.000000 0.000000 0.000000 1.168770
    28 1.646738 0.449549 -1.702246 -0.161934 0.581206 -0.284024
    29 0.928312 0.000000 -0.000002 0.000000 0.000000 0.000000
    30 0.928314 0.000000 0.000001 0.000000 0.000000 0.000000
    31 1.533672 0.109715 1.664491 -0.264755 -0.055959 0.783109
    32 0.928313 0.000000 0.000000 0.000000 0.000000 -0.453556
    33 0.928314 0.000000 0.000001 0.000000 0.000000 0.000000
  time 15
    0 0.235347 0.367732 -14.553656 -0.045585 0.257873 -1.742273
    1 0.000000 0.000000 0.000000 -1.570795 -1.570796 0.000000
    2 -0.000005 0.000007 3.713255 2.914525 6.061903 1.331528
    3 18.045721 0.000000 0.000000 0.000000 0.000000 -1.349242
    4 17.597597 0.000000 0.000000 -0.205057 0.225938 -0.216505
    5 0.000005 -0.000003 -3.713255 -0.067002 -3.740518 -0.837425
    6 18.045725 0.000000 0.000000 0.000000 0.000000 -2.074647
    7 17.597597 0.000000 0.000000 -0.092081 0.087821 0.559948
    8 1.293670 0.684478 -0.000001 -0.000004 -0.000001 0.218799
    9 5.309685 -0.003834 0.000000 0.000000 0.000000 0.349065
    10 4.826790 -0.004591 0.000000 -0.173330 0.019775 0.111669
    11 5.792767 -0.005304 0.000000 -0.139348 0.007371 0.051765
    12 6.662317 -0.001453 0.000000 0.000000 -0.000001 -0.139840
    13 2.046985 -0.000002 0.000000 0.211796 0.232872 -0.797583
    14 -3.416721 -0.541403 4.341911 0.824974 -1.136847 2.504328
    15 4.827230 0.000000 0.000001 -0.091572 -0.775821 -1.976265
    16 11.139763 0.000000 0.000000 0.000000 0.000000 -0.657551
    17 10.314597 0.000001 0.000000 -3.444010 0.558712 -0.152971
    18 2.975834 -0.386307 -0.044143 -0.000797 -0.043611 0.000035
    19 1.438886 0.000000 0.000000 0.000000 0.000000 0.872212
    20 1.485303 0.000000 0.000000 0.000000 0.000000 0.907076
    21 -3.151157 -0.498832 -4.140396 -1.184047 1.077639 2.142960
    22 4.972048 0.000000 0.000001 0.913856 -0.183244 -1.232770
    23 11.585355 0.000000 0.000000 0.000000 0.000000 -1.922688
    24 10.127057 0.000000 0.000001 1.670338 0.463599 -0.018942
    25 2.683750 -0.427338 0.044205 -0.005786 0.043239 -0.157091
    26 1.438885 -0.000001 0.000000 0.000000 0.000000 0.732658
    27 1.485305 0.000001 0.000000 0.000000 0.000000 1.168770
    28 1.646738 0.449549 -1.702246 -0.161934 0.581206 -0.284024
    29 0.928312 0.000000 -0.000002 0.000000 0.000000 0.000000
    30 0.928314 0.000000 0.000001 0.000000 0.000000 0.000000
    31 1.533672 0.109715 1.664491 -0.264755 -0.055959 0.783109
    32 0.928313 0.000000 0.000000 0.000000 0.000000 -0.453556
    33 0.928314 0.000000 0.000001 0.000000 0.000000 0.000000
  time 16
    0 0.235347 0.367732 -14.553656 -0.045585 0.257873 -1.742273
    1 0.000000 0.000000 0.000000 -1.570795 -1.570796 0.000000
    2 -0.000005 0.000007 3.713255 2.914525 6.061903 1.331528
    3 18.045721 0.000000 0.000000 0.000000 0.000000 -1.349242
    4 17.597597 0.000000 0.000000 -0.205057 0.225938 -0.216505
    5 0.000005 -0.000003 -3.713255 -0.067002 -3.740518 -0.837425
    6 18.045725 0.000000 0.000000 0.000000 0.000000 -2.074647
    7 17.597597 0.000000 0.000000 -0.092081 0.087821 0.559948
    8 1.293670 0.684478 -0.000001 -0.000004 -0.000001 0.218799
    9 5.309685 -0.003834 0.000000 0.000000 0.000000 0.349065
    10 4.826790 -0.004591 0.000000 -0.173330 0.019775 0.111669
    11 5.792767 -0.005304 0.000000 -0.139364 0.007251 0.050851
    12 6.662317 -0.001453 0.000000 0.000000 -0.000001 -0.139840
    13 2.046985 -0.000002 0.000000 0.211796 0.232872 -0.796640
    14 -3.416721 -0.541403 4.341911 0.826700 -1.137616 2.502315
    15 4.827230 0.000000 0.000001 -0.093804 -0.775651 -1.974427
    16 11.139763 0.000000 0.000000 0.000000 0.000000 -0.657551
    17 10.314597 0.000001 0.000000 -3.444010 0.558712 -0.152971
    18 2.975834 -0.386307 -0.044143 -0.000797 -0.043611 0.000035
    19 1.438886 0.000000 0.000000 0.000000 0.000000 0.872212
    20 1.485303 0.000000 0.000000 0.000000 0.000000 0.907076
    21 -3.151157 -0.498832 -4.140396 -1.183184 1.078487 2.143727
    22 4.972048 0.000000 0.000001 0.913856 -0.184290 -1.233495
    23 11.585355 0.000000 0.000000 0.000000 0.000000 -1.922688
    24 10.127057 0.000000 0.000001 1.670592 0.463545 -0.018314
    25 2.683750 -0.427338 0.044205 -0.005786 0.043239 -0.157091
    26 1.438885 -0.000001 0.000000 0.000000 0.000000 0.732658
    27 1.485305 0.000001 0.000000 0.000000 0.000000 1.168770
    28 1.646738 0.449549 -1.702246 -0.161934 0.581206 -0.284024
    29 0.928312 0.000000 -0.000002 0.000000 0.000000 0.000000
    30 0.928314 0.000000 0.000001 0.000000 0.000000 0.000000
    31 1.533672 0.109715 1.664491 -0.264755 -0.055959 0.783109
    32 0.928313 0.000000 0.000000 0.000000 0.000000 -0.453556
    33 0.928314 0.000000 0.000001 0.000000 0.000000 0.000000
  time 17
    0 0.235347 0.367732 -14.553656 -0.045585 0.257873 -1.742273
    1 0.000000 0.000000 0.000000 -1.570795 -1.570796 0.000000
    2 -0.000005 0.000007 3.713255 2.914525 6.061903 1.331528
    3 18.045721 0.000000 0.000000 0.000000 0.000000 -1.349242
    4 17.597597 0.000000 0.000000 -0.205057 0.225938 -0.216505
    5 0.000005 -0.000003 -3.713255 -0.067002 -3.740518 -0.837425
    6 18.045725 0.000000 0.000000 0.000000 0.000000 -2.074647
    7 17.597597 0.000000 0.000000 -0.092081 0.087821 0.559948
    8 1.293670 0.684478 -0.000001 -0.000004 -0.000001 0.218799
    9 5.309685 -0.003834 0.000000 0.000000 0.000000 0.349065
    10 4.826790 -0.004591 0.000000 -0.173330 0.019775 0.111669
    11 5.792767 -0.005304 0.000000 -0.139381 0.006879 0.048235
    12 6.662317 -0.001453 0.000000 0.000000 -0.000001 -0.139840
    13 2.046985 -0.000002 0.000000 0.211796 0.232872 -0.794033
    14 -3.416721 -0.541403 4.341911 0.831781 -1.139732 2.496754
    15 4.827230 0.000000 0.000001 -0.100265 -0.774970 -1.969176
    16 11.139763 0.000000 0.000000 0.000000 0.000000 -0.657551
    17 10.314597 0.000001 0.000000 -3.444010 0.558712 -0.152971
    18 2.975834 -0.386307 -0.044143 -0.000797 -0.043611 0.000035
    19 1.438886 0.000000 0.000000 0.000000 0.000000 0.872212
    20 1.485303 0.000000 0.000000 0.000000 0.000000 0.907076
    21 -3.151157 -0.498832 -4.140396 -1.180787 1.080890 2.145741
    22 4.972048 0.000000 0.000001 0.914010 -0.187427 -1.235669
    23 11.585355 0.000000 0.000000 0.000000 0.000000 -1.922688
    24 10.127057 0.000000 0.000001 1.671357 0.463382 -0.016588
    25 2.683750 -0.427338 0.044205 -0.005786 0.043239 -0.157091
    26 1.438885 -0.000001 0.000000 0.000000 0.000000 0.732658
    27 1.485305 0.000001 0.000000 0.000000 0.000000 1.168770
    28 1.646738 0.449549 -1.702246 -0.161934 0.581206 -0.284024
    29 0.928312 0.000000 -0.000002 0.000000 0.000000 0.000000
    30 0.928314 0.000000 0.000001 0.000000 0.000000 0.000000
    31 1.533672 0.109715 1.664491 -0.264755 -0.055959 0.783109
    32 0.928313 0.000000 0.000000 0.000000 0.000000 -0.453556
    33 0.928314 0.000000 0.000001 0.000000 0.000000 0.000000
  time 18
    0 0.235347 0.367732 -14.553656 -0.045585 0.257873 -1.742273
    1 0.000000 0.000000 0.000000 -1.570795 -1.570796 0.000000
    2 -0.000005 0.000007 3.713255 2.914525 6.061903 1.331528
    3 18.045721 0.000000 0.000000 0.000000 0.000000 -1.349242
    4 17.597597 0.000000 0.000000 -0.205057 0.225938 -0.216505
    5 0.000005 -0.000003 -3.713255 -0.067002 -3.740518 -0.837425
    6 18.045725 0.000000 0.000000 0.000000 0.000000 -2.074647
    7 17.597597 0.000000 0.000000 -0.092081 0.087821 0.559948
    8 1.293670 0.684478 -0.000001 -0.000004 -0.000001 0.218799
    9 5.309685 -0.003834 0.000000 0.000000 0.000000 0.349065
    10 4.826790 -0.004591 0.000000 -0.173330 0.019775 0.111669
    11 5.792767 -0.005304 0.000000 -0.139397 0.006304 0.044166
    12 6.662317 -0.001453 0.000000 0.000000 -0.000001 -0.139840
    13 2.046985 -0.000002 0.000000 0.211796 0.232872 -0.789897
    14 -3.416721 -0.541403 4.341911 0.839834 -1.143040 2.487933
    15 4.827230 0.000000 0.000001 -0.110250 -0.773864 -1.961038
    16 11.139763 0.000000 0.000000 0.000000 0.000000 -0.657551
    17 10.314597 0.000001 0.000000 -3.444010 0.558712 -0.152971
    18 2.975834 -0.386307 -0.044143 -0.000797 -0.043611 0.000035
    19 1.438886 0.000000 0.000000 0.000000 0.000000 0.872212
    20 1.485303 0.000000 0.000000 0.000000 0.000000 0.907076
    21 -3.151157 -0.498832 -4.140396 -1.177144 1.084621 2.149096
    22 4.972048 0.000000 0.000001 0.914243 -0.192173 -1.238962
    23 11.585355 0.000000 0.000000 0.000000 0.000000 -1.922688
    24 10.127057 0.000000 0.000001 1.672631 0.463112 -0.013843
    25 2.683750 -0.427338 0.044205 -0.005786 0.043239 -0.157091
    26 1.438885 -0.000001 0.000000 0.000000 0.000000 0.732658
    27 1.485305 0.000001 0.000000 0.000000 0.000000 1.168770
    28 1.646738 0.449549 -1.702246 -0.161934 0.581206 -0.284024
    29 0.928312 0.000000 -0.000002 0.000000 0.000000 0.000000
    30 0.928314 0.000000 0.000001 0.000000 0.000000 0.000000
    31 1.533672 0.109715 1.664491 -0.264755 -0.055959 0.783109
    32 0.928313 0.000000 0.000000 0.000000 0.000000 -0.453556
    33 0.928314 0.000000 0.000001 0.000000 0.000000 0.000000
  time 19
    0 0.235347 0.367732 -14.553656 -0.045585 0.257873 -1.742273
    1 0.000000 0.000000 0.000000 -1.570795 -1.570796 0.000000
    2 -0.000005 0.000007 3.713255 2.914525 6.061903 1.331528
    3 18.045721 0.000000 0.000000 0.000000 0.000000 -1.349242
    4 17.597597 0.000000 0.000000 -0.205057 0.225938 -0.216505
    5 0.000005 -0.000003 -3.713255 -0.067002 -3.740518 -0.837425
    6 18.045725 0.000000 0.000000 0.000000 0.000000 -2.074647
    7 17.597597 0.000000 0.000000 -0.092081 0.087821 0.559948
    8 1.293670 0.684478 -0.000001 -0.000004 -0.000001 0.218799
    9 5.309685 -0.003834 0.000000 0.000000 0.000000 0.349065
    10 4.826790 -0.004591 0.000000 -0.173330 0.019775 0.111669
    11 5.792767 -0.005304 0.000000 -0.139430 0.005561 0.038850
    12 6.662317 -0.001453 0.000000 0.000000 -0.000001 -0.139840
    13 2.046985 -0.000002 0.000000 0.211796 0.232872 -0.784549
    14 -3.416721 -0.541403 4.341911 0.850380 -1.147310 2.476332
    15 4.827230 0.000000 0.000001 -0.123289 -0.772417 -1.950449
    16 11.139763 0.000000 0.000000 0.000000 0.000000 -0.657551
    17 10.314597 0.000001 0.000000 -3.444010 0.558712 -0.152971
    18 2.975834 -0.386307 -0.044143 -0.000797 -0.043611 0.000035
    19 1.438886 0.000000 0.000000 0.000000 0.000000 0.872212
    20 1.485303 0.000000 0.000000 0.000000 0.000000 0.907076
    21 -3.151157 -0.498832 -4.140396 -1.172158 1.089454 2.153411
    22 4.972048 0.000000 0.000001 0.914552 -0.198447 -1.243310
    23 11.585355 0.000000 0.000000 0.000000 0.000000 -1.922688
    24 10.127057 0.000000 0.000001 1.674223 0.462787 -0.010273
    25 2.683750 -0.427338 0.044205 -0.005786 0.043239 -0.157091
    26 1.438885 -0.000001 0.000000 0.000000 0.000000 0.732658
    27 1.485305 0.000001 0.000000 0.000000 0.000000 1.168770
    28 1.646738 0.449549 -1.702246 -0.161934 0.581206 -0.284024
    29 0.928312 0.000000 -0.000002 0.000000 0.000000 0.000000
    30 0.928314 0.000000 0.000001 0.000000 0.000000 0.000000
    31 1.533672 0.109715 1.664491 -0.264755 -0.055959 0.783109
    32 0.928313 0.000000 0.000000 0.000000 0.000000 -0.453556
    33 0.928314 0.000000 0.000001 0.000000 0.000000 0.000000
  time 20
    0 0.235347 0.367732 -14.553656 -0.045585 0.257873 -1.742273
    1 0.000000 0.000000 0.000000 -1.570795 -1.570796 0.000000
    2 -0.000005 0.000007 3.713255 2.914525 6.061903 1.331528
    3 18.045721 0.000000 0.000000 0.000000 0.000000 -1.349242
    4 17.597597 0.000000 0.000000 -0.205057 0.225938 -0.216505
    5 0.000005 -0.000003 -3.713255 -0.067002 -3.740518 -0.837425
    6 18.045725 0.000000 0.000000 0.000000 0.000000 -2.074647
    7 17.597597 0.000000 0.000000 -0.092081 0.087821 0.559948
    8 1.293670 0.684478 -0.000001 -0.000004 -0.000001 0.218799
    9 5.309685 -0.003834 0.000000 0.000000 0.000000 0.349065
    10 4.826790 -0.004591 0.000000 -0.173330 0.019775 0.111669
    11 5.792767 -0.005304 0.000000 -0.139462 0.004686 0.032559
    12 6.662317 -0.001453 0.000000 0.000000 -0.000001 -0.139840
    13 2.046985 -0.000002 0.000000 0.211796 0.232872 -0.778211
    14 -3.416721 -0.541403 4.341911 0.863227 -1.152310 2.462238
    15 4.827230 0.000000 0.000001 -0.138678 -0.770460 -1.938022
    16 11.139763 0.000000 0.000000 0.000000 0.000000 -0.657551
    17 10.314597 0.000001 0.000000 -3.444010 0.558712 -0.152971
    18 2.975834 -0.386307 -0.044143 -0.000797 -0.043611 0.000035
    19 1.438886 0.000000 0.000000 0.000000 0.000000 0.872212
    20 1.485303 0.000000 0.000000 0.000000 0.000000 0.907076
    21 -3.151157 -0.498832 -4.140396 -1.166214 1.095191 2.158684
    22 4.972048 0.000000 0.000001 0.914939 -0.205848 -1.248448
    23 11.585355 0.000000 0.000000 0.000000 0.000000 -1.922688
    24 10.127057 0.000000 0.000001 1.676071 0.462381 -0.006037
    25 2.683750 -0.427338 0.044205 -0.005786 0.043239 -0.157091
    26 1.438885 -0.000001 0.000000 0.000000 0.000000 0.732658
    27 1.485305 0.000001 0.000000 0.000000 0.000000 1.168770
    28 1.646738 0.449549 -1.702246 -0.161934 0.581206 -0.284024
    29 0.928312 0.000000 -0.000002 0.000000 0.000000 0.000000
    30 0.928314 0.000000 0.000001 0.000000 0.000000 0.000000
    31 1.533672 0.109715 1.664491 -0.264755 -0.055959 0.783109
    32 0.928313 0.000000 0.000000 0.000000 0.000000 -0.453556
    33 0.928314 0.000000 0.000001 0.000000 0.000000 0.000000
  time 21
    0 0.235347 0.367732 -14.553656 -0.045585 0.257873 -1.742273
    1 0.000000 0.000000 0.000000 -1.570795 -1.570796 0.000000
    2 -0.000005 0.000007 3.713255 2.914525 6.061903 1.331528
    3 18.045721 0.000000 0.000000 0.000000 0.000000 -1.349242
    4 17.597597 0.000000 0.000000 -0.205057 0.225938 -0.216505
    5 0.000005 -0.000003 -3.713255 -0.067002 -3.740518 -0.837425
    6 18.045725 0.000000 0.000000 0.000000 0.000000 -2.074647
    7 17.597597 0.000000 0.000000 -0.092081 0.087821 0.559948
    8 1.293670 0.684478 -0.000001 -0.000004 -0.000001 0.218799
    9 5.309685 -0.003834 0.000000 0.000000 0.000000 0.349065
    10 4.826790 -0.004591 0.000000 -0.173330 0.019775 0.111669
    11 5.792767 -0.005304 0.000000 -0.139495 0.003691 0.025500
    12 6.662317 -0.001453 0.000000 0.000000 -0.000001 -0.139840
    13 2.046985 -0.000002 0.000000 0.211796 0.232872 -0.771064
    14 -3.416721 -0.541403 4.341911 0.878088 -1.157811 2.446035
    15 4.827230 0.000000 0.000001 -0.155947 -0.768162 -1.924195
    16 11.139763 0.000000 0.000000 0.000000 0.000000 -0.657551
    17 10.314597 0.000001 0.000000 -3.444010 0.558712 -0.152971
    18 2.975834 -0.386307 -0.044143 -0.000797 -0.043611 0.000035
    19 1.438886 0.000000 0.000000 0.000000 0.000000 0.872212
    20 1.485303 0.000000 0.000000 0.000000 0.000000 0.907076
    21 -3.151157 -0.498832 -4.140396 -1.159407 1.101607 2.164819
    22 4.972048 0.000000 0.000001 0.915326 -0.214133 -1.254245
    23 11.585355 0.000000 0.000000 0.000000 0.000000 -1.922688
    24 10.127057 0.000000 0.000001 1.678173 0.461948 -0.001290
    25 2.683750 -0.427338 0.044205 -0.005786 0.043239 -0.157091
    26 1.438885 -0.000001 0.000000 0.000000 0.000000 0.732658
    27 1.485305 0.000001 0.000000 0.000000 0.000000 1.168770
    28 1.646738 0.449549 -1.702246 -0.161934 0.581206 -0.284024
    29 0.928312 0.000000 -0.000002 0.000000 0.000000 0.000000
    30 0.928314 0.000000 0.000001 0.000000 0.000000 0.000000
    31 1.533672 0.109715 1.664491 -0.264755 -0.055959 0.783109
    32 0.928313 0.000000 0.000000 0.000000 0.000000 -0.453556
    33 0.928314 0.000000 0.000001 0.000000 0.000000 0.000000
  time 22
    0 0.235347 0.367732 -14.553656 -0.045585 0.257873 -1.742273
    1 0.000000 0.000000 0.000000 -1.570795 -1.570796 0.000000
    2 -0.000005 0.000007 3.713255 2.914525 6.061903 1.331528
    3 18.045721 0.000000 0.000000 0.000000 0.000000 -1.349242
    4 17.597597 0.000000 0.000000 -0.205057 0.225938 -0.216505
    5 0.000005 -0.000003 -3.713255 -0.067002 -3.740518 -0.837425
    6 18.045725 0.000000 0.000000 0.000000 0.000000 -2.074647
    7 17.597597 0.000000 0.000000 -0.092081 0.087821 0.559948
    8 1.293670 0.684478 -0.000001 -0.000004 -0.000001 0.218799
    9 5.309685 -0.003834 0.000000 0.000000 0.000000 0.349065
    10 4.826790 -0.004591 0.000000 -0.173330 0.019775 0.111669
    11 5.792767 -0.005304 0.000000 -0.139528 0.002625 0.017880
    12 6.662317 -0.001453 0.000000 0.000000 -0.000001 -0.139840
    13 2.046985 -0.000002 0.000000 0.211796 0.232872 -0.763378
    14 -3.416721 -0.541403 4.341911 0.894482 -1.163658 2.428107
    15 4.827230 0.000000 0.000001 -0.174390 -0.765524 -1.909406
    16 11.139763 0.000000 0.000000 0.000000 0.000000 -0.657551
    17 10.314597 0.000001 0.000000 -3.444010 0.558712 -0.152971
    18 2.975834 -0.386307 -0.044143 -0.000797 -0.043611 0.000035
    19 1.438886 0.000000 0.000000 0.000000 0.000000 0.872212
    20 1.485303 0.000000 0.000000 0.000000 0.000000 0.907076
    21 -3.151157 -0.498832 -4.140396 -1.151833 1.108504 2.171531
    22 4.972048 0.000000 0.000001 0.915712 -0.223062 -1.260503
    23 11.585355 0.000000 0.000000 0.000000 0.000000 -1.922688
    24 10.127057 0.000000 0.000001 1.680466 0.461433 0.003809
    25 2.683750 -0.427338 0.044205 -0.005786 0.043239 -0.157091
    26 1.438885 -0.000001 0.000000 0.000000 0.000000 0.732658
    27 1.485305 0.000001 0.000000 0.000000 0.000000 1.168770
    28 1.646738 0.449549 -1.702246 -0.161934 0.581206 -0.284024
    29 0.928312 0.000000 -0.000002 0.000000 0.000000 0.000000
    30 0.928314 0.000000 0.000001 0.000000 0.000000 0.000000
    31 1.533672 0.109715 1.664491 -0.264755 -0.055959 0.783109
    32 0.928313 0.000000 0.000000 0.000000 0.000000 -0.453556
    33 0.928314 0.000000 0.000001 0.000000 0.000000 0.000000
  time 23
    0 0.235347 0.367732 -14.553656 -0.045585 0.257873 -1.742273
    1 0.000000 0.000000 0.000000 -1.570795 -1.570796 0.000000
    2 -0.000005 0.000007 3.713255 2.914525 6.061903 1.331528
    3 18.045721 0.000000 0.000000 0.000000 0.000000 -1.349242
    4 17.597597 0.000000 0.000000 -0.205057 0.225938 -0.216505
    5 0.000005 -0.000003 -3.713255 -0.067002 -3.740518 -0.837425
    6 18.045725 0.000000 0.000000 0.000000 0.000000 -2.074647
    7 17.597597 0.000000 0.000000 -0.092081 0.087821 0.559948
    8 1.293670 0.684478 -0.000001 -0.000004 -0.000001 0.218799
    9 5.309685 -0.003834 0.000000 0.000000 0.000000 0.349065
    10 4.826790 -0.004591 0.000000 -0.173330 0.019775 0.111669
    11 5.792767 -0.005304 0.000000 -0.139544 0.001510 0.009990
    12 6.662317 -0.001453 0.000000 0.000000 -0.000001 -0.139840
    13 2.046985 -0.000002 0.000000 0.211796 0.232872 -0.755378
    14 -3.416721 -0.541403 4.341911 0.912123 -1.169581 2.409027
    15 4.827230 0.000000 0.000001 -0.193479 -0.762460 -1.894267
    16 11.139763 0.000000 0.000000 0.000000 0.000000 -0.657551
    17 10.314597 0.000001 0.000000 -3.444010 0.558712 -0.152971
    18 2.975834 -0.386307 -0.044143 -0.000797 -0.043611 0.000035
    19 1.438886 0.000000 0.000000 0.000000 0.000000 0.872212
    20 1.485303 0.000000 0.000000 0.000000 0.000000 0.907076
    21 -3.151157 -0.498832 -4.140396 -1.143684 1.115626 2.178817
    22 4.972048 0.000000 0.000001 0.916176 -0.232393 -1.266958
    23 11.585355 0.000000 0.000000 0.000000 0.000000 -1.922688
    24 10.127057 0.000000 0.000001 1.682823 0.460892 0.009104
    25 2.683750 -0.427338 0.044205 -0.005786 0.043239 -0.157091
    26 1.438885 -0.000001 0.000000 0.000000 0.000000 0.732658
    27 1.485305 0.000001 0.000000 0.000000 0.000000 1.168770
    28 1.646738 0.449549 -1.702246 -0.161934 0.581206 -0.284024
    29 0.928312 0.000000 -0.000002 0.000000 0.000000 0.000000
    30 0.928314 0.000000 0.000001 0.000000 0.000000 0.000000
    31 1.533672 0.109715 1.664491 -0.264755 -0.055959 0.783109
    32 0.928313 0.000000 0.000000 0.000000 0.000000 -0.453556
    33 0.928314 0.000000 0.000001 0.000000 0.000000 0.000000
  time 24
    0 0.235347 0.367732 -14.553656 -0.045585 0.257873 -1.742273
    1 0.000000 0.000000 0.000000 -1.570795 -1.570796 0.000000
    2 -0.000005 0.000007 3.713255 2.914525 6.061903 1.331528
    3 18.045721 0.000000 0.000000 0.000000 0.000000 -1.349242
    4 17.597597 0.000000 0.000000 -0.205057 0.225938 -0.216505
    5 0.000005 -0.000003 -3.713255 -0.067002 -3.740518 -0.837425
    6 18.045725 0.000000 0.000000 0.000000 0.000000 -2.074647
    7 17.597597 0.000000 0.000000 -0.092081 0.087821 0.559948
    8 1.293670 0.684478 -0.000001 -0.000004 -0.000001 0.218799
    9 5.309685 -0.003834 0.000000 0.000000 0.000000 0.349065
    10 4.826790 -0.004591 0.000000 -0.173330 0.019775 0.111669
    11 5.792767 -0.005304 0.000000 -0.139544 0.000384 0.001996
    12 6.662317 -0.001453 0.000000 0.000000 -0.000001 -0.139840
    13 2.046985 -0.000002 0.000000 0.211796 0.232872 -0.747332
    14 -3.416721 -0.541403 4.341911 0.930434 -1.175428 2.389085
    15 4.827230 0.000000 0.000001 -0.212627 -0.759141 -1.879215
    16 11.139763 0.000000 0.000000 0.000000 0.000000 -0.657551
    17 10.314597 0.000001 0.000000 -3.444010 0.558712 -0.152971
    18 2.975834 -0.386307 -0.044143 -0.000797 -0.043611 0.000035
    19 1.438886 0.000000 0.000000 0.000000 0.000000 0.872212
    20 1.485303 0.000000 0.000000 0.000000 0.000000 0.907076
    21 -3.151157 -0.498832 -4.140396 -1.135343 1.122834 2.186391
    22 4.972048 0.000000 0.000001 0.916641 -0.241805 -1.273546
    23 11.585355 0.000000 0.000000 0.000000 0.000000 -1.922688
    24 10.127057 0.000000 0.000001 1.685244 0.460350 0.014478
    25 2.683750 -0.427338 0.044205 -0.005786 0.043239 -0.157091
    26 1.438885 -0.000001 0.000000 0.000000 0.000000 0.732658
    27 1.485305 0.000001 0.000000 0.000000 0.000000 1.168770
    28 1.646738 0.449549 -1.702246 -0.161934 0.581206 -0.284024
    29 0.928312 0.000000 -0.000002 0.000000 0.000000 0.000000
    30 0.928314 0.000000 0.000001 0.000000 0.000000 0.000000
    31 1.533672 0.109715 1.664491 -0.264755 -0.055959 0.783109
    32 0.928313 0.000000 0.000000 0.000000 0.000000 -0.453556
    33 0.928314 0.000000 0.000001 0.000000 0.000000 0.000000
  time 25
    0 0.235347 0.367732 -14.553656 -0.045585 0.257873 -1.742273
    1 0.000000 0.000000 0.000000 -1.570795 -1.570796 0.000000
    2 -0.000005 0.000007 3.713255 2.914525 6.061903 1.331528
    3 18.045721 0.000000 0.000000 0.000000 0.000000 -1.349242
    4 17.597597 0.000000 0.000000 -0.205057 0.225938 -0.216505
    5 0.000005 -0.000003 -3.713255 -0.067002 -3.740518 -0.837425
    6 18.045725 0.000000 0.000000 0.000000 0.000000 -2.074647
    7 17.597597 0.000000 0.000000 -0.092081 0.087821 0.559948
    8 1.293670 0.684478 -0.000001 -0.000004 -0.000001 0.218799
    9 5.309685 -0.003834 0.000000 0.000000 0.000000 0.349065
    10 4.826790 -0.004591 0.000000 -0.173330 0.019775 0.111669
    11 5.792767 -0.005304 0.000000 -0.139544 -0.000707 -0.005831
    12 6.662317 -0.001453 0.000000 0.000000 -0.000001 -0.139840
    13 2.046985 -0.000002 0.000000 0.211796 0.232872 -0.739421
    14 -3.416721 -0.541403 4.341911 0.948938 -1.181044 2.369143
    15 4.827230 0.000000 0.000001 -0.231306 -0.755737 -1.864600
    16 11.139763 0.000000 0.000000 0.000000 0.000000 -0.657551
    17 10.314597 0.000001 0.000000 -3.444010 0.558712 -0.152971
    18 2.975834 -0.386307 -0.044143 -0.000797 -0.043611 0.000035
    19 1.438886 0.000000 0.000000 0.000000 0.000000 0.872212
    20 1.485303 0.000000 0.000000 0.000000 0.000000 0.907076
    21 -3.151157 -0.498832 -4.140396 -1.126810 1.129843 2.194061
    22 4.972048 0.000000 0.000001 0.917027 -0.251056 -1.279935
    23 11.585355 0.000000 0.000000 0.000000 0.000000 -1.922688
    24 10.127057 0.000000 0.000001 1.687537 0.459782 0.019734
    25 2.683750 -0.427338 0.044205 -0.005786 0.043239 -0.157091
    26 1.438885 -0.000001 0.000000 0.000000 0.000000 0.732658
    27 1.485305 0.000001 0.000000 0.000000 0.000000 1.168770
    28 1.646738 0.449549 -1.702246 -0.161934 0.581206 -0.284024
    29 0.928312 0.000000 -0.000002 0.000000 0.000000 0.000000
    30 0.928314 0.000000 0.000001 0.000000 0.000000 0.000000
    31 1.533672 0.109715 1.664491 -0.264755 -0.055959 0.783109
    32 0.928313 0.000000 0.000000 0.000000 0.000000 -0.453556
    33 0.928314 0.000000 0.000001 0.000000 0.000000 0.000000
  time 26
    0 0.235347 0.367732 -14.553656 -0.045585 0.257873 -1.742273
    1 0.000000 0.000000 0.000000 -1.570795 -1.570796 0.000000
    2 -0.000005 0.000007 3.713255 2.914525 6.061903 1.331528
    3 18.045721 0.000000 0.000000 0.000000 0.000000 -1.349242
    4 17.597597 0.000000 0.000000 -0.205057 0.225938 -0.216505
    5 0.000005 -0.000003 -3.713255 -0.067002 -3.740518 -0.837425
    6 18.045725 0.000000 0.000000 0.000000 0.000000 -2.074647
    7 17.597597 0.000000 0.000000 -0.092081 0.087821 0.559948
    8 1.293670 0.684478 -0.000001 -0.000004 -0.000001 0.218799
    9 5.309685 -0.003834 0.000000 0.000000 0.000000 0.349065
    10 4.826790 -0.004591 0.000000 -0.173330 0.019775 0.111669
    11 5.792767 -0.005304 0.000000 -0.139544 -0.001750 -0.013285
    12 6.662317 -0.001453 0.000000 0.000000 -0.000001 -0.139840
    13 2.046985 -0.000002 0.000000 0.211796 0.232872 -0.731870
    14 -3.416721 -0.541403 4.341911 0.967058 -1.186199 2.349584
    15 4.827230 0.000000 0.000001 -0.248926 -0.752248 -1.850861
    16 11.139763 0.000000 0.000000 0.000000 0.000000 -0.657551
    17 10.314597 0.000001 0.000000 -3.444010 0.558712 -0.152971
    18 2.975834 -0.386307 -0.044143 -0.000797 -0.043611 0.000035
    19 1.438886 0.000000 0.000000 0.000000 0.000000 0.872212
    20 1.485303 0.000000 0.000000 0.000000 0.000000 0.907076
    21 -3.151157 -0.498832 -4.140396 -1.118469 1.136485 2.201635
    22 4.972048 0.000000 0.000001 0.917491 -0.259824 -1.285995
    23 11.585355 0.000000 0.000000 0.000000 0.000000 -1.922688
    24 10.127057 0.000000 0.000001 1.689767 0.459268 0.024716
    25 2.683750 -0.427338 0.044205 -0.005786 0.043239 -0.157091
    26 1.438885 -0.000001 0.000000 0.000000 0.000000 0.732658
    27 1.485305 0.000001 0.000000 0.000000 0.000000 1.168770
    28 1.646738 0.449549 -1.702246 -0.161934 0.581206 -0.284024
    29 0.928312 0.000000 -0.000002 0.000000 0.000000 0.000000
    30 0.928314 0.000000 0.000001 0.000000 0.000000 0.000000
    31 1.533672 0.109715 1.664491 -0.264755 -0.055959 0.783109
    32 0.928313 0.000000 0.000000 0.000000 0.000000 -0.453556
    33 0.928314 0.000000 0.000001 0.000000 0.000000 0.000000
  time 27
    0 0.235347 0.367732 -14.553656 -0.045585 0.257873 -1.742273
    1 0.000000 0.000000 0.000000 -1.570795 -1.570796 0.000000
    2 -0.000005 0.000007 3.713255 2.914525 6.061903 1.331528
    3 18.045721 0.000000 0.000000 0.000000 0.000000 -1.349242
    4 17.597597 0.000000 0.000000 -0.205057 0.225938 -0.216505
    5 0.000005 -0.000003 -3.713255 -0.067002 -3.740518 -0.837425
    6 18.045725 0.000000 0.000000 0.000000 0.000000 -2.074647
    7 17.597597 0.000000 0.000000 -0.092081 0.087821 0.559948
    8 1.293670 0.684478 -0.000001 -0.000004 -0.000001 0.218799
    9 5.309685 -0.003834 0.000000 0.000000 0.000000 0.349065
    10 4.826790 -0.004591 0.000000 -0.173330 0.019775 0.111669
    11 5.792767 -0.005304 0.000000 -0.139528 -0.002709 -0.020116
    12 6.662317 -0.001453 0.000000 0.000000 -0.000001 -0.139840
    13 2.046985 -0.000002 0.000000 0.211796 0.232872 -0.724993
    14 -3.416721 -0.541403 4.341911 0.984028 -1.190853 2.331176
    15 4.827230 0.000000 0.000001 -0.265020 -0.748929 -1.838434
    16 11.139763 0.000000 0.000000 0.000000 0.000000 -0.657551
    17 10.314597 0.000001 0.000000 -3.444010 0.558712 -0.152971
    18 2.975834 -0.386307 -0.044143 -0.000797 -0.043611 0.000035
    19 1.438886 0.000000 0.000000 0.000000 0.000000 0.872212
    20 1.485303 0.000000 0.000000 0.000000 0.000000 0.907076
    21 -3.151157 -0.498832 -4.140396 -1.110608 1.142562 2.208729
    22 4.972048 0.000000 0.000001 0.917878 -0.267868 -1.291595
    23 11.585355 0.000000 0.000000 0.000000 0.000000 -1.922688
    24 10.127057 0.000000 0.000001 1.691805 0.458753 0.029305
    25 2.683750 -0.427338 0.044205 -0.005786 0.043239 -0.157091
    26 1.438885 -0.000001 0.000000 0.000000 0.000000 0.732658
    27 1.485305 0.000001 0.000000 0.000000 0.000000 1.168770
    28 1.646738 0.449549 -1.702246 -0.161934 0.581206 -0.284024
    29 0.928312 0.000000 -0.000002 0.000000 0.000000 0.000000
    30 0.928314 0.000000 0.000001 0.000000 0.000000 0.000000
    31 1.533672 0.109715 1.664491 -0.264755 -0.055959 0.783109
    32 0.928313 0.000000 0.000000 0.000000 0.000000 -0.453556
    33 0.928314 0.000000 0.000001 0.000000 0.000000 0.000000
  time 28
    0 0.235347 0.367732 -14.553656 -0.045585 0.257873 -1.742273
    1 0.000000 0.000000 0.000000 -1.570795 -1.570796 0.000000
    2 -0.000005 0.000007 3.713255 2.914525 6.061903 1.331528
    3 18.045721 0.000000 0.000000 0.000000 0.000000 -1.349242
    4 17.597597 0.000000 0.000000 -0.205057 0.225938 -0.216505
    5 0.000005 -0.000003 -3.713255 -0.067002 -3.740518 -0.837425
    6 18.045725 0.000000 0.000000 0.000000 0.000000 -2.074647
    7 17.597597 0.000000 0.000000 -0.092081 0.087821 0.559948
    8 1.293670 0.684478 -0.000001 -0.000004 -0.000001 0.218799
    9 5.309685 -0.003834 0.000000 0.000000 0.000000 0.349065
    10 4.826790 -0.004591 0.000000 -0.173330 0.019775 0.111669
    11 5.792767 -0.005304 0.000000 -0.139495 -0.003547 -0.026116
    12 6.662317 -0.001453 0.000000 0.000000 -0.000001 -0.139840
    13 2.046985 -0.000002 0.000000 0.211796 0.232872 -0.718925
    14 -3.416721 -0.541403 4.341911 0.999367 -1.194815 2.314685
    15 4.827230 0.000000 0.000001 -0.278999 -0.745866 -1.827671
    16 11.139763 0.000000 0.000000 0.000000 0.000000 -0.657551
    17 10.314597 0.000001 0.000000 -3.444010 0.558712 -0.152971
    18 2.975834 -0.386307 -0.044143 -0.000797 -0.043611 0.000035
    19 1.438886 0.000000 0.000000 0.000000 0.000000 0.872212
    20 1.485303 0.000000 0.000000 0.000000 0.000000 0.907076
    21 -3.151157 -0.498832 -4.140396 -1.103609 1.147876 2.215153
    22 4.972048 0.000000 0.000001 0.918188 -0.274947 -1.296535
    23 11.585355 0.000000 0.000000 0.000000 0.000000 -1.922688
    24 10.127057 0.000000 0.000001 1.693589 0.458320 0.033306
    25 2.683750 -0.427338 0.044205 -0.005786 0.043239 -0.157091
    26 1.438885 -0.000001 0.000000 0.000000 0.000000 0.732658
    27 1.485305 0.000001 0.000000 0.000000 0.000000 1.168770
    28 1.646738 0.449549 -1.702246 -0.161934 0.581206 -0.284024
    29 0.928312 0.000000 -0.000002 0.000000 0.000000 0.000000
    30 0.928314 0.000000 0.000001 0.000000 0.000000 0.000000
    31 1.533672 0.109715 1.664491 -0.264755 -0.055959 0.783109
    32 0.928313 0.000000 0.000000 0.000000 0.000000 -0.453556
    33 0.928314 0.000000 0.000001 0.000000 0.000000 0.000000
  time 29
    0 0.235347 0.367732 -14.553656 -0.045585 0.257873 -1.742273
    1 0.000000 0.000000 0.000000 -1.570795 -1.570796 0.000000
    2 -0.000005 0.000007 3.713255 2.914525 6.061903 1.331528
    3 18.045721 0.000000 0.000000 0.000000 0.000000 -1.349242
    4 17.597597 0.000000 0.000000 -0.205057 0.225938 -0.216505
    5 0.000005 -0.000003 -3.713255 -0.067002 -3.740518 -0.837425
    6 18.045725 0.000000 0.000000 0.000000 0.000000 -2.074647
    7 17.597597 0.000000 0.000000 -0.092081 0.087821 0.559948
    8 1.293670 0.684478 -0.000001 -0.000004 -0.000001 0.218799
    9 5.309685 -0.003834 0.000000 0.000000 0.000000 0.349065
    10 4.826790 -0.004591 0.000000 -0.173330 0.019775 0.111669
    11 5.792767 -0.005304 0.000000 -0.139479 -0.004243 -0.031016
    12 6.662317 -0.001453 0.000000 0.000000 -0.000001 -0.139840
    13 2.046985 -0.000002 0.000000 0.211796 0.232872 -0.713981
    14 -3.416721 -0.541403 4.341911 1.012214 -1.198008 2.300975
    15 4.827230 0.000000 0.000001 -0.290453 -0.743227 -1.819007
    16 11.139763 0.000000 0.000000 0.000000 0.000000 -0.657551
    17 10.314597 0.000001 0.000000 -3.444010 0.558712 -0.152971
    18 2.975834 -0.386307 -0.044143 -0.000797 -0.043611 0.000035
    19 1.438886 0.000000 0.000000 0.000000 0.000000 0.872212
    20 1.485303 0.000000 0.000000 0.000000 0.000000 0.907076
    21 -3.151157 -0.498832 -4.140396 -1.097665 1.152200 2.220522
    22 4.972048 0.000000 0.000001 0.918420 -0.280738 -1.300553
    23 11.585355 0.000000 0.000000 0.000000 0.000000 -1.922688
    24 10.127057 0.000000 0.000001 1.695054 0.457941 0.036601
    25 2.683750 -0.427338 0.044205 -0.005786 0.043239 -0.157091
    26 1.438885 -0.000001 0.000000 0.000000 0.000000 0.732658
    27 1.485305 0.000001 0.000000 0.000000 0.000000 1.168770
    28 1.646738 0.449549 -1.702246 -0.161934 0.581206 -0.284024
    29 0.928312 0.000000 -0.000002 0.000000 0.000000 0.000000
    30 0.928314 0.000000 0.000001 0.000000 0.000000 0.000000
    31 1.533672 0.109715 1.664491 -0.264755 -0.055959 0.783109
    32 0.928313 0.000000 0.000000 0.000000 0.000000 -0.453556
    33 0.928314 0.000000 0.000001 0.000000 0.000000 0.000000
  time 30
    0 0.235347 0.367732 -14.553656 -0.045585 0.257873 -1.742273
    1 0.000000 0.000000 0.000000 -1.570795 -1.570796 0.000000
    2 -0.000005 0.000007 3.713255 2.914525 6.061903 1.331528
    3 18.045721 0.000000 0.000000 0.000000 0.000000 -1.349242
    4 17.597597 0.000000 0.000000 -0.205057 0.225938 -0.216505
    5 0.000005 -0.000003 -3.713255 -0.067002 -3.740518 -0.837425
    6 18.045725 0.000000 0.000000 0.000000 0.000000 -2.074647
    7 17.597597 0.000000 0.000000 -0.092081 0.087821 0.559948
    8 1.293670 0.684478 -0.000001 -0.000004 -0.000001 0.218799
    9 5.309685 -0.003834 0.000000 0.000000 0.000000 0.349065
    10 4.826790 -0.004591 0.000000 -0.173330 0.019775 0.111669
    11 5.792767 -0.005304 0.000000 -0.139462 -0.004746 -0.034629
    12 6.662317 -0.001453 0.000000 0.000000 -0.000001 -0.139840
    13 2.046985 -0.000002 0.000000 0.211796 0.232872 -0.710340
    14 -3.416721 -0.541403 4.341911 1.021706 -1.200316 2.290716
    15 4.827230 0.000000 0.000001 -0.298794 -0.741270 -1.812619
    16 11.139763 0.000000 0.000000 0.000000 0.000000 -0.657551
    17 10.314597 0.000001 0.000000 -3.444010 0.558712 -0.152971
    18 2.975834 -0.386307 -0.044143 -0.000797 -0.043611 0.000035
    19 1.438886 0.000000 0.000000 0.000000 0.000000 0.872212
    20 1.485303 0.000000 0.000000 0.000000 0.000000 0.907076
    21 -3.151157 -0.498832 -4.140396 -1.093255 1.155366 2.224644
    22 4.972048 0.000000 0.000001 0.918652 -0.285002 -1.303518
    23 11.585355 0.000000 0.000000 0.000000 0.000000 -1.922688
    24 10.127057 0.000000 0.000001 1.696073 0.457670 0.038994
    25 2.683750 -0.427338 0.044205 -0.005786 0.043239 -0.157091
    26 1.438885 -0.000001 0.000000 0.000000 0.000000 0.732658
    27 1.485305 0.000001 0.000000 0.000000 0.000000 1.168770
    28 1.646738 0.449549 -1.702246 -0.161934 0.581206 -0.284024
    29 0.928312 0.000000 -0.000002 0.000000 0.000000 0.000000
    30 0.928314 0.000000 0.000001 0.000000 0.000000 0.000000
    31 1.533672 0.109715 1.664491 -0.264755 -0.055959 0.783109
    32 0.928313 0.000000 0.000000 0.000000 0.000000 -0.453556
    33 0.928314 0.000000 0.000001 0.000000 0.000000 0.000000
end
