version 1
nodes
  0 "Bip01" -1
  1 "Bip01 Pelvis" 0
  2 "Bip01 L Leg" 1
  3 "Bip01 L Leg1" 2
  4 "Bip01 L Foot" 3
  5 "Bip01 R Leg" 1
  6 "Bip01 R Leg1" 5
  7 "Bip01 R Foot" 6
  8 "Bip01 Spine" 1
  9 "Bip01 Spine1" 8
  10 "Bip01 Spine2" 9
  11 "Bip01 Spine3" 10
  12 "Bip01 Neck" 11
  13 "Bip01 Head" 12
  14 "Bip01 L Arm" 12
  15 "Bip01 L Arm1" 14
  16 "Bip01 L Arm2" 15
  17 "Bip01 L Hand" 16
  18 "Bip01 L Finger1" 17
  19 "Bip01 L Finger11" 18
  20 "Bip01 L Finger12" 19
  21 "Bip01 R Arm" 12
  22 "Bip01 R Arm1" 21
  23 "Bip01 R Arm2" 22
  24 "Bip01 R Hand" 23
  25 "Bip01 R Finger1" 24
  26 "Bip01 R Finger11" 25
  27 "Bip01 R Finger12" 26
  28 "Bip01 L Finger0" 17
  29 "Bip01 L Finger01" 28
  30 "Bip01 L Finger02" 29
  31 "Bip01 R Finger0" 24
  32 "Bip01 R Finger01" 31
  33 "Bip01 R Finger02" 32
end
skeleton
  time 0
    0 0.235347 0.367732 -12.139520 0.000000 0.270322 -1.570874
    1 -2.027406 -0.062502 0.000000 -1.570795 -1.570796 0.000000
    2 -0.000005 0.000007 3.713255 2.893246 6.073186 1.567094
    3 18.045721 0.000000 0.000000 0.000000 0.000000 -1.744785
    4 17.597597 0.000000 0.000000 -0.164903 0.191688 0.413694
    5 0.000005 -0.000003 -3.713255 0.311735 -3.346321 -0.928284
    6 18.045725 0.000000 0.000000 0.000000 0.000000 -1.993364
    7 17.597597 0.000000 0.000000 0.131027 -0.129934 1.055714
    8 1.293670 0.684478 -0.000001 -0.000004 -0.000001 0.279904
    9 5.309685 -0.003834 0.000000 -0.209347 -0.005273 -0.025628
    10 4.826790 -0.004591 0.000000 -0.409861 -0.013579 -0.032068
    11 5.792767 -0.005304 0.000000 0.000000 0.000000 0.043605
    12 6.662317 -0.001453 0.000000 0.000000 -0.000001 0.078527
    13 2.046985 -0.000002 0.000000 0.548833 0.303254 -0.532886
    14 -3.451878 0.212527 4.341911 1.808536 -0.756034 1.151901
    15 4.827230 0.000000 0.000001 -0.330218 -0.444694 0.048132
    16 11.139763 0.000000 0.000000 0.000000 0.000000 -1.868461
    17 10.314597 0.000001 0.000000 -4.434764 -0.060422 0.367855
    18 2.975834 -0.386307 -0.044143 -0.007233 -0.043024 0.148571
    19 1.438886 0.000000 0.000000 0.000000 0.000000 0.593381
    20 1.485303 0.000000 0.000000 0.000000 0.000000 0.383971
    21 -3.186314 0.196501 -4.140396 -1.122975 1.033293 2.001356
    22 4.972048 0.000000 0.000001 0.430698 -0.394965 -1.091540
    23 11.585355 0.000000 0.000000 0.000000 0.000000 -1.873858
    24 10.127057 0.000000 0.000001 1.913361 0.781120 0.124545
    25 2.683750 -0.427338 0.044205 0.001045 0.043611 0.000046
    26 1.438885 -0.000001 0.000000 0.000000 0.000000 0.767762
    27 1.485305 0.000001 0.000000 0.000000 0.000000 1.221689
    28 1.646738 0.449549 -1.702246 0.195746 0.777407 0.349090
    29 0.928312 0.000000 -0.000002 0.000000 0.000000 0.000000
    30 0.928314 0.000000 0.000001 0.000000 0.000000 0.000000
    31 1.533672 0.109715 1.664491 -0.233255 -0.412980 0.435684
    32 0.928313 0.000000 0.000000 0.000000 0.000000 0.000000
    33 0.928314 0.000000 0.000001 0.000000 0.000000 0.000000
  time 1
    0 0.235347 0.367732 -12.065299 0.000000 0.270322 -1.570874
    1 -1.757866 -0.171880 0.000000 -1.570795 -1.570796 0.000000
    2 -0.000005 0.000007 3.713255 2.893246 6.073186 1.567094
    3 18.045721 0.000000 0.000000 0.000000 0.000000 -1.744785
    4 17.597597 0.000000 0.000000 -0.164903 0.191688 0.413694
    5 0.000005 -0.000003 -3.713255 0.311735 -3.346321 -0.928284
    6 18.045725 0.000000 0.000000 0.000000 0.000000 -1.993364
    7 17.597597 0.000000 0.000000 0.131027 -0.129934 1.055714
    8 1.293670 0.684478 -0.000001 -0.000004 -0.000001 0.279904
    9 5.309685 -0.003834 0.000000 -0.229620 -0.013399 -0.058098
    10 4.826790 -0.004591 0.000000 -0.409237 -0.026905 -0.062782
    11 5.792767 -0.005304 0.000000 -0.049281 0.002181 0.043543
    12 6.662317 -0.001453 0.000000 0.000000 -0.000001 0.078527
    13 2.046985 -0.000002 0.000000 0.622850 0.316358 -0.446092
    14 -3.451878 0.212527 4.341911 1.808536 -0.756034 1.151901
    15 4.827230 0.000000 0.000001 -0.236004 -0.383336 0.047169
    16 11.139763 0.000000 0.000000 0.000000 0.000000 -1.990610
    17 10.314597 0.000001 0.000000 -4.434764 -0.060422 0.367855
    18 2.975834 -0.386307 -0.044143 -0.007233 -0.043024 0.148571
    19 1.438886 0.000000 0.000000 0.000000 0.000000 0.593381
    20 1.485303 0.000000 0.000000 0.000000 0.000000 0.383971
    21 -3.186314 0.196501 -4.140396 -1.122975 1.033293 2.001356
    22 4.972048 0.000000 0.000001 0.290764 -0.563006 -1.027907
    23 11.585355 0.000000 0.000000 0.000000 0.000000 -1.979703
    24 10.127057 0.000000 0.000001 1.940052 0.848609 0.161220
    25 2.683750 -0.427338 0.044205 0.001045 0.043611 0.000046
    26 1.438885 -0.000001 0.000000 0.000000 0.000000 0.767762
    27 1.485305 0.000001 0.000000 0.000000 0.000000 1.221689
    28 1.646738 0.449549 -1.702246 0.195746 0.777407 0.349090
    29 0.928312 0.000000 -0.000002 0.000000 0.000000 0.000000
    30 0.928314 0.000000 0.000001 0.000000 0.000000 0.000000
    31 1.533672 0.109715 1.664491 -0.233255 -0.412980 0.435684
    32 0.928313 0.000000 0.000000 0.000000 0.000000 0.000000
    33 0.928314 0.000000 0.000001 0.000000 0.000000 0.000000
  time 2
    0 0.235347 0.367732 -11.967640 0.000000 0.270322 -1.570874
    1 -1.394574 -0.343760 0.000000 -1.570795 -1.570796 0.000000
    2 -0.000005 0.000007 3.713255 2.893246 6.073186 1.567094
    3 18.045721 0.000000 0.000000 0.000000 0.000000 -1.744785
    4 17.597597 0.000000 0.000000 -0.164903 0.191688 0.413694
    5 0.000005 -0.000003 -3.713255 0.311735 -3.346321 -0.928284
    6 18.045725 0.000000 0.000000 0.000000 0.000000 -1.993364
    7 17.597597 0.000000 0.000000 0.131027 -0.129934 1.055714
    8 1.293670 0.684478 -0.000001 -0.000004 -0.000001 0.279904
    9 5.309685 -0.003834 0.000000 -0.257092 -0.026798 -0.102374
    10 4.826790 -0.004591 0.000000 -0.407710 -0.045278 -0.105205
    11 5.792767 -0.005304 0.000000 -0.116632 0.005165 0.043294
    12 6.662317 -0.001453 0.000000 0.000000 -0.000001 0.078527
    13 2.046985 -0.000002 0.000000 0.727283 0.321289 -0.325093
    14 -3.451878 0.212527 4.341911 1.808536 -0.756034 1.151901
    15 4.827230 0.000000 0.000001 -0.124523 -0.290492 0.079636
    16 11.139763 0.000000 0.000000 0.000000 0.000000 -2.081153
    17 10.314597 0.000001 0.000000 -4.434764 -0.060422 0.367855
    18 2.975834 -0.386307 -0.044143 -0.007233 -0.043024 0.148571
    19 1.438886 0.000000 0.000000 0.000000 0.000000 0.593381
    20 1.485303 0.000000 0.000000 0.000000 0.000000 0.383971
    21 -3.186314 0.196501 -4.140396 -1.122975 1.033293 2.001356
    22 4.972048 0.000000 0.000001 0.156553 -0.711500 -0.993390
    23 11.585355 0.000000 0.000000 0.000000 0.000000 -2.040426
    24 10.127057 0.000000 0.000001 1.958144 0.887051 0.184913
    25 2.683750 -0.427338 0.044205 0.001045 0.043611 0.000046
    26 1.438885 -0.000001 0.000000 0.000000 0.000000 0.767762
    27 1.485305 0.000001 0.000000 0.000000 0.000000 1.221689
    28 1.646738 0.449549 -1.702246 0.195746 0.777407 0.349090
    29 0.928312 0.000000 -0.000002 0.000000 0.000000 0.000000
    30 0.928314 0.000000 0.000001 0.000000 0.000000 0.000000
    31 1.533672 0.109715 1.664491 -0.233255 -0.412980 0.435684
    32 0.928313 0.000000 0.000000 0.000000 0.000000 0.000000
    33 0.928314 0.000000 0.000001 0.000000 0.000000 0.000000
  time 3
    0 0.235347 0.367732 -11.897325 0.000000 0.270322 -1.570874
    1 -1.128941 -0.476577 0.000000 -1.570795 -1.570796 0.000000
    2 -0.000005 0.000007 3.713255 2.893246 6.073186 1.567094
    3 18.045721 0.000000 0.000000 0.000000 0.000000 -1.744785
    4 17.597597 0.000000 0.000000 -0.164903 0.191688 0.413694
    5 0.000005 -0.000003 -3.713255 0.311735 -3.346321 -0.928284
    6 18.045725 0.000000 0.000000 0.000000 0.000000 -1.993364
    7 17.597597 0.000000 0.000000 0.131027 -0.129934 1.055714
    8 1.293670 0.684478 -0.000001 -0.000004 -0.000001 0.279904
    9 5.309685 -0.003834 0.000000 -0.276644 -0.038123 -0.134246
    10 4.826790 -0.004591 0.000000 -0.406101 -0.058617 -0.136205
    11 5.792767 -0.005304 0.000000 -0.156846 0.006939 0.043065
    12 6.662317 -0.001453 0.000000 0.000000 -0.000001 0.078527
    13 2.046985 -0.000002 0.000000 0.794707 0.314174 -0.240142
    14 -3.451878 0.212527 4.341911 1.808536 -0.756034 1.151901
    15 4.827230 0.000000 0.000001 -0.045875 -0.211433 0.131443
    16 11.139763 0.000000 0.000000 0.000000 0.000000 -2.055714
    17 10.314597 0.000001 0.000000 -4.434764 -0.060422 0.367855
    18 2.975834 -0.386307 -0.044143 -0.007233 -0.043024 0.148571
    19 1.438886 0.000000 0.000000 0.000000 0.000000 0.593381
    20 1.485303 0.000000 0.000000 0.000000 0.000000 0.383971
    21 -3.186314 0.196501 -4.140396 -1.122975 1.033293 2.001356
    22 4.972048 0.000000 0.000001 0.148895 -0.769739 -1.038908
    23 11.585355 0.000000 0.000000 0.000000 0.000000 -2.017550
    24 10.127057 0.000000 0.000001 1.951073 0.872595 0.175734
    25 2.683750 -0.427338 0.044205 0.001045 0.043611 0.000046
    26 1.438885 -0.000001 0.000000 0.000000 0.000000 0.767762
    27 1.485305 0.000001 0.000000 0.000000 0.000000 1.221689
    28 1.646738 0.449549 -1.702246 0.195746 0.777407 0.349090
    29 0.928312 0.000000 -0.000002 0.000000 0.000000 0.000000
    30 0.928314 0.000000 0.000001 0.000000 0.000000 0.000000
    31 1.533672 0.109715 1.664491 -0.233255 -0.412980 0.435684
    32 0.928313 0.000000 0.000000 0.000000 0.000000 0.000000
    33 0.928314 0.000000 0.000001 0.000000 0.000000 0.000000
  time 4
    0 0.235347 0.367732 -11.924670 0.000000 0.270322 -1.570874
    1 -1.222694 -0.402356 0.000000 -1.570795 -1.570796 0.000000
    2 -0.000005 0.000007 3.713255 2.893246 6.073186 1.567094
    3 18.045721 0.000000 0.000000 0.000000 0.000000 -1.744785
    4 17.597597 0.000000 0.000000 -0.164903 0.191688 0.413694
    5 0.000005 -0.000003 -3.713255 0.311735 -3.346321 -0.928284
    6 18.045725 0.000000 0.000000 0.000000 0.000000 -1.993364
    7 17.597597 0.000000 0.000000 0.131027 -0.129934 1.055714
    8 1.293670 0.684478 -0.000001 -0.000004 -0.000001 0.279904
    9 5.309685 -0.003834 0.000000 -0.268845 -0.033425 -0.121497
    10 4.826790 -0.004591 0.000000 -0.342736 -0.045254 -0.126901
    11 5.792767 -0.005304 0.000000 -0.092121 0.004087 0.043418
    12 6.662317 -0.001453 0.000000 0.000000 -0.000001 0.078527
    13 2.046985 -0.000002 0.000000 0.652965 0.290398 -0.309541
    14 -3.451878 0.212527 4.341911 1.808536 -0.756034 1.151901
    15 4.827230 0.000000 0.000001 -0.076007 -0.204455 0.035968
    16 11.139763 0.000000 0.000000 0.000000 0.000000 -1.998669
    17 10.314597 0.000001 0.000000 -4.434764 -0.060422 0.367855
    18 2.975834 -0.386307 -0.044143 -0.007233 -0.043024 0.148571
    19 1.438886 0.000000 0.000000 0.000000 0.000000 0.593381
    20 1.485303 0.000000 0.000000 0.000000 0.000000 0.383971
    21 -3.186314 0.196501 -4.140396 -1.122975 1.033293 2.001356
    22 4.972048 0.000000 0.000001 0.240560 -0.685437 -0.987000
    23 11.585355 0.000000 0.000000 0.000000 0.000000 -1.976275
    24 10.127057 0.000000 0.000001 1.939097 0.846444 0.159965
    25 2.683750 -0.427338 0.044205 0.001045 0.043611 0.000046
    26 1.438885 -0.000001 0.000000 0.000000 0.000000 0.767762
    27 1.485305 0.000001 0.000000 0.000000 0.000000 1.221689
    28 1.646738 0.449549 -1.702246 0.195746 0.777407 0.349090
    29 0.928312 0.000000 -0.000002 0.000000 0.000000 0.000000
    30 0.928314 0.000000 0.000001 0.000000 0.000000 0.000000
    31 1.533672 0.109715 1.664491 -0.233255 -0.412980 0.435684
    32 0.928313 0.000000 0.000000 0.000000 0.000000 0.000000
    33 0.928314 0.000000 0.000001 0.000000 0.000000 0.000000
  time 5
    0 0.235347 0.367732 -12.006703 0.000000 0.270322 -1.570874
    1 -1.527390 -0.250008 0.000000 -1.570795 -1.570796 0.000000
    2 -0.000005 0.000007 3.713255 2.893246 6.073186 1.567094
    3 18.045721 0.000000 0.000000 0.000000 0.000000 -1.744785
    4 17.597597 0.000000 0.000000 -0.164903 0.191688 0.413694
    5 0.000005 -0.000003 -3.713255 0.311735 -3.346321 -0.928284
    6 18.045725 0.000000 0.000000 0.000000 0.000000 -1.993364
    7 17.597597 0.000000 0.000000 0.131027 -0.129934 1.055714
    8 1.293670 0.684478 -0.000001 -0.000004 -0.000001 0.279904
    9 5.309685 -0.003834 0.000000 -0.246062 -0.021081 -0.084537
    10 4.826790 -0.004591 0.000000 -0.286727 -0.026965 -0.091997
    11 5.792767 -0.005304 0.000000 0.002772 -0.000120 0.043605
    12 6.662317 -0.001453 0.000000 0.000000 -0.000001 0.078527
    13 2.046985 -0.000002 0.000000 0.474127 0.250276 -0.434226
    14 -3.451878 0.212527 4.341911 1.808536 -0.756034 1.151901
    15 4.827230 0.000000 0.000001 -0.158473 -0.257132 -0.085060
    16 11.139763 0.000000 0.000000 0.000000 0.000000 -1.940923
    17 10.314597 0.000001 0.000000 -4.434764 -0.060422 0.367855
    18 2.975834 -0.386307 -0.044143 -0.007233 -0.043024 0.148571
    19 1.438886 0.000000 0.000000 0.000000 0.000000 0.593381
    20 1.485303 0.000000 0.000000 0.000000 0.000000 0.383971
    21 -3.186314 0.196501 -4.140396 -1.122975 1.033293 2.001356
    22 4.972048 0.000000 0.000001 0.348548 -0.544343 -0.912762
    23 11.585355 0.000000 0.000000 0.000000 0.000000 -1.935140
    24 10.127057 0.000000 0.000001 1.928140 0.820266 0.145138
    25 2.683750 -0.427338 0.044205 0.001045 0.043611 0.000046
    26 1.438885 -0.000001 0.000000 0.000000 0.000000 0.767762
    27 1.485305 0.000001 0.000000 0.000000 0.000000 1.221689
    28 1.646738 0.449549 -1.702246 0.195746 0.777407 0.349090
    29 0.928312 0.000000 -0.000002 0.000000 0.000000 0.000000
    30 0.928314 0.000000 0.000001 0.000000 0.000000 0.000000
    31 1.533672 0.109715 1.664491 -0.233255 -0.412980 0.435684
    32 0.928313 0.000000 0.000000 0.000000 0.000000 0.000000
    33 0.928314 0.000000 0.000001 0.000000 0.000000 0.000000
  time 6
    0 0.235347 0.367732 -12.080924 0.000000 0.270322 -1.570874
    1 -1.804743 -0.144536 0.000000 -1.570795 -1.570796 0.000000
    2 -0.000005 0.000007 3.713255 2.893246 6.073186 1.567094
    3 18.045721 0.000000 0.000000 0.000000 0.000000 -1.744785
    4 17.597597 0.000000 0.000000 -0.164903 0.191688 0.413694
    5 0.000005 -0.000003 -3.713255 0.311735 -3.346321 -0.928284
    6 18.045725 0.000000 0.000000 0.000000 0.000000 -1.993364
    7 17.597597 0.000000 0.000000 0.131027 -0.129934 1.055714
    8 1.293670 0.684478 -0.000001 -0.000004 -0.000001 0.279904
    9 5.309685 -0.003834 0.000000 -0.225862 -0.011781 -0.052049
    10 4.826790 -0.004591 0.000000 -0.340782 -0.020506 -0.058593
    11 5.792767 -0.005304 0.000000 0.011350 -0.000503 0.043605
    12 6.662317 -0.001453 0.000000 0.000000 -0.000001 0.078527
    13 2.046985 -0.000002 0.000000 0.492912 0.268581 -0.495805
    14 -3.451878 0.212527 4.341911 1.808536 -0.756034 1.151901
    15 4.827230 0.000000 0.000001 -0.243229 -0.350402 -0.034741
    16 11.139763 0.000000 0.000000 0.000000 0.000000 -1.897754
    17 10.314597 0.000001 0.000000 -4.434764 -0.060422 0.367855
    18 2.975834 -0.386307 -0.044143 -0.007233 -0.043024 0.148571
    19 1.438886 0.000000 0.000000 0.000000 0.000000 0.593381
    20 1.485303 0.000000 0.000000 0.000000 0.000000 0.383971
    21 -3.186314 0.196501 -4.140396 -1.122975 1.033293 2.001356
    22 4.972048 0.000000 0.000001 0.403160 -0.455295 -0.993851
    23 11.585355 0.000000 0.000000 0.000000 0.000000 -1.899323
    24 10.127057 0.000000 0.000001 1.919285 0.797417 0.132900
    25 2.683750 -0.427338 0.044205 0.001045 0.043611 0.000046
    26 1.438885 -0.000001 0.000000 0.000000 0.000000 0.767762
    27 1.485305 0.000001 0.000000 0.000000 0.000000 1.221689
    28 1.646738 0.449549 -1.702246 0.195746 0.777407 0.349090
    29 0.928312 0.000000 -0.000002 0.000000 0.000000 0.000000
    30 0.928314 0.000000 0.000001 0.000000 0.000000 0.000000
    31 1.533672 0.109715 1.664491 -0.233255 -0.412980 0.435684
    32 0.928313 0.000000 0.000000 0.000000 0.000000 0.000000
    33 0.928314 0.000000 0.000001 0.000000 0.000000 0.000000
  time 7
    0 0.235347 0.367732 -12.139520 0.000000 0.270322 -1.570874
    1 -2.027406 -0.062502 0.000000 -1.570795 -1.570796 0.000000
    2 -0.000005 0.000007 3.713255 2.893246 6.073186 1.567094
    3 18.045721 0.000000 0.000000 0.000000 0.000000 -1.744785
    4 17.597597 0.000000 0.000000 -0.164903 0.191688 0.413694
    5 0.000005 -0.000003 -3.713255 0.311735 -3.346321 -0.928284
    6 18.045725 0.000000 0.000000 0.000000 0.000000 -1.993364
    7 17.597597 0.000000 0.000000 0.131027 -0.129934 1.055714
    8 1.293670 0.684478 -0.000001 -0.000004 -0.000001 0.279904
    9 5.309685 -0.003834 0.000000 -0.209347 -0.005273 -0.025628
    10 4.826790 -0.004591 0.000000 -0.409861 -0.013579 -0.032068
    11 5.792767 -0.005304 0.000000 0.000000 0.000000 0.043605
    12 6.662317 -0.001453 0.000000 0.000000 -0.000001 0.078527
    13 2.046985 -0.000002 0.000000 0.548833 0.303254 -0.532886
    14 -3.451878 0.212527 4.341911 1.808536 -0.756034 1.151901
    15 4.827230 0.000000 0.000001 -0.330218 -0.444694 0.048132
    16 11.139763 0.000000 0.000000 0.000000 0.000000 -1.868461
    17 10.314597 0.000001 0.000000 -4.434764 -0.060422 0.367855
    18 2.975834 -0.386307 -0.044143 -0.007233 -0.043024 0.148571
    19 1.438886 0.000000 0.000000 0.000000 0.000000 0.593381
    20 1.485303 0.000000 0.000000 0.000000 0.000000 0.383971
    21 -3.186314 0.196501 -4.140396 -1.122975 1.033293 2.001356
    22 4.972048 0.000000 0.000001 0.430698 -0.394965 -1.091540
    23 11.585355 0.000000 0.000000 0.000000 0.000000 -1.873858
    24 10.127057 0.000000 0.000001 1.913361 0.781120 0.124545
    25 2.683750 -0.427338 0.044205 0.001045 0.043611 0.000046
    26 1.438885 -0.000001 0.000000 0.000000 0.000000 0.767762
    27 1.485305 0.000001 0.000000 0.000000 0.000000 1.221689
    28 1.646738 0.449549 -1.702246 0.195746 0.777407 0.349090
    29 0.928312 0.000000 -0.000002 0.000000 0.000000 0.000000
    30 0.928314 0.000000 0.000001 0.000000 0.000000 0.000000
    31 1.533672 0.109715 1.664491 -0.233255 -0.412980 0.435684
    32 0.928313 0.000000 0.000000 0.000000 0.000000 0.000000
    33 0.928314 0.000000 0.000001 0.000000 0.000000 0.000000
end
