version 1
nodes
  0 "Bip01" -1
  1 "Bip01 Pelvis" 0
  2 "Bip01 L Leg" 1
  3 "Bip01 L Leg1" 2
  4 "Bip01 L Foot" 3
  5 "Bip01 R Leg" 1
  6 "Bip01 R Leg1" 5
  7 "Bip01 R Foot" 6
  8 "Bip01 Spine" 1
  9 "Bip01 Spine1" 8
  10 "Bip01 Spine2" 9
  11 "Bip01 Spine3" 10
  12 "Bip01 Neck" 11
  13 "Bip01 Head" 12
  14 "Bip01 L Arm" 12
  15 "Bip01 L Arm1" 14
  16 "Bip01 L Arm2" 15
  17 "Bip01 L Hand" 16
  18 "Bip01 L Finger1" 17
  19 "Bip01 L Finger11" 18
  20 "Bip01 L Finger12" 19
  21 "Bip01 R Arm" 12
  22 "Bip01 R Arm1" 21
  23 "Bip01 R Arm2" 22
  24 "Bip01 R Hand" 23
  25 "Bip01 R Finger1" 24
  26 "Bip01 R Finger11" 25
  27 "Bip01 R Finger12" 26
  28 "Bip01 L Finger0" 17
  29 "Bip01 L Finger01" 28
  30 "Bip01 L Finger02" 29
  31 "Bip01 R Finger0" 24
  32 "Bip01 R Finger01" 31
  33 "Bip01 R Finger02" 32
end
skeleton
  time 0
    0 0.235347 0.039597 -13.307524 0.000000 0.270322 -1.570874
    1 -5.808771 0.265633 0.000000 -1.570795 -1.570796 0.000000
    2 -0.000005 0.000007 3.713255 2.893246 6.073186 1.567094
    3 18.045721 0.000000 0.000000 0.000000 0.000000 -1.744785
    4 17.597597 0.000000 0.000000 -0.164903 0.191688 0.413694
    5 0.000005 -0.000003 -3.713255 0.311735 -3.346321 -0.928284
    6 18.045725 0.000000 0.000000 0.000000 0.000000 -1.993364
    7 17.597597 0.000000 0.000000 0.131027 -0.129934 1.055714
    8 1.293670 0.684478 -0.000001 -0.000004 -0.000001 0.436901
    9 5.309685 -0.003834 0.000000 -0.032981 0.011373 0.331245
    10 4.826790 -0.004591 0.000000 -0.141853 0.043288 0.293463
    11 5.792767 -0.005304 0.000000 0.000000 0.000000 0.191872
    12 6.662317 -0.001453 0.000000 0.000000 -0.000001 0.471000
    13 2.046985 -0.000002 0.000000 0.170824 -0.061939 -0.678517
    14 -3.112024 1.517254 4.341911 1.374615 -0.765689 1.378264
    15 4.827230 0.000000 0.000001 -0.191776 -0.515498 -0.765022
    16 11.139763 0.000000 0.000000 0.000000 0.000000 -0.545003
    17 10.314597 0.000001 0.000000 -2.966205 0.000000 -0.069778
    18 2.975834 -0.386307 -0.044143 -0.012063 -0.041921 0.262037
    19 1.438886 0.000000 0.000000 0.000000 0.000000 0.924863
    20 1.485303 0.000000 0.000000 0.000000 0.000000 0.540993
    21 -2.869898 1.399663 -4.140396 -1.206002 1.054067 1.512882
    22 4.972048 0.000000 0.000001 0.696644 0.250011 -1.462204
    23 11.585355 0.000000 0.000000 0.000000 0.000000 -0.532575
    24 10.127057 0.000000 0.000001 2.168870 0.289773 0.489419
    25 2.683750 -0.427338 0.044205 0.001045 0.043611 0.000046
    26 1.438885 -0.000001 0.000000 0.000000 0.000000 0.767762
    27 1.485305 0.000001 0.000000 0.000000 0.000000 1.221689
    28 1.646738 0.449549 -1.702246 0.154002 0.442277 0.277235
    29 0.928312 0.000000 -0.000002 0.000000 0.000000 0.000000
    30 0.928314 0.000000 0.000001 0.000000 0.000000 0.000000
    31 1.533672 0.109715 1.664491 -0.233255 -0.412980 0.435684
    32 0.928313 0.000000 0.000000 0.000000 0.000000 0.000000
    33 0.928314 0.000000 0.000001 0.000000 0.000000 0.000000
  time 1
    0 0.235347 0.039597 -13.284086 0.000000 0.270322 -1.570874
    1 -5.718925 0.246101 0.000000 -1.570795 -1.570796 0.000000
    2 -0.000005 0.000007 3.713255 2.894300 6.072421 1.568892
    3 18.045721 0.000000 0.000000 0.000000 0.000000 -1.747828
    4 17.597597 0.000000 0.000000 -0.164041 0.190008 0.418361
    5 0.000005 -0.000003 -3.713255 0.312309 -3.345077 -0.923047
    6 18.045725 0.000000 0.000000 0.000000 0.000000 -1.991626
    7 17.597597 0.000000 0.000000 0.131060 -0.129342 1.059251
    8 1.293670 0.684478 -0.000001 -0.000004 -0.000001 0.436901
    9 5.309685 -0.003834 0.000000 -0.033116 0.010942 0.318388
    10 4.826790 -0.004591 0.000000 -0.143101 0.038926 0.263057
    11 5.792767 -0.005304 0.000000 0.000000 0.000000 0.173871
    12 6.662317 -0.001453 0.000000 0.000000 -0.000001 0.471000
    13 2.046985 -0.000002 0.000000 0.167032 -0.071913 -0.569159
    14 -3.112024 1.517254 4.341911 0.994861 -1.214471 1.704914
    15 4.827230 0.000000 0.000001 -0.068430 -0.372869 -1.435270
    16 11.139763 0.000000 0.000000 0.000000 0.000000 -0.325022
    17 10.314597 0.000001 0.000000 -2.966205 0.000000 -0.069778
    18 2.975834 -0.386307 -0.044143 -0.012063 -0.041921 0.262037
    19 1.438886 0.000000 0.000000 0.000000 0.000000 0.924863
    20 1.485303 0.000000 0.000000 0.000000 0.000000 0.540993
    21 -2.869898 1.399663 -4.140396 -0.414569 1.352847 2.263952
    22 4.972048 0.000000 0.000001 0.722790 0.115916 -1.829839
    23 11.585355 0.000000 0.000000 0.000000 0.000000 -0.532575
    24 10.127057 0.000000 0.000001 2.168870 0.289773 0.489419
    25 2.683750 -0.427338 0.044205 0.001045 0.043611 0.000046
    26 1.438885 -0.000001 0.000000 0.000000 0.000000 0.767762
    27 1.485305 0.000001 0.000000 0.000000 0.000000 1.221689
    28 1.646738 0.449549 -1.702246 0.154002 0.442277 0.277235
    29 0.928312 0.000000 -0.000002 0.000000 0.000000 0.000000
    30 0.928314 0.000000 0.000001 0.000000 0.000000 0.000000
    31 1.533672 0.109715 1.664491 -0.233255 -0.412980 0.435684
    32 0.928313 0.000000 0.000000 0.000000 0.000000 0.000000
    33 0.928314 0.000000 0.000001 0.000000 0.000000 0.000000
  time 2
    0 0.235347 0.039597 -13.245022 0.000000 0.270322 -1.570874
    1 -5.570482 0.210944 0.000000 -1.570795 -1.570796 0.000000
    2 -0.000005 0.000007 3.713255 -0.245524 3.353596 -1.569662
    3 18.045721 0.000000 0.000000 0.000000 0.000000 -1.752726
    4 17.597597 0.000000 0.000000 -0.162672 0.187306 0.426047
    5 0.000005 -0.000003 -3.713255 0.313074 -3.342971 -0.914563
    6 18.045725 0.000000 0.000000 0.000000 0.000000 -1.988800
    7 17.597597 0.000000 0.000000 0.131109 -0.128257 1.064917
    8 1.293670 0.684478 -0.000001 -0.000004 -0.000001 0.436901
    9 5.309685 -0.003834 0.000000 -0.033324 0.010307 0.299337
    10 4.826790 -0.004591 0.000000 -0.144710 0.032406 0.218033
    11 5.792767 -0.005304 0.000000 0.000000 0.000000 0.147191
    12 6.662317 -0.001453 0.000000 0.000000 -0.000001 0.471000
    13 2.046985 -0.000002 0.000000 0.160742 -0.085512 -0.411438
    14 -3.112024 1.517254 4.341911 1.086995 -1.159811 1.619488
    15 4.827230 0.000000 0.000001 -0.151072 -0.262153 -1.115329
    16 11.139763 0.000000 0.000000 0.000000 0.000000 -0.854546
    17 10.314597 0.000001 0.000000 -2.966205 0.000000 -0.069778
    18 2.975834 -0.386307 -0.044143 -0.012063 -0.041921 0.262037
    19 1.438886 0.000000 0.000000 0.000000 0.000000 0.924863
    20 1.485303 0.000000 0.000000 0.000000 0.000000 0.540993
    21 -2.869898 1.399663 -4.140396 -0.613793 1.327720 2.069905
    22 4.972048 0.000000 0.000001 0.737874 -0.085589 -1.652839
    23 11.585355 0.000000 0.000000 0.000000 0.000000 -0.871306
    24 10.127057 0.000000 0.000001 2.168870 0.289773 0.489419
    25 2.683750 -0.427338 0.044205 0.001045 0.043611 0.000046
    26 1.438885 -0.000001 0.000000 0.000000 0.000000 0.767762
    27 1.485305 0.000001 0.000000 0.000000 0.000000 1.221689
    28 1.646738 0.449549 -1.702246 0.154002 0.442277 0.277235
    29 0.928312 0.000000 -0.000002 0.000000 0.000000 0.000000
    30 0.928314 0.000000 0.000001 0.000000 0.000000 0.000000
    31 1.533672 0.109715 1.664491 -0.233255 -0.412980 0.435684
    32 0.928313 0.000000 0.000000 0.000000 0.000000 0.000000
    33 0.928314 0.000000 0.000001 0.000000 0.000000 0.000000
  time 3
    0 0.235347 0.039597 -13.217678 0.000000 0.270322 -1.570874
    1 -5.468917 0.191412 0.000000 -1.570795 -1.570796 0.000000
    2 -0.000005 0.000007 3.713255 -0.244470 3.354361 -1.567621
    3 18.045721 0.000000 0.000000 0.000000 0.000000 -1.755991
    4 17.597597 0.000000 0.000000 -0.161760 0.185529 0.431217
    5 0.000005 -0.000003 -3.713255 0.313553 -3.341631 -0.908890
    6 18.045725 0.000000 0.000000 0.000000 0.000000 -1.986844
    7 17.597597 0.000000 0.000000 0.131158 -0.127468 1.068695
    8 1.293670 0.684478 -0.000001 -0.000004 -0.000001 0.436901
    9 5.309685 -0.003834 0.000000 -0.033446 0.009923 0.287657
    10 4.826790 -0.004591 0.000000 -0.145564 0.028284 0.189810
    11 5.792767 -0.005304 0.000000 0.000000 0.000000 0.130830
    12 6.662317 -0.001453 0.000000 0.000000 -0.000001 0.471000
    13 2.046985 -0.000002 0.000000 0.157899 -0.090825 -0.331431
    14 -3.112024 1.517254 4.341911 1.196770 -1.064262 1.520928
    15 4.827230 0.000000 0.000001 -0.160587 -0.230155 -0.997189
    16 11.139763 0.000000 0.000000 0.000000 0.000000 -0.818314
    17 10.314597 0.000001 0.000000 -2.966205 0.000000 -0.069778
    18 2.975834 -0.386307 -0.044143 -0.012063 -0.041921 0.262037
    19 1.438886 0.000000 0.000000 0.000000 0.000000 0.924863
    20 1.485303 0.000000 0.000000 0.000000 0.000000 0.540993
    21 -2.869898 1.399663 -4.140396 -0.856256 1.270768 1.836262
    22 4.972048 0.000000 0.000001 0.751101 -0.101275 -1.575571
    23 11.585355 0.000000 0.000000 0.000000 0.000000 -0.814151
    24 10.127057 0.000000 0.000001 2.168870 0.289773 0.489419
    25 2.683750 -0.427338 0.044205 0.001045 0.043611 0.000046
    26 1.438885 -0.000001 0.000000 0.000000 0.000000 0.767762
    27 1.485305 0.000001 0.000000 0.000000 0.000000 1.221689
    28 1.646738 0.449549 -1.702246 0.154002 0.442277 0.277235
    29 0.928312 0.000000 -0.000002 0.000000 0.000000 0.000000
    30 0.928314 0.000000 0.000001 0.000000 0.000000 0.000000
    31 1.533672 0.109715 1.664491 -0.233255 -0.412980 0.435684
    32 0.928313 0.000000 0.000000 0.000000 0.000000 0.000000
    33 0.928314 0.000000 0.000001 0.000000 0.000000 0.000000
  time 4
    0 0.235347 0.039597 -13.237210 0.000000 0.270322 -1.570874
    1 -5.539232 0.203131 0.000000 -1.570795 -1.570796 0.000000
    2 -0.000005 0.000007 3.713255 -0.245141 3.353787 -1.569079
    3 18.045721 0.000000 0.000000 0.000000 0.000000 -1.753690
    4 17.597597 0.000000 0.000000 -0.162393 0.186746 0.427557
    5 0.000005 -0.000003 -3.713255 0.313266 -3.342588 -0.912866
    6 18.045725 0.000000 0.000000 0.000000 0.000000 -1.988221
    7 17.597597 0.000000 0.000000 0.131126 -0.128060 1.066051
    8 1.293670 0.684478 -0.000001 -0.000004 -0.000001 0.436901
    9 5.309685 -0.003834 0.000000 -0.033349 0.010223 0.296531
    10 4.826790 -0.004591 0.000000 -0.145038 0.030896 0.207604
    11 5.792767 -0.005304 0.000000 0.000000 0.000000 0.143266
    12 6.662317 -0.001453 0.000000 0.000000 -0.000001 0.471000
    13 2.046985 -0.000002 0.000000 0.161906 -0.083305 -0.410089
    14 -3.112024 1.517254 4.341911 1.270688 -0.969712 1.457937
    15 4.827230 0.000000 0.000001 -0.172099 -0.294661 -0.918254
    16 11.139763 0.000000 0.000000 0.000000 0.000000 -0.734359
    17 10.314597 0.000001 0.000000 -2.966205 0.000000 -0.069778
    18 2.975834 -0.386307 -0.044143 -0.012063 -0.041921 0.262037
    19 1.438886 0.000000 0.000000 0.000000 0.000000 0.924863
    20 1.485303 0.000000 0.000000 0.000000 0.000000 0.540993
    21 -2.869898 1.399663 -4.140396 -1.011379 1.205930 1.689481
    22 4.972048 0.000000 0.000001 0.746383 -0.014398 -1.529855
    23 11.585355 0.000000 0.000000 0.000000 0.000000 -0.726146
    24 10.127057 0.000000 0.000001 2.168870 0.289773 0.489419
    25 2.683750 -0.427338 0.044205 0.001045 0.043611 0.000046
    26 1.438885 -0.000001 0.000000 0.000000 0.000000 0.767762
    27 1.485305 0.000001 0.000000 0.000000 0.000000 1.221689
    28 1.646738 0.449549 -1.702246 0.154002 0.442277 0.277235
    29 0.928312 0.000000 -0.000002 0.000000 0.000000 0.000000
    30 0.928314 0.000000 0.000001 0.000000 0.000000 0.000000
    31 1.533672 0.109715 1.664491 -0.233255 -0.412980 0.435684
    32 0.928313 0.000000 0.000000 0.000000 0.000000 0.000000
    33 0.928314 0.000000 0.000001 0.000000 0.000000 0.000000
  time 5
    0 0.235347 0.039597 -13.260648 0.000000 0.270322 -1.570874
    1 -5.629078 0.222663 0.000000 -1.570795 -1.570796 0.000000
    2 -0.000005 0.000007 3.713255 2.895355 6.071560 1.570642
    3 18.045721 0.000000 0.000000 0.000000 0.000000 -1.750796
    4 17.597597 0.000000 0.000000 -0.163179 0.188329 0.422982
    5 0.000005 -0.000003 -3.713255 0.312883 -3.343736 -0.917908
    6 18.045725 0.000000 0.000000 0.000000 0.000000 -1.989887
    7 17.597597 0.000000 0.000000 0.131076 -0.128770 1.062685
    8 1.293670 0.684478 -0.000001 -0.000004 -0.000001 0.436901
    9 5.309685 -0.003834 0.000000 -0.033238 0.010594 0.307794
    10 4.826790 -0.004591 0.000000 -0.144234 0.034504 0.232409
    11 5.792767 -0.005304 0.000000 0.000000 0.000000 0.159046
    12 6.662317 -0.001453 0.000000 0.000000 -0.000001 0.471000
    13 2.046985 -0.000002 0.000000 0.165740 -0.075042 -0.502951
    14 -3.112024 1.517254 4.341911 1.320542 -0.884856 1.418053
    15 4.827230 0.000000 0.000001 -0.181556 -0.368529 -0.852183
    16 11.139763 0.000000 0.000000 0.000000 0.000000 -0.655449
    17 10.314597 0.000001 0.000000 -2.966205 0.000000 -0.069778
    18 2.975834 -0.386307 -0.044143 -0.012063 -0.041921 0.262037
    19 1.438886 0.000000 0.000000 0.000000 0.000000 0.924863
    20 1.485303 0.000000 0.000000 0.000000 0.000000 0.540993
    21 -2.869898 1.399663 -4.140396 -1.108690 1.144060 1.599647
    22 4.972048 0.000000 0.000001 0.735012 0.079315 -1.495009
    23 11.585355 0.000000 0.000000 0.000000 0.000000 -0.645276
    24 10.127057 0.000000 0.000001 2.168870 0.289773 0.489419
    25 2.683750 -0.427338 0.044205 0.001045 0.043611 0.000046
    26 1.438885 -0.000001 0.000000 0.000000 0.000000 0.767762
    27 1.485305 0.000001 0.000000 0.000000 0.000000 1.221689
    28 1.646738 0.449549 -1.702246 0.154002 0.442277 0.277235
    29 0.928312 0.000000 -0.000002 0.000000 0.000000 0.000000
    30 0.928314 0.000000 0.000001 0.000000 0.000000 0.000000
    31 1.533672 0.109715 1.664491 -0.233255 -0.412980 0.435684
    32 0.928313 0.000000 0.000000 0.000000 0.000000 0.000000
    33 0.928314 0.000000 0.000001 0.000000 0.000000 0.000000
  time 6
    0 0.235347 0.039597 -13.291899 0.000000 0.270322 -1.570874
    1 -5.734550 0.246101 0.000000 -1.570795 -1.570796 0.000000
    2 -0.000005 0.000007 3.713255 2.894109 6.072516 1.568504
    3 18.045721 0.000000 0.000000 0.000000 0.000000 -1.747234
    4 17.597597 0.000000 0.000000 -0.164193 0.190300 0.417446
    5 0.000005 -0.000003 -3.713255 0.312213 -3.345268 -0.924066
    6 18.045725 0.000000 0.000000 0.000000 0.000000 -1.991988
    7 17.597597 0.000000 0.000000 0.131043 -0.129500 1.058530
    8 1.293670 0.684478 -0.000001 -0.000004 -0.000001 0.436901
    9 5.309685 -0.003834 0.000000 -0.033091 0.011050 0.321376
    10 4.826790 -0.004591 0.000000 -0.142920 0.039573 0.267511
    11 5.792767 -0.005304 0.000000 0.000000 0.000000 0.178065
    12 6.662317 -0.001453 0.000000 0.000000 -0.000001 0.471000
    13 2.046985 -0.000002 0.000000 0.168842 -0.067365 -0.605162
    14 -3.112024 1.517254 4.341911 1.354289 -0.814348 1.392741
    15 4.827230 0.000000 0.000001 -0.188369 -0.453970 -0.800464
    16 11.139763 0.000000 0.000000 0.000000 0.000000 -0.589994
    17 10.314597 0.000001 0.000000 -2.966205 0.000000 -0.069778
    18 2.975834 -0.386307 -0.044143 -0.012063 -0.041921 0.262037
    19 1.438886 0.000000 0.000000 0.000000 0.000000 0.924863
    20 1.485303 0.000000 0.000000 0.000000 0.000000 0.540993
    21 -2.869898 1.399663 -4.140396 -1.170433 1.091150 1.544137
    22 4.972048 0.000000 0.000001 0.714667 0.179304 -1.473930
    23 11.585355 0.000000 0.000000 0.000000 0.000000 -0.578467
    24 10.127057 0.000000 0.000001 2.168870 0.289773 0.489419
    25 2.683750 -0.427338 0.044205 0.001045 0.043611 0.000046
    26 1.438885 -0.000001 0.000000 0.000000 0.000000 0.767762
    27 1.485305 0.000001 0.000000 0.000000 0.000000 1.221689
    28 1.646738 0.449549 -1.702246 0.154002 0.442277 0.277235
    29 0.928312 0.000000 -0.000002 0.000000 0.000000 0.000000
    30 0.928314 0.000000 0.000001 0.000000 0.000000 0.000000
    31 1.533672 0.109715 1.664491 -0.233255 -0.412980 0.435684
    32 0.928313 0.000000 0.000000 0.000000 0.000000 0.000000
    33 0.928314 0.000000 0.000001 0.000000 0.000000 0.000000
  time 7
    0 0.235347 0.039597 -13.307524 0.000000 0.270322 -1.570874
    1 -5.808771 0.265633 0.000000 -1.570795 -1.570796 0.000000
    2 -0.000005 0.000007 3.713255 2.893246 6.073186 1.567094
    3 18.045721 0.000000 0.000000 0.000000 0.000000 -1.744785
    4 17.597597 0.000000 0.000000 -0.164903 0.191688 0.413694
    5 0.000005 -0.000003 -3.713255 0.311735 -3.346321 -0.928284
    6 18.045725 0.000000 0.000000 0.000000 0.000000 -1.993364
    7 17.597597 0.000000 0.000000 0.131027 -0.129934 1.055714
    8 1.293670 0.684478 -0.000001 -0.000004 -0.000001 0.436901
    9 5.309685 -0.003834 0.000000 -0.032981 0.011373 0.331245
    10 4.826790 -0.004591 0.000000 -0.141853 0.043288 0.293463
    11 5.792767 -0.005304 0.000000 0.000000 0.000000 0.191872
    12 6.662317 -0.001453 0.000000 0.000000 -0.000001 0.471000
    13 2.046985 -0.000002 0.000000 0.170824 -0.061939 -0.678517
    14 -3.112024 1.517254 4.341911 1.374615 -0.765689 1.378264
    15 4.827230 0.000000 0.000001 -0.191776 -0.515498 -0.765022
    16 11.139763 0.000000 0.000000 0.000000 0.000000 -0.545003
    17 10.314597 0.000001 0.000000 -2.966205 0.000000 -0.069778
    18 2.975834 -0.386307 -0.044143 -0.012063 -0.041921 0.262037
    19 1.438886 0.000000 0.000000 0.000000 0.000000 0.924863
    20 1.485303 0.000000 0.000000 0.000000 0.000000 0.540993
    21 -2.869898 1.399663 -4.140396 -1.206002 1.054067 1.512882
    22 4.972048 0.000000 0.000001 0.696644 0.250011 -1.462204
    23 11.585355 0.000000 0.000000 0.000000 0.000000 -0.532575
    24 10.127057 0.000000 0.000001 2.168870 0.289773 0.489419
    25 2.683750 -0.427338 0.044205 0.001045 0.043611 0.000046
    26 1.438885 -0.000001 0.000000 0.000000 0.000000 0.767762
    27 1.485305 0.000001 0.000000 0.000000 0.000000 1.221689
    28 1.646738 0.449549 -1.702246 0.154002 0.442277 0.277235
    29 0.928312 0.000000 -0.000002 0.000000 0.000000 0.000000
    30 0.928314 0.000000 0.000001 0.000000 0.000000 0.000000
    31 1.533672 0.109715 1.664491 -0.233255 -0.412980 0.435684
    32 0.928313 0.000000 0.000000 0.000000 0.000000 0.000000
    33 0.928314 0.000000 0.000001 0.000000 0.000000 0.000000
end
