version 1
nodes
  0 "Bip01" -1
  1 "Bip01 Pelvis" 0
  2 "Bip01 L Leg" 1
  3 "Bip01 L Leg1" 2
  4 "Bip01 L Foot" 3
  5 "Bip01 R Leg" 1
  6 "Bip01 R Leg1" 5
  7 "Bip01 R Foot" 6
  8 "Bip01 Spine" 1
  9 "Bip01 Spine1" 8
  10 "Bip01 Spine2" 9
  11 "Bip01 Spine3" 10
  12 "Bip01 Neck" 11
  13 "Bip01 Head" 12
  14 "Bip01 L Arm" 12
  15 "Bip01 L Arm1" 14
  16 "Bip01 L Arm2" 15
  17 "Bip01 L Hand" 16
  18 "Bip01 L Finger1" 17
  19 "Bip01 L Finger11" 18
  20 "Bip01 L Finger12" 19
  21 "Bip01 R Arm" 12
  22 "Bip01 R Arm1" 21
  23 "Bip01 R Arm2" 22
  24 "Bip01 R Hand" 23
  25 "Bip01 R Finger1" 24
  26 "Bip01 R Finger11" 25
  27 "Bip01 R Finger12" 26
  28 "Bip01 L Finger0" 17
  29 "Bip01 L Finger01" 28
  30 "Bip01 L Finger02" 29
  31 "Bip01 R Finger0" 24
  32 "Bip01 R Finger01" 31
  33 "Bip01 R Finger02" 32
end
skeleton
  time 0
    0 0.235347 0.367732 -14.608345 0.000000 0.270322 -1.570874
    1 0.000000 0.000000 0.000000 -1.570795 -1.570796 0.000000
    2 -0.000005 0.000007 3.713255 2.914525 6.061903 1.331528
    3 18.045721 0.000000 0.000000 0.000000 0.000000 -1.349242
    4 17.597597 0.000000 0.000000 -0.205057 0.225938 -0.216505
    5 0.000005 -0.000003 -3.713255 -0.067002 -3.740518 -0.837425
    6 18.045725 0.000000 0.000000 0.000000 0.000000 -2.074647
    7 17.597597 0.000000 0.000000 -0.092081 0.087821 0.559948
    8 1.293670 0.684478 -0.000001 -0.000004 -0.000001 0.079297
    9 5.309685 -0.003834 0.000000 -0.268710 0.030429 0.109266
    10 4.826790 -0.004591 0.000000 -0.270225 -0.009096 -0.033656
    11 5.792767 -0.005304 0.000000 -0.139218 -0.009588 -0.069095
    12 6.662317 -0.001453 0.000000 0.000000 -0.000001 0.471000
    13 2.046985 -0.000002 0.000000 0.375295 0.579063 -1.241577
    14 -3.112024 1.517254 4.341911 2.426343 -0.917552 0.132067
    15 4.827230 0.000000 0.000001 -1.604209 -0.487925 -1.247209
    16 11.139763 0.000000 0.000000 0.000000 0.000000 -1.137528
    17 10.314597 0.000001 0.000000 -0.655375 0.368141 -0.269531
    18 2.975834 -0.386307 -0.044143 -0.019493 -0.039033 0.445214
    19 1.438886 0.000000 0.000000 0.000000 0.000000 0.505855
    20 1.485303 0.000000 0.000000 0.000000 0.000000 0.532034
    21 -2.869898 1.399663 -4.140396 -0.000013 1.370795 2.669783
    22 4.972048 0.000000 0.000001 1.139732 -0.164823 -1.868177
    23 11.585355 0.000000 0.000000 0.000000 0.000000 -2.024615
    24 10.127057 0.000000 0.000001 1.969610 0.138389 0.944277
    25 2.683750 -0.427338 0.044205 -0.005786 0.043239 -0.157091
    26 1.438885 -0.000001 0.000000 0.000000 0.000000 0.732658
    27 1.485305 0.000001 0.000000 0.000000 0.000000 1.168770
    28 1.646738 0.449549 -1.702246 -0.391617 1.092980 -0.290137
    29 0.928312 0.000000 -0.000002 0.000000 0.000000 0.000000
    30 0.928314 0.000000 0.000001 0.000000 0.000000 0.000000
    31 1.533672 0.109715 1.664491 -0.264755 -0.055959 0.783109
    32 0.928313 0.000000 0.000000 0.000000 0.000000 -0.453556
    33 0.928314 0.000000 0.000001 0.000000 0.000000 0.000000
  time 1
    0 0.235347 0.367732 -14.608345 0.000000 0.270322 -1.570874
    1 0.000000 0.000000 0.000000 -1.570795 -1.570796 0.000000
    2 -0.000005 0.000007 3.713255 2.914525 6.061903 1.331528
    3 18.045721 0.000000 0.000000 0.000000 0.000000 -1.349242
    4 17.597597 0.000000 0.000000 -0.205057 0.225938 -0.216505
    5 0.000005 -0.000003 -3.713255 -0.067002 -3.740518 -0.837425
    6 18.045725 0.000000 0.000000 0.000000 0.000000 -2.074647
    7 17.597597 0.000000 0.000000 -0.092081 0.087821 0.559948
    8 1.293670 0.684478 -0.000001 -0.000004 -0.000001 0.079297
    9 5.309685 -0.003834 0.000000 -0.315158 0.023058 0.069824
    10 4.826790 -0.004591 0.000000 -0.340108 0.017270 -0.043093
    11 5.792767 -0.005304 0.000000 -0.139218 -0.009588 -0.069095
    12 6.662317 -0.001453 0.000000 0.000000 -0.000001 0.471000
    13 2.046985 -0.000002 0.000000 0.514970 0.626974 -1.129972
    14 -3.112024 1.517254 4.341911 2.426343 -0.917552 0.132067
    15 4.827230 0.000000 0.000001 -1.571434 -0.348786 -1.202753
    16 11.139763 0.000000 0.000000 0.000000 0.000000 -1.297380
    17 10.314597 0.000001 0.000000 -0.753794 0.394188 -0.244968
    18 2.975834 -0.386307 -0.044143 -0.013656 -0.041430 0.300377
    19 1.438886 0.000000 0.000000 0.000000 0.000000 0.488841
    20 1.485303 0.000000 0.000000 0.000000 0.000000 0.532034
    21 -2.869898 1.399663 -4.140396 -0.000013 1.370795 2.669783
    22 4.972048 0.000000 0.000001 1.216932 -0.236496 -1.862050
    23 11.585355 0.000000 0.000000 0.000000 0.000000 -2.086877
    24 10.127057 0.000000 0.000001 2.038727 -0.022307 0.953495
    25 2.683750 -0.427338 0.044205 -0.005786 0.043239 -0.157091
    26 1.438885 -0.000001 0.000000 0.000000 0.000000 0.732658
    27 1.485305 0.000001 0.000000 0.000000 0.000000 1.168770
    28 1.646738 0.449549 -1.702246 -0.391617 1.092980 -0.290137
    29 0.928312 0.000000 -0.000002 0.000000 0.000000 0.000000
    30 0.928314 0.000000 0.000001 0.000000 0.000000 0.000000
    31 1.533672 0.109715 1.664491 -0.264755 -0.055959 0.783109
    32 0.928313 0.000000 0.000000 0.000000 0.000000 -0.453556
    33 0.928314 0.000000 0.000001 0.000000 0.000000 0.000000
  time 2
    0 0.235347 0.367732 -14.608345 0.000000 0.270322 -1.570874
    1 0.000000 0.000000 0.000000 -1.570795 -1.570796 0.000000
    2 -0.000005 0.000007 3.713255 2.914525 6.061903 1.331528
    3 18.045721 0.000000 0.000000 0.000000 0.000000 -1.349242
    4 17.597597 0.000000 0.000000 -0.205057 0.225938 -0.216505
    5 0.000005 -0.000003 -3.713255 -0.067002 -3.740518 -0.837425
    6 18.045725 0.000000 0.000000 0.000000 0.000000 -2.074647
    7 17.597597 0.000000 0.000000 -0.092081 0.087821 0.559948
    8 1.293670 0.684478 -0.000001 -0.000004 -0.000001 0.079297
    9 5.309685 -0.003834 0.000000 -0.375037 0.009492 0.023320
    10 4.826790 -0.004591 0.000000 -0.431256 0.049209 -0.060974
    11 5.792767 -0.005304 0.000000 -0.139218 -0.009588 -0.069095
    12 6.662317 -0.001453 0.000000 0.000000 -0.000001 0.471000
    13 2.046985 -0.000002 0.000000 0.709705 0.667299 -0.969104
    14 -3.112024 1.517254 4.341911 2.426343 -0.917552 0.132067
    15 4.827230 0.000000 0.000001 -1.538952 -0.157309 -1.143070
    16 11.139763 0.000000 0.000000 0.000000 0.000000 -1.508601
    17 10.314597 0.000001 0.000000 -0.885919 0.432237 -0.216330
    18 2.975834 -0.386307 -0.044143 -0.005435 -0.043287 0.106896
    19 1.438886 0.000000 0.000000 0.000000 0.000000 0.466113
    20 1.485303 0.000000 0.000000 0.000000 0.000000 0.532034
    21 -2.869898 1.399663 -4.140396 -0.000013 1.370795 2.669783
    22 4.972048 0.000000 0.000001 1.302254 -0.340989 -1.849798
    23 11.585355 0.000000 0.000000 0.000000 0.000000 -2.162780
    24 10.127057 0.000000 0.000001 2.117590 -0.232382 0.953809
    25 2.683750 -0.427338 0.044205 -0.005786 0.043239 -0.157091
    26 1.438885 -0.000001 0.000000 0.000000 0.000000 0.732658
    27 1.485305 0.000001 0.000000 0.000000 0.000000 1.168770
    28 1.646738 0.449549 -1.702246 -0.391617 1.092980 -0.290137
    29 0.928312 0.000000 -0.000002 0.000000 0.000000 0.000000
    30 0.928314 0.000000 0.000001 0.000000 0.000000 0.000000
    31 1.533672 0.109715 1.664491 -0.264755 -0.055959 0.783109
    32 0.928313 0.000000 0.000000 0.000000 0.000000 -0.453556
    33 0.928314 0.000000 0.000001 0.000000 0.000000 0.000000
  time 3
    0 0.235347 0.367732 -14.608345 0.000000 0.270322 -1.570874
    1 0.000000 0.000000 0.000000 -1.570795 -1.570796 0.000000
    2 -0.000005 0.000007 3.713255 2.914525 6.061903 1.331528
    3 18.045721 0.000000 0.000000 0.000000 0.000000 -1.349242
    4 17.597597 0.000000 0.000000 -0.205057 0.225938 -0.216505
    5 0.000005 -0.000003 -3.713255 -0.067002 -3.740518 -0.837425
    6 18.045725 0.000000 0.000000 0.000000 0.000000 -2.074647
    7 17.597597 0.000000 0.000000 -0.092081 0.087821 0.559948
    8 1.293670 0.684478 -0.000001 -0.000004 -0.000001 0.079297
    9 5.309685 -0.003834 0.000000 -0.401162 0.007119 0.015986
    10 4.826790 -0.004591 0.000000 -0.471617 0.062260 -0.070786
    11 5.792767 -0.005304 0.000000 -0.139218 -0.009588 -0.069095
    12 6.662317 -0.001453 0.000000 0.000000 -0.000001 0.471000
    13 2.046985 -0.000002 0.000000 0.795095 0.683194 -0.906627
    14 -3.112024 1.517254 4.341911 2.426343 -0.917552 0.132067
    15 4.827230 0.000000 0.000001 -1.531082 -0.054933 -1.102028
    16 11.139763 0.000000 0.000000 0.000000 0.000000 -1.616664
    17 10.314597 0.000001 0.000000 -0.959441 0.454653 -0.202750
    18 2.975834 -0.386307 -0.044143 -0.000797 -0.043611 0.000035
    19 1.438886 0.000000 0.000000 0.000000 0.000000 0.453542
    20 1.485303 0.000000 0.000000 0.000000 0.000000 0.532034
    21 -2.869898 1.399663 -4.140396 -0.000013 1.370795 2.669783
    22 4.972048 0.000000 0.000001 1.336909 -0.376302 -1.854277
    23 11.585355 0.000000 0.000000 0.000000 0.000000 -2.176771
    24 10.127057 0.000000 0.000001 2.110009 -0.328891 0.970048
    25 2.683750 -0.427338 0.044205 -0.005786 0.043239 -0.157091
    26 1.438885 -0.000001 0.000000 0.000000 0.000000 0.732658
    27 1.485305 0.000001 0.000000 0.000000 0.000000 1.168770
    28 1.646738 0.449549 -1.702246 -0.391617 1.092980 -0.290137
    29 0.928312 0.000000 -0.000002 0.000000 0.000000 0.000000
    30 0.928314 0.000000 0.000001 0.000000 0.000000 0.000000
    31 1.533672 0.109715 1.664491 -0.264755 -0.055959 0.783109
    32 0.928313 0.000000 0.000000 0.000000 0.000000 -0.453556
    33 0.928314 0.000000 0.000001 0.000000 0.000000 0.000000
  time 4
    0 0.235347 0.367732 -14.608345 0.000000 0.270322 -1.570874
    1 0.000000 0.000000 0.000000 -1.570795 -1.570796 0.000000
    2 -0.000005 0.000007 3.713255 2.914525 6.061903 1.331528
    3 18.045721 0.000000 0.000000 0.000000 0.000000 -1.349242
    4 17.597597 0.000000 0.000000 -0.205057 0.225938 -0.216505
    5 0.000005 -0.000003 -3.713255 -0.067002 -3.740518 -0.837425
    6 18.045725 0.000000 0.000000 0.000000 0.000000 -2.074647
    7 17.597597 0.000000 0.000000 -0.092081 0.087821 0.559948
    8 1.293670 0.684478 -0.000001 -0.000004 -0.000001 0.079297
    9 5.309685 -0.003834 0.000000 -0.398738 0.018277 0.042570
    10 4.826790 -0.004591 0.000000 -0.468382 0.061241 -0.069948
    11 5.792767 -0.005304 0.000000 -0.139218 -0.009588 -0.069095
    12 6.662317 -0.001453 0.000000 0.000000 -0.000001 0.471000
    13 2.046985 -0.000002 0.000000 0.779672 0.696861 -0.940292
    14 -3.112024 1.517254 4.341911 2.426343 -0.917552 0.132067
    15 4.827230 0.000000 0.000001 -1.539187 -0.030339 -1.072711
    16 11.139763 0.000000 0.000000 0.000000 0.000000 -1.638949
    17 10.314597 0.000001 0.000000 -0.959441 0.454653 -0.202750
    18 2.975834 -0.386307 -0.044143 -0.000797 -0.043611 0.000035
    19 1.438886 0.000000 0.000000 0.000000 0.000000 0.453542
    20 1.485303 0.000000 0.000000 0.000000 0.000000 0.532034
    21 -2.869898 1.399663 -4.140396 -0.000013 1.370795 2.669783
    22 4.972048 0.000000 0.000001 1.339693 -0.341069 -1.880363
    23 11.585355 0.000000 0.000000 0.000000 0.000000 -2.135357
    24 10.127057 0.000000 0.000001 2.020253 -0.327348 1.013510
    25 2.683750 -0.427338 0.044205 -0.005786 0.043239 -0.157091
    26 1.438885 -0.000001 0.000000 0.000000 0.000000 0.732658
    27 1.485305 0.000001 0.000000 0.000000 0.000000 1.168770
    28 1.646738 0.449549 -1.702246 -0.391617 1.092980 -0.290137
    29 0.928312 0.000000 -0.000002 0.000000 0.000000 0.000000
    30 0.928314 0.000000 0.000001 0.000000 0.000000 0.000000
    31 1.533672 0.109715 1.664491 -0.264755 -0.055959 0.783109
    32 0.928313 0.000000 0.000000 0.000000 0.000000 -0.453556
    33 0.928314 0.000000 0.000001 0.000000 0.000000 0.000000
  time 5
    0 0.235347 0.367732 -14.608345 0.000000 0.270322 -1.570874
    1 0.000000 0.000000 0.000000 -1.570795 -1.570796 0.000000
    2 -0.000005 0.000007 3.713255 2.914525 6.061903 1.331528
    3 18.045721 0.000000 0.000000 0.000000 0.000000 -1.349242
    4 17.597597 0.000000 0.000000 -0.205057 0.225938 -0.216505
    5 0.000005 -0.000003 -3.713255 -0.067002 -3.740518 -0.837425
    6 18.045725 0.000000 0.000000 0.000000 0.000000 -2.074647
    7 17.597597 0.000000 0.000000 -0.092081 0.087821 0.559948
    8 1.293670 0.684478 -0.000001 -0.000004 -0.000001 0.079297
    9 5.309685 -0.003834 0.000000 -0.385859 0.034432 0.083732
    10 4.826790 -0.004591 0.000000 -0.450073 0.055381 -0.065406
    11 5.792767 -0.005304 0.000000 -0.139218 -0.009588 -0.069095
    12 6.662317 -0.001453 0.000000 0.000000 -0.000001 0.471000
    13 2.046985 -0.000002 0.000000 0.726378 0.709469 -1.012209
    14 -3.112024 1.517254 4.341911 2.426343 -0.917552 0.132067
    15 4.827230 0.000000 0.000001 -1.554929 -0.029658 -1.044970
    16 11.139763 0.000000 0.000000 0.000000 0.000000 -1.634674
    17 10.314597 0.000001 0.000000 -0.959441 0.454653 -0.202750
    18 2.975834 -0.386307 -0.044143 -0.000797 -0.043611 0.000035
    19 1.438886 0.000000 0.000000 0.000000 0.000000 0.453542
    20 1.485303 0.000000 0.000000 0.000000 0.000000 0.532034
    21 -2.869898 1.399663 -4.140396 -0.000013 1.370795 2.669783
    22 4.972048 0.000000 0.000001 1.327549 -0.277601 -1.914090
    23 11.585355 0.000000 0.000000 0.000000 0.000000 -2.070857
    24 10.127057 0.000000 0.000001 1.896862 -0.287039 1.065719
    25 2.683750 -0.427338 0.044205 -0.005786 0.043239 -0.157091
    26 1.438885 -0.000001 0.000000 0.000000 0.000000 0.732658
    27 1.485305 0.000001 0.000000 0.000000 0.000000 1.168770
    28 1.646738 0.449549 -1.702246 -0.391617 1.092980 -0.290137
    29 0.928312 0.000000 -0.000002 0.000000 0.000000 0.000000
    30 0.928314 0.000000 0.000001 0.000000 0.000000 0.000000
    31 1.533672 0.109715 1.664491 -0.264755 -0.055959 0.783109
    32 0.928313 0.000000 0.000000 0.000000 0.000000 -0.453556
    33 0.928314 0.000000 0.000001 0.000000 0.000000 0.000000
  time 6
    0 0.235347 0.367732 -14.608345 0.000000 0.270322 -1.570874
    1 0.000000 0.000000 0.000000 -1.570795 -1.570796 0.000000
    2 -0.000005 0.000007 3.713255 2.914525 6.061903 1.331528
    3 18.045721 0.000000 0.000000 0.000000 0.000000 -1.349242
    4 17.597597 0.000000 0.000000 -0.205057 0.225938 -0.216505
    5 0.000005 -0.000003 -3.713255 -0.067002 -3.740518 -0.837425
    6 18.045725 0.000000 0.000000 0.000000 0.000000 -2.074647
    7 17.597597 0.000000 0.000000 -0.092081 0.087821 0.559948
    8 1.293670 0.684478 -0.000001 -0.000004 -0.000001 0.079297
    9 5.309685 -0.003834 0.000000 -0.368866 0.049616 0.126795
    10 4.826790 -0.004591 0.000000 -0.426445 0.047615 -0.059872
    11 5.792767 -0.005304 0.000000 -0.139218 -0.009588 -0.069095
    12 6.662317 -0.001453 0.000000 0.000000 -0.000001 0.471000
    13 2.046985 -0.000002 0.000000 0.659858 0.715683 -1.094463
    14 -3.112024 1.517254 4.341911 2.426343 -0.917552 0.132067
    15 4.827230 0.000000 0.000001 -1.574194 -0.041827 -1.023530
    16 11.139763 0.000000 0.000000 0.000000 0.000000 -1.616524
    17 10.314597 0.000001 0.000000 -0.959441 0.454653 -0.202750
    18 2.975834 -0.386307 -0.044143 -0.000797 -0.043611 0.000035
    19 1.438886 0.000000 0.000000 0.000000 0.000000 0.453542
    20 1.485303 0.000000 0.000000 0.000000 0.000000 0.532034
    21 -2.869898 1.399663 -4.140396 -0.000013 1.370795 2.669783
    22 4.972048 0.000000 0.000001 1.304265 -0.209629 -1.944589
    23 11.585355 0.000000 0.000000 0.000000 0.000000 -2.003978
    24 10.127057 0.000000 0.000001 1.778631 -0.228456 1.107651
    25 2.683750 -0.427338 0.044205 -0.005786 0.043239 -0.157091
    26 1.438885 -0.000001 0.000000 0.000000 0.000000 0.732658
    27 1.485305 0.000001 0.000000 0.000000 0.000000 1.168770
    28 1.646738 0.449549 -1.702246 -0.391617 1.092980 -0.290137
    29 0.928312 0.000000 -0.000002 0.000000 0.000000 0.000000
    30 0.928314 0.000000 0.000001 0.000000 0.000000 0.000000
    31 1.533672 0.109715 1.664491 -0.264755 -0.055959 0.783109
    32 0.928313 0.000000 0.000000 0.000000 0.000000 -0.453556
    33 0.928314 0.000000 0.000001 0.000000 0.000000 0.000000
  time 7
    0 0.235347 0.367732 -14.608345 0.000000 0.270322 -1.570874
    1 0.000000 0.000000 0.000000 -1.570795 -1.570796 0.000000
    2 -0.000005 0.000007 3.713255 2.914525 6.061903 1.331528
    3 18.045721 0.000000 0.000000 0.000000 0.000000 -1.349242
    4 17.597597 0.000000 0.000000 -0.205057 0.225938 -0.216505
    5 0.000005 -0.000003 -3.713255 -0.067002 -3.740518 -0.837425
    6 18.045725 0.000000 0.000000 0.000000 0.000000 -2.074647
    7 17.597597 0.000000 0.000000 -0.092081 0.087821 0.559948
    8 1.293670 0.684478 -0.000001 -0.000004 -0.000001 0.079297
    9 5.309685 -0.003834 0.000000 -0.350894 0.061721 0.166146
    10 4.826790 -0.004591 0.000000 -0.401782 0.039238 -0.054514
    11 5.792767 -0.005304 0.000000 -0.139218 -0.009588 -0.069095
    12 6.662317 -0.001453 0.000000 0.000000 -0.000001 0.471000
    13 2.046985 -0.000002 0.000000 0.592519 0.714603 -1.173436
    14 -3.112024 1.517254 4.341911 2.426343 -0.917552 0.132067
    15 4.827230 0.000000 0.000001 -1.594400 -0.061571 -1.009791
    16 11.139763 0.000000 0.000000 0.000000 0.000000 -1.590174
    17 10.314597 0.000001 0.000000 -0.959441 0.454653 -0.202750
    18 2.975834 -0.386307 -0.044143 -0.000797 -0.043611 0.000035
    19 1.438886 0.000000 0.000000 0.000000 0.000000 0.453542
    20 1.485303 0.000000 0.000000 0.000000 0.000000 0.532034
    21 -2.869898 1.399663 -4.140396 -0.000013 1.370795 2.669783
    22 4.972048 0.000000 0.000001 1.274329 -0.147689 -1.968896
    23 11.585355 0.000000 0.000000 0.000000 0.000000 -1.943535
    24 10.127057 0.000000 0.000001 1.679383 -0.164216 1.134520
    25 2.683750 -0.427338 0.044205 -0.005786 0.043239 -0.157091
    26 1.438885 -0.000001 0.000000 0.000000 0.000000 0.732658
    27 1.485305 0.000001 0.000000 0.000000 0.000000 1.168770
    28 1.646738 0.449549 -1.702246 -0.391617 1.092980 -0.290137
    29 0.928312 0.000000 -0.000002 0.000000 0.000000 0.000000
    30 0.928314 0.000000 0.000001 0.000000 0.000000 0.000000
    31 1.533672 0.109715 1.664491 -0.264755 -0.055959 0.783109
    32 0.928313 0.000000 0.000000 0.000000 0.000000 -0.453556
    33 0.928314 0.000000 0.000001 0.000000 0.000000 0.000000
  time 8
    0 0.235347 0.367732 -14.608345 0.000000 0.270322 -1.570874
    1 0.000000 0.000000 0.000000 -1.570795 -1.570796 0.000000
    2 -0.000005 0.000007 3.713255 2.914525 6.061903 1.331528
    3 18.045721 0.000000 0.000000 0.000000 0.000000 -1.349242
    4 17.597597 0.000000 0.000000 -0.205057 0.225938 -0.216505
    5 0.000005 -0.000003 -3.713255 -0.067002 -3.740518 -0.837425
    6 18.045725 0.000000 0.000000 0.000000 0.000000 -2.074647
    7 17.597597 0.000000 0.000000 -0.092081 0.087821 0.559948
    8 1.293670 0.684478 -0.000001 -0.000004 -0.000001 0.079297
    9 5.309685 -0.003834 0.000000 -0.333828 0.069918 0.197981
    10 4.826790 -0.004591 0.000000 -0.378285 0.031028 -0.049818
    11 5.792767 -0.005304 0.000000 -0.139218 -0.009588 -0.069095
    12 6.662317 -0.001453 0.000000 0.000000 -0.000001 0.471000
    13 2.046985 -0.000002 0.000000 0.531729 0.707150 -1.240543
    14 -3.112024 1.517254 4.341911 2.426343 -0.917552 0.132067
    15 4.827230 0.000000 0.000001 -1.613136 -0.087186 -1.004715
    16 11.139763 0.000000 0.000000 0.000000 0.000000 -1.557867
    17 10.314597 0.000001 0.000000 -0.959441 0.454653 -0.202750
    18 2.975834 -0.386307 -0.044143 -0.000797 -0.043611 0.000035
    19 1.438886 0.000000 0.000000 0.000000 0.000000 0.453542
    20 1.485303 0.000000 0.000000 0.000000 0.000000 0.532034
    21 -2.869898 1.399663 -4.140396 -0.000013 1.370795 2.669783
    22 4.972048 0.000000 0.000001 1.242459 -0.097574 -1.985693
    23 11.585355 0.000000 0.000000 0.000000 0.000000 -1.895055
    24 10.127057 0.000000 0.000001 1.606126 -0.102790 1.146210
    25 2.683750 -0.427338 0.044205 -0.005786 0.043239 -0.157091
    26 1.438885 -0.000001 0.000000 0.000000 0.000000 0.732658
    27 1.485305 0.000001 0.000000 0.000000 0.000000 1.168770
    28 1.646738 0.449549 -1.702246 -0.391617 1.092980 -0.290137
    29 0.928312 0.000000 -0.000002 0.000000 0.000000 0.000000
    30 0.928314 0.000000 0.000001 0.000000 0.000000 0.000000
    31 1.533672 0.109715 1.664491 -0.264755 -0.055959 0.783109
    32 0.928313 0.000000 0.000000 0.000000 0.000000 -0.453556
    33 0.928314 0.000000 0.000001 0.000000 0.000000 0.000000
  time 9
    0 0.235347 0.367732 -14.608345 0.000000 0.270322 -1.570874
    1 0.000000 0.000000 0.000000 -1.570795 -1.570796 0.000000
    2 -0.000005 0.000007 3.713255 2.914525 6.061903 1.331528
    3 18.045721 0.000000 0.000000 0.000000 0.000000 -1.349242
    4 17.597597 0.000000 0.000000 -0.205057 0.225938 -0.216505
    5 0.000005 -0.000003 -3.713255 -0.067002 -3.740518 -0.837425
    6 18.045725 0.000000 0.000000 0.000000 0.000000 -2.074647
    7 17.597597 0.000000 0.000000 -0.092081 0.087821 0.559948
    8 1.293670 0.684478 -0.000001 -0.000004 -0.000001 0.079297
    9 5.309685 -0.003834 0.000000 -0.319884 0.073166 0.216416
    10 4.826790 -0.004591 0.000000 -0.358384 0.023921 -0.046180
    11 5.792767 -0.005304 0.000000 -0.139218 -0.009588 -0.069095
    12 6.662317 -0.001453 0.000000 0.000000 -0.000001 0.471000
    13 2.046985 -0.000002 0.000000 0.485501 0.695262 -1.285491
    14 -3.112024 1.517254 4.341911 2.426343 -0.917552 0.132067
    15 4.827230 0.000000 0.000001 -1.626587 -0.119014 -1.010928
    16 11.139763 0.000000 0.000000 0.000000 0.000000 -1.520374
    17 10.314597 0.000001 0.000000 -0.959441 0.454653 -0.202750
    18 2.975834 -0.386307 -0.044143 -0.000797 -0.043611 0.000035
    19 1.438886 0.000000 0.000000 0.000000 0.000000 0.453542
    20 1.485303 0.000000 0.000000 0.000000 0.000000 0.532034
    21 -2.869898 1.399663 -4.140396 -0.000013 1.370795 2.669783
    22 4.972048 0.000000 0.000001 1.215230 -0.067087 -1.992149
    23 11.585355 0.000000 0.000000 0.000000 0.000000 -1.867212
    24 10.127057 0.000000 0.000001 1.571599 -0.053602 1.142522
    25 2.683750 -0.427338 0.044205 -0.005786 0.043239 -0.157091
    26 1.438885 -0.000001 0.000000 0.000000 0.000000 0.732658
    27 1.485305 0.000001 0.000000 0.000000 0.000000 1.168770
    28 1.646738 0.449549 -1.702246 -0.391617 1.092980 -0.290137
    29 0.928312 0.000000 -0.000002 0.000000 0.000000 0.000000
    30 0.928314 0.000000 0.000001 0.000000 0.000000 0.000000
    31 1.533672 0.109715 1.664491 -0.264755 -0.055959 0.783109
    32 0.928313 0.000000 0.000000 0.000000 0.000000 -0.453556
    33 0.928314 0.000000 0.000001 0.000000 0.000000 0.000000
  time 10
    0 0.235347 0.367732 -14.608345 0.000000 0.270322 -1.570874
    1 0.000000 0.000000 0.000000 -1.570795 -1.570796 0.000000
    2 -0.000005 0.000007 3.713255 2.914525 6.061903 1.331528
    3 18.045721 0.000000 0.000000 0.000000 0.000000 -1.349242
    4 17.597597 0.000000 0.000000 -0.205057 0.225938 -0.216505
    5 0.000005 -0.000003 -3.713255 -0.067002 -3.740518 -0.837425
    6 18.045725 0.000000 0.000000 0.000000 0.000000 -2.074647
    7 17.597597 0.000000 0.000000 -0.092081 0.087821 0.559948
    8 1.293670 0.684478 -0.000001 -0.000004 -0.000001 0.079297
    9 5.309685 -0.003834 0.000000 -0.308450 0.069930 0.215094
    10 4.826790 -0.004591 0.000000 -0.340190 0.017306 -0.043093
    11 5.792767 -0.005304 0.000000 -0.139218 -0.009588 -0.069095
    12 6.662317 -0.001453 0.000000 0.000000 -0.000001 0.471000
    13 2.046985 -0.000002 0.000000 0.453017 0.677205 -1.302885
    14 -3.112024 1.517254 4.341911 2.426343 -0.917552 0.132067
    15 4.827230 0.000000 0.000001 -1.630522 -0.173393 -1.038670
    16 11.139763 0.000000 0.000000 0.000000 0.000000 -1.465151
    17 10.314597 0.000001 0.000000 -0.915849 0.441238 -0.210605
    18 2.975834 -0.386307 -0.044143 -0.003553 -0.043479 0.063439
    19 1.438886 0.000000 0.000000 0.000000 0.000000 0.460992
    20 1.485303 0.000000 0.000000 0.000000 0.000000 0.532034
    21 -2.869898 1.399663 -4.140396 -0.000013 1.370795 2.669783
    22 4.972048 0.000000 0.000001 1.193261 -0.061858 -1.984310
    23 11.585355 0.000000 0.000000 0.000000 0.000000 -1.869311
    24 10.127057 0.000000 0.000001 1.600010 -0.013590 1.114712
    25 2.683750 -0.427338 0.044205 -0.005786 0.043239 -0.157091
    26 1.438885 -0.000001 0.000000 0.000000 0.000000 0.732658
    27 1.485305 0.000001 0.000000 0.000000 0.000000 1.168770
    28 1.646738 0.449549 -1.702246 -0.391617 1.092980 -0.290137
    29 0.928312 0.000000 -0.000002 0.000000 0.000000 0.000000
    30 0.928314 0.000000 0.000001 0.000000 0.000000 0.000000
    31 1.533672 0.109715 1.664491 -0.264755 -0.055959 0.783109
    32 0.928313 0.000000 0.000000 0.000000 0.000000 -0.453556
    33 0.928314 0.000000 0.000001 0.000000 0.000000 0.000000
  time 11
    0 0.235347 0.367732 -14.608345 0.000000 0.270322 -1.570874
    1 0.000000 0.000000 0.000000 -1.570795 -1.570796 0.000000
    2 -0.000005 0.000007 3.713255 2.914525 6.061903 1.331528
    3 18.045721 0.000000 0.000000 0.000000 0.000000 -1.349242
    4 17.597597 0.000000 0.000000 -0.205057 0.225938 -0.216505
    5 0.000005 -0.000003 -3.713255 -0.067002 -3.740518 -0.837425
    6 18.045725 0.000000 0.000000 0.000000 0.000000 -2.074647
    7 17.597597 0.000000 0.000000 -0.092081 0.087821 0.559948
    8 1.293670 0.684478 -0.000001 -0.000004 -0.000001 0.079297
    9 5.309685 -0.003834 0.000000 -0.297235 0.061181 0.196243
    10 4.826790 -0.004591 0.000000 -0.320634 0.010055 -0.040072
    11 5.792767 -0.005304 0.000000 -0.139218 -0.009588 -0.069095
    12 6.662317 -0.001453 0.000000 0.000000 -0.000001 0.471000
    13 2.046985 -0.000002 0.000000 0.426909 0.652214 -1.299200
    14 -3.112024 1.517254 4.341911 2.426343 -0.917552 0.132067
    15 4.827230 0.000000 0.000001 -1.625060 -0.257302 -1.089689
    16 11.139763 0.000000 0.000000 0.000000 0.000000 -1.385891
    17 10.314597 0.000001 0.000000 -0.844484 0.419953 -0.224761
    18 2.975834 -0.386307 -0.044143 -0.008048 -0.042880 0.167493
    19 1.438886 0.000000 0.000000 0.000000 0.000000 0.473223
    20 1.485303 0.000000 0.000000 0.000000 0.000000 0.532034
    21 -2.869898 1.399663 -4.140396 -0.000013 1.370795 2.669783
    22 4.972048 0.000000 0.000001 1.173071 -0.077303 -1.963296
    23 11.585355 0.000000 0.000000 0.000000 0.000000 -1.897853
    24 10.127057 0.000000 0.000001 1.687537 0.028642 1.064268
    25 2.683750 -0.427338 0.044205 -0.005786 0.043239 -0.157091
    26 1.438885 -0.000001 0.000000 0.000000 0.000000 0.732658
    27 1.485305 0.000001 0.000000 0.000000 0.000000 1.168770
    28 1.646738 0.449549 -1.702246 -0.391617 1.092980 -0.290137
    29 0.928312 0.000000 -0.000002 0.000000 0.000000 0.000000
    30 0.928314 0.000000 0.000001 0.000000 0.000000 0.000000
    31 1.533672 0.109715 1.664491 -0.264755 -0.055959 0.783109
    32 0.928313 0.000000 0.000000 0.000000 0.000000 -0.453556
    33 0.928314 0.000000 0.000001 0.000000 0.000000 0.000000
  time 12
    0 0.235347 0.367732 -14.608345 0.000000 0.270322 -1.570874
    1 0.000000 0.000000 0.000000 -1.570795 -1.570796 0.000000
    2 -0.000005 0.000007 3.713255 2.914525 6.061903 1.331528
    3 18.045721 0.000000 0.000000 0.000000 0.000000 -1.349242
    4 17.597597 0.000000 0.000000 -0.205057 0.225938 -0.216505
    5 0.000005 -0.000003 -3.713255 -0.067002 -3.740518 -0.837425
    6 18.045725 0.000000 0.000000 0.000000 0.000000 -2.074647
    7 17.597597 0.000000 0.000000 -0.092081 0.087821 0.559948
    8 1.293670 0.684478 -0.000001 -0.000004 -0.000001 0.079297
    9 5.309685 -0.003834 0.000000 -0.287001 0.050167 0.167504
    10 4.826790 -0.004591 0.000000 -0.302162 0.003116 -0.037492
    11 5.792767 -0.005304 0.000000 -0.139218 -0.009588 -0.069095
    12 6.662317 -0.001453 0.000000 0.000000 -0.000001 0.471000
    13 2.046985 -0.000002 0.000000 0.407090 0.625781 -1.282030
    14 -3.112024 1.517254 4.341911 2.426343 -0.917552 0.132067
    15 4.827230 0.000000 0.000001 -1.613900 -0.349296 -1.149896
    16 11.139763 0.000000 0.000000 0.000000 0.000000 -1.298712
    17 10.314597 0.000001 0.000000 -0.765748 0.397493 -0.242168
    18 2.975834 -0.386307 -0.044143 -0.012925 -0.041669 0.282841
    19 1.438886 0.000000 0.000000 0.000000 0.000000 0.486767
    20 1.485303 0.000000 0.000000 0.000000 0.000000 0.532034
    21 -2.869898 1.399663 -4.140396 -0.000013 1.370795 2.669783
    22 4.972048 0.000000 0.000001 1.156982 -0.105136 -1.934642
    23 11.585355 0.000000 0.000000 0.000000 0.000000 -1.940737
    24 10.127057 0.000000 0.000001 1.799780 0.071387 1.010097
    25 2.683750 -0.427338 0.044205 -0.005786 0.043239 -0.157091
    26 1.438885 -0.000001 0.000000 0.000000 0.000000 0.732658
    27 1.485305 0.000001 0.000000 0.000000 0.000000 1.168770
    28 1.646738 0.449549 -1.702246 -0.391617 1.092980 -0.290137
    29 0.928312 0.000000 -0.000002 0.000000 0.000000 0.000000
    30 0.928314 0.000000 0.000001 0.000000 0.000000 0.000000
    31 1.533672 0.109715 1.664491 -0.264755 -0.055959 0.783109
    32 0.928313 0.000000 0.000000 0.000000 0.000000 -0.453556
    33 0.928314 0.000000 0.000001 0.000000 0.000000 0.000000
  time 13
    0 0.235347 0.367732 -14.608345 0.000000 0.270322 -1.570874
    1 0.000000 0.000000 0.000000 -1.570795 -1.570796 0.000000
    2 -0.000005 0.000007 3.713255 2.914525 6.061903 1.331528
    3 18.045721 0.000000 0.000000 0.000000 0.000000 -1.349242
    4 17.597597 0.000000 0.000000 -0.205057 0.225938 -0.216505
    5 0.000005 -0.000003 -3.713255 -0.067002 -3.740518 -0.837425
    6 18.045725 0.000000 0.000000 0.000000 0.000000 -2.074647
    7 17.597597 0.000000 0.000000 -0.092081 0.087821 0.559948
    8 1.293670 0.684478 -0.000001 -0.000004 -0.000001 0.079297
    9 5.309685 -0.003834 0.000000 -0.278517 0.040280 0.139109
    10 4.826790 -0.004591 0.000000 -0.287006 -0.002649 -0.035574
    11 5.792767 -0.005304 0.000000 -0.139218 -0.009588 -0.069095
    12 6.662317 -0.001453 0.000000 0.000000 -0.000001 0.471000
    13 2.046985 -0.000002 0.000000 0.392485 0.603131 -1.262028
    14 -3.112024 1.517254 4.341911 2.426343 -0.917552 0.132067
    15 4.827230 0.000000 0.000001 -1.603739 -0.425802 -1.202578
    16 11.139763 0.000000 0.000000 0.000000 0.000000 -1.221554
    17 10.314597 0.000001 0.000000 -0.701484 0.380077 -0.257708
    18 2.975834 -0.386307 -0.044143 -0.016796 -0.040255 0.377319
    19 1.438886 0.000000 0.000000 0.000000 0.000000 0.497898
    20 1.485303 0.000000 0.000000 0.000000 0.000000 0.532034
    21 -2.869898 1.399663 -4.140396 -0.000013 1.370795 2.669783
    22 4.972048 0.000000 0.000001 1.146152 -0.133934 -1.905790
    23 11.585355 0.000000 0.000000 0.000000 0.000000 -1.982501
    24 10.127057 0.000000 0.000001 1.897244 0.107934 0.968872
    25 2.683750 -0.427338 0.044205 -0.005786 0.043239 -0.157091
    26 1.438885 -0.000001 0.000000 0.000000 0.000000 0.732658
    27 1.485305 0.000001 0.000000 0.000000 0.000000 1.168770
    28 1.646738 0.449549 -1.702246 -0.391617 1.092980 -0.290137
    29 0.928312 0.000000 -0.000002 0.000000 0.000000 0.000000
    30 0.928314 0.000000 0.000001 0.000000 0.000000 0.000000
    31 1.533672 0.109715 1.664491 -0.264755 -0.055959 0.783109
    32 0.928313 0.000000 0.000000 0.000000 0.000000 -0.453556
    33 0.928314 0.000000 0.000001 0.000000 0.000000 0.000000
  time 14
    0 0.235347 0.367732 -14.608345 0.000000 0.270322 -1.570874
    1 0.000000 0.000000 0.000000 -1.570795 -1.570796 0.000000
    2 -0.000005 0.000007 3.713255 2.914525 6.061903 1.331528
    3 18.045721 0.000000 0.000000 0.000000 0.000000 -1.349242
    4 17.597597 0.000000 0.000000 -0.205057 0.225938 -0.216505
    5 0.000005 -0.000003 -3.713255 -0.067002 -3.740518 -0.837425
    6 18.045725 0.000000 0.000000 0.000000 0.000000 -2.074647
    7 17.597597 0.000000 0.000000 -0.092081 0.087821 0.559948
    8 1.293670 0.684478 -0.000001 -0.000004 -0.000001 0.079297
    9 5.309685 -0.003834 0.000000 -0.272383 0.033617 0.118954
    10 4.826790 -0.004591 0.000000 -0.276366 -0.006723 -0.034339
    11 5.792767 -0.005304 0.000000 -0.139218 -0.009588 -0.069095
    12 6.662317 -0.001453 0.000000 0.000000 -0.000001 0.471000
    13 2.046985 -0.000002 0.000000 0.382102 0.587483 -1.247645
    14 -3.112024 1.517254 4.341911 2.426343 -0.917552 0.132067
    15 4.827230 0.000000 0.000001 -1.600332 -0.471926 -1.235395
    16 11.139763 0.000000 0.000000 0.000000 0.000000 -1.167032
    17 10.314597 0.000001 0.000000 -0.664992 0.370598 -0.267011
    18 2.975834 -0.386307 -0.044143 -0.018930 -0.039297 0.431047
    19 1.438886 0.000000 0.000000 0.000000 0.000000 0.504204
    20 1.485303 0.000000 0.000000 0.000000 0.000000 0.532034
    21 -2.869898 1.399663 -4.140396 -0.000013 1.370795 2.669783
    22 4.972048 0.000000 0.000001 1.140814 -0.154768 -1.882734
    23 11.585355 0.000000 0.000000 0.000000 0.000000 -2.011463
    24 10.127057 0.000000 0.000001 1.954385 0.130593 0.947886
    25 2.683750 -0.427338 0.044205 -0.005786 0.043239 -0.157091
    26 1.438885 -0.000001 0.000000 0.000000 0.000000 0.732658
    27 1.485305 0.000001 0.000000 0.000000 0.000000 1.168770
    28 1.646738 0.449549 -1.702246 -0.391617 1.092980 -0.290137
    29 0.928312 0.000000 -0.000002 0.000000 0.000000 0.000000
    30 0.928314 0.000000 0.000001 0.000000 0.000000 0.000000
    31 1.533672 0.109715 1.664491 -0.264755 -0.055959 0.783109
    32 0.928313 0.000000 0.000000 0.000000 0.000000 -0.453556
    33 0.928314 0.000000 0.000001 0.000000 0.000000 0.000000
  time 15
    0 0.235347 0.367732 -14.608345 0.000000 0.270322 -1.570874
    1 0.000000 0.000000 0.000000 -1.570795 -1.570796 0.000000
    2 -0.000005 0.000007 3.713255 2.914525 6.061903 1.331528
    3 18.045721 0.000000 0.000000 0.000000 0.000000 -1.349242
    4 17.597597 0.000000 0.000000 -0.205057 0.225938 -0.216505
    5 0.000005 -0.000003 -3.713255 -0.067002 -3.740518 -0.837425
    6 18.045725 0.000000 0.000000 0.000000 0.000000 -2.074647
    7 17.597597 0.000000 0.000000 -0.092081 0.087821 0.559948
    8 1.293670 0.684478 -0.000001 -0.000004 -0.000001 0.079297
    9 5.309685 -0.003834 0.000000 -0.268710 0.030429 0.109266
    10 4.826790 -0.004591 0.000000 -0.270225 -0.009096 -0.033656
    11 5.792767 -0.005304 0.000000 -0.139218 -0.009588 -0.069095
    12 6.662317 -0.001453 0.000000 0.000000 -0.000001 0.471000
    13 2.046985 -0.000002 0.000000 0.375295 0.579063 -1.241577
    14 -3.112024 1.517254 4.341911 2.426343 -0.917552 0.132067
    15 4.827230 0.000000 0.000001 -1.604209 -0.487925 -1.247209
    16 11.139763 0.000000 0.000000 0.000000 0.000000 -1.137528
    17 10.314597 0.000001 0.000000 -0.655375 0.368141 -0.269531
    18 2.975834 -0.386307 -0.044143 -0.019493 -0.039033 0.445214
    19 1.438886 0.000000 0.000000 0.000000 0.000000 0.505855
    20 1.485303 0.000000 0.000000 0.000000 0.000000 0.532034
    21 -2.869898 1.399663 -4.140396 -0.000013 1.370795 2.669783
    22 4.972048 0.000000 0.000001 1.139732 -0.164823 -1.868177
    23 11.585355 0.000000 0.000000 0.000000 0.000000 -2.024615
    24 10.127057 0.000000 0.000001 1.969610 0.138389 0.944277
    25 2.683750 -0.427338 0.044205 -0.005786 0.043239 -0.157091
    26 1.438885 -0.000001 0.000000 0.000000 0.000000 0.732658
    27 1.485305 0.000001 0.000000 0.000000 0.000000 1.168770
    28 1.646738 0.449549 -1.702246 -0.391617 1.092980 -0.290137
    29 0.928312 0.000000 -0.000002 0.000000 0.000000 0.000000
    30 0.928314 0.000000 0.000001 0.000000 0.000000 0.000000
    31 1.533672 0.109715 1.664491 -0.264755 -0.055959 0.783109
    32 0.928313 0.000000 0.000000 0.000000 0.000000 -0.453556
    33 0.928314 0.000000 0.000001 0.000000 0.000000 0.000000
end
