version 1
nodes
  0 "Bip01" -1
  1 "Bip01 Pelvis" 0
  2 "Bip01 L Leg" 1
  3 "Bip01 L Leg1" 2
  4 "Bip01 L Foot" 3
  5 "Bip01 R Leg" 1
  6 "Bip01 R Leg1" 5
  7 "Bip01 R Foot" 6
  8 "Bip01 Spine" 1
  9 "Bip01 Spine1" 8
  10 "Bip01 Spine2" 9
  11 "Bip01 Spine3" 10
  12 "Bip01 Neck" 11
  13 "Bip01 Head" 12
  14 "Bip01 L Arm" 12
  15 "Bip01 L Arm1" 14
  16 "Bip01 L Arm2" 15
  17 "Bip01 L Hand" 16
  18 "Bip01 L Finger1" 17
  19 "Bip01 L Finger11" 18
  20 "Bip01 L Finger12" 19
  21 "Bip01 R Arm" 12
  22 "Bip01 R Arm1" 21
  23 "Bip01 R Arm2" 22
  24 "Bip01 R Hand" 23
  25 "Bip01 R Finger1" 24
  26 "Bip01 R Finger11" 25
  27 "Bip01 R Finger12" 26
  28 "Bip01 L Finger0" 17
  29 "Bip01 L Finger01" 28
  30 "Bip01 L Finger02" 29
  31 "Bip01 R Finger0" 24
  32 "Bip01 R Finger01" 31
  33 "Bip01 R Finger02" 32
end
skeleton
  time 0
    0 0.235347 0.367732 -14.393495 -0.045585 0.257873 -1.742273
    1 0.000000 0.000000 0.000000 -1.570795 -1.570796 0.000000
    2 -0.000005 0.000007 3.713255 2.914525 6.061903 1.331528
    3 18.045721 0.000000 0.000000 0.000000 0.000000 -1.349242
    4 17.597597 0.000000 0.000000 -0.205057 0.225938 -0.216505
    5 0.000005 -0.000003 -3.713255 -0.067002 -3.740518 -0.837425
    6 18.045725 0.000000 0.000000 0.000000 0.000000 -2.074647
    7 17.597597 0.000000 0.000000 -0.092081 0.087821 0.559948
    8 1.293670 0.684478 -0.000001 -0.000004 -0.000001 0.271132
    9 5.309685 -0.003834 0.000000 -0.032981 0.011373 0.331209
    10 4.826790 -0.004591 0.000000 -0.148782 0.198393 0.146749
    11 5.792767 -0.005304 0.000000 0.000065 0.087260 0.034843
    12 6.662317 -0.001453 0.000000 0.000000 -0.000001 -0.314374
    13 2.046985 -0.000002 0.000000 0.409331 -0.063019 -0.770929
    14 -3.272185 -1.123452 4.341911 1.923488 -1.393569 1.526584
    15 4.827230 0.000000 0.000001 -0.699669 -0.225985 -1.374187
    16 11.139763 0.000000 0.000000 0.000000 0.000000 -1.619047
    17 10.314597 0.000001 0.000000 -0.695012 -0.010306 0.140724
    18 2.975834 -0.386307 -0.044143 -0.017432 -0.039992 0.392972
    19 1.438886 0.000000 0.000000 0.000000 0.000000 0.270702
    20 1.485303 0.000000 0.000000 0.000000 0.000000 0.375250
    21 -3.014434 -1.037911 -4.140396 -0.000013 1.370795 3.455176
    22 4.972048 0.000000 0.000001 0.776474 0.000483 -1.045297
    23 11.585355 0.000000 0.000000 0.000000 0.000000 -2.068268
    24 10.127057 0.000000 0.000001 1.980376 -0.285848 1.184258
    25 2.683750 -0.427338 0.044205 0.001045 0.043611 0.000046
    26 1.438885 -0.000001 0.000000 0.000000 0.000000 0.767762
    27 1.485305 0.000001 0.000000 0.000000 0.000000 1.221689
    28 1.646738 0.449549 -1.702246 0.449790 0.128753 1.240204
    29 0.928312 0.000000 -0.000002 0.000000 0.000000 0.000000
    30 0.928314 0.000000 0.000001 0.000000 0.000000 0.000000
    31 1.533672 0.109715 1.664491 -0.733354 -0.285116 1.223813
    32 0.928313 0.000000 0.000000 0.000000 0.000000 0.000000
    33 0.928314 0.000000 0.000001 0.000000 0.000000 0.000000
  time 1
    0 0.235347 0.367732 -14.393495 -0.045585 0.257873 -1.742273
    1 0.000000 0.000000 0.000000 -1.570795 -1.570796 0.000000
    2 -0.000005 0.000007 3.713255 2.914525 6.061903 1.331528
    3 18.045721 0.000000 0.000000 0.000000 0.000000 -1.349242
    4 17.597597 0.000000 0.000000 -0.205057 0.225938 -0.216505
    5 0.000005 -0.000003 -3.713255 -0.067002 -3.740518 -0.837425
    6 18.045725 0.000000 0.000000 0.000000 0.000000 -2.074647
    7 17.597597 0.000000 0.000000 -0.092081 0.087821 0.559948
    8 1.293670 0.684478 -0.000001 -0.000004 -0.000001 0.271132
    9 5.309685 -0.003834 0.000000 -0.032981 0.011373 0.331209
    10 4.826790 -0.004591 0.000000 -0.148766 0.198561 0.147829
    11 5.792767 -0.005304 0.000000 0.000065 0.087260 0.037750
    12 6.662317 -0.001453 0.000000 0.000000 -0.000001 -0.314374
    13 2.046985 -0.000002 0.000000 0.409589 -0.062547 -0.774930
    14 -3.272185 -1.123452 4.341911 1.923488 -1.393569 1.526584
    15 4.827230 0.000000 0.000001 -0.678818 -0.220198 -1.390290
    16 11.139763 0.000000 0.000000 0.000000 0.000000 -1.610287
    17 10.314597 0.000001 0.000000 -0.687462 -0.027743 0.120626
    18 2.975834 -0.386307 -0.044143 -0.017432 -0.039992 0.392972
    19 1.438886 0.000000 0.000000 0.000000 0.000000 0.270702
    20 1.485303 0.000000 0.000000 0.000000 0.000000 0.375250
    21 -3.014434 -1.037911 -4.140396 -0.000013 1.367912 3.455176
    22 4.972048 0.000000 0.000001 0.775855 0.005149 -1.046615
    23 11.585355 0.000000 0.000000 0.000000 0.000000 -2.068268
    24 10.127057 0.000000 0.000001 1.980376 -0.285848 1.184258
    25 2.683750 -0.427338 0.044205 0.001045 0.043611 0.000046
    26 1.438885 -0.000001 0.000000 0.000000 0.000000 0.767762
    27 1.485305 0.000001 0.000000 0.000000 0.000000 1.221689
    28 1.646738 0.449549 -1.702246 0.449790 0.128753 1.240204
    29 0.928312 0.000000 -0.000002 0.000000 0.000000 0.000000
    30 0.928314 0.000000 0.000001 0.000000 0.000000 0.000000
    31 1.533672 0.109715 1.664491 -0.733354 -0.285116 1.223813
    32 0.928313 0.000000 0.000000 0.000000 0.000000 0.000000
    33 0.928314 0.000000 0.000001 0.000000 0.000000 0.000000
  time 2
    0 0.235347 0.367732 -14.393495 -0.045585 0.257873 -1.742273
    1 0.000000 0.000000 0.000000 -1.570795 -1.570796 0.000000
    2 -0.000005 0.000007 3.713255 2.914525 6.061903 1.331528
    3 18.045721 0.000000 0.000000 0.000000 0.000000 -1.349242
    4 17.597597 0.000000 0.000000 -0.205057 0.225938 -0.216505
    5 0.000005 -0.000003 -3.713255 -0.067002 -3.740518 -0.837425
    6 18.045725 0.000000 0.000000 0.000000 0.000000 -2.074647
    7 17.597597 0.000000 0.000000 -0.092081 0.087821 0.559948
    8 1.293670 0.684478 -0.000001 -0.000004 -0.000001 0.271132
    9 5.309685 -0.003834 0.000000 -0.032981 0.011373 0.331209
    10 4.826790 -0.004591 0.000000 -0.148733 0.198764 0.149284
    11 5.792767 -0.005304 0.000000 0.000065 0.087260 0.041674
    12 6.662317 -0.001453 0.000000 0.000000 -0.000001 -0.314374
    13 2.046985 -0.000002 0.000000 0.409934 -0.061894 -0.780279
    14 -3.272185 -1.123452 4.341911 1.923488 -1.393569 1.526584
    15 4.827230 0.000000 0.000001 -0.649743 -0.211178 -1.412342
    16 11.139763 0.000000 0.000000 0.000000 0.000000 -1.597462
    17 10.314597 0.000001 0.000000 -0.672273 -0.052203 0.092190
    18 2.975834 -0.386307 -0.044143 -0.017432 -0.039992 0.392972
    19 1.438886 0.000000 0.000000 0.000000 0.000000 0.270702
    20 1.485303 0.000000 0.000000 0.000000 0.000000 0.375250
    21 -3.014434 -1.037911 -4.140396 -0.000013 1.363983 3.455176
    22 4.972048 0.000000 0.000001 0.775004 0.011504 -1.048393
    23 11.585355 0.000000 0.000000 0.000000 0.000000 -2.068268
    24 10.127057 0.000000 0.000001 1.980376 -0.285848 1.184258
    25 2.683750 -0.427338 0.044205 0.001045 0.043611 0.000046
    26 1.438885 -0.000001 0.000000 0.000000 0.000000 0.767762
    27 1.485305 0.000001 0.000000 0.000000 0.000000 1.221689
    28 1.646738 0.449549 -1.702246 0.449790 0.128753 1.240204
    29 0.928312 0.000000 -0.000002 0.000000 0.000000 0.000000
    30 0.928314 0.000000 0.000001 0.000000 0.000000 0.000000
    31 1.533672 0.109715 1.664491 -0.733354 -0.285116 1.223813
    32 0.928313 0.000000 0.000000 0.000000 0.000000 0.000000
    33 0.928314 0.000000 0.000001 0.000000 0.000000 0.000000
  time 3
    0 0.235347 0.367732 -14.393495 -0.045585 0.257873 -1.742273
    1 0.000000 0.000000 0.000000 -1.570795 -1.570796 0.000000
    2 -0.000005 0.000007 3.713255 2.914525 6.061903 1.331528
    3 18.045721 0.000000 0.000000 0.000000 0.000000 -1.349242
    4 17.597597 0.000000 0.000000 -0.205057 0.225938 -0.216505
    5 0.000005 -0.000003 -3.713255 -0.067002 -3.740518 -0.837425
    6 18.045725 0.000000 0.000000 0.000000 0.000000 -2.074647
    7 17.597597 0.000000 0.000000 -0.092081 0.087821 0.559948
    8 1.293670 0.684478 -0.000001 -0.000004 -0.000001 0.271132
    9 5.309685 -0.003834 0.000000 -0.032981 0.011373 0.331209
    10 4.826790 -0.004591 0.000000 -0.148684 0.199028 0.151048
    11 5.792767 -0.005304 0.000000 0.000065 0.087260 0.046429
    12 6.662317 -0.001453 0.000000 0.000000 -0.000001 -0.314374
    13 2.046985 -0.000002 0.000000 0.410365 -0.061128 -0.786751
    14 -3.272185 -1.123452 4.341911 1.923488 -1.393569 1.526584
    15 4.827230 0.000000 0.000001 -0.616498 -0.200455 -1.437371
    16 11.139763 0.000000 0.000000 0.000000 0.000000 -1.583236
    17 10.314597 0.000001 0.000000 -0.658072 -0.079620 0.059009
    18 2.975834 -0.386307 -0.044143 -0.017432 -0.039992 0.392972
    19 1.438886 0.000000 0.000000 0.000000 0.000000 0.270702
    20 1.485303 0.000000 0.000000 0.000000 0.000000 0.375250
    21 -3.014434 -1.037911 -4.140396 -0.000013 1.359235 3.455176
    22 4.972048 0.000000 0.000001 0.773921 0.019226 -1.050633
    23 11.585355 0.000000 0.000000 0.000000 0.000000 -2.068268
    24 10.127057 0.000000 0.000001 1.980376 -0.285848 1.184258
    25 2.683750 -0.427338 0.044205 0.001045 0.043611 0.000046
    26 1.438885 -0.000001 0.000000 0.000000 0.000000 0.767762
    27 1.485305 0.000001 0.000000 0.000000 0.000000 1.221689
    28 1.646738 0.449549 -1.702246 0.449790 0.128753 1.240204
    29 0.928312 0.000000 -0.000002 0.000000 0.000000 0.000000
    30 0.928314 0.000000 0.000001 0.000000 0.000000 0.000000
    31 1.533672 0.109715 1.664491 -0.733354 -0.285116 1.223813
    32 0.928313 0.000000 0.000000 0.000000 0.000000 0.000000
    33 0.928314 0.000000 0.000001 0.000000 0.000000 0.000000
  time 4
    0 0.235347 0.367732 -14.393495 -0.045585 0.257873 -1.742273
    1 0.000000 0.000000 0.000000 -1.570795 -1.570796 0.000000
    2 -0.000005 0.000007 3.713255 2.914525 6.061903 1.331528
    3 18.045721 0.000000 0.000000 0.000000 0.000000 -1.349242
    4 17.597597 0.000000 0.000000 -0.205057 0.225938 -0.216505
    5 0.000005 -0.000003 -3.713255 -0.067002 -3.740518 -0.837425
    6 18.045725 0.000000 0.000000 0.000000 0.000000 -2.074647
    7 17.597597 0.000000 0.000000 -0.092081 0.087821 0.559948
    8 1.293670 0.684478 -0.000001 -0.000004 -0.000001 0.271132
    9 5.309685 -0.003834 0.000000 -0.032981 0.011373 0.331209
    10 4.826790 -0.004591 0.000000 -0.148634 0.199328 0.153077
    11 5.792767 -0.005304 0.000000 0.000065 0.087260 0.051848
    12 6.662317 -0.001453 0.000000 0.000000 -0.000001 -0.314374
    13 2.046985 -0.000002 0.000000 0.410839 -0.060250 -0.794167
    14 -3.272185 -1.123452 4.341911 1.923488 -1.393569 1.526584
    15 4.827230 0.000000 0.000001 -0.582666 -0.189902 -1.462749
    16 11.139763 0.000000 0.000000 0.000000 0.000000 -1.570201
    17 10.314597 0.000001 0.000000 -0.655375 -0.106603 0.025082
    18 2.975834 -0.386307 -0.044143 -0.017432 -0.039992 0.392972
    19 1.438886 0.000000 0.000000 0.000000 0.000000 0.270702
    20 1.485303 0.000000 0.000000 0.000000 0.000000 0.375250
    21 -3.014434 -1.037911 -4.140396 -0.000013 1.353808 3.455176
    22 4.972048 0.000000 0.000001 0.772606 0.027994 -1.053202
    23 11.585355 0.000000 0.000000 0.000000 0.000000 -2.068268
    24 10.127057 0.000000 0.000001 1.980376 -0.285848 1.184258
    25 2.683750 -0.427338 0.044205 0.001045 0.043611 0.000046
    26 1.438885 -0.000001 0.000000 0.000000 0.000000 0.767762
    27 1.485305 0.000001 0.000000 0.000000 0.000000 1.221689
    28 1.646738 0.449549 -1.702246 0.449790 0.128753 1.240204
    29 0.928312 0.000000 -0.000002 0.000000 0.000000 0.000000
    30 0.928314 0.000000 0.000001 0.000000 0.000000 0.000000
    31 1.533672 0.109715 1.664491 -0.733354 -0.285116 1.223813
    32 0.928313 0.000000 0.000000 0.000000 0.000000 0.000000
    33 0.928314 0.000000 0.000001 0.000000 0.000000 0.000000
  time 5
    0 0.235347 0.367732 -14.393495 -0.045585 0.257873 -1.742273
    1 0.000000 0.000000 0.000000 -1.570795 -1.570796 0.000000
    2 -0.000005 0.000007 3.713255 2.914525 6.061903 1.331528
    3 18.045721 0.000000 0.000000 0.000000 0.000000 -1.349242
    4 17.597597 0.000000 0.000000 -0.205057 0.225938 -0.216505
    5 0.000005 -0.000003 -3.713255 -0.067002 -3.740518 -0.837425
    6 18.045725 0.000000 0.000000 0.000000 0.000000 -2.074647
    7 17.597597 0.000000 0.000000 -0.092081 0.087821 0.559948
    8 1.293670 0.684478 -0.000001 -0.000004 -0.000001 0.271132
    9 5.309685 -0.003834 0.000000 -0.032981 0.011373 0.331209
    10 4.826790 -0.004591 0.000000 -0.148585 0.199651 0.155282
    11 5.792767 -0.005304 0.000000 0.000065 0.087260 0.057745
    12 6.662317 -0.001453 0.000000 0.000000 -0.000001 -0.314374
    13 2.046985 -0.000002 0.000000 0.411313 -0.059282 -0.802213
    14 -3.272185 -1.123452 4.341911 1.923488 -1.393569 1.526584
    15 4.827230 0.000000 0.000001 -0.555530 -0.184286 -1.484014
    16 11.139763 0.000000 0.000000 0.000000 0.000000 -1.563824
    17 10.314597 0.000001 0.000000 -0.685215 -0.127214 -0.000710
    18 2.975834 -0.386307 -0.044143 -0.017432 -0.039992 0.392972
    19 1.438886 0.000000 0.000000 0.000000 0.000000 0.270702
    20 1.485303 0.000000 0.000000 0.000000 0.000000 0.375250
    21 -3.014434 -1.037911 -4.140396 -0.000013 1.347901 3.455176
    22 4.972048 0.000000 0.000001 0.771214 0.037567 -1.056100
    23 11.585355 0.000000 0.000000 0.000000 0.000000 -2.068268
    24 10.127057 0.000000 0.000001 1.980376 -0.285848 1.184258
    25 2.683750 -0.427338 0.044205 0.001045 0.043611 0.000046
    26 1.438885 -0.000001 0.000000 0.000000 0.000000 0.767762
    27 1.485305 0.000001 0.000000 0.000000 0.000000 1.221689
    28 1.646738 0.449549 -1.702246 0.449790 0.128753 1.240204
    29 0.928312 0.000000 -0.000002 0.000000 0.000000 0.000000
    30 0.928314 0.000000 0.000001 0.000000 0.000000 0.000000
    31 1.533672 0.109715 1.664491 -0.733354 -0.285116 1.223813
    32 0.928313 0.000000 0.000000 0.000000 0.000000 0.000000
    33 0.928314 0.000000 0.000001 0.000000 0.000000 0.000000
  time 6
    0 0.235347 0.367732 -14.393495 -0.045585 0.257873 -1.742273
    1 0.000000 0.000000 0.000000 -1.570795 -1.570796 0.000000
    2 -0.000005 0.000007 3.713255 2.914525 6.061903 1.331528
    3 18.045721 0.000000 0.000000 0.000000 0.000000 -1.349242
    4 17.597597 0.000000 0.000000 -0.205057 0.225938 -0.216505
    5 0.000005 -0.000003 -3.713255 -0.067002 -3.740518 -0.837425
    6 18.045725 0.000000 0.000000 0.000000 0.000000 -2.074647
    7 17.597597 0.000000 0.000000 -0.092081 0.087821 0.559948
    8 1.293670 0.684478 -0.000001 -0.000004 -0.000001 0.271132
    9 5.309685 -0.003834 0.000000 -0.032981 0.011373 0.331209
    10 4.826790 -0.004591 0.000000 -0.148536 0.199987 0.157597
    11 5.792767 -0.005304 0.000000 0.000065 0.087260 0.063973
    12 6.662317 -0.001453 0.000000 0.000000 -0.000001 -0.314374
    13 2.046985 -0.000002 0.000000 0.411830 -0.058269 -0.810663
    14 -3.272185 -1.123452 4.341911 1.923488 -1.393569 1.526584
    15 4.827230 0.000000 0.000001 -0.535736 -0.188115 -1.505367
    16 11.139763 0.000000 0.000000 0.000000 0.000000 -1.575527
    17 10.314597 0.000001 0.000000 -0.838911 -0.139216 -0.011848
    18 2.975834 -0.386307 -0.044143 -0.017432 -0.039992 0.392972
    19 1.438886 0.000000 0.000000 0.000000 0.000000 0.270702
    20 1.485303 0.000000 0.000000 0.000000 0.000000 0.375250
    21 -3.014434 -1.037911 -4.140396 -0.000013 1.341683 3.455176
    22 4.972048 0.000000 0.000001 0.769744 0.047541 -1.059131
    23 11.585355 0.000000 0.000000 0.000000 0.000000 -2.068268
    24 10.127057 0.000000 0.000001 1.980376 -0.285848 1.184258
    25 2.683750 -0.427338 0.044205 0.001045 0.043611 0.000046
    26 1.438885 -0.000001 0.000000 0.000000 0.000000 0.767762
    27 1.485305 0.000001 0.000000 0.000000 0.000000 1.221689
    28 1.646738 0.449549 -1.702246 0.449790 0.128753 1.240204
    29 0.928312 0.000000 -0.000002 0.000000 0.000000 0.000000
    30 0.928314 0.000000 0.000001 0.000000 0.000000 0.000000
    31 1.533672 0.109715 1.664491 -0.733354 -0.285116 1.223813
    32 0.928313 0.000000 0.000000 0.000000 0.000000 0.000000
    33 0.928314 0.000000 0.000001 0.000000 0.000000 0.000000
  time 7
    0 0.235347 0.367732 -14.393495 -0.045585 0.257873 -1.742273
    1 0.000000 0.000000 0.000000 -1.570795 -1.570796 0.000000
    2 -0.000005 0.000007 3.713255 2.914525 6.061903 1.331528
    3 18.045721 0.000000 0.000000 0.000000 0.000000 -1.349242
    4 17.597597 0.000000 0.000000 -0.205057 0.225938 -0.216505
    5 0.000005 -0.000003 -3.713255 -0.067002 -3.740518 -0.837425
    6 18.045725 0.000000 0.000000 0.000000 0.000000 -2.074647
    7 17.597597 0.000000 0.000000 -0.092081 0.087821 0.559948
    8 1.293670 0.684478 -0.000001 -0.000004 -0.000001 0.271132
    9 5.309685 -0.003834 0.000000 -0.032981 0.011373 0.331209
    10 4.826790 -0.004591 0.000000 -0.148470 0.200334 0.159956
    11 5.792767 -0.005304 0.000000 0.000065 0.087260 0.070327
    12 6.662317 -0.001453 0.000000 0.000000 -0.000001 -0.314374
    13 2.046985 -0.000002 0.000000 0.412347 -0.057211 -0.819338
    14 -3.272185 -1.123452 4.341911 1.923488 -1.393569 1.526584
    15 4.827230 0.000000 0.000001 -0.529686 -0.204029 -1.520069
    16 11.139763 0.000000 0.000000 0.000000 0.000000 -1.603419
    17 10.314597 0.000001 0.000000 -1.079791 -0.135520 -0.004132
    18 2.975834 -0.386307 -0.044143 -0.017432 -0.039992 0.392972
    19 1.438886 0.000000 0.000000 0.000000 0.000000 0.270702
    20 1.485303 0.000000 0.000000 0.000000 0.000000 0.375250
    21 -3.014434 -1.037911 -4.140396 -0.000013 1.335324 3.455176
    22 4.972048 0.000000 0.000001 0.768119 0.057757 -1.062358
    23 11.585355 0.000000 0.000000 0.000000 0.000000 -2.068268
    24 10.127057 0.000000 0.000001 1.980376 -0.285848 1.184258
    25 2.683750 -0.427338 0.044205 0.001045 0.043611 0.000046
    26 1.438885 -0.000001 0.000000 0.000000 0.000000 0.767762
    27 1.485305 0.000001 0.000000 0.000000 0.000000 1.221689
    28 1.646738 0.449549 -1.702246 0.449790 0.128753 1.240175
    29 0.928312 0.000000 -0.000002 0.000000 0.000000 0.000000
    30 0.928314 0.000000 0.000001 0.000000 0.000000 0.000000
    31 1.533672 0.109715 1.664491 -0.733354 -0.285116 1.223813
    32 0.928313 0.000000 0.000000 0.000000 0.000000 0.000000
    33 0.928314 0.000000 0.000001 0.000000 0.000000 0.000000
  time 8
    0 0.235347 0.367732 -14.393495 -0.045585 0.257873 -1.742273
    1 0.000000 0.000000 0.000000 -1.570795 -1.570796 0.000000
    2 -0.000005 0.000007 3.713255 2.914525 6.061903 1.331528
    3 18.045721 0.000000 0.000000 0.000000 0.000000 -1.349242
    4 17.597597 0.000000 0.000000 -0.205057 0.225938 -0.216505
    5 0.000005 -0.000003 -3.713255 -0.067002 -3.740518 -0.837425
    6 18.045725 0.000000 0.000000 0.000000 0.000000 -2.074647
    7 17.597597 0.000000 0.000000 -0.092081 0.087821 0.559948
    8 1.293670 0.684478 -0.000001 -0.000004 -0.000001 0.271132
    9 5.309685 -0.003834 0.000000 -0.032981 0.011373 0.331209
    10 4.826790 -0.004591 0.000000 -0.148421 0.200682 0.162315
    11 5.792767 -0.005304 0.000000 0.000065 0.087260 0.076639
    12 6.662317 -0.001453 0.000000 0.000000 -0.000001 -0.314374
    13 2.046985 -0.000002 0.000000 0.412864 -0.056175 -0.827923
    14 -3.272185 -1.123452 4.341911 1.923488 -1.393569 1.526584
    15 4.827230 0.000000 0.000001 -0.541140 -0.223602 -1.513243
    16 11.139763 0.000000 0.000000 0.000000 0.000000 -1.618906
    17 10.314597 0.000001 0.000000 -1.166256 -0.118648 0.009821
    18 2.975834 -0.386307 -0.044143 -0.017432 -0.039992 0.392972
    19 1.438886 0.000000 0.000000 0.000000 0.000000 0.270702
    20 1.485303 0.000000 0.000000 0.000000 0.000000 0.375250
    21 -3.014434 -1.037911 -4.140396 -0.000013 1.329021 3.455176
    22 4.972048 0.000000 0.000001 0.766495 0.067893 -1.065586
    23 11.585355 0.000000 0.000000 0.000000 0.000000 -2.068268
    24 10.127057 0.000000 0.000001 1.980376 -0.285848 1.184258
    25 2.683750 -0.427338 0.044205 0.001045 0.043611 0.000046
    26 1.438885 -0.000001 0.000000 0.000000 0.000000 0.767762
    27 1.485305 0.000001 0.000000 0.000000 0.000000 1.221689
    28 1.646738 0.449549 -1.702246 0.449790 0.128753 1.240204
    29 0.928312 0.000000 -0.000002 0.000000 0.000000 0.000000
    30 0.928314 0.000000 0.000001 0.000000 0.000000 0.000000
    31 1.533672 0.109715 1.664491 -0.733354 -0.285116 1.223813
    32 0.928313 0.000000 0.000000 0.000000 0.000000 0.000000
    33 0.928314 0.000000 0.000001 0.000000 0.000000 0.000000
  time 9
    0 0.235347 0.367732 -14.393495 -0.045585 0.257873 -1.742273
    1 0.000000 0.000000 0.000000 -1.570795 -1.570796 0.000000
    2 -0.000005 0.000007 3.713255 2.914525 6.061903 1.331528
    3 18.045721 0.000000 0.000000 0.000000 0.000000 -1.349242
    4 17.597597 0.000000 0.000000 -0.205057 0.225938 -0.216505
    5 0.000005 -0.000003 -3.713255 -0.067002 -3.740518 -0.837425
    6 18.045725 0.000000 0.000000 0.000000 0.000000 -2.074647
    7 17.597597 0.000000 0.000000 -0.092081 0.087821 0.559948
    8 1.293670 0.684478 -0.000001 -0.000004 -0.000001 0.271132
    9 5.309685 -0.003834 0.000000 -0.032981 0.011373 0.331209
    10 4.826790 -0.004591 0.000000 -0.148372 0.201018 0.164586
    11 5.792767 -0.005304 0.000000 0.000065 0.087260 0.082743
    12 6.662317 -0.001453 0.000000 0.000000 -0.000001 -0.314374
    13 2.046985 -0.000002 0.000000 0.413381 -0.055162 -0.836283
    14 -3.272185 -1.123452 4.341911 -1.280303 -1.744340 4.731241
    15 4.827230 0.000000 0.000001 -0.550596 -0.243771 -1.495478
    16 11.139763 0.000000 0.000000 0.000000 0.000000 -1.623321
    17 10.314597 0.000001 0.000000 -1.132911 -0.097797 0.026124
    18 2.975834 -0.386307 -0.044143 -0.017432 -0.039992 0.392972
    19 1.438886 0.000000 0.000000 0.000000 0.000000 0.270702
    20 1.485303 0.000000 0.000000 0.000000 0.000000 0.375250
    21 -3.014434 -1.037911 -4.140396 -0.000013 1.322887 3.455176
    22 4.972048 0.000000 0.000001 0.764871 0.077626 -1.068814
    23 11.585355 0.000000 0.000000 0.000000 0.000000 -2.068268
    24 10.127057 0.000000 0.000001 1.980376 -0.285848 1.184258
    25 2.683750 -0.427338 0.044205 0.001045 0.043611 0.000046
    26 1.438885 -0.000001 0.000000 0.000000 0.000000 0.767762
    27 1.485305 0.000001 0.000000 0.000000 0.000000 1.221689
    28 1.646738 0.449549 -1.702246 0.449790 0.128753 1.240204
    29 0.928312 0.000000 -0.000002 0.000000 0.000000 0.000000
    30 0.928314 0.000000 0.000001 0.000000 0.000000 0.000000
    31 1.533672 0.109715 1.664491 -0.733354 -0.285116 1.223813
    32 0.928313 0.000000 0.000000 0.000000 0.000000 0.000000
    33 0.928314 0.000000 0.000001 0.000000 0.000000 0.000000
  time 10
    0 0.235347 0.367732 -14.393495 -0.045585 0.257873 -1.742273
    1 0.000000 0.000000 0.000000 -1.570795 -1.570796 0.000000
    2 -0.000005 0.000007 3.713255 2.914525 6.061903 1.331528
    3 18.045721 0.000000 0.000000 0.000000 0.000000 -1.349242
    4 17.597597 0.000000 0.000000 -0.205057 0.225938 -0.216505
    5 0.000005 -0.000003 -3.713255 -0.067002 -3.740518 -0.837425
    6 18.045725 0.000000 0.000000 0.000000 0.000000 -2.074647
    7 17.597597 0.000000 0.000000 -0.092081 0.087821 0.559948
    8 1.293670 0.684478 -0.000001 -0.000004 -0.000001 0.271132
    9 5.309685 -0.003834 0.000000 -0.032981 0.011373 0.331209
    10 4.826790 -0.004591 0.000000 -0.148306 0.201329 0.166725
    11 5.792767 -0.005304 0.000000 0.000065 0.087260 0.088473
    12 6.662317 -0.001453 0.000000 0.000000 -0.000001 -0.314374
    13 2.046985 -0.000002 0.000000 0.413854 -0.054216 -0.844059
    14 -3.272185 -1.123452 4.341911 -1.362083 -1.740686 4.814269
    15 4.827230 0.000000 0.000001 -0.564223 -0.265727 -1.471587
    16 11.139763 0.000000 0.000000 0.000000 0.000000 -1.625844
    17 10.314597 0.000001 0.000000 -1.063253 -0.073489 0.047653
    18 2.975834 -0.386307 -0.044143 -0.017432 -0.039992 0.392972
    19 1.438886 0.000000 0.000000 0.000000 0.000000 0.270702
    20 1.485303 0.000000 0.000000 0.000000 0.000000 0.375250
    21 -3.014434 -1.037911 -4.140396 -0.000013 1.317178 3.455176
    22 4.972048 0.000000 0.000001 0.763246 0.086796 -1.071910
    23 11.585355 0.000000 0.000000 0.000000 0.000000 -2.068268
    24 10.127057 0.000000 0.000001 1.980376 -0.285848 1.184258
    25 2.683750 -0.427338 0.044205 0.001045 0.043611 0.000046
    26 1.438885 -0.000001 0.000000 0.000000 0.000000 0.767762
    27 1.485305 0.000001 0.000000 0.000000 0.000000 1.221689
    28 1.646738 0.449549 -1.702246 0.449790 0.128753 1.240204
    29 0.928312 0.000000 -0.000002 0.000000 0.000000 0.000000
    30 0.928314 0.000000 0.000001 0.000000 0.000000 0.000000
    31 1.533672 0.109715 1.664491 -0.733354 -0.285116 1.223813
    32 0.928313 0.000000 0.000000 0.000000 0.000000 0.000000
    33 0.928314 0.000000 0.000001 0.000000 0.000000 0.000000
  time 11
    0 0.235347 0.367732 -14.393495 -0.045585 0.257873 -1.742273
    1 0.000000 0.000000 0.000000 -1.570795 -1.570796 0.000000
    2 -0.000005 0.000007 3.713255 2.914525 6.061903 1.331528
    3 18.045721 0.000000 0.000000 0.000000 0.000000 -1.349242
    4 17.597597 0.000000 0.000000 -0.205057 0.225938 -0.216505
    5 0.000005 -0.000003 -3.713255 -0.067002 -3.740518 -0.837425
    6 18.045725 0.000000 0.000000 0.000000 0.000000 -2.074647
    7 17.597597 0.000000 0.000000 -0.092081 0.087821 0.559948
    8 1.293670 0.684478 -0.000001 -0.000004 -0.000001 0.271132
    9 5.309685 -0.003834 0.000000 -0.032981 0.011373 0.331209
    10 4.826790 -0.004591 0.000000 -0.148257 0.201617 0.168643
    11 5.792767 -0.005304 0.000000 0.000065 0.087260 0.093643
    12 6.662317 -0.001453 0.000000 0.000000 -0.000001 -0.314374
    13 2.046985 -0.000002 0.000000 0.414242 -0.053360 -0.851116
    14 -3.272185 -1.123452 4.341911 -1.444918 -1.738301 4.898353
    15 4.827230 0.000000 0.000001 -0.578613 -0.286322 -1.447609
    16 11.139763 0.000000 0.000000 0.000000 0.000000 -1.627036
    17 10.314597 0.000001 0.000000 -0.983799 -0.051834 0.070380
    18 2.975834 -0.386307 -0.044143 -0.017432 -0.039992 0.392972
    19 1.438886 0.000000 0.000000 0.000000 0.000000 0.270702
    20 1.485303 0.000000 0.000000 0.000000 0.000000 0.375250
    21 -3.014434 -1.037911 -4.140396 -0.000013 1.312006 3.455176
    22 4.972048 0.000000 0.000001 0.761854 0.095001 -1.074742
    23 11.585355 0.000000 0.000000 0.000000 0.000000 -2.068268
    24 10.127057 0.000000 0.000001 1.980376 -0.285848 1.184258
    25 2.683750 -0.427338 0.044205 0.001045 0.043611 0.000046
    26 1.438885 -0.000001 0.000000 0.000000 0.000000 0.767762
    27 1.485305 0.000001 0.000000 0.000000 0.000000 1.221689
    28 1.646738 0.449549 -1.702246 0.449790 0.128753 1.240204
    29 0.928312 0.000000 -0.000002 0.000000 0.000000 0.000000
    30 0.928314 0.000000 0.000001 0.000000 0.000000 0.000000
    31 1.533672 0.109715 1.664491 -0.733354 -0.285116 1.223813
    32 0.928313 0.000000 0.000000 0.000000 0.000000 0.000000
    33 0.928314 0.000000 0.000001 0.000000 0.000000 0.000000
  time 12
    0 0.235347 0.367732 -14.393495 -0.045585 0.257873 -1.742273
    1 0.000000 0.000000 0.000000 -1.570795 -1.570796 0.000000
    2 -0.000005 0.000007 3.713255 2.914525 6.061903 1.331528
    3 18.045721 0.000000 0.000000 0.000000 0.000000 -1.349242
    4 17.597597 0.000000 0.000000 -0.205057 0.225938 -0.216505
    5 0.000005 -0.000003 -3.713255 -0.067002 -3.740518 -0.837425
    6 18.045725 0.000000 0.000000 0.000000 0.000000 -2.074647
    7 17.597597 0.000000 0.000000 -0.092081 0.087821 0.559948
    8 1.293670 0.684478 -0.000001 -0.000004 -0.000001 0.271132
    9 5.309685 -0.003834 0.000000 -0.032981 0.011373 0.331209
    10 4.826790 -0.004591 0.000000 -0.148224 0.201856 0.170297
    11 5.792767 -0.005304 0.000000 0.000065 0.087260 0.098024
    12 6.662317 -0.001453 0.000000 0.000000 -0.000001 -0.314374
    13 2.046985 -0.000002 0.000000 0.414587 -0.052617 -0.857094
    14 -3.272185 -1.123452 4.341911 -1.522095 -1.737186 4.976683
    15 4.827230 0.000000 0.000001 -0.592651 -0.304448 -1.425382
    16 11.139763 0.000000 0.000000 0.000000 0.000000 -1.627176
    17 10.314597 0.000001 0.000000 -0.903535 -0.034222 0.092672
    18 2.975834 -0.386307 -0.044143 -0.017432 -0.039992 0.392972
    19 1.438886 0.000000 0.000000 0.000000 0.000000 0.270702
    20 1.485303 0.000000 0.000000 0.000000 0.000000 0.375250
    21 -3.014434 -1.037911 -4.140396 -0.000013 1.307625 3.455176
    22 4.972048 0.000000 0.000001 0.760539 0.102000 -1.077180
    23 11.585355 0.000000 0.000000 0.000000 0.000000 -2.068268
    24 10.127057 0.000000 0.000001 1.980376 -0.285848 1.184258
    25 2.683750 -0.427338 0.044205 0.001045 0.043611 0.000046
    26 1.438885 -0.000001 0.000000 0.000000 0.000000 0.767762
    27 1.485305 0.000001 0.000000 0.000000 0.000000 1.221689
    28 1.646738 0.449549 -1.702246 0.449790 0.128753 1.240204
    29 0.928312 0.000000 -0.000002 0.000000 0.000000 0.000000
    30 0.928314 0.000000 0.000001 0.000000 0.000000 0.000000
    31 1.533672 0.109715 1.664491 -0.733354 -0.285116 1.223813
    32 0.928313 0.000000 0.000000 0.000000 0.000000 0.000000
    33 0.928314 0.000000 0.000001 0.000000 0.000000 0.000000
  time 13
    0 0.235347 0.367732 -14.393495 -0.045585 0.257873 -1.742273
    1 0.000000 0.000000 0.000000 -1.570795 -1.570796 0.000000
    2 -0.000005 0.000007 3.713255 2.914525 6.061903 1.331528
    3 18.045721 0.000000 0.000000 0.000000 0.000000 -1.349242
    4 17.597597 0.000000 0.000000 -0.205057 0.225938 -0.216505
    5 0.000005 -0.000003 -3.713255 -0.067002 -3.740518 -0.837425
    6 18.045725 0.000000 0.000000 0.000000 0.000000 -2.074647
    7 17.597597 0.000000 0.000000 -0.092081 0.087821 0.559948
    8 1.293670 0.684478 -0.000001 -0.000004 -0.000001 0.271132
    9 5.309685 -0.003834 0.000000 -0.032981 0.011373 0.331209
    10 4.826790 -0.004591 0.000000 -0.148191 0.202036 0.171576
    11 5.792767 -0.005304 0.000000 0.000065 0.087260 0.101471
    12 6.662317 -0.001453 0.000000 0.000000 -0.000001 -0.314374
    13 2.046985 -0.000002 0.000000 0.414845 -0.052055 -0.861769
    14 -3.272185 -1.123452 4.341911 1.550829 -1.404532 1.904623
    15 4.827230 0.000000 0.000001 -0.605750 -0.319681 -1.405429
    16 11.139763 0.000000 0.000000 0.000000 0.000000 -1.626195
    17 10.314597 0.000001 0.000000 -0.824980 -0.020764 0.113641
    18 2.975834 -0.386307 -0.044143 -0.017432 -0.039992 0.392972
    19 1.438886 0.000000 0.000000 0.000000 0.000000 0.270702
    20 1.485303 0.000000 0.000000 0.000000 0.000000 0.375250
    21 -3.014434 -1.037911 -4.140396 -0.000013 1.304176 3.455176
    22 4.972048 0.000000 0.000001 0.759533 0.107470 -1.079156
    23 11.585355 0.000000 0.000000 0.000000 0.000000 -2.068268
    24 10.127057 0.000000 0.000001 1.980376 -0.285848 1.184258
    25 2.683750 -0.427338 0.044205 0.001045 0.043611 0.000046
    26 1.438885 -0.000001 0.000000 0.000000 0.000000 0.767762
    27 1.485305 0.000001 0.000000 0.000000 0.000000 1.221689
    28 1.646738 0.449549 -1.702246 0.449790 0.128753 1.240204
    29 0.928312 0.000000 -0.000002 0.000000 0.000000 0.000000
    30 0.928314 0.000000 0.000001 0.000000 0.000000 0.000000
    31 1.533672 0.109715 1.664491 -0.733354 -0.285116 1.223813
    32 0.928313 0.000000 0.000000 0.000000 0.000000 0.000000
    33 0.928314 0.000000 0.000001 0.000000 0.000000 0.000000
  time 14
    0 0.235347 0.367732 -14.393495 -0.045585 0.257873 -1.742273
    1 0.000000 0.000000 0.000000 -1.570795 -1.570796 0.000000
    2 -0.000005 0.000007 3.713255 2.914525 6.061903 1.331528
    3 18.045721 0.000000 0.000000 0.000000 0.000000 -1.349242
    4 17.597597 0.000000 0.000000 -0.205057 0.225938 -0.216505
    5 0.000005 -0.000003 -3.713255 -0.067002 -3.740518 -0.837425
    6 18.045725 0.000000 0.000000 0.000000 0.000000 -2.074647
    7 17.597597 0.000000 0.000000 -0.092081 0.087821 0.559948
    8 1.293670 0.684478 -0.000001 -0.000004 -0.000001 0.271132
    9 5.309685 -0.003834 0.000000 -0.032981 0.011373 0.331209
    10 4.826790 -0.004591 0.000000 -0.148158 0.202168 0.172414
    11 5.792767 -0.005304 0.000000 0.000065 0.087260 0.103734
    12 6.662317 -0.001453 0.000000 0.000000 -0.000001 -0.314374
    13 2.046985 -0.000002 0.000000 0.415018 -0.051672 -0.864870
    14 -3.272185 -1.123452 4.341911 1.496278 -1.404109 1.959944
    15 4.827230 0.000000 0.000001 -0.616792 -0.330999 -1.389152
    16 11.139763 0.000000 0.000000 0.000000 0.000000 -1.623742
    17 10.314597 0.000001 0.000000 -0.751547 -0.012067 0.131437
    18 2.975834 -0.386307 -0.044143 -0.017432 -0.039992 0.392972
    19 1.438886 0.000000 0.000000 0.000000 0.000000 0.270702
    20 1.485303 0.000000 0.000000 0.000000 0.000000 0.375250
    21 -3.014434 -1.037911 -4.140396 -0.000013 1.301915 3.455176
    22 4.972048 0.000000 0.000001 0.758914 0.111090 -1.080407
    23 11.585355 0.000000 0.000000 0.000000 0.000000 -2.068268
    24 10.127057 0.000000 0.000001 1.980376 -0.285848 1.184258
    25 2.683750 -0.427338 0.044205 0.001045 0.043611 0.000046
    26 1.438885 -0.000001 0.000000 0.000000 0.000000 0.767762
    27 1.485305 0.000001 0.000000 0.000000 0.000000 1.221689
    28 1.646738 0.449549 -1.702246 0.449790 0.128753 1.240204
    29 0.928312 0.000000 -0.000002 0.000000 0.000000 0.000000
    30 0.928314 0.000000 0.000001 0.000000 0.000000 0.000000
    31 1.533672 0.109715 1.664491 -0.733354 -0.285116 1.223813
    32 0.928313 0.000000 0.000000 0.000000 0.000000 0.000000
    33 0.928314 0.000000 0.000001 0.000000 0.000000 0.000000
  time 15
    0 0.235347 0.367732 -14.393495 -0.045585 0.257873 -1.742273
    1 0.000000 0.000000 0.000000 -1.570795 -1.570796 0.000000
    2 -0.000005 0.000007 3.713255 2.914525 6.061903 1.331528
    3 18.045721 0.000000 0.000000 0.000000 0.000000 -1.349242
    4 17.597597 0.000000 0.000000 -0.205057 0.225938 -0.216505
    5 0.000005 -0.000003 -3.713255 -0.067002 -3.740518 -0.837425
    6 18.045725 0.000000 0.000000 0.000000 0.000000 -2.074647
    7 17.597597 0.000000 0.000000 -0.092081 0.087821 0.559948
    8 1.293670 0.684478 -0.000001 -0.000004 -0.000001 0.271132
    9 5.309685 -0.003834 0.000000 -0.032981 0.011373 0.331209
    10 4.826790 -0.004591 0.000000 -0.148158 0.202216 0.172745
    11 5.792767 -0.005304 0.000000 0.000065 0.087260 0.104606
    12 6.662317 -0.001453 0.000000 0.000000 -0.000001 -0.314374
    13 2.046985 -0.000002 0.000000 0.415104 -0.051514 -0.866084
    14 -3.272185 -1.123452 4.341911 1.471542 -1.403724 1.985063
    15 4.827230 0.000000 0.000001 -0.622548 -0.335595 -1.380663
    16 11.139763 0.000000 0.000000 0.000000 0.000000 -1.619047
    17 10.314597 0.000001 0.000000 -0.695012 -0.010306 0.140724
    18 2.975834 -0.386307 -0.044143 -0.017432 -0.039992 0.392972
    19 1.438886 0.000000 0.000000 0.000000 0.000000 0.270702
    20 1.485303 0.000000 0.000000 0.000000 0.000000 0.375250
    21 -3.014434 -1.037911 -4.140396 -0.000013 1.301039 3.455176
    22 4.972048 0.000000 0.000001 0.758605 0.112457 -1.080934
    23 11.585355 0.000000 0.000000 0.000000 0.000000 -2.068268
    24 10.127057 0.000000 0.000001 1.980376 -0.285848 1.184258
    25 2.683750 -0.427338 0.044205 0.001045 0.043611 0.000046
    26 1.438885 -0.000001 0.000000 0.000000 0.000000 0.767762
    27 1.485305 0.000001 0.000000 0.000000 0.000000 1.221689
    28 1.646738 0.449549 -1.702246 0.449790 0.128753 1.240204
    29 0.928312 0.000000 -0.000002 0.000000 0.000000 0.000000
    30 0.928314 0.000000 0.000001 0.000000 0.000000 0.000000
    31 1.533672 0.109715 1.664491 -0.733354 -0.285116 1.223813
    32 0.928313 0.000000 0.000000 0.000000 0.000000 0.000000
    33 0.928314 0.000000 0.000001 0.000000 0.000000 0.000000
  time 16
    0 0.235347 0.367732 -14.393495 -0.045585 0.257873 -1.742273
    1 0.000000 0.000000 0.000000 -1.570795 -1.570796 0.000000
    2 -0.000005 0.000007 3.713255 2.914525 6.061903 1.331528
    3 18.045721 0.000000 0.000000 0.000000 0.000000 -1.349242
    4 17.597597 0.000000 0.000000 -0.205057 0.225938 -0.216505
    5 0.000005 -0.000003 -3.713255 -0.067002 -3.740518 -0.837425
    6 18.045725 0.000000 0.000000 0.000000 0.000000 -2.074647
    7 17.597597 0.000000 0.000000 -0.092081 0.087821 0.559948
    8 1.293670 0.684478 -0.000001 -0.000004 -0.000001 0.271132
    9 5.309685 -0.003834 0.000000 -0.032981 0.011373 0.331209
    10 4.826790 -0.004591 0.000000 -0.148158 0.202180 0.172524
    11 5.792767 -0.005304 0.000000 0.000065 0.087260 0.104025
    12 6.662317 -0.001453 0.000000 0.000000 -0.000001 -0.314374
    13 2.046985 -0.000002 0.000000 0.415061 -0.051627 -0.865275
    14 -3.272185 -1.123452 4.341911 1.503372 -1.404186 1.952753
    15 4.827230 0.000000 0.000001 -0.617614 -0.328532 -1.386614
    16 11.139763 0.000000 0.000000 0.000000 0.000000 -1.608044
    17 10.314597 0.000001 0.000000 -0.661397 -0.018503 0.133957
    18 2.975834 -0.386307 -0.044143 -0.017432 -0.039992 0.392972
    19 1.438886 0.000000 0.000000 0.000000 0.000000 0.270702
    20 1.485303 0.000000 0.000000 0.000000 0.000000 0.375250
    21 -3.014434 -1.037911 -4.140396 -0.000013 1.301633 3.455176
    22 4.972048 0.000000 0.000001 0.758837 0.111492 -1.080605
    23 11.585355 0.000000 0.000000 0.000000 0.000000 -2.068268
    24 10.127057 0.000000 0.000001 1.980376 -0.285848 1.184258
    25 2.683750 -0.427338 0.044205 0.001045 0.043611 0.000046
    26 1.438885 -0.000001 0.000000 0.000000 0.000000 0.767762
    27 1.485305 0.000001 0.000000 0.000000 0.000000 1.221689
    28 1.646738 0.449549 -1.702246 0.449790 0.128753 1.240204
    29 0.928312 0.000000 -0.000002 0.000000 0.000000 0.000000
    30 0.928314 0.000000 0.000001 0.000000 0.000000 0.000000
    31 1.533672 0.109715 1.664491 -0.733354 -0.285116 1.223813
    32 0.928313 0.000000 0.000000 0.000000 0.000000 0.000000
    33 0.928314 0.000000 0.000001 0.000000 0.000000 0.000000
  time 17
    0 0.235347 0.367732 -14.393495 -0.045585 0.257873 -1.742273
    1 0.000000 0.000000 0.000000 -1.570795 -1.570796 0.000000
    2 -0.000005 0.000007 3.713255 2.914525 6.061903 1.331528
    3 18.045721 0.000000 0.000000 0.000000 0.000000 -1.349242
    4 17.597597 0.000000 0.000000 -0.205057 0.225938 -0.216505
    5 0.000005 -0.000003 -3.713255 -0.067002 -3.740518 -0.837425
    6 18.045725 0.000000 0.000000 0.000000 0.000000 -2.074647
    7 17.597597 0.000000 0.000000 -0.092081 0.087821 0.559948
    8 1.293670 0.684478 -0.000001 -0.000004 -0.000001 0.271132
    9 5.309685 -0.003834 0.000000 -0.032981 0.011373 0.331209
    10 4.826790 -0.004591 0.000000 -0.148174 0.202096 0.171907
    11 5.792767 -0.005304 0.000000 0.000065 0.087260 0.102385
    12 6.662317 -0.001453 0.000000 0.000000 -0.000001 -0.314374
    13 2.046985 -0.000002 0.000000 0.414932 -0.051897 -0.863027
    14 -3.272185 -1.123452 4.341911 -1.548365 -1.737032 5.003241
    15 4.827230 0.000000 0.000001 -0.602402 -0.309809 -1.406567
    16 11.139763 0.000000 0.000000 0.000000 0.000000 -1.589403
    17 10.314597 0.000001 0.000000 -0.642342 -0.036223 0.111214
    18 2.975834 -0.386307 -0.044143 -0.017432 -0.039992 0.392972
    19 1.438886 0.000000 0.000000 0.000000 0.000000 0.270702
    20 1.485303 0.000000 0.000000 0.000000 0.000000 0.375250
    21 -3.014434 -1.037911 -4.140396 -0.000013 1.303244 3.455176
    22 4.972048 0.000000 0.000001 0.759301 0.108918 -1.079617
    23 11.585355 0.000000 0.000000 0.000000 0.000000 -2.068268
    24 10.127057 0.000000 0.000001 1.980376 -0.285848 1.184258
    25 2.683750 -0.427338 0.044205 0.001045 0.043611 0.000046
    26 1.438885 -0.000001 0.000000 0.000000 0.000000 0.767762
    27 1.485305 0.000001 0.000000 0.000000 0.000000 1.221689
    28 1.646738 0.449549 -1.702246 0.449790 0.128753 1.240204
    29 0.928312 0.000000 -0.000002 0.000000 0.000000 0.000000
    30 0.928314 0.000000 0.000001 0.000000 0.000000 0.000000
    31 1.533672 0.109715 1.664491 -0.733354 -0.285116 1.223813
    32 0.928313 0.000000 0.000000 0.000000 0.000000 0.000000
    33 0.928314 0.000000 0.000001 0.000000 0.000000 0.000000
  time 18
    0 0.235347 0.367732 -14.393495 -0.045585 0.257873 -1.742273
    1 0.000000 0.000000 0.000000 -1.570795 -1.570796 0.000000
    2 -0.000005 0.000007 3.713255 2.914525 6.061903 1.331528
    3 18.045721 0.000000 0.000000 0.000000 0.000000 -1.349242
    4 17.597597 0.000000 0.000000 -0.205057 0.225938 -0.216505
    5 0.000005 -0.000003 -3.713255 -0.067002 -3.740518 -0.837425
    6 18.045725 0.000000 0.000000 0.000000 0.000000 -2.074647
    7 17.597597 0.000000 0.000000 -0.092081 0.087821 0.559948
    8 1.293670 0.684478 -0.000001 -0.000004 -0.000001 0.271132
    9 5.309685 -0.003834 0.000000 -0.032981 0.011373 0.331209
    10 4.826790 -0.004591 0.000000 -0.148191 0.201964 0.171047
    11 5.792767 -0.005304 0.000000 0.000065 0.087260 0.100080
    12 6.662317 -0.001453 0.000000 0.000000 -0.000001 -0.314374
    13 2.046985 -0.000002 0.000000 0.414759 -0.052280 -0.859881
    14 -3.272185 -1.123452 4.341911 -1.422579 -1.738840 4.875726
    15 4.827230 0.000000 0.000001 -0.581550 -0.284109 -1.435795
    16 11.139763 0.000000 0.000000 0.000000 0.000000 -1.567538
    17 10.314597 0.000001 0.000000 -0.639826 -0.061531 0.076696
    18 2.975834 -0.386307 -0.044143 -0.017432 -0.039992 0.392972
    19 1.438886 0.000000 0.000000 0.000000 0.000000 0.270702
    20 1.485303 0.000000 0.000000 0.000000 0.000000 0.375250
    21 -3.014434 -1.037911 -4.140396 -0.000013 1.305561 3.455176
    22 4.972048 0.000000 0.000001 0.759997 0.105298 -1.078365
    23 11.585355 0.000000 0.000000 0.000000 0.000000 -2.068268
    24 10.127057 0.000000 0.000001 1.980376 -0.285848 1.184258
    25 2.683750 -0.427338 0.044205 0.001045 0.043611 0.000046
    26 1.438885 -0.000001 0.000000 0.000000 0.000000 0.767762
    27 1.485305 0.000001 0.000000 0.000000 0.000000 1.221689
    28 1.646738 0.449549 -1.702246 0.449790 0.128753 1.240175
    29 0.928312 0.000000 -0.000002 0.000000 0.000000 0.000000
    30 0.928314 0.000000 0.000001 0.000000 0.000000 0.000000
    31 1.533672 0.109715 1.664491 -0.733354 -0.285116 1.223813
    32 0.928313 0.000000 0.000000 0.000000 0.000000 0.000000
    33 0.928314 0.000000 0.000001 0.000000 0.000000 0.000000
  time 19
    0 0.235347 0.367732 -14.393495 -0.045585 0.257873 -1.742273
    1 0.000000 0.000000 0.000000 -1.570795 -1.570796 0.000000
    2 -0.000005 0.000007 3.713255 2.914525 6.061903 1.331528
    3 18.045721 0.000000 0.000000 0.000000 0.000000 -1.349242
    4 17.597597 0.000000 0.000000 -0.205057 0.225938 -0.216505
    5 0.000005 -0.000003 -3.713255 -0.067002 -3.740518 -0.837425
    6 18.045725 0.000000 0.000000 0.000000 0.000000 -2.074647
    7 17.597597 0.000000 0.000000 -0.092081 0.087821 0.559948
    8 1.293670 0.684478 -0.000001 -0.000004 -0.000001 0.271132
    9 5.309685 -0.003834 0.000000 -0.032981 0.011373 0.331209
    10 4.826790 -0.004591 0.000000 -0.148224 0.201809 0.169988
    11 5.792767 -0.005304 0.000000 0.000065 0.087260 0.097235
    12 6.662317 -0.001453 0.000000 0.000000 -0.000001 -0.314374
    13 2.046985 -0.000002 0.000000 0.414544 -0.052753 -0.856015
    14 -3.272185 -1.123452 4.341911 -1.298423 -1.743417 4.749745
    15 4.827230 0.000000 0.000001 -0.561756 -0.258323 -1.466512
    16 11.139763 0.000000 0.000000 0.000000 0.000000 -1.549317
    17 10.314597 0.000001 0.000000 -0.654386 -0.091448 0.038180
    18 2.975834 -0.386307 -0.044143 -0.017432 -0.039992 0.392972
    19 1.438886 0.000000 0.000000 0.000000 0.000000 0.270702
    20 1.485303 0.000000 0.000000 0.000000 0.000000 0.375250
    21 -3.014434 -1.037911 -4.140396 -0.000013 1.308416 3.455176
    22 4.972048 0.000000 0.000001 0.760771 0.100793 -1.076719
    23 11.585355 0.000000 0.000000 0.000000 0.000000 -2.068268
    24 10.127057 0.000000 0.000001 1.980376 -0.285848 1.184258
    25 2.683750 -0.427338 0.044205 0.001045 0.043611 0.000046
    26 1.438885 -0.000001 0.000000 0.000000 0.000000 0.767762
    27 1.485305 0.000001 0.000000 0.000000 0.000000 1.221689
    28 1.646738 0.449549 -1.702246 0.449790 0.128753 1.240204
    29 0.928312 0.000000 -0.000002 0.000000 0.000000 0.000000
    30 0.928314 0.000000 0.000001 0.000000 0.000000 0.000000
    31 1.533672 0.109715 1.664491 -0.733354 -0.285116 1.223813
    32 0.928313 0.000000 0.000000 0.000000 0.000000 0.000000
    33 0.928314 0.000000 0.000001 0.000000 0.000000 0.000000
  time 20
    0 0.235347 0.367732 -14.393495 -0.045585 0.257873 -1.742273
    1 0.000000 0.000000 0.000000 -1.570795 -1.570796 0.000000
    2 -0.000005 0.000007 3.713255 2.914525 6.061903 1.331528
    3 18.045721 0.000000 0.000000 0.000000 0.000000 -1.349242
    4 17.597597 0.000000 0.000000 -0.205057 0.225938 -0.216505
    5 0.000005 -0.000003 -3.713255 -0.067002 -3.740518 -0.837425
    6 18.045725 0.000000 0.000000 0.000000 0.000000 -2.074647
    7 17.597597 0.000000 0.000000 -0.092081 0.087821 0.559948
    8 1.293670 0.684478 -0.000001 -0.000004 -0.000001 0.271132
    9 5.309685 -0.003834 0.000000 -0.032981 0.011373 0.331209
    10 4.826790 -0.004591 0.000000 -0.148257 0.201629 0.168754
    11 5.792767 -0.005304 0.000000 0.000065 0.087260 0.093934
    12 6.662317 -0.001453 0.000000 0.000000 -0.000001 -0.314374
    13 2.046985 -0.000002 0.000000 0.414285 -0.053315 -0.851521
    14 -3.272185 -1.123452 4.341911 1.923488 -1.393569 1.526584
    15 4.827230 0.000000 0.000001 -0.550068 -0.241218 -1.488740
    16 11.139763 0.000000 0.000000 0.000000 0.000000 -1.543150
    17 10.314597 0.000001 0.000000 -0.686114 -0.121670 0.006104
    18 2.975834 -0.386307 -0.044143 -0.017432 -0.039992 0.392972
    19 1.438886 0.000000 0.000000 0.000000 0.000000 0.270702
    20 1.485303 0.000000 0.000000 0.000000 0.000000 0.375250
    21 -3.014434 -1.037911 -4.140396 -0.000013 1.311723 3.455176
    22 4.972048 0.000000 0.000001 0.761776 0.095484 -1.074874
    23 11.585355 0.000000 0.000000 0.000000 0.000000 -2.068268
    24 10.127057 0.000000 0.000001 1.980376 -0.285848 1.184258
    25 2.683750 -0.427338 0.044205 0.001045 0.043611 0.000046
    26 1.438885 -0.000001 0.000000 0.000000 0.000000 0.767762
    27 1.485305 0.000001 0.000000 0.000000 0.000000 1.221689
    28 1.646738 0.449549 -1.702246 0.449790 0.128753 1.240204
    29 0.928312 0.000000 -0.000002 0.000000 0.000000 0.000000
    30 0.928314 0.000000 0.000001 0.000000 0.000000 0.000000
    31 1.533672 0.109715 1.664491 -0.733354 -0.285116 1.223813
    32 0.928313 0.000000 0.000000 0.000000 0.000000 0.000000
    33 0.928314 0.000000 0.000001 0.000000 0.000000 0.000000
  time 21
    0 0.235347 0.367732 -14.393495 -0.045585 0.257873 -1.742273
    1 0.000000 0.000000 0.000000 -1.570795 -1.570796 0.000000
    2 -0.000005 0.000007 3.713255 2.914525 6.061903 1.331528
    3 18.045721 0.000000 0.000000 0.000000 0.000000 -1.349242
    4 17.597597 0.000000 0.000000 -0.205057 0.225938 -0.216505
    5 0.000005 -0.000003 -3.713255 -0.067002 -3.740518 -0.837425
    6 18.045725 0.000000 0.000000 0.000000 0.000000 -2.074647
    7 17.597597 0.000000 0.000000 -0.092081 0.087821 0.559948
    8 1.293670 0.684478 -0.000001 -0.000004 -0.000001 0.271132
    9 5.309685 -0.003834 0.000000 -0.032981 0.011373 0.331209
    10 4.826790 -0.004591 0.000000 -0.148289 0.201425 0.167343
    11 5.792767 -0.005304 0.000000 0.000065 0.087260 0.090114
    12 6.662317 -0.001453 0.000000 0.000000 -0.000001 -0.314374
    13 2.046985 -0.000002 0.000000 0.413984 -0.053946 -0.846307
    14 -3.272185 -1.123452 4.341911 1.923488 -1.393569 1.526584
    15 4.827230 0.000000 0.000001 -0.540963 -0.237389 -1.503967
    16 11.139763 0.000000 0.000000 0.000000 0.000000 -1.557937
    17 10.314597 0.000001 0.000000 -0.763951 -0.163546 -0.023297
    18 2.975834 -0.386307 -0.044143 -0.017432 -0.039992 0.392972
    19 1.438886 0.000000 0.000000 0.000000 0.000000 0.270702
    20 1.485303 0.000000 0.000000 0.000000 0.000000 0.375250
    21 -3.014434 -1.037911 -4.140396 -0.000013 1.315539 3.455176
    22 4.972048 0.000000 0.000001 0.762782 0.089451 -1.072832
    23 11.585355 0.000000 0.000000 0.000000 0.000000 -2.068268
    24 10.127057 0.000000 0.000001 1.980376 -0.285848 1.184258
    25 2.683750 -0.427338 0.044205 0.001045 0.043611 0.000046
    26 1.438885 -0.000001 0.000000 0.000000 0.000000 0.767762
    27 1.485305 0.000001 0.000000 0.000000 0.000000 1.221689
    28 1.646738 0.449549 -1.702246 0.449790 0.128753 1.240204
    29 0.928312 0.000000 -0.000002 0.000000 0.000000 0.000000
    30 0.928314 0.000000 0.000001 0.000000 0.000000 0.000000
    31 1.533672 0.109715 1.664491 -0.733354 -0.285116 1.223813
    32 0.928313 0.000000 0.000000 0.000000 0.000000 0.000000
    33 0.928314 0.000000 0.000001 0.000000 0.000000 0.000000
  time 22
    0 0.235347 0.367732 -14.393495 -0.045585 0.257873 -1.742273
    1 0.000000 0.000000 0.000000 -1.570795 -1.570796 0.000000
    2 -0.000005 0.000007 3.713255 2.914525 6.061903 1.331528
    3 18.045721 0.000000 0.000000 0.000000 0.000000 -1.349242
    4 17.597597 0.000000 0.000000 -0.205057 0.225938 -0.216505
    5 0.000005 -0.000003 -3.713255 -0.067002 -3.740518 -0.837425
    6 18.045725 0.000000 0.000000 0.000000 0.000000 -2.074647
    7 17.597597 0.000000 0.000000 -0.092081 0.087821 0.559948
    8 1.293670 0.684478 -0.000001 -0.000004 -0.000001 0.271132
    9 5.309685 -0.003834 0.000000 -0.032981 0.011373 0.331209
    10 4.826790 -0.004591 0.000000 -0.148339 0.201185 0.165689
    11 5.792767 -0.005304 0.000000 0.000065 0.087260 0.085712
    12 6.662317 -0.001453 0.000000 0.000000 -0.000001 -0.314374
    13 2.046985 -0.000002 0.000000 0.413596 -0.054666 -0.840329
    14 -3.272185 -1.123452 4.341911 1.923488 -1.393569 1.526584
    15 4.827230 0.000000 0.000001 -0.542726 -0.242154 -1.513943
    16 11.139763 0.000000 0.000000 0.000000 0.000000 -1.590734
    17 10.314597 0.000001 0.000000 -0.892121 -0.221858 -0.049649
    18 2.975834 -0.386307 -0.044143 -0.017432 -0.039992 0.392972
    19 1.438886 0.000000 0.000000 0.000000 0.000000 0.270702
    20 1.485303 0.000000 0.000000 0.000000 0.000000 0.375250
    21 -3.014434 -1.037911 -4.140396 -0.000013 1.319948 3.455176
    22 4.972048 0.000000 0.000001 0.764020 0.082372 -1.070395
    23 11.585355 0.000000 0.000000 0.000000 0.000000 -2.068268
    24 10.127057 0.000000 0.000001 1.980376 -0.285848 1.184258
    25 2.683750 -0.427338 0.044205 0.001045 0.043611 0.000046
    26 1.438885 -0.000001 0.000000 0.000000 0.000000 0.767762
    27 1.485305 0.000001 0.000000 0.000000 0.000000 1.221689
    28 1.646738 0.449549 -1.702246 0.449790 0.128753 1.240204
    29 0.928312 0.000000 -0.000002 0.000000 0.000000 0.000000
    30 0.928314 0.000000 0.000001 0.000000 0.000000 0.000000
    31 1.533672 0.109715 1.664491 -0.733354 -0.285116 1.223813
    32 0.928313 0.000000 0.000000 0.000000 0.000000 0.000000
    33 0.928314 0.000000 0.000001 0.000000 0.000000 0.000000
  time 23
    0 0.235347 0.367732 -14.393495 -0.045585 0.257873 -1.742273
    1 0.000000 0.000000 0.000000 -1.570795 -1.570796 0.000000
    2 -0.000005 0.000007 3.713255 2.914525 6.061903 1.331528
    3 18.045721 0.000000 0.000000 0.000000 0.000000 -1.349242
    4 17.597597 0.000000 0.000000 -0.205057 0.225938 -0.216505
    5 0.000005 -0.000003 -3.713255 -0.067002 -3.740518 -0.837425
    6 18.045725 0.000000 0.000000 0.000000 0.000000 -2.074647
    7 17.597597 0.000000 0.000000 -0.092081 0.087821 0.559948
    8 1.293670 0.684478 -0.000001 -0.000004 -0.000001 0.271132
    9 5.309685 -0.003834 0.000000 -0.032981 0.011373 0.331209
    10 4.826790 -0.004591 0.000000 -0.148388 0.200898 0.163793
    11 5.792767 -0.005304 0.000000 0.000065 0.087260 0.080584
    12 6.662317 -0.001453 0.000000 0.000000 -0.000001 -0.314374
    13 2.046985 -0.000002 0.000000 0.413208 -0.055522 -0.833317
    14 -3.272185 -1.123452 4.341911 1.923488 -1.393569 1.526584
    15 4.827230 0.000000 0.000001 -0.553474 -0.249643 -1.515606
    16 11.139763 0.000000 0.000000 0.000000 0.000000 -1.625354
    17 10.314597 0.000001 0.000000 -1.011392 -0.269518 -0.059589
    18 2.975834 -0.386307 -0.044143 -0.017432 -0.039992 0.392972
    19 1.438886 0.000000 0.000000 0.000000 0.000000 0.270702
    20 1.485303 0.000000 0.000000 0.000000 0.000000 0.375250
    21 -3.014434 -1.037911 -4.140396 -0.000013 1.325064 3.455176
    22 4.972048 0.000000 0.000001 0.765412 0.074167 -1.067694
    23 11.585355 0.000000 0.000000 0.000000 0.000000 -2.068268
    24 10.127057 0.000000 0.000001 1.980376 -0.285848 1.184258
    25 2.683750 -0.427338 0.044205 0.001045 0.043611 0.000046
    26 1.438885 -0.000001 0.000000 0.000000 0.000000 0.767762
    27 1.485305 0.000001 0.000000 0.000000 0.000000 1.221689
    28 1.646738 0.449549 -1.702246 0.449790 0.128753 1.240204
    29 0.928312 0.000000 -0.000002 0.000000 0.000000 0.000000
    30 0.928314 0.000000 0.000001 0.000000 0.000000 0.000000
    31 1.533672 0.109715 1.664491 -0.733354 -0.285116 1.223813
    32 0.928313 0.000000 0.000000 0.000000 0.000000 0.000000
    33 0.928314 0.000000 0.000001 0.000000 0.000000 0.000000
  time 24
    0 0.235347 0.367732 -14.393495 -0.045585 0.257873 -1.742273
    1 0.000000 0.000000 0.000000 -1.570795 -1.570796 0.000000
    2 -0.000005 0.000007 3.713255 2.914525 6.061903 1.331528
    3 18.045721 0.000000 0.000000 0.000000 0.000000 -1.349242
    4 17.597597 0.000000 0.000000 -0.205057 0.225938 -0.216505
    5 0.000005 -0.000003 -3.713255 -0.067002 -3.740518 -0.837425
    6 18.045725 0.000000 0.000000 0.000000 0.000000 -2.074647
    7 17.597597 0.000000 0.000000 -0.092081 0.087821 0.559948
    8 1.293670 0.684478 -0.000001 -0.000004 -0.000001 0.271132
    9 5.309685 -0.003834 0.000000 -0.032981 0.011373 0.331209
    10 4.826790 -0.004591 0.000000 -0.148437 0.200574 0.161566
    11 5.792767 -0.005304 0.000000 0.000065 0.087260 0.074604
    12 6.662317 -0.001453 0.000000 0.000000 -0.000001 -0.314374
    13 2.046985 -0.000002 0.000000 0.412734 -0.056513 -0.825181
    14 -3.272185 -1.123452 4.341911 1.923488 -1.393569 1.526584
    15 4.827230 0.000000 0.000001 -0.568570 -0.252792 -1.508342
    16 11.139763 0.000000 0.000000 0.000000 0.000000 -1.645046
    17 10.314597 0.000001 0.000000 -1.063793 -0.280584 -0.053864
    18 2.975834 -0.386307 -0.044143 -0.017432 -0.039992 0.392972
    19 1.438886 0.000000 0.000000 0.000000 0.000000 0.270702
    20 1.485303 0.000000 0.000000 0.000000 0.000000 0.375250
    21 -3.014434 -1.037911 -4.140396 -0.000013 1.331027 3.455176
    22 4.972048 0.000000 0.000001 0.767037 0.064595 -1.064532
    23 11.585355 0.000000 0.000000 0.000000 0.000000 -2.068268
    24 10.127057 0.000000 0.000001 1.980376 -0.285848 1.184258
    25 2.683750 -0.427338 0.044205 0.001045 0.043611 0.000046
    26 1.438885 -0.000001 0.000000 0.000000 0.000000 0.767762
    27 1.485305 0.000001 0.000000 0.000000 0.000000 1.221689
    28 1.646738 0.449549 -1.702246 0.449790 0.128753 1.240204
    29 0.928312 0.000000 -0.000002 0.000000 0.000000 0.000000
    30 0.928314 0.000000 0.000001 0.000000 0.000000 0.000000
    31 1.533672 0.109715 1.664491 -0.733354 -0.285116 1.223813
    32 0.928313 0.000000 0.000000 0.000000 0.000000 0.000000
    33 0.928314 0.000000 0.000001 0.000000 0.000000 0.000000
  time 25
    0 0.235347 0.367732 -14.393495 -0.045585 0.257873 -1.742273
    1 0.000000 0.000000 0.000000 -1.570795 -1.570796 0.000000
    2 -0.000005 0.000007 3.713255 2.914525 6.061903 1.331528
    3 18.045721 0.000000 0.000000 0.000000 0.000000 -1.349242
    4 17.597597 0.000000 0.000000 -0.205057 0.225938 -0.216505
    5 0.000005 -0.000003 -3.713255 -0.067002 -3.740518 -0.837425
    6 18.045725 0.000000 0.000000 0.000000 0.000000 -2.074647
    7 17.597597 0.000000 0.000000 -0.092081 0.087821 0.559948
    8 1.293670 0.684478 -0.000001 -0.000004 -0.000001 0.271132
    9 5.309685 -0.003834 0.000000 -0.032981 0.011373 0.331209
    10 4.826790 -0.004591 0.000000 -0.148503 0.200203 0.159008
    11 5.792767 -0.005304 0.000000 0.000065 0.087260 0.067752
    12 6.662317 -0.001453 0.000000 0.000000 -0.000001 -0.314374
    13 2.046985 -0.000002 0.000000 0.412174 -0.057638 -0.815832
    14 -3.272185 -1.123452 4.341911 1.923488 -1.393569 1.526584
    15 4.827230 0.000000 0.000001 -0.587013 -0.250409 -1.492765
    16 11.139763 0.000000 0.000000 0.000000 0.000000 -1.648340
    17 10.314597 0.000001 0.000000 -1.043659 -0.253341 -0.036877
    18 2.975834 -0.386307 -0.044143 -0.017432 -0.039992 0.392972
    19 1.438886 0.000000 0.000000 0.000000 0.000000 0.270702
    20 1.485303 0.000000 0.000000 0.000000 0.000000 0.375250
    21 -3.014434 -1.037911 -4.140396 -0.000013 1.337896 3.455176
    22 4.972048 0.000000 0.000001 0.768738 0.053655 -1.061041
    23 11.585355 0.000000 0.000000 0.000000 0.000000 -2.068268
    24 10.127057 0.000000 0.000001 1.980376 -0.285848 1.184258
    25 2.683750 -0.427338 0.044205 0.001045 0.043611 0.000046
    26 1.438885 -0.000001 0.000000 0.000000 0.000000 0.767762
    27 1.485305 0.000001 0.000000 0.000000 0.000000 1.221689
    28 1.646738 0.449549 -1.702246 0.449790 0.128753 1.240175
    29 0.928312 0.000000 -0.000002 0.000000 0.000000 0.000000
    30 0.928314 0.000000 0.000001 0.000000 0.000000 0.000000
    31 1.533672 0.109715 1.664491 -0.733354 -0.285116 1.223813
    32 0.928313 0.000000 0.000000 0.000000 0.000000 0.000000
    33 0.928314 0.000000 0.000001 0.000000 0.000000 0.000000
  time 26
    0 0.235347 0.367732 -14.393495 -0.045585 0.257873 -1.742273
    1 0.000000 0.000000 0.000000 -1.570795 -1.570796 0.000000
    2 -0.000005 0.000007 3.713255 2.914525 6.061903 1.331528
    3 18.045721 0.000000 0.000000 0.000000 0.000000 -1.349242
    4 17.597597 0.000000 0.000000 -0.205057 0.225938 -0.216505
    5 0.000005 -0.000003 -3.713255 -0.067002 -3.740518 -0.837425
    6 18.045725 0.000000 0.000000 0.000000 0.000000 -2.074647
    7 17.597597 0.000000 0.000000 -0.092081 0.087821 0.559948
    8 1.293670 0.684478 -0.000001 -0.000004 -0.000001 0.271132
    9 5.309685 -0.003834 0.000000 -0.032981 0.011373 0.331209
    10 4.826790 -0.004591 0.000000 -0.148569 0.199783 0.156142
    11 5.792767 -0.005304 0.000000 0.000065 0.087260 0.060091
    12 6.662317 -0.001453 0.000000 0.000000 -0.000001 -0.314374
    13 2.046985 -0.000002 0.000000 0.411528 -0.058899 -0.805359
    14 -3.272185 -1.123452 4.341911 1.923488 -1.393569 1.526584
    15 4.827230 0.000000 0.000001 -0.607512 -0.245473 -1.473250
    16 11.139763 0.000000 0.000000 0.000000 0.000000 -1.645817
    17 10.314597 0.000001 0.000000 -0.995124 -0.211313 -0.013248
    18 2.975834 -0.386307 -0.044143 -0.017432 -0.039992 0.392972
    19 1.438886 0.000000 0.000000 0.000000 0.000000 0.270702
    20 1.485303 0.000000 0.000000 0.000000 0.000000 0.375250
    21 -3.014434 -1.037911 -4.140396 -0.000013 1.345555 3.455176
    22 4.972048 0.000000 0.000001 0.770672 0.041267 -1.057220
    23 11.585355 0.000000 0.000000 0.000000 0.000000 -2.068268
    24 10.127057 0.000000 0.000001 1.980376 -0.285848 1.184258
    25 2.683750 -0.427338 0.044205 0.001045 0.043611 0.000046
    26 1.438885 -0.000001 0.000000 0.000000 0.000000 0.767762
    27 1.485305 0.000001 0.000000 0.000000 0.000000 1.221689
    28 1.646738 0.449549 -1.702246 0.449790 0.128753 1.240204
    29 0.928312 0.000000 -0.000002 0.000000 0.000000 0.000000
    30 0.928314 0.000000 0.000001 0.000000 0.000000 0.000000
    31 1.533672 0.109715 1.664491 -0.733354 -0.285116 1.223813
    32 0.928313 0.000000 0.000000 0.000000 0.000000 0.000000
    33 0.928314 0.000000 0.000001 0.000000 0.000000 0.000000
  time 27
    0 0.235347 0.367732 -14.393495 -0.045585 0.257873 -1.742273
    1 0.000000 0.000000 0.000000 -1.570795 -1.570796 0.000000
    2 -0.000005 0.000007 3.713255 2.914525 6.061903 1.331528
    3 18.045721 0.000000 0.000000 0.000000 0.000000 -1.349242
    4 17.597597 0.000000 0.000000 -0.205057 0.225938 -0.216505
    5 0.000005 -0.000003 -3.713255 -0.067002 -3.740518 -0.837425
    6 18.045725 0.000000 0.000000 0.000000 0.000000 -2.074647
    7 17.597597 0.000000 0.000000 -0.092081 0.087821 0.559948
    8 1.293670 0.684478 -0.000001 -0.000004 -0.000001 0.271132
    9 5.309685 -0.003834 0.000000 -0.032981 0.011373 0.331209
    10 4.826790 -0.004591 0.000000 -0.148634 0.199328 0.153099
    11 5.792767 -0.005304 0.000000 0.000065 0.087260 0.051910
    12 6.662317 -0.001453 0.000000 0.000000 -0.000001 -0.314374
    13 2.046985 -0.000002 0.000000 0.410839 -0.060228 -0.794212
    14 -3.272185 -1.123452 4.341911 1.923488 -1.393569 1.526584
    15 4.827230 0.000000 0.000001 -0.630419 -0.239091 -1.450060
    16 11.139763 0.000000 0.000000 0.000000 0.000000 -1.640211
    17 10.314597 0.000001 0.000000 -0.928073 -0.160089 0.018035
    18 2.975834 -0.386307 -0.044143 -0.017432 -0.039992 0.392972
    19 1.438886 0.000000 0.000000 0.000000 0.000000 0.270702
    20 1.485303 0.000000 0.000000 0.000000 0.000000 0.375250
    21 -3.014434 -1.037911 -4.140396 -0.000013 1.353752 3.455176
    22 4.972048 0.000000 0.000001 0.772606 0.028075 -1.053268
    23 11.585355 0.000000 0.000000 0.000000 0.000000 -2.068268
    24 10.127057 0.000000 0.000001 1.980376 -0.285848 1.184258
    25 2.683750 -0.427338 0.044205 0.001045 0.043611 0.000046
    26 1.438885 -0.000001 0.000000 0.000000 0.000000 0.767762
    27 1.485305 0.000001 0.000000 0.000000 0.000000 1.221689
    28 1.646738 0.449549 -1.702246 0.449790 0.128753 1.240204
    29 0.928312 0.000000 -0.000002 0.000000 0.000000 0.000000
    30 0.928314 0.000000 0.000001 0.000000 0.000000 0.000000
    31 1.533672 0.109715 1.664491 -0.733354 -0.285116 1.223813
    32 0.928313 0.000000 0.000000 0.000000 0.000000 0.000000
    33 0.928314 0.000000 0.000001 0.000000 0.000000 0.000000
  time 28
    0 0.235347 0.367732 -14.393495 -0.045585 0.257873 -1.742273
    1 0.000000 0.000000 0.000000 -1.570795 -1.570796 0.000000
    2 -0.000005 0.000007 3.713255 2.914525 6.061903 1.331528
    3 18.045721 0.000000 0.000000 0.000000 0.000000 -1.349242
    4 17.597597 0.000000 0.000000 -0.205057 0.225938 -0.216505
    5 0.000005 -0.000003 -3.713255 -0.067002 -3.740518 -0.837425
    6 18.045725 0.000000 0.000000 0.000000 0.000000 -2.074647
    7 17.597597 0.000000 0.000000 -0.092081 0.087821 0.559948
    8 1.293670 0.684478 -0.000001 -0.000004 -0.000001 0.271132
    9 5.309685 -0.003834 0.000000 -0.032981 0.011373 0.331209
    10 4.826790 -0.004591 0.000000 -0.148716 0.198896 0.150144
    11 5.792767 -0.005304 0.000000 0.000065 0.087260 0.043979
    12 6.662317 -0.001453 0.000000 0.000000 -0.000001 -0.314374
    13 2.046985 -0.000002 0.000000 0.410149 -0.061533 -0.783425
    14 -3.272185 -1.123452 4.341911 1.923488 -1.393569 1.526584
    15 4.827230 0.000000 0.000001 -0.657790 -0.232793 -1.420743
    16 11.139763 0.000000 0.000000 0.000000 0.000000 -1.631591
    17 10.314597 0.000001 0.000000 -0.837563 -0.097753 0.062245
    18 2.975834 -0.386307 -0.044143 -0.017432 -0.039992 0.392972
    19 1.438886 0.000000 0.000000 0.000000 0.000000 0.270702
    20 1.485303 0.000000 0.000000 0.000000 0.000000 0.375250
    21 -3.014434 -1.037911 -4.140396 -0.000013 1.361666 3.455176
    22 4.972048 0.000000 0.000001 0.774463 0.015284 -1.049513
    23 11.585355 0.000000 0.000000 0.000000 0.000000 -2.068268
    24 10.127057 0.000000 0.000001 1.980376 -0.285848 1.184258
    25 2.683750 -0.427338 0.044205 0.001045 0.043611 0.000046
    26 1.438885 -0.000001 0.000000 0.000000 0.000000 0.767762
    27 1.485305 0.000001 0.000000 0.000000 0.000000 1.221689
    28 1.646738 0.449549 -1.702246 0.449790 0.128753 1.240204
    29 0.928312 0.000000 -0.000002 0.000000 0.000000 0.000000
    30 0.928314 0.000000 0.000001 0.000000 0.000000 0.000000
    31 1.533672 0.109715 1.664491 -0.733354 -0.285116 1.223813
    32 0.928313 0.000000 0.000000 0.000000 0.000000 0.000000
    33 0.928314 0.000000 0.000001 0.000000 0.000000 0.000000
  time 29
    0 0.235347 0.367732 -14.393495 -0.045585 0.257873 -1.742273
    1 0.000000 0.000000 0.000000 -1.570795 -1.570796 0.000000
    2 -0.000005 0.000007 3.713255 2.914525 6.061903 1.331528
    3 18.045721 0.000000 0.000000 0.000000 0.000000 -1.349242
    4 17.597597 0.000000 0.000000 -0.205057 0.225938 -0.216505
    5 0.000005 -0.000003 -3.713255 -0.067002 -3.740518 -0.837425
    6 18.045725 0.000000 0.000000 0.000000 0.000000 -2.074647
    7 17.597597 0.000000 0.000000 -0.092081 0.087821 0.559948
    8 1.293670 0.684478 -0.000001 -0.000004 -0.000001 0.271132
    9 5.309685 -0.003834 0.000000 -0.032981 0.011373 0.331209
    10 4.826790 -0.004591 0.000000 -0.148782 0.198393 0.146749
    11 5.792767 -0.005304 0.000000 0.000065 0.087260 0.034843
    12 6.662317 -0.001453 0.000000 0.000000 -0.000001 -0.314374
    13 2.046985 -0.000002 0.000000 0.409331 -0.063019 -0.770929
    14 -3.272185 -1.123452 4.341911 1.923488 -1.393569 1.526584
    15 4.827230 0.000000 0.000001 -0.699669 -0.225985 -1.374187
    16 11.139763 0.000000 0.000000 0.000000 0.000000 -1.619047
    17 10.314597 0.000001 0.000000 -0.695012 -0.010306 0.140724
    18 2.975834 -0.386307 -0.044143 -0.017432 -0.039992 0.392972
    19 1.438886 0.000000 0.000000 0.000000 0.000000 0.270702
    20 1.485303 0.000000 0.000000 0.000000 0.000000 0.375250
    21 -3.014434 -1.037911 -4.140396 -0.000013 1.370795 3.455176
    22 4.972048 0.000000 0.000001 0.776474 0.000483 -1.045297
    23 11.585355 0.000000 0.000000 0.000000 0.000000 -2.068268
    24 10.127057 0.000000 0.000001 1.980376 -0.285848 1.184258
    25 2.683750 -0.427338 0.044205 0.001045 0.043611 0.000046
    26 1.438885 -0.000001 0.000000 0.000000 0.000000 0.767762
    27 1.485305 0.000001 0.000000 0.000000 0.000000 1.221689
    28 1.646738 0.449549 -1.702246 0.449790 0.128753 1.240204
    29 0.928312 0.000000 -0.000002 0.000000 0.000000 0.000000
    30 0.928314 0.000000 0.000001 0.000000 0.000000 0.000000
    31 1.533672 0.109715 1.664491 -0.733354 -0.285116 1.223813
    32 0.928313 0.000000 0.000000 0.000000 0.000000 0.000000
    33 0.928314 0.000000 0.000001 0.000000 0.000000 0.000000
end
