version 1
nodes
  0 "Bip01" -1
  1 "Bip01 Pelvis" 0
  2 "Bip01 L Leg" 1
  3 "Bip01 L Leg1" 2
  4 "Bip01 L Foot" 3
  5 "Bip01 R Leg" 1
  6 "Bip01 R Leg1" 5
  7 "Bip01 R Foot" 6
  8 "Bip01 Spine" 1
  9 "Bip01 Spine1" 8
  10 "Bip01 Spine2" 9
  11 "Bip01 Spine3" 10
  12 "Bip01 Neck" 11
  13 "Bip01 Head" 12
  14 "Bip01 L Arm" 12
  15 "Bip01 L Arm1" 14
  16 "Bip01 L Arm2" 15
  17 "Bip01 L Hand" 16
  18 "Bip01 L Finger1" 17
  19 "Bip01 L Finger11" 18
  20 "Bip01 L Finger12" 19
  21 "Bip01 R Arm" 12
  22 "Bip01 R Arm1" 21
  23 "Bip01 R Arm2" 22
  24 "Bip01 R Hand" 23
  25 "Bip01 R Finger1" 24
  26 "Bip01 R Finger11" 25
  27 "Bip01 R Finger12" 26
  28 "Bip01 L Finger0" 17
  29 "Bip01 L Finger01" 28
  30 "Bip01 L Finger02" 29
  31 "Bip01 R Finger0" 24
  32 "Bip01 R Finger01" 31
  33 "Bip01 R Finger02" 32
end
skeleton
  time 0
    0 0.235347 0.367732 -14.553656 -0.045585 0.257873 -1.742273
    1 0.000000 0.000000 0.000000 -1.570795 -1.570796 0.000000
    2 -0.000005 0.000007 3.713255 2.914525 6.061903 1.331528
    3 18.045721 0.000000 0.000000 0.000000 0.000000 -1.349242
    4 17.597597 0.000000 0.000000 -0.205057 0.225938 -0.216505
    5 0.000005 -0.000003 -3.713255 -0.067002 -3.740518 -0.837425
    6 18.045725 0.000000 0.000000 0.000000 0.000000 -2.074647
    7 17.597597 0.000000 0.000000 -0.092081 0.087821 0.559948
    8 1.293670 0.684478 -0.000001 -0.000004 -0.000001 0.306070
    9 5.309685 -0.003834 0.000000 0.000000 0.000000 0.523581
    10 4.826790 -0.004591 0.000000 -0.167353 0.049424 0.283761
    11 5.792767 -0.005304 0.000000 -0.224653 0.031460 0.135999
    12 6.662317 -0.001453 0.000000 0.000000 -0.000001 -0.139840
    13 2.046985 -0.000002 0.000000 0.375338 0.132816 -0.452430
    14 -3.416721 -0.541403 4.341911 1.360809 -0.799346 1.998870
    15 4.827230 0.000000 0.000001 -0.491096 -0.730718 -0.662546
    16 11.139763 0.000000 0.000000 0.000000 0.000000 -0.903391
    17 10.314597 0.000001 0.000000 -4.229387 0.558712 -0.152971
    18 2.975834 -0.386307 -0.044143 -0.000797 -0.043611 0.000035
    19 1.438886 0.000000 0.000000 0.000000 0.000000 0.872212
    20 1.485303 0.000000 0.000000 0.000000 0.000000 0.907076
    21 -3.151157 -0.498832 -4.140396 -1.285768 1.188011 2.015833
    22 4.972048 0.000000 0.000001 0.937526 -0.364880 -1.181456
    23 11.585355 0.000000 0.000000 0.000000 0.000000 -1.892397
    24 10.127057 0.000000 0.000001 1.926547 0.125206 0.590935
    25 2.683750 -0.427338 0.044205 -0.005786 0.043239 -0.157091
    26 1.438885 -0.000001 0.000000 0.000000 0.000000 0.732658
    27 1.485305 0.000001 0.000000 0.000000 0.000000 1.168770
    28 1.646738 0.449549 -1.702246 -0.161934 0.581206 -0.284024
    29 0.928312 0.000000 -0.000002 0.000000 0.000000 0.000000
    30 0.928314 0.000000 0.000001 0.000000 0.000000 0.000000
    31 1.533672 0.109715 1.664491 -0.264755 -0.055959 0.783109
    32 0.928313 0.000000 0.000000 0.000000 0.000000 -0.453556
    33 0.928314 0.000000 0.000001 0.000000 0.000000 0.000000
  time 1
    0 0.235347 0.367732 -14.553656 -0.045585 0.257873 -1.742273
    1 0.000000 0.000000 0.000000 -1.570795 -1.570796 0.000000
    2 -0.000005 0.000007 3.713255 2.914525 6.061903 1.331528
    3 18.045721 0.000000 0.000000 0.000000 0.000000 -1.349242
    4 17.597597 0.000000 0.000000 -0.205057 0.225938 -0.216505
    5 0.000005 -0.000003 -3.713255 -0.067002 -3.740518 -0.837425
    6 18.045725 0.000000 0.000000 0.000000 0.000000 -2.074647
    7 17.597597 0.000000 0.000000 -0.092081 0.087821 0.559948
    8 1.293670 0.684478 -0.000001 -0.000004 -0.000001 0.306070
    9 5.309685 -0.003834 0.000000 0.000000 0.000000 0.523581
    10 4.826790 -0.004591 0.000000 -0.167172 0.050036 0.287355
    11 5.792767 -0.005304 0.000000 -0.224653 0.031460 0.135999
    12 6.662317 -0.001453 0.000000 0.000000 -0.000001 -0.139840
    13 2.046985 -0.000002 0.000000 0.374994 0.133559 -0.456026
    14 -3.416721 -0.541403 4.341911 1.360809 -0.799346 1.998870
    15 4.827230 0.000000 0.000001 -0.490744 -0.734377 -0.663071
    16 11.139763 0.000000 0.000000 0.000000 0.000000 -0.903391
    17 10.314597 0.000001 0.000000 -4.229387 0.558712 -0.152971
    18 2.975834 -0.386307 -0.044143 -0.000797 -0.043611 0.000035
    19 1.438886 0.000000 0.000000 0.000000 0.000000 0.872212
    20 1.485303 0.000000 0.000000 0.000000 0.000000 0.907076
    21 -3.151157 -0.498832 -4.140396 -1.291520 1.181058 2.010464
    22 4.972048 0.000000 0.000001 0.938764 -0.360616 -1.175198
    23 11.585355 0.000000 0.000000 0.000000 0.000000 -1.892397
    24 10.127057 0.000000 0.000001 1.926547 0.125206 0.590935
    25 2.683750 -0.427338 0.044205 -0.005786 0.043239 -0.157091
    26 1.438885 -0.000001 0.000000 0.000000 0.000000 0.732658
    27 1.485305 0.000001 0.000000 0.000000 0.000000 1.168770
    28 1.646738 0.449549 -1.702246 -0.161934 0.581206 -0.284024
    29 0.928312 0.000000 -0.000002 0.000000 0.000000 0.000000
    30 0.928314 0.000000 0.000001 0.000000 0.000000 0.000000
    31 1.533672 0.109715 1.664491 -0.264755 -0.055959 0.783109
    32 0.928313 0.000000 0.000000 0.000000 0.000000 -0.453556
    33 0.928314 0.000000 0.000001 0.000000 0.000000 0.000000
  time 2
    0 0.235347 0.367732 -14.553656 -0.045585 0.257873 -1.742273
    1 0.000000 0.000000 0.000000 -1.570795 -1.570796 0.000000
    2 -0.000005 0.000007 3.713255 2.914525 6.061903 1.331528
    3 18.045721 0.000000 0.000000 0.000000 0.000000 -1.349242
    4 17.597597 0.000000 0.000000 -0.205057 0.225938 -0.216505
    5 0.000005 -0.000003 -3.713255 -0.067002 -3.740518 -0.837425
    6 18.045725 0.000000 0.000000 0.000000 0.000000 -2.074647
    7 17.597597 0.000000 0.000000 -0.092081 0.087821 0.559948
    8 1.293670 0.684478 -0.000001 -0.000004 -0.000001 0.306070
    9 5.309685 -0.003834 0.000000 0.000000 0.000000 0.523581
    10 4.826790 -0.004591 0.000000 -0.166926 0.050863 0.292272
    11 5.792767 -0.005304 0.000000 -0.224653 0.031460 0.135999
    12 6.662317 -0.001453 0.000000 0.000000 -0.000001 -0.139840
    13 2.046985 -0.000002 0.000000 0.374477 0.134549 -0.460970
    14 -3.416721 -0.541403 4.341911 1.360809 -0.799346 1.998870
    15 4.827230 0.000000 0.000001 -0.490215 -0.739313 -0.663772
    16 11.139763 0.000000 0.000000 0.000000 0.000000 -0.903391
    17 10.314597 0.000001 0.000000 -4.229387 0.558712 -0.152971
    18 2.975834 -0.386307 -0.044143 -0.000797 -0.043611 0.000035
    19 1.438886 0.000000 0.000000 0.000000 0.000000 0.872212
    20 1.485303 0.000000 0.000000 0.000000 0.000000 0.907076
    21 -3.151157 -0.498832 -4.140396 -1.299094 1.171561 2.003465
    22 4.972048 0.000000 0.000001 0.940543 -0.354825 -1.166634
    23 11.585355 0.000000 0.000000 0.000000 0.000000 -1.892397
    24 10.127057 0.000000 0.000001 1.926547 0.125206 0.590935
    25 2.683750 -0.427338 0.044205 -0.005786 0.043239 -0.157091
    26 1.438885 -0.000001 0.000000 0.000000 0.000000 0.732658
    27 1.485305 0.000001 0.000000 0.000000 0.000000 1.168770
    28 1.646738 0.449549 -1.702246 -0.161934 0.581206 -0.284024
    29 0.928312 0.000000 -0.000002 0.000000 0.000000 0.000000
    30 0.928314 0.000000 0.000001 0.000000 0.000000 0.000000
    31 1.533672 0.109715 1.664491 -0.264755 -0.055959 0.783109
    32 0.928313 0.000000 0.000000 0.000000 0.000000 -0.453556
    33 0.928314 0.000000 0.000001 0.000000 0.000000 0.000000
  time 3
    0 0.235347 0.367732 -14.553656 -0.045585 0.257873 -1.742273
    1 0.000000 0.000000 0.000000 -1.570795 -1.570796 0.000000
    2 -0.000005 0.000007 3.713255 2.914525 6.061903 1.331528
    3 18.045721 0.000000 0.000000 0.000000 0.000000 -1.349242
    4 17.597597 0.000000 0.000000 -0.205057 0.225938 -0.216505
    5 0.000005 -0.000003 -3.713255 -0.067002 -3.740518 -0.837425
    6 18.045725 0.000000 0.000000 0.000000 0.000000 -2.074647
    7 17.597597 0.000000 0.000000 -0.092081 0.087821 0.559948
    8 1.293670 0.684478 -0.000001 -0.000004 -0.000001 0.306070
    9 5.309685 -0.003834 0.000000 0.000000 0.000000 0.523581
    10 4.826790 -0.004591 0.000000 -0.166614 0.051869 0.298247
    11 5.792767 -0.005304 0.000000 -0.224653 0.031460 0.135999
    12 6.662317 -0.001453 0.000000 0.000000 -0.000001 -0.139840
    13 2.046985 -0.000002 0.000000 0.373874 0.135765 -0.466948
    14 -3.416721 -0.541403 4.341911 1.360809 -0.799346 1.998870
    15 4.827230 0.000000 0.000001 -0.489628 -0.745270 -0.664647
    16 11.139763 0.000000 0.000000 0.000000 0.000000 -0.903391
    17 10.314597 0.000001 0.000000 -4.229387 0.558712 -0.152971
    18 2.975834 -0.386307 -0.044143 -0.000797 -0.043611 0.000035
    19 1.438886 0.000000 0.000000 0.000000 0.000000 0.872212
    20 1.485303 0.000000 0.000000 0.000000 0.000000 0.907076
    21 -3.151157 -0.498832 -4.140396 -1.307819 1.159973 1.995412
    22 4.972048 0.000000 0.000001 0.942632 -0.347746 -1.156161
    23 11.585355 0.000000 0.000000 0.000000 0.000000 -1.892397
    24 10.127057 0.000000 0.000001 1.926547 0.125206 0.590935
    25 2.683750 -0.427338 0.044205 -0.005786 0.043239 -0.157091
    26 1.438885 -0.000001 0.000000 0.000000 0.000000 0.732658
    27 1.485305 0.000001 0.000000 0.000000 0.000000 1.168770
    28 1.646738 0.449549 -1.702246 -0.161934 0.581206 -0.284024
    29 0.928312 0.000000 -0.000002 0.000000 0.000000 0.000000
    30 0.928314 0.000000 0.000001 0.000000 0.000000 0.000000
    31 1.533672 0.109715 1.664491 -0.264755 -0.055959 0.783109
    32 0.928313 0.000000 0.000000 0.000000 0.000000 -0.453556
    33 0.928314 0.000000 0.000001 0.000000 0.000000 0.000000
  time 4
    0 0.235347 0.367732 -14.553656 -0.045585 0.257873 -1.742273
    1 0.000000 0.000000 0.000000 -1.570795 -1.570796 0.000000
    2 -0.000005 0.000007 3.713255 2.914525 6.061903 1.331528
    3 18.045721 0.000000 0.000000 0.000000 0.000000 -1.349242
    4 17.597597 0.000000 0.000000 -0.205057 0.225938 -0.216505
    5 0.000005 -0.000003 -3.713255 -0.067002 -3.740518 -0.837425
    6 18.045725 0.000000 0.000000 0.000000 0.000000 -2.074647
    7 17.597597 0.000000 0.000000 -0.092081 0.087821 0.559948
    8 1.293670 0.684478 -0.000001 -0.000004 -0.000001 0.306070
    9 5.309685 -0.003834 0.000000 0.000000 0.000000 0.523581
    10 4.826790 -0.004591 0.000000 -0.166269 0.053008 0.305060
    11 5.792767 -0.005304 0.000000 -0.224653 0.031460 0.135999
    12 6.662317 -0.001453 0.000000 0.000000 -0.000001 -0.139840
    13 2.046985 -0.000002 0.000000 0.373184 0.137161 -0.473735
    14 -3.416721 -0.541403 4.341911 1.360809 -0.799346 1.998870
    15 4.827230 0.000000 0.000001 -0.488982 -0.752163 -0.665697
    16 11.139763 0.000000 0.000000 0.000000 0.000000 -0.903391
    17 10.314597 0.000001 0.000000 -4.229387 0.558712 -0.152971
    18 2.975834 -0.386307 -0.044143 -0.000797 -0.043611 0.000035
    19 1.438886 0.000000 0.000000 0.000000 0.000000 0.872212
    20 1.485303 0.000000 0.000000 0.000000 0.000000 0.907076
    21 -3.151157 -0.498832 -4.140396 -1.317310 1.146689 1.986783
    22 4.972048 0.000000 0.000001 0.945030 -0.339702 -1.144238
    23 11.585355 0.000000 0.000000 0.000000 0.000000 -1.892397
    24 10.127057 0.000000 0.000001 1.926547 0.125206 0.590935
    25 2.683750 -0.427338 0.044205 -0.005786 0.043239 -0.157091
    26 1.438885 -0.000001 0.000000 0.000000 0.000000 0.732658
    27 1.485305 0.000001 0.000000 0.000000 0.000000 1.168770
    28 1.646738 0.449549 -1.702246 -0.161934 0.581206 -0.284024
    29 0.928312 0.000000 -0.000002 0.000000 0.000000 0.000000
    30 0.928314 0.000000 0.000001 0.000000 0.000000 0.000000
    31 1.533672 0.109715 1.664491 -0.264755 -0.055959 0.783109
    32 0.928313 0.000000 0.000000 0.000000 0.000000 -0.453556
    33 0.928314 0.000000 0.000001 0.000000 0.000000 0.000000
  time 5
    0 0.235347 0.367732 -14.553656 -0.045585 0.257873 -1.742273
    1 0.000000 0.000000 0.000000 -1.570795 -1.570796 0.000000
    2 -0.000005 0.000007 3.713255 2.914525 6.061903 1.331528
    3 18.045721 0.000000 0.000000 0.000000 0.000000 -1.349242
    4 17.597597 0.000000 0.000000 -0.205057 0.225938 -0.216505
    5 0.000005 -0.000003 -3.713255 -0.067002 -3.740518 -0.837425
    6 18.045725 0.000000 0.000000 0.000000 0.000000 -2.074647
    7 17.597597 0.000000 0.000000 -0.092081 0.087821 0.559948
    8 1.293670 0.684478 -0.000001 -0.000004 -0.000001 0.306070
    9 5.309685 -0.003834 0.000000 0.000000 0.000000 0.523581
    10 4.826790 -0.004591 0.000000 -0.165859 0.054254 0.312491
    11 5.792767 -0.005304 0.000000 -0.224653 0.031460 0.135999
    12 6.662317 -0.001453 0.000000 0.000000 -0.000001 -0.139840
    13 2.046985 -0.000002 0.000000 0.372409 0.138647 -0.481197
    14 -3.416721 -0.541403 4.341911 1.360809 -0.799346 1.998870
    15 4.827230 0.000000 0.000001 -0.488218 -0.759652 -0.666834
    16 11.139763 0.000000 0.000000 0.000000 0.000000 -0.903391
    17 10.314597 0.000001 0.000000 -4.229387 0.558712 -0.152971
    18 2.975834 -0.386307 -0.044143 -0.000797 -0.043611 0.000035
    19 1.438886 0.000000 0.000000 0.000000 0.000000 0.872212
    20 1.485303 0.000000 0.000000 0.000000 0.000000 0.907076
    21 -3.151157 -0.498832 -4.140396 -1.326994 1.132217 1.977963
    22 4.972048 0.000000 0.000001 0.947660 -0.330934 -1.131195
    23 11.585355 0.000000 0.000000 0.000000 0.000000 -1.892397
    24 10.127057 0.000000 0.000001 1.926547 0.125206 0.590935
    25 2.683750 -0.427338 0.044205 -0.005786 0.043239 -0.157091
    26 1.438885 -0.000001 0.000000 0.000000 0.000000 0.732658
    27 1.485305 0.000001 0.000000 0.000000 0.000000 1.168770
    28 1.646738 0.449549 -1.702246 -0.161934 0.581206 -0.284024
    29 0.928312 0.000000 -0.000002 0.000000 0.000000 0.000000
    30 0.928314 0.000000 0.000001 0.000000 0.000000 0.000000
    31 1.533672 0.109715 1.664491 -0.264755 -0.055959 0.783109
    32 0.928313 0.000000 0.000000 0.000000 0.000000 -0.453556
    33 0.928314 0.000000 0.000001 0.000000 0.000000 0.000000
  time 6
    0 0.235347 0.367732 -14.553656 -0.045585 0.257873 -1.742273
    1 0.000000 0.000000 0.000000 -1.570795 -1.570796 0.000000
    2 -0.000005 0.000007 3.713255 2.914525 6.061903 1.331528
    3 18.045721 0.000000 0.000000 0.000000 0.000000 -1.349242
    4 17.597597 0.000000 0.000000 -0.205057 0.225938 -0.216505
    5 0.000005 -0.000003 -3.713255 -0.067002 -3.740518 -0.837425
    6 18.045725 0.000000 0.000000 0.000000 0.000000 -2.074647
    7 17.597597 0.000000 0.000000 -0.092081 0.087821 0.559948
    8 1.293670 0.684478 -0.000001 -0.000004 -0.000001 0.306070
    9 5.309685 -0.003834 0.000000 0.000000 0.000000 0.523581
    10 4.826790 -0.004591 0.000000 -0.165432 0.055561 0.320296
    11 5.792767 -0.005304 0.000000 -0.224653 0.031460 0.135999
    12 6.662317 -0.001453 0.000000 0.000000 -0.000001 -0.139840
    13 2.046985 -0.000002 0.000000 0.371547 0.140223 -0.489018
    14 -3.416721 -0.541403 4.341911 1.360809 -0.799346 1.998870
    15 4.827230 0.000000 0.000001 -0.487337 -0.767481 -0.668060
    16 11.139763 0.000000 0.000000 0.000000 0.000000 -0.903391
    17 10.314597 0.000001 0.000000 -4.229387 0.558712 -0.152971
    18 2.975834 -0.386307 -0.044143 -0.000797 -0.043611 0.000035
    19 1.438886 0.000000 0.000000 0.000000 0.000000 0.872212
    20 1.485303 0.000000 0.000000 0.000000 0.000000 0.907076
    21 -3.151157 -0.498832 -4.140396 -1.336581 1.116927 1.969430
    22 4.972048 0.000000 0.000001 0.950367 -0.321683 -1.117494
    23 11.585355 0.000000 0.000000 0.000000 0.000000 -1.892397
    24 10.127057 0.000000 0.000001 1.926547 0.125206 0.590935
    25 2.683750 -0.427338 0.044205 -0.005786 0.043239 -0.157091
    26 1.438885 -0.000001 0.000000 0.000000 0.000000 0.732658
    27 1.485305 0.000001 0.000000 0.000000 0.000000 1.168770
    28 1.646738 0.449549 -1.702246 -0.161934 0.581206 -0.284024
    29 0.928312 0.000000 -0.000002 0.000000 0.000000 0.000000
    30 0.928314 0.000000 0.000001 0.000000 0.000000 0.000000
    31 1.533672 0.109715 1.664491 -0.264755 -0.055959 0.783109
    32 0.928313 0.000000 0.000000 0.000000 0.000000 -0.453556
    33 0.928314 0.000000 0.000001 0.000000 0.000000 0.000000
  time 7
    0 0.235347 0.367732 -14.553656 -0.045585 0.257873 -1.742273
    1 0.000000 0.000000 0.000000 -1.570795 -1.570796 0.000000
    2 -0.000005 0.000007 3.713255 2.914525 6.061903 1.331528
    3 18.045721 0.000000 0.000000 0.000000 0.000000 -1.349242
    4 17.597597 0.000000 0.000000 -0.205057 0.225938 -0.216505
    5 0.000005 -0.000003 -3.713255 -0.067002 -3.740518 -0.837425
    6 18.045725 0.000000 0.000000 0.000000 0.000000 -2.074647
    7 17.597597 0.000000 0.000000 -0.092081 0.087821 0.559948
    8 1.293670 0.684478 -0.000001 -0.000004 -0.000001 0.306070
    9 5.309685 -0.003834 0.000000 0.000000 0.000000 0.523581
    10 4.826790 -0.004591 0.000000 -0.164989 0.056891 0.328278
    11 5.792767 -0.005304 0.000000 -0.224653 0.031460 0.135999
    12 6.662317 -0.001453 0.000000 0.000000 -0.000001 -0.139840
    13 2.046985 -0.000002 0.000000 0.370685 0.141822 -0.497018
    14 -3.416721 -0.541403 4.341911 1.360809 -0.799346 1.998870
    15 4.827230 0.000000 0.000001 -0.486515 -0.775481 -0.669285
    16 11.139763 0.000000 0.000000 0.000000 0.000000 -0.903391
    17 10.314597 0.000001 0.000000 -4.229387 0.558712 -0.152971
    18 2.975834 -0.386307 -0.044143 -0.000797 -0.043611 0.000035
    19 1.438886 0.000000 0.000000 0.000000 0.000000 0.872212
    20 1.485303 0.000000 0.000000 0.000000 0.000000 0.907076
    21 -3.151157 -0.498832 -4.140396 -1.345689 1.101325 1.961185
    22 4.972048 0.000000 0.000001 0.953229 -0.312271 -1.103463
    23 11.585355 0.000000 0.000000 0.000000 0.000000 -1.892397
    24 10.127057 0.000000 0.000001 1.926547 0.125206 0.590935
    25 2.683750 -0.427338 0.044205 -0.005786 0.043239 -0.157091
    26 1.438885 -0.000001 0.000000 0.000000 0.000000 0.732658
    27 1.485305 0.000001 0.000000 0.000000 0.000000 1.168770
    28 1.646738 0.449549 -1.702246 -0.161934 0.581206 -0.284024
    29 0.928312 0.000000 -0.000002 0.000000 0.000000 0.000000
    30 0.928314 0.000000 0.000001 0.000000 0.000000 0.000000
    31 1.533672 0.109715 1.664491 -0.264755 -0.055959 0.783109
    32 0.928313 0.000000 0.000000 0.000000 0.000000 -0.453556
    33 0.928314 0.000000 0.000001 0.000000 0.000000 0.000000
  time 8
    0 0.235347 0.367732 -14.553656 -0.045585 0.257873 -1.742273
    1 0.000000 0.000000 0.000000 -1.570795 -1.570796 0.000000
    2 -0.000005 0.000007 3.713255 2.914525 6.061903 1.331528
    3 18.045721 0.000000 0.000000 0.000000 0.000000 -1.349242
    4 17.597597 0.000000 0.000000 -0.205057 0.225938 -0.216505
    5 0.000005 -0.000003 -3.713255 -0.067002 -3.740518 -0.837425
    6 18.045725 0.000000 0.000000 0.000000 0.000000 -2.074647
    7 17.597597 0.000000 0.000000 -0.092081 0.087821 0.559948
    8 1.293670 0.684478 -0.000001 -0.000004 -0.000001 0.306070
    9 5.309685 -0.003834 0.000000 0.000000 0.000000 0.523581
    10 4.826790 -0.004591 0.000000 -0.164529 0.058197 0.336171
    11 5.792767 -0.005304 0.000000 -0.224653 0.031460 0.135999
    12 6.662317 -0.001453 0.000000 0.000000 -0.000001 -0.139840
    13 2.046985 -0.000002 0.000000 0.369824 0.143398 -0.504929
    14 -3.416721 -0.541403 4.341911 1.360809 -0.799346 1.998870
    15 4.827230 0.000000 0.000001 -0.485634 -0.783480 -0.670510
    16 11.139763 0.000000 0.000000 0.000000 0.000000 -0.903391
    17 10.314597 0.000001 0.000000 -4.229387 0.558712 -0.152971
    18 2.975834 -0.386307 -0.044143 -0.000797 -0.043611 0.000035
    19 1.438886 0.000000 0.000000 0.000000 0.000000 0.872212
    20 1.485303 0.000000 0.000000 0.000000 0.000000 0.907076
    21 -3.151157 -0.498832 -4.140396 -1.354222 1.085836 1.953611
    22 4.972048 0.000000 0.000001 0.955937 -0.303021 -1.089564
    23 11.585355 0.000000 0.000000 0.000000 0.000000 -1.892397
    24 10.127057 0.000000 0.000001 1.926547 0.125206 0.590935
    25 2.683750 -0.427338 0.044205 -0.005786 0.043239 -0.157091
    26 1.438885 -0.000001 0.000000 0.000000 0.000000 0.732658
    27 1.485305 0.000001 0.000000 0.000000 0.000000 1.168770
    28 1.646738 0.449549 -1.702246 -0.161934 0.581206 -0.284024
    29 0.928312 0.000000 -0.000002 0.000000 0.000000 0.000000
    30 0.928314 0.000000 0.000001 0.000000 0.000000 0.000000
    31 1.533672 0.109715 1.664491 -0.264755 -0.055959 0.783109
    32 0.928313 0.000000 0.000000 0.000000 0.000000 -0.453556
    33 0.928314 0.000000 0.000001 0.000000 0.000000 0.000000
  time 9
    0 0.235347 0.367732 -14.553656 -0.045585 0.257873 -1.742273
    1 0.000000 0.000000 0.000000 -1.570795 -1.570796 0.000000
    2 -0.000005 0.000007 3.713255 2.914525 6.061903 1.331528
    3 18.045721 0.000000 0.000000 0.000000 0.000000 -1.349242
    4 17.597597 0.000000 0.000000 -0.205057 0.225938 -0.216505
    5 0.000005 -0.000003 -3.713255 -0.067002 -3.740518 -0.837425
    6 18.045725 0.000000 0.000000 0.000000 0.000000 -2.074647
    7 17.597597 0.000000 0.000000 -0.092081 0.087821 0.559948
    8 1.293670 0.684478 -0.000001 -0.000004 -0.000001 0.306070
    9 5.309685 -0.003834 0.000000 0.000000 0.000000 0.523581
    10 4.826790 -0.004591 0.000000 -0.164086 0.059456 0.343756
    11 5.792767 -0.005304 0.000000 -0.224653 0.031460 0.135999
    12 6.662317 -0.001453 0.000000 0.000000 -0.000001 -0.139840
    13 2.046985 -0.000002 0.000000 0.368962 0.144906 -0.512525
    14 -3.416721 -0.541403 4.341911 1.360809 -0.799346 1.998870
    15 4.827230 0.000000 0.000001 -0.484753 -0.791054 -0.671735
    16 11.139763 0.000000 0.000000 0.000000 0.000000 -0.903391
    17 10.314597 0.000001 0.000000 -4.229387 0.558712 -0.152971
    18 2.975834 -0.386307 -0.044143 -0.000797 -0.043611 0.000035
    19 1.438886 0.000000 0.000000 0.000000 0.000000 0.872212
    20 1.485303 0.000000 0.000000 0.000000 0.000000 0.907076
    21 -3.151157 -0.498832 -4.140396 -1.361987 1.070913 1.946804
    22 4.972048 0.000000 0.000001 0.958644 -0.294092 -1.076126
    23 11.585355 0.000000 0.000000 0.000000 0.000000 -1.892397
    24 10.127057 0.000000 0.000001 1.926547 0.125206 0.590935
    25 2.683750 -0.427338 0.044205 -0.005786 0.043239 -0.157091
    26 1.438885 -0.000001 0.000000 0.000000 0.000000 0.732658
    27 1.485305 0.000001 0.000000 0.000000 0.000000 1.168770
    28 1.646738 0.449549 -1.702246 -0.161934 0.581206 -0.284024
    29 0.928312 0.000000 -0.000002 0.000000 0.000000 0.000000
    30 0.928314 0.000000 0.000001 0.000000 0.000000 0.000000
    31 1.533672 0.109715 1.664491 -0.264755 -0.055959 0.783109
    32 0.928313 0.000000 0.000000 0.000000 0.000000 -0.453556
    33 0.928314 0.000000 0.000001 0.000000 0.000000 0.000000
  time 10
    0 0.235347 0.367732 -14.553656 -0.045585 0.257873 -1.742273
    1 0.000000 0.000000 0.000000 -1.570795 -1.570796 0.000000
    2 -0.000005 0.000007 3.713255 2.914525 6.061903 1.331528
    3 18.045721 0.000000 0.000000 0.000000 0.000000 -1.349242
    4 17.597597 0.000000 0.000000 -0.205057 0.225938 -0.216505
    5 0.000005 -0.000003 -3.713255 -0.067002 -3.740518 -0.837425
    6 18.045725 0.000000 0.000000 0.000000 0.000000 -2.074647
    7 17.597597 0.000000 0.000000 -0.092081 0.087821 0.559948
    8 1.293670 0.684478 -0.000001 -0.000004 -0.000001 0.306070
    9 5.309685 -0.003834 0.000000 0.000000 0.000000 0.523581
    10 4.826790 -0.004591 0.000000 -0.163659 0.060618 0.350812
    11 5.792767 -0.005304 0.000000 -0.224653 0.031460 0.135999
    12 6.662317 -0.001453 0.000000 0.000000 -0.000001 -0.139840
    13 2.046985 -0.000002 0.000000 0.368187 0.146302 -0.519582
    14 -3.416721 -0.541403 4.341911 1.360809 -0.799346 1.998870
    15 4.827230 0.000000 0.000001 -0.483931 -0.798203 -0.672960
    16 11.139763 0.000000 0.000000 0.000000 0.000000 -0.903391
    17 10.314597 0.000001 0.000000 -4.229387 0.558712 -0.152971
    18 2.975834 -0.386307 -0.044143 -0.000797 -0.043611 0.000035
    19 1.438886 0.000000 0.000000 0.000000 0.000000 0.872212
    20 1.485303 0.000000 0.000000 0.000000 0.000000 0.907076
    21 -3.151157 -0.498832 -4.140396 -1.368794 1.057035 1.940860
    22 4.972048 0.000000 0.000001 0.961119 -0.285806 -1.063676
    23 11.585355 0.000000 0.000000 0.000000 0.000000 -1.892397
    24 10.127057 0.000000 0.000001 1.926547 0.125206 0.590935
    25 2.683750 -0.427338 0.044205 -0.005786 0.043239 -0.157091
    26 1.438885 -0.000001 0.000000 0.000000 0.000000 0.732658
    27 1.485305 0.000001 0.000000 0.000000 0.000000 1.168770
    28 1.646738 0.449549 -1.702246 -0.161934 0.581206 -0.284024
    29 0.928312 0.000000 -0.000002 0.000000 0.000000 0.000000
    30 0.928314 0.000000 0.000001 0.000000 0.000000 0.000000
    31 1.533672 0.109715 1.664491 -0.264755 -0.055959 0.783109
    32 0.928313 0.000000 0.000000 0.000000 0.000000 -0.453556
    33 0.928314 0.000000 0.000001 0.000000 0.000000 0.000000
  time 11
    0 0.235347 0.367732 -14.553656 -0.045585 0.257873 -1.742273
    1 0.000000 0.000000 0.000000 -1.570795 -1.570796 0.000000
    2 -0.000005 0.000007 3.713255 2.914525 6.061903 1.331528
    3 18.045721 0.000000 0.000000 0.000000 0.000000 -1.349242
    4 17.597597 0.000000 0.000000 -0.205057 0.225938 -0.216505
    5 0.000005 -0.000003 -3.713255 -0.067002 -3.740518 -0.837425
    6 18.045725 0.000000 0.000000 0.000000 0.000000 -2.074647
    7 17.597597 0.000000 0.000000 -0.092081 0.087821 0.559948
    8 1.293670 0.684478 -0.000001 -0.000004 -0.000001 0.306070
    9 5.309685 -0.003834 0.000000 0.000000 0.000000 0.523581
    10 4.826790 -0.004591 0.000000 -0.163281 0.061649 0.357096
    11 5.792767 -0.005304 0.000000 -0.224653 0.031460 0.135999
    12 6.662317 -0.001453 0.000000 0.000000 -0.000001 -0.139840
    13 2.046985 -0.000002 0.000000 0.367454 0.147541 -0.525875
    14 -3.416721 -0.541403 4.341911 1.360809 -0.799346 1.998870
    15 4.827230 0.000000 0.000001 -0.483226 -0.804500 -0.674010
    16 11.139763 0.000000 0.000000 0.000000 0.000000 -0.903391
    17 10.314597 0.000001 0.000000 -4.229387 0.558712 -0.152971
    18 2.975834 -0.386307 -0.044143 -0.000797 -0.043611 0.000035
    19 1.438886 0.000000 0.000000 0.000000 0.000000 0.872212
    20 1.485303 0.000000 0.000000 0.000000 0.000000 0.907076
    21 -3.151157 -0.498832 -4.140396 -1.374547 1.044627 1.935779
    22 4.972048 0.000000 0.000001 0.963285 -0.278406 -1.052543
    23 11.585355 0.000000 0.000000 0.000000 0.000000 -1.892397
    24 10.127057 0.000000 0.000001 1.926547 0.125206 0.590935
    25 2.683750 -0.427338 0.044205 -0.005786 0.043239 -0.157091
    26 1.438885 -0.000001 0.000000 0.000000 0.000000 0.732658
    27 1.485305 0.000001 0.000000 0.000000 0.000000 1.168770
    28 1.646738 0.449549 -1.702246 -0.161934 0.581206 -0.284024
    29 0.928312 0.000000 -0.000002 0.000000 0.000000 0.000000
    30 0.928314 0.000000 0.000001 0.000000 0.000000 0.000000
    31 1.533672 0.109715 1.664491 -0.264755 -0.055959 0.783109
    32 0.928313 0.000000 0.000000 0.000000 0.000000 -0.453556
    33 0.928314 0.000000 0.000001 0.000000 0.000000 0.000000
  time 12
    0 0.235347 0.367732 -14.553656 -0.045585 0.257873 -1.742273
    1 0.000000 0.000000 0.000000 -1.570795 -1.570796 0.000000
    2 -0.000005 0.000007 3.713255 2.914525 6.061903 1.331528
    3 18.045721 0.000000 0.000000 0.000000 0.000000 -1.349242
    4 17.597597 0.000000 0.000000 -0.205057 0.225938 -0.216505
    5 0.000005 -0.000003 -3.713255 -0.067002 -3.740518 -0.837425
    6 18.045725 0.000000 0.000000 0.000000 0.000000 -2.074647
    7 17.597597 0.000000 0.000000 -0.092081 0.087821 0.559948
    8 1.293670 0.684478 -0.000001 -0.000004 -0.000001 0.306070
    9 5.309685 -0.003834 0.000000 0.000000 0.000000 0.523581
    10 4.826790 -0.004591 0.000000 -0.162953 0.062524 0.362388
    11 5.792767 -0.005304 0.000000 -0.224653 0.031460 0.135999
    12 6.662317 -0.001453 0.000000 0.000000 -0.000001 -0.139840
    13 2.046985 -0.000002 0.000000 0.366851 0.148599 -0.531178
    14 -3.416721 -0.541403 4.341911 1.360809 -0.799346 1.998870
    15 4.827230 0.000000 0.000001 -0.482580 -0.809776 -0.674885
    16 11.139763 0.000000 0.000000 0.000000 0.000000 -0.903391
    17 10.314597 0.000001 0.000000 -4.229387 0.558712 -0.152971
    18 2.975834 -0.386307 -0.044143 -0.000797 -0.043611 0.000035
    19 1.438886 0.000000 0.000000 0.000000 0.000000 0.872212
    20 1.485303 0.000000 0.000000 0.000000 0.000000 0.907076
    21 -3.151157 -0.498832 -4.140396 -1.379244 1.034197 1.931752
    22 4.972048 0.000000 0.000001 0.965142 -0.272212 -1.043124
    23 11.585355 0.000000 0.000000 0.000000 0.000000 -1.892397
    24 10.127057 0.000000 0.000001 1.926547 0.125206 0.590935
    25 2.683750 -0.427338 0.044205 -0.005786 0.043239 -0.157091
    26 1.438885 -0.000001 0.000000 0.000000 0.000000 0.732658
    27 1.485305 0.000001 0.000000 0.000000 0.000000 1.168770
    28 1.646738 0.449549 -1.702246 -0.161934 0.581206 -0.284024
    29 0.928312 0.000000 -0.000002 0.000000 0.000000 0.000000
    30 0.928314 0.000000 0.000001 0.000000 0.000000 0.000000
    31 1.533672 0.109715 1.664491 -0.264755 -0.055959 0.783109
    32 0.928313 0.000000 0.000000 0.000000 0.000000 -0.453556
    33 0.928314 0.000000 0.000001 0.000000 0.000000 0.000000
  time 13
    0 0.235347 0.367732 -14.553656 -0.045585 0.257873 -1.742273
    1 0.000000 0.000000 0.000000 -1.570795 -1.570796 0.000000
    2 -0.000005 0.000007 3.713255 2.914525 6.061903 1.331528
    3 18.045721 0.000000 0.000000 0.000000 0.000000 -1.349242
    4 17.597597 0.000000 0.000000 -0.205057 0.225938 -0.216505
    5 0.000005 -0.000003 -3.713255 -0.067002 -3.740518 -0.837425
    6 18.045725 0.000000 0.000000 0.000000 0.000000 -2.074647
    7 17.597597 0.000000 0.000000 -0.092081 0.087821 0.559948
    8 1.293670 0.684478 -0.000001 -0.000004 -0.000001 0.306070
    9 5.309685 -0.003834 0.000000 0.000000 0.000000 0.523581
    10 4.826790 -0.004591 0.000000 -0.162690 0.063183 0.366445
    11 5.792767 -0.005304 0.000000 -0.224653 0.031460 0.135999
    12 6.662317 -0.001453 0.000000 0.000000 -0.000001 -0.139840
    13 2.046985 -0.000002 0.000000 0.366377 0.149387 -0.535269
    14 -3.416721 -0.541403 4.341911 1.360809 -0.799346 1.998870
    15 4.827230 0.000000 0.000001 -0.482051 -0.813861 -0.675586
    16 11.139763 0.000000 0.000000 0.000000 0.000000 -0.903391
    17 10.314597 0.000001 0.000000 -4.229387 0.558712 -0.152971
    18 2.975834 -0.386307 -0.044143 -0.000797 -0.043611 0.000035
    19 1.438886 0.000000 0.000000 0.000000 0.000000 0.872212
    20 1.485303 0.000000 0.000000 0.000000 0.000000 0.907076
    21 -3.151157 -0.498832 -4.140396 -1.382792 1.026170 1.928780
    22 4.972048 0.000000 0.000001 0.966534 -0.267385 -1.035878
    23 11.585355 0.000000 0.000000 0.000000 0.000000 -1.892397
    24 10.127057 0.000000 0.000001 1.926547 0.125206 0.590935
    25 2.683750 -0.427338 0.044205 -0.005786 0.043239 -0.157091
    26 1.438885 -0.000001 0.000000 0.000000 0.000000 0.732658
    27 1.485305 0.000001 0.000000 0.000000 0.000000 1.168770
    28 1.646738 0.449549 -1.702246 -0.161934 0.581206 -0.284024
    29 0.928312 0.000000 -0.000002 0.000000 0.000000 0.000000
    30 0.928314 0.000000 0.000001 0.000000 0.000000 0.000000
    31 1.533672 0.109715 1.664491 -0.264755 -0.055959 0.783109
    32 0.928313 0.000000 0.000000 0.000000 0.000000 -0.453556
    33 0.928314 0.000000 0.000001 0.000000 0.000000 0.000000
  time 14
    0 0.235347 0.367732 -14.553656 -0.045585 0.257873 -1.742273
    1 0.000000 0.000000 0.000000 -1.570795 -1.570796 0.000000
    2 -0.000005 0.000007 3.713255 2.914525 6.061903 1.331528
    3 18.045721 0.000000 0.000000 0.000000 0.000000 -1.349242
    4 17.597597 0.000000 0.000000 -0.205057 0.225938 -0.216505
    5 0.000005 -0.000003 -3.713255 -0.067002 -3.740518 -0.837425
    6 18.045725 0.000000 0.000000 0.000000 0.000000 -2.074647
    7 17.597597 0.000000 0.000000 -0.092081 0.087821 0.559948
    8 1.293670 0.684478 -0.000001 -0.000004 -0.000001 0.306070
    9 5.309685 -0.003834 0.000000 0.000000 0.000000 0.523581
    10 4.826790 -0.004591 0.000000 -0.162526 0.063614 0.369068
    11 5.792767 -0.005304 0.000000 -0.224653 0.031460 0.135999
    12 6.662317 -0.001453 0.000000 0.000000 -0.000001 -0.139840
    13 2.046985 -0.000002 0.000000 0.366032 0.149905 -0.537876
    14 -3.416721 -0.541403 4.341911 1.360809 -0.799346 1.998870
    15 4.827230 0.000000 0.000001 -0.481757 -0.816499 -0.676023
    16 11.139763 0.000000 0.000000 0.000000 0.000000 -0.903391
    17 10.314597 0.000001 0.000000 -4.229387 0.558712 -0.152971
    18 2.975834 -0.386307 -0.044143 -0.000797 -0.043611 0.000035
    19 1.438886 0.000000 0.000000 0.000000 0.000000 0.872212
    20 1.485303 0.000000 0.000000 0.000000 0.000000 0.907076
    21 -3.151157 -0.498832 -4.140396 -1.384901 1.021026 1.926862
    22 4.972048 0.000000 0.000001 0.967463 -0.264328 -1.031266
    23 11.585355 0.000000 0.000000 0.000000 0.000000 -1.892397
    24 10.127057 0.000000 0.000001 1.926547 0.125206 0.590935
    25 2.683750 -0.427338 0.044205 -0.005786 0.043239 -0.157091
    26 1.438885 -0.000001 0.000000 0.000000 0.000000 0.732658
    27 1.485305 0.000001 0.000000 0.000000 0.000000 1.168770
    28 1.646738 0.449549 -1.702246 -0.161934 0.581206 -0.284024
    29 0.928312 0.000000 -0.000002 0.000000 0.000000 0.000000
    30 0.928314 0.000000 0.000001 0.000000 0.000000 0.000000
    31 1.533672 0.109715 1.664491 -0.264755 -0.055959 0.783109
    32 0.928313 0.000000 0.000000 0.000000 0.000000 -0.453556
    33 0.928314 0.000000 0.000001 0.000000 0.000000 0.000000
  time 15
    0 0.235347 0.367732 -14.553656 -0.045585 0.257873 -1.742273
    1 0.000000 0.000000 0.000000 -1.570795 -1.570796 0.000000
    2 -0.000005 0.000007 3.713255 2.914525 6.061903 1.331528
    3 18.045721 0.000000 0.000000 0.000000 0.000000 -1.349242
    4 17.597597 0.000000 0.000000 -0.205057 0.225938 -0.216505
    5 0.000005 -0.000003 -3.713255 -0.067002 -3.740518 -0.837425
    6 18.045725 0.000000 0.000000 0.000000 0.000000 -2.074647
    7 17.597597 0.000000 0.000000 -0.092081 0.087821 0.559948
    8 1.293670 0.684478 -0.000001 -0.000004 -0.000001 0.306070
    9 5.309685 -0.003834 0.000000 0.000000 0.000000 0.523581
    10 4.826790 -0.004591 0.000000 -0.162476 0.063770 0.369972
    11 5.792767 -0.005304 0.000000 -0.224653 0.031460 0.135999
    12 6.662317 -0.001453 0.000000 0.000000 -0.000001 -0.139840
    13 2.046985 -0.000002 0.000000 0.365946 0.150085 -0.538820
    14 -3.416721 -0.541403 4.341911 1.360809 -0.799346 1.998870
    15 4.827230 0.000000 0.000001 -0.481640 -0.817435 -0.676198
    16 11.139763 0.000000 0.000000 0.000000 0.000000 -0.903391
    17 10.314597 0.000001 0.000000 -4.229387 0.558712 -0.152971
    18 2.975834 -0.386307 -0.044143 -0.000797 -0.043611 0.000035
    19 1.438886 0.000000 0.000000 0.000000 0.000000 0.872212
    20 1.485303 0.000000 0.000000 0.000000 0.000000 0.907076
    21 -3.151157 -0.498832 -4.140396 -1.385668 1.019217 1.926287
    22 4.972048 0.000000 0.000001 0.967772 -0.263283 -1.029620
    23 11.585355 0.000000 0.000000 0.000000 0.000000 -1.892397
    24 10.127057 0.000000 0.000001 1.926547 0.125206 0.590935
    25 2.683750 -0.427338 0.044205 -0.005786 0.043239 -0.157091
    26 1.438885 -0.000001 0.000000 0.000000 0.000000 0.732658
    27 1.485305 0.000001 0.000000 0.000000 0.000000 1.168770
    28 1.646738 0.449549 -1.702246 -0.161934 0.581206 -0.284024
    29 0.928312 0.000000 -0.000002 0.000000 0.000000 0.000000
    30 0.928314 0.000000 0.000001 0.000000 0.000000 0.000000
    31 1.533672 0.109715 1.664491 -0.264755 -0.055959 0.783109
    32 0.928313 0.000000 0.000000 0.000000 0.000000 -0.453556
    33 0.928314 0.000000 0.000001 0.000000 0.000000 0.000000
  time 16
    0 0.235347 0.367732 -14.553656 -0.045585 0.257873 -1.742273
    1 0.000000 0.000000 0.000000 -1.570795 -1.570796 0.000000
    2 -0.000005 0.000007 3.713255 2.914525 6.061903 1.331528
    3 18.045721 0.000000 0.000000 0.000000 0.000000 -1.349242
    4 17.597597 0.000000 0.000000 -0.205057 0.225938 -0.216505
    5 0.000005 -0.000003 -3.713255 -0.067002 -3.740518 -0.837425
    6 18.045725 0.000000 0.000000 0.000000 0.000000 -2.074647
    7 17.597597 0.000000 0.000000 -0.092081 0.087821 0.559948
    8 1.293670 0.684478 -0.000001 -0.000004 -0.000001 0.306070
    9 5.309685 -0.003834 0.000000 0.000000 0.000000 0.523581
    10 4.826790 -0.004591 0.000000 -0.162526 0.063614 0.369068
    11 5.792767 -0.005304 0.000000 -0.224653 0.031460 0.135999
    12 6.662317 -0.001453 0.000000 0.000000 -0.000001 -0.139840
    13 2.046985 -0.000002 0.000000 0.366032 0.149905 -0.537876
    14 -3.416721 -0.541403 4.341911 1.360809 -0.799346 1.998870
    15 4.827230 0.000000 0.000001 -0.481757 -0.816499 -0.676023
    16 11.139763 0.000000 0.000000 0.000000 0.000000 -0.903391
    17 10.314597 0.000001 0.000000 -4.229387 0.558712 -0.152971
    18 2.975834 -0.386307 -0.044143 -0.000797 -0.043611 0.000035
    19 1.438886 0.000000 0.000000 0.000000 0.000000 0.872212
    20 1.485303 0.000000 0.000000 0.000000 0.000000 0.907076
    21 -3.151157 -0.498832 -4.140396 -1.384901 1.021026 1.926862
    22 4.972048 0.000000 0.000001 0.967463 -0.264328 -1.031266
    23 11.585355 0.000000 0.000000 0.000000 0.000000 -1.892397
    24 10.127057 0.000000 0.000001 1.926547 0.125206 0.590935
    25 2.683750 -0.427338 0.044205 -0.005786 0.043239 -0.157091
    26 1.438885 -0.000001 0.000000 0.000000 0.000000 0.732658
    27 1.485305 0.000001 0.000000 0.000000 0.000000 1.168770
    28 1.646738 0.449549 -1.702246 -0.161934 0.581206 -0.284024
    29 0.928312 0.000000 -0.000002 0.000000 0.000000 0.000000
    30 0.928314 0.000000 0.000001 0.000000 0.000000 0.000000
    31 1.533672 0.109715 1.664491 -0.264755 -0.055959 0.783109
    32 0.928313 0.000000 0.000000 0.000000 0.000000 -0.453556
    33 0.928314 0.000000 0.000001 0.000000 0.000000 0.000000
  time 17
    0 0.235347 0.367732 -14.553656 -0.045585 0.257873 -1.742273
    1 0.000000 0.000000 0.000000 -1.570795 -1.570796 0.000000
    2 -0.000005 0.000007 3.713255 2.914525 6.061903 1.331528
    3 18.045721 0.000000 0.000000 0.000000 0.000000 -1.349242
    4 17.597597 0.000000 0.000000 -0.205057 0.225938 -0.216505
    5 0.000005 -0.000003 -3.713255 -0.067002 -3.740518 -0.837425
    6 18.045725 0.000000 0.000000 0.000000 0.000000 -2.074647
    7 17.597597 0.000000 0.000000 -0.092081 0.087821 0.559948
    8 1.293670 0.684478 -0.000001 -0.000004 -0.000001 0.306070
    9 5.309685 -0.003834 0.000000 0.000000 0.000000 0.523581
    10 4.826790 -0.004591 0.000000 -0.162690 0.063183 0.366445
    11 5.792767 -0.005304 0.000000 -0.224653 0.031460 0.135999
    12 6.662317 -0.001453 0.000000 0.000000 -0.000001 -0.139840
    13 2.046985 -0.000002 0.000000 0.366377 0.149387 -0.535269
    14 -3.416721 -0.541403 4.341911 1.360809 -0.799346 1.998870
    15 4.827230 0.000000 0.000001 -0.482051 -0.813861 -0.675586
    16 11.139763 0.000000 0.000000 0.000000 0.000000 -0.903391
    17 10.314597 0.000001 0.000000 -4.229387 0.558712 -0.152971
    18 2.975834 -0.386307 -0.044143 -0.000797 -0.043611 0.000035
    19 1.438886 0.000000 0.000000 0.000000 0.000000 0.872212
    20 1.485303 0.000000 0.000000 0.000000 0.000000 0.907076
    21 -3.151157 -0.498832 -4.140396 -1.382792 1.026170 1.928780
    22 4.972048 0.000000 0.000001 0.966534 -0.267385 -1.035878
    23 11.585355 0.000000 0.000000 0.000000 0.000000 -1.892397
    24 10.127057 0.000000 0.000001 1.926547 0.125206 0.590935
    25 2.683750 -0.427338 0.044205 -0.005786 0.043239 -0.157091
    26 1.438885 -0.000001 0.000000 0.000000 0.000000 0.732658
    27 1.485305 0.000001 0.000000 0.000000 0.000000 1.168770
    28 1.646738 0.449549 -1.702246 -0.161934 0.581206 -0.284024
    29 0.928312 0.000000 -0.000002 0.000000 0.000000 0.000000
    30 0.928314 0.000000 0.000001 0.000000 0.000000 0.000000
    31 1.533672 0.109715 1.664491 -0.264755 -0.055959 0.783109
    32 0.928313 0.000000 0.000000 0.000000 0.000000 -0.453556
    33 0.928314 0.000000 0.000001 0.000000 0.000000 0.000000
  time 18
    0 0.235347 0.367732 -14.553656 -0.045585 0.257873 -1.742273
    1 0.000000 0.000000 0.000000 -1.570795 -1.570796 0.000000
    2 -0.000005 0.000007 3.713255 2.914525 6.061903 1.331528
    3 18.045721 0.000000 0.000000 0.000000 0.000000 -1.349242
    4 17.597597 0.000000 0.000000 -0.205057 0.225938 -0.216505
    5 0.000005 -0.000003 -3.713255 -0.067002 -3.740518 -0.837425
    6 18.045725 0.000000 0.000000 0.000000 0.000000 -2.074647
    7 17.597597 0.000000 0.000000 -0.092081 0.087821 0.559948
    8 1.293670 0.684478 -0.000001 -0.000004 -0.000001 0.306070
    9 5.309685 -0.003834 0.000000 0.000000 0.000000 0.523581
    10 4.826790 -0.004591 0.000000 -0.162953 0.062524 0.362388
    11 5.792767 -0.005304 0.000000 -0.224653 0.031460 0.135999
    12 6.662317 -0.001453 0.000000 0.000000 -0.000001 -0.139840
    13 2.046985 -0.000002 0.000000 0.366851 0.148599 -0.531178
    14 -3.416721 -0.541403 4.341911 1.360809 -0.799346 1.998870
    15 4.827230 0.000000 0.000001 -0.482580 -0.809776 -0.674885
    16 11.139763 0.000000 0.000000 0.000000 0.000000 -0.903391
    17 10.314597 0.000001 0.000000 -4.229387 0.558712 -0.152971
    18 2.975834 -0.386307 -0.044143 -0.000797 -0.043611 0.000035
    19 1.438886 0.000000 0.000000 0.000000 0.000000 0.872212
    20 1.485303 0.000000 0.000000 0.000000 0.000000 0.907076
    21 -3.151157 -0.498832 -4.140396 -1.379244 1.034197 1.931752
    22 4.972048 0.000000 0.000001 0.965142 -0.272212 -1.043124
    23 11.585355 0.000000 0.000000 0.000000 0.000000 -1.892397
    24 10.127057 0.000000 0.000001 1.926547 0.125206 0.590935
    25 2.683750 -0.427338 0.044205 -0.005786 0.043239 -0.157091
    26 1.438885 -0.000001 0.000000 0.000000 0.000000 0.732658
    27 1.485305 0.000001 0.000000 0.000000 0.000000 1.168770
    28 1.646738 0.449549 -1.702246 -0.161934 0.581206 -0.284024
    29 0.928312 0.000000 -0.000002 0.000000 0.000000 0.000000
    30 0.928314 0.000000 0.000001 0.000000 0.000000 0.000000
    31 1.533672 0.109715 1.664491 -0.264755 -0.055959 0.783109
    32 0.928313 0.000000 0.000000 0.000000 0.000000 -0.453556
    33 0.928314 0.000000 0.000001 0.000000 0.000000 0.000000
  time 19
    0 0.235347 0.367732 -14.553656 -0.045585 0.257873 -1.742273
    1 0.000000 0.000000 0.000000 -1.570795 -1.570796 0.000000
    2 -0.000005 0.000007 3.713255 2.914525 6.061903 1.331528
    3 18.045721 0.000000 0.000000 0.000000 0.000000 -1.349242
    4 17.597597 0.000000 0.000000 -0.205057 0.225938 -0.216505
    5 0.000005 -0.000003 -3.713255 -0.067002 -3.740518 -0.837425
    6 18.045725 0.000000 0.000000 0.000000 0.000000 -2.074647
    7 17.597597 0.000000 0.000000 -0.092081 0.087821 0.559948
    8 1.293670 0.684478 -0.000001 -0.000004 -0.000001 0.306070
    9 5.309685 -0.003834 0.000000 0.000000 0.000000 0.523581
    10 4.826790 -0.004591 0.000000 -0.163281 0.061649 0.357096
    11 5.792767 -0.005304 0.000000 -0.224653 0.031460 0.135999
    12 6.662317 -0.001453 0.000000 0.000000 -0.000001 -0.139840
    13 2.046985 -0.000002 0.000000 0.367454 0.147541 -0.525875
    14 -3.416721 -0.541403 4.341911 1.360809 -0.799346 1.998870
    15 4.827230 0.000000 0.000001 -0.483226 -0.804500 -0.674010
    16 11.139763 0.000000 0.000000 0.000000 0.000000 -0.903391
    17 10.314597 0.000001 0.000000 -4.229387 0.558712 -0.152971
    18 2.975834 -0.386307 -0.044143 -0.000797 -0.043611 0.000035
    19 1.438886 0.000000 0.000000 0.000000 0.000000 0.872212
    20 1.485303 0.000000 0.000000 0.000000 0.000000 0.907076
    21 -3.151157 -0.498832 -4.140396 -1.374547 1.044627 1.935779
    22 4.972048 0.000000 0.000001 0.963285 -0.278406 -1.052543
    23 11.585355 0.000000 0.000000 0.000000 0.000000 -1.892397
    24 10.127057 0.000000 0.000001 1.926547 0.125206 0.590935
    25 2.683750 -0.427338 0.044205 -0.005786 0.043239 -0.157091
    26 1.438885 -0.000001 0.000000 0.000000 0.000000 0.732658
    27 1.485305 0.000001 0.000000 0.000000 0.000000 1.168770
    28 1.646738 0.449549 -1.702246 -0.161934 0.581206 -0.284024
    29 0.928312 0.000000 -0.000002 0.000000 0.000000 0.000000
    30 0.928314 0.000000 0.000001 0.000000 0.000000 0.000000
    31 1.533672 0.109715 1.664491 -0.264755 -0.055959 0.783109
    32 0.928313 0.000000 0.000000 0.000000 0.000000 -0.453556
    33 0.928314 0.000000 0.000001 0.000000 0.000000 0.000000
  time 20
    0 0.235347 0.367732 -14.553656 -0.045585 0.257873 -1.742273
    1 0.000000 0.000000 0.000000 -1.570795 -1.570796 0.000000
    2 -0.000005 0.000007 3.713255 2.914525 6.061903 1.331528
    3 18.045721 0.000000 0.000000 0.000000 0.000000 -1.349242
    4 17.597597 0.000000 0.000000 -0.205057 0.225938 -0.216505
    5 0.000005 -0.000003 -3.713255 -0.067002 -3.740518 -0.837425
    6 18.045725 0.000000 0.000000 0.000000 0.000000 -2.074647
    7 17.597597 0.000000 0.000000 -0.092081 0.087821 0.559948
    8 1.293670 0.684478 -0.000001 -0.000004 -0.000001 0.306070
    9 5.309685 -0.003834 0.000000 0.000000 0.000000 0.523581
    10 4.826790 -0.004591 0.000000 -0.163659 0.060618 0.350812
    11 5.792767 -0.005304 0.000000 -0.224653 0.031460 0.135999
    12 6.662317 -0.001453 0.000000 0.000000 -0.000001 -0.139840
    13 2.046985 -0.000002 0.000000 0.368187 0.146302 -0.519582
    14 -3.416721 -0.541403 4.341911 1.360809 -0.799346 1.998870
    15 4.827230 0.000000 0.000001 -0.483931 -0.798203 -0.672960
    16 11.139763 0.000000 0.000000 0.000000 0.000000 -0.903391
    17 10.314597 0.000001 0.000000 -4.229387 0.558712 -0.152971
    18 2.975834 -0.386307 -0.044143 -0.000797 -0.043611 0.000035
    19 1.438886 0.000000 0.000000 0.000000 0.000000 0.872212
    20 1.485303 0.000000 0.000000 0.000000 0.000000 0.907076
    21 -3.151157 -0.498832 -4.140396 -1.368794 1.057035 1.940860
    22 4.972048 0.000000 0.000001 0.961119 -0.285806 -1.063676
    23 11.585355 0.000000 0.000000 0.000000 0.000000 -1.892397
    24 10.127057 0.000000 0.000001 1.926547 0.125206 0.590935
    25 2.683750 -0.427338 0.044205 -0.005786 0.043239 -0.157091
    26 1.438885 -0.000001 0.000000 0.000000 0.000000 0.732658
    27 1.485305 0.000001 0.000000 0.000000 0.000000 1.168770
    28 1.646738 0.449549 -1.702246 -0.161934 0.581206 -0.284024
    29 0.928312 0.000000 -0.000002 0.000000 0.000000 0.000000
    30 0.928314 0.000000 0.000001 0.000000 0.000000 0.000000
    31 1.533672 0.109715 1.664491 -0.264755 -0.055959 0.783109
    32 0.928313 0.000000 0.000000 0.000000 0.000000 -0.453556
    33 0.928314 0.000000 0.000001 0.000000 0.000000 0.000000
  time 21
    0 0.235347 0.367732 -14.553656 -0.045585 0.257873 -1.742273
    1 0.000000 0.000000 0.000000 -1.570795 -1.570796 0.000000
    2 -0.000005 0.000007 3.713255 2.914525 6.061903 1.331528
    3 18.045721 0.000000 0.000000 0.000000 0.000000 -1.349242
    4 17.597597 0.000000 0.000000 -0.205057 0.225938 -0.216505
    5 0.000005 -0.000003 -3.713255 -0.067002 -3.740518 -0.837425
    6 18.045725 0.000000 0.000000 0.000000 0.000000 -2.074647
    7 17.597597 0.000000 0.000000 -0.092081 0.087821 0.559948
    8 1.293670 0.684478 -0.000001 -0.000004 -0.000001 0.306070
    9 5.309685 -0.003834 0.000000 0.000000 0.000000 0.523581
    10 4.826790 -0.004591 0.000000 -0.164086 0.059456 0.343756
    11 5.792767 -0.005304 0.000000 -0.224653 0.031460 0.135999
    12 6.662317 -0.001453 0.000000 0.000000 -0.000001 -0.139840
    13 2.046985 -0.000002 0.000000 0.368962 0.144906 -0.512525
    14 -3.416721 -0.541403 4.341911 1.360809 -0.799346 1.998870
    15 4.827230 0.000000 0.000001 -0.484753 -0.791054 -0.671735
    16 11.139763 0.000000 0.000000 0.000000 0.000000 -0.903391
    17 10.314597 0.000001 0.000000 -4.229387 0.558712 -0.152971
    18 2.975834 -0.386307 -0.044143 -0.000797 -0.043611 0.000035
    19 1.438886 0.000000 0.000000 0.000000 0.000000 0.872212
    20 1.485303 0.000000 0.000000 0.000000 0.000000 0.907076
    21 -3.151157 -0.498832 -4.140396 -1.361987 1.070913 1.946804
    22 4.972048 0.000000 0.000001 0.958644 -0.294092 -1.076126
    23 11.585355 0.000000 0.000000 0.000000 0.000000 -1.892397
    24 10.127057 0.000000 0.000001 1.926547 0.125206 0.590935
    25 2.683750 -0.427338 0.044205 -0.005786 0.043239 -0.157091
    26 1.438885 -0.000001 0.000000 0.000000 0.000000 0.732658
    27 1.485305 0.000001 0.000000 0.000000 0.000000 1.168770
    28 1.646738 0.449549 -1.702246 -0.161934 0.581206 -0.284024
    29 0.928312 0.000000 -0.000002 0.000000 0.000000 0.000000
    30 0.928314 0.000000 0.000001 0.000000 0.000000 0.000000
    31 1.533672 0.109715 1.664491 -0.264755 -0.055959 0.783109
    32 0.928313 0.000000 0.000000 0.000000 0.000000 -0.453556
    33 0.928314 0.000000 0.000001 0.000000 0.000000 0.000000
  time 22
    0 0.235347 0.367732 -14.553656 -0.045585 0.257873 -1.742273
    1 0.000000 0.000000 0.000000 -1.570795 -1.570796 0.000000
    2 -0.000005 0.000007 3.713255 2.914525 6.061903 1.331528
    3 18.045721 0.000000 0.000000 0.000000 0.000000 -1.349242
    4 17.597597 0.000000 0.000000 -0.205057 0.225938 -0.216505
    5 0.000005 -0.000003 -3.713255 -0.067002 -3.740518 -0.837425
    6 18.045725 0.000000 0.000000 0.000000 0.000000 -2.074647
    7 17.597597 0.000000 0.000000 -0.092081 0.087821 0.559948
    8 1.293670 0.684478 -0.000001 -0.000004 -0.000001 0.306070
    9 5.309685 -0.003834 0.000000 0.000000 0.000000 0.523581
    10 4.826790 -0.004591 0.000000 -0.164529 0.058197 0.336171
    11 5.792767 -0.005304 0.000000 -0.224653 0.031460 0.135999
    12 6.662317 -0.001453 0.000000 0.000000 -0.000001 -0.139840
    13 2.046985 -0.000002 0.000000 0.369824 0.143398 -0.504929
    14 -3.416721 -0.541403 4.341911 1.360809 -0.799346 1.998870
    15 4.827230 0.000000 0.000001 -0.485634 -0.783480 -0.670510
    16 11.139763 0.000000 0.000000 0.000000 0.000000 -0.903391
    17 10.314597 0.000001 0.000000 -4.229387 0.558712 -0.152971
    18 2.975834 -0.386307 -0.044143 -0.000797 -0.043611 0.000035
    19 1.438886 0.000000 0.000000 0.000000 0.000000 0.872212
    20 1.485303 0.000000 0.000000 0.000000 0.000000 0.907076
    21 -3.151157 -0.498832 -4.140396 -1.354222 1.085836 1.953611
    22 4.972048 0.000000 0.000001 0.955937 -0.303021 -1.089564
    23 11.585355 0.000000 0.000000 0.000000 0.000000 -1.892397
    24 10.127057 0.000000 0.000001 1.926547 0.125206 0.590935
    25 2.683750 -0.427338 0.044205 -0.005786 0.043239 -0.157091
    26 1.438885 -0.000001 0.000000 0.000000 0.000000 0.732658
    27 1.485305 0.000001 0.000000 0.000000 0.000000 1.168770
    28 1.646738 0.449549 -1.702246 -0.161934 0.581206 -0.284024
    29 0.928312 0.000000 -0.000002 0.000000 0.000000 0.000000
    30 0.928314 0.000000 0.000001 0.000000 0.000000 0.000000
    31 1.533672 0.109715 1.664491 -0.264755 -0.055959 0.783109
    32 0.928313 0.000000 0.000000 0.000000 0.000000 -0.453556
    33 0.928314 0.000000 0.000001 0.000000 0.000000 0.000000
  time 23
    0 0.235347 0.367732 -14.553656 -0.045585 0.257873 -1.742273
    1 0.000000 0.000000 0.000000 -1.570795 -1.570796 0.000000
    2 -0.000005 0.000007 3.713255 2.914525 6.061903 1.331528
    3 18.045721 0.000000 0.000000 0.000000 0.000000 -1.349242
    4 17.597597 0.000000 0.000000 -0.205057 0.225938 -0.216505
    5 0.000005 -0.000003 -3.713255 -0.067002 -3.740518 -0.837425
    6 18.045725 0.000000 0.000000 0.000000 0.000000 -2.074647
    7 17.597597 0.000000 0.000000 -0.092081 0.087821 0.559948
    8 1.293670 0.684478 -0.000001 -0.000004 -0.000001 0.306070
    9 5.309685 -0.003834 0.000000 0.000000 0.000000 0.523581
    10 4.826790 -0.004591 0.000000 -0.164989 0.056891 0.328278
    11 5.792767 -0.005304 0.000000 -0.224653 0.031460 0.135999
    12 6.662317 -0.001453 0.000000 0.000000 -0.000001 -0.139840
    13 2.046985 -0.000002 0.000000 0.370685 0.141822 -0.497018
    14 -3.416721 -0.541403 4.341911 1.360809 -0.799346 1.998870
    15 4.827230 0.000000 0.000001 -0.486515 -0.775481 -0.669285
    16 11.139763 0.000000 0.000000 0.000000 0.000000 -0.903391
    17 10.314597 0.000001 0.000000 -4.229387 0.558712 -0.152971
    18 2.975834 -0.386307 -0.044143 -0.000797 -0.043611 0.000035
    19 1.438886 0.000000 0.000000 0.000000 0.000000 0.872212
    20 1.485303 0.000000 0.000000 0.000000 0.000000 0.907076
    21 -3.151157 -0.498832 -4.140396 -1.345689 1.101325 1.961185
    22 4.972048 0.000000 0.000001 0.953229 -0.312271 -1.103463
    23 11.585355 0.000000 0.000000 0.000000 0.000000 -1.892397
    24 10.127057 0.000000 0.000001 1.926547 0.125206 0.590935
    25 2.683750 -0.427338 0.044205 -0.005786 0.043239 -0.157091
    26 1.438885 -0.000001 0.000000 0.000000 0.000000 0.732658
    27 1.485305 0.000001 0.000000 0.000000 0.000000 1.168770
    28 1.646738 0.449549 -1.702246 -0.161934 0.581206 -0.284024
    29 0.928312 0.000000 -0.000002 0.000000 0.000000 0.000000
    30 0.928314 0.000000 0.000001 0.000000 0.000000 0.000000
    31 1.533672 0.109715 1.664491 -0.264755 -0.055959 0.783109
    32 0.928313 0.000000 0.000000 0.000000 0.000000 -0.453556
    33 0.928314 0.000000 0.000001 0.000000 0.000000 0.000000
  time 24
    0 0.235347 0.367732 -14.553656 -0.045585 0.257873 -1.742273
    1 0.000000 0.000000 0.000000 -1.570795 -1.570796 0.000000
    2 -0.000005 0.000007 3.713255 2.914525 6.061903 1.331528
    3 18.045721 0.000000 0.000000 0.000000 0.000000 -1.349242
    4 17.597597 0.000000 0.000000 -0.205057 0.225938 -0.216505
    5 0.000005 -0.000003 -3.713255 -0.067002 -3.740518 -0.837425
    6 18.045725 0.000000 0.000000 0.000000 0.000000 -2.074647
    7 17.597597 0.000000 0.000000 -0.092081 0.087821 0.559948
    8 1.293670 0.684478 -0.000001 -0.000004 -0.000001 0.306070
    9 5.309685 -0.003834 0.000000 0.000000 0.000000 0.523581
    10 4.826790 -0.004591 0.000000 -0.165432 0.055561 0.320296
    11 5.792767 -0.005304 0.000000 -0.224653 0.031460 0.135999
    12 6.662317 -0.001453 0.000000 0.000000 -0.000001 -0.139840
    13 2.046985 -0.000002 0.000000 0.371547 0.140223 -0.489018
    14 -3.416721 -0.541403 4.341911 1.360809 -0.799346 1.998870
    15 4.827230 0.000000 0.000001 -0.487337 -0.767481 -0.668060
    16 11.139763 0.000000 0.000000 0.000000 0.000000 -0.903391
    17 10.314597 0.000001 0.000000 -4.229387 0.558712 -0.152971
    18 2.975834 -0.386307 -0.044143 -0.000797 -0.043611 0.000035
    19 1.438886 0.000000 0.000000 0.000000 0.000000 0.872212
    20 1.485303 0.000000 0.000000 0.000000 0.000000 0.907076
    21 -3.151157 -0.498832 -4.140396 -1.336581 1.116927 1.969430
    22 4.972048 0.000000 0.000001 0.950367 -0.321683 -1.117494
    23 11.585355 0.000000 0.000000 0.000000 0.000000 -1.892397
    24 10.127057 0.000000 0.000001 1.926547 0.125206 0.590935
    25 2.683750 -0.427338 0.044205 -0.005786 0.043239 -0.157091
    26 1.438885 -0.000001 0.000000 0.000000 0.000000 0.732658
    27 1.485305 0.000001 0.000000 0.000000 0.000000 1.168770
    28 1.646738 0.449549 -1.702246 -0.161934 0.581206 -0.284024
    29 0.928312 0.000000 -0.000002 0.000000 0.000000 0.000000
    30 0.928314 0.000000 0.000001 0.000000 0.000000 0.000000
    31 1.533672 0.109715 1.664491 -0.264755 -0.055959 0.783109
    32 0.928313 0.000000 0.000000 0.000000 0.000000 -0.453556
    33 0.928314 0.000000 0.000001 0.000000 0.000000 0.000000
  time 25
    0 0.235347 0.367732 -14.553656 -0.045585 0.257873 -1.742273
    1 0.000000 0.000000 0.000000 -1.570795 -1.570796 0.000000
    2 -0.000005 0.000007 3.713255 2.914525 6.061903 1.331528
    3 18.045721 0.000000 0.000000 0.000000 0.000000 -1.349242
    4 17.597597 0.000000 0.000000 -0.205057 0.225938 -0.216505
    5 0.000005 -0.000003 -3.713255 -0.067002 -3.740518 -0.837425
    6 18.045725 0.000000 0.000000 0.000000 0.000000 -2.074647
    7 17.597597 0.000000 0.000000 -0.092081 0.087821 0.559948
    8 1.293670 0.684478 -0.000001 -0.000004 -0.000001 0.306070
    9 5.309685 -0.003834 0.000000 0.000000 0.000000 0.523581
    10 4.826790 -0.004591 0.000000 -0.165859 0.054254 0.312491
    11 5.792767 -0.005304 0.000000 -0.224653 0.031460 0.135999
    12 6.662317 -0.001453 0.000000 0.000000 -0.000001 -0.139840
    13 2.046985 -0.000002 0.000000 0.372409 0.138647 -0.481197
    14 -3.416721 -0.541403 4.341911 1.360809 -0.799346 1.998870
    15 4.827230 0.000000 0.000001 -0.488218 -0.759652 -0.666834
    16 11.139763 0.000000 0.000000 0.000000 0.000000 -0.903391
    17 10.314597 0.000001 0.000000 -4.229387 0.558712 -0.152971
    18 2.975834 -0.386307 -0.044143 -0.000797 -0.043611 0.000035
    19 1.438886 0.000000 0.000000 0.000000 0.000000 0.872212
    20 1.485303 0.000000 0.000000 0.000000 0.000000 0.907076
    21 -3.151157 -0.498832 -4.140396 -1.326994 1.132217 1.977963
    22 4.972048 0.000000 0.000001 0.947660 -0.330934 -1.131195
    23 11.585355 0.000000 0.000000 0.000000 0.000000 -1.892397
    24 10.127057 0.000000 0.000001 1.926547 0.125206 0.590935
    25 2.683750 -0.427338 0.044205 -0.005786 0.043239 -0.157091
    26 1.438885 -0.000001 0.000000 0.000000 0.000000 0.732658
    27 1.485305 0.000001 0.000000 0.000000 0.000000 1.168770
    28 1.646738 0.449549 -1.702246 -0.161934 0.581206 -0.284024
    29 0.928312 0.000000 -0.000002 0.000000 0.000000 0.000000
    30 0.928314 0.000000 0.000001 0.000000 0.000000 0.000000
    31 1.533672 0.109715 1.664491 -0.264755 -0.055959 0.783109
    32 0.928313 0.000000 0.000000 0.000000 0.000000 -0.453556
    33 0.928314 0.000000 0.000001 0.000000 0.000000 0.000000
  time 26
    0 0.235347 0.367732 -14.553656 -0.045585 0.257873 -1.742273
    1 0.000000 0.000000 0.000000 -1.570795 -1.570796 0.000000
    2 -0.000005 0.000007 3.713255 2.914525 6.061903 1.331528
    3 18.045721 0.000000 0.000000 0.000000 0.000000 -1.349242
    4 17.597597 0.000000 0.000000 -0.205057 0.225938 -0.216505
    5 0.000005 -0.000003 -3.713255 -0.067002 -3.740518 -0.837425
    6 18.045725 0.000000 0.000000 0.000000 0.000000 -2.074647
    7 17.597597 0.000000 0.000000 -0.092081 0.087821 0.559948
    8 1.293670 0.684478 -0.000001 -0.000004 -0.000001 0.306070
    9 5.309685 -0.003834 0.000000 0.000000 0.000000 0.523581
    10 4.826790 -0.004591 0.000000 -0.166269 0.053008 0.305060
    11 5.792767 -0.005304 0.000000 -0.224653 0.031460 0.135999
    12 6.662317 -0.001453 0.000000 0.000000 -0.000001 -0.139840
    13 2.046985 -0.000002 0.000000 0.373184 0.137161 -0.473735
    14 -3.416721 -0.541403 4.341911 1.360809 -0.799346 1.998870
    15 4.827230 0.000000 0.000001 -0.488982 -0.752163 -0.665697
    16 11.139763 0.000000 0.000000 0.000000 0.000000 -0.903391
    17 10.314597 0.000001 0.000000 -4.229387 0.558712 -0.152971
    18 2.975834 -0.386307 -0.044143 -0.000797 -0.043611 0.000035
    19 1.438886 0.000000 0.000000 0.000000 0.000000 0.872212
    20 1.485303 0.000000 0.000000 0.000000 0.000000 0.907076
    21 -3.151157 -0.498832 -4.140396 -1.317310 1.146689 1.986783
    22 4.972048 0.000000 0.000001 0.945030 -0.339702 -1.144238
    23 11.585355 0.000000 0.000000 0.000000 0.000000 -1.892397
    24 10.127057 0.000000 0.000001 1.926547 0.125206 0.590935
    25 2.683750 -0.427338 0.044205 -0.005786 0.043239 -0.157091
    26 1.438885 -0.000001 0.000000 0.000000 0.000000 0.732658
    27 1.485305 0.000001 0.000000 0.000000 0.000000 1.168770
    28 1.646738 0.449549 -1.702246 -0.161934 0.581206 -0.284024
    29 0.928312 0.000000 -0.000002 0.000000 0.000000 0.000000
    30 0.928314 0.000000 0.000001 0.000000 0.000000 0.000000
    31 1.533672 0.109715 1.664491 -0.264755 -0.055959 0.783109
    32 0.928313 0.000000 0.000000 0.000000 0.000000 -0.453556
    33 0.928314 0.000000 0.000001 0.000000 0.000000 0.000000
  time 27
    0 0.235347 0.367732 -14.553656 -0.045585 0.257873 -1.742273
    1 0.000000 0.000000 0.000000 -1.570795 -1.570796 0.000000
    2 -0.000005 0.000007 3.713255 2.914525 6.061903 1.331528
    3 18.045721 0.000000 0.000000 0.000000 0.000000 -1.349242
    4 17.597597 0.000000 0.000000 -0.205057 0.225938 -0.216505
    5 0.000005 -0.000003 -3.713255 -0.067002 -3.740518 -0.837425
    6 18.045725 0.000000 0.000000 0.000000 0.000000 -2.074647
    7 17.597597 0.000000 0.000000 -0.092081 0.087821 0.559948
    8 1.293670 0.684478 -0.000001 -0.000004 -0.000001 0.306070
    9 5.309685 -0.003834 0.000000 0.000000 0.000000 0.523581
    10 4.826790 -0.004591 0.000000 -0.166614 0.051869 0.298247
    11 5.792767 -0.005304 0.000000 -0.224653 0.031460 0.135999
    12 6.662317 -0.001453 0.000000 0.000000 -0.000001 -0.139840
    13 2.046985 -0.000002 0.000000 0.373874 0.135765 -0.466948
    14 -3.416721 -0.541403 4.341911 1.360809 -0.799346 1.998870
    15 4.827230 0.000000 0.000001 -0.489628 -0.745270 -0.664647
    16 11.139763 0.000000 0.000000 0.000000 0.000000 -0.903391
    17 10.314597 0.000001 0.000000 -4.229387 0.558712 -0.152971
    18 2.975834 -0.386307 -0.044143 -0.000797 -0.043611 0.000035
    19 1.438886 0.000000 0.000000 0.000000 0.000000 0.872212
    20 1.485303 0.000000 0.000000 0.000000 0.000000 0.907076
    21 -3.151157 -0.498832 -4.140396 -1.307819 1.159973 1.995412
    22 4.972048 0.000000 0.000001 0.942632 -0.347746 -1.156161
    23 11.585355 0.000000 0.000000 0.000000 0.000000 -1.892397
    24 10.127057 0.000000 0.000001 1.926547 0.125206 0.590935
    25 2.683750 -0.427338 0.044205 -0.005786 0.043239 -0.157091
    26 1.438885 -0.000001 0.000000 0.000000 0.000000 0.732658
    27 1.485305 0.000001 0.000000 0.000000 0.000000 1.168770
    28 1.646738 0.449549 -1.702246 -0.161934 0.581206 -0.284024
    29 0.928312 0.000000 -0.000002 0.000000 0.000000 0.000000
    30 0.928314 0.000000 0.000001 0.000000 0.000000 0.000000
    31 1.533672 0.109715 1.664491 -0.264755 -0.055959 0.783109
    32 0.928313 0.000000 0.000000 0.000000 0.000000 -0.453556
    33 0.928314 0.000000 0.000001 0.000000 0.000000 0.000000
  time 28
    0 0.235347 0.367732 -14.553656 -0.045585 0.257873 -1.742273
    1 0.000000 0.000000 0.000000 -1.570795 -1.570796 0.000000
    2 -0.000005 0.000007 3.713255 2.914525 6.061903 1.331528
    3 18.045721 0.000000 0.000000 0.000000 0.000000 -1.349242
    4 17.597597 0.000000 0.000000 -0.205057 0.225938 -0.216505
    5 0.000005 -0.000003 -3.713255 -0.067002 -3.740518 -0.837425
    6 18.045725 0.000000 0.000000 0.000000 0.000000 -2.074647
    7 17.597597 0.000000 0.000000 -0.092081 0.087821 0.559948
    8 1.293670 0.684478 -0.000001 -0.000004 -0.000001 0.306070
    9 5.309685 -0.003834 0.000000 0.000000 0.000000 0.523581
    10 4.826790 -0.004591 0.000000 -0.166926 0.050863 0.292272
    11 5.792767 -0.005304 0.000000 -0.224653 0.031460 0.135999
    12 6.662317 -0.001453 0.000000 0.000000 -0.000001 -0.139840
    13 2.046985 -0.000002 0.000000 0.374477 0.134549 -0.460970
    14 -3.416721 -0.541403 4.341911 1.360809 -0.799346 1.998870
    15 4.827230 0.000000 0.000001 -0.490215 -0.739313 -0.663772
    16 11.139763 0.000000 0.000000 0.000000 0.000000 -0.903391
    17 10.314597 0.000001 0.000000 -4.229387 0.558712 -0.152971
    18 2.975834 -0.386307 -0.044143 -0.000797 -0.043611 0.000035
    19 1.438886 0.000000 0.000000 0.000000 0.000000 0.872212
    20 1.485303 0.000000 0.000000 0.000000 0.000000 0.907076
    21 -3.151157 -0.498832 -4.140396 -1.299094 1.171561 2.003465
    22 4.972048 0.000000 0.000001 0.940543 -0.354825 -1.166634
    23 11.585355 0.000000 0.000000 0.000000 0.000000 -1.892397
    24 10.127057 0.000000 0.000001 1.926547 0.125206 0.590935
    25 2.683750 -0.427338 0.044205 -0.005786 0.043239 -0.157091
    26 1.438885 -0.000001 0.000000 0.000000 0.000000 0.732658
    27 1.485305 0.000001 0.000000 0.000000 0.000000 1.168770
    28 1.646738 0.449549 -1.702246 -0.161934 0.581206 -0.284024
    29 0.928312 0.000000 -0.000002 0.000000 0.000000 0.000000
    30 0.928314 0.000000 0.000001 0.000000 0.000000 0.000000
    31 1.533672 0.109715 1.664491 -0.264755 -0.055959 0.783109
    32 0.928313 0.000000 0.000000 0.000000 0.000000 -0.453556
    33 0.928314 0.000000 0.000001 0.000000 0.000000 0.000000
  time 29
    0 0.235347 0.367732 -14.553656 -0.045585 0.257873 -1.742273
    1 0.000000 0.000000 0.000000 -1.570795 -1.570796 0.000000
    2 -0.000005 0.000007 3.713255 2.914525 6.061903 1.331528
    3 18.045721 0.000000 0.000000 0.000000 0.000000 -1.349242
    4 17.597597 0.000000 0.000000 -0.205057 0.225938 -0.216505
    5 0.000005 -0.000003 -3.713255 -0.067002 -3.740518 -0.837425
    6 18.045725 0.000000 0.000000 0.000000 0.000000 -2.074647
    7 17.597597 0.000000 0.000000 -0.092081 0.087821 0.559948
    8 1.293670 0.684478 -0.000001 -0.000004 -0.000001 0.306070
    9 5.309685 -0.003834 0.000000 0.000000 0.000000 0.523581
    10 4.826790 -0.004591 0.000000 -0.167172 0.050036 0.287355
    11 5.792767 -0.005304 0.000000 -0.224653 0.031460 0.135999
    12 6.662317 -0.001453 0.000000 0.000000 -0.000001 -0.139840
    13 2.046985 -0.000002 0.000000 0.374994 0.133559 -0.456026
    14 -3.416721 -0.541403 4.341911 1.360809 -0.799346 1.998870
    15 4.827230 0.000000 0.000001 -0.490744 -0.734377 -0.663071
    16 11.139763 0.000000 0.000000 0.000000 0.000000 -0.903391
    17 10.314597 0.000001 0.000000 -4.229387 0.558712 -0.152971
    18 2.975834 -0.386307 -0.044143 -0.000797 -0.043611 0.000035
    19 1.438886 0.000000 0.000000 0.000000 0.000000 0.872212
    20 1.485303 0.000000 0.000000 0.000000 0.000000 0.907076
    21 -3.151157 -0.498832 -4.140396 -1.291520 1.181058 2.010464
    22 4.972048 0.000000 0.000001 0.938764 -0.360616 -1.175198
    23 11.585355 0.000000 0.000000 0.000000 0.000000 -1.892397
    24 10.127057 0.000000 0.000001 1.926547 0.125206 0.590935
    25 2.683750 -0.427338 0.044205 -0.005786 0.043239 -0.157091
    26 1.438885 -0.000001 0.000000 0.000000 0.000000 0.732658
    27 1.485305 0.000001 0.000000 0.000000 0.000000 1.168770
    28 1.646738 0.449549 -1.702246 -0.161934 0.581206 -0.284024
    29 0.928312 0.000000 -0.000002 0.000000 0.000000 0.000000
    30 0.928314 0.000000 0.000001 0.000000 0.000000 0.000000
    31 1.533672 0.109715 1.664491 -0.264755 -0.055959 0.783109
    32 0.928313 0.000000 0.000000 0.000000 0.000000 -0.453556
    33 0.928314 0.000000 0.000001 0.000000 0.000000 0.000000
  time 30
    0 0.235347 0.367732 -14.553656 -0.045585 0.257873 -1.742273
    1 0.000000 0.000000 0.000000 -1.570795 -1.570796 0.000000
    2 -0.000005 0.000007 3.713255 2.914525 6.061903 1.331528
    3 18.045721 0.000000 0.000000 0.000000 0.000000 -1.349242
    4 17.597597 0.000000 0.000000 -0.205057 0.225938 -0.216505
    5 0.000005 -0.000003 -3.713255 -0.067002 -3.740518 -0.837425
    6 18.045725 0.000000 0.000000 0.000000 0.000000 -2.074647
    7 17.597597 0.000000 0.000000 -0.092081 0.087821 0.559948
    8 1.293670 0.684478 -0.000001 -0.000004 -0.000001 0.306070
    9 5.309685 -0.003834 0.000000 0.000000 0.000000 0.523581
    10 4.826790 -0.004591 0.000000 -0.167353 0.049424 0.283761
    11 5.792767 -0.005304 0.000000 -0.224653 0.031460 0.135999
    12 6.662317 -0.001453 0.000000 0.000000 -0.000001 -0.139840
    13 2.046985 -0.000002 0.000000 0.375338 0.132816 -0.452430
    14 -3.416721 -0.541403 4.341911 1.360809 -0.799346 1.998870
    15 4.827230 0.000000 0.000001 -0.491096 -0.730718 -0.662546
    16 11.139763 0.000000 0.000000 0.000000 0.000000 -0.903391
    17 10.314597 0.000001 0.000000 -4.229387 0.558712 -0.152971
    18 2.975834 -0.386307 -0.044143 -0.000797 -0.043611 0.000035
    19 1.438886 0.000000 0.000000 0.000000 0.000000 0.872212
    20 1.485303 0.000000 0.000000 0.000000 0.000000 0.907076
    21 -3.151157 -0.498832 -4.140396 -1.285768 1.188011 2.015833
    22 4.972048 0.000000 0.000001 0.937526 -0.364880 -1.181456
    23 11.585355 0.000000 0.000000 0.000000 0.000000 -1.892397
    24 10.127057 0.000000 0.000001 1.926547 0.125206 0.590935
    25 2.683750 -0.427338 0.044205 -0.005786 0.043239 -0.157091
    26 1.438885 -0.000001 0.000000 0.000000 0.000000 0.732658
    27 1.485305 0.000001 0.000000 0.000000 0.000000 1.168770
    28 1.646738 0.449549 -1.702246 -0.161934 0.581206 -0.284024
    29 0.928312 0.000000 -0.000002 0.000000 0.000000 0.000000
    30 0.928314 0.000000 0.000001 0.000000 0.000000 0.000000
    31 1.533672 0.109715 1.664491 -0.264755 -0.055959 0.783109
    32 0.928313 0.000000 0.000000 0.000000 0.000000 -0.453556
    33 0.928314 0.000000 0.000001 0.000000 0.000000 0.000000
end
