version 1
nodes
  0 "Bip01" -1
  1 "Bip01 Pelvis" 0
  2 "Bip01 L Leg" 1
  3 "Bip01 L Leg1" 2
  4 "Bip01 L Foot" 3
  5 "Bip01 R Leg" 1
  6 "Bip01 R Leg1" 5
  7 "Bip01 R Foot" 6
  8 "Bip01 Spine" 1
  9 "Bip01 Spine1" 8
  10 "Bip01 Spine2" 9
  11 "Bip01 Spine3" 10
  12 "Bip01 Neck" 11
  13 "Bip01 Head" 12
  14 "Bip01 L Arm" 12
  15 "Bip01 L Arm1" 14
  16 "Bip01 L Arm2" 15
  17 "Bip01 L Hand" 16
  18 "Bip01 L Finger1" 17
  19 "Bip01 L Finger11" 18
  20 "Bip01 L Finger12" 19
  21 "Bip01 R Arm" 12
  22 "Bip01 R Arm1" 21
  23 "Bip01 R Arm2" 22
  24 "Bip01 R Hand" 23
  25 "Bip01 R Finger1" 24
  26 "Bip01 R Finger11" 25
  27 "Bip01 R Finger12" 26
  28 "Bip01 L Finger0" 17
  29 "Bip01 L Finger01" 28
  30 "Bip01 L Finger02" 29
  31 "Bip01 R Finger0" 24
  32 "Bip01 R Finger01" 31
  33 "Bip01 R Finger02" 32
end
skeleton
  time 0
    0 0.235347 0.219290 0.481959 0.000000 0.000000 -1.570874
    1 3.734489 -0.296884 0.000000 -1.570795 -1.570796 0.000000
    2 -0.000005 0.000007 3.713255 -0.013186 3.213036 -0.825208
    3 18.045721 0.000000 0.000000 0.000000 0.000000 -1.442673
    4 17.597597 0.000000 0.000000 -0.041018 -0.094533 -0.160366
    5 0.000005 -0.000003 -3.713255 0.241613 -3.249064 -0.062169
    6 18.045725 0.000000 0.000000 0.000000 0.000000 -0.642633
    7 17.597597 0.000000 0.000000 -0.013408 0.089221 0.556240
    8 1.293670 0.684478 -0.000001 -0.069025 -0.010236 -0.147125
    9 5.309685 -0.003834 0.000000 0.000000 0.000000 -0.226765
    10 4.826790 -0.004591 0.000000 -0.077191 -0.014214 -0.182596
    11 5.792767 -0.005304 0.000000 0.000000 0.000000 -0.218047
    12 6.662317 -0.001453 0.000000 0.000000 -0.000001 -0.340150
    13 2.046985 -0.000002 0.000000 0.065098 0.147743 -0.186250
    14 -3.240934 -1.209392 4.341911 -0.000014 -1.370797 3.480921
    15 4.827230 0.000000 0.000001 0.938252 0.392867 1.129245
    16 11.139763 0.000000 0.000000 0.000000 0.000000 -0.287179
    17 10.314597 0.000001 0.000000 -1.570000 0.000000 -0.069778
    18 2.975834 -0.386307 -0.044143 -0.000797 -0.043611 0.000035
    19 1.438886 0.000000 0.000000 0.000000 0.000000 0.793701
    20 1.485303 0.000000 0.000000 0.000000 0.000000 1.465302
    21 -2.987089 -1.116039 -4.140396 -0.000013 1.370795 3.480870
    22 4.972048 0.000000 0.000001 -0.937320 -0.431002 1.114135
    23 11.585355 0.000000 0.000000 0.000000 0.000000 -0.688439
    24 10.127057 0.000000 0.000001 1.569752 0.000000 -0.069778
    25 2.683750 -0.427338 0.044205 0.001045 0.043611 0.000046
    26 1.438885 -0.000001 0.000000 0.000000 0.000000 0.331445
    27 1.485305 0.000001 0.000000 0.000000 0.000000 0.000000
    28 1.646738 0.449549 -1.702246 0.154002 0.442277 0.277235
    29 0.928312 0.000000 -0.000002 0.000000 0.000000 0.000000
    30 0.928314 0.000000 0.000001 0.000000 0.000000 0.000000
    31 1.533672 0.109715 1.664491 -0.233255 -0.412980 0.435684
    32 0.928313 0.000000 0.000000 0.000000 0.000000 0.000000
    33 0.928314 0.000000 0.000001 0.000000 0.000000 0.000000
  time 1
    0 0.235347 0.359919 0.337423 0.000000 0.000000 -1.570874
    1 2.906339 -0.242195 0.000000 -1.570795 -1.570796 0.000000
    2 -0.000005 0.000007 3.713255 -0.019895 3.209498 -0.756063
    3 18.045721 0.000000 0.000000 0.000000 0.000000 -1.305087
    4 17.597597 0.000000 0.000000 -0.061526 -0.081753 -0.021186
    5 0.000005 -0.000003 -3.713255 0.236925 -3.257775 -0.119089
    6 18.045725 0.000000 0.000000 0.000000 0.000000 -0.704066
    7 17.597597 0.000000 0.000000 -0.014414 0.084133 0.560566
    8 1.293670 0.684478 -0.000001 -0.069424 -0.007012 -0.100602
    9 5.309685 -0.003834 0.000000 0.000000 0.000000 -0.134264
    10 4.826790 -0.004591 0.000000 -0.076944 -0.015556 -0.199927
    11 5.792767 -0.005304 0.000000 0.000000 0.000000 -0.218047
    12 6.662317 -0.001453 0.000000 0.000000 -0.000001 -0.320156
    13 2.046985 -0.000002 0.000000 0.055965 0.153597 -0.328105
    14 -3.264372 -1.142983 4.341911 -0.000014 -1.370797 3.460883
    15 4.827230 0.000000 0.000001 0.869178 0.493627 1.071138
    16 11.139763 0.000000 0.000000 0.000000 0.000000 -0.287179
    17 10.314597 0.000001 0.000000 -1.570000 0.000000 -0.069778
    18 2.975834 -0.386307 -0.044143 -0.000797 -0.043611 0.000035
    19 1.438886 0.000000 0.000000 0.000000 0.000000 0.793701
    20 1.485303 0.000000 0.000000 0.000000 0.000000 1.465302
    21 -3.010527 -1.053537 -4.140396 -0.000013 1.370795 3.460928
    22 4.972048 0.000000 0.000001 -0.884951 -0.541930 1.069737
    23 11.585355 0.000000 0.000000 0.000000 0.000000 -0.688439
    24 10.127057 0.000000 0.000001 1.569752 0.000000 -0.069778
    25 2.683750 -0.427338 0.044205 0.001045 0.043611 0.000046
    26 1.438885 -0.000001 0.000000 0.000000 0.000000 0.331445
    27 1.485305 0.000001 0.000000 0.000000 0.000000 0.000000
    28 1.646738 0.449549 -1.702246 0.154002 0.442277 0.277235
    29 0.928312 0.000000 -0.000002 0.000000 0.000000 0.000000
    30 0.928314 0.000000 0.000001 0.000000 0.000000 0.000000
    31 1.533672 0.109715 1.664491 -0.233255 -0.412980 0.435684
    32 0.928313 0.000000 0.000000 0.000000 0.000000 0.000000
    33 0.928314 0.000000 0.000001 0.000000 0.000000 0.000000
  time 2
    0 0.235347 0.500548 0.384300 0.000000 0.000000 -1.570874
    1 1.769585 -0.164068 0.000000 -1.570795 -1.570796 0.000000
    2 -0.000005 0.000007 3.713255 -0.030631 3.202709 -0.630214
    3 18.045721 0.000000 0.000000 0.000000 0.000000 -1.055516
    4 17.597597 0.000000 0.000000 -0.082820 -0.058068 0.126732
    5 0.000005 -0.000003 -3.713255 0.232716 -3.263423 -0.172809
    6 18.045725 0.000000 0.000000 0.000000 0.000000 -0.736666
    7 17.597597 0.000000 0.000000 -0.015387 0.076894 0.539859
    8 1.293670 0.684478 -0.000001 -0.069727 -0.002722 -0.039096
    9 5.309685 -0.003834 0.000000 0.000000 0.000000 -0.025176
    10 4.826790 -0.004591 0.000000 -0.076895 -0.015784 -0.202926
    11 5.792767 -0.005304 0.000000 0.000000 0.000000 -0.218047
    12 6.662317 -0.001453 0.000000 0.000000 -0.000001 -0.230810
    13 2.046985 -0.000002 0.000000 0.064538 0.151818 -0.451621
    14 -3.354219 -0.850006 4.341911 -0.000014 -1.370797 3.371623
    15 4.827230 0.000000 0.000001 0.756698 0.626299 0.972513
    16 11.139763 0.000000 0.000000 0.000000 0.000000 -0.287179
    17 10.314597 0.000001 0.000000 -1.570000 0.000000 -0.069778
    18 2.975834 -0.386307 -0.044143 -0.000797 -0.043611 0.000035
    19 1.438886 0.000000 0.000000 0.000000 0.000000 0.793701
    20 1.485303 0.000000 0.000000 0.000000 0.000000 1.465302
    21 -3.092561 -0.780091 -4.140396 -0.000013 1.370795 3.371574
    22 4.972048 0.000000 0.000001 -0.793672 -0.689700 0.988911
    23 11.585355 0.000000 0.000000 0.000000 0.000000 -0.688439
    24 10.127057 0.000000 0.000001 1.569752 0.000000 -0.069778
    25 2.683750 -0.427338 0.044205 0.001045 0.043611 0.000046
    26 1.438885 -0.000001 0.000000 0.000000 0.000000 0.331445
    27 1.485305 0.000001 0.000000 0.000000 0.000000 0.000000
    28 1.646738 0.449549 -1.702246 0.154002 0.442277 0.277235
    29 0.928312 0.000000 -0.000002 0.000000 0.000000 0.000000
    30 0.928314 0.000000 0.000001 0.000000 0.000000 0.000000
    31 1.533672 0.109715 1.664491 -0.233255 -0.412980 0.435684
    32 0.928313 0.000000 0.000000 0.000000 0.000000 0.000000
    33 0.928314 0.000000 0.000001 0.000000 0.000000 0.000000
  time 3
    0 0.235347 0.637271 0.454614 0.000000 0.000000 -1.570874
    1 0.648457 -0.085940 0.000000 -1.570795 -1.570796 0.000000
    2 -0.000005 0.000007 3.713255 -0.041557 3.193243 -0.491537
    3 18.045721 0.000000 0.000000 0.000000 0.000000 -0.773219
    4 17.597597 0.000000 0.000000 -0.095951 -0.025887 0.279821
    5 0.000005 -0.000003 -3.713255 0.228889 -3.267348 -0.220614
    6 18.045725 0.000000 0.000000 0.000000 0.000000 -0.757023
    7 17.597597 0.000000 0.000000 -0.015914 0.069635 0.513109
    8 1.293670 0.684478 -0.000001 -0.069759 0.001377 0.019849
    9 5.309685 -0.003834 0.000000 0.000000 0.000000 0.078245
    10 4.826790 -0.004591 0.000000 -0.076862 -0.015940 -0.204932
    11 5.792767 -0.005304 0.000000 0.000000 0.000000 -0.218047
    12 6.662317 -0.001453 0.000000 0.000000 -0.000001 -0.140866
    13 2.046985 -0.000002 0.000000 0.073370 0.148058 -0.566597
    14 -3.416721 -0.545309 4.341911 -0.000014 -1.370797 3.281691
    15 4.827230 0.000000 0.000001 0.621722 0.742461 0.849997
    16 11.139763 0.000000 0.000000 0.000000 0.000000 -0.287179
    17 10.314597 0.000001 0.000000 -1.570000 0.000000 -0.069778
    18 2.975834 -0.386307 -0.044143 -0.000797 -0.043611 0.000035
    19 1.438886 0.000000 0.000000 0.000000 0.000000 0.793701
    20 1.485303 0.000000 0.000000 0.000000 0.000000 1.465302
    21 -3.151157 -0.498832 -4.140396 -0.000013 1.370795 3.281645
    22 4.972048 0.000000 0.000001 -0.677872 -0.823876 0.882461
    23 11.585355 0.000000 0.000000 0.000000 0.000000 -0.688439
    24 10.127057 0.000000 0.000001 1.569752 0.000000 -0.069778
    25 2.683750 -0.427338 0.044205 0.001045 0.043611 0.000046
    26 1.438885 -0.000001 0.000000 0.000000 0.000000 0.331445
    27 1.485305 0.000001 0.000000 0.000000 0.000000 0.000000
    28 1.646738 0.449549 -1.702246 0.154002 0.442277 0.277235
    29 0.928312 0.000000 -0.000002 0.000000 0.000000 0.000000
    30 0.928314 0.000000 0.000001 0.000000 0.000000 0.000000
    31 1.533672 0.109715 1.664491 -0.233255 -0.412980 0.435684
    32 0.928313 0.000000 0.000000 0.000000 0.000000 0.000000
    33 0.928314 0.000000 0.000001 0.000000 0.000000 0.000000
  time 4
    0 0.235347 0.770088 0.528835 0.000000 0.000000 -1.570874
    1 -0.363292 -0.015625 0.000000 -1.570795 -1.570796 0.000000
    2 -0.000005 0.000007 3.713255 -0.042132 3.189992 -0.509418
    3 18.045721 0.000000 0.000000 0.000000 0.000000 -0.740270
    4 17.597597 0.000000 0.000000 -0.096509 -0.021627 0.229173
    5 0.000005 -0.000003 -3.713255 0.225637 -3.269836 -0.260613
    6 18.045725 0.000000 0.000000 0.000000 0.000000 -0.767310
    7 17.597597 0.000000 0.000000 -0.015964 0.062870 0.484126
    8 1.293670 0.684478 -0.000001 -0.069583 0.005092 0.072985
    9 5.309685 -0.003834 0.000000 0.000000 0.000000 0.171271
    10 4.826790 -0.004591 0.000000 -0.076829 -0.016095 -0.207005
    11 5.792767 -0.005304 0.000000 0.000000 0.000000 -0.218047
    12 6.662317 -0.001453 0.000000 0.000000 -0.000001 -0.059323
    13 2.046985 -0.000002 0.000000 0.080694 0.143420 -0.670696
    14 -3.447972 -0.264050 4.341911 -0.000014 -1.370797 3.200100
    15 4.827230 0.000000 0.000001 0.470124 0.833604 0.709104
    16 11.139763 0.000000 0.000000 0.000000 0.000000 -0.287179
    17 10.314597 0.000001 0.000000 -1.570000 0.000000 -0.069778
    18 2.975834 -0.386307 -0.044143 -0.000797 -0.043611 0.000035
    19 1.438886 0.000000 0.000000 0.000000 0.000000 0.793701
    20 1.485303 0.000000 0.000000 0.000000 0.000000 1.465302
    21 -3.182408 -0.241012 -4.140396 -0.000013 1.370795 3.200057
    22 4.972048 0.000000 0.000001 -0.537396 -0.934643 0.750058
    23 11.585355 0.000000 0.000000 0.000000 0.000000 -0.688439
    24 10.127057 0.000000 0.000001 1.569752 0.000000 -0.069778
    25 2.683750 -0.427338 0.044205 0.001045 0.043611 0.000046
    26 1.438885 -0.000001 0.000000 0.000000 0.000000 0.331445
    27 1.485305 0.000001 0.000000 0.000000 0.000000 0.000000
    28 1.646738 0.449549 -1.702246 0.154002 0.442277 0.277235
    29 0.928312 0.000000 -0.000002 0.000000 0.000000 0.000000
    30 0.928314 0.000000 0.000001 0.000000 0.000000 0.000000
    31 1.533672 0.109715 1.664491 -0.233255 -0.412980 0.435684
    32 0.928313 0.000000 0.000000 0.000000 0.000000 0.000000
    33 0.928314 0.000000 0.000001 0.000000 0.000000 0.000000
  time 5
    0 0.235347 0.910717 0.599150 0.000000 0.000000 -1.570874
    1 -1.207068 0.039064 0.000000 -1.570795 -1.570796 0.000000
    2 -0.000005 0.000007 3.713255 -0.042803 3.187028 -0.520740
    3 18.045721 0.000000 0.000000 0.000000 0.000000 -0.704723
    4 17.597597 0.000000 0.000000 -0.097143 -0.018097 0.182505
    5 0.000005 -0.000003 -3.713255 0.222958 -3.271177 -0.292128
    6 18.045725 0.000000 0.000000 0.000000 0.000000 -0.770063
    7 17.597597 0.000000 0.000000 -0.015618 0.057032 0.456242
    8 1.293670 0.684478 -0.000001 -0.069296 0.008149 0.116997
    9 5.309685 -0.003834 0.000000 0.000000 0.000000 0.249266
    10 4.826790 -0.004591 0.000000 -0.076846 -0.016035 -0.206211
    11 5.792767 -0.005304 0.000000 0.000000 0.000000 -0.218047
    12 6.662317 -0.001453 0.000000 0.000000 -0.000001 0.008291
    13 2.046985 -0.000002 0.000000 0.087243 0.138084 -0.752321
    14 -3.459691 -0.029668 4.341911 -0.000014 -1.370797 3.132508
    15 4.827230 0.000000 0.000001 0.313944 0.897600 0.561735
    16 11.139763 0.000000 0.000000 0.000000 0.000000 -0.287179
    17 10.314597 0.000001 0.000000 -1.570000 0.000000 -0.069778
    18 2.975834 -0.386307 -0.044143 -0.000797 -0.043611 0.000035
    19 1.438886 0.000000 0.000000 0.000000 0.000000 0.793701
    20 1.485303 0.000000 0.000000 0.000000 0.000000 1.465302
    21 -3.190220 -0.026162 -4.140396 -0.000013 1.370795 3.132467
    22 4.972048 0.000000 0.000001 -0.378587 -1.017095 0.597826
    23 11.585355 0.000000 0.000000 0.000000 0.000000 -0.688439
    24 10.127057 0.000000 0.000001 1.569752 0.000000 -0.069778
    25 2.683750 -0.427338 0.044205 0.001045 0.043611 0.000046
    26 1.438885 -0.000001 0.000000 0.000000 0.000000 0.331445
    27 1.485305 0.000001 0.000000 0.000000 0.000000 0.000000
    28 1.646738 0.449549 -1.702246 0.154002 0.442277 0.277235
    29 0.928312 0.000000 -0.000002 0.000000 0.000000 0.000000
    30 0.928314 0.000000 0.000001 0.000000 0.000000 0.000000
    31 1.533672 0.109715 1.664491 -0.233255 -0.412980 0.435684
    32 0.928313 0.000000 0.000000 0.000000 0.000000 0.000000
    33 0.928314 0.000000 0.000001 0.000000 0.000000 0.000000
  time 6
    0 0.235347 1.074785 0.606963 0.000000 0.000000 -1.570874
    1 -1.851619 0.093753 0.000000 -1.570795 -1.570796 0.000000
    2 -0.000005 0.000007 3.713255 -0.043283 3.184542 -0.531673
    3 18.045721 0.000000 0.000000 0.000000 0.000000 -0.678897
    4 17.597597 0.000000 0.000000 -0.097827 -0.015103 0.145857
    5 0.000005 -0.000003 -3.713255 0.220184 -3.272804 -0.319909
    6 18.045725 0.000000 0.000000 0.000000 0.000000 -0.776438
    7 17.597597 0.000000 0.000000 -0.014941 0.052515 0.435363
    8 1.293670 0.684478 -0.000001 -0.069089 0.009742 0.140000
    9 5.309685 -0.003834 0.000000 0.000000 0.000000 0.305277
    10 4.826790 -0.004591 0.000000 -0.077437 -0.012871 -0.165222
    11 5.792767 -0.005304 0.000000 0.000000 0.000000 -0.218047
    12 6.662317 -0.001453 0.000000 0.000000 -0.000001 0.043637
    13 2.046985 -0.000002 0.000000 0.106242 0.122594 -0.719330
    14 -3.459691 0.091429 4.341911 -0.000014 -1.370797 3.097130
    15 4.827230 0.000000 0.000001 0.137500 0.946533 0.394676
    16 11.139763 0.000000 0.000000 0.000000 0.000000 -0.287179
    17 10.314597 0.000001 0.000000 -1.570000 0.000000 -0.069778
    18 2.975834 -0.386307 -0.044143 -0.000797 -0.043611 0.000035
    19 1.438886 0.000000 0.000000 0.000000 0.000000 0.793701
    20 1.485303 0.000000 0.000000 0.000000 0.000000 1.465302
    21 -3.190220 0.087123 -4.140396 -0.000013 1.370795 3.097090
    22 4.972048 0.000000 0.000001 -0.176304 -1.078954 0.400933
    23 11.585355 0.000000 0.000000 0.000000 0.000000 -0.688439
    24 10.127057 0.000000 0.000001 1.569752 0.000000 -0.069778
    25 2.683750 -0.427338 0.044205 0.001045 0.043611 0.000046
    26 1.438885 -0.000001 0.000000 0.000000 0.000000 0.331445
    27 1.485305 0.000001 0.000000 0.000000 0.000000 0.000000
    28 1.646738 0.449549 -1.702246 0.154002 0.442277 0.277235
    29 0.928312 0.000000 -0.000002 0.000000 0.000000 0.000000
    30 0.928314 0.000000 0.000001 0.000000 0.000000 0.000000
    31 1.533672 0.109715 1.664491 -0.233255 -0.412980 0.435684
    32 0.928313 0.000000 0.000000 0.000000 0.000000 0.000000
    33 0.928314 0.000000 0.000001 0.000000 0.000000 0.000000
  time 7
    0 0.235347 1.391201 -0.033682 0.000000 0.000000 -1.570874
    1 -2.437574 0.167974 0.000000 -1.570795 -1.570796 0.000000
    2 -0.000005 0.000007 3.713255 -0.041557 3.183968 -0.596638
    3 18.045721 0.000000 0.000000 0.000000 0.000000 -0.749026
    4 17.597597 0.000000 0.000000 -0.098765 -0.011695 0.151164
    5 0.000005 -0.000003 -3.713255 0.210617 -3.284674 -0.392780
    6 18.045725 0.000000 0.000000 0.000000 0.000000 -0.870544
    7 17.597597 0.000000 0.000000 -0.013969 0.048826 0.456448
    8 1.293670 0.684478 -0.000001 -0.069089 0.009742 0.140000
    9 5.309685 -0.003834 0.000000 0.000000 0.000000 0.339775
    10 4.826790 -0.004591 0.000000 -0.078242 -0.006316 -0.081326
    11 5.792767 -0.005304 0.000000 0.000000 0.000000 -0.088135
    12 6.662317 -0.001453 0.000000 0.000000 -0.000001 0.043637
    13 2.046985 -0.000002 0.000000 0.130067 0.095959 -0.730117
    14 -3.459691 0.091429 4.341911 -0.000014 -1.370797 3.097130
    15 4.827230 0.000000 0.000001 -0.287340 0.991721 -0.007613
    16 11.139763 0.000000 0.000000 0.000000 0.000000 -0.287179
    17 10.314597 0.000001 0.000000 -1.570000 0.000000 -0.069778
    18 2.975834 -0.386307 -0.044143 -0.000797 -0.043611 0.000035
    19 1.438886 0.000000 0.000000 0.000000 0.000000 0.793701
    20 1.485303 0.000000 0.000000 0.000000 0.000000 1.465302
    21 -3.190220 0.087123 -4.140396 -0.000013 1.370795 3.097090
    22 4.972048 0.000000 0.000001 0.357289 -1.116198 -0.125322
    23 11.585355 0.000000 0.000000 0.000000 0.000000 -0.688439
    24 10.127057 0.000000 0.000001 1.569752 0.000000 -0.069778
    25 2.683750 -0.427338 0.044205 0.001045 0.043611 0.000046
    26 1.438885 -0.000001 0.000000 0.000000 0.000000 0.331445
    27 1.485305 0.000001 0.000000 0.000000 0.000000 0.000000
    28 1.646738 0.449549 -1.702246 0.154002 0.442277 0.277235
    29 0.928312 0.000000 -0.000002 0.000000 0.000000 0.000000
    30 0.928314 0.000000 0.000001 0.000000 0.000000 0.000000
    31 1.533672 0.109715 1.664491 -0.233255 -0.412980 0.435684
    32 0.928313 0.000000 0.000000 0.000000 0.000000 0.000000
    33 0.928314 0.000000 0.000001 0.000000 0.000000 0.000000
  time 8
    0 0.235347 0.617739 -1.049338 0.000000 0.000000 -1.570874
    1 -2.964934 0.238289 0.000000 -1.570795 -1.570796 0.000000
    2 -0.000005 0.000007 3.713255 -0.038778 3.185498 -0.668698
    3 18.045721 0.000000 0.000000 0.000000 0.000000 -0.895963
    4 17.597597 0.000000 0.000000 -0.099297 -0.010429 0.226107
    5 0.000005 -0.000003 -3.713255 0.199520 -3.300373 -0.445434
    6 18.045725 0.000000 0.000000 0.000000 0.000000 -0.995728
    7 17.597597 0.000000 0.000000 -0.013128 0.054467 0.527600
    8 1.293670 0.684478 -0.000001 -0.069089 0.009742 0.140000
    9 5.309685 -0.003834 0.000000 0.000000 0.000000 0.370234
    10 4.826790 -0.004591 0.000000 -0.078488 0.000168 0.001358
    11 5.792767 -0.005304 0.000000 0.000000 0.000000 0.045557
    12 6.662317 -0.001453 0.000000 0.000000 -0.000001 0.043637
    13 2.046985 -0.000002 0.000000 0.146697 0.066374 -0.752546
    14 -3.459691 0.091429 4.341911 -0.000014 -1.370797 3.097130
    15 4.827230 0.000000 0.000001 -0.704897 0.939129 -0.402113
    16 11.139763 0.000000 0.000000 0.000000 0.000000 -0.287179
    17 10.314597 0.000001 0.000000 -1.570000 0.000000 -0.069778
    18 2.975834 -0.386307 -0.044143 -0.000797 -0.043611 0.000035
    19 1.438886 0.000000 0.000000 0.000000 0.000000 0.793701
    20 1.485303 0.000000 0.000000 0.000000 0.000000 1.465302
    21 -3.190220 0.087123 -4.140396 -0.000013 1.370795 3.097090
    22 4.972048 0.000000 0.000001 0.836888 -1.030448 -0.598221
    23 11.585355 0.000000 0.000000 0.000000 0.000000 -0.688439
    24 10.127057 0.000000 0.000001 1.569752 0.000000 -0.069778
    25 2.683750 -0.427338 0.044205 0.001045 0.043611 0.000046
    26 1.438885 -0.000001 0.000000 0.000000 0.000000 0.331445
    27 1.485305 0.000001 0.000000 0.000000 0.000000 0.000000
    28 1.646738 0.449549 -1.702246 0.154002 0.442277 0.277235
    29 0.928312 0.000000 -0.000002 0.000000 0.000000 0.000000
    30 0.928314 0.000000 0.000001 0.000000 0.000000 0.000000
    31 1.533672 0.109715 1.664491 -0.233255 -0.412980 0.435684
    32 0.928313 0.000000 0.000000 0.000000 0.000000 0.000000
    33 0.928314 0.000000 0.000001 0.000000 0.000000 0.000000
  time 9
    0 0.235347 -0.198692 -2.049368 0.000000 0.000000 -1.570874
    1 -3.406354 0.296884 0.000000 -1.570795 -1.570796 0.000000
    2 -0.000005 0.000007 3.713255 -0.036381 3.186837 -0.727541
    3 18.045721 0.000000 0.000000 0.000000 0.000000 -1.024793
    4 17.597597 0.000000 0.000000 -0.099703 -0.009577 0.296155
    5 0.000005 -0.000003 -3.713255 0.189284 -3.314062 -0.485724
    6 18.045725 0.000000 0.000000 0.000000 0.000000 -1.105410
    7 17.597597 0.000000 0.000000 -0.012666 0.061253 0.595627
    8 1.293670 0.684478 -0.000001 -0.069089 0.009742 0.140000
    9 5.309685 -0.003834 0.000000 0.000000 0.000000 0.397778
    10 4.826790 -0.004591 0.000000 -0.078258 0.006112 0.077052
    11 5.792767 -0.005304 0.000000 0.000000 0.000000 0.168555
    12 6.662317 -0.001453 0.000000 0.000000 -0.000001 0.043637
    13 2.046985 -0.000002 0.000000 0.156046 0.037240 -0.776503
    14 -3.459691 0.091429 4.341911 -0.000014 -1.370797 3.097130
    15 4.827230 0.000000 0.000001 -1.002631 0.822115 -0.677598
    16 11.139763 0.000000 0.000000 0.000000 0.000000 -0.287179
    17 10.314597 0.000001 0.000000 -1.570000 0.000000 -0.069778
    18 2.975834 -0.386307 -0.044143 -0.000797 -0.043611 0.000035
    19 1.438886 0.000000 0.000000 0.000000 0.000000 0.793701
    20 1.485303 0.000000 0.000000 0.000000 0.000000 1.465302
    21 -3.190220 0.087123 -4.140396 -0.000013 1.370795 3.097090
    22 4.972048 0.000000 0.000001 1.124029 -0.881311 -0.879365
    23 11.585355 0.000000 0.000000 0.000000 0.000000 -0.688439
    24 10.127057 0.000000 0.000001 1.569752 0.000000 -0.069778
    25 2.683750 -0.427338 0.044205 0.001045 0.043611 0.000046
    26 1.438885 -0.000001 0.000000 0.000000 0.000000 0.331445
    27 1.485305 0.000001 0.000000 0.000000 0.000000 0.000000
    28 1.646738 0.449549 -1.702246 0.154002 0.442277 0.277235
    29 0.928312 0.000000 -0.000002 0.000000 0.000000 0.000000
    30 0.928314 0.000000 0.000001 0.000000 0.000000 0.000000
    31 1.533672 0.109715 1.664491 -0.233255 -0.412980 0.435684
    32 0.928313 0.000000 0.000000 0.000000 0.000000 0.000000
    33 0.928314 0.000000 0.000001 0.000000 0.000000 0.000000
  time 10
    0 0.235347 -1.011216 -2.986897 0.000000 0.000000 -1.570874
    1 -3.742302 0.347667 0.000000 -1.570795 -1.570796 0.000000
    2 -0.000005 0.000007 3.713255 -0.034273 3.187984 -0.773750
    3 18.045721 0.000000 0.000000 0.000000 0.000000 -1.136332
    4 17.597597 0.000000 0.000000 -0.099957 -0.009212 0.361490
    5 0.000005 -0.000003 -3.713255 0.180387 -3.325836 -0.513941
    6 18.045725 0.000000 0.000000 0.000000 0.000000 -1.198863
    7 17.597597 0.000000 0.000000 -0.012452 0.068787 0.659637
    8 1.293670 0.684478 -0.000001 -0.069089 0.009742 0.140000
    9 5.309685 -0.003834 0.000000 0.000000 0.000000 0.421591
    10 4.826790 -0.004591 0.000000 -0.077683 0.011242 0.142626
    11 5.792767 -0.005304 0.000000 0.000000 0.000000 0.275152
    12 6.662317 -0.001453 0.000000 0.000000 -0.000001 0.043637
    13 2.046985 -0.000002 0.000000 0.159579 0.010042 -0.791381
    14 -3.459691 0.091429 4.341911 -0.000014 -1.370797 3.097130
    15 4.827230 0.000000 0.000001 -1.191938 0.687571 -0.846320
    16 11.139763 0.000000 0.000000 0.000000 0.000000 -0.287179
    17 10.314597 0.000001 0.000000 -1.570000 0.000000 -0.069778
    18 2.975834 -0.386307 -0.044143 -0.000797 -0.043611 0.000035
    19 1.438886 0.000000 0.000000 0.000000 0.000000 0.793701
    20 1.485303 0.000000 0.000000 0.000000 0.000000 1.465302
    21 -3.190220 0.087123 -4.140396 -0.000013 1.370795 3.097090
    22 4.972048 0.000000 0.000001 1.285158 -0.724853 -1.035482
    23 11.585355 0.000000 0.000000 0.000000 0.000000 -0.688439
    24 10.127057 0.000000 0.000001 1.569752 0.000000 -0.069778
    25 2.683750 -0.427338 0.044205 0.001045 0.043611 0.000046
    26 1.438885 -0.000001 0.000000 0.000000 0.000000 0.331445
    27 1.485305 0.000001 0.000000 0.000000 0.000000 0.000000
    28 1.646738 0.449549 -1.702246 0.154002 0.442277 0.277235
    29 0.928312 0.000000 -0.000002 0.000000 0.000000 0.000000
    30 0.928314 0.000000 0.000001 0.000000 0.000000 0.000000
    31 1.533672 0.109715 1.664491 -0.233255 -0.412980 0.435684
    32 0.928313 0.000000 0.000000 0.000000 0.000000 0.000000
    33 0.928314 0.000000 0.000001 0.000000 0.000000 0.000000
  time 11
    0 0.235347 -1.808116 -3.846298 0.000000 0.000000 -1.570874
    1 -3.859493 0.066408 0.000000 -1.570795 -1.570796 0.000000
    2 -0.000005 0.000007 3.713255 -0.014528 3.190183 -0.805480
    3 18.045721 0.000000 0.000000 0.000000 0.000000 -1.233993
    4 17.597597 0.000000 0.000000 -0.111820 -0.023112 0.427648
    5 0.000005 -0.000003 -3.713255 0.201433 -3.342109 -0.522620
    6 18.045725 0.000000 0.000000 0.000000 0.000000 -1.277538
    7 17.597597 0.000000 0.000000 -0.039462 0.069280 0.725020
    8 1.293670 0.684478 -0.000001 -0.069089 0.009742 0.140000
    9 5.309685 -0.003834 0.000000 0.075573 -0.034635 0.428165
    10 4.826790 -0.004591 0.000000 -0.032627 0.005453 0.164741
    11 5.792767 -0.005304 0.000000 0.000000 0.000000 0.310469
    12 6.662317 -0.001453 0.000000 0.000000 -0.000001 0.043637
    13 2.046985 -0.000002 0.000000 0.001637 0.031183 -0.267336
    14 -3.459691 0.091429 4.341911 -0.000014 -1.370797 3.097130
    15 4.827230 0.000000 0.000001 -1.145067 0.601279 -0.923067
    16 11.139763 0.000000 0.000000 0.000000 0.000000 -0.287179
    17 10.314597 0.000001 0.000000 -1.570000 0.000000 -0.069778
    18 2.975834 -0.386307 -0.044143 -0.000797 -0.043611 0.000035
    19 1.438886 0.000000 0.000000 0.000000 0.000000 0.793701
    20 1.485303 0.000000 0.000000 0.000000 0.000000 1.465302
    21 -3.190220 0.087123 -4.140396 -0.000013 1.370795 3.097090
    22 4.972048 0.000000 0.000001 0.958722 -0.676830 -0.917175
    23 11.585355 0.000000 0.000000 0.000000 0.000000 -0.688439
    24 10.127057 0.000000 0.000001 1.569752 0.000000 -0.069778
    25 2.683750 -0.427338 0.044205 0.001045 0.043611 0.000046
    26 1.438885 -0.000001 0.000000 0.000000 0.000000 0.331445
    27 1.485305 0.000001 0.000000 0.000000 0.000000 0.000000
    28 1.646738 0.449549 -1.702246 0.154002 0.442277 0.277235
    29 0.928312 0.000000 -0.000002 0.000000 0.000000 0.000000
    30 0.928314 0.000000 0.000001 0.000000 0.000000 0.000000
    31 1.533672 0.109715 1.664491 -0.233255 -0.412980 0.435684
    32 0.928313 0.000000 0.000000 0.000000 0.000000 0.000000
    33 0.928314 0.000000 0.000001 0.000000 0.000000 0.000000
  time 12
    0 0.235347 -2.577671 -4.596321 0.000000 0.000000 -1.570874
    1 -3.906369 -0.207038 0.000000 -1.570795 -1.570796 0.000000
    2 -0.000005 0.000007 3.713255 0.002342 3.192861 -0.825791
    3 18.045721 0.000000 0.000000 0.000000 0.000000 -1.315328
    4 17.597597 0.000000 0.000000 -0.120870 -0.036500 0.488957
    5 0.000005 -0.000003 -3.713255 0.219418 -3.354936 -0.520971
    6 18.045725 0.000000 0.000000 0.000000 0.000000 -1.340348
    7 17.597597 0.000000 0.000000 -0.061245 0.070957 0.785115
    8 1.293670 0.684478 -0.000001 -0.069089 0.009742 0.140000
    9 5.309685 -0.003834 0.000000 0.143617 -0.066395 0.429360
    10 4.826790 -0.004591 0.000000 0.009047 -0.001630 0.177706
    11 5.792767 -0.005304 0.000000 0.000000 0.000000 0.331336
    12 6.662317 -0.001453 0.000000 0.000000 -0.000001 0.043637
    13 2.046985 -0.000002 0.000000 -0.059885 0.133109 0.190771
    14 -3.459691 0.091429 4.341911 -0.000014 -1.370797 3.097130
    15 4.827230 0.000000 0.000001 -1.082278 0.537879 -0.977587
    16 11.139763 0.000000 0.000000 0.000000 0.000000 -0.287179
    17 10.314597 0.000001 0.000000 -1.570000 0.000000 -0.069778
    18 2.975834 -0.386307 -0.044143 -0.000797 -0.043611 0.000035
    19 1.438886 0.000000 0.000000 0.000000 0.000000 0.793701
    20 1.485303 0.000000 0.000000 0.000000 0.000000 1.465302
    21 -3.190220 0.087123 -4.140396 -0.000013 1.370795 3.097090
    22 4.972048 0.000000 0.000001 0.665624 -0.638379 -0.818037
    23 11.585355 0.000000 0.000000 0.000000 0.000000 -0.688439
    24 10.127057 0.000000 0.000001 1.569752 0.000000 -0.069778
    25 2.683750 -0.427338 0.044205 0.001045 0.043611 0.000046
    26 1.438885 -0.000001 0.000000 0.000000 0.000000 0.331445
    27 1.485305 0.000001 0.000000 0.000000 0.000000 0.000000
    28 1.646738 0.449549 -1.702246 0.154002 0.442277 0.277235
    29 0.928312 0.000000 -0.000002 0.000000 0.000000 0.000000
    30 0.928314 0.000000 0.000001 0.000000 0.000000 0.000000
    31 1.533672 0.109715 1.664491 -0.233255 -0.412980 0.435684
    32 0.928313 0.000000 0.000000 0.000000 0.000000 0.000000
    33 0.928314 0.000000 0.000001 0.000000 0.000000 0.000000
  time 13
    0 0.235347 -3.265192 -5.213527 0.000000 0.000000 -1.570874
    1 -3.910276 -0.351573 0.000000 -1.570795 -1.570796 0.000000
    2 -0.000005 0.000007 3.713255 -0.012132 3.213801 -0.837064
    3 18.045721 0.000000 0.000000 0.000000 0.000000 -1.379594
    4 17.597597 0.000000 0.000000 -0.095115 -0.039348 0.540841
    5 0.000005 -0.000003 -3.713255 0.181631 -3.328708 -0.521602
    6 18.045725 0.000000 0.000000 0.000000 0.000000 -1.517910
    7 17.597597 0.000000 0.000000 -0.040138 0.057880 0.586081
    8 1.293670 0.684478 -0.000001 -0.069089 0.009742 0.140000
    9 5.309685 -0.003834 0.000000 0.174235 -0.080776 0.429034
    10 4.826790 -0.004591 0.000000 0.042873 -0.007970 0.182975
    11 5.792767 -0.005304 0.000000 0.000000 0.000000 0.340160
    12 6.662317 -0.001453 0.000000 0.000000 -0.000001 0.043637
    13 2.046985 -0.000002 0.000000 -0.053164 0.137409 0.371281
    14 -3.459691 0.091429 4.341911 -0.000014 -1.370797 3.097130
    15 4.827230 0.000000 0.000001 -1.043394 0.508264 -1.010053
    16 11.139763 0.000000 0.000000 0.000000 0.000000 -0.287179
    17 10.314597 0.000001 0.000000 -1.570000 0.000000 -0.069778
    18 2.975834 -0.386307 -0.044143 -0.000797 -0.043611 0.000035
    19 1.438886 0.000000 0.000000 0.000000 0.000000 0.793701
    20 1.485303 0.000000 0.000000 0.000000 0.000000 1.465302
    21 -3.190220 0.087123 -4.140396 -0.000013 1.370795 3.097090
    22 4.972048 0.000000 0.000001 0.538917 -0.652617 -0.794916
    23 11.585355 0.000000 0.000000 0.000000 0.000000 -0.688439
    24 10.127057 0.000000 0.000001 1.569752 0.000000 -0.069778
    25 2.683750 -0.427338 0.044205 0.001045 0.043611 0.000046
    26 1.438885 -0.000001 0.000000 0.000000 0.000000 0.331445
    27 1.485305 0.000001 0.000000 0.000000 0.000000 0.000000
    28 1.646738 0.449549 -1.702246 0.154002 0.442277 0.277235
    29 0.928312 0.000000 -0.000002 0.000000 0.000000 0.000000
    30 0.928314 0.000000 0.000001 0.000000 0.000000 0.000000
    31 1.533672 0.109715 1.664491 -0.233255 -0.412980 0.435684
    32 0.928313 0.000000 0.000000 0.000000 0.000000 0.000000
    33 0.928314 0.000000 0.000001 0.000000 0.000000 0.000000
  time 14
    0 0.235347 -3.347225 -9.303496 0.150308 0.205498 -1.329736
    1 -3.906369 -0.375011 0.000000 -1.570795 -1.570796 0.000000
    2 -0.000005 0.000007 3.713255 -0.112582 3.124111 -1.185603
    3 18.045721 0.000000 0.000000 0.000000 0.000000 -1.570242
    4 17.597597 0.000000 0.000000 0.101702 -0.043852 0.588698
    5 0.000005 -0.000003 -3.713255 0.056693 -3.352065 -0.817207
    6 18.045725 0.000000 0.000000 0.000000 0.000000 -1.868687
    7 17.597597 0.000000 0.000000 0.215389 0.178808 0.562352
    8 1.293670 0.684478 -0.000001 -0.069089 0.009742 0.140000
    9 5.309685 -0.003834 0.000000 0.175043 -0.081148 0.428980
    10 4.826790 -0.004591 0.000000 0.062166 -0.011553 0.182799
    11 5.792767 -0.005304 0.000000 0.008806 -0.003128 0.340139
    12 6.662317 -0.001453 0.000000 0.000000 -0.000001 0.043637
    13 2.046985 -0.000002 0.000000 -0.047693 0.034268 0.365708
    14 -3.459691 0.091429 4.341911 -0.000014 -1.370797 3.097130
    15 4.827230 0.000000 0.000001 -1.026948 0.505541 -1.027906
    16 11.139763 0.000000 0.000000 0.000000 0.000000 -0.287179
    17 10.314597 0.000001 0.000000 -1.570000 0.000000 -0.069778
    18 2.975834 -0.386307 -0.044143 -0.000797 -0.043611 0.000035
    19 1.438886 0.000000 0.000000 0.000000 0.000000 0.793701
    20 1.485303 0.000000 0.000000 0.000000 0.000000 1.465302
    21 -3.190220 0.087123 -4.140396 -0.516578 1.341768 2.591838
    22 4.972048 0.000000 0.000001 0.520662 -0.513293 -0.614491
    23 11.585355 0.000000 0.000000 0.000000 0.000000 -0.732442
    24 10.127057 0.000000 0.000001 1.569752 0.000000 -0.069778
    25 2.683750 -0.427338 0.044205 0.001045 0.043611 0.000046
    26 1.438885 -0.000001 0.000000 0.000000 0.000000 0.331445
    27 1.485305 0.000001 0.000000 0.000000 0.000000 0.000000
    28 1.646738 0.449549 -1.702246 0.154002 0.442277 0.277235
    29 0.928312 0.000000 -0.000002 0.000000 0.000000 0.000000
    30 0.928314 0.000000 0.000001 0.000000 0.000000 0.000000
    31 1.533672 0.109715 1.664491 -0.233255 -0.412980 0.435684
    32 0.928313 0.000000 0.000000 0.000000 0.000000 0.000000
    33 0.928314 0.000000 0.000001 0.000000 0.000000 0.000000
  time 15
    0 0.235347 -3.386289 -13.412996 0.349155 0.361733 -1.052495
    1 -3.906369 -0.390637 0.000000 -1.570795 -1.570796 0.000000
    2 -0.000005 0.000007 3.713255 0.371361 3.063201 -1.484726
    3 18.045721 0.000000 0.000000 0.000000 0.000000 -1.553841
    4 17.597597 0.000000 0.000000 -0.154864 0.466565 0.162145
    5 0.000005 -0.000003 -3.713255 0.153027 -2.919673 -1.137103
    6 18.045725 0.000000 0.000000 0.000000 0.000000 -1.888030
    7 17.597597 0.000000 0.000000 -0.351598 0.238790 0.206968
    8 1.293670 0.684478 -0.000001 -0.069089 0.009742 0.140000
    9 5.309685 -0.003834 0.000000 0.173794 -0.080572 0.429070
    10 4.826790 -0.004591 0.000000 0.079621 -0.014789 0.182556
    11 5.792767 -0.005304 0.000000 0.017808 -0.006316 0.340098
    12 6.662317 -0.001453 0.000000 0.000000 -0.000001 0.043637
    13 2.046985 -0.000002 0.000000 -0.039249 -0.097670 0.290330
    14 -3.459691 0.091429 4.341911 -0.000014 -1.370797 3.097130
    15 4.827230 0.000000 0.000001 -1.013497 0.504009 -1.044445
    16 11.139763 0.000000 0.000000 0.000000 0.000000 -0.287179
    17 10.314597 0.000001 0.000000 -1.570000 0.000000 -0.069778
    18 2.975834 -0.386307 -0.044143 -0.000797 -0.043611 0.000035
    19 1.438886 0.000000 0.000000 0.000000 0.000000 0.793701
    20 1.485303 0.000000 0.000000 0.000000 0.000000 1.465302
    21 -3.190220 0.087123 -4.140396 -0.847052 1.273736 2.272485
    22 4.972048 0.000000 0.000001 0.529016 -0.390379 -0.448097
    23 11.585355 0.000000 0.000000 0.000000 0.000000 -0.775745
    24 10.127057 0.000000 0.000001 1.569752 0.000000 -0.069778
    25 2.683750 -0.427338 0.044205 0.001045 0.043611 0.000046
    26 1.438885 -0.000001 0.000000 0.000000 0.000000 0.331445
    27 1.485305 0.000001 0.000000 0.000000 0.000000 0.000000
    28 1.646738 0.449549 -1.702246 0.154002 0.442277 0.277235
    29 0.928312 0.000000 -0.000002 0.000000 0.000000 0.000000
    30 0.928314 0.000000 0.000001 0.000000 0.000000 0.000000
    31 1.533672 0.109715 1.664491 -0.233255 -0.412980 0.435684
    32 0.928313 0.000000 0.000000 0.000000 0.000000 0.000000
    33 0.928314 0.000000 0.000001 0.000000 0.000000 0.000000
  time 16
    0 0.235347 -3.401914 -16.721691 0.565776 0.447631 -0.772783
    1 -3.902463 -0.406262 0.000000 -1.570795 -1.570796 0.000000
    2 -0.000005 0.000007 3.713255 0.396761 3.328352 -1.474813
    3 18.045721 0.000000 0.000000 0.000000 0.000000 -1.313992
    4 17.597597 0.000000 0.000000 0.056630 0.324623 0.122843
    5 0.000005 -0.000003 -3.713255 0.220949 -2.862333 -1.074074
    6 18.045725 0.000000 0.000000 0.000000 0.000000 -1.620709
    7 17.597597 0.000000 0.000000 -0.349042 0.127328 0.006594
    8 1.293670 0.684478 -0.000001 -0.069089 0.009742 0.140000
    9 5.309685 -0.003834 0.000000 0.172350 -0.079913 0.429197
    10 4.826790 -0.004591 0.000000 0.097946 -0.018193 0.182270
    11 5.792767 -0.005304 0.000000 0.027348 -0.009696 0.340015
    12 6.662317 -0.001453 0.000000 0.000000 -0.000001 0.043637
    13 2.046985 -0.000002 0.000000 -0.024945 -0.222560 0.195805
    14 -3.459691 0.091429 4.341911 -0.000014 -1.370797 3.097130
    15 4.827230 0.000000 0.000001 -0.999401 0.502647 -1.061947
    16 11.139763 0.000000 0.000000 0.000000 0.000000 -0.287179
    17 10.314597 0.000001 0.000000 -1.570000 0.000000 -0.069778
    18 2.975834 -0.386307 -0.044143 -0.000797 -0.043611 0.000035
    19 1.438886 0.000000 0.000000 0.000000 0.000000 0.793701
    20 1.485303 0.000000 0.000000 0.000000 0.000000 1.465302
    21 -3.190220 0.087123 -4.140396 -1.043592 1.187785 2.086875
    22 4.972048 0.000000 0.000001 0.537602 -0.323453 -0.313652
    23 11.585355 0.000000 0.000000 0.000000 0.000000 -0.822476
    24 10.127057 0.000000 0.000001 1.569752 0.000000 -0.069778
    25 2.683750 -0.427338 0.044205 0.001045 0.043611 0.000046
    26 1.438885 -0.000001 0.000000 0.000000 0.000000 0.331445
    27 1.485305 0.000001 0.000000 0.000000 0.000000 0.000000
    28 1.646738 0.449549 -1.702246 0.154002 0.442277 0.277235
    29 0.928312 0.000000 -0.000002 0.000000 0.000000 0.000000
    30 0.928314 0.000000 0.000001 0.000000 0.000000 0.000000
    31 1.533672 0.109715 1.664491 -0.233255 -0.412980 0.435684
    32 0.928313 0.000000 0.000000 0.000000 0.000000 0.000000
    33 0.928314 0.000000 0.000001 0.000000 0.000000 0.000000
  time 17
    0 0.235347 -3.405821 -19.335052 0.763216 0.472974 -0.526801
    1 -3.898556 -0.421888 0.000000 -1.570795 -1.570796 0.000000
    2 -0.000005 0.000007 3.713255 0.343085 3.588722 -1.403871
    3 18.045721 0.000000 0.000000 0.000000 0.000000 -1.131360
    4 17.597597 0.000000 0.000000 0.238338 0.106488 0.019671
    5 0.000005 -0.000003 -3.713255 0.267538 -2.839072 -0.984913
    6 18.045725 0.000000 0.000000 0.000000 0.000000 -1.368601
    7 17.597597 0.000000 0.000000 -0.306894 0.014368 -0.151954
    8 1.293670 0.684478 -0.000001 -0.069089 0.009742 0.140000
    9 5.309685 -0.003834 0.000000 0.171064 -0.079326 0.429287
    10 4.826790 -0.004591 0.000000 0.113840 -0.021129 0.181961
    11 5.792767 -0.005304 0.000000 0.035632 -0.012644 0.339931
    12 6.662317 -0.001453 0.000000 0.000000 -0.000001 0.043637
    13 2.046985 -0.000002 0.000000 0.002800 -0.345154 0.088380
    14 -3.459691 0.091429 4.341911 -0.000014 -1.370797 3.097130
    15 4.827230 0.000000 0.000001 -0.987183 0.501626 -1.077087
    16 11.139763 0.000000 0.000000 0.000000 0.000000 -0.287179
    17 10.314597 0.000001 0.000000 -1.570000 0.000000 -0.069778
    18 2.975834 -0.386307 -0.044143 -0.000797 -0.043611 0.000035
    19 1.438886 0.000000 0.000000 0.000000 0.000000 0.793701
    20 1.485303 0.000000 0.000000 0.000000 0.000000 1.465302
    21 -3.190220 0.087123 -4.140396 -1.151833 1.108447 1.988029
    22 4.972048 0.000000 0.000001 0.501632 -0.451032 -0.325904
    23 11.585355 0.000000 0.000000 0.000000 0.000000 -0.873755
    24 10.127057 0.000000 0.000001 1.569752 0.000000 -0.069778
    25 2.683750 -0.427338 0.044205 0.001045 0.043611 0.000046
    26 1.438885 -0.000001 0.000000 0.000000 0.000000 0.331445
    27 1.485305 0.000001 0.000000 0.000000 0.000000 0.000000
    28 1.646738 0.449549 -1.702246 0.154002 0.442277 0.277235
    29 0.928312 0.000000 -0.000002 0.000000 0.000000 0.000000
    30 0.928314 0.000000 0.000001 0.000000 0.000000 0.000000
    31 1.533672 0.109715 1.664491 -0.233255 -0.412980 0.435684
    32 0.928313 0.000000 0.000000 0.000000 0.000000 0.000000
    33 0.928314 0.000000 0.000001 0.000000 0.000000 0.000000
  time 18
    0 0.235347 -3.405821 -21.616372 0.937629 0.459280 -0.314642
    1 -3.894650 -0.433607 0.000000 -1.570795 -1.570796 0.000000
    2 -0.000005 0.000007 3.713255 0.275991 3.764565 -1.308634
    3 18.045721 0.000000 0.000000 0.000000 0.000000 -1.139746
    4 17.597597 0.000000 0.000000 0.393454 0.059751 -0.239244
    5 0.000005 -0.000003 -3.713255 0.297863 -2.817534 -0.897206
    6 18.045725 0.000000 0.000000 0.000000 0.000000 -1.155976
    7 17.597597 0.000000 0.000000 -0.260871 -0.080643 -0.284368
    8 1.293670 0.684478 -0.000001 -0.069089 0.009742 0.140000
    9 5.309685 -0.003834 0.000000 0.169963 -0.078823 0.429378
    10 4.826790 -0.004591 0.000000 0.127190 -0.023598 0.181652
    11 5.792767 -0.005304 0.000000 0.042595 -0.015113 0.339828
    12 6.662317 -0.001453 0.000000 0.000000 -0.000001 0.043637
    13 2.046985 -0.000002 0.000000 0.051958 -0.470675 -0.040619
    14 -3.459691 0.091429 4.341911 -0.000014 -1.370797 3.097130
    15 4.827230 0.000000 0.000001 -0.976963 0.500945 -1.089864
    16 11.139763 0.000000 0.000000 0.000000 0.000000 -0.287179
    17 10.314597 0.000001 0.000000 -1.570000 0.000000 -0.069778
    18 2.975834 -0.386307 -0.044143 -0.000797 -0.043611 0.000035
    19 1.438886 0.000000 0.000000 0.000000 0.000000 0.793701
    20 1.485303 0.000000 0.000000 0.000000 0.000000 1.465302
    21 -3.190220 0.087123 -4.140396 -1.226614 1.029760 1.922452
    22 4.972048 0.000000 0.000001 0.552145 -0.644251 -0.418982
    23 11.585355 0.000000 0.000000 0.000000 0.000000 -0.932518
    24 10.127057 0.000000 0.000001 1.569752 0.000000 -0.069778
    25 2.683750 -0.427338 0.044205 0.001045 0.043611 0.000046
    26 1.438885 -0.000001 0.000000 0.000000 0.000000 0.331445
    27 1.485305 0.000001 0.000000 0.000000 0.000000 0.000000
    28 1.646738 0.449549 -1.702246 0.154002 0.442277 0.277235
    29 0.928312 0.000000 -0.000002 0.000000 0.000000 0.000000
    30 0.928314 0.000000 0.000001 0.000000 0.000000 0.000000
    31 1.533672 0.109715 1.664491 -0.233255 -0.412980 0.435684
    32 0.928313 0.000000 0.000000 0.000000 0.000000 0.000000
    33 0.928314 0.000000 0.000001 0.000000 0.000000 0.000000
  time 19
    0 0.235347 -3.421446 -23.975819 1.019700 0.439984 -0.215640
    1 -3.890744 -0.441420 0.000000 -1.570795 -1.570796 0.000000
    2 -0.000005 0.000007 3.713255 0.189727 3.840774 -1.171414
    3 18.045721 0.000000 0.000000 0.000000 0.000000 -1.216257
    4 17.597597 0.000000 0.000000 0.432949 0.095705 -0.448883
    5 0.000005 -0.000003 -3.713255 0.301403 -2.778573 -0.810080
    6 18.045725 0.000000 0.000000 0.000000 0.000000 -1.000220
    7 17.597597 0.000000 0.000000 -0.200634 -0.145772 -0.401021
    8 1.293670 0.684478 -0.000001 -0.069089 0.009742 0.140000
    9 5.309685 -0.003834 0.000000 0.168983 -0.078379 0.429469
    10 4.826790 -0.004591 0.000000 0.138963 -0.025767 0.181366
    11 5.792767 -0.005304 0.000000 0.048743 -0.017282 0.339745
    12 6.662317 -0.001453 0.000000 0.000000 -0.000001 0.043637
    13 2.046985 -0.000002 0.000000 0.123863 -0.587573 -0.189441
    14 -3.459691 0.091429 4.341911 -0.000014 -1.370797 3.097130
    15 4.827230 0.000000 0.000001 -0.967977 0.500350 -1.101153
    16 11.139763 0.000000 0.000000 0.000000 0.000000 -0.287179
    17 10.314597 0.000001 0.000000 -1.570000 0.000000 -0.069778
    18 2.975834 -0.386307 -0.044143 -0.000797 -0.043611 0.000035
    19 1.438886 0.000000 0.000000 0.000000 0.000000 0.793701
    20 1.485303 0.000000 0.000000 0.000000 0.000000 1.465302
    21 -3.190220 0.087123 -4.140396 -1.284618 0.948048 1.874036
    22 4.972048 0.000000 0.000001 0.702832 -0.737000 -0.493813
    23 11.585355 0.000000 0.000000 0.000000 0.000000 -0.990793
    24 10.127057 0.000000 0.000001 1.569752 0.000000 -0.069778
    25 2.683750 -0.427338 0.044205 0.001045 0.043611 0.000046
    26 1.438885 -0.000001 0.000000 0.000000 0.000000 0.331445
    27 1.485305 0.000001 0.000000 0.000000 0.000000 0.000000
    28 1.646738 0.449549 -1.702246 0.154002 0.442277 0.277235
    29 0.928312 0.000000 -0.000002 0.000000 0.000000 0.000000
    30 0.928314 0.000000 0.000001 0.000000 0.000000 0.000000
    31 1.533672 0.109715 1.664491 -0.233255 -0.412980 0.435684
    32 0.928313 0.000000 0.000000 0.000000 0.000000 0.000000
    33 0.928314 0.000000 0.000001 0.000000 0.000000 0.000000
  time 20
    0 0.235347 -3.464416 -26.577461 1.021248 0.439450 -0.224381
    1 -3.890744 -0.453139 0.000000 -1.570795 -1.570796 0.000000
    2 -0.000005 0.000007 3.713255 0.156179 3.727752 -0.970542
    3 18.045721 0.000000 0.000000 0.000000 0.000000 -1.267685
    4 17.597597 0.000000 0.000000 0.215320 -0.073647 -0.414340
    5 0.000005 -0.000003 -3.713255 0.153984 -2.657768 -0.745063
    6 18.045725 0.000000 0.000000 0.000000 0.000000 -1.243996
    7 17.597597 0.000000 0.000000 -0.073480 0.025078 -0.349374
    8 1.293670 0.684478 -0.000001 -0.069089 0.009742 0.140000
    9 5.309685 -0.003834 0.000000 0.168040 -0.077948 0.429541
    10 4.826790 -0.004591 0.000000 0.150227 -0.027840 0.181057
    11 5.792767 -0.005304 0.000000 0.054630 -0.019367 0.339620
    12 6.662317 -0.001453 0.000000 0.000000 -0.000001 0.043637
    13 2.046985 -0.000002 0.000000 0.166731 -0.646472 -0.278932
    14 -3.459691 0.091429 4.341911 -0.000014 -1.370797 3.097130
    15 4.827230 0.000000 0.000001 -0.959342 0.499924 -1.111916
    16 11.139763 0.000000 0.000000 0.000000 0.000000 -0.287179
    17 10.314597 0.000001 0.000000 -1.570000 0.000000 -0.069778
    18 2.975834 -0.386307 -0.044143 -0.000797 -0.043611 0.000035
    19 1.438886 0.000000 0.000000 0.000000 0.000000 0.793701
    20 1.485303 0.000000 0.000000 0.000000 0.000000 1.465302
    21 -3.190220 0.087123 -4.140396 -1.327377 0.871537 1.840193
    22 4.972048 0.000000 0.000001 0.887787 -0.791539 -0.589394
    23 11.585355 0.000000 0.000000 0.000000 0.000000 -1.045429
    24 10.127057 0.000000 0.000001 1.569752 0.000000 -0.069778
    25 2.683750 -0.427338 0.044205 0.001045 0.043611 0.000046
    26 1.438885 -0.000001 0.000000 0.000000 0.000000 0.331445
    27 1.485305 0.000001 0.000000 0.000000 0.000000 0.000000
    28 1.646738 0.449549 -1.702246 0.154002 0.442277 0.277235
    29 0.928312 0.000000 -0.000002 0.000000 0.000000 0.000000
    30 0.928314 0.000000 0.000001 0.000000 0.000000 0.000000
    31 1.533672 0.109715 1.664491 -0.233255 -0.412980 0.435684
    32 0.928313 0.000000 0.000000 0.000000 0.000000 0.000000
    33 0.928314 0.000000 0.000001 0.000000 0.000000 0.000000
  time 21
    0 0.235347 -3.542544 -28.847061 1.039632 0.442740 -0.251554
    1 -3.886837 -0.460952 0.000000 -1.570795 -1.570796 0.000000
    2 -0.000005 0.000007 3.713255 0.166627 3.602587 -0.899114
    3 18.045721 0.000000 0.000000 0.000000 0.000000 -1.338407
    4 17.597597 0.000000 0.000000 0.015031 -0.197868 -0.312586
    5 0.000005 -0.000003 -3.713255 -0.033806 -2.604066 -0.703416
    6 18.045725 0.000000 0.000000 0.000000 0.000000 -1.598758
    7 17.597597 0.000000 0.000000 -0.090762 0.253681 -0.209301
    8 1.293670 0.684478 -0.000001 -0.069089 0.009742 0.140000
    9 5.309685 -0.003834 0.000000 0.167110 -0.077516 0.429613
    10 4.826790 -0.004591 0.000000 0.161458 -0.029902 0.180726
    11 5.792767 -0.005304 0.000000 0.060501 -0.021452 0.339516
    12 6.662317 -0.001453 0.000000 0.000000 -0.000001 0.043637
    13 2.046985 -0.000002 0.000000 -0.063720 -0.265677 0.008463
    14 -3.459691 0.091429 4.341911 -0.000014 -1.370797 3.097130
    15 4.827230 0.000000 0.000001 -0.950708 0.499584 -1.122680
    16 11.139763 0.000000 0.000000 0.000000 0.000000 -0.287179
    17 10.314597 0.000001 0.000000 -1.570000 0.000000 -0.069778
    18 2.975834 -0.386307 -0.044143 -0.000797 -0.043611 0.000035
    19 1.438886 0.000000 0.000000 0.000000 0.000000 0.793701
    20 1.485303 0.000000 0.000000 0.000000 0.000000 1.465302
    21 -3.190220 0.087123 -4.140396 -1.362467 0.795366 1.814211
    22 4.972048 0.000000 0.000001 1.081251 -0.808351 -0.685699
    23 11.585355 0.000000 0.000000 0.000000 0.000000 -1.098596
    24 10.127057 0.000000 0.000001 1.569752 0.000000 -0.069778
    25 2.683750 -0.427338 0.044205 0.001045 0.043611 0.000046
    26 1.438885 -0.000001 0.000000 0.000000 0.000000 0.331445
    27 1.485305 0.000001 0.000000 0.000000 0.000000 0.000000
    28 1.646738 0.449549 -1.702246 0.154002 0.442277 0.277235
    29 0.928312 0.000000 -0.000002 0.000000 0.000000 0.000000
    30 0.928314 0.000000 0.000001 0.000000 0.000000 0.000000
    31 1.533672 0.109715 1.664491 -0.233255 -0.412980 0.435684
    32 0.928313 0.000000 0.000000 0.000000 0.000000 0.000000
    33 0.928314 0.000000 0.000001 0.000000 0.000000 0.000000
  time 22
    0 0.235347 -3.847241 -29.362702 1.132771 0.444341 -0.266091
    1 -3.882931 -0.468764 0.000000 -1.570795 -1.570796 0.000000
    2 -0.000005 0.000007 3.713255 0.157809 3.568929 -0.975303
    3 18.045721 0.000000 0.000000 0.000000 0.000000 -1.417813
    4 17.597597 0.000000 0.000000 -0.012069 -0.159163 -0.301697
    5 0.000005 -0.000003 -3.713255 -0.081352 -2.681029 -0.702398
    6 18.045725 0.000000 0.000000 0.000000 0.000000 -1.598758
    7 17.597597 0.000000 0.000000 -0.170358 0.233523 -0.260537
    8 1.293670 0.684478 -0.000001 -0.069089 0.009742 0.140000
    9 5.309685 -0.003834 0.000000 0.166290 -0.077145 0.429668
    10 4.826790 -0.004591 0.000000 0.171557 -0.031747 0.180418
    11 5.792767 -0.005304 0.000000 0.065768 -0.023310 0.339392
    12 6.662317 -0.001453 0.000000 0.000000 -0.000001 0.043637
    13 2.046985 -0.000002 0.000000 -0.184179 0.280784 0.343728
    14 -3.459691 0.091429 4.341911 -0.000014 -1.370797 3.097130
    15 4.827230 0.000000 0.000001 -0.942955 0.499328 -1.132306
    16 11.139763 0.000000 0.000000 0.000000 0.000000 -0.287179
    17 10.314597 0.000001 0.000000 -1.570000 0.000000 -0.069778
    18 2.975834 -0.386307 -0.044143 -0.000797 -0.043611 0.000035
    19 1.438886 0.000000 0.000000 0.000000 0.000000 0.793701
    20 1.485303 0.000000 0.000000 0.000000 0.000000 1.465302
    21 -3.190220 0.087123 -4.140396 -1.393625 0.715661 1.792832
    22 4.972048 0.000000 0.000001 1.238591 -0.784862 -0.733984
    23 11.585355 0.000000 0.000000 0.000000 0.000000 -1.150714
    24 10.127057 0.000000 0.000001 1.569752 0.000000 -0.069778
    25 2.683750 -0.427338 0.044205 0.001045 0.043611 0.000046
    26 1.438885 -0.000001 0.000000 0.000000 0.000000 0.331445
    27 1.485305 0.000001 0.000000 0.000000 0.000000 0.000000
    28 1.646738 0.449549 -1.702246 0.154002 0.442277 0.277235
    29 0.928312 0.000000 -0.000002 0.000000 0.000000 0.000000
    30 0.928314 0.000000 0.000001 0.000000 0.000000 0.000000
    31 1.533672 0.109715 1.664491 -0.233255 -0.412980 0.435684
    32 0.928313 0.000000 0.000000 0.000000 0.000000 0.000000
    33 0.928314 0.000000 0.000001 0.000000 0.000000 0.000000
  time 23
    0 0.235347 -4.312098 -26.663401 1.245091 0.451810 -0.294214
    1 -3.867306 -0.390637 0.000000 -1.570795 -1.570796 0.000000
    2 -0.000005 0.000007 3.713255 0.144869 3.554682 -1.081668
    3 18.045721 0.000000 0.000000 0.000000 0.000000 -1.494621
    4 17.597597 0.000000 0.000000 -0.022614 -0.103856 -0.321736
    5 0.000005 -0.000003 -3.713255 -0.101346 -2.781062 -0.716361
    6 18.045725 0.000000 0.000000 0.000000 0.000000 -1.598758
    7 17.597597 0.000000 0.000000 -0.250977 0.170781 -0.270255
    8 1.293670 0.684478 -0.000001 -0.069089 0.023752 0.139029
    9 5.309685 -0.003834 0.000000 0.166290 -0.077145 0.429668
    10 4.826790 -0.004591 0.000000 0.171622 -0.044523 0.178213
    11 5.792767 -0.005304 0.000000 0.065768 -0.023310 0.339392
    12 6.662317 -0.001453 0.000000 0.000000 -0.000001 0.043637
    13 2.046985 -0.000002 0.000000 -0.182025 0.016436 0.461311
    14 -3.459691 0.091429 4.341911 0.145809 -1.368720 2.954274
    15 4.827230 0.000000 0.000001 -0.956875 0.521795 -1.145871
    16 11.139763 0.000000 0.000000 0.000000 0.000000 -0.287179
    17 10.314597 0.000001 0.000000 -1.604604 0.091992 -0.084743
    18 2.975834 -0.386307 -0.044143 -0.000797 -0.043611 0.000035
    19 1.438886 0.000000 0.000000 0.000000 0.000000 0.793701
    20 1.485303 0.000000 0.000000 0.000000 0.000000 1.465302
    21 -3.190220 0.087123 -4.140396 -1.419032 0.640676 1.776821
    22 4.972048 0.000000 0.000001 1.162551 -0.681898 -0.486633
    23 11.585355 0.000000 0.000000 0.000000 0.000000 -1.188351
    24 10.127057 0.000000 0.000001 1.569752 0.000000 -0.069778
    25 2.683750 -0.427338 0.044205 0.001045 0.043611 0.000046
    26 1.438885 -0.000001 0.000000 0.000000 0.000000 0.331445
    27 1.485305 0.000001 0.000000 0.000000 0.000000 0.000000
    28 1.646738 0.449549 -1.702246 0.154002 0.442277 0.277235
    29 0.928312 0.000000 -0.000002 0.000000 0.000000 0.000000
    30 0.928314 0.000000 0.000001 0.000000 0.000000 0.000000
    31 1.533672 0.109715 1.664491 -0.233255 -0.412980 0.435684
    32 0.928313 0.000000 0.000000 0.000000 0.000000 0.000000
    33 0.928314 0.000000 0.000001 0.000000 0.000000 0.000000
  time 24
    0 0.235347 -4.659765 -24.893815 1.312671 0.459280 -0.314642
    1 -3.836055 -0.257820 0.000000 -1.570795 -1.570796 0.000000
    2 -0.000005 0.000007 3.713255 0.130396 3.545694 -1.197265
    3 18.045721 0.000000 0.000000 0.000000 0.000000 -1.570909
    4 17.597597 0.000000 0.000000 -0.034959 -0.044460 -0.350881
    5 0.000005 -0.000003 -3.713255 -0.115217 -2.875735 -0.733136
    6 18.045725 0.000000 0.000000 0.000000 0.000000 -1.598758
    7 17.597597 0.000000 0.000000 -0.320515 0.100859 -0.257206
    8 1.293670 0.684478 -0.000001 -0.069137 0.047734 0.137371
    9 5.309685 -0.003834 0.000000 0.166290 -0.077145 0.429668
    10 4.826790 -0.004591 0.000000 0.171819 -0.066383 0.174420
    11 5.792767 -0.005304 0.000000 0.065768 -0.023310 0.339392
    12 6.662317 -0.001453 0.000000 0.000000 -0.000001 0.043637
    13 2.046985 -0.000002 0.000000 -0.207660 -0.399348 0.543341
    14 -3.459691 0.091429 4.341911 0.379548 -1.355949 2.725514
    15 4.827230 0.000000 0.000001 -0.983424 0.559750 -1.170724
    16 11.139763 0.000000 0.000000 0.000000 0.000000 -0.287179
    17 10.314597 0.000001 0.000000 -1.668599 0.247993 -0.118546
    18 2.975834 -0.386307 -0.044143 -0.000797 -0.043611 0.000035
    19 1.438886 0.000000 0.000000 0.000000 0.000000 0.793701
    20 1.485303 0.000000 0.000000 0.000000 0.000000 1.465302
    21 -3.190220 0.087123 -4.140396 -1.434563 0.590309 1.767905
    22 4.972048 0.000000 0.000001 1.085429 -0.569119 -0.262337
    23 11.585355 0.000000 0.000000 0.000000 0.000000 -1.199334
    24 10.127057 0.000000 0.000001 1.569752 0.000000 -0.069778
    25 2.683750 -0.427338 0.044205 0.001045 0.043611 0.000046
    26 1.438885 -0.000001 0.000000 0.000000 0.000000 0.331445
    27 1.485305 0.000001 0.000000 0.000000 0.000000 0.000000
    28 1.646738 0.449549 -1.702246 0.154002 0.442277 0.277235
    29 0.928312 0.000000 -0.000002 0.000000 0.000000 0.000000
    30 0.928314 0.000000 0.000001 0.000000 0.000000 0.000000
    31 1.533672 0.109715 1.664491 -0.233255 -0.412980 0.435684
    32 0.928313 0.000000 0.000000 0.000000 0.000000 0.000000
    33 0.928314 0.000000 0.000001 0.000000 0.000000 0.000000
  time 25
    0 0.235347 -4.632421 -26.518865 1.294193 0.461058 -0.319107
    1 -3.793085 -0.089846 0.000000 -1.570795 -1.570796 0.000000
    2 -0.000005 0.000007 3.713255 0.114485 3.531925 -1.312230
    3 18.045721 0.000000 0.000000 0.000000 0.000000 -1.648089
    4 17.597597 0.000000 0.000000 -0.059346 0.010773 -0.380208
    5 0.000005 -0.000003 -3.713255 -0.132341 -2.930298 -0.745451
    6 18.045725 0.000000 0.000000 0.000000 0.000000 -1.598758
    7 17.597597 0.000000 0.000000 -0.353016 0.039221 -0.236602
    8 1.293670 0.684478 -0.000001 -0.069232 0.077264 0.135329
    9 5.309685 -0.003834 0.000000 0.166290 -0.077145 0.429668
    10 4.826790 -0.004591 0.000000 0.172164 -0.093300 0.169724
    11 5.792767 -0.005304 0.000000 0.065768 -0.023310 0.339392
    12 6.662317 -0.001453 0.000000 0.000000 -0.000001 0.043637
    13 2.046985 -0.000002 0.000000 -0.239800 -0.645662 0.598537
    14 -3.459691 0.091429 4.341911 0.618751 -1.326907 2.492535
    15 4.827230 0.000000 0.000001 -1.021427 0.605534 -1.204678
    16 11.139763 0.000000 0.000000 0.000000 0.000000 -0.287179
    17 10.314597 0.000001 0.000000 -1.760367 0.436325 -0.177751
    18 2.975834 -0.386307 -0.044143 -0.000797 -0.043611 0.000035
    19 1.438886 0.000000 0.000000 0.000000 0.000000 0.793701
    20 1.485303 0.000000 0.000000 0.000000 0.000000 1.465302
    21 -3.190220 0.087123 -4.140396 -1.446260 0.549722 1.761577
    22 4.972048 0.000000 0.000001 1.215307 -0.584242 -0.382818
    23 11.585355 0.000000 0.000000 0.000000 0.000000 -1.201223
    24 10.127057 0.000000 0.000001 1.569752 0.000000 -0.069778
    25 2.683750 -0.427338 0.044205 0.001045 0.043611 0.000046
    26 1.438885 -0.000001 0.000000 0.000000 0.000000 0.331445
    27 1.485305 0.000001 0.000000 0.000000 0.000000 0.000000
    28 1.646738 0.449549 -1.702246 0.154002 0.442277 0.277235
    29 0.928312 0.000000 -0.000002 0.000000 0.000000 0.000000
    30 0.928314 0.000000 0.000001 0.000000 0.000000 0.000000
    31 1.533672 0.109715 1.664491 -0.233255 -0.412980 0.435684
    32 0.928313 0.000000 0.000000 0.000000 0.000000 0.000000
    33 0.928314 0.000000 0.000001 0.000000 0.000000 0.000000
  time 26
    0 0.235347 -4.620702 -29.253323 1.230740 0.460080 -0.316922
    1 -3.754021 0.062502 0.000000 -1.570795 -1.570796 0.000000
    2 -0.000005 0.000007 3.713255 0.097136 3.493199 -1.402802
    3 18.045721 0.000000 0.000000 0.000000 0.000000 -1.713839
    4 17.597597 0.000000 0.000000 -0.109412 0.040423 -0.403771
    5 0.000005 -0.000003 -3.713255 -0.156640 -2.786614 -0.727658
    6 18.045725 0.000000 0.000000 0.000000 0.000000 -1.598758
    7 17.597597 0.000000 0.000000 -0.199051 0.010049 -0.239521
    8 1.293670 0.684478 -0.000001 -0.069392 0.104840 0.133404
    9 5.309685 -0.003834 0.000000 0.166290 -0.077145 0.429668
    10 4.826790 -0.004591 0.000000 0.172608 -0.118444 0.165314
    11 5.792767 -0.005304 0.000000 0.065768 -0.023310 0.339392
    12 6.662317 -0.001453 0.000000 0.000000 -0.000001 0.043637
    13 2.046985 -0.000002 0.000000 -0.198655 -0.204233 0.494753
    14 -3.459691 0.091429 4.341911 0.790172 -1.290326 2.326861
    15 4.827230 0.000000 0.000001 -1.062836 0.646808 -1.240295
    16 11.139763 0.000000 0.000000 0.000000 0.000000 -0.287179
    17 10.314597 0.000001 0.000000 -1.867415 0.606306 -0.257693
    18 2.975834 -0.386307 -0.044143 -0.000797 -0.043611 0.000035
    19 1.438886 0.000000 0.000000 0.000000 0.000000 0.793701
    20 1.485303 0.000000 0.000000 0.000000 0.000000 1.465302
    21 -3.190220 0.087123 -4.140396 -1.455080 0.517755 1.757071
    22 4.972048 0.000000 0.000001 1.390748 -0.595826 -0.588406
    23 11.585355 0.000000 0.000000 0.000000 0.000000 -1.197375
    24 10.127057 0.000000 0.000001 1.569752 0.000000 -0.069778
    25 2.683750 -0.427338 0.044205 0.001045 0.043611 0.000046
    26 1.438885 -0.000001 0.000000 0.000000 0.000000 0.331445
    27 1.485305 0.000001 0.000000 0.000000 0.000000 0.000000
    28 1.646738 0.449549 -1.702246 0.154002 0.442277 0.277235
    29 0.928312 0.000000 -0.000002 0.000000 0.000000 0.000000
    30 0.928314 0.000000 0.000001 0.000000 0.000000 0.000000
    31 1.533672 0.109715 1.664491 -0.233255 -0.412980 0.435684
    32 0.928313 0.000000 0.000000 0.000000 0.000000 0.000000
    33 0.928314 0.000000 0.000001 0.000000 0.000000 0.000000
  time 27
    0 0.235347 -4.616795 -31.272916 1.181873 0.459280 -0.314642
    1 -3.730583 0.164068 0.000000 -1.570795 -1.570796 0.000000
    2 -0.000005 0.000007 3.713255 0.084293 3.454665 -1.452850
    3 18.045721 0.000000 0.000000 0.000000 0.000000 -1.748347
    4 17.597597 0.000000 0.000000 -0.153901 0.046459 -0.421798
    5 0.000005 -0.000003 -3.713255 -0.180269 -2.561564 -0.690083
    6 18.045725 0.000000 0.000000 0.000000 0.000000 -1.598758
    7 17.597597 0.000000 0.000000 0.028460 0.012139 -0.265035
    8 1.293670 0.684478 -0.000001 -0.069519 0.122865 0.132148
    9 5.309685 -0.003834 0.000000 0.166290 -0.077145 0.429668
    10 4.826790 -0.004591 0.000000 0.172969 -0.134875 0.162426
    11 5.792767 -0.005304 0.000000 0.065768 -0.023310 0.339392
    12 6.662317 -0.001453 0.000000 0.000000 -0.000001 0.043637
    13 2.046985 -0.000002 0.000000 -0.224117 0.423619 0.353122
    14 -3.459691 0.091429 4.341911 0.879142 -1.263054 2.241724
    15 4.827230 0.000000 0.000001 -1.093261 0.672764 -1.266024
    16 11.139763 0.000000 0.000000 0.000000 0.000000 -0.287179
    17 10.314597 0.000001 0.000000 -1.954509 0.712408 -0.328363
    18 2.975834 -0.386307 -0.044143 -0.000797 -0.043611 0.000035
    19 1.438886 0.000000 0.000000 0.000000 0.000000 0.793701
    20 1.485303 0.000000 0.000000 0.000000 0.000000 1.465302
    21 -3.190220 0.087123 -4.140396 -1.460928 0.495653 1.754291
    22 4.972048 0.000000 0.000001 1.516294 -0.581105 -0.738331
    23 11.585355 0.000000 0.000000 0.000000 0.000000 -1.194297
    24 10.127057 0.000000 0.000001 1.569752 0.000000 -0.069778
    25 2.683750 -0.427338 0.044205 0.001045 0.043611 0.000046
    26 1.438885 -0.000001 0.000000 0.000000 0.000000 0.331445
    27 1.485305 0.000001 0.000000 0.000000 0.000000 0.000000
    28 1.646738 0.449549 -1.702246 0.154002 0.442277 0.277235
    29 0.928312 0.000000 -0.000002 0.000000 0.000000 0.000000
    30 0.928314 0.000000 0.000001 0.000000 0.000000 0.000000
    31 1.533672 0.109715 1.664491 -0.233255 -0.412980 0.435684
    32 0.928313 0.000000 0.000000 0.000000 0.000000 0.000000
    33 0.928314 0.000000 0.000001 0.000000 0.000000 0.000000
end
