version 1
nodes
  0 "Bip01" -1
  1 "Bip01 Pelvis" 0
  2 "Bip01 L Leg" 1
  3 "Bip01 L Leg1" 2
  4 "Bip01 L Foot" 3
  5 "Bip01 R Leg" 1
  6 "Bip01 R Leg1" 5
  7 "Bip01 R Foot" 6
  8 "Bip01 Spine" 1
  9 "Bip01 Spine1" 8
  10 "Bip01 Spine2" 9
  11 "Bip01 Spine3" 10
  12 "Bip01 Neck" 11
  13 "Bip01 Head" 12
  14 "Bip01 L Arm" 12
  15 "Bip01 L Arm1" 14
  16 "Bip01 L Arm2" 15
  17 "Bip01 L Hand" 16
  18 "Bip01 L Finger1" 17
  19 "Bip01 L Finger11" 18
  20 "Bip01 L Finger12" 19
  21 "Bip01 R Arm" 12
  22 "Bip01 R Arm1" 21
  23 "Bip01 R Arm2" 22
  24 "Bip01 R Hand" 23
  25 "Bip01 R Finger1" 24
  26 "Bip01 R Finger11" 25
  27 "Bip01 R Finger12" 26
  28 "Bip01 L Finger0" 17
  29 "Bip01 L Finger01" 28
  30 "Bip01 L Finger02" 29
  31 "Bip01 R Finger0" 24
  32 "Bip01 R Finger01" 31
  33 "Bip01 R Finger02" 32
end
skeleton
  time 0
    0 0.235347 0.367732 3.528927 0.000000 0.000000 -1.570874
    1 0.000000 0.000000 0.000000 -1.570795 -1.570796 0.000000
    2 -0.000005 0.000007 3.713255 0.002054 3.115505 -0.021473
    3 18.045721 0.000000 0.000000 0.000000 0.000000 -0.121501
    4 17.597597 0.000000 0.000000 -0.002613 0.026036 0.099967
    5 0.000005 -0.000003 -3.713255 -0.002524 -3.124238 -0.024449
    6 18.045725 0.000000 0.000000 0.000000 0.000000 -0.127551
    7 17.597597 0.000000 0.000000 0.002950 -0.017289 0.103055
    8 1.293670 0.684478 -0.000001 -0.000004 -0.000001 0.061853
    9 5.309685 -0.003834 0.000000 -0.221112 0.050743 0.221143
    10 4.826790 -0.004591 0.000000 -0.152378 0.037931 0.241317
    11 5.792767 -0.005304 0.000000 -0.206796 0.032658 0.153606
    12 6.662317 -0.001453 0.000000 0.000000 -0.000001 0.471000
    13 2.046985 -0.000002 0.000000 0.505707 -0.039199 -0.235243
    14 -3.112024 1.517254 4.341911 0.999080 -1.044298 1.738758
    15 4.827230 0.000000 0.000001 -0.353125 0.507583 -0.603389
    16 11.139763 0.000000 0.000000 0.000000 0.000000 -1.045513
    17 10.314597 0.000001 0.000000 -2.987507 -0.064640 0.326477
    18 2.975834 -0.386307 -0.044143 -0.023136 -0.036984 0.541211
    19 1.438886 0.000000 0.000000 0.000000 0.000000 0.784982
    20 1.485303 0.000000 0.000000 0.000000 0.000000 0.689056
    21 -2.869898 1.399663 -4.140396 -1.188073 0.734767 1.639722
    22 4.972048 0.000000 0.000001 0.527082 -0.428669 -1.004588
    23 11.585355 0.000000 0.000000 0.000000 0.000000 -0.911881
    24 10.127057 0.000000 0.000001 2.052614 0.054684 0.642320
    25 2.683750 -0.427338 0.044205 -0.005786 0.043239 -0.157091
    26 1.438885 -0.000001 0.000000 0.000000 0.000000 0.732658
    27 1.485305 0.000001 0.000000 0.000000 0.000000 1.168770
    28 1.646738 0.449549 -1.702246 0.154002 0.442277 0.277235
    29 0.928312 0.000000 -0.000002 0.000000 0.000000 0.000000
    30 0.928314 0.000000 0.000001 0.000000 0.000000 0.000000
    31 1.533672 0.109715 1.664491 -0.264755 -0.055959 0.783109
    32 0.928313 0.000000 0.000000 0.000000 0.000000 -0.453556
    33 0.928314 0.000000 0.000001 0.000000 0.000000 0.000000
  time 1
    0 0.235347 0.367732 3.528927 0.000000 0.000000 -1.570874
    1 0.000000 0.000000 0.000000 -1.570795 -1.570796 0.000000
    2 -0.000005 0.000007 3.713255 0.002054 3.115505 -0.021473
    3 18.045721 0.000000 0.000000 0.000000 0.000000 -0.121501
    4 17.597597 0.000000 0.000000 -0.002613 0.026036 0.099967
    5 0.000005 -0.000003 -3.713255 -0.002524 -3.124238 -0.024449
    6 18.045725 0.000000 0.000000 0.000000 0.000000 -0.127551
    7 17.597597 0.000000 0.000000 0.002950 -0.017289 0.103055
    8 1.293670 0.684478 -0.000001 -0.000004 -0.000001 0.061853
    9 5.309685 -0.003834 0.000000 -0.221063 0.050982 0.222193
    10 4.826790 -0.004591 0.000000 -0.153445 0.038195 0.241273
    11 5.792767 -0.005304 0.000000 -0.206796 0.032658 0.153606
    12 6.662317 -0.001453 0.000000 0.000000 -0.000001 0.471000
    13 2.046985 -0.000002 0.000000 0.506784 -0.039491 -0.236367
    14 -3.112024 1.517254 4.341911 0.996683 -1.043413 1.741538
    15 4.827230 0.000000 0.000001 -0.353007 0.505200 -0.602601
    16 11.139763 0.000000 0.000000 0.000000 0.000000 -1.045513
    17 10.314597 0.000001 0.000000 -2.987507 -0.064640 0.326477
    18 2.975834 -0.386307 -0.044143 -0.023136 -0.036984 0.541211
    19 1.438886 0.000000 0.000000 0.000000 0.000000 0.784982
    20 1.485303 0.000000 0.000000 0.000000 0.000000 0.689056
    21 -2.869898 1.399663 -4.140396 -1.185964 0.733806 1.642982
    22 4.972048 0.000000 0.000001 0.524143 -0.426658 -1.004654
    23 11.585355 0.000000 0.000000 0.000000 0.000000 -0.911881
    24 10.127057 0.000000 0.000001 2.052614 0.054684 0.642320
    25 2.683750 -0.427338 0.044205 -0.005786 0.043239 -0.157091
    26 1.438885 -0.000001 0.000000 0.000000 0.000000 0.732658
    27 1.485305 0.000001 0.000000 0.000000 0.000000 1.168770
    28 1.646738 0.449549 -1.702246 0.154002 0.442277 0.277235
    29 0.928312 0.000000 -0.000002 0.000000 0.000000 0.000000
    30 0.928314 0.000000 0.000001 0.000000 0.000000 0.000000
    31 1.533672 0.109715 1.664491 -0.264755 -0.055959 0.783109
    32 0.928313 0.000000 0.000000 0.000000 0.000000 -0.453556
    33 0.928314 0.000000 0.000001 0.000000 0.000000 0.000000
  time 2
    0 0.235347 0.367732 3.528927 0.000000 0.000000 -1.570874
    1 0.000000 0.000000 0.000000 -1.570795 -1.570796 0.000000
    2 -0.000005 0.000007 3.713255 0.002054 3.115505 -0.021473
    3 18.045721 0.000000 0.000000 0.000000 0.000000 -0.121501
    4 17.597597 0.000000 0.000000 -0.002613 0.026036 0.099967
    5 0.000005 -0.000003 -3.713255 -0.002524 -3.124238 -0.024449
    6 18.045725 0.000000 0.000000 0.000000 0.000000 -0.127551
    7 17.597597 0.000000 0.000000 0.002950 -0.017289 0.103055
    8 1.293670 0.684478 -0.000001 -0.000004 -0.000001 0.061853
    9 5.309685 -0.003834 0.000000 -0.220989 0.051306 0.223660
    10 4.826790 -0.004591 0.000000 -0.154890 0.038554 0.241229
    11 5.792767 -0.005304 0.000000 -0.206796 0.032658 0.153606
    12 6.662317 -0.001453 0.000000 0.000000 -0.000001 0.471000
    13 2.046985 -0.000002 0.000000 0.508249 -0.039897 -0.237895
    14 -3.112024 1.517254 4.341911 0.993902 -1.042336 1.744798
    15 4.827230 0.000000 0.000001 -0.353007 0.502137 -0.601551
    16 11.139763 0.000000 0.000000 0.000000 0.000000 -1.045513
    17 10.314597 0.000001 0.000000 -2.987507 -0.064640 0.326477
    18 2.975834 -0.386307 -0.044143 -0.023136 -0.036984 0.541211
    19 1.438886 0.000000 0.000000 0.000000 0.000000 0.784982
    20 1.485303 0.000000 0.000000 0.000000 0.000000 0.689056
    21 -2.869898 1.399663 -4.140396 -1.183088 0.732506 1.647296
    22 4.972048 0.000000 0.000001 0.520198 -0.424004 -1.004786
    23 11.585355 0.000000 0.000000 0.000000 0.000000 -0.911881
    24 10.127057 0.000000 0.000001 2.052614 0.054684 0.642320
    25 2.683750 -0.427338 0.044205 -0.005786 0.043239 -0.157091
    26 1.438885 -0.000001 0.000000 0.000000 0.000000 0.732658
    27 1.485305 0.000001 0.000000 0.000000 0.000000 1.168770
    28 1.646738 0.449549 -1.702246 0.154002 0.442277 0.277235
    29 0.928312 0.000000 -0.000002 0.000000 0.000000 0.000000
    30 0.928314 0.000000 0.000001 0.000000 0.000000 0.000000
    31 1.533672 0.109715 1.664491 -0.264755 -0.055959 0.783109
    32 0.928313 0.000000 0.000000 0.000000 0.000000 -0.453556
    33 0.928314 0.000000 0.000001 0.000000 0.000000 0.000000
  time 3
    0 0.235347 0.367732 3.528927 0.000000 0.000000 -1.570874
    1 0.000000 0.000000 0.000000 -1.570795 -1.570796 0.000000
    2 -0.000005 0.000007 3.713255 0.002054 3.115505 -0.021473
    3 18.045721 0.000000 0.000000 0.000000 0.000000 -0.121501
    4 17.597597 0.000000 0.000000 -0.002613 0.026036 0.099967
    5 0.000005 -0.000003 -3.713255 -0.002524 -3.124238 -0.024449
    6 18.045725 0.000000 0.000000 0.000000 0.000000 -0.127551
    7 17.597597 0.000000 0.000000 0.002950 -0.017289 0.103055
    8 1.293670 0.684478 -0.000001 -0.000004 -0.000001 0.061853
    9 5.309685 -0.003834 0.000000 -0.220891 0.051702 0.225435
    10 4.826790 -0.004591 0.000000 -0.156647 0.038986 0.241140
    11 5.792767 -0.005304 0.000000 -0.206796 0.032658 0.153606
    12 6.662317 -0.001453 0.000000 0.000000 -0.000001 0.471000
    13 2.046985 -0.000002 0.000000 0.510016 -0.040392 -0.239738
    14 -3.112024 1.517254 4.341911 0.990739 -1.041182 1.748345
    15 4.827230 0.000000 0.000001 -0.353183 0.498562 -0.600326
    16 11.139763 0.000000 0.000000 0.000000 0.000000 -1.045513
    17 10.314597 0.000001 0.000000 -2.987507 -0.064640 0.326477
    18 2.975834 -0.386307 -0.044143 -0.023136 -0.036984 0.541211
    19 1.438886 0.000000 0.000000 0.000000 0.000000 0.784982
    20 1.485303 0.000000 0.000000 0.000000 0.000000 0.689056
    21 -2.869898 1.399663 -4.140396 -1.179541 0.730895 1.652569
    22 4.972048 0.000000 0.000001 0.515324 -0.420625 -1.004983
    23 11.585355 0.000000 0.000000 0.000000 0.000000 -0.911881
    24 10.127057 0.000000 0.000001 2.052614 0.054684 0.642320
    25 2.683750 -0.427338 0.044205 -0.005786 0.043239 -0.157091
    26 1.438885 -0.000001 0.000000 0.000000 0.000000 0.732658
    27 1.485305 0.000001 0.000000 0.000000 0.000000 1.168770
    28 1.646738 0.449549 -1.702246 0.154002 0.442277 0.277235
    29 0.928312 0.000000 -0.000002 0.000000 0.000000 0.000000
    30 0.928314 0.000000 0.000001 0.000000 0.000000 0.000000
    31 1.533672 0.109715 1.664491 -0.264755 -0.055959 0.783109
    32 0.928313 0.000000 0.000000 0.000000 0.000000 -0.453556
    33 0.928314 0.000000 0.000001 0.000000 0.000000 0.000000
  time 4
    0 0.235347 0.367732 3.528927 0.000000 0.000000 -1.570874
    1 0.000000 0.000000 0.000000 -1.570795 -1.570796 0.000000
    2 -0.000005 0.000007 3.713255 0.002054 3.115505 -0.021473
    3 18.045721 0.000000 0.000000 0.000000 0.000000 -0.121501
    4 17.597597 0.000000 0.000000 -0.002613 0.026036 0.099967
    5 0.000005 -0.000003 -3.713255 -0.002524 -3.124238 -0.024449
    6 18.045725 0.000000 0.000000 0.000000 0.000000 -0.127551
    7 17.597597 0.000000 0.000000 0.002950 -0.017289 0.103055
    8 1.293670 0.684478 -0.000001 -0.000004 -0.000001 0.061853
    9 5.309685 -0.003834 0.000000 -0.220793 0.052157 0.227445
    10 4.826790 -0.004591 0.000000 -0.158667 0.039477 0.241074
    11 5.792767 -0.005304 0.000000 -0.206796 0.032658 0.153606
    12 6.662317 -0.001453 0.000000 0.000000 -0.000001 0.471000
    13 2.046985 -0.000002 0.000000 0.512040 -0.040955 -0.241850
    14 -3.112024 1.517254 4.341911 0.987479 -1.039874 1.752181
    15 4.827230 0.000000 0.000001 -0.353477 0.494563 -0.599101
    16 11.139763 0.000000 0.000000 0.000000 0.000000 -1.045513
    17 10.314597 0.000001 0.000000 -2.987507 -0.064640 0.326477
    18 2.975834 -0.386307 -0.044143 -0.023136 -0.036984 0.541211
    19 1.438886 0.000000 0.000000 0.000000 0.000000 0.784982
    20 1.485303 0.000000 0.000000 0.000000 0.000000 0.689056
    21 -2.869898 1.399663 -4.140396 -1.175514 0.729030 1.658514
    22 4.972048 0.000000 0.000001 0.509832 -0.416845 -1.005247
    23 11.585355 0.000000 0.000000 0.000000 0.000000 -0.911881
    24 10.127057 0.000000 0.000001 2.052614 0.054684 0.642320
    25 2.683750 -0.427338 0.044205 -0.005786 0.043239 -0.157091
    26 1.438885 -0.000001 0.000000 0.000000 0.000000 0.732658
    27 1.485305 0.000001 0.000000 0.000000 0.000000 1.168770
    28 1.646738 0.449549 -1.702246 0.154002 0.442277 0.277235
    29 0.928312 0.000000 -0.000002 0.000000 0.000000 0.000000
    30 0.928314 0.000000 0.000001 0.000000 0.000000 0.000000
    31 1.533672 0.109715 1.664491 -0.264755 -0.055959 0.783109
    32 0.928313 0.000000 0.000000 0.000000 0.000000 -0.453556
    33 0.928314 0.000000 0.000001 0.000000 0.000000 0.000000
  time 5
    0 0.235347 0.367732 3.528927 0.000000 0.000000 -1.570874
    1 0.000000 0.000000 0.000000 -1.570795 -1.570796 0.000000
    2 -0.000005 0.000007 3.713255 0.002054 3.115505 -0.021473
    3 18.045721 0.000000 0.000000 0.000000 0.000000 -0.121501
    4 17.597597 0.000000 0.000000 -0.002613 0.026036 0.099967
    5 0.000005 -0.000003 -3.713255 -0.002524 -3.124238 -0.024449
    6 18.045725 0.000000 0.000000 0.000000 0.000000 -0.127551
    7 17.597597 0.000000 0.000000 0.002950 -0.017289 0.103055
    8 1.293670 0.684478 -0.000001 -0.000004 -0.000001 0.061853
    9 5.309685 -0.003834 0.000000 -0.220671 0.052648 0.229654
    10 4.826790 -0.004591 0.000000 -0.160851 0.040017 0.240986
    11 5.792767 -0.005304 0.000000 -0.206796 0.032658 0.153606
    12 6.662317 -0.001453 0.000000 0.000000 -0.000001 0.471000
    13 2.046985 -0.000002 0.000000 0.514281 -0.041540 -0.244187
    14 -3.112024 1.517254 4.341911 0.983932 -1.038528 1.756303
    15 4.827230 0.000000 0.000001 -0.353830 0.490393 -0.597701
    16 11.139763 0.000000 0.000000 0.000000 0.000000 -1.045513
    17 10.314597 0.000001 0.000000 -2.987507 -0.064640 0.326477
    18 2.975834 -0.386307 -0.044143 -0.023136 -0.036984 0.541211
    19 1.438886 0.000000 0.000000 0.000000 0.000000 0.784982
    20 1.485303 0.000000 0.000000 0.000000 0.000000 0.689056
    21 -2.869898 1.399663 -4.140396 -1.171200 0.726995 1.665033
    22 4.972048 0.000000 0.000001 0.503798 -0.412742 -1.005510
    23 11.585355 0.000000 0.000000 0.000000 0.000000 -0.911881
    24 10.127057 0.000000 0.000001 2.052614 0.054684 0.642320
    25 2.683750 -0.427338 0.044205 -0.005786 0.043239 -0.157091
    26 1.438885 -0.000001 0.000000 0.000000 0.000000 0.732658
    27 1.485305 0.000001 0.000000 0.000000 0.000000 1.168770
    28 1.646738 0.449549 -1.702246 0.154002 0.442277 0.277235
    29 0.928312 0.000000 -0.000002 0.000000 0.000000 0.000000
    30 0.928314 0.000000 0.000001 0.000000 0.000000 0.000000
    31 1.533672 0.109715 1.664491 -0.264755 -0.055959 0.783109
    32 0.928313 0.000000 0.000000 0.000000 0.000000 -0.453556
    33 0.928314 0.000000 0.000001 0.000000 0.000000 0.000000
  time 6
    0 0.235347 0.367732 3.528927 0.000000 0.000000 -1.570874
    1 0.000000 0.000000 0.000000 -1.570795 -1.570796 0.000000
    2 -0.000005 0.000007 3.713255 0.002054 3.115505 -0.021473
    3 18.045721 0.000000 0.000000 0.000000 0.000000 -0.121501
    4 17.597597 0.000000 0.000000 -0.002613 0.026036 0.099967
    5 0.000005 -0.000003 -3.713255 -0.002524 -3.124238 -0.024449
    6 18.045725 0.000000 0.000000 0.000000 0.000000 -0.127551
    7 17.597597 0.000000 0.000000 0.002950 -0.017289 0.103055
    8 1.293670 0.684478 -0.000001 -0.000004 -0.000001 0.061853
    9 5.309685 -0.003834 0.000000 -0.220549 0.053176 0.231972
    10 4.826790 -0.004591 0.000000 -0.163150 0.040592 0.240898
    11 5.792767 -0.005304 0.000000 -0.206796 0.032658 0.153606
    12 6.662317 -0.001453 0.000000 0.000000 -0.000001 0.471000
    13 2.046985 -0.000002 0.000000 0.516607 -0.042171 -0.246615
    14 -3.112024 1.517254 4.341911 0.980288 -1.037066 1.760522
    15 4.827230 0.000000 0.000001 -0.354182 0.485882 -0.596213
    16 11.139763 0.000000 0.000000 0.000000 0.000000 -1.045513
    17 10.314597 0.000001 0.000000 -2.987507 -0.064640 0.326477
    18 2.975834 -0.386307 -0.044143 -0.023136 -0.036984 0.541211
    19 1.438886 0.000000 0.000000 0.000000 0.000000 0.784982
    20 1.485303 0.000000 0.000000 0.000000 0.000000 0.689056
    21 -2.869898 1.399663 -4.140396 -1.166694 0.724847 1.671840
    22 4.972048 0.000000 0.000001 0.497455 -0.408479 -1.005906
    23 11.585355 0.000000 0.000000 0.000000 0.000000 -0.911881
    24 10.127057 0.000000 0.000001 2.052614 0.054684 0.642320
    25 2.683750 -0.427338 0.044205 -0.005786 0.043239 -0.157091
    26 1.438885 -0.000001 0.000000 0.000000 0.000000 0.732658
    27 1.485305 0.000001 0.000000 0.000000 0.000000 1.168770
    28 1.646738 0.449549 -1.702246 0.154002 0.442277 0.277235
    29 0.928312 0.000000 -0.000002 0.000000 0.000000 0.000000
    30 0.928314 0.000000 0.000001 0.000000 0.000000 0.000000
    31 1.533672 0.109715 1.664491 -0.264755 -0.055959 0.783109
    32 0.928313 0.000000 0.000000 0.000000 0.000000 -0.453556
    33 0.928314 0.000000 0.000001 0.000000 0.000000 0.000000
  time 7
    0 0.235347 0.367732 3.528927 0.000000 0.000000 -1.570874
    1 0.000000 0.000000 0.000000 -1.570795 -1.570796 0.000000
    2 -0.000005 0.000007 3.713255 0.002054 3.115505 -0.021473
    3 18.045721 0.000000 0.000000 0.000000 0.000000 -0.121501
    4 17.597597 0.000000 0.000000 -0.002613 0.026036 0.099967
    5 0.000005 -0.000003 -3.713255 -0.002524 -3.124238 -0.024449
    6 18.045725 0.000000 0.000000 0.000000 0.000000 -0.127551
    7 17.597597 0.000000 0.000000 0.002950 -0.017289 0.103055
    8 1.293670 0.684478 -0.000001 -0.000004 -0.000001 0.061853
    9 5.309685 -0.003834 0.000000 -0.220426 0.053703 0.234344
    10 4.826790 -0.004591 0.000000 -0.165514 0.041167 0.240788
    11 5.792767 -0.005304 0.000000 -0.206796 0.032658 0.153606
    12 6.662317 -0.001453 0.000000 0.000000 -0.000001 0.471000
    13 2.046985 -0.000002 0.000000 0.518977 -0.042801 -0.249087
    14 -3.112024 1.517254 4.341911 0.976358 -1.035489 1.765124
    15 4.827230 0.000000 0.000001 -0.354476 0.481202 -0.594725
    16 11.139763 0.000000 0.000000 0.000000 0.000000 -1.045513
    17 10.314597 0.000001 0.000000 -2.987507 -0.064640 0.326477
    18 2.975834 -0.386307 -0.044143 -0.023136 -0.036984 0.541211
    19 1.438886 0.000000 0.000000 0.000000 0.000000 0.784982
    20 1.485303 0.000000 0.000000 0.000000 0.000000 0.689056
    21 -2.869898 1.399663 -4.140396 -1.162092 0.722614 1.678743
    22 4.972048 0.000000 0.000001 0.491035 -0.404135 -1.006301
    23 11.585355 0.000000 0.000000 0.000000 0.000000 -0.911881
    24 10.127057 0.000000 0.000001 2.052614 0.054684 0.642320
    25 2.683750 -0.427338 0.044205 -0.005786 0.043239 -0.157091
    26 1.438885 -0.000001 0.000000 0.000000 0.000000 0.732658
    27 1.485305 0.000001 0.000000 0.000000 0.000000 1.168770
    28 1.646738 0.449549 -1.702246 0.154002 0.442277 0.277235
    29 0.928312 0.000000 -0.000002 0.000000 0.000000 0.000000
    30 0.928314 0.000000 0.000001 0.000000 0.000000 0.000000
    31 1.533672 0.109715 1.664491 -0.264755 -0.055959 0.783109
    32 0.928313 0.000000 0.000000 0.000000 0.000000 -0.453556
    33 0.928314 0.000000 0.000001 0.000000 0.000000 0.000000
  time 8
    0 0.235347 0.367732 3.528927 0.000000 0.000000 -1.570874
    1 0.000000 0.000000 0.000000 -1.570795 -1.570796 0.000000
    2 -0.000005 0.000007 3.713255 0.002054 3.115505 -0.021473
    3 18.045721 0.000000 0.000000 0.000000 0.000000 -0.121501
    4 17.597597 0.000000 0.000000 -0.002613 0.026036 0.099967
    5 0.000005 -0.000003 -3.713255 -0.002524 -3.124238 -0.024449
    6 18.045725 0.000000 0.000000 0.000000 0.000000 -0.127551
    7 17.597597 0.000000 0.000000 0.002950 -0.017289 0.103055
    8 1.293670 0.684478 -0.000001 -0.000004 -0.000001 0.061853
    9 5.309685 -0.003834 0.000000 -0.220304 0.054230 0.236680
    10 4.826790 -0.004591 0.000000 -0.167829 0.041742 0.240699
    11 5.792767 -0.005304 0.000000 -0.206796 0.032658 0.153606
    12 6.662317 -0.001453 0.000000 0.000000 -0.000001 0.471000
    13 2.046985 -0.000002 0.000000 0.521346 -0.043386 -0.251514
    14 -3.112024 1.517254 4.341911 0.972139 -1.033796 1.770013
    15 4.827230 0.000000 0.000001 -0.354593 0.476351 -0.593150
    16 11.139763 0.000000 0.000000 0.000000 0.000000 -1.045513
    17 10.314597 0.000001 0.000000 -2.987507 -0.064640 0.326477
    18 2.975834 -0.386307 -0.044143 -0.023136 -0.036984 0.541211
    19 1.438886 0.000000 0.000000 0.000000 0.000000 0.784982
    20 1.485303 0.000000 0.000000 0.000000 0.000000 0.689056
    21 -2.869898 1.399663 -4.140396 -1.157586 0.720381 1.685550
    22 4.972048 0.000000 0.000001 0.484614 -0.399791 -1.006696
    23 11.585355 0.000000 0.000000 0.000000 0.000000 -0.911881
    24 10.127057 0.000000 0.000001 2.052614 0.054684 0.642320
    25 2.683750 -0.427338 0.044205 -0.005786 0.043239 -0.157091
    26 1.438885 -0.000001 0.000000 0.000000 0.000000 0.732658
    27 1.485305 0.000001 0.000000 0.000000 0.000000 1.168770
    28 1.646738 0.449549 -1.702246 0.154002 0.442277 0.277235
    29 0.928312 0.000000 -0.000002 0.000000 0.000000 0.000000
    30 0.928314 0.000000 0.000001 0.000000 0.000000 0.000000
    31 1.533672 0.109715 1.664491 -0.264755 -0.055959 0.783109
    32 0.928313 0.000000 0.000000 0.000000 0.000000 -0.453556
    33 0.928314 0.000000 0.000001 0.000000 0.000000 0.000000
  time 9
    0 0.235347 0.367732 3.528927 0.000000 0.000000 -1.570874
    1 0.000000 0.000000 0.000000 -1.570795 -1.570796 0.000000
    2 -0.000005 0.000007 3.713255 0.002054 3.115505 -0.021473
    3 18.045721 0.000000 0.000000 0.000000 0.000000 -0.121501
    4 17.597597 0.000000 0.000000 -0.002613 0.026036 0.099967
    5 0.000005 -0.000003 -3.713255 -0.002524 -3.124238 -0.024449
    6 18.045725 0.000000 0.000000 0.000000 0.000000 -0.127551
    7 17.597597 0.000000 0.000000 0.002950 -0.017289 0.103055
    8 1.293670 0.684478 -0.000001 -0.000004 -0.000001 0.061853
    9 5.309685 -0.003834 0.000000 -0.220181 0.054734 0.238926
    10 4.826790 -0.004591 0.000000 -0.170079 0.042294 0.240611
    11 5.792767 -0.005304 0.000000 -0.206796 0.032658 0.153606
    12 6.662317 -0.001453 0.000000 0.000000 -0.000001 0.471000
    13 2.046985 -0.000002 0.000000 0.523630 -0.043972 -0.253896
    14 -3.112024 1.517254 4.341911 0.967633 -1.031989 1.775287
    15 4.827230 0.000000 0.000001 -0.354534 0.471415 -0.591575
    16 11.139763 0.000000 0.000000 0.000000 0.000000 -1.045513
    17 10.314597 0.000001 0.000000 -2.987507 -0.064640 0.326477
    18 2.975834 -0.386307 -0.044143 -0.023136 -0.036984 0.541211
    19 1.438886 0.000000 0.000000 0.000000 0.000000 0.784982
    20 1.485303 0.000000 0.000000 0.000000 0.000000 0.689056
    21 -2.869898 1.399663 -4.140396 -1.153271 0.718205 1.692069
    22 4.972048 0.000000 0.000001 0.478503 -0.395689 -1.007091
    23 11.585355 0.000000 0.000000 0.000000 0.000000 -0.911881
    24 10.127057 0.000000 0.000001 2.052614 0.054684 0.642320
    25 2.683750 -0.427338 0.044205 -0.005786 0.043239 -0.157091
    26 1.438885 -0.000001 0.000000 0.000000 0.000000 0.732658
    27 1.485305 0.000001 0.000000 0.000000 0.000000 1.168770
    28 1.646738 0.449549 -1.702246 0.154002 0.442277 0.277235
    29 0.928312 0.000000 -0.000002 0.000000 0.000000 0.000000
    30 0.928314 0.000000 0.000001 0.000000 0.000000 0.000000
    31 1.533672 0.109715 1.664491 -0.264755 -0.055959 0.783109
    32 0.928313 0.000000 0.000000 0.000000 0.000000 -0.453556
    33 0.928314 0.000000 0.000001 0.000000 0.000000 0.000000
  time 10
    0 0.235347 0.367732 3.528927 0.000000 0.000000 -1.570874
    1 0.000000 0.000000 0.000000 -1.570795 -1.570796 0.000000
    2 -0.000005 0.000007 3.713255 0.002054 3.115505 -0.021473
    3 18.045721 0.000000 0.000000 0.000000 0.000000 -0.121501
    4 17.597597 0.000000 0.000000 -0.002613 0.026036 0.099967
    5 0.000005 -0.000003 -3.713255 -0.002524 -3.124238 -0.024449
    6 18.045725 0.000000 0.000000 0.000000 0.000000 -0.127551
    7 17.597597 0.000000 0.000000 0.002950 -0.017289 0.103055
    8 1.293670 0.684478 -0.000001 -0.000004 -0.000001 0.061853
    9 5.309685 -0.003834 0.000000 -0.220059 0.055189 0.241026
    10 4.826790 -0.004591 0.000000 -0.172148 0.042797 0.240523
    11 5.792767 -0.005304 0.000000 -0.206796 0.032658 0.153606
    12 6.662317 -0.001453 0.000000 0.000000 -0.000001 0.471000
    13 2.046985 -0.000002 0.000000 0.525784 -0.044490 -0.256054
    14 -3.112024 1.517254 4.341911 0.962840 -1.029988 1.780847
    15 4.827230 0.000000 0.000001 -0.354182 0.466394 -0.589912
    16 11.139763 0.000000 0.000000 0.000000 0.000000 -1.045513
    17 10.314597 0.000001 0.000000 -2.987507 -0.064640 0.326477
    18 2.975834 -0.386307 -0.044143 -0.023136 -0.036984 0.541211
    19 1.438886 0.000000 0.000000 0.000000 0.000000 0.784982
    20 1.485303 0.000000 0.000000 0.000000 0.000000 0.689056
    21 -2.869898 1.399663 -4.140396 -1.149341 0.716169 1.698205
    22 4.972048 0.000000 0.000001 0.472857 -0.391908 -1.007552
    23 11.585355 0.000000 0.000000 0.000000 0.000000 -0.911881
    24 10.127057 0.000000 0.000001 2.052614 0.054684 0.642320
    25 2.683750 -0.427338 0.044205 -0.005786 0.043239 -0.157091
    26 1.438885 -0.000001 0.000000 0.000000 0.000000 0.732658
    27 1.485305 0.000001 0.000000 0.000000 0.000000 1.168770
    28 1.646738 0.449549 -1.702246 0.154002 0.442277 0.277235
    29 0.928312 0.000000 -0.000002 0.000000 0.000000 0.000000
    30 0.928314 0.000000 0.000001 0.000000 0.000000 0.000000
    31 1.533672 0.109715 1.664491 -0.264755 -0.055959 0.783109
    32 0.928313 0.000000 0.000000 0.000000 0.000000 -0.453556
    33 0.928314 0.000000 0.000001 0.000000 0.000000 0.000000
  time 11
    0 0.235347 0.367732 3.528927 0.000000 0.000000 -1.570874
    1 0.000000 0.000000 0.000000 -1.570795 -1.570796 0.000000
    2 -0.000005 0.000007 3.713255 0.002054 3.115505 -0.021473
    3 18.045721 0.000000 0.000000 0.000000 0.000000 -0.121501
    4 17.597597 0.000000 0.000000 -0.002613 0.026036 0.099967
    5 0.000005 -0.000003 -3.713255 -0.002524 -3.124238 -0.024449
    6 18.045725 0.000000 0.000000 0.000000 0.000000 -0.127551
    7 17.597597 0.000000 0.000000 0.002950 -0.017289 0.103055
    8 1.293670 0.684478 -0.000001 -0.000004 -0.000001 0.061853
    9 5.309685 -0.003834 0.000000 -0.219961 0.055609 0.242892
    10 4.826790 -0.004591 0.000000 -0.174003 0.043252 0.240435
    11 5.792767 -0.005304 0.000000 -0.206796 0.032658 0.153606
    12 6.662317 -0.001453 0.000000 0.000000 -0.000001 0.471000
    13 2.046985 -0.000002 0.000000 0.527680 -0.044940 -0.258031
    14 -3.112024 1.517254 4.341911 0.957758 -1.027834 1.786792
    15 4.827230 0.000000 0.000001 -0.353536 0.461373 -0.588337
    16 11.139763 0.000000 0.000000 0.000000 0.000000 -1.045513
    17 10.314597 0.000001 0.000000 -2.987507 -0.064640 0.326477
    18 2.975834 -0.386307 -0.044143 -0.023136 -0.036984 0.541211
    19 1.438886 0.000000 0.000000 0.000000 0.000000 0.784982
    20 1.485303 0.000000 0.000000 0.000000 0.000000 0.689056
    21 -2.869898 1.399663 -4.140396 -1.145793 0.714361 1.703574
    22 4.972048 0.000000 0.000001 0.467751 -0.388529 -1.007948
    23 11.585355 0.000000 0.000000 0.000000 0.000000 -0.911881
    24 10.127057 0.000000 0.000001 2.052614 0.054684 0.642320
    25 2.683750 -0.427338 0.044205 -0.005786 0.043239 -0.157091
    26 1.438885 -0.000001 0.000000 0.000000 0.000000 0.732658
    27 1.485305 0.000001 0.000000 0.000000 0.000000 1.168770
    28 1.646738 0.449549 -1.702246 0.154002 0.442277 0.277235
    29 0.928312 0.000000 -0.000002 0.000000 0.000000 0.000000
    30 0.928314 0.000000 0.000001 0.000000 0.000000 0.000000
    31 1.533672 0.109715 1.664491 -0.264755 -0.055959 0.783109
    32 0.928313 0.000000 0.000000 0.000000 0.000000 -0.453556
    33 0.928314 0.000000 0.000001 0.000000 0.000000 0.000000
  time 12
    0 0.235347 0.367732 3.528927 0.000000 0.000000 -1.570874
    1 0.000000 0.000000 0.000000 -1.570795 -1.570796 0.000000
    2 -0.000005 0.000007 3.713255 0.002054 3.115505 -0.021473
    3 18.045721 0.000000 0.000000 0.000000 0.000000 -0.121501
    4 17.597597 0.000000 0.000000 -0.002613 0.026036 0.099967
    5 0.000005 -0.000003 -3.713255 -0.002524 -3.124238 -0.024449
    6 18.045725 0.000000 0.000000 0.000000 0.000000 -0.127551
    7 17.597597 0.000000 0.000000 0.002950 -0.017289 0.103055
    8 1.293670 0.684478 -0.000001 -0.000004 -0.000001 0.061853
    9 5.309685 -0.003834 0.000000 -0.219875 0.055956 0.244449
    10 4.826790 -0.004591 0.000000 -0.175563 0.043636 0.240369
    11 5.792767 -0.005304 0.000000 -0.206796 0.032658 0.153606
    12 6.662317 -0.001453 0.000000 0.000000 -0.000001 0.471000
    13 2.046985 -0.000002 0.000000 0.529274 -0.045323 -0.259649
    14 -3.112024 1.517254 4.341911 0.952581 -1.025603 1.792832
    15 4.827230 0.000000 0.000001 -0.352479 0.456608 -0.586849
    16 11.139763 0.000000 0.000000 0.000000 0.000000 -1.045513
    17 10.314597 0.000001 0.000000 -2.987507 -0.064640 0.326477
    18 2.975834 -0.386307 -0.044143 -0.023136 -0.036984 0.541211
    19 1.438886 0.000000 0.000000 0.000000 0.000000 0.784982
    20 1.485303 0.000000 0.000000 0.000000 0.000000 0.689056
    21 -2.869898 1.399663 -4.140396 -1.142821 0.712806 1.708080
    22 4.972048 0.000000 0.000001 0.463497 -0.385714 -1.008277
    23 11.585355 0.000000 0.000000 0.000000 0.000000 -0.911881
    24 10.127057 0.000000 0.000001 2.052614 0.054684 0.642320
    25 2.683750 -0.427338 0.044205 -0.005786 0.043239 -0.157091
    26 1.438885 -0.000001 0.000000 0.000000 0.000000 0.732658
    27 1.485305 0.000001 0.000000 0.000000 0.000000 1.168770
    28 1.646738 0.449549 -1.702246 0.154002 0.442277 0.277235
    29 0.928312 0.000000 -0.000002 0.000000 0.000000 0.000000
    30 0.928314 0.000000 0.000001 0.000000 0.000000 0.000000
    31 1.533672 0.109715 1.664491 -0.264755 -0.055959 0.783109
    32 0.928313 0.000000 0.000000 0.000000 0.000000 -0.453556
    33 0.928314 0.000000 0.000001 0.000000 0.000000 0.000000
  time 13
    0 0.235347 0.367732 3.528927 0.000000 0.000000 -1.570874
    1 0.000000 0.000000 0.000000 -1.570795 -1.570796 0.000000
    2 -0.000005 0.000007 3.713255 0.002054 3.115505 -0.021473
    3 18.045721 0.000000 0.000000 0.000000 0.000000 -0.121501
    4 17.597597 0.000000 0.000000 -0.002613 0.026036 0.099967
    5 0.000005 -0.000003 -3.713255 -0.002524 -3.124238 -0.024449
    6 18.045725 0.000000 0.000000 0.000000 0.000000 -0.127551
    7 17.597597 0.000000 0.000000 0.002950 -0.017289 0.103055
    8 1.293670 0.684478 -0.000001 -0.000004 -0.000001 0.061853
    9 5.309685 -0.003834 0.000000 -0.219802 0.056232 0.245662
    10 4.826790 -0.004591 0.000000 -0.176762 0.043936 0.240325
    11 5.792767 -0.005304 0.000000 -0.206796 0.032658 0.153606
    12 6.662317 -0.001453 0.000000 0.000000 -0.000001 0.471000
    13 2.046985 -0.000002 0.000000 0.530480 -0.045615 -0.260908
    14 -3.112024 1.517254 4.341911 0.947404 -1.023372 1.798872
    15 4.827230 0.000000 0.000001 -0.351128 0.452183 -0.585361
    16 11.139763 0.000000 0.000000 0.000000 0.000000 -1.045513
    17 10.314597 0.000001 0.000000 -2.987507 -0.064640 0.326477
    18 2.975834 -0.386307 -0.044143 -0.023136 -0.036984 0.541211
    19 1.438886 0.000000 0.000000 0.000000 0.000000 0.784982
    20 1.485303 0.000000 0.000000 0.000000 0.000000 0.689056
    21 -2.869898 1.399663 -4.140396 -1.140616 0.711591 1.711531
    22 4.972048 0.000000 0.000001 0.460248 -0.383462 -1.008606
    23 11.585355 0.000000 0.000000 0.000000 0.000000 -0.911881
    24 10.127057 0.000000 0.000001 2.052614 0.054684 0.642320
    25 2.683750 -0.427338 0.044205 -0.005786 0.043239 -0.157091
    26 1.438885 -0.000001 0.000000 0.000000 0.000000 0.732658
    27 1.485305 0.000001 0.000000 0.000000 0.000000 1.168770
    28 1.646738 0.449549 -1.702246 0.154002 0.442277 0.277235
    29 0.928312 0.000000 -0.000002 0.000000 0.000000 0.000000
    30 0.928314 0.000000 0.000001 0.000000 0.000000 0.000000
    31 1.533672 0.109715 1.664491 -0.264755 -0.055959 0.783109
    32 0.928313 0.000000 0.000000 0.000000 0.000000 -0.453556
    33 0.928314 0.000000 0.000001 0.000000 0.000000 0.000000
  time 14
    0 0.235347 0.367732 3.528927 0.000000 0.000000 -1.570874
    1 0.000000 0.000000 0.000000 -1.570795 -1.570796 0.000000
    2 -0.000005 0.000007 3.713255 0.002054 3.115505 -0.021473
    3 18.045721 0.000000 0.000000 0.000000 0.000000 -0.121501
    4 17.597597 0.000000 0.000000 -0.002613 0.026036 0.099967
    5 0.000005 -0.000003 -3.713255 -0.002524 -3.124238 -0.024449
    6 18.045725 0.000000 0.000000 0.000000 0.000000 -0.127551
    7 17.597597 0.000000 0.000000 0.002950 -0.017289 0.103055
    8 1.293670 0.684478 -0.000001 -0.000004 -0.000001 0.061853
    9 5.309685 -0.003834 0.000000 -0.219765 0.056399 0.246423
    10 4.826790 -0.004591 0.000000 -0.177534 0.044127 0.240280
    11 5.792767 -0.005304 0.000000 -0.206796 0.032658 0.153606
    12 6.662317 -0.001453 0.000000 0.000000 -0.000001 0.471000
    13 2.046985 -0.000002 0.000000 0.531299 -0.045818 -0.261717
    14 -3.112024 1.517254 4.341911 0.942610 -1.021257 1.804433
    15 4.827230 0.000000 0.000001 -0.349659 0.448438 -0.584224
    16 11.139763 0.000000 0.000000 0.000000 0.000000 -1.045513
    17 10.314597 0.000001 0.000000 -2.987507 -0.064640 0.326477
    18 2.975834 -0.386307 -0.044143 -0.023136 -0.036984 0.541211
    19 1.438886 0.000000 0.000000 0.000000 0.000000 0.784982
    20 1.485303 0.000000 0.000000 0.000000 0.000000 0.689056
    21 -2.869898 1.399663 -4.140396 -1.139178 0.710828 1.713736
    22 4.972048 0.000000 0.000001 0.458159 -0.382094 -1.008738
    23 11.585355 0.000000 0.000000 0.000000 0.000000 -0.911881
    24 10.127057 0.000000 0.000001 2.052614 0.054684 0.642320
    25 2.683750 -0.427338 0.044205 -0.005786 0.043239 -0.157091
    26 1.438885 -0.000001 0.000000 0.000000 0.000000 0.732658
    27 1.485305 0.000001 0.000000 0.000000 0.000000 1.168770
    28 1.646738 0.449549 -1.702246 0.154002 0.442277 0.277235
    29 0.928312 0.000000 -0.000002 0.000000 0.000000 0.000000
    30 0.928314 0.000000 0.000001 0.000000 0.000000 0.000000
    31 1.533672 0.109715 1.664491 -0.264755 -0.055959 0.783109
    32 0.928313 0.000000 0.000000 0.000000 0.000000 -0.453556
    33 0.928314 0.000000 0.000001 0.000000 0.000000 0.000000
  time 15
    0 0.235347 0.367732 3.528927 0.000000 0.000000 -1.570874
    1 0.000000 0.000000 0.000000 -1.570795 -1.570796 0.000000
    2 -0.000005 0.000007 3.713255 0.002054 3.115505 -0.021473
    3 18.045721 0.000000 0.000000 0.000000 0.000000 -0.121501
    4 17.597597 0.000000 0.000000 -0.002613 0.026036 0.099967
    5 0.000005 -0.000003 -3.713255 -0.002524 -3.124238 -0.024449
    6 18.045725 0.000000 0.000000 0.000000 0.000000 -0.127551
    7 17.597597 0.000000 0.000000 0.002950 -0.017289 0.103055
    8 1.293670 0.684478 -0.000001 -0.000004 -0.000001 0.061853
    9 5.309685 -0.003834 0.000000 -0.219741 0.056459 0.246713
    10 4.826790 -0.004591 0.000000 -0.177813 0.044187 0.240280
    11 5.792767 -0.005304 0.000000 -0.206796 0.032658 0.153606
    12 6.662317 -0.001453 0.000000 0.000000 -0.000001 0.471000
    13 2.046985 -0.000002 0.000000 0.531557 -0.045863 -0.261987
    14 -3.112024 1.517254 4.341911 0.938967 -1.019603 1.808843
    15 4.827230 0.000000 0.000001 -0.348132 0.445800 -0.583436
    16 11.139763 0.000000 0.000000 0.000000 0.000000 -1.045513
    17 10.314597 0.000001 0.000000 -2.987507 -0.064640 0.326477
    18 2.975834 -0.386307 -0.044143 -0.023136 -0.036984 0.541211
    19 1.438886 0.000000 0.000000 0.000000 0.000000 0.784982
    20 1.485303 0.000000 0.000000 0.000000 0.000000 0.689056
    21 -2.869898 1.399663 -4.140396 -1.138603 0.710545 1.714503
    22 4.972048 0.000000 0.000001 0.457386 -0.381611 -1.008804
    23 11.585355 0.000000 0.000000 0.000000 0.000000 -0.911881
    24 10.127057 0.000000 0.000001 2.052614 0.054684 0.642320
    25 2.683750 -0.427338 0.044205 -0.005786 0.043239 -0.157091
    26 1.438885 -0.000001 0.000000 0.000000 0.000000 0.732658
    27 1.485305 0.000001 0.000000 0.000000 0.000000 1.168770
    28 1.646738 0.449549 -1.702246 0.154002 0.442277 0.277235
    29 0.928312 0.000000 -0.000002 0.000000 0.000000 0.000000
    30 0.928314 0.000000 0.000001 0.000000 0.000000 0.000000
    31 1.533672 0.109715 1.664491 -0.264755 -0.055959 0.783109
    32 0.928313 0.000000 0.000000 0.000000 0.000000 -0.453556
    33 0.928314 0.000000 0.000001 0.000000 0.000000 0.000000
  time 16
    0 0.235347 0.367732 3.528927 0.000000 0.000000 -1.570874
    1 0.000000 0.000000 0.000000 -1.570795 -1.570796 0.000000
    2 -0.000005 0.000007 3.713255 0.002054 3.115505 -0.021473
    3 18.045721 0.000000 0.000000 0.000000 0.000000 -0.121501
    4 17.597597 0.000000 0.000000 -0.002613 0.026036 0.099967
    5 0.000005 -0.000003 -3.713255 -0.002524 -3.124238 -0.024449
    6 18.045725 0.000000 0.000000 0.000000 0.000000 -0.127551
    7 17.597597 0.000000 0.000000 0.002950 -0.017289 0.103055
    8 1.293670 0.684478 -0.000001 -0.000004 -0.000001 0.061853
    9 5.309685 -0.003834 0.000000 -0.219765 0.056399 0.246423
    10 4.826790 -0.004591 0.000000 -0.177534 0.044127 0.240280
    11 5.792767 -0.005304 0.000000 -0.206796 0.032658 0.153606
    12 6.662317 -0.001453 0.000000 0.000000 -0.000001 0.471000
    13 2.046985 -0.000002 0.000000 0.531299 -0.045818 -0.261717
    14 -3.112024 1.517254 4.341911 0.934557 -1.017602 1.814021
    15 4.827230 0.000000 0.000001 -0.345841 0.443247 -0.582561
    16 11.139763 0.000000 0.000000 0.000000 0.000000 -1.045513
    17 10.314597 0.000001 0.000000 -2.987507 -0.064640 0.326477
    18 2.975834 -0.386307 -0.044143 -0.023136 -0.036984 0.541211
    19 1.438886 0.000000 0.000000 0.000000 0.000000 0.782697
    20 1.485303 0.000000 0.000000 0.000000 0.000000 0.689056
    21 -2.869898 1.399663 -4.140396 -1.139178 0.710828 1.713736
    22 4.972048 0.000000 0.000001 0.458159 -0.382094 -1.008738
    23 11.585355 0.000000 0.000000 0.000000 0.000000 -0.911881
    24 10.127057 0.000000 0.000001 2.052614 0.054684 0.642320
    25 2.683750 -0.427338 0.044205 -0.005786 0.043239 -0.157091
    26 1.438885 -0.000001 0.000000 0.000000 0.000000 0.732658
    27 1.485305 0.000001 0.000000 0.000000 0.000000 1.168770
    28 1.646738 0.449549 -1.702246 0.154002 0.442277 0.277235
    29 0.928312 0.000000 -0.000002 0.000000 0.000000 0.000000
    30 0.928314 0.000000 0.000001 0.000000 0.000000 0.000000
    31 1.533672 0.109715 1.664491 -0.264755 -0.055959 0.783109
    32 0.928313 0.000000 0.000000 0.000000 0.000000 -0.453556
    33 0.928314 0.000000 0.000001 0.000000 0.000000 0.000000
  time 17
    0 0.235347 0.367732 3.528927 0.000000 0.000000 -1.570874
    1 0.000000 0.000000 0.000000 -1.570795 -1.570796 0.000000
    2 -0.000005 0.000007 3.713255 0.002054 3.115505 -0.021473
    3 18.045721 0.000000 0.000000 0.000000 0.000000 -0.121501
    4 17.597597 0.000000 0.000000 -0.002613 0.026036 0.099967
    5 0.000005 -0.000003 -3.713255 -0.002524 -3.124238 -0.024449
    6 18.045725 0.000000 0.000000 0.000000 0.000000 -0.127551
    7 17.597597 0.000000 0.000000 0.002950 -0.017289 0.103055
    8 1.293670 0.684478 -0.000001 -0.000004 -0.000001 0.061853
    9 5.309685 -0.003834 0.000000 -0.219802 0.056232 0.245662
    10 4.826790 -0.004591 0.000000 -0.176762 0.043936 0.240325
    11 5.792767 -0.005304 0.000000 -0.206796 0.032658 0.153606
    12 6.662317 -0.001453 0.000000 0.000000 -0.000001 0.471000
    13 2.046985 -0.000002 0.000000 0.530480 -0.045615 -0.260908
    14 -3.112024 1.517254 4.341911 0.937146 -1.018795 1.810953
    15 4.827230 0.000000 0.000001 -0.346429 0.445715 -0.583349
    16 11.139763 0.000000 0.000000 0.000000 0.000000 -1.045513
    17 10.314597 0.000001 0.000000 -2.987507 -0.064640 0.326477
    18 2.975834 -0.386307 -0.044143 -0.023136 -0.036984 0.541211
    19 1.438886 0.000000 0.000000 0.000000 0.000000 0.777787
    20 1.485303 0.000000 0.000000 0.000000 0.000000 0.689056
    21 -2.869898 1.399663 -4.140396 -1.140616 0.711591 1.711531
    22 4.972048 0.000000 0.000001 0.460248 -0.383462 -1.008606
    23 11.585355 0.000000 0.000000 0.000000 0.000000 -0.911881
    24 10.127057 0.000000 0.000001 2.052614 0.054684 0.642320
    25 2.683750 -0.427338 0.044205 -0.005786 0.043239 -0.157091
    26 1.438885 -0.000001 0.000000 0.000000 0.000000 0.732658
    27 1.485305 0.000001 0.000000 0.000000 0.000000 1.168770
    28 1.646738 0.449549 -1.702246 0.154002 0.442277 0.277235
    29 0.928312 0.000000 -0.000002 0.000000 0.000000 0.000000
    30 0.928314 0.000000 0.000001 0.000000 0.000000 0.000000
    31 1.533672 0.109715 1.664491 -0.264755 -0.055959 0.783109
    32 0.928313 0.000000 0.000000 0.000000 0.000000 -0.453556
    33 0.928314 0.000000 0.000001 0.000000 0.000000 0.000000
  time 18
    0 0.235347 0.367732 3.528927 0.000000 0.000000 -1.570874
    1 0.000000 0.000000 0.000000 -1.570795 -1.570796 0.000000
    2 -0.000005 0.000007 3.713255 0.002054 3.115505 -0.021473
    3 18.045721 0.000000 0.000000 0.000000 0.000000 -0.121501
    4 17.597597 0.000000 0.000000 -0.002613 0.026036 0.099967
    5 0.000005 -0.000003 -3.713255 -0.002524 -3.124238 -0.024449
    6 18.045725 0.000000 0.000000 0.000000 0.000000 -0.127551
    7 17.597597 0.000000 0.000000 0.002950 -0.017289 0.103055
    8 1.293670 0.684478 -0.000001 -0.000004 -0.000001 0.061853
    9 5.309685 -0.003834 0.000000 -0.219875 0.055956 0.244449
    10 4.826790 -0.004591 0.000000 -0.175563 0.043636 0.240369
    11 5.792767 -0.005304 0.000000 -0.206796 0.032658 0.153606
    12 6.662317 -0.001453 0.000000 0.000000 -0.000001 0.471000
    13 2.046985 -0.000002 0.000000 0.529274 -0.045323 -0.259649
    14 -3.112024 1.517254 4.341911 0.944048 -1.021872 1.802899
    15 4.827230 0.000000 0.000001 -0.348543 0.451246 -0.585099
    16 11.139763 0.000000 0.000000 0.000000 0.000000 -1.045513
    17 10.314597 0.000001 0.000000 -2.987507 -0.064640 0.326477
    18 2.975834 -0.386307 -0.044143 -0.023136 -0.036984 0.541211
    19 1.438886 0.000000 0.000000 0.000000 0.000000 0.776264
    20 1.485303 0.000000 0.000000 0.000000 0.000000 0.689056
    21 -2.869898 1.399663 -4.140396 -1.142821 0.712806 1.708080
    22 4.972048 0.000000 0.000001 0.463497 -0.385714 -1.008277
    23 11.585355 0.000000 0.000000 0.000000 0.000000 -0.911881
    24 10.127057 0.000000 0.000001 2.052614 0.054684 0.642320
    25 2.683750 -0.427338 0.044205 -0.005786 0.043239 -0.157091
    26 1.438885 -0.000001 0.000000 0.000000 0.000000 0.732658
    27 1.485305 0.000001 0.000000 0.000000 0.000000 1.168770
    28 1.646738 0.449549 -1.702246 0.154002 0.442277 0.277235
    29 0.928312 0.000000 -0.000002 0.000000 0.000000 0.000000
    30 0.928314 0.000000 0.000001 0.000000 0.000000 0.000000
    31 1.533672 0.109715 1.664491 -0.264755 -0.055959 0.783109
    32 0.928313 0.000000 0.000000 0.000000 0.000000 -0.453556
    33 0.928314 0.000000 0.000001 0.000000 0.000000 0.000000
  time 19
    0 0.235347 0.367732 3.528927 0.000000 0.000000 -1.570874
    1 0.000000 0.000000 0.000000 -1.570795 -1.570796 0.000000
    2 -0.000005 0.000007 3.713255 0.002054 3.115505 -0.021473
    3 18.045721 0.000000 0.000000 0.000000 0.000000 -0.121501
    4 17.597597 0.000000 0.000000 -0.002613 0.026036 0.099967
    5 0.000005 -0.000003 -3.713255 -0.002524 -3.124238 -0.024449
    6 18.045725 0.000000 0.000000 0.000000 0.000000 -0.127551
    7 17.597597 0.000000 0.000000 0.002950 -0.017289 0.103055
    8 1.293670 0.684478 -0.000001 -0.000004 -0.000001 0.061853
    9 5.309685 -0.003834 0.000000 -0.219961 0.055609 0.242892
    10 4.826790 -0.004591 0.000000 -0.174003 0.043252 0.240435
    11 5.792767 -0.005304 0.000000 -0.206796 0.032658 0.153606
    12 6.662317 -0.001453 0.000000 0.000000 -0.000001 0.471000
    13 2.046985 -0.000002 0.000000 0.527680 -0.044940 -0.258031
    14 -3.112024 1.517254 4.341911 0.948746 -1.023949 1.797338
    15 4.827230 0.000000 0.000001 -0.349307 0.455757 -0.586499
    16 11.139763 0.000000 0.000000 0.000000 0.000000 -1.045513
    17 10.314597 0.000001 0.000000 -2.987507 -0.064640 0.326477
    18 2.975834 -0.386307 -0.044143 -0.023136 -0.036984 0.541211
    19 1.438886 0.000000 0.000000 0.000000 0.000000 0.776560
    20 1.485303 0.000000 0.000000 0.000000 0.000000 0.689056
    21 -2.869898 1.399663 -4.140396 -1.145793 0.714361 1.703574
    22 4.972048 0.000000 0.000001 0.467751 -0.388529 -1.007948
    23 11.585355 0.000000 0.000000 0.000000 0.000000 -0.911881
    24 10.127057 0.000000 0.000001 2.052614 0.054684 0.642320
    25 2.683750 -0.427338 0.044205 -0.005786 0.043239 -0.157091
    26 1.438885 -0.000001 0.000000 0.000000 0.000000 0.732658
    27 1.485305 0.000001 0.000000 0.000000 0.000000 1.168770
    28 1.646738 0.449549 -1.702246 0.154002 0.442277 0.277235
    29 0.928312 0.000000 -0.000002 0.000000 0.000000 0.000000
    30 0.928314 0.000000 0.000001 0.000000 0.000000 0.000000
    31 1.533672 0.109715 1.664491 -0.264755 -0.055959 0.783109
    32 0.928313 0.000000 0.000000 0.000000 0.000000 -0.453556
    33 0.928314 0.000000 0.000001 0.000000 0.000000 0.000000
  time 20
    0 0.235347 0.367732 3.528927 0.000000 0.000000 -1.570874
    1 0.000000 0.000000 0.000000 -1.570795 -1.570796 0.000000
    2 -0.000005 0.000007 3.713255 0.002054 3.115505 -0.021473
    3 18.045721 0.000000 0.000000 0.000000 0.000000 -0.121501
    4 17.597597 0.000000 0.000000 -0.002613 0.026036 0.099967
    5 0.000005 -0.000003 -3.713255 -0.002524 -3.124238 -0.024449
    6 18.045725 0.000000 0.000000 0.000000 0.000000 -0.127551
    7 17.597597 0.000000 0.000000 0.002950 -0.017289 0.103055
    8 1.293670 0.684478 -0.000001 -0.000004 -0.000001 0.061853
    9 5.309685 -0.003834 0.000000 -0.220059 0.055189 0.241026
    10 4.826790 -0.004591 0.000000 -0.172148 0.042797 0.240523
    11 5.792767 -0.005304 0.000000 -0.206796 0.032658 0.153606
    12 6.662317 -0.001453 0.000000 0.000000 -0.000001 0.471000
    13 2.046985 -0.000002 0.000000 0.525784 -0.044490 -0.256054
    14 -3.112024 1.517254 4.341911 0.954403 -1.026411 1.790723
    15 4.827230 0.000000 0.000001 -0.350305 0.461203 -0.588162
    16 11.139763 0.000000 0.000000 0.000000 0.000000 -1.045513
    17 10.314597 0.000001 0.000000 -2.987507 -0.064640 0.326477
    18 2.975834 -0.386307 -0.044143 -0.023136 -0.036984 0.541211
    19 1.438886 0.000000 0.000000 0.000000 0.000000 0.777279
    20 1.485303 0.000000 0.000000 0.000000 0.000000 0.689056
    21 -2.869898 1.399663 -4.140396 -1.149341 0.716169 1.698205
    22 4.972048 0.000000 0.000001 0.472857 -0.391908 -1.007552
    23 11.585355 0.000000 0.000000 0.000000 0.000000 -0.911881
    24 10.127057 0.000000 0.000001 2.052614 0.054684 0.642320
    25 2.683750 -0.427338 0.044205 -0.005786 0.043239 -0.157091
    26 1.438885 -0.000001 0.000000 0.000000 0.000000 0.732658
    27 1.485305 0.000001 0.000000 0.000000 0.000000 1.168770
    28 1.646738 0.449549 -1.702246 0.154002 0.442277 0.277235
    29 0.928312 0.000000 -0.000002 0.000000 0.000000 0.000000
    30 0.928314 0.000000 0.000001 0.000000 0.000000 0.000000
    31 1.533672 0.109715 1.664491 -0.264755 -0.055959 0.783109
    32 0.928313 0.000000 0.000000 0.000000 0.000000 -0.453556
    33 0.928314 0.000000 0.000001 0.000000 0.000000 0.000000
  time 21
    0 0.235347 0.367732 3.528927 0.000000 0.000000 -1.570874
    1 0.000000 0.000000 0.000000 -1.570795 -1.570796 0.000000
    2 -0.000005 0.000007 3.713255 0.002054 3.115505 -0.021473
    3 18.045721 0.000000 0.000000 0.000000 0.000000 -0.121501
    4 17.597597 0.000000 0.000000 -0.002613 0.026036 0.099967
    5 0.000005 -0.000003 -3.713255 -0.002524 -3.124238 -0.024449
    6 18.045725 0.000000 0.000000 0.000000 0.000000 -0.127551
    7 17.597597 0.000000 0.000000 0.002950 -0.017289 0.103055
    8 1.293670 0.684478 -0.000001 -0.000004 -0.000001 0.061853
    9 5.309685 -0.003834 0.000000 -0.220181 0.054734 0.238926
    10 4.826790 -0.004591 0.000000 -0.170079 0.042294 0.240611
    11 5.792767 -0.005304 0.000000 -0.206796 0.032658 0.153606
    12 6.662317 -0.001453 0.000000 0.000000 -0.000001 0.471000
    13 2.046985 -0.000002 0.000000 0.523630 -0.043972 -0.253896
    14 -3.112024 1.517254 4.341911 0.960251 -1.028911 1.783820
    15 4.827230 0.000000 0.000001 -0.351186 0.466905 -0.590000
    16 11.139763 0.000000 0.000000 0.000000 0.000000 -1.045513
    17 10.314597 0.000001 0.000000 -2.987507 -0.064640 0.326477
    18 2.975834 -0.386307 -0.044143 -0.023136 -0.036984 0.541211
    19 1.438886 0.000000 0.000000 0.000000 0.000000 0.778210
    20 1.485303 0.000000 0.000000 0.000000 0.000000 0.689056
    21 -2.869898 1.399663 -4.140396 -1.153271 0.718205 1.692069
    22 4.972048 0.000000 0.000001 0.478503 -0.395689 -1.007091
    23 11.585355 0.000000 0.000000 0.000000 0.000000 -0.911881
    24 10.127057 0.000000 0.000001 2.052614 0.054684 0.642320
    25 2.683750 -0.427338 0.044205 -0.005786 0.043239 -0.157091
    26 1.438885 -0.000001 0.000000 0.000000 0.000000 0.732658
    27 1.485305 0.000001 0.000000 0.000000 0.000000 1.168770
    28 1.646738 0.449549 -1.702246 0.154002 0.442277 0.277235
    29 0.928312 0.000000 -0.000002 0.000000 0.000000 0.000000
    30 0.928314 0.000000 0.000001 0.000000 0.000000 0.000000
    31 1.533672 0.109715 1.664491 -0.264755 -0.055959 0.783109
    32 0.928313 0.000000 0.000000 0.000000 0.000000 -0.453556
    33 0.928314 0.000000 0.000001 0.000000 0.000000 0.000000
  time 22
    0 0.235347 0.367732 3.528927 0.000000 0.000000 -1.570874
    1 0.000000 0.000000 0.000000 -1.570795 -1.570796 0.000000
    2 -0.000005 0.000007 3.713255 0.002054 3.115505 -0.021473
    3 18.045721 0.000000 0.000000 0.000000 0.000000 -0.121501
    4 17.597597 0.000000 0.000000 -0.002613 0.026036 0.099967
    5 0.000005 -0.000003 -3.713255 -0.002524 -3.124238 -0.024449
    6 18.045725 0.000000 0.000000 0.000000 0.000000 -0.127551
    7 17.597597 0.000000 0.000000 0.002950 -0.017289 0.103055
    8 1.293670 0.684478 -0.000001 -0.000004 -0.000001 0.061853
    9 5.309685 -0.003834 0.000000 -0.220304 0.054230 0.236680
    10 4.826790 -0.004591 0.000000 -0.167829 0.041742 0.240699
    11 5.792767 -0.005304 0.000000 -0.206796 0.032658 0.153606
    12 6.662317 -0.001453 0.000000 0.000000 -0.000001 0.471000
    13 2.046985 -0.000002 0.000000 0.521346 -0.043386 -0.251514
    14 -3.112024 1.517254 4.341911 0.966003 -1.031296 1.777204
    15 4.827230 0.000000 0.000001 -0.351833 0.472607 -0.591837
    16 11.139763 0.000000 0.000000 0.000000 0.000000 -1.045513
    17 10.314597 0.000001 0.000000 -2.987507 -0.064640 0.326477
    18 2.975834 -0.386307 -0.044143 -0.023136 -0.036984 0.541211
    19 1.438886 0.000000 0.000000 0.000000 0.000000 0.779142
    20 1.485303 0.000000 0.000000 0.000000 0.000000 0.689056
    21 -2.869898 1.399663 -4.140396 -1.157586 0.720381 1.685550
    22 4.972048 0.000000 0.000001 0.484614 -0.399791 -1.006696
    23 11.585355 0.000000 0.000000 0.000000 0.000000 -0.911881
    24 10.127057 0.000000 0.000001 2.052614 0.054684 0.642320
    25 2.683750 -0.427338 0.044205 -0.005786 0.043239 -0.157091
    26 1.438885 -0.000001 0.000000 0.000000 0.000000 0.732658
    27 1.485305 0.000001 0.000000 0.000000 0.000000 1.168770
    28 1.646738 0.449549 -1.702246 0.154002 0.442277 0.277235
    29 0.928312 0.000000 -0.000002 0.000000 0.000000 0.000000
    30 0.928314 0.000000 0.000001 0.000000 0.000000 0.000000
    31 1.533672 0.109715 1.664491 -0.264755 -0.055959 0.783109
    32 0.928313 0.000000 0.000000 0.000000 0.000000 -0.453556
    33 0.928314 0.000000 0.000001 0.000000 0.000000 0.000000
  time 23
    0 0.235347 0.367732 3.528927 0.000000 0.000000 -1.570874
    1 0.000000 0.000000 0.000000 -1.570795 -1.570796 0.000000
    2 -0.000005 0.000007 3.713255 0.002054 3.115505 -0.021473
    3 18.045721 0.000000 0.000000 0.000000 0.000000 -0.121501
    4 17.597597 0.000000 0.000000 -0.002613 0.026036 0.099967
    5 0.000005 -0.000003 -3.713255 -0.002524 -3.124238 -0.024449
    6 18.045725 0.000000 0.000000 0.000000 0.000000 -0.127551
    7 17.597597 0.000000 0.000000 0.002950 -0.017289 0.103055
    8 1.293670 0.684478 -0.000001 -0.000004 -0.000001 0.061853
    9 5.309685 -0.003834 0.000000 -0.220426 0.053703 0.234344
    10 4.826790 -0.004591 0.000000 -0.165514 0.041167 0.240788
    11 5.792767 -0.005304 0.000000 -0.206796 0.032658 0.153606
    12 6.662317 -0.001453 0.000000 0.000000 -0.000001 0.471000
    13 2.046985 -0.000002 0.000000 0.518977 -0.042801 -0.249087
    14 -3.112024 1.517254 4.341911 0.971372 -1.033489 1.770876
    15 4.827230 0.000000 0.000001 -0.352244 0.478223 -0.593675
    16 11.139763 0.000000 0.000000 0.000000 0.000000 -1.045513
    17 10.314597 0.000001 0.000000 -2.987507 -0.064640 0.326477
    18 2.975834 -0.386307 -0.044143 -0.023136 -0.036984 0.541211
    19 1.438886 0.000000 0.000000 0.000000 0.000000 0.780073
    20 1.485303 0.000000 0.000000 0.000000 0.000000 0.689056
    21 -2.869898 1.399663 -4.140396 -1.162092 0.722614 1.678743
    22 4.972048 0.000000 0.000001 0.491035 -0.404135 -1.006301
    23 11.585355 0.000000 0.000000 0.000000 0.000000 -0.911881
    24 10.127057 0.000000 0.000001 2.052614 0.054684 0.642320
    25 2.683750 -0.427338 0.044205 -0.005786 0.043239 -0.157091
    26 1.438885 -0.000001 0.000000 0.000000 0.000000 0.732658
    27 1.485305 0.000001 0.000000 0.000000 0.000000 1.168770
    28 1.646738 0.449549 -1.702246 0.154002 0.442277 0.277235
    29 0.928312 0.000000 -0.000002 0.000000 0.000000 0.000000
    30 0.928314 0.000000 0.000001 0.000000 0.000000 0.000000
    31 1.533672 0.109715 1.664491 -0.264755 -0.055959 0.783109
    32 0.928313 0.000000 0.000000 0.000000 0.000000 -0.453556
    33 0.928314 0.000000 0.000001 0.000000 0.000000 0.000000
  time 24
    0 0.235347 0.367732 3.528927 0.000000 0.000000 -1.570874
    1 0.000000 0.000000 0.000000 -1.570795 -1.570796 0.000000
    2 -0.000005 0.000007 3.713255 0.002054 3.115505 -0.021473
    3 18.045721 0.000000 0.000000 0.000000 0.000000 -0.121501
    4 17.597597 0.000000 0.000000 -0.002613 0.026036 0.099967
    5 0.000005 -0.000003 -3.713255 -0.002524 -3.124238 -0.024449
    6 18.045725 0.000000 0.000000 0.000000 0.000000 -0.127551
    7 17.597597 0.000000 0.000000 0.002950 -0.017289 0.103055
    8 1.293670 0.684478 -0.000001 -0.000004 -0.000001 0.061853
    9 5.309685 -0.003834 0.000000 -0.220549 0.053176 0.231972
    10 4.826790 -0.004591 0.000000 -0.163150 0.040592 0.240898
    11 5.792767 -0.005304 0.000000 -0.206796 0.032658 0.153606
    12 6.662317 -0.001453 0.000000 0.000000 -0.000001 0.471000
    13 2.046985 -0.000002 0.000000 0.516607 -0.042171 -0.246615
    14 -3.112024 1.517254 4.341911 0.976358 -1.035527 1.765124
    15 4.827230 0.000000 0.000001 -0.352420 0.483585 -0.595425
    16 11.139763 0.000000 0.000000 0.000000 0.000000 -1.045513
    17 10.314597 0.000001 0.000000 -2.987507 -0.064640 0.326477
    18 2.975834 -0.386307 -0.044143 -0.023136 -0.036984 0.541211
    19 1.438886 0.000000 0.000000 0.000000 0.000000 0.780962
    20 1.485303 0.000000 0.000000 0.000000 0.000000 0.689056
    21 -2.869898 1.399663 -4.140396 -1.166694 0.724847 1.671840
    22 4.972048 0.000000 0.000001 0.497455 -0.408479 -1.005906
    23 11.585355 0.000000 0.000000 0.000000 0.000000 -0.911881
    24 10.127057 0.000000 0.000001 2.052614 0.054684 0.642320
    25 2.683750 -0.427338 0.044205 -0.005786 0.043239 -0.157091
    26 1.438885 -0.000001 0.000000 0.000000 0.000000 0.732658
    27 1.485305 0.000001 0.000000 0.000000 0.000000 1.168770
    28 1.646738 0.449549 -1.702246 0.154002 0.442277 0.277235
    29 0.928312 0.000000 -0.000002 0.000000 0.000000 0.000000
    30 0.928314 0.000000 0.000001 0.000000 0.000000 0.000000
    31 1.533672 0.109715 1.664491 -0.264755 -0.055959 0.783109
    32 0.928313 0.000000 0.000000 0.000000 0.000000 -0.453556
    33 0.928314 0.000000 0.000001 0.000000 0.000000 0.000000
  time 25
    0 0.235347 0.367732 3.528927 0.000000 0.000000 -1.570874
    1 0.000000 0.000000 0.000000 -1.570795 -1.570796 0.000000
    2 -0.000005 0.000007 3.713255 0.002054 3.115505 -0.021473
    3 18.045721 0.000000 0.000000 0.000000 0.000000 -0.121501
    4 17.597597 0.000000 0.000000 -0.002613 0.026036 0.099967
    5 0.000005 -0.000003 -3.713255 -0.002524 -3.124238 -0.024449
    6 18.045725 0.000000 0.000000 0.000000 0.000000 -0.127551
    7 17.597597 0.000000 0.000000 0.002950 -0.017289 0.103055
    8 1.293670 0.684478 -0.000001 -0.000004 -0.000001 0.061853
    9 5.309685 -0.003834 0.000000 -0.220671 0.052648 0.229654
    10 4.826790 -0.004591 0.000000 -0.160851 0.040017 0.240986
    11 5.792767 -0.005304 0.000000 -0.206796 0.032658 0.153606
    12 6.662317 -0.001453 0.000000 0.000000 -0.000001 0.471000
    13 2.046985 -0.000002 0.000000 0.514281 -0.041540 -0.244187
    14 -3.112024 1.517254 4.341911 0.980960 -1.037374 1.759755
    15 4.827230 0.000000 0.000001 -0.352479 0.488606 -0.597088
    16 11.139763 0.000000 0.000000 0.000000 0.000000 -1.045513
    17 10.314597 0.000001 0.000000 -2.987507 -0.064640 0.326477
    18 2.975834 -0.386307 -0.044143 -0.023136 -0.036984 0.541211
    19 1.438886 0.000000 0.000000 0.000000 0.000000 0.781808
    20 1.485303 0.000000 0.000000 0.000000 0.000000 0.689056
    21 -2.869898 1.399663 -4.140396 -1.171200 0.726995 1.665033
    22 4.972048 0.000000 0.000001 0.503798 -0.412742 -1.005510
    23 11.585355 0.000000 0.000000 0.000000 0.000000 -0.911881
    24 10.127057 0.000000 0.000001 2.052614 0.054684 0.642320
    25 2.683750 -0.427338 0.044205 -0.005786 0.043239 -0.157091
    26 1.438885 -0.000001 0.000000 0.000000 0.000000 0.732658
    27 1.485305 0.000001 0.000000 0.000000 0.000000 1.168770
    28 1.646738 0.449549 -1.702246 0.154002 0.442277 0.277235
    29 0.928312 0.000000 -0.000002 0.000000 0.000000 0.000000
    30 0.928314 0.000000 0.000001 0.000000 0.000000 0.000000
    31 1.533672 0.109715 1.664491 -0.264755 -0.055959 0.783109
    32 0.928313 0.000000 0.000000 0.000000 0.000000 -0.453556
    33 0.928314 0.000000 0.000001 0.000000 0.000000 0.000000
  time 26
    0 0.235347 0.367732 3.528927 0.000000 0.000000 -1.570874
    1 0.000000 0.000000 0.000000 -1.570795 -1.570796 0.000000
    2 -0.000005 0.000007 3.713255 0.002054 3.115505 -0.021473
    3 18.045721 0.000000 0.000000 0.000000 0.000000 -0.121501
    4 17.597597 0.000000 0.000000 -0.002613 0.026036 0.099967
    5 0.000005 -0.000003 -3.713255 -0.002524 -3.124238 -0.024449
    6 18.045725 0.000000 0.000000 0.000000 0.000000 -0.127551
    7 17.597597 0.000000 0.000000 0.002950 -0.017289 0.103055
    8 1.293670 0.684478 -0.000001 -0.000004 -0.000001 0.061853
    9 5.309685 -0.003834 0.000000 -0.220793 0.052157 0.227445
    10 4.826790 -0.004591 0.000000 -0.158667 0.039477 0.241074
    11 5.792767 -0.005304 0.000000 -0.206796 0.032658 0.153606
    12 6.662317 -0.001453 0.000000 0.000000 -0.000001 0.471000
    13 2.046985 -0.000002 0.000000 0.512040 -0.040955 -0.241850
    14 -3.112024 1.517254 4.341911 0.985274 -1.039028 1.754769
    15 4.827230 0.000000 0.000001 -0.352479 0.493286 -0.598576
    16 11.139763 0.000000 0.000000 0.000000 0.000000 -1.045513
    17 10.314597 0.000001 0.000000 -2.987507 -0.064640 0.326477
    18 2.975834 -0.386307 -0.044143 -0.023136 -0.036984 0.541211
    19 1.438886 0.000000 0.000000 0.000000 0.000000 0.782570
    20 1.485303 0.000000 0.000000 0.000000 0.000000 0.689056
    21 -2.869898 1.399663 -4.140396 -1.175514 0.729030 1.658514
    22 4.972048 0.000000 0.000001 0.509832 -0.416845 -1.005247
    23 11.585355 0.000000 0.000000 0.000000 0.000000 -0.911881
    24 10.127057 0.000000 0.000001 2.052614 0.054684 0.642320
    25 2.683750 -0.427338 0.044205 -0.005786 0.043239 -0.157091
    26 1.438885 -0.000001 0.000000 0.000000 0.000000 0.732658
    27 1.485305 0.000001 0.000000 0.000000 0.000000 1.168770
    28 1.646738 0.449549 -1.702246 0.154002 0.442277 0.277235
    29 0.928312 0.000000 -0.000002 0.000000 0.000000 0.000000
    30 0.928314 0.000000 0.000001 0.000000 0.000000 0.000000
    31 1.533672 0.109715 1.664491 -0.264755 -0.055959 0.783109
    32 0.928313 0.000000 0.000000 0.000000 0.000000 -0.453556
    33 0.928314 0.000000 0.000001 0.000000 0.000000 0.000000
  time 27
    0 0.235347 0.367732 3.528927 0.000000 0.000000 -1.570874
    1 0.000000 0.000000 0.000000 -1.570795 -1.570796 0.000000
    2 -0.000005 0.000007 3.713255 0.002054 3.115505 -0.021473
    3 18.045721 0.000000 0.000000 0.000000 0.000000 -0.121501
    4 17.597597 0.000000 0.000000 -0.002613 0.026036 0.099967
    5 0.000005 -0.000003 -3.713255 -0.002524 -3.124238 -0.024449
    6 18.045725 0.000000 0.000000 0.000000 0.000000 -0.127551
    7 17.597597 0.000000 0.000000 0.002950 -0.017289 0.103055
    8 1.293670 0.684478 -0.000001 -0.000004 -0.000001 0.061853
    9 5.309685 -0.003834 0.000000 -0.220891 0.051702 0.225435
    10 4.826790 -0.004591 0.000000 -0.156647 0.038986 0.241140
    11 5.792767 -0.005304 0.000000 -0.206796 0.032658 0.153606
    12 6.662317 -0.001453 0.000000 0.000000 -0.000001 0.471000
    13 2.046985 -0.000002 0.000000 0.510016 -0.040392 -0.239738
    14 -3.112024 1.517254 4.341911 0.989301 -1.040605 1.750167
    15 4.827230 0.000000 0.000001 -0.352479 0.497711 -0.600063
    16 11.139763 0.000000 0.000000 0.000000 0.000000 -1.045513
    17 10.314597 0.000001 0.000000 -2.987507 -0.064640 0.326477
    18 2.975834 -0.386307 -0.044143 -0.023136 -0.036984 0.541211
    19 1.438886 0.000000 0.000000 0.000000 0.000000 0.783289
    20 1.485303 0.000000 0.000000 0.000000 0.000000 0.689056
    21 -2.869898 1.399663 -4.140396 -1.179541 0.730895 1.652569
    22 4.972048 0.000000 0.000001 0.515324 -0.420625 -1.004983
    23 11.585355 0.000000 0.000000 0.000000 0.000000 -0.911881
    24 10.127057 0.000000 0.000001 2.052614 0.054684 0.642320
    25 2.683750 -0.427338 0.044205 -0.005786 0.043239 -0.157091
    26 1.438885 -0.000001 0.000000 0.000000 0.000000 0.732658
    27 1.485305 0.000001 0.000000 0.000000 0.000000 1.168770
    28 1.646738 0.449549 -1.702246 0.154002 0.442277 0.277235
    29 0.928312 0.000000 -0.000002 0.000000 0.000000 0.000000
    30 0.928314 0.000000 0.000001 0.000000 0.000000 0.000000
    31 1.533672 0.109715 1.664491 -0.264755 -0.055959 0.783109
    32 0.928313 0.000000 0.000000 0.000000 0.000000 -0.453556
    33 0.928314 0.000000 0.000001 0.000000 0.000000 0.000000
  time 28
    0 0.235347 0.367732 3.528927 0.000000 0.000000 -1.570874
    1 0.000000 0.000000 0.000000 -1.570795 -1.570796 0.000000
    2 -0.000005 0.000007 3.713255 0.002054 3.115505 -0.021473
    3 18.045721 0.000000 0.000000 0.000000 0.000000 -0.121501
    4 17.597597 0.000000 0.000000 -0.002613 0.026036 0.099967
    5 0.000005 -0.000003 -3.713255 -0.002524 -3.124238 -0.024449
    6 18.045725 0.000000 0.000000 0.000000 0.000000 -0.127551
    7 17.597597 0.000000 0.000000 0.002950 -0.017289 0.103055
    8 1.293670 0.684478 -0.000001 -0.000004 -0.000001 0.061853
    9 5.309685 -0.003834 0.000000 -0.220989 0.051306 0.223660
    10 4.826790 -0.004591 0.000000 -0.154890 0.038554 0.241229
    11 5.792767 -0.005304 0.000000 -0.206796 0.032658 0.153606
    12 6.662317 -0.001453 0.000000 0.000000 -0.000001 0.471000
    13 2.046985 -0.000002 0.000000 0.508249 -0.039897 -0.237895
    14 -3.112024 1.517254 4.341911 0.992944 -1.041990 1.745853
    15 4.827230 0.000000 0.000001 -0.352596 0.501541 -0.601376
    16 11.139763 0.000000 0.000000 0.000000 0.000000 -1.045513
    17 10.314597 0.000001 0.000000 -2.987507 -0.064640 0.326477
    18 2.975834 -0.386307 -0.044143 -0.023136 -0.036984 0.541211
    19 1.438886 0.000000 0.000000 0.000000 0.000000 0.783967
    20 1.485303 0.000000 0.000000 0.000000 0.000000 0.689056
    21 -2.869898 1.399663 -4.140396 -1.183088 0.732506 1.647296
    22 4.972048 0.000000 0.000001 0.520198 -0.424004 -1.004786
    23 11.585355 0.000000 0.000000 0.000000 0.000000 -0.911881
    24 10.127057 0.000000 0.000001 2.052614 0.054684 0.642320
    25 2.683750 -0.427338 0.044205 -0.005786 0.043239 -0.157091
    26 1.438885 -0.000001 0.000000 0.000000 0.000000 0.732658
    27 1.485305 0.000001 0.000000 0.000000 0.000000 1.168770
    28 1.646738 0.449549 -1.702246 0.154002 0.442277 0.277235
    29 0.928312 0.000000 -0.000002 0.000000 0.000000 0.000000
    30 0.928314 0.000000 0.000001 0.000000 0.000000 0.000000
    31 1.533672 0.109715 1.664491 -0.264755 -0.055959 0.783109
    32 0.928313 0.000000 0.000000 0.000000 0.000000 -0.453556
    33 0.928314 0.000000 0.000001 0.000000 0.000000 0.000000
  time 29
    0 0.235347 0.367732 3.528927 0.000000 0.000000 -1.570874
    1 0.000000 0.000000 0.000000 -1.570795 -1.570796 0.000000
    2 -0.000005 0.000007 3.713255 0.002054 3.115505 -0.021473
    3 18.045721 0.000000 0.000000 0.000000 0.000000 -0.121501
    4 17.597597 0.000000 0.000000 -0.002613 0.026036 0.099967
    5 0.000005 -0.000003 -3.713255 -0.002524 -3.124238 -0.024449
    6 18.045725 0.000000 0.000000 0.000000 0.000000 -0.127551
    7 17.597597 0.000000 0.000000 0.002950 -0.017289 0.103055
    8 1.293670 0.684478 -0.000001 -0.000004 -0.000001 0.061853
    9 5.309685 -0.003834 0.000000 -0.221063 0.050982 0.222193
    10 4.826790 -0.004591 0.000000 -0.153445 0.038195 0.241273
    11 5.792767 -0.005304 0.000000 -0.206796 0.032658 0.153606
    12 6.662317 -0.001453 0.000000 0.000000 -0.000001 0.471000
    13 2.046985 -0.000002 0.000000 0.506784 -0.039491 -0.236367
    14 -3.112024 1.517254 4.341911 0.996299 -1.043259 1.741922
    15 4.827230 0.000000 0.000001 -0.352831 0.504945 -0.602514
    16 11.139763 0.000000 0.000000 0.000000 0.000000 -1.045513
    17 10.314597 0.000001 0.000000 -2.987507 -0.064640 0.326477
    18 2.975834 -0.386307 -0.044143 -0.023136 -0.036984 0.541211
    19 1.438886 0.000000 0.000000 0.000000 0.000000 0.784517
    20 1.485303 0.000000 0.000000 0.000000 0.000000 0.689056
    21 -2.869898 1.399663 -4.140396 -1.185964 0.733806 1.642982
    22 4.972048 0.000000 0.000001 0.524143 -0.426658 -1.004654
    23 11.585355 0.000000 0.000000 0.000000 0.000000 -0.911881
    24 10.127057 0.000000 0.000001 2.052614 0.054684 0.642320
    25 2.683750 -0.427338 0.044205 -0.005786 0.043239 -0.157091
    26 1.438885 -0.000001 0.000000 0.000000 0.000000 0.732658
    27 1.485305 0.000001 0.000000 0.000000 0.000000 1.168770
    28 1.646738 0.449549 -1.702246 0.154002 0.442277 0.277235
    29 0.928312 0.000000 -0.000002 0.000000 0.000000 0.000000
    30 0.928314 0.000000 0.000001 0.000000 0.000000 0.000000
    31 1.533672 0.109715 1.664491 -0.264755 -0.055959 0.783109
    32 0.928313 0.000000 0.000000 0.000000 0.000000 -0.453556
    33 0.928314 0.000000 0.000001 0.000000 0.000000 0.000000
  time 30
    0 0.235347 0.367732 3.528927 0.000000 0.000000 -1.570874
    1 0.000000 0.000000 0.000000 -1.570795 -1.570796 0.000000
    2 -0.000005 0.000007 3.713255 0.002054 3.115505 -0.021473
    3 18.045721 0.000000 0.000000 0.000000 0.000000 -0.121501
    4 17.597597 0.000000 0.000000 -0.002613 0.026036 0.099967
    5 0.000005 -0.000003 -3.713255 -0.002524 -3.124238 -0.024449
    6 18.045725 0.000000 0.000000 0.000000 0.000000 -0.127551
    7 17.597597 0.000000 0.000000 0.002950 -0.017289 0.103055
    8 1.293670 0.684478 -0.000001 -0.000004 -0.000001 0.061853
    9 5.309685 -0.003834 0.000000 -0.221112 0.050743 0.221143
    10 4.826790 -0.004591 0.000000 -0.152378 0.037931 0.241317
    11 5.792767 -0.005304 0.000000 -0.206796 0.032658 0.153606
    12 6.662317 -0.001453 0.000000 0.000000 -0.000001 0.471000
    13 2.046985 -0.000002 0.000000 0.505707 -0.039199 -0.235243
    14 -3.112024 1.517254 4.341911 0.999080 -1.044298 1.738758
    15 4.827230 0.000000 0.000001 -0.353125 0.507583 -0.603389
    16 11.139763 0.000000 0.000000 0.000000 0.000000 -1.045513
    17 10.314597 0.000001 0.000000 -2.987507 -0.064640 0.326477
    18 2.975834 -0.386307 -0.044143 -0.023136 -0.036984 0.541211
    19 1.438886 0.000000 0.000000 0.000000 0.000000 0.784982
    20 1.485303 0.000000 0.000000 0.000000 0.000000 0.689056
    21 -2.869898 1.399663 -4.140396 -1.188073 0.734767 1.639722
    22 4.972048 0.000000 0.000001 0.527082 -0.428669 -1.004588
    23 11.585355 0.000000 0.000000 0.000000 0.000000 -0.911881
    24 10.127057 0.000000 0.000001 2.052614 0.054684 0.642320
    25 2.683750 -0.427338 0.044205 -0.005786 0.043239 -0.157091
    26 1.438885 -0.000001 0.000000 0.000000 0.000000 0.732658
    27 1.485305 0.000001 0.000000 0.000000 0.000000 1.168770
    28 1.646738 0.449549 -1.702246 0.154002 0.442277 0.277235
    29 0.928312 0.000000 -0.000002 0.000000 0.000000 0.000000
    30 0.928314 0.000000 0.000001 0.000000 0.000000 0.000000
    31 1.533672 0.109715 1.664491 -0.264755 -0.055959 0.783109
    32 0.928313 0.000000 0.000000 0.000000 0.000000 -0.453556
    33 0.928314 0.000000 0.000001 0.000000 0.000000 0.000000
end
