version 1
nodes
  0 "Bip01" -1
  1 "Bip01 Pelvis" 0
  2 "Bip01 L Leg" 1
  3 "Bip01 L Leg1" 2
  4 "Bip01 L Foot" 3
  5 "Bip01 R Leg" 1
  6 "Bip01 R Leg1" 5
  7 "Bip01 R Foot" 6
  8 "Bip01 Spine" 1
  9 "Bip01 Spine1" 8
  10 "Bip01 Spine2" 9
  11 "Bip01 Spine3" 10
  12 "Bip01 Neck" 11
  13 "Bip01 Head" 12
  14 "Bip01 L Arm" 12
  15 "Bip01 L Arm1" 14
  16 "Bip01 L Arm2" 15
  17 "Bip01 L Hand" 16
  18 "Bip01 L Finger1" 17
  19 "Bip01 L Finger11" 18
  20 "Bip01 L Finger12" 19
  21 "Bip01 R Arm" 12
  22 "Bip01 R Arm1" 21
  23 "Bip01 R Arm2" 22
  24 "Bip01 R Hand" 23
  25 "Bip01 R Finger1" 24
  26 "Bip01 R Finger11" 25
  27 "Bip01 R Finger12" 26
  28 "Bip01 L Finger0" 17
  29 "Bip01 L Finger01" 28
  30 "Bip01 L Finger02" 29
  31 "Bip01 R Finger0" 24
  32 "Bip01 R Finger01" 31
  33 "Bip01 R Finger02" 32
end
skeleton
  time 0
    0 0.235347 0.367732 3.442987 0.000000 0.000000 -1.570874
    1 0.000000 0.000000 0.000000 -1.570795 -1.570796 0.000000
    2 -0.000005 0.000007 3.713255 0.002054 3.115505 -0.021473
    3 18.045721 0.000000 0.000000 0.000000 0.000000 -0.121501
    4 17.597597 0.000000 0.000000 -0.002613 0.026036 0.099967
    5 0.000005 -0.000003 -3.713255 -0.002524 -3.124238 -0.024449
    6 18.045725 0.000000 0.000000 0.000000 0.000000 -0.127551
    7 17.597597 0.000000 0.000000 0.002950 -0.017289 0.103055
    8 1.293670 0.684478 -0.000001 -0.000004 -0.000001 -0.130033
    9 5.309685 -0.003834 0.000000 -0.156777 0.008293 0.051679
    10 4.826790 -0.004591 0.000000 -0.287811 -0.002241 -0.008410
    11 5.792767 -0.005304 0.000000 -0.156602 0.011026 0.068894
    12 6.662317 -0.001453 0.000000 -0.000144 -0.183162 0.165737
    13 2.046985 -0.000002 0.000000 0.489594 0.328088 -0.515402
    14 -2.576851 0.513317 4.892709 1.549295 -1.223472 1.490535
    15 4.827230 0.000000 0.000001 -0.109545 1.291701 -0.809915
    16 11.139763 0.000000 0.000000 0.000000 0.000000 -1.805809
    17 10.314597 0.000001 0.000000 -1.657094 -0.276301 -0.099925
    18 2.975834 -0.386307 -0.044143 -0.021506 -0.037954 0.497588
    19 1.438886 0.000000 0.000000 0.000000 0.000000 0.889650
    20 1.485303 0.000000 0.000000 0.000000 0.000000 1.116422
    21 -3.858209 0.473853 -3.499752 0.080712 1.188972 3.052700
    22 4.972048 0.000000 0.000001 -0.765979 -0.808431 0.341846
    23 11.585355 0.000000 0.000000 0.000000 0.000000 -2.147739
    24 10.127057 0.000000 0.000001 1.569752 0.000000 -0.069778
    25 2.683750 -0.427338 0.044205 -0.005786 0.043239 -0.157091
    26 1.438885 -0.000001 0.000000 0.000000 0.000000 0.732658
    27 1.485305 0.000001 0.000000 0.000000 0.000000 1.168770
    28 1.646738 0.449549 -1.702246 0.441914 0.155087 1.184542
    29 0.928312 0.000000 -0.000002 0.000000 0.000000 0.000000
    30 0.928314 0.000000 0.000001 0.000000 0.000000 0.000000
    31 1.533672 0.109715 1.664491 -0.264755 -0.055959 0.783109
    32 0.928313 0.000000 0.000000 0.000000 0.000000 -0.453556
    33 0.928314 0.000000 0.000001 0.000000 0.000000 0.000000
  time 1
    0 0.235347 0.367732 3.442987 0.000000 0.000000 -1.570874
    1 0.000000 0.000000 0.000000 -1.570795 -1.570796 0.000000
    2 -0.000005 0.000007 3.713255 0.002054 3.115505 -0.021473
    3 18.045721 0.000000 0.000000 0.000000 0.000000 -0.121501
    4 17.597597 0.000000 0.000000 -0.002613 0.026036 0.099967
    5 0.000005 -0.000003 -3.713255 -0.002524 -3.124238 -0.024449
    6 18.045725 0.000000 0.000000 0.000000 0.000000 -0.127551
    7 17.597597 0.000000 0.000000 0.002950 -0.017289 0.103055
    8 1.293670 0.684478 -0.000001 -0.000004 -0.000001 -0.130033
    9 5.309685 -0.003834 0.000000 -0.156777 0.008293 0.051679
    10 4.826790 -0.004591 0.000000 -0.081493 -0.000324 -0.004772
    11 5.792767 -0.005304 0.000000 -0.156602 0.011026 0.068894
    12 6.662317 -0.001453 0.000000 -0.000144 -0.183162 0.165737
    13 2.046985 -0.000002 0.000000 0.285510 0.268896 -0.542955
    14 -2.576851 0.513317 4.892709 1.549295 -1.223472 1.490535
    15 4.827230 0.000000 0.000001 0.116766 1.182517 -0.045505
    16 11.139763 0.000000 0.000000 0.000000 0.000000 -1.805809
    17 10.314597 0.000001 0.000000 -1.657094 -0.276301 -0.099925
    18 2.975834 -0.386307 -0.044143 -0.021506 -0.037954 0.497588
    19 1.438886 0.000000 0.000000 0.000000 0.000000 0.889650
    20 1.485303 0.000000 0.000000 0.000000 0.000000 1.116422
    21 -3.858209 0.473853 -3.499752 -0.342664 1.167378 2.630955
    22 4.972048 0.000000 0.000001 0.139690 -0.974220 -0.311412
    23 11.585355 0.000000 0.000000 0.000000 0.000000 -1.761368
    24 10.127057 0.000000 0.000001 2.089625 0.120197 0.132782
    25 2.683750 -0.427338 0.044205 -0.010209 0.042413 -0.260352
    26 1.438885 -0.000001 0.000000 0.000000 0.000000 0.546958
    27 1.485305 0.000001 0.000000 0.000000 0.000000 0.697163
    28 1.646738 0.449549 -1.702246 0.441914 0.155087 1.184542
    29 0.928312 0.000000 -0.000002 0.000000 0.000000 0.000000
    30 0.928314 0.000000 0.000001 0.000000 0.000000 0.000000
    31 1.533672 0.109715 1.664491 -0.264755 -0.055959 0.783109
    32 0.928313 0.000000 0.000000 0.000000 0.000000 -0.453556
    33 0.928314 0.000000 0.000001 0.000000 0.000000 0.000000
  time 2
    0 0.235347 0.367732 3.442987 0.000000 0.000000 -1.570874
    1 0.000000 0.000000 0.000000 -1.570795 -1.570796 0.000000
    2 -0.000005 0.000007 3.713255 0.002054 3.115505 -0.021473
    3 18.045721 0.000000 0.000000 0.000000 0.000000 -0.121501
    4 17.597597 0.000000 0.000000 -0.002613 0.026036 0.099967
    5 0.000005 -0.000003 -3.713255 -0.002524 -3.124238 -0.024449
    6 18.045725 0.000000 0.000000 0.000000 0.000000 -0.127551
    7 17.597597 0.000000 0.000000 0.002950 -0.017289 0.103055
    8 1.293670 0.684478 -0.000001 -0.000004 -0.000001 -0.130033
    9 5.309685 -0.003834 0.000000 -0.156777 0.008293 0.051679
    10 4.826790 -0.004591 0.000000 0.189931 -0.000671 0.002725
    11 5.792767 -0.005304 0.000000 -0.156602 0.011026 0.068894
    12 6.662317 -0.001453 0.000000 -0.000144 -0.183162 0.165737
    13 2.046985 -0.000002 0.000000 0.023136 0.186514 -0.561653
    14 -2.576851 0.513317 4.892709 1.549295 -1.223472 1.490535
    15 4.827230 0.000000 0.000001 0.331271 0.941001 0.396077
    16 11.139763 0.000000 0.000000 0.000000 0.000000 -1.805809
    17 10.314597 0.000001 0.000000 -1.657094 -0.276301 -0.099925
    18 2.975834 -0.386307 -0.044143 -0.021506 -0.037954 0.497588
    19 1.438886 0.000000 0.000000 0.000000 0.000000 0.889650
    20 1.485303 0.000000 0.000000 0.000000 0.000000 1.116422
    21 -3.858209 0.473853 -3.499752 -0.755781 1.054039 2.220042
    22 4.972048 0.000000 0.000001 0.916254 -0.454089 -0.756446
    23 11.585355 0.000000 0.000000 0.000000 0.000000 -1.241518
    24 10.127057 0.000000 0.000001 2.793278 0.096347 0.440623
    25 2.683750 -0.427338 0.044205 -0.015853 0.040651 -0.396183
    26 1.438885 -0.000001 0.000000 0.000000 0.000000 0.302697
    27 1.485305 0.000001 0.000000 0.000000 0.000000 0.076722
    28 1.646738 0.449549 -1.702246 0.441914 0.155087 1.184542
    29 0.928312 0.000000 -0.000002 0.000000 0.000000 0.000000
    30 0.928314 0.000000 0.000001 0.000000 0.000000 0.000000
    31 1.533672 0.109715 1.664491 -0.264755 -0.055959 0.783109
    32 0.928313 0.000000 0.000000 0.000000 0.000000 -0.453556
    33 0.928314 0.000000 0.000001 0.000000 0.000000 0.000000
  time 3
    0 0.235347 0.367732 3.442987 0.000000 0.000000 -1.570874
    1 0.000000 0.000000 0.000000 -1.570795 -1.570796 0.000000
    2 -0.000005 0.000007 3.713255 0.002054 3.115505 -0.021473
    3 18.045721 0.000000 0.000000 0.000000 0.000000 -0.121501
    4 17.597597 0.000000 0.000000 -0.002613 0.026036 0.099967
    5 0.000005 -0.000003 -3.713255 -0.002524 -3.124238 -0.024449
    6 18.045725 0.000000 0.000000 0.000000 0.000000 -0.127551
    7 17.597597 0.000000 0.000000 0.002950 -0.017289 0.103055
    8 1.293670 0.684478 -0.000001 -0.000004 -0.000001 -0.130033
    9 5.309685 -0.003834 0.000000 -0.156777 0.008293 0.051679
    10 4.826790 -0.004591 0.000000 0.322670 -0.005777 0.016484
    11 5.792767 -0.005304 0.000000 -0.156602 0.011026 0.068894
    12 6.662317 -0.001453 0.000000 -0.000144 -0.183162 0.165737
    13 2.046985 -0.000002 0.000000 -0.105725 0.146437 -0.573654
    14 -2.576851 0.513317 4.892709 1.549295 -1.223472 1.490535
    15 4.827230 0.000000 0.000001 0.374501 0.850029 0.376124
    16 11.139763 0.000000 0.000000 0.000000 0.000000 -1.805809
    17 10.314597 0.000001 0.000000 -1.657094 -0.276301 -0.099925
    18 2.975834 -0.386307 -0.044143 -0.021506 -0.037954 0.497588
    19 1.438886 0.000000 0.000000 0.000000 0.000000 0.889650
    20 1.485303 0.000000 0.000000 0.000000 0.000000 1.116422
    21 -3.858209 0.473853 -3.499752 -0.891154 0.977528 2.085724
    22 4.972048 0.000000 0.000001 1.046751 -0.090495 -0.726738
    23 11.585355 0.000000 0.000000 0.000000 0.000000 -0.933988
    24 10.127057 0.000000 0.000001 3.125867 0.010829 0.566850
    25 2.683750 -0.427338 0.044205 -0.018514 0.039500 -0.462612
    26 1.438885 -0.000001 0.000000 0.000000 0.000000 0.183178
    27 1.485305 0.000001 0.000000 0.000000 0.000000 -0.226767
    28 1.646738 0.449549 -1.702246 0.441914 0.155087 1.184542
    29 0.928312 0.000000 -0.000002 0.000000 0.000000 0.000000
    30 0.928314 0.000000 0.000001 0.000000 0.000000 0.000000
    31 1.533672 0.109715 1.664491 -0.264755 -0.055959 0.783109
    32 0.928313 0.000000 0.000000 0.000000 0.000000 -0.453556
    33 0.928314 0.000000 0.000001 0.000000 0.000000 0.000000
  time 4
    0 0.235347 0.367732 3.442987 0.000000 0.000000 -1.570874
    1 0.000000 0.000000 0.000000 -1.570795 -1.570796 0.000000
    2 -0.000005 0.000007 3.713255 0.002054 3.115505 -0.021473
    3 18.045721 0.000000 0.000000 0.000000 0.000000 -0.121501
    4 17.597597 0.000000 0.000000 -0.002613 0.026036 0.099967
    5 0.000005 -0.000003 -3.713255 -0.002524 -3.124238 -0.024449
    6 18.045725 0.000000 0.000000 0.000000 0.000000 -0.127551
    7 17.597597 0.000000 0.000000 0.002950 -0.017289 0.103055
    8 1.293670 0.684478 -0.000001 -0.000004 -0.000001 -0.130033
    9 5.309685 -0.003834 0.000000 -0.156777 0.008293 0.051679
    10 4.826790 -0.004591 0.000000 0.315544 -0.013171 0.039547
    11 5.792767 -0.005304 0.000000 -0.156504 0.012380 0.077552
    12 6.662317 -0.001453 0.000000 -0.000144 -0.183162 0.165737
    13 2.046985 -0.000002 0.000000 -0.105510 0.148779 -0.607140
    14 -2.576851 0.513317 4.892709 1.549295 -1.223472 1.490535
    15 4.827230 0.000000 0.000001 0.370918 0.877686 0.261309
    16 11.139763 0.000000 0.000000 0.000000 0.000000 -1.805809
    17 10.314597 0.000001 0.000000 -1.657094 -0.276301 -0.099925
    18 2.975834 -0.386307 -0.044143 -0.021506 -0.037954 0.497588
    19 1.438886 0.000000 0.000000 0.000000 0.000000 0.889650
    20 1.485303 0.000000 0.000000 0.000000 0.000000 1.116422
    21 -3.858209 0.473853 -3.499752 -0.885018 0.981711 2.091860
    22 4.972048 0.000000 0.000001 1.056653 -0.080360 -0.738002
    23 11.585355 0.000000 0.000000 0.000000 0.000000 -0.828702
    24 10.127057 0.000000 0.000001 3.108858 0.016270 0.561045
    25 2.683750 -0.427338 0.044205 -0.018382 0.039572 -0.459160
    26 1.438885 -0.000001 0.000000 0.000000 0.000000 0.189400
    27 1.485305 0.000001 0.000000 0.000000 0.000000 -0.210975
    28 1.646738 0.449549 -1.702246 0.441914 0.155087 1.184542
    29 0.928312 0.000000 -0.000002 0.000000 0.000000 0.000000
    30 0.928314 0.000000 0.000001 0.000000 0.000000 0.000000
    31 1.533672 0.109715 1.664491 -0.264755 -0.055959 0.783109
    32 0.928313 0.000000 0.000000 0.000000 0.000000 -0.453556
    33 0.928314 0.000000 0.000001 0.000000 0.000000 0.000000
  time 5
    0 0.235347 0.367732 3.442987 0.000000 0.000000 -1.570874
    1 0.000000 0.000000 0.000000 -1.570795 -1.570796 0.000000
    2 -0.000005 0.000007 3.713255 0.002054 3.115505 -0.021473
    3 18.045721 0.000000 0.000000 0.000000 0.000000 -0.121501
    4 17.597597 0.000000 0.000000 -0.002613 0.026036 0.099967
    5 0.000005 -0.000003 -3.713255 -0.002524 -3.124238 -0.024449
    6 18.045725 0.000000 0.000000 0.000000 0.000000 -0.127551
    7 17.597597 0.000000 0.000000 0.002950 -0.017289 0.103055
    8 1.293670 0.684478 -0.000001 -0.000004 -0.000001 -0.130033
    9 5.309685 -0.003834 0.000000 -0.156777 0.008293 0.051679
    10 4.826790 -0.004591 0.000000 0.257860 -0.018265 0.068365
    11 5.792767 -0.005304 0.000000 -0.156357 0.014142 0.088681
    12 6.662317 -0.001453 0.000000 -0.000144 -0.183162 0.165737
    13 2.046985 -0.000002 0.000000 -0.058981 0.166296 -0.649840
    14 -2.576851 0.513317 4.892709 1.549295 -1.223472 1.490535
    15 4.827230 0.000000 0.000001 0.335911 0.922194 0.134768
    16 11.139763 0.000000 0.000000 0.000000 0.000000 -1.805809
    17 10.314597 0.000001 0.000000 -1.657094 -0.276301 -0.099925
    18 2.975834 -0.386307 -0.044143 -0.021506 -0.037954 0.497588
    19 1.438886 0.000000 0.000000 0.000000 0.000000 0.889650
    20 1.485303 0.000000 0.000000 0.000000 0.000000 1.116422
    21 -3.858209 0.473853 -3.499752 -0.830179 1.015741 2.146220
    22 4.972048 0.000000 0.000001 1.031667 -0.199413 -0.775945
    23 11.585355 0.000000 0.000000 0.000000 0.000000 -0.789387
    24 10.127057 0.000000 0.000001 2.966548 0.057419 0.509424
    25 2.683750 -0.427338 0.044205 -0.017243 0.040076 -0.430487
    26 1.438885 -0.000001 0.000000 0.000000 0.000000 0.240974
    27 1.485305 0.000001 0.000000 0.000000 0.000000 -0.079937
    28 1.646738 0.449549 -1.702246 0.441914 0.155087 1.184542
    29 0.928312 0.000000 -0.000002 0.000000 0.000000 0.000000
    30 0.928314 0.000000 0.000001 0.000000 0.000000 0.000000
    31 1.533672 0.109715 1.664491 -0.264755 -0.055959 0.783109
    32 0.928313 0.000000 0.000000 0.000000 0.000000 -0.453556
    33 0.928314 0.000000 0.000001 0.000000 0.000000 0.000000
  time 6
    0 0.235347 0.367732 3.442987 0.000000 0.000000 -1.570874
    1 0.000000 0.000000 0.000000 -1.570795 -1.570796 0.000000
    2 -0.000005 0.000007 3.713255 0.002054 3.115505 -0.021473
    3 18.045721 0.000000 0.000000 0.000000 0.000000 -0.121501
    4 17.597597 0.000000 0.000000 -0.002613 0.026036 0.099967
    5 0.000005 -0.000003 -3.713255 -0.002524 -3.124238 -0.024449
    6 18.045725 0.000000 0.000000 0.000000 0.000000 -0.127551
    7 17.597597 0.000000 0.000000 0.002950 -0.017289 0.103055
    8 1.293670 0.684478 -0.000001 -0.000004 -0.000001 -0.130033
    9 5.309685 -0.003834 0.000000 -0.156777 0.008293 0.051679
    10 4.826790 -0.004591 0.000000 0.181031 -0.017773 0.096014
    11 5.792767 -0.005304 0.000000 -0.156194 0.015820 0.099332
    12 6.662317 -0.001453 0.000000 -0.000144 -0.183162 0.165737
    13 2.046985 -0.000002 0.000000 0.006506 0.189509 -0.689259
    14 -2.576851 0.513317 4.892709 1.549295 -1.223472 1.490535
    15 4.827230 0.000000 0.000001 0.275706 0.962447 0.013040
    16 11.139763 0.000000 0.000000 0.000000 0.000000 -1.805809
    17 10.314597 0.000001 0.000000 -1.657094 -0.276301 -0.099925
    18 2.975834 -0.386307 -0.044143 -0.021506 -0.037954 0.497588
    19 1.438886 0.000000 0.000000 0.000000 0.000000 0.889650
    20 1.485303 0.000000 0.000000 0.000000 0.000000 1.116422
    21 -3.858209 0.473853 -3.499752 -0.746290 1.058363 2.229438
    22 4.972048 0.000000 0.000001 0.973187 -0.368258 -0.808552
    23 11.585355 0.000000 0.000000 0.000000 0.000000 -0.795123
    24 10.127057 0.000000 0.000001 2.772702 0.100110 0.432111
    25 2.683750 -0.427338 0.044205 -0.015697 0.040711 -0.392153
    26 1.438885 -0.000001 0.000000 0.000000 0.000000 0.309917
    27 1.485305 0.000001 0.000000 0.000000 0.000000 0.095076
    28 1.646738 0.449549 -1.702246 0.441914 0.155087 1.184542
    29 0.928312 0.000000 -0.000002 0.000000 0.000000 0.000000
    30 0.928314 0.000000 0.000001 0.000000 0.000000 0.000000
    31 1.533672 0.109715 1.664491 -0.264755 -0.055959 0.783109
    32 0.928313 0.000000 0.000000 0.000000 0.000000 -0.453556
    33 0.928314 0.000000 0.000001 0.000000 0.000000 0.000000
  time 7
    0 0.235347 0.367732 3.442987 0.000000 0.000000 -1.570874
    1 0.000000 0.000000 0.000000 -1.570795 -1.570796 0.000000
    2 -0.000005 0.000007 3.713255 0.002054 3.115505 -0.021473
    3 18.045721 0.000000 0.000000 0.000000 0.000000 -0.121501
    4 17.597597 0.000000 0.000000 -0.002613 0.026036 0.099967
    5 0.000005 -0.000003 -3.713255 -0.002524 -3.124238 -0.024449
    6 18.045725 0.000000 0.000000 0.000000 0.000000 -0.127551
    7 17.597597 0.000000 0.000000 0.002950 -0.017289 0.103055
    8 1.293670 0.684478 -0.000001 -0.000004 -0.000001 -0.130033
    9 5.309685 -0.003834 0.000000 -0.156777 0.008293 0.051679
    10 4.826790 -0.004591 0.000000 0.097732 -0.011697 0.117975
    11 5.792767 -0.005304 0.000000 -0.156063 0.017174 0.107970
    12 6.662317 -0.001453 0.000000 -0.000144 -0.183162 0.165737
    13 2.046985 -0.000002 0.000000 0.080393 0.214725 -0.719060
    14 -2.576851 0.513317 4.892709 1.549295 -1.223472 1.490535
    15 4.827230 0.000000 0.000001 0.203637 0.996146 -0.100899
    16 11.139763 0.000000 0.000000 0.000000 0.000000 -1.805809
    17 10.314597 0.000001 0.000000 -1.657094 -0.276301 -0.099925
    18 2.975834 -0.386307 -0.044143 -0.021506 -0.037954 0.497588
    19 1.438886 0.000000 0.000000 0.000000 0.000000 0.889650
    20 1.485303 0.000000 0.000000 0.000000 0.000000 1.116422
    21 -3.858209 0.473853 -3.499752 -0.638912 1.100194 2.336145
    22 4.972048 0.000000 0.000001 0.871697 -0.551905 -0.809671
    23 11.585355 0.000000 0.000000 0.000000 0.000000 -0.842064
    24 10.127057 0.000000 0.000001 2.557644 0.128589 0.339814
    25 2.683750 -0.427338 0.044205 -0.013984 0.041334 -0.350383
    26 1.438885 -0.000001 0.000000 0.000000 0.000000 0.385016
    27 1.485305 0.000001 0.000000 0.000000 0.000000 0.285881
    28 1.646738 0.449549 -1.702246 0.441914 0.155087 1.184542
    29 0.928312 0.000000 -0.000002 0.000000 0.000000 0.000000
    30 0.928314 0.000000 0.000001 0.000000 0.000000 0.000000
    31 1.533672 0.109715 1.664491 -0.264755 -0.055959 0.783109
    32 0.928313 0.000000 0.000000 0.000000 0.000000 -0.453556
    33 0.928314 0.000000 0.000001 0.000000 0.000000 0.000000
  time 8
    0 0.235347 0.367732 3.442987 0.000000 0.000000 -1.570874
    1 0.000000 0.000000 0.000000 -1.570795 -1.570796 0.000000
    2 -0.000005 0.000007 3.713255 0.002054 3.115505 -0.021473
    3 18.045721 0.000000 0.000000 0.000000 0.000000 -0.121501
    4 17.597597 0.000000 0.000000 -0.002613 0.026036 0.099967
    5 0.000005 -0.000003 -3.713255 -0.002524 -3.124238 -0.024449
    6 18.045725 0.000000 0.000000 0.000000 0.000000 -0.127551
    7 17.597597 0.000000 0.000000 0.002950 -0.017289 0.103055
    8 1.293670 0.684478 -0.000001 -0.000004 -0.000001 -0.130033
    9 5.309685 -0.003834 0.000000 -0.156777 0.008293 0.051679
    10 4.826790 -0.004591 0.000000 0.020115 -0.002577 0.126552
    11 5.792767 -0.005304 0.000000 -0.155982 0.017809 0.111977
    12 6.662317 -0.001453 0.000000 -0.000144 -0.183162 0.165737
    13 2.046985 -0.000002 0.000000 0.153031 0.238411 -0.729173
    14 -2.576851 0.513317 4.892709 1.549295 -1.223472 1.490535
    15 4.827230 0.000000 0.000001 0.144137 1.030272 -0.207313
    16 11.139763 0.000000 0.000000 0.000000 0.000000 -1.805809
    17 10.314597 0.000001 0.000000 -1.657094 -0.276301 -0.099925
    18 2.975834 -0.386307 -0.044143 -0.021506 -0.037954 0.497588
    19 1.438886 0.000000 0.000000 0.000000 0.000000 0.889650
    20 1.485303 0.000000 0.000000 0.000000 0.000000 1.116422
    21 -3.858209 0.473853 -3.499752 -0.521371 1.133829 2.453110
    22 4.972048 0.000000 0.000001 0.719618 -0.718981 -0.754273
    23 11.585355 0.000000 0.000000 0.000000 0.000000 -0.942173
    24 10.127057 0.000000 0.000001 2.354116 0.136819 0.249517
    25 2.683750 -0.427338 0.044205 -0.012354 0.041837 -0.311288
    26 1.438885 -0.000001 0.000000 0.000000 0.000000 0.455356
    27 1.485305 0.000001 0.000000 0.000000 0.000000 0.464480
    28 1.646738 0.449549 -1.702246 0.441914 0.155087 1.184542
    29 0.928312 0.000000 -0.000002 0.000000 0.000000 0.000000
    30 0.928314 0.000000 0.000001 0.000000 0.000000 0.000000
    31 1.533672 0.109715 1.664491 -0.264755 -0.055959 0.783109
    32 0.928313 0.000000 0.000000 0.000000 0.000000 -0.453556
    33 0.928314 0.000000 0.000001 0.000000 0.000000 0.000000
  time 9
    0 0.235347 0.367732 3.442987 0.000000 0.000000 -1.570874
    1 0.000000 0.000000 0.000000 -1.570795 -1.570796 0.000000
    2 -0.000005 0.000007 3.713255 0.002054 3.115505 -0.021473
    3 18.045721 0.000000 0.000000 0.000000 0.000000 -0.121501
    4 17.597597 0.000000 0.000000 -0.002613 0.026036 0.099967
    5 0.000005 -0.000003 -3.713255 -0.002524 -3.124238 -0.024449
    6 18.045725 0.000000 0.000000 0.000000 0.000000 -0.127551
    7 17.597597 0.000000 0.000000 0.002950 -0.017289 0.103055
    8 1.293670 0.684478 -0.000001 -0.000004 -0.000001 -0.130033
    9 5.309685 -0.003834 0.000000 -0.156777 0.008293 0.051679
    10 4.826790 -0.004591 0.000000 -0.055303 0.006124 0.109486
    11 5.792767 -0.005304 0.000000 -0.156096 0.016862 0.105956
    12 6.662317 -0.001453 0.000000 -0.000144 -0.183162 0.165737
    13 2.046985 -0.000002 0.000000 0.230623 0.261827 -0.701530
    14 -2.576851 0.513317 4.892709 1.549295 -1.223472 1.490535
    15 4.827230 0.000000 0.000001 0.120466 1.082779 -0.295262
    16 11.139763 0.000000 0.000000 0.000000 0.000000 -1.805809
    17 10.314597 0.000001 0.000000 -1.657094 -0.276301 -0.099925
    18 2.975834 -0.386307 -0.044143 -0.021506 -0.037954 0.497588
    19 1.438886 0.000000 0.000000 0.000000 0.000000 0.889650
    20 1.485303 0.000000 0.000000 0.000000 0.000000 1.116422
    21 -3.858209 0.473853 -3.499752 -0.390696 1.160114 2.583114
    22 4.972048 0.000000 0.000001 0.465198 -0.872543 -0.594466
    23 11.585355 0.000000 0.000000 0.000000 0.000000 -1.159459
    24 10.127057 0.000000 0.000001 2.156512 0.127317 0.161926
    25 2.683750 -0.427338 0.044205 -0.010760 0.042281 -0.273284
    26 1.438885 -0.000001 0.000000 0.000000 0.000000 0.523700
    27 1.485305 0.000001 0.000000 0.000000 0.000000 0.638049
    28 1.646738 0.449549 -1.702246 0.441914 0.155087 1.184542
    29 0.928312 0.000000 -0.000002 0.000000 0.000000 0.000000
    30 0.928314 0.000000 0.000001 0.000000 0.000000 0.000000
    31 1.533672 0.109715 1.664491 -0.264755 -0.055959 0.783109
    32 0.928313 0.000000 0.000000 0.000000 0.000000 -0.453556
    33 0.928314 0.000000 0.000001 0.000000 0.000000 0.000000
  time 10
    0 0.235347 0.367732 3.442987 0.000000 0.000000 -1.570874
    1 0.000000 0.000000 0.000000 -1.570795 -1.570796 0.000000
    2 -0.000005 0.000007 3.713255 0.002054 3.115505 -0.021473
    3 18.045721 0.000000 0.000000 0.000000 0.000000 -0.121501
    4 17.597597 0.000000 0.000000 -0.002613 0.026036 0.099967
    5 0.000005 -0.000003 -3.713255 -0.002524 -3.124238 -0.024449
    6 18.045725 0.000000 0.000000 0.000000 0.000000 -0.127551
    7 17.597597 0.000000 0.000000 0.002950 -0.017289 0.103055
    8 1.293670 0.684478 -0.000001 -0.000004 -0.000001 -0.130033
    9 5.309685 -0.003834 0.000000 -0.156777 0.008293 0.051679
    10 4.826790 -0.004591 0.000000 -0.141212 0.010187 0.070790
    11 5.792767 -0.005304 0.000000 -0.156324 0.014585 0.091484
    12 6.662317 -0.001453 0.000000 -0.000144 -0.183162 0.165737
    13 2.046985 -0.000002 0.000000 0.324457 0.287944 -0.640177
    14 -2.576851 0.513317 4.892709 1.549295 -1.223472 1.490535
    15 4.827230 0.000000 0.000001 0.104079 1.158008 -0.390737
    16 11.139763 0.000000 0.000000 0.000000 0.000000 -1.805809
    17 10.314597 0.000001 0.000000 -1.657094 -0.276301 -0.099925
    18 2.975834 -0.386307 -0.044143 -0.021506 -0.037954 0.497588
    19 1.438886 0.000000 0.000000 0.000000 0.000000 0.889650
    20 1.485303 0.000000 0.000000 0.000000 0.000000 1.116422
    21 -3.858209 0.473853 -3.499752 -0.225123 1.180606 2.747920
    22 4.972048 0.000000 0.000001 0.009502 -0.970922 -0.246396
    23 11.585355 0.000000 0.000000 0.000000 0.000000 -1.497700
    24 10.127057 0.000000 0.000001 1.935338 0.096374 0.067511
    25 2.683750 -0.427338 0.044205 -0.008926 0.042700 -0.230292
    26 1.438885 -0.000001 0.000000 0.000000 0.000000 0.601028
    27 1.485305 0.000001 0.000000 0.000000 0.000000 0.834443
    28 1.646738 0.449549 -1.702246 0.441914 0.155087 1.184542
    29 0.928312 0.000000 -0.000002 0.000000 0.000000 0.000000
    30 0.928314 0.000000 0.000001 0.000000 0.000000 0.000000
    31 1.533672 0.109715 1.664491 -0.264755 -0.055959 0.783109
    32 0.928313 0.000000 0.000000 0.000000 0.000000 -0.453556
    33 0.928314 0.000000 0.000001 0.000000 0.000000 0.000000
  time 11
    0 0.235347 0.367732 3.442987 0.000000 0.000000 -1.570874
    1 0.000000 0.000000 0.000000 -1.570795 -1.570796 0.000000
    2 -0.000005 0.000007 3.713255 0.002054 3.115505 -0.021473
    3 18.045721 0.000000 0.000000 0.000000 0.000000 -0.121501
    4 17.597597 0.000000 0.000000 -0.002613 0.026036 0.099967
    5 0.000005 -0.000003 -3.713255 -0.002524 -3.124238 -0.024449
    6 18.045725 0.000000 0.000000 0.000000 0.000000 -0.127551
    7 17.597597 0.000000 0.000000 0.002950 -0.017289 0.103055
    8 1.293670 0.684478 -0.000001 -0.000004 -0.000001 -0.130033
    9 5.309685 -0.003834 0.000000 -0.156777 0.008293 0.051679
    10 4.826790 -0.004591 0.000000 -0.225053 0.005860 0.024796
    11 5.792767 -0.005304 0.000000 -0.156536 0.012080 0.075663
    12 6.662317 -0.001453 0.000000 -0.000144 -0.183162 0.165737
    13 2.046985 -0.000002 0.000000 0.418938 0.311787 -0.566597
    14 -2.576851 0.513317 4.892709 1.549295 -1.223472 1.490535
    15 4.827230 0.000000 0.000001 0.040585 1.239960 -0.556045
    16 11.139763 0.000000 0.000000 0.000000 0.000000 -1.805809
    17 10.314597 0.000001 0.000000 -1.657094 -0.276301 -0.099925
    18 2.975834 -0.386307 -0.044143 -0.021506 -0.037954 0.497588
    19 1.438886 0.000000 0.000000 0.000000 0.000000 0.889650
    20 1.485303 0.000000 0.000000 0.000000 0.000000 1.116422
    21 -3.858209 0.473853 -3.499752 -0.051880 1.189678 2.920587
    22 4.972048 0.000000 0.000001 -0.487889 -0.924266 0.144689
    23 11.585355 0.000000 0.000000 0.000000 0.000000 -1.870150
    24 10.127057 0.000000 0.000001 1.724612 0.047429 -0.015412
    25 2.683750 -0.427338 0.044205 -0.007140 0.043036 -0.188472
    26 1.438885 -0.000001 0.000000 0.000000 0.000000 0.676226
    27 1.485305 0.000001 0.000000 0.000000 0.000000 1.025434
    28 1.646738 0.449549 -1.702246 0.441914 0.155087 1.184542
    29 0.928312 0.000000 -0.000002 0.000000 0.000000 0.000000
    30 0.928314 0.000000 0.000001 0.000000 0.000000 0.000000
    31 1.533672 0.109715 1.664491 -0.264755 -0.055959 0.783109
    32 0.928313 0.000000 0.000000 0.000000 0.000000 -0.453556
    33 0.928314 0.000000 0.000001 0.000000 0.000000 0.000000
  time 12
    0 0.235347 0.367732 3.442987 0.000000 0.000000 -1.570874
    1 0.000000 0.000000 0.000000 -1.570795 -1.570796 0.000000
    2 -0.000005 0.000007 3.713255 0.002054 3.115505 -0.021473
    3 18.045721 0.000000 0.000000 0.000000 0.000000 -0.121501
    4 17.597597 0.000000 0.000000 -0.002613 0.026036 0.099967
    5 0.000005 -0.000003 -3.713255 -0.002524 -3.124238 -0.024449
    6 18.045725 0.000000 0.000000 0.000000 0.000000 -0.127551
    7 17.597597 0.000000 0.000000 0.002950 -0.017289 0.103055
    8 1.293670 0.684478 -0.000001 -0.000004 -0.000001 -0.130033
    9 5.309685 -0.003834 0.000000 -0.156777 0.008293 0.051679
    10 4.826790 -0.004591 0.000000 -0.287811 -0.002241 -0.008410
    11 5.792767 -0.005304 0.000000 -0.156602 0.011026 0.068894
    12 6.662317 -0.001453 0.000000 -0.000144 -0.183162 0.165737
    13 2.046985 -0.000002 0.000000 0.489594 0.328088 -0.515402
    14 -2.576851 0.513317 4.892709 1.549295 -1.223472 1.490535
    15 4.827230 0.000000 0.000001 -0.109545 1.291701 -0.809915
    16 11.139763 0.000000 0.000000 0.000000 0.000000 -1.805809
    17 10.314597 0.000001 0.000000 -1.657094 -0.276301 -0.099925
    18 2.975834 -0.386307 -0.044143 -0.021506 -0.037954 0.497588
    19 1.438886 0.000000 0.000000 0.000000 0.000000 0.889650
    20 1.485303 0.000000 0.000000 0.000000 0.000000 1.116422
    21 -3.858209 0.473853 -3.499752 0.080712 1.188972 3.052700
    22 4.972048 0.000000 0.000001 -0.765979 -0.808431 0.341846
    23 11.585355 0.000000 0.000000 0.000000 0.000000 -2.147739
    24 10.127057 0.000000 0.000001 1.569752 0.000000 -0.069778
    25 2.683750 -0.427338 0.044205 -0.005786 0.043239 -0.157091
    26 1.438885 -0.000001 0.000000 0.000000 0.000000 0.732658
    27 1.485305 0.000001 0.000000 0.000000 0.000000 1.168770
    28 1.646738 0.449549 -1.702246 0.441914 0.155087 1.184542
    29 0.928312 0.000000 -0.000002 0.000000 0.000000 0.000000
    30 0.928314 0.000000 0.000001 0.000000 0.000000 0.000000
    31 1.533672 0.109715 1.664491 -0.264755 -0.055959 0.783109
    32 0.928313 0.000000 0.000000 0.000000 0.000000 -0.453556
    33 0.928314 0.000000 0.000001 0.000000 0.000000 0.000000
end
