version 1
nodes
  0 "Bip01" -1
  1 "Bip01 Pelvis" 0
  2 "Bip01 L Leg" 1
  3 "Bip01 L Leg1" 2
  4 "Bip01 L Foot" 3
  5 "Bip01 R Leg" 1
  6 "Bip01 R Leg1" 5
  7 "Bip01 R Foot" 6
  8 "Bip01 Spine" 1
  9 "Bip01 Spine1" 8
  10 "Bip01 Spine2" 9
  11 "Bip01 Spine3" 10
  12 "Bip01 Neck" 11
  13 "Bip01 Head" 12
  14 "Bip01 L Arm" 12
  15 "Bip01 L Arm1" 14
  16 "Bip01 L Arm2" 15
  17 "Bip01 L Hand" 16
  18 "Bip01 L Finger1" 17
  19 "Bip01 L Finger11" 18
  20 "Bip01 L Finger12" 19
  21 "Bip01 R Arm" 12
  22 "Bip01 R Arm1" 21
  23 "Bip01 R Arm2" 22
  24 "Bip01 R Hand" 23
  25 "Bip01 R Finger1" 24
  26 "Bip01 R Finger11" 25
  27 "Bip01 R Finger12" 26
  28 "Bip01 L Finger0" 17
  29 "Bip01 L Finger01" 28
  30 "Bip01 L Finger02" 29
  31 "Bip01 R Finger0" 24
  32 "Bip01 R Finger01" 31
  33 "Bip01 R Finger02" 32
end
skeleton
  time 0
    0 0.235347 0.367732 3.528927 0.000000 0.000000 -1.570874
    1 0.000000 0.000000 0.000000 -1.570795 -1.570796 0.000000
    2 -0.000005 0.000007 3.713255 0.002054 3.115505 -0.021473
    3 18.045721 0.000000 0.000000 0.000000 0.000000 -0.121501
    4 17.597597 0.000000 0.000000 -0.002613 0.026036 0.099967
    5 0.000005 -0.000003 -3.713255 -0.002524 -3.124238 -0.024449
    6 18.045725 0.000000 0.000000 0.000000 0.000000 -0.127551
    7 17.597597 0.000000 0.000000 0.002950 -0.017289 0.103055
    8 1.293670 0.684478 -0.000001 -0.000004 -0.000001 0.035686
    9 5.309685 -0.003834 0.000000 0.000000 0.000000 -0.104656
    10 4.826790 -0.004591 0.000000 -0.173346 -0.019499 -0.111687
    11 5.792767 -0.005304 0.000000 -0.138924 -0.013207 -0.095007
    12 6.662317 -0.001453 0.000000 0.000000 -0.000001 0.095957
    13 2.046985 -0.000002 0.000000 0.305286 0.072386 -0.162697
    14 -3.447972 0.275029 4.341911 -0.257721 -1.364181 3.297319
    15 4.827230 0.000000 0.000001 1.043743 1.133329 0.783051
    16 11.139763 0.000000 0.000000 0.000000 0.000000 -0.395663
    17 10.314597 0.000001 0.000000 -1.642354 0.083251 -0.332952
    18 2.975834 -0.386307 -0.044143 -0.023136 -0.036984 0.541211
    19 1.438886 0.000000 0.000000 0.000000 0.000000 1.700833
    20 1.485303 0.000000 0.000000 0.000000 0.000000 1.229793
    21 -3.182408 0.251190 -4.140396 0.672729 1.317206 3.701761
    22 4.972048 0.000000 0.000001 0.881831 -1.070830 -1.336849
    23 11.585355 0.000000 0.000000 0.000000 0.000000 -1.919050
    24 10.127057 0.000000 0.000001 1.537073 -0.015052 -0.019609
    25 2.683750 -0.427338 0.044205 -0.005786 0.043239 -0.157091
    26 1.438885 -0.000001 0.000000 0.000000 0.000000 0.732658
    27 1.485305 0.000001 0.000000 0.000000 0.000000 1.168770
    28 1.646738 0.449549 -1.702246 0.400736 0.460455 0.766728
    29 0.928312 0.000000 -0.000002 0.000000 0.000000 -0.636722
    30 0.928314 0.000000 0.000001 0.000000 0.000000 0.000000
    31 1.533672 0.109715 1.664491 -0.264755 -0.055959 0.783109
    32 0.928313 0.000000 0.000000 0.000000 0.000000 -0.453556
    33 0.928314 0.000000 0.000001 0.000000 0.000000 0.000000
  time 1
    0 0.235347 0.367732 3.528927 0.000000 0.000000 -1.570874
    1 0.000000 0.000000 0.000000 -1.570795 -1.570796 0.000000
    2 -0.000005 0.000007 3.713255 0.002054 3.115505 -0.021473
    3 18.045721 0.000000 0.000000 0.000000 0.000000 -0.121501
    4 17.597597 0.000000 0.000000 -0.002613 0.026036 0.099967
    5 0.000005 -0.000003 -3.713255 -0.002524 -3.124238 -0.024449
    6 18.045725 0.000000 0.000000 0.000000 0.000000 -0.127551
    7 17.597597 0.000000 0.000000 0.002950 -0.017289 0.103055
    8 1.293670 0.684478 -0.000001 -0.000004 -0.000001 0.035686
    9 5.309685 -0.003834 0.000000 0.000000 0.000000 -0.104656
    10 4.826790 -0.004591 0.000000 -0.266103 -0.048454 -0.176665
    11 5.792767 -0.005304 0.000000 -0.138924 -0.013207 -0.095007
    12 6.662317 -0.001453 0.000000 0.000000 -0.000001 0.095957
    13 2.046985 -0.000002 0.000000 0.399206 0.088304 -0.084129
    14 -3.447972 0.275029 4.341911 -0.257721 -1.364181 3.297319
    15 4.827230 0.000000 0.000001 1.088382 1.084311 0.929195
    16 11.139763 0.000000 0.000000 0.000000 0.000000 -0.395663
    17 10.314597 0.000001 0.000000 -1.642354 0.083251 -0.332952
    18 2.975834 -0.386307 -0.044143 -0.023136 -0.036984 0.541211
    19 1.438886 0.000000 0.000000 0.000000 0.000000 1.700833
    20 1.485303 0.000000 0.000000 0.000000 0.000000 1.229793
    21 -3.182408 0.251190 -4.140396 1.092941 1.155620 4.100593
    22 4.972048 0.000000 0.000001 -0.612817 -1.260510 -0.061623
    23 11.585355 0.000000 0.000000 0.000000 0.000000 -2.304303
    24 10.127057 0.000000 0.000001 1.537073 -0.015052 -0.019609
    25 2.683750 -0.427338 0.044205 -0.005786 0.043239 -0.157091
    26 1.438885 -0.000001 0.000000 0.000000 0.000000 0.732658
    27 1.485305 0.000001 0.000000 0.000000 0.000000 1.168770
    28 1.646738 0.449549 -1.702246 0.400736 0.460455 0.766728
    29 0.928312 0.000000 -0.000002 0.000000 0.000000 -0.636722
    30 0.928314 0.000000 0.000001 0.000000 0.000000 0.000000
    31 1.533672 0.109715 1.664491 -0.264755 -0.055959 0.783109
    32 0.928313 0.000000 0.000000 0.000000 0.000000 -0.453556
    33 0.928314 0.000000 0.000001 0.000000 0.000000 0.000000
  time 2
    0 0.235347 0.367732 3.528927 0.000000 0.000000 -1.570874
    1 0.000000 0.000000 0.000000 -1.570795 -1.570796 0.000000
    2 -0.000005 0.000007 3.713255 0.002054 3.115505 -0.021473
    3 18.045721 0.000000 0.000000 0.000000 0.000000 -0.121501
    4 17.597597 0.000000 0.000000 -0.002613 0.026036 0.099967
    5 0.000005 -0.000003 -3.713255 -0.002524 -3.124238 -0.024449
    6 18.045725 0.000000 0.000000 0.000000 0.000000 -0.127551
    7 17.597597 0.000000 0.000000 0.002950 -0.017289 0.103055
    8 1.293670 0.684478 -0.000001 -0.000004 -0.000001 0.035686
    9 5.309685 -0.003834 0.000000 0.000000 0.000000 -0.104656
    10 4.826790 -0.004591 0.000000 -0.237237 -0.021488 -0.089484
    11 5.792767 -0.005304 0.000000 -0.138924 -0.013207 -0.095007
    12 6.662317 -0.001453 0.000000 0.000000 -0.000001 0.095957
    13 2.046985 -0.000002 0.000000 0.366377 0.092401 -0.177890
    14 -3.447972 0.275029 4.341911 -0.257721 -1.364181 3.297319
    15 4.827230 0.000000 0.000001 0.963274 1.146179 0.766774
    16 11.139763 0.000000 0.000000 0.000000 0.000000 -0.395663
    17 10.314597 0.000001 0.000000 -1.642354 0.083251 -0.332952
    18 2.975834 -0.386307 -0.044143 -0.023136 -0.036984 0.541211
    19 1.438886 0.000000 0.000000 0.000000 0.000000 1.700833
    20 1.485303 0.000000 0.000000 0.000000 0.000000 1.229793
    21 -3.182408 0.251190 -4.140396 0.981728 1.220910 3.997434
    22 4.972048 0.000000 0.000001 0.317992 -1.270565 -0.913486
    23 11.585355 0.000000 0.000000 0.000000 0.000000 -2.162011
    24 10.127057 0.000000 0.000001 1.537073 -0.015052 -0.019609
    25 2.683750 -0.427338 0.044205 -0.005786 0.043239 -0.157091
    26 1.438885 -0.000001 0.000000 0.000000 0.000000 0.732658
    27 1.485305 0.000001 0.000000 0.000000 0.000000 1.168770
    28 1.646738 0.449549 -1.702246 0.400736 0.460455 0.766728
    29 0.928312 0.000000 -0.000002 0.000000 0.000000 -0.636722
    30 0.928314 0.000000 0.000001 0.000000 0.000000 0.000000
    31 1.533672 0.109715 1.664491 -0.264755 -0.055959 0.783109
    32 0.928313 0.000000 0.000000 0.000000 0.000000 -0.453556
    33 0.928314 0.000000 0.000001 0.000000 0.000000 0.000000
  time 3
    0 0.235347 0.367732 3.528927 0.000000 0.000000 -1.570874
    1 0.000000 0.000000 0.000000 -1.570795 -1.570796 0.000000
    2 -0.000005 0.000007 3.713255 0.002054 3.115505 -0.021473
    3 18.045721 0.000000 0.000000 0.000000 0.000000 -0.121501
    4 17.597597 0.000000 0.000000 -0.002613 0.026036 0.099967
    5 0.000005 -0.000003 -3.713255 -0.002524 -3.124238 -0.024449
    6 18.045725 0.000000 0.000000 0.000000 0.000000 -0.127551
    7 17.597597 0.000000 0.000000 0.002950 -0.017289 0.103055
    8 1.293670 0.684478 -0.000001 -0.000004 -0.000001 0.035686
    9 5.309685 -0.003834 0.000000 0.000000 0.000000 -0.104656
    10 4.826790 -0.004591 0.000000 -0.191819 -0.000923 -0.005565
    11 5.792767 -0.005304 0.000000 -0.138924 -0.013207 -0.095007
    12 6.662317 -0.001453 0.000000 0.000000 -0.000001 0.095957
    13 2.046985 -0.000002 0.000000 0.318857 0.091726 -0.268145
    14 -3.447972 0.275029 4.341911 -0.257721 -1.364181 3.297319
    15 4.827230 0.000000 0.000001 0.811147 1.191878 0.563486
    16 11.139763 0.000000 0.000000 0.000000 0.000000 -0.395663
    17 10.314597 0.000001 0.000000 -1.642354 0.083251 -0.332952
    18 2.975834 -0.386307 -0.044143 -0.023136 -0.036984 0.541211
    19 1.438886 0.000000 0.000000 0.000000 0.000000 1.700833
    20 1.485303 0.000000 0.000000 0.000000 0.000000 1.229793
    21 -3.182408 0.251190 -4.140396 0.782216 1.292447 3.807413
    22 4.972048 0.000000 0.000001 0.896142 -1.055546 -1.394356
    23 11.585355 0.000000 0.000000 0.000000 0.000000 -1.988797
    24 10.127057 0.000000 0.000001 1.537073 -0.015052 -0.019609
    25 2.683750 -0.427338 0.044205 -0.005786 0.043239 -0.157091
    26 1.438885 -0.000001 0.000000 0.000000 0.000000 0.732658
    27 1.485305 0.000001 0.000000 0.000000 0.000000 1.168770
    28 1.646738 0.449549 -1.702246 0.400736 0.460455 0.766728
    29 0.928312 0.000000 -0.000002 0.000000 0.000000 -0.636722
    30 0.928314 0.000000 0.000001 0.000000 0.000000 0.000000
    31 1.533672 0.109715 1.664491 -0.264755 -0.055959 0.783109
    32 0.928313 0.000000 0.000000 0.000000 0.000000 -0.453556
    33 0.928314 0.000000 0.000001 0.000000 0.000000 0.000000
end
