version 1
nodes
  0 "Bip01" -1
  1 "Bip01 Pelvis" 0
  2 "Bip01 L Leg" 1
  3 "Bip01 L Leg1" 2
  4 "Bip01 L Foot" 3
  5 "Bip01 R Leg" 1
  6 "Bip01 R Leg1" 5
  7 "Bip01 R Foot" 6
  8 "Bip01 Spine" 1
  9 "Bip01 Spine1" 8
  10 "Bip01 Spine2" 9
  11 "Bip01 Spine3" 10
  12 "Bip01 Neck" 11
  13 "Bip01 Head" 12
  14 "Bip01 L Arm" 12
  15 "Bip01 L Arm1" 14
  16 "Bip01 L Arm2" 15
  17 "Bip01 L Hand" 16
  18 "Bip01 L Finger1" 17
  19 "Bip01 L Finger11" 18
  20 "Bip01 L Finger12" 19
  21 "Bip01 R Arm" 12
  22 "Bip01 R Arm1" 21
  23 "Bip01 R Arm2" 22
  24 "Bip01 R Hand" 23
  25 "Bip01 R Finger1" 24
  26 "Bip01 R Finger11" 25
  27 "Bip01 R Finger12" 26
  28 "Bip01 L Finger0" 17
  29 "Bip01 L Finger01" 28
  30 "Bip01 L Finger02" 29
  31 "Bip01 R Finger0" 24
  32 "Bip01 R Finger01" 31
  33 "Bip01 R Finger02" 32
end
skeleton
  time 0
    0 0.235347 0.367732 3.528927 0.000000 0.000000 -1.570874
    1 0.000000 0.000000 0.000000 -1.570795 -1.570796 0.000000
    2 -0.000005 0.000007 3.713255 0.002054 3.115505 -0.021473
    3 18.045721 0.000000 0.000000 0.000000 0.000000 -0.121501
    4 17.597597 0.000000 0.000000 -0.002613 0.026036 0.099967
    5 0.000005 -0.000003 -3.713255 -0.002524 -3.124238 -0.024449
    6 18.045725 0.000000 0.000000 0.000000 0.000000 -0.127551
    7 17.597597 0.000000 0.000000 0.002950 -0.017289 0.103055
    8 1.293670 0.684478 -0.000001 -0.000004 -0.000001 -0.007924
    9 5.309685 -0.003834 0.000000 -0.224662 -0.031100 -0.136039
    10 4.826790 -0.004591 0.000000 -0.120934 -0.016838 -0.138521
    11 5.792767 -0.005304 0.000000 -0.104189 -0.009923 -0.095422
    12 6.662317 -0.001453 0.000000 0.000000 -0.000001 0.471000
    13 2.046985 -0.000002 0.000000 0.589891 0.415266 -0.207735
    14 -3.112024 1.517254 4.341911 1.168008 -1.093534 1.546239
    15 4.827230 0.000000 0.000001 -0.792355 0.287598 -0.806240
    16 11.139763 0.000000 0.000000 0.000000 0.000000 -1.371455
    17 10.314597 0.000001 0.000000 -2.987507 -0.064640 0.326477
    18 2.975834 -0.386307 -0.044143 -0.015298 -0.040855 0.340466
    19 1.438886 0.000000 0.000000 0.000000 0.000000 0.662877
    20 1.485303 0.000000 0.000000 0.000000 0.000000 0.689056
    21 -2.869898 1.399663 -4.140396 -0.700750 1.311553 1.985728
    22 4.972048 0.000000 0.000001 1.265124 -0.186381 -2.041553
    23 11.585355 0.000000 0.000000 0.000000 0.000000 -0.621770
    24 10.127057 0.000000 0.000001 1.721745 0.262810 0.362604
    25 2.683750 -0.427338 0.044205 -0.005786 0.043239 -0.157091
    26 1.438885 -0.000001 0.000000 0.000000 0.000000 0.732658
    27 1.485305 0.000001 0.000000 0.000000 0.000000 1.168770
    28 1.646738 0.449549 -1.702246 0.154002 0.442277 0.277235
    29 0.928312 0.000000 -0.000002 0.000000 0.000000 0.000000
    30 0.928314 0.000000 0.000001 0.000000 0.000000 0.000000
    31 1.533672 0.109715 1.664491 -0.264755 -0.055959 0.783109
    32 0.928313 0.000000 0.000000 0.000000 0.000000 -0.453556
    33 0.928314 0.000000 0.000001 0.000000 0.000000 0.000000
  time 1
    0 0.235347 0.367732 3.528927 0.000000 0.000000 -1.570874
    1 0.000000 0.000000 0.000000 -1.570795 -1.570796 0.000000
    2 -0.000005 0.000007 3.713255 0.002054 3.115505 -0.021473
    3 18.045721 0.000000 0.000000 0.000000 0.000000 -0.121501
    4 17.597597 0.000000 0.000000 -0.002613 0.026036 0.099967
    5 0.000005 -0.000003 -3.713255 -0.002524 -3.124238 -0.024449
    6 18.045725 0.000000 0.000000 0.000000 0.000000 -0.127551
    7 17.597597 0.000000 0.000000 0.002950 -0.017289 0.103055
    8 1.293670 0.684478 -0.000001 -0.000004 -0.000001 -0.007924
    9 5.309685 -0.003834 0.000000 -0.224662 -0.031100 -0.136039
    10 4.826790 -0.004591 0.000000 -0.120966 -0.016707 -0.137440
    11 5.792767 -0.005304 0.000000 -0.104189 -0.009923 -0.095422
    12 6.662317 -0.001453 0.000000 0.000000 -0.000001 0.471000
    13 2.046985 -0.000002 0.000000 0.589891 0.415379 -0.208814
    14 -3.112024 1.517254 4.341911 1.165419 -1.092957 1.549211
    15 4.827230 0.000000 0.000001 -0.791474 0.285555 -0.806240
    16 11.139763 0.000000 0.000000 0.000000 0.000000 -1.371455
    17 10.314597 0.000001 0.000000 -2.987507 -0.064640 0.326477
    18 2.975834 -0.386307 -0.044143 -0.015298 -0.040855 0.340466
    19 1.438886 0.000000 0.000000 0.000000 0.000000 0.662877
    20 1.485303 0.000000 0.000000 0.000000 0.000000 0.689056
    21 -2.869898 1.399663 -4.140396 -0.696340 1.310168 1.990235
    22 4.972048 0.000000 0.000001 1.262880 -0.186301 -2.041289
    23 11.585355 0.000000 0.000000 0.000000 0.000000 -0.621770
    24 10.127057 0.000000 0.000001 1.721745 0.262810 0.362604
    25 2.683750 -0.427338 0.044205 -0.005786 0.043239 -0.157091
    26 1.438885 -0.000001 0.000000 0.000000 0.000000 0.732658
    27 1.485305 0.000001 0.000000 0.000000 0.000000 1.168770
    28 1.646738 0.449549 -1.702246 0.154002 0.442277 0.277235
    29 0.928312 0.000000 -0.000002 0.000000 0.000000 0.000000
    30 0.928314 0.000000 0.000001 0.000000 0.000000 0.000000
    31 1.533672 0.109715 1.664491 -0.264755 -0.055959 0.783109
    32 0.928313 0.000000 0.000000 0.000000 0.000000 -0.453556
    33 0.928314 0.000000 0.000001 0.000000 0.000000 0.000000
  time 2
    0 0.235347 0.367732 3.528927 0.000000 0.000000 -1.570874
    1 0.000000 0.000000 0.000000 -1.570795 -1.570796 0.000000
    2 -0.000005 0.000007 3.713255 0.002054 3.115505 -0.021473
    3 18.045721 0.000000 0.000000 0.000000 0.000000 -0.121501
    4 17.597597 0.000000 0.000000 -0.002613 0.026036 0.099967
    5 0.000005 -0.000003 -3.713255 -0.002524 -3.124238 -0.024449
    6 18.045725 0.000000 0.000000 0.000000 0.000000 -0.127551
    7 17.597597 0.000000 0.000000 0.002950 -0.017289 0.103055
    8 1.293670 0.684478 -0.000001 -0.000004 -0.000001 -0.007924
    9 5.309685 -0.003834 0.000000 -0.224662 -0.031100 -0.136039
    10 4.826790 -0.004591 0.000000 -0.120983 -0.016527 -0.135963
    11 5.792767 -0.005304 0.000000 -0.104189 -0.009923 -0.095422
    12 6.662317 -0.001453 0.000000 0.000000 -0.000001 0.471000
    13 2.046985 -0.000002 0.000000 0.589934 0.415536 -0.210252
    14 -3.112024 1.517254 4.341911 1.161872 -1.092149 1.553142
    15 4.827230 0.000000 0.000001 -0.790358 0.282747 -0.806152
    16 11.139763 0.000000 0.000000 0.000000 0.000000 -1.371455
    17 10.314597 0.000001 0.000000 -2.987507 -0.064640 0.326477
    18 2.975834 -0.386307 -0.044143 -0.015298 -0.040855 0.340466
    19 1.438886 0.000000 0.000000 0.000000 0.000000 0.662877
    20 1.485303 0.000000 0.000000 0.000000 0.000000 0.689056
    21 -2.869898 1.399663 -4.140396 -0.690492 1.308246 1.996370
    22 4.972048 0.000000 0.000001 1.259941 -0.186140 -2.041026
    23 11.585355 0.000000 0.000000 0.000000 0.000000 -0.621770
    24 10.127057 0.000000 0.000001 1.721745 0.262810 0.362604
    25 2.683750 -0.427338 0.044205 -0.005786 0.043239 -0.157091
    26 1.438885 -0.000001 0.000000 0.000000 0.000000 0.732658
    27 1.485305 0.000001 0.000000 0.000000 0.000000 1.168770
    28 1.646738 0.449549 -1.702246 0.154002 0.442277 0.277235
    29 0.928312 0.000000 -0.000002 0.000000 0.000000 0.000000
    30 0.928314 0.000000 0.000001 0.000000 0.000000 0.000000
    31 1.533672 0.109715 1.664491 -0.264755 -0.055959 0.783109
    32 0.928313 0.000000 0.000000 0.000000 0.000000 -0.453556
    33 0.928314 0.000000 0.000001 0.000000 0.000000 0.000000
  time 3
    0 0.235347 0.367732 3.528927 0.000000 0.000000 -1.570874
    1 0.000000 0.000000 0.000000 -1.570795 -1.570796 0.000000
    2 -0.000005 0.000007 3.713255 0.002054 3.115505 -0.021473
    3 18.045721 0.000000 0.000000 0.000000 0.000000 -0.121501
    4 17.597597 0.000000 0.000000 -0.002613 0.026036 0.099967
    5 0.000005 -0.000003 -3.713255 -0.002524 -3.124238 -0.024449
    6 18.045725 0.000000 0.000000 0.000000 0.000000 -0.127551
    7 17.597597 0.000000 0.000000 0.002950 -0.017289 0.103055
    8 1.293670 0.684478 -0.000001 -0.000004 -0.000001 -0.007924
    9 5.309685 -0.003834 0.000000 -0.224662 -0.031100 -0.136039
    10 4.826790 -0.004591 0.000000 -0.121016 -0.016311 -0.134155
    11 5.792767 -0.005304 0.000000 -0.104189 -0.009923 -0.095422
    12 6.662317 -0.001453 0.000000 0.000000 -0.000001 0.471000
    13 2.046985 -0.000002 0.000000 0.589977 0.415716 -0.212050
    14 -3.112024 1.517254 4.341911 1.157654 -1.091188 1.557936
    15 4.827230 0.000000 0.000001 -0.788890 0.279343 -0.806065
    16 11.139763 0.000000 0.000000 0.000000 0.000000 -1.371455
    17 10.314597 0.000001 0.000000 -2.987507 -0.064640 0.326477
    18 2.975834 -0.386307 -0.044143 -0.015298 -0.040855 0.340466
    19 1.438886 0.000000 0.000000 0.000000 0.000000 0.662877
    20 1.485303 0.000000 0.000000 0.000000 0.000000 0.689056
    21 -2.869898 1.399663 -4.140396 -0.683397 1.305901 2.003753
    22 4.972048 0.000000 0.000001 1.256228 -0.185979 -2.040697
    23 11.585355 0.000000 0.000000 0.000000 0.000000 -0.621770
    24 10.127057 0.000000 0.000001 1.721745 0.262810 0.362604
    25 2.683750 -0.427338 0.044205 -0.005786 0.043239 -0.157091
    26 1.438885 -0.000001 0.000000 0.000000 0.000000 0.732658
    27 1.485305 0.000001 0.000000 0.000000 0.000000 1.168770
    28 1.646738 0.449549 -1.702246 0.154002 0.442277 0.277235
    29 0.928312 0.000000 -0.000002 0.000000 0.000000 0.000000
    30 0.928314 0.000000 0.000001 0.000000 0.000000 0.000000
    31 1.533672 0.109715 1.664491 -0.264755 -0.055959 0.783109
    32 0.928313 0.000000 0.000000 0.000000 0.000000 -0.453556
    33 0.928314 0.000000 0.000001 0.000000 0.000000 0.000000
  time 4
    0 0.235347 0.367732 3.528927 0.000000 0.000000 -1.570874
    1 0.000000 0.000000 0.000000 -1.570795 -1.570796 0.000000
    2 -0.000005 0.000007 3.713255 0.002054 3.115505 -0.021473
    3 18.045721 0.000000 0.000000 0.000000 0.000000 -0.121501
    4 17.597597 0.000000 0.000000 -0.002613 0.026036 0.099967
    5 0.000005 -0.000003 -3.713255 -0.002524 -3.124238 -0.024449
    6 18.045725 0.000000 0.000000 0.000000 0.000000 -0.127551
    7 17.597597 0.000000 0.000000 0.002950 -0.017289 0.103055
    8 1.293670 0.684478 -0.000001 -0.000004 -0.000001 -0.007924
    9 5.309685 -0.003834 0.000000 -0.224662 -0.031100 -0.136039
    10 4.826790 -0.004591 0.000000 -0.121049 -0.016059 -0.132104
    11 5.792767 -0.005304 0.000000 -0.104189 -0.009923 -0.095422
    12 6.662317 -0.001453 0.000000 0.000000 -0.000001 0.471000
    13 2.046985 -0.000002 0.000000 0.590021 0.415942 -0.214117
    14 -3.112024 1.517254 4.341911 1.152764 -1.090072 1.563401
    15 4.827230 0.000000 0.000001 -0.787304 0.275428 -0.806065
    16 11.139763 0.000000 0.000000 0.000000 0.000000 -1.371455
    17 10.314597 0.000001 0.000000 -2.987507 -0.064640 0.326477
    18 2.975834 -0.386307 -0.044143 -0.015298 -0.040855 0.340466
    19 1.438886 0.000000 0.000000 0.000000 0.000000 0.662877
    20 1.485303 0.000000 0.000000 0.000000 0.000000 0.689056
    21 -2.869898 1.399663 -4.140396 -0.675439 1.303244 2.011998
    22 4.972048 0.000000 0.000001 1.252051 -0.185818 -2.040367
    23 11.585355 0.000000 0.000000 0.000000 0.000000 -0.621770
    24 10.127057 0.000000 0.000001 1.721745 0.262810 0.362604
    25 2.683750 -0.427338 0.044205 -0.005786 0.043239 -0.157091
    26 1.438885 -0.000001 0.000000 0.000000 0.000000 0.732658
    27 1.485305 0.000001 0.000000 0.000000 0.000000 1.168770
    28 1.646738 0.449549 -1.702246 0.154002 0.442277 0.277235
    29 0.928312 0.000000 -0.000002 0.000000 0.000000 0.000000
    30 0.928314 0.000000 0.000001 0.000000 0.000000 0.000000
    31 1.533672 0.109715 1.664491 -0.264755 -0.055959 0.783109
    32 0.928313 0.000000 0.000000 0.000000 0.000000 -0.453556
    33 0.928314 0.000000 0.000001 0.000000 0.000000 0.000000
  time 5
    0 0.235347 0.367732 3.528927 0.000000 0.000000 -1.570874
    1 0.000000 0.000000 0.000000 -1.570795 -1.570796 0.000000
    2 -0.000005 0.000007 3.713255 0.002054 3.115505 -0.021473
    3 18.045721 0.000000 0.000000 0.000000 0.000000 -0.121501
    4 17.597597 0.000000 0.000000 -0.002613 0.026036 0.099967
    5 0.000005 -0.000003 -3.713255 -0.002524 -3.124238 -0.024449
    6 18.045725 0.000000 0.000000 0.000000 0.000000 -0.127551
    7 17.597597 0.000000 0.000000 0.002950 -0.017289 0.103055
    8 1.293670 0.684478 -0.000001 -0.000004 -0.000001 -0.007924
    9 5.309685 -0.003834 0.000000 -0.224662 -0.031100 -0.136039
    10 4.826790 -0.004591 0.000000 -0.121081 -0.015784 -0.129855
    11 5.792767 -0.005304 0.000000 -0.104189 -0.009923 -0.095422
    12 6.662317 -0.001453 0.000000 0.000000 -0.000001 0.471000
    13 2.046985 -0.000002 0.000000 0.590064 0.416167 -0.216320
    14 -3.112024 1.517254 4.341911 1.147491 -1.088841 1.569345
    15 4.827230 0.000000 0.000001 -0.785542 0.271173 -0.805977
    16 11.139763 0.000000 0.000000 0.000000 0.000000 -1.371455
    17 10.314597 0.000001 0.000000 -2.987507 -0.064640 0.326477
    18 2.975834 -0.386307 -0.044143 -0.015298 -0.040855 0.340466
    19 1.438886 0.000000 0.000000 0.000000 0.000000 0.662877
    20 1.485303 0.000000 0.000000 0.000000 0.000000 0.689056
    21 -2.869898 1.399663 -4.140396 -0.666907 1.300276 2.020818
    22 4.972048 0.000000 0.000001 1.247487 -0.185657 -2.039972
    23 11.585355 0.000000 0.000000 0.000000 0.000000 -0.621770
    24 10.127057 0.000000 0.000001 1.721745 0.262810 0.362604
    25 2.683750 -0.427338 0.044205 -0.005786 0.043239 -0.157091
    26 1.438885 -0.000001 0.000000 0.000000 0.000000 0.732658
    27 1.485305 0.000001 0.000000 0.000000 0.000000 1.168770
    28 1.646738 0.449549 -1.702246 0.154002 0.442277 0.277235
    29 0.928312 0.000000 -0.000002 0.000000 0.000000 0.000000
    30 0.928314 0.000000 0.000001 0.000000 0.000000 0.000000
    31 1.533672 0.109715 1.664491 -0.264755 -0.055959 0.783109
    32 0.928313 0.000000 0.000000 0.000000 0.000000 -0.453556
    33 0.928314 0.000000 0.000001 0.000000 0.000000 0.000000
  time 6
    0 0.235347 0.367732 3.528927 0.000000 0.000000 -1.570874
    1 0.000000 0.000000 0.000000 -1.570795 -1.570796 0.000000
    2 -0.000005 0.000007 3.713255 0.002054 3.115505 -0.021473
    3 18.045721 0.000000 0.000000 0.000000 0.000000 -0.121501
    4 17.597597 0.000000 0.000000 -0.002613 0.026036 0.099967
    5 0.000005 -0.000003 -3.713255 -0.002524 -3.124238 -0.024449
    6 18.045725 0.000000 0.000000 0.000000 0.000000 -0.127551
    7 17.597597 0.000000 0.000000 0.002950 -0.017289 0.103055
    8 1.293670 0.684478 -0.000001 -0.000004 -0.000001 -0.007924
    9 5.309685 -0.003834 0.000000 -0.224662 -0.031100 -0.136039
    10 4.826790 -0.004591 0.000000 -0.121114 -0.015508 -0.127518
    11 5.792767 -0.005304 0.000000 -0.104189 -0.009923 -0.095422
    12 6.662317 -0.001453 0.000000 0.000000 -0.000001 0.471000
    13 2.046985 -0.000002 0.000000 0.590107 0.416414 -0.218657
    14 -3.112024 1.517254 4.341911 1.142026 -1.087533 1.575577
    15 4.827230 0.000000 0.000001 -0.783662 0.266663 -0.805977
    16 11.139763 0.000000 0.000000 0.000000 0.000000 -1.371455
    17 10.314597 0.000001 0.000000 -2.987507 -0.064640 0.326477
    18 2.975834 -0.386307 -0.044143 -0.015298 -0.040855 0.340466
    19 1.438886 0.000000 0.000000 0.000000 0.000000 0.662877
    20 1.485303 0.000000 0.000000 0.000000 0.000000 0.689056
    21 -2.869898 1.399663 -4.140396 -0.658182 1.297167 2.029830
    22 4.972048 0.000000 0.000001 1.242691 -0.185416 -2.039577
    23 11.585355 0.000000 0.000000 0.000000 0.000000 -0.621770
    24 10.127057 0.000000 0.000001 1.721745 0.262810 0.362604
    25 2.683750 -0.427338 0.044205 -0.005786 0.043239 -0.157091
    26 1.438885 -0.000001 0.000000 0.000000 0.000000 0.732658
    27 1.485305 0.000001 0.000000 0.000000 0.000000 1.168770
    28 1.646738 0.449549 -1.702246 0.154002 0.442277 0.277235
    29 0.928312 0.000000 -0.000002 0.000000 0.000000 0.000000
    30 0.928314 0.000000 0.000001 0.000000 0.000000 0.000000
    31 1.533672 0.109715 1.664491 -0.264755 -0.055959 0.783109
    32 0.928313 0.000000 0.000000 0.000000 0.000000 -0.453556
    33 0.928314 0.000000 0.000001 0.000000 0.000000 0.000000
  time 7
    0 0.235347 0.367732 3.528927 0.000000 0.000000 -1.570874
    1 0.000000 0.000000 0.000000 -1.570795 -1.570796 0.000000
    2 -0.000005 0.000007 3.713255 0.002054 3.115505 -0.021473
    3 18.045721 0.000000 0.000000 0.000000 0.000000 -0.121501
    4 17.597597 0.000000 0.000000 -0.002613 0.026036 0.099967
    5 0.000005 -0.000003 -3.713255 -0.002524 -3.124238 -0.024449
    6 18.045725 0.000000 0.000000 0.000000 0.000000 -0.127551
    7 17.597597 0.000000 0.000000 0.002950 -0.017289 0.103055
    8 1.293670 0.684478 -0.000001 -0.000004 -0.000001 -0.007924
    9 5.309685 -0.003834 0.000000 -0.224662 -0.031100 -0.136039
    10 4.826790 -0.004591 0.000000 -0.121164 -0.015208 -0.125115
    11 5.792767 -0.005304 0.000000 -0.104189 -0.009923 -0.095422
    12 6.662317 -0.001453 0.000000 0.000000 -0.000001 0.471000
    13 2.046985 -0.000002 0.000000 0.590150 0.416662 -0.221084
    14 -3.112024 1.517254 4.341911 1.136466 -1.086187 1.581905
    15 4.827230 0.000000 0.000001 -0.781782 0.262153 -0.805890
    16 11.139763 0.000000 0.000000 0.000000 0.000000 -1.371455
    17 10.314597 0.000001 0.000000 -2.987507 -0.064640 0.326477
    18 2.975834 -0.386307 -0.044143 -0.015298 -0.040855 0.340466
    19 1.438886 0.000000 0.000000 0.000000 0.000000 0.662877
    20 1.485303 0.000000 0.000000 0.000000 0.000000 0.689056
    21 -2.869898 1.399663 -4.140396 -0.649554 1.293973 2.038842
    22 4.972048 0.000000 0.000001 1.237817 -0.185174 -2.039182
    23 11.585355 0.000000 0.000000 0.000000 0.000000 -0.621770
    24 10.127057 0.000000 0.000001 1.721745 0.262810 0.362604
    25 2.683750 -0.427338 0.044205 -0.005786 0.043239 -0.157091
    26 1.438885 -0.000001 0.000000 0.000000 0.000000 0.732658
    27 1.485305 0.000001 0.000000 0.000000 0.000000 1.168770
    28 1.646738 0.449549 -1.702246 0.154002 0.442277 0.277235
    29 0.928312 0.000000 -0.000002 0.000000 0.000000 0.000000
    30 0.928314 0.000000 0.000001 0.000000 0.000000 0.000000
    31 1.533672 0.109715 1.664491 -0.264755 -0.055959 0.783109
    32 0.928313 0.000000 0.000000 0.000000 0.000000 -0.453556
    33 0.928314 0.000000 0.000001 0.000000 0.000000 0.000000
  time 8
    0 0.235347 0.367732 3.528927 0.000000 0.000000 -1.570874
    1 0.000000 0.000000 0.000000 -1.570795 -1.570796 0.000000
    2 -0.000005 0.000007 3.713255 0.002054 3.115505 -0.021473
    3 18.045721 0.000000 0.000000 0.000000 0.000000 -0.121501
    4 17.597597 0.000000 0.000000 -0.002613 0.026036 0.099967
    5 0.000005 -0.000003 -3.713255 -0.002524 -3.124238 -0.024449
    6 18.045725 0.000000 0.000000 0.000000 0.000000 -0.127551
    7 17.597597 0.000000 0.000000 0.002950 -0.017289 0.103055
    8 1.293670 0.684478 -0.000001 -0.000004 -0.000001 -0.007924
    9 5.309685 -0.003834 0.000000 -0.224662 -0.031100 -0.136039
    10 4.826790 -0.004591 0.000000 -0.121196 -0.014921 -0.122733
    11 5.792767 -0.005304 0.000000 -0.104189 -0.009923 -0.095422
    12 6.662317 -0.001453 0.000000 0.000000 -0.000001 0.471000
    13 2.046985 -0.000002 0.000000 0.590193 0.416910 -0.223422
    14 -3.112024 1.517254 4.341911 1.130905 -1.084841 1.588041
    15 4.827230 0.000000 0.000001 -0.779903 0.257642 -0.805890
    16 11.139763 0.000000 0.000000 0.000000 0.000000 -1.371455
    17 10.314597 0.000001 0.000000 -2.987507 -0.064640 0.326477
    18 2.975834 -0.386307 -0.044143 -0.015298 -0.040855 0.340466
    19 1.438886 0.000000 0.000000 0.000000 0.000000 0.662877
    20 1.485303 0.000000 0.000000 0.000000 0.000000 0.689056
    21 -2.869898 1.399663 -4.140396 -0.641117 1.290779 2.047567
    22 4.972048 0.000000 0.000001 1.233021 -0.184933 -2.038786
    23 11.585355 0.000000 0.000000 0.000000 0.000000 -0.621770
    24 10.127057 0.000000 0.000001 1.721745 0.262810 0.362604
    25 2.683750 -0.427338 0.044205 -0.005786 0.043239 -0.157091
    26 1.438885 -0.000001 0.000000 0.000000 0.000000 0.732658
    27 1.485305 0.000001 0.000000 0.000000 0.000000 1.168770
    28 1.646738 0.449549 -1.702246 0.154002 0.442277 0.277235
    29 0.928312 0.000000 -0.000002 0.000000 0.000000 0.000000
    30 0.928314 0.000000 0.000001 0.000000 0.000000 0.000000
    31 1.533672 0.109715 1.664491 -0.264755 -0.055959 0.783109
    32 0.928313 0.000000 0.000000 0.000000 0.000000 -0.453556
    33 0.928314 0.000000 0.000001 0.000000 0.000000 0.000000
  time 9
    0 0.235347 0.367732 3.528927 0.000000 0.000000 -1.570874
    1 0.000000 0.000000 0.000000 -1.570795 -1.570796 0.000000
    2 -0.000005 0.000007 3.713255 0.002054 3.115505 -0.021473
    3 18.045721 0.000000 0.000000 0.000000 0.000000 -0.121501
    4 17.597597 0.000000 0.000000 -0.002613 0.026036 0.099967
    5 0.000005 -0.000003 -3.713255 -0.002524 -3.124238 -0.024449
    6 18.045725 0.000000 0.000000 0.000000 0.000000 -0.127551
    7 17.597597 0.000000 0.000000 0.002950 -0.017289 0.103055
    8 1.293670 0.684478 -0.000001 -0.000004 -0.000001 -0.007924
    9 5.309685 -0.003834 0.000000 -0.224662 -0.031100 -0.136039
    10 4.826790 -0.004591 0.000000 -0.121229 -0.014645 -0.120440
    11 5.792767 -0.005304 0.000000 -0.104189 -0.009923 -0.095422
    12 6.662317 -0.001453 0.000000 0.000000 -0.000001 0.471000
    13 2.046985 -0.000002 0.000000 0.590236 0.417135 -0.225714
    14 -3.112024 1.517254 4.341911 1.125728 -1.083533 1.593985
    15 4.827230 0.000000 0.000001 -0.778082 0.253302 -0.805890
    16 11.139763 0.000000 0.000000 0.000000 0.000000 -1.371455
    17 10.314597 0.000001 0.000000 -2.987507 -0.064640 0.326477
    18 2.975834 -0.386307 -0.044143 -0.015298 -0.040855 0.340466
    19 1.438886 0.000000 0.000000 0.000000 0.000000 0.662877
    20 1.485303 0.000000 0.000000 0.000000 0.000000 0.689056
    21 -2.869898 1.399663 -4.140396 -0.633255 1.287698 2.055812
    22 4.972048 0.000000 0.000001 1.228380 -0.184772 -2.038457
    23 11.585355 0.000000 0.000000 0.000000 0.000000 -0.621770
    24 10.127057 0.000000 0.000001 1.721745 0.262810 0.362604
    25 2.683750 -0.427338 0.044205 -0.005786 0.043239 -0.157091
    26 1.438885 -0.000001 0.000000 0.000000 0.000000 0.732658
    27 1.485305 0.000001 0.000000 0.000000 0.000000 1.168770
    28 1.646738 0.449549 -1.702246 0.154002 0.442277 0.277235
    29 0.928312 0.000000 -0.000002 0.000000 0.000000 0.000000
    30 0.928314 0.000000 0.000001 0.000000 0.000000 0.000000
    31 1.533672 0.109715 1.664491 -0.264755 -0.055959 0.783109
    32 0.928313 0.000000 0.000000 0.000000 0.000000 -0.453556
    33 0.928314 0.000000 0.000001 0.000000 0.000000 0.000000
  time 10
    0 0.235347 0.367732 3.528927 0.000000 0.000000 -1.570874
    1 0.000000 0.000000 0.000000 -1.570795 -1.570796 0.000000
    2 -0.000005 0.000007 3.713255 0.002054 3.115505 -0.021473
    3 18.045721 0.000000 0.000000 0.000000 0.000000 -0.121501
    4 17.597597 0.000000 0.000000 -0.002613 0.026036 0.099967
    5 0.000005 -0.000003 -3.713255 -0.002524 -3.124238 -0.024449
    6 18.045725 0.000000 0.000000 0.000000 0.000000 -0.127551
    7 17.597597 0.000000 0.000000 0.002950 -0.017289 0.103055
    8 1.293670 0.684478 -0.000001 -0.000004 -0.000001 -0.007924
    9 5.309685 -0.003834 0.000000 -0.224662 -0.031100 -0.136039
    10 4.826790 -0.004591 0.000000 -0.121262 -0.014382 -0.118324
    11 5.792767 -0.005304 0.000000 -0.104189 -0.009923 -0.095422
    12 6.662317 -0.001453 0.000000 0.000000 -0.000001 0.471000
    13 2.046985 -0.000002 0.000000 0.590236 0.417360 -0.227827
    14 -3.112024 1.517254 4.341911 1.120838 -1.082302 1.599450
    15 4.827230 0.000000 0.000001 -0.776437 0.249302 -0.805977
    16 11.139763 0.000000 0.000000 0.000000 0.000000 -1.371455
    17 10.314597 0.000001 0.000000 -2.987507 -0.064640 0.326477
    18 2.975834 -0.386307 -0.044143 -0.015298 -0.040855 0.340466
    19 1.438886 0.000000 0.000000 0.000000 0.000000 0.662877
    20 1.485303 0.000000 0.000000 0.000000 0.000000 0.689056
    21 -2.869898 1.399663 -4.140396 -0.626065 1.284816 2.063290
    22 4.972048 0.000000 0.000001 1.224048 -0.184611 -2.038128
    23 11.585355 0.000000 0.000000 0.000000 0.000000 -0.621770
    24 10.127057 0.000000 0.000001 1.721745 0.262810 0.362604
    25 2.683750 -0.427338 0.044205 -0.005786 0.043239 -0.157091
    26 1.438885 -0.000001 0.000000 0.000000 0.000000 0.732658
    27 1.485305 0.000001 0.000000 0.000000 0.000000 1.168770
    28 1.646738 0.449549 -1.702246 0.154002 0.442277 0.277235
    29 0.928312 0.000000 -0.000002 0.000000 0.000000 0.000000
    30 0.928314 0.000000 0.000001 0.000000 0.000000 0.000000
    31 1.533672 0.109715 1.664491 -0.264755 -0.055959 0.783109
    32 0.928313 0.000000 0.000000 0.000000 0.000000 -0.453556
    33 0.928314 0.000000 0.000001 0.000000 0.000000 0.000000
  time 11
    0 0.235347 0.367732 3.528927 0.000000 0.000000 -1.570874
    1 0.000000 0.000000 0.000000 -1.570795 -1.570796 0.000000
    2 -0.000005 0.000007 3.713255 0.002054 3.115505 -0.021473
    3 18.045721 0.000000 0.000000 0.000000 0.000000 -0.121501
    4 17.597597 0.000000 0.000000 -0.002613 0.026036 0.099967
    5 0.000005 -0.000003 -3.713255 -0.002524 -3.124238 -0.024449
    6 18.045725 0.000000 0.000000 0.000000 0.000000 -0.127551
    7 17.597597 0.000000 0.000000 0.002950 -0.017289 0.103055
    8 1.293670 0.684478 -0.000001 -0.000004 -0.000001 -0.007924
    9 5.309685 -0.003834 0.000000 -0.224662 -0.031100 -0.136039
    10 4.826790 -0.004591 0.000000 -0.121278 -0.014154 -0.116427
    11 5.792767 -0.005304 0.000000 -0.104189 -0.009923 -0.095422
    12 6.662317 -0.001453 0.000000 0.000000 -0.000001 0.471000
    13 2.046985 -0.000002 0.000000 0.590279 0.417563 -0.229714
    14 -3.112024 1.517254 4.341911 1.116524 -1.081187 1.604340
    15 4.827230 0.000000 0.000001 -0.774910 0.245643 -0.805977
    16 11.139763 0.000000 0.000000 0.000000 0.000000 -1.371455
    17 10.314597 0.000001 0.000000 -2.987507 -0.064640 0.326477
    18 2.975834 -0.386307 -0.044143 -0.015298 -0.040855 0.340466
    19 1.438886 0.000000 0.000000 0.000000 0.000000 0.662877
    20 1.485303 0.000000 0.000000 0.000000 0.000000 0.689056
    21 -2.869898 1.399663 -4.140396 -0.619737 1.282243 2.069809
    22 4.972048 0.000000 0.000001 1.220180 -0.184370 -2.037864
    23 11.585355 0.000000 0.000000 0.000000 0.000000 -0.621770
    24 10.127057 0.000000 0.000001 1.721745 0.262810 0.362604
    25 2.683750 -0.427338 0.044205 -0.005786 0.043239 -0.157091
    26 1.438885 -0.000001 0.000000 0.000000 0.000000 0.732658
    27 1.485305 0.000001 0.000000 0.000000 0.000000 1.168770
    28 1.646738 0.449549 -1.702246 0.154002 0.442277 0.277235
    29 0.928312 0.000000 -0.000002 0.000000 0.000000 0.000000
    30 0.928314 0.000000 0.000001 0.000000 0.000000 0.000000
    31 1.533672 0.109715 1.664491 -0.264755 -0.055959 0.783109
    32 0.928313 0.000000 0.000000 0.000000 0.000000 -0.453556
    33 0.928314 0.000000 0.000001 0.000000 0.000000 0.000000
  time 12
    0 0.235347 0.367732 3.528927 0.000000 0.000000 -1.570874
    1 0.000000 0.000000 0.000000 -1.570795 -1.570796 0.000000
    2 -0.000005 0.000007 3.713255 0.002054 3.115505 -0.021473
    3 18.045721 0.000000 0.000000 0.000000 0.000000 -0.121501
    4 17.597597 0.000000 0.000000 -0.002613 0.026036 0.099967
    5 0.000005 -0.000003 -3.713255 -0.002524 -3.124238 -0.024449
    6 18.045725 0.000000 0.000000 0.000000 0.000000 -0.127551
    7 17.597597 0.000000 0.000000 0.002950 -0.017289 0.103055
    8 1.293670 0.684478 -0.000001 -0.000004 -0.000001 -0.007924
    9 5.309685 -0.003834 0.000000 -0.224662 -0.031100 -0.136039
    10 4.826790 -0.004591 0.000000 -0.121311 -0.013962 -0.114840
    11 5.792767 -0.005304 0.000000 -0.104189 -0.009923 -0.095422
    12 6.662317 -0.001453 0.000000 0.000000 -0.000001 0.471000
    13 2.046985 -0.000002 0.000000 0.590322 0.417720 -0.231287
    14 -3.112024 1.517254 4.341911 1.112977 -1.080263 1.608462
    15 4.827230 0.000000 0.000001 -0.773677 0.242665 -0.805977
    16 11.139763 0.000000 0.000000 0.000000 0.000000 -1.371455
    17 10.314597 0.000001 0.000000 -2.987507 -0.064640 0.326477
    18 2.975834 -0.386307 -0.044143 -0.015298 -0.040855 0.340466
    19 1.438886 0.000000 0.000000 0.000000 0.000000 0.662877
    20 1.485303 0.000000 0.000000 0.000000 0.000000 0.689056
    21 -2.869898 1.399663 -4.140396 -0.614560 1.280039 2.075274
    22 4.972048 0.000000 0.000001 1.217009 -0.184290 -2.037601
    23 11.585355 0.000000 0.000000 0.000000 0.000000 -0.621770
    24 10.127057 0.000000 0.000001 1.721745 0.262810 0.362604
    25 2.683750 -0.427338 0.044205 -0.005786 0.043239 -0.157091
    26 1.438885 -0.000001 0.000000 0.000000 0.000000 0.732658
    27 1.485305 0.000001 0.000000 0.000000 0.000000 1.168770
    28 1.646738 0.449549 -1.702246 0.154002 0.442277 0.277235
    29 0.928312 0.000000 -0.000002 0.000000 0.000000 0.000000
    30 0.928314 0.000000 0.000001 0.000000 0.000000 0.000000
    31 1.533672 0.109715 1.664491 -0.264755 -0.055959 0.783109
    32 0.928313 0.000000 0.000000 0.000000 0.000000 -0.453556
    33 0.928314 0.000000 0.000001 0.000000 0.000000 0.000000
  time 13
    0 0.235347 0.367732 3.528927 0.000000 0.000000 -1.570874
    1 0.000000 0.000000 0.000000 -1.570795 -1.570796 0.000000
    2 -0.000005 0.000007 3.713255 0.002054 3.115505 -0.021473
    3 18.045721 0.000000 0.000000 0.000000 0.000000 -0.121501
    4 17.597597 0.000000 0.000000 -0.002613 0.026036 0.099967
    5 0.000005 -0.000003 -3.713255 -0.002524 -3.124238 -0.024449
    6 18.045725 0.000000 0.000000 0.000000 0.000000 -0.127551
    7 17.597597 0.000000 0.000000 0.002950 -0.017289 0.103055
    8 1.293670 0.684478 -0.000001 -0.000004 -0.000001 -0.007924
    9 5.309685 -0.003834 0.000000 -0.224662 -0.031100 -0.136039
    10 4.826790 -0.004591 0.000000 -0.121328 -0.013806 -0.113605
    11 5.792767 -0.005304 0.000000 -0.104189 -0.009923 -0.095422
    12 6.662317 -0.001453 0.000000 0.000000 -0.000001 0.471000
    13 2.046985 -0.000002 0.000000 0.590322 0.417855 -0.232501
    14 -3.112024 1.517254 4.341911 1.110197 -1.079533 1.611530
    15 4.827230 0.000000 0.000001 -0.772737 0.240367 -0.805977
    16 11.139763 0.000000 0.000000 0.000000 0.000000 -1.371455
    17 10.314597 0.000001 0.000000 -2.987507 -0.064640 0.326477
    18 2.975834 -0.386307 -0.044143 -0.015298 -0.040855 0.340466
    19 1.438886 0.000000 0.000000 0.000000 0.000000 0.662877
    20 1.485303 0.000000 0.000000 0.000000 0.000000 0.689056
    21 -2.869898 1.399663 -4.140396 -0.610629 1.278371 2.079396
    22 4.972048 0.000000 0.000001 1.214456 -0.184129 -2.037469
    23 11.585355 0.000000 0.000000 0.000000 0.000000 -0.621770
    24 10.127057 0.000000 0.000001 1.721745 0.262810 0.362604
    25 2.683750 -0.427338 0.044205 -0.005786 0.043239 -0.157091
    26 1.438885 -0.000001 0.000000 0.000000 0.000000 0.732658
    27 1.485305 0.000001 0.000000 0.000000 0.000000 1.168770
    28 1.646738 0.449549 -1.702246 0.154002 0.442277 0.277235
    29 0.928312 0.000000 -0.000002 0.000000 0.000000 0.000000
    30 0.928314 0.000000 0.000001 0.000000 0.000000 0.000000
    31 1.533672 0.109715 1.664491 -0.264755 -0.055959 0.783109
    32 0.928313 0.000000 0.000000 0.000000 0.000000 -0.453556
    33 0.928314 0.000000 0.000001 0.000000 0.000000 0.000000
  time 14
    0 0.235347 0.367732 3.528927 0.000000 0.000000 -1.570874
    1 0.000000 0.000000 0.000000 -1.570795 -1.570796 0.000000
    2 -0.000005 0.000007 3.713255 0.002054 3.115505 -0.021473
    3 18.045721 0.000000 0.000000 0.000000 0.000000 -0.121501
    4 17.597597 0.000000 0.000000 -0.002613 0.026036 0.099967
    5 0.000005 -0.000003 -3.713255 -0.002524 -3.124238 -0.024449
    6 18.045725 0.000000 0.000000 0.000000 0.000000 -0.127551
    7 17.597597 0.000000 0.000000 0.002950 -0.017289 0.103055
    8 1.293670 0.684478 -0.000001 -0.000004 -0.000001 -0.007924
    9 5.309685 -0.003834 0.000000 -0.224662 -0.031100 -0.136039
    10 4.826790 -0.004591 0.000000 -0.121328 -0.013710 -0.112833
    11 5.792767 -0.005304 0.000000 -0.104189 -0.009923 -0.095422
    12 6.662317 -0.001453 0.000000 0.000000 -0.000001 0.471000
    13 2.046985 -0.000002 0.000000 0.590322 0.417945 -0.233265
    14 -3.112024 1.517254 4.341911 1.108471 -1.079032 1.613544
    15 4.827230 0.000000 0.000001 -0.772091 0.238835 -0.806065
    16 11.139763 0.000000 0.000000 0.000000 0.000000 -1.371455
    17 10.314597 0.000001 0.000000 -2.987507 -0.064640 0.326477
    18 2.975834 -0.386307 -0.044143 -0.015298 -0.040855 0.340466
    19 1.438886 0.000000 0.000000 0.000000 0.000000 0.662877
    20 1.485303 0.000000 0.000000 0.000000 0.000000 0.689056
    21 -2.869898 1.399663 -4.140396 -0.608137 1.277297 2.081985
    22 4.972048 0.000000 0.000001 1.212909 -0.184048 -2.037337
    23 11.585355 0.000000 0.000000 0.000000 0.000000 -0.621770
    24 10.127057 0.000000 0.000001 1.721745 0.262810 0.362604
    25 2.683750 -0.427338 0.044205 -0.005786 0.043239 -0.157091
    26 1.438885 -0.000001 0.000000 0.000000 0.000000 0.732658
    27 1.485305 0.000001 0.000000 0.000000 0.000000 1.168770
    28 1.646738 0.449549 -1.702246 0.154002 0.442277 0.277235
    29 0.928312 0.000000 -0.000002 0.000000 0.000000 0.000000
    30 0.928314 0.000000 0.000001 0.000000 0.000000 0.000000
    31 1.533672 0.109715 1.664491 -0.264755 -0.055959 0.783109
    32 0.928313 0.000000 0.000000 0.000000 0.000000 -0.453556
    33 0.928314 0.000000 0.000001 0.000000 0.000000 0.000000
  time 15
    0 0.235347 0.367732 3.528927 0.000000 0.000000 -1.570874
    1 0.000000 0.000000 0.000000 -1.570795 -1.570796 0.000000
    2 -0.000005 0.000007 3.713255 0.002054 3.115505 -0.021473
    3 18.045721 0.000000 0.000000 0.000000 0.000000 -0.121501
    4 17.597597 0.000000 0.000000 -0.002613 0.026036 0.099967
    5 0.000005 -0.000003 -3.713255 -0.002524 -3.124238 -0.024449
    6 18.045725 0.000000 0.000000 0.000000 0.000000 -0.127551
    7 17.597597 0.000000 0.000000 0.002950 -0.017289 0.103055
    8 1.293670 0.684478 -0.000001 -0.000004 -0.000001 -0.007924
    9 5.309685 -0.003834 0.000000 -0.224662 -0.031100 -0.136039
    10 4.826790 -0.004591 0.000000 -0.121344 -0.013674 -0.112547
    11 5.792767 -0.005304 0.000000 -0.104189 -0.009923 -0.095422
    12 6.662317 -0.001453 0.000000 0.000000 -0.000001 0.471000
    13 2.046985 -0.000002 0.000000 0.590365 0.417968 -0.233580
    14 -3.112024 1.517254 4.341911 1.107800 -1.078879 1.614311
    15 4.827230 0.000000 0.000001 -0.771915 0.238324 -0.806065
    16 11.139763 0.000000 0.000000 0.000000 0.000000 -1.371455
    17 10.314597 0.000001 0.000000 -2.987507 -0.064640 0.326477
    18 2.975834 -0.386307 -0.044143 -0.015298 -0.040855 0.340466
    19 1.438886 0.000000 0.000000 0.000000 0.000000 0.662877
    20 1.485303 0.000000 0.000000 0.000000 0.000000 0.689056
    21 -2.869898 1.399663 -4.140396 -0.607274 1.276902 2.082944
    22 4.972048 0.000000 0.000001 1.212368 -0.184048 -2.037271
    23 11.585355 0.000000 0.000000 0.000000 0.000000 -0.621770
    24 10.127057 0.000000 0.000001 1.721745 0.262810 0.362604
    25 2.683750 -0.427338 0.044205 -0.005786 0.043239 -0.157091
    26 1.438885 -0.000001 0.000000 0.000000 0.000000 0.732658
    27 1.485305 0.000001 0.000000 0.000000 0.000000 1.168770
    28 1.646738 0.449549 -1.702246 0.154002 0.442277 0.277235
    29 0.928312 0.000000 -0.000002 0.000000 0.000000 0.000000
    30 0.928314 0.000000 0.000001 0.000000 0.000000 0.000000
    31 1.533672 0.109715 1.664491 -0.264755 -0.055959 0.783109
    32 0.928313 0.000000 0.000000 0.000000 0.000000 -0.453556
    33 0.928314 0.000000 0.000001 0.000000 0.000000 0.000000
  time 16
    0 0.235347 0.367732 3.528927 0.000000 0.000000 -1.570874
    1 0.000000 0.000000 0.000000 -1.570795 -1.570796 0.000000
    2 -0.000005 0.000007 3.713255 0.002054 3.115505 -0.021473
    3 18.045721 0.000000 0.000000 0.000000 0.000000 -0.121501
    4 17.597597 0.000000 0.000000 -0.002613 0.026036 0.099967
    5 0.000005 -0.000003 -3.713255 -0.002524 -3.124238 -0.024449
    6 18.045725 0.000000 0.000000 0.000000 0.000000 -0.127551
    7 17.597597 0.000000 0.000000 0.002950 -0.017289 0.103055
    8 1.293670 0.684478 -0.000001 -0.000004 -0.000001 -0.007924
    9 5.309685 -0.003834 0.000000 -0.224662 -0.031100 -0.136039
    10 4.826790 -0.004591 0.000000 -0.121328 -0.013710 -0.112833
    11 5.792767 -0.005304 0.000000 -0.104189 -0.009923 -0.095422
    12 6.662317 -0.001453 0.000000 0.000000 -0.000001 0.471000
    13 2.046985 -0.000002 0.000000 0.590322 0.417945 -0.233265
    14 -3.112024 1.517254 4.341911 1.108471 -1.079032 1.613544
    15 4.827230 0.000000 0.000001 -0.772091 0.238835 -0.806065
    16 11.139763 0.000000 0.000000 0.000000 0.000000 -1.371455
    17 10.314597 0.000001 0.000000 -2.987507 -0.064640 0.326477
    18 2.975834 -0.386307 -0.044143 -0.015298 -0.040855 0.340466
    19 1.438886 0.000000 0.000000 0.000000 0.000000 0.662877
    20 1.485303 0.000000 0.000000 0.000000 0.000000 0.689056
    21 -2.869898 1.399663 -4.140396 -0.608137 1.277297 2.081985
    22 4.972048 0.000000 0.000001 1.212909 -0.184048 -2.037337
    23 11.585355 0.000000 0.000000 0.000000 0.000000 -0.621770
    24 10.127057 0.000000 0.000001 1.721745 0.262810 0.362604
    25 2.683750 -0.427338 0.044205 -0.005786 0.043239 -0.157091
    26 1.438885 -0.000001 0.000000 0.000000 0.000000 0.732658
    27 1.485305 0.000001 0.000000 0.000000 0.000000 1.168770
    28 1.646738 0.449549 -1.702246 0.154002 0.442277 0.277235
    29 0.928312 0.000000 -0.000002 0.000000 0.000000 0.000000
    30 0.928314 0.000000 0.000001 0.000000 0.000000 0.000000
    31 1.533672 0.109715 1.664491 -0.264755 -0.055959 0.783109
    32 0.928313 0.000000 0.000000 0.000000 0.000000 -0.453556
    33 0.928314 0.000000 0.000001 0.000000 0.000000 0.000000
  time 17
    0 0.235347 0.367732 3.528927 0.000000 0.000000 -1.570874
    1 0.000000 0.000000 0.000000 -1.570795 -1.570796 0.000000
    2 -0.000005 0.000007 3.713255 0.002054 3.115505 -0.021473
    3 18.045721 0.000000 0.000000 0.000000 0.000000 -0.121501
    4 17.597597 0.000000 0.000000 -0.002613 0.026036 0.099967
    5 0.000005 -0.000003 -3.713255 -0.002524 -3.124238 -0.024449
    6 18.045725 0.000000 0.000000 0.000000 0.000000 -0.127551
    7 17.597597 0.000000 0.000000 0.002950 -0.017289 0.103055
    8 1.293670 0.684478 -0.000001 -0.000004 -0.000001 -0.007924
    9 5.309685 -0.003834 0.000000 -0.224662 -0.031100 -0.136039
    10 4.826790 -0.004591 0.000000 -0.121328 -0.013806 -0.113605
    11 5.792767 -0.005304 0.000000 -0.104189 -0.009923 -0.095422
    12 6.662317 -0.001453 0.000000 0.000000 -0.000001 0.471000
    13 2.046985 -0.000002 0.000000 0.590322 0.417855 -0.232501
    14 -3.112024 1.517254 4.341911 1.110197 -1.079533 1.611530
    15 4.827230 0.000000 0.000001 -0.772737 0.240367 -0.805977
    16 11.139763 0.000000 0.000000 0.000000 0.000000 -1.371455
    17 10.314597 0.000001 0.000000 -2.987507 -0.064640 0.326477
    18 2.975834 -0.386307 -0.044143 -0.015298 -0.040855 0.340466
    19 1.438886 0.000000 0.000000 0.000000 0.000000 0.662877
    20 1.485303 0.000000 0.000000 0.000000 0.000000 0.689056
    21 -2.869898 1.399663 -4.140396 -0.610629 1.278371 2.079396
    22 4.972048 0.000000 0.000001 1.214456 -0.184129 -2.037469
    23 11.585355 0.000000 0.000000 0.000000 0.000000 -0.621770
    24 10.127057 0.000000 0.000001 1.721745 0.262810 0.362604
    25 2.683750 -0.427338 0.044205 -0.005786 0.043239 -0.157091
    26 1.438885 -0.000001 0.000000 0.000000 0.000000 0.732658
    27 1.485305 0.000001 0.000000 0.000000 0.000000 1.168770
    28 1.646738 0.449549 -1.702246 0.154002 0.442277 0.277235
    29 0.928312 0.000000 -0.000002 0.000000 0.000000 0.000000
    30 0.928314 0.000000 0.000001 0.000000 0.000000 0.000000
    31 1.533672 0.109715 1.664491 -0.264755 -0.055959 0.783109
    32 0.928313 0.000000 0.000000 0.000000 0.000000 -0.453556
    33 0.928314 0.000000 0.000001 0.000000 0.000000 0.000000
  time 18
    0 0.235347 0.367732 3.528927 0.000000 0.000000 -1.570874
    1 0.000000 0.000000 0.000000 -1.570795 -1.570796 0.000000
    2 -0.000005 0.000007 3.713255 0.002054 3.115505 -0.021473
    3 18.045721 0.000000 0.000000 0.000000 0.000000 -0.121501
    4 17.597597 0.000000 0.000000 -0.002613 0.026036 0.099967
    5 0.000005 -0.000003 -3.713255 -0.002524 -3.124238 -0.024449
    6 18.045725 0.000000 0.000000 0.000000 0.000000 -0.127551
    7 17.597597 0.000000 0.000000 0.002950 -0.017289 0.103055
    8 1.293670 0.684478 -0.000001 -0.000004 -0.000001 -0.007924
    9 5.309685 -0.003834 0.000000 -0.224662 -0.031100 -0.136039
    10 4.826790 -0.004591 0.000000 -0.121311 -0.013962 -0.114840
    11 5.792767 -0.005304 0.000000 -0.104189 -0.009923 -0.095422
    12 6.662317 -0.001453 0.000000 0.000000 -0.000001 0.471000
    13 2.046985 -0.000002 0.000000 0.590322 0.417720 -0.231287
    14 -3.112024 1.517254 4.341911 1.112977 -1.080263 1.608462
    15 4.827230 0.000000 0.000001 -0.773677 0.242665 -0.805977
    16 11.139763 0.000000 0.000000 0.000000 0.000000 -1.371455
    17 10.314597 0.000001 0.000000 -2.987507 -0.064640 0.326477
    18 2.975834 -0.386307 -0.044143 -0.015298 -0.040855 0.340466
    19 1.438886 0.000000 0.000000 0.000000 0.000000 0.662877
    20 1.485303 0.000000 0.000000 0.000000 0.000000 0.689056
    21 -2.869898 1.399663 -4.140396 -0.614560 1.280039 2.075274
    22 4.972048 0.000000 0.000001 1.217009 -0.184290 -2.037601
    23 11.585355 0.000000 0.000000 0.000000 0.000000 -0.621770
    24 10.127057 0.000000 0.000001 1.721745 0.262810 0.362604
    25 2.683750 -0.427338 0.044205 -0.005786 0.043239 -0.157091
    26 1.438885 -0.000001 0.000000 0.000000 0.000000 0.732658
    27 1.485305 0.000001 0.000000 0.000000 0.000000 1.168770
    28 1.646738 0.449549 -1.702246 0.154002 0.442277 0.277235
    29 0.928312 0.000000 -0.000002 0.000000 0.000000 0.000000
    30 0.928314 0.000000 0.000001 0.000000 0.000000 0.000000
    31 1.533672 0.109715 1.664491 -0.264755 -0.055959 0.783109
    32 0.928313 0.000000 0.000000 0.000000 0.000000 -0.453556
    33 0.928314 0.000000 0.000001 0.000000 0.000000 0.000000
  time 19
    0 0.235347 0.367732 3.528927 0.000000 0.000000 -1.570874
    1 0.000000 0.000000 0.000000 -1.570795 -1.570796 0.000000
    2 -0.000005 0.000007 3.713255 0.002054 3.115505 -0.021473
    3 18.045721 0.000000 0.000000 0.000000 0.000000 -0.121501
    4 17.597597 0.000000 0.000000 -0.002613 0.026036 0.099967
    5 0.000005 -0.000003 -3.713255 -0.002524 -3.124238 -0.024449
    6 18.045725 0.000000 0.000000 0.000000 0.000000 -0.127551
    7 17.597597 0.000000 0.000000 0.002950 -0.017289 0.103055
    8 1.293670 0.684478 -0.000001 -0.000004 -0.000001 -0.007924
    9 5.309685 -0.003834 0.000000 -0.224662 -0.031100 -0.136039
    10 4.826790 -0.004591 0.000000 -0.121278 -0.014154 -0.116427
    11 5.792767 -0.005304 0.000000 -0.104189 -0.009923 -0.095422
    12 6.662317 -0.001453 0.000000 0.000000 -0.000001 0.471000
    13 2.046985 -0.000002 0.000000 0.590279 0.417563 -0.229714
    14 -3.112024 1.517254 4.341911 1.116524 -1.081187 1.604340
    15 4.827230 0.000000 0.000001 -0.774910 0.245643 -0.805977
    16 11.139763 0.000000 0.000000 0.000000 0.000000 -1.371455
    17 10.314597 0.000001 0.000000 -2.987507 -0.064640 0.326477
    18 2.975834 -0.386307 -0.044143 -0.015298 -0.040855 0.340466
    19 1.438886 0.000000 0.000000 0.000000 0.000000 0.662877
    20 1.485303 0.000000 0.000000 0.000000 0.000000 0.689056
    21 -2.869898 1.399663 -4.140396 -0.619737 1.282243 2.069809
    22 4.972048 0.000000 0.000001 1.220180 -0.184370 -2.037864
    23 11.585355 0.000000 0.000000 0.000000 0.000000 -0.621770
    24 10.127057 0.000000 0.000001 1.721745 0.262810 0.362604
    25 2.683750 -0.427338 0.044205 -0.005786 0.043239 -0.157091
    26 1.438885 -0.000001 0.000000 0.000000 0.000000 0.732658
    27 1.485305 0.000001 0.000000 0.000000 0.000000 1.168770
    28 1.646738 0.449549 -1.702246 0.154002 0.442277 0.277235
    29 0.928312 0.000000 -0.000002 0.000000 0.000000 0.000000
    30 0.928314 0.000000 0.000001 0.000000 0.000000 0.000000
    31 1.533672 0.109715 1.664491 -0.264755 -0.055959 0.783109
    32 0.928313 0.000000 0.000000 0.000000 0.000000 -0.453556
    33 0.928314 0.000000 0.000001 0.000000 0.000000 0.000000
  time 20
    0 0.235347 0.367732 3.528927 0.000000 0.000000 -1.570874
    1 0.000000 0.000000 0.000000 -1.570795 -1.570796 0.000000
    2 -0.000005 0.000007 3.713255 0.002054 3.115505 -0.021473
    3 18.045721 0.000000 0.000000 0.000000 0.000000 -0.121501
    4 17.597597 0.000000 0.000000 -0.002613 0.026036 0.099967
    5 0.000005 -0.000003 -3.713255 -0.002524 -3.124238 -0.024449
    6 18.045725 0.000000 0.000000 0.000000 0.000000 -0.127551
    7 17.597597 0.000000 0.000000 0.002950 -0.017289 0.103055
    8 1.293670 0.684478 -0.000001 -0.000004 -0.000001 -0.007924
    9 5.309685 -0.003834 0.000000 -0.224662 -0.031100 -0.136039
    10 4.826790 -0.004591 0.000000 -0.121262 -0.014382 -0.118324
    11 5.792767 -0.005304 0.000000 -0.104189 -0.009923 -0.095422
    12 6.662317 -0.001453 0.000000 0.000000 -0.000001 0.471000
    13 2.046985 -0.000002 0.000000 0.590236 0.417360 -0.227827
    14 -3.112024 1.517254 4.341911 1.120838 -1.082302 1.599450
    15 4.827230 0.000000 0.000001 -0.776437 0.249302 -0.805977
    16 11.139763 0.000000 0.000000 0.000000 0.000000 -1.371455
    17 10.314597 0.000001 0.000000 -2.987507 -0.064640 0.326477
    18 2.975834 -0.386307 -0.044143 -0.015298 -0.040855 0.340466
    19 1.438886 0.000000 0.000000 0.000000 0.000000 0.662877
    20 1.485303 0.000000 0.000000 0.000000 0.000000 0.689056
    21 -2.869898 1.399663 -4.140396 -0.626065 1.284816 2.063290
    22 4.972048 0.000000 0.000001 1.224048 -0.184611 -2.038128
    23 11.585355 0.000000 0.000000 0.000000 0.000000 -0.621770
    24 10.127057 0.000000 0.000001 1.721745 0.262810 0.362604
    25 2.683750 -0.427338 0.044205 -0.005786 0.043239 -0.157091
    26 1.438885 -0.000001 0.000000 0.000000 0.000000 0.732658
    27 1.485305 0.000001 0.000000 0.000000 0.000000 1.168770
    28 1.646738 0.449549 -1.702246 0.154002 0.442277 0.277235
    29 0.928312 0.000000 -0.000002 0.000000 0.000000 0.000000
    30 0.928314 0.000000 0.000001 0.000000 0.000000 0.000000
    31 1.533672 0.109715 1.664491 -0.264755 -0.055959 0.783109
    32 0.928313 0.000000 0.000000 0.000000 0.000000 -0.453556
    33 0.928314 0.000000 0.000001 0.000000 0.000000 0.000000
  time 21
    0 0.235347 0.367732 3.528927 0.000000 0.000000 -1.570874
    1 0.000000 0.000000 0.000000 -1.570795 -1.570796 0.000000
    2 -0.000005 0.000007 3.713255 0.002054 3.115505 -0.021473
    3 18.045721 0.000000 0.000000 0.000000 0.000000 -0.121501
    4 17.597597 0.000000 0.000000 -0.002613 0.026036 0.099967
    5 0.000005 -0.000003 -3.713255 -0.002524 -3.124238 -0.024449
    6 18.045725 0.000000 0.000000 0.000000 0.000000 -0.127551
    7 17.597597 0.000000 0.000000 0.002950 -0.017289 0.103055
    8 1.293670 0.684478 -0.000001 -0.000004 -0.000001 -0.007924
    9 5.309685 -0.003834 0.000000 -0.224662 -0.031100 -0.136039
    10 4.826790 -0.004591 0.000000 -0.121229 -0.014645 -0.120440
    11 5.792767 -0.005304 0.000000 -0.104189 -0.009923 -0.095422
    12 6.662317 -0.001453 0.000000 0.000000 -0.000001 0.471000
    13 2.046985 -0.000002 0.000000 0.590236 0.417135 -0.225714
    14 -3.112024 1.517254 4.341911 1.125728 -1.083533 1.593985
    15 4.827230 0.000000 0.000001 -0.778082 0.253302 -0.805890
    16 11.139763 0.000000 0.000000 0.000000 0.000000 -1.371455
    17 10.314597 0.000001 0.000000 -2.987507 -0.064640 0.326477
    18 2.975834 -0.386307 -0.044143 -0.015298 -0.040855 0.340466
    19 1.438886 0.000000 0.000000 0.000000 0.000000 0.662877
    20 1.485303 0.000000 0.000000 0.000000 0.000000 0.689056
    21 -2.869898 1.399663 -4.140396 -0.633255 1.287698 2.055812
    22 4.972048 0.000000 0.000001 1.228380 -0.184772 -2.038457
    23 11.585355 0.000000 0.000000 0.000000 0.000000 -0.621770
    24 10.127057 0.000000 0.000001 1.721745 0.262810 0.362604
    25 2.683750 -0.427338 0.044205 -0.005786 0.043239 -0.157091
    26 1.438885 -0.000001 0.000000 0.000000 0.000000 0.732658
    27 1.485305 0.000001 0.000000 0.000000 0.000000 1.168770
    28 1.646738 0.449549 -1.702246 0.154002 0.442277 0.277235
    29 0.928312 0.000000 -0.000002 0.000000 0.000000 0.000000
    30 0.928314 0.000000 0.000001 0.000000 0.000000 0.000000
    31 1.533672 0.109715 1.664491 -0.264755 -0.055959 0.783109
    32 0.928313 0.000000 0.000000 0.000000 0.000000 -0.453556
    33 0.928314 0.000000 0.000001 0.000000 0.000000 0.000000
  time 22
    0 0.235347 0.367732 3.528927 0.000000 0.000000 -1.570874
    1 0.000000 0.000000 0.000000 -1.570795 -1.570796 0.000000
    2 -0.000005 0.000007 3.713255 0.002054 3.115505 -0.021473
    3 18.045721 0.000000 0.000000 0.000000 0.000000 -0.121501
    4 17.597597 0.000000 0.000000 -0.002613 0.026036 0.099967
    5 0.000005 -0.000003 -3.713255 -0.002524 -3.124238 -0.024449
    6 18.045725 0.000000 0.000000 0.000000 0.000000 -0.127551
    7 17.597597 0.000000 0.000000 0.002950 -0.017289 0.103055
    8 1.293670 0.684478 -0.000001 -0.000004 -0.000001 -0.007924
    9 5.309685 -0.003834 0.000000 -0.224662 -0.031100 -0.136039
    10 4.826790 -0.004591 0.000000 -0.121196 -0.014921 -0.122733
    11 5.792767 -0.005304 0.000000 -0.104189 -0.009923 -0.095422
    12 6.662317 -0.001453 0.000000 0.000000 -0.000001 0.471000
    13 2.046985 -0.000002 0.000000 0.590193 0.416910 -0.223422
    14 -3.112024 1.517254 4.341911 1.130905 -1.084841 1.588041
    15 4.827230 0.000000 0.000001 -0.779903 0.257642 -0.805890
    16 11.139763 0.000000 0.000000 0.000000 0.000000 -1.371455
    17 10.314597 0.000001 0.000000 -2.987507 -0.064640 0.326477
    18 2.975834 -0.386307 -0.044143 -0.015298 -0.040855 0.340466
    19 1.438886 0.000000 0.000000 0.000000 0.000000 0.662877
    20 1.485303 0.000000 0.000000 0.000000 0.000000 0.689056
    21 -2.869898 1.399663 -4.140396 -0.641117 1.290779 2.047567
    22 4.972048 0.000000 0.000001 1.233021 -0.184933 -2.038786
    23 11.585355 0.000000 0.000000 0.000000 0.000000 -0.621770
    24 10.127057 0.000000 0.000001 1.721745 0.262810 0.362604
    25 2.683750 -0.427338 0.044205 -0.005786 0.043239 -0.157091
    26 1.438885 -0.000001 0.000000 0.000000 0.000000 0.732658
    27 1.485305 0.000001 0.000000 0.000000 0.000000 1.168770
    28 1.646738 0.449549 -1.702246 0.154002 0.442277 0.277235
    29 0.928312 0.000000 -0.000002 0.000000 0.000000 0.000000
    30 0.928314 0.000000 0.000001 0.000000 0.000000 0.000000
    31 1.533672 0.109715 1.664491 -0.264755 -0.055959 0.783109
    32 0.928313 0.000000 0.000000 0.000000 0.000000 -0.453556
    33 0.928314 0.000000 0.000001 0.000000 0.000000 0.000000
  time 23
    0 0.235347 0.367732 3.528927 0.000000 0.000000 -1.570874
    1 0.000000 0.000000 0.000000 -1.570795 -1.570796 0.000000
    2 -0.000005 0.000007 3.713255 0.002054 3.115505 -0.021473
    3 18.045721 0.000000 0.000000 0.000000 0.000000 -0.121501
    4 17.597597 0.000000 0.000000 -0.002613 0.026036 0.099967
    5 0.000005 -0.000003 -3.713255 -0.002524 -3.124238 -0.024449
    6 18.045725 0.000000 0.000000 0.000000 0.000000 -0.127551
    7 17.597597 0.000000 0.000000 0.002950 -0.017289 0.103055
    8 1.293670 0.684478 -0.000001 -0.000004 -0.000001 -0.007924
    9 5.309685 -0.003834 0.000000 -0.224662 -0.031100 -0.136039
    10 4.826790 -0.004591 0.000000 -0.121164 -0.015208 -0.125115
    11 5.792767 -0.005304 0.000000 -0.104189 -0.009923 -0.095422
    12 6.662317 -0.001453 0.000000 0.000000 -0.000001 0.471000
    13 2.046985 -0.000002 0.000000 0.590150 0.416662 -0.221084
    14 -3.112024 1.517254 4.341911 1.136466 -1.086187 1.581905
    15 4.827230 0.000000 0.000001 -0.781782 0.262153 -0.805890
    16 11.139763 0.000000 0.000000 0.000000 0.000000 -1.371455
    17 10.314597 0.000001 0.000000 -2.987507 -0.064640 0.326477
    18 2.975834 -0.386307 -0.044143 -0.015298 -0.040855 0.340466
    19 1.438886 0.000000 0.000000 0.000000 0.000000 0.662877
    20 1.485303 0.000000 0.000000 0.000000 0.000000 0.689056
    21 -2.869898 1.399663 -4.140396 -0.649554 1.293973 2.038842
    22 4.972048 0.000000 0.000001 1.237817 -0.185174 -2.039182
    23 11.585355 0.000000 0.000000 0.000000 0.000000 -0.621770
    24 10.127057 0.000000 0.000001 1.721745 0.262810 0.362604
    25 2.683750 -0.427338 0.044205 -0.005786 0.043239 -0.157091
    26 1.438885 -0.000001 0.000000 0.000000 0.000000 0.732658
    27 1.485305 0.000001 0.000000 0.000000 0.000000 1.168770
    28 1.646738 0.449549 -1.702246 0.154002 0.442277 0.277235
    29 0.928312 0.000000 -0.000002 0.000000 0.000000 0.000000
    30 0.928314 0.000000 0.000001 0.000000 0.000000 0.000000
    31 1.533672 0.109715 1.664491 -0.264755 -0.055959 0.783109
    32 0.928313 0.000000 0.000000 0.000000 0.000000 -0.453556
    33 0.928314 0.000000 0.000001 0.000000 0.000000 0.000000
  time 24
    0 0.235347 0.367732 3.528927 0.000000 0.000000 -1.570874
    1 0.000000 0.000000 0.000000 -1.570795 -1.570796 0.000000
    2 -0.000005 0.000007 3.713255 0.002054 3.115505 -0.021473
    3 18.045721 0.000000 0.000000 0.000000 0.000000 -0.121501
    4 17.597597 0.000000 0.000000 -0.002613 0.026036 0.099967
    5 0.000005 -0.000003 -3.713255 -0.002524 -3.124238 -0.024449
    6 18.045725 0.000000 0.000000 0.000000 0.000000 -0.127551
    7 17.597597 0.000000 0.000000 0.002950 -0.017289 0.103055
    8 1.293670 0.684478 -0.000001 -0.000004 -0.000001 -0.007924
    9 5.309685 -0.003834 0.000000 -0.224662 -0.031100 -0.136039
    10 4.826790 -0.004591 0.000000 -0.121114 -0.015508 -0.127518
    11 5.792767 -0.005304 0.000000 -0.104189 -0.009923 -0.095422
    12 6.662317 -0.001453 0.000000 0.000000 -0.000001 0.471000
    13 2.046985 -0.000002 0.000000 0.590107 0.416414 -0.218657
    14 -3.112024 1.517254 4.341911 1.142026 -1.087533 1.575577
    15 4.827230 0.000000 0.000001 -0.783662 0.266663 -0.805977
    16 11.139763 0.000000 0.000000 0.000000 0.000000 -1.371455
    17 10.314597 0.000001 0.000000 -2.987507 -0.064640 0.326477
    18 2.975834 -0.386307 -0.044143 -0.015298 -0.040855 0.340466
    19 1.438886 0.000000 0.000000 0.000000 0.000000 0.662877
    20 1.485303 0.000000 0.000000 0.000000 0.000000 0.689056
    21 -2.869898 1.399663 -4.140396 -0.658182 1.297167 2.029830
    22 4.972048 0.000000 0.000001 1.242691 -0.185416 -2.039577
    23 11.585355 0.000000 0.000000 0.000000 0.000000 -0.621770
    24 10.127057 0.000000 0.000001 1.721745 0.262810 0.362604
    25 2.683750 -0.427338 0.044205 -0.005786 0.043239 -0.157091
    26 1.438885 -0.000001 0.000000 0.000000 0.000000 0.732658
    27 1.485305 0.000001 0.000000 0.000000 0.000000 1.168770
    28 1.646738 0.449549 -1.702246 0.154002 0.442277 0.277235
    29 0.928312 0.000000 -0.000002 0.000000 0.000000 0.000000
    30 0.928314 0.000000 0.000001 0.000000 0.000000 0.000000
    31 1.533672 0.109715 1.664491 -0.264755 -0.055959 0.783109
    32 0.928313 0.000000 0.000000 0.000000 0.000000 -0.453556
    33 0.928314 0.000000 0.000001 0.000000 0.000000 0.000000
  time 25
    0 0.235347 0.367732 3.528927 0.000000 0.000000 -1.570874
    1 0.000000 0.000000 0.000000 -1.570795 -1.570796 0.000000
    2 -0.000005 0.000007 3.713255 0.002054 3.115505 -0.021473
    3 18.045721 0.000000 0.000000 0.000000 0.000000 -0.121501
    4 17.597597 0.000000 0.000000 -0.002613 0.026036 0.099967
    5 0.000005 -0.000003 -3.713255 -0.002524 -3.124238 -0.024449
    6 18.045725 0.000000 0.000000 0.000000 0.000000 -0.127551
    7 17.597597 0.000000 0.000000 0.002950 -0.017289 0.103055
    8 1.293670 0.684478 -0.000001 -0.000004 -0.000001 -0.007924
    9 5.309685 -0.003834 0.000000 -0.224662 -0.031100 -0.136039
    10 4.826790 -0.004591 0.000000 -0.121081 -0.015784 -0.129855
    11 5.792767 -0.005304 0.000000 -0.104189 -0.009923 -0.095422
    12 6.662317 -0.001453 0.000000 0.000000 -0.000001 0.471000
    13 2.046985 -0.000002 0.000000 0.590064 0.416167 -0.216320
    14 -3.112024 1.517254 4.341911 1.147491 -1.088841 1.569345
    15 4.827230 0.000000 0.000001 -0.785542 0.271173 -0.805977
    16 11.139763 0.000000 0.000000 0.000000 0.000000 -1.371455
    17 10.314597 0.000001 0.000000 -2.987507 -0.064640 0.326477
    18 2.975834 -0.386307 -0.044143 -0.015298 -0.040855 0.340466
    19 1.438886 0.000000 0.000000 0.000000 0.000000 0.662877
    20 1.485303 0.000000 0.000000 0.000000 0.000000 0.689056
    21 -2.869898 1.399663 -4.140396 -0.666907 1.300276 2.020818
    22 4.972048 0.000000 0.000001 1.247487 -0.185657 -2.039972
    23 11.585355 0.000000 0.000000 0.000000 0.000000 -0.621770
    24 10.127057 0.000000 0.000001 1.721745 0.262810 0.362604
    25 2.683750 -0.427338 0.044205 -0.005786 0.043239 -0.157091
    26 1.438885 -0.000001 0.000000 0.000000 0.000000 0.732658
    27 1.485305 0.000001 0.000000 0.000000 0.000000 1.168770
    28 1.646738 0.449549 -1.702246 0.154002 0.442277 0.277235
    29 0.928312 0.000000 -0.000002 0.000000 0.000000 0.000000
    30 0.928314 0.000000 0.000001 0.000000 0.000000 0.000000
    31 1.533672 0.109715 1.664491 -0.264755 -0.055959 0.783109
    32 0.928313 0.000000 0.000000 0.000000 0.000000 -0.453556
    33 0.928314 0.000000 0.000001 0.000000 0.000000 0.000000
  time 26
    0 0.235347 0.367732 3.528927 0.000000 0.000000 -1.570874
    1 0.000000 0.000000 0.000000 -1.570795 -1.570796 0.000000
    2 -0.000005 0.000007 3.713255 0.002054 3.115505 -0.021473
    3 18.045721 0.000000 0.000000 0.000000 0.000000 -0.121501
    4 17.597597 0.000000 0.000000 -0.002613 0.026036 0.099967
    5 0.000005 -0.000003 -3.713255 -0.002524 -3.124238 -0.024449
    6 18.045725 0.000000 0.000000 0.000000 0.000000 -0.127551
    7 17.597597 0.000000 0.000000 0.002950 -0.017289 0.103055
    8 1.293670 0.684478 -0.000001 -0.000004 -0.000001 -0.007924
    9 5.309685 -0.003834 0.000000 -0.224662 -0.031100 -0.136039
    10 4.826790 -0.004591 0.000000 -0.121049 -0.016059 -0.132104
    11 5.792767 -0.005304 0.000000 -0.104189 -0.009923 -0.095422
    12 6.662317 -0.001453 0.000000 0.000000 -0.000001 0.471000
    13 2.046985 -0.000002 0.000000 0.590021 0.415942 -0.214117
    14 -3.112024 1.517254 4.341911 1.152764 -1.090072 1.563401
    15 4.827230 0.000000 0.000001 -0.787304 0.275428 -0.806065
    16 11.139763 0.000000 0.000000 0.000000 0.000000 -1.371455
    17 10.314597 0.000001 0.000000 -2.987507 -0.064640 0.326477
    18 2.975834 -0.386307 -0.044143 -0.015298 -0.040855 0.340466
    19 1.438886 0.000000 0.000000 0.000000 0.000000 0.662877
    20 1.485303 0.000000 0.000000 0.000000 0.000000 0.689056
    21 -2.869898 1.399663 -4.140396 -0.675439 1.303244 2.011998
    22 4.972048 0.000000 0.000001 1.252051 -0.185818 -2.040367
    23 11.585355 0.000000 0.000000 0.000000 0.000000 -0.621770
    24 10.127057 0.000000 0.000001 1.721745 0.262810 0.362604
    25 2.683750 -0.427338 0.044205 -0.005786 0.043239 -0.157091
    26 1.438885 -0.000001 0.000000 0.000000 0.000000 0.732658
    27 1.485305 0.000001 0.000000 0.000000 0.000000 1.168770
    28 1.646738 0.449549 -1.702246 0.154002 0.442277 0.277235
    29 0.928312 0.000000 -0.000002 0.000000 0.000000 0.000000
    30 0.928314 0.000000 0.000001 0.000000 0.000000 0.000000
    31 1.533672 0.109715 1.664491 -0.264755 -0.055959 0.783109
    32 0.928313 0.000000 0.000000 0.000000 0.000000 -0.453556
    33 0.928314 0.000000 0.000001 0.000000 0.000000 0.000000
  time 27
    0 0.235347 0.367732 3.528927 0.000000 0.000000 -1.570874
    1 0.000000 0.000000 0.000000 -1.570795 -1.570796 0.000000
    2 -0.000005 0.000007 3.713255 0.002054 3.115505 -0.021473
    3 18.045721 0.000000 0.000000 0.000000 0.000000 -0.121501
    4 17.597597 0.000000 0.000000 -0.002613 0.026036 0.099967
    5 0.000005 -0.000003 -3.713255 -0.002524 -3.124238 -0.024449
    6 18.045725 0.000000 0.000000 0.000000 0.000000 -0.127551
    7 17.597597 0.000000 0.000000 0.002950 -0.017289 0.103055
    8 1.293670 0.684478 -0.000001 -0.000004 -0.000001 -0.007924
    9 5.309685 -0.003834 0.000000 -0.224662 -0.031100 -0.136039
    10 4.826790 -0.004591 0.000000 -0.121016 -0.016311 -0.134155
    11 5.792767 -0.005304 0.000000 -0.104189 -0.009923 -0.095422
    12 6.662317 -0.001453 0.000000 0.000000 -0.000001 0.471000
    13 2.046985 -0.000002 0.000000 0.589977 0.415716 -0.212050
    14 -3.112024 1.517254 4.341911 1.157654 -1.091188 1.557936
    15 4.827230 0.000000 0.000001 -0.788890 0.279343 -0.806065
    16 11.139763 0.000000 0.000000 0.000000 0.000000 -1.371455
    17 10.314597 0.000001 0.000000 -2.987507 -0.064640 0.326477
    18 2.975834 -0.386307 -0.044143 -0.015298 -0.040855 0.340466
    19 1.438886 0.000000 0.000000 0.000000 0.000000 0.662877
    20 1.485303 0.000000 0.000000 0.000000 0.000000 0.689056
    21 -2.869898 1.399663 -4.140396 -0.683397 1.305901 2.003753
    22 4.972048 0.000000 0.000001 1.256228 -0.185979 -2.040697
    23 11.585355 0.000000 0.000000 0.000000 0.000000 -0.621770
    24 10.127057 0.000000 0.000001 1.721745 0.262810 0.362604
    25 2.683750 -0.427338 0.044205 -0.005786 0.043239 -0.157091
    26 1.438885 -0.000001 0.000000 0.000000 0.000000 0.732658
    27 1.485305 0.000001 0.000000 0.000000 0.000000 1.168770
    28 1.646738 0.449549 -1.702246 0.154002 0.442277 0.277235
    29 0.928312 0.000000 -0.000002 0.000000 0.000000 0.000000
    30 0.928314 0.000000 0.000001 0.000000 0.000000 0.000000
    31 1.533672 0.109715 1.664491 -0.264755 -0.055959 0.783109
    32 0.928313 0.000000 0.000000 0.000000 0.000000 -0.453556
    33 0.928314 0.000000 0.000001 0.000000 0.000000 0.000000
  time 28
    0 0.235347 0.367732 3.528927 0.000000 0.000000 -1.570874
    1 0.000000 0.000000 0.000000 -1.570795 -1.570796 0.000000
    2 -0.000005 0.000007 3.713255 0.002054 3.115505 -0.021473
    3 18.045721 0.000000 0.000000 0.000000 0.000000 -0.121501
    4 17.597597 0.000000 0.000000 -0.002613 0.026036 0.099967
    5 0.000005 -0.000003 -3.713255 -0.002524 -3.124238 -0.024449
    6 18.045725 0.000000 0.000000 0.000000 0.000000 -0.127551
    7 17.597597 0.000000 0.000000 0.002950 -0.017289 0.103055
    8 1.293670 0.684478 -0.000001 -0.000004 -0.000001 -0.007924
    9 5.309685 -0.003834 0.000000 -0.224662 -0.031100 -0.136039
    10 4.826790 -0.004591 0.000000 -0.120983 -0.016527 -0.135963
    11 5.792767 -0.005304 0.000000 -0.104189 -0.009923 -0.095422
    12 6.662317 -0.001453 0.000000 0.000000 -0.000001 0.471000
    13 2.046985 -0.000002 0.000000 0.589934 0.415536 -0.210252
    14 -3.112024 1.517254 4.341911 1.161872 -1.092149 1.553142
    15 4.827230 0.000000 0.000001 -0.790358 0.282747 -0.806152
    16 11.139763 0.000000 0.000000 0.000000 0.000000 -1.371455
    17 10.314597 0.000001 0.000000 -2.987507 -0.064640 0.326477
    18 2.975834 -0.386307 -0.044143 -0.015298 -0.040855 0.340466
    19 1.438886 0.000000 0.000000 0.000000 0.000000 0.662877
    20 1.485303 0.000000 0.000000 0.000000 0.000000 0.689056
    21 -2.869898 1.399663 -4.140396 -0.690492 1.308246 1.996370
    22 4.972048 0.000000 0.000001 1.259941 -0.186140 -2.041026
    23 11.585355 0.000000 0.000000 0.000000 0.000000 -0.621770
    24 10.127057 0.000000 0.000001 1.721745 0.262810 0.362604
    25 2.683750 -0.427338 0.044205 -0.005786 0.043239 -0.157091
    26 1.438885 -0.000001 0.000000 0.000000 0.000000 0.732658
    27 1.485305 0.000001 0.000000 0.000000 0.000000 1.168770
    28 1.646738 0.449549 -1.702246 0.154002 0.442277 0.277235
    29 0.928312 0.000000 -0.000002 0.000000 0.000000 0.000000
    30 0.928314 0.000000 0.000001 0.000000 0.000000 0.000000
    31 1.533672 0.109715 1.664491 -0.264755 -0.055959 0.783109
    32 0.928313 0.000000 0.000000 0.000000 0.000000 -0.453556
    33 0.928314 0.000000 0.000001 0.000000 0.000000 0.000000
  time 29
    0 0.235347 0.367732 3.528927 0.000000 0.000000 -1.570874
    1 0.000000 0.000000 0.000000 -1.570795 -1.570796 0.000000
    2 -0.000005 0.000007 3.713255 0.002054 3.115505 -0.021473
    3 18.045721 0.000000 0.000000 0.000000 0.000000 -0.121501
    4 17.597597 0.000000 0.000000 -0.002613 0.026036 0.099967
    5 0.000005 -0.000003 -3.713255 -0.002524 -3.124238 -0.024449
    6 18.045725 0.000000 0.000000 0.000000 0.000000 -0.127551
    7 17.597597 0.000000 0.000000 0.002950 -0.017289 0.103055
    8 1.293670 0.684478 -0.000001 -0.000004 -0.000001 -0.007924
    9 5.309685 -0.003834 0.000000 -0.224662 -0.031100 -0.136039
    10 4.826790 -0.004591 0.000000 -0.120966 -0.016707 -0.137440
    11 5.792767 -0.005304 0.000000 -0.104189 -0.009923 -0.095422
    12 6.662317 -0.001453 0.000000 0.000000 -0.000001 0.471000
    13 2.046985 -0.000002 0.000000 0.589891 0.415379 -0.208814
    14 -3.112024 1.517254 4.341911 1.165419 -1.092957 1.549211
    15 4.827230 0.000000 0.000001 -0.791474 0.285555 -0.806240
    16 11.139763 0.000000 0.000000 0.000000 0.000000 -1.371455
    17 10.314597 0.000001 0.000000 -2.987507 -0.064640 0.326477
    18 2.975834 -0.386307 -0.044143 -0.015298 -0.040855 0.340466
    19 1.438886 0.000000 0.000000 0.000000 0.000000 0.662877
    20 1.485303 0.000000 0.000000 0.000000 0.000000 0.689056
    21 -2.869898 1.399663 -4.140396 -0.696340 1.310168 1.990235
    22 4.972048 0.000000 0.000001 1.262880 -0.186301 -2.041289
    23 11.585355 0.000000 0.000000 0.000000 0.000000 -0.621770
    24 10.127057 0.000000 0.000001 1.721745 0.262810 0.362604
    25 2.683750 -0.427338 0.044205 -0.005786 0.043239 -0.157091
    26 1.438885 -0.000001 0.000000 0.000000 0.000000 0.732658
    27 1.485305 0.000001 0.000000 0.000000 0.000000 1.168770
    28 1.646738 0.449549 -1.702246 0.154002 0.442277 0.277235
    29 0.928312 0.000000 -0.000002 0.000000 0.000000 0.000000
    30 0.928314 0.000000 0.000001 0.000000 0.000000 0.000000
    31 1.533672 0.109715 1.664491 -0.264755 -0.055959 0.783109
    32 0.928313 0.000000 0.000000 0.000000 0.000000 -0.453556
    33 0.928314 0.000000 0.000001 0.000000 0.000000 0.000000
  time 30
    0 0.235347 0.367732 3.528927 0.000000 0.000000 -1.570874
    1 0.000000 0.000000 0.000000 -1.570795 -1.570796 0.000000
    2 -0.000005 0.000007 3.713255 0.002054 3.115505 -0.021473
    3 18.045721 0.000000 0.000000 0.000000 0.000000 -0.121501
    4 17.597597 0.000000 0.000000 -0.002613 0.026036 0.099967
    5 0.000005 -0.000003 -3.713255 -0.002524 -3.124238 -0.024449
    6 18.045725 0.000000 0.000000 0.000000 0.000000 -0.127551
    7 17.597597 0.000000 0.000000 0.002950 -0.017289 0.103055
    8 1.293670 0.684478 -0.000001 -0.000004 -0.000001 -0.007924
    9 5.309685 -0.003834 0.000000 -0.224662 -0.031100 -0.136039
    10 4.826790 -0.004591 0.000000 -0.120934 -0.016838 -0.138521
    11 5.792767 -0.005304 0.000000 -0.104189 -0.009923 -0.095422
    12 6.662317 -0.001453 0.000000 0.000000 -0.000001 0.471000
    13 2.046985 -0.000002 0.000000 0.589891 0.415266 -0.207735
    14 -3.112024 1.517254 4.341911 1.168008 -1.093534 1.546239
    15 4.827230 0.000000 0.000001 -0.792355 0.287598 -0.806240
    16 11.139763 0.000000 0.000000 0.000000 0.000000 -1.371455
    17 10.314597 0.000001 0.000000 -2.987507 -0.064640 0.326477
    18 2.975834 -0.386307 -0.044143 -0.015298 -0.040855 0.340466
    19 1.438886 0.000000 0.000000 0.000000 0.000000 0.662877
    20 1.485303 0.000000 0.000000 0.000000 0.000000 0.689056
    21 -2.869898 1.399663 -4.140396 -0.700750 1.311553 1.985728
    22 4.972048 0.000000 0.000001 1.265124 -0.186381 -2.041553
    23 11.585355 0.000000 0.000000 0.000000 0.000000 -0.621770
    24 10.127057 0.000000 0.000001 1.721745 0.262810 0.362604
    25 2.683750 -0.427338 0.044205 -0.005786 0.043239 -0.157091
    26 1.438885 -0.000001 0.000000 0.000000 0.000000 0.732658
    27 1.485305 0.000001 0.000000 0.000000 0.000000 1.168770
    28 1.646738 0.449549 -1.702246 0.154002 0.442277 0.277235
    29 0.928312 0.000000 -0.000002 0.000000 0.000000 0.000000
    30 0.928314 0.000000 0.000001 0.000000 0.000000 0.000000
    31 1.533672 0.109715 1.664491 -0.264755 -0.055959 0.783109
    32 0.928313 0.000000 0.000000 0.000000 0.000000 -0.453556
    33 0.928314 0.000000 0.000001 0.000000 0.000000 0.000000
end
