version 1
nodes
  0 "Bip01" -1
  1 "Bip01 Pelvis" 0
  2 "Bip01 L Leg" 1
  3 "Bip01 L Leg1" 2
  4 "Bip01 L Foot" 3
  5 "Bip01 R Leg" 1
  6 "Bip01 R Leg1" 5
  7 "Bip01 R Foot" 6
  8 "Bip01 Spine" 1
  9 "Bip01 Spine1" 8
  10 "Bip01 Spine2" 9
  11 "Bip01 Spine3" 10
  12 "Bip01 Neck" 11
  13 "Bip01 Head" 12
  14 "Bip01 L Arm" 12
  15 "Bip01 L Arm1" 14
  16 "Bip01 L Arm2" 15
  17 "Bip01 L Hand" 16
  18 "Bip01 L Finger1" 17
  19 "Bip01 L Finger11" 18
  20 "Bip01 L Finger12" 19
  21 "Bip01 R Arm" 12
  22 "Bip01 R Arm1" 21
  23 "Bip01 R Arm2" 22
  24 "Bip01 R Hand" 23
  25 "Bip01 R Finger1" 24
  26 "Bip01 R Finger11" 25
  27 "Bip01 R Finger12" 26
  28 "Bip01 L Finger0" 17
  29 "Bip01 L Finger01" 28
  30 "Bip01 L Finger02" 29
  31 "Bip01 R Finger0" 24
  32 "Bip01 R Finger01" 31
  33 "Bip01 R Finger02" 32
end
skeleton
  time 0
    0 0.235347 0.367732 3.528927 0.000000 0.000000 -1.570874
    1 2.128971 -0.062502 0.000000 -1.570795 -1.570796 0.000000
    2 -0.000005 0.000007 3.713255 0.002054 3.115505 -0.021473
    3 18.045721 0.000000 0.000000 0.000000 0.000000 -0.121501
    4 17.597597 0.000000 0.000000 -0.002613 0.026036 0.099967
    5 0.000005 -0.000003 -3.713255 -0.002524 -3.124238 -0.024449
    6 18.045725 0.000000 0.000000 0.000000 0.000000 -0.127551
    7 17.597597 0.000000 0.000000 0.002950 -0.017289 0.103055
    8 1.293670 0.684478 -0.000001 -0.000004 -0.000001 0.009520
    9 5.309685 -0.003834 0.000000 0.000000 0.000000 -0.261661
    10 4.826790 -0.004591 0.000000 -0.156532 -0.012128 -0.077555
    11 5.792767 -0.005304 0.000000 -0.052037 -0.005417 -0.104517
    12 6.662317 -0.001453 0.000000 0.000000 -0.000001 0.471000
    13 2.046985 -0.000002 0.000000 0.209168 0.001328 -0.314306
    14 -3.112024 1.517254 4.341911 1.374519 -0.766073 1.378360
    15 4.827230 0.000000 0.000001 -0.347662 0.702038 -0.462671
    16 11.139763 0.000000 0.000000 0.000000 0.000000 -1.200810
    17 10.314597 0.000001 0.000000 -3.687048 0.382838 -0.380522
    18 2.975834 -0.386307 -0.044143 -0.001936 -0.043575 0.026222
    19 1.438886 0.000000 0.000000 0.000000 0.000000 0.784982
    20 1.485303 0.000000 0.000000 0.000000 0.000000 0.540754
    21 -2.869898 1.399663 -4.140396 0.994288 1.214777 3.634075
    22 4.972048 0.000000 0.000001 -0.375957 -1.241606 -0.720085
    23 11.585355 0.000000 0.000000 0.000000 0.000000 -1.504976
    24 10.127057 0.000000 0.000001 1.663521 0.688482 -0.096687
    25 2.683750 -0.427338 0.044205 -0.005786 0.043239 -0.157091
    26 1.438885 -0.000001 0.000000 0.000000 0.000000 0.732658
    27 1.485305 0.000001 0.000000 0.000000 0.000000 1.168770
    28 1.646738 0.449549 -1.702246 -0.161934 0.581206 -0.284024
    29 0.928312 0.000000 -0.000002 0.000000 0.000000 0.000000
    30 0.928314 0.000000 0.000001 0.000000 0.000000 0.000000
    31 1.533672 0.109715 1.664491 -0.264755 -0.055959 0.783109
    32 0.928313 0.000000 0.000000 0.000000 0.000000 -0.453556
    33 0.928314 0.000000 0.000001 0.000000 0.000000 0.000000
  time 1
    0 0.235347 0.367732 3.528927 0.000000 0.000000 -1.570874
    1 2.125065 -0.062502 0.000000 -1.570795 -1.570796 0.000000
    2 -0.000005 0.000007 3.713255 0.002054 3.115505 -0.021473
    3 18.045721 0.000000 0.000000 0.000000 0.000000 -0.121501
    4 17.597597 0.000000 0.000000 -0.002613 0.026036 0.099967
    5 0.000005 -0.000003 -3.713255 -0.002524 -3.124238 -0.024449
    6 18.045725 0.000000 0.000000 0.000000 0.000000 -0.127551
    7 17.597597 0.000000 0.000000 0.002950 -0.017289 0.103055
    8 1.293670 0.684478 -0.000001 -0.000004 -0.000001 0.009520
    9 5.309685 -0.003834 0.000000 0.000000 0.000000 -0.261661
    10 4.826790 -0.004591 0.000000 -0.156549 -0.011901 -0.076122
    11 5.792767 -0.005304 0.000000 -0.052054 -0.005261 -0.101610
    12 6.662317 -0.001453 0.000000 0.000000 -0.000001 0.471000
    13 2.046985 -0.000002 0.000000 0.209211 0.001396 -0.318666
    14 -3.112024 1.517254 4.341911 1.372409 -0.765650 1.381332
    15 4.827230 0.000000 0.000001 -0.348015 0.695996 -0.463546
    16 11.139763 0.000000 0.000000 0.000000 0.000000 -1.200810
    17 10.314597 0.000001 0.000000 -3.687048 0.382838 -0.380522
    18 2.975834 -0.386307 -0.044143 -0.001936 -0.043575 0.026222
    19 1.438886 0.000000 0.000000 0.000000 0.000000 0.784982
    20 1.485303 0.000000 0.000000 0.000000 0.000000 0.540754
    21 -2.869898 1.399663 -4.140396 0.987672 1.213166 3.627076
    22 4.972048 0.000000 0.000001 -0.369768 -1.237745 -0.726738
    23 11.585355 0.000000 0.000000 0.000000 0.000000 -1.504976
    24 10.127057 0.000000 0.000001 1.663521 0.688482 -0.096687
    25 2.683750 -0.427338 0.044205 -0.005786 0.043239 -0.157091
    26 1.438885 -0.000001 0.000000 0.000000 0.000000 0.732658
    27 1.485305 0.000001 0.000000 0.000000 0.000000 1.168770
    28 1.646738 0.449549 -1.702246 -0.161934 0.581206 -0.284024
    29 0.928312 0.000000 -0.000002 0.000000 0.000000 0.000000
    30 0.928314 0.000000 0.000001 0.000000 0.000000 0.000000
    31 1.533672 0.109715 1.664491 -0.264755 -0.055959 0.783109
    32 0.928313 0.000000 0.000000 0.000000 0.000000 -0.453556
    33 0.928314 0.000000 0.000001 0.000000 0.000000 0.000000
  time 2
    0 0.235347 0.367732 3.528927 0.000000 0.000000 -1.570874
    1 2.113346 -0.058596 0.000000 -1.570795 -1.570796 0.000000
    2 -0.000005 0.000007 3.713255 0.002054 3.115505 -0.021473
    3 18.045721 0.000000 0.000000 0.000000 0.000000 -0.121501
    4 17.597597 0.000000 0.000000 -0.002613 0.026036 0.099967
    5 0.000005 -0.000003 -3.713255 -0.002524 -3.124238 -0.024449
    6 18.045725 0.000000 0.000000 0.000000 0.000000 -0.127551
    7 17.597597 0.000000 0.000000 0.002950 -0.017289 0.103055
    8 1.293670 0.684478 -0.000001 -0.000004 -0.000001 0.009520
    9 5.309685 -0.003834 0.000000 0.000000 0.000000 -0.261661
    10 4.826790 -0.004591 0.000000 -0.156565 -0.011589 -0.074160
    11 5.792767 -0.005304 0.000000 -0.052086 -0.005057 -0.097644
    12 6.662317 -0.001453 0.000000 0.000000 -0.000001 0.471000
    13 2.046985 -0.000002 0.000000 0.209211 0.001509 -0.324644
    14 -3.112024 1.517254 4.341911 1.369629 -0.765035 1.385359
    15 4.827230 0.000000 0.000001 -0.348485 0.687656 -0.464684
    16 11.139763 0.000000 0.000000 0.000000 0.000000 -1.200810
    17 10.314597 0.000001 0.000000 -3.687048 0.382838 -0.380522
    18 2.975834 -0.386307 -0.044143 -0.001936 -0.043575 0.026222
    19 1.438886 0.000000 0.000000 0.000000 0.000000 0.784982
    20 1.485303 0.000000 0.000000 0.000000 0.000000 0.540754
    21 -2.869898 1.399663 -4.140396 0.978852 1.210990 3.617681
    22 4.972048 0.000000 0.000001 -0.361491 -1.232436 -0.735631
    23 11.585355 0.000000 0.000000 0.000000 0.000000 -1.504976
    24 10.127057 0.000000 0.000001 1.663521 0.688482 -0.096687
    25 2.683750 -0.427338 0.044205 -0.005786 0.043239 -0.157091
    26 1.438885 -0.000001 0.000000 0.000000 0.000000 0.732658
    27 1.485305 0.000001 0.000000 0.000000 0.000000 1.168770
    28 1.646738 0.449549 -1.702246 -0.161934 0.581206 -0.284024
    29 0.928312 0.000000 -0.000002 0.000000 0.000000 0.000000
    30 0.928314 0.000000 0.000001 0.000000 0.000000 0.000000
    31 1.533672 0.109715 1.664491 -0.264755 -0.055959 0.783109
    32 0.928313 0.000000 0.000000 0.000000 0.000000 -0.453556
    33 0.928314 0.000000 0.000001 0.000000 0.000000 0.000000
  time 3
    0 0.235347 0.367732 3.528927 0.000000 0.000000 -1.570874
    1 2.101627 -0.058596 0.000000 -1.570795 -1.570796 0.000000
    2 -0.000005 0.000007 3.713255 0.002054 3.115505 -0.021473
    3 18.045721 0.000000 0.000000 0.000000 0.000000 -0.121501
    4 17.597597 0.000000 0.000000 -0.002613 0.026036 0.099967
    5 0.000005 -0.000003 -3.713255 -0.002524 -3.124238 -0.024449
    6 18.045725 0.000000 0.000000 0.000000 0.000000 -0.127551
    7 17.597597 0.000000 0.000000 0.002950 -0.017289 0.103055
    8 1.293670 0.684478 -0.000001 -0.000004 -0.000001 0.009520
    9 5.309685 -0.003834 0.000000 0.000000 0.000000 -0.261661
    10 4.826790 -0.004591 0.000000 -0.156598 -0.011218 -0.071778
    11 5.792767 -0.005304 0.000000 -0.052103 -0.004806 -0.092806
    12 6.662317 -0.001453 0.000000 0.000000 -0.000001 0.471000
    13 2.046985 -0.000002 0.000000 0.209211 0.001621 -0.331880
    14 -3.112024 1.517254 4.341911 1.366178 -0.764304 1.390248
    15 4.827230 0.000000 0.000001 -0.349072 0.677529 -0.466084
    16 11.139763 0.000000 0.000000 0.000000 0.000000 -1.200810
    17 10.314597 0.000001 0.000000 -3.687048 0.382838 -0.380522
    18 2.975834 -0.386307 -0.044143 -0.001936 -0.043575 0.026222
    19 1.438886 0.000000 0.000000 0.000000 0.000000 0.784982
    20 1.485303 0.000000 0.000000 0.000000 0.000000 0.540754
    21 -2.869898 1.399663 -4.140396 0.968306 1.208248 3.606368
    22 4.972048 0.000000 0.000001 -0.351899 -1.226000 -0.746170
    23 11.585355 0.000000 0.000000 0.000000 0.000000 -1.504976
    24 10.127057 0.000000 0.000001 1.663521 0.688482 -0.096687
    25 2.683750 -0.427338 0.044205 -0.005786 0.043239 -0.157091
    26 1.438885 -0.000001 0.000000 0.000000 0.000000 0.732658
    27 1.485305 0.000001 0.000000 0.000000 0.000000 1.168770
    28 1.646738 0.449549 -1.702246 -0.161934 0.581206 -0.284024
    29 0.928312 0.000000 -0.000002 0.000000 0.000000 0.000000
    30 0.928314 0.000000 0.000001 0.000000 0.000000 0.000000
    31 1.533672 0.109715 1.664491 -0.264755 -0.055959 0.783109
    32 0.928313 0.000000 0.000000 0.000000 0.000000 -0.453556
    33 0.928314 0.000000 0.000001 0.000000 0.000000 0.000000
  time 4
    0 0.235347 0.367732 3.528927 0.000000 0.000000 -1.570874
    1 2.086001 -0.054689 0.000000 -1.570795 -1.570796 0.000000
    2 -0.000005 0.000007 3.713255 0.002054 3.115505 -0.021473
    3 18.045721 0.000000 0.000000 0.000000 0.000000 -0.121501
    4 17.597597 0.000000 0.000000 -0.002613 0.026036 0.099967
    5 0.000005 -0.000003 -3.713255 -0.002524 -3.124238 -0.024449
    6 18.045725 0.000000 0.000000 0.000000 0.000000 -0.127551
    7 17.597597 0.000000 0.000000 0.002950 -0.017289 0.103055
    8 1.293670 0.684478 -0.000001 -0.000004 -0.000001 0.009520
    9 5.309685 -0.003834 0.000000 0.000000 0.000000 -0.261661
    10 4.826790 -0.004591 0.000000 -0.156631 -0.010786 -0.069044
    11 5.792767 -0.005304 0.000000 -0.052135 -0.004518 -0.087304
    12 6.662317 -0.001453 0.000000 0.000000 -0.000001 0.471000
    13 2.046985 -0.000002 0.000000 0.209211 0.001779 -0.340151
    14 -3.112024 1.517254 4.341911 1.362343 -0.763458 1.395905
    15 4.827230 0.000000 0.000001 -0.349659 0.665956 -0.467659
    16 11.139763 0.000000 0.000000 0.000000 0.000000 -1.200810
    17 10.314597 0.000001 0.000000 -3.687048 0.382838 -0.380522
    18 2.975834 -0.386307 -0.044143 -0.001936 -0.043575 0.026222
    19 1.438886 0.000000 0.000000 0.000000 0.000000 0.784982
    20 1.485303 0.000000 0.000000 0.000000 0.000000 0.540754
    21 -2.869898 1.399663 -4.140396 0.956418 1.205111 3.593616
    22 4.972048 0.000000 0.000001 -0.341379 -1.218600 -0.757698
    23 11.585355 0.000000 0.000000 0.000000 0.000000 -1.504976
    24 10.127057 0.000000 0.000001 1.663521 0.688482 -0.096687
    25 2.683750 -0.427338 0.044205 -0.005786 0.043239 -0.157091
    26 1.438885 -0.000001 0.000000 0.000000 0.000000 0.732658
    27 1.485305 0.000001 0.000000 0.000000 0.000000 1.168770
    28 1.646738 0.449549 -1.702246 -0.161934 0.581206 -0.284024
    29 0.928312 0.000000 -0.000002 0.000000 0.000000 0.000000
    30 0.928314 0.000000 0.000001 0.000000 0.000000 0.000000
    31 1.533672 0.109715 1.664491 -0.264755 -0.055959 0.783109
    32 0.928313 0.000000 0.000000 0.000000 0.000000 -0.453556
    33 0.928314 0.000000 0.000001 0.000000 0.000000 0.000000
  time 5
    0 0.235347 0.367732 3.528927 0.000000 0.000000 -1.570874
    1 2.074282 -0.050783 0.000000 -1.570795 -1.570796 0.000000
    2 -0.000005 0.000007 3.713255 0.002054 3.115505 -0.021473
    3 18.045721 0.000000 0.000000 0.000000 0.000000 -0.121501
    4 17.597597 0.000000 0.000000 -0.002613 0.026036 0.099967
    5 0.000005 -0.000003 -3.713255 -0.002524 -3.124238 -0.024449
    6 18.045725 0.000000 0.000000 0.000000 0.000000 -0.127551
    7 17.597597 0.000000 0.000000 0.002950 -0.017289 0.103055
    8 1.293670 0.684478 -0.000001 -0.000004 -0.000001 0.009520
    9 5.309685 -0.003834 0.000000 0.000000 0.000000 -0.261661
    10 4.826790 -0.004591 0.000000 -0.156647 -0.010319 -0.066068
    11 5.792767 -0.005304 0.000000 -0.052152 -0.004207 -0.081283
    12 6.662317 -0.001453 0.000000 0.000000 -0.000001 0.471000
    13 2.046985 -0.000002 0.000000 0.209211 0.001936 -0.349185
    14 -3.112024 1.517254 4.341911 1.358124 -0.762534 1.402041
    15 4.827230 0.000000 0.000001 -0.350305 0.653446 -0.469409
    16 11.139763 0.000000 0.000000 0.000000 0.000000 -1.200810
    17 10.314597 0.000001 0.000000 -3.687048 0.382838 -0.380522
    18 2.975834 -0.386307 -0.044143 -0.001936 -0.043575 0.026222
    19 1.438886 0.000000 0.000000 0.000000 0.000000 0.784982
    20 1.485303 0.000000 0.000000 0.000000 0.000000 0.540754
    21 -2.869898 1.399663 -4.140396 0.943667 1.201606 3.580002
    22 4.972048 0.000000 0.000001 -0.330395 -1.210475 -0.769819
    23 11.585355 0.000000 0.000000 0.000000 0.000000 -1.504976
    24 10.127057 0.000000 0.000001 1.663521 0.688482 -0.096687
    25 2.683750 -0.427338 0.044205 -0.005786 0.043239 -0.157091
    26 1.438885 -0.000001 0.000000 0.000000 0.000000 0.732658
    27 1.485305 0.000001 0.000000 0.000000 0.000000 1.168770
    28 1.646738 0.449549 -1.702246 -0.161934 0.581206 -0.284024
    29 0.928312 0.000000 -0.000002 0.000000 0.000000 0.000000
    30 0.928314 0.000000 0.000001 0.000000 0.000000 0.000000
    31 1.533672 0.109715 1.664491 -0.264755 -0.055959 0.783109
    32 0.928313 0.000000 0.000000 0.000000 0.000000 -0.453556
    33 0.928314 0.000000 0.000001 0.000000 0.000000 0.000000
  time 6
    0 0.235347 0.367732 3.528927 0.000000 0.000000 -1.570874
    1 2.054750 -0.046876 0.000000 -1.570795 -1.570796 0.000000
    2 -0.000005 0.000007 3.713255 0.002054 3.115505 -0.021473
    3 18.045721 0.000000 0.000000 0.000000 0.000000 -0.121501
    4 17.597597 0.000000 0.000000 -0.002613 0.026036 0.099967
    5 0.000005 -0.000003 -3.713255 -0.002524 -3.124238 -0.024449
    6 18.045725 0.000000 0.000000 0.000000 0.000000 -0.127551
    7 17.597597 0.000000 0.000000 0.002950 -0.017289 0.103055
    8 1.293670 0.684478 -0.000001 -0.000004 -0.000001 0.009520
    9 5.309685 -0.003834 0.000000 0.000000 0.000000 -0.261661
    10 4.826790 -0.004591 0.000000 -0.156680 -0.009827 -0.062937
    11 5.792767 -0.005304 0.000000 -0.052184 -0.003871 -0.074971
    12 6.662317 -0.001453 0.000000 0.000000 -0.000001 0.471000
    13 2.046985 -0.000002 0.000000 0.209211 0.002094 -0.358669
    14 -3.112024 1.517254 4.341911 1.353714 -0.761496 1.408369
    15 4.827230 0.000000 0.000001 -0.350951 0.640170 -0.471247
    16 11.139763 0.000000 0.000000 0.000000 0.000000 -1.200810
    17 10.314597 0.000001 0.000000 -3.687048 0.382838 -0.380522
    18 2.975834 -0.386307 -0.044143 -0.001936 -0.043575 0.026222
    19 1.438886 0.000000 0.000000 0.000000 0.000000 0.784982
    20 1.485303 0.000000 0.000000 0.000000 0.000000 0.540754
    21 -2.869898 1.399663 -4.140396 0.930628 1.197847 3.565909
    22 4.972048 0.000000 0.000001 -0.319488 -1.201868 -0.782071
    23 11.585355 0.000000 0.000000 0.000000 0.000000 -1.504976
    24 10.127057 0.000000 0.000001 1.663521 0.688482 -0.096687
    25 2.683750 -0.427338 0.044205 -0.005786 0.043239 -0.157091
    26 1.438885 -0.000001 0.000000 0.000000 0.000000 0.732658
    27 1.485305 0.000001 0.000000 0.000000 0.000000 1.168770
    28 1.646738 0.449549 -1.702246 -0.161934 0.581206 -0.284024
    29 0.928312 0.000000 -0.000002 0.000000 0.000000 0.000000
    30 0.928314 0.000000 0.000001 0.000000 0.000000 0.000000
    31 1.533672 0.109715 1.664491 -0.264755 -0.055959 0.783109
    32 0.928313 0.000000 0.000000 0.000000 0.000000 -0.453556
    33 0.928314 0.000000 0.000001 0.000000 0.000000 0.000000
  time 7
    0 0.235347 0.367732 3.528927 0.000000 0.000000 -1.570874
    1 2.039125 -0.042970 0.000000 -1.570795 -1.570796 0.000000
    2 -0.000005 0.000007 3.713255 0.002054 3.115505 -0.021473
    3 18.045721 0.000000 0.000000 0.000000 0.000000 -0.121501
    4 17.597597 0.000000 0.000000 -0.002613 0.026036 0.099967
    5 0.000005 -0.000003 -3.713255 -0.002524 -3.124238 -0.024449
    6 18.045725 0.000000 0.000000 0.000000 0.000000 -0.127551
    7 17.597597 0.000000 0.000000 0.002950 -0.017289 0.103055
    8 1.293670 0.684478 -0.000001 -0.000004 -0.000001 0.009520
    9 5.309685 -0.003834 0.000000 0.000000 0.000000 -0.261661
    10 4.826790 -0.004591 0.000000 -0.156713 -0.009324 -0.059762
    11 5.792767 -0.005304 0.000000 -0.052201 -0.003535 -0.068535
    12 6.662317 -0.001453 0.000000 0.000000 -0.000001 0.471000
    13 2.046985 -0.000002 0.000000 0.209211 0.002274 -0.368333
    14 -3.112024 1.517254 4.341911 1.349208 -0.760457 1.414889
    15 4.827230 0.000000 0.000001 -0.351539 0.626724 -0.473085
    16 11.139763 0.000000 0.000000 0.000000 0.000000 -1.200810
    17 10.314597 0.000001 0.000000 -3.687048 0.382838 -0.380522
    18 2.975834 -0.386307 -0.044143 -0.001936 -0.043575 0.026222
    19 1.438886 0.000000 0.000000 0.000000 0.000000 0.784982
    20 1.485303 0.000000 0.000000 0.000000 0.000000 0.540754
    21 -2.869898 1.399663 -4.140396 0.917493 1.193975 3.551912
    22 4.972048 0.000000 0.000001 -0.308890 -1.193100 -0.793994
    23 11.585355 0.000000 0.000000 0.000000 0.000000 -1.504976
    24 10.127057 0.000000 0.000001 1.663521 0.688482 -0.096687
    25 2.683750 -0.427338 0.044205 -0.005786 0.043239 -0.157091
    26 1.438885 -0.000001 0.000000 0.000000 0.000000 0.732658
    27 1.485305 0.000001 0.000000 0.000000 0.000000 1.168770
    28 1.646738 0.449549 -1.702246 -0.161934 0.581206 -0.284024
    29 0.928312 0.000000 -0.000002 0.000000 0.000000 0.000000
    30 0.928314 0.000000 0.000001 0.000000 0.000000 0.000000
    31 1.533672 0.109715 1.664491 -0.264755 -0.055959 0.783109
    32 0.928313 0.000000 0.000000 0.000000 0.000000 -0.453556
    33 0.928314 0.000000 0.000001 0.000000 0.000000 0.000000
  time 8
    0 0.235347 0.367732 3.528927 0.000000 0.000000 -1.570874
    1 2.023499 -0.042970 0.000000 -1.570795 -1.570796 0.000000
    2 -0.000005 0.000007 3.713255 0.002054 3.115505 -0.021473
    3 18.045721 0.000000 0.000000 0.000000 0.000000 -0.121501
    4 17.597597 0.000000 0.000000 -0.002613 0.026036 0.099967
    5 0.000005 -0.000003 -3.713255 -0.002524 -3.124238 -0.024449
    6 18.045725 0.000000 0.000000 0.000000 0.000000 -0.127551
    7 17.597597 0.000000 0.000000 0.002950 -0.017289 0.103055
    8 1.293670 0.684478 -0.000001 -0.000004 -0.000001 0.009520
    9 5.309685 -0.003834 0.000000 0.000000 0.000000 -0.261661
    10 4.826790 -0.004591 0.000000 -0.156746 -0.008821 -0.056609
    11 5.792767 -0.005304 0.000000 -0.052233 -0.003212 -0.062140
    12 6.662317 -0.001453 0.000000 0.000000 -0.000001 0.471000
    13 2.046985 -0.000002 0.000000 0.209254 0.002432 -0.377907
    14 -3.112024 1.517254 4.341911 1.344702 -0.759380 1.421408
    15 4.827230 0.000000 0.000001 -0.352067 0.613363 -0.474922
    16 11.139763 0.000000 0.000000 0.000000 0.000000 -1.200810
    17 10.314597 0.000001 0.000000 -3.687048 0.382838 -0.380522
    18 2.975834 -0.386307 -0.044143 -0.001936 -0.043575 0.026222
    19 1.438886 0.000000 0.000000 0.000000 0.000000 0.784982
    20 1.485303 0.000000 0.000000 0.000000 0.000000 0.540754
    21 -2.869898 1.399663 -4.140396 0.904838 1.190046 3.538202
    22 4.972048 0.000000 0.000001 -0.298989 -1.184332 -0.805390
    23 11.585355 0.000000 0.000000 0.000000 0.000000 -1.504976
    24 10.127057 0.000000 0.000001 1.663521 0.688482 -0.096687
    25 2.683750 -0.427338 0.044205 -0.005786 0.043239 -0.157091
    26 1.438885 -0.000001 0.000000 0.000000 0.000000 0.732658
    27 1.485305 0.000001 0.000000 0.000000 0.000000 1.168770
    28 1.646738 0.449549 -1.702246 -0.161934 0.581206 -0.284024
    29 0.928312 0.000000 -0.000002 0.000000 0.000000 0.000000
    30 0.928314 0.000000 0.000001 0.000000 0.000000 0.000000
    31 1.533672 0.109715 1.664491 -0.264755 -0.055959 0.783109
    32 0.928313 0.000000 0.000000 0.000000 0.000000 -0.453556
    33 0.928314 0.000000 0.000001 0.000000 0.000000 0.000000
  time 9
    0 0.235347 0.367732 3.528927 0.000000 0.000000 -1.570874
    1 2.007874 -0.039064 0.000000 -1.570795 -1.570796 0.000000
    2 -0.000005 0.000007 3.713255 0.002054 3.115505 -0.021473
    3 18.045721 0.000000 0.000000 0.000000 0.000000 -0.121501
    4 17.597597 0.000000 0.000000 -0.002613 0.026036 0.099967
    5 0.000005 -0.000003 -3.713255 -0.002524 -3.124238 -0.024449
    6 18.045725 0.000000 0.000000 0.000000 0.000000 -0.127551
    7 17.597597 0.000000 0.000000 0.002950 -0.017289 0.103055
    8 1.293670 0.684478 -0.000001 -0.000004 -0.000001 0.009520
    9 5.309685 -0.003834 0.000000 0.000000 0.000000 -0.261661
    10 4.826790 -0.004591 0.000000 -0.156779 -0.008341 -0.053566
    11 5.792767 -0.005304 0.000000 -0.052249 -0.002888 -0.056015
    12 6.662317 -0.001453 0.000000 0.000000 -0.000001 0.471000
    13 2.046985 -0.000002 0.000000 0.209254 0.002589 -0.387121
    14 -3.112024 1.517254 4.341911 1.340484 -0.758342 1.427544
    15 4.827230 0.000000 0.000001 -0.352537 0.600513 -0.476673
    16 11.139763 0.000000 0.000000 0.000000 0.000000 -1.200810
    17 10.314597 0.000001 0.000000 -3.687048 0.382838 -0.380522
    18 2.975834 -0.386307 -0.044143 -0.001936 -0.043575 0.026222
    19 1.438886 0.000000 0.000000 0.000000 0.000000 0.784982
    20 1.485303 0.000000 0.000000 0.000000 0.000000 0.540754
    21 -2.869898 1.399663 -4.140396 0.892854 1.186230 3.525355
    22 4.972048 0.000000 0.000001 -0.289861 -1.175886 -0.815929
    23 11.585355 0.000000 0.000000 0.000000 0.000000 -1.504976
    24 10.127057 0.000000 0.000001 1.663521 0.688482 -0.096687
    25 2.683750 -0.427338 0.044205 -0.005786 0.043239 -0.157091
    26 1.438885 -0.000001 0.000000 0.000000 0.000000 0.732658
    27 1.485305 0.000001 0.000000 0.000000 0.000000 1.168770
    28 1.646738 0.449549 -1.702246 -0.161934 0.581206 -0.284024
    29 0.928312 0.000000 -0.000002 0.000000 0.000000 0.000000
    30 0.928314 0.000000 0.000001 0.000000 0.000000 0.000000
    31 1.533672 0.109715 1.664491 -0.264755 -0.055959 0.783109
    32 0.928313 0.000000 0.000000 0.000000 0.000000 -0.453556
    33 0.928314 0.000000 0.000001 0.000000 0.000000 0.000000
  time 10
    0 0.235347 0.367732 3.528927 0.000000 0.000000 -1.570874
    1 1.992248 -0.035157 0.000000 -1.570795 -1.570796 0.000000
    2 -0.000005 0.000007 3.713255 0.002054 3.115505 -0.021473
    3 18.045721 0.000000 0.000000 0.000000 0.000000 -0.121501
    4 17.597597 0.000000 0.000000 -0.002613 0.026036 0.099967
    5 0.000005 -0.000003 -3.713255 -0.002524 -3.124238 -0.024449
    6 18.045725 0.000000 0.000000 0.000000 0.000000 -0.127551
    7 17.597597 0.000000 0.000000 0.002950 -0.017289 0.103055
    8 1.293670 0.684478 -0.000001 -0.000004 -0.000001 0.009520
    9 5.309685 -0.003834 0.000000 0.000000 0.000000 -0.261661
    10 4.826790 -0.004591 0.000000 -0.156795 -0.007898 -0.050744
    11 5.792767 -0.005304 0.000000 -0.052266 -0.002589 -0.050326
    12 6.662317 -0.001453 0.000000 0.000000 -0.000001 0.471000
    13 2.046985 -0.000002 0.000000 0.209254 0.002747 -0.395661
    14 -3.112024 1.517254 4.341911 1.336553 -0.757380 1.433297
    15 4.827230 0.000000 0.000001 -0.352949 0.588599 -0.478335
    16 11.139763 0.000000 0.000000 0.000000 0.000000 -1.200810
    17 10.314597 0.000001 0.000000 -3.687048 0.382838 -0.380522
    18 2.975834 -0.386307 -0.044143 -0.001936 -0.043575 0.026222
    19 1.438886 0.000000 0.000000 0.000000 0.000000 0.784982
    20 1.485303 0.000000 0.000000 0.000000 0.000000 0.540754
    21 -2.869898 1.399663 -4.140396 0.882020 1.182641 3.513658
    22 4.972048 0.000000 0.000001 -0.281816 -1.168083 -0.825349
    23 11.585355 0.000000 0.000000 0.000000 0.000000 -1.504976
    24 10.127057 0.000000 0.000001 1.663521 0.688482 -0.096687
    25 2.683750 -0.427338 0.044205 -0.005786 0.043239 -0.157091
    26 1.438885 -0.000001 0.000000 0.000000 0.000000 0.732658
    27 1.485305 0.000001 0.000000 0.000000 0.000000 1.168770
    28 1.646738 0.449549 -1.702246 -0.161934 0.581206 -0.284024
    29 0.928312 0.000000 -0.000002 0.000000 0.000000 0.000000
    30 0.928314 0.000000 0.000001 0.000000 0.000000 0.000000
    31 1.533672 0.109715 1.664491 -0.264755 -0.055959 0.783109
    32 0.928313 0.000000 0.000000 0.000000 0.000000 -0.453556
    33 0.928314 0.000000 0.000001 0.000000 0.000000 0.000000
  time 11
    0 0.235347 0.367732 3.528927 0.000000 0.000000 -1.570874
    1 1.980529 -0.035157 0.000000 -1.570795 -1.570796 0.000000
    2 -0.000005 0.000007 3.713255 0.002054 3.115505 -0.021473
    3 18.045721 0.000000 0.000000 0.000000 0.000000 -0.121501
    4 17.597597 0.000000 0.000000 -0.002613 0.026036 0.099967
    5 0.000005 -0.000003 -3.713255 -0.002524 -3.124238 -0.024449
    6 18.045725 0.000000 0.000000 0.000000 0.000000 -0.127551
    7 17.597597 0.000000 0.000000 0.002950 -0.017289 0.103055
    8 1.293670 0.684478 -0.000001 -0.000004 -0.000001 0.009520
    9 5.309685 -0.003834 0.000000 0.000000 0.000000 -0.261661
    10 4.826790 -0.004591 0.000000 -0.156811 -0.007502 -0.048252
    11 5.792767 -0.005304 0.000000 -0.052266 -0.002325 -0.045239
    12 6.662317 -0.001453 0.000000 0.000000 -0.000001 0.471000
    13 2.046985 -0.000002 0.000000 0.209254 0.002882 -0.403302
    14 -3.112024 1.517254 4.341911 1.333006 -0.756457 1.438378
    15 4.827230 0.000000 0.000001 -0.353242 0.577961 -0.479823
    16 11.139763 0.000000 0.000000 0.000000 0.000000 -1.200810
    17 10.314597 0.000001 0.000000 -3.687048 0.382838 -0.380522
    18 2.975834 -0.386307 -0.044143 -0.001936 -0.043575 0.026222
    19 1.438886 0.000000 0.000000 0.000000 0.000000 0.784982
    20 1.485303 0.000000 0.000000 0.000000 0.000000 0.540754
    21 -2.869898 1.399663 -4.140396 0.872529 1.179390 3.503304
    22 4.972048 0.000000 0.000001 -0.274931 -1.161004 -0.833517
    23 11.585355 0.000000 0.000000 0.000000 0.000000 -1.504976
    24 10.127057 0.000000 0.000001 1.663521 0.688482 -0.096687
    25 2.683750 -0.427338 0.044205 -0.005786 0.043239 -0.157091
    26 1.438885 -0.000001 0.000000 0.000000 0.000000 0.732658
    27 1.485305 0.000001 0.000000 0.000000 0.000000 1.168770
    28 1.646738 0.449549 -1.702246 -0.161934 0.581206 -0.284024
    29 0.928312 0.000000 -0.000002 0.000000 0.000000 0.000000
    30 0.928314 0.000000 0.000001 0.000000 0.000000 0.000000
    31 1.533672 0.109715 1.664491 -0.264755 -0.055959 0.783109
    32 0.928313 0.000000 0.000000 0.000000 0.000000 -0.453556
    33 0.928314 0.000000 0.000001 0.000000 0.000000 0.000000
  time 12
    0 0.235347 0.367732 3.528927 0.000000 0.000000 -1.570874
    1 1.968810 -0.031251 0.000000 -1.570795 -1.570796 0.000000
    2 -0.000005 0.000007 3.713255 0.002054 3.115505 -0.021473
    3 18.045721 0.000000 0.000000 0.000000 0.000000 -0.121501
    4 17.597597 0.000000 0.000000 -0.002613 0.026036 0.099967
    5 0.000005 -0.000003 -3.713255 -0.002524 -3.124238 -0.024449
    6 18.045725 0.000000 0.000000 0.000000 0.000000 -0.127551
    7 17.597597 0.000000 0.000000 0.002950 -0.017289 0.103055
    8 1.293670 0.684478 -0.000001 -0.000004 -0.000001 0.009520
    9 5.309685 -0.003834 0.000000 0.000000 0.000000 -0.261661
    10 4.826790 -0.004591 0.000000 -0.156828 -0.007167 -0.046135
    11 5.792767 -0.005304 0.000000 -0.052282 -0.002097 -0.040962
    12 6.662317 -0.001453 0.000000 0.000000 -0.000001 0.471000
    13 2.046985 -0.000002 0.000000 0.209254 0.002994 -0.409730
    14 -3.112024 1.517254 4.341911 1.330129 -0.755726 1.442693
    15 4.827230 0.000000 0.000001 -0.353536 0.569026 -0.481048
    16 11.139763 0.000000 0.000000 0.000000 0.000000 -1.200810
    17 10.314597 0.000001 0.000000 -3.687048 0.382838 -0.380522
    18 2.975834 -0.386307 -0.044143 -0.001936 -0.043575 0.026222
    19 1.438886 0.000000 0.000000 0.000000 0.000000 0.784982
    20 1.485303 0.000000 0.000000 0.000000 0.000000 0.540754
    21 -2.869898 1.399663 -4.140396 0.864571 1.176620 3.494771
    22 4.972048 0.000000 0.000001 -0.269285 -1.155132 -0.840236
    23 11.585355 0.000000 0.000000 0.000000 0.000000 -1.504976
    24 10.127057 0.000000 0.000001 1.663521 0.688482 -0.096687
    25 2.683750 -0.427338 0.044205 -0.005786 0.043239 -0.157091
    26 1.438885 -0.000001 0.000000 0.000000 0.000000 0.732658
    27 1.485305 0.000001 0.000000 0.000000 0.000000 1.168770
    28 1.646738 0.449549 -1.702246 -0.161934 0.581206 -0.284024
    29 0.928312 0.000000 -0.000002 0.000000 0.000000 0.000000
    30 0.928314 0.000000 0.000001 0.000000 0.000000 0.000000
    31 1.533672 0.109715 1.664491 -0.264755 -0.055959 0.783109
    32 0.928313 0.000000 0.000000 0.000000 0.000000 -0.453556
    33 0.928314 0.000000 0.000001 0.000000 0.000000 0.000000
  time 13
    0 0.235347 0.367732 3.528927 0.000000 0.000000 -1.570874
    1 1.960997 -0.031251 0.000000 -1.570795 -1.570796 0.000000
    2 -0.000005 0.000007 3.713255 0.002054 3.115505 -0.021473
    3 18.045721 0.000000 0.000000 0.000000 0.000000 -0.121501
    4 17.597597 0.000000 0.000000 -0.002613 0.026036 0.099967
    5 0.000005 -0.000003 -3.713255 -0.002524 -3.124238 -0.024449
    6 18.045725 0.000000 0.000000 0.000000 0.000000 -0.127551
    7 17.597597 0.000000 0.000000 0.002950 -0.017289 0.103055
    8 1.293670 0.684478 -0.000001 -0.000004 -0.000001 0.009520
    9 5.309685 -0.003834 0.000000 0.000000 0.000000 -0.261661
    10 4.826790 -0.004591 0.000000 -0.156844 -0.006903 -0.044504
    11 5.792767 -0.005304 0.000000 -0.052282 -0.001930 -0.037681
    12 6.662317 -0.001453 0.000000 0.000000 -0.000001 0.471000
    13 2.046985 -0.000002 0.000000 0.209254 0.003062 -0.414674
    14 -3.112024 1.517254 4.341911 1.327828 -0.755110 1.445952
    15 4.827230 0.000000 0.000001 -0.353712 0.562218 -0.482011
    16 11.139763 0.000000 0.000000 0.000000 0.000000 -1.200810
    17 10.314597 0.000001 0.000000 -3.687048 0.382838 -0.380522
    18 2.975834 -0.386307 -0.044143 -0.001936 -0.043575 0.026222
    19 1.438886 0.000000 0.000000 0.000000 0.000000 0.784982
    20 1.485303 0.000000 0.000000 0.000000 0.000000 0.540754
    21 -2.869898 1.399663 -4.140396 0.858627 1.174472 3.488348
    22 4.972048 0.000000 0.000001 -0.265107 -1.150547 -0.845308
    23 11.585355 0.000000 0.000000 0.000000 0.000000 -1.504976
    24 10.127057 0.000000 0.000001 1.663521 0.688482 -0.096687
    25 2.683750 -0.427338 0.044205 -0.005786 0.043239 -0.157091
    26 1.438885 -0.000001 0.000000 0.000000 0.000000 0.732658
    27 1.485305 0.000001 0.000000 0.000000 0.000000 1.168770
    28 1.646738 0.449549 -1.702246 -0.161934 0.581206 -0.284024
    29 0.928312 0.000000 -0.000002 0.000000 0.000000 0.000000
    30 0.928314 0.000000 0.000001 0.000000 0.000000 0.000000
    31 1.533672 0.109715 1.664491 -0.264755 -0.055959 0.783109
    32 0.928313 0.000000 0.000000 0.000000 0.000000 -0.453556
    33 0.928314 0.000000 0.000001 0.000000 0.000000 0.000000
  time 14
    0 0.235347 0.367732 3.528927 0.000000 0.000000 -1.570874
    1 1.957091 -0.027345 0.000000 -1.570795 -1.570796 0.000000
    2 -0.000005 0.000007 3.713255 0.002054 3.115505 -0.021473
    3 18.045721 0.000000 0.000000 0.000000 0.000000 -0.121501
    4 17.597597 0.000000 0.000000 -0.002613 0.026036 0.099967
    5 0.000005 -0.000003 -3.713255 -0.002524 -3.124238 -0.024449
    6 18.045725 0.000000 0.000000 0.000000 0.000000 -0.127551
    7 17.597597 0.000000 0.000000 0.002950 -0.017289 0.103055
    8 1.293670 0.684478 -0.000001 -0.000004 -0.000001 0.009520
    9 5.309685 -0.003834 0.000000 0.000000 0.000000 -0.261661
    10 4.826790 -0.004591 0.000000 -0.156844 -0.006747 -0.043467
    11 5.792767 -0.005304 0.000000 -0.052298 -0.001822 -0.035584
    12 6.662317 -0.001453 0.000000 0.000000 -0.000001 0.471000
    13 2.046985 -0.000002 0.000000 0.209254 0.003130 -0.417820
    14 -3.112024 1.517254 4.341911 1.326390 -0.754726 1.448062
    15 4.827230 0.000000 0.000001 -0.353830 0.557793 -0.482536
    16 11.139763 0.000000 0.000000 0.000000 0.000000 -1.200810
    17 10.314597 0.000001 0.000000 -3.687048 0.382838 -0.380522
    18 2.975834 -0.386307 -0.044143 -0.001936 -0.043575 0.026222
    19 1.438886 0.000000 0.000000 0.000000 0.000000 0.784982
    20 1.485303 0.000000 0.000000 0.000000 0.000000 0.540754
    21 -2.869898 1.399663 -4.140396 0.854792 1.173087 3.484225
    22 4.972048 0.000000 0.000001 -0.262477 -1.147651 -0.848470
    23 11.585355 0.000000 0.000000 0.000000 0.000000 -1.504976
    24 10.127057 0.000000 0.000001 1.663521 0.688482 -0.096687
    25 2.683750 -0.427338 0.044205 -0.005786 0.043239 -0.157091
    26 1.438885 -0.000001 0.000000 0.000000 0.000000 0.732658
    27 1.485305 0.000001 0.000000 0.000000 0.000000 1.168770
    28 1.646738 0.449549 -1.702246 -0.161934 0.581206 -0.284024
    29 0.928312 0.000000 -0.000002 0.000000 0.000000 0.000000
    30 0.928314 0.000000 0.000001 0.000000 0.000000 0.000000
    31 1.533672 0.109715 1.664491 -0.264755 -0.055959 0.783109
    32 0.928313 0.000000 0.000000 0.000000 0.000000 -0.453556
    33 0.928314 0.000000 0.000001 0.000000 0.000000 0.000000
  time 15
    0 0.235347 0.367732 3.528927 0.000000 0.000000 -1.570874
    1 1.953185 -0.027345 0.000000 -1.570795 -1.570796 0.000000
    2 -0.000005 0.000007 3.713255 0.002054 3.115505 -0.021473
    3 18.045721 0.000000 0.000000 0.000000 0.000000 -0.121501
    4 17.597597 0.000000 0.000000 -0.002613 0.026036 0.099967
    5 0.000005 -0.000003 -3.713255 -0.002524 -3.124238 -0.024449
    6 18.045725 0.000000 0.000000 0.000000 0.000000 -0.127551
    7 17.597597 0.000000 0.000000 0.002950 -0.017289 0.103055
    8 1.293670 0.684478 -0.000001 -0.000004 -0.000001 0.009520
    9 5.309685 -0.003834 0.000000 0.000000 0.000000 -0.261661
    10 4.826790 -0.004591 0.000000 -0.156844 -0.006687 -0.043093
    11 5.792767 -0.005304 0.000000 -0.052298 -0.001774 -0.034837
    12 6.662317 -0.001453 0.000000 0.000000 -0.000001 0.471000
    13 2.046985 -0.000002 0.000000 0.209254 0.003152 -0.418944
    14 -3.112024 1.517254 4.341911 1.325911 -0.754610 1.448829
    15 4.827230 0.000000 0.000001 -0.353830 0.556261 -0.482798
    16 11.139763 0.000000 0.000000 0.000000 0.000000 -1.200810
    17 10.314597 0.000001 0.000000 -3.687048 0.382838 -0.380522
    18 2.975834 -0.386307 -0.044143 -0.001936 -0.043575 0.026222
    19 1.438886 0.000000 0.000000 0.000000 0.000000 0.784982
    20 1.485303 0.000000 0.000000 0.000000 0.000000 0.540754
    21 -2.869898 1.399663 -4.140396 0.853450 1.172607 3.482787
    22 4.972048 0.000000 0.000001 -0.261626 -1.146605 -0.849590
    23 11.585355 0.000000 0.000000 0.000000 0.000000 -1.504976
    24 10.127057 0.000000 0.000001 1.663521 0.688482 -0.096687
    25 2.683750 -0.427338 0.044205 -0.005786 0.043239 -0.157091
    26 1.438885 -0.000001 0.000000 0.000000 0.000000 0.732658
    27 1.485305 0.000001 0.000000 0.000000 0.000000 1.168770
    28 1.646738 0.449549 -1.702246 -0.161934 0.581206 -0.284024
    29 0.928312 0.000000 -0.000002 0.000000 0.000000 0.000000
    30 0.928314 0.000000 0.000001 0.000000 0.000000 0.000000
    31 1.533672 0.109715 1.664491 -0.264755 -0.055959 0.783109
    32 0.928313 0.000000 0.000000 0.000000 0.000000 -0.453556
    33 0.928314 0.000000 0.000001 0.000000 0.000000 0.000000
  time 16
    0 0.235347 0.367732 3.528927 0.000000 0.000000 -1.570874
    1 1.957091 -0.027345 0.000000 -1.570795 -1.570796 0.000000
    2 -0.000005 0.000007 3.713255 0.002054 3.115505 -0.021473
    3 18.045721 0.000000 0.000000 0.000000 0.000000 -0.121501
    4 17.597597 0.000000 0.000000 -0.002613 0.026036 0.099967
    5 0.000005 -0.000003 -3.713255 -0.002524 -3.124238 -0.024449
    6 18.045725 0.000000 0.000000 0.000000 0.000000 -0.127551
    7 17.597597 0.000000 0.000000 0.002950 -0.017289 0.103055
    8 1.293670 0.684478 -0.000001 -0.000004 -0.000001 0.009520
    9 5.309685 -0.003834 0.000000 0.000000 0.000000 -0.261661
    10 4.826790 -0.004591 0.000000 -0.156844 -0.006747 -0.043467
    11 5.792767 -0.005304 0.000000 -0.052298 -0.001822 -0.035584
    12 6.662317 -0.001453 0.000000 0.000000 -0.000001 0.471000
    13 2.046985 -0.000002 0.000000 0.209254 0.003130 -0.417820
    14 -3.112024 1.517254 4.341911 1.326390 -0.754726 1.448062
    15 4.827230 0.000000 0.000001 -0.353830 0.557793 -0.482536
    16 11.139763 0.000000 0.000000 0.000000 0.000000 -1.200810
    17 10.314597 0.000001 0.000000 -3.687048 0.382838 -0.380522
    18 2.975834 -0.386307 -0.044143 -0.001936 -0.043575 0.026222
    19 1.438886 0.000000 0.000000 0.000000 0.000000 0.784982
    20 1.485303 0.000000 0.000000 0.000000 0.000000 0.540754
    21 -2.869898 1.399663 -4.140396 0.854792 1.173087 3.484225
    22 4.972048 0.000000 0.000001 -0.262477 -1.147651 -0.848470
    23 11.585355 0.000000 0.000000 0.000000 0.000000 -1.504976
    24 10.127057 0.000000 0.000001 1.663521 0.688482 -0.096687
    25 2.683750 -0.427338 0.044205 -0.005786 0.043239 -0.157091
    26 1.438885 -0.000001 0.000000 0.000000 0.000000 0.732658
    27 1.485305 0.000001 0.000000 0.000000 0.000000 1.168770
    28 1.646738 0.449549 -1.702246 -0.161934 0.581206 -0.284024
    29 0.928312 0.000000 -0.000002 0.000000 0.000000 0.000000
    30 0.928314 0.000000 0.000001 0.000000 0.000000 0.000000
    31 1.533672 0.109715 1.664491 -0.264755 -0.055959 0.783109
    32 0.928313 0.000000 0.000000 0.000000 0.000000 -0.453556
    33 0.928314 0.000000 0.000001 0.000000 0.000000 0.000000
  time 17
    0 0.235347 0.367732 3.528927 0.000000 0.000000 -1.570874
    1 1.960997 -0.031251 0.000000 -1.570795 -1.570796 0.000000
    2 -0.000005 0.000007 3.713255 0.002054 3.115505 -0.021473
    3 18.045721 0.000000 0.000000 0.000000 0.000000 -0.121501
    4 17.597597 0.000000 0.000000 -0.002613 0.026036 0.099967
    5 0.000005 -0.000003 -3.713255 -0.002524 -3.124238 -0.024449
    6 18.045725 0.000000 0.000000 0.000000 0.000000 -0.127551
    7 17.597597 0.000000 0.000000 0.002950 -0.017289 0.103055
    8 1.293670 0.684478 -0.000001 -0.000004 -0.000001 0.009520
    9 5.309685 -0.003834 0.000000 0.000000 0.000000 -0.261661
    10 4.826790 -0.004591 0.000000 -0.156844 -0.006903 -0.044504
    11 5.792767 -0.005304 0.000000 -0.052282 -0.001930 -0.037681
    12 6.662317 -0.001453 0.000000 0.000000 -0.000001 0.471000
    13 2.046985 -0.000002 0.000000 0.209254 0.003062 -0.414674
    14 -3.112024 1.517254 4.341911 1.327828 -0.755110 1.445952
    15 4.827230 0.000000 0.000001 -0.353712 0.562218 -0.482011
    16 11.139763 0.000000 0.000000 0.000000 0.000000 -1.200810
    17 10.314597 0.000001 0.000000 -3.687048 0.382838 -0.380522
    18 2.975834 -0.386307 -0.044143 -0.001936 -0.043575 0.026222
    19 1.438886 0.000000 0.000000 0.000000 0.000000 0.784982
    20 1.485303 0.000000 0.000000 0.000000 0.000000 0.540754
    21 -2.869898 1.399663 -4.140396 0.858627 1.174472 3.488348
    22 4.972048 0.000000 0.000001 -0.265107 -1.150547 -0.845308
    23 11.585355 0.000000 0.000000 0.000000 0.000000 -1.504976
    24 10.127057 0.000000 0.000001 1.663521 0.688482 -0.096687
    25 2.683750 -0.427338 0.044205 -0.005786 0.043239 -0.157091
    26 1.438885 -0.000001 0.000000 0.000000 0.000000 0.732658
    27 1.485305 0.000001 0.000000 0.000000 0.000000 1.168770
    28 1.646738 0.449549 -1.702246 -0.161934 0.581206 -0.284024
    29 0.928312 0.000000 -0.000002 0.000000 0.000000 0.000000
    30 0.928314 0.000000 0.000001 0.000000 0.000000 0.000000
    31 1.533672 0.109715 1.664491 -0.264755 -0.055959 0.783109
    32 0.928313 0.000000 0.000000 0.000000 0.000000 -0.453556
    33 0.928314 0.000000 0.000001 0.000000 0.000000 0.000000
  time 18
    0 0.235347 0.367732 3.528927 0.000000 0.000000 -1.570874
    1 1.968810 -0.031251 0.000000 -1.570795 -1.570796 0.000000
    2 -0.000005 0.000007 3.713255 0.002054 3.115505 -0.021473
    3 18.045721 0.000000 0.000000 0.000000 0.000000 -0.121501
    4 17.597597 0.000000 0.000000 -0.002613 0.026036 0.099967
    5 0.000005 -0.000003 -3.713255 -0.002524 -3.124238 -0.024449
    6 18.045725 0.000000 0.000000 0.000000 0.000000 -0.127551
    7 17.597597 0.000000 0.000000 0.002950 -0.017289 0.103055
    8 1.293670 0.684478 -0.000001 -0.000004 -0.000001 0.009520
    9 5.309685 -0.003834 0.000000 0.000000 0.000000 -0.261661
    10 4.826790 -0.004591 0.000000 -0.156828 -0.007167 -0.046135
    11 5.792767 -0.005304 0.000000 -0.052282 -0.002097 -0.040962
    12 6.662317 -0.001453 0.000000 0.000000 -0.000001 0.471000
    13 2.046985 -0.000002 0.000000 0.209254 0.002994 -0.409730
    14 -3.112024 1.517254 4.341911 1.330129 -0.755726 1.442693
    15 4.827230 0.000000 0.000001 -0.353536 0.569026 -0.481048
    16 11.139763 0.000000 0.000000 0.000000 0.000000 -1.200810
    17 10.314597 0.000001 0.000000 -3.687048 0.382838 -0.380522
    18 2.975834 -0.386307 -0.044143 -0.001936 -0.043575 0.026222
    19 1.438886 0.000000 0.000000 0.000000 0.000000 0.784982
    20 1.485303 0.000000 0.000000 0.000000 0.000000 0.540754
    21 -2.869898 1.399663 -4.140396 0.864571 1.176620 3.494771
    22 4.972048 0.000000 0.000001 -0.269285 -1.155132 -0.840236
    23 11.585355 0.000000 0.000000 0.000000 0.000000 -1.504976
    24 10.127057 0.000000 0.000001 1.663521 0.688482 -0.096687
    25 2.683750 -0.427338 0.044205 -0.005786 0.043239 -0.157091
    26 1.438885 -0.000001 0.000000 0.000000 0.000000 0.732658
    27 1.485305 0.000001 0.000000 0.000000 0.000000 1.168770
    28 1.646738 0.449549 -1.702246 -0.161934 0.581206 -0.284024
    29 0.928312 0.000000 -0.000002 0.000000 0.000000 0.000000
    30 0.928314 0.000000 0.000001 0.000000 0.000000 0.000000
    31 1.533672 0.109715 1.664491 -0.264755 -0.055959 0.783109
    32 0.928313 0.000000 0.000000 0.000000 0.000000 -0.453556
    33 0.928314 0.000000 0.000001 0.000000 0.000000 0.000000
  time 19
    0 0.235347 0.367732 3.528927 0.000000 0.000000 -1.570874
    1 1.980529 -0.035157 0.000000 -1.570795 -1.570796 0.000000
    2 -0.000005 0.000007 3.713255 0.002054 3.115505 -0.021473
    3 18.045721 0.000000 0.000000 0.000000 0.000000 -0.121501
    4 17.597597 0.000000 0.000000 -0.002613 0.026036 0.099967
    5 0.000005 -0.000003 -3.713255 -0.002524 -3.124238 -0.024449
    6 18.045725 0.000000 0.000000 0.000000 0.000000 -0.127551
    7 17.597597 0.000000 0.000000 0.002950 -0.017289 0.103055
    8 1.293670 0.684478 -0.000001 -0.000004 -0.000001 0.009520
    9 5.309685 -0.003834 0.000000 0.000000 0.000000 -0.261661
    10 4.826790 -0.004591 0.000000 -0.156811 -0.007502 -0.048252
    11 5.792767 -0.005304 0.000000 -0.052266 -0.002325 -0.045239
    12 6.662317 -0.001453 0.000000 0.000000 -0.000001 0.471000
    13 2.046985 -0.000002 0.000000 0.209254 0.002882 -0.403302
    14 -3.112024 1.517254 4.341911 1.333006 -0.756457 1.438378
    15 4.827230 0.000000 0.000001 -0.353242 0.577961 -0.479823
    16 11.139763 0.000000 0.000000 0.000000 0.000000 -1.200810
    17 10.314597 0.000001 0.000000 -3.687048 0.382838 -0.380522
    18 2.975834 -0.386307 -0.044143 -0.001936 -0.043575 0.026222
    19 1.438886 0.000000 0.000000 0.000000 0.000000 0.784982
    20 1.485303 0.000000 0.000000 0.000000 0.000000 0.540754
    21 -2.869898 1.399663 -4.140396 0.872529 1.179390 3.503304
    22 4.972048 0.000000 0.000001 -0.274931 -1.161004 -0.833517
    23 11.585355 0.000000 0.000000 0.000000 0.000000 -1.504976
    24 10.127057 0.000000 0.000001 1.663521 0.688482 -0.096687
    25 2.683750 -0.427338 0.044205 -0.005786 0.043239 -0.157091
    26 1.438885 -0.000001 0.000000 0.000000 0.000000 0.732658
    27 1.485305 0.000001 0.000000 0.000000 0.000000 1.168770
    28 1.646738 0.449549 -1.702246 -0.161934 0.581206 -0.284024
    29 0.928312 0.000000 -0.000002 0.000000 0.000000 0.000000
    30 0.928314 0.000000 0.000001 0.000000 0.000000 0.000000
    31 1.533672 0.109715 1.664491 -0.264755 -0.055959 0.783109
    32 0.928313 0.000000 0.000000 0.000000 0.000000 -0.453556
    33 0.928314 0.000000 0.000001 0.000000 0.000000 0.000000
  time 20
    0 0.235347 0.367732 3.528927 0.000000 0.000000 -1.570874
    1 1.992248 -0.035157 0.000000 -1.570795 -1.570796 0.000000
    2 -0.000005 0.000007 3.713255 0.002054 3.115505 -0.021473
    3 18.045721 0.000000 0.000000 0.000000 0.000000 -0.121501
    4 17.597597 0.000000 0.000000 -0.002613 0.026036 0.099967
    5 0.000005 -0.000003 -3.713255 -0.002524 -3.124238 -0.024449
    6 18.045725 0.000000 0.000000 0.000000 0.000000 -0.127551
    7 17.597597 0.000000 0.000000 0.002950 -0.017289 0.103055
    8 1.293670 0.684478 -0.000001 -0.000004 -0.000001 0.009520
    9 5.309685 -0.003834 0.000000 0.000000 0.000000 -0.261661
    10 4.826790 -0.004591 0.000000 -0.156795 -0.007898 -0.050744
    11 5.792767 -0.005304 0.000000 -0.052266 -0.002589 -0.050326
    12 6.662317 -0.001453 0.000000 0.000000 -0.000001 0.471000
    13 2.046985 -0.000002 0.000000 0.209254 0.002747 -0.395661
    14 -3.112024 1.517254 4.341911 1.336553 -0.757380 1.433297
    15 4.827230 0.000000 0.000001 -0.352949 0.588599 -0.478335
    16 11.139763 0.000000 0.000000 0.000000 0.000000 -1.200810
    17 10.314597 0.000001 0.000000 -3.687048 0.382838 -0.380522
    18 2.975834 -0.386307 -0.044143 -0.001936 -0.043575 0.026222
    19 1.438886 0.000000 0.000000 0.000000 0.000000 0.784982
    20 1.485303 0.000000 0.000000 0.000000 0.000000 0.540754
    21 -2.869898 1.399663 -4.140396 0.882020 1.182641 3.513658
    22 4.972048 0.000000 0.000001 -0.281816 -1.168083 -0.825349
    23 11.585355 0.000000 0.000000 0.000000 0.000000 -1.504976
    24 10.127057 0.000000 0.000001 1.663521 0.688482 -0.096687
    25 2.683750 -0.427338 0.044205 -0.005786 0.043239 -0.157091
    26 1.438885 -0.000001 0.000000 0.000000 0.000000 0.732658
    27 1.485305 0.000001 0.000000 0.000000 0.000000 1.168770
    28 1.646738 0.449549 -1.702246 -0.161934 0.581206 -0.284024
    29 0.928312 0.000000 -0.000002 0.000000 0.000000 0.000000
    30 0.928314 0.000000 0.000001 0.000000 0.000000 0.000000
    31 1.533672 0.109715 1.664491 -0.264755 -0.055959 0.783109
    32 0.928313 0.000000 0.000000 0.000000 0.000000 -0.453556
    33 0.928314 0.000000 0.000001 0.000000 0.000000 0.000000
  time 21
    0 0.235347 0.367732 3.528927 0.000000 0.000000 -1.570874
    1 2.007874 -0.039064 0.000000 -1.570795 -1.570796 0.000000
    2 -0.000005 0.000007 3.713255 0.002054 3.115505 -0.021473
    3 18.045721 0.000000 0.000000 0.000000 0.000000 -0.121501
    4 17.597597 0.000000 0.000000 -0.002613 0.026036 0.099967
    5 0.000005 -0.000003 -3.713255 -0.002524 -3.124238 -0.024449
    6 18.045725 0.000000 0.000000 0.000000 0.000000 -0.127551
    7 17.597597 0.000000 0.000000 0.002950 -0.017289 0.103055
    8 1.293670 0.684478 -0.000001 -0.000004 -0.000001 0.009520
    9 5.309685 -0.003834 0.000000 0.000000 0.000000 -0.261661
    10 4.826790 -0.004591 0.000000 -0.156779 -0.008341 -0.053566
    11 5.792767 -0.005304 0.000000 -0.052249 -0.002888 -0.056015
    12 6.662317 -0.001453 0.000000 0.000000 -0.000001 0.471000
    13 2.046985 -0.000002 0.000000 0.209254 0.002589 -0.387121
    14 -3.112024 1.517254 4.341911 1.340484 -0.758342 1.427544
    15 4.827230 0.000000 0.000001 -0.352537 0.600513 -0.476673
    16 11.139763 0.000000 0.000000 0.000000 0.000000 -1.200810
    17 10.314597 0.000001 0.000000 -3.687048 0.382838 -0.380522
    18 2.975834 -0.386307 -0.044143 -0.001936 -0.043575 0.026222
    19 1.438886 0.000000 0.000000 0.000000 0.000000 0.784982
    20 1.485303 0.000000 0.000000 0.000000 0.000000 0.540754
    21 -2.869898 1.399663 -4.140396 0.892854 1.186230 3.525355
    22 4.972048 0.000000 0.000001 -0.289861 -1.175886 -0.815929
    23 11.585355 0.000000 0.000000 0.000000 0.000000 -1.504976
    24 10.127057 0.000000 0.000001 1.663521 0.688482 -0.096687
    25 2.683750 -0.427338 0.044205 -0.005786 0.043239 -0.157091
    26 1.438885 -0.000001 0.000000 0.000000 0.000000 0.732658
    27 1.485305 0.000001 0.000000 0.000000 0.000000 1.168770
    28 1.646738 0.449549 -1.702246 -0.161934 0.581206 -0.284024
    29 0.928312 0.000000 -0.000002 0.000000 0.000000 0.000000
    30 0.928314 0.000000 0.000001 0.000000 0.000000 0.000000
    31 1.533672 0.109715 1.664491 -0.264755 -0.055959 0.783109
    32 0.928313 0.000000 0.000000 0.000000 0.000000 -0.453556
    33 0.928314 0.000000 0.000001 0.000000 0.000000 0.000000
  time 22
    0 0.235347 0.367732 3.528927 0.000000 0.000000 -1.570874
    1 2.023499 -0.042970 0.000000 -1.570795 -1.570796 0.000000
    2 -0.000005 0.000007 3.713255 0.002054 3.115505 -0.021473
    3 18.045721 0.000000 0.000000 0.000000 0.000000 -0.121501
    4 17.597597 0.000000 0.000000 -0.002613 0.026036 0.099967
    5 0.000005 -0.000003 -3.713255 -0.002524 -3.124238 -0.024449
    6 18.045725 0.000000 0.000000 0.000000 0.000000 -0.127551
    7 17.597597 0.000000 0.000000 0.002950 -0.017289 0.103055
    8 1.293670 0.684478 -0.000001 -0.000004 -0.000001 0.009520
    9 5.309685 -0.003834 0.000000 0.000000 0.000000 -0.261661
    10 4.826790 -0.004591 0.000000 -0.156746 -0.008821 -0.056609
    11 5.792767 -0.005304 0.000000 -0.052233 -0.003212 -0.062140
    12 6.662317 -0.001453 0.000000 0.000000 -0.000001 0.471000
    13 2.046985 -0.000002 0.000000 0.209254 0.002432 -0.377907
    14 -3.112024 1.517254 4.341911 1.344702 -0.759380 1.421408
    15 4.827230 0.000000 0.000001 -0.352067 0.613363 -0.474922
    16 11.139763 0.000000 0.000000 0.000000 0.000000 -1.200810
    17 10.314597 0.000001 0.000000 -3.687048 0.382838 -0.380522
    18 2.975834 -0.386307 -0.044143 -0.001936 -0.043575 0.026222
    19 1.438886 0.000000 0.000000 0.000000 0.000000 0.784982
    20 1.485303 0.000000 0.000000 0.000000 0.000000 0.540754
    21 -2.869898 1.399663 -4.140396 0.904838 1.190046 3.538202
    22 4.972048 0.000000 0.000001 -0.298989 -1.184332 -0.805390
    23 11.585355 0.000000 0.000000 0.000000 0.000000 -1.504976
    24 10.127057 0.000000 0.000001 1.663521 0.688482 -0.096687
    25 2.683750 -0.427338 0.044205 -0.005786 0.043239 -0.157091
    26 1.438885 -0.000001 0.000000 0.000000 0.000000 0.732658
    27 1.485305 0.000001 0.000000 0.000000 0.000000 1.168770
    28 1.646738 0.449549 -1.702246 -0.161934 0.581206 -0.284024
    29 0.928312 0.000000 -0.000002 0.000000 0.000000 0.000000
    30 0.928314 0.000000 0.000001 0.000000 0.000000 0.000000
    31 1.533672 0.109715 1.664491 -0.264755 -0.055959 0.783109
    32 0.928313 0.000000 0.000000 0.000000 0.000000 -0.453556
    33 0.928314 0.000000 0.000001 0.000000 0.000000 0.000000
  time 23
    0 0.235347 0.367732 3.528927 0.000000 0.000000 -1.570874
    1 2.039125 -0.042970 0.000000 -1.570795 -1.570796 0.000000
    2 -0.000005 0.000007 3.713255 0.002054 3.115505 -0.021473
    3 18.045721 0.000000 0.000000 0.000000 0.000000 -0.121501
    4 17.597597 0.000000 0.000000 -0.002613 0.026036 0.099967
    5 0.000005 -0.000003 -3.713255 -0.002524 -3.124238 -0.024449
    6 18.045725 0.000000 0.000000 0.000000 0.000000 -0.127551
    7 17.597597 0.000000 0.000000 0.002950 -0.017289 0.103055
    8 1.293670 0.684478 -0.000001 -0.000004 -0.000001 0.009520
    9 5.309685 -0.003834 0.000000 0.000000 0.000000 -0.261661
    10 4.826790 -0.004591 0.000000 -0.156713 -0.009324 -0.059762
    11 5.792767 -0.005304 0.000000 -0.052201 -0.003535 -0.068535
    12 6.662317 -0.001453 0.000000 0.000000 -0.000001 0.471000
    13 2.046985 -0.000002 0.000000 0.209211 0.002274 -0.368333
    14 -3.112024 1.517254 4.341911 1.349208 -0.760457 1.414889
    15 4.827230 0.000000 0.000001 -0.351539 0.626724 -0.473085
    16 11.139763 0.000000 0.000000 0.000000 0.000000 -1.200810
    17 10.314597 0.000001 0.000000 -3.687048 0.382838 -0.380522
    18 2.975834 -0.386307 -0.044143 -0.001936 -0.043575 0.026222
    19 1.438886 0.000000 0.000000 0.000000 0.000000 0.784982
    20 1.485303 0.000000 0.000000 0.000000 0.000000 0.540754
    21 -2.869898 1.399663 -4.140396 0.917493 1.193975 3.551912
    22 4.972048 0.000000 0.000001 -0.308890 -1.193100 -0.793994
    23 11.585355 0.000000 0.000000 0.000000 0.000000 -1.504976
    24 10.127057 0.000000 0.000001 1.663521 0.688482 -0.096687
    25 2.683750 -0.427338 0.044205 -0.005786 0.043239 -0.157091
    26 1.438885 -0.000001 0.000000 0.000000 0.000000 0.732658
    27 1.485305 0.000001 0.000000 0.000000 0.000000 1.168770
    28 1.646738 0.449549 -1.702246 -0.161934 0.581206 -0.284024
    29 0.928312 0.000000 -0.000002 0.000000 0.000000 0.000000
    30 0.928314 0.000000 0.000001 0.000000 0.000000 0.000000
    31 1.533672 0.109715 1.664491 -0.264755 -0.055959 0.783109
    32 0.928313 0.000000 0.000000 0.000000 0.000000 -0.453556
    33 0.928314 0.000000 0.000001 0.000000 0.000000 0.000000
  time 24
    0 0.235347 0.367732 3.528927 0.000000 0.000000 -1.570874
    1 2.054750 -0.046876 0.000000 -1.570795 -1.570796 0.000000
    2 -0.000005 0.000007 3.713255 0.002054 3.115505 -0.021473
    3 18.045721 0.000000 0.000000 0.000000 0.000000 -0.121501
    4 17.597597 0.000000 0.000000 -0.002613 0.026036 0.099967
    5 0.000005 -0.000003 -3.713255 -0.002524 -3.124238 -0.024449
    6 18.045725 0.000000 0.000000 0.000000 0.000000 -0.127551
    7 17.597597 0.000000 0.000000 0.002950 -0.017289 0.103055
    8 1.293670 0.684478 -0.000001 -0.000004 -0.000001 0.009520
    9 5.309685 -0.003834 0.000000 0.000000 0.000000 -0.261661
    10 4.826790 -0.004591 0.000000 -0.156680 -0.009827 -0.062937
    11 5.792767 -0.005304 0.000000 -0.052184 -0.003871 -0.074971
    12 6.662317 -0.001453 0.000000 0.000000 -0.000001 0.471000
    13 2.046985 -0.000002 0.000000 0.209211 0.002094 -0.358669
    14 -3.112024 1.517254 4.341911 1.353714 -0.761496 1.408369
    15 4.827230 0.000000 0.000001 -0.350951 0.640170 -0.471247
    16 11.139763 0.000000 0.000000 0.000000 0.000000 -1.200810
    17 10.314597 0.000001 0.000000 -3.687048 0.382838 -0.380522
    18 2.975834 -0.386307 -0.044143 -0.001936 -0.043575 0.026222
    19 1.438886 0.000000 0.000000 0.000000 0.000000 0.784982
    20 1.485303 0.000000 0.000000 0.000000 0.000000 0.540754
    21 -2.869898 1.399663 -4.140396 0.930628 1.197847 3.565909
    22 4.972048 0.000000 0.000001 -0.319488 -1.201868 -0.782071
    23 11.585355 0.000000 0.000000 0.000000 0.000000 -1.504976
    24 10.127057 0.000000 0.000001 1.663521 0.688482 -0.096687
    25 2.683750 -0.427338 0.044205 -0.005786 0.043239 -0.157091
    26 1.438885 -0.000001 0.000000 0.000000 0.000000 0.732658
    27 1.485305 0.000001 0.000000 0.000000 0.000000 1.168770
    28 1.646738 0.449549 -1.702246 -0.161934 0.581206 -0.284024
    29 0.928312 0.000000 -0.000002 0.000000 0.000000 0.000000
    30 0.928314 0.000000 0.000001 0.000000 0.000000 0.000000
    31 1.533672 0.109715 1.664491 -0.264755 -0.055959 0.783109
    32 0.928313 0.000000 0.000000 0.000000 0.000000 -0.453556
    33 0.928314 0.000000 0.000001 0.000000 0.000000 0.000000
  time 25
    0 0.235347 0.367732 3.528927 0.000000 0.000000 -1.570874
    1 2.074282 -0.050783 0.000000 -1.570795 -1.570796 0.000000
    2 -0.000005 0.000007 3.713255 0.002054 3.115505 -0.021473
    3 18.045721 0.000000 0.000000 0.000000 0.000000 -0.121501
    4 17.597597 0.000000 0.000000 -0.002613 0.026036 0.099967
    5 0.000005 -0.000003 -3.713255 -0.002524 -3.124238 -0.024449
    6 18.045725 0.000000 0.000000 0.000000 0.000000 -0.127551
    7 17.597597 0.000000 0.000000 0.002950 -0.017289 0.103055
    8 1.293670 0.684478 -0.000001 -0.000004 -0.000001 0.009520
    9 5.309685 -0.003834 0.000000 0.000000 0.000000 -0.261661
    10 4.826790 -0.004591 0.000000 -0.156647 -0.010319 -0.066068
    11 5.792767 -0.005304 0.000000 -0.052152 -0.004207 -0.081283
    12 6.662317 -0.001453 0.000000 0.000000 -0.000001 0.471000
    13 2.046985 -0.000002 0.000000 0.209211 0.001936 -0.349185
    14 -3.112024 1.517254 4.341911 1.358124 -0.762534 1.402041
    15 4.827230 0.000000 0.000001 -0.350305 0.653446 -0.469409
    16 11.139763 0.000000 0.000000 0.000000 0.000000 -1.200810
    17 10.314597 0.000001 0.000000 -3.687048 0.382838 -0.380522
    18 2.975834 -0.386307 -0.044143 -0.001936 -0.043575 0.026222
    19 1.438886 0.000000 0.000000 0.000000 0.000000 0.784982
    20 1.485303 0.000000 0.000000 0.000000 0.000000 0.540754
    21 -2.869898 1.399663 -4.140396 0.943667 1.201606 3.580002
    22 4.972048 0.000000 0.000001 -0.330395 -1.210475 -0.769819
    23 11.585355 0.000000 0.000000 0.000000 0.000000 -1.504976
    24 10.127057 0.000000 0.000001 1.663521 0.688482 -0.096687
    25 2.683750 -0.427338 0.044205 -0.005786 0.043239 -0.157091
    26 1.438885 -0.000001 0.000000 0.000000 0.000000 0.732658
    27 1.485305 0.000001 0.000000 0.000000 0.000000 1.168770
    28 1.646738 0.449549 -1.702246 -0.161934 0.581206 -0.284024
    29 0.928312 0.000000 -0.000002 0.000000 0.000000 0.000000
    30 0.928314 0.000000 0.000001 0.000000 0.000000 0.000000
    31 1.533672 0.109715 1.664491 -0.264755 -0.055959 0.783109
    32 0.928313 0.000000 0.000000 0.000000 0.000000 -0.453556
    33 0.928314 0.000000 0.000001 0.000000 0.000000 0.000000
  time 26
    0 0.235347 0.367732 3.528927 0.000000 0.000000 -1.570874
    1 2.086001 -0.054689 0.000000 -1.570795 -1.570796 0.000000
    2 -0.000005 0.000007 3.713255 0.002054 3.115505 -0.021473
    3 18.045721 0.000000 0.000000 0.000000 0.000000 -0.121501
    4 17.597597 0.000000 0.000000 -0.002613 0.026036 0.099967
    5 0.000005 -0.000003 -3.713255 -0.002524 -3.124238 -0.024449
    6 18.045725 0.000000 0.000000 0.000000 0.000000 -0.127551
    7 17.597597 0.000000 0.000000 0.002950 -0.017289 0.103055
    8 1.293670 0.684478 -0.000001 -0.000004 -0.000001 0.009520
    9 5.309685 -0.003834 0.000000 0.000000 0.000000 -0.261661
    10 4.826790 -0.004591 0.000000 -0.156631 -0.010786 -0.069044
    11 5.792767 -0.005304 0.000000 -0.052135 -0.004518 -0.087304
    12 6.662317 -0.001453 0.000000 0.000000 -0.000001 0.471000
    13 2.046985 -0.000002 0.000000 0.209211 0.001779 -0.340151
    14 -3.112024 1.517254 4.341911 1.362343 -0.763458 1.395905
    15 4.827230 0.000000 0.000001 -0.349659 0.665956 -0.467659
    16 11.139763 0.000000 0.000000 0.000000 0.000000 -1.200810
    17 10.314597 0.000001 0.000000 -3.687048 0.382838 -0.380522
    18 2.975834 -0.386307 -0.044143 -0.001936 -0.043575 0.026222
    19 1.438886 0.000000 0.000000 0.000000 0.000000 0.784982
    20 1.485303 0.000000 0.000000 0.000000 0.000000 0.540754
    21 -2.869898 1.399663 -4.140396 0.956418 1.205111 3.593616
    22 4.972048 0.000000 0.000001 -0.341379 -1.218600 -0.757698
    23 11.585355 0.000000 0.000000 0.000000 0.000000 -1.504976
    24 10.127057 0.000000 0.000001 1.663521 0.688482 -0.096687
    25 2.683750 -0.427338 0.044205 -0.005786 0.043239 -0.157091
    26 1.438885 -0.000001 0.000000 0.000000 0.000000 0.732658
    27 1.485305 0.000001 0.000000 0.000000 0.000000 1.168770
    28 1.646738 0.449549 -1.702246 -0.161934 0.581206 -0.284024
    29 0.928312 0.000000 -0.000002 0.000000 0.000000 0.000000
    30 0.928314 0.000000 0.000001 0.000000 0.000000 0.000000
    31 1.533672 0.109715 1.664491 -0.264755 -0.055959 0.783109
    32 0.928313 0.000000 0.000000 0.000000 0.000000 -0.453556
    33 0.928314 0.000000 0.000001 0.000000 0.000000 0.000000
  time 27
    0 0.235347 0.367732 3.528927 0.000000 0.000000 -1.570874
    1 2.101627 -0.058596 0.000000 -1.570795 -1.570796 0.000000
    2 -0.000005 0.000007 3.713255 0.002054 3.115505 -0.021473
    3 18.045721 0.000000 0.000000 0.000000 0.000000 -0.121501
    4 17.597597 0.000000 0.000000 -0.002613 0.026036 0.099967
    5 0.000005 -0.000003 -3.713255 -0.002524 -3.124238 -0.024449
    6 18.045725 0.000000 0.000000 0.000000 0.000000 -0.127551
    7 17.597597 0.000000 0.000000 0.002950 -0.017289 0.103055
    8 1.293670 0.684478 -0.000001 -0.000004 -0.000001 0.009520
    9 5.309685 -0.003834 0.000000 0.000000 0.000000 -0.261661
    10 4.826790 -0.004591 0.000000 -0.156598 -0.011218 -0.071778
    11 5.792767 -0.005304 0.000000 -0.052103 -0.004806 -0.092806
    12 6.662317 -0.001453 0.000000 0.000000 -0.000001 0.471000
    13 2.046985 -0.000002 0.000000 0.209211 0.001621 -0.331880
    14 -3.112024 1.517254 4.341911 1.366178 -0.764304 1.390248
    15 4.827230 0.000000 0.000001 -0.349072 0.677529 -0.466084
    16 11.139763 0.000000 0.000000 0.000000 0.000000 -1.200810
    17 10.314597 0.000001 0.000000 -3.687048 0.382838 -0.380522
    18 2.975834 -0.386307 -0.044143 -0.001936 -0.043575 0.026222
    19 1.438886 0.000000 0.000000 0.000000 0.000000 0.784982
    20 1.485303 0.000000 0.000000 0.000000 0.000000 0.540754
    21 -2.869898 1.399663 -4.140396 0.968306 1.208248 3.606368
    22 4.972048 0.000000 0.000001 -0.351899 -1.226000 -0.746170
    23 11.585355 0.000000 0.000000 0.000000 0.000000 -1.504976
    24 10.127057 0.000000 0.000001 1.663521 0.688482 -0.096687
    25 2.683750 -0.427338 0.044205 -0.005786 0.043239 -0.157091
    26 1.438885 -0.000001 0.000000 0.000000 0.000000 0.732658
    27 1.485305 0.000001 0.000000 0.000000 0.000000 1.168770
    28 1.646738 0.449549 -1.702246 -0.161934 0.581206 -0.284024
    29 0.928312 0.000000 -0.000002 0.000000 0.000000 0.000000
    30 0.928314 0.000000 0.000001 0.000000 0.000000 0.000000
    31 1.533672 0.109715 1.664491 -0.264755 -0.055959 0.783109
    32 0.928313 0.000000 0.000000 0.000000 0.000000 -0.453556
    33 0.928314 0.000000 0.000001 0.000000 0.000000 0.000000
  time 28
    0 0.235347 0.367732 3.528927 0.000000 0.000000 -1.570874
    1 2.113346 -0.058596 0.000000 -1.570795 -1.570796 0.000000
    2 -0.000005 0.000007 3.713255 0.002054 3.115505 -0.021473
    3 18.045721 0.000000 0.000000 0.000000 0.000000 -0.121501
    4 17.597597 0.000000 0.000000 -0.002613 0.026036 0.099967
    5 0.000005 -0.000003 -3.713255 -0.002524 -3.124238 -0.024449
    6 18.045725 0.000000 0.000000 0.000000 0.000000 -0.127551
    7 17.597597 0.000000 0.000000 0.002950 -0.017289 0.103055
    8 1.293670 0.684478 -0.000001 -0.000004 -0.000001 0.009520
    9 5.309685 -0.003834 0.000000 0.000000 0.000000 -0.261661
    10 4.826790 -0.004591 0.000000 -0.156565 -0.011589 -0.074160
    11 5.792767 -0.005304 0.000000 -0.052086 -0.005057 -0.097644
    12 6.662317 -0.001453 0.000000 0.000000 -0.000001 0.471000
    13 2.046985 -0.000002 0.000000 0.209211 0.001509 -0.324644
    14 -3.112024 1.517254 4.341911 1.369629 -0.765035 1.385359
    15 4.827230 0.000000 0.000001 -0.348485 0.687656 -0.464684
    16 11.139763 0.000000 0.000000 0.000000 0.000000 -1.200810
    17 10.314597 0.000001 0.000000 -3.687048 0.382838 -0.380522
    18 2.975834 -0.386307 -0.044143 -0.001936 -0.043575 0.026222
    19 1.438886 0.000000 0.000000 0.000000 0.000000 0.784982
    20 1.485303 0.000000 0.000000 0.000000 0.000000 0.540754
    21 -2.869898 1.399663 -4.140396 0.978852 1.210990 3.617681
    22 4.972048 0.000000 0.000001 -0.361491 -1.232436 -0.735631
    23 11.585355 0.000000 0.000000 0.000000 0.000000 -1.504976
    24 10.127057 0.000000 0.000001 1.663521 0.688482 -0.096687
    25 2.683750 -0.427338 0.044205 -0.005786 0.043239 -0.157091
    26 1.438885 -0.000001 0.000000 0.000000 0.000000 0.732658
    27 1.485305 0.000001 0.000000 0.000000 0.000000 1.168770
    28 1.646738 0.449549 -1.702246 -0.161934 0.581206 -0.284024
    29 0.928312 0.000000 -0.000002 0.000000 0.000000 0.000000
    30 0.928314 0.000000 0.000001 0.000000 0.000000 0.000000
    31 1.533672 0.109715 1.664491 -0.264755 -0.055959 0.783109
    32 0.928313 0.000000 0.000000 0.000000 0.000000 -0.453556
    33 0.928314 0.000000 0.000001 0.000000 0.000000 0.000000
  time 29
    0 0.235347 0.367732 3.528927 0.000000 0.000000 -1.570874
    1 2.125065 -0.062502 0.000000 -1.570795 -1.570796 0.000000
    2 -0.000005 0.000007 3.713255 0.002054 3.115505 -0.021473
    3 18.045721 0.000000 0.000000 0.000000 0.000000 -0.121501
    4 17.597597 0.000000 0.000000 -0.002613 0.026036 0.099967
    5 0.000005 -0.000003 -3.713255 -0.002524 -3.124238 -0.024449
    6 18.045725 0.000000 0.000000 0.000000 0.000000 -0.127551
    7 17.597597 0.000000 0.000000 0.002950 -0.017289 0.103055
    8 1.293670 0.684478 -0.000001 -0.000004 -0.000001 0.009520
    9 5.309685 -0.003834 0.000000 0.000000 0.000000 -0.261661
    10 4.826790 -0.004591 0.000000 -0.156549 -0.011901 -0.076122
    11 5.792767 -0.005304 0.000000 -0.052054 -0.005261 -0.101610
    12 6.662317 -0.001453 0.000000 0.000000 -0.000001 0.471000
    13 2.046985 -0.000002 0.000000 0.209211 0.001396 -0.318666
    14 -3.112024 1.517254 4.341911 1.372409 -0.765650 1.381332
    15 4.827230 0.000000 0.000001 -0.348015 0.695996 -0.463546
    16 11.139763 0.000000 0.000000 0.000000 0.000000 -1.200810
    17 10.314597 0.000001 0.000000 -3.687048 0.382838 -0.380522
    18 2.975834 -0.386307 -0.044143 -0.001936 -0.043575 0.026222
    19 1.438886 0.000000 0.000000 0.000000 0.000000 0.784982
    20 1.485303 0.000000 0.000000 0.000000 0.000000 0.540754
    21 -2.869898 1.399663 -4.140396 0.987672 1.213166 3.627076
    22 4.972048 0.000000 0.000001 -0.369768 -1.237745 -0.726738
    23 11.585355 0.000000 0.000000 0.000000 0.000000 -1.504976
    24 10.127057 0.000000 0.000001 1.663521 0.688482 -0.096687
    25 2.683750 -0.427338 0.044205 -0.005786 0.043239 -0.157091
    26 1.438885 -0.000001 0.000000 0.000000 0.000000 0.732658
    27 1.485305 0.000001 0.000000 0.000000 0.000000 1.168770
    28 1.646738 0.449549 -1.702246 -0.161934 0.581206 -0.284024
    29 0.928312 0.000000 -0.000002 0.000000 0.000000 0.000000
    30 0.928314 0.000000 0.000001 0.000000 0.000000 0.000000
    31 1.533672 0.109715 1.664491 -0.264755 -0.055959 0.783109
    32 0.928313 0.000000 0.000000 0.000000 0.000000 -0.453556
    33 0.928314 0.000000 0.000001 0.000000 0.000000 0.000000
  time 30
    0 0.235347 0.367732 3.528927 0.000000 0.000000 -1.570874
    1 2.128971 -0.062502 0.000000 -1.570795 -1.570796 0.000000
    2 -0.000005 0.000007 3.713255 0.002054 3.115505 -0.021473
    3 18.045721 0.000000 0.000000 0.000000 0.000000 -0.121501
    4 17.597597 0.000000 0.000000 -0.002613 0.026036 0.099967
    5 0.000005 -0.000003 -3.713255 -0.002524 -3.124238 -0.024449
    6 18.045725 0.000000 0.000000 0.000000 0.000000 -0.127551
    7 17.597597 0.000000 0.000000 0.002950 -0.017289 0.103055
    8 1.293670 0.684478 -0.000001 -0.000004 -0.000001 0.009520
    9 5.309685 -0.003834 0.000000 0.000000 0.000000 -0.261661
    10 4.826790 -0.004591 0.000000 -0.156532 -0.012128 -0.077555
    11 5.792767 -0.005304 0.000000 -0.052037 -0.005417 -0.104517
    12 6.662317 -0.001453 0.000000 0.000000 -0.000001 0.471000
    13 2.046985 -0.000002 0.000000 0.209168 0.001328 -0.314306
    14 -3.112024 1.517254 4.341911 1.374519 -0.766073 1.378360
    15 4.827230 0.000000 0.000001 -0.347662 0.702038 -0.462671
    16 11.139763 0.000000 0.000000 0.000000 0.000000 -1.200810
    17 10.314597 0.000001 0.000000 -3.687048 0.382838 -0.380522
    18 2.975834 -0.386307 -0.044143 -0.001936 -0.043575 0.026222
    19 1.438886 0.000000 0.000000 0.000000 0.000000 0.784982
    20 1.485303 0.000000 0.000000 0.000000 0.000000 0.540754
    21 -2.869898 1.399663 -4.140396 0.994288 1.214777 3.634075
    22 4.972048 0.000000 0.000001 -0.375957 -1.241606 -0.720085
    23 11.585355 0.000000 0.000000 0.000000 0.000000 -1.504976
    24 10.127057 0.000000 0.000001 1.663521 0.688482 -0.096687
    25 2.683750 -0.427338 0.044205 -0.005786 0.043239 -0.157091
    26 1.438885 -0.000001 0.000000 0.000000 0.000000 0.732658
    27 1.485305 0.000001 0.000000 0.000000 0.000000 1.168770
    28 1.646738 0.449549 -1.702246 -0.161934 0.581206 -0.284024
    29 0.928312 0.000000 -0.000002 0.000000 0.000000 0.000000
    30 0.928314 0.000000 0.000001 0.000000 0.000000 0.000000
    31 1.533672 0.109715 1.664491 -0.264755 -0.055959 0.783109
    32 0.928313 0.000000 0.000000 0.000000 0.000000 -0.453556
    33 0.928314 0.000000 0.000001 0.000000 0.000000 0.000000
end
