version 1
nodes
  0 "Bip01" -1
  1 "Bip01 Pelvis" 0
  2 "Bip01 L Leg" 1
  3 "Bip01 L Leg1" 2
  4 "Bip01 L Foot" 3
  5 "Bip01 R Leg" 1
  6 "Bip01 R Leg1" 5
  7 "Bip01 R Foot" 6
  8 "Bip01 Spine" 1
  9 "Bip01 Spine1" 8
  10 "Bip01 Spine2" 9
  11 "Bip01 Spine3" 10
  12 "Bip01 Neck" 11
  13 "Bip01 Head" 12
  14 "Bip01 L Arm" 12
  15 "Bip01 L Arm1" 14
  16 "Bip01 L Arm2" 15
  17 "Bip01 L Hand" 16
  18 "Bip01 L Finger1" 17
  19 "Bip01 L Finger11" 18
  20 "Bip01 L Finger12" 19
  21 "Bip01 R Arm" 12
  22 "Bip01 R Arm1" 21
  23 "Bip01 R Arm2" 22
  24 "Bip01 R Hand" 23
  25 "Bip01 R Finger1" 24
  26 "Bip01 R Finger11" 25
  27 "Bip01 R Finger12" 26
  28 "Bip01 L Finger0" 17
  29 "Bip01 L Finger01" 28
  30 "Bip01 L Finger02" 29
  31 "Bip01 R Finger0" 24
  32 "Bip01 R Finger01" 31
  33 "Bip01 R Finger02" 32
end
skeleton
  time 0
    0 0.235347 0.367732 3.528927 0.000000 0.000000 -1.570874
    1 0.000000 0.000000 0.000000 -1.570795 -1.570796 0.000000
    2 -0.000005 0.000007 3.713255 0.002054 3.115505 -0.021473
    3 18.045721 0.000000 0.000000 0.000000 0.000000 -0.121501
    4 17.597597 0.000000 0.000000 -0.002613 0.026036 0.099967
    5 0.000005 -0.000003 -3.713255 -0.002524 -3.124238 -0.024449
    6 18.045725 0.000000 0.000000 0.000000 0.000000 -0.127551
    7 17.597597 0.000000 0.000000 0.002950 -0.017289 0.103055
    8 1.293670 0.684478 -0.000001 -0.000004 -0.000001 0.306070
    9 5.309685 -0.003834 0.000000 0.000000 0.000000 -0.000004
    10 4.826790 -0.004591 0.000000 -0.173330 0.019775 0.111669
    11 5.792767 -0.005304 0.000000 -0.138190 0.019451 0.138200
    12 6.662317 -0.001453 0.000000 0.000000 -0.000001 0.471000
    13 2.046985 -0.000002 0.000000 0.254749 -0.184713 -0.060846
    14 -3.112024 1.517254 4.341911 1.021706 -1.200316 1.679890
    15 4.827230 0.000000 0.000001 0.104020 0.734462 -0.900664
    16 11.139763 0.000000 0.000000 0.000000 0.000000 -0.884049
    17 10.314597 0.000001 0.000000 -4.171774 0.083251 -0.332952
    18 2.975834 -0.386307 -0.044143 -0.000797 -0.043611 0.000035
    19 1.438886 0.000000 0.000000 0.000000 0.000000 0.872212
    20 1.485303 0.000000 0.000000 0.000000 0.000000 0.907076
    21 -2.869898 1.399663 -4.140396 0.672729 1.317206 3.326706
    22 4.972048 0.000000 0.000001 -1.089399 -1.024254 0.318132
    23 11.585355 0.000000 0.000000 0.000000 0.000000 -1.839859
    24 10.127057 0.000000 0.000001 1.597717 0.255825 0.214802
    25 2.683750 -0.427338 0.044205 -0.005786 0.043239 -0.157091
    26 1.438885 -0.000001 0.000000 0.000000 0.000000 0.732658
    27 1.485305 0.000001 0.000000 0.000000 0.000000 1.168770
    28 1.646738 0.449549 -1.702246 -0.161934 0.581206 -0.284024
    29 0.928312 0.000000 -0.000002 0.000000 0.000000 0.000000
    30 0.928314 0.000000 0.000001 0.000000 0.000000 0.000000
    31 1.533672 0.109715 1.664491 -0.264755 -0.055959 0.783109
    32 0.928313 0.000000 0.000000 0.000000 0.000000 -0.453556
    33 0.928314 0.000000 0.000001 0.000000 0.000000 0.000000
  time 1
    0 0.235347 0.367732 3.528927 0.000000 0.000000 -1.570874
    1 0.000000 0.000000 0.000000 -1.570795 -1.570796 0.000000
    2 -0.000005 0.000007 3.713255 0.002054 3.115505 -0.021473
    3 18.045721 0.000000 0.000000 0.000000 0.000000 -0.121501
    4 17.597597 0.000000 0.000000 -0.002613 0.026036 0.099967
    5 0.000005 -0.000003 -3.713255 -0.002524 -3.124238 -0.024449
    6 18.045725 0.000000 0.000000 0.000000 0.000000 -0.127551
    7 17.597597 0.000000 0.000000 0.002950 -0.017289 0.103055
    8 1.293670 0.684478 -0.000001 -0.000004 -0.000001 0.306070
    9 5.309685 -0.003834 0.000000 0.000000 0.000000 -0.000004
    10 4.826790 -0.004591 0.000000 -0.173330 0.019775 0.111669
    11 5.792767 -0.005304 0.000000 -0.138125 0.019954 0.141813
    12 6.662317 -0.001453 0.000000 0.000000 -0.000001 0.471000
    13 2.046985 -0.000002 0.000000 0.254749 -0.184713 -0.064487
    14 -3.112024 1.517254 4.341911 1.013748 -1.198392 1.688423
    15 4.827230 0.000000 0.000001 0.106193 0.728760 -0.899877
    16 11.139763 0.000000 0.000000 0.000000 0.000000 -0.884049
    17 10.314597 0.000001 0.000000 -4.171774 0.083251 -0.332952
    18 2.975834 -0.386307 -0.044143 -0.000797 -0.043611 0.000035
    19 1.438886 0.000000 0.000000 0.000000 0.000000 0.872212
    20 1.485303 0.000000 0.000000 0.000000 0.000000 0.907076
    21 -2.869898 1.399663 -4.140396 0.664100 1.314352 3.317789
    22 4.972048 0.000000 0.000001 -1.081122 -1.022404 0.310359
    23 11.585355 0.000000 0.000000 0.000000 0.000000 -1.839859
    24 10.127057 0.000000 0.000001 1.597717 0.255825 0.214802
    25 2.683750 -0.427338 0.044205 -0.005786 0.043239 -0.157091
    26 1.438885 -0.000001 0.000000 0.000000 0.000000 0.732658
    27 1.485305 0.000001 0.000000 0.000000 0.000000 1.168770
    28 1.646738 0.449549 -1.702246 -0.161934 0.581206 -0.284024
    29 0.928312 0.000000 -0.000002 0.000000 0.000000 0.000000
    30 0.928314 0.000000 0.000001 0.000000 0.000000 0.000000
    31 1.533672 0.109715 1.664491 -0.264755 -0.055959 0.783109
    32 0.928313 0.000000 0.000000 0.000000 0.000000 -0.453556
    33 0.928314 0.000000 0.000001 0.000000 0.000000 0.000000
  time 2
    0 0.235347 0.367732 3.528927 0.000000 0.000000 -1.570874
    1 0.000000 0.000000 0.000000 -1.570795 -1.570796 0.000000
    2 -0.000005 0.000007 3.713255 0.002054 3.115505 -0.021473
    3 18.045721 0.000000 0.000000 0.000000 0.000000 -0.121501
    4 17.597597 0.000000 0.000000 -0.002613 0.026036 0.099967
    5 0.000005 -0.000003 -3.713255 -0.002524 -3.124238 -0.024449
    6 18.045725 0.000000 0.000000 0.000000 0.000000 -0.127551
    7 17.597597 0.000000 0.000000 0.002950 -0.017289 0.103055
    8 1.293670 0.684478 -0.000001 -0.000004 -0.000001 0.306070
    9 5.309685 -0.003834 0.000000 0.000000 0.000000 -0.000004
    10 4.826790 -0.004591 0.000000 -0.173330 0.019775 0.111669
    11 5.792767 -0.005304 0.000000 -0.138027 0.020637 0.146734
    12 6.662317 -0.001453 0.000000 0.000000 -0.000001 0.471000
    13 2.046985 -0.000002 0.000000 0.254749 -0.184713 -0.069431
    14 -3.112024 1.517254 4.341911 1.003010 -1.195777 1.699928
    15 4.827230 0.000000 0.000001 0.109189 0.721101 -0.898914
    16 11.139763 0.000000 0.000000 0.000000 0.000000 -0.884049
    17 10.314597 0.000001 0.000000 -4.171774 0.083251 -0.332952
    18 2.975834 -0.386307 -0.044143 -0.000797 -0.043611 0.000035
    19 1.438886 0.000000 0.000000 0.000000 0.000000 0.872212
    20 1.485303 0.000000 0.000000 0.000000 0.000000 0.907076
    21 -2.869898 1.399663 -4.140396 0.652596 1.310423 3.305901
    22 4.972048 0.000000 0.000001 -1.069906 -1.019830 0.299819
    23 11.585355 0.000000 0.000000 0.000000 0.000000 -1.839859
    24 10.127057 0.000000 0.000001 1.597717 0.255825 0.214802
    25 2.683750 -0.427338 0.044205 -0.005786 0.043239 -0.157091
    26 1.438885 -0.000001 0.000000 0.000000 0.000000 0.732658
    27 1.485305 0.000001 0.000000 0.000000 0.000000 1.168770
    28 1.646738 0.449549 -1.702246 -0.161934 0.581206 -0.284024
    29 0.928312 0.000000 -0.000002 0.000000 0.000000 0.000000
    30 0.928314 0.000000 0.000001 0.000000 0.000000 0.000000
    31 1.533672 0.109715 1.664491 -0.264755 -0.055959 0.783109
    32 0.928313 0.000000 0.000000 0.000000 0.000000 -0.453556
    33 0.928314 0.000000 0.000001 0.000000 0.000000 0.000000
  time 3
    0 0.235347 0.367732 3.528927 0.000000 0.000000 -1.570874
    1 0.000000 0.000000 0.000000 -1.570795 -1.570796 0.000000
    2 -0.000005 0.000007 3.713255 0.002054 3.115505 -0.021473
    3 18.045721 0.000000 0.000000 0.000000 0.000000 -0.121501
    4 17.597597 0.000000 0.000000 -0.002613 0.026036 0.099967
    5 0.000005 -0.000003 -3.713255 -0.002524 -3.124238 -0.024449
    6 18.045725 0.000000 0.000000 0.000000 0.000000 -0.127551
    7 17.597597 0.000000 0.000000 0.002950 -0.017289 0.103055
    8 1.293670 0.684478 -0.000001 -0.000004 -0.000001 0.306070
    9 5.309685 -0.003834 0.000000 0.000000 0.000000 -0.000004
    10 4.826790 -0.004591 0.000000 -0.173330 0.019775 0.111669
    11 5.792767 -0.005304 0.000000 -0.137897 0.021476 0.152713
    12 6.662317 -0.001453 0.000000 0.000000 -0.000001 0.471000
    13 2.046985 -0.000002 0.000000 0.254749 -0.184713 -0.075499
    14 -3.112024 1.517254 4.341911 0.990163 -1.192469 1.713734
    15 4.827230 0.000000 0.000001 0.112654 0.711825 -0.897776
    16 11.139763 0.000000 0.000000 0.000000 0.000000 -0.884049
    17 10.314597 0.000001 0.000000 -4.171774 0.083251 -0.332952
    18 2.975834 -0.386307 -0.044143 -0.000797 -0.043611 0.000035
    19 1.438886 0.000000 0.000000 0.000000 0.000000 0.872212
    20 1.485303 0.000000 0.000000 0.000000 0.000000 0.907076
    21 -2.869898 1.399663 -4.140396 0.639078 1.305590 3.291904
    22 4.972048 0.000000 0.000001 -1.056446 -1.016693 0.287106
    23 11.585355 0.000000 0.000000 0.000000 0.000000 -1.839859
    24 10.127057 0.000000 0.000001 1.597717 0.255825 0.214802
    25 2.683750 -0.427338 0.044205 -0.005786 0.043239 -0.157091
    26 1.438885 -0.000001 0.000000 0.000000 0.000000 0.732658
    27 1.485305 0.000001 0.000000 0.000000 0.000000 1.168770
    28 1.646738 0.449549 -1.702246 -0.161934 0.581206 -0.284024
    29 0.928312 0.000000 -0.000002 0.000000 0.000000 0.000000
    30 0.928314 0.000000 0.000001 0.000000 0.000000 0.000000
    31 1.533672 0.109715 1.664491 -0.264755 -0.055959 0.783109
    32 0.928313 0.000000 0.000000 0.000000 0.000000 -0.453556
    33 0.928314 0.000000 0.000001 0.000000 0.000000 0.000000
  time 4
    0 0.235347 0.367732 3.528927 0.000000 0.000000 -1.570874
    1 0.000000 0.000000 0.000000 -1.570795 -1.570796 0.000000
    2 -0.000005 0.000007 3.713255 0.002054 3.115505 -0.021473
    3 18.045721 0.000000 0.000000 0.000000 0.000000 -0.121501
    4 17.597597 0.000000 0.000000 -0.002613 0.026036 0.099967
    5 0.000005 -0.000003 -3.713255 -0.002524 -3.124238 -0.024449
    6 18.045725 0.000000 0.000000 0.000000 0.000000 -0.127551
    7 17.597597 0.000000 0.000000 0.002950 -0.017289 0.103055
    8 1.293670 0.684478 -0.000001 -0.000004 -0.000001 0.306070
    9 5.309685 -0.003834 0.000000 0.000000 0.000000 -0.000004
    10 4.826790 -0.004591 0.000000 -0.173330 0.019775 0.111669
    11 5.792767 -0.005304 0.000000 -0.137750 0.022423 0.159565
    12 6.662317 -0.001453 0.000000 0.000000 -0.000001 0.471000
    13 2.046985 -0.000002 0.000000 0.254749 -0.184713 -0.082376
    14 -3.112024 1.517254 4.341911 0.975782 -1.188661 1.729170
    15 4.827230 0.000000 0.000001 0.116707 0.701187 -0.896551
    16 11.139763 0.000000 0.000000 0.000000 0.000000 -0.884049
    17 10.314597 0.000001 0.000000 -4.171774 0.083251 -0.332952
    18 2.975834 -0.386307 -0.044143 -0.000797 -0.043611 0.000035
    19 1.438886 0.000000 0.000000 0.000000 0.000000 0.872212
    20 1.485303 0.000000 0.000000 0.000000 0.000000 0.907076
    21 -2.869898 1.399663 -4.140396 0.624217 1.299993 3.276468
    22 4.972048 0.000000 0.000001 -1.041285 -1.012912 0.272745
    23 11.585355 0.000000 0.000000 0.000000 0.000000 -1.839859
    24 10.127057 0.000000 0.000001 1.597717 0.255825 0.214802
    25 2.683750 -0.427338 0.044205 -0.005786 0.043239 -0.157091
    26 1.438885 -0.000001 0.000000 0.000000 0.000000 0.732658
    27 1.485305 0.000001 0.000000 0.000000 0.000000 1.168770
    28 1.646738 0.449549 -1.702246 -0.161934 0.581206 -0.284024
    29 0.928312 0.000000 -0.000002 0.000000 0.000000 0.000000
    30 0.928314 0.000000 0.000001 0.000000 0.000000 0.000000
    31 1.533672 0.109715 1.664491 -0.264755 -0.055959 0.783109
    32 0.928313 0.000000 0.000000 0.000000 0.000000 -0.453556
    33 0.928314 0.000000 0.000001 0.000000 0.000000 0.000000
  time 5
    0 0.235347 0.367732 3.528927 0.000000 0.000000 -1.570874
    1 0.000000 0.000000 0.000000 -1.570795 -1.570796 0.000000
    2 -0.000005 0.000007 3.713255 0.002054 3.115505 -0.021473
    3 18.045721 0.000000 0.000000 0.000000 0.000000 -0.121501
    4 17.597597 0.000000 0.000000 -0.002613 0.026036 0.099967
    5 0.000005 -0.000003 -3.713255 -0.002524 -3.124238 -0.024449
    6 18.045725 0.000000 0.000000 0.000000 0.000000 -0.127551
    7 17.597597 0.000000 0.000000 0.002950 -0.017289 0.103055
    8 1.293670 0.684478 -0.000001 -0.000004 -0.000001 0.306070
    9 5.309685 -0.003834 0.000000 0.000000 0.000000 -0.000004
    10 4.826790 -0.004591 0.000000 -0.173330 0.019775 0.111669
    11 5.792767 -0.005304 0.000000 -0.137571 0.023454 0.167019
    12 6.662317 -0.001453 0.000000 0.000000 -0.000001 0.471000
    13 2.046985 -0.000002 0.000000 0.254749 -0.184713 -0.089927
    14 -3.112024 1.517254 4.341911 0.960539 -1.184391 1.745757
    15 4.827230 0.000000 0.000001 0.121054 0.689529 -0.895414
    16 11.139763 0.000000 0.000000 0.000000 0.000000 -0.884049
    17 10.314597 0.000001 0.000000 -4.171774 0.083251 -0.332952
    18 2.975834 -0.386307 -0.044143 -0.000797 -0.043611 0.000035
    19 1.438886 0.000000 0.000000 0.000000 0.000000 0.872212
    20 1.485303 0.000000 0.000000 0.000000 0.000000 0.907076
    21 -2.869898 1.399663 -4.140396 0.608686 1.293860 3.260457
    22 4.972048 0.000000 0.000001 -1.024963 -1.008649 0.257331
    23 11.585355 0.000000 0.000000 0.000000 0.000000 -1.839859
    24 10.127057 0.000000 0.000001 1.597717 0.255825 0.214802
    25 2.683750 -0.427338 0.044205 -0.005786 0.043239 -0.157091
    26 1.438885 -0.000001 0.000000 0.000000 0.000000 0.732658
    27 1.485305 0.000001 0.000000 0.000000 0.000000 1.168770
    28 1.646738 0.449549 -1.702246 -0.161934 0.581206 -0.284024
    29 0.928312 0.000000 -0.000002 0.000000 0.000000 0.000000
    30 0.928314 0.000000 0.000001 0.000000 0.000000 0.000000
    31 1.533672 0.109715 1.664491 -0.264755 -0.055959 0.783109
    32 0.928313 0.000000 0.000000 0.000000 0.000000 -0.453556
    33 0.928314 0.000000 0.000001 0.000000 0.000000 0.000000
  time 6
    0 0.235347 0.367732 3.528927 0.000000 0.000000 -1.570874
    1 0.000000 0.000000 0.000000 -1.570795 -1.570796 0.000000
    2 -0.000005 0.000007 3.713255 0.002054 3.115505 -0.021473
    3 18.045721 0.000000 0.000000 0.000000 0.000000 -0.121501
    4 17.597597 0.000000 0.000000 -0.002613 0.026036 0.099967
    5 0.000005 -0.000003 -3.713255 -0.002524 -3.124238 -0.024449
    6 18.045725 0.000000 0.000000 0.000000 0.000000 -0.127551
    7 17.597597 0.000000 0.000000 0.002950 -0.017289 0.103055
    8 1.293670 0.684478 -0.000001 -0.000004 -0.000001 0.306070
    9 5.309685 -0.003834 0.000000 0.000000 0.000000 -0.000004
    10 4.826790 -0.004591 0.000000 -0.173330 0.019775 0.111669
    11 5.792767 -0.005304 0.000000 -0.137391 0.024532 0.174867
    12 6.662317 -0.001453 0.000000 0.000000 -0.000001 0.471000
    13 2.046985 -0.000002 0.000000 0.254749 -0.184713 -0.097838
    14 -3.112024 1.517254 4.341911 0.944720 -1.179813 1.762727
    15 4.827230 0.000000 0.000001 0.125576 0.677359 -0.894276
    16 11.139763 0.000000 0.000000 0.000000 0.000000 -0.884049
    17 10.314597 0.000001 0.000000 -4.171774 0.083251 -0.332952
    18 2.975834 -0.386307 -0.044143 -0.000797 -0.043611 0.000035
    19 1.438886 0.000000 0.000000 0.000000 0.000000 0.872212
    20 1.485303 0.000000 0.000000 0.000000 0.000000 0.907076
    21 -2.869898 1.399663 -4.140396 0.593154 1.287331 3.244255
    22 4.972048 0.000000 0.000001 -1.008177 -1.004064 0.241258
    23 11.585355 0.000000 0.000000 0.000000 0.000000 -1.839859
    24 10.127057 0.000000 0.000001 1.597717 0.255825 0.214802
    25 2.683750 -0.427338 0.044205 -0.005786 0.043239 -0.157091
    26 1.438885 -0.000001 0.000000 0.000000 0.000000 0.732658
    27 1.485305 0.000001 0.000000 0.000000 0.000000 1.168770
    28 1.646738 0.449549 -1.702246 -0.161934 0.581206 -0.284024
    29 0.928312 0.000000 -0.000002 0.000000 0.000000 0.000000
    30 0.928314 0.000000 0.000001 0.000000 0.000000 0.000000
    31 1.533672 0.109715 1.664491 -0.264755 -0.055959 0.783109
    32 0.928313 0.000000 0.000000 0.000000 0.000000 -0.453556
    33 0.928314 0.000000 0.000001 0.000000 0.000000 0.000000
  time 7
    0 0.235347 0.367732 3.528927 0.000000 0.000000 -1.570874
    1 0.000000 0.000000 0.000000 -1.570795 -1.570796 0.000000
    2 -0.000005 0.000007 3.713255 0.002054 3.115505 -0.021473
    3 18.045721 0.000000 0.000000 0.000000 0.000000 -0.121501
    4 17.597597 0.000000 0.000000 -0.002613 0.026036 0.099967
    5 0.000005 -0.000003 -3.713255 -0.002524 -3.124238 -0.024449
    6 18.045725 0.000000 0.000000 0.000000 0.000000 -0.127551
    7 17.597597 0.000000 0.000000 0.002950 -0.017289 0.103055
    8 1.293670 0.684478 -0.000001 -0.000004 -0.000001 0.306070
    9 5.309685 -0.003834 0.000000 0.000000 0.000000 -0.000004
    10 4.826790 -0.004591 0.000000 -0.173330 0.019775 0.111669
    11 5.792767 -0.005304 0.000000 -0.137179 0.025635 0.182861
    12 6.662317 -0.001453 0.000000 0.000000 -0.000001 0.471000
    13 2.046985 -0.000002 0.000000 0.254749 -0.184713 -0.105883
    14 -3.112024 1.517254 4.341911 0.929092 -1.175005 1.779697
    15 4.827230 0.000000 0.000001 0.130099 0.664934 -0.893313
    16 11.139763 0.000000 0.000000 0.000000 0.000000 -0.884049
    17 10.314597 0.000001 0.000000 -4.171774 0.083251 -0.332952
    18 2.975834 -0.386307 -0.044143 -0.000797 -0.043611 0.000035
    19 1.438886 0.000000 0.000000 0.000000 0.000000 0.872212
    20 1.485303 0.000000 0.000000 0.000000 0.000000 0.907076
    21 -2.869898 1.399663 -4.140396 0.578006 1.280632 3.228436
    22 4.972048 0.000000 0.000001 -0.991236 -0.999237 0.225120
    23 11.585355 0.000000 0.000000 0.000000 0.000000 -1.839859
    24 10.127057 0.000000 0.000001 1.597717 0.255825 0.214802
    25 2.683750 -0.427338 0.044205 -0.005786 0.043239 -0.157091
    26 1.438885 -0.000001 0.000000 0.000000 0.000000 0.732658
    27 1.485305 0.000001 0.000000 0.000000 0.000000 1.168770
    28 1.646738 0.449549 -1.702246 -0.161934 0.581206 -0.284024
    29 0.928312 0.000000 -0.000002 0.000000 0.000000 0.000000
    30 0.928314 0.000000 0.000001 0.000000 0.000000 0.000000
    31 1.533672 0.109715 1.664491 -0.264755 -0.055959 0.783109
    32 0.928313 0.000000 0.000000 0.000000 0.000000 -0.453556
    33 0.928314 0.000000 0.000001 0.000000 0.000000 0.000000
  time 8
    0 0.235347 0.367732 3.528927 0.000000 0.000000 -1.570874
    1 0.000000 0.000000 0.000000 -1.570795 -1.570796 0.000000
    2 -0.000005 0.000007 3.713255 0.002054 3.115505 -0.021473
    3 18.045721 0.000000 0.000000 0.000000 0.000000 -0.121501
    4 17.597597 0.000000 0.000000 -0.002613 0.026036 0.099967
    5 0.000005 -0.000003 -3.713255 -0.002524 -3.124238 -0.024449
    6 18.045725 0.000000 0.000000 0.000000 0.000000 -0.127551
    7 17.597597 0.000000 0.000000 0.002950 -0.017289 0.103055
    8 1.293670 0.684478 -0.000001 -0.000004 -0.000001 0.306070
    9 5.309685 -0.003834 0.000000 0.000000 0.000000 -0.000004
    10 4.826790 -0.004591 0.000000 -0.173330 0.019775 0.111669
    11 5.792767 -0.005304 0.000000 -0.136984 0.026738 0.190772
    12 6.662317 -0.001453 0.000000 0.000000 -0.000001 0.471000
    13 2.046985 -0.000002 0.000000 0.254749 -0.184713 -0.113884
    14 -3.112024 1.517254 4.341911 0.913944 -1.170197 1.796092
    15 4.827230 0.000000 0.000001 0.134563 0.652680 -0.892438
    16 11.139763 0.000000 0.000000 0.000000 0.000000 -0.884049
    17 10.314597 0.000001 0.000000 -4.171774 0.083251 -0.332952
    18 2.975834 -0.386307 -0.044143 -0.000797 -0.043611 0.000035
    19 1.438886 0.000000 0.000000 0.000000 0.000000 0.872212
    20 1.485303 0.000000 0.000000 0.000000 0.000000 0.907076
    21 -2.869898 1.399663 -4.140396 0.563721 1.273906 3.213575
    22 4.972048 0.000000 0.000001 -0.974837 -0.994330 0.209376
    23 11.585355 0.000000 0.000000 0.000000 0.000000 -1.839859
    24 10.127057 0.000000 0.000001 1.597717 0.255825 0.214802
    25 2.683750 -0.427338 0.044205 -0.005786 0.043239 -0.157091
    26 1.438885 -0.000001 0.000000 0.000000 0.000000 0.732658
    27 1.485305 0.000001 0.000000 0.000000 0.000000 1.168770
    28 1.646738 0.449549 -1.702246 -0.161934 0.581206 -0.284024
    29 0.928312 0.000000 -0.000002 0.000000 0.000000 0.000000
    30 0.928314 0.000000 0.000001 0.000000 0.000000 0.000000
    31 1.533672 0.109715 1.664491 -0.264755 -0.055959 0.783109
    32 0.928313 0.000000 0.000000 0.000000 0.000000 -0.453556
    33 0.928314 0.000000 0.000001 0.000000 0.000000 0.000000
  time 9
    0 0.235347 0.367732 3.528927 0.000000 0.000000 -1.570874
    1 0.000000 0.000000 0.000000 -1.570795 -1.570796 0.000000
    2 -0.000005 0.000007 3.713255 0.002054 3.115505 -0.021473
    3 18.045721 0.000000 0.000000 0.000000 0.000000 -0.121501
    4 17.597597 0.000000 0.000000 -0.002613 0.026036 0.099967
    5 0.000005 -0.000003 -3.713255 -0.002524 -3.124238 -0.024449
    6 18.045725 0.000000 0.000000 0.000000 0.000000 -0.127551
    7 17.597597 0.000000 0.000000 0.002950 -0.017289 0.103055
    8 1.293670 0.684478 -0.000001 -0.000004 -0.000001 0.306070
    9 5.309685 -0.003834 0.000000 0.000000 0.000000 -0.000004
    10 4.826790 -0.004591 0.000000 -0.173330 0.019775 0.111669
    11 5.792767 -0.005304 0.000000 -0.136772 0.027780 0.198371
    12 6.662317 -0.001453 0.000000 0.000000 -0.000001 0.471000
    13 2.046985 -0.000002 0.000000 0.254749 -0.184713 -0.121570
    14 -3.112024 1.517254 4.341911 0.899755 -1.165466 1.811528
    15 4.827230 0.000000 0.000001 0.138792 0.640851 -0.891738
    16 11.139763 0.000000 0.000000 0.000000 0.000000 -0.884049
    17 10.314597 0.000001 0.000000 -4.171774 0.083251 -0.332952
    18 2.975834 -0.386307 -0.044143 -0.000797 -0.043611 0.000035
    19 1.438886 0.000000 0.000000 0.000000 0.000000 0.872212
    20 1.485303 0.000000 0.000000 0.000000 0.000000 0.907076
    21 -2.869898 1.399663 -4.140396 0.550682 1.267377 3.199770
    22 4.972048 0.000000 0.000001 -0.959289 -0.989423 0.194489
    23 11.585355 0.000000 0.000000 0.000000 0.000000 -1.839859
    24 10.127057 0.000000 0.000001 1.597717 0.255825 0.214802
    25 2.683750 -0.427338 0.044205 -0.005786 0.043239 -0.157091
    26 1.438885 -0.000001 0.000000 0.000000 0.000000 0.732658
    27 1.485305 0.000001 0.000000 0.000000 0.000000 1.168770
    28 1.646738 0.449549 -1.702246 -0.161934 0.581206 -0.284024
    29 0.928312 0.000000 -0.000002 0.000000 0.000000 0.000000
    30 0.928314 0.000000 0.000001 0.000000 0.000000 0.000000
    31 1.533672 0.109715 1.664491 -0.264755 -0.055959 0.783109
    32 0.928313 0.000000 0.000000 0.000000 0.000000 -0.453556
    33 0.928314 0.000000 0.000001 0.000000 0.000000 0.000000
  time 10
    0 0.235347 0.367732 3.528927 0.000000 0.000000 -1.570874
    1 0.000000 0.000000 0.000000 -1.570795 -1.570796 0.000000
    2 -0.000005 0.000007 3.713255 0.002054 3.115505 -0.021473
    3 18.045721 0.000000 0.000000 0.000000 0.000000 -0.121501
    4 17.597597 0.000000 0.000000 -0.002613 0.026036 0.099967
    5 0.000005 -0.000003 -3.713255 -0.002524 -3.124238 -0.024449
    6 18.045725 0.000000 0.000000 0.000000 0.000000 -0.127551
    7 17.597597 0.000000 0.000000 0.002950 -0.017289 0.103055
    8 1.293670 0.684478 -0.000001 -0.000004 -0.000001 0.306070
    9 5.309685 -0.003834 0.000000 0.000000 0.000000 -0.000004
    10 4.826790 -0.004591 0.000000 -0.173330 0.019775 0.111669
    11 5.792767 -0.005304 0.000000 -0.136576 0.028751 0.205451
    12 6.662317 -0.001453 0.000000 0.000000 -0.000001 0.471000
    13 2.046985 -0.000002 0.000000 0.254749 -0.184713 -0.128717
    14 -3.112024 1.517254 4.341911 0.886908 -1.160965 1.825526
    15 4.827230 0.000000 0.000001 0.142727 0.629873 -0.891126
    16 11.139763 0.000000 0.000000 0.000000 0.000000 -0.884049
    17 10.314597 0.000001 0.000000 -4.171774 0.083251 -0.332952
    18 2.975834 -0.386307 -0.044143 -0.000797 -0.043611 0.000035
    19 1.438886 0.000000 0.000000 0.000000 0.000000 0.872212
    20 1.485303 0.000000 0.000000 0.000000 0.000000 0.907076
    21 -2.869898 1.399663 -4.140396 0.538986 1.261272 3.187594
    22 4.972048 0.000000 0.000001 -0.945133 -0.984838 0.180787
    23 11.585355 0.000000 0.000000 0.000000 0.000000 -1.839859
    24 10.127057 0.000000 0.000001 1.597717 0.255825 0.214802
    25 2.683750 -0.427338 0.044205 -0.005786 0.043239 -0.157091
    26 1.438885 -0.000001 0.000000 0.000000 0.000000 0.732658
    27 1.485305 0.000001 0.000000 0.000000 0.000000 1.168770
    28 1.646738 0.449549 -1.702246 -0.161934 0.581206 -0.284024
    29 0.928312 0.000000 -0.000002 0.000000 0.000000 0.000000
    30 0.928314 0.000000 0.000001 0.000000 0.000000 0.000000
    31 1.533672 0.109715 1.664491 -0.264755 -0.055959 0.783109
    32 0.928313 0.000000 0.000000 0.000000 0.000000 -0.453556
    33 0.928314 0.000000 0.000001 0.000000 0.000000 0.000000
  time 11
    0 0.235347 0.367732 3.528927 0.000000 0.000000 -1.570874
    1 0.000000 0.000000 0.000000 -1.570795 -1.570796 0.000000
    2 -0.000005 0.000007 3.713255 0.002054 3.115505 -0.021473
    3 18.045721 0.000000 0.000000 0.000000 0.000000 -0.121501
    4 17.597597 0.000000 0.000000 -0.002613 0.026036 0.099967
    5 0.000005 -0.000003 -3.713255 -0.002524 -3.124238 -0.024449
    6 18.045725 0.000000 0.000000 0.000000 0.000000 -0.127551
    7 17.597597 0.000000 0.000000 0.002950 -0.017289 0.103055
    8 1.293670 0.684478 -0.000001 -0.000004 -0.000001 0.306070
    9 5.309685 -0.003834 0.000000 0.000000 0.000000 -0.000004
    10 4.826790 -0.004591 0.000000 -0.173330 0.019775 0.111669
    11 5.792767 -0.005304 0.000000 -0.136380 0.029614 0.211763
    12 6.662317 -0.001453 0.000000 0.000000 -0.000001 0.471000
    13 2.046985 -0.000002 0.000000 0.254749 -0.184713 -0.135054
    14 -3.112024 1.517254 4.341911 0.875691 -1.156926 1.837798
    15 4.827230 0.000000 0.000001 0.146193 0.620086 -0.890776
    16 11.139763 0.000000 0.000000 0.000000 0.000000 -0.884049
    17 10.314597 0.000001 0.000000 -4.171774 0.083251 -0.332952
    18 2.975834 -0.386307 -0.044143 -0.000797 -0.043611 0.000035
    19 1.438886 0.000000 0.000000 0.000000 0.000000 0.872212
    20 1.485303 0.000000 0.000000 0.000000 0.000000 0.907076
    21 -2.869898 1.399663 -4.140396 0.528919 1.255788 3.177048
    22 4.972048 0.000000 0.000001 -0.932756 -0.980575 0.168799
    23 11.585355 0.000000 0.000000 0.000000 0.000000 -1.839859
    24 10.127057 0.000000 0.000001 1.597717 0.255825 0.214802
    25 2.683750 -0.427338 0.044205 -0.005786 0.043239 -0.157091
    26 1.438885 -0.000001 0.000000 0.000000 0.000000 0.732658
    27 1.485305 0.000001 0.000000 0.000000 0.000000 1.168770
    28 1.646738 0.449549 -1.702246 -0.161934 0.581206 -0.284024
    29 0.928312 0.000000 -0.000002 0.000000 0.000000 0.000000
    30 0.928314 0.000000 0.000001 0.000000 0.000000 0.000000
    31 1.533672 0.109715 1.664491 -0.264755 -0.055959 0.783109
    32 0.928313 0.000000 0.000000 0.000000 0.000000 -0.453556
    33 0.928314 0.000000 0.000001 0.000000 0.000000 0.000000
  time 12
    0 0.235347 0.367732 3.528927 0.000000 0.000000 -1.570874
    1 0.000000 0.000000 0.000000 -1.570795 -1.570796 0.000000
    2 -0.000005 0.000007 3.713255 0.002054 3.115505 -0.021473
    3 18.045721 0.000000 0.000000 0.000000 0.000000 -0.121501
    4 17.597597 0.000000 0.000000 -0.002613 0.026036 0.099967
    5 0.000005 -0.000003 -3.713255 -0.002524 -3.124238 -0.024449
    6 18.045725 0.000000 0.000000 0.000000 0.000000 -0.127551
    7 17.597597 0.000000 0.000000 0.002950 -0.017289 0.103055
    8 1.293670 0.684478 -0.000001 -0.000004 -0.000001 0.306070
    9 5.309685 -0.003834 0.000000 0.000000 0.000000 -0.000004
    10 4.826790 -0.004591 0.000000 -0.173330 0.019775 0.111669
    11 5.792767 -0.005304 0.000000 -0.136233 0.030345 0.217057
    12 6.662317 -0.001453 0.000000 0.000000 -0.000001 0.471000
    13 2.046985 -0.000002 0.000000 0.254749 -0.184713 -0.140403
    14 -3.112024 1.517254 4.341911 0.866391 -1.153503 1.847961
    15 4.827230 0.000000 0.000001 0.149071 0.611917 -0.890513
    16 11.139763 0.000000 0.000000 0.000000 0.000000 -0.884049
    17 10.314597 0.000001 0.000000 -4.171774 0.083251 -0.332952
    18 2.975834 -0.386307 -0.044143 -0.000797 -0.043611 0.000035
    19 1.438886 0.000000 0.000000 0.000000 0.000000 0.872212
    20 1.485303 0.000000 0.000000 0.000000 0.000000 0.907076
    21 -2.869898 1.399663 -4.140396 0.520770 1.251181 3.168419
    22 4.972048 0.000000 0.000001 -0.922390 -0.976955 0.158786
    23 11.585355 0.000000 0.000000 0.000000 0.000000 -1.839859
    24 10.127057 0.000000 0.000001 1.597717 0.255825 0.214802
    25 2.683750 -0.427338 0.044205 -0.005786 0.043239 -0.157091
    26 1.438885 -0.000001 0.000000 0.000000 0.000000 0.732658
    27 1.485305 0.000001 0.000000 0.000000 0.000000 1.168770
    28 1.646738 0.449549 -1.702246 -0.161934 0.581206 -0.284024
    29 0.928312 0.000000 -0.000002 0.000000 0.000000 0.000000
    30 0.928314 0.000000 0.000001 0.000000 0.000000 0.000000
    31 1.533672 0.109715 1.664491 -0.264755 -0.055959 0.783109
    32 0.928313 0.000000 0.000000 0.000000 0.000000 -0.453556
    33 0.928314 0.000000 0.000001 0.000000 0.000000 0.000000
  time 13
    0 0.235347 0.367732 3.528927 0.000000 0.000000 -1.570874
    1 0.000000 0.000000 0.000000 -1.570795 -1.570796 0.000000
    2 -0.000005 0.000007 3.713255 0.002054 3.115505 -0.021473
    3 18.045721 0.000000 0.000000 0.000000 0.000000 -0.121501
    4 17.597597 0.000000 0.000000 -0.002613 0.026036 0.099967
    5 0.000005 -0.000003 -3.713255 -0.002524 -3.124238 -0.024449
    6 18.045725 0.000000 0.000000 0.000000 0.000000 -0.127551
    7 17.597597 0.000000 0.000000 0.002950 -0.017289 0.103055
    8 1.293670 0.684478 -0.000001 -0.000004 -0.000001 0.306070
    9 5.309685 -0.003834 0.000000 0.000000 0.000000 -0.000004
    10 4.826790 -0.004591 0.000000 -0.173330 0.019775 0.111669
    11 5.792767 -0.005304 0.000000 -0.136103 0.030908 0.221127
    12 6.662317 -0.001453 0.000000 0.000000 -0.000001 0.471000
    13 2.046985 -0.000002 0.000000 0.254749 -0.184713 -0.144538
    14 -3.112024 1.517254 4.341911 0.859392 -1.150810 1.855631
    15 4.827230 0.000000 0.000001 0.151303 0.605619 -0.890338
    16 11.139763 0.000000 0.000000 0.000000 0.000000 -0.884049
    17 10.314597 0.000001 0.000000 -4.171774 0.083251 -0.332952
    18 2.975834 -0.386307 -0.044143 -0.000797 -0.043611 0.000035
    19 1.438886 0.000000 0.000000 0.000000 0.000000 0.872212
    20 1.485303 0.000000 0.000000 0.000000 0.000000 0.907076
    21 -2.869898 1.399663 -4.140396 0.514634 1.247592 3.161996
    22 4.972048 0.000000 0.000001 -0.914578 -0.974140 0.151211
    23 11.585355 0.000000 0.000000 0.000000 0.000000 -1.839859
    24 10.127057 0.000000 0.000001 1.597717 0.255825 0.214802
    25 2.683750 -0.427338 0.044205 -0.005786 0.043239 -0.157091
    26 1.438885 -0.000001 0.000000 0.000000 0.000000 0.732658
    27 1.485305 0.000001 0.000000 0.000000 0.000000 1.168770
    28 1.646738 0.449549 -1.702246 -0.161934 0.581206 -0.284024
    29 0.928312 0.000000 -0.000002 0.000000 0.000000 0.000000
    30 0.928314 0.000000 0.000001 0.000000 0.000000 0.000000
    31 1.533672 0.109715 1.664491 -0.264755 -0.055959 0.783109
    32 0.928313 0.000000 0.000000 0.000000 0.000000 -0.453556
    33 0.928314 0.000000 0.000001 0.000000 0.000000 0.000000
  time 14
    0 0.235347 0.367732 3.528927 0.000000 0.000000 -1.570874
    1 0.000000 0.000000 0.000000 -1.570795 -1.570796 0.000000
    2 -0.000005 0.000007 3.713255 0.002054 3.115505 -0.021473
    3 18.045721 0.000000 0.000000 0.000000 0.000000 -0.121501
    4 17.597597 0.000000 0.000000 -0.002613 0.026036 0.099967
    5 0.000005 -0.000003 -3.713255 -0.002524 -3.124238 -0.024449
    6 18.045725 0.000000 0.000000 0.000000 0.000000 -0.127551
    7 17.597597 0.000000 0.000000 0.002950 -0.017289 0.103055
    8 1.293670 0.684478 -0.000001 -0.000004 -0.000001 0.306070
    9 5.309685 -0.003834 0.000000 0.000000 0.000000 -0.000004
    10 4.826790 -0.004591 0.000000 -0.173330 0.019775 0.111669
    11 5.792767 -0.005304 0.000000 -0.136021 0.031268 0.223743
    12 6.662317 -0.001453 0.000000 0.000000 -0.000001 0.471000
    13 2.046985 -0.000002 0.000000 0.254749 -0.184713 -0.147145
    14 -3.112024 1.517254 4.341911 0.854886 -1.149079 1.860520
    15 4.827230 0.000000 0.000001 0.152713 0.601534 -0.890163
    16 11.139763 0.000000 0.000000 0.000000 0.000000 -0.884049
    17 10.314597 0.000001 0.000000 -4.171774 0.083251 -0.332952
    18 2.975834 -0.386307 -0.044143 -0.000797 -0.043611 0.000035
    19 1.438886 0.000000 0.000000 0.000000 0.000000 0.872212
    20 1.485303 0.000000 0.000000 0.000000 0.000000 0.907076
    21 -2.869898 1.399663 -4.140396 0.510799 1.245302 3.157873
    22 4.972048 0.000000 0.000001 -0.909627 -0.972290 0.146336
    23 11.585355 0.000000 0.000000 0.000000 0.000000 -1.839859
    24 10.127057 0.000000 0.000001 1.597717 0.255825 0.214802
    25 2.683750 -0.427338 0.044205 -0.005786 0.043239 -0.157091
    26 1.438885 -0.000001 0.000000 0.000000 0.000000 0.732658
    27 1.485305 0.000001 0.000000 0.000000 0.000000 1.168770
    28 1.646738 0.449549 -1.702246 -0.161934 0.581206 -0.284024
    29 0.928312 0.000000 -0.000002 0.000000 0.000000 0.000000
    30 0.928314 0.000000 0.000001 0.000000 0.000000 0.000000
    31 1.533672 0.109715 1.664491 -0.264755 -0.055959 0.783109
    32 0.928313 0.000000 0.000000 0.000000 0.000000 -0.453556
    33 0.928314 0.000000 0.000001 0.000000 0.000000 0.000000
  time 15
    0 0.235347 0.367732 3.528927 0.000000 0.000000 -1.570874
    1 0.000000 0.000000 0.000000 -1.570795 -1.570796 0.000000
    2 -0.000005 0.000007 3.713255 0.002054 3.115505 -0.021473
    3 18.045721 0.000000 0.000000 0.000000 0.000000 -0.121501
    4 17.597597 0.000000 0.000000 -0.002613 0.026036 0.099967
    5 0.000005 -0.000003 -3.713255 -0.002524 -3.124238 -0.024449
    6 18.045725 0.000000 0.000000 0.000000 0.000000 -0.127551
    7 17.597597 0.000000 0.000000 0.002950 -0.017289 0.103055
    8 1.293670 0.684478 -0.000001 -0.000004 -0.000001 0.306070
    9 5.309685 -0.003834 0.000000 0.000000 0.000000 -0.000004
    10 4.826790 -0.004591 0.000000 -0.173330 0.019775 0.111669
    11 5.792767 -0.005304 0.000000 -0.135989 0.031388 0.224677
    12 6.662317 -0.001453 0.000000 0.000000 -0.000001 0.471000
    13 2.046985 -0.000002 0.000000 0.254749 -0.184713 -0.148089
    14 -3.112024 1.517254 4.341911 0.853352 -1.148464 1.862246
    15 4.827230 0.000000 0.000001 0.153241 0.600088 -0.890163
    16 11.139763 0.000000 0.000000 0.000000 0.000000 -0.884049
    17 10.314597 0.000001 0.000000 -4.171774 0.083251 -0.332952
    18 2.975834 -0.386307 -0.044143 -0.000797 -0.043611 0.000035
    19 1.438886 0.000000 0.000000 0.000000 0.000000 0.872212
    20 1.485303 0.000000 0.000000 0.000000 0.000000 0.907076
    21 -2.869898 1.399663 -4.140396 0.509457 1.244483 3.156531
    22 4.972048 0.000000 0.000001 -0.907848 -0.971646 0.144623
    23 11.585355 0.000000 0.000000 0.000000 0.000000 -1.839859
    24 10.127057 0.000000 0.000001 1.597717 0.255825 0.214802
    25 2.683750 -0.427338 0.044205 -0.005786 0.043239 -0.157091
    26 1.438885 -0.000001 0.000000 0.000000 0.000000 0.732658
    27 1.485305 0.000001 0.000000 0.000000 0.000000 1.168770
    28 1.646738 0.449549 -1.702246 -0.161934 0.581206 -0.284024
    29 0.928312 0.000000 -0.000002 0.000000 0.000000 0.000000
    30 0.928314 0.000000 0.000001 0.000000 0.000000 0.000000
    31 1.533672 0.109715 1.664491 -0.264755 -0.055959 0.783109
    32 0.928313 0.000000 0.000000 0.000000 0.000000 -0.453556
    33 0.928314 0.000000 0.000001 0.000000 0.000000 0.000000
  time 16
    0 0.235347 0.367732 3.528927 0.000000 0.000000 -1.570874
    1 0.000000 0.000000 0.000000 -1.570795 -1.570796 0.000000
    2 -0.000005 0.000007 3.713255 0.002054 3.115505 -0.021473
    3 18.045721 0.000000 0.000000 0.000000 0.000000 -0.121501
    4 17.597597 0.000000 0.000000 -0.002613 0.026036 0.099967
    5 0.000005 -0.000003 -3.713255 -0.002524 -3.124238 -0.024449
    6 18.045725 0.000000 0.000000 0.000000 0.000000 -0.127551
    7 17.597597 0.000000 0.000000 0.002950 -0.017289 0.103055
    8 1.293670 0.684478 -0.000001 -0.000004 -0.000001 0.306070
    9 5.309685 -0.003834 0.000000 0.000000 0.000000 -0.000004
    10 4.826790 -0.004591 0.000000 -0.173330 0.019775 0.111669
    11 5.792767 -0.005304 0.000000 -0.136021 0.031268 0.223743
    12 6.662317 -0.001453 0.000000 0.000000 -0.000001 0.471000
    13 2.046985 -0.000002 0.000000 0.254749 -0.184713 -0.147145
    14 -3.112024 1.517254 4.341911 0.854886 -1.149079 1.860520
    15 4.827230 0.000000 0.000001 0.152713 0.601534 -0.890163
    16 11.139763 0.000000 0.000000 0.000000 0.000000 -0.884049
    17 10.314597 0.000001 0.000000 -4.171774 0.083251 -0.332952
    18 2.975834 -0.386307 -0.044143 -0.000797 -0.043611 0.000035
    19 1.438886 0.000000 0.000000 0.000000 0.000000 0.872212
    20 1.485303 0.000000 0.000000 0.000000 0.000000 0.907076
    21 -2.869898 1.399663 -4.140396 0.510799 1.245302 3.157873
    22 4.972048 0.000000 0.000001 -0.909627 -0.972290 0.146336
    23 11.585355 0.000000 0.000000 0.000000 0.000000 -1.839859
    24 10.127057 0.000000 0.000001 1.597717 0.255825 0.214802
    25 2.683750 -0.427338 0.044205 -0.005786 0.043239 -0.157091
    26 1.438885 -0.000001 0.000000 0.000000 0.000000 0.732658
    27 1.485305 0.000001 0.000000 0.000000 0.000000 1.168770
    28 1.646738 0.449549 -1.702246 -0.161934 0.581206 -0.284024
    29 0.928312 0.000000 -0.000002 0.000000 0.000000 0.000000
    30 0.928314 0.000000 0.000001 0.000000 0.000000 0.000000
    31 1.533672 0.109715 1.664491 -0.264755 -0.055959 0.783109
    32 0.928313 0.000000 0.000000 0.000000 0.000000 -0.453556
    33 0.928314 0.000000 0.000001 0.000000 0.000000 0.000000
  time 17
    0 0.235347 0.367732 3.528927 0.000000 0.000000 -1.570874
    1 0.000000 0.000000 0.000000 -1.570795 -1.570796 0.000000
    2 -0.000005 0.000007 3.713255 0.002054 3.115505 -0.021473
    3 18.045721 0.000000 0.000000 0.000000 0.000000 -0.121501
    4 17.597597 0.000000 0.000000 -0.002613 0.026036 0.099967
    5 0.000005 -0.000003 -3.713255 -0.002524 -3.124238 -0.024449
    6 18.045725 0.000000 0.000000 0.000000 0.000000 -0.127551
    7 17.597597 0.000000 0.000000 0.002950 -0.017289 0.103055
    8 1.293670 0.684478 -0.000001 -0.000004 -0.000001 0.306070
    9 5.309685 -0.003834 0.000000 0.000000 0.000000 -0.000004
    10 4.826790 -0.004591 0.000000 -0.173330 0.019775 0.111669
    11 5.792767 -0.005304 0.000000 -0.136103 0.030908 0.221127
    12 6.662317 -0.001453 0.000000 0.000000 -0.000001 0.471000
    13 2.046985 -0.000002 0.000000 0.254749 -0.184713 -0.144538
    14 -3.112024 1.517254 4.341911 0.859392 -1.150810 1.855631
    15 4.827230 0.000000 0.000001 0.151303 0.605619 -0.890338
    16 11.139763 0.000000 0.000000 0.000000 0.000000 -0.884049
    17 10.314597 0.000001 0.000000 -4.171774 0.083251 -0.332952
    18 2.975834 -0.386307 -0.044143 -0.000797 -0.043611 0.000035
    19 1.438886 0.000000 0.000000 0.000000 0.000000 0.872212
    20 1.485303 0.000000 0.000000 0.000000 0.000000 0.907076
    21 -2.869898 1.399663 -4.140396 0.514634 1.247592 3.161996
    22 4.972048 0.000000 0.000001 -0.914578 -0.974140 0.151211
    23 11.585355 0.000000 0.000000 0.000000 0.000000 -1.839859
    24 10.127057 0.000000 0.000001 1.597717 0.255825 0.214802
    25 2.683750 -0.427338 0.044205 -0.005786 0.043239 -0.157091
    26 1.438885 -0.000001 0.000000 0.000000 0.000000 0.732658
    27 1.485305 0.000001 0.000000 0.000000 0.000000 1.168770
    28 1.646738 0.449549 -1.702246 -0.161934 0.581206 -0.284024
    29 0.928312 0.000000 -0.000002 0.000000 0.000000 0.000000
    30 0.928314 0.000000 0.000001 0.000000 0.000000 0.000000
    31 1.533672 0.109715 1.664491 -0.264755 -0.055959 0.783109
    32 0.928313 0.000000 0.000000 0.000000 0.000000 -0.453556
    33 0.928314 0.000000 0.000001 0.000000 0.000000 0.000000
  time 18
    0 0.235347 0.367732 3.528927 0.000000 0.000000 -1.570874
    1 0.000000 0.000000 0.000000 -1.570795 -1.570796 0.000000
    2 -0.000005 0.000007 3.713255 0.002054 3.115505 -0.021473
    3 18.045721 0.000000 0.000000 0.000000 0.000000 -0.121501
    4 17.597597 0.000000 0.000000 -0.002613 0.026036 0.099967
    5 0.000005 -0.000003 -3.713255 -0.002524 -3.124238 -0.024449
    6 18.045725 0.000000 0.000000 0.000000 0.000000 -0.127551
    7 17.597597 0.000000 0.000000 0.002950 -0.017289 0.103055
    8 1.293670 0.684478 -0.000001 -0.000004 -0.000001 0.306070
    9 5.309685 -0.003834 0.000000 0.000000 0.000000 -0.000004
    10 4.826790 -0.004591 0.000000 -0.173330 0.019775 0.111669
    11 5.792767 -0.005304 0.000000 -0.136233 0.030345 0.217057
    12 6.662317 -0.001453 0.000000 0.000000 -0.000001 0.471000
    13 2.046985 -0.000002 0.000000 0.254749 -0.184713 -0.140403
    14 -3.112024 1.517254 4.341911 0.866391 -1.153503 1.847961
    15 4.827230 0.000000 0.000001 0.149071 0.611917 -0.890513
    16 11.139763 0.000000 0.000000 0.000000 0.000000 -0.884049
    17 10.314597 0.000001 0.000000 -4.171774 0.083251 -0.332952
    18 2.975834 -0.386307 -0.044143 -0.000797 -0.043611 0.000035
    19 1.438886 0.000000 0.000000 0.000000 0.000000 0.872212
    20 1.485303 0.000000 0.000000 0.000000 0.000000 0.907076
    21 -2.869898 1.399663 -4.140396 0.520770 1.251181 3.168419
    22 4.972048 0.000000 0.000001 -0.922390 -0.976955 0.158786
    23 11.585355 0.000000 0.000000 0.000000 0.000000 -1.839859
    24 10.127057 0.000000 0.000001 1.597717 0.255825 0.214802
    25 2.683750 -0.427338 0.044205 -0.005786 0.043239 -0.157091
    26 1.438885 -0.000001 0.000000 0.000000 0.000000 0.732658
    27 1.485305 0.000001 0.000000 0.000000 0.000000 1.168770
    28 1.646738 0.449549 -1.702246 -0.161934 0.581206 -0.284024
    29 0.928312 0.000000 -0.000002 0.000000 0.000000 0.000000
    30 0.928314 0.000000 0.000001 0.000000 0.000000 0.000000
    31 1.533672 0.109715 1.664491 -0.264755 -0.055959 0.783109
    32 0.928313 0.000000 0.000000 0.000000 0.000000 -0.453556
    33 0.928314 0.000000 0.000001 0.000000 0.000000 0.000000
  time 19
    0 0.235347 0.367732 3.528927 0.000000 0.000000 -1.570874
    1 0.000000 0.000000 0.000000 -1.570795 -1.570796 0.000000
    2 -0.000005 0.000007 3.713255 0.002054 3.115505 -0.021473
    3 18.045721 0.000000 0.000000 0.000000 0.000000 -0.121501
    4 17.597597 0.000000 0.000000 -0.002613 0.026036 0.099967
    5 0.000005 -0.000003 -3.713255 -0.002524 -3.124238 -0.024449
    6 18.045725 0.000000 0.000000 0.000000 0.000000 -0.127551
    7 17.597597 0.000000 0.000000 0.002950 -0.017289 0.103055
    8 1.293670 0.684478 -0.000001 -0.000004 -0.000001 0.306070
    9 5.309685 -0.003834 0.000000 0.000000 0.000000 -0.000004
    10 4.826790 -0.004591 0.000000 -0.173330 0.019775 0.111669
    11 5.792767 -0.005304 0.000000 -0.136380 0.029614 0.211763
    12 6.662317 -0.001453 0.000000 0.000000 -0.000001 0.471000
    13 2.046985 -0.000002 0.000000 0.254749 -0.184713 -0.135054
    14 -3.112024 1.517254 4.341911 0.875691 -1.156926 1.837798
    15 4.827230 0.000000 0.000001 0.146193 0.620086 -0.890776
    16 11.139763 0.000000 0.000000 0.000000 0.000000 -0.884049
    17 10.314597 0.000001 0.000000 -4.171774 0.083251 -0.332952
    18 2.975834 -0.386307 -0.044143 -0.000797 -0.043611 0.000035
    19 1.438886 0.000000 0.000000 0.000000 0.000000 0.872212
    20 1.485303 0.000000 0.000000 0.000000 0.000000 0.907076
    21 -2.869898 1.399663 -4.140396 0.528919 1.255788 3.177048
    22 4.972048 0.000000 0.000001 -0.932756 -0.980575 0.168799
    23 11.585355 0.000000 0.000000 0.000000 0.000000 -1.839859
    24 10.127057 0.000000 0.000001 1.597717 0.255825 0.214802
    25 2.683750 -0.427338 0.044205 -0.005786 0.043239 -0.157091
    26 1.438885 -0.000001 0.000000 0.000000 0.000000 0.732658
    27 1.485305 0.000001 0.000000 0.000000 0.000000 1.168770
    28 1.646738 0.449549 -1.702246 -0.161934 0.581206 -0.284024
    29 0.928312 0.000000 -0.000002 0.000000 0.000000 0.000000
    30 0.928314 0.000000 0.000001 0.000000 0.000000 0.000000
    31 1.533672 0.109715 1.664491 -0.264755 -0.055959 0.783109
    32 0.928313 0.000000 0.000000 0.000000 0.000000 -0.453556
    33 0.928314 0.000000 0.000001 0.000000 0.000000 0.000000
  time 20
    0 0.235347 0.367732 3.528927 0.000000 0.000000 -1.570874
    1 0.000000 0.000000 0.000000 -1.570795 -1.570796 0.000000
    2 -0.000005 0.000007 3.713255 0.002054 3.115505 -0.021473
    3 18.045721 0.000000 0.000000 0.000000 0.000000 -0.121501
    4 17.597597 0.000000 0.000000 -0.002613 0.026036 0.099967
    5 0.000005 -0.000003 -3.713255 -0.002524 -3.124238 -0.024449
    6 18.045725 0.000000 0.000000 0.000000 0.000000 -0.127551
    7 17.597597 0.000000 0.000000 0.002950 -0.017289 0.103055
    8 1.293670 0.684478 -0.000001 -0.000004 -0.000001 0.306070
    9 5.309685 -0.003834 0.000000 0.000000 0.000000 -0.000004
    10 4.826790 -0.004591 0.000000 -0.173330 0.019775 0.111669
    11 5.792767 -0.005304 0.000000 -0.136576 0.028751 0.205451
    12 6.662317 -0.001453 0.000000 0.000000 -0.000001 0.471000
    13 2.046985 -0.000002 0.000000 0.254749 -0.184713 -0.128717
    14 -3.112024 1.517254 4.341911 0.886908 -1.160965 1.825526
    15 4.827230 0.000000 0.000001 0.142727 0.629873 -0.891126
    16 11.139763 0.000000 0.000000 0.000000 0.000000 -0.884049
    17 10.314597 0.000001 0.000000 -4.171774 0.083251 -0.332952
    18 2.975834 -0.386307 -0.044143 -0.000797 -0.043611 0.000035
    19 1.438886 0.000000 0.000000 0.000000 0.000000 0.872212
    20 1.485303 0.000000 0.000000 0.000000 0.000000 0.907076
    21 -2.869898 1.399663 -4.140396 0.538986 1.261272 3.187594
    22 4.972048 0.000000 0.000001 -0.945133 -0.984838 0.180787
    23 11.585355 0.000000 0.000000 0.000000 0.000000 -1.839859
    24 10.127057 0.000000 0.000001 1.597717 0.255825 0.214802
    25 2.683750 -0.427338 0.044205 -0.005786 0.043239 -0.157091
    26 1.438885 -0.000001 0.000000 0.000000 0.000000 0.732658
    27 1.485305 0.000001 0.000000 0.000000 0.000000 1.168770
    28 1.646738 0.449549 -1.702246 -0.161934 0.581206 -0.284024
    29 0.928312 0.000000 -0.000002 0.000000 0.000000 0.000000
    30 0.928314 0.000000 0.000001 0.000000 0.000000 0.000000
    31 1.533672 0.109715 1.664491 -0.264755 -0.055959 0.783109
    32 0.928313 0.000000 0.000000 0.000000 0.000000 -0.453556
    33 0.928314 0.000000 0.000001 0.000000 0.000000 0.000000
  time 21
    0 0.235347 0.367732 3.528927 0.000000 0.000000 -1.570874
    1 0.000000 0.000000 0.000000 -1.570795 -1.570796 0.000000
    2 -0.000005 0.000007 3.713255 0.002054 3.115505 -0.021473
    3 18.045721 0.000000 0.000000 0.000000 0.000000 -0.121501
    4 17.597597 0.000000 0.000000 -0.002613 0.026036 0.099967
    5 0.000005 -0.000003 -3.713255 -0.002524 -3.124238 -0.024449
    6 18.045725 0.000000 0.000000 0.000000 0.000000 -0.127551
    7 17.597597 0.000000 0.000000 0.002950 -0.017289 0.103055
    8 1.293670 0.684478 -0.000001 -0.000004 -0.000001 0.306070
    9 5.309685 -0.003834 0.000000 0.000000 0.000000 -0.000004
    10 4.826790 -0.004591 0.000000 -0.173330 0.019775 0.111669
    11 5.792767 -0.005304 0.000000 -0.136772 0.027780 0.198371
    12 6.662317 -0.001453 0.000000 0.000000 -0.000001 0.471000
    13 2.046985 -0.000002 0.000000 0.254749 -0.184713 -0.121570
    14 -3.112024 1.517254 4.341911 0.899755 -1.165466 1.811528
    15 4.827230 0.000000 0.000001 0.138792 0.640851 -0.891738
    16 11.139763 0.000000 0.000000 0.000000 0.000000 -0.884049
    17 10.314597 0.000001 0.000000 -4.171774 0.083251 -0.332952
    18 2.975834 -0.386307 -0.044143 -0.000797 -0.043611 0.000035
    19 1.438886 0.000000 0.000000 0.000000 0.000000 0.872212
    20 1.485303 0.000000 0.000000 0.000000 0.000000 0.907076
    21 -2.869898 1.399663 -4.140396 0.550682 1.267377 3.199770
    22 4.972048 0.000000 0.000001 -0.959289 -0.989423 0.194489
    23 11.585355 0.000000 0.000000 0.000000 0.000000 -1.839859
    24 10.127057 0.000000 0.000001 1.597717 0.255825 0.214802
    25 2.683750 -0.427338 0.044205 -0.005786 0.043239 -0.157091
    26 1.438885 -0.000001 0.000000 0.000000 0.000000 0.732658
    27 1.485305 0.000001 0.000000 0.000000 0.000000 1.168770
    28 1.646738 0.449549 -1.702246 -0.161934 0.581206 -0.284024
    29 0.928312 0.000000 -0.000002 0.000000 0.000000 0.000000
    30 0.928314 0.000000 0.000001 0.000000 0.000000 0.000000
    31 1.533672 0.109715 1.664491 -0.264755 -0.055959 0.783109
    32 0.928313 0.000000 0.000000 0.000000 0.000000 -0.453556
    33 0.928314 0.000000 0.000001 0.000000 0.000000 0.000000
  time 22
    0 0.235347 0.367732 3.528927 0.000000 0.000000 -1.570874
    1 0.000000 0.000000 0.000000 -1.570795 -1.570796 0.000000
    2 -0.000005 0.000007 3.713255 0.002054 3.115505 -0.021473
    3 18.045721 0.000000 0.000000 0.000000 0.000000 -0.121501
    4 17.597597 0.000000 0.000000 -0.002613 0.026036 0.099967
    5 0.000005 -0.000003 -3.713255 -0.002524 -3.124238 -0.024449
    6 18.045725 0.000000 0.000000 0.000000 0.000000 -0.127551
    7 17.597597 0.000000 0.000000 0.002950 -0.017289 0.103055
    8 1.293670 0.684478 -0.000001 -0.000004 -0.000001 0.306070
    9 5.309685 -0.003834 0.000000 0.000000 0.000000 -0.000004
    10 4.826790 -0.004591 0.000000 -0.173330 0.019775 0.111669
    11 5.792767 -0.005304 0.000000 -0.136984 0.026738 0.190772
    12 6.662317 -0.001453 0.000000 0.000000 -0.000001 0.471000
    13 2.046985 -0.000002 0.000000 0.254749 -0.184713 -0.113884
    14 -3.112024 1.517254 4.341911 0.913944 -1.170197 1.796092
    15 4.827230 0.000000 0.000001 0.134563 0.652680 -0.892438
    16 11.139763 0.000000 0.000000 0.000000 0.000000 -0.884049
    17 10.314597 0.000001 0.000000 -4.171774 0.083251 -0.332952
    18 2.975834 -0.386307 -0.044143 -0.000797 -0.043611 0.000035
    19 1.438886 0.000000 0.000000 0.000000 0.000000 0.872212
    20 1.485303 0.000000 0.000000 0.000000 0.000000 0.907076
    21 -2.869898 1.399663 -4.140396 0.563721 1.273906 3.213575
    22 4.972048 0.000000 0.000001 -0.974837 -0.994330 0.209376
    23 11.585355 0.000000 0.000000 0.000000 0.000000 -1.839859
    24 10.127057 0.000000 0.000001 1.597717 0.255825 0.214802
    25 2.683750 -0.427338 0.044205 -0.005786 0.043239 -0.157091
    26 1.438885 -0.000001 0.000000 0.000000 0.000000 0.732658
    27 1.485305 0.000001 0.000000 0.000000 0.000000 1.168770
    28 1.646738 0.449549 -1.702246 -0.161934 0.581206 -0.284024
    29 0.928312 0.000000 -0.000002 0.000000 0.000000 0.000000
    30 0.928314 0.000000 0.000001 0.000000 0.000000 0.000000
    31 1.533672 0.109715 1.664491 -0.264755 -0.055959 0.783109
    32 0.928313 0.000000 0.000000 0.000000 0.000000 -0.453556
    33 0.928314 0.000000 0.000001 0.000000 0.000000 0.000000
  time 23
    0 0.235347 0.367732 3.528927 0.000000 0.000000 -1.570874
    1 0.000000 0.000000 0.000000 -1.570795 -1.570796 0.000000
    2 -0.000005 0.000007 3.713255 0.002054 3.115505 -0.021473
    3 18.045721 0.000000 0.000000 0.000000 0.000000 -0.121501
    4 17.597597 0.000000 0.000000 -0.002613 0.026036 0.099967
    5 0.000005 -0.000003 -3.713255 -0.002524 -3.124238 -0.024449
    6 18.045725 0.000000 0.000000 0.000000 0.000000 -0.127551
    7 17.597597 0.000000 0.000000 0.002950 -0.017289 0.103055
    8 1.293670 0.684478 -0.000001 -0.000004 -0.000001 0.306070
    9 5.309685 -0.003834 0.000000 0.000000 0.000000 -0.000004
    10 4.826790 -0.004591 0.000000 -0.173330 0.019775 0.111669
    11 5.792767 -0.005304 0.000000 -0.137179 0.025635 0.182861
    12 6.662317 -0.001453 0.000000 0.000000 -0.000001 0.471000
    13 2.046985 -0.000002 0.000000 0.254749 -0.184713 -0.105883
    14 -3.112024 1.517254 4.341911 0.929092 -1.175005 1.779697
    15 4.827230 0.000000 0.000001 0.130099 0.664934 -0.893313
    16 11.139763 0.000000 0.000000 0.000000 0.000000 -0.884049
    17 10.314597 0.000001 0.000000 -4.171774 0.083251 -0.332952
    18 2.975834 -0.386307 -0.044143 -0.000797 -0.043611 0.000035
    19 1.438886 0.000000 0.000000 0.000000 0.000000 0.872212
    20 1.485303 0.000000 0.000000 0.000000 0.000000 0.907076
    21 -2.869898 1.399663 -4.140396 0.578006 1.280632 3.228436
    22 4.972048 0.000000 0.000001 -0.991236 -0.999237 0.225120
    23 11.585355 0.000000 0.000000 0.000000 0.000000 -1.839859
    24 10.127057 0.000000 0.000001 1.597717 0.255825 0.214802
    25 2.683750 -0.427338 0.044205 -0.005786 0.043239 -0.157091
    26 1.438885 -0.000001 0.000000 0.000000 0.000000 0.732658
    27 1.485305 0.000001 0.000000 0.000000 0.000000 1.168770
    28 1.646738 0.449549 -1.702246 -0.161934 0.581206 -0.284024
    29 0.928312 0.000000 -0.000002 0.000000 0.000000 0.000000
    30 0.928314 0.000000 0.000001 0.000000 0.000000 0.000000
    31 1.533672 0.109715 1.664491 -0.264755 -0.055959 0.783109
    32 0.928313 0.000000 0.000000 0.000000 0.000000 -0.453556
    33 0.928314 0.000000 0.000001 0.000000 0.000000 0.000000
  time 24
    0 0.235347 0.367732 3.528927 0.000000 0.000000 -1.570874
    1 0.000000 0.000000 0.000000 -1.570795 -1.570796 0.000000
    2 -0.000005 0.000007 3.713255 0.002054 3.115505 -0.021473
    3 18.045721 0.000000 0.000000 0.000000 0.000000 -0.121501
    4 17.597597 0.000000 0.000000 -0.002613 0.026036 0.099967
    5 0.000005 -0.000003 -3.713255 -0.002524 -3.124238 -0.024449
    6 18.045725 0.000000 0.000000 0.000000 0.000000 -0.127551
    7 17.597597 0.000000 0.000000 0.002950 -0.017289 0.103055
    8 1.293670 0.684478 -0.000001 -0.000004 -0.000001 0.306070
    9 5.309685 -0.003834 0.000000 0.000000 0.000000 -0.000004
    10 4.826790 -0.004591 0.000000 -0.173330 0.019775 0.111669
    11 5.792767 -0.005304 0.000000 -0.137391 0.024532 0.174867
    12 6.662317 -0.001453 0.000000 0.000000 -0.000001 0.471000
    13 2.046985 -0.000002 0.000000 0.254749 -0.184713 -0.097838
    14 -3.112024 1.517254 4.341911 0.944720 -1.179813 1.762727
    15 4.827230 0.000000 0.000001 0.125576 0.677359 -0.894276
    16 11.139763 0.000000 0.000000 0.000000 0.000000 -0.884049
    17 10.314597 0.000001 0.000000 -4.171774 0.083251 -0.332952
    18 2.975834 -0.386307 -0.044143 -0.000797 -0.043611 0.000035
    19 1.438886 0.000000 0.000000 0.000000 0.000000 0.872212
    20 1.485303 0.000000 0.000000 0.000000 0.000000 0.907076
    21 -2.869898 1.399663 -4.140396 0.593154 1.287331 3.244255
    22 4.972048 0.000000 0.000001 -1.008177 -1.004064 0.241258
    23 11.585355 0.000000 0.000000 0.000000 0.000000 -1.839859
    24 10.127057 0.000000 0.000001 1.597717 0.255825 0.214802
    25 2.683750 -0.427338 0.044205 -0.005786 0.043239 -0.157091
    26 1.438885 -0.000001 0.000000 0.000000 0.000000 0.732658
    27 1.485305 0.000001 0.000000 0.000000 0.000000 1.168770
    28 1.646738 0.449549 -1.702246 -0.161934 0.581206 -0.284024
    29 0.928312 0.000000 -0.000002 0.000000 0.000000 0.000000
    30 0.928314 0.000000 0.000001 0.000000 0.000000 0.000000
    31 1.533672 0.109715 1.664491 -0.264755 -0.055959 0.783109
    32 0.928313 0.000000 0.000000 0.000000 0.000000 -0.453556
    33 0.928314 0.000000 0.000001 0.000000 0.000000 0.000000
  time 25
    0 0.235347 0.367732 3.528927 0.000000 0.000000 -1.570874
    1 0.000000 0.000000 0.000000 -1.570795 -1.570796 0.000000
    2 -0.000005 0.000007 3.713255 0.002054 3.115505 -0.021473
    3 18.045721 0.000000 0.000000 0.000000 0.000000 -0.121501
    4 17.597597 0.000000 0.000000 -0.002613 0.026036 0.099967
    5 0.000005 -0.000003 -3.713255 -0.002524 -3.124238 -0.024449
    6 18.045725 0.000000 0.000000 0.000000 0.000000 -0.127551
    7 17.597597 0.000000 0.000000 0.002950 -0.017289 0.103055
    8 1.293670 0.684478 -0.000001 -0.000004 -0.000001 0.306070
    9 5.309685 -0.003834 0.000000 0.000000 0.000000 -0.000004
    10 4.826790 -0.004591 0.000000 -0.173330 0.019775 0.111669
    11 5.792767 -0.005304 0.000000 -0.137571 0.023454 0.167019
    12 6.662317 -0.001453 0.000000 0.000000 -0.000001 0.471000
    13 2.046985 -0.000002 0.000000 0.254749 -0.184713 -0.089927
    14 -3.112024 1.517254 4.341911 0.960539 -1.184391 1.745757
    15 4.827230 0.000000 0.000001 0.121054 0.689529 -0.895414
    16 11.139763 0.000000 0.000000 0.000000 0.000000 -0.884049
    17 10.314597 0.000001 0.000000 -4.171774 0.083251 -0.332952
    18 2.975834 -0.386307 -0.044143 -0.000797 -0.043611 0.000035
    19 1.438886 0.000000 0.000000 0.000000 0.000000 0.872212
    20 1.485303 0.000000 0.000000 0.000000 0.000000 0.907076
    21 -2.869898 1.399663 -4.140396 0.608686 1.293860 3.260457
    22 4.972048 0.000000 0.000001 -1.024963 -1.008649 0.257331
    23 11.585355 0.000000 0.000000 0.000000 0.000000 -1.839859
    24 10.127057 0.000000 0.000001 1.597717 0.255825 0.214802
    25 2.683750 -0.427338 0.044205 -0.005786 0.043239 -0.157091
    26 1.438885 -0.000001 0.000000 0.000000 0.000000 0.732658
    27 1.485305 0.000001 0.000000 0.000000 0.000000 1.168770
    28 1.646738 0.449549 -1.702246 -0.161934 0.581206 -0.284024
    29 0.928312 0.000000 -0.000002 0.000000 0.000000 0.000000
    30 0.928314 0.000000 0.000001 0.000000 0.000000 0.000000
    31 1.533672 0.109715 1.664491 -0.264755 -0.055959 0.783109
    32 0.928313 0.000000 0.000000 0.000000 0.000000 -0.453556
    33 0.928314 0.000000 0.000001 0.000000 0.000000 0.000000
  time 26
    0 0.235347 0.367732 3.528927 0.000000 0.000000 -1.570874
    1 0.000000 0.000000 0.000000 -1.570795 -1.570796 0.000000
    2 -0.000005 0.000007 3.713255 0.002054 3.115505 -0.021473
    3 18.045721 0.000000 0.000000 0.000000 0.000000 -0.121501
    4 17.597597 0.000000 0.000000 -0.002613 0.026036 0.099967
    5 0.000005 -0.000003 -3.713255 -0.002524 -3.124238 -0.024449
    6 18.045725 0.000000 0.000000 0.000000 0.000000 -0.127551
    7 17.597597 0.000000 0.000000 0.002950 -0.017289 0.103055
    8 1.293670 0.684478 -0.000001 -0.000004 -0.000001 0.306070
    9 5.309685 -0.003834 0.000000 0.000000 0.000000 -0.000004
    10 4.826790 -0.004591 0.000000 -0.173330 0.019775 0.111669
    11 5.792767 -0.005304 0.000000 -0.137750 0.022423 0.159565
    12 6.662317 -0.001453 0.000000 0.000000 -0.000001 0.471000
    13 2.046985 -0.000002 0.000000 0.254749 -0.184713 -0.082376
    14 -3.112024 1.517254 4.341911 0.975782 -1.188661 1.729170
    15 4.827230 0.000000 0.000001 0.116707 0.701187 -0.896551
    16 11.139763 0.000000 0.000000 0.000000 0.000000 -0.884049
    17 10.314597 0.000001 0.000000 -4.171774 0.083251 -0.332952
    18 2.975834 -0.386307 -0.044143 -0.000797 -0.043611 0.000035
    19 1.438886 0.000000 0.000000 0.000000 0.000000 0.872212
    20 1.485303 0.000000 0.000000 0.000000 0.000000 0.907076
    21 -2.869898 1.399663 -4.140396 0.624217 1.299993 3.276468
    22 4.972048 0.000000 0.000001 -1.041285 -1.012912 0.272745
    23 11.585355 0.000000 0.000000 0.000000 0.000000 -1.839859
    24 10.127057 0.000000 0.000001 1.597717 0.255825 0.214802
    25 2.683750 -0.427338 0.044205 -0.005786 0.043239 -0.157091
    26 1.438885 -0.000001 0.000000 0.000000 0.000000 0.732658
    27 1.485305 0.000001 0.000000 0.000000 0.000000 1.168770
    28 1.646738 0.449549 -1.702246 -0.161934 0.581206 -0.284024
    29 0.928312 0.000000 -0.000002 0.000000 0.000000 0.000000
    30 0.928314 0.000000 0.000001 0.000000 0.000000 0.000000
    31 1.533672 0.109715 1.664491 -0.264755 -0.055959 0.783109
    32 0.928313 0.000000 0.000000 0.000000 0.000000 -0.453556
    33 0.928314 0.000000 0.000001 0.000000 0.000000 0.000000
  time 27
    0 0.235347 0.367732 3.528927 0.000000 0.000000 -1.570874
    1 0.000000 0.000000 0.000000 -1.570795 -1.570796 0.000000
    2 -0.000005 0.000007 3.713255 0.002054 3.115505 -0.021473
    3 18.045721 0.000000 0.000000 0.000000 0.000000 -0.121501
    4 17.597597 0.000000 0.000000 -0.002613 0.026036 0.099967
    5 0.000005 -0.000003 -3.713255 -0.002524 -3.124238 -0.024449
    6 18.045725 0.000000 0.000000 0.000000 0.000000 -0.127551
    7 17.597597 0.000000 0.000000 0.002950 -0.017289 0.103055
    8 1.293670 0.684478 -0.000001 -0.000004 -0.000001 0.306070
    9 5.309685 -0.003834 0.000000 0.000000 0.000000 -0.000004
    10 4.826790 -0.004591 0.000000 -0.173330 0.019775 0.111669
    11 5.792767 -0.005304 0.000000 -0.137897 0.021476 0.152713
    12 6.662317 -0.001453 0.000000 0.000000 -0.000001 0.471000
    13 2.046985 -0.000002 0.000000 0.254749 -0.184713 -0.075499
    14 -3.112024 1.517254 4.341911 0.990163 -1.192469 1.713734
    15 4.827230 0.000000 0.000001 0.112654 0.711825 -0.897776
    16 11.139763 0.000000 0.000000 0.000000 0.000000 -0.884049
    17 10.314597 0.000001 0.000000 -4.171774 0.083251 -0.332952
    18 2.975834 -0.386307 -0.044143 -0.000797 -0.043611 0.000035
    19 1.438886 0.000000 0.000000 0.000000 0.000000 0.872212
    20 1.485303 0.000000 0.000000 0.000000 0.000000 0.907076
    21 -2.869898 1.399663 -4.140396 0.639078 1.305590 3.291904
    22 4.972048 0.000000 0.000001 -1.056446 -1.016693 0.287106
    23 11.585355 0.000000 0.000000 0.000000 0.000000 -1.839859
    24 10.127057 0.000000 0.000001 1.597717 0.255825 0.214802
    25 2.683750 -0.427338 0.044205 -0.005786 0.043239 -0.157091
    26 1.438885 -0.000001 0.000000 0.000000 0.000000 0.732658
    27 1.485305 0.000001 0.000000 0.000000 0.000000 1.168770
    28 1.646738 0.449549 -1.702246 -0.161934 0.581206 -0.284024
    29 0.928312 0.000000 -0.000002 0.000000 0.000000 0.000000
    30 0.928314 0.000000 0.000001 0.000000 0.000000 0.000000
    31 1.533672 0.109715 1.664491 -0.264755 -0.055959 0.783109
    32 0.928313 0.000000 0.000000 0.000000 0.000000 -0.453556
    33 0.928314 0.000000 0.000001 0.000000 0.000000 0.000000
  time 28
    0 0.235347 0.367732 3.528927 0.000000 0.000000 -1.570874
    1 0.000000 0.000000 0.000000 -1.570795 -1.570796 0.000000
    2 -0.000005 0.000007 3.713255 0.002054 3.115505 -0.021473
    3 18.045721 0.000000 0.000000 0.000000 0.000000 -0.121501
    4 17.597597 0.000000 0.000000 -0.002613 0.026036 0.099967
    5 0.000005 -0.000003 -3.713255 -0.002524 -3.124238 -0.024449
    6 18.045725 0.000000 0.000000 0.000000 0.000000 -0.127551
    7 17.597597 0.000000 0.000000 0.002950 -0.017289 0.103055
    8 1.293670 0.684478 -0.000001 -0.000004 -0.000001 0.306070
    9 5.309685 -0.003834 0.000000 0.000000 0.000000 -0.000004
    10 4.826790 -0.004591 0.000000 -0.173330 0.019775 0.111669
    11 5.792767 -0.005304 0.000000 -0.138027 0.020637 0.146734
    12 6.662317 -0.001453 0.000000 0.000000 -0.000001 0.471000
    13 2.046985 -0.000002 0.000000 0.254749 -0.184713 -0.069431
    14 -3.112024 1.517254 4.341911 1.003010 -1.195777 1.699928
    15 4.827230 0.000000 0.000001 0.109189 0.721101 -0.898914
    16 11.139763 0.000000 0.000000 0.000000 0.000000 -0.884049
    17 10.314597 0.000001 0.000000 -4.171774 0.083251 -0.332952
    18 2.975834 -0.386307 -0.044143 -0.000797 -0.043611 0.000035
    19 1.438886 0.000000 0.000000 0.000000 0.000000 0.872212
    20 1.485303 0.000000 0.000000 0.000000 0.000000 0.907076
    21 -2.869898 1.399663 -4.140396 0.652596 1.310423 3.305901
    22 4.972048 0.000000 0.000001 -1.069906 -1.019830 0.299819
    23 11.585355 0.000000 0.000000 0.000000 0.000000 -1.839859
    24 10.127057 0.000000 0.000001 1.597717 0.255825 0.214802
    25 2.683750 -0.427338 0.044205 -0.005786 0.043239 -0.157091
    26 1.438885 -0.000001 0.000000 0.000000 0.000000 0.732658
    27 1.485305 0.000001 0.000000 0.000000 0.000000 1.168770
    28 1.646738 0.449549 -1.702246 -0.161934 0.581206 -0.284024
    29 0.928312 0.000000 -0.000002 0.000000 0.000000 0.000000
    30 0.928314 0.000000 0.000001 0.000000 0.000000 0.000000
    31 1.533672 0.109715 1.664491 -0.264755 -0.055959 0.783109
    32 0.928313 0.000000 0.000000 0.000000 0.000000 -0.453556
    33 0.928314 0.000000 0.000001 0.000000 0.000000 0.000000
  time 29
    0 0.235347 0.367732 3.528927 0.000000 0.000000 -1.570874
    1 0.000000 0.000000 0.000000 -1.570795 -1.570796 0.000000
    2 -0.000005 0.000007 3.713255 0.002054 3.115505 -0.021473
    3 18.045721 0.000000 0.000000 0.000000 0.000000 -0.121501
    4 17.597597 0.000000 0.000000 -0.002613 0.026036 0.099967
    5 0.000005 -0.000003 -3.713255 -0.002524 -3.124238 -0.024449
    6 18.045725 0.000000 0.000000 0.000000 0.000000 -0.127551
    7 17.597597 0.000000 0.000000 0.002950 -0.017289 0.103055
    8 1.293670 0.684478 -0.000001 -0.000004 -0.000001 0.306070
    9 5.309685 -0.003834 0.000000 0.000000 0.000000 -0.000004
    10 4.826790 -0.004591 0.000000 -0.173330 0.019775 0.111669
    11 5.792767 -0.005304 0.000000 -0.138125 0.019954 0.141813
    12 6.662317 -0.001453 0.000000 0.000000 -0.000001 0.471000
    13 2.046985 -0.000002 0.000000 0.254749 -0.184713 -0.064487
    14 -3.112024 1.517254 4.341911 1.013748 -1.198392 1.688423
    15 4.827230 0.000000 0.000001 0.106193 0.728760 -0.899877
    16 11.139763 0.000000 0.000000 0.000000 0.000000 -0.884049
    17 10.314597 0.000001 0.000000 -4.171774 0.083251 -0.332952
    18 2.975834 -0.386307 -0.044143 -0.000797 -0.043611 0.000035
    19 1.438886 0.000000 0.000000 0.000000 0.000000 0.872212
    20 1.485303 0.000000 0.000000 0.000000 0.000000 0.907076
    21 -2.869898 1.399663 -4.140396 0.664100 1.314352 3.317789
    22 4.972048 0.000000 0.000001 -1.081122 -1.022404 0.310359
    23 11.585355 0.000000 0.000000 0.000000 0.000000 -1.839859
    24 10.127057 0.000000 0.000001 1.597717 0.255825 0.214802
    25 2.683750 -0.427338 0.044205 -0.005786 0.043239 -0.157091
    26 1.438885 -0.000001 0.000000 0.000000 0.000000 0.732658
    27 1.485305 0.000001 0.000000 0.000000 0.000000 1.168770
    28 1.646738 0.449549 -1.702246 -0.161934 0.581206 -0.284024
    29 0.928312 0.000000 -0.000002 0.000000 0.000000 0.000000
    30 0.928314 0.000000 0.000001 0.000000 0.000000 0.000000
    31 1.533672 0.109715 1.664491 -0.264755 -0.055959 0.783109
    32 0.928313 0.000000 0.000000 0.000000 0.000000 -0.453556
    33 0.928314 0.000000 0.000001 0.000000 0.000000 0.000000
  time 30
    0 0.235347 0.367732 3.528927 0.000000 0.000000 -1.570874
    1 0.000000 0.000000 0.000000 -1.570795 -1.570796 0.000000
    2 -0.000005 0.000007 3.713255 0.002054 3.115505 -0.021473
    3 18.045721 0.000000 0.000000 0.000000 0.000000 -0.121501
    4 17.597597 0.000000 0.000000 -0.002613 0.026036 0.099967
    5 0.000005 -0.000003 -3.713255 -0.002524 -3.124238 -0.024449
    6 18.045725 0.000000 0.000000 0.000000 0.000000 -0.127551
    7 17.597597 0.000000 0.000000 0.002950 -0.017289 0.103055
    8 1.293670 0.684478 -0.000001 -0.000004 -0.000001 0.306070
    9 5.309685 -0.003834 0.000000 0.000000 0.000000 -0.000004
    10 4.826790 -0.004591 0.000000 -0.173330 0.019775 0.111669
    11 5.792767 -0.005304 0.000000 -0.138190 0.019451 0.138200
    12 6.662317 -0.001453 0.000000 0.000000 -0.000001 0.471000
    13 2.046985 -0.000002 0.000000 0.254749 -0.184713 -0.060846
    14 -3.112024 1.517254 4.341911 1.021706 -1.200316 1.679890
    15 4.827230 0.000000 0.000001 0.104020 0.734462 -0.900664
    16 11.139763 0.000000 0.000000 0.000000 0.000000 -0.884049
    17 10.314597 0.000001 0.000000 -4.171774 0.083251 -0.332952
    18 2.975834 -0.386307 -0.044143 -0.000797 -0.043611 0.000035
    19 1.438886 0.000000 0.000000 0.000000 0.000000 0.872212
    20 1.485303 0.000000 0.000000 0.000000 0.000000 0.907076
    21 -2.869898 1.399663 -4.140396 0.672729 1.317206 3.326706
    22 4.972048 0.000000 0.000001 -1.089399 -1.024254 0.318132
    23 11.585355 0.000000 0.000000 0.000000 0.000000 -1.839859
    24 10.127057 0.000000 0.000001 1.597717 0.255825 0.214802
    25 2.683750 -0.427338 0.044205 -0.005786 0.043239 -0.157091
    26 1.438885 -0.000001 0.000000 0.000000 0.000000 0.732658
    27 1.485305 0.000001 0.000000 0.000000 0.000000 1.168770
    28 1.646738 0.449549 -1.702246 -0.161934 0.581206 -0.284024
    29 0.928312 0.000000 -0.000002 0.000000 0.000000 0.000000
    30 0.928314 0.000000 0.000001 0.000000 0.000000 0.000000
    31 1.533672 0.109715 1.664491 -0.264755 -0.055959 0.783109
    32 0.928313 0.000000 0.000000 0.000000 0.000000 -0.453556
    33 0.928314 0.000000 0.000001 0.000000 0.000000 0.000000
end
