version 1
nodes
  0 "Bip01" -1
  1 "Bip01 Pelvis" 0
  2 "Bip01 L Leg" 1
  3 "Bip01 L Leg1" 2
  4 "Bip01 L Foot" 3
  5 "Bip01 R Leg" 1
  6 "Bip01 R Leg1" 5
  7 "Bip01 R Foot" 6
  8 "Bip01 Spine" 1
  9 "Bip01 Spine1" 8
  10 "Bip01 Spine2" 9
  11 "Bip01 Spine3" 10
  12 "Bip01 Neck" 11
  13 "Bip01 Head" 12
  14 "Bip01 L Arm" 12
  15 "Bip01 L Arm1" 14
  16 "Bip01 L Arm2" 15
  17 "Bip01 L Hand" 16
  18 "Bip01 L Finger1" 17
  19 "Bip01 L Finger11" 18
  20 "Bip01 L Finger12" 19
  21 "Bip01 R Arm" 12
  22 "Bip01 R Arm1" 21
  23 "Bip01 R Arm2" 22
  24 "Bip01 R Hand" 23
  25 "Bip01 R Finger1" 24
  26 "Bip01 R Finger11" 25
  27 "Bip01 R Finger12" 26
  28 "Bip01 L Finger0" 17
  29 "Bip01 L Finger01" 28
  30 "Bip01 L Finger02" 29
  31 "Bip01 R Finger0" 24
  32 "Bip01 R Finger01" 31
  33 "Bip01 R Finger02" 32
end
skeleton
  time 0
    0 0.235347 -0.401823 3.771122 0.000000 0.000000 -1.570874
    1 0.000000 0.000000 0.000000 -1.570795 -1.570796 0.000000
    2 -0.000005 0.000007 3.713255 -0.015774 3.120190 -0.742507
    3 18.045721 0.000000 0.000000 0.000000 0.000000 -0.835927
    4 17.597597 0.000000 0.000000 -0.000585 0.026547 0.175825
    5 0.000005 -0.000003 -3.713255 -0.009029 -3.126535 0.376124
    6 18.045725 0.000000 0.000000 0.000000 0.000000 -0.799331
    7 17.597597 0.000000 0.000000 0.016917 0.004585 -0.490889
    8 1.293670 0.684478 -0.000001 -0.000004 -0.000001 0.070575
    9 5.309685 -0.003834 0.000000 0.079711 -0.005321 0.065840
    10 4.826790 -0.004591 0.000000 0.185645 -0.008233 0.043008
    11 5.792767 -0.005304 0.000000 0.069633 -0.001258 0.017402
    12 6.662317 -0.001453 0.000000 0.000000 -0.000001 0.471000
    13 2.046985 -0.000002 0.000000 -0.331652 0.048948 -0.399032
    14 -3.112024 1.517254 4.341911 -0.695573 -1.329177 3.350913
    15 4.827230 0.000000 0.000001 1.215077 0.511923 0.861986
    16 11.139763 0.000000 0.000000 0.000000 0.000000 -1.719821
    17 10.314597 0.000001 0.000000 -1.570000 0.000000 -0.032568
    18 2.975834 -0.386307 -0.044143 -0.028637 -0.032909 0.698234
    19 1.438886 0.000000 0.000000 0.000000 0.000000 1.046630
    20 1.485303 0.000000 0.000000 0.000000 0.000000 1.613603
    21 -2.869898 1.399663 -4.140396 -0.761054 1.297845 1.927629
    22 4.972048 0.000000 0.000001 0.901170 -1.114107 -0.363780
    23 11.585355 0.000000 0.000000 0.000000 0.000000 -1.496511
    24 10.127057 0.000000 0.000001 1.717987 0.000000 -0.069778
    25 2.683750 -0.427338 0.044205 0.001045 0.043611 0.000046
    26 1.438885 -0.000001 0.000000 0.000000 0.000000 1.421722
    27 1.485305 0.000001 0.000000 0.000000 0.000000 1.465319
    28 1.646738 0.449549 -1.702246 0.142629 -0.222505 0.179225
    29 0.928312 0.000000 -0.000002 0.000000 0.000000 0.000000
    30 0.928314 0.000000 0.000001 0.000000 0.000000 0.000000
    31 1.533672 0.109715 1.664491 -0.233255 -0.412980 0.435684
    32 0.928313 0.000000 0.000000 0.000000 0.000000 0.000000
    33 0.928314 0.000000 0.000001 0.000000 0.000000 0.000000
  time 1
    0 0.235347 -8.731073 3.110945 0.000000 0.000000 -1.570874
    1 0.000000 0.000000 0.000000 -1.570795 -1.570796 0.000000
    2 -0.000005 0.000007 3.713255 -0.013761 3.118565 -0.645472
    3 18.045721 0.000000 0.000000 0.000000 0.000000 -0.635410
    4 17.597597 0.000000 0.000000 0.001139 0.026791 0.138354
    5 0.000005 -0.000003 -3.713255 -0.006925 -3.125387 0.237218
    6 18.045725 0.000000 0.000000 0.000000 0.000000 -1.270149
    7 17.597597 0.000000 0.000000 0.015993 0.007169 -0.315515
    8 1.293670 0.684478 -0.000001 -0.000004 -0.000001 0.101161
    9 5.309685 -0.003834 0.000000 0.050194 -0.004650 0.091501
    10 4.826790 -0.004591 0.000000 0.159045 -0.009480 0.058222
    11 5.792767 -0.005304 0.000000 0.037573 -0.000683 0.017444
    12 6.662317 -0.001453 0.000000 0.000000 -0.000001 0.471000
    13 2.046985 -0.000002 0.000000 -0.245960 0.023551 -0.464656
    14 -3.112024 1.517254 4.341911 -0.627120 -1.369143 3.287252
    15 4.827230 0.000000 0.000001 1.148528 0.700762 0.863561
    16 11.139763 0.000000 0.000000 0.000000 0.000000 -1.794526
    17 10.314597 0.000001 0.000000 -1.570000 0.000000 0.035084
    18 2.975834 -0.386307 -0.044143 -0.028637 -0.032909 0.698234
    19 1.438886 0.000000 0.000000 0.000000 0.000000 1.046630
    20 1.485303 0.000000 0.000000 0.000000 0.000000 1.613603
    21 -2.869898 1.399663 -4.140396 -0.671988 1.317348 2.013532
    22 4.972048 0.000000 0.000001 0.906507 -1.075254 -0.495723
    23 11.585355 0.000000 0.000000 0.000000 0.000000 -1.479162
    24 10.127057 0.000000 0.000001 1.717987 0.000000 -0.069778
    25 2.683750 -0.427338 0.044205 0.001045 0.043611 0.000046
    26 1.438885 -0.000001 0.000000 0.000000 0.000000 1.421722
    27 1.485305 0.000001 0.000000 0.000000 0.000000 1.465319
    28 1.646738 0.449549 -1.702246 0.142629 -0.222505 0.179225
    29 0.928312 0.000000 -0.000002 0.000000 0.000000 0.000000
    30 0.928314 0.000000 0.000001 0.000000 0.000000 0.000000
    31 1.533672 0.109715 1.664491 -0.233255 -0.412980 0.435684
    32 0.928313 0.000000 0.000000 0.000000 0.000000 0.000000
    33 0.928314 0.000000 0.000001 0.000000 0.000000 0.000000
  time 2
    0 0.235347 -17.384551 2.360923 0.000000 0.000000 -1.570874
    1 0.000000 0.000000 0.000000 -1.570795 -1.570796 0.000000
    2 -0.000005 0.000007 3.713255 -0.011365 3.117895 -0.553393
    3 18.045721 0.000000 0.000000 0.000000 0.000000 -0.502795
    4 17.597597 0.000000 0.000000 -0.000053 0.026255 0.049502
    5 0.000005 -0.000003 -3.713255 -0.005394 -3.124908 0.147232
    6 18.045725 0.000000 0.000000 0.000000 0.000000 -1.546163
    7 17.597597 0.000000 0.000000 0.015680 0.007820 -0.170875
    8 1.293670 0.684478 -0.000001 -0.000004 -0.000001 0.137890
    9 5.309685 -0.003834 0.000000 0.020396 -0.002421 0.117632
    10 4.826790 -0.004591 0.000000 0.132329 -0.009875 0.073326
    11 5.792767 -0.005304 0.000000 0.005137 -0.000084 0.017444
    12 6.662317 -0.001453 0.000000 0.000000 -0.000001 0.471000
    13 2.046985 -0.000002 0.000000 -0.158114 0.005831 -0.539539
    14 -3.112024 1.517254 4.341911 -0.523865 -1.408878 3.188020
    15 4.827230 0.000000 0.000001 0.999103 0.924407 0.782964
    16 11.139763 0.000000 0.000000 0.000000 0.000000 -1.868180
    17 10.314597 0.000001 0.000000 -1.570000 0.000000 0.099905
    18 2.975834 -0.386307 -0.044143 -0.028637 -0.032909 0.698234
    19 1.438886 0.000000 0.000000 0.000000 0.000000 1.046630
    20 1.485303 0.000000 0.000000 0.000000 0.000000 1.613603
    21 -2.869898 1.399663 -4.140396 -0.549846 1.337387 2.132127
    22 4.972048 0.000000 0.000001 0.906816 -1.033827 -0.629708
    23 11.585355 0.000000 0.000000 0.000000 0.000000 -1.459014
    24 10.127057 0.000000 0.000001 1.717987 0.000000 -0.069778
    25 2.683750 -0.427338 0.044205 0.001045 0.043611 0.000046
    26 1.438885 -0.000001 0.000000 0.000000 0.000000 1.421722
    27 1.485305 0.000001 0.000000 0.000000 0.000000 1.465319
    28 1.646738 0.449549 -1.702246 0.142629 -0.222505 0.179225
    29 0.928312 0.000000 -0.000002 0.000000 0.000000 0.000000
    30 0.928314 0.000000 0.000001 0.000000 0.000000 0.000000
    31 1.533672 0.109715 1.664491 -0.233255 -0.412980 0.435684
    32 0.928313 0.000000 0.000000 0.000000 0.000000 0.000000
    33 0.928314 0.000000 0.000001 0.000000 0.000000 0.000000
  time 3
    0 0.235347 -26.045842 1.653870 0.000000 0.000000 -1.570874
    1 0.000000 0.000000 0.000000 -1.570795 -1.570796 0.000000
    2 -0.000005 0.000007 3.713255 -0.008777 3.117513 -0.451936
    3 18.045721 0.000000 0.000000 0.000000 0.000000 -0.433112
    4 17.597597 0.000000 0.000000 -0.002081 0.025525 -0.000460
    5 0.000005 -0.000003 -3.713255 -0.003576 -3.124429 0.038289
    6 18.045725 0.000000 0.000000 0.000000 0.000000 -1.755094
    7 17.597597 0.000000 0.000000 0.015515 0.008135 -0.091687
    8 1.293670 0.684478 -0.000001 -0.000004 -0.000001 0.166116
    9 5.309685 -0.003834 0.000000 -0.004260 0.000587 0.138349
    10 4.826790 -0.004591 0.000000 0.108520 -0.009072 0.082322
    11 5.792767 -0.005304 0.000000 -0.022276 0.000395 0.017444
    12 6.662317 -0.001453 0.000000 0.000000 -0.000001 0.471000
    13 2.046985 -0.000002 0.000000 -0.082418 -0.000766 -0.596443
    14 -3.112024 1.517254 4.341911 -0.390697 -1.440344 3.057437
    15 4.827230 0.000000 0.000001 0.763570 1.084311 0.606541
    16 11.139763 0.000000 0.000000 0.000000 0.000000 -1.922843
    17 10.314597 0.000001 0.000000 -1.570000 0.000000 0.135497
    18 2.975834 -0.386307 -0.044143 -0.028637 -0.032909 0.698234
    19 1.438886 0.000000 0.000000 0.000000 0.000000 1.046630
    20 1.485303 0.000000 0.000000 0.000000 0.000000 1.613603
    21 -2.869898 1.399663 -4.140396 -0.392901 1.354798 2.285140
    22 4.972048 0.000000 0.000001 0.880052 -1.010258 -0.726343
    23 11.585355 0.000000 0.000000 0.000000 0.000000 -1.440405
    24 10.127057 0.000000 0.000001 1.717987 0.000000 -0.069778
    25 2.683750 -0.427338 0.044205 0.001045 0.043611 0.000046
    26 1.438885 -0.000001 0.000000 0.000000 0.000000 1.421722
    27 1.485305 0.000001 0.000000 0.000000 0.000000 1.465319
    28 1.646738 0.449549 -1.702246 0.142629 -0.222505 0.179225
    29 0.928312 0.000000 -0.000002 0.000000 0.000000 0.000000
    30 0.928314 0.000000 0.000001 0.000000 0.000000 0.000000
    31 1.533672 0.109715 1.664491 -0.233255 -0.412980 0.435684
    32 0.928313 0.000000 0.000000 0.000000 0.000000 0.000000
    33 0.928314 0.000000 0.000001 0.000000 0.000000 0.000000
  time 4
    0 0.235347 -34.711040 1.130416 0.000000 0.000000 -1.570874
    1 0.000000 0.000000 0.000000 -1.570795 -1.570796 0.000000
    2 -0.000005 0.000007 3.713255 -0.006381 3.115696 -0.345523
    3 18.045721 0.000000 0.000000 0.000000 0.000000 -0.727876
    4 17.597597 0.000000 0.000000 -0.002207 0.026572 0.400609
    5 0.000005 -0.000003 -3.713255 -0.000515 -3.124142 -0.140762
    6 18.045725 0.000000 0.000000 0.000000 0.000000 -1.959243
    7 17.597597 0.000000 0.000000 0.014064 0.010463 -0.222557
    8 1.293670 0.684478 -0.000001 -0.000004 -0.000001 0.185016
    9 5.309685 -0.003834 0.000000 -0.025011 0.003907 0.154375
    10 4.826790 -0.004591 0.000000 0.086008 -0.007394 0.084791
    11 5.792767 -0.005304 0.000000 -0.046150 0.000839 0.017444
    12 6.662317 -0.001453 0.000000 0.000000 -0.000001 0.471000
    13 2.046985 -0.000002 0.000000 -0.015251 -0.000878 -0.633704
    14 -3.112024 1.517254 4.341911 -0.229630 -1.463231 2.898187
    15 4.827230 0.000000 0.000001 0.470300 1.168901 0.364485
    16 11.139763 0.000000 0.000000 0.000000 0.000000 -1.959494
    17 10.314597 0.000001 0.000000 -1.570000 0.000000 0.144084
    18 2.975834 -0.386307 -0.044143 -0.028637 -0.032909 0.698234
    19 1.438886 0.000000 0.000000 0.000000 0.000000 1.046630
    20 1.485303 0.000000 0.000000 0.000000 0.000000 1.613603
    21 -2.869898 1.399663 -4.140396 -0.206907 1.366555 2.467011
    22 4.972048 0.000000 0.000001 0.828224 -1.005351 -0.788526
    23 11.585355 0.000000 0.000000 0.000000 0.000000 -1.428373
    24 10.127057 0.000000 0.000001 1.717987 0.000000 -0.069778
    25 2.683750 -0.427338 0.044205 0.001045 0.043611 0.000046
    26 1.438885 -0.000001 0.000000 0.000000 0.000000 1.421722
    27 1.485305 0.000001 0.000000 0.000000 0.000000 1.465319
    28 1.646738 0.449549 -1.702246 0.142629 -0.222505 0.179225
    29 0.928312 0.000000 -0.000002 0.000000 0.000000 0.000000
    30 0.928314 0.000000 0.000001 0.000000 0.000000 0.000000
    31 1.533672 0.109715 1.664491 -0.233255 -0.412980 0.435684
    32 0.928313 0.000000 0.000000 0.000000 0.000000 0.000000
    33 0.928314 0.000000 0.000001 0.000000 0.000000 0.000000
  time 5
    0 0.235347 -43.380144 0.923379 0.000000 0.000000 -1.570874
    1 0.000000 0.000000 0.000000 -1.570795 -1.570796 0.000000
    2 -0.000005 0.000007 3.713255 0.002246 3.114358 0.000733
    3 18.045721 0.000000 0.000000 0.000000 0.000000 -0.543463
    4 17.597597 0.000000 0.000000 -0.001751 0.027302 0.562390
    5 0.000005 -0.000003 -3.713255 0.003407 -3.124334 -0.366502
    6 18.045725 0.000000 0.000000 0.000000 0.000000 -2.098409
    7 17.597597 0.000000 0.000000 0.014246 0.010226 -0.292541
    8 1.293670 0.684478 -0.000001 -0.000004 -0.000001 0.192684
    9 5.309685 -0.003834 0.000000 -0.043534 0.007335 0.166200
    10 4.826790 -0.004591 0.000000 0.061739 -0.004902 0.078331
    11 5.792767 -0.005304 0.000000 -0.068655 0.001246 0.017402
    12 6.662317 -0.001453 0.000000 0.000000 -0.000001 0.471000
    13 2.046985 -0.000002 0.000000 0.050062 0.002026 -0.646784
    14 -3.112024 1.517254 4.341911 0.001999 -1.481656 2.667797
    15 4.827230 0.000000 0.000001 0.156942 1.196133 0.095038
    16 11.139763 0.000000 0.000000 0.000000 0.000000 -1.991871
    17 10.314597 0.000001 0.000000 -1.570000 0.000000 0.132184
    18 2.975834 -0.386307 -0.044143 -0.028637 -0.032909 0.698234
    19 1.438886 0.000000 0.000000 0.000000 0.000000 1.046630
    20 1.485303 0.000000 0.000000 0.000000 0.000000 1.613603
    21 -2.869898 1.399663 -4.140396 -0.011805 1.370795 2.658182
    22 4.972048 0.000000 0.000001 0.741200 -1.021519 -0.809342
    23 11.585355 0.000000 0.000000 0.000000 0.000000 -1.429842
    24 10.127057 0.000000 0.000001 1.717987 0.000000 -0.069778
    25 2.683750 -0.427338 0.044205 0.001045 0.043611 0.000046
    26 1.438885 -0.000001 0.000000 0.000000 0.000000 1.421722
    27 1.485305 0.000001 0.000000 0.000000 0.000000 1.465319
    28 1.646738 0.449549 -1.702246 0.142629 -0.222505 0.179225
    29 0.928312 0.000000 -0.000002 0.000000 0.000000 0.000000
    30 0.928314 0.000000 0.000001 0.000000 0.000000 0.000000
    31 1.533672 0.109715 1.664491 -0.233255 -0.412980 0.435684
    32 0.928313 0.000000 0.000000 0.000000 0.000000 0.000000
    33 0.928314 0.000000 0.000001 0.000000 0.000000 0.000000
  time 6
    0 0.235347 -52.045341 1.165574 0.000000 0.000000 -1.570874
    1 0.000000 0.000000 0.000000 -1.570795 -1.570796 0.000000
    2 -0.000005 0.000007 3.713255 0.007613 3.116652 0.194949
    3 18.045721 0.000000 0.000000 0.000000 0.000000 -0.373669
    4 17.597597 0.000000 0.000000 -0.006770 0.025160 0.406922
    5 0.000005 -0.000003 -3.713255 0.008382 -3.126153 -0.672047
    6 18.045725 0.000000 0.000000 0.000000 0.000000 -2.143107
    7 17.597597 0.000000 0.000000 0.017527 -0.000287 0.084786
    8 1.293670 0.684478 -0.000001 -0.000004 -0.000001 0.181517
    9 5.309685 -0.003834 0.000000 -0.060711 0.010235 0.166055
    10 4.826790 -0.004591 0.000000 0.030755 -0.001690 0.054342
    11 5.792767 -0.005304 0.000000 -0.090898 0.001654 0.017382
    12 6.662317 -0.001453 0.000000 0.000000 -0.000001 0.471000
    13 2.046985 -0.000002 0.000000 0.120761 0.002972 -0.611815
    14 -3.112024 1.517254 4.341911 0.338706 -1.493465 2.332039
    15 4.827230 0.000000 0.000001 -0.049282 1.187623 -0.070358
    16 11.139763 0.000000 0.000000 0.000000 0.000000 -2.025299
    17 10.314597 0.000001 0.000000 -1.570000 0.000000 0.109566
    18 2.975834 -0.386307 -0.044143 -0.028637 -0.032909 0.698234
    19 1.438886 0.000000 0.000000 0.000000 0.000000 1.046630
    20 1.485303 0.000000 0.000000 0.000000 0.000000 1.613603
    21 -2.869898 1.399663 -4.140396 0.159041 1.368308 2.825673
    22 4.972048 0.000000 0.000001 0.566533 -1.069543 -0.737607
    23 11.585355 0.000000 0.000000 0.000000 0.000000 -1.454677
    24 10.127057 0.000000 0.000001 1.717987 0.000000 -0.069778
    25 2.683750 -0.427338 0.044205 0.001045 0.043611 0.000046
    26 1.438885 -0.000001 0.000000 0.000000 0.000000 1.421722
    27 1.485305 0.000001 0.000000 0.000000 0.000000 1.465319
    28 1.646738 0.449549 -1.702246 0.142629 -0.222505 0.179225
    29 0.928312 0.000000 -0.000002 0.000000 0.000000 0.000000
    30 0.928314 0.000000 0.000001 0.000000 0.000000 0.000000
    31 1.533672 0.109715 1.664491 -0.233255 -0.412980 0.435684
    32 0.928313 0.000000 0.000000 0.000000 0.000000 0.000000
    33 0.928314 0.000000 0.000001 0.000000 0.000000 0.000000
  time 7
    0 0.235347 -60.718352 1.774967 0.000000 0.000000 -1.570874
    1 0.000000 0.000000 0.000000 -1.570795 -1.570796 0.000000
    2 -0.000005 0.000007 3.713255 0.006559 3.114931 0.168953
    3 18.045721 0.000000 0.000000 0.000000 0.000000 -0.584353
    4 17.597597 0.000000 0.000000 -0.015744 0.022555 0.216682
    5 0.000005 -0.000003 -3.713255 0.012113 -3.128929 -0.938368
    6 18.045725 0.000000 0.000000 0.000000 0.000000 -2.062766
    7 17.597597 0.000000 0.000000 0.013454 -0.011253 0.418296
    8 1.293670 0.684478 -0.000001 -0.000004 -0.000001 0.156423
    9 5.309685 -0.003834 0.000000 -0.076760 0.012931 0.165874
    10 4.826790 -0.004591 0.000000 -0.005435 0.000084 0.016704
    11 5.792767 -0.005304 0.000000 -0.112571 0.002037 0.017340
    12 6.662317 -0.001453 0.000000 0.000000 -0.000001 0.471000
    13 2.046985 -0.000002 0.000000 0.195079 -0.002522 -0.549922
    14 -3.112024 1.517254 4.341911 0.711460 -1.494658 1.959848
    15 4.827230 0.000000 0.000001 -0.153597 1.172816 -0.134329
    16 11.139763 0.000000 0.000000 0.000000 0.000000 -2.055574
    17 10.314597 0.000001 0.000000 -1.570000 0.000000 0.082949
    18 2.975834 -0.386307 -0.044143 -0.028637 -0.032909 0.698234
    19 1.438886 0.000000 0.000000 0.000000 0.000000 1.046630
    20 1.485303 0.000000 0.000000 0.000000 0.000000 1.613603
    21 -2.869898 1.399663 -4.140396 0.319724 1.360422 2.983001
    22 4.972048 0.000000 0.000001 0.251081 -1.120301 -0.518054
    23 11.585355 0.000000 0.000000 0.000000 0.000000 -1.534148
    24 10.127057 0.000000 0.000001 1.717987 0.000000 -0.069778
    25 2.683750 -0.427338 0.044205 0.001045 0.043611 0.000046
    26 1.438885 -0.000001 0.000000 0.000000 0.000000 1.421722
    27 1.485305 0.000001 0.000000 0.000000 0.000000 1.465319
    28 1.646738 0.449549 -1.702246 0.142629 -0.222505 0.179225
    29 0.928312 0.000000 -0.000002 0.000000 0.000000 0.000000
    30 0.928314 0.000000 0.000001 0.000000 0.000000 0.000000
    31 1.533672 0.109715 1.664491 -0.233255 -0.412980 0.435684
    32 0.928313 0.000000 0.000000 0.000000 0.000000 0.000000
    33 0.928314 0.000000 0.000001 0.000000 0.000000 0.000000
  time 8
    0 0.235347 -69.395268 2.564054 0.000000 0.000000 -1.570874
    1 0.000000 0.000000 0.000000 -1.570795 -1.570796 0.000000
    2 -0.000005 0.000007 3.713255 0.007326 3.115218 0.201363
    3 18.045721 0.000000 0.000000 0.000000 0.000000 -0.654705
    4 17.597597 0.000000 0.000000 -0.025124 0.010919 -0.233342
    5 0.000005 -0.000003 -3.713255 0.013356 -3.130173 -1.035675
    6 18.045725 0.000000 0.000000 0.000000 0.000000 -1.771973
    7 17.597597 0.000000 0.000000 0.011624 -0.013127 0.180183
    8 1.293670 0.684478 -0.000001 -0.000004 -0.000001 0.125619
    9 5.309685 -0.003834 0.000000 -0.090778 0.015292 0.165675
    10 4.826790 -0.004591 0.000000 -0.041395 -0.001007 -0.025255
    11 5.792767 -0.005304 0.000000 -0.132581 0.002409 0.017299
    12 6.662317 -0.001453 0.000000 0.000000 -0.000001 0.471000
    13 2.046985 -0.000002 0.000000 0.264960 -0.015040 -0.479174
    14 -3.112024 1.517254 4.341911 1.021897 -1.486926 1.649497
    15 4.827230 0.000000 0.000001 -0.201468 1.160561 -0.147105
    16 11.139763 0.000000 0.000000 0.000000 0.000000 -2.081293
    17 10.314597 0.000001 0.000000 -1.570000 0.000000 0.055322
    18 2.975834 -0.386307 -0.044143 -0.028637 -0.032909 0.698234
    19 1.438886 0.000000 0.000000 0.000000 0.000000 1.046630
    20 1.485303 0.000000 0.000000 0.000000 0.000000 1.613603
    21 -2.869898 1.399663 -4.140396 0.478394 1.346318 3.137836
    22 4.972048 0.000000 0.000001 -0.197886 -1.112579 -0.153581
    23 11.585355 0.000000 0.000000 0.000000 0.000000 -1.678539
    24 10.127057 0.000000 0.000001 1.717987 0.000000 -0.069778
    25 2.683750 -0.427338 0.044205 0.001045 0.043611 0.000046
    26 1.438885 -0.000001 0.000000 0.000000 0.000000 1.421722
    27 1.485305 0.000001 0.000000 0.000000 0.000000 1.465319
    28 1.646738 0.449549 -1.702246 0.142629 -0.222505 0.179225
    29 0.928312 0.000000 -0.000002 0.000000 0.000000 0.000000
    30 0.928314 0.000000 0.000001 0.000000 0.000000 0.000000
    31 1.533672 0.109715 1.664491 -0.233255 -0.412980 0.435684
    32 0.928313 0.000000 0.000000 0.000000 0.000000 0.000000
    33 0.928314 0.000000 0.000001 0.000000 0.000000 0.000000
  time 9
    0 0.235347 -78.072185 3.353140 0.000000 0.000000 -1.570874
    1 0.000000 0.000000 0.000000 -1.570795 -1.570796 0.000000
    2 -0.000005 0.000007 3.713255 0.012981 3.118469 0.419485
    3 18.045721 0.000000 0.000000 0.000000 0.000000 -0.371739
    4 17.597597 0.000000 0.000000 -0.025250 0.008095 -0.375313
    5 0.000005 -0.000003 -3.713255 0.013261 -3.130077 -1.029324
    6 18.045725 0.000000 0.000000 0.000000 0.000000 -1.405620
    7 17.597597 0.000000 0.000000 0.010997 -0.013660 -0.132929
    8 1.293670 0.684478 -0.000001 -0.000004 -0.000001 0.095586
    9 5.309685 -0.003834 0.000000 -0.101992 0.017174 0.165494
    10 4.826790 -0.004591 0.000000 -0.072544 -0.004590 -0.063995
    11 5.792767 -0.005304 0.000000 -0.149932 0.002721 0.017257
    12 6.662317 -0.001453 0.000000 0.000000 -0.000001 0.471000
    13 2.046985 -0.000002 0.000000 0.323940 -0.031769 -0.413416
    14 -3.112024 1.517254 4.341911 1.241159 -1.474309 1.430037
    15 4.827230 0.000000 0.000001 -0.232304 1.149413 -0.152006
    16 11.139763 0.000000 0.000000 0.000000 0.000000 -2.102107
    17 10.314597 0.000001 0.000000 -1.570000 0.000000 0.027726
    18 2.975834 -0.386307 -0.044143 -0.028637 -0.032909 0.698234
    19 1.438886 0.000000 0.000000 0.000000 0.000000 1.046630
    20 1.485303 0.000000 0.000000 0.000000 0.000000 1.613603
    21 -2.869898 1.399663 -4.140396 0.594305 1.330858 3.250774
    22 4.972048 0.000000 0.000001 -0.559133 -1.026829 0.140737
    23 11.585355 0.000000 0.000000 0.000000 0.000000 -1.840978
    24 10.127057 0.000000 0.000001 1.717987 0.000000 -0.069778
    25 2.683750 -0.427338 0.044205 0.001045 0.043611 0.000046
    26 1.438885 -0.000001 0.000000 0.000000 0.000000 1.421722
    27 1.485305 0.000001 0.000000 0.000000 0.000000 1.465319
    28 1.646738 0.449549 -1.702246 0.142629 -0.222505 0.179225
    29 0.928312 0.000000 -0.000002 0.000000 0.000000 0.000000
    30 0.928314 0.000000 0.000001 0.000000 0.000000 0.000000
    31 1.533672 0.109715 1.664491 -0.233255 -0.412980 0.435684
    32 0.928313 0.000000 0.000000 0.000000 0.000000 0.000000
    33 0.928314 0.000000 0.000001 0.000000 0.000000 0.000000
  time 10
    0 0.235347 -86.749102 3.962534 0.000000 0.000000 -1.570874
    1 0.000000 0.000000 0.000000 -1.570795 -1.570796 0.000000
    2 -0.000005 0.000007 3.713255 0.012981 3.118565 0.419048
    3 18.045721 0.000000 0.000000 0.000000 0.000000 -0.463093
    4 17.597597 0.000000 0.000000 -0.026011 0.004614 -0.415941
    5 0.000005 -0.000003 -3.713255 0.011921 -3.128737 -0.919363
    6 18.045725 0.000000 0.000000 0.000000 0.000000 -1.072447
    7 17.597597 0.000000 0.000000 0.007386 -0.015948 -0.111913
    8 1.293670 0.684478 -0.000001 -0.000004 -0.000001 0.072232
    9 5.309685 -0.003834 0.000000 -0.109534 0.018444 0.165349
    10 4.826790 -0.004591 0.000000 -0.094645 -0.008749 -0.092703
    11 5.792767 -0.005304 0.000000 -0.163695 0.002972 0.017216
    12 6.662317 -0.001453 0.000000 0.000000 -0.000001 0.471000
    13 2.046985 -0.000002 0.000000 0.366205 -0.047462 -0.364423
    14 -3.112024 1.517254 4.341911 1.389475 -1.460000 1.281429
    15 4.827230 0.000000 0.000001 -0.277179 1.134010 -0.183510
    16 11.139763 0.000000 0.000000 0.000000 0.000000 -2.117454
    17 10.314597 0.000001 0.000000 -1.570000 0.000000 0.000441
    18 2.975834 -0.386307 -0.044143 -0.028637 -0.032909 0.698234
    19 1.438886 0.000000 0.000000 0.000000 0.000000 1.046630
    20 1.485303 0.000000 0.000000 0.000000 0.000000 1.613603
    21 -2.869898 1.399663 -4.140396 0.649432 1.321559 3.304175
    22 4.972048 0.000000 0.000001 -0.743005 -0.935126 0.281309
    23 11.585355 0.000000 0.000000 0.000000 0.000000 -1.960605
    24 10.127057 0.000000 0.000001 1.717987 0.000000 -0.069778
    25 2.683750 -0.427338 0.044205 0.001045 0.043611 0.000046
    26 1.438885 -0.000001 0.000000 0.000000 0.000000 1.421722
    27 1.485305 0.000001 0.000000 0.000000 0.000000 1.465319
    28 1.646738 0.449549 -1.702246 0.142629 -0.222505 0.179225
    29 0.928312 0.000000 -0.000002 0.000000 0.000000 0.000000
    30 0.928314 0.000000 0.000001 0.000000 0.000000 0.000000
    31 1.533672 0.109715 1.664491 -0.233255 -0.412980 0.435684
    32 0.928313 0.000000 0.000000 0.000000 0.000000 0.000000
    33 0.928314 0.000000 0.000001 0.000000 0.000000 0.000000
  time 11
    0 0.235347 -95.429925 4.204729 0.000000 0.000000 -1.570874
    1 0.000000 0.000000 0.000000 -1.570795 -1.570796 0.000000
    2 -0.000005 0.000007 3.713255 0.011831 3.117895 0.367639
    3 18.045721 0.000000 0.000000 0.000000 0.000000 -0.658193
    4 17.597597 0.000000 0.000000 -0.026417 0.000160 -0.441471
    5 0.000005 -0.000003 -3.713255 0.009912 -3.127110 -0.771730
    6 18.045725 0.000000 0.000000 0.000000 0.000000 -0.766441
    7 17.597597 0.000000 0.000000 0.003230 -0.017250 -0.022114
    8 1.293670 0.684478 -0.000001 -0.000004 -0.000001 0.061853
    9 5.309685 -0.003834 0.000000 -0.112349 0.018912 0.165313
    10 4.826790 -0.004591 0.000000 -0.103216 -0.010738 -0.104102
    11 5.792767 -0.005304 0.000000 -0.172648 0.003128 0.017174
    12 6.662317 -0.001453 0.000000 0.000000 -0.000001 0.471000
    13 2.046985 -0.000002 0.000000 0.385851 -0.055274 -0.344331
    14 -3.112024 1.517254 4.341911 1.488704 -1.445998 1.181718
    15 4.827230 0.000000 0.000001 -0.357765 1.106267 -0.266646
    16 11.139763 0.000000 0.000000 0.000000 0.000000 -2.125584
    17 10.314597 0.000001 0.000000 -1.570000 0.000000 -0.026144
    18 2.975834 -0.386307 -0.044143 -0.028637 -0.032909 0.698234
    19 1.438886 0.000000 0.000000 0.000000 0.000000 1.046630
    20 1.485303 0.000000 0.000000 0.000000 0.000000 1.613603
    21 -2.869898 1.399663 -4.140396 0.644638 1.322435 3.299574
    22 4.972048 0.000000 0.000001 -0.794136 -0.902949 0.319317
    23 11.585355 0.000000 0.000000 0.000000 0.000000 -1.997892
    24 10.127057 0.000000 0.000001 1.717987 0.000000 -0.069778
    25 2.683750 -0.427338 0.044205 0.001045 0.043611 0.000046
    26 1.438885 -0.000001 0.000000 0.000000 0.000000 1.421722
    27 1.485305 0.000001 0.000000 0.000000 0.000000 1.465319
    28 1.646738 0.449549 -1.702246 0.142629 -0.222505 0.179225
    29 0.928312 0.000000 -0.000002 0.000000 0.000000 0.000000
    30 0.928314 0.000000 0.000001 0.000000 0.000000 0.000000
    31 1.533672 0.109715 1.664491 -0.233255 -0.412980 0.435684
    32 0.928313 0.000000 0.000000 0.000000 0.000000 0.000000
    33 0.928314 0.000000 0.000001 0.000000 0.000000 0.000000
  time 12
    0 0.235347 -104.106842 3.962534 0.000000 0.000000 -1.570874
    1 0.000000 0.000000 0.000000 -1.570795 -1.570796 0.000000
    2 -0.000005 0.000007 3.713255 0.009626 3.116939 0.276872
    3 18.045721 0.000000 0.000000 0.000000 0.000000 -1.016259
    4 17.597597 0.000000 0.000000 -0.025200 -0.007873 -0.481780
    5 0.000005 -0.000003 -3.713255 0.007999 -3.126248 -0.655999
    6 18.045725 0.000000 0.000000 0.000000 0.000000 -0.495425
    7 17.597597 0.000000 0.000000 0.000477 -0.017289 -0.017925
    8 1.293670 0.684478 -0.000001 -0.000004 -0.000001 0.068968
    9 5.309685 -0.003834 0.000000 -0.109534 0.018444 0.165349
    10 4.826790 -0.004591 0.000000 -0.094645 -0.008749 -0.092703
    11 5.792767 -0.005304 0.000000 -0.177182 0.003212 0.017174
    12 6.662317 -0.001453 0.000000 0.000000 -0.000001 0.471000
    13 2.046985 -0.000002 0.000000 0.379474 -0.050343 -0.362040
    14 -3.112024 1.517254 4.341911 1.550350 -1.434612 1.119686
    15 4.827230 0.000000 0.000001 -0.469775 1.057674 -0.396862
    16 11.139763 0.000000 0.000000 0.000000 0.000000 -2.122640
    17 10.314597 0.000001 0.000000 -1.570000 0.000000 -0.050722
    18 2.975834 -0.386307 -0.044143 -0.028637 -0.032909 0.698234
    19 1.438886 0.000000 0.000000 0.000000 0.000000 1.046630
    20 1.485303 0.000000 0.000000 0.000000 0.000000 1.613603
    21 -2.869898 1.399663 -4.140396 0.584238 1.332412 3.240899
    22 4.972048 0.000000 0.000001 -0.738364 -0.943974 0.286183
    23 11.585355 0.000000 0.000000 0.000000 0.000000 -1.959485
    24 10.127057 0.000000 0.000001 1.717987 0.000000 -0.069778
    25 2.683750 -0.427338 0.044205 0.001045 0.043611 0.000046
    26 1.438885 -0.000001 0.000000 0.000000 0.000000 1.421722
    27 1.485305 0.000001 0.000000 0.000000 0.000000 1.465319
    28 1.646738 0.449549 -1.702246 0.142629 -0.222505 0.179225
    29 0.928312 0.000000 -0.000002 0.000000 0.000000 0.000000
    30 0.928314 0.000000 0.000001 0.000000 0.000000 0.000000
    31 1.533672 0.109715 1.664491 -0.233255 -0.412980 0.435684
    32 0.928313 0.000000 0.000000 0.000000 0.000000 0.000000
    33 0.928314 0.000000 0.000001 0.000000 0.000000 0.000000
  time 13
    0 0.235347 -112.783758 3.353140 0.000000 0.000000 -1.570874
    1 0.000000 0.000000 0.000000 -1.570795 -1.570796 0.000000
    2 -0.000005 0.000007 3.713255 0.006080 3.115887 0.133239
    3 18.045721 0.000000 0.000000 0.000000 0.000000 -1.412692
    4 17.597597 0.000000 0.000000 -0.022132 -0.014324 -0.500081
    5 0.000005 -0.000003 -3.713255 0.006468 -3.125770 -0.561019
    6 18.045725 0.000000 0.000000 0.000000 0.000000 -0.326339
    7 17.597597 0.000000 0.000000 -0.000678 -0.017033 -0.023522
    8 1.293670 0.684478 -0.000001 -0.000004 -0.000001 0.088638
    9 5.309685 -0.003834 0.000000 -0.101992 0.017174 0.165494
    10 4.826790 -0.004591 0.000000 -0.072544 -0.004590 -0.063995
    11 5.792767 -0.005304 0.000000 -0.178552 0.003236 0.017174
    12 6.662317 -0.001453 0.000000 0.000000 -0.000001 0.471000
    13 2.046985 -0.000002 0.000000 0.352246 -0.036317 -0.407797
    14 -3.112024 1.517254 4.341911 1.573839 -1.429535 1.095909
    15 4.827230 0.000000 0.000001 -0.567806 1.000146 -0.520691
    16 11.139763 0.000000 0.000000 0.000000 0.000000 -2.100635
    17 10.314597 0.000001 0.000000 -1.570000 0.000000 -0.069778
    18 2.975834 -0.386307 -0.044143 -0.028637 -0.032909 0.698234
    19 1.438886 0.000000 0.000000 0.000000 0.000000 1.046630
    20 1.485303 0.000000 0.000000 0.000000 0.000000 1.613603
    21 -2.869898 1.399663 -4.140396 0.478490 1.346290 3.138027
    22 4.972048 0.000000 0.000001 -0.585124 -1.023128 0.183225
    23 11.585355 0.000000 0.000000 0.000000 0.000000 -1.880784
    24 10.127057 0.000000 0.000001 1.717987 0.000000 -0.069778
    25 2.683750 -0.427338 0.044205 0.001045 0.043611 0.000046
    26 1.438885 -0.000001 0.000000 0.000000 0.000000 1.421722
    27 1.485305 0.000001 0.000000 0.000000 0.000000 1.465319
    28 1.646738 0.449549 -1.702246 0.142629 -0.222505 0.179225
    29 0.928312 0.000000 -0.000002 0.000000 0.000000 0.000000
    30 0.928314 0.000000 0.000001 0.000000 0.000000 0.000000
    31 1.533672 0.109715 1.664491 -0.233255 -0.412980 0.435684
    32 0.928313 0.000000 0.000000 0.000000 0.000000 0.000000
    33 0.928314 0.000000 0.000001 0.000000 0.000000 0.000000
  time 14
    0 0.235347 -121.460675 2.564054 0.000000 0.000000 -1.570874
    1 0.000000 0.000000 0.000000 -1.570795 -1.570796 0.000000
    2 -0.000005 0.000007 3.713255 0.000520 3.115314 -0.081385
    3 18.045721 0.000000 0.000000 0.000000 0.000000 -1.726010
    4 17.597597 0.000000 0.000000 -0.021245 -0.015566 -0.458720
    5 0.000005 -0.000003 -3.713255 0.005703 -3.125578 -0.512972
    6 18.045725 0.000000 0.000000 0.000000 0.000000 -0.361040
    7 17.597597 0.000000 0.000000 0.000839 -0.016973 -0.030871
    8 1.293670 0.684478 -0.000001 -0.000004 -0.000001 0.114955
    9 5.309685 -0.003834 0.000000 -0.090778 0.015292 0.165675
    10 4.826790 -0.004591 0.000000 -0.041395 -0.001007 -0.025255
    11 5.792767 -0.005304 0.000000 -0.176383 0.003200 0.017174
    12 6.662317 -0.001453 0.000000 0.000000 -0.000001 0.471000
    13 2.046985 -0.000002 0.000000 0.308646 -0.018710 -0.469690
    14 -3.112024 1.517254 4.341911 1.546515 -1.435381 1.123521
    15 4.827230 0.000000 0.000001 -0.627658 0.960319 -0.606189
    16 11.139763 0.000000 0.000000 0.000000 0.000000 -2.043450
    17 10.314597 0.000001 0.000000 -1.570000 0.000000 -0.069778
    18 2.975834 -0.386307 -0.044143 -0.028637 -0.032909 0.698234
    19 1.438886 0.000000 0.000000 0.000000 0.000000 1.046630
    20 1.485303 0.000000 0.000000 0.000000 0.000000 1.613603
    21 -2.869898 1.399663 -4.140396 0.337748 1.359178 3.000545
    22 4.972048 0.000000 0.000001 -0.320725 -1.100512 -0.013536
    23 11.585355 0.000000 0.000000 0.000000 0.000000 -1.783404
    24 10.127057 0.000000 0.000001 1.717987 0.000000 -0.069778
    25 2.683750 -0.427338 0.044205 0.001045 0.043611 0.000046
    26 1.438885 -0.000001 0.000000 0.000000 0.000000 1.421722
    27 1.485305 0.000001 0.000000 0.000000 0.000000 1.465319
    28 1.646738 0.449549 -1.702246 0.142629 -0.222505 0.179225
    29 0.928312 0.000000 -0.000002 0.000000 0.000000 0.000000
    30 0.928314 0.000000 0.000001 0.000000 0.000000 0.000000
    31 1.533672 0.109715 1.664491 -0.233255 -0.412980 0.435684
    32 0.928313 0.000000 0.000000 0.000000 0.000000 0.000000
    33 0.928314 0.000000 0.000001 0.000000 0.000000 0.000000
  time 15
    0 0.235347 -130.133685 1.774967 0.000000 0.000000 -1.570874
    1 0.000000 0.000000 0.000000 -1.570795 -1.570796 0.000000
    2 -0.000005 0.000007 3.713255 -0.006285 3.115983 -0.341490
    3 18.045721 0.000000 0.000000 0.000000 0.000000 -2.005487
    4 17.597597 0.000000 0.000000 -0.021955 -0.014495 -0.389771
    5 0.000005 -0.000003 -3.713255 0.005034 -3.125195 -0.469288
    6 18.045725 0.000000 0.000000 0.000000 0.000000 -0.502670
    7 17.597597 0.000000 0.000000 0.003263 -0.016835 0.009204
    8 1.293670 0.684478 -0.000001 -0.000004 -0.000001 0.142444
    9 5.309685 -0.003834 0.000000 -0.076760 0.012931 0.165874
    10 4.826790 -0.004591 0.000000 -0.005435 0.000084 0.016704
    11 5.792767 -0.005304 0.000000 -0.170104 0.003080 0.017195
    12 6.662317 -0.001453 0.000000 0.000000 -0.000001 0.471000
    13 2.046985 -0.000002 0.000000 0.252509 -0.002522 -0.536437
    14 -3.112024 1.517254 4.341911 1.452464 -1.451653 1.218151
    15 4.827230 0.000000 0.000001 -0.651388 0.953341 -0.654670
    16 11.139763 0.000000 0.000000 0.000000 0.000000 -1.947090
    17 10.314597 0.000001 0.000000 -1.570000 0.000000 -0.069778
    18 2.975834 -0.386307 -0.044143 -0.028637 -0.032909 0.698234
    19 1.438886 0.000000 0.000000 0.000000 0.000000 1.046630
    20 1.485303 0.000000 0.000000 0.000000 0.000000 1.613603
    21 -2.869898 1.399663 -4.140396 0.166902 1.368053 2.833343
    22 4.972048 0.000000 0.000001 0.049107 -1.138802 -0.304429
    23 11.585355 0.000000 0.000000 0.000000 0.000000 -1.676510
    24 10.127057 0.000000 0.000001 1.717987 0.000000 -0.069778
    25 2.683750 -0.427338 0.044205 0.001045 0.043611 0.000046
    26 1.438885 -0.000001 0.000000 0.000000 0.000000 1.421722
    27 1.485305 0.000001 0.000000 0.000000 0.000000 1.465319
    28 1.646738 0.449549 -1.702246 0.142629 -0.222505 0.179225
    29 0.928312 0.000000 -0.000002 0.000000 0.000000 0.000000
    30 0.928314 0.000000 0.000001 0.000000 0.000000 0.000000
    31 1.533672 0.109715 1.664491 -0.233255 -0.412980 0.435684
    32 0.928313 0.000000 0.000000 0.000000 0.000000 0.000000
    33 0.928314 0.000000 0.000001 0.000000 0.000000 0.000000
  time 16
    0 0.235347 -138.802789 1.165574 0.000000 0.000000 -1.570874
    1 0.000000 0.000000 0.000000 -1.570795 -1.570796 0.000000
    2 -0.000005 0.000007 3.713255 -0.012132 3.118278 -0.583567
    3 18.045721 0.000000 0.000000 0.000000 0.000000 -2.057435
    4 17.597597 0.000000 0.000000 -0.024946 -0.008311 -0.317710
    5 0.000005 -0.000003 -3.713255 0.003216 -3.123759 -0.342406
    6 18.045725 0.000000 0.000000 0.000000 0.000000 -0.761080
    7 17.597597 0.000000 0.000000 0.003329 -0.017861 0.394498
    8 1.293670 0.684478 -0.000001 -0.000004 -0.000001 0.165061
    9 5.309685 -0.003834 0.000000 -0.060711 0.010235 0.166055
    10 4.826790 -0.004591 0.000000 0.030755 -0.001690 0.054342
    11 5.792767 -0.005304 0.000000 -0.158852 0.002876 0.017216
    12 6.662317 -0.001453 0.000000 0.000000 -0.000001 0.471000
    13 2.046985 -0.000002 0.000000 0.188359 0.008173 -0.595139
    14 -3.112024 1.517254 4.341911 1.239529 -1.474463 1.431667
    15 4.827230 0.000000 0.000001 -0.630008 0.988998 -0.657996
    16 11.139763 0.000000 0.000000 0.000000 0.000000 -1.818634
    17 10.314597 0.000001 0.000000 -1.570000 0.000000 -0.069778
    18 2.975834 -0.386307 -0.044143 -0.028637 -0.032909 0.698234
    19 1.438886 0.000000 0.000000 0.000000 0.000000 1.046630
    20 1.485303 0.000000 0.000000 0.000000 0.000000 1.613603
    21 -2.869898 1.399663 -4.140396 -0.025995 1.370738 2.644281
    22 4.972048 0.000000 0.000001 0.428455 -1.118049 -0.597628
    23 11.585355 0.000000 0.000000 0.000000 0.000000 -1.565768
    24 10.127057 0.000000 0.000001 1.717987 0.000000 -0.069778
    25 2.683750 -0.427338 0.044205 0.001045 0.043611 0.000046
    26 1.438885 -0.000001 0.000000 0.000000 0.000000 1.421722
    27 1.485305 0.000001 0.000000 0.000000 0.000000 1.465319
    28 1.646738 0.449549 -1.702246 0.142629 -0.222505 0.179225
    29 0.928312 0.000000 -0.000002 0.000000 0.000000 0.000000
    30 0.928314 0.000000 0.000001 0.000000 0.000000 0.000000
    31 1.533672 0.109715 1.664491 -0.233255 -0.412980 0.435684
    32 0.928313 0.000000 0.000000 0.000000 0.000000 0.000000
    33 0.928314 0.000000 0.000001 0.000000 0.000000 0.000000
  time 17
    0 0.235347 -147.471893 0.923379 0.000000 0.000000 -1.570874
    1 0.000000 0.000000 0.000000 -1.570795 -1.570796 0.000000
    2 -0.000005 0.000007 3.713255 -0.016541 3.121146 -0.785266
    3 18.045721 0.000000 0.000000 0.000000 0.000000 -2.007046
    4 17.597597 0.000000 0.000000 -0.026264 0.000671 -0.222682
    5 0.000005 -0.000003 -3.713255 0.000059 -3.122898 -0.149198
    6 18.045725 0.000000 0.000000 0.000000 0.000000 -0.794042
    7 17.597597 0.000000 0.000000 0.006446 -0.017585 0.435122
    8 1.293670 0.684478 -0.000001 -0.000004 -0.000001 0.175239
    9 5.309685 -0.003834 0.000000 -0.043534 0.007335 0.166200
    10 4.826790 -0.004591 0.000000 0.061739 -0.004902 0.078331
    11 5.792767 -0.005304 0.000000 -0.141354 0.002565 0.017278
    12 6.662317 -0.001453 0.000000 0.000000 -0.000001 0.471000
    13 2.046985 -0.000002 0.000000 0.122054 0.011303 -0.628940
    14 -3.112024 1.517254 4.341911 0.797075 -1.493427 1.874231
    15 4.827230 0.000000 0.000001 -0.523636 1.070269 -0.576348
    16 11.139763 0.000000 0.000000 0.000000 0.000000 -1.670065
    17 10.314597 0.000001 0.000000 -1.570000 0.000000 -0.069778
    18 2.975834 -0.386307 -0.044143 -0.028637 -0.032909 0.698234
    19 1.438886 0.000000 0.000000 0.000000 0.000000 1.046630
    20 1.485303 0.000000 0.000000 0.000000 0.000000 1.613603
    21 -2.869898 1.399663 -4.140396 -0.221576 1.365934 2.452726
    22 4.972048 0.000000 0.000001 0.700666 -1.061096 -0.780622
    23 11.585355 0.000000 0.000000 0.000000 0.000000 -1.460763
    24 10.127057 0.000000 0.000001 1.717987 0.000000 -0.069778
    25 2.683750 -0.427338 0.044205 0.001045 0.043611 0.000046
    26 1.438885 -0.000001 0.000000 0.000000 0.000000 1.421722
    27 1.485305 0.000001 0.000000 0.000000 0.000000 1.465319
    28 1.646738 0.449549 -1.702246 0.142629 -0.222505 0.179225
    29 0.928312 0.000000 -0.000002 0.000000 0.000000 0.000000
    30 0.928314 0.000000 0.000001 0.000000 0.000000 0.000000
    31 1.533672 0.109715 1.664491 -0.233255 -0.412980 0.435684
    32 0.928313 0.000000 0.000000 0.000000 0.000000 0.000000
    33 0.928314 0.000000 0.000001 0.000000 0.000000 0.000000
  time 18
    0 0.235347 -156.133184 1.130416 0.000000 0.000000 -1.570874
    1 0.000000 0.000000 0.000000 -1.570795 -1.570796 0.000000
    2 -0.000005 0.000007 3.713255 -0.018554 3.122963 -0.887743
    3 18.045721 0.000000 0.000000 0.000000 0.000000 -1.907381
    4 17.597597 0.000000 0.000000 -0.024338 0.009824 -0.067351
    5 0.000005 -0.000003 -3.713255 -0.003289 -3.122994 0.052931
    6 18.045725 0.000000 0.000000 0.000000 0.000000 -0.764267
    7 17.597597 0.000000 0.000000 0.009711 -0.016244 0.402740
    8 1.293670 0.684478 -0.000001 -0.000004 -0.000001 0.168660
    9 5.309685 -0.003834 0.000000 -0.025011 0.003907 0.154375
    10 4.826790 -0.004591 0.000000 0.086008 -0.007394 0.084791
    11 5.792767 -0.005304 0.000000 -0.115539 0.002097 0.017340
    12 6.662317 -0.001453 0.000000 0.000000 -0.000001 0.471000
    13 2.046985 -0.000002 0.000000 0.053509 0.008218 -0.617074
    14 -3.112024 1.517254 4.341911 0.180803 -1.489503 2.489563
    15 4.827230 0.000000 0.000001 -0.218971 1.170348 -0.302175
    16 11.139763 0.000000 0.000000 0.000000 0.000000 -1.524789
    17 10.314597 0.000001 0.000000 -1.570000 0.000000 -0.069778
    18 2.975834 -0.386307 -0.044143 -0.028637 -0.032909 0.698234
    19 1.438886 0.000000 0.000000 0.000000 0.000000 1.046630
    20 1.485303 0.000000 0.000000 0.000000 0.000000 1.613603
    21 -2.869898 1.399663 -4.140396 -0.386190 1.355391 2.291755
    22 4.972048 0.000000 0.000001 0.836114 -1.021922 -0.822385
    23 11.585355 0.000000 0.000000 0.000000 0.000000 -1.384790
    24 10.127057 0.000000 0.000001 1.717987 0.000000 -0.069778
    25 2.683750 -0.427338 0.044205 0.001045 0.043611 0.000046
    26 1.438885 -0.000001 0.000000 0.000000 0.000000 1.421722
    27 1.485305 0.000001 0.000000 0.000000 0.000000 1.465319
    28 1.646738 0.449549 -1.702246 0.142629 -0.222505 0.179225
    29 0.928312 0.000000 -0.000002 0.000000 0.000000 0.000000
    30 0.928314 0.000000 0.000001 0.000000 0.000000 0.000000
    31 1.533672 0.109715 1.664491 -0.233255 -0.412980 0.435684
    32 0.928313 0.000000 0.000000 0.000000 0.000000 0.000000
    33 0.928314 0.000000 0.000001 0.000000 0.000000 0.000000
  time 19
    0 0.235347 -164.790569 1.653870 0.000000 0.000000 -1.570874
    1 0.000000 0.000000 0.000000 -1.570795 -1.570796 0.000000
    2 -0.000005 0.000007 3.713255 -0.019416 3.124015 -0.937160
    3 18.045721 0.000000 0.000000 0.000000 0.000000 -1.780926
    4 17.597597 0.000000 0.000000 -0.020079 0.016859 0.070960
    5 0.000005 -0.000003 -3.713255 -0.007116 -3.125387 0.251860
    6 18.045725 0.000000 0.000000 0.000000 0.000000 -0.521360
    7 17.597597 0.000000 0.000000 0.011822 -0.013107 0.204186
    8 1.293670 0.684478 -0.000001 -0.000004 -0.000001 0.152338
    9 5.309685 -0.003834 0.000000 -0.004260 0.000587 0.138349
    10 4.826790 -0.004591 0.000000 0.108520 -0.009072 0.082322
    11 5.792767 -0.005304 0.000000 -0.082761 0.001498 0.017402
    12 6.662317 -0.001453 0.000000 0.000000 -0.000001 0.471000
    13 2.046985 -0.000002 0.000000 -0.022188 0.005989 -0.582554
    14 -3.112024 1.517254 4.341911 -0.223302 -1.463885 2.891859
    15 4.827230 0.000000 0.000001 0.260729 1.195708 0.132143
    16 11.139763 0.000000 0.000000 0.000000 0.000000 -1.426467
    17 10.314597 0.000001 0.000000 -1.570000 0.000000 -0.069778
    18 2.975834 -0.386307 -0.044143 -0.028637 -0.032909 0.698234
    19 1.438886 0.000000 0.000000 0.000000 0.000000 1.046630
    20 1.485303 0.000000 0.000000 0.000000 0.000000 1.613603
    21 -2.869898 1.399663 -4.140396 -0.506032 1.343068 2.174790
    22 4.972048 0.000000 0.000001 0.897998 -1.013154 -0.780753
    23 11.585355 0.000000 0.000000 0.000000 0.000000 -1.359395
    24 10.127057 0.000000 0.000001 1.717987 0.000000 -0.069778
    25 2.683750 -0.427338 0.044205 0.001045 0.043611 0.000046
    26 1.438885 -0.000001 0.000000 0.000000 0.000000 1.421722
    27 1.485305 0.000001 0.000000 0.000000 0.000000 1.465319
    28 1.646738 0.449549 -1.702246 0.142629 -0.222505 0.179225
    29 0.928312 0.000000 -0.000002 0.000000 0.000000 0.000000
    30 0.928314 0.000000 0.000001 0.000000 0.000000 0.000000
    31 1.533672 0.109715 1.664491 -0.233255 -0.412980 0.435684
    32 0.928313 0.000000 0.000000 0.000000 0.000000 0.000000
    33 0.928314 0.000000 0.000001 0.000000 0.000000 0.000000
  time 20
    0 0.235347 -173.444048 2.360923 0.000000 0.000000 -1.570874
    1 0.000000 0.000000 0.000000 -1.570795 -1.570796 0.000000
    2 -0.000005 0.000007 3.713255 -0.018841 3.123346 -0.905479
    3 18.045721 0.000000 0.000000 0.000000 0.000000 -1.599926
    4 17.597597 0.000000 0.000000 -0.015161 0.021387 0.177564
    5 0.000005 -0.000003 -3.713255 -0.009029 -3.126535 0.376803
    6 18.045725 0.000000 0.000000 0.000000 0.000000 -0.454421
    7 17.597597 0.000000 0.000000 0.014889 -0.009301 -0.011640
    8 1.293670 0.684478 -0.000001 -0.000004 -0.000001 0.127963
    9 5.309685 -0.003834 0.000000 0.020396 -0.002421 0.117632
    10 4.826790 -0.004591 0.000000 0.132329 -0.009875 0.073326
    11 5.792767 -0.005304 0.000000 -0.041552 0.000755 0.017444
    12 6.662317 -0.001453 0.000000 0.000000 -0.000001 0.471000
    13 2.046985 -0.000002 0.000000 -0.111369 0.009276 -0.529336
    14 -3.112024 1.517254 4.341911 -0.447454 -1.428804 3.113333
    15 4.827230 0.000000 0.000001 0.729327 1.104054 0.530756
    16 11.139763 0.000000 0.000000 0.000000 0.000000 -1.418758
    17 10.314597 0.000001 0.000000 -1.570000 0.000000 -0.069778
    18 2.975834 -0.386307 -0.044143 -0.028637 -0.032909 0.698234
    19 1.438886 0.000000 0.000000 0.000000 0.000000 1.046630
    20 1.485303 0.000000 0.000000 0.000000 0.000000 1.613603
    21 -2.869898 1.399663 -4.140396 -0.608041 1.328653 2.075562
    22 4.972048 0.000000 0.000001 0.924299 -1.029644 -0.684448
    23 11.585355 0.000000 0.000000 0.000000 0.000000 -1.372547
    24 10.127057 0.000000 0.000001 1.717987 0.000000 -0.069778
    25 2.683750 -0.427338 0.044205 0.001045 0.043611 0.000046
    26 1.438885 -0.000001 0.000000 0.000000 0.000000 1.421722
    27 1.485305 0.000001 0.000000 0.000000 0.000000 1.465319
    28 1.646738 0.449549 -1.702246 0.142629 -0.222505 0.179225
    29 0.928312 0.000000 -0.000002 0.000000 0.000000 0.000000
    30 0.928314 0.000000 0.000001 0.000000 0.000000 0.000000
    31 1.533672 0.109715 1.664491 -0.233255 -0.412980 0.435684
    32 0.928313 0.000000 0.000000 0.000000 0.000000 0.000000
    33 0.928314 0.000000 0.000001 0.000000 0.000000 0.000000
  time 21
    0 0.235347 -182.093620 3.110945 0.000000 0.000000 -1.570874
    1 0.000000 0.000000 0.000000 -1.570795 -1.570796 0.000000
    2 -0.000005 0.000007 3.713255 -0.017403 3.122007 -0.830747
    3 18.045721 0.000000 0.000000 0.000000 0.000000 -1.363416
    4 17.597597 0.000000 0.000000 -0.009736 0.024332 0.252049
    5 0.000005 -0.000003 -3.713255 -0.010464 -3.127493 0.473092
    6 18.045725 0.000000 0.000000 0.000000 0.000000 -0.443337
    7 17.597597 0.000000 0.000000 0.016900 -0.004823 -0.209816
    8 1.293670 0.684478 -0.000001 -0.000004 -0.000001 0.096373
    9 5.309685 -0.003834 0.000000 0.050194 -0.004650 0.091501
    10 4.826790 -0.004591 0.000000 0.159045 -0.009480 0.058222
    11 5.792767 -0.005304 0.000000 0.009687 -0.000168 0.017444
    12 6.662317 -0.001453 0.000000 0.000000 -0.000001 0.471000
    13 2.046985 -0.000002 0.000000 -0.217956 0.023888 -0.459352
    14 -3.112024 1.517254 4.341911 -0.605453 -1.379106 3.266638
    15 4.827230 0.000000 0.000001 1.049146 0.880409 0.763099
    16 11.139763 0.000000 0.000000 0.000000 0.000000 -1.506148
    17 10.314597 0.000001 0.000000 -1.570000 0.000000 -0.069778
    18 2.975834 -0.386307 -0.044143 -0.028637 -0.032909 0.698234
    19 1.438886 0.000000 0.000000 0.000000 0.000000 1.046630
    20 1.485303 0.000000 0.000000 0.000000 0.000000 1.613603
    21 -2.869898 1.399663 -4.140396 -0.699408 1.311836 1.987071
    22 4.972048 0.000000 0.000001 0.920276 -1.070267 -0.533270
    23 11.585355 0.000000 0.000000 0.000000 0.000000 -1.421727
    24 10.127057 0.000000 0.000001 1.717987 0.000000 -0.069778
    25 2.683750 -0.427338 0.044205 0.001045 0.043611 0.000046
    26 1.438885 -0.000001 0.000000 0.000000 0.000000 1.421722
    27 1.485305 0.000001 0.000000 0.000000 0.000000 1.465319
    28 1.646738 0.449549 -1.702246 0.142629 -0.222505 0.179225
    29 0.928312 0.000000 -0.000002 0.000000 0.000000 0.000000
    30 0.928314 0.000000 0.000001 0.000000 0.000000 0.000000
    31 1.533672 0.109715 1.664491 -0.233255 -0.412980 0.435684
    32 0.928313 0.000000 0.000000 0.000000 0.000000 0.000000
    33 0.928314 0.000000 0.000001 0.000000 0.000000 0.000000
  time 22
    0 0.235347 -190.262709 3.771122 0.000000 0.000000 -1.570874
    1 0.000000 0.000000 0.000000 -1.570795 -1.570796 0.000000
    2 -0.000005 0.000007 3.713255 -0.015774 3.120190 -0.742507
    3 18.045721 0.000000 0.000000 0.000000 0.000000 -0.835927
    4 17.597597 0.000000 0.000000 -0.000585 0.026547 0.175825
    5 0.000005 -0.000003 -3.713255 -0.009029 -3.126535 0.376124
    6 18.045725 0.000000 0.000000 0.000000 0.000000 -0.799331
    7 17.597597 0.000000 0.000000 0.016917 0.004585 -0.490889
    8 1.293670 0.684478 -0.000001 -0.000004 -0.000001 0.070575
    9 5.309685 -0.003834 0.000000 0.079711 -0.005321 0.065840
    10 4.826790 -0.004591 0.000000 0.185645 -0.008233 0.043008
    11 5.792767 -0.005304 0.000000 0.069633 -0.001258 0.017402
    12 6.662317 -0.001453 0.000000 0.000000 -0.000001 0.471000
    13 2.046985 -0.000002 0.000000 -0.331652 0.048948 -0.399032
    14 -3.112024 1.517254 4.341911 -0.695573 -1.329177 3.350913
    15 4.827230 0.000000 0.000001 1.215077 0.511923 0.861986
    16 11.139763 0.000000 0.000000 0.000000 0.000000 -1.719821
    17 10.314597 0.000001 0.000000 -1.570000 0.000000 -0.032568
    18 2.975834 -0.386307 -0.044143 -0.028637 -0.032909 0.698234
    19 1.438886 0.000000 0.000000 0.000000 0.000000 1.046630
    20 1.485303 0.000000 0.000000 0.000000 0.000000 1.613603
    21 -2.869898 1.399663 -4.140396 -0.761054 1.297845 1.927629
    22 4.972048 0.000000 0.000001 0.901170 -1.114107 -0.363780
    23 11.585355 0.000000 0.000000 0.000000 0.000000 -1.496511
    24 10.127057 0.000000 0.000001 1.717987 0.000000 -0.069778
    25 2.683750 -0.427338 0.044205 0.001045 0.043611 0.000046
    26 1.438885 -0.000001 0.000000 0.000000 0.000000 1.421722
    27 1.485305 0.000001 0.000000 0.000000 0.000000 1.465319
    28 1.646738 0.449549 -1.702246 0.142629 -0.222505 0.179225
    29 0.928312 0.000000 -0.000002 0.000000 0.000000 0.000000
    30 0.928314 0.000000 0.000001 0.000000 0.000000 0.000000
    31 1.533672 0.109715 1.664491 -0.233255 -0.412980 0.435684
    32 0.928313 0.000000 0.000000 0.000000 0.000000 0.000000
    33 0.928314 0.000000 0.000001 0.000000 0.000000 0.000000
end
