version 1
nodes
  0 "Bip01" -1
  1 "Bip01 Pelvis" 0
  2 "Bip01 L Leg" 1
  3 "Bip01 L Leg1" 2
  4 "Bip01 L Foot" 3
  5 "Bip01 R Leg" 1
  6 "Bip01 R Leg1" 5
  7 "Bip01 R Foot" 6
  8 "Bip01 Spine" 1
  9 "Bip01 Spine1" 8
  10 "Bip01 Spine2" 9
  11 "Bip01 Spine3" 10
  12 "Bip01 Neck" 11
  13 "Bip01 Head" 12
  14 "Bip01 L Arm" 12
  15 "Bip01 L Arm1" 14
  16 "Bip01 L Arm2" 15
  17 "Bip01 L Hand" 16
  18 "Bip01 L Finger1" 17
  19 "Bip01 L Finger11" 18
  20 "Bip01 L Finger12" 19
  21 "Bip01 R Arm" 12
  22 "Bip01 R Arm1" 21
  23 "Bip01 R Arm2" 22
  24 "Bip01 R Hand" 23
  25 "Bip01 R Finger1" 24
  26 "Bip01 R Finger11" 25
  27 "Bip01 R Finger12" 26
  28 "Bip01 L Finger0" 17
  29 "Bip01 L Finger01" 28
  30 "Bip01 L Finger02" 29
  31 "Bip01 R Finger0" 24
  32 "Bip01 R Finger01" 31
  33 "Bip01 R Finger02" 32
end
skeleton
  time 0
    0 0.235347 0.367732 2.814061 0.000000 0.000000 -1.658094
    1 0.316416 0.054689 0.000000 -1.570795 -1.570796 0.000000
    2 -0.000005 0.000007 3.713255 -0.162135 3.150310 -0.295037
    3 18.045721 0.000000 0.000000 0.000000 0.000000 -0.121501
    4 17.597597 0.000000 0.000000 0.070547 0.038645 -0.171164
    5 0.000005 -0.000003 -3.713255 -0.006638 -3.125291 0.219764
    6 18.045725 0.000000 0.000000 0.000000 0.000000 -0.389149
    7 17.597597 0.000000 0.000000 -0.007966 -0.014764 0.207655
    8 1.293670 0.684478 -0.000001 -0.000004 -0.000001 0.044409
    9 5.309685 -0.003834 0.000000 0.165335 0.011361 -0.068836
    10 4.826790 -0.004591 0.000000 0.061050 -0.000575 0.008700
    11 5.792767 -0.005304 0.000000 -0.139528 0.002529 0.017278
    12 6.662317 -0.001453 0.000000 0.000000 -0.000001 0.471000
    13 2.046985 -0.000002 0.000000 -0.008660 0.015580 -0.272190
    14 -3.112024 1.517254 4.341911 -1.213001 -1.046106 3.832786
    15 4.827230 0.000000 0.000001 0.858547 1.152051 0.431431
    16 11.139763 0.000000 0.000000 0.000000 0.000000 -0.165170
    17 10.314597 0.000001 0.000000 -1.570000 0.000000 0.296547
    18 2.975834 -0.386307 -0.044143 -0.000797 -0.043611 0.000035
    19 1.438886 0.000000 0.000000 0.000000 0.000000 0.314000
    20 1.485303 0.000000 0.000000 0.000000 0.000000 0.104667
    21 -2.869898 1.399663 -4.140396 -0.948870 1.235947 1.748251
    22 4.972048 0.000000 0.000001 0.677382 -1.263969 -0.221891
    23 11.585355 0.000000 0.000000 0.000000 0.000000 -1.482100
    24 10.127057 0.000000 0.000001 1.569752 0.000000 -0.069778
    25 2.683750 -0.427338 0.044205 0.001045 0.043611 0.000046
    26 1.438885 -0.000001 0.000000 0.000000 0.000000 1.064097
    27 1.485305 0.000001 0.000000 0.000000 0.000000 1.229794
    28 1.646738 0.449549 -1.702246 0.154002 0.442277 0.277235
    29 0.928312 0.000000 -0.000002 0.000000 0.000000 0.000000
    30 0.928314 0.000000 0.000001 0.000000 0.000000 0.000000
    31 1.533672 0.109715 1.664491 -0.233255 -0.412980 0.435684
    32 0.928313 0.000000 0.000000 0.000000 0.000000 0.000000
    33 0.928314 0.000000 0.000001 0.000000 0.000000 0.000000
  time 1
    0 0.235347 -1.682616 2.966410 0.000000 0.000000 -1.648497
    1 0.316416 0.054689 0.000000 -1.570795 -1.570796 0.000000
    2 -0.000005 0.000007 3.713255 -0.137886 3.152127 -0.311607
    3 18.045721 0.000000 0.000000 0.000000 0.000000 -0.267251
    4 17.597597 0.000000 0.000000 0.056883 0.032219 -0.042873
    5 0.000005 -0.000003 -3.713255 -0.005777 -3.125004 0.172201
    6 18.045725 0.000000 0.000000 0.000000 0.000000 -0.481878
    7 17.597597 0.000000 0.000000 -0.004157 -0.014547 0.164558
    8 1.293670 0.684478 -0.000001 -0.000004 -0.000001 0.044409
    9 5.309685 -0.003834 0.000000 0.155810 0.010714 -0.068945
    10 4.826790 -0.004591 0.000000 0.054367 -0.000515 0.008700
    11 5.792767 -0.005304 0.000000 -0.145251 0.002637 0.017257
    12 6.662317 -0.001453 0.000000 0.000000 -0.000001 0.471000
    13 2.046985 -0.000002 0.000000 0.005945 0.011370 -0.272055
    14 -3.112024 1.517254 4.341911 -1.199770 -1.060953 3.821281
    15 4.827230 0.000000 0.000001 0.804098 1.178688 0.399052
    16 11.139763 0.000000 0.000000 0.000000 0.000000 -0.165170
    17 10.314597 0.000001 0.000000 -1.570000 0.000000 0.275080
    18 2.975834 -0.386307 -0.044143 -0.000797 -0.043611 0.000035
    19 1.438886 0.000000 0.000000 0.000000 0.000000 0.314000
    20 1.485303 0.000000 0.000000 0.000000 0.000000 0.104667
    21 -2.869898 1.399663 -4.140396 -0.948870 1.235947 1.748251
    22 4.972048 0.000000 0.000001 0.637854 -1.271128 -0.203315
    23 11.585355 0.000000 0.000000 0.000000 0.000000 -1.487836
    24 10.127057 0.000000 0.000001 1.569752 0.000000 -0.069778
    25 2.683750 -0.427338 0.044205 0.001045 0.043611 0.000046
    26 1.438885 -0.000001 0.000000 0.000000 0.000000 1.064097
    27 1.485305 0.000001 0.000000 0.000000 0.000000 1.229794
    28 1.646738 0.449549 -1.702246 0.154002 0.442277 0.277235
    29 0.928312 0.000000 -0.000002 0.000000 0.000000 0.000000
    30 0.928314 0.000000 0.000001 0.000000 0.000000 0.000000
    31 1.533672 0.109715 1.664491 -0.233255 -0.412980 0.435684
    32 0.928313 0.000000 0.000000 0.000000 0.000000 0.000000
    33 0.928314 0.000000 0.000001 0.000000 0.000000 0.000000
  time 2
    0 0.235347 -4.162665 3.208605 0.000000 0.000000 -1.635006
    1 0.320322 0.050783 0.000000 -1.570795 -1.570796 0.000000
    2 -0.000005 0.000007 3.713255 -0.095616 3.141418 -0.262287
    3 18.045721 0.000000 0.000000 0.000000 0.000000 -0.319866
    4 17.597597 0.000000 0.000000 0.028162 0.024941 0.058790
    5 0.000005 -0.000003 -3.713255 -0.004437 -3.124621 0.090215
    6 18.045725 0.000000 0.000000 0.000000 0.000000 -0.647052
    7 17.597597 0.000000 0.000000 0.002538 -0.013265 0.087121
    8 1.293670 0.684478 -0.000001 -0.000004 -0.000001 0.044409
    9 5.309685 -0.003834 0.000000 0.142368 0.009791 -0.069090
    10 4.826790 -0.004591 0.000000 0.044925 -0.000419 0.008700
    11 5.792767 -0.005304 0.000000 -0.153324 0.002780 0.017236
    12 6.662317 -0.001453 0.000000 0.000000 -0.000001 0.471000
    13 2.046985 -0.000002 0.000000 0.027013 0.005449 -0.272235
    14 -3.112024 1.517254 4.341911 -1.179924 -1.081802 3.803928
    15 4.827230 0.000000 0.000001 0.712352 1.213494 0.338582
    16 11.139763 0.000000 0.000000 0.000000 0.000000 -0.165170
    17 10.314597 0.000001 0.000000 -1.570000 0.000000 0.244762
    18 2.975834 -0.386307 -0.044143 -0.000797 -0.043611 0.000035
    19 1.438886 0.000000 0.000000 0.000000 0.000000 0.314000
    20 1.485303 0.000000 0.000000 0.000000 0.000000 0.104667
    21 -2.869898 1.399663 -4.140396 -0.948870 1.235947 1.748251
    22 4.972048 0.000000 0.000001 0.578987 -1.280539 -0.173936
    23 11.585355 0.000000 0.000000 0.000000 0.000000 -1.495951
    24 10.127057 0.000000 0.000001 1.569752 0.000000 -0.069778
    25 2.683750 -0.427338 0.044205 0.001045 0.043611 0.000046
    26 1.438885 -0.000001 0.000000 0.000000 0.000000 1.064097
    27 1.485305 0.000001 0.000000 0.000000 0.000000 1.229794
    28 1.646738 0.449549 -1.702246 0.154002 0.442277 0.277235
    29 0.928312 0.000000 -0.000002 0.000000 0.000000 0.000000
    30 0.928314 0.000000 0.000001 0.000000 0.000000 0.000000
    31 1.533672 0.109715 1.664491 -0.233255 -0.412980 0.435684
    32 0.928313 0.000000 0.000000 0.000000 0.000000 0.000000
    33 0.928314 0.000000 0.000001 0.000000 0.000000 0.000000
  time 3
    0 0.235347 -6.658340 3.458612 0.000000 0.000000 -1.618569
    1 0.320322 0.042970 0.000000 -1.570795 -1.570796 0.000000
    2 -0.000005 0.000007 3.713255 -0.054497 3.128509 -0.172735
    3 18.045721 0.000000 0.000000 0.000000 0.000000 -0.292928
    4 17.597597 0.000000 0.000000 0.003826 0.022214 0.121105
    5 0.000005 -0.000003 -3.713255 -0.003098 -3.124334 0.012544
    6 18.045725 0.000000 0.000000 0.000000 0.000000 -0.804909
    7 17.597597 0.000000 0.000000 0.008688 -0.011056 0.013016
    8 1.293670 0.684478 -0.000001 -0.000004 -0.000001 0.044409
    9 5.309685 -0.003834 0.000000 0.125902 0.008665 -0.069235
    10 4.826790 -0.004591 0.000000 0.033382 -0.000312 0.008700
    11 5.792767 -0.005304 0.000000 -0.163239 0.002960 0.017216
    12 6.662317 -0.001453 0.000000 0.000000 -0.000001 0.471000
    13 2.046985 -0.000002 0.000000 0.052949 -0.001711 -0.272774
    14 -3.112024 1.517254 4.341911 -1.153463 -1.107074 3.780342
    15 4.827230 0.000000 0.000001 0.572207 1.250342 0.236631
    16 11.139763 0.000000 0.000000 0.000000 0.000000 -0.165170
    17 10.314597 0.000001 0.000000 -1.570000 0.000000 0.207630
    18 2.975834 -0.386307 -0.044143 -0.000797 -0.043611 0.000035
    19 1.438886 0.000000 0.000000 0.000000 0.000000 0.314000
    20 1.485303 0.000000 0.000000 0.000000 0.000000 0.104667
    21 -2.869898 1.399663 -4.140396 -0.948870 1.235947 1.748251
    22 4.972048 0.000000 0.000001 0.501787 -1.290916 -0.132832
    23 11.585355 0.000000 0.000000 0.000000 0.000000 -1.505815
    24 10.127057 0.000000 0.000001 1.569752 0.000000 -0.069778
    25 2.683750 -0.427338 0.044205 0.001045 0.043611 0.000046
    26 1.438885 -0.000001 0.000000 0.000000 0.000000 1.064097
    27 1.485305 0.000001 0.000000 0.000000 0.000000 1.229794
    28 1.646738 0.449549 -1.702246 0.154002 0.442277 0.277235
    29 0.928312 0.000000 -0.000002 0.000000 0.000000 0.000000
    30 0.928314 0.000000 0.000001 0.000000 0.000000 0.000000
    31 1.533672 0.109715 1.664491 -0.233255 -0.412980 0.435684
    32 0.928313 0.000000 0.000000 0.000000 0.000000 0.000000
    33 0.928314 0.000000 0.000001 0.000000 0.000000 0.000000
  time 4
    0 0.235347 -9.165733 3.642212 0.000000 0.000000 -1.599947
    1 0.320322 0.039064 0.000000 -1.570795 -1.570796 0.000000
    2 -0.000005 0.000007 3.713255 -0.017691 3.119521 -0.049364
    3 18.045721 0.000000 0.000000 0.000000 0.000000 -0.196825
    4 17.597597 0.000000 0.000000 -0.012373 0.022847 0.147824
    5 0.000005 -0.000003 -3.713255 -0.002046 -3.124238 -0.056157
    6 18.045725 0.000000 0.000000 0.000000 0.000000 -0.939004
    7 17.597597 0.000000 0.000000 0.013569 -0.008512 -0.049311
    8 1.293670 0.684478 -0.000001 -0.000004 -0.000001 0.044409
    9 5.309685 -0.003834 0.000000 0.107318 0.007394 -0.069398
    10 4.826790 -0.004591 0.000000 0.020344 -0.000192 0.008700
    11 5.792767 -0.005304 0.000000 -0.174409 0.003164 0.017174
    12 6.662317 -0.001453 0.000000 0.000000 -0.000001 0.471000
    13 2.046985 -0.000002 0.000000 0.082331 -0.009794 -0.273718
    14 -3.112024 1.517254 4.341911 -1.120099 -1.135231 3.750333
    15 4.827230 0.000000 0.000001 0.373502 1.281319 0.080861
    16 11.139763 0.000000 0.000000 0.000000 0.000000 -0.165170
    17 10.314597 0.000001 0.000000 -1.570000 0.000000 0.165707
    18 2.975834 -0.386307 -0.044143 -0.000797 -0.043611 0.000035
    19 1.438886 0.000000 0.000000 0.000000 0.000000 0.314000
    20 1.485303 0.000000 0.000000 0.000000 0.000000 0.104667
    21 -2.869898 1.399663 -4.140396 -0.948870 1.235947 1.748251
    22 4.972048 0.000000 0.000001 0.408188 -1.300650 -0.080002
    23 11.585355 0.000000 0.000000 0.000000 0.000000 -1.517008
    24 10.127057 0.000000 0.000001 1.569752 0.000000 -0.069778
    25 2.683750 -0.427338 0.044205 0.001045 0.043611 0.000046
    26 1.438885 -0.000001 0.000000 0.000000 0.000000 1.064097
    27 1.485305 0.000001 0.000000 0.000000 0.000000 1.229794
    28 1.646738 0.449549 -1.702246 0.154002 0.442277 0.277235
    29 0.928312 0.000000 -0.000002 0.000000 0.000000 0.000000
    30 0.928314 0.000000 0.000001 0.000000 0.000000 0.000000
    31 1.533672 0.109715 1.664491 -0.233255 -0.412980 0.435684
    32 0.928313 0.000000 0.000000 0.000000 0.000000 0.000000
    33 0.928314 0.000000 0.000001 0.000000 0.000000 0.000000
  time 5
    0 0.235347 -11.684846 3.704714 0.000000 0.000000 -1.580090
    1 0.320322 0.031251 0.000000 -1.570795 -1.570796 0.000000
    2 -0.000005 0.000007 3.713255 0.005696 3.118182 0.122160
    3 18.045721 0.000000 0.000000 0.000000 0.000000 -0.001799
    4 17.597597 0.000000 0.000000 -0.012094 0.023918 0.123758
    5 0.000005 -0.000003 -3.713255 -0.000419 -3.124142 -0.145513
    6 18.045725 0.000000 0.000000 0.000000 0.000000 -1.008551
    7 17.597597 0.000000 0.000000 0.015647 -0.007920 -0.070293
    8 1.293670 0.684478 -0.000001 -0.000004 -0.000001 0.044409
    9 5.309685 -0.003834 0.000000 0.087522 0.006028 -0.069524
    10 4.826790 -0.004591 0.000000 0.006453 -0.000060 0.008700
    11 5.792767 -0.005304 0.000000 -0.186314 0.003368 0.017133
    12 6.662317 -0.001453 0.000000 0.000000 -0.000001 0.471000
    13 2.046985 -0.000002 0.000000 0.113523 -0.018327 -0.274977
    14 -3.112024 1.517254 4.341911 -1.079929 -1.164696 3.713612
    15 4.827230 0.000000 0.000001 0.121700 1.297658 -0.125490
    16 11.139763 0.000000 0.000000 0.000000 0.000000 -0.165170
    17 10.314597 0.000001 0.000000 -1.570000 0.000000 0.121077
    18 2.975834 -0.386307 -0.044143 -0.000797 -0.043611 0.000035
    19 1.438886 0.000000 0.000000 0.000000 0.000000 0.314000
    20 1.485303 0.000000 0.000000 0.000000 0.000000 0.104667
    21 -2.869898 1.399663 -4.140396 -0.948870 1.235947 1.748251
    22 4.972048 0.000000 0.000001 0.301748 -1.308694 -0.016830
    23 11.585355 0.000000 0.000000 0.000000 0.000000 -1.528901
    24 10.127057 0.000000 0.000001 1.569752 0.000000 -0.069778
    25 2.683750 -0.427338 0.044205 0.001045 0.043611 0.000046
    26 1.438885 -0.000001 0.000000 0.000000 0.000000 1.064097
    27 1.485305 0.000001 0.000000 0.000000 0.000000 1.229794
    28 1.646738 0.449549 -1.702246 0.154002 0.442277 0.277235
    29 0.928312 0.000000 -0.000002 0.000000 0.000000 0.000000
    30 0.928314 0.000000 0.000001 0.000000 0.000000 0.000000
    31 1.533672 0.109715 1.664491 -0.233255 -0.412980 0.435684
    32 0.928313 0.000000 0.000000 0.000000 0.000000 0.000000
    33 0.928314 0.000000 0.000001 0.000000 0.000000 0.000000
  time 6
    0 0.235347 -14.207864 3.646118 0.000000 0.000000 -1.559947
    1 0.320322 0.027345 0.000000 -1.570795 -1.570796 0.000000
    2 -0.000005 0.000007 3.713255 0.007805 3.117704 0.149808
    3 18.045721 0.000000 0.000000 0.000000 0.000000 -0.073858
    4 17.597597 0.000000 0.000000 -0.011105 0.024210 0.150615
    5 0.000005 -0.000003 -3.713255 0.000537 -3.123855 -0.268225
    6 18.045725 0.000000 0.000000 0.000000 0.000000 -1.010724
    7 17.597597 0.000000 0.000000 0.014311 -0.009320 -0.054153
    8 1.293670 0.684478 -0.000001 -0.000004 -0.000001 0.044409
    9 5.309685 -0.003834 0.000000 0.067432 0.004650 -0.069633
    10 4.826790 -0.004591 0.000000 -0.007619 0.000072 0.008700
    11 5.792767 -0.005304 0.000000 -0.198398 0.003595 0.017091
    12 6.662317 -0.001453 0.000000 0.000000 -0.000001 0.471000
    13 2.046985 -0.000002 0.000000 0.145017 -0.026950 -0.276505
    14 -3.112024 1.517254 4.341911 -1.033143 -1.193930 3.670372
    15 4.827230 0.000000 0.000001 -0.146373 1.293488 -0.347769
    16 11.139763 0.000000 0.000000 0.000000 0.000000 -0.165170
    17 10.314597 0.000001 0.000000 -1.570000 0.000000 0.075763
    18 2.975834 -0.386307 -0.044143 -0.000797 -0.043611 0.000035
    19 1.438886 0.000000 0.000000 0.000000 0.000000 0.314000
    20 1.485303 0.000000 0.000000 0.000000 0.000000 0.104667
    21 -2.869898 1.399663 -4.140396 -0.948870 1.235947 1.748251
    22 4.972048 0.000000 0.000001 0.188036 -1.314003 0.052995
    23 11.585355 0.000000 0.000000 0.000000 0.000000 -1.541003
    24 10.127057 0.000000 0.000001 1.569752 0.000000 -0.069778
    25 2.683750 -0.427338 0.044205 0.001045 0.043611 0.000046
    26 1.438885 -0.000001 0.000000 0.000000 0.000000 1.064097
    27 1.485305 0.000001 0.000000 0.000000 0.000000 1.229794
    28 1.646738 0.449549 -1.702246 0.154002 0.442277 0.277235
    29 0.928312 0.000000 -0.000002 0.000000 0.000000 0.000000
    30 0.928314 0.000000 0.000001 0.000000 0.000000 0.000000
    31 1.533672 0.109715 1.664491 -0.233255 -0.412980 0.435684
    32 0.928313 0.000000 0.000000 0.000000 0.000000 0.000000
    33 0.928314 0.000000 0.000001 0.000000 0.000000 0.000000
  time 7
    0 0.235347 -16.734790 3.509395 0.000000 0.000000 -1.540375
    1 0.320322 0.019532 0.000000 -1.570795 -1.570796 0.000000
    2 -0.000005 0.000007 3.713255 0.007709 3.117226 0.161178
    3 18.045721 0.000000 0.000000 0.000000 0.000000 -0.161797
    4 17.597597 0.000000 0.000000 -0.010243 0.024308 0.178891
    5 0.000005 -0.000003 -3.713255 0.001303 -3.123664 -0.370187
    6 18.045725 0.000000 0.000000 0.000000 0.000000 -1.007609
    7 17.597597 0.000000 0.000000 0.012827 -0.010405 -0.038700
    8 1.293670 0.684478 -0.000001 -0.000004 -0.000001 0.044409
    9 5.309685 -0.003834 0.000000 0.047942 0.003308 -0.069706
    10 4.826790 -0.004591 0.000000 -0.021297 0.000192 0.008700
    11 5.792767 -0.005304 0.000000 -0.210107 0.003799 0.017050
    12 6.662317 -0.001453 0.000000 0.000000 -0.000001 0.471000
    13 2.046985 -0.000002 0.000000 0.175261 -0.035258 -0.278168
    14 -3.112024 1.517254 4.341911 -0.980700 -1.221434 3.621380
    15 4.827230 0.000000 0.000001 -0.381259 1.270256 -0.538368
    16 11.139763 0.000000 0.000000 0.000000 0.000000 -0.165170
    17 10.314597 0.000001 0.000000 -1.570000 0.000000 0.031817
    18 2.975834 -0.386307 -0.044143 -0.000797 -0.043611 0.000035
    19 1.438886 0.000000 0.000000 0.000000 0.000000 0.314000
    20 1.485303 0.000000 0.000000 0.000000 0.000000 0.104667
    21 -2.869898 1.399663 -4.140396 -0.948870 1.235947 1.748251
    22 4.972048 0.000000 0.000001 0.074325 -1.316175 0.124137
    23 11.585355 0.000000 0.000000 0.000000 0.000000 -1.552756
    24 10.127057 0.000000 0.000001 1.569752 0.000000 -0.069778
    25 2.683750 -0.427338 0.044205 0.001045 0.043611 0.000046
    26 1.438885 -0.000001 0.000000 0.000000 0.000000 1.064097
    27 1.485305 0.000001 0.000000 0.000000 0.000000 1.229794
    28 1.646738 0.449549 -1.702246 0.154002 0.442277 0.277235
    29 0.928312 0.000000 -0.000002 0.000000 0.000000 0.000000
    30 0.928314 0.000000 0.000001 0.000000 0.000000 0.000000
    31 1.533672 0.109715 1.664491 -0.233255 -0.412980 0.435684
    32 0.928313 0.000000 0.000000 0.000000 0.000000 0.000000
    33 0.928314 0.000000 0.000001 0.000000 0.000000 0.000000
  time 8
    0 0.235347 -19.257809 3.345328 0.000000 0.000000 -1.522418
    1 0.324229 0.015625 0.000000 -1.570795 -1.570796 0.000000
    2 -0.000005 0.000007 3.713255 0.007326 3.116748 0.169390
    3 18.045721 0.000000 0.000000 0.000000 0.000000 -0.239273
    4 17.597597 0.000000 0.000000 -0.009610 0.024405 0.203231
    5 0.000005 -0.000003 -3.713255 0.002642 -3.123759 -0.469579
    6 18.045725 0.000000 0.000000 0.000000 0.000000 -0.998119
    7 17.597597 0.000000 0.000000 0.011162 -0.011825 -0.015143
    8 1.293670 0.684478 -0.000001 -0.000004 -0.000001 0.044409
    9 5.309685 -0.003834 0.000000 0.029970 0.002061 -0.069760
    10 4.826790 -0.004591 0.000000 -0.033907 0.000312 0.008700
    11 5.792767 -0.005304 0.000000 -0.220919 0.003991 0.017008
    12 6.662317 -0.001453 0.000000 0.000000 -0.000001 0.471000
    13 2.046985 -0.000002 0.000000 0.202705 -0.042936 -0.279696
    14 -3.112024 1.517254 4.341911 -0.924998 -1.245898 3.568840
    15 4.827230 0.000000 0.000001 -0.557821 1.235535 -0.674273
    16 11.139763 0.000000 0.000000 0.000000 0.000000 -0.165170
    17 10.314597 0.000001 0.000000 -1.570000 0.000000 -0.008737
    18 2.975834 -0.386307 -0.044143 -0.000797 -0.043611 0.000035
    19 1.438886 0.000000 0.000000 0.000000 0.000000 0.314000
    20 1.485303 0.000000 0.000000 0.000000 0.000000 0.104667
    21 -2.869898 1.399663 -4.140396 -0.948870 1.235947 1.748251
    22 4.972048 0.000000 0.000001 -0.031419 -1.315531 0.190668
    23 11.585355 0.000000 0.000000 0.000000 0.000000 -1.563529
    24 10.127057 0.000000 0.000001 1.569752 0.000000 -0.069778
    25 2.683750 -0.427338 0.044205 0.001045 0.043611 0.000046
    26 1.438885 -0.000001 0.000000 0.000000 0.000000 1.064097
    27 1.485305 0.000001 0.000000 0.000000 0.000000 1.229794
    28 1.646738 0.449549 -1.702246 0.154002 0.442277 0.277235
    29 0.928312 0.000000 -0.000002 0.000000 0.000000 0.000000
    30 0.928314 0.000000 0.000001 0.000000 0.000000 0.000000
    31 1.533672 0.109715 1.664491 -0.233255 -0.412980 0.435684
    32 0.928313 0.000000 0.000000 0.000000 0.000000 0.000000
    33 0.928314 0.000000 0.000001 0.000000 0.000000 0.000000
  time 9
    0 0.235347 -21.780828 3.169541 0.000000 0.000000 -1.506741
    1 0.324229 0.011719 0.000000 -1.570795 -1.570796 0.000000
    2 -0.000005 0.000007 3.713255 0.007230 3.116366 0.181198
    3 18.045721 0.000000 0.000000 0.000000 0.000000 -0.305692
    4 17.597597 0.000000 0.000000 -0.009255 0.024478 0.224369
    5 0.000005 -0.000003 -3.713255 0.006947 -3.125482 -0.577600
    6 18.045725 0.000000 0.000000 0.000000 0.000000 -0.964142
    7 17.597597 0.000000 0.000000 0.008540 -0.015336 0.046703
    8 1.293670 0.684478 -0.000001 -0.000004 -0.000001 0.044409
    9 5.309685 -0.003834 0.000000 0.014409 0.000995 -0.069778
    10 4.826790 -0.004591 0.000000 -0.044827 0.000419 0.008700
    11 5.792767 -0.005304 0.000000 -0.230279 0.004159 0.016966
    12 6.662317 -0.001453 0.000000 0.000000 -0.000001 0.471000
    13 2.046985 -0.000002 0.000000 0.225798 -0.049646 -0.280955
    14 -3.112024 1.517254 4.341911 -0.869967 -1.266246 3.516491
    15 4.827230 0.000000 0.000001 -0.678759 1.197750 -0.760121
    16 11.139763 0.000000 0.000000 0.000000 0.000000 -0.165170
    17 10.314597 0.000001 0.000000 -1.570000 0.000000 -0.043831
    18 2.975834 -0.386307 -0.044143 -0.000797 -0.043611 0.000035
    19 1.438886 0.000000 0.000000 0.000000 0.000000 0.314000
    20 1.485303 0.000000 0.000000 0.000000 0.000000 0.104667
    21 -2.869898 1.399663 -4.140396 -0.948870 1.235947 1.748251
    22 4.972048 0.000000 0.000001 -0.121924 -1.312957 0.247319
    23 11.585355 0.000000 0.000000 0.000000 0.000000 -1.572904
    24 10.127057 0.000000 0.000001 1.569752 0.000000 -0.069778
    25 2.683750 -0.427338 0.044205 0.001045 0.043611 0.000046
    26 1.438885 -0.000001 0.000000 0.000000 0.000000 1.064097
    27 1.485305 0.000001 0.000000 0.000000 0.000000 1.229794
    28 1.646738 0.449549 -1.702246 0.154002 0.442277 0.277235
    29 0.928312 0.000000 -0.000002 0.000000 0.000000 0.000000
    30 0.928314 0.000000 0.000001 0.000000 0.000000 0.000000
    31 1.533672 0.109715 1.664491 -0.233255 -0.412980 0.435684
    32 0.928313 0.000000 0.000000 0.000000 0.000000 0.000000
    33 0.928314 0.000000 0.000001 0.000000 0.000000 0.000000
  time 10
    0 0.235347 -24.292127 3.005473 0.000000 0.000000 -1.494485
    1 0.324229 0.007813 0.000000 -1.570795 -1.570796 0.000000
    2 -0.000005 0.000007 3.713255 0.008284 3.116557 0.222888
    3 18.045721 0.000000 0.000000 0.000000 0.000000 -0.307102
    4 17.597597 0.000000 0.000000 -0.008824 0.024648 0.258729
    5 0.000005 -0.000003 -3.713255 0.038995 -3.141086 -0.528583
    6 18.045725 0.000000 0.000000 0.000000 0.000000 -0.693561
    7 17.597597 0.000000 0.000000 -0.005856 -0.022772 0.456310
    8 1.293670 0.684478 -0.000001 -0.000004 -0.000001 0.044409
    9 5.309685 -0.003834 0.000000 0.002167 0.000144 -0.069778
    10 4.826790 -0.004591 0.000000 -0.053414 0.000503 0.008700
    11 5.792767 -0.005304 0.000000 -0.237634 0.004290 0.016946
    12 6.662317 -0.001453 0.000000 0.000000 -0.000001 0.471000
    13 2.046985 -0.000002 0.000000 0.243074 -0.055117 -0.281494
    14 -3.112024 1.517254 4.341911 -0.821551 -1.281517 3.470087
    15 4.827230 0.000000 0.000001 -0.755762 1.164391 -0.809653
    16 11.139763 0.000000 0.000000 0.000000 0.000000 -0.165170
    17 10.314597 0.000001 0.000000 -1.570000 0.000000 -0.071411
    18 2.975834 -0.386307 -0.044143 -0.000797 -0.043611 0.000035
    19 1.438886 0.000000 0.000000 0.000000 0.000000 0.314000
    20 1.485303 0.000000 0.000000 0.000000 0.000000 0.104667
    21 -2.869898 1.399663 -4.140396 -0.948870 1.235947 1.748251
    22 4.972048 0.000000 0.000001 -0.191620 -1.309659 0.290399
    23 11.585355 0.000000 0.000000 0.000000 0.000000 -1.580249
    24 10.127057 0.000000 0.000001 1.569752 0.000000 -0.069778
    25 2.683750 -0.427338 0.044205 0.001045 0.043611 0.000046
    26 1.438885 -0.000001 0.000000 0.000000 0.000000 1.064097
    27 1.485305 0.000001 0.000000 0.000000 0.000000 1.229794
    28 1.646738 0.449549 -1.702246 0.154002 0.442277 0.277235
    29 0.928312 0.000000 -0.000002 0.000000 0.000000 0.000000
    30 0.928314 0.000000 0.000001 0.000000 0.000000 0.000000
    31 1.533672 0.109715 1.664491 -0.233255 -0.412980 0.435684
    32 0.928313 0.000000 0.000000 0.000000 0.000000 0.000000
    33 0.928314 0.000000 0.000001 0.000000 0.000000 0.000000
  time 11
    0 0.235347 -26.795614 2.872657 0.000000 0.000000 -1.486504
    1 0.324229 0.003906 0.000000 -1.570795 -1.570796 0.000000
    2 -0.000005 0.000007 3.713255 0.009339 3.117035 0.266766
    3 18.045721 0.000000 0.000000 0.000000 0.000000 -0.279199
    4 17.597597 0.000000 0.000000 -0.008950 0.024600 0.283985
    5 0.000005 -0.000003 -3.713255 0.089123 -3.158412 -0.383229
    6 18.045725 0.000000 0.000000 0.000000 0.000000 -0.284466
    7 17.597597 0.000000 0.000000 -0.004009 -0.014843 0.040453
    8 1.293670 0.684478 -0.000001 -0.000004 -0.000001 0.044409
    9 5.309685 -0.003834 0.000000 -0.005827 -0.000395 -0.069778
    10 4.826790 -0.004591 0.000000 -0.059030 0.000551 0.008700
    11 5.792767 -0.005304 0.000000 -0.242445 0.004374 0.016925
    12 6.662317 -0.001453 0.000000 0.000000 -0.000001 0.471000
    13 2.046985 -0.000002 0.000000 0.253026 -0.059012 -0.281134
    14 -3.112024 1.517254 4.341911 -0.787132 -1.291172 3.437106
    15 4.827230 0.000000 0.000001 -0.798875 1.141328 -0.834856
    16 11.139763 0.000000 0.000000 0.000000 0.000000 -0.165170
    17 10.314597 0.000001 0.000000 -1.570000 0.000000 -0.089456
    18 2.975834 -0.386307 -0.044143 -0.000797 -0.043611 0.000035
    19 1.438886 0.000000 0.000000 0.000000 0.000000 0.314000
    20 1.485303 0.000000 0.000000 0.000000 0.000000 0.104667
    21 -2.869898 1.399663 -4.140396 -0.948870 1.235947 1.748251
    22 4.972048 0.000000 0.000001 -0.236331 -1.306844 0.317539
    23 11.585355 0.000000 0.000000 0.000000 0.000000 -1.585076
    24 10.127057 0.000000 0.000001 1.569752 0.000000 -0.069778
    25 2.683750 -0.427338 0.044205 0.001045 0.043611 0.000046
    26 1.438885 -0.000001 0.000000 0.000000 0.000000 1.064097
    27 1.485305 0.000001 0.000000 0.000000 0.000000 1.229794
    28 1.646738 0.449549 -1.702246 0.154002 0.442277 0.277235
    29 0.928312 0.000000 -0.000002 0.000000 0.000000 0.000000
    30 0.928314 0.000000 0.000001 0.000000 0.000000 0.000000
    31 1.533672 0.109715 1.664491 -0.233255 -0.412980 0.435684
    32 0.928313 0.000000 0.000000 0.000000 0.000000 0.000000
    33 0.928314 0.000000 0.000001 0.000000 0.000000 0.000000
  time 12
    0 0.235347 -29.283476 2.814061 0.000000 0.000000 -1.483654
    1 0.324229 0.003906 0.000000 -1.570795 -1.570796 0.000000
    2 -0.000005 0.000007 3.713255 0.008668 3.116844 0.240235
    3 18.045721 0.000000 0.000000 0.000000 0.000000 -0.348215
    4 17.597597 0.000000 0.000000 -0.011333 0.023577 0.239421
    5 0.000005 -0.000003 -3.713255 0.106343 -3.158795 -0.264977
    6 18.045725 0.000000 0.000000 0.000000 0.000000 -0.057787
    7 17.597597 0.000000 0.000000 -0.002525 -0.011293 -0.207516
    8 1.293670 0.684478 -0.000001 -0.000004 -0.000001 0.044409
    9 5.309685 -0.003834 0.000000 -0.008692 -0.000599 -0.069778
    10 4.826790 -0.004591 0.000000 -0.061050 0.000575 0.008700
    11 5.792767 -0.005304 0.000000 -0.244173 0.004398 0.016904
    12 6.662317 -0.001453 0.000000 0.000000 -0.000001 0.471000
    13 2.046985 -0.000002 0.000000 0.254275 -0.061061 -0.279382
    14 -3.112024 1.517254 4.341911 -0.774189 -1.294557 3.424642
    15 4.827230 0.000000 0.000001 -0.813089 1.132818 -0.842644
    16 11.139763 0.000000 0.000000 0.000000 0.000000 -0.165170
    17 10.314597 0.000001 0.000000 -1.570000 0.000000 -0.095943
    18 2.975834 -0.386307 -0.044143 -0.000797 -0.043611 0.000035
    19 1.438886 0.000000 0.000000 0.000000 0.000000 0.314000
    20 1.485303 0.000000 0.000000 0.000000 0.000000 0.104667
    21 -2.869898 1.399663 -4.140396 -0.948870 1.235947 1.748251
    22 4.972048 0.000000 0.000001 -0.252112 -1.305717 0.327090
    23 11.585355 0.000000 0.000000 0.000000 0.000000 -1.586825
    24 10.127057 0.000000 0.000001 1.569752 0.000000 -0.069778
    25 2.683750 -0.427338 0.044205 0.001045 0.043611 0.000046
    26 1.438885 -0.000001 0.000000 0.000000 0.000000 1.064097
    27 1.485305 0.000001 0.000000 0.000000 0.000000 1.229794
    28 1.646738 0.449549 -1.702246 0.154002 0.442277 0.277235
    29 0.928312 0.000000 -0.000002 0.000000 0.000000 0.000000
    30 0.928314 0.000000 0.000001 0.000000 0.000000 0.000000
    31 1.533672 0.109715 1.664491 -0.233255 -0.412980 0.435684
    32 0.928313 0.000000 0.000000 0.000000 0.000000 0.000000
    33 0.928314 0.000000 0.000001 0.000000 0.000000 0.000000
  time 13
    0 0.235347 -31.732274 2.892189 0.000000 0.000000 -1.486504
    1 0.324229 0.003906 0.000000 -1.570795 -1.570796 0.000000
    2 -0.000005 0.000007 3.713255 0.006463 3.116174 0.152286
    3 18.045721 0.000000 0.000000 0.000000 0.000000 -0.520383
    4 17.597597 0.000000 0.000000 -0.015820 0.020827 0.122111
    5 0.000005 -0.000003 -3.713255 0.089601 -3.150084 -0.193124
    6 18.045725 0.000000 0.000000 0.000000 0.000000 -0.017000
    7 17.597597 0.000000 0.000000 -0.001354 -0.008689 -0.184920
    8 1.293670 0.684478 -0.000001 -0.000004 -0.000001 0.044409
    9 5.309685 -0.003834 0.000000 -0.005827 -0.000395 -0.069778
    10 4.826790 -0.004591 0.000000 -0.059030 0.000551 0.008700
    11 5.792767 -0.005304 0.000000 -0.242445 0.004374 0.016925
    12 6.662317 -0.001453 0.000000 0.000000 -0.000001 0.471000
    13 2.046985 -0.000002 0.000000 0.245486 -0.061016 -0.276010
    14 -3.112024 1.517254 4.341911 -0.787132 -1.291172 3.437106
    15 4.827230 0.000000 0.000001 -0.798875 1.141328 -0.834856
    16 11.139763 0.000000 0.000000 0.000000 0.000000 -0.165170
    17 10.314597 0.000001 0.000000 -1.570000 0.000000 -0.089456
    18 2.975834 -0.386307 -0.044143 -0.000797 -0.043611 0.000035
    19 1.438886 0.000000 0.000000 0.000000 0.000000 0.314000
    20 1.485303 0.000000 0.000000 0.000000 0.000000 0.104667
    21 -2.869898 1.399663 -4.140396 -0.948870 1.235947 1.748251
    22 4.972048 0.000000 0.000001 -0.236331 -1.306844 0.317539
    23 11.585355 0.000000 0.000000 0.000000 0.000000 -1.585076
    24 10.127057 0.000000 0.000001 1.569752 0.000000 -0.069778
    25 2.683750 -0.427338 0.044205 0.001045 0.043611 0.000046
    26 1.438885 -0.000001 0.000000 0.000000 0.000000 1.064097
    27 1.485305 0.000001 0.000000 0.000000 0.000000 1.229794
    28 1.646738 0.449549 -1.702246 0.154002 0.442277 0.277235
    29 0.928312 0.000000 -0.000002 0.000000 0.000000 0.000000
    30 0.928314 0.000000 0.000001 0.000000 0.000000 0.000000
    31 1.533672 0.109715 1.664491 -0.233255 -0.412980 0.435684
    32 0.928313 0.000000 0.000000 0.000000 0.000000 0.000000
    33 0.928314 0.000000 0.000001 0.000000 0.000000 0.000000
  time 14
    0 0.235347 -34.142008 3.114852 0.000000 0.000000 -1.494485
    1 0.324229 0.007813 0.000000 -1.570795 -1.570796 0.000000
    2 -0.000005 0.000007 3.713255 0.003588 3.115601 0.039314
    3 18.045721 0.000000 0.000000 0.000000 0.000000 -0.733813
    4 17.597597 0.000000 0.000000 -0.020510 0.016250 -0.028598
    5 0.000005 -0.000003 -3.713255 0.064154 -3.140799 -0.133198
    6 18.045725 0.000000 0.000000 0.000000 0.000000 -0.022216
    7 17.597597 0.000000 0.000000 -0.000068 -0.008453 -0.104427
    8 1.293670 0.684478 -0.000001 -0.000004 -0.000001 0.044409
    9 5.309685 -0.003834 0.000000 0.002167 0.000144 -0.069778
    10 4.826790 -0.004591 0.000000 -0.053414 0.000503 0.008700
    11 5.792767 -0.005304 0.000000 -0.237634 0.004290 0.016946
    12 6.662317 -0.001453 0.000000 0.000000 -0.000001 0.471000
    13 2.046985 -0.000002 0.000000 0.226918 -0.058922 -0.271291
    14 -3.112024 1.517254 4.341911 -0.821551 -1.281517 3.470087
    15 4.827230 0.000000 0.000001 -0.755762 1.164391 -0.809653
    16 11.139763 0.000000 0.000000 0.000000 0.000000 -0.165170
    17 10.314597 0.000001 0.000000 -1.570000 0.000000 -0.071411
    18 2.975834 -0.386307 -0.044143 -0.000797 -0.043611 0.000035
    19 1.438886 0.000000 0.000000 0.000000 0.000000 0.314000
    20 1.485303 0.000000 0.000000 0.000000 0.000000 0.104667
    21 -2.869898 1.399663 -4.140396 -0.948870 1.235947 1.748251
    22 4.972048 0.000000 0.000001 -0.191620 -1.309659 0.290399
    23 11.585355 0.000000 0.000000 0.000000 0.000000 -1.580249
    24 10.127057 0.000000 0.000001 1.569752 0.000000 -0.069778
    25 2.683750 -0.427338 0.044205 0.001045 0.043611 0.000046
    26 1.438885 -0.000001 0.000000 0.000000 0.000000 1.064097
    27 1.485305 0.000001 0.000000 0.000000 0.000000 1.229794
    28 1.646738 0.449549 -1.702246 0.154002 0.442277 0.277235
    29 0.928312 0.000000 -0.000002 0.000000 0.000000 0.000000
    30 0.928314 0.000000 0.000001 0.000000 0.000000 0.000000
    31 1.533672 0.109715 1.664491 -0.233255 -0.412980 0.435684
    32 0.928313 0.000000 0.000000 0.000000 0.000000 0.000000
    33 0.928314 0.000000 0.000001 0.000000 0.000000 0.000000
  time 15
    0 0.235347 -36.536117 3.400017 0.000000 0.000000 -1.506741
    1 0.324229 0.011719 0.000000 -1.570795 -1.570796 0.000000
    2 -0.000005 0.000007 3.713255 0.000616 3.115505 -0.079053
    3 18.045721 0.000000 0.000000 0.000000 0.000000 -0.944423
    4 17.597597 0.000000 0.000000 -0.023780 0.010919 -0.175648
    5 0.000005 -0.000003 -3.713255 0.038803 -3.133428 -0.081951
    6 18.045725 0.000000 0.000000 0.000000 0.000000 -0.043008
    7 17.597597 0.000000 0.000000 0.000988 -0.010445 -0.014216
    8 1.293670 0.684478 -0.000001 -0.000004 -0.000001 0.044409
    9 5.309685 -0.003834 0.000000 0.014409 0.000995 -0.069778
    10 4.826790 -0.004591 0.000000 -0.044827 0.000419 0.008700
    11 5.792767 -0.005304 0.000000 -0.230279 0.004159 0.016966
    12 6.662317 -0.001453 0.000000 0.000000 -0.000001 0.471000
    13 2.046985 -0.000002 0.000000 0.200077 -0.054891 -0.265672
    14 -3.112024 1.517254 4.341911 -0.869967 -1.266246 3.516491
    15 4.827230 0.000000 0.000001 -0.678759 1.197750 -0.760121
    16 11.139763 0.000000 0.000000 0.000000 0.000000 -0.165170
    17 10.314597 0.000001 0.000000 -1.570000 0.000000 -0.043815
    18 2.975834 -0.386307 -0.044143 -0.000797 -0.043611 0.000035
    19 1.438886 0.000000 0.000000 0.000000 0.000000 0.314000
    20 1.485303 0.000000 0.000000 0.000000 0.000000 0.104667
    21 -2.869898 1.399663 -4.140396 -0.948870 1.235947 1.748251
    22 4.972048 0.000000 0.000001 -0.121924 -1.312957 0.247319
    23 11.585355 0.000000 0.000000 0.000000 0.000000 -1.572904
    24 10.127057 0.000000 0.000001 1.569752 0.000000 -0.069778
    25 2.683750 -0.427338 0.044205 0.001045 0.043611 0.000046
    26 1.438885 -0.000001 0.000000 0.000000 0.000000 1.064097
    27 1.485305 0.000001 0.000000 0.000000 0.000000 1.229794
    28 1.646738 0.449549 -1.702246 0.154002 0.442277 0.277235
    29 0.928312 0.000000 -0.000002 0.000000 0.000000 0.000000
    30 0.928314 0.000000 0.000001 0.000000 0.000000 0.000000
    31 1.533672 0.109715 1.664491 -0.233255 -0.412980 0.435684
    32 0.928313 0.000000 0.000000 0.000000 0.000000 0.000000
    33 0.928314 0.000000 0.000001 0.000000 0.000000 0.000000
  time 16
    0 0.235347 -38.930226 3.626586 0.000000 0.000000 -1.522418
    1 0.324229 0.015625 0.000000 -1.570795 -1.570796 0.000000
    2 -0.000005 0.000007 3.713255 -0.002451 3.115505 -0.197127
    3 18.045721 0.000000 0.000000 0.000000 0.000000 -1.132918
    4 17.597597 0.000000 0.000000 -0.025453 0.006075 -0.301193
    5 0.000005 -0.000003 -3.713255 0.015270 -3.127780 -0.034097
    6 18.045725 0.000000 0.000000 0.000000 0.000000 -0.070175
    7 17.597597 0.000000 0.000000 0.001746 -0.013857 0.074312
    8 1.293670 0.684478 -0.000001 -0.000004 -0.000001 0.044409
    9 5.309685 -0.003834 0.000000 0.029970 0.002061 -0.069760
    10 4.826790 -0.004591 0.000000 -0.033907 0.000312 0.008700
    11 5.792767 -0.005304 0.000000 -0.220919 0.003991 0.017008
    12 6.662317 -0.001453 0.000000 0.000000 -0.000001 0.471000
    13 2.046985 -0.000002 0.000000 0.166774 -0.049150 -0.259425
    14 -3.112024 1.517254 4.341911 -0.924998 -1.245898 3.568840
    15 4.827230 0.000000 0.000001 -0.557821 1.235535 -0.674273
    16 11.139763 0.000000 0.000000 0.000000 0.000000 -0.165170
    17 10.314597 0.000001 0.000000 -1.570000 0.000000 -0.008737
    18 2.975834 -0.386307 -0.044143 -0.000797 -0.043611 0.000035
    19 1.438886 0.000000 0.000000 0.000000 0.000000 0.314000
    20 1.485303 0.000000 0.000000 0.000000 0.000000 0.104667
    21 -2.869898 1.399663 -4.140396 -0.948870 1.235947 1.748251
    22 4.972048 0.000000 0.000001 -0.031419 -1.315531 0.190668
    23 11.585355 0.000000 0.000000 0.000000 0.000000 -1.563529
    24 10.127057 0.000000 0.000001 1.569752 0.000000 -0.069778
    25 2.683750 -0.427338 0.044205 0.001045 0.043611 0.000046
    26 1.438885 -0.000001 0.000000 0.000000 0.000000 1.064097
    27 1.485305 0.000001 0.000000 0.000000 0.000000 1.229794
    28 1.646738 0.449549 -1.702246 0.154002 0.442277 0.277235
    29 0.928312 0.000000 -0.000002 0.000000 0.000000 0.000000
    30 0.928314 0.000000 0.000001 0.000000 0.000000 0.000000
    31 1.533672 0.109715 1.664491 -0.233255 -0.412980 0.435684
    32 0.928313 0.000000 0.000000 0.000000 0.000000 0.000000
    33 0.928314 0.000000 0.000001 0.000000 0.000000 0.000000
  time 17
    0 0.235347 -41.351679 3.704714 0.000000 0.000000 -1.540375
    1 0.320322 0.019532 0.000000 -1.570795 -1.570796 0.000000
    2 -0.000005 0.000007 3.713255 -0.005326 3.115887 -0.306407
    3 18.045721 0.000000 0.000000 0.000000 0.000000 -1.266200
    4 17.597597 0.000000 0.000000 -0.025910 0.003568 -0.374901
    5 0.000005 -0.000003 -3.713255 -0.003098 -3.124334 0.013271
    6 18.045725 0.000000 0.000000 0.000000 0.000000 -0.097994
    7 17.597597 0.000000 0.000000 0.002307 -0.017368 0.148555
    8 1.293670 0.684478 -0.000001 -0.000004 -0.000001 0.044409
    9 5.309685 -0.003834 0.000000 0.047942 0.003308 -0.069706
    10 4.826790 -0.004591 0.000000 -0.021297 0.000192 0.008700
    11 5.792767 -0.005304 0.000000 -0.210107 0.003799 0.017050
    12 6.662317 -0.001453 0.000000 0.000000 -0.000001 0.471000
    13 2.046985 -0.000002 0.000000 0.129076 -0.042013 -0.252548
    14 -3.112024 1.517254 4.341911 -0.980700 -1.221434 3.621380
    15 4.827230 0.000000 0.000001 -0.381259 1.270256 -0.538368
    16 11.139763 0.000000 0.000000 0.000000 0.000000 -0.165170
    17 10.314597 0.000001 0.000000 -1.570000 0.000000 0.031817
    18 2.975834 -0.386307 -0.044143 -0.000797 -0.043611 0.000035
    19 1.438886 0.000000 0.000000 0.000000 0.000000 0.314000
    20 1.485303 0.000000 0.000000 0.000000 0.000000 0.104667
    21 -2.869898 1.399663 -4.140396 -0.948870 1.235947 1.748251
    22 4.972048 0.000000 0.000001 0.074325 -1.316175 0.124137
    23 11.585355 0.000000 0.000000 0.000000 0.000000 -1.552756
    24 10.127057 0.000000 0.000001 1.569752 0.000000 -0.069778
    25 2.683750 -0.427338 0.044205 0.001045 0.043611 0.000046
    26 1.438885 -0.000001 0.000000 0.000000 0.000000 1.064097
    27 1.485305 0.000001 0.000000 0.000000 0.000000 1.229794
    28 1.646738 0.449549 -1.702246 0.154002 0.442277 0.277235
    29 0.928312 0.000000 -0.000002 0.000000 0.000000 0.000000
    30 0.928314 0.000000 0.000001 0.000000 0.000000 0.000000
    31 1.533672 0.109715 1.664491 -0.233255 -0.412980 0.435684
    32 0.928313 0.000000 0.000000 0.000000 0.000000 0.000000
    33 0.928314 0.000000 0.000001 0.000000 0.000000 0.000000
  time 18
    0 0.235347 -43.823915 3.653931 0.000000 0.000000 -1.559947
    1 0.320322 0.027345 0.000000 -1.570795 -1.570796 0.000000
    2 -0.000005 0.000007 3.713255 -0.006860 3.116366 -0.396251
    3 18.045721 0.000000 0.000000 0.000000 0.000000 -1.303454
    4 17.597597 0.000000 0.000000 -0.025352 0.004639 -0.363920
    5 0.000005 -0.000003 -3.713255 -0.011325 -3.123376 0.056131
    6 18.045725 0.000000 0.000000 0.000000 0.000000 -0.130739
    7 17.597597 0.000000 0.000000 0.003247 -0.019044 0.200684
    8 1.293670 0.684478 -0.000001 -0.000004 -0.000001 0.044409
    9 5.309685 -0.003834 0.000000 0.067432 0.004650 -0.069633
    10 4.826790 -0.004591 0.000000 -0.007619 0.000072 0.008700
    11 5.792767 -0.005304 0.000000 -0.198398 0.003595 0.017091
    12 6.662317 -0.001453 0.000000 0.000000 -0.000001 0.471000
    13 2.046985 -0.000002 0.000000 0.089182 -0.033817 -0.245176
    14 -3.112024 1.517254 4.341911 -1.033143 -1.193930 3.670372
    15 4.827230 0.000000 0.000001 -0.146373 1.293488 -0.347769
    16 11.139763 0.000000 0.000000 0.000000 0.000000 -0.165170
    17 10.314597 0.000001 0.000000 -1.570000 0.000000 0.075763
    18 2.975834 -0.386307 -0.044143 -0.000797 -0.043611 0.000035
    19 1.438886 0.000000 0.000000 0.000000 0.000000 0.314000
    20 1.485303 0.000000 0.000000 0.000000 0.000000 0.104667
    21 -2.869898 1.399663 -4.140396 -0.948870 1.235947 1.748251
    22 4.972048 0.000000 0.000001 0.188036 -1.314003 0.052995
    23 11.585355 0.000000 0.000000 0.000000 0.000000 -1.541003
    24 10.127057 0.000000 0.000001 1.569752 0.000000 -0.069778
    25 2.683750 -0.427338 0.044205 0.001045 0.043611 0.000046
    26 1.438885 -0.000001 0.000000 0.000000 0.000000 1.064097
    27 1.485305 0.000001 0.000000 0.000000 0.000000 1.229794
    28 1.646738 0.449549 -1.702246 0.154002 0.442277 0.277235
    29 0.928312 0.000000 -0.000002 0.000000 0.000000 0.000000
    30 0.928314 0.000000 0.000001 0.000000 0.000000 0.000000
    31 1.533672 0.109715 1.664491 -0.233255 -0.412980 0.435684
    32 0.928313 0.000000 0.000000 0.000000 0.000000 0.000000
    33 0.928314 0.000000 0.000001 0.000000 0.000000 0.000000
  time 19
    0 0.235347 -46.335215 3.528927 0.000000 0.000000 -1.580090
    1 0.320322 0.031251 0.000000 -1.570795 -1.570796 0.000000
    2 -0.000005 0.000007 3.713255 -0.007531 3.116557 -0.479729
    3 18.045721 0.000000 0.000000 0.000000 0.000000 -1.278742
    4 17.597597 0.000000 0.000000 -0.023780 0.007925 -0.296618
    5 0.000005 -0.000003 -3.713255 -0.011708 -3.123664 0.092445
    6 18.045725 0.000000 0.000000 0.000000 0.000000 -0.176886
    7 17.597597 0.000000 0.000000 0.004599 -0.019005 0.244433
    8 1.293670 0.684478 -0.000001 -0.000004 -0.000001 0.044409
    9 5.309685 -0.003834 0.000000 0.087522 0.006028 -0.069524
    10 4.826790 -0.004591 0.000000 0.006453 -0.000060 0.008700
    11 5.792767 -0.005304 0.000000 -0.186314 0.003368 0.017133
    12 6.662317 -0.001453 0.000000 0.000000 -0.000001 0.471000
    13 2.046985 -0.000002 0.000000 0.049459 -0.024902 -0.237221
    14 -3.112024 1.517254 4.341911 -1.079929 -1.164696 3.713612
    15 4.827230 0.000000 0.000001 0.121700 1.297658 -0.125490
    16 11.139763 0.000000 0.000000 0.000000 0.000000 -0.165170
    17 10.314597 0.000001 0.000000 -1.570000 0.000000 0.121077
    18 2.975834 -0.386307 -0.044143 -0.000797 -0.043611 0.000035
    19 1.438886 0.000000 0.000000 0.000000 0.000000 0.314000
    20 1.485303 0.000000 0.000000 0.000000 0.000000 0.104667
    21 -2.869898 1.399663 -4.140396 -0.948870 1.235947 1.748251
    22 4.972048 0.000000 0.000001 0.301748 -1.308694 -0.016830
    23 11.585355 0.000000 0.000000 0.000000 0.000000 -1.528901
    24 10.127057 0.000000 0.000001 1.569752 0.000000 -0.069778
    25 2.683750 -0.427338 0.044205 0.001045 0.043611 0.000046
    26 1.438885 -0.000001 0.000000 0.000000 0.000000 1.064097
    27 1.485305 0.000001 0.000000 0.000000 0.000000 1.229794
    28 1.646738 0.449549 -1.702246 0.154002 0.442277 0.277235
    29 0.928312 0.000000 -0.000002 0.000000 0.000000 0.000000
    30 0.928314 0.000000 0.000001 0.000000 0.000000 0.000000
    31 1.533672 0.109715 1.664491 -0.233255 -0.412980 0.435684
    32 0.928313 0.000000 0.000000 0.000000 0.000000 0.000000
    33 0.928314 0.000000 0.000001 0.000000 0.000000 0.000000
  time 20
    0 0.235347 -48.858234 3.372672 0.000000 0.000000 -1.599947
    1 0.320322 0.039064 0.000000 -1.570795 -1.570796 0.000000
    2 -0.000005 0.000007 3.713255 -0.008681 3.117035 -0.566366
    3 18.045721 0.000000 0.000000 0.000000 0.000000 -1.202454
    4 17.597597 0.000000 0.000000 -0.020510 0.013646 -0.174138
    5 0.000005 -0.000003 -3.713255 -0.008073 -3.124334 0.123960
    6 18.045725 0.000000 0.000000 0.000000 0.000000 -0.229336
    7 17.597597 0.000000 0.000000 0.005621 -0.017841 0.277090
    8 1.293670 0.684478 -0.000001 -0.000004 -0.000001 0.044409
    9 5.309685 -0.003834 0.000000 0.107318 0.007394 -0.069398
    10 4.826790 -0.004591 0.000000 0.020344 -0.000192 0.008700
    11 5.792767 -0.005304 0.000000 -0.174409 0.003164 0.017174
    12 6.662317 -0.001453 0.000000 0.000000 -0.000001 0.471000
    13 2.046985 -0.000002 0.000000 0.012192 -0.015693 -0.228950
    14 -3.112024 1.517254 4.341911 -1.120099 -1.135231 3.750333
    15 4.827230 0.000000 0.000001 0.373502 1.281319 0.080861
    16 11.139763 0.000000 0.000000 0.000000 0.000000 -0.165170
    17 10.314597 0.000001 0.000000 -1.570000 0.000000 0.165707
    18 2.975834 -0.386307 -0.044143 -0.000797 -0.043611 0.000035
    19 1.438886 0.000000 0.000000 0.000000 0.000000 0.314000
    20 1.485303 0.000000 0.000000 0.000000 0.000000 0.104667
    21 -2.869898 1.399663 -4.140396 -0.948870 1.235947 1.748251
    22 4.972048 0.000000 0.000001 0.408188 -1.300650 -0.080002
    23 11.585355 0.000000 0.000000 0.000000 0.000000 -1.517008
    24 10.127057 0.000000 0.000001 1.569752 0.000000 -0.069778
    25 2.683750 -0.427338 0.044205 0.001045 0.043611 0.000046
    26 1.438885 -0.000001 0.000000 0.000000 0.000000 1.064097
    27 1.485305 0.000001 0.000000 0.000000 0.000000 1.229794
    28 1.646738 0.449549 -1.702246 0.154002 0.442277 0.277235
    29 0.928312 0.000000 -0.000002 0.000000 0.000000 0.000000
    30 0.928314 0.000000 0.000001 0.000000 0.000000 0.000000
    31 1.533672 0.109715 1.664491 -0.233255 -0.412980 0.435684
    32 0.928313 0.000000 0.000000 0.000000 0.000000 0.000000
    33 0.928314 0.000000 0.000001 0.000000 0.000000 0.000000
  time 21
    0 0.235347 -51.350002 3.204698 0.000000 0.000000 -1.618569
    1 0.320322 0.042970 0.000000 -1.570795 -1.570796 0.000000
    2 -0.000005 0.000007 3.713255 -0.013474 3.119138 -0.642459
    3 18.045721 0.000000 0.000000 0.000000 0.000000 -1.094922
    4 17.597597 0.000000 0.000000 -0.013944 0.022141 -0.010343
    5 0.000005 -0.000003 -3.713255 -0.005490 -3.124908 0.153390
    6 18.045725 0.000000 0.000000 0.000000 0.000000 -0.277729
    7 17.597597 0.000000 0.000000 0.005259 -0.016737 0.294706
    8 1.293670 0.684478 -0.000001 -0.000004 -0.000001 0.044409
    9 5.309685 -0.003834 0.000000 0.125902 0.008665 -0.069235
    10 4.826790 -0.004591 0.000000 0.033382 -0.000312 0.008700
    11 5.792767 -0.005304 0.000000 -0.163239 0.002960 0.017216
    12 6.662317 -0.001453 0.000000 0.000000 -0.000001 0.471000
    13 2.046985 -0.000002 0.000000 -0.020249 -0.006552 -0.220725
    14 -3.112024 1.517254 4.341911 -1.153463 -1.107074 3.780342
    15 4.827230 0.000000 0.000001 0.572207 1.250342 0.236631
    16 11.139763 0.000000 0.000000 0.000000 0.000000 -0.165170
    17 10.314597 0.000001 0.000000 -1.570000 0.000000 0.207630
    18 2.975834 -0.386307 -0.044143 -0.000797 -0.043611 0.000035
    19 1.438886 0.000000 0.000000 0.000000 0.000000 0.314000
    20 1.485303 0.000000 0.000000 0.000000 0.000000 0.104667
    21 -2.869898 1.399663 -4.140396 -0.948870 1.235947 1.748251
    22 4.972048 0.000000 0.000001 0.501787 -1.290916 -0.132832
    23 11.585355 0.000000 0.000000 0.000000 0.000000 -1.505815
    24 10.127057 0.000000 0.000001 1.569752 0.000000 -0.069778
    25 2.683750 -0.427338 0.044205 0.001045 0.043611 0.000046
    26 1.438885 -0.000001 0.000000 0.000000 0.000000 1.064097
    27 1.485305 0.000001 0.000000 0.000000 0.000000 1.229794
    28 1.646738 0.449549 -1.702246 0.154002 0.442277 0.277235
    29 0.928312 0.000000 -0.000002 0.000000 0.000000 0.000000
    30 0.928314 0.000000 0.000001 0.000000 0.000000 0.000000
    31 1.533672 0.109715 1.664491 -0.233255 -0.412980 0.435684
    32 0.928313 0.000000 0.000000 0.000000 0.000000 0.000000
    33 0.928314 0.000000 0.000001 0.000000 0.000000 0.000000
  time 22
    0 0.235347 -53.790987 3.044537 0.000000 0.000000 -1.635006
    1 0.320322 0.050783 0.000000 -1.570795 -1.570796 0.000000
    2 -0.000005 0.000007 3.713255 -0.053155 3.133577 -0.573363
    3 18.045721 0.000000 0.000000 0.000000 0.000000 -0.817671
    4 17.597597 0.000000 0.000000 0.022230 0.035943 0.391366
    5 0.000005 -0.000003 -3.713255 -0.005968 -3.125100 0.181753
    6 18.045725 0.000000 0.000000 0.000000 0.000000 -0.321341
    7 17.597597 0.000000 0.000000 0.001944 -0.015810 0.281863
    8 1.293670 0.684478 -0.000001 -0.000004 -0.000001 0.044409
    9 5.309685 -0.003834 0.000000 0.142368 0.009791 -0.069090
    10 4.826790 -0.004591 0.000000 0.044925 -0.000419 0.008700
    11 5.792767 -0.005304 0.000000 -0.153324 0.002780 0.017236
    12 6.662317 -0.001453 0.000000 0.000000 -0.000001 0.471000
    13 2.046985 -0.000002 0.000000 -0.046314 0.001914 -0.213803
    14 -3.112024 1.517254 4.341911 -1.179924 -1.081802 3.803928
    15 4.827230 0.000000 0.000001 0.712352 1.213494 0.338582
    16 11.139763 0.000000 0.000000 0.000000 0.000000 -0.165170
    17 10.314597 0.000001 0.000000 -1.570000 0.000000 0.244762
    18 2.975834 -0.386307 -0.044143 -0.000797 -0.043611 0.000035
    19 1.438886 0.000000 0.000000 0.000000 0.000000 0.314000
    20 1.485303 0.000000 0.000000 0.000000 0.000000 0.104667
    21 -2.869898 1.399663 -4.140396 -0.948870 1.235947 1.748251
    22 4.972048 0.000000 0.000001 0.578987 -1.280539 -0.173936
    23 11.585355 0.000000 0.000000 0.000000 0.000000 -1.495951
    24 10.127057 0.000000 0.000001 1.569752 0.000000 -0.069778
    25 2.683750 -0.427338 0.044205 0.001045 0.043611 0.000046
    26 1.438885 -0.000001 0.000000 0.000000 0.000000 1.064097
    27 1.485305 0.000001 0.000000 0.000000 0.000000 1.229794
    28 1.646738 0.449549 -1.702246 0.154002 0.442277 0.277235
    29 0.928312 0.000000 -0.000002 0.000000 0.000000 0.000000
    30 0.928314 0.000000 0.000001 0.000000 0.000000 0.000000
    31 1.533672 0.109715 1.664491 -0.233255 -0.412980 0.435684
    32 0.928313 0.000000 0.000000 0.000000 0.000000 0.000000
    33 0.928314 0.000000 0.000001 0.000000 0.000000 0.000000
  time 23
    0 0.235347 -56.134313 2.814061 0.000000 0.000000 -1.658094
    1 0.316416 0.054689 0.000000 -1.570795 -1.570796 0.000000
    2 -0.000005 0.000007 3.713255 -0.162135 3.150310 -0.295037
    3 18.045721 0.000000 0.000000 0.000000 0.000000 -0.121501
    4 17.597597 0.000000 0.000000 0.070547 0.038645 -0.171164
    5 0.000005 -0.000003 -3.713255 -0.006638 -3.125291 0.219764
    6 18.045725 0.000000 0.000000 0.000000 0.000000 -0.389149
    7 17.597597 0.000000 0.000000 -0.007966 -0.014764 0.207655
    8 1.293670 0.684478 -0.000001 -0.000004 -0.000001 0.044409
    9 5.309685 -0.003834 0.000000 0.165335 0.011361 -0.068836
    10 4.826790 -0.004591 0.000000 0.061050 -0.000575 0.008700
    11 5.792767 -0.005304 0.000000 -0.139528 0.002529 0.017278
    12 6.662317 -0.001453 0.000000 0.000000 -0.000001 0.471000
    13 2.046985 -0.000002 0.000000 -0.008660 0.015580 -0.272190
    14 -3.112024 1.517254 4.341911 -1.213001 -1.046106 3.832786
    15 4.827230 0.000000 0.000001 0.858547 1.152051 0.431431
    16 11.139763 0.000000 0.000000 0.000000 0.000000 -0.165170
    17 10.314597 0.000001 0.000000 -1.570000 0.000000 0.296547
    18 2.975834 -0.386307 -0.044143 -0.000797 -0.043611 0.000035
    19 1.438886 0.000000 0.000000 0.000000 0.000000 0.314000
    20 1.485303 0.000000 0.000000 0.000000 0.000000 0.104667
    21 -2.869898 1.399663 -4.140396 -0.948870 1.235947 1.748251
    22 4.972048 0.000000 0.000001 0.677382 -1.263969 -0.221891
    23 11.585355 0.000000 0.000000 0.000000 0.000000 -1.482100
    24 10.127057 0.000000 0.000001 1.569752 0.000000 -0.069778
    25 2.683750 -0.427338 0.044205 0.001045 0.043611 0.000046
    26 1.438885 -0.000001 0.000000 0.000000 0.000000 1.064097
    27 1.485305 0.000001 0.000000 0.000000 0.000000 1.229794
    28 1.646738 0.449549 -1.702246 0.154002 0.442277 0.277235
    29 0.928312 0.000000 -0.000002 0.000000 0.000000 0.000000
    30 0.928314 0.000000 0.000001 0.000000 0.000000 0.000000
    31 1.533672 0.109715 1.664491 -0.233255 -0.412980 0.435684
    32 0.928313 0.000000 0.000000 0.000000 0.000000 0.000000
    33 0.928314 0.000000 0.000001 0.000000 0.000000 0.000000
end
