version 1
nodes
  0 "Hands biped" -1
  1 "Bip01 Pelvis" 0
  2 "Bip01 Spine" 1
  3 "Bip01 Spine1" 2
  4 "Bip01 Spine2" 3
  5 "Bip01 Spine3" 4
  6 "Bip01 Neck" 5
  7 "Bip01 L Arm" 6
  8 "Bip01 L Arm1" 7
  9 "Bip01 L Arm2" 8
  10 "Bip01 L Hand" 9
  11 "Bip01 L Finger0" 10
  12 "Bip01 L Finger01" 11
  13 "Bip01 L Finger02" 12
  14 "Bip01 L Finger1" 10
  15 "Bip01 L Finger11" 14
  16 "Bip01 L Finger12" 15
  17 "Bip01 L Finger2" 10
  18 "Bip01 L Finger21" 17
  19 "Bip01 L Finger22" 18
  20 "Bip01 L Finger3" 10
  21 "Bip01 L Finger31" 20
  22 "Bip01 L Finger32" 21
  23 "Bip01 L Finger4" 10
  24 "Bip01 L Finger41" 23
  25 "Bip01 L Finger42" 24
  26 "Bip01 R Arm" 6
  27 "Bip01 R Arm1" 26
  28 "Bip01 R Arm2" 27
  29 "Bip01 R Hand" 28
  30 "Bip01 R Finger0" 29
  31 "Bip01 R Finger01" 30
  32 "Bip01 R Finger02" 31
  33 "Bip01 R Finger1" 29
  34 "Bip01 R Finger11" 33
  35 "Bip01 R Finger12" 34
  36 "Bip01 R Finger2" 29
  37 "Bip01 R Finger21" 36
  38 "Bip01 R Finger22" 37
  39 "Bip01 R Finger3" 29
  40 "Bip01 R Finger31" 39
  41 "Bip01 R Finger32" 40
  42 "Bip01 R Finger4" 29
  43 "Bip01 R Finger41" 42
  44 "Bip01 R Finger42" 43
  45 "Dummy22" -1
end
skeleton
  time 0
    0 0.000000 3.724260 39.395706 0.000000 0.000000 -1.570795
    1 0.000000 0.000000 0.000000 -1.570795 -1.570796 0.000000
    2 1.326317 -0.003921 0.000002 -0.000004 -0.000001 0.000796
    3 4.926312 -0.003923 0.000000 0.000000 0.000000 0.000000
    4 4.926314 -0.003923 0.000000 0.000000 0.000000 0.000000
    5 4.926313 -0.003923 0.000000 0.000000 0.000000 0.000000
    6 4.926317 -0.001509 0.000000 0.000000 0.000000 0.000000
    7 -0.000001 0.001503 1.894737 -0.000014 -1.370797 3.140810
    8 4.926316 0.000000 0.000002 -1.024033 1.019112 -1.179682
    9 11.368423 0.000000 0.000000 0.000000 0.000000 -1.597889
    10 11.368423 -0.000003 0.000000 -1.829567 -0.079048 -0.603986
    11 1.126231 0.104083 -1.358371 -0.401729 2.962190 -1.523383
    12 2.373624 0.000001 0.000002 0.000000 0.000000 0.130833
    13 1.071900 -0.000001 -0.000004 0.000000 0.000000 0.017444
    14 3.789475 -0.000905 -1.136843 -0.108728 0.099280 0.126070
    15 1.136843 0.000000 -0.000001 0.000000 0.000000 1.072834
    16 1.136841 0.000001 0.000001 0.000000 0.000000 0.828611
    17 3.789474 -0.000302 -0.378947 -0.003650 0.072032 0.419761
    18 1.326315 0.000001 0.000000 0.000000 0.000000 0.872222
    19 1.326316 0.000002 0.000000 0.000000 0.000000 0.837333
    20 3.789474 0.000302 0.378947 0.182428 0.000298 0.383778
    21 1.136840 0.000001 0.000002 0.000000 0.000000 0.680333
    22 1.136845 -0.000005 -0.000002 0.000000 0.000000 0.828611
    23 3.789476 0.000906 1.136840 0.387885 -0.080674 0.366435
    24 0.947368 0.000000 0.000000 0.000000 0.000000 0.680333
    25 0.947370 -0.000002 0.000000 0.000000 0.000000 0.828611
    26 -0.000001 0.001514 -1.894737 -0.000014 1.370797 3.140783
    27 4.926315 0.000000 0.000000 1.024033 -1.019112 -1.179682
    28 11.368423 0.000000 0.000000 0.000000 0.000000 -1.597889
    29 11.368423 0.000000 0.000000 1.829567 0.079048 -0.603986
    30 1.126231 0.104083 1.358370 0.401729 -2.962190 -1.523383
    31 2.373625 -0.000001 -0.000003 0.000000 0.000000 0.130833
    32 1.071900 -0.000003 0.000004 0.000000 0.000000 0.017444
    33 3.789475 -0.000905 1.136842 0.108728 -0.099280 0.126070
    34 1.136844 0.000000 0.000000 0.000000 0.000000 1.072833
    35 1.136842 0.000001 0.000001 0.000000 0.000000 0.828611
    36 3.789474 -0.000302 0.378947 0.003650 -0.072032 0.419761
    37 1.326315 0.000001 0.000000 0.000000 0.000000 0.872222
    38 1.326316 0.000002 -0.000001 0.000000 0.000000 0.837333
    39 3.789473 0.000302 -0.378947 -0.182428 -0.000298 0.383778
    40 1.136840 0.000000 -0.000001 0.000000 0.000000 0.680333
    41 1.136844 -0.000003 0.000003 0.000000 0.000000 0.828611
    42 3.789476 0.000906 -1.136841 -0.387885 0.080674 0.366435
    43 0.947368 0.000000 0.000000 0.000000 0.000000 0.680333
    44 0.947369 -0.000001 0.000000 0.000000 0.000000 0.828611
    45 0.000000 -12.371950 57.815548 0.532056 0.000000 0.000000
end
triangles
box.bmp
  45 -2.000000 -12.128646 61.068670 0.000000 -0.499774 0.866156 0.775000 0.702128
  45 -2.000000 -15.401340 59.176906 0.000000 -0.499774 0.866156 0.000000 0.702128
  45 1.990000 -12.128646 61.068670 0.000000 -0.499774 0.866156 0.775000 0.297872
box.bmp
  45 1.990000 -12.128646 61.068670 0.000000 -0.499774 0.866156 0.775000 0.297872
  45 -2.000000 -15.401340 59.176906 0.000000 -0.499774 0.866156 0.000000 0.702128
  45 1.990000 -15.401340 59.176906 0.000000 -0.499774 0.866156 0.000000 0.297872
box.bmp
  45 -5.000000 -15.010715 58.513346 0.000000 -0.395608 0.918419 0.000000 1.000000
  45 -2.440000 -15.010715 58.513346 0.000000 -0.395608 0.918419 0.000000 0.744681
  45 -3.210000 -12.100253 59.542042 0.000000 -0.395608 0.918419 0.600000 0.808511
box.bmp
  45 -3.210000 -12.100253 59.542042 0.000000 -0.395608 0.918419 0.600000 0.808511
  45 -2.440000 -15.010715 58.513346 0.000000 -0.395608 0.918419 0.000000 0.744681
  45 -2.760000 -12.091636 59.547115 0.000000 -0.395608 0.918419 0.625000 0.765957
box.bmp
  45 4.980000 -15.010715 58.513346 0.000000 -0.395608 0.918419 0.000000 0.510638
  45 3.190000 -12.091636 59.547115 0.000000 -0.395608 0.918419 0.625000 0.680851
  45 2.430000 -15.010715 58.513346 0.000000 -0.395608 0.918419 0.000000 0.744681
box.bmp
  45 2.430000 -15.010715 58.513346 0.000000 -0.395608 0.918419 0.000000 0.744681
  45 3.190000 -12.091636 59.547115 0.000000 -0.395608 0.918419 0.625000 0.680851
  45 2.750000 -12.091636 59.547115 0.000000 -0.395608 0.918419 0.625000 0.723404
side.bmp
  45 -3.210000 -12.100253 59.542042 -0.941173 0.292692 0.168895 0.333333 0.708333
  45 -3.910000 -12.792461 58.391890 -0.941173 0.292692 0.168895 0.583333 0.583333
  45 -5.000000 -15.010715 58.513346 -0.941173 0.292692 0.168895 0.958333 0.833333
side.bmp
  45 -5.000000 -15.010715 58.513346 -0.941173 0.292692 0.168895 0.958333 0.833333
  45 -3.910000 -12.792461 58.391890 -0.941173 0.292692 0.168895 0.583333 0.583333
  45 -5.000000 -12.997197 55.033828 -0.941173 0.292692 0.168895 0.958333 0.020833
side.bmp
  45 -3.910000 -12.792461 58.391890 -0.941173 0.292692 0.168895 0.583333 0.583333
  45 -3.920000 -11.773263 56.601433 -0.941173 0.292692 0.168895 0.583333 0.166667
  45 -5.000000 -12.997197 55.033828 -0.941173 0.292692 0.168895 0.958333 0.020833
side.bmp
  45 -5.000000 -12.997197 55.033828 -0.941173 0.292692 0.168895 0.958333 0.020833
  45 -3.920000 -11.773263 56.601433 -0.941173 0.292692 0.168895 0.583333 0.166667
  45 -3.000000 -10.060591 56.727743 -0.941173 0.292692 0.168895 0.250000 0.020833
side.bmp
  45 -3.920000 -11.773263 56.601433 -0.941173 0.292692 0.168895 0.583333 0.166667
  45 -3.000000 -10.361430 57.258493 -0.941173 0.292692 0.168895 0.250000 0.125000
  45 -3.000000 -10.060591 56.727743 -0.941173 0.292692 0.168895 0.250000 0.020833
side.bmp
  45 2.980000 -10.060591 56.727743 0.941173 0.292692 0.168895 0.250000 0.020833
  45 3.900000 -11.773263 56.601433 0.941173 0.292692 0.168895 0.583333 0.166667
  45 4.980000 -12.997197 55.033828 0.941173 0.292692 0.168895 0.958333 0.020833
side.bmp
  45 4.980000 -12.997197 55.033828 0.941173 0.292692 0.168895 0.958333 0.020833
  45 3.900000 -11.773263 56.601433 0.941173 0.292692 0.168895 0.583333 0.166667
  45 4.980000 -15.010715 58.513346 0.941173 0.292692 0.168895 0.958333 0.833333
side.bmp
  45 3.900000 -11.773263 56.601433 0.941173 0.292692 0.168895 0.583333 0.166667
  45 3.890000 -12.792461 58.391890 0.941173 0.292692 0.168895 0.583333 0.583333
  45 4.980000 -15.010715 58.513346 0.941173 0.292692 0.168895 0.958333 0.833333
side.bmp
  45 4.980000 -15.010715 58.513346 0.941173 0.292692 0.168895 0.958333 0.833333
  45 3.890000 -12.792461 58.391890 0.941173 0.292692 0.168895 0.583333 0.583333
  45 3.190000 -12.091636 59.547115 0.941173 0.292692 0.168895 0.333333 0.708333
side.bmp
  45 -2.000000 -15.401340 59.176906 -0.877725 -0.239507 0.415012 0.958333 1.000000
  45 -2.000000 -12.128646 61.068670 -0.877725 -0.239507 0.415012 0.166667 1.000000
  45 -2.440000 -15.010715 58.513346 -0.877725 -0.239507 0.415012 0.958333 0.833333
side.bmp
  45 -2.440000 -15.010715 58.513346 -0.877725 -0.239507 0.415012 0.958333 0.833333
  45 -2.000000 -12.128646 61.068670 -0.877725 -0.239507 0.415012 0.166667 1.000000
  45 -2.760000 -12.091636 59.547115 -0.877725 -0.239507 0.415012 0.333333 0.708333
side.bmp
  45 -2.000000 -12.128646 61.068670 -0.877725 -0.239507 0.415012 0.166667 1.000000
  45 -2.560000 -11.631486 60.224139 -0.877725 -0.239507 0.415012 0.166667 0.791667
  45 -2.760000 -12.091636 59.547115 -0.877725 -0.239507 0.415012 0.333333 0.708333
side.bmp
  45 2.560000 -11.624885 60.193213 0.877725 -0.239507 0.415012 0.166667 0.791667
  45 1.990000 -12.128646 61.068670 0.877725 -0.239507 0.415012 0.166667 1.000000
  45 2.750000 -12.091636 59.547115 0.877725 -0.239507 0.415012 0.333333 0.708333
side.bmp
  45 2.750000 -12.091636 59.547115 0.877725 -0.239507 0.415012 0.333333 0.708333
  45 1.990000 -12.128646 61.068670 0.877725 -0.239507 0.415012 0.166667 1.000000
  45 2.430000 -15.010715 58.513346 0.877725 -0.239507 0.415012 0.958333 0.833333
side.bmp
  45 1.990000 -12.128646 61.068670 0.877725 -0.239507 0.415012 0.166667 1.000000
  45 1.990000 -15.401340 59.176906 0.877725 -0.239507 0.415012 0.958333 1.000000
  45 2.430000 -15.010715 58.513346 0.877725 -0.239507 0.415012 0.958333 0.833333
side.bmp
  45 2.980000 -10.060591 56.727743 0.000000 0.866156 0.499774 0.250000 0.020833
  45 -3.000000 -10.060591 56.727743 0.000000 0.866156 0.499774 0.250000 0.020833
  45 2.980000 -10.361430 57.258493 0.000000 0.866156 0.499774 0.250000 0.125000
side.bmp
  45 2.980000 -10.361430 57.258493 0.000000 0.866156 0.499774 0.250000 0.125000
  45 -3.000000 -10.060591 56.727743 0.000000 0.866156 0.499774 0.250000 0.020833
  45 -3.000000 -10.361430 57.258493 0.000000 0.866156 0.499774 0.250000 0.125000
side.bmp
  45 3.900000 -11.773263 56.601433 0.941173 0.292692 0.168895 0.583333 0.166667
  45 2.980000 -10.060591 56.727743 0.941173 0.292692 0.168895 0.250000 0.020833
  45 2.980000 -10.361430 57.258493 0.941173 0.292692 0.168895 0.250000 0.125000
side.bmp
  45 -4.860000 -11.885918 59.946715 -0.463505 -0.767808 0.442305 0.250000 0.770833
  45 -5.720000 -11.568950 59.703958 -0.463505 -0.767808 0.442305 0.208333 0.687500
  45 -3.910000 -12.792461 58.391890 -0.463505 -0.767808 0.442305 0.583333 0.583333
side.bmp
  45 2.560000 -11.624885 60.193213 0.000000 -0.866156 -0.499774 0.166667 0.791667
  45 2.560000 -11.624885 60.193213 0.000000 -0.866156 -0.499774 0.166667 0.791667
  45 2.230000 -11.087176 60.915896 0.000000 -0.866156 -0.499774 0.000000 0.854167
light.bmp
  45 1.990000 -12.128646 61.068670 0.000000 0.866156 0.499774 0.109375 1.000000
  45 2.560000 -11.624885 60.193213 0.000000 0.866156 0.499774 0.000000 0.041667
  45 -2.000000 -12.128646 61.068670 0.000000 0.866156 0.499774 0.875000 1.000000
light.bmp
  45 -2.000000 -12.128646 61.068670 0.000000 0.866156 0.499774 0.875000 1.000000
  45 2.560000 -11.624885 60.193213 0.000000 0.866156 0.499774 0.000000 0.041667
  45 -2.560000 -11.631486 60.224139 0.000000 0.866156 0.499774 0.984375 0.083333
light.bmp
  45 2.560000 -11.624885 60.193213 0.000000 0.866156 0.499774 0.000000 0.041667
  45 0.080000 -11.604592 60.158743 0.000000 0.866156 0.499774 0.468750 0.041667
  45 -2.560000 -11.631486 60.224139 0.000000 0.866156 0.499774 0.984375 0.083333
face.bmp
  45 5.730000 -11.556788 59.722721 0.355507 -0.332806 0.873416 0.000000 0.750000
  45 4.570000 -11.035761 60.296334 0.355507 -0.332806 0.873416 0.098214 0.819444
  45 4.870000 -11.877301 59.951788 0.355507 -0.332806 0.873416 0.071429 0.847222
face.bmp
  45 4.870000 -11.877301 59.951788 0.355507 -0.332806 0.873416 0.071429 0.847222
  45 4.570000 -11.035761 60.296334 0.355507 -0.332806 0.873416 0.098214 0.819444
  45 4.110000 -11.554968 60.350413 0.335310 -0.289808 0.896425 0.138393 0.902778
face.bmp
  45 4.570000 -11.035761 60.296334 0.355507 -0.332806 0.873416 0.098214 0.819444
  45 3.590000 -10.718990 60.645269 0.284298 -0.259698 0.922893 0.183036 0.861111
  45 4.110000 -11.554968 60.350413 0.335310 -0.289808 0.896425 0.138393 0.902778
face.bmp
  45 4.110000 -11.554968 60.350413 0.335310 -0.289808 0.896425 0.138393 0.902778
  45 3.590000 -10.718990 60.645269 0.284298 -0.259698 0.922893 0.183036 0.861111
  45 3.220000 -11.289902 60.668910 0.284298 -0.259698 0.922893 0.214286 0.930556
face.bmp
  45 3.590000 -10.718990 60.645269 0.284298 -0.259698 0.922893 0.183036 0.861111
  45 2.480000 -10.490411 60.907474 0.205994 -0.219694 0.953573 0.281250 0.888889
  45 3.220000 -11.289902 60.668910 0.284298 -0.259698 0.922893 0.214286 0.930556
face.bmp
  45 3.220000 -11.289902 60.668910 0.284298 -0.259698 0.922893 0.214286 0.930556
  45 2.480000 -10.490411 60.907474 0.205994 -0.219694 0.953573 0.281250 0.888889
  45 2.230000 -11.087176 60.915896 0.205994 -0.219694 0.953573 0.303571 0.972222
face.bmp
  45 2.480000 -10.490411 60.907474 0.205994 -0.219694 0.953573 0.281250 0.888889
  45 1.280000 -10.344951 61.074332 0.115298 -0.193096 0.974382 0.383929 0.902778
  45 2.230000 -11.087176 60.915896 0.205994 -0.219694 0.953573 0.303571 0.972222
face.bmp
  45 2.230000 -11.087176 60.915896 0.205994 -0.219694 0.953573 0.303571 0.972222
  45 1.280000 -10.344951 61.074332 0.115298 -0.193096 0.974382 0.383929 0.902778
  45 1.150000 -10.967570 61.067534 0.115298 -0.193096 0.974382 0.397321 0.986111
face.bmp
  45 1.280000 -10.344951 61.074332 0.115298 -0.193096 0.974382 0.383929 0.902778
  45 0.010000 -10.294774 61.127079 0.017000 -0.181701 0.983207 0.495536 0.902778
  45 1.150000 -10.967570 61.067534 0.115298 -0.193096 0.974382 0.397321 0.986111
face.bmp
  45 1.150000 -10.967570 61.067534 0.115298 -0.193096 0.974382 0.397321 0.986111
  45 0.010000 -10.294774 61.127079 0.017000 -0.181701 0.983207 0.495536 0.902778
  45 0.010000 -10.926010 61.115208 0.017000 -0.181701 0.983207 0.495536 1.000000
face.bmp
  45 0.010000 -10.294774 61.127079 0.017000 -0.181701 0.983207 0.495536 0.902778
  45 -1.260000 -10.344951 61.074332 -0.082700 -0.186301 0.979006 0.607143 0.902778
  45 0.010000 -10.926010 61.115208 0.017000 -0.181701 0.983207 0.495536 1.000000
face.bmp
  45 0.010000 -10.926010 61.115208 0.017000 -0.181701 0.983207 0.495536 1.000000
  45 -1.260000 -10.344951 61.074332 -0.082700 -0.186301 0.979006 0.607143 0.902778
  45 -1.130000 -10.967570 61.067534 -0.082700 -0.186301 0.979006 0.593750 0.986111
face.bmp
  45 -1.260000 -10.344951 61.074332 -0.082700 -0.186301 0.979006 0.607143 0.902778
  45 -2.470000 -10.490411 60.907474 -0.177702 -0.206802 0.962110 0.709821 0.888889
  45 -1.130000 -10.967570 61.067534 -0.082700 -0.186301 0.979006 0.593750 0.986111
face.bmp
  45 -1.130000 -10.967570 61.067534 -0.082700 -0.186301 0.979006 0.593750 0.986111
  45 -2.470000 -10.490411 60.907474 -0.177702 -0.206802 0.962110 0.709821 0.888889
  45 -2.210000 -11.095794 60.910823 -0.208605 -0.220906 0.952725 0.687500 0.972222
face.bmp
  45 -2.470000 -10.490411 60.907474 -0.177702 -0.206802 0.962110 0.709821 0.888889
  45 -3.580000 -10.727607 60.640196 -0.261991 -0.241492 0.934367 0.808036 0.861111
  45 -2.210000 -11.095794 60.910823 -0.208605 -0.220906 0.952725 0.687500 0.972222
face.bmp
  45 -2.210000 -11.095794 60.910823 -0.208605 -0.220906 0.952725 0.687500 0.972222
  45 -3.580000 -10.727607 60.640196 -0.261991 -0.241492 0.934367 0.808036 0.861111
  45 -3.210000 -11.289902 60.668910 -0.287899 -0.262099 0.921096 0.776786 0.930556
face.bmp
  45 -3.580000 -10.727607 60.640196 -0.261991 -0.241492 0.934367 0.808036 0.861111
  45 -4.560000 -11.044379 60.291261 -0.331688 -0.288890 0.898068 0.892857 0.819444
  45 -3.210000 -11.289902 60.668910 -0.287899 -0.262099 0.921096 0.776786 0.930556
face.bmp
  45 -3.210000 -11.289902 60.668910 -0.287899 -0.262099 0.921096 0.776786 0.930556
  45 -4.560000 -11.044379 60.291261 -0.331688 -0.288890 0.898068 0.892857 0.819444
  45 -4.100000 -11.558513 60.336722 -0.348909 -0.317808 0.881624 0.852679 0.902778
face.bmp
  45 -4.560000 -11.044379 60.291261 -0.331688 -0.288890 0.898068 0.892857 0.819444
  45 -5.720000 -11.568950 59.703958 -0.348909 -0.317808 0.881624 0.995536 0.750000
  45 -4.100000 -11.558513 60.336722 -0.348909 -0.317808 0.881624 0.852679 0.902778
face.bmp
  45 -4.100000 -11.558513 60.336722 -0.348909 -0.317808 0.881624 0.852679 0.902778
  45 -5.720000 -11.568950 59.703958 -0.348909 -0.317808 0.881624 0.995536 0.750000
  45 -4.860000 -11.885918 59.946715 -0.362314 -0.351014 0.863434 0.919643 0.847222
face.bmp
  45 0.000000 -10.456653 60.022228 0.115298 -0.193096 0.974382 0.495536 0.666667
  45 -0.580000 -10.360265 59.858493 -0.485824 -0.153108 0.860542 0.544643 0.625000
  45 0.000000 -11.273446 59.970748 -0.106602 -0.213905 0.971020 0.495536 0.763889
face.bmp
  45 0.000000 -11.273446 59.970748 -0.106602 -0.213905 0.971020 0.495536 0.763889
  45 -0.580000 -10.360265 59.858493 -0.485824 -0.153108 0.860542 0.544643 0.625000
  45 -0.790000 -11.150164 59.741616 -0.652605 -0.092701 0.752006 0.566964 0.694444
face.bmp
  45 -0.580000 -10.360265 59.858493 -0.485824 -0.153108 0.860542 0.544643 0.625000
  45 -0.930000 -10.120303 59.431154 -0.877303 0.062100 0.475902 0.575893 0.486111
  45 -0.790000 -11.150164 59.741616 -0.652605 -0.092701 0.752006 0.566964 0.694444
face.bmp
  45 -0.790000 -11.150164 59.741616 -0.652605 -0.092701 0.752006 0.566964 0.694444
  45 -0.930000 -10.120303 59.431154 -0.877303 0.062100 0.475902 0.575893 0.486111
  45 -1.280000 -10.810269 59.164233 -0.937687 0.156398 0.310296 0.607143 0.513889
face.bmp
  45 -0.930000 -10.120303 59.431154 -0.877303 0.062100 0.475902 0.575893 0.486111
  45 -0.930000 -9.820992 58.922713 -0.937692 0.346897 -0.019900 0.575893 0.319444
  45 -1.280000 -10.810269 59.164233 -0.937687 0.156398 0.310296 0.607143 0.513889
face.bmp
  45 -1.280000 -10.810269 59.164233 -0.937687 0.156398 0.310296 0.607143 0.513889
  45 -0.930000 -9.820992 58.922713 -0.937692 0.346897 -0.019900 0.575893 0.319444
  45 -1.280000 -10.402895 58.452512 -0.877302 0.443101 -0.184400 0.607143 0.291667
face.bmp
  45 -0.930000 -9.820992 58.922713 -0.937692 0.346897 -0.019900 0.575893 0.319444
  45 -0.580000 -9.581030 58.495374 -0.652589 0.604690 -0.456593 0.544643 0.194444
  45 -1.280000 -10.402895 58.452512 -0.877302 0.443101 -0.184400 0.607143 0.291667
face.bmp
  45 -1.280000 -10.402895 58.452512 -0.877302 0.443101 -0.184400 0.607143 0.291667
  45 -0.580000 -9.581030 58.495374 -0.652589 0.604690 -0.456593 0.544643 0.194444
  45 -0.790000 -10.071618 57.870056 -0.485811 0.668415 -0.563213 0.566964 0.111111
face.bmp
  45 -0.580000 -9.581030 58.495374 -0.652589 0.604690 -0.456593 0.544643 0.194444
  45 0.000000 -9.484642 58.331639 -0.106598 0.733585 -0.671186 0.495536 0.138889
  45 -0.790000 -10.071618 57.870056 -0.485811 0.668415 -0.563213 0.566964 0.111111
face.bmp
  45 -0.790000 -10.071618 57.870056 -0.485811 0.668415 -0.563213 0.566964 0.111111
  45 0.000000 -9.484642 58.331639 -0.106598 0.733585 -0.671186 0.495536 0.138889
  45 0.000000 -9.939718 57.645996 0.106598 0.733585 -0.671186 0.495536 0.041667
face.bmp
  45 0.000000 -9.484642 58.331639 -0.106598 0.733585 -0.671186 0.495536 0.138889
  45 0.560000 -9.581030 58.495374 0.485811 0.668415 -0.563213 0.446429 0.194444
  45 0.000000 -9.939718 57.645996 0.106598 0.733585 -0.671186 0.495536 0.041667
face.bmp
  45 0.000000 -9.939718 57.645996 0.106598 0.733585 -0.671186 0.495536 0.041667
  45 0.560000 -9.581030 58.495374 0.485811 0.668415 -0.563213 0.446429 0.194444
  45 0.780000 -10.071618 57.870056 0.652589 0.604690 -0.456593 0.428571 0.111111
face.bmp
  45 0.560000 -9.581030 58.495374 0.485811 0.668415 -0.563213 0.446429 0.194444
  45 0.920000 -9.820992 58.922713 0.877302 0.443101 -0.184400 0.415179 0.319444
  45 0.780000 -10.071618 57.870056 0.652589 0.604690 -0.456593 0.428571 0.111111
face.bmp
  45 0.780000 -10.071618 57.870056 0.652589 0.604690 -0.456593 0.428571 0.111111
  45 0.920000 -9.820992 58.922713 0.877302 0.443101 -0.184400 0.415179 0.319444
  45 1.270000 -10.402895 58.452512 0.937692 0.346897 -0.019900 0.383929 0.291667
face.bmp
  45 0.920000 -9.820992 58.922713 0.877302 0.443101 -0.184400 0.415179 0.319444
  45 0.920000 -10.120303 59.431154 0.937687 0.156398 0.310296 0.415179 0.486111
  45 1.270000 -10.402895 58.452512 0.937692 0.346897 -0.019900 0.383929 0.291667
face.bmp
  45 1.270000 -10.402895 58.452512 0.937692 0.346897 -0.019900 0.383929 0.291667
  45 0.920000 -10.120303 59.431154 0.937687 0.156398 0.310296 0.415179 0.486111
  45 1.270000 -10.810269 59.164233 0.877303 0.062100 0.475902 0.383929 0.513889
face.bmp
  45 0.920000 -10.120303 59.431154 0.937687 0.156398 0.310296 0.415179 0.486111
  45 0.560000 -10.360265 59.858493 0.652605 -0.092701 0.752006 0.446429 0.625000
  45 1.270000 -10.810269 59.164233 0.877303 0.062100 0.475902 0.383929 0.513889
face.bmp
  45 1.270000 -10.810269 59.164233 0.877303 0.062100 0.475902 0.383929 0.513889
  45 0.560000 -10.360265 59.858493 0.652605 -0.092701 0.752006 0.446429 0.625000
  45 0.780000 -11.150164 59.741616 0.485824 -0.153108 0.860542 0.428571 0.694444
face.bmp
  45 0.560000 -10.360265 59.858493 0.652605 -0.092701 0.752006 0.446429 0.625000
  45 0.000000 -10.456653 60.022228 0.115298 -0.193096 0.974382 0.495536 0.666667
  45 0.780000 -11.150164 59.741616 0.485824 -0.153108 0.860542 0.428571 0.694444
face.bmp
  45 0.780000 -11.150164 59.741616 0.485824 -0.153108 0.860542 0.428571 0.694444
  45 0.000000 -10.456653 60.022228 0.115298 -0.193096 0.974382 0.495536 0.666667
  45 0.000000 -11.273446 59.970748 -0.106602 -0.213905 0.971020 0.495536 0.763889
face.bmp
  45 1.250000 -9.912766 60.458446 -0.808339 0.423620 -0.408820 0.388393 0.694444
  45 1.640000 -9.659600 59.969256 -0.903974 0.342490 -0.255993 0.352679 0.555556
  45 0.780000 -11.150164 59.741616 -0.710793 0.488095 -0.506495 0.428571 0.694444
face.bmp
  45 0.780000 -11.150164 59.741616 -0.710793 0.488095 -0.506495 0.428571 0.694444
  45 1.640000 -9.659600 59.969256 -0.903974 0.342490 -0.255993 0.352679 0.555556
  45 1.270000 -10.810269 59.164233 -0.966012 0.243703 -0.086201 0.383929 0.513889
face.bmp
  45 1.640000 -9.659600 59.969256 -0.903974 0.342490 -0.255993 0.352679 0.555556
  45 1.660000 -9.065077 59.077605 -0.966015 0.047401 0.254104 0.352679 0.263889
  45 1.270000 -10.810269 59.164233 -0.966012 0.243703 -0.086201 0.383929 0.513889
face.bmp
  45 1.270000 -10.810269 59.164233 -0.966012 0.243703 -0.086201 0.383929 0.513889
  45 1.660000 -9.065077 59.077605 -0.966015 0.047401 0.254104 0.352679 0.263889
  45 1.270000 -10.402895 58.452512 -0.903990 -0.050199 0.424596 0.383929 0.291667
face.bmp
  45 1.660000 -9.065077 59.077605 -0.966015 0.047401 0.254104 0.352679 0.263889
  45 1.050000 -8.451855 58.371022 -0.672892 -0.211398 0.708892 0.406250 0.013889
  45 1.270000 -10.402895 58.452512 -0.903990 -0.050199 0.424596 0.383929 0.291667
face.bmp
  45 1.270000 -10.402895 58.452512 -0.903990 -0.050199 0.424596 0.383929 0.291667
  45 1.050000 -8.451855 58.371022 -0.672892 -0.211398 0.708892 0.406250 0.013889
  45 0.780000 -10.071618 57.870056 -0.501086 -0.274592 0.820677 0.428571 0.111111
face.bmp
  45 1.050000 -8.451855 58.371022 -0.672892 -0.211398 0.708892 0.406250 0.013889
  45 0.000000 -9.503209 57.752109 -0.110002 -0.338505 0.934513 0.495536 0.013889
  45 0.780000 -10.071618 57.870056 -0.501086 -0.274592 0.820677 0.428571 0.111111
face.bmp
  45 0.780000 -10.071618 57.870056 -0.501086 -0.274592 0.820677 0.428571 0.111111
  45 0.000000 -9.503209 57.752109 -0.110002 -0.338505 0.934513 0.495536 0.013889
  45 0.000000 -9.939718 57.645996 0.110002 -0.338505 0.934513 0.495536 0.041667
face.bmp
  45 0.000000 -9.503209 57.752109 -0.110002 -0.338505 0.934513 0.495536 0.013889
  45 -1.070000 -8.451855 58.371022 0.501086 -0.274592 0.820677 0.589286 0.013889
  45 0.000000 -9.939718 57.645996 0.110002 -0.338505 0.934513 0.495536 0.041667
face.bmp
  45 0.000000 -9.939718 57.645996 0.110002 -0.338505 0.934513 0.495536 0.041667
  45 -1.070000 -8.451855 58.371022 0.501086 -0.274592 0.820677 0.589286 0.013889
  45 -0.790000 -10.071618 57.870056 0.672892 -0.211398 0.708892 0.566964 0.111111
face.bmp
  45 -1.070000 -8.451855 58.371022 0.501086 -0.274592 0.820677 0.589286 0.013889
  45 -1.670000 -9.073694 59.072532 0.939991 -0.001400 0.341197 0.642857 0.263889
  45 -0.790000 -10.071618 57.870056 0.672892 -0.211398 0.708892 0.566964 0.111111
face.bmp
  45 -0.790000 -10.071618 57.870056 0.672892 -0.211398 0.708892 0.566964 0.111111
  45 -1.670000 -9.073694 59.072532 0.939991 -0.001400 0.341197 0.642857 0.263889
  45 -1.280000 -10.402895 58.452512 0.939991 -0.001400 0.341197 0.607143 0.291667
face.bmp
  45 -1.670000 -9.073694 59.072532 0.939991 -0.001400 0.341197 0.642857 0.263889
  45 -1.280000 -10.810269 59.164233 0.919515 0.323805 -0.222804 0.607143 0.513889
  45 -1.280000 -10.402895 58.452512 0.939991 -0.001400 0.341197 0.607143 0.291667
face.bmp
  45 4.870000 -9.835753 57.567950 0.769871 0.588678 0.246491 0.071429 0.013889
  45 4.110000 -9.339473 57.848497 0.716303 0.620603 0.319001 0.138393 0.013889
  45 5.730000 -11.556788 59.722721 0.746734 0.599627 0.287813 0.000000 0.750000
face.bmp
  45 5.730000 -11.556788 59.722721 0.746734 0.599627 0.287813 0.000000 0.750000
  45 4.110000 -9.339473 57.848497 0.716303 0.620603 0.319001 0.138393 0.013889
  45 4.570000 -11.035761 60.296334 0.658423 0.649023 0.381114 0.098214 0.819444
face.bmp
  45 4.110000 -9.339473 57.848497 0.716303 0.620603 0.319001 0.138393 0.013889
  45 3.220000 -8.937988 58.073240 0.583718 0.686921 0.432913 0.214286 0.013889
  45 4.570000 -11.035761 60.296334 0.658423 0.649023 0.381114 0.098214 0.819444
face.bmp
  45 4.570000 -11.035761 60.296334 0.658423 0.649023 0.381114 0.098214 0.819444
  45 3.220000 -8.937988 58.073240 0.583718 0.686921 0.432913 0.214286 0.013889
  45 3.590000 -10.718990 60.645269 0.516309 0.709913 0.479008 0.183036 0.861111
face.bmp
  45 3.220000 -8.937988 58.073240 0.583718 0.686921 0.432913 0.214286 0.013889
  45 2.230000 -8.644988 58.245724 0.390915 0.751729 0.531120 0.303571 0.013889
  45 3.590000 -10.718990 60.645269 0.516309 0.709913 0.479008 0.183036 0.861111
face.bmp
  45 3.590000 -10.718990 60.645269 0.516309 0.709913 0.479008 0.183036 0.861111
  45 2.230000 -8.644988 58.245724 0.390915 0.751729 0.531120 0.303571 0.013889
  45 2.480000 -10.490411 60.907474 0.333009 0.759420 0.558915 0.281250 0.888889
face.bmp
  45 2.230000 -8.644988 58.245724 0.390915 0.751729 0.531120 0.303571 0.013889
  45 1.660000 -9.065077 59.077605 0.296608 0.777520 0.554514 0.352679 0.263889
  45 2.480000 -10.490411 60.907474 0.333009 0.759420 0.558915 0.281250 0.888889
face.bmp
  45 2.480000 -10.490411 60.907474 0.333009 0.759420 0.558915 0.281250 0.888889
  45 1.660000 -9.065077 59.077605 0.296608 0.777520 0.554514 0.352679 0.263889
  45 1.640000 -9.659600 59.969256 0.296608 0.777520 0.554514 0.352679 0.555556
face.bmp
  45 -5.720000 -11.568950 59.703958 -0.720372 0.624876 0.300988 0.995536 0.750000
  45 -4.560000 -11.044379 60.291261 -0.701481 0.629583 0.333991 0.892857 0.819444
  45 -4.860000 -9.844371 57.562877 -0.747877 0.595682 0.292991 0.919643 0.013889
face.bmp
  45 -4.860000 -9.844371 57.562877 -0.747877 0.595682 0.292991 0.919643 0.013889
  45 -4.560000 -11.044379 60.291261 -0.701481 0.629583 0.333991 0.892857 0.819444
  45 -4.100000 -9.348091 57.843424 -0.678802 0.635802 0.367401 0.852679 0.013889
face.bmp
  45 -4.560000 -11.044379 60.291261 -0.701481 0.629583 0.333991 0.892857 0.819444
  45 -3.580000 -10.727607 60.640196 -0.570204 0.693605 0.440203 0.808036 0.861111
  45 -4.100000 -9.348091 57.843424 -0.678802 0.635802 0.367401 0.852679 0.013889
face.bmp
  45 -4.100000 -9.348091 57.843424 -0.678802 0.635802 0.367401 0.852679 0.013889
  45 -3.580000 -10.727607 60.640196 -0.570204 0.693605 0.440203 0.808036 0.861111
  45 -3.210000 -8.951679 58.076784 -0.536888 0.700884 0.469589 0.776786 0.013889
face.bmp
  45 -3.580000 -10.727607 60.640196 -0.570204 0.693605 0.440203 0.808036 0.861111
  45 -2.470000 -10.490411 60.907474 -0.367797 0.752593 0.546195 0.709821 0.888889
  45 -3.210000 -8.951679 58.076784 -0.536888 0.700884 0.469589 0.776786 0.013889
face.bmp
  45 -3.210000 -8.951679 58.076784 -0.536888 0.700884 0.469589 0.776786 0.013889
  45 -2.470000 -10.490411 60.907474 -0.367797 0.752593 0.546195 0.709821 0.888889
  45 -2.210000 -8.644988 58.245724 -0.367797 0.752593 0.546195 0.687500 0.013889
face.bmp
  45 -2.470000 -10.490411 60.907474 -0.367797 0.752593 0.546195 0.709821 0.888889
  45 -1.670000 -9.073694 59.072532 -0.289106 0.769316 0.569712 0.642857 0.263889
  45 -2.210000 -8.644988 58.245724 -0.367797 0.752593 0.546195 0.687500 0.013889
face.bmp
  45 -2.210000 -8.644988 58.245724 -0.367797 0.752593 0.546195 0.687500 0.013889
  45 -1.670000 -9.073694 59.072532 -0.289106 0.769316 0.569712 0.642857 0.263889
  45 -1.070000 -8.451855 58.371022 -0.289106 0.769316 0.569712 0.589286 0.013889
face.bmp
  45 1.010000 -10.083721 60.729138 -0.501108 0.573109 -0.648411 0.406250 0.791667
  45 0.000000 -11.273446 59.970748 -0.163804 0.634915 -0.755018 0.495536 0.763889
  45 0.010000 -10.230352 61.037358 -0.315097 0.610793 -0.726392 0.495536 0.875000
face.bmp
  45 0.010000 -10.230352 61.037358 -0.315097 0.610793 -0.726392 0.495536 0.875000
  45 0.000000 -11.273446 59.970748 -0.163804 0.634915 -0.755018 0.495536 0.763889
  45 0.000000 -10.230352 61.037358 0.110001 0.639706 -0.760707 0.495536 0.875000
face.bmp
  45 0.000000 -11.273446 59.970748 -0.163804 0.634915 -0.755018 0.495536 0.763889
  45 -0.790000 -11.150164 59.741616 0.501108 0.573109 -0.648411 0.566964 0.694444
  45 0.000000 -10.230352 61.037358 0.110001 0.639706 -0.760707 0.495536 0.875000
face.bmp
  45 0.000000 -10.230352 61.037358 0.110001 0.639706 -0.760707 0.495536 0.875000
  45 -0.790000 -11.150164 59.741616 0.501108 0.573109 -0.648411 0.566964 0.694444
  45 -1.030000 -10.092339 60.724065 0.672905 0.507904 -0.537804 0.584821 0.791667
face.bmp
  45 -0.790000 -11.150164 59.741616 0.501108 0.573109 -0.648411 0.566964 0.694444
  45 -1.280000 -10.810269 59.164233 0.919515 0.323805 -0.222804 0.607143 0.513889
  45 -1.030000 -10.092339 60.724065 0.672905 0.507904 -0.537804 0.584821 0.791667
face.bmp
  45 -1.030000 -10.092339 60.724065 0.672905 0.507904 -0.537804 0.584821 0.791667
  45 -1.280000 -10.810269 59.164233 0.919515 0.323805 -0.222804 0.607143 0.513889
  45 -1.230000 -9.941675 60.487844 0.808305 0.423703 -0.408802 0.602679 0.708333
face.bmp
  45 -1.280000 -10.810269 59.164233 0.919515 0.323805 -0.222804 0.607143 0.513889
  45 -1.650000 -9.676835 59.959110 0.939985 0.294695 -0.171997 0.638393 0.555556
  45 -1.230000 -9.941675 60.487844 0.808305 0.423703 -0.408802 0.602679 0.708333
face.bmp
  45 0.000000 -10.230352 61.037358 -0.099305 0.789141 0.606131 0.495536 0.875000
  45 0.010000 -10.294774 61.127079 -0.003200 0.792092 0.610394 0.495536 0.902778
  45 0.010000 -10.230352 61.037358 -0.003200 0.792092 0.610394 0.495536 0.875000
face.bmp
  45 0.010000 -10.230352 61.037358 -0.003200 0.792092 0.610394 0.495536 0.875000
  45 0.010000 -10.294774 61.127079 -0.003200 0.792092 0.610394 0.495536 0.902778
  45 1.010000 -10.083721 60.729138 0.097100 0.788901 0.606801 0.406250 0.791667
face.bmp
  45 0.010000 -10.294774 61.127079 -0.003200 0.792092 0.610394 0.495536 0.902778
  45 1.280000 -10.344951 61.074332 0.189896 0.781284 0.594588 0.383929 0.902778
  45 1.010000 -10.083721 60.729138 0.097100 0.788901 0.606801 0.406250 0.791667
face.bmp
  45 1.010000 -10.083721 60.729138 0.097100 0.788901 0.606801 0.406250 0.791667
  45 1.280000 -10.344951 61.074332 0.189896 0.781284 0.594588 0.383929 0.902778
  45 1.250000 -9.912766 60.458446 0.189896 0.781284 0.594588 0.388393 0.694444
face.bmp
  45 1.280000 -10.344951 61.074332 0.189896 0.781284 0.594588 0.383929 0.902778
  45 1.640000 -9.659600 59.969256 0.296608 0.777520 0.554514 0.352679 0.555556
  45 1.250000 -9.912766 60.458446 0.189896 0.781284 0.594588 0.388393 0.694444
face.bmp
  45 -1.670000 -9.073694 59.072532 -0.289106 0.769316 0.569712 0.642857 0.263889
  45 -2.470000 -10.490411 60.907474 -0.367797 0.752593 0.546195 0.709821 0.888889
  45 -1.650000 -9.676835 59.959110 -0.289106 0.769316 0.569712 0.638393 0.555556
face.bmp
  45 -1.650000 -9.676835 59.959110 -0.289106 0.769316 0.569712 0.638393 0.555556
  45 -2.470000 -10.490411 60.907474 -0.367797 0.752593 0.546195 0.709821 0.888889
  45 -1.230000 -9.941675 60.487844 -0.223388 0.780659 0.583669 0.602679 0.708333
face.bmp
  45 -2.470000 -10.490411 60.907474 -0.367797 0.752593 0.546195 0.709821 0.888889
  45 -1.260000 -10.344951 61.074332 -0.142293 0.786961 0.600370 0.607143 0.902778
  45 -1.230000 -9.941675 60.487844 -0.223388 0.780659 0.583669 0.602679 0.708333
face.bmp
  45 -1.230000 -9.941675 60.487844 -0.223388 0.780659 0.583669 0.602679 0.708333
  45 -1.260000 -10.344951 61.074332 -0.142293 0.786961 0.600370 0.607143 0.902778
  45 -1.030000 -10.092339 60.724065 -0.099305 0.789141 0.606131 0.584821 0.791667
face.bmp
  45 -1.260000 -10.344951 61.074332 -0.142293 0.786961 0.600370 0.607143 0.902778
  45 0.000000 -10.230352 61.037358 -0.099305 0.789141 0.606131 0.495536 0.875000
  45 -1.030000 -10.092339 60.724065 -0.099305 0.789141 0.606131 0.584821 0.791667
face.bmp
  45 1.250000 -9.912766 60.458446 -0.808339 0.423620 -0.408820 0.388393 0.694444
  45 0.780000 -11.150164 59.741616 -0.710793 0.488095 -0.506495 0.428571 0.694444
  45 1.010000 -10.083721 60.729138 -0.501108 0.573109 -0.648411 0.406250 0.791667
face.bmp
  45 1.010000 -10.083721 60.729138 -0.501108 0.573109 -0.648411 0.406250 0.791667
  45 0.780000 -11.150164 59.741616 -0.710793 0.488095 -0.506495 0.428571 0.694444
  45 0.000000 -11.273446 59.970748 -0.163804 0.634915 -0.755018 0.495536 0.763889
face.bmp
  45 1.660000 -9.065077 59.077605 0.296608 0.777520 0.554514 0.352679 0.263889
  45 2.230000 -8.644988 58.245724 0.390915 0.751729 0.531120 0.303571 0.013889
  45 1.050000 -8.451855 58.371022 0.296608 0.777520 0.554514 0.406250 0.013889
face.bmp
  45 1.640000 -9.659600 59.969256 0.296608 0.777520 0.554514 0.352679 0.555556
  45 1.280000 -10.344951 61.074332 0.189896 0.781284 0.594588 0.383929 0.902778
  45 2.480000 -10.490411 60.907474 0.333009 0.759420 0.558915 0.281250 0.888889
face.bmp
  45 -1.260000 -10.344951 61.074332 -0.142293 0.786961 0.600370 0.607143 0.902778
  45 0.010000 -10.294774 61.127079 -0.003200 0.792092 0.610394 0.495536 0.902778
  45 0.000000 -10.230352 61.037358 -0.099305 0.789141 0.606131 0.495536 0.875000
face.bmp
  45 -1.670000 -9.073694 59.072532 0.939991 -0.001400 0.341197 0.642857 0.263889
  45 -1.650000 -9.676835 59.959110 0.939985 0.294695 -0.171997 0.638393 0.555556
  45 -1.280000 -10.810269 59.164233 0.919515 0.323805 -0.222804 0.607143 0.513889
lensCHROME.bmp
  45 0.000000 -9.714654 59.333434 0.000000 0.866156 0.499774 0.000000 0.015625
  45 -0.580000 -10.360265 59.858493 -0.263610 0.603623 0.752429 0.000000 0.015625
  45 0.000000 -10.456653 60.022228 0.000000 0.563805 0.825908 0.000000 0.015625
lensCHROME.bmp
  45 0.000000 -9.714654 59.333434 0.000000 0.866156 0.499774 0.000000 0.015625
  45 -0.930000 -10.120303 59.431154 -0.425190 0.708783 0.562886 0.000000 0.015625
  45 -0.580000 -10.360265 59.858493 -0.263610 0.603623 0.752429 0.000000 0.015625
lensCHROME.bmp
  45 0.000000 -9.714654 59.333434 0.000000 0.866156 0.499774 0.000000 0.015625
  45 -0.930000 -9.820992 58.922713 -0.425204 0.842007 0.332003 0.000000 0.015625
  45 -0.930000 -10.120303 59.431154 -0.425190 0.708783 0.562886 0.000000 0.015625
lensCHROME.bmp
  45 0.000000 -9.714654 59.333434 0.000000 0.866156 0.499774 0.000000 0.015625
  45 -0.580000 -9.581030 58.495374 -0.263605 0.953518 0.146003 0.000000 0.015625
  45 -0.930000 -9.820992 58.922713 -0.425204 0.842007 0.332003 0.000000 0.015625
lensCHROME.bmp
  45 0.000000 -9.714654 59.333434 0.000000 0.866156 0.499774 0.000000 0.015625
  45 0.000000 -9.484642 58.331639 0.000000 0.997199 0.074800 0.000000 0.015625
  45 -0.580000 -9.581030 58.495374 -0.263605 0.953518 0.146003 0.000000 0.015625
lensCHROME.bmp
  45 0.000000 -9.714654 59.333434 0.000000 0.866156 0.499774 0.000000 0.015625
  45 0.560000 -9.581030 58.495374 0.263605 0.953518 0.146003 0.000000 0.015625
  45 0.000000 -9.484642 58.331639 0.000000 0.997199 0.074800 0.000000 0.015625
lensCHROME.bmp
  45 0.000000 -9.714654 59.333434 0.000000 0.866156 0.499774 0.000000 0.015625
  45 0.920000 -9.820992 58.922713 0.425204 0.842007 0.332003 0.000000 0.015625
  45 0.560000 -9.581030 58.495374 0.263605 0.953518 0.146003 0.000000 0.015625
lensCHROME.bmp
  45 0.000000 -9.714654 59.333434 0.000000 0.866156 0.499774 0.000000 0.015625
  45 0.920000 -10.120303 59.431154 0.425190 0.708783 0.562886 0.000000 0.015625
  45 0.920000 -9.820992 58.922713 0.425204 0.842007 0.332003 0.000000 0.015625
lensCHROME.bmp
  45 0.000000 -9.714654 59.333434 0.000000 0.866156 0.499774 0.000000 0.015625
  45 0.560000 -10.360265 59.858493 0.263610 0.603623 0.752429 0.000000 0.015625
  45 0.920000 -10.120303 59.431154 0.425190 0.708783 0.562886 0.000000 0.015625
lensCHROME.bmp
  45 0.000000 -9.714654 59.333434 0.000000 0.866156 0.499774 0.000000 0.015625
  45 0.000000 -10.456653 60.022228 0.000000 0.563805 0.825908 0.000000 0.015625
  45 0.560000 -10.360265 59.858493 0.263610 0.603623 0.752429 0.000000 0.015625
end
