version 1
nodes
  0 "Bip01" -1
  1 "Bip01 Pelvis" 0
  2 "Bip01 L Leg" 1
  3 "Bip01 L Leg1" 2
  4 "Bip01 L Foot" 3
  5 "Bip01 R Leg" 1
  6 "Bip01 R Leg1" 5
  7 "Bip01 R Foot" 6
  8 "Bip01 Spine" 1
  9 "Bip01 Spine1" 8
  10 "Bip01 Spine2" 9
  11 "Bip01 Spine3" 10
  12 "Bip01 Neck" 11
  13 "Bip01 Head" 12
  14 "Bip01 L Arm" 12
  15 "Bip01 L Arm1" 14
  16 "Bip01 L Arm2" 15
  17 "Bip01 L Hand" 16
  18 "Bip01 L Finger1" 17
  19 "Bip01 L Finger11" 18
  20 "Bip01 L Finger12" 19
  21 "Bip01 R Arm" 12
  22 "Bip01 R Arm1" 21
  23 "Bip01 R Arm2" 22
  24 "Bip01 R Hand" 23
  25 "Bip01 R Finger1" 24
  26 "Bip01 R Finger11" 25
  27 "Bip01 R Finger12" 26
  28 "Dummy08" 13
  29 "Bone02" 28
  30 "Dummy04" 13
  31 "Bone05" 30
  32 "Dummy03" 13
  33 "Bone07" 32
  34 "Dummy10" 13
  35 "Bone13" 34
  36 "Bip01 L Finger0" 17
  37 "Bip01 L Finger01" 36
  38 "Bip01 L Finger02" 37
  39 "Bip01 R Finger0" 24
  40 "Bip01 R Finger01" 39
  41 "Bip01 R Finger02" 40
end
skeleton
  time 0
    0 0.235347 0.719305 2.056226 0.000000 0.000000 -1.570874
    1 0.429701 0.089846 0.000000 -1.570795 -1.570796 0.000000
    2 -0.000005 0.000007 3.713255 -0.006764 3.203379 -0.374094
    3 18.045721 0.000000 0.000000 0.000000 0.000000 -0.458343
    4 17.597597 0.000000 0.000000 -0.232815 -0.055001 0.083313
    5 0.000005 -0.000003 -3.713255 0.344452 -3.301234 -0.042049
    6 18.045725 0.000000 0.000000 0.000000 0.000000 -0.404362
    7 17.597597 0.000000 0.000000 0.082085 0.135731 0.310194
    8 1.293670 0.684478 -0.000001 -0.522814 -0.030154 -0.052271
    9 5.309685 -0.003834 0.000000 -0.173574 0.018288 0.103163
    10 4.826790 -0.004591 0.000000 -0.104743 -0.000815 -0.008652
    11 5.792767 -0.005304 0.000000 -0.096003 0.001738 0.017361
    12 6.662317 -0.001453 0.000000 0.000000 -0.000001 0.471000
    13 2.046985 -0.000002 0.000000 0.878676 -0.219543 -0.349590
    14 -3.112024 1.517254 4.341911 0.414733 -1.352833 2.263775
    15 4.827230 0.000000 0.000001 -0.466427 0.563665 -0.640056
    16 11.139763 0.000000 0.000000 0.000000 0.000000 -0.828476
    17 10.314597 0.000001 0.000000 -3.729291 0.371924 -0.340419
    18 2.975834 -0.386307 -0.044143 -0.000797 -0.043611 0.000035
    19 1.438886 0.000000 0.000000 0.000000 0.000000 0.462261
    20 1.485303 0.000000 0.000000 0.000000 0.000000 0.758822
    21 -2.869898 1.399663 -4.140396 -1.294301 0.932023 1.438772
    22 4.972048 0.000000 0.000001 0.475022 -1.195352 -0.906438
    23 11.585355 0.000000 0.000000 0.000000 0.000000 -1.342816
    24 10.127057 0.000000 0.000001 1.691423 0.171254 0.199661
    25 2.683750 -0.427338 0.044205 -0.005786 0.043239 -0.157091
    26 1.438885 -0.000001 0.000000 0.000000 0.000000 0.732658
    27 1.485305 0.000001 0.000000 0.000000 0.000000 1.168770
    28 1.038631 0.548043 -0.144017 -0.000001 0.000001 -1.849906
    29 -0.064003 -0.023521 0.026161 0.000000 0.000000 0.000000
    30 3.013925 3.984634 -0.088975 -0.000001 0.000001 -1.849906
    31 -0.084188 -0.025627 -0.001098 0.000000 0.000000 0.000000
    32 4.778187 3.972486 -0.079803 -0.000001 0.000001 -1.849906
    33 -0.058556 -0.021324 0.004244 0.000000 0.000000 0.000000
    34 1.640598 -1.968779 -0.099219 -0.000001 0.000001 -1.849906
    35 0.055573 -0.028908 0.000000 0.000000 0.000000 0.000000
    36 1.646738 0.449549 -1.702246 0.273673 1.032178 0.447335
    37 0.928312 0.000000 -0.000002 0.000000 0.000000 0.000000
    38 0.928314 0.000000 0.000001 0.000000 0.000000 0.000000
    39 1.533672 0.109715 1.664491 -0.264755 -0.055959 0.783109
    40 0.928313 0.000000 0.000000 0.000000 0.000000 -0.453556
    41 0.928314 0.000000 0.000001 0.000000 0.000000 0.000000
  time 1
    0 0.235347 0.719305 2.056226 0.000000 0.000000 -1.570874
    1 0.714866 -0.066408 0.000000 -1.570795 -1.570796 0.000000
    2 -0.000005 0.000007 3.713255 -0.005901 3.208064 -0.369672
    3 18.045721 0.000000 0.000000 0.000000 0.000000 -0.465987
    4 17.597597 0.000000 0.000000 -0.232131 -0.059894 0.095209
    5 0.000005 -0.000003 -3.713255 0.346653 -3.295299 -0.029879
    6 18.045725 0.000000 0.000000 0.000000 0.000000 -0.396321
    7 17.597597 0.000000 0.000000 0.081920 0.134232 0.315379
    8 1.293670 0.684478 -0.000001 -0.521633 -0.047556 -0.082538
    9 5.309685 -0.003834 0.000000 -0.173574 0.018288 0.103163
    10 4.826790 -0.004591 0.000000 -0.104743 -0.000815 -0.008652
    11 5.792767 -0.005304 0.000000 -0.235546 0.004255 0.016946
    12 6.662317 -0.001453 0.000000 0.000000 -0.000001 0.471000
    13 2.046985 -0.000002 0.000000 1.018135 -0.253721 -0.350803
    14 -3.112024 1.517254 4.341911 0.414733 -1.352833 2.263775
    15 4.827230 0.000000 0.000001 0.021319 0.860241 0.081386
    16 11.139763 0.000000 0.000000 0.000000 0.000000 -1.677493
    17 10.314597 0.000001 0.000000 -3.545486 0.227446 0.096452
    18 2.975834 -0.386307 -0.044143 -0.000797 -0.043611 0.000035
    19 1.438886 0.000000 0.000000 0.000000 0.000000 0.462261
    20 1.485303 0.000000 0.000000 0.000000 0.000000 0.758822
    21 -2.869898 1.399663 -4.140396 -1.294301 0.932023 1.438772
    22 4.972048 0.000000 0.000001 -0.716395 -1.200501 0.185003
    23 11.585355 0.000000 0.000000 0.000000 0.000000 -1.731706
    24 10.127057 0.000000 0.000001 1.691423 0.171254 0.199661
    25 2.683750 -0.427338 0.044205 -0.005786 0.043239 -0.157091
    26 1.438885 -0.000001 0.000000 0.000000 0.000000 0.732658
    27 1.485305 0.000001 0.000000 0.000000 0.000000 1.168770
    28 1.038631 0.548043 -0.144017 -0.000001 0.000001 -1.849906
    29 -0.064003 -0.023521 0.026161 0.000000 0.000000 0.000000
    30 3.013925 3.984634 -0.088975 -0.000001 0.000001 -1.849906
    31 -0.084188 -0.025627 -0.001098 0.000000 0.000000 0.000000
    32 4.778187 3.972486 -0.079803 -0.000001 0.000001 -1.849906
    33 -0.058556 -0.021324 0.004244 0.000000 0.000000 0.000000
    34 1.640598 -1.968779 -0.099219 -0.000001 0.000001 -1.849906
    35 0.055573 -0.028908 0.000000 0.000000 0.000000 0.000000
    36 1.646738 0.449549 -1.702246 0.273673 1.032178 0.447335
    37 0.928312 0.000000 -0.000002 0.000000 0.000000 0.000000
    38 0.928314 0.000000 0.000001 0.000000 0.000000 0.000000
    39 1.533672 0.109715 1.664491 -0.264755 -0.055959 0.783109
    40 0.928313 0.000000 0.000000 0.000000 0.000000 -0.453556
    41 0.928314 0.000000 0.000001 0.000000 0.000000 0.000000
  time 2
    0 0.235347 0.719305 2.056226 0.000000 0.000000 -1.570874
    1 0.679708 -0.046876 0.000000 -1.570795 -1.570796 0.000000
    2 -0.000005 0.000007 3.713255 -0.005997 3.207490 -0.370304
    3 18.045721 0.000000 0.000000 0.000000 0.000000 -0.465022
    4 17.597597 0.000000 0.000000 -0.232207 -0.059236 0.093653
    5 0.000005 -0.000003 -3.713255 0.346366 -3.296065 -0.031479
    6 18.045725 0.000000 0.000000 0.000000 0.000000 -0.397408
    7 17.597597 0.000000 0.000000 0.081936 0.134429 0.314727
    8 1.293670 0.684478 -0.000001 -0.521809 -0.045267 -0.078521
    9 5.309685 -0.003834 0.000000 -0.173574 0.018288 0.103163
    10 4.826790 -0.004591 0.000000 -0.104743 -0.000815 -0.008652
    11 5.792767 -0.005304 0.000000 -0.217103 0.003919 0.017029
    12 6.662317 -0.001453 0.000000 0.000000 -0.000001 0.471000
    13 2.046985 -0.000002 0.000000 0.999653 -0.248971 -0.350219
    14 -3.112024 1.517254 4.341911 0.414733 -1.352833 2.263775
    15 4.827230 0.000000 0.000001 -0.057387 0.834370 -0.017414
    16 11.139763 0.000000 0.000000 0.000000 0.000000 -1.588562
    17 10.314597 0.000001 0.000000 -3.562563 0.242731 0.056116
    18 2.975834 -0.386307 -0.044143 -0.000797 -0.043611 0.000035
    19 1.438886 0.000000 0.000000 0.000000 0.000000 0.462261
    20 1.485303 0.000000 0.000000 0.000000 0.000000 0.758822
    21 -2.869898 1.399663 -4.140396 -1.294301 0.932023 1.438772
    22 4.972048 0.000000 0.000001 -0.581643 -1.228253 0.064127
    23 11.585355 0.000000 0.000000 0.000000 0.000000 -1.680288
    24 10.127057 0.000000 0.000001 1.691423 0.171254 0.199661
    25 2.683750 -0.427338 0.044205 -0.005786 0.043239 -0.157091
    26 1.438885 -0.000001 0.000000 0.000000 0.000000 0.732658
    27 1.485305 0.000001 0.000000 0.000000 0.000000 1.168770
    28 1.038631 0.548043 -0.144017 -0.000001 0.000001 -1.849906
    29 -0.064003 -0.023521 0.026161 0.000000 0.000000 0.000000
    30 3.013925 3.984634 -0.088975 -0.000001 0.000001 -1.849906
    31 -0.084188 -0.025627 -0.001098 0.000000 0.000000 0.000000
    32 4.778187 3.972486 -0.079803 -0.000001 0.000001 -1.849906
    33 -0.058556 -0.021324 0.004244 0.000000 0.000000 0.000000
    34 1.640598 -1.968779 -0.099219 -0.000001 0.000001 -1.849906
    35 0.055573 -0.028908 0.000000 0.000000 0.000000 0.000000
    36 1.646738 0.449549 -1.702246 0.273673 1.032178 0.447335
    37 0.928312 0.000000 -0.000002 0.000000 0.000000 0.000000
    38 0.928314 0.000000 0.000001 0.000000 0.000000 0.000000
    39 1.533672 0.109715 1.664491 -0.264755 -0.055959 0.783109
    40 0.928313 0.000000 0.000000 0.000000 0.000000 -0.453556
    41 0.928314 0.000000 0.000001 0.000000 0.000000 0.000000
  time 3
    0 0.235347 0.719305 2.056226 0.000000 0.000000 -1.570874
    1 0.613300 -0.011719 0.000000 -1.570795 -1.570796 0.000000
    2 -0.000005 0.000007 3.713255 -0.006189 3.206438 -0.371276
    3 18.045721 0.000000 0.000000 0.000000 0.000000 -0.463390
    4 17.597597 0.000000 0.000000 -0.232359 -0.058141 0.091045
    5 0.000005 -0.000003 -3.713255 0.345792 -3.297405 -0.034243
    6 18.045725 0.000000 0.000000 0.000000 0.000000 -0.399291
    7 17.597597 0.000000 0.000000 0.081986 0.134764 0.313593
    8 1.293670 0.684478 -0.000001 -0.522112 -0.041384 -0.071774
    9 5.309685 -0.003834 0.000000 -0.173574 0.018288 0.103163
    10 4.826790 -0.004591 0.000000 -0.104743 -0.000815 -0.008652
    11 5.792767 -0.005304 0.000000 -0.185988 0.003368 0.017133
    12 6.662317 -0.001453 0.000000 0.000000 -0.000001 0.471000
    13 2.046985 -0.000002 0.000000 0.968547 -0.241113 -0.349590
    14 -3.112024 1.517254 4.341911 0.414733 -1.352833 2.263775
    15 4.827230 0.000000 0.000001 -0.179441 0.782288 -0.179397
    16 11.139763 0.000000 0.000000 0.000000 0.000000 -1.427939
    17 10.314597 0.000001 0.000000 -3.595999 0.271540 -0.020901
    18 2.975834 -0.386307 -0.044143 -0.000797 -0.043611 0.000035
    19 1.438886 0.000000 0.000000 0.000000 0.000000 0.462261
    20 1.485303 0.000000 0.000000 0.000000 0.000000 0.758822
    21 -2.869898 1.399663 -4.140396 -1.294301 0.932023 1.438772
    22 4.972048 0.000000 0.000001 -0.310283 -1.257694 -0.184410
    23 11.585355 0.000000 0.000000 0.000000 0.000000 -1.593611
    24 10.127057 0.000000 0.000001 1.691423 0.171254 0.199661
    25 2.683750 -0.427338 0.044205 -0.005786 0.043239 -0.157091
    26 1.438885 -0.000001 0.000000 0.000000 0.000000 0.732658
    27 1.485305 0.000001 0.000000 0.000000 0.000000 1.168770
    28 1.038631 0.548043 -0.144017 -0.000001 0.000001 -1.849906
    29 -0.064003 -0.023521 0.026161 0.000000 0.000000 0.000000
    30 3.013925 3.984634 -0.088975 -0.000001 0.000001 -1.849906
    31 -0.084188 -0.025627 -0.001098 0.000000 0.000000 0.000000
    32 4.778187 3.972486 -0.079803 -0.000001 0.000001 -1.849906
    33 -0.058556 -0.021324 0.004244 0.000000 0.000000 0.000000
    34 1.640598 -1.968779 -0.099219 -0.000001 0.000001 -1.849906
    35 0.055573 -0.028908 0.000000 0.000000 0.000000 0.000000
    36 1.646738 0.449549 -1.702246 0.273673 1.032178 0.447335
    37 0.928312 0.000000 -0.000002 0.000000 0.000000 0.000000
    38 0.928314 0.000000 0.000001 0.000000 0.000000 0.000000
    39 1.533672 0.109715 1.664491 -0.264755 -0.055959 0.783109
    40 0.928313 0.000000 0.000000 0.000000 0.000000 -0.453556
    41 0.928314 0.000000 0.000001 0.000000 0.000000 0.000000
  time 4
    0 0.235347 0.719305 2.056226 0.000000 0.000000 -1.570874
    1 0.554704 0.019532 0.000000 -1.570795 -1.570796 0.000000
    2 -0.000005 0.000007 3.713255 -0.006381 3.205387 -0.372199
    3 18.045721 0.000000 0.000000 0.000000 0.000000 -0.461831
    4 17.597597 0.000000 0.000000 -0.232511 -0.057143 0.088575
    5 0.000005 -0.000003 -3.713255 0.345409 -3.298650 -0.036764
    6 18.045725 0.000000 0.000000 0.000000 0.000000 -0.400957
    7 17.597597 0.000000 0.000000 0.082019 0.135060 0.312529
    8 1.293670 0.684478 -0.000001 -0.522351 -0.037800 -0.065546
    9 5.309685 -0.003834 0.000000 -0.173574 0.018288 0.103163
    10 4.826790 -0.004591 0.000000 -0.104743 -0.000815 -0.008652
    11 5.792767 -0.005304 0.000000 -0.157238 0.002852 0.017236
    12 6.662317 -0.001453 0.000000 0.000000 -0.000001 0.471000
    13 2.046985 -0.000002 0.000000 0.939811 -0.234021 -0.349275
    14 -3.112024 1.517254 4.341911 0.414733 -1.352833 2.263775
    15 4.827230 0.000000 0.000001 -0.280820 0.724675 -0.325103
    16 11.139763 0.000000 0.000000 0.000000 0.000000 -1.264162
    17 10.314597 0.000001 0.000000 -3.624850 0.297696 -0.100314
    18 2.975834 -0.386307 -0.044143 -0.000797 -0.043611 0.000035
    19 1.438886 0.000000 0.000000 0.000000 0.000000 0.462261
    20 1.485303 0.000000 0.000000 0.000000 0.000000 0.758822
    21 -2.869898 1.399663 -4.140396 -1.294301 0.932023 1.438772
    22 4.972048 0.000000 0.000001 -0.032502 -1.261314 -0.441444
    23 11.585355 0.000000 0.000000 0.000000 0.000000 -1.513510
    24 10.127057 0.000000 0.000001 1.691423 0.171254 0.199661
    25 2.683750 -0.427338 0.044205 -0.005786 0.043239 -0.157091
    26 1.438885 -0.000001 0.000000 0.000000 0.000000 0.732658
    27 1.485305 0.000001 0.000000 0.000000 0.000000 1.168770
    28 1.038631 0.548043 -0.144017 -0.000001 0.000001 -1.849906
    29 -0.064003 -0.023521 0.026161 0.000000 0.000000 0.000000
    30 3.013925 3.984634 -0.088975 -0.000001 0.000001 -1.849906
    31 -0.084188 -0.025627 -0.001098 0.000000 0.000000 0.000000
    32 4.778187 3.972486 -0.079803 -0.000001 0.000001 -1.849906
    33 -0.058556 -0.021324 0.004244 0.000000 0.000000 0.000000
    34 1.640598 -1.968779 -0.099219 -0.000001 0.000001 -1.849906
    35 0.055573 -0.028908 0.000000 0.000000 0.000000 0.000000
    36 1.646738 0.449549 -1.702246 0.273673 1.032178 0.447335
    37 0.928312 0.000000 -0.000002 0.000000 0.000000 0.000000
    38 0.928314 0.000000 0.000001 0.000000 0.000000 0.000000
    39 1.533672 0.109715 1.664491 -0.264755 -0.055959 0.783109
    40 0.928313 0.000000 0.000000 0.000000 0.000000 -0.453556
    41 0.928314 0.000000 0.000001 0.000000 0.000000 0.000000
  time 5
    0 0.235347 0.719305 2.056226 0.000000 0.000000 -1.570874
    1 0.503922 0.046876 0.000000 -1.570795 -1.570796 0.000000
    2 -0.000005 0.000007 3.713255 -0.006572 3.204622 -0.372976
    3 18.045721 0.000000 0.000000 0.000000 0.000000 -0.460421
    4 17.597597 0.000000 0.000000 -0.232638 -0.056291 0.086516
    5 0.000005 -0.000003 -3.713255 0.345026 -3.299703 -0.038849
    6 18.045725 0.000000 0.000000 0.000000 0.000000 -0.402334
    7 17.597597 0.000000 0.000000 0.082052 0.135336 0.311602
    8 1.293670 0.684478 -0.000001 -0.522543 -0.034756 -0.060273
    9 5.309685 -0.003834 0.000000 -0.173574 0.018288 0.103163
    10 4.826790 -0.004591 0.000000 -0.104743 -0.000815 -0.008652
    11 5.792767 -0.005304 0.000000 -0.132907 0.002409 0.017299
    12 6.662317 -0.001453 0.000000 0.000000 -0.000001 0.471000
    13 2.046985 -0.000002 0.000000 0.915512 -0.228167 -0.349275
    14 -3.112024 1.517254 4.341911 0.414733 -1.352833 2.263775
    15 4.827230 0.000000 0.000001 -0.358881 0.667998 -0.447619
    16 11.139763 0.000000 0.000000 0.000000 0.000000 -1.109496
    17 10.314597 0.000001 0.000000 -3.647410 0.319307 -0.175713
    18 2.975834 -0.386307 -0.044143 -0.000797 -0.043611 0.000035
    19 1.438886 0.000000 0.000000 0.000000 0.000000 0.462261
    20 1.485303 0.000000 0.000000 0.000000 0.000000 0.758822
    21 -2.869898 1.399663 -4.140396 -1.294301 0.932023 1.438772
    22 4.972048 0.000000 0.000001 0.192755 -1.245869 -0.649535
    23 11.585355 0.000000 0.000000 0.000000 0.000000 -1.445652
    24 10.127057 0.000000 0.000001 1.691423 0.171254 0.199661
    25 2.683750 -0.427338 0.044205 -0.005786 0.043239 -0.157091
    26 1.438885 -0.000001 0.000000 0.000000 0.000000 0.732658
    27 1.485305 0.000001 0.000000 0.000000 0.000000 1.168770
    28 1.038631 0.548043 -0.144017 -0.000001 0.000001 -1.849906
    29 -0.064003 -0.023521 0.026161 0.000000 0.000000 0.000000
    30 3.013925 3.984634 -0.088975 -0.000001 0.000001 -1.849906
    31 -0.084188 -0.025627 -0.001098 0.000000 0.000000 0.000000
    32 4.778187 3.972486 -0.079803 -0.000001 0.000001 -1.849906
    33 -0.058556 -0.021324 0.004244 0.000000 0.000000 0.000000
    34 1.640598 -1.968779 -0.099219 -0.000001 0.000001 -1.849906
    35 0.055573 -0.028908 0.000000 0.000000 0.000000 0.000000
    36 1.646738 0.449549 -1.702246 0.273673 1.032178 0.447335
    37 0.928312 0.000000 -0.000002 0.000000 0.000000 0.000000
    38 0.928314 0.000000 0.000001 0.000000 0.000000 0.000000
    39 1.533672 0.109715 1.664491 -0.264755 -0.055959 0.783109
    40 0.928313 0.000000 0.000000 0.000000 0.000000 -0.453556
    41 0.928314 0.000000 0.000001 0.000000 0.000000 0.000000
  time 6
    0 0.235347 0.719305 2.056226 0.000000 0.000000 -1.570874
    1 0.460952 0.070315 0.000000 -1.570795 -1.570796 0.000000
    2 -0.000005 0.000007 3.713255 -0.006668 3.203857 -0.373608
    3 18.045721 0.000000 0.000000 0.000000 0.000000 -0.459308
    4 17.597597 0.000000 0.000000 -0.232739 -0.055561 0.084686
    5 0.000005 -0.000003 -3.713255 0.344644 -3.300564 -0.040643
    6 18.045725 0.000000 0.000000 0.000000 0.000000 -0.403493
    7 17.597597 0.000000 0.000000 0.082068 0.135553 0.310812
    8 1.293670 0.684478 -0.000001 -0.522702 -0.032156 -0.055753
    9 5.309685 -0.003834 0.000000 -0.173574 0.018288 0.103163
    10 4.826790 -0.004591 0.000000 -0.104743 -0.000815 -0.008652
    11 5.792767 -0.005304 0.000000 -0.112066 0.002037 0.017340
    12 6.662317 -0.001453 0.000000 0.000000 -0.000001 0.471000
    13 2.046985 -0.000002 0.000000 0.894703 -0.223258 -0.349410
    14 -3.112024 1.517254 4.341911 0.414733 -1.352833 2.263775
    15 4.827230 0.000000 0.000001 -0.420906 0.612427 -0.554295
    16 11.139763 0.000000 0.000000 0.000000 0.000000 -0.959946
    17 10.314597 0.000001 0.000000 -3.665207 0.337397 -0.248935
    18 2.975834 -0.386307 -0.044143 -0.000797 -0.043611 0.000035
    19 1.438886 0.000000 0.000000 0.000000 0.000000 0.462261
    20 1.485303 0.000000 0.000000 0.000000 0.000000 0.758822
    21 -2.869898 1.399663 -4.140396 -1.294301 0.932023 1.438772
    22 4.972048 0.000000 0.000001 0.362394 -1.220691 -0.804797
    23 11.585355 0.000000 0.000000 0.000000 0.000000 -1.387588
    24 10.127057 0.000000 0.000001 1.691423 0.171254 0.199661
    25 2.683750 -0.427338 0.044205 -0.005786 0.043239 -0.157091
    26 1.438885 -0.000001 0.000000 0.000000 0.000000 0.732658
    27 1.485305 0.000001 0.000000 0.000000 0.000000 1.168770
    28 1.038631 0.548043 -0.144017 -0.000001 0.000001 -1.849906
    29 -0.064003 -0.023521 0.026161 0.000000 0.000000 0.000000
    30 3.013925 3.984634 -0.088975 -0.000001 0.000001 -1.849906
    31 -0.084188 -0.025627 -0.001098 0.000000 0.000000 0.000000
    32 4.778187 3.972486 -0.079803 -0.000001 0.000001 -1.849906
    33 -0.058556 -0.021324 0.004244 0.000000 0.000000 0.000000
    34 1.640598 -1.968779 -0.099219 -0.000001 0.000001 -1.849906
    35 0.055573 -0.028908 0.000000 0.000000 0.000000 0.000000
    36 1.646738 0.449549 -1.702246 0.273673 1.032178 0.447335
    37 0.928312 0.000000 -0.000002 0.000000 0.000000 0.000000
    38 0.928314 0.000000 0.000001 0.000000 0.000000 0.000000
    39 1.533672 0.109715 1.664491 -0.264755 -0.055959 0.783109
    40 0.928313 0.000000 0.000000 0.000000 0.000000 -0.453556
    41 0.928314 0.000000 0.000001 0.000000 0.000000 0.000000
  time 7
    0 0.235347 0.719305 2.056226 0.000000 0.000000 -1.570874
    1 0.429701 0.089846 0.000000 -1.570795 -1.570796 0.000000
    2 -0.000005 0.000007 3.713255 -0.006764 3.203379 -0.374094
    3 18.045721 0.000000 0.000000 0.000000 0.000000 -0.458343
    4 17.597597 0.000000 0.000000 -0.232815 -0.055001 0.083313
    5 0.000005 -0.000003 -3.713255 0.344452 -3.301234 -0.042049
    6 18.045725 0.000000 0.000000 0.000000 0.000000 -0.404362
    7 17.597597 0.000000 0.000000 0.082085 0.135731 0.310194
    8 1.293670 0.684478 -0.000001 -0.522814 -0.030154 -0.052271
    9 5.309685 -0.003834 0.000000 -0.173574 0.018288 0.103163
    10 4.826790 -0.004591 0.000000 -0.104743 -0.000815 -0.008652
    11 5.792767 -0.005304 0.000000 -0.096003 0.001738 0.017361
    12 6.662317 -0.001453 0.000000 0.000000 -0.000001 0.471000
    13 2.046985 -0.000002 0.000000 0.878676 -0.219543 -0.349590
    14 -3.112024 1.517254 4.341911 0.414733 -1.352833 2.263775
    15 4.827230 0.000000 0.000001 -0.466427 0.563665 -0.640056
    16 11.139763 0.000000 0.000000 0.000000 0.000000 -0.828476
    17 10.314597 0.000001 0.000000 -3.677970 0.351029 -0.313554
    18 2.975834 -0.386307 -0.044143 -0.000797 -0.043611 0.000035
    19 1.438886 0.000000 0.000000 0.000000 0.000000 0.462261
    20 1.485303 0.000000 0.000000 0.000000 0.000000 0.758822
    21 -2.869898 1.399663 -4.140396 -1.294301 0.932023 1.438772
    22 4.972048 0.000000 0.000001 0.475022 -1.195352 -0.906438
    23 11.585355 0.000000 0.000000 0.000000 0.000000 -1.342816
    24 10.127057 0.000000 0.000001 1.691423 0.171254 0.199661
    25 2.683750 -0.427338 0.044205 -0.005786 0.043239 -0.157091
    26 1.438885 -0.000001 0.000000 0.000000 0.000000 0.732658
    27 1.485305 0.000001 0.000000 0.000000 0.000000 1.168770
    28 1.038631 0.548043 -0.144017 -0.000001 0.000001 -1.849906
    29 -0.064003 -0.023521 0.026161 0.000000 0.000000 0.000000
    30 3.013925 3.984634 -0.088975 -0.000001 0.000001 -1.849906
    31 -0.084188 -0.025627 -0.001098 0.000000 0.000000 0.000000
    32 4.778187 3.972486 -0.079803 -0.000001 0.000001 -1.849906
    33 -0.058556 -0.021324 0.004244 0.000000 0.000000 0.000000
    34 1.640598 -1.968779 -0.099219 -0.000001 0.000001 -1.849906
    35 0.055573 -0.028908 0.000000 0.000000 0.000000 0.000000
    36 1.646738 0.449549 -1.702246 0.273673 1.032178 0.447335
    37 0.928312 0.000000 -0.000002 0.000000 0.000000 0.000000
    38 0.928314 0.000000 0.000001 0.000000 0.000000 0.000000
    39 1.533672 0.109715 1.664491 -0.264755 -0.055959 0.783109
    40 0.928313 0.000000 0.000000 0.000000 0.000000 -0.453556
    41 0.928314 0.000000 0.000001 0.000000 0.000000 0.000000
end
