version 1
nodes
  0 "Bip01" -1
  1 "Bip01 Pelvis" 0
  2 "Bip01 L Leg" 1
  3 "Bip01 L Leg1" 2
  4 "Bip01 L Foot" 3
  5 "Bip01 R Leg" 1
  6 "Bip01 R Leg1" 5
  7 "Bip01 R Foot" 6
  8 "Bip01 Spine" 1
  9 "Bip01 Spine1" 8
  10 "Bip01 Spine2" 9
  11 "Bip01 Spine3" 10
  12 "Bip01 Neck" 11
  13 "Bip01 Head" 12
  14 "Bip01 L Arm" 12
  15 "Bip01 L Arm1" 14
  16 "Bip01 L Arm2" 15
  17 "Bip01 L Hand" 16
  18 "Bip01 L Finger1" 17
  19 "Bip01 L Finger11" 18
  20 "Bip01 L Finger12" 19
  21 "Bip01 R Arm" 12
  22 "Bip01 R Arm1" 21
  23 "Bip01 R Arm2" 22
  24 "Bip01 R Hand" 23
  25 "Bip01 R Finger1" 24
  26 "Bip01 R Finger11" 25
  27 "Bip01 R Finger12" 26
  28 "Dummy08" 13
  29 "Bone02" 28
  30 "Dummy04" 13
  31 "Bone05" 30
  32 "Dummy03" 13
  33 "Bone07" 32
  34 "Dummy10" 13
  35 "Bone13" 34
  36 "Bip01 L Finger0" 17
  37 "Bip01 L Finger01" 36
  38 "Bip01 L Finger02" 37
  39 "Bip01 R Finger0" 24
  40 "Bip01 R Finger01" 39
  41 "Bip01 R Finger02" 40
end
skeleton
  time 0
    0 0.235347 0.367732 3.528927 0.000000 0.000000 -1.570874
    1 0.000000 0.000000 0.000000 -1.570795 -1.570796 0.000000
    2 -0.000005 0.000007 3.713255 0.002054 3.115505 -0.021473
    3 18.045721 0.000000 0.000000 0.000000 0.000000 -0.121501
    4 17.597597 0.000000 0.000000 -0.002613 0.026036 0.099967
    5 0.000005 -0.000003 -3.713255 -0.002524 -3.124238 -0.024449
    6 18.045725 0.000000 0.000000 0.000000 0.000000 -0.127551
    7 17.597597 0.000000 0.000000 0.002950 -0.017289 0.103055
    8 1.293670 0.684478 -0.000001 -0.000004 -0.000001 0.009520
    9 5.309685 -0.003834 0.000000 0.000000 0.000000 -0.261661
    10 4.826790 -0.004591 0.000000 -0.156532 -0.012128 -0.077555
    11 5.792767 -0.005304 0.000000 -0.052037 -0.005417 -0.104517
    12 6.662317 -0.001453 0.000000 0.000000 -0.000001 0.471000
    13 2.046985 -0.000002 0.000000 0.209168 0.001328 -0.314306
    14 -3.112024 1.517254 4.341911 1.374519 -0.766073 1.378360
    15 4.827230 0.000000 0.000001 -0.567806 0.389719 -0.656071
    16 11.139763 0.000000 0.000000 0.000000 0.000000 -0.946140
    17 10.314597 0.000001 0.000000 -3.687048 0.382838 -0.380522
    18 2.975834 -0.386307 -0.044143 -0.012782 -0.041705 0.279374
    19 1.438886 0.000000 0.000000 0.000000 0.000000 0.924525
    20 1.485303 0.000000 0.000000 0.000000 0.000000 0.907076
    21 -2.869898 1.399663 -4.140396 0.994288 1.214777 3.634075
    22 4.972048 0.000000 0.000001 -0.375957 -1.241606 -0.720085
    23 11.585355 0.000000 0.000000 0.000000 0.000000 -1.504976
    24 10.127057 0.000000 0.000001 1.663521 0.688482 -0.096687
    25 2.683750 -0.427338 0.044205 -0.005786 0.043239 -0.157091
    26 1.438885 -0.000001 0.000000 0.000000 0.000000 0.732658
    27 1.485305 0.000001 0.000000 0.000000 0.000000 1.168770
    28 1.038631 0.548043 -0.144017 -0.000001 0.000001 -1.849906
    29 -0.064003 -0.023521 0.026161 0.000000 0.000000 0.000000
    30 3.013925 3.984634 -0.088975 -0.000001 0.000001 -1.849906
    31 -0.084188 -0.025627 -0.001098 0.000000 0.000000 0.000000
    32 4.778187 3.972486 -0.079803 -0.000001 0.000001 -1.849906
    33 -0.058556 -0.021324 0.004244 0.000000 0.000000 0.000000
    34 1.640598 -1.968779 -0.099219 -0.000001 0.000001 -1.849906
    35 0.055573 -0.028908 0.000000 0.000000 0.000000 0.000000
    36 1.646738 0.449549 -1.702246 -0.161934 0.581206 -0.284024
    37 0.928312 0.000000 -0.000002 0.000000 0.000000 0.000000
    38 0.928314 0.000000 0.000001 0.000000 0.000000 0.000000
    39 1.533672 0.109715 1.664491 -0.264755 -0.055959 0.783109
    40 0.928313 0.000000 0.000000 0.000000 0.000000 -0.453556
    41 0.928314 0.000000 0.000001 0.000000 0.000000 0.000000
  time 1
    0 0.235347 0.367732 3.528927 0.000000 0.000000 -1.570874
    1 0.000000 0.000000 0.000000 -1.570795 -1.570796 0.000000
    2 -0.000005 0.000007 3.713255 0.002054 3.115505 -0.021473
    3 18.045721 0.000000 0.000000 0.000000 0.000000 -0.121501
    4 17.597597 0.000000 0.000000 -0.002613 0.026036 0.099967
    5 0.000005 -0.000003 -3.713255 -0.002524 -3.124238 -0.024449
    6 18.045725 0.000000 0.000000 0.000000 0.000000 -0.127551
    7 17.597597 0.000000 0.000000 0.002950 -0.017289 0.103055
    8 1.293670 0.684478 -0.000001 -0.000004 -0.000001 0.009520
    9 5.309685 -0.003834 0.000000 0.000000 0.000000 -0.261661
    10 4.826790 -0.004591 0.000000 -0.156532 -0.012021 -0.076850
    11 5.792767 -0.005304 0.000000 -0.052054 -0.005309 -0.102336
    12 6.662317 -0.001453 0.000000 0.000000 -0.000001 0.471000
    13 2.046985 -0.000002 0.000000 0.209168 0.001351 -0.317227
    14 -3.112024 1.517254 4.341911 1.372122 -0.765573 1.381811
    15 4.827230 0.000000 0.000001 -0.566455 0.384783 -0.655983
    16 11.139763 0.000000 0.000000 0.000000 0.000000 -0.946140
    17 10.314597 0.000001 0.000000 -3.687048 0.382838 -0.380522
    18 2.975834 -0.386307 -0.044143 -0.012782 -0.041705 0.279374
    19 1.438886 0.000000 0.000000 0.000000 0.000000 0.924525
    20 1.485303 0.000000 0.000000 0.000000 0.000000 0.907076
    21 -2.869898 1.399663 -4.140396 0.990165 1.213788 3.629665
    22 4.972048 0.000000 0.000001 -0.371548 -1.239112 -0.724762
    23 11.585355 0.000000 0.000000 0.000000 0.000000 -1.504976
    24 10.127057 0.000000 0.000001 1.663521 0.688482 -0.096687
    25 2.683750 -0.427338 0.044205 -0.005786 0.043239 -0.157091
    26 1.438885 -0.000001 0.000000 0.000000 0.000000 0.732658
    27 1.485305 0.000001 0.000000 0.000000 0.000000 1.168770
    28 1.038631 0.548043 -0.144017 -0.000001 0.000001 -1.849906
    29 -0.064003 -0.023521 0.026161 0.000000 0.000000 0.000000
    30 3.013925 3.984634 -0.088975 -0.000001 0.000001 -1.849906
    31 -0.084188 -0.025627 -0.001098 0.000000 0.000000 0.000000
    32 4.778187 3.972486 -0.079803 -0.000001 0.000001 -1.849906
    33 -0.058556 -0.021324 0.004244 0.000000 0.000000 0.000000
    34 1.640598 -1.968779 -0.099219 -0.000001 0.000001 -1.849906
    35 0.055573 -0.028908 0.000000 0.000000 0.000000 0.000000
    36 1.646738 0.449549 -1.702246 -0.161934 0.581206 -0.284024
    37 0.928312 0.000000 -0.000002 0.000000 0.000000 0.000000
    38 0.928314 0.000000 0.000001 0.000000 0.000000 0.000000
    39 1.533672 0.109715 1.664491 -0.264755 -0.055959 0.783109
    40 0.928313 0.000000 0.000000 0.000000 0.000000 -0.453556
    41 0.928314 0.000000 0.000001 0.000000 0.000000 0.000000
  time 2
    0 0.235347 0.367732 3.528927 0.000000 0.000000 -1.570874
    1 0.000000 0.000000 0.000000 -1.570795 -1.570796 0.000000
    2 -0.000005 0.000007 3.713255 0.002054 3.115505 -0.021473
    3 18.045721 0.000000 0.000000 0.000000 0.000000 -0.121501
    4 17.597597 0.000000 0.000000 -0.002613 0.026036 0.099967
    5 0.000005 -0.000003 -3.713255 -0.002524 -3.124238 -0.024449
    6 18.045725 0.000000 0.000000 0.000000 0.000000 -0.127551
    7 17.597597 0.000000 0.000000 0.002950 -0.017289 0.103055
    8 1.293670 0.684478 -0.000001 -0.000004 -0.000001 0.009520
    9 5.309685 -0.003834 0.000000 0.000000 0.000000 -0.261661
    10 4.826790 -0.004591 0.000000 -0.156549 -0.011865 -0.075857
    11 5.792767 -0.005304 0.000000 -0.052070 -0.005153 -0.099367
    12 6.662317 -0.001453 0.000000 0.000000 -0.000001 0.471000
    13 2.046985 -0.000002 0.000000 0.209211 0.001418 -0.321183
    14 -3.112024 1.517254 4.341911 1.368766 -0.764881 1.386509
    15 4.827230 0.000000 0.000001 -0.564634 0.378145 -0.655896
    16 11.139763 0.000000 0.000000 0.000000 0.000000 -0.946140
    17 10.314597 0.000001 0.000000 -3.687048 0.382838 -0.380522
    18 2.975834 -0.386307 -0.044143 -0.012782 -0.041705 0.279374
    19 1.438886 0.000000 0.000000 0.000000 0.000000 0.924525
    20 1.485303 0.000000 0.000000 0.000000 0.000000 0.907076
    21 -2.869898 1.399663 -4.140396 0.984604 1.212403 3.623816
    22 4.972048 0.000000 0.000001 -0.365669 -1.235734 -0.731020
    23 11.585355 0.000000 0.000000 0.000000 0.000000 -1.504976
    24 10.127057 0.000000 0.000001 1.663521 0.688482 -0.096687
    25 2.683750 -0.427338 0.044205 -0.005786 0.043239 -0.157091
    26 1.438885 -0.000001 0.000000 0.000000 0.000000 0.732658
    27 1.485305 0.000001 0.000000 0.000000 0.000000 1.168770
    28 1.038631 0.548043 -0.144017 -0.000001 0.000001 -1.849906
    29 -0.064003 -0.023521 0.026161 0.000000 0.000000 0.000000
    30 3.013925 3.984634 -0.088975 -0.000001 0.000001 -1.849906
    31 -0.084188 -0.025627 -0.001098 0.000000 0.000000 0.000000
    32 4.778187 3.972486 -0.079803 -0.000001 0.000001 -1.849906
    33 -0.058556 -0.021324 0.004244 0.000000 0.000000 0.000000
    34 1.640598 -1.968779 -0.099219 -0.000001 0.000001 -1.849906
    35 0.055573 -0.028908 0.000000 0.000000 0.000000 0.000000
    36 1.646738 0.449549 -1.702246 -0.161934 0.581206 -0.284024
    37 0.928312 0.000000 -0.000002 0.000000 0.000000 0.000000
    38 0.928314 0.000000 0.000001 0.000000 0.000000 0.000000
    39 1.533672 0.109715 1.664491 -0.264755 -0.055959 0.783109
    40 0.928313 0.000000 0.000000 0.000000 0.000000 -0.453556
    41 0.928314 0.000000 0.000001 0.000000 0.000000 0.000000
  time 3
    0 0.235347 0.367732 3.528927 0.000000 0.000000 -1.570874
    1 0.000000 0.000000 0.000000 -1.570795 -1.570796 0.000000
    2 -0.000005 0.000007 3.713255 0.002054 3.115505 -0.021473
    3 18.045721 0.000000 0.000000 0.000000 0.000000 -0.121501
    4 17.597597 0.000000 0.000000 -0.002613 0.026036 0.099967
    5 0.000005 -0.000003 -3.713255 -0.002524 -3.124238 -0.024449
    6 18.045725 0.000000 0.000000 0.000000 0.000000 -0.127551
    7 17.597597 0.000000 0.000000 0.002950 -0.017289 0.103055
    8 1.293670 0.684478 -0.000001 -0.000004 -0.000001 0.009520
    9 5.309685 -0.003834 0.000000 0.000000 0.000000 -0.261661
    10 4.826790 -0.004591 0.000000 -0.156565 -0.011673 -0.074667
    11 5.792767 -0.005304 0.000000 -0.052086 -0.004962 -0.095734
    12 6.662317 -0.001453 0.000000 0.000000 -0.000001 0.471000
    13 2.046985 -0.000002 0.000000 0.209211 0.001486 -0.326037
    14 -3.112024 1.517254 4.341911 1.364836 -0.763996 1.392262
    15 4.827230 0.000000 0.000001 -0.562402 0.370060 -0.655720
    16 11.139763 0.000000 0.000000 0.000000 0.000000 -0.946140
    17 10.314597 0.000001 0.000000 -3.687048 0.382838 -0.380522
    18 2.975834 -0.386307 -0.044143 -0.012782 -0.041705 0.279374
    19 1.438886 0.000000 0.000000 0.000000 0.000000 0.924525
    20 1.485303 0.000000 0.000000 0.000000 0.000000 0.907076
    21 -2.869898 1.399663 -4.140396 0.977893 1.210735 3.616626
    22 4.972048 0.000000 0.000001 -0.358707 -1.231551 -0.738595
    23 11.585355 0.000000 0.000000 0.000000 0.000000 -1.504976
    24 10.127057 0.000000 0.000001 1.663521 0.688482 -0.096687
    25 2.683750 -0.427338 0.044205 -0.005786 0.043239 -0.157091
    26 1.438885 -0.000001 0.000000 0.000000 0.000000 0.732658
    27 1.485305 0.000001 0.000000 0.000000 0.000000 1.168770
    28 1.038631 0.548043 -0.144017 -0.000001 0.000001 -1.849906
    29 -0.064003 -0.023521 0.026161 0.000000 0.000000 0.000000
    30 3.013925 3.984634 -0.088975 -0.000001 0.000001 -1.849906
    31 -0.084188 -0.025627 -0.001098 0.000000 0.000000 0.000000
    32 4.778187 3.972486 -0.079803 -0.000001 0.000001 -1.849906
    33 -0.058556 -0.021324 0.004244 0.000000 0.000000 0.000000
    34 1.640598 -1.968779 -0.099219 -0.000001 0.000001 -1.849906
    35 0.055573 -0.028908 0.000000 0.000000 0.000000 0.000000
    36 1.646738 0.449549 -1.702246 -0.161934 0.581206 -0.284024
    37 0.928312 0.000000 -0.000002 0.000000 0.000000 0.000000
    38 0.928314 0.000000 0.000001 0.000000 0.000000 0.000000
    39 1.533672 0.109715 1.664491 -0.264755 -0.055959 0.783109
    40 0.928313 0.000000 0.000000 0.000000 0.000000 -0.453556
    41 0.928314 0.000000 0.000001 0.000000 0.000000 0.000000
  time 4
    0 0.235347 0.367732 3.528927 0.000000 0.000000 -1.570874
    1 0.000000 0.000000 0.000000 -1.570795 -1.570796 0.000000
    2 -0.000005 0.000007 3.713255 0.002054 3.115505 -0.021473
    3 18.045721 0.000000 0.000000 0.000000 0.000000 -0.121501
    4 17.597597 0.000000 0.000000 -0.002613 0.026036 0.099967
    5 0.000005 -0.000003 -3.713255 -0.002524 -3.124238 -0.024449
    6 18.045725 0.000000 0.000000 0.000000 0.000000 -0.127551
    7 17.597597 0.000000 0.000000 0.002950 -0.017289 0.103055
    8 1.293670 0.684478 -0.000001 -0.000004 -0.000001 0.009520
    9 5.309685 -0.003834 0.000000 0.000000 0.000000 -0.261661
    10 4.826790 -0.004591 0.000000 -0.156582 -0.011457 -0.073300
    11 5.792767 -0.005304 0.000000 -0.052103 -0.004746 -0.091602
    12 6.662317 -0.001453 0.000000 0.000000 -0.000001 0.471000
    13 2.046985 -0.000002 0.000000 0.209211 0.001554 -0.331566
    14 -3.112024 1.517254 4.341911 1.360329 -0.763034 1.398781
    15 4.827230 0.000000 0.000001 -0.559818 0.360784 -0.655633
    16 11.139763 0.000000 0.000000 0.000000 0.000000 -0.946140
    17 10.314597 0.000001 0.000000 -3.687048 0.382838 -0.380522
    18 2.975834 -0.386307 -0.044143 -0.012782 -0.041705 0.279374
    19 1.438886 0.000000 0.000000 0.000000 0.000000 0.924525
    20 1.485303 0.000000 0.000000 0.000000 0.000000 0.907076
    21 -2.869898 1.399663 -4.140396 0.970319 1.208785 3.608573
    22 4.972048 0.000000 0.000001 -0.350971 -1.226805 -0.746961
    23 11.585355 0.000000 0.000000 0.000000 0.000000 -1.504976
    24 10.127057 0.000000 0.000001 1.663521 0.688482 -0.096687
    25 2.683750 -0.427338 0.044205 -0.005786 0.043239 -0.157091
    26 1.438885 -0.000001 0.000000 0.000000 0.000000 0.732658
    27 1.485305 0.000001 0.000000 0.000000 0.000000 1.168770
    28 1.038631 0.548043 -0.144017 -0.000001 0.000001 -1.849906
    29 -0.064003 -0.023521 0.026161 0.000000 0.000000 0.000000
    30 3.013925 3.984634 -0.088975 -0.000001 0.000001 -1.849906
    31 -0.084188 -0.025627 -0.001098 0.000000 0.000000 0.000000
    32 4.778187 3.972486 -0.079803 -0.000001 0.000001 -1.849906
    33 -0.058556 -0.021324 0.004244 0.000000 0.000000 0.000000
    34 1.640598 -1.968779 -0.099219 -0.000001 0.000001 -1.849906
    35 0.055573 -0.028908 0.000000 0.000000 0.000000 0.000000
    36 1.646738 0.449549 -1.702246 -0.161934 0.581206 -0.284024
    37 0.928312 0.000000 -0.000002 0.000000 0.000000 0.000000
    38 0.928314 0.000000 0.000001 0.000000 0.000000 0.000000
    39 1.533672 0.109715 1.664491 -0.264755 -0.055959 0.783109
    40 0.928313 0.000000 0.000000 0.000000 0.000000 -0.453556
    41 0.928314 0.000000 0.000001 0.000000 0.000000 0.000000
  time 5
    0 0.235347 0.367732 3.528927 0.000000 0.000000 -1.570874
    1 0.000000 0.000000 0.000000 -1.570795 -1.570796 0.000000
    2 -0.000005 0.000007 3.713255 0.002054 3.115505 -0.021473
    3 18.045721 0.000000 0.000000 0.000000 0.000000 -0.121501
    4 17.597597 0.000000 0.000000 -0.002613 0.026036 0.099967
    5 0.000005 -0.000003 -3.713255 -0.002524 -3.124238 -0.024449
    6 18.045725 0.000000 0.000000 0.000000 0.000000 -0.127551
    7 17.597597 0.000000 0.000000 0.002950 -0.017289 0.103055
    8 1.293670 0.684478 -0.000001 -0.000004 -0.000001 0.009520
    9 5.309685 -0.003834 0.000000 0.000000 0.000000 -0.261661
    10 4.826790 -0.004591 0.000000 -0.156598 -0.011230 -0.071822
    11 5.792767 -0.005304 0.000000 -0.052135 -0.004506 -0.087097
    12 6.662317 -0.001453 0.000000 0.000000 -0.000001 0.471000
    13 2.046985 -0.000002 0.000000 0.209211 0.001621 -0.337544
    14 -3.112024 1.517254 4.341911 1.355440 -0.761919 1.405972
    15 4.827230 0.000000 0.000001 -0.557057 0.350657 -0.655633
    16 11.139763 0.000000 0.000000 0.000000 0.000000 -0.946140
    17 10.314597 0.000001 0.000000 -3.687048 0.382838 -0.380522
    18 2.975834 -0.386307 -0.044143 -0.012782 -0.041705 0.279374
    19 1.438886 0.000000 0.000000 0.000000 0.000000 0.924525
    20 1.485303 0.000000 0.000000 0.000000 0.000000 0.907076
    21 -2.869898 1.399663 -4.140396 0.962170 1.206665 3.599848
    22 4.972048 0.000000 0.000001 -0.342849 -1.221496 -0.755854
    23 11.585355 0.000000 0.000000 0.000000 0.000000 -1.504976
    24 10.127057 0.000000 0.000001 1.663521 0.688482 -0.096687
    25 2.683750 -0.427338 0.044205 -0.005786 0.043239 -0.157091
    26 1.438885 -0.000001 0.000000 0.000000 0.000000 0.732658
    27 1.485305 0.000001 0.000000 0.000000 0.000000 1.168770
    28 1.038631 0.548043 -0.144017 -0.000001 0.000001 -1.849906
    29 -0.064003 -0.023521 0.026161 0.000000 0.000000 0.000000
    30 3.013925 3.984634 -0.088975 -0.000001 0.000001 -1.849906
    31 -0.084188 -0.025627 -0.001098 0.000000 0.000000 0.000000
    32 4.778187 3.972486 -0.079803 -0.000001 0.000001 -1.849906
    33 -0.058556 -0.021324 0.004244 0.000000 0.000000 0.000000
    34 1.640598 -1.968779 -0.099219 -0.000001 0.000001 -1.849906
    35 0.055573 -0.028908 0.000000 0.000000 0.000000 0.000000
    36 1.646738 0.449549 -1.702246 -0.161934 0.581206 -0.284024
    37 0.928312 0.000000 -0.000002 0.000000 0.000000 0.000000
    38 0.928314 0.000000 0.000001 0.000000 0.000000 0.000000
    39 1.533672 0.109715 1.664491 -0.264755 -0.055959 0.783109
    40 0.928313 0.000000 0.000000 0.000000 0.000000 -0.453556
    41 0.928314 0.000000 0.000001 0.000000 0.000000 0.000000
  time 6
    0 0.235347 0.367732 3.528927 0.000000 0.000000 -1.570874
    1 0.000000 0.000000 0.000000 -1.570795 -1.570796 0.000000
    2 -0.000005 0.000007 3.713255 0.002054 3.115505 -0.021473
    3 18.045721 0.000000 0.000000 0.000000 0.000000 -0.121501
    4 17.597597 0.000000 0.000000 -0.002613 0.026036 0.099967
    5 0.000005 -0.000003 -3.713255 -0.002524 -3.124238 -0.024449
    6 18.045725 0.000000 0.000000 0.000000 0.000000 -0.127551
    7 17.597597 0.000000 0.000000 0.002950 -0.017289 0.103055
    8 1.293670 0.684478 -0.000001 -0.000004 -0.000001 0.009520
    9 5.309685 -0.003834 0.000000 0.000000 0.000000 -0.261661
    10 4.826790 -0.004591 0.000000 -0.156614 -0.010978 -0.070257
    11 5.792767 -0.005304 0.000000 -0.052152 -0.004267 -0.082363
    12 6.662317 -0.001453 0.000000 0.000000 -0.000001 0.471000
    13 2.046985 -0.000002 0.000000 0.209211 0.001711 -0.343881
    14 -3.112024 1.517254 4.341911 1.350263 -0.760726 1.413355
    15 4.827230 0.000000 0.000001 -0.554179 0.340105 -0.655633
    16 11.139763 0.000000 0.000000 0.000000 0.000000 -0.946140
    17 10.314597 0.000001 0.000000 -3.687048 0.382838 -0.380522
    18 2.975834 -0.386307 -0.044143 -0.012782 -0.041705 0.279374
    19 1.438886 0.000000 0.000000 0.000000 0.000000 0.924525
    20 1.485303 0.000000 0.000000 0.000000 0.000000 0.907076
    21 -2.869898 1.399663 -4.140396 0.953733 1.204376 3.590836
    22 4.972048 0.000000 0.000001 -0.334495 -1.216026 -0.764944
    23 11.585355 0.000000 0.000000 0.000000 0.000000 -1.504976
    24 10.127057 0.000000 0.000001 1.663521 0.688482 -0.096687
    25 2.683750 -0.427338 0.044205 -0.005786 0.043239 -0.157091
    26 1.438885 -0.000001 0.000000 0.000000 0.000000 0.732658
    27 1.485305 0.000001 0.000000 0.000000 0.000000 1.168770
    28 1.038631 0.548043 -0.144017 -0.000001 0.000001 -1.849906
    29 -0.064003 -0.023521 0.026161 0.000000 0.000000 0.000000
    30 3.013925 3.984634 -0.088975 -0.000001 0.000001 -1.849906
    31 -0.084188 -0.025627 -0.001098 0.000000 0.000000 0.000000
    32 4.778187 3.972486 -0.079803 -0.000001 0.000001 -1.849906
    33 -0.058556 -0.021324 0.004244 0.000000 0.000000 0.000000
    34 1.640598 -1.968779 -0.099219 -0.000001 0.000001 -1.849906
    35 0.055573 -0.028908 0.000000 0.000000 0.000000 0.000000
    36 1.646738 0.449549 -1.702246 -0.161934 0.581206 -0.284024
    37 0.928312 0.000000 -0.000002 0.000000 0.000000 0.000000
    38 0.928314 0.000000 0.000001 0.000000 0.000000 0.000000
    39 1.533672 0.109715 1.664491 -0.264755 -0.055959 0.783109
    40 0.928313 0.000000 0.000000 0.000000 0.000000 -0.453556
    41 0.928314 0.000000 0.000001 0.000000 0.000000 0.000000
  time 7
    0 0.235347 0.367732 3.528927 0.000000 0.000000 -1.570874
    1 0.000000 0.000000 0.000000 -1.570795 -1.570796 0.000000
    2 -0.000005 0.000007 3.713255 0.002054 3.115505 -0.021473
    3 18.045721 0.000000 0.000000 0.000000 0.000000 -0.121501
    4 17.597597 0.000000 0.000000 -0.002613 0.026036 0.099967
    5 0.000005 -0.000003 -3.713255 -0.002524 -3.124238 -0.024449
    6 18.045725 0.000000 0.000000 0.000000 0.000000 -0.127551
    7 17.597597 0.000000 0.000000 0.002950 -0.017289 0.103055
    8 1.293670 0.684478 -0.000001 -0.000004 -0.000001 0.009520
    9 5.309685 -0.003834 0.000000 0.000000 0.000000 -0.261661
    10 4.826790 -0.004591 0.000000 -0.156631 -0.010726 -0.068669
    11 5.792767 -0.005304 0.000000 -0.052168 -0.004015 -0.077525
    12 6.662317 -0.001453 0.000000 0.000000 -0.000001 0.471000
    13 2.046985 -0.000002 0.000000 0.209211 0.001801 -0.350354
    14 -3.112024 1.517254 4.341911 1.344990 -0.759457 1.421025
    15 4.827230 0.000000 0.000001 -0.551242 0.329297 -0.655720
    16 11.139763 0.000000 0.000000 0.000000 0.000000 -0.946140
    17 10.314597 0.000001 0.000000 -3.687048 0.382838 -0.380522
    18 2.975834 -0.386307 -0.044143 -0.012782 -0.041705 0.279374
    19 1.438886 0.000000 0.000000 0.000000 0.000000 0.924525
    20 1.485303 0.000000 0.000000 0.000000 0.000000 0.907076
    21 -2.869898 1.399663 -4.140396 0.945201 1.202030 3.581632
    22 4.972048 0.000000 0.000001 -0.326295 -1.210314 -0.773903
    23 11.585355 0.000000 0.000000 0.000000 0.000000 -1.504976
    24 10.127057 0.000000 0.000001 1.663521 0.688482 -0.096687
    25 2.683750 -0.427338 0.044205 -0.005786 0.043239 -0.157091
    26 1.438885 -0.000001 0.000000 0.000000 0.000000 0.732658
    27 1.485305 0.000001 0.000000 0.000000 0.000000 1.168770
    28 1.038631 0.548043 -0.144017 -0.000001 0.000001 -1.849906
    29 -0.064003 -0.023521 0.026161 0.000000 0.000000 0.000000
    30 3.013925 3.984634 -0.088975 -0.000001 0.000001 -1.849906
    31 -0.084188 -0.025627 -0.001098 0.000000 0.000000 0.000000
    32 4.778187 3.972486 -0.079803 -0.000001 0.000001 -1.849906
    33 -0.058556 -0.021324 0.004244 0.000000 0.000000 0.000000
    34 1.640598 -1.968779 -0.099219 -0.000001 0.000001 -1.849906
    35 0.055573 -0.028908 0.000000 0.000000 0.000000 0.000000
    36 1.646738 0.449549 -1.702246 -0.161934 0.581206 -0.284024
    37 0.928312 0.000000 -0.000002 0.000000 0.000000 0.000000
    38 0.928314 0.000000 0.000001 0.000000 0.000000 0.000000
    39 1.533672 0.109715 1.664491 -0.264755 -0.055959 0.783109
    40 0.928313 0.000000 0.000000 0.000000 0.000000 -0.453556
    41 0.928314 0.000000 0.000001 0.000000 0.000000 0.000000
  time 8
    0 0.235347 0.367732 3.528927 0.000000 0.000000 -1.570874
    1 0.000000 0.000000 0.000000 -1.570795 -1.570796 0.000000
    2 -0.000005 0.000007 3.713255 0.002054 3.115505 -0.021473
    3 18.045721 0.000000 0.000000 0.000000 0.000000 -0.121501
    4 17.597597 0.000000 0.000000 -0.002613 0.026036 0.099967
    5 0.000005 -0.000003 -3.713255 -0.002524 -3.124238 -0.024449
    6 18.045725 0.000000 0.000000 0.000000 0.000000 -0.127551
    7 17.597597 0.000000 0.000000 0.002950 -0.017289 0.103055
    8 1.293670 0.684478 -0.000001 -0.000004 -0.000001 0.009520
    9 5.309685 -0.003834 0.000000 0.000000 0.000000 -0.261661
    10 4.826790 -0.004591 0.000000 -0.156647 -0.010475 -0.067082
    11 5.792767 -0.005304 0.000000 -0.052184 -0.003763 -0.072750
    12 6.662317 -0.001453 0.000000 0.000000 -0.000001 0.471000
    13 2.046985 -0.000002 0.000000 0.209211 0.001869 -0.356736
    14 -3.112024 1.517254 4.341911 1.339813 -0.758188 1.428503
    15 4.827230 0.000000 0.000001 -0.548306 0.318574 -0.655808
    16 11.139763 0.000000 0.000000 0.000000 0.000000 -0.946140
    17 10.314597 0.000001 0.000000 -3.687048 0.382838 -0.380522
    18 2.975834 -0.386307 -0.044143 -0.012782 -0.041705 0.279374
    19 1.438886 0.000000 0.000000 0.000000 0.000000 0.924525
    20 1.485303 0.000000 0.000000 0.000000 0.000000 0.907076
    21 -2.869898 1.399663 -4.140396 0.936955 1.199684 3.572716
    22 4.972048 0.000000 0.000001 -0.318482 -1.204764 -0.782598
    23 11.585355 0.000000 0.000000 0.000000 0.000000 -1.504976
    24 10.127057 0.000000 0.000001 1.663521 0.688482 -0.096687
    25 2.683750 -0.427338 0.044205 -0.005786 0.043239 -0.157091
    26 1.438885 -0.000001 0.000000 0.000000 0.000000 0.732658
    27 1.485305 0.000001 0.000000 0.000000 0.000000 1.168770
    28 1.038631 0.548043 -0.144017 -0.000001 0.000001 -1.849906
    29 -0.064003 -0.023521 0.026161 0.000000 0.000000 0.000000
    30 3.013925 3.984634 -0.088975 -0.000001 0.000001 -1.849906
    31 -0.084188 -0.025627 -0.001098 0.000000 0.000000 0.000000
    32 4.778187 3.972486 -0.079803 -0.000001 0.000001 -1.849906
    33 -0.058556 -0.021324 0.004244 0.000000 0.000000 0.000000
    34 1.640598 -1.968779 -0.099219 -0.000001 0.000001 -1.849906
    35 0.055573 -0.028908 0.000000 0.000000 0.000000 0.000000
    36 1.646738 0.449549 -1.702246 -0.161934 0.581206 -0.284024
    37 0.928312 0.000000 -0.000002 0.000000 0.000000 0.000000
    38 0.928314 0.000000 0.000001 0.000000 0.000000 0.000000
    39 1.533672 0.109715 1.664491 -0.264755 -0.055959 0.783109
    40 0.928313 0.000000 0.000000 0.000000 0.000000 -0.453556
    41 0.928314 0.000000 0.000001 0.000000 0.000000 0.000000
  time 9
    0 0.235347 0.367732 3.528927 0.000000 0.000000 -1.570874
    1 0.000000 0.000000 0.000000 -1.570795 -1.570796 0.000000
    2 -0.000005 0.000007 3.713255 0.002054 3.115505 -0.021473
    3 18.045721 0.000000 0.000000 0.000000 0.000000 -0.121501
    4 17.597597 0.000000 0.000000 -0.002613 0.026036 0.099967
    5 0.000005 -0.000003 -3.713255 -0.002524 -3.124238 -0.024449
    6 18.045725 0.000000 0.000000 0.000000 0.000000 -0.127551
    7 17.597597 0.000000 0.000000 0.002950 -0.017289 0.103055
    8 1.293670 0.684478 -0.000001 -0.000004 -0.000001 0.009520
    9 5.309685 -0.003834 0.000000 0.000000 0.000000 -0.261661
    10 4.826790 -0.004591 0.000000 -0.156664 -0.010235 -0.065561
    11 5.792767 -0.005304 0.000000 -0.052201 -0.003523 -0.068140
    12 6.662317 -0.001453 0.000000 0.000000 -0.000001 0.471000
    13 2.046985 -0.000002 0.000000 0.209211 0.001959 -0.362849
    14 -3.112024 1.517254 4.341911 1.334923 -0.756957 1.435694
    15 4.827230 0.000000 0.000001 -0.545545 0.308277 -0.655983
    16 11.139763 0.000000 0.000000 0.000000 0.000000 -0.946140
    17 10.314597 0.000001 0.000000 -3.687048 0.382838 -0.380522
    18 2.975834 -0.386307 -0.044143 -0.012782 -0.041705 0.279374
    19 1.438886 0.000000 0.000000 0.000000 0.000000 0.924525
    20 1.485303 0.000000 0.000000 0.000000 0.000000 0.907076
    21 -2.869898 1.399663 -4.140396 0.928998 1.197395 3.564279
    22 4.972048 0.000000 0.000001 -0.311133 -1.199294 -0.790766
    23 11.585355 0.000000 0.000000 0.000000 0.000000 -1.504976
    24 10.127057 0.000000 0.000001 1.663521 0.688482 -0.096687
    25 2.683750 -0.427338 0.044205 -0.005786 0.043239 -0.157091
    26 1.438885 -0.000001 0.000000 0.000000 0.000000 0.732658
    27 1.485305 0.000001 0.000000 0.000000 0.000000 1.168770
    28 1.038631 0.548043 -0.144017 -0.000001 0.000001 -1.849906
    29 -0.064003 -0.023521 0.026161 0.000000 0.000000 0.000000
    30 3.013925 3.984634 -0.088975 -0.000001 0.000001 -1.849906
    31 -0.084188 -0.025627 -0.001098 0.000000 0.000000 0.000000
    32 4.778187 3.972486 -0.079803 -0.000001 0.000001 -1.849906
    33 -0.058556 -0.021324 0.004244 0.000000 0.000000 0.000000
    34 1.640598 -1.968779 -0.099219 -0.000001 0.000001 -1.849906
    35 0.055573 -0.028908 0.000000 0.000000 0.000000 0.000000
    36 1.646738 0.449549 -1.702246 -0.161934 0.581206 -0.284024
    37 0.928312 0.000000 -0.000002 0.000000 0.000000 0.000000
    38 0.928314 0.000000 0.000001 0.000000 0.000000 0.000000
    39 1.533672 0.109715 1.664491 -0.264755 -0.055959 0.783109
    40 0.928313 0.000000 0.000000 0.000000 0.000000 -0.453556
    41 0.928314 0.000000 0.000001 0.000000 0.000000 0.000000
  time 10
    0 0.235347 0.367732 3.528927 0.000000 0.000000 -1.570874
    1 0.000000 0.000000 0.000000 -1.570795 -1.570796 0.000000
    2 -0.000005 0.000007 3.713255 0.002054 3.115505 -0.021473
    3 18.045721 0.000000 0.000000 0.000000 0.000000 -0.121501
    4 17.597597 0.000000 0.000000 -0.002613 0.026036 0.099967
    5 0.000005 -0.000003 -3.713255 -0.002524 -3.124238 -0.024449
    6 18.045725 0.000000 0.000000 0.000000 0.000000 -0.127551
    7 17.597597 0.000000 0.000000 0.002950 -0.017289 0.103055
    8 1.293670 0.684478 -0.000001 -0.000004 -0.000001 0.009520
    9 5.309685 -0.003834 0.000000 0.000000 0.000000 -0.261661
    10 4.826790 -0.004591 0.000000 -0.156680 -0.010019 -0.064149
    11 5.792767 -0.005304 0.000000 -0.052217 -0.003296 -0.063863
    12 6.662317 -0.001453 0.000000 0.000000 -0.000001 0.471000
    13 2.046985 -0.000002 0.000000 0.209211 0.002026 -0.368558
    14 -3.112024 1.517254 4.341911 1.330321 -0.755764 1.442405
    15 4.827230 0.000000 0.000001 -0.542961 0.298746 -0.656158
    16 11.139763 0.000000 0.000000 0.000000 0.000000 -0.946140
    17 10.314597 0.000001 0.000000 -3.687048 0.382838 -0.380522
    18 2.975834 -0.386307 -0.044143 -0.012782 -0.041705 0.279374
    19 1.438886 0.000000 0.000000 0.000000 0.000000 0.924525
    20 1.485303 0.000000 0.000000 0.000000 0.000000 0.907076
    21 -2.869898 1.399663 -4.140396 0.921808 1.195246 3.556514
    22 4.972048 0.000000 0.000001 -0.304558 -1.194226 -0.798078
    23 11.585355 0.000000 0.000000 0.000000 0.000000 -1.504976
    24 10.127057 0.000000 0.000001 1.663521 0.688482 -0.096687
    25 2.683750 -0.427338 0.044205 -0.005786 0.043239 -0.157091
    26 1.438885 -0.000001 0.000000 0.000000 0.000000 0.732658
    27 1.485305 0.000001 0.000000 0.000000 0.000000 1.168770
    28 1.038631 0.548043 -0.144017 -0.000001 0.000001 -1.849906
    29 -0.064003 -0.023521 0.026161 0.000000 0.000000 0.000000
    30 3.013925 3.984634 -0.088975 -0.000001 0.000001 -1.849906
    31 -0.084188 -0.025627 -0.001098 0.000000 0.000000 0.000000
    32 4.778187 3.972486 -0.079803 -0.000001 0.000001 -1.849906
    33 -0.058556 -0.021324 0.004244 0.000000 0.000000 0.000000
    34 1.640598 -1.968779 -0.099219 -0.000001 0.000001 -1.849906
    35 0.055573 -0.028908 0.000000 0.000000 0.000000 0.000000
    36 1.646738 0.449549 -1.702246 -0.161934 0.581206 -0.284024
    37 0.928312 0.000000 -0.000002 0.000000 0.000000 0.000000
    38 0.928314 0.000000 0.000001 0.000000 0.000000 0.000000
    39 1.533672 0.109715 1.664491 -0.264755 -0.055959 0.783109
    40 0.928313 0.000000 0.000000 0.000000 0.000000 -0.453556
    41 0.928314 0.000000 0.000001 0.000000 0.000000 0.000000
  time 11
    0 0.235347 0.367732 3.528927 0.000000 0.000000 -1.570874
    1 0.000000 0.000000 0.000000 -1.570795 -1.570796 0.000000
    2 -0.000005 0.000007 3.713255 0.002054 3.115505 -0.021473
    3 18.045721 0.000000 0.000000 0.000000 0.000000 -0.121501
    4 17.597597 0.000000 0.000000 -0.002613 0.026036 0.099967
    5 0.000005 -0.000003 -3.713255 -0.002524 -3.124238 -0.024449
    6 18.045725 0.000000 0.000000 0.000000 0.000000 -0.127551
    7 17.597597 0.000000 0.000000 0.002950 -0.017289 0.103055
    8 1.293670 0.684478 -0.000001 -0.000004 -0.000001 0.009520
    9 5.309685 -0.003834 0.000000 0.000000 0.000000 -0.261661
    10 4.826790 -0.004591 0.000000 -0.156680 -0.009815 -0.062893
    11 5.792767 -0.005304 0.000000 -0.052233 -0.003092 -0.060063
    12 6.662317 -0.001453 0.000000 0.000000 -0.000001 0.471000
    13 2.046985 -0.000002 0.000000 0.209211 0.002094 -0.373637
    14 -3.112024 1.517254 4.341911 1.326295 -0.754687 1.448253
    15 4.827230 0.000000 0.000001 -0.540611 0.290236 -0.656333
    16 11.139763 0.000000 0.000000 0.000000 0.000000 -0.946140
    17 10.314597 0.000001 0.000000 -3.687048 0.382838 -0.380522
    18 2.975834 -0.386307 -0.044143 -0.012782 -0.041705 0.279374
    19 1.438886 0.000000 0.000000 0.000000 0.000000 0.924525
    20 1.485303 0.000000 0.000000 0.000000 0.000000 0.907076
    21 -2.869898 1.399663 -4.140396 0.915384 1.193325 3.549611
    22 4.972048 0.000000 0.000001 -0.298911 -1.189722 -0.804533
    23 11.585355 0.000000 0.000000 0.000000 0.000000 -1.504976
    24 10.127057 0.000000 0.000001 1.663521 0.688482 -0.096687
    25 2.683750 -0.427338 0.044205 -0.005786 0.043239 -0.157091
    26 1.438885 -0.000001 0.000000 0.000000 0.000000 0.732658
    27 1.485305 0.000001 0.000000 0.000000 0.000000 1.168770
    28 1.038631 0.548043 -0.144017 -0.000001 0.000001 -1.849906
    29 -0.064003 -0.023521 0.026161 0.000000 0.000000 0.000000
    30 3.013925 3.984634 -0.088975 -0.000001 0.000001 -1.849906
    31 -0.084188 -0.025627 -0.001098 0.000000 0.000000 0.000000
    32 4.778187 3.972486 -0.079803 -0.000001 0.000001 -1.849906
    33 -0.058556 -0.021324 0.004244 0.000000 0.000000 0.000000
    34 1.640598 -1.968779 -0.099219 -0.000001 0.000001 -1.849906
    35 0.055573 -0.028908 0.000000 0.000000 0.000000 0.000000
    36 1.646738 0.449549 -1.702246 -0.161934 0.581206 -0.284024
    37 0.928312 0.000000 -0.000002 0.000000 0.000000 0.000000
    38 0.928314 0.000000 0.000001 0.000000 0.000000 0.000000
    39 1.533672 0.109715 1.664491 -0.264755 -0.055959 0.783109
    40 0.928313 0.000000 0.000000 0.000000 0.000000 -0.453556
    41 0.928314 0.000000 0.000001 0.000000 0.000000 0.000000
  time 12
    0 0.235347 0.367732 3.528927 0.000000 0.000000 -1.570874
    1 0.000000 0.000000 0.000000 -1.570795 -1.570796 0.000000
    2 -0.000005 0.000007 3.713255 0.002054 3.115505 -0.021473
    3 18.045721 0.000000 0.000000 0.000000 0.000000 -0.121501
    4 17.597597 0.000000 0.000000 -0.002613 0.026036 0.099967
    5 0.000005 -0.000003 -3.713255 -0.002524 -3.124238 -0.024449
    6 18.045725 0.000000 0.000000 0.000000 0.000000 -0.127551
    7 17.597597 0.000000 0.000000 0.002950 -0.017289 0.103055
    8 1.293670 0.684478 -0.000001 -0.000004 -0.000001 0.009520
    9 5.309685 -0.003834 0.000000 0.000000 0.000000 -0.261661
    10 4.826790 -0.004591 0.000000 -0.156696 -0.009648 -0.061834
    11 5.792767 -0.005304 0.000000 -0.052249 -0.002924 -0.056845
    12 6.662317 -0.001453 0.000000 0.000000 -0.000001 0.471000
    13 2.046985 -0.000002 0.000000 0.209211 0.002161 -0.377907
    14 -3.112024 1.517254 4.341911 1.322843 -0.753803 1.453239
    15 4.827230 0.000000 0.000001 -0.538673 0.283087 -0.656596
    16 11.139763 0.000000 0.000000 0.000000 0.000000 -0.946140
    17 10.314597 0.000001 0.000000 -3.687048 0.382838 -0.380522
    18 2.975834 -0.386307 -0.044143 -0.012782 -0.041705 0.279374
    19 1.438886 0.000000 0.000000 0.000000 0.000000 0.924525
    20 1.485303 0.000000 0.000000 0.000000 0.000000 0.907076
    21 -2.869898 1.399663 -4.140396 0.910111 1.191685 3.543858
    22 4.972048 0.000000 0.000001 -0.294193 -1.185941 -0.809803
    23 11.585355 0.000000 0.000000 0.000000 0.000000 -1.504976
    24 10.127057 0.000000 0.000001 1.663521 0.688482 -0.096687
    25 2.683750 -0.427338 0.044205 -0.005786 0.043239 -0.157091
    26 1.438885 -0.000001 0.000000 0.000000 0.000000 0.732658
    27 1.485305 0.000001 0.000000 0.000000 0.000000 1.168770
    28 1.038631 0.548043 -0.144017 -0.000001 0.000001 -1.849906
    29 -0.064003 -0.023521 0.026161 0.000000 0.000000 0.000000
    30 3.013925 3.984634 -0.088975 -0.000001 0.000001 -1.849906
    31 -0.084188 -0.025627 -0.001098 0.000000 0.000000 0.000000
    32 4.778187 3.972486 -0.079803 -0.000001 0.000001 -1.849906
    33 -0.058556 -0.021324 0.004244 0.000000 0.000000 0.000000
    34 1.640598 -1.968779 -0.099219 -0.000001 0.000001 -1.849906
    35 0.055573 -0.028908 0.000000 0.000000 0.000000 0.000000
    36 1.646738 0.449549 -1.702246 -0.161934 0.581206 -0.284024
    37 0.928312 0.000000 -0.000002 0.000000 0.000000 0.000000
    38 0.928314 0.000000 0.000001 0.000000 0.000000 0.000000
    39 1.533672 0.109715 1.664491 -0.264755 -0.055959 0.783109
    40 0.928313 0.000000 0.000000 0.000000 0.000000 -0.453556
    41 0.928314 0.000000 0.000001 0.000000 0.000000 0.000000
  time 13
    0 0.235347 0.367732 3.528927 0.000000 0.000000 -1.570874
    1 0.000000 0.000000 0.000000 -1.570795 -1.570796 0.000000
    2 -0.000005 0.000007 3.713255 0.002054 3.115505 -0.021473
    3 18.045721 0.000000 0.000000 0.000000 0.000000 -0.121501
    4 17.597597 0.000000 0.000000 -0.002613 0.026036 0.099967
    5 0.000005 -0.000003 -3.713255 -0.002524 -3.124238 -0.024449
    6 18.045725 0.000000 0.000000 0.000000 0.000000 -0.127551
    7 17.597597 0.000000 0.000000 0.002950 -0.017289 0.103055
    8 1.293670 0.684478 -0.000001 -0.000004 -0.000001 0.009520
    9 5.309685 -0.003834 0.000000 0.000000 0.000000 -0.261661
    10 4.826790 -0.004591 0.000000 -0.156713 -0.009516 -0.061041
    11 5.792767 -0.005304 0.000000 -0.052249 -0.002804 -0.054395
    12 6.662317 -0.001453 0.000000 0.000000 -0.000001 0.471000
    13 2.046985 -0.000002 0.000000 0.209211 0.002206 -0.381233
    14 -3.112024 1.517254 4.341911 1.320255 -0.753072 1.457074
    15 4.827230 0.000000 0.000001 -0.537204 0.277556 -0.656771
    16 11.139763 0.000000 0.000000 0.000000 0.000000 -0.946140
    17 10.314597 0.000001 0.000000 -3.687048 0.382838 -0.380522
    18 2.975834 -0.386307 -0.044143 -0.012782 -0.041705 0.279374
    19 1.438886 0.000000 0.000000 0.000000 0.000000 0.924525
    20 1.485303 0.000000 0.000000 0.000000 0.000000 0.907076
    21 -2.869898 1.399663 -4.140396 0.905988 1.190413 3.539544
    22 4.972048 0.000000 0.000001 -0.290712 -1.182964 -0.813821
    23 11.585355 0.000000 0.000000 0.000000 0.000000 -1.504976
    24 10.127057 0.000000 0.000001 1.663521 0.688482 -0.096687
    25 2.683750 -0.427338 0.044205 -0.005786 0.043239 -0.157091
    26 1.438885 -0.000001 0.000000 0.000000 0.000000 0.732658
    27 1.485305 0.000001 0.000000 0.000000 0.000000 1.168770
    28 1.038631 0.548043 -0.144017 -0.000001 0.000001 -1.849906
    29 -0.064003 -0.023521 0.026161 0.000000 0.000000 0.000000
    30 3.013925 3.984634 -0.088975 -0.000001 0.000001 -1.849906
    31 -0.084188 -0.025627 -0.001098 0.000000 0.000000 0.000000
    32 4.778187 3.972486 -0.079803 -0.000001 0.000001 -1.849906
    33 -0.058556 -0.021324 0.004244 0.000000 0.000000 0.000000
    34 1.640598 -1.968779 -0.099219 -0.000001 0.000001 -1.849906
    35 0.055573 -0.028908 0.000000 0.000000 0.000000 0.000000
    36 1.646738 0.449549 -1.702246 -0.161934 0.581206 -0.284024
    37 0.928312 0.000000 -0.000002 0.000000 0.000000 0.000000
    38 0.928314 0.000000 0.000001 0.000000 0.000000 0.000000
    39 1.533672 0.109715 1.664491 -0.264755 -0.055959 0.783109
    40 0.928313 0.000000 0.000000 0.000000 0.000000 -0.453556
    41 0.928314 0.000000 0.000001 0.000000 0.000000 0.000000
  time 14
    0 0.235347 0.367732 3.528927 0.000000 0.000000 -1.570874
    1 0.000000 0.000000 0.000000 -1.570795 -1.570796 0.000000
    2 -0.000005 0.000007 3.713255 0.002054 3.115505 -0.021473
    3 18.045721 0.000000 0.000000 0.000000 0.000000 -0.121501
    4 17.597597 0.000000 0.000000 -0.002613 0.026036 0.099967
    5 0.000005 -0.000003 -3.713255 -0.002524 -3.124238 -0.024449
    6 18.045725 0.000000 0.000000 0.000000 0.000000 -0.127551
    7 17.597597 0.000000 0.000000 0.002950 -0.017289 0.103055
    8 1.293670 0.684478 -0.000001 -0.000004 -0.000001 0.009520
    9 5.309685 -0.003834 0.000000 0.000000 0.000000 -0.261661
    10 4.826790 -0.004591 0.000000 -0.156713 -0.009444 -0.060511
    11 5.792767 -0.005304 0.000000 -0.052249 -0.002721 -0.052817
    12 6.662317 -0.001453 0.000000 0.000000 -0.000001 0.471000
    13 2.046985 -0.000002 0.000000 0.209211 0.002229 -0.383301
    14 -3.112024 1.517254 4.341911 1.318529 -0.752610 1.459567
    15 4.827230 0.000000 0.000001 -0.536206 0.274067 -0.656858
    16 11.139763 0.000000 0.000000 0.000000 0.000000 -0.946140
    17 10.314597 0.000001 0.000000 -3.687048 0.382838 -0.380522
    18 2.975834 -0.386307 -0.044143 -0.012782 -0.041705 0.279374
    19 1.438886 0.000000 0.000000 0.000000 0.000000 0.924525
    20 1.485303 0.000000 0.000000 0.000000 0.000000 0.907076
    21 -2.869898 1.399663 -4.140396 0.903400 1.189622 3.536764
    22 4.972048 0.000000 0.000001 -0.288469 -1.181114 -0.816390
    23 11.585355 0.000000 0.000000 0.000000 0.000000 -1.504976
    24 10.127057 0.000000 0.000001 1.663521 0.688482 -0.096687
    25 2.683750 -0.427338 0.044205 -0.005786 0.043239 -0.157091
    26 1.438885 -0.000001 0.000000 0.000000 0.000000 0.732658
    27 1.485305 0.000001 0.000000 0.000000 0.000000 1.168770
    28 1.038631 0.548043 -0.144017 -0.000001 0.000001 -1.849906
    29 -0.064003 -0.023521 0.026161 0.000000 0.000000 0.000000
    30 3.013925 3.984634 -0.088975 -0.000001 0.000001 -1.849906
    31 -0.084188 -0.025627 -0.001098 0.000000 0.000000 0.000000
    32 4.778187 3.972486 -0.079803 -0.000001 0.000001 -1.849906
    33 -0.058556 -0.021324 0.004244 0.000000 0.000000 0.000000
    34 1.640598 -1.968779 -0.099219 -0.000001 0.000001 -1.849906
    35 0.055573 -0.028908 0.000000 0.000000 0.000000 0.000000
    36 1.646738 0.449549 -1.702246 -0.161934 0.581206 -0.284024
    37 0.928312 0.000000 -0.000002 0.000000 0.000000 0.000000
    38 0.928314 0.000000 0.000001 0.000000 0.000000 0.000000
    39 1.533672 0.109715 1.664491 -0.264755 -0.055959 0.783109
    40 0.928313 0.000000 0.000000 0.000000 0.000000 -0.453556
    41 0.928314 0.000000 0.000001 0.000000 0.000000 0.000000
  time 15
    0 0.235347 0.367732 3.528927 0.000000 0.000000 -1.570874
    1 0.000000 0.000000 0.000000 -1.570795 -1.570796 0.000000
    2 -0.000005 0.000007 3.713255 0.002054 3.115505 -0.021473
    3 18.045721 0.000000 0.000000 0.000000 0.000000 -0.121501
    4 17.597597 0.000000 0.000000 -0.002613 0.026036 0.099967
    5 0.000005 -0.000003 -3.713255 -0.002524 -3.124238 -0.024449
    6 18.045725 0.000000 0.000000 0.000000 0.000000 -0.127551
    7 17.597597 0.000000 0.000000 0.002950 -0.017289 0.103055
    8 1.293670 0.684478 -0.000001 -0.000004 -0.000001 0.009520
    9 5.309685 -0.003834 0.000000 0.000000 0.000000 -0.261661
    10 4.826790 -0.004591 0.000000 -0.156713 -0.009408 -0.060335
    11 5.792767 -0.005304 0.000000 -0.052249 -0.002685 -0.052257
    12 6.662317 -0.001453 0.000000 0.000000 -0.000001 0.471000
    13 2.046985 -0.000002 0.000000 0.209211 0.002229 -0.384065
    14 -3.112024 1.517254 4.341911 1.317954 -0.752456 1.460430
    15 4.827230 0.000000 0.000001 -0.535912 0.272790 -0.656858
    16 11.139763 0.000000 0.000000 0.000000 0.000000 -0.946140
    17 10.314597 0.000001 0.000000 -3.687048 0.382838 -0.380522
    18 2.975834 -0.386307 -0.044143 -0.012782 -0.041705 0.279374
    19 1.438886 0.000000 0.000000 0.000000 0.000000 0.924525
    20 1.485303 0.000000 0.000000 0.000000 0.000000 0.907076
    21 -2.869898 1.399663 -4.140396 0.902537 1.189311 3.535709
    22 4.972048 0.000000 0.000001 -0.287695 -1.180471 -0.817247
    23 11.585355 0.000000 0.000000 0.000000 0.000000 -1.504976
    24 10.127057 0.000000 0.000001 1.663521 0.688482 -0.096687
    25 2.683750 -0.427338 0.044205 -0.005786 0.043239 -0.157091
    26 1.438885 -0.000001 0.000000 0.000000 0.000000 0.732658
    27 1.485305 0.000001 0.000000 0.000000 0.000000 1.168770
    28 1.038631 0.548043 -0.144017 -0.000001 0.000001 -1.849906
    29 -0.064003 -0.023521 0.026161 0.000000 0.000000 0.000000
    30 3.013925 3.984634 -0.088975 -0.000001 0.000001 -1.849906
    31 -0.084188 -0.025627 -0.001098 0.000000 0.000000 0.000000
    32 4.778187 3.972486 -0.079803 -0.000001 0.000001 -1.849906
    33 -0.058556 -0.021324 0.004244 0.000000 0.000000 0.000000
    34 1.640598 -1.968779 -0.099219 -0.000001 0.000001 -1.849906
    35 0.055573 -0.028908 0.000000 0.000000 0.000000 0.000000
    36 1.646738 0.449549 -1.702246 -0.161934 0.581206 -0.284024
    37 0.928312 0.000000 -0.000002 0.000000 0.000000 0.000000
    38 0.928314 0.000000 0.000001 0.000000 0.000000 0.000000
    39 1.533672 0.109715 1.664491 -0.264755 -0.055959 0.783109
    40 0.928313 0.000000 0.000000 0.000000 0.000000 -0.453556
    41 0.928314 0.000000 0.000001 0.000000 0.000000 0.000000
  time 16
    0 0.235347 0.367732 3.528927 0.000000 0.000000 -1.570874
    1 0.000000 0.000000 0.000000 -1.570795 -1.570796 0.000000
    2 -0.000005 0.000007 3.713255 0.002054 3.115505 -0.021473
    3 18.045721 0.000000 0.000000 0.000000 0.000000 -0.121501
    4 17.597597 0.000000 0.000000 -0.002613 0.026036 0.099967
    5 0.000005 -0.000003 -3.713255 -0.002524 -3.124238 -0.024449
    6 18.045725 0.000000 0.000000 0.000000 0.000000 -0.127551
    7 17.597597 0.000000 0.000000 0.002950 -0.017289 0.103055
    8 1.293670 0.684478 -0.000001 -0.000004 -0.000001 0.009520
    9 5.309685 -0.003834 0.000000 0.000000 0.000000 -0.261661
    10 4.826790 -0.004591 0.000000 -0.156713 -0.009444 -0.060511
    11 5.792767 -0.005304 0.000000 -0.052249 -0.002721 -0.052817
    12 6.662317 -0.001453 0.000000 0.000000 -0.000001 0.471000
    13 2.046985 -0.000002 0.000000 0.209211 0.002229 -0.383301
    14 -3.112024 1.517254 4.341911 1.318529 -0.752610 1.459567
    15 4.827230 0.000000 0.000001 -0.536206 0.274067 -0.656858
    16 11.139763 0.000000 0.000000 0.000000 0.000000 -0.946140
    17 10.314597 0.000001 0.000000 -3.687048 0.382838 -0.380522
    18 2.975834 -0.386307 -0.044143 -0.012782 -0.041705 0.279374
    19 1.438886 0.000000 0.000000 0.000000 0.000000 0.924525
    20 1.485303 0.000000 0.000000 0.000000 0.000000 0.907076
    21 -2.869898 1.399663 -4.140396 0.903400 1.189622 3.536764
    22 4.972048 0.000000 0.000001 -0.288469 -1.181114 -0.816390
    23 11.585355 0.000000 0.000000 0.000000 0.000000 -1.504976
    24 10.127057 0.000000 0.000001 1.663521 0.688482 -0.096687
    25 2.683750 -0.427338 0.044205 -0.005786 0.043239 -0.157091
    26 1.438885 -0.000001 0.000000 0.000000 0.000000 0.732658
    27 1.485305 0.000001 0.000000 0.000000 0.000000 1.168770
    28 1.038631 0.548043 -0.144017 -0.000001 0.000001 -1.849906
    29 -0.064003 -0.023521 0.026161 0.000000 0.000000 0.000000
    30 3.013925 3.984634 -0.088975 -0.000001 0.000001 -1.849906
    31 -0.084188 -0.025627 -0.001098 0.000000 0.000000 0.000000
    32 4.778187 3.972486 -0.079803 -0.000001 0.000001 -1.849906
    33 -0.058556 -0.021324 0.004244 0.000000 0.000000 0.000000
    34 1.640598 -1.968779 -0.099219 -0.000001 0.000001 -1.849906
    35 0.055573 -0.028908 0.000000 0.000000 0.000000 0.000000
    36 1.646738 0.449549 -1.702246 -0.161934 0.581206 -0.284024
    37 0.928312 0.000000 -0.000002 0.000000 0.000000 0.000000
    38 0.928314 0.000000 0.000001 0.000000 0.000000 0.000000
    39 1.533672 0.109715 1.664491 -0.264755 -0.055959 0.783109
    40 0.928313 0.000000 0.000000 0.000000 0.000000 -0.453556
    41 0.928314 0.000000 0.000001 0.000000 0.000000 0.000000
  time 17
    0 0.235347 0.367732 3.528927 0.000000 0.000000 -1.570874
    1 0.000000 0.000000 0.000000 -1.570795 -1.570796 0.000000
    2 -0.000005 0.000007 3.713255 0.002054 3.115505 -0.021473
    3 18.045721 0.000000 0.000000 0.000000 0.000000 -0.121501
    4 17.597597 0.000000 0.000000 -0.002613 0.026036 0.099967
    5 0.000005 -0.000003 -3.713255 -0.002524 -3.124238 -0.024449
    6 18.045725 0.000000 0.000000 0.000000 0.000000 -0.127551
    7 17.597597 0.000000 0.000000 0.002950 -0.017289 0.103055
    8 1.293670 0.684478 -0.000001 -0.000004 -0.000001 0.009520
    9 5.309685 -0.003834 0.000000 0.000000 0.000000 -0.261661
    10 4.826790 -0.004591 0.000000 -0.156713 -0.009516 -0.061041
    11 5.792767 -0.005304 0.000000 -0.052249 -0.002804 -0.054395
    12 6.662317 -0.001453 0.000000 0.000000 -0.000001 0.471000
    13 2.046985 -0.000002 0.000000 0.209211 0.002206 -0.381233
    14 -3.112024 1.517254 4.341911 1.320255 -0.753072 1.457074
    15 4.827230 0.000000 0.000001 -0.537204 0.277556 -0.656771
    16 11.139763 0.000000 0.000000 0.000000 0.000000 -0.946140
    17 10.314597 0.000001 0.000000 -3.687048 0.382838 -0.380522
    18 2.975834 -0.386307 -0.044143 -0.012782 -0.041705 0.279374
    19 1.438886 0.000000 0.000000 0.000000 0.000000 0.924525
    20 1.485303 0.000000 0.000000 0.000000 0.000000 0.907076
    21 -2.869898 1.399663 -4.140396 0.905988 1.190413 3.539544
    22 4.972048 0.000000 0.000001 -0.290712 -1.182964 -0.813821
    23 11.585355 0.000000 0.000000 0.000000 0.000000 -1.504976
    24 10.127057 0.000000 0.000001 1.663521 0.688482 -0.096687
    25 2.683750 -0.427338 0.044205 -0.005786 0.043239 -0.157091
    26 1.438885 -0.000001 0.000000 0.000000 0.000000 0.732658
    27 1.485305 0.000001 0.000000 0.000000 0.000000 1.168770
    28 1.038631 0.548043 -0.144017 -0.000001 0.000001 -1.849906
    29 -0.064003 -0.023521 0.026161 0.000000 0.000000 0.000000
    30 3.013925 3.984634 -0.088975 -0.000001 0.000001 -1.849906
    31 -0.084188 -0.025627 -0.001098 0.000000 0.000000 0.000000
    32 4.778187 3.972486 -0.079803 -0.000001 0.000001 -1.849906
    33 -0.058556 -0.021324 0.004244 0.000000 0.000000 0.000000
    34 1.640598 -1.968779 -0.099219 -0.000001 0.000001 -1.849906
    35 0.055573 -0.028908 0.000000 0.000000 0.000000 0.000000
    36 1.646738 0.449549 -1.702246 -0.161934 0.581206 -0.284024
    37 0.928312 0.000000 -0.000002 0.000000 0.000000 0.000000
    38 0.928314 0.000000 0.000001 0.000000 0.000000 0.000000
    39 1.533672 0.109715 1.664491 -0.264755 -0.055959 0.783109
    40 0.928313 0.000000 0.000000 0.000000 0.000000 -0.453556
    41 0.928314 0.000000 0.000001 0.000000 0.000000 0.000000
  time 18
    0 0.235347 0.367732 3.528927 0.000000 0.000000 -1.570874
    1 0.000000 0.000000 0.000000 -1.570795 -1.570796 0.000000
    2 -0.000005 0.000007 3.713255 0.002054 3.115505 -0.021473
    3 18.045721 0.000000 0.000000 0.000000 0.000000 -0.121501
    4 17.597597 0.000000 0.000000 -0.002613 0.026036 0.099967
    5 0.000005 -0.000003 -3.713255 -0.002524 -3.124238 -0.024449
    6 18.045725 0.000000 0.000000 0.000000 0.000000 -0.127551
    7 17.597597 0.000000 0.000000 0.002950 -0.017289 0.103055
    8 1.293670 0.684478 -0.000001 -0.000004 -0.000001 0.009520
    9 5.309685 -0.003834 0.000000 0.000000 0.000000 -0.261661
    10 4.826790 -0.004591 0.000000 -0.156696 -0.009648 -0.061834
    11 5.792767 -0.005304 0.000000 -0.052249 -0.002924 -0.056845
    12 6.662317 -0.001453 0.000000 0.000000 -0.000001 0.471000
    13 2.046985 -0.000002 0.000000 0.209211 0.002161 -0.377907
    14 -3.112024 1.517254 4.341911 1.322843 -0.753803 1.453239
    15 4.827230 0.000000 0.000001 -0.538673 0.283087 -0.656596
    16 11.139763 0.000000 0.000000 0.000000 0.000000 -0.946140
    17 10.314597 0.000001 0.000000 -3.687048 0.382838 -0.380522
    18 2.975834 -0.386307 -0.044143 -0.012782 -0.041705 0.279374
    19 1.438886 0.000000 0.000000 0.000000 0.000000 0.924525
    20 1.485303 0.000000 0.000000 0.000000 0.000000 0.907076
    21 -2.869898 1.399663 -4.140396 0.910111 1.191685 3.543858
    22 4.972048 0.000000 0.000001 -0.294193 -1.185941 -0.809803
    23 11.585355 0.000000 0.000000 0.000000 0.000000 -1.504976
    24 10.127057 0.000000 0.000001 1.663521 0.688482 -0.096687
    25 2.683750 -0.427338 0.044205 -0.005786 0.043239 -0.157091
    26 1.438885 -0.000001 0.000000 0.000000 0.000000 0.732658
    27 1.485305 0.000001 0.000000 0.000000 0.000000 1.168770
    28 1.038631 0.548043 -0.144017 -0.000001 0.000001 -1.849906
    29 -0.064003 -0.023521 0.026161 0.000000 0.000000 0.000000
    30 3.013925 3.984634 -0.088975 -0.000001 0.000001 -1.849906
    31 -0.084188 -0.025627 -0.001098 0.000000 0.000000 0.000000
    32 4.778187 3.972486 -0.079803 -0.000001 0.000001 -1.849906
    33 -0.058556 -0.021324 0.004244 0.000000 0.000000 0.000000
    34 1.640598 -1.968779 -0.099219 -0.000001 0.000001 -1.849906
    35 0.055573 -0.028908 0.000000 0.000000 0.000000 0.000000
    36 1.646738 0.449549 -1.702246 -0.161934 0.581206 -0.284024
    37 0.928312 0.000000 -0.000002 0.000000 0.000000 0.000000
    38 0.928314 0.000000 0.000001 0.000000 0.000000 0.000000
    39 1.533672 0.109715 1.664491 -0.264755 -0.055959 0.783109
    40 0.928313 0.000000 0.000000 0.000000 0.000000 -0.453556
    41 0.928314 0.000000 0.000001 0.000000 0.000000 0.000000
  time 19
    0 0.235347 0.367732 3.528927 0.000000 0.000000 -1.570874
    1 0.000000 0.000000 0.000000 -1.570795 -1.570796 0.000000
    2 -0.000005 0.000007 3.713255 0.002054 3.115505 -0.021473
    3 18.045721 0.000000 0.000000 0.000000 0.000000 -0.121501
    4 17.597597 0.000000 0.000000 -0.002613 0.026036 0.099967
    5 0.000005 -0.000003 -3.713255 -0.002524 -3.124238 -0.024449
    6 18.045725 0.000000 0.000000 0.000000 0.000000 -0.127551
    7 17.597597 0.000000 0.000000 0.002950 -0.017289 0.103055
    8 1.293670 0.684478 -0.000001 -0.000004 -0.000001 0.009520
    9 5.309685 -0.003834 0.000000 0.000000 0.000000 -0.261661
    10 4.826790 -0.004591 0.000000 -0.156680 -0.009815 -0.062893
    11 5.792767 -0.005304 0.000000 -0.052233 -0.003092 -0.060063
    12 6.662317 -0.001453 0.000000 0.000000 -0.000001 0.471000
    13 2.046985 -0.000002 0.000000 0.209211 0.002094 -0.373637
    14 -3.112024 1.517254 4.341911 1.326295 -0.754687 1.448253
    15 4.827230 0.000000 0.000001 -0.540611 0.290236 -0.656333
    16 11.139763 0.000000 0.000000 0.000000 0.000000 -0.946140
    17 10.314597 0.000001 0.000000 -3.687048 0.382838 -0.380522
    18 2.975834 -0.386307 -0.044143 -0.012782 -0.041705 0.279374
    19 1.438886 0.000000 0.000000 0.000000 0.000000 0.924525
    20 1.485303 0.000000 0.000000 0.000000 0.000000 0.907076
    21 -2.869898 1.399663 -4.140396 0.915384 1.193325 3.549611
    22 4.972048 0.000000 0.000001 -0.298911 -1.189722 -0.804533
    23 11.585355 0.000000 0.000000 0.000000 0.000000 -1.504976
    24 10.127057 0.000000 0.000001 1.663521 0.688482 -0.096687
    25 2.683750 -0.427338 0.044205 -0.005786 0.043239 -0.157091
    26 1.438885 -0.000001 0.000000 0.000000 0.000000 0.732658
    27 1.485305 0.000001 0.000000 0.000000 0.000000 1.168770
    28 1.038631 0.548043 -0.144017 -0.000001 0.000001 -1.849906
    29 -0.064003 -0.023521 0.026161 0.000000 0.000000 0.000000
    30 3.013925 3.984634 -0.088975 -0.000001 0.000001 -1.849906
    31 -0.084188 -0.025627 -0.001098 0.000000 0.000000 0.000000
    32 4.778187 3.972486 -0.079803 -0.000001 0.000001 -1.849906
    33 -0.058556 -0.021324 0.004244 0.000000 0.000000 0.000000
    34 1.640598 -1.968779 -0.099219 -0.000001 0.000001 -1.849906
    35 0.055573 -0.028908 0.000000 0.000000 0.000000 0.000000
    36 1.646738 0.449549 -1.702246 -0.161934 0.581206 -0.284024
    37 0.928312 0.000000 -0.000002 0.000000 0.000000 0.000000
    38 0.928314 0.000000 0.000001 0.000000 0.000000 0.000000
    39 1.533672 0.109715 1.664491 -0.264755 -0.055959 0.783109
    40 0.928313 0.000000 0.000000 0.000000 0.000000 -0.453556
    41 0.928314 0.000000 0.000001 0.000000 0.000000 0.000000
  time 20
    0 0.235347 0.367732 3.528927 0.000000 0.000000 -1.570874
    1 0.000000 0.000000 0.000000 -1.570795 -1.570796 0.000000
    2 -0.000005 0.000007 3.713255 0.002054 3.115505 -0.021473
    3 18.045721 0.000000 0.000000 0.000000 0.000000 -0.121501
    4 17.597597 0.000000 0.000000 -0.002613 0.026036 0.099967
    5 0.000005 -0.000003 -3.713255 -0.002524 -3.124238 -0.024449
    6 18.045725 0.000000 0.000000 0.000000 0.000000 -0.127551
    7 17.597597 0.000000 0.000000 0.002950 -0.017289 0.103055
    8 1.293670 0.684478 -0.000001 -0.000004 -0.000001 0.009520
    9 5.309685 -0.003834 0.000000 0.000000 0.000000 -0.261661
    10 4.826790 -0.004591 0.000000 -0.156680 -0.010019 -0.064149
    11 5.792767 -0.005304 0.000000 -0.052217 -0.003296 -0.063863
    12 6.662317 -0.001453 0.000000 0.000000 -0.000001 0.471000
    13 2.046985 -0.000002 0.000000 0.209211 0.002026 -0.368558
    14 -3.112024 1.517254 4.341911 1.330321 -0.755764 1.442405
    15 4.827230 0.000000 0.000001 -0.542961 0.298746 -0.656158
    16 11.139763 0.000000 0.000000 0.000000 0.000000 -0.946140
    17 10.314597 0.000001 0.000000 -3.687048 0.382838 -0.380522
    18 2.975834 -0.386307 -0.044143 -0.012782 -0.041705 0.279374
    19 1.438886 0.000000 0.000000 0.000000 0.000000 0.924525
    20 1.485303 0.000000 0.000000 0.000000 0.000000 0.907076
    21 -2.869898 1.399663 -4.140396 0.921808 1.195246 3.556514
    22 4.972048 0.000000 0.000001 -0.304558 -1.194226 -0.798078
    23 11.585355 0.000000 0.000000 0.000000 0.000000 -1.504976
    24 10.127057 0.000000 0.000001 1.663521 0.688482 -0.096687
    25 2.683750 -0.427338 0.044205 -0.005786 0.043239 -0.157091
    26 1.438885 -0.000001 0.000000 0.000000 0.000000 0.732658
    27 1.485305 0.000001 0.000000 0.000000 0.000000 1.168770
    28 1.038631 0.548043 -0.144017 -0.000001 0.000001 -1.849906
    29 -0.064003 -0.023521 0.026161 0.000000 0.000000 0.000000
    30 3.013925 3.984634 -0.088975 -0.000001 0.000001 -1.849906
    31 -0.084188 -0.025627 -0.001098 0.000000 0.000000 0.000000
    32 4.778187 3.972486 -0.079803 -0.000001 0.000001 -1.849906
    33 -0.058556 -0.021324 0.004244 0.000000 0.000000 0.000000
    34 1.640598 -1.968779 -0.099219 -0.000001 0.000001 -1.849906
    35 0.055573 -0.028908 0.000000 0.000000 0.000000 0.000000
    36 1.646738 0.449549 -1.702246 -0.161934 0.581206 -0.284024
    37 0.928312 0.000000 -0.000002 0.000000 0.000000 0.000000
    38 0.928314 0.000000 0.000001 0.000000 0.000000 0.000000
    39 1.533672 0.109715 1.664491 -0.264755 -0.055959 0.783109
    40 0.928313 0.000000 0.000000 0.000000 0.000000 -0.453556
    41 0.928314 0.000000 0.000001 0.000000 0.000000 0.000000
  time 21
    0 0.235347 0.367732 3.528927 0.000000 0.000000 -1.570874
    1 0.000000 0.000000 0.000000 -1.570795 -1.570796 0.000000
    2 -0.000005 0.000007 3.713255 0.002054 3.115505 -0.021473
    3 18.045721 0.000000 0.000000 0.000000 0.000000 -0.121501
    4 17.597597 0.000000 0.000000 -0.002613 0.026036 0.099967
    5 0.000005 -0.000003 -3.713255 -0.002524 -3.124238 -0.024449
    6 18.045725 0.000000 0.000000 0.000000 0.000000 -0.127551
    7 17.597597 0.000000 0.000000 0.002950 -0.017289 0.103055
    8 1.293670 0.684478 -0.000001 -0.000004 -0.000001 0.009520
    9 5.309685 -0.003834 0.000000 0.000000 0.000000 -0.261661
    10 4.826790 -0.004591 0.000000 -0.156664 -0.010235 -0.065561
    11 5.792767 -0.005304 0.000000 -0.052201 -0.003523 -0.068140
    12 6.662317 -0.001453 0.000000 0.000000 -0.000001 0.471000
    13 2.046985 -0.000002 0.000000 0.209211 0.001959 -0.362849
    14 -3.112024 1.517254 4.341911 1.334923 -0.756957 1.435694
    15 4.827230 0.000000 0.000001 -0.545545 0.308277 -0.655983
    16 11.139763 0.000000 0.000000 0.000000 0.000000 -0.946140
    17 10.314597 0.000001 0.000000 -3.687048 0.382838 -0.380522
    18 2.975834 -0.386307 -0.044143 -0.012782 -0.041705 0.279374
    19 1.438886 0.000000 0.000000 0.000000 0.000000 0.924525
    20 1.485303 0.000000 0.000000 0.000000 0.000000 0.907076
    21 -2.869898 1.399663 -4.140396 0.928998 1.197395 3.564279
    22 4.972048 0.000000 0.000001 -0.311133 -1.199294 -0.790766
    23 11.585355 0.000000 0.000000 0.000000 0.000000 -1.504976
    24 10.127057 0.000000 0.000001 1.663521 0.688482 -0.096687
    25 2.683750 -0.427338 0.044205 -0.005786 0.043239 -0.157091
    26 1.438885 -0.000001 0.000000 0.000000 0.000000 0.732658
    27 1.485305 0.000001 0.000000 0.000000 0.000000 1.168770
    28 1.038631 0.548043 -0.144017 -0.000001 0.000001 -1.849906
    29 -0.064003 -0.023521 0.026161 0.000000 0.000000 0.000000
    30 3.013925 3.984634 -0.088975 -0.000001 0.000001 -1.849906
    31 -0.084188 -0.025627 -0.001098 0.000000 0.000000 0.000000
    32 4.778187 3.972486 -0.079803 -0.000001 0.000001 -1.849906
    33 -0.058556 -0.021324 0.004244 0.000000 0.000000 0.000000
    34 1.640598 -1.968779 -0.099219 -0.000001 0.000001 -1.849906
    35 0.055573 -0.028908 0.000000 0.000000 0.000000 0.000000
    36 1.646738 0.449549 -1.702246 -0.161934 0.581206 -0.284024
    37 0.928312 0.000000 -0.000002 0.000000 0.000000 0.000000
    38 0.928314 0.000000 0.000001 0.000000 0.000000 0.000000
    39 1.533672 0.109715 1.664491 -0.264755 -0.055959 0.783109
    40 0.928313 0.000000 0.000000 0.000000 0.000000 -0.453556
    41 0.928314 0.000000 0.000001 0.000000 0.000000 0.000000
  time 22
    0 0.235347 0.367732 3.528927 0.000000 0.000000 -1.570874
    1 0.000000 0.000000 0.000000 -1.570795 -1.570796 0.000000
    2 -0.000005 0.000007 3.713255 0.002054 3.115505 -0.021473
    3 18.045721 0.000000 0.000000 0.000000 0.000000 -0.121501
    4 17.597597 0.000000 0.000000 -0.002613 0.026036 0.099967
    5 0.000005 -0.000003 -3.713255 -0.002524 -3.124238 -0.024449
    6 18.045725 0.000000 0.000000 0.000000 0.000000 -0.127551
    7 17.597597 0.000000 0.000000 0.002950 -0.017289 0.103055
    8 1.293670 0.684478 -0.000001 -0.000004 -0.000001 0.009520
    9 5.309685 -0.003834 0.000000 0.000000 0.000000 -0.261661
    10 4.826790 -0.004591 0.000000 -0.156647 -0.010475 -0.067082
    11 5.792767 -0.005304 0.000000 -0.052184 -0.003763 -0.072750
    12 6.662317 -0.001453 0.000000 0.000000 -0.000001 0.471000
    13 2.046985 -0.000002 0.000000 0.209211 0.001869 -0.356736
    14 -3.112024 1.517254 4.341911 1.339813 -0.758188 1.428503
    15 4.827230 0.000000 0.000001 -0.548306 0.318574 -0.655808
    16 11.139763 0.000000 0.000000 0.000000 0.000000 -0.946140
    17 10.314597 0.000001 0.000000 -3.687048 0.382838 -0.380522
    18 2.975834 -0.386307 -0.044143 -0.012782 -0.041705 0.279374
    19 1.438886 0.000000 0.000000 0.000000 0.000000 0.924525
    20 1.485303 0.000000 0.000000 0.000000 0.000000 0.907076
    21 -2.869898 1.399663 -4.140396 0.936955 1.199684 3.572716
    22 4.972048 0.000000 0.000001 -0.318482 -1.204764 -0.782598
    23 11.585355 0.000000 0.000000 0.000000 0.000000 -1.504976
    24 10.127057 0.000000 0.000001 1.663521 0.688482 -0.096687
    25 2.683750 -0.427338 0.044205 -0.005786 0.043239 -0.157091
    26 1.438885 -0.000001 0.000000 0.000000 0.000000 0.732658
    27 1.485305 0.000001 0.000000 0.000000 0.000000 1.168770
    28 1.038631 0.548043 -0.144017 -0.000001 0.000001 -1.849906
    29 -0.064003 -0.023521 0.026161 0.000000 0.000000 0.000000
    30 3.013925 3.984634 -0.088975 -0.000001 0.000001 -1.849906
    31 -0.084188 -0.025627 -0.001098 0.000000 0.000000 0.000000
    32 4.778187 3.972486 -0.079803 -0.000001 0.000001 -1.849906
    33 -0.058556 -0.021324 0.004244 0.000000 0.000000 0.000000
    34 1.640598 -1.968779 -0.099219 -0.000001 0.000001 -1.849906
    35 0.055573 -0.028908 0.000000 0.000000 0.000000 0.000000
    36 1.646738 0.449549 -1.702246 -0.161934 0.581206 -0.284024
    37 0.928312 0.000000 -0.000002 0.000000 0.000000 0.000000
    38 0.928314 0.000000 0.000001 0.000000 0.000000 0.000000
    39 1.533672 0.109715 1.664491 -0.264755 -0.055959 0.783109
    40 0.928313 0.000000 0.000000 0.000000 0.000000 -0.453556
    41 0.928314 0.000000 0.000001 0.000000 0.000000 0.000000
  time 23
    0 0.235347 0.367732 3.528927 0.000000 0.000000 -1.570874
    1 0.000000 0.000000 0.000000 -1.570795 -1.570796 0.000000
    2 -0.000005 0.000007 3.713255 0.002054 3.115505 -0.021473
    3 18.045721 0.000000 0.000000 0.000000 0.000000 -0.121501
    4 17.597597 0.000000 0.000000 -0.002613 0.026036 0.099967
    5 0.000005 -0.000003 -3.713255 -0.002524 -3.124238 -0.024449
    6 18.045725 0.000000 0.000000 0.000000 0.000000 -0.127551
    7 17.597597 0.000000 0.000000 0.002950 -0.017289 0.103055
    8 1.293670 0.684478 -0.000001 -0.000004 -0.000001 0.009520
    9 5.309685 -0.003834 0.000000 0.000000 0.000000 -0.261661
    10 4.826790 -0.004591 0.000000 -0.156631 -0.010726 -0.068669
    11 5.792767 -0.005304 0.000000 -0.052168 -0.004015 -0.077525
    12 6.662317 -0.001453 0.000000 0.000000 -0.000001 0.471000
    13 2.046985 -0.000002 0.000000 0.209211 0.001801 -0.350354
    14 -3.112024 1.517254 4.341911 1.344990 -0.759457 1.421025
    15 4.827230 0.000000 0.000001 -0.551242 0.329297 -0.655720
    16 11.139763 0.000000 0.000000 0.000000 0.000000 -0.946140
    17 10.314597 0.000001 0.000000 -3.687048 0.382838 -0.380522
    18 2.975834 -0.386307 -0.044143 -0.012782 -0.041705 0.279374
    19 1.438886 0.000000 0.000000 0.000000 0.000000 0.924525
    20 1.485303 0.000000 0.000000 0.000000 0.000000 0.907076
    21 -2.869898 1.399663 -4.140396 0.945201 1.202030 3.581632
    22 4.972048 0.000000 0.000001 -0.326295 -1.210314 -0.773903
    23 11.585355 0.000000 0.000000 0.000000 0.000000 -1.504976
    24 10.127057 0.000000 0.000001 1.663521 0.688482 -0.096687
    25 2.683750 -0.427338 0.044205 -0.005786 0.043239 -0.157091
    26 1.438885 -0.000001 0.000000 0.000000 0.000000 0.732658
    27 1.485305 0.000001 0.000000 0.000000 0.000000 1.168770
    28 1.038631 0.548043 -0.144017 -0.000001 0.000001 -1.849906
    29 -0.064003 -0.023521 0.026161 0.000000 0.000000 0.000000
    30 3.013925 3.984634 -0.088975 -0.000001 0.000001 -1.849906
    31 -0.084188 -0.025627 -0.001098 0.000000 0.000000 0.000000
    32 4.778187 3.972486 -0.079803 -0.000001 0.000001 -1.849906
    33 -0.058556 -0.021324 0.004244 0.000000 0.000000 0.000000
    34 1.640598 -1.968779 -0.099219 -0.000001 0.000001 -1.849906
    35 0.055573 -0.028908 0.000000 0.000000 0.000000 0.000000
    36 1.646738 0.449549 -1.702246 -0.161934 0.581206 -0.284024
    37 0.928312 0.000000 -0.000002 0.000000 0.000000 0.000000
    38 0.928314 0.000000 0.000001 0.000000 0.000000 0.000000
    39 1.533672 0.109715 1.664491 -0.264755 -0.055959 0.783109
    40 0.928313 0.000000 0.000000 0.000000 0.000000 -0.453556
    41 0.928314 0.000000 0.000001 0.000000 0.000000 0.000000
  time 24
    0 0.235347 0.367732 3.528927 0.000000 0.000000 -1.570874
    1 0.000000 0.000000 0.000000 -1.570795 -1.570796 0.000000
    2 -0.000005 0.000007 3.713255 0.002054 3.115505 -0.021473
    3 18.045721 0.000000 0.000000 0.000000 0.000000 -0.121501
    4 17.597597 0.000000 0.000000 -0.002613 0.026036 0.099967
    5 0.000005 -0.000003 -3.713255 -0.002524 -3.124238 -0.024449
    6 18.045725 0.000000 0.000000 0.000000 0.000000 -0.127551
    7 17.597597 0.000000 0.000000 0.002950 -0.017289 0.103055
    8 1.293670 0.684478 -0.000001 -0.000004 -0.000001 0.009520
    9 5.309685 -0.003834 0.000000 0.000000 0.000000 -0.261661
    10 4.826790 -0.004591 0.000000 -0.156614 -0.010978 -0.070257
    11 5.792767 -0.005304 0.000000 -0.052152 -0.004267 -0.082363
    12 6.662317 -0.001453 0.000000 0.000000 -0.000001 0.471000
    13 2.046985 -0.000002 0.000000 0.209211 0.001711 -0.343881
    14 -3.112024 1.517254 4.341911 1.350263 -0.760726 1.413355
    15 4.827230 0.000000 0.000001 -0.554179 0.340105 -0.655633
    16 11.139763 0.000000 0.000000 0.000000 0.000000 -0.946140
    17 10.314597 0.000001 0.000000 -3.687048 0.382838 -0.380522
    18 2.975834 -0.386307 -0.044143 -0.012782 -0.041705 0.279374
    19 1.438886 0.000000 0.000000 0.000000 0.000000 0.924525
    20 1.485303 0.000000 0.000000 0.000000 0.000000 0.907076
    21 -2.869898 1.399663 -4.140396 0.953733 1.204376 3.590836
    22 4.972048 0.000000 0.000001 -0.334495 -1.216026 -0.764944
    23 11.585355 0.000000 0.000000 0.000000 0.000000 -1.504976
    24 10.127057 0.000000 0.000001 1.663521 0.688482 -0.096687
    25 2.683750 -0.427338 0.044205 -0.005786 0.043239 -0.157091
    26 1.438885 -0.000001 0.000000 0.000000 0.000000 0.732658
    27 1.485305 0.000001 0.000000 0.000000 0.000000 1.168770
    28 1.038631 0.548043 -0.144017 -0.000001 0.000001 -1.849906
    29 -0.064003 -0.023521 0.026161 0.000000 0.000000 0.000000
    30 3.013925 3.984634 -0.088975 -0.000001 0.000001 -1.849906
    31 -0.084188 -0.025627 -0.001098 0.000000 0.000000 0.000000
    32 4.778187 3.972486 -0.079803 -0.000001 0.000001 -1.849906
    33 -0.058556 -0.021324 0.004244 0.000000 0.000000 0.000000
    34 1.640598 -1.968779 -0.099219 -0.000001 0.000001 -1.849906
    35 0.055573 -0.028908 0.000000 0.000000 0.000000 0.000000
    36 1.646738 0.449549 -1.702246 -0.161934 0.581206 -0.284024
    37 0.928312 0.000000 -0.000002 0.000000 0.000000 0.000000
    38 0.928314 0.000000 0.000001 0.000000 0.000000 0.000000
    39 1.533672 0.109715 1.664491 -0.264755 -0.055959 0.783109
    40 0.928313 0.000000 0.000000 0.000000 0.000000 -0.453556
    41 0.928314 0.000000 0.000001 0.000000 0.000000 0.000000
  time 25
    0 0.235347 0.367732 3.528927 0.000000 0.000000 -1.570874
    1 0.000000 0.000000 0.000000 -1.570795 -1.570796 0.000000
    2 -0.000005 0.000007 3.713255 0.002054 3.115505 -0.021473
    3 18.045721 0.000000 0.000000 0.000000 0.000000 -0.121501
    4 17.597597 0.000000 0.000000 -0.002613 0.026036 0.099967
    5 0.000005 -0.000003 -3.713255 -0.002524 -3.124238 -0.024449
    6 18.045725 0.000000 0.000000 0.000000 0.000000 -0.127551
    7 17.597597 0.000000 0.000000 0.002950 -0.017289 0.103055
    8 1.293670 0.684478 -0.000001 -0.000004 -0.000001 0.009520
    9 5.309685 -0.003834 0.000000 0.000000 0.000000 -0.261661
    10 4.826790 -0.004591 0.000000 -0.156598 -0.011230 -0.071822
    11 5.792767 -0.005304 0.000000 -0.052135 -0.004506 -0.087097
    12 6.662317 -0.001453 0.000000 0.000000 -0.000001 0.471000
    13 2.046985 -0.000002 0.000000 0.209211 0.001621 -0.337544
    14 -3.112024 1.517254 4.341911 1.355440 -0.761919 1.405972
    15 4.827230 0.000000 0.000001 -0.557057 0.350657 -0.655633
    16 11.139763 0.000000 0.000000 0.000000 0.000000 -0.946140
    17 10.314597 0.000001 0.000000 -3.687048 0.382838 -0.380522
    18 2.975834 -0.386307 -0.044143 -0.012782 -0.041705 0.279374
    19 1.438886 0.000000 0.000000 0.000000 0.000000 0.924525
    20 1.485303 0.000000 0.000000 0.000000 0.000000 0.907076
    21 -2.869898 1.399663 -4.140396 0.962170 1.206665 3.599848
    22 4.972048 0.000000 0.000001 -0.342849 -1.221496 -0.755854
    23 11.585355 0.000000 0.000000 0.000000 0.000000 -1.504976
    24 10.127057 0.000000 0.000001 1.663521 0.688482 -0.096687
    25 2.683750 -0.427338 0.044205 -0.005786 0.043239 -0.157091
    26 1.438885 -0.000001 0.000000 0.000000 0.000000 0.732658
    27 1.485305 0.000001 0.000000 0.000000 0.000000 1.168770
    28 1.038631 0.548043 -0.144017 -0.000001 0.000001 -1.849906
    29 -0.064003 -0.023521 0.026161 0.000000 0.000000 0.000000
    30 3.013925 3.984634 -0.088975 -0.000001 0.000001 -1.849906
    31 -0.084188 -0.025627 -0.001098 0.000000 0.000000 0.000000
    32 4.778187 3.972486 -0.079803 -0.000001 0.000001 -1.849906
    33 -0.058556 -0.021324 0.004244 0.000000 0.000000 0.000000
    34 1.640598 -1.968779 -0.099219 -0.000001 0.000001 -1.849906
    35 0.055573 -0.028908 0.000000 0.000000 0.000000 0.000000
    36 1.646738 0.449549 -1.702246 -0.161934 0.581206 -0.284024
    37 0.928312 0.000000 -0.000002 0.000000 0.000000 0.000000
    38 0.928314 0.000000 0.000001 0.000000 0.000000 0.000000
    39 1.533672 0.109715 1.664491 -0.264755 -0.055959 0.783109
    40 0.928313 0.000000 0.000000 0.000000 0.000000 -0.453556
    41 0.928314 0.000000 0.000001 0.000000 0.000000 0.000000
  time 26
    0 0.235347 0.367732 3.528927 0.000000 0.000000 -1.570874
    1 0.000000 0.000000 0.000000 -1.570795 -1.570796 0.000000
    2 -0.000005 0.000007 3.713255 0.002054 3.115505 -0.021473
    3 18.045721 0.000000 0.000000 0.000000 0.000000 -0.121501
    4 17.597597 0.000000 0.000000 -0.002613 0.026036 0.099967
    5 0.000005 -0.000003 -3.713255 -0.002524 -3.124238 -0.024449
    6 18.045725 0.000000 0.000000 0.000000 0.000000 -0.127551
    7 17.597597 0.000000 0.000000 0.002950 -0.017289 0.103055
    8 1.293670 0.684478 -0.000001 -0.000004 -0.000001 0.009520
    9 5.309685 -0.003834 0.000000 0.000000 0.000000 -0.261661
    10 4.826790 -0.004591 0.000000 -0.156582 -0.011457 -0.073300
    11 5.792767 -0.005304 0.000000 -0.052103 -0.004746 -0.091602
    12 6.662317 -0.001453 0.000000 0.000000 -0.000001 0.471000
    13 2.046985 -0.000002 0.000000 0.209211 0.001554 -0.331566
    14 -3.112024 1.517254 4.341911 1.360329 -0.763034 1.398781
    15 4.827230 0.000000 0.000001 -0.559818 0.360784 -0.655633
    16 11.139763 0.000000 0.000000 0.000000 0.000000 -0.946140
    17 10.314597 0.000001 0.000000 -3.687048 0.382838 -0.380522
    18 2.975834 -0.386307 -0.044143 -0.012782 -0.041705 0.279374
    19 1.438886 0.000000 0.000000 0.000000 0.000000 0.924525
    20 1.485303 0.000000 0.000000 0.000000 0.000000 0.907076
    21 -2.869898 1.399663 -4.140396 0.970319 1.208785 3.608573
    22 4.972048 0.000000 0.000001 -0.350971 -1.226805 -0.746961
    23 11.585355 0.000000 0.000000 0.000000 0.000000 -1.504976
    24 10.127057 0.000000 0.000001 1.663521 0.688482 -0.096687
    25 2.683750 -0.427338 0.044205 -0.005786 0.043239 -0.157091
    26 1.438885 -0.000001 0.000000 0.000000 0.000000 0.732658
    27 1.485305 0.000001 0.000000 0.000000 0.000000 1.168770
    28 1.038631 0.548043 -0.144017 -0.000001 0.000001 -1.849906
    29 -0.064003 -0.023521 0.026161 0.000000 0.000000 0.000000
    30 3.013925 3.984634 -0.088975 -0.000001 0.000001 -1.849906
    31 -0.084188 -0.025627 -0.001098 0.000000 0.000000 0.000000
    32 4.778187 3.972486 -0.079803 -0.000001 0.000001 -1.849906
    33 -0.058556 -0.021324 0.004244 0.000000 0.000000 0.000000
    34 1.640598 -1.968779 -0.099219 -0.000001 0.000001 -1.849906
    35 0.055573 -0.028908 0.000000 0.000000 0.000000 0.000000
    36 1.646738 0.449549 -1.702246 -0.161934 0.581206 -0.284024
    37 0.928312 0.000000 -0.000002 0.000000 0.000000 0.000000
    38 0.928314 0.000000 0.000001 0.000000 0.000000 0.000000
    39 1.533672 0.109715 1.664491 -0.264755 -0.055959 0.783109
    40 0.928313 0.000000 0.000000 0.000000 0.000000 -0.453556
    41 0.928314 0.000000 0.000001 0.000000 0.000000 0.000000
  time 27
    0 0.235347 0.367732 3.528927 0.000000 0.000000 -1.570874
    1 0.000000 0.000000 0.000000 -1.570795 -1.570796 0.000000
    2 -0.000005 0.000007 3.713255 0.002054 3.115505 -0.021473
    3 18.045721 0.000000 0.000000 0.000000 0.000000 -0.121501
    4 17.597597 0.000000 0.000000 -0.002613 0.026036 0.099967
    5 0.000005 -0.000003 -3.713255 -0.002524 -3.124238 -0.024449
    6 18.045725 0.000000 0.000000 0.000000 0.000000 -0.127551
    7 17.597597 0.000000 0.000000 0.002950 -0.017289 0.103055
    8 1.293670 0.684478 -0.000001 -0.000004 -0.000001 0.009520
    9 5.309685 -0.003834 0.000000 0.000000 0.000000 -0.261661
    10 4.826790 -0.004591 0.000000 -0.156565 -0.011673 -0.074667
    11 5.792767 -0.005304 0.000000 -0.052086 -0.004962 -0.095734
    12 6.662317 -0.001453 0.000000 0.000000 -0.000001 0.471000
    13 2.046985 -0.000002 0.000000 0.209211 0.001486 -0.326037
    14 -3.112024 1.517254 4.341911 1.364836 -0.763996 1.392262
    15 4.827230 0.000000 0.000001 -0.562402 0.370060 -0.655720
    16 11.139763 0.000000 0.000000 0.000000 0.000000 -0.946140
    17 10.314597 0.000001 0.000000 -3.687048 0.382838 -0.380522
    18 2.975834 -0.386307 -0.044143 -0.012782 -0.041705 0.279374
    19 1.438886 0.000000 0.000000 0.000000 0.000000 0.924525
    20 1.485303 0.000000 0.000000 0.000000 0.000000 0.907076
    21 -2.869898 1.399663 -4.140396 0.977893 1.210735 3.616626
    22 4.972048 0.000000 0.000001 -0.358707 -1.231551 -0.738595
    23 11.585355 0.000000 0.000000 0.000000 0.000000 -1.504976
    24 10.127057 0.000000 0.000001 1.663521 0.688482 -0.096687
    25 2.683750 -0.427338 0.044205 -0.005786 0.043239 -0.157091
    26 1.438885 -0.000001 0.000000 0.000000 0.000000 0.732658
    27 1.485305 0.000001 0.000000 0.000000 0.000000 1.168770
    28 1.038631 0.548043 -0.144017 -0.000001 0.000001 -1.849906
    29 -0.064003 -0.023521 0.026161 0.000000 0.000000 0.000000
    30 3.013925 3.984634 -0.088975 -0.000001 0.000001 -1.849906
    31 -0.084188 -0.025627 -0.001098 0.000000 0.000000 0.000000
    32 4.778187 3.972486 -0.079803 -0.000001 0.000001 -1.849906
    33 -0.058556 -0.021324 0.004244 0.000000 0.000000 0.000000
    34 1.640598 -1.968779 -0.099219 -0.000001 0.000001 -1.849906
    35 0.055573 -0.028908 0.000000 0.000000 0.000000 0.000000
    36 1.646738 0.449549 -1.702246 -0.161934 0.581206 -0.284024
    37 0.928312 0.000000 -0.000002 0.000000 0.000000 0.000000
    38 0.928314 0.000000 0.000001 0.000000 0.000000 0.000000
    39 1.533672 0.109715 1.664491 -0.264755 -0.055959 0.783109
    40 0.928313 0.000000 0.000000 0.000000 0.000000 -0.453556
    41 0.928314 0.000000 0.000001 0.000000 0.000000 0.000000
  time 28
    0 0.235347 0.367732 3.528927 0.000000 0.000000 -1.570874
    1 0.000000 0.000000 0.000000 -1.570795 -1.570796 0.000000
    2 -0.000005 0.000007 3.713255 0.002054 3.115505 -0.021473
    3 18.045721 0.000000 0.000000 0.000000 0.000000 -0.121501
    4 17.597597 0.000000 0.000000 -0.002613 0.026036 0.099967
    5 0.000005 -0.000003 -3.713255 -0.002524 -3.124238 -0.024449
    6 18.045725 0.000000 0.000000 0.000000 0.000000 -0.127551
    7 17.597597 0.000000 0.000000 0.002950 -0.017289 0.103055
    8 1.293670 0.684478 -0.000001 -0.000004 -0.000001 0.009520
    9 5.309685 -0.003834 0.000000 0.000000 0.000000 -0.261661
    10 4.826790 -0.004591 0.000000 -0.156549 -0.011865 -0.075857
    11 5.792767 -0.005304 0.000000 -0.052070 -0.005153 -0.099367
    12 6.662317 -0.001453 0.000000 0.000000 -0.000001 0.471000
    13 2.046985 -0.000002 0.000000 0.209211 0.001418 -0.321183
    14 -3.112024 1.517254 4.341911 1.368766 -0.764881 1.386509
    15 4.827230 0.000000 0.000001 -0.564634 0.378145 -0.655896
    16 11.139763 0.000000 0.000000 0.000000 0.000000 -0.946140
    17 10.314597 0.000001 0.000000 -3.687048 0.382838 -0.380522
    18 2.975834 -0.386307 -0.044143 -0.012782 -0.041705 0.279374
    19 1.438886 0.000000 0.000000 0.000000 0.000000 0.924525
    20 1.485303 0.000000 0.000000 0.000000 0.000000 0.907076
    21 -2.869898 1.399663 -4.140396 0.984604 1.212403 3.623816
    22 4.972048 0.000000 0.000001 -0.365669 -1.235734 -0.731020
    23 11.585355 0.000000 0.000000 0.000000 0.000000 -1.504976
    24 10.127057 0.000000 0.000001 1.663521 0.688482 -0.096687
    25 2.683750 -0.427338 0.044205 -0.005786 0.043239 -0.157091
    26 1.438885 -0.000001 0.000000 0.000000 0.000000 0.732658
    27 1.485305 0.000001 0.000000 0.000000 0.000000 1.168770
    28 1.038631 0.548043 -0.144017 -0.000001 0.000001 -1.849906
    29 -0.064003 -0.023521 0.026161 0.000000 0.000000 0.000000
    30 3.013925 3.984634 -0.088975 -0.000001 0.000001 -1.849906
    31 -0.084188 -0.025627 -0.001098 0.000000 0.000000 0.000000
    32 4.778187 3.972486 -0.079803 -0.000001 0.000001 -1.849906
    33 -0.058556 -0.021324 0.004244 0.000000 0.000000 0.000000
    34 1.640598 -1.968779 -0.099219 -0.000001 0.000001 -1.849906
    35 0.055573 -0.028908 0.000000 0.000000 0.000000 0.000000
    36 1.646738 0.449549 -1.702246 -0.161934 0.581206 -0.284024
    37 0.928312 0.000000 -0.000002 0.000000 0.000000 0.000000
    38 0.928314 0.000000 0.000001 0.000000 0.000000 0.000000
    39 1.533672 0.109715 1.664491 -0.264755 -0.055959 0.783109
    40 0.928313 0.000000 0.000000 0.000000 0.000000 -0.453556
    41 0.928314 0.000000 0.000001 0.000000 0.000000 0.000000
  time 29
    0 0.235347 0.367732 3.528927 0.000000 0.000000 -1.570874
    1 0.000000 0.000000 0.000000 -1.570795 -1.570796 0.000000
    2 -0.000005 0.000007 3.713255 0.002054 3.115505 -0.021473
    3 18.045721 0.000000 0.000000 0.000000 0.000000 -0.121501
    4 17.597597 0.000000 0.000000 -0.002613 0.026036 0.099967
    5 0.000005 -0.000003 -3.713255 -0.002524 -3.124238 -0.024449
    6 18.045725 0.000000 0.000000 0.000000 0.000000 -0.127551
    7 17.597597 0.000000 0.000000 0.002950 -0.017289 0.103055
    8 1.293670 0.684478 -0.000001 -0.000004 -0.000001 0.009520
    9 5.309685 -0.003834 0.000000 0.000000 0.000000 -0.261661
    10 4.826790 -0.004591 0.000000 -0.156532 -0.012021 -0.076850
    11 5.792767 -0.005304 0.000000 -0.052054 -0.005309 -0.102336
    12 6.662317 -0.001453 0.000000 0.000000 -0.000001 0.471000
    13 2.046985 -0.000002 0.000000 0.209168 0.001351 -0.317227
    14 -3.112024 1.517254 4.341911 1.372122 -0.765573 1.381811
    15 4.827230 0.000000 0.000001 -0.566455 0.384783 -0.655983
    16 11.139763 0.000000 0.000000 0.000000 0.000000 -0.946140
    17 10.314597 0.000001 0.000000 -3.687048 0.382838 -0.380522
    18 2.975834 -0.386307 -0.044143 -0.012782 -0.041705 0.279374
    19 1.438886 0.000000 0.000000 0.000000 0.000000 0.924525
    20 1.485303 0.000000 0.000000 0.000000 0.000000 0.907076
    21 -2.869898 1.399663 -4.140396 0.990165 1.213788 3.629665
    22 4.972048 0.000000 0.000001 -0.371548 -1.239112 -0.724762
    23 11.585355 0.000000 0.000000 0.000000 0.000000 -1.504976
    24 10.127057 0.000000 0.000001 1.663521 0.688482 -0.096687
    25 2.683750 -0.427338 0.044205 -0.005786 0.043239 -0.157091
    26 1.438885 -0.000001 0.000000 0.000000 0.000000 0.732658
    27 1.485305 0.000001 0.000000 0.000000 0.000000 1.168770
    28 1.038631 0.548043 -0.144017 -0.000001 0.000001 -1.849906
    29 -0.064003 -0.023521 0.026161 0.000000 0.000000 0.000000
    30 3.013925 3.984634 -0.088975 -0.000001 0.000001 -1.849906
    31 -0.084188 -0.025627 -0.001098 0.000000 0.000000 0.000000
    32 4.778187 3.972486 -0.079803 -0.000001 0.000001 -1.849906
    33 -0.058556 -0.021324 0.004244 0.000000 0.000000 0.000000
    34 1.640598 -1.968779 -0.099219 -0.000001 0.000001 -1.849906
    35 0.055573 -0.028908 0.000000 0.000000 0.000000 0.000000
    36 1.646738 0.449549 -1.702246 -0.161934 0.581206 -0.284024
    37 0.928312 0.000000 -0.000002 0.000000 0.000000 0.000000
    38 0.928314 0.000000 0.000001 0.000000 0.000000 0.000000
    39 1.533672 0.109715 1.664491 -0.264755 -0.055959 0.783109
    40 0.928313 0.000000 0.000000 0.000000 0.000000 -0.453556
    41 0.928314 0.000000 0.000001 0.000000 0.000000 0.000000
  time 30
    0 0.235347 0.367732 3.528927 0.000000 0.000000 -1.570874
    1 0.000000 0.000000 0.000000 -1.570795 -1.570796 0.000000
    2 -0.000005 0.000007 3.713255 0.002054 3.115505 -0.021473
    3 18.045721 0.000000 0.000000 0.000000 0.000000 -0.121501
    4 17.597597 0.000000 0.000000 -0.002613 0.026036 0.099967
    5 0.000005 -0.000003 -3.713255 -0.002524 -3.124238 -0.024449
    6 18.045725 0.000000 0.000000 0.000000 0.000000 -0.127551
    7 17.597597 0.000000 0.000000 0.002950 -0.017289 0.103055
    8 1.293670 0.684478 -0.000001 -0.000004 -0.000001 0.009520
    9 5.309685 -0.003834 0.000000 0.000000 0.000000 -0.261661
    10 4.826790 -0.004591 0.000000 -0.156532 -0.012128 -0.077555
    11 5.792767 -0.005304 0.000000 -0.052037 -0.005417 -0.104517
    12 6.662317 -0.001453 0.000000 0.000000 -0.000001 0.471000
    13 2.046985 -0.000002 0.000000 0.209168 0.001328 -0.314306
    14 -3.112024 1.517254 4.341911 1.374519 -0.766073 1.378360
    15 4.827230 0.000000 0.000001 -0.567806 0.389719 -0.656071
    16 11.139763 0.000000 0.000000 0.000000 0.000000 -0.946140
    17 10.314597 0.000001 0.000000 -3.687048 0.382838 -0.380522
    18 2.975834 -0.386307 -0.044143 -0.012782 -0.041705 0.279374
    19 1.438886 0.000000 0.000000 0.000000 0.000000 0.924525
    20 1.485303 0.000000 0.000000 0.000000 0.000000 0.907076
    21 -2.869898 1.399663 -4.140396 0.994288 1.214777 3.634075
    22 4.972048 0.000000 0.000001 -0.375957 -1.241606 -0.720085
    23 11.585355 0.000000 0.000000 0.000000 0.000000 -1.504976
    24 10.127057 0.000000 0.000001 1.663521 0.688482 -0.096687
    25 2.683750 -0.427338 0.044205 -0.005786 0.043239 -0.157091
    26 1.438885 -0.000001 0.000000 0.000000 0.000000 0.732658
    27 1.485305 0.000001 0.000000 0.000000 0.000000 1.168770
    28 1.038631 0.548043 -0.144017 -0.000001 0.000001 -1.849906
    29 -0.064003 -0.023521 0.026161 0.000000 0.000000 0.000000
    30 3.013925 3.984634 -0.088975 -0.000001 0.000001 -1.849906
    31 -0.084188 -0.025627 -0.001098 0.000000 0.000000 0.000000
    32 4.778187 3.972486 -0.079803 -0.000001 0.000001 -1.849906
    33 -0.058556 -0.021324 0.004244 0.000000 0.000000 0.000000
    34 1.640598 -1.968779 -0.099219 -0.000001 0.000001 -1.849906
    35 0.055573 -0.028908 0.000000 0.000000 0.000000 0.000000
    36 1.646738 0.449549 -1.702246 -0.161934 0.581206 -0.284024
    37 0.928312 0.000000 -0.000002 0.000000 0.000000 0.000000
    38 0.928314 0.000000 0.000001 0.000000 0.000000 0.000000
    39 1.533672 0.109715 1.664491 -0.264755 -0.055959 0.783109
    40 0.928313 0.000000 0.000000 0.000000 0.000000 -0.453556
    41 0.928314 0.000000 0.000001 0.000000 0.000000 0.000000
end
