version 1
nodes
  0 "Bip01" -1
  1 "Bip01 Pelvis" 0
  2 "Bip01 L Leg" 1
  3 "Bip01 L Leg1" 2
  4 "Bip01 L Foot" 3
  5 "Bip01 R Leg" 1
  6 "Bip01 R Leg1" 5
  7 "Bip01 R Foot" 6
  8 "Bip01 Spine" 1
  9 "Bip01 Spine1" 8
  10 "Bip01 Spine2" 9
  11 "Bip01 Spine3" 10
  12 "Bip01 Neck" 11
  13 "Bip01 Head" 12
  14 "Bip01 L Arm" 12
  15 "Bip01 L Arm1" 14
  16 "Bip01 L Arm2" 15
  17 "Bip01 L Hand" 16
  18 "Bip01 L Finger1" 17
  19 "Bip01 L Finger11" 18
  20 "Bip01 L Finger12" 19
  21 "Bip01 R Arm" 12
  22 "Bip01 R Arm1" 21
  23 "Bip01 R Arm2" 22
  24 "Bip01 R Hand" 23
  25 "Bip01 R Finger1" 24
  26 "Bip01 R Finger11" 25
  27 "Bip01 R Finger12" 26
  28 "Dummy08" 13
  29 "Bone02" 28
  30 "Dummy04" 13
  31 "Bone05" 30
  32 "Dummy03" 13
  33 "Bone07" 32
  34 "Dummy10" 13
  35 "Bone13" 34
  36 "Bip01 L Finger0" 17
  37 "Bip01 L Finger01" 36
  38 "Bip01 L Finger02" 37
  39 "Bip01 R Finger0" 24
  40 "Bip01 R Finger01" 39
  41 "Bip01 R Finger02" 40
end
skeleton
  time 0
    0 0.235347 0.367732 -12.584846 0.000000 0.270322 -1.570874
    1 -3.699332 0.589862 0.000000 -1.570795 -1.570796 0.000000
    2 -0.000005 0.000007 3.713255 2.893246 6.073186 1.567094
    3 18.045721 0.000000 0.000000 0.000000 0.000000 -1.744785
    4 17.597597 0.000000 0.000000 -0.164903 0.191688 0.413694
    5 0.000005 -0.000003 -3.713255 0.311735 -3.346321 -0.928284
    6 18.045725 0.000000 0.000000 0.000000 0.000000 -1.993364
    7 17.597597 0.000000 0.000000 0.131027 -0.129934 1.055714
    8 1.293670 0.684478 -0.000001 -0.000004 -0.000001 0.279904
    9 5.309685 -0.003834 0.000000 -0.206298 0.036241 0.170673
    10 4.826790 -0.004591 0.000000 -0.293196 0.045949 0.150210
    11 5.792767 -0.005304 0.000000 0.000000 0.000000 0.279097
    12 6.662317 -0.001453 0.000000 0.000000 -0.000001 0.078527
    13 2.046985 -0.000002 0.000000 0.485588 -0.141372 -0.329228
    14 -3.451878 0.212527 4.341911 1.735864 -0.581898 1.197154
    15 4.827230 0.000000 0.000001 -0.137210 0.455927 0.271723
    16 11.139763 0.000000 0.000000 0.000000 0.000000 -1.550508
    17 10.314597 0.000001 0.000000 -4.383982 0.179787 -0.497798
    18 2.975834 -0.386307 -0.044143 -0.012063 -0.041921 0.262037
    19 1.438886 0.000000 0.000000 0.000000 0.000000 0.637017
    20 1.485303 0.000000 0.000000 0.000000 0.000000 0.540993
    21 -3.186314 0.196501 -4.140396 -0.683013 1.249598 2.404790
    22 4.972048 0.000000 0.000001 0.277845 -0.425452 -1.388559
    23 11.585355 0.000000 0.000000 0.000000 0.000000 -1.485248
    24 10.127057 0.000000 0.000001 2.143198 0.406180 0.748268
    25 2.683750 -0.427338 0.044205 0.001045 0.043611 0.000046
    26 1.438885 -0.000001 0.000000 0.000000 0.000000 0.767762
    27 1.485305 0.000001 0.000000 0.000000 0.000000 1.221689
    28 1.038631 0.548043 -0.144017 -0.000001 0.000001 -1.849906
    29 -0.064003 -0.023521 0.026161 0.000000 0.000000 0.000000
    30 3.013925 3.984634 -0.088975 -0.000001 0.000001 -1.849906
    31 -0.084188 -0.025627 -0.001098 0.000000 0.000000 0.000000
    32 4.778187 3.972486 -0.079803 -0.000001 0.000001 -1.849906
    33 -0.058556 -0.021324 0.004244 0.000000 0.000000 0.000000
    34 1.640598 -1.968779 -0.099219 -0.000001 0.000001 -1.849906
    35 0.055573 -0.028908 0.000000 0.000000 0.000000 0.000000
    36 1.646738 0.449549 -1.702246 0.195746 0.777407 0.349090
    37 0.928312 0.000000 -0.000002 0.000000 0.000000 0.000000
    38 0.928314 0.000000 0.000001 0.000000 0.000000 0.000000
    39 1.533672 0.109715 1.664491 -0.233255 -0.412980 0.435684
    40 0.928313 0.000000 0.000000 0.000000 0.000000 0.000000
    41 0.928314 0.000000 0.000001 0.000000 0.000000 0.000000
  time 1
    0 0.235347 0.367732 -12.588752 0.000000 0.270322 -1.570874
    1 -3.714957 0.593768 0.000000 -1.570795 -1.570796 0.000000
    2 -0.000005 0.000007 3.713255 2.893246 6.073186 1.567094
    3 18.045721 0.000000 0.000000 0.000000 0.000000 -1.744785
    4 17.597597 0.000000 0.000000 -0.164903 0.191688 0.413694
    5 0.000005 -0.000003 -3.713255 0.311735 -3.346321 -0.928284
    6 18.045725 0.000000 0.000000 0.000000 0.000000 -1.993364
    7 17.597597 0.000000 0.000000 0.131027 -0.129934 1.055714
    8 1.293670 0.684478 -0.000001 -0.000004 -0.000001 0.279904
    9 5.309685 -0.003834 0.000000 -0.206237 0.036625 0.172466
    10 4.826790 -0.004591 0.000000 -0.293131 0.046368 0.151600
    11 5.792767 -0.005304 0.000000 0.000000 0.000000 0.282024
    12 6.662317 -0.001453 0.000000 0.000000 -0.000001 0.078527
    13 2.046985 -0.000002 0.000000 0.485458 -0.141709 -0.333723
    14 -3.451878 0.212527 4.341911 1.733276 -0.582552 1.201948
    15 4.827230 0.000000 0.000001 -0.143142 0.447757 0.270148
    16 11.139763 0.000000 0.000000 0.000000 0.000000 -1.550508
    17 10.314597 0.000001 0.000000 -4.383982 0.179787 -0.497798
    18 2.975834 -0.386307 -0.044143 -0.012063 -0.041921 0.262037
    19 1.438886 0.000000 0.000000 0.000000 0.000000 0.637017
    20 1.485303 0.000000 0.000000 0.000000 0.000000 0.540993
    21 -3.186314 0.196501 -4.140396 -0.693943 1.246913 2.394531
    22 4.972048 0.000000 0.000001 0.278464 -0.418534 -1.386319
    23 11.585355 0.000000 0.000000 0.000000 0.000000 -1.485248
    24 10.127057 0.000000 0.000001 2.144408 0.406505 0.751327
    25 2.683750 -0.427338 0.044205 0.001045 0.043611 0.000046
    26 1.438885 -0.000001 0.000000 0.000000 0.000000 0.767762
    27 1.485305 0.000001 0.000000 0.000000 0.000000 1.221689
    28 1.038631 0.548043 -0.144017 -0.000001 0.000001 -1.849906
    29 -0.064003 -0.023521 0.026161 0.000000 0.000000 0.000000
    30 3.013925 3.984634 -0.088975 -0.000001 0.000001 -1.849906
    31 -0.084188 -0.025627 -0.001098 0.000000 0.000000 0.000000
    32 4.778187 3.972486 -0.079803 -0.000001 0.000001 -1.849906
    33 -0.058556 -0.021324 0.004244 0.000000 0.000000 0.000000
    34 1.640598 -1.968779 -0.099219 -0.000001 0.000001 -1.849906
    35 0.055573 -0.028908 0.000000 0.000000 0.000000 0.000000
    36 1.646738 0.449549 -1.702246 0.195746 0.777407 0.349090
    37 0.928312 0.000000 -0.000002 0.000000 0.000000 0.000000
    38 0.928314 0.000000 0.000001 0.000000 0.000000 0.000000
    39 1.533672 0.109715 1.664491 -0.233255 -0.412980 0.435684
    40 0.928313 0.000000 0.000000 0.000000 0.000000 0.000000
    41 0.928314 0.000000 0.000001 0.000000 0.000000 0.000000
  time 2
    0 0.235347 0.367732 -12.592659 0.000000 0.270322 -1.570874
    1 -3.730583 0.601581 0.000000 -1.570795 -1.570796 0.000000
    2 -0.000005 0.000007 3.713255 2.893246 6.073186 1.567094
    3 18.045721 0.000000 0.000000 0.000000 0.000000 -1.744785
    4 17.597597 0.000000 0.000000 -0.164903 0.191688 0.413694
    5 0.000005 -0.000003 -3.713255 0.311735 -3.346321 -0.928284
    6 18.045725 0.000000 0.000000 0.000000 0.000000 -1.993364
    7 17.597597 0.000000 0.000000 0.131027 -0.129934 1.055714
    8 1.293670 0.684478 -0.000001 -0.000004 -0.000001 0.279904
    9 5.309685 -0.003834 0.000000 -0.206139 0.037128 0.174892
    10 4.826790 -0.004591 0.000000 -0.293049 0.046944 0.153496
    11 5.792767 -0.005304 0.000000 0.000000 0.000000 0.285990
    12 6.662317 -0.001453 0.000000 0.000000 -0.000001 0.078527
    13 2.046985 -0.000002 0.000000 0.485286 -0.142160 -0.339836
    14 -3.451878 0.212527 4.341911 1.729729 -0.583437 1.208372
    15 4.827230 0.000000 0.000001 -0.151130 0.436524 0.267960
    16 11.139763 0.000000 0.000000 0.000000 0.000000 -1.550508
    17 10.314597 0.000001 0.000000 -4.383982 0.179787 -0.497798
    18 2.975834 -0.386307 -0.044143 -0.012063 -0.041921 0.262037
    19 1.438886 0.000000 0.000000 0.000000 0.000000 0.637017
    20 1.485303 0.000000 0.000000 0.000000 0.000000 0.540993
    21 -3.186314 0.196501 -4.140396 -0.708420 1.243211 2.380726
    22 4.972048 0.000000 0.000001 0.279160 -0.409042 -1.383223
    23 11.585355 0.000000 0.000000 0.000000 0.000000 -1.485248
    24 10.127057 0.000000 0.000001 2.146001 0.406965 0.755525
    25 2.683750 -0.427338 0.044205 0.001045 0.043611 0.000046
    26 1.438885 -0.000001 0.000000 0.000000 0.000000 0.767762
    27 1.485305 0.000001 0.000000 0.000000 0.000000 1.221689
    28 1.038631 0.548043 -0.144017 -0.000001 0.000001 -1.849906
    29 -0.064003 -0.023521 0.026161 0.000000 0.000000 0.000000
    30 3.013925 3.984634 -0.088975 -0.000001 0.000001 -1.849906
    31 -0.084188 -0.025627 -0.001098 0.000000 0.000000 0.000000
    32 4.778187 3.972486 -0.079803 -0.000001 0.000001 -1.849906
    33 -0.058556 -0.021324 0.004244 0.000000 0.000000 0.000000
    34 1.640598 -1.968779 -0.099219 -0.000001 0.000001 -1.849906
    35 0.055573 -0.028908 0.000000 0.000000 0.000000 0.000000
    36 1.646738 0.449549 -1.702246 0.195746 0.777407 0.349090
    37 0.928312 0.000000 -0.000002 0.000000 0.000000 0.000000
    38 0.928314 0.000000 0.000001 0.000000 0.000000 0.000000
    39 1.533672 0.109715 1.664491 -0.233255 -0.412980 0.435684
    40 0.928313 0.000000 0.000000 0.000000 0.000000 0.000000
    41 0.928314 0.000000 0.000001 0.000000 0.000000 0.000000
  time 3
    0 0.235347 0.367732 -12.600471 0.000000 0.270322 -1.570874
    1 -3.754021 0.613300 0.000000 -1.570795 -1.570796 0.000000
    2 -0.000005 0.000007 3.713255 2.893246 6.073186 1.567094
    3 18.045721 0.000000 0.000000 0.000000 0.000000 -1.744785
    4 17.597597 0.000000 0.000000 -0.164903 0.191688 0.413694
    5 0.000005 -0.000003 -3.713255 0.311735 -3.346321 -0.928284
    6 18.045725 0.000000 0.000000 0.000000 0.000000 -1.993364
    7 17.597597 0.000000 0.000000 0.131027 -0.129934 1.055714
    8 1.293670 0.684478 -0.000001 -0.000004 -0.000001 0.279904
    9 5.309685 -0.003834 0.000000 -0.206029 0.037751 0.177862
    10 4.826790 -0.004591 0.000000 -0.292934 0.047639 0.155811
    11 5.792767 -0.005304 0.000000 0.000000 0.000000 0.290827
    12 6.662317 -0.001453 0.000000 0.000000 -0.000001 0.078527
    13 2.046985 -0.000002 0.000000 0.485071 -0.142700 -0.347342
    14 -3.451878 0.212527 4.341911 1.725318 -0.584475 1.216233
    15 4.827230 0.000000 0.000001 -0.160763 0.422908 0.265510
    16 11.139763 0.000000 0.000000 0.000000 0.000000 -1.550508
    17 10.314597 0.000001 0.000000 -4.383982 0.179787 -0.497798
    18 2.975834 -0.386307 -0.044143 -0.012063 -0.041921 0.262037
    19 1.438886 0.000000 0.000000 0.000000 0.000000 0.637017
    20 1.485303 0.000000 0.000000 0.000000 0.000000 0.540993
    21 -3.186314 0.196501 -4.140396 -0.725773 1.238575 2.364331
    22 4.972048 0.000000 0.000001 0.280089 -0.397539 -1.379403
    23 11.585355 0.000000 0.000000 0.000000 0.000000 -1.485248
    24 10.127057 0.000000 0.000001 2.147912 0.407534 0.760624
    25 2.683750 -0.427338 0.044205 0.001045 0.043611 0.000046
    26 1.438885 -0.000001 0.000000 0.000000 0.000000 0.767762
    27 1.485305 0.000001 0.000000 0.000000 0.000000 1.221689
    28 1.038631 0.548043 -0.144017 -0.000001 0.000001 -1.849906
    29 -0.064003 -0.023521 0.026161 0.000000 0.000000 0.000000
    30 3.013925 3.984634 -0.088975 -0.000001 0.000001 -1.849906
    31 -0.084188 -0.025627 -0.001098 0.000000 0.000000 0.000000
    32 4.778187 3.972486 -0.079803 -0.000001 0.000001 -1.849906
    33 -0.058556 -0.021324 0.004244 0.000000 0.000000 0.000000
    34 1.640598 -1.968779 -0.099219 -0.000001 0.000001 -1.849906
    35 0.055573 -0.028908 0.000000 0.000000 0.000000 0.000000
    36 1.646738 0.449549 -1.702246 0.195746 0.777407 0.349090
    37 0.928312 0.000000 -0.000002 0.000000 0.000000 0.000000
    38 0.928314 0.000000 0.000001 0.000000 0.000000 0.000000
    39 1.533672 0.109715 1.664491 -0.233255 -0.412980 0.435684
    40 0.928313 0.000000 0.000000 0.000000 0.000000 0.000000
    41 0.928314 0.000000 0.000001 0.000000 0.000000 0.000000
  time 4
    0 0.235347 0.367732 -12.604378 0.000000 0.270322 -1.570874
    1 -3.777459 0.621113 0.000000 -1.570795 -1.570796 0.000000
    2 -0.000005 0.000007 3.713255 2.893246 6.073186 1.567094
    3 18.045721 0.000000 0.000000 0.000000 0.000000 -1.744785
    4 17.597597 0.000000 0.000000 -0.164903 0.191688 0.413694
    5 0.000005 -0.000003 -3.713255 0.311735 -3.346321 -0.928284
    6 18.045725 0.000000 0.000000 0.000000 0.000000 -1.993364
    7 17.597597 0.000000 0.000000 0.131027 -0.129934 1.055714
    8 1.293670 0.684478 -0.000001 -0.000004 -0.000001 0.279904
    9 5.309685 -0.003834 0.000000 -0.205906 0.038447 0.181231
    10 4.826790 -0.004591 0.000000 -0.292819 0.048442 0.158457
    11 5.792767 -0.005304 0.000000 0.000000 0.000000 0.296350
    12 6.662317 -0.001453 0.000000 0.000000 -0.000001 0.078527
    13 2.046985 -0.000002 0.000000 0.484812 -0.143308 -0.355838
    14 -3.451878 0.212527 4.341911 1.720429 -0.585629 1.225246
    15 4.827230 0.000000 0.000001 -0.171688 0.407335 0.262797
    16 11.139763 0.000000 0.000000 0.000000 0.000000 -1.550508
    17 10.314597 0.000001 0.000000 -4.383982 0.179787 -0.497798
    18 2.975834 -0.386307 -0.044143 -0.012063 -0.041921 0.262037
    19 1.438886 0.000000 0.000000 0.000000 0.000000 0.637017
    20 1.485303 0.000000 0.000000 0.000000 0.000000 0.540993
    21 -3.186314 0.196501 -4.140396 -0.744852 1.233205 2.346307
    22 4.972048 0.000000 0.000001 0.281017 -0.384346 -1.375055
    23 11.585355 0.000000 0.000000 0.000000 0.000000 -1.485248
    24 10.127057 0.000000 0.000001 2.150142 0.408157 0.766468
    25 2.683750 -0.427338 0.044205 0.001045 0.043611 0.000046
    26 1.438885 -0.000001 0.000000 0.000000 0.000000 0.767762
    27 1.485305 0.000001 0.000000 0.000000 0.000000 1.221689
    28 1.038631 0.548043 -0.144017 -0.000001 0.000001 -1.849906
    29 -0.064003 -0.023521 0.026161 0.000000 0.000000 0.000000
    30 3.013925 3.984634 -0.088975 -0.000001 0.000001 -1.849906
    31 -0.084188 -0.025627 -0.001098 0.000000 0.000000 0.000000
    32 4.778187 3.972486 -0.079803 -0.000001 0.000001 -1.849906
    33 -0.058556 -0.021324 0.004244 0.000000 0.000000 0.000000
    34 1.640598 -1.968779 -0.099219 -0.000001 0.000001 -1.849906
    35 0.055573 -0.028908 0.000000 0.000000 0.000000 0.000000
    36 1.646738 0.449549 -1.702246 0.195746 0.777407 0.349090
    37 0.928312 0.000000 -0.000002 0.000000 0.000000 0.000000
    38 0.928314 0.000000 0.000001 0.000000 0.000000 0.000000
    39 1.533672 0.109715 1.664491 -0.233255 -0.412980 0.435684
    40 0.928313 0.000000 0.000000 0.000000 0.000000 0.000000
    41 0.928314 0.000000 0.000001 0.000000 0.000000 0.000000
  time 5
    0 0.235347 0.367732 -12.612191 0.000000 0.270322 -1.570874
    1 -3.804804 0.632832 0.000000 -1.570795 -1.570796 0.000000
    2 -0.000005 0.000007 3.713255 2.893246 6.073186 1.567094
    3 18.045721 0.000000 0.000000 0.000000 0.000000 -1.744785
    4 17.597597 0.000000 0.000000 -0.164903 0.191688 0.413694
    5 0.000005 -0.000003 -3.713255 0.311735 -3.346321 -0.928284
    6 18.045725 0.000000 0.000000 0.000000 0.000000 -1.993364
    7 17.597597 0.000000 0.000000 0.131027 -0.129934 1.055714
    8 1.293670 0.684478 -0.000001 -0.000004 -0.000001 0.279904
    9 5.309685 -0.003834 0.000000 -0.205760 0.039226 0.184925
    10 4.826790 -0.004591 0.000000 -0.292671 0.049305 0.161345
    11 5.792767 -0.005304 0.000000 0.000000 0.000000 0.302351
    12 6.662317 -0.001453 0.000000 0.000000 -0.000001 0.078527
    13 2.046985 -0.000002 0.000000 0.484554 -0.143983 -0.365142
    14 -3.451878 0.212527 4.341911 1.714964 -0.586822 1.235025
    15 4.827230 0.000000 0.000001 -0.183435 0.390314 0.260084
    16 11.139763 0.000000 0.000000 0.000000 0.000000 -1.550508
    17 10.314597 0.000001 0.000000 -4.383982 0.179787 -0.497798
    18 2.975834 -0.386307 -0.044143 -0.012063 -0.041921 0.262037
    19 1.438886 0.000000 0.000000 0.000000 0.000000 0.637017
    20 1.485303 0.000000 0.000000 0.000000 0.000000 0.540993
    21 -3.186314 0.196501 -4.140396 -0.765081 1.227213 2.327228
    22 4.972048 0.000000 0.000001 0.281945 -0.370028 -1.370312
    23 11.585355 0.000000 0.000000 0.000000 0.000000 -1.485248
    24 10.127057 0.000000 0.000001 2.152562 0.408806 0.772823
    25 2.683750 -0.427338 0.044205 0.001045 0.043611 0.000046
    26 1.438885 -0.000001 0.000000 0.000000 0.000000 0.767762
    27 1.485305 0.000001 0.000000 0.000000 0.000000 1.221689
    28 1.038631 0.548043 -0.144017 -0.000001 0.000001 -1.849906
    29 -0.064003 -0.023521 0.026161 0.000000 0.000000 0.000000
    30 3.013925 3.984634 -0.088975 -0.000001 0.000001 -1.849906
    31 -0.084188 -0.025627 -0.001098 0.000000 0.000000 0.000000
    32 4.778187 3.972486 -0.079803 -0.000001 0.000001 -1.849906
    33 -0.058556 -0.021324 0.004244 0.000000 0.000000 0.000000
    34 1.640598 -1.968779 -0.099219 -0.000001 0.000001 -1.849906
    35 0.055573 -0.028908 0.000000 0.000000 0.000000 0.000000
    36 1.646738 0.449549 -1.702246 0.195746 0.777407 0.349090
    37 0.928312 0.000000 -0.000002 0.000000 0.000000 0.000000
    38 0.928314 0.000000 0.000001 0.000000 0.000000 0.000000
    39 1.533672 0.109715 1.664491 -0.233255 -0.412980 0.435684
    40 0.928313 0.000000 0.000000 0.000000 0.000000 0.000000
    41 0.928314 0.000000 0.000001 0.000000 0.000000 0.000000
  time 6
    0 0.235347 0.367732 -12.620003 0.000000 0.270322 -1.570874
    1 -3.832148 0.644551 0.000000 -1.570795 -1.570796 0.000000
    2 -0.000005 0.000007 3.713255 2.893246 6.073186 1.567094
    3 18.045721 0.000000 0.000000 0.000000 0.000000 -1.744785
    4 17.597597 0.000000 0.000000 -0.164903 0.191688 0.413694
    5 0.000005 -0.000003 -3.713255 0.311735 -3.346321 -0.928284
    6 18.045725 0.000000 0.000000 0.000000 0.000000 -1.993364
    7 17.597597 0.000000 0.000000 0.131027 -0.129934 1.055714
    8 1.293670 0.684478 -0.000001 -0.000004 -0.000001 0.279904
    9 5.309685 -0.003834 0.000000 -0.205613 0.040029 0.188800
    10 4.826790 -0.004591 0.000000 -0.292523 0.050227 0.164388
    11 5.792767 -0.005304 0.000000 0.000000 0.000000 0.308683
    12 6.662317 -0.001453 0.000000 0.000000 -0.000001 0.078527
    13 2.046985 -0.000002 0.000000 0.484252 -0.144681 -0.374895
    14 -3.451878 0.212527 4.341911 1.709212 -0.588053 1.245380
    15 4.827230 0.000000 0.000001 -0.195711 0.372443 0.257459
    16 11.139763 0.000000 0.000000 0.000000 0.000000 -1.550508
    17 10.314597 0.000001 0.000000 -4.383982 0.179787 -0.497798
    18 2.975834 -0.386307 -0.044143 -0.012063 -0.041921 0.262037
    19 1.438886 0.000000 0.000000 0.000000 0.000000 0.637017
    20 1.485303 0.000000 0.000000 0.000000 0.000000 0.540993
    21 -3.186314 0.196501 -4.140396 -0.785598 1.220797 2.307958
    22 4.972048 0.000000 0.000001 0.282951 -0.354905 -1.365240
    23 11.585355 0.000000 0.000000 0.000000 0.000000 -1.485248
    24 10.127057 0.000000 0.000001 2.155110 0.409483 0.779531
    25 2.683750 -0.427338 0.044205 0.001045 0.043611 0.000046
    26 1.438885 -0.000001 0.000000 0.000000 0.000000 0.767762
    27 1.485305 0.000001 0.000000 0.000000 0.000000 1.221689
    28 1.038631 0.548043 -0.144017 -0.000001 0.000001 -1.849906
    29 -0.064003 -0.023521 0.026161 0.000000 0.000000 0.000000
    30 3.013925 3.984634 -0.088975 -0.000001 0.000001 -1.849906
    31 -0.084188 -0.025627 -0.001098 0.000000 0.000000 0.000000
    32 4.778187 3.972486 -0.079803 -0.000001 0.000001 -1.849906
    33 -0.058556 -0.021324 0.004244 0.000000 0.000000 0.000000
    34 1.640598 -1.968779 -0.099219 -0.000001 0.000001 -1.849906
    35 0.055573 -0.028908 0.000000 0.000000 0.000000 0.000000
    36 1.646738 0.449549 -1.702246 0.195746 0.777407 0.349090
    37 0.928312 0.000000 -0.000002 0.000000 0.000000 0.000000
    38 0.928314 0.000000 0.000001 0.000000 0.000000 0.000000
    39 1.533672 0.109715 1.664491 -0.233255 -0.412980 0.435684
    40 0.928313 0.000000 0.000000 0.000000 0.000000 0.000000
    41 0.928314 0.000000 0.000001 0.000000 0.000000 0.000000
  time 7
    0 0.235347 0.367732 -12.627816 0.000000 0.270322 -1.570874
    1 -3.859493 0.656270 0.000000 -1.570795 -1.570796 0.000000
    2 -0.000005 0.000007 3.713255 2.893246 6.073186 1.567094
    3 18.045721 0.000000 0.000000 0.000000 0.000000 -1.744785
    4 17.597597 0.000000 0.000000 -0.164903 0.191688 0.413694
    5 0.000005 -0.000003 -3.713255 0.311735 -3.346321 -0.928284
    6 18.045725 0.000000 0.000000 0.000000 0.000000 -1.993364
    7 17.597597 0.000000 0.000000 0.131027 -0.129934 1.055714
    8 1.293670 0.684478 -0.000001 -0.000004 -0.000001 0.279904
    9 5.309685 -0.003834 0.000000 -0.205454 0.040855 0.192748
    10 4.826790 -0.004591 0.000000 -0.292359 0.051150 0.167475
    11 5.792767 -0.005304 0.000000 0.000000 0.000000 0.315141
    12 6.662317 -0.001453 0.000000 0.000000 -0.000001 0.078527
    13 2.046985 -0.000002 0.000000 0.483950 -0.145402 -0.384874
    14 -3.451878 0.212527 4.341911 1.703363 -0.589245 1.255926
    15 4.827230 0.000000 0.000001 -0.208046 0.354147 0.254921
    16 11.139763 0.000000 0.000000 0.000000 0.000000 -1.550508
    17 10.314597 0.000001 0.000000 -4.383982 0.179787 -0.497798
    18 2.975834 -0.386307 -0.044143 -0.012063 -0.041921 0.262037
    19 1.438886 0.000000 0.000000 0.000000 0.000000 0.637017
    20 1.485303 0.000000 0.000000 0.000000 0.000000 0.540993
    21 -3.186314 0.196501 -4.140396 -0.805827 1.214099 2.288975
    22 4.972048 0.000000 0.000001 0.283879 -0.339541 -1.360036
    23 11.585355 0.000000 0.000000 0.000000 0.000000 -1.485248
    24 10.127057 0.000000 0.000001 2.157722 0.410160 0.786356
    25 2.683750 -0.427338 0.044205 0.001045 0.043611 0.000046
    26 1.438885 -0.000001 0.000000 0.000000 0.000000 0.767762
    27 1.485305 0.000001 0.000000 0.000000 0.000000 1.221689
    28 1.038631 0.548043 -0.144017 -0.000001 0.000001 -1.849906
    29 -0.064003 -0.023521 0.026161 0.000000 0.000000 0.000000
    30 3.013925 3.984634 -0.088975 -0.000001 0.000001 -1.849906
    31 -0.084188 -0.025627 -0.001098 0.000000 0.000000 0.000000
    32 4.778187 3.972486 -0.079803 -0.000001 0.000001 -1.849906
    33 -0.058556 -0.021324 0.004244 0.000000 0.000000 0.000000
    34 1.640598 -1.968779 -0.099219 -0.000001 0.000001 -1.849906
    35 0.055573 -0.028908 0.000000 0.000000 0.000000 0.000000
    36 1.646738 0.449549 -1.702246 0.195746 0.777407 0.349090
    37 0.928312 0.000000 -0.000002 0.000000 0.000000 0.000000
    38 0.928314 0.000000 0.000001 0.000000 0.000000 0.000000
    39 1.533672 0.109715 1.664491 -0.233255 -0.412980 0.435684
    40 0.928313 0.000000 0.000000 0.000000 0.000000 0.000000
    41 0.928314 0.000000 0.000001 0.000000 0.000000 0.000000
  time 8
    0 0.235347 0.367732 -12.635629 0.000000 0.270322 -1.570874
    1 -3.886837 0.667989 0.000000 -1.570795 -1.570796 0.000000
    2 -0.000005 0.000007 3.713255 2.893246 6.073186 1.567094
    3 18.045721 0.000000 0.000000 0.000000 0.000000 -1.744785
    4 17.597597 0.000000 0.000000 -0.164903 0.191688 0.413694
    5 0.000005 -0.000003 -3.713255 0.311735 -3.346321 -0.928284
    6 18.045725 0.000000 0.000000 0.000000 0.000000 -1.993364
    7 17.597597 0.000000 0.000000 0.131027 -0.129934 1.055714
    8 1.293670 0.684478 -0.000001 -0.000004 -0.000001 0.279904
    9 5.309685 -0.003834 0.000000 -0.205282 0.041670 0.196659
    10 4.826790 -0.004591 0.000000 -0.292211 0.052073 0.170540
    11 5.792767 -0.005304 0.000000 0.000000 0.000000 0.321536
    12 6.662317 -0.001453 0.000000 0.000000 -0.000001 0.078527
    13 2.046985 -0.000002 0.000000 0.483649 -0.146122 -0.394717
    14 -3.451878 0.212527 4.341911 1.697515 -0.590399 1.266473
    15 4.827230 0.000000 0.000001 -0.220204 0.336020 0.252646
    16 11.139763 0.000000 0.000000 0.000000 0.000000 -1.550508
    17 10.314597 0.000001 0.000000 -4.383982 0.179787 -0.497798
    18 2.975834 -0.386307 -0.044143 -0.012063 -0.041921 0.262037
    19 1.438886 0.000000 0.000000 0.000000 0.000000 0.637017
    20 1.485303 0.000000 0.000000 0.000000 0.000000 0.540993
    21 -3.186314 0.196501 -4.140396 -0.825097 1.207344 2.270951
    22 4.972048 0.000000 0.000001 0.284730 -0.324337 -1.354898
    23 11.585355 0.000000 0.000000 0.000000 0.000000 -1.485248
    24 10.127057 0.000000 0.000001 2.160334 0.410837 0.793103
    25 2.683750 -0.427338 0.044205 0.001045 0.043611 0.000046
    26 1.438885 -0.000001 0.000000 0.000000 0.000000 0.767762
    27 1.485305 0.000001 0.000000 0.000000 0.000000 1.221689
    28 1.038631 0.548043 -0.144017 -0.000001 0.000001 -1.849906
    29 -0.064003 -0.023521 0.026161 0.000000 0.000000 0.000000
    30 3.013925 3.984634 -0.088975 -0.000001 0.000001 -1.849906
    31 -0.084188 -0.025627 -0.001098 0.000000 0.000000 0.000000
    32 4.778187 3.972486 -0.079803 -0.000001 0.000001 -1.849906
    33 -0.058556 -0.021324 0.004244 0.000000 0.000000 0.000000
    34 1.640598 -1.968779 -0.099219 -0.000001 0.000001 -1.849906
    35 0.055573 -0.028908 0.000000 0.000000 0.000000 0.000000
    36 1.646738 0.449549 -1.702246 0.195746 0.777407 0.349090
    37 0.928312 0.000000 -0.000002 0.000000 0.000000 0.000000
    38 0.928314 0.000000 0.000001 0.000000 0.000000 0.000000
    39 1.533672 0.109715 1.664491 -0.233255 -0.412980 0.435684
    40 0.928313 0.000000 0.000000 0.000000 0.000000 0.000000
    41 0.928314 0.000000 0.000001 0.000000 0.000000 0.000000
  time 9
    0 0.235347 0.367732 -12.643442 0.000000 0.270322 -1.570874
    1 -3.910276 0.679708 0.000000 -1.570795 -1.570796 0.000000
    2 -0.000005 0.000007 3.713255 2.893246 6.073186 1.567094
    3 18.045721 0.000000 0.000000 0.000000 0.000000 -1.744785
    4 17.597597 0.000000 0.000000 -0.164903 0.191688 0.413694
    5 0.000005 -0.000003 -3.713255 0.311735 -3.346321 -0.928284
    6 18.045725 0.000000 0.000000 0.000000 0.000000 -1.993364
    7 17.597597 0.000000 0.000000 0.131027 -0.129934 1.055714
    8 1.293670 0.684478 -0.000001 -0.000004 -0.000001 0.279904
    9 5.309685 -0.003834 0.000000 -0.205123 0.042449 0.200426
    10 4.826790 -0.004591 0.000000 -0.292047 0.052960 0.173472
    11 5.792767 -0.005304 0.000000 0.000000 0.000000 0.327661
    12 6.662317 -0.001453 0.000000 0.000000 -0.000001 0.078527
    13 2.046985 -0.000002 0.000000 0.483347 -0.146798 -0.404201
    14 -3.451878 0.212527 4.341911 1.691859 -0.591438 1.276540
    15 4.827230 0.000000 0.000001 -0.231834 0.318574 0.250633
    16 11.139763 0.000000 0.000000 0.000000 0.000000 -1.550508
    17 10.314597 0.000001 0.000000 -4.383982 0.179787 -0.497798
    18 2.975834 -0.386307 -0.044143 -0.012063 -0.041921 0.262037
    19 1.438886 0.000000 0.000000 0.000000 0.000000 0.637017
    20 1.485303 0.000000 0.000000 0.000000 0.000000 0.540993
    21 -3.186314 0.196501 -4.140396 -0.843026 1.200730 2.254269
    22 4.972048 0.000000 0.000001 0.285426 -0.309697 -1.349892
    23 11.585355 0.000000 0.000000 0.000000 0.000000 -1.485248
    24 10.127057 0.000000 0.000001 2.162818 0.411432 0.799614
    25 2.683750 -0.427338 0.044205 0.001045 0.043611 0.000046
    26 1.438885 -0.000001 0.000000 0.000000 0.000000 0.767762
    27 1.485305 0.000001 0.000000 0.000000 0.000000 1.221689
    28 1.038631 0.548043 -0.144017 -0.000001 0.000001 -1.849906
    29 -0.064003 -0.023521 0.026161 0.000000 0.000000 0.000000
    30 3.013925 3.984634 -0.088975 -0.000001 0.000001 -1.849906
    31 -0.084188 -0.025627 -0.001098 0.000000 0.000000 0.000000
    32 4.778187 3.972486 -0.079803 -0.000001 0.000001 -1.849906
    33 -0.058556 -0.021324 0.004244 0.000000 0.000000 0.000000
    34 1.640598 -1.968779 -0.099219 -0.000001 0.000001 -1.849906
    35 0.055573 -0.028908 0.000000 0.000000 0.000000 0.000000
    36 1.646738 0.449549 -1.702246 0.195746 0.777407 0.349090
    37 0.928312 0.000000 -0.000002 0.000000 0.000000 0.000000
    38 0.928314 0.000000 0.000001 0.000000 0.000000 0.000000
    39 1.533672 0.109715 1.664491 -0.233255 -0.412980 0.435684
    40 0.928313 0.000000 0.000000 0.000000 0.000000 0.000000
    41 0.928314 0.000000 0.000001 0.000000 0.000000 0.000000
  time 10
    0 0.235347 0.367732 -12.647348 0.000000 0.270322 -1.570874
    1 -3.937620 0.691427 0.000000 -1.570795 -1.570796 0.000000
    2 -0.000005 0.000007 3.713255 2.893246 6.073186 1.567094
    3 18.045721 0.000000 0.000000 0.000000 0.000000 -1.744785
    4 17.597597 0.000000 0.000000 -0.164903 0.191688 0.413694
    5 0.000005 -0.000003 -3.713255 0.311735 -3.346321 -0.928284
    6 18.045725 0.000000 0.000000 0.000000 0.000000 -1.993364
    7 17.597597 0.000000 0.000000 0.131027 -0.129934 1.055714
    8 1.293670 0.684478 -0.000001 -0.000004 -0.000001 0.279904
    9 5.309685 -0.003834 0.000000 -0.204976 0.043168 0.203921
    10 4.826790 -0.004591 0.000000 -0.291899 0.053775 0.176206
    11 5.792767 -0.005304 0.000000 0.000000 0.000000 0.333370
    12 6.662317 -0.001453 0.000000 0.000000 -0.000001 0.078527
    13 2.046985 -0.000002 0.000000 0.483089 -0.147428 -0.413011
    14 -3.451878 0.212527 4.341911 1.686682 -0.592361 1.285935
    15 4.827230 0.000000 0.000001 -0.242465 0.302405 0.248883
    16 11.139763 0.000000 0.000000 0.000000 0.000000 -1.550508
    17 10.314597 0.000001 0.000000 -4.383982 0.179787 -0.497798
    18 2.975834 -0.386307 -0.044143 -0.012063 -0.041921 0.262037
    19 1.438886 0.000000 0.000000 0.000000 0.000000 0.637017
    20 1.485303 0.000000 0.000000 0.000000 0.000000 0.540993
    21 -3.186314 0.196501 -4.140396 -0.859132 1.194483 2.239217
    22 4.972048 0.000000 0.000001 0.286122 -0.296103 -1.345215
    23 11.585355 0.000000 0.000000 0.000000 0.000000 -1.485248
    24 10.127057 0.000000 0.000001 2.165175 0.412001 0.805655
    25 2.683750 -0.427338 0.044205 0.001045 0.043611 0.000046
    26 1.438885 -0.000001 0.000000 0.000000 0.000000 0.767762
    27 1.485305 0.000001 0.000000 0.000000 0.000000 1.221689
    28 1.038631 0.548043 -0.144017 -0.000001 0.000001 -1.849906
    29 -0.064003 -0.023521 0.026161 0.000000 0.000000 0.000000
    30 3.013925 3.984634 -0.088975 -0.000001 0.000001 -1.849906
    31 -0.084188 -0.025627 -0.001098 0.000000 0.000000 0.000000
    32 4.778187 3.972486 -0.079803 -0.000001 0.000001 -1.849906
    33 -0.058556 -0.021324 0.004244 0.000000 0.000000 0.000000
    34 1.640598 -1.968779 -0.099219 -0.000001 0.000001 -1.849906
    35 0.055573 -0.028908 0.000000 0.000000 0.000000 0.000000
    36 1.646738 0.449549 -1.702246 0.195746 0.777407 0.349090
    37 0.928312 0.000000 -0.000002 0.000000 0.000000 0.000000
    38 0.928314 0.000000 0.000001 0.000000 0.000000 0.000000
    39 1.533672 0.109715 1.664491 -0.233255 -0.412980 0.435684
    40 0.928313 0.000000 0.000000 0.000000 0.000000 0.000000
    41 0.928314 0.000000 0.000001 0.000000 0.000000 0.000000
  time 11
    0 0.235347 0.367732 -12.655161 0.000000 0.270322 -1.570874
    1 -3.957152 0.699240 0.000000 -1.570795 -1.570796 0.000000
    2 -0.000005 0.000007 3.713255 2.893246 6.073186 1.567094
    3 18.045721 0.000000 0.000000 0.000000 0.000000 -1.744785
    4 17.597597 0.000000 0.000000 -0.164903 0.191688 0.413694
    5 0.000005 -0.000003 -3.713255 0.311735 -3.346321 -0.928284
    6 18.045725 0.000000 0.000000 0.000000 0.000000 -1.993364
    7 17.597597 0.000000 0.000000 0.131027 -0.129934 1.055714
    8 1.293670 0.684478 -0.000001 -0.000004 -0.000001 0.279904
    9 5.309685 -0.003834 0.000000 -0.204841 0.043816 0.207036
    10 4.826790 -0.004591 0.000000 -0.291768 0.054506 0.178654
    11 5.792767 -0.005304 0.000000 0.000000 0.000000 0.338457
    12 6.662317 -0.001453 0.000000 0.000000 -0.000001 0.078527
    13 2.046985 -0.000002 0.000000 0.482830 -0.147991 -0.420832
    14 -3.451878 0.212527 4.341911 1.681984 -0.593130 1.294277
    15 4.827230 0.000000 0.000001 -0.251981 0.287938 0.247483
    16 11.139763 0.000000 0.000000 0.000000 0.000000 -1.550508
    17 10.314597 0.000001 0.000000 -4.383982 0.179787 -0.497798
    18 2.975834 -0.386307 -0.044143 -0.012063 -0.041921 0.262037
    19 1.438886 0.000000 0.000000 0.000000 0.000000 0.637017
    20 1.485303 0.000000 0.000000 0.000000 0.000000 0.540993
    21 -3.186314 0.196501 -4.140396 -0.873034 1.188859 2.226274
    22 4.972048 0.000000 0.000001 0.286664 -0.283956 -1.341065
    23 11.585355 0.000000 0.000000 0.000000 0.000000 -1.485248
    24 10.127057 0.000000 0.000001 2.167214 0.412488 0.811029
    25 2.683750 -0.427338 0.044205 0.001045 0.043611 0.000046
    26 1.438885 -0.000001 0.000000 0.000000 0.000000 0.767762
    27 1.485305 0.000001 0.000000 0.000000 0.000000 1.221689
    28 1.038631 0.548043 -0.144017 -0.000001 0.000001 -1.849906
    29 -0.064003 -0.023521 0.026161 0.000000 0.000000 0.000000
    30 3.013925 3.984634 -0.088975 -0.000001 0.000001 -1.849906
    31 -0.084188 -0.025627 -0.001098 0.000000 0.000000 0.000000
    32 4.778187 3.972486 -0.079803 -0.000001 0.000001 -1.849906
    33 -0.058556 -0.021324 0.004244 0.000000 0.000000 0.000000
    34 1.640598 -1.968779 -0.099219 -0.000001 0.000001 -1.849906
    35 0.055573 -0.028908 0.000000 0.000000 0.000000 0.000000
    36 1.646738 0.449549 -1.702246 0.195746 0.777407 0.349090
    37 0.928312 0.000000 -0.000002 0.000000 0.000000 0.000000
    38 0.928314 0.000000 0.000001 0.000000 0.000000 0.000000
    39 1.533672 0.109715 1.664491 -0.233255 -0.412980 0.435684
    40 0.928313 0.000000 0.000000 0.000000 0.000000 0.000000
    41 0.928314 0.000000 0.000001 0.000000 0.000000 0.000000
  time 12
    0 0.235347 0.367732 -12.659067 0.000000 0.270322 -1.570874
    1 -3.972777 0.707053 0.000000 -1.570795 -1.570796 0.000000
    2 -0.000005 0.000007 3.713255 2.893246 6.073186 1.567094
    3 18.045721 0.000000 0.000000 0.000000 0.000000 -1.744785
    4 17.597597 0.000000 0.000000 -0.164903 0.191688 0.413694
    5 0.000005 -0.000003 -3.713255 0.311735 -3.346321 -0.928284
    6 18.045725 0.000000 0.000000 0.000000 0.000000 -1.993364
    7 17.597597 0.000000 0.000000 0.131027 -0.129934 1.055714
    8 1.293670 0.684478 -0.000001 -0.000004 -0.000001 0.279904
    9 5.309685 -0.003834 0.000000 -0.204731 0.044367 0.209644
    10 4.826790 -0.004591 0.000000 -0.291669 0.055129 0.180704
    11 5.792767 -0.005304 0.000000 0.000000 0.000000 0.342734
    12 6.662317 -0.001453 0.000000 0.000000 -0.000001 0.078527
    13 2.046985 -0.000002 0.000000 0.482615 -0.148464 -0.427439
    14 -3.451878 0.212527 4.341911 1.678053 -0.593784 1.301371
    15 4.827230 0.000000 0.000001 -0.259910 0.275769 0.246432
    16 11.139763 0.000000 0.000000 0.000000 0.000000 -1.550508
    17 10.314597 0.000001 0.000000 -4.383982 0.179787 -0.497798
    18 2.975834 -0.386307 -0.044143 -0.012063 -0.041921 0.262037
    19 1.438886 0.000000 0.000000 0.000000 0.000000 0.637017
    20 1.485303 0.000000 0.000000 0.000000 0.000000 0.540993
    21 -3.186314 0.196501 -4.140396 -0.884443 1.184082 2.215728
    22 4.972048 0.000000 0.000001 0.287051 -0.273740 -1.337508
    23 11.585355 0.000000 0.000000 0.000000 0.000000 -1.485248
    24 10.127057 0.000000 0.000001 2.168997 0.412894 0.815579
    25 2.683750 -0.427338 0.044205 0.001045 0.043611 0.000046
    26 1.438885 -0.000001 0.000000 0.000000 0.000000 0.767762
    27 1.485305 0.000001 0.000000 0.000000 0.000000 1.221689
    28 1.038631 0.548043 -0.144017 -0.000001 0.000001 -1.849906
    29 -0.064003 -0.023521 0.026161 0.000000 0.000000 0.000000
    30 3.013925 3.984634 -0.088975 -0.000001 0.000001 -1.849906
    31 -0.084188 -0.025627 -0.001098 0.000000 0.000000 0.000000
    32 4.778187 3.972486 -0.079803 -0.000001 0.000001 -1.849906
    33 -0.058556 -0.021324 0.004244 0.000000 0.000000 0.000000
    34 1.640598 -1.968779 -0.099219 -0.000001 0.000001 -1.849906
    35 0.055573 -0.028908 0.000000 0.000000 0.000000 0.000000
    36 1.646738 0.449549 -1.702246 0.195746 0.777407 0.349090
    37 0.928312 0.000000 -0.000002 0.000000 0.000000 0.000000
    38 0.928314 0.000000 0.000001 0.000000 0.000000 0.000000
    39 1.533672 0.109715 1.664491 -0.233255 -0.412980 0.435684
    40 0.928313 0.000000 0.000000 0.000000 0.000000 0.000000
    41 0.928314 0.000000 0.000001 0.000000 0.000000 0.000000
  time 13
    0 0.235347 0.367732 -12.662973 0.000000 0.270322 -1.570874
    1 -3.988403 0.714866 0.000000 -1.570795 -1.570796 0.000000
    2 -0.000005 0.000007 3.713255 2.893246 6.073186 1.567094
    3 18.045721 0.000000 0.000000 0.000000 0.000000 -1.744785
    4 17.597597 0.000000 0.000000 -0.164903 0.191688 0.413694
    5 0.000005 -0.000003 -3.713255 0.311735 -3.346321 -0.928284
    6 18.045725 0.000000 0.000000 0.000000 0.000000 -1.993364
    7 17.597597 0.000000 0.000000 0.131027 -0.129934 1.055714
    8 1.293670 0.684478 -0.000001 -0.000004 -0.000001 0.279904
    9 5.309685 -0.003834 0.000000 -0.204633 0.044786 0.211672
    10 4.826790 -0.004591 0.000000 -0.291571 0.055597 0.182292
    11 5.792767 -0.005304 0.000000 0.000000 0.000000 0.346036
    12 6.662317 -0.001453 0.000000 0.000000 -0.000001 0.078527
    13 2.046985 -0.000002 0.000000 0.482443 -0.148824 -0.432518
    14 -3.451878 0.212527 4.341911 1.674985 -0.594284 1.306740
    15 4.827230 0.000000 0.000001 -0.265960 0.266408 0.245645
    16 11.139763 0.000000 0.000000 0.000000 0.000000 -1.550508
    17 10.314597 0.000001 0.000000 -4.383982 0.179787 -0.497798
    18 2.975834 -0.386307 -0.044143 -0.012063 -0.041921 0.262037
    19 1.438886 0.000000 0.000000 0.000000 0.000000 0.637017
    20 1.485303 0.000000 0.000000 0.000000 0.000000 0.540993
    21 -3.186314 0.196501 -4.140396 -0.892976 1.180380 2.207771
    22 4.972048 0.000000 0.000001 0.287360 -0.265937 -1.334807
    23 11.585355 0.000000 0.000000 0.000000 0.000000 -1.485248
    24 10.127057 0.000000 0.000001 2.170335 0.413192 0.819070
    25 2.683750 -0.427338 0.044205 0.001045 0.043611 0.000046
    26 1.438885 -0.000001 0.000000 0.000000 0.000000 0.767762
    27 1.485305 0.000001 0.000000 0.000000 0.000000 1.221689
    28 1.038631 0.548043 -0.144017 -0.000001 0.000001 -1.849906
    29 -0.064003 -0.023521 0.026161 0.000000 0.000000 0.000000
    30 3.013925 3.984634 -0.088975 -0.000001 0.000001 -1.849906
    31 -0.084188 -0.025627 -0.001098 0.000000 0.000000 0.000000
    32 4.778187 3.972486 -0.079803 -0.000001 0.000001 -1.849906
    33 -0.058556 -0.021324 0.004244 0.000000 0.000000 0.000000
    34 1.640598 -1.968779 -0.099219 -0.000001 0.000001 -1.849906
    35 0.055573 -0.028908 0.000000 0.000000 0.000000 0.000000
    36 1.646738 0.449549 -1.702246 0.195746 0.777407 0.349090
    37 0.928312 0.000000 -0.000002 0.000000 0.000000 0.000000
    38 0.928314 0.000000 0.000001 0.000000 0.000000 0.000000
    39 1.533672 0.109715 1.664491 -0.233255 -0.412980 0.435684
    40 0.928313 0.000000 0.000000 0.000000 0.000000 0.000000
    41 0.928314 0.000000 0.000001 0.000000 0.000000 0.000000
  time 14
    0 0.235347 0.367732 -12.662973 0.000000 0.270322 -1.570874
    1 -3.996216 0.718772 0.000000 -1.570795 -1.570796 0.000000
    2 -0.000005 0.000007 3.713255 2.893246 6.073186 1.567094
    3 18.045721 0.000000 0.000000 0.000000 0.000000 -1.744785
    4 17.597597 0.000000 0.000000 -0.164903 0.191688 0.413694
    5 0.000005 -0.000003 -3.713255 0.311735 -3.346321 -0.928284
    6 18.045725 0.000000 0.000000 0.000000 0.000000 -1.993364
    7 17.597597 0.000000 0.000000 0.131027 -0.129934 1.055714
    8 1.293670 0.684478 -0.000001 -0.000004 -0.000001 0.279904
    9 5.309685 -0.003834 0.000000 -0.204584 0.045050 0.212958
    10 4.826790 -0.004591 0.000000 -0.291521 0.055896 0.183306
    11 5.792767 -0.005304 0.000000 0.000000 0.000000 0.348133
    12 6.662317 -0.001453 0.000000 0.000000 -0.000001 0.078527
    13 2.046985 -0.000002 0.000000 0.482356 -0.149049 -0.435799
    14 -3.451878 0.212527 4.341911 1.673068 -0.594553 1.310288
    15 4.827230 0.000000 0.000001 -0.269837 0.260451 0.245120
    16 11.139763 0.000000 0.000000 0.000000 0.000000 -1.550508
    17 10.314597 0.000001 0.000000 -4.383982 0.179787 -0.497798
    18 2.975834 -0.386307 -0.044143 -0.012063 -0.041921 0.262037
    19 1.438886 0.000000 0.000000 0.000000 0.000000 0.637017
    20 1.485303 0.000000 0.000000 0.000000 0.000000 0.540993
    21 -3.186314 0.196501 -4.140396 -0.898440 1.177977 2.202785
    22 4.972048 0.000000 0.000001 0.287515 -0.260950 -1.333094
    23 11.585355 0.000000 0.000000 0.000000 0.000000 -1.485248
    24 10.127057 0.000000 0.000001 2.171163 0.413381 0.821306
    25 2.683750 -0.427338 0.044205 0.001045 0.043611 0.000046
    26 1.438885 -0.000001 0.000000 0.000000 0.000000 0.767762
    27 1.485305 0.000001 0.000000 0.000000 0.000000 1.221689
    28 1.038631 0.548043 -0.144017 -0.000001 0.000001 -1.849906
    29 -0.064003 -0.023521 0.026161 0.000000 0.000000 0.000000
    30 3.013925 3.984634 -0.088975 -0.000001 0.000001 -1.849906
    31 -0.084188 -0.025627 -0.001098 0.000000 0.000000 0.000000
    32 4.778187 3.972486 -0.079803 -0.000001 0.000001 -1.849906
    33 -0.058556 -0.021324 0.004244 0.000000 0.000000 0.000000
    34 1.640598 -1.968779 -0.099219 -0.000001 0.000001 -1.849906
    35 0.055573 -0.028908 0.000000 0.000000 0.000000 0.000000
    36 1.646738 0.449549 -1.702246 0.195746 0.777407 0.349090
    37 0.928312 0.000000 -0.000002 0.000000 0.000000 0.000000
    38 0.928314 0.000000 0.000001 0.000000 0.000000 0.000000
    39 1.533672 0.109715 1.664491 -0.233255 -0.412980 0.435684
    40 0.928313 0.000000 0.000000 0.000000 0.000000 0.000000
    41 0.928314 0.000000 0.000001 0.000000 0.000000 0.000000
  time 15
    0 0.235347 0.367732 -12.666880 0.000000 0.270322 -1.570874
    1 -4.000122 0.718772 0.000000 -1.570795 -1.570796 0.000000
    2 -0.000005 0.000007 3.713255 2.893246 6.073186 1.567094
    3 18.045721 0.000000 0.000000 0.000000 0.000000 -1.744785
    4 17.597597 0.000000 0.000000 -0.164903 0.191688 0.413694
    5 0.000005 -0.000003 -3.713255 0.311735 -3.346321 -0.928284
    6 18.045725 0.000000 0.000000 0.000000 0.000000 -1.993364
    7 17.597597 0.000000 0.000000 0.131027 -0.129934 1.055714
    8 1.293670 0.684478 -0.000001 -0.000004 -0.000001 0.279904
    9 5.309685 -0.003834 0.000000 -0.204560 0.045146 0.213410
    10 4.826790 -0.004591 0.000000 -0.291505 0.056004 0.183659
    11 5.792767 -0.005304 0.000000 0.000000 0.000000 0.348880
    12 6.662317 -0.001453 0.000000 0.000000 -0.000001 0.078527
    13 2.046985 -0.000002 0.000000 0.482313 -0.149139 -0.436923
    14 -3.451878 0.212527 4.341911 1.672396 -0.594669 1.311534
    15 4.827230 0.000000 0.000001 -0.271188 0.258323 0.245032
    16 11.139763 0.000000 0.000000 0.000000 0.000000 -1.550508
    17 10.314597 0.000001 0.000000 -4.383982 0.179787 -0.497798
    18 2.975834 -0.386307 -0.044143 -0.012063 -0.041921 0.262037
    19 1.438886 0.000000 0.000000 0.000000 0.000000 0.637017
    20 1.485303 0.000000 0.000000 0.000000 0.000000 0.540993
    21 -3.186314 0.196501 -4.140396 -0.900358 1.177129 2.201059
    22 4.972048 0.000000 0.000001 0.287592 -0.259180 -1.332436
    23 11.585355 0.000000 0.000000 0.000000 0.000000 -1.485248
    24 10.127057 0.000000 0.000001 2.171482 0.413463 0.822090
    25 2.683750 -0.427338 0.044205 0.001045 0.043611 0.000046
    26 1.438885 -0.000001 0.000000 0.000000 0.000000 0.767762
    27 1.485305 0.000001 0.000000 0.000000 0.000000 1.221689
    28 1.038631 0.548043 -0.144017 -0.000001 0.000001 -1.849906
    29 -0.064003 -0.023521 0.026161 0.000000 0.000000 0.000000
    30 3.013925 3.984634 -0.088975 -0.000001 0.000001 -1.849906
    31 -0.084188 -0.025627 -0.001098 0.000000 0.000000 0.000000
    32 4.778187 3.972486 -0.079803 -0.000001 0.000001 -1.849906
    33 -0.058556 -0.021324 0.004244 0.000000 0.000000 0.000000
    34 1.640598 -1.968779 -0.099219 -0.000001 0.000001 -1.849906
    35 0.055573 -0.028908 0.000000 0.000000 0.000000 0.000000
    36 1.646738 0.449549 -1.702246 0.195746 0.777407 0.349090
    37 0.928312 0.000000 -0.000002 0.000000 0.000000 0.000000
    38 0.928314 0.000000 0.000001 0.000000 0.000000 0.000000
    39 1.533672 0.109715 1.664491 -0.233255 -0.412980 0.435684
    40 0.928313 0.000000 0.000000 0.000000 0.000000 0.000000
    41 0.928314 0.000000 0.000001 0.000000 0.000000 0.000000
  time 16
    0 0.235347 0.367732 -12.662973 0.000000 0.270322 -1.570874
    1 -3.996216 0.718772 0.000000 -1.570795 -1.570796 0.000000
    2 -0.000005 0.000007 3.713255 2.893246 6.073186 1.567094
    3 18.045721 0.000000 0.000000 0.000000 0.000000 -1.744785
    4 17.597597 0.000000 0.000000 -0.164903 0.191688 0.413694
    5 0.000005 -0.000003 -3.713255 0.311735 -3.346321 -0.928284
    6 18.045725 0.000000 0.000000 0.000000 0.000000 -1.993364
    7 17.597597 0.000000 0.000000 0.131027 -0.129934 1.055714
    8 1.293670 0.684478 -0.000001 -0.000004 -0.000001 0.279904
    9 5.309685 -0.003834 0.000000 -0.204584 0.045050 0.212958
    10 4.826790 -0.004591 0.000000 -0.291521 0.055896 0.183306
    11 5.792767 -0.005304 0.000000 0.000000 0.000000 0.348133
    12 6.662317 -0.001453 0.000000 0.000000 -0.000001 0.078527
    13 2.046985 -0.000002 0.000000 0.482356 -0.149049 -0.435799
    14 -3.451878 0.212527 4.341911 1.673068 -0.594553 1.310288
    15 4.827230 0.000000 0.000001 -0.269837 0.260451 0.245120
    16 11.139763 0.000000 0.000000 0.000000 0.000000 -1.550508
    17 10.314597 0.000001 0.000000 -4.383982 0.179787 -0.497798
    18 2.975834 -0.386307 -0.044143 -0.012063 -0.041921 0.262037
    19 1.438886 0.000000 0.000000 0.000000 0.000000 0.637017
    20 1.485303 0.000000 0.000000 0.000000 0.000000 0.540993
    21 -3.186314 0.196501 -4.140396 -0.898440 1.177977 2.202785
    22 4.972048 0.000000 0.000001 0.287515 -0.260950 -1.333094
    23 11.585355 0.000000 0.000000 0.000000 0.000000 -1.485248
    24 10.127057 0.000000 0.000001 2.171163 0.413381 0.821306
    25 2.683750 -0.427338 0.044205 0.001045 0.043611 0.000046
    26 1.438885 -0.000001 0.000000 0.000000 0.000000 0.767762
    27 1.485305 0.000001 0.000000 0.000000 0.000000 1.221689
    28 1.038631 0.548043 -0.144017 -0.000001 0.000001 -1.849906
    29 -0.064003 -0.023521 0.026161 0.000000 0.000000 0.000000
    30 3.013925 3.984634 -0.088975 -0.000001 0.000001 -1.849906
    31 -0.084188 -0.025627 -0.001098 0.000000 0.000000 0.000000
    32 4.778187 3.972486 -0.079803 -0.000001 0.000001 -1.849906
    33 -0.058556 -0.021324 0.004244 0.000000 0.000000 0.000000
    34 1.640598 -1.968779 -0.099219 -0.000001 0.000001 -1.849906
    35 0.055573 -0.028908 0.000000 0.000000 0.000000 0.000000
    36 1.646738 0.449549 -1.702246 0.195746 0.777407 0.349090
    37 0.928312 0.000000 -0.000002 0.000000 0.000000 0.000000
    38 0.928314 0.000000 0.000001 0.000000 0.000000 0.000000
    39 1.533672 0.109715 1.664491 -0.233255 -0.412980 0.435684
    40 0.928313 0.000000 0.000000 0.000000 0.000000 0.000000
    41 0.928314 0.000000 0.000001 0.000000 0.000000 0.000000
  time 17
    0 0.235347 0.367732 -12.662973 0.000000 0.270322 -1.570874
    1 -3.988403 0.714866 0.000000 -1.570795 -1.570796 0.000000
    2 -0.000005 0.000007 3.713255 2.893246 6.073186 1.567094
    3 18.045721 0.000000 0.000000 0.000000 0.000000 -1.744785
    4 17.597597 0.000000 0.000000 -0.164903 0.191688 0.413694
    5 0.000005 -0.000003 -3.713255 0.311735 -3.346321 -0.928284
    6 18.045725 0.000000 0.000000 0.000000 0.000000 -1.993364
    7 17.597597 0.000000 0.000000 0.131027 -0.129934 1.055714
    8 1.293670 0.684478 -0.000001 -0.000004 -0.000001 0.279904
    9 5.309685 -0.003834 0.000000 -0.204633 0.044786 0.211672
    10 4.826790 -0.004591 0.000000 -0.291571 0.055597 0.182292
    11 5.792767 -0.005304 0.000000 0.000000 0.000000 0.346036
    12 6.662317 -0.001453 0.000000 0.000000 -0.000001 0.078527
    13 2.046985 -0.000002 0.000000 0.482443 -0.148824 -0.432518
    14 -3.451878 0.212527 4.341911 1.674985 -0.594284 1.306740
    15 4.827230 0.000000 0.000001 -0.265960 0.266408 0.245645
    16 11.139763 0.000000 0.000000 0.000000 0.000000 -1.550508
    17 10.314597 0.000001 0.000000 -4.383982 0.179787 -0.497798
    18 2.975834 -0.386307 -0.044143 -0.012063 -0.041921 0.262037
    19 1.438886 0.000000 0.000000 0.000000 0.000000 0.637017
    20 1.485303 0.000000 0.000000 0.000000 0.000000 0.540993
    21 -3.186314 0.196501 -4.140396 -0.892976 1.180380 2.207771
    22 4.972048 0.000000 0.000001 0.287360 -0.265937 -1.334807
    23 11.585355 0.000000 0.000000 0.000000 0.000000 -1.485248
    24 10.127057 0.000000 0.000001 2.170335 0.413192 0.819070
    25 2.683750 -0.427338 0.044205 0.001045 0.043611 0.000046
    26 1.438885 -0.000001 0.000000 0.000000 0.000000 0.767762
    27 1.485305 0.000001 0.000000 0.000000 0.000000 1.221689
    28 1.038631 0.548043 -0.144017 -0.000001 0.000001 -1.849906
    29 -0.064003 -0.023521 0.026161 0.000000 0.000000 0.000000
    30 3.013925 3.984634 -0.088975 -0.000001 0.000001 -1.849906
    31 -0.084188 -0.025627 -0.001098 0.000000 0.000000 0.000000
    32 4.778187 3.972486 -0.079803 -0.000001 0.000001 -1.849906
    33 -0.058556 -0.021324 0.004244 0.000000 0.000000 0.000000
    34 1.640598 -1.968779 -0.099219 -0.000001 0.000001 -1.849906
    35 0.055573 -0.028908 0.000000 0.000000 0.000000 0.000000
    36 1.646738 0.449549 -1.702246 0.195746 0.777407 0.349090
    37 0.928312 0.000000 -0.000002 0.000000 0.000000 0.000000
    38 0.928314 0.000000 0.000001 0.000000 0.000000 0.000000
    39 1.533672 0.109715 1.664491 -0.233255 -0.412980 0.435684
    40 0.928313 0.000000 0.000000 0.000000 0.000000 0.000000
    41 0.928314 0.000000 0.000001 0.000000 0.000000 0.000000
  time 18
    0 0.235347 0.367732 -12.659067 0.000000 0.270322 -1.570874
    1 -3.972777 0.707053 0.000000 -1.570795 -1.570796 0.000000
    2 -0.000005 0.000007 3.713255 2.893246 6.073186 1.567094
    3 18.045721 0.000000 0.000000 0.000000 0.000000 -1.744785
    4 17.597597 0.000000 0.000000 -0.164903 0.191688 0.413694
    5 0.000005 -0.000003 -3.713255 0.311735 -3.346321 -0.928284
    6 18.045725 0.000000 0.000000 0.000000 0.000000 -1.993364
    7 17.597597 0.000000 0.000000 0.131027 -0.129934 1.055714
    8 1.293670 0.684478 -0.000001 -0.000004 -0.000001 0.279904
    9 5.309685 -0.003834 0.000000 -0.204731 0.044367 0.209644
    10 4.826790 -0.004591 0.000000 -0.291669 0.055129 0.180704
    11 5.792767 -0.005304 0.000000 0.000000 0.000000 0.342734
    12 6.662317 -0.001453 0.000000 0.000000 -0.000001 0.078527
    13 2.046985 -0.000002 0.000000 0.482615 -0.148464 -0.427439
    14 -3.451878 0.212527 4.341911 1.678053 -0.593784 1.301371
    15 4.827230 0.000000 0.000001 -0.259910 0.275769 0.246432
    16 11.139763 0.000000 0.000000 0.000000 0.000000 -1.550508
    17 10.314597 0.000001 0.000000 -4.383982 0.179787 -0.497798
    18 2.975834 -0.386307 -0.044143 -0.012063 -0.041921 0.262037
    19 1.438886 0.000000 0.000000 0.000000 0.000000 0.637017
    20 1.485303 0.000000 0.000000 0.000000 0.000000 0.540993
    21 -3.186314 0.196501 -4.140396 -0.884443 1.184082 2.215728
    22 4.972048 0.000000 0.000001 0.287051 -0.273740 -1.337508
    23 11.585355 0.000000 0.000000 0.000000 0.000000 -1.485248
    24 10.127057 0.000000 0.000001 2.168997 0.412894 0.815579
    25 2.683750 -0.427338 0.044205 0.001045 0.043611 0.000046
    26 1.438885 -0.000001 0.000000 0.000000 0.000000 0.767762
    27 1.485305 0.000001 0.000000 0.000000 0.000000 1.221689
    28 1.038631 0.548043 -0.144017 -0.000001 0.000001 -1.849906
    29 -0.064003 -0.023521 0.026161 0.000000 0.000000 0.000000
    30 3.013925 3.984634 -0.088975 -0.000001 0.000001 -1.849906
    31 -0.084188 -0.025627 -0.001098 0.000000 0.000000 0.000000
    32 4.778187 3.972486 -0.079803 -0.000001 0.000001 -1.849906
    33 -0.058556 -0.021324 0.004244 0.000000 0.000000 0.000000
    34 1.640598 -1.968779 -0.099219 -0.000001 0.000001 -1.849906
    35 0.055573 -0.028908 0.000000 0.000000 0.000000 0.000000
    36 1.646738 0.449549 -1.702246 0.195746 0.777407 0.349090
    37 0.928312 0.000000 -0.000002 0.000000 0.000000 0.000000
    38 0.928314 0.000000 0.000001 0.000000 0.000000 0.000000
    39 1.533672 0.109715 1.664491 -0.233255 -0.412980 0.435684
    40 0.928313 0.000000 0.000000 0.000000 0.000000 0.000000
    41 0.928314 0.000000 0.000001 0.000000 0.000000 0.000000
  time 19
    0 0.235347 0.367732 -12.655161 0.000000 0.270322 -1.570874
    1 -3.957152 0.699240 0.000000 -1.570795 -1.570796 0.000000
    2 -0.000005 0.000007 3.713255 2.893246 6.073186 1.567094
    3 18.045721 0.000000 0.000000 0.000000 0.000000 -1.744785
    4 17.597597 0.000000 0.000000 -0.164903 0.191688 0.413694
    5 0.000005 -0.000003 -3.713255 0.311735 -3.346321 -0.928284
    6 18.045725 0.000000 0.000000 0.000000 0.000000 -1.993364
    7 17.597597 0.000000 0.000000 0.131027 -0.129934 1.055714
    8 1.293670 0.684478 -0.000001 -0.000004 -0.000001 0.279904
    9 5.309685 -0.003834 0.000000 -0.204841 0.043816 0.207036
    10 4.826790 -0.004591 0.000000 -0.291768 0.054506 0.178654
    11 5.792767 -0.005304 0.000000 0.000000 0.000000 0.338457
    12 6.662317 -0.001453 0.000000 0.000000 -0.000001 0.078527
    13 2.046985 -0.000002 0.000000 0.482830 -0.147991 -0.420832
    14 -3.451878 0.212527 4.341911 1.681984 -0.593130 1.294277
    15 4.827230 0.000000 0.000001 -0.251981 0.287938 0.247483
    16 11.139763 0.000000 0.000000 0.000000 0.000000 -1.550508
    17 10.314597 0.000001 0.000000 -4.383982 0.179787 -0.497798
    18 2.975834 -0.386307 -0.044143 -0.012063 -0.041921 0.262037
    19 1.438886 0.000000 0.000000 0.000000 0.000000 0.637017
    20 1.485303 0.000000 0.000000 0.000000 0.000000 0.540993
    21 -3.186314 0.196501 -4.140396 -0.873034 1.188859 2.226274
    22 4.972048 0.000000 0.000001 0.286664 -0.283956 -1.341065
    23 11.585355 0.000000 0.000000 0.000000 0.000000 -1.485248
    24 10.127057 0.000000 0.000001 2.167214 0.412488 0.811029
    25 2.683750 -0.427338 0.044205 0.001045 0.043611 0.000046
    26 1.438885 -0.000001 0.000000 0.000000 0.000000 0.767762
    27 1.485305 0.000001 0.000000 0.000000 0.000000 1.221689
    28 1.038631 0.548043 -0.144017 -0.000001 0.000001 -1.849906
    29 -0.064003 -0.023521 0.026161 0.000000 0.000000 0.000000
    30 3.013925 3.984634 -0.088975 -0.000001 0.000001 -1.849906
    31 -0.084188 -0.025627 -0.001098 0.000000 0.000000 0.000000
    32 4.778187 3.972486 -0.079803 -0.000001 0.000001 -1.849906
    33 -0.058556 -0.021324 0.004244 0.000000 0.000000 0.000000
    34 1.640598 -1.968779 -0.099219 -0.000001 0.000001 -1.849906
    35 0.055573 -0.028908 0.000000 0.000000 0.000000 0.000000
    36 1.646738 0.449549 -1.702246 0.195746 0.777407 0.349090
    37 0.928312 0.000000 -0.000002 0.000000 0.000000 0.000000
    38 0.928314 0.000000 0.000001 0.000000 0.000000 0.000000
    39 1.533672 0.109715 1.664491 -0.233255 -0.412980 0.435684
    40 0.928313 0.000000 0.000000 0.000000 0.000000 0.000000
    41 0.928314 0.000000 0.000001 0.000000 0.000000 0.000000
  time 20
    0 0.235347 0.367732 -12.647348 0.000000 0.270322 -1.570874
    1 -3.937620 0.691427 0.000000 -1.570795 -1.570796 0.000000
    2 -0.000005 0.000007 3.713255 2.893246 6.073186 1.567094
    3 18.045721 0.000000 0.000000 0.000000 0.000000 -1.744785
    4 17.597597 0.000000 0.000000 -0.164903 0.191688 0.413694
    5 0.000005 -0.000003 -3.713255 0.311735 -3.346321 -0.928284
    6 18.045725 0.000000 0.000000 0.000000 0.000000 -1.993364
    7 17.597597 0.000000 0.000000 0.131027 -0.129934 1.055714
    8 1.293670 0.684478 -0.000001 -0.000004 -0.000001 0.279904
    9 5.309685 -0.003834 0.000000 -0.204976 0.043168 0.203921
    10 4.826790 -0.004591 0.000000 -0.291899 0.053775 0.176206
    11 5.792767 -0.005304 0.000000 0.000000 0.000000 0.333370
    12 6.662317 -0.001453 0.000000 0.000000 -0.000001 0.078527
    13 2.046985 -0.000002 0.000000 0.483089 -0.147428 -0.413011
    14 -3.451878 0.212527 4.341911 1.686682 -0.592361 1.285935
    15 4.827230 0.000000 0.000001 -0.242465 0.302405 0.248883
    16 11.139763 0.000000 0.000000 0.000000 0.000000 -1.550508
    17 10.314597 0.000001 0.000000 -4.383982 0.179787 -0.497798
    18 2.975834 -0.386307 -0.044143 -0.012063 -0.041921 0.262037
    19 1.438886 0.000000 0.000000 0.000000 0.000000 0.637017
    20 1.485303 0.000000 0.000000 0.000000 0.000000 0.540993
    21 -3.186314 0.196501 -4.140396 -0.859132 1.194483 2.239217
    22 4.972048 0.000000 0.000001 0.286122 -0.296103 -1.345215
    23 11.585355 0.000000 0.000000 0.000000 0.000000 -1.485248
    24 10.127057 0.000000 0.000001 2.165175 0.412001 0.805655
    25 2.683750 -0.427338 0.044205 0.001045 0.043611 0.000046
    26 1.438885 -0.000001 0.000000 0.000000 0.000000 0.767762
    27 1.485305 0.000001 0.000000 0.000000 0.000000 1.221689
    28 1.038631 0.548043 -0.144017 -0.000001 0.000001 -1.849906
    29 -0.064003 -0.023521 0.026161 0.000000 0.000000 0.000000
    30 3.013925 3.984634 -0.088975 -0.000001 0.000001 -1.849906
    31 -0.084188 -0.025627 -0.001098 0.000000 0.000000 0.000000
    32 4.778187 3.972486 -0.079803 -0.000001 0.000001 -1.849906
    33 -0.058556 -0.021324 0.004244 0.000000 0.000000 0.000000
    34 1.640598 -1.968779 -0.099219 -0.000001 0.000001 -1.849906
    35 0.055573 -0.028908 0.000000 0.000000 0.000000 0.000000
    36 1.646738 0.449549 -1.702246 0.195746 0.777407 0.349090
    37 0.928312 0.000000 -0.000002 0.000000 0.000000 0.000000
    38 0.928314 0.000000 0.000001 0.000000 0.000000 0.000000
    39 1.533672 0.109715 1.664491 -0.233255 -0.412980 0.435684
    40 0.928313 0.000000 0.000000 0.000000 0.000000 0.000000
    41 0.928314 0.000000 0.000001 0.000000 0.000000 0.000000
  time 21
    0 0.235347 0.367732 -12.643442 0.000000 0.270322 -1.570874
    1 -3.910276 0.679708 0.000000 -1.570795 -1.570796 0.000000
    2 -0.000005 0.000007 3.713255 2.893246 6.073186 1.567094
    3 18.045721 0.000000 0.000000 0.000000 0.000000 -1.744785
    4 17.597597 0.000000 0.000000 -0.164903 0.191688 0.413694
    5 0.000005 -0.000003 -3.713255 0.311735 -3.346321 -0.928284
    6 18.045725 0.000000 0.000000 0.000000 0.000000 -1.993364
    7 17.597597 0.000000 0.000000 0.131027 -0.129934 1.055714
    8 1.293670 0.684478 -0.000001 -0.000004 -0.000001 0.279904
    9 5.309685 -0.003834 0.000000 -0.205123 0.042449 0.200426
    10 4.826790 -0.004591 0.000000 -0.292047 0.052960 0.173472
    11 5.792767 -0.005304 0.000000 0.000000 0.000000 0.327661
    12 6.662317 -0.001453 0.000000 0.000000 -0.000001 0.078527
    13 2.046985 -0.000002 0.000000 0.483347 -0.146798 -0.404201
    14 -3.451878 0.212527 4.341911 1.691859 -0.591438 1.276540
    15 4.827230 0.000000 0.000001 -0.231834 0.318574 0.250633
    16 11.139763 0.000000 0.000000 0.000000 0.000000 -1.550508
    17 10.314597 0.000001 0.000000 -4.383982 0.179787 -0.497798
    18 2.975834 -0.386307 -0.044143 -0.012063 -0.041921 0.262037
    19 1.438886 0.000000 0.000000 0.000000 0.000000 0.637017
    20 1.485303 0.000000 0.000000 0.000000 0.000000 0.540993
    21 -3.186314 0.196501 -4.140396 -0.843026 1.200730 2.254269
    22 4.972048 0.000000 0.000001 0.285426 -0.309697 -1.349892
    23 11.585355 0.000000 0.000000 0.000000 0.000000 -1.485248
    24 10.127057 0.000000 0.000001 2.162818 0.411432 0.799614
    25 2.683750 -0.427338 0.044205 0.001045 0.043611 0.000046
    26 1.438885 -0.000001 0.000000 0.000000 0.000000 0.767762
    27 1.485305 0.000001 0.000000 0.000000 0.000000 1.221689
    28 1.038631 0.548043 -0.144017 -0.000001 0.000001 -1.849906
    29 -0.064003 -0.023521 0.026161 0.000000 0.000000 0.000000
    30 3.013925 3.984634 -0.088975 -0.000001 0.000001 -1.849906
    31 -0.084188 -0.025627 -0.001098 0.000000 0.000000 0.000000
    32 4.778187 3.972486 -0.079803 -0.000001 0.000001 -1.849906
    33 -0.058556 -0.021324 0.004244 0.000000 0.000000 0.000000
    34 1.640598 -1.968779 -0.099219 -0.000001 0.000001 -1.849906
    35 0.055573 -0.028908 0.000000 0.000000 0.000000 0.000000
    36 1.646738 0.449549 -1.702246 0.195746 0.777407 0.349090
    37 0.928312 0.000000 -0.000002 0.000000 0.000000 0.000000
    38 0.928314 0.000000 0.000001 0.000000 0.000000 0.000000
    39 1.533672 0.109715 1.664491 -0.233255 -0.412980 0.435684
    40 0.928313 0.000000 0.000000 0.000000 0.000000 0.000000
    41 0.928314 0.000000 0.000001 0.000000 0.000000 0.000000
  time 22
    0 0.235347 0.367732 -12.635629 0.000000 0.270322 -1.570874
    1 -3.886837 0.667989 0.000000 -1.570795 -1.570796 0.000000
    2 -0.000005 0.000007 3.713255 2.893246 6.073186 1.567094
    3 18.045721 0.000000 0.000000 0.000000 0.000000 -1.744785
    4 17.597597 0.000000 0.000000 -0.164903 0.191688 0.413694
    5 0.000005 -0.000003 -3.713255 0.311735 -3.346321 -0.928284
    6 18.045725 0.000000 0.000000 0.000000 0.000000 -1.993364
    7 17.597597 0.000000 0.000000 0.131027 -0.129934 1.055714
    8 1.293670 0.684478 -0.000001 -0.000004 -0.000001 0.279904
    9 5.309685 -0.003834 0.000000 -0.205282 0.041670 0.196659
    10 4.826790 -0.004591 0.000000 -0.292211 0.052073 0.170540
    11 5.792767 -0.005304 0.000000 0.000000 0.000000 0.321536
    12 6.662317 -0.001453 0.000000 0.000000 -0.000001 0.078527
    13 2.046985 -0.000002 0.000000 0.483649 -0.146122 -0.394717
    14 -3.451878 0.212527 4.341911 1.697515 -0.590399 1.266473
    15 4.827230 0.000000 0.000001 -0.220204 0.336020 0.252646
    16 11.139763 0.000000 0.000000 0.000000 0.000000 -1.550508
    17 10.314597 0.000001 0.000000 -4.383982 0.179787 -0.497798
    18 2.975834 -0.386307 -0.044143 -0.012063 -0.041921 0.262037
    19 1.438886 0.000000 0.000000 0.000000 0.000000 0.637017
    20 1.485303 0.000000 0.000000 0.000000 0.000000 0.540993
    21 -3.186314 0.196501 -4.140396 -0.825097 1.207344 2.270951
    22 4.972048 0.000000 0.000001 0.284730 -0.324337 -1.354898
    23 11.585355 0.000000 0.000000 0.000000 0.000000 -1.485248
    24 10.127057 0.000000 0.000001 2.160334 0.410837 0.793103
    25 2.683750 -0.427338 0.044205 0.001045 0.043611 0.000046
    26 1.438885 -0.000001 0.000000 0.000000 0.000000 0.767762
    27 1.485305 0.000001 0.000000 0.000000 0.000000 1.221689
    28 1.038631 0.548043 -0.144017 -0.000001 0.000001 -1.849906
    29 -0.064003 -0.023521 0.026161 0.000000 0.000000 0.000000
    30 3.013925 3.984634 -0.088975 -0.000001 0.000001 -1.849906
    31 -0.084188 -0.025627 -0.001098 0.000000 0.000000 0.000000
    32 4.778187 3.972486 -0.079803 -0.000001 0.000001 -1.849906
    33 -0.058556 -0.021324 0.004244 0.000000 0.000000 0.000000
    34 1.640598 -1.968779 -0.099219 -0.000001 0.000001 -1.849906
    35 0.055573 -0.028908 0.000000 0.000000 0.000000 0.000000
    36 1.646738 0.449549 -1.702246 0.195746 0.777407 0.349090
    37 0.928312 0.000000 -0.000002 0.000000 0.000000 0.000000
    38 0.928314 0.000000 0.000001 0.000000 0.000000 0.000000
    39 1.533672 0.109715 1.664491 -0.233255 -0.412980 0.435684
    40 0.928313 0.000000 0.000000 0.000000 0.000000 0.000000
    41 0.928314 0.000000 0.000001 0.000000 0.000000 0.000000
  time 23
    0 0.235347 0.367732 -12.627816 0.000000 0.270322 -1.570874
    1 -3.859493 0.656270 0.000000 -1.570795 -1.570796 0.000000
    2 -0.000005 0.000007 3.713255 2.893246 6.073186 1.567094
    3 18.045721 0.000000 0.000000 0.000000 0.000000 -1.744785
    4 17.597597 0.000000 0.000000 -0.164903 0.191688 0.413694
    5 0.000005 -0.000003 -3.713255 0.311735 -3.346321 -0.928284
    6 18.045725 0.000000 0.000000 0.000000 0.000000 -1.993364
    7 17.597597 0.000000 0.000000 0.131027 -0.129934 1.055714
    8 1.293670 0.684478 -0.000001 -0.000004 -0.000001 0.279904
    9 5.309685 -0.003834 0.000000 -0.205454 0.040855 0.192748
    10 4.826790 -0.004591 0.000000 -0.292359 0.051150 0.167475
    11 5.792767 -0.005304 0.000000 0.000000 0.000000 0.315141
    12 6.662317 -0.001453 0.000000 0.000000 -0.000001 0.078527
    13 2.046985 -0.000002 0.000000 0.483950 -0.145402 -0.384874
    14 -3.451878 0.212527 4.341911 1.703363 -0.589245 1.255926
    15 4.827230 0.000000 0.000001 -0.208046 0.354147 0.254921
    16 11.139763 0.000000 0.000000 0.000000 0.000000 -1.550508
    17 10.314597 0.000001 0.000000 -4.383982 0.179787 -0.497798
    18 2.975834 -0.386307 -0.044143 -0.012063 -0.041921 0.262037
    19 1.438886 0.000000 0.000000 0.000000 0.000000 0.637017
    20 1.485303 0.000000 0.000000 0.000000 0.000000 0.540993
    21 -3.186314 0.196501 -4.140396 -0.805827 1.214099 2.288975
    22 4.972048 0.000000 0.000001 0.283879 -0.339541 -1.360036
    23 11.585355 0.000000 0.000000 0.000000 0.000000 -1.485248
    24 10.127057 0.000000 0.000001 2.157722 0.410160 0.786356
    25 2.683750 -0.427338 0.044205 0.001045 0.043611 0.000046
    26 1.438885 -0.000001 0.000000 0.000000 0.000000 0.767762
    27 1.485305 0.000001 0.000000 0.000000 0.000000 1.221689
    28 1.038631 0.548043 -0.144017 -0.000001 0.000001 -1.849906
    29 -0.064003 -0.023521 0.026161 0.000000 0.000000 0.000000
    30 3.013925 3.984634 -0.088975 -0.000001 0.000001 -1.849906
    31 -0.084188 -0.025627 -0.001098 0.000000 0.000000 0.000000
    32 4.778187 3.972486 -0.079803 -0.000001 0.000001 -1.849906
    33 -0.058556 -0.021324 0.004244 0.000000 0.000000 0.000000
    34 1.640598 -1.968779 -0.099219 -0.000001 0.000001 -1.849906
    35 0.055573 -0.028908 0.000000 0.000000 0.000000 0.000000
    36 1.646738 0.449549 -1.702246 0.195746 0.777407 0.349090
    37 0.928312 0.000000 -0.000002 0.000000 0.000000 0.000000
    38 0.928314 0.000000 0.000001 0.000000 0.000000 0.000000
    39 1.533672 0.109715 1.664491 -0.233255 -0.412980 0.435684
    40 0.928313 0.000000 0.000000 0.000000 0.000000 0.000000
    41 0.928314 0.000000 0.000001 0.000000 0.000000 0.000000
  time 24
    0 0.235347 0.367732 -12.620003 0.000000 0.270322 -1.570874
    1 -3.832148 0.644551 0.000000 -1.570795 -1.570796 0.000000
    2 -0.000005 0.000007 3.713255 2.893246 6.073186 1.567094
    3 18.045721 0.000000 0.000000 0.000000 0.000000 -1.744785
    4 17.597597 0.000000 0.000000 -0.164903 0.191688 0.413694
    5 0.000005 -0.000003 -3.713255 0.311735 -3.346321 -0.928284
    6 18.045725 0.000000 0.000000 0.000000 0.000000 -1.993364
    7 17.597597 0.000000 0.000000 0.131027 -0.129934 1.055714
    8 1.293670 0.684478 -0.000001 -0.000004 -0.000001 0.279904
    9 5.309685 -0.003834 0.000000 -0.205613 0.040029 0.188800
    10 4.826790 -0.004591 0.000000 -0.292523 0.050227 0.164388
    11 5.792767 -0.005304 0.000000 0.000000 0.000000 0.308683
    12 6.662317 -0.001453 0.000000 0.000000 -0.000001 0.078527
    13 2.046985 -0.000002 0.000000 0.484252 -0.144681 -0.374895
    14 -3.451878 0.212527 4.341911 1.709212 -0.588053 1.245380
    15 4.827230 0.000000 0.000001 -0.195711 0.372443 0.257459
    16 11.139763 0.000000 0.000000 0.000000 0.000000 -1.550508
    17 10.314597 0.000001 0.000000 -4.383982 0.179787 -0.497798
    18 2.975834 -0.386307 -0.044143 -0.012063 -0.041921 0.262037
    19 1.438886 0.000000 0.000000 0.000000 0.000000 0.637017
    20 1.485303 0.000000 0.000000 0.000000 0.000000 0.540993
    21 -3.186314 0.196501 -4.140396 -0.785598 1.220797 2.307958
    22 4.972048 0.000000 0.000001 0.282951 -0.354905 -1.365240
    23 11.585355 0.000000 0.000000 0.000000 0.000000 -1.485248
    24 10.127057 0.000000 0.000001 2.155110 0.409483 0.779531
    25 2.683750 -0.427338 0.044205 0.001045 0.043611 0.000046
    26 1.438885 -0.000001 0.000000 0.000000 0.000000 0.767762
    27 1.485305 0.000001 0.000000 0.000000 0.000000 1.221689
    28 1.038631 0.548043 -0.144017 -0.000001 0.000001 -1.849906
    29 -0.064003 -0.023521 0.026161 0.000000 0.000000 0.000000
    30 3.013925 3.984634 -0.088975 -0.000001 0.000001 -1.849906
    31 -0.084188 -0.025627 -0.001098 0.000000 0.000000 0.000000
    32 4.778187 3.972486 -0.079803 -0.000001 0.000001 -1.849906
    33 -0.058556 -0.021324 0.004244 0.000000 0.000000 0.000000
    34 1.640598 -1.968779 -0.099219 -0.000001 0.000001 -1.849906
    35 0.055573 -0.028908 0.000000 0.000000 0.000000 0.000000
    36 1.646738 0.449549 -1.702246 0.195746 0.777407 0.349090
    37 0.928312 0.000000 -0.000002 0.000000 0.000000 0.000000
    38 0.928314 0.000000 0.000001 0.000000 0.000000 0.000000
    39 1.533672 0.109715 1.664491 -0.233255 -0.412980 0.435684
    40 0.928313 0.000000 0.000000 0.000000 0.000000 0.000000
    41 0.928314 0.000000 0.000001 0.000000 0.000000 0.000000
  time 25
    0 0.235347 0.367732 -12.612191 0.000000 0.270322 -1.570874
    1 -3.804804 0.632832 0.000000 -1.570795 -1.570796 0.000000
    2 -0.000005 0.000007 3.713255 2.893246 6.073186 1.567094
    3 18.045721 0.000000 0.000000 0.000000 0.000000 -1.744785
    4 17.597597 0.000000 0.000000 -0.164903 0.191688 0.413694
    5 0.000005 -0.000003 -3.713255 0.311735 -3.346321 -0.928284
    6 18.045725 0.000000 0.000000 0.000000 0.000000 -1.993364
    7 17.597597 0.000000 0.000000 0.131027 -0.129934 1.055714
    8 1.293670 0.684478 -0.000001 -0.000004 -0.000001 0.279904
    9 5.309685 -0.003834 0.000000 -0.205760 0.039226 0.184925
    10 4.826790 -0.004591 0.000000 -0.292671 0.049305 0.161345
    11 5.792767 -0.005304 0.000000 0.000000 0.000000 0.302351
    12 6.662317 -0.001453 0.000000 0.000000 -0.000001 0.078527
    13 2.046985 -0.000002 0.000000 0.484554 -0.143983 -0.365142
    14 -3.451878 0.212527 4.341911 1.714964 -0.586822 1.235025
    15 4.827230 0.000000 0.000001 -0.183435 0.390314 0.260084
    16 11.139763 0.000000 0.000000 0.000000 0.000000 -1.550508
    17 10.314597 0.000001 0.000000 -4.383982 0.179787 -0.497798
    18 2.975834 -0.386307 -0.044143 -0.012063 -0.041921 0.262037
    19 1.438886 0.000000 0.000000 0.000000 0.000000 0.637017
    20 1.485303 0.000000 0.000000 0.000000 0.000000 0.540993
    21 -3.186314 0.196501 -4.140396 -0.765081 1.227213 2.327228
    22 4.972048 0.000000 0.000001 0.281945 -0.370028 -1.370312
    23 11.585355 0.000000 0.000000 0.000000 0.000000 -1.485248
    24 10.127057 0.000000 0.000001 2.152562 0.408806 0.772823
    25 2.683750 -0.427338 0.044205 0.001045 0.043611 0.000046
    26 1.438885 -0.000001 0.000000 0.000000 0.000000 0.767762
    27 1.485305 0.000001 0.000000 0.000000 0.000000 1.221689
    28 1.038631 0.548043 -0.144017 -0.000001 0.000001 -1.849906
    29 -0.064003 -0.023521 0.026161 0.000000 0.000000 0.000000
    30 3.013925 3.984634 -0.088975 -0.000001 0.000001 -1.849906
    31 -0.084188 -0.025627 -0.001098 0.000000 0.000000 0.000000
    32 4.778187 3.972486 -0.079803 -0.000001 0.000001 -1.849906
    33 -0.058556 -0.021324 0.004244 0.000000 0.000000 0.000000
    34 1.640598 -1.968779 -0.099219 -0.000001 0.000001 -1.849906
    35 0.055573 -0.028908 0.000000 0.000000 0.000000 0.000000
    36 1.646738 0.449549 -1.702246 0.195746 0.777407 0.349090
    37 0.928312 0.000000 -0.000002 0.000000 0.000000 0.000000
    38 0.928314 0.000000 0.000001 0.000000 0.000000 0.000000
    39 1.533672 0.109715 1.664491 -0.233255 -0.412980 0.435684
    40 0.928313 0.000000 0.000000 0.000000 0.000000 0.000000
    41 0.928314 0.000000 0.000001 0.000000 0.000000 0.000000
  time 26
    0 0.235347 0.367732 -12.604378 0.000000 0.270322 -1.570874
    1 -3.777459 0.621113 0.000000 -1.570795 -1.570796 0.000000
    2 -0.000005 0.000007 3.713255 2.893246 6.073186 1.567094
    3 18.045721 0.000000 0.000000 0.000000 0.000000 -1.744785
    4 17.597597 0.000000 0.000000 -0.164903 0.191688 0.413694
    5 0.000005 -0.000003 -3.713255 0.311735 -3.346321 -0.928284
    6 18.045725 0.000000 0.000000 0.000000 0.000000 -1.993364
    7 17.597597 0.000000 0.000000 0.131027 -0.129934 1.055714
    8 1.293670 0.684478 -0.000001 -0.000004 -0.000001 0.279904
    9 5.309685 -0.003834 0.000000 -0.205906 0.038447 0.181231
    10 4.826790 -0.004591 0.000000 -0.292819 0.048442 0.158457
    11 5.792767 -0.005304 0.000000 0.000000 0.000000 0.296350
    12 6.662317 -0.001453 0.000000 0.000000 -0.000001 0.078527
    13 2.046985 -0.000002 0.000000 0.484812 -0.143308 -0.355838
    14 -3.451878 0.212527 4.341911 1.720429 -0.585629 1.225246
    15 4.827230 0.000000 0.000001 -0.171688 0.407335 0.262797
    16 11.139763 0.000000 0.000000 0.000000 0.000000 -1.550508
    17 10.314597 0.000001 0.000000 -4.383982 0.179787 -0.497798
    18 2.975834 -0.386307 -0.044143 -0.012063 -0.041921 0.262037
    19 1.438886 0.000000 0.000000 0.000000 0.000000 0.637017
    20 1.485303 0.000000 0.000000 0.000000 0.000000 0.540993
    21 -3.186314 0.196501 -4.140396 -0.744852 1.233205 2.346307
    22 4.972048 0.000000 0.000001 0.281017 -0.384346 -1.375055
    23 11.585355 0.000000 0.000000 0.000000 0.000000 -1.485248
    24 10.127057 0.000000 0.000001 2.150142 0.408157 0.766468
    25 2.683750 -0.427338 0.044205 0.001045 0.043611 0.000046
    26 1.438885 -0.000001 0.000000 0.000000 0.000000 0.767762
    27 1.485305 0.000001 0.000000 0.000000 0.000000 1.221689
    28 1.038631 0.548043 -0.144017 -0.000001 0.000001 -1.849906
    29 -0.064003 -0.023521 0.026161 0.000000 0.000000 0.000000
    30 3.013925 3.984634 -0.088975 -0.000001 0.000001 -1.849906
    31 -0.084188 -0.025627 -0.001098 0.000000 0.000000 0.000000
    32 4.778187 3.972486 -0.079803 -0.000001 0.000001 -1.849906
    33 -0.058556 -0.021324 0.004244 0.000000 0.000000 0.000000
    34 1.640598 -1.968779 -0.099219 -0.000001 0.000001 -1.849906
    35 0.055573 -0.028908 0.000000 0.000000 0.000000 0.000000
    36 1.646738 0.449549 -1.702246 0.195746 0.777407 0.349090
    37 0.928312 0.000000 -0.000002 0.000000 0.000000 0.000000
    38 0.928314 0.000000 0.000001 0.000000 0.000000 0.000000
    39 1.533672 0.109715 1.664491 -0.233255 -0.412980 0.435684
    40 0.928313 0.000000 0.000000 0.000000 0.000000 0.000000
    41 0.928314 0.000000 0.000001 0.000000 0.000000 0.000000
  time 27
    0 0.235347 0.367732 -12.600471 0.000000 0.270322 -1.570874
    1 -3.754021 0.613300 0.000000 -1.570795 -1.570796 0.000000
    2 -0.000005 0.000007 3.713255 2.893246 6.073186 1.567094
    3 18.045721 0.000000 0.000000 0.000000 0.000000 -1.744785
    4 17.597597 0.000000 0.000000 -0.164903 0.191688 0.413694
    5 0.000005 -0.000003 -3.713255 0.311735 -3.346321 -0.928284
    6 18.045725 0.000000 0.000000 0.000000 0.000000 -1.993364
    7 17.597597 0.000000 0.000000 0.131027 -0.129934 1.055714
    8 1.293670 0.684478 -0.000001 -0.000004 -0.000001 0.279904
    9 5.309685 -0.003834 0.000000 -0.206029 0.037751 0.177862
    10 4.826790 -0.004591 0.000000 -0.292934 0.047639 0.155811
    11 5.792767 -0.005304 0.000000 0.000000 0.000000 0.290827
    12 6.662317 -0.001453 0.000000 0.000000 -0.000001 0.078527
    13 2.046985 -0.000002 0.000000 0.485071 -0.142700 -0.347342
    14 -3.451878 0.212527 4.341911 1.725318 -0.584475 1.216233
    15 4.827230 0.000000 0.000001 -0.160763 0.422908 0.265510
    16 11.139763 0.000000 0.000000 0.000000 0.000000 -1.550508
    17 10.314597 0.000001 0.000000 -4.383982 0.179787 -0.497798
    18 2.975834 -0.386307 -0.044143 -0.012063 -0.041921 0.262037
    19 1.438886 0.000000 0.000000 0.000000 0.000000 0.637017
    20 1.485303 0.000000 0.000000 0.000000 0.000000 0.540993
    21 -3.186314 0.196501 -4.140396 -0.725773 1.238575 2.364331
    22 4.972048 0.000000 0.000001 0.280089 -0.397539 -1.379403
    23 11.585355 0.000000 0.000000 0.000000 0.000000 -1.485248
    24 10.127057 0.000000 0.000001 2.147912 0.407534 0.760624
    25 2.683750 -0.427338 0.044205 0.001045 0.043611 0.000046
    26 1.438885 -0.000001 0.000000 0.000000 0.000000 0.767762
    27 1.485305 0.000001 0.000000 0.000000 0.000000 1.221689
    28 1.038631 0.548043 -0.144017 -0.000001 0.000001 -1.849906
    29 -0.064003 -0.023521 0.026161 0.000000 0.000000 0.000000
    30 3.013925 3.984634 -0.088975 -0.000001 0.000001 -1.849906
    31 -0.084188 -0.025627 -0.001098 0.000000 0.000000 0.000000
    32 4.778187 3.972486 -0.079803 -0.000001 0.000001 -1.849906
    33 -0.058556 -0.021324 0.004244 0.000000 0.000000 0.000000
    34 1.640598 -1.968779 -0.099219 -0.000001 0.000001 -1.849906
    35 0.055573 -0.028908 0.000000 0.000000 0.000000 0.000000
    36 1.646738 0.449549 -1.702246 0.195746 0.777407 0.349090
    37 0.928312 0.000000 -0.000002 0.000000 0.000000 0.000000
    38 0.928314 0.000000 0.000001 0.000000 0.000000 0.000000
    39 1.533672 0.109715 1.664491 -0.233255 -0.412980 0.435684
    40 0.928313 0.000000 0.000000 0.000000 0.000000 0.000000
    41 0.928314 0.000000 0.000001 0.000000 0.000000 0.000000
  time 28
    0 0.235347 0.367732 -12.592659 0.000000 0.270322 -1.570874
    1 -3.730583 0.601581 0.000000 -1.570795 -1.570796 0.000000
    2 -0.000005 0.000007 3.713255 2.893246 6.073186 1.567094
    3 18.045721 0.000000 0.000000 0.000000 0.000000 -1.744785
    4 17.597597 0.000000 0.000000 -0.164903 0.191688 0.413694
    5 0.000005 -0.000003 -3.713255 0.311735 -3.346321 -0.928284
    6 18.045725 0.000000 0.000000 0.000000 0.000000 -1.993364
    7 17.597597 0.000000 0.000000 0.131027 -0.129934 1.055714
    8 1.293670 0.684478 -0.000001 -0.000004 -0.000001 0.279904
    9 5.309685 -0.003834 0.000000 -0.206139 0.037128 0.174892
    10 4.826790 -0.004591 0.000000 -0.293049 0.046944 0.153496
    11 5.792767 -0.005304 0.000000 0.000000 0.000000 0.285990
    12 6.662317 -0.001453 0.000000 0.000000 -0.000001 0.078527
    13 2.046985 -0.000002 0.000000 0.485286 -0.142160 -0.339836
    14 -3.451878 0.212527 4.341911 1.729729 -0.583437 1.208372
    15 4.827230 0.000000 0.000001 -0.151130 0.436524 0.267960
    16 11.139763 0.000000 0.000000 0.000000 0.000000 -1.550508
    17 10.314597 0.000001 0.000000 -4.383982 0.179787 -0.497798
    18 2.975834 -0.386307 -0.044143 -0.012063 -0.041921 0.262037
    19 1.438886 0.000000 0.000000 0.000000 0.000000 0.637017
    20 1.485303 0.000000 0.000000 0.000000 0.000000 0.540993
    21 -3.186314 0.196501 -4.140396 -0.708420 1.243211 2.380726
    22 4.972048 0.000000 0.000001 0.279160 -0.409042 -1.383223
    23 11.585355 0.000000 0.000000 0.000000 0.000000 -1.485248
    24 10.127057 0.000000 0.000001 2.146001 0.406965 0.755525
    25 2.683750 -0.427338 0.044205 0.001045 0.043611 0.000046
    26 1.438885 -0.000001 0.000000 0.000000 0.000000 0.767762
    27 1.485305 0.000001 0.000000 0.000000 0.000000 1.221689
    28 1.038631 0.548043 -0.144017 -0.000001 0.000001 -1.849906
    29 -0.064003 -0.023521 0.026161 0.000000 0.000000 0.000000
    30 3.013925 3.984634 -0.088975 -0.000001 0.000001 -1.849906
    31 -0.084188 -0.025627 -0.001098 0.000000 0.000000 0.000000
    32 4.778187 3.972486 -0.079803 -0.000001 0.000001 -1.849906
    33 -0.058556 -0.021324 0.004244 0.000000 0.000000 0.000000
    34 1.640598 -1.968779 -0.099219 -0.000001 0.000001 -1.849906
    35 0.055573 -0.028908 0.000000 0.000000 0.000000 0.000000
    36 1.646738 0.449549 -1.702246 0.195746 0.777407 0.349090
    37 0.928312 0.000000 -0.000002 0.000000 0.000000 0.000000
    38 0.928314 0.000000 0.000001 0.000000 0.000000 0.000000
    39 1.533672 0.109715 1.664491 -0.233255 -0.412980 0.435684
    40 0.928313 0.000000 0.000000 0.000000 0.000000 0.000000
    41 0.928314 0.000000 0.000001 0.000000 0.000000 0.000000
  time 29
    0 0.235347 0.367732 -12.588752 0.000000 0.270322 -1.570874
    1 -3.714957 0.593768 0.000000 -1.570795 -1.570796 0.000000
    2 -0.000005 0.000007 3.713255 2.893246 6.073186 1.567094
    3 18.045721 0.000000 0.000000 0.000000 0.000000 -1.744785
    4 17.597597 0.000000 0.000000 -0.164903 0.191688 0.413694
    5 0.000005 -0.000003 -3.713255 0.311735 -3.346321 -0.928284
    6 18.045725 0.000000 0.000000 0.000000 0.000000 -1.993364
    7 17.597597 0.000000 0.000000 0.131027 -0.129934 1.055714
    8 1.293670 0.684478 -0.000001 -0.000004 -0.000001 0.279904
    9 5.309685 -0.003834 0.000000 -0.206237 0.036625 0.172466
    10 4.826790 -0.004591 0.000000 -0.293131 0.046368 0.151600
    11 5.792767 -0.005304 0.000000 0.000000 0.000000 0.282024
    12 6.662317 -0.001453 0.000000 0.000000 -0.000001 0.078527
    13 2.046985 -0.000002 0.000000 0.485458 -0.141709 -0.333723
    14 -3.451878 0.212527 4.341911 1.733276 -0.582552 1.201948
    15 4.827230 0.000000 0.000001 -0.143142 0.447757 0.270148
    16 11.139763 0.000000 0.000000 0.000000 0.000000 -1.550508
    17 10.314597 0.000001 0.000000 -4.383982 0.179787 -0.497798
    18 2.975834 -0.386307 -0.044143 -0.012063 -0.041921 0.262037
    19 1.438886 0.000000 0.000000 0.000000 0.000000 0.637017
    20 1.485303 0.000000 0.000000 0.000000 0.000000 0.540993
    21 -3.186314 0.196501 -4.140396 -0.693943 1.246913 2.394531
    22 4.972048 0.000000 0.000001 0.278464 -0.418534 -1.386319
    23 11.585355 0.000000 0.000000 0.000000 0.000000 -1.485248
    24 10.127057 0.000000 0.000001 2.144408 0.406505 0.751327
    25 2.683750 -0.427338 0.044205 0.001045 0.043611 0.000046
    26 1.438885 -0.000001 0.000000 0.000000 0.000000 0.767762
    27 1.485305 0.000001 0.000000 0.000000 0.000000 1.221689
    28 1.038631 0.548043 -0.144017 -0.000001 0.000001 -1.849906
    29 -0.064003 -0.023521 0.026161 0.000000 0.000000 0.000000
    30 3.013925 3.984634 -0.088975 -0.000001 0.000001 -1.849906
    31 -0.084188 -0.025627 -0.001098 0.000000 0.000000 0.000000
    32 4.778187 3.972486 -0.079803 -0.000001 0.000001 -1.849906
    33 -0.058556 -0.021324 0.004244 0.000000 0.000000 0.000000
    34 1.640598 -1.968779 -0.099219 -0.000001 0.000001 -1.849906
    35 0.055573 -0.028908 0.000000 0.000000 0.000000 0.000000
    36 1.646738 0.449549 -1.702246 0.195746 0.777407 0.349090
    37 0.928312 0.000000 -0.000002 0.000000 0.000000 0.000000
    38 0.928314 0.000000 0.000001 0.000000 0.000000 0.000000
    39 1.533672 0.109715 1.664491 -0.233255 -0.412980 0.435684
    40 0.928313 0.000000 0.000000 0.000000 0.000000 0.000000
    41 0.928314 0.000000 0.000001 0.000000 0.000000 0.000000
  time 30
    0 0.235347 0.367732 -12.584846 0.000000 0.270322 -1.570874
    1 -3.699332 0.589862 0.000000 -1.570795 -1.570796 0.000000
    2 -0.000005 0.000007 3.713255 2.893246 6.073186 1.567094
    3 18.045721 0.000000 0.000000 0.000000 0.000000 -1.744785
    4 17.597597 0.000000 0.000000 -0.164903 0.191688 0.413694
    5 0.000005 -0.000003 -3.713255 0.311735 -3.346321 -0.928284
    6 18.045725 0.000000 0.000000 0.000000 0.000000 -1.993364
    7 17.597597 0.000000 0.000000 0.131027 -0.129934 1.055714
    8 1.293670 0.684478 -0.000001 -0.000004 -0.000001 0.279904
    9 5.309685 -0.003834 0.000000 -0.206298 0.036241 0.170673
    10 4.826790 -0.004591 0.000000 -0.293196 0.045949 0.150210
    11 5.792767 -0.005304 0.000000 0.000000 0.000000 0.279097
    12 6.662317 -0.001453 0.000000 0.000000 -0.000001 0.078527
    13 2.046985 -0.000002 0.000000 0.485588 -0.141372 -0.329228
    14 -3.451878 0.212527 4.341911 1.735864 -0.581898 1.197154
    15 4.827230 0.000000 0.000001 -0.137210 0.455927 0.271723
    16 11.139763 0.000000 0.000000 0.000000 0.000000 -1.550508
    17 10.314597 0.000001 0.000000 -4.383982 0.179787 -0.497798
    18 2.975834 -0.386307 -0.044143 -0.012063 -0.041921 0.262037
    19 1.438886 0.000000 0.000000 0.000000 0.000000 0.637017
    20 1.485303 0.000000 0.000000 0.000000 0.000000 0.540993
    21 -3.186314 0.196501 -4.140396 -0.683013 1.249598 2.404790
    22 4.972048 0.000000 0.000001 0.277845 -0.425452 -1.388559
    23 11.585355 0.000000 0.000000 0.000000 0.000000 -1.485248
    24 10.127057 0.000000 0.000001 2.143198 0.406180 0.748268
    25 2.683750 -0.427338 0.044205 0.001045 0.043611 0.000046
    26 1.438885 -0.000001 0.000000 0.000000 0.000000 0.767762
    27 1.485305 0.000001 0.000000 0.000000 0.000000 1.221689
    28 1.038631 0.548043 -0.144017 -0.000001 0.000001 -1.849906
    29 -0.064003 -0.023521 0.026161 0.000000 0.000000 0.000000
    30 3.013925 3.984634 -0.088975 -0.000001 0.000001 -1.849906
    31 -0.084188 -0.025627 -0.001098 0.000000 0.000000 0.000000
    32 4.778187 3.972486 -0.079803 -0.000001 0.000001 -1.849906
    33 -0.058556 -0.021324 0.004244 0.000000 0.000000 0.000000
    34 1.640598 -1.968779 -0.099219 -0.000001 0.000001 -1.849906
    35 0.055573 -0.028908 0.000000 0.000000 0.000000 0.000000
    36 1.646738 0.449549 -1.702246 0.195746 0.777407 0.349090
    37 0.928312 0.000000 -0.000002 0.000000 0.000000 0.000000
    38 0.928314 0.000000 0.000001 0.000000 0.000000 0.000000
    39 1.533672 0.109715 1.664491 -0.233255 -0.412980 0.435684
    40 0.928313 0.000000 0.000000 0.000000 0.000000 0.000000
    41 0.928314 0.000000 0.000001 0.000000 0.000000 0.000000
end
