version 1
nodes
  0 "Bip01" -1
  1 "Bip01 Pelvis" 0
  2 "Bip01 L Leg" 1
  3 "Bip01 L Leg1" 2
  4 "Bip01 L Foot" 3
  5 "Bip01 R Leg" 1
  6 "Bip01 R Leg1" 5
  7 "Bip01 R Foot" 6
  8 "Bip01 Spine" 1
  9 "Bip01 Spine1" 8
  10 "Bip01 Spine2" 9
  11 "Bip01 Spine3" 10
  12 "Bip01 Neck" 11
  13 "Bip01 Head" 12
  14 "Bip01 L Arm" 12
  15 "Bip01 L Arm1" 14
  16 "Bip01 L Arm2" 15
  17 "Bip01 L Hand" 16
  18 "Bip01 L Finger1" 17
  19 "Bip01 L Finger11" 18
  20 "Bip01 L Finger12" 19
  21 "Bip01 R Arm" 12
  22 "Bip01 R Arm1" 21
  23 "Bip01 R Arm2" 22
  24 "Bip01 R Hand" 23
  25 "Bip01 R Finger1" 24
  26 "Bip01 R Finger11" 25
  27 "Bip01 R Finger12" 26
  28 "Dummy08" 13
  29 "Bone02" 28
  30 "Dummy04" 13
  31 "Bone05" 30
  32 "Dummy03" 13
  33 "Bone07" 32
  34 "Dummy10" 13
  35 "Bone13" 34
  36 "Bip01 L Finger0" 17
  37 "Bip01 L Finger01" 36
  38 "Bip01 L Finger02" 37
  39 "Bip01 R Finger0" 24
  40 "Bip01 R Finger01" 39
  41 "Bip01 R Finger02" 40
end
skeleton
  time 0
    0 0.235347 0.367732 -14.553656 -0.045585 0.257873 -1.742273
    1 0.000000 0.000000 0.000000 -1.570795 -1.570796 0.000000
    2 -0.000005 0.000007 3.713255 2.914525 6.061903 1.331528
    3 18.045721 0.000000 0.000000 0.000000 0.000000 -1.349242
    4 17.597597 0.000000 0.000000 -0.205057 0.225938 -0.216505
    5 0.000005 -0.000003 -3.713255 -0.067002 -3.740518 -0.837425
    6 18.045725 0.000000 0.000000 0.000000 0.000000 -2.074647
    7 17.597597 0.000000 0.000000 -0.092081 0.087821 0.559948
    8 1.293670 0.684478 -0.000001 -0.000004 -0.000001 0.271132
    9 5.309685 -0.003834 0.000000 -0.032332 0.013075 0.383508
    10 4.826790 -0.004591 0.000000 -0.143872 0.219749 0.294411
    11 5.792767 -0.005304 0.000000 0.000065 0.087260 0.113347
    12 6.662317 -0.001453 0.000000 0.000000 -0.000001 -0.314374
    13 2.046985 -0.000002 0.000000 0.265994 -0.336464 -0.171147
    14 -3.272185 -1.123452 4.341911 -1.854296 -1.353141 5.315989
    15 4.827230 0.000000 0.000001 -1.812605 1.249066 -1.295690
    16 11.139763 0.000000 0.000000 0.000000 0.000000 -1.566136
    17 10.314597 0.000001 0.000000 -1.384037 -0.010306 0.140724
    18 2.975834 -0.386307 -0.044143 -0.038872 -0.019786 1.082090
    19 1.438886 0.000000 0.000000 0.000000 0.000000 1.413283
    20 1.485303 0.000000 0.000000 0.000000 0.000000 1.168985
    21 -3.014434 -1.037911 -4.140396 -0.000013 1.370795 3.455176
    22 4.972048 0.000000 0.000001 0.895600 -0.653582 -1.003468
    23 11.585355 0.000000 0.000000 0.000000 0.000000 -1.512531
    24 10.127057 0.000000 0.000001 1.956105 0.012399 -0.104492
    25 2.683750 -0.427338 0.044205 0.001045 0.043611 0.000046
    26 1.438885 -0.000001 0.000000 0.000000 0.000000 0.767762
    27 1.485305 0.000001 0.000000 0.000000 0.000000 1.221689
    28 1.038631 0.548043 -0.144017 -0.000001 0.000001 -1.849906
    29 -0.064003 -0.023521 0.026161 0.000000 0.000000 0.000000
    30 3.013925 3.984634 -0.088975 -0.000001 0.000001 -1.849906
    31 -0.084188 -0.025627 -0.001098 0.000000 0.000000 0.000000
    32 4.778187 3.972486 -0.079803 -0.000001 0.000001 -1.849906
    33 -0.058556 -0.021324 0.004244 0.000000 0.000000 0.000000
    34 1.640598 -1.968779 -0.099219 -0.000001 0.000001 -1.849906
    35 0.055573 -0.028908 0.000000 0.000000 0.000000 0.000000
    36 1.646738 0.449549 -1.702246 0.449790 0.128753 1.240204
    37 0.928312 0.000000 -0.000002 0.000000 0.000000 0.000000
    38 0.928314 0.000000 0.000001 0.000000 0.000000 -1.430444
    39 1.533672 0.109715 1.664491 -0.733354 -0.285116 1.223813
    40 0.928313 0.000000 0.000000 0.000000 0.000000 0.000000
    41 0.928314 0.000000 0.000001 0.000000 0.000000 0.000000
  time 1
    0 0.235347 0.367732 -14.553656 -0.045585 0.257873 -1.742273
    1 0.000000 0.000000 0.000000 -1.570795 -1.570796 0.000000
    2 -0.000005 0.000007 3.713255 2.914525 6.061903 1.331528
    3 18.045721 0.000000 0.000000 0.000000 0.000000 -1.349242
    4 17.597597 0.000000 0.000000 -0.205057 0.225938 -0.216505
    5 0.000005 -0.000003 -3.713255 -0.067002 -3.740518 -0.837425
    6 18.045725 0.000000 0.000000 0.000000 0.000000 -2.074647
    7 17.597597 0.000000 0.000000 -0.092081 0.087821 0.559948
    8 1.293670 0.684478 -0.000001 -0.000004 -0.000001 0.271132
    9 5.309685 -0.003834 0.000000 -0.032332 0.013075 0.383508
    10 4.826790 -0.004591 0.000000 -0.145317 0.214788 0.259595
    11 5.792767 -0.005304 0.000000 -0.121850 0.100491 0.101886
    12 6.662317 -0.001453 0.000000 0.000000 -0.000001 -0.314374
    13 2.046985 -0.000002 0.000000 0.377622 -0.298368 -0.161753
    14 -3.272185 -1.123452 4.341911 -1.854296 -1.353141 5.315989
    15 4.827230 0.000000 0.000001 -1.694721 1.300892 -1.144821
    16 11.139763 0.000000 0.000000 0.000000 0.000000 -1.566136
    17 10.314597 0.000001 0.000000 -1.384037 -0.010306 0.140724
    18 2.975834 -0.386307 -0.044143 -0.038872 -0.019786 1.082090
    19 1.438886 0.000000 0.000000 0.000000 0.000000 1.413283
    20 1.485303 0.000000 0.000000 0.000000 0.000000 1.168985
    21 -3.014434 -1.037911 -4.140396 0.298440 1.361807 3.747493
    22 4.972048 0.000000 0.000001 0.637003 -0.853237 -0.765273
    23 11.585355 0.000000 0.000000 0.000000 0.000000 -1.785433
    24 10.127057 0.000000 0.000001 1.956105 0.012399 -0.104492
    25 2.683750 -0.427338 0.044205 0.001045 0.043611 0.000046
    26 1.438885 -0.000001 0.000000 0.000000 0.000000 0.767762
    27 1.485305 0.000001 0.000000 0.000000 0.000000 1.221689
    28 1.038631 0.548043 -0.144017 -0.000001 0.000001 -1.849906
    29 -0.064003 -0.023521 0.026161 0.000000 0.000000 0.000000
    30 3.013925 3.984634 -0.088975 -0.000001 0.000001 -1.849906
    31 -0.084188 -0.025627 -0.001098 0.000000 0.000000 0.000000
    32 4.778187 3.972486 -0.079803 -0.000001 0.000001 -1.849906
    33 -0.058556 -0.021324 0.004244 0.000000 0.000000 0.000000
    34 1.640598 -1.968779 -0.099219 -0.000001 0.000001 -1.849906
    35 0.055573 -0.028908 0.000000 0.000000 0.000000 0.000000
    36 1.646738 0.449549 -1.702246 0.449790 0.128753 1.240204
    37 0.928312 0.000000 -0.000002 0.000000 0.000000 0.000000
    38 0.928314 0.000000 0.000001 0.000000 0.000000 -1.430444
    39 1.533672 0.109715 1.664491 -0.733354 -0.285116 1.223813
    40 0.928313 0.000000 0.000000 0.000000 0.000000 0.000000
    41 0.928314 0.000000 0.000001 0.000000 0.000000 0.000000
  time 2
    0 0.235347 0.367732 -14.553656 -0.045585 0.257873 -1.742273
    1 0.000000 0.000000 0.000000 -1.570795 -1.570796 0.000000
    2 -0.000005 0.000007 3.713255 2.914525 6.061903 1.331528
    3 18.045721 0.000000 0.000000 0.000000 0.000000 -1.349242
    4 17.597597 0.000000 0.000000 -0.205057 0.225938 -0.216505
    5 0.000005 -0.000003 -3.713255 -0.067002 -3.740518 -0.837425
    6 18.045725 0.000000 0.000000 0.000000 0.000000 -2.074647
    7 17.597597 0.000000 0.000000 -0.092081 0.087821 0.559948
    8 1.293670 0.684478 -0.000001 -0.000004 -0.000001 0.271132
    9 5.309685 -0.003834 0.000000 -0.032332 0.013075 0.383508
    10 4.826790 -0.004591 0.000000 -0.143856 0.219797 0.294808
    11 5.792767 -0.005304 0.000000 -0.080902 0.096212 0.105914
    12 6.662317 -0.001453 0.000000 0.000000 -0.000001 -0.314374
    13 2.046985 -0.000002 0.000000 0.345223 -0.306406 -0.189531
    14 -3.272185 -1.123452 4.341911 -1.854296 -1.353141 5.315989
    15 4.827230 0.000000 0.000001 -1.691902 1.264044 -1.225681
    16 11.139763 0.000000 0.000000 0.000000 0.000000 -1.566136
    17 10.314597 0.000001 0.000000 -1.384037 -0.010306 0.140724
    18 2.975834 -0.386307 -0.044143 -0.038872 -0.019786 1.082090
    19 1.438886 0.000000 0.000000 0.000000 0.000000 1.413283
    20 1.485303 0.000000 0.000000 0.000000 0.000000 1.168985
    21 -3.014434 -1.037911 -4.140396 0.191542 1.367177 3.642799
    22 4.972048 0.000000 0.000001 0.770904 -0.776094 -0.898863
    23 11.585355 0.000000 0.000000 0.000000 0.000000 -1.684695
    24 10.127057 0.000000 0.000001 1.956105 0.012399 -0.104492
    25 2.683750 -0.427338 0.044205 0.001045 0.043611 0.000046
    26 1.438885 -0.000001 0.000000 0.000000 0.000000 0.767762
    27 1.485305 0.000001 0.000000 0.000000 0.000000 1.221689
    28 1.038631 0.548043 -0.144017 -0.000001 0.000001 -1.849906
    29 -0.064003 -0.023521 0.026161 0.000000 0.000000 0.000000
    30 3.013925 3.984634 -0.088975 -0.000001 0.000001 -1.849906
    31 -0.084188 -0.025627 -0.001098 0.000000 0.000000 0.000000
    32 4.778187 3.972486 -0.079803 -0.000001 0.000001 -1.849906
    33 -0.058556 -0.021324 0.004244 0.000000 0.000000 0.000000
    34 1.640598 -1.968779 -0.099219 -0.000001 0.000001 -1.849906
    35 0.055573 -0.028908 0.000000 0.000000 0.000000 0.000000
    36 1.646738 0.449549 -1.702246 0.449790 0.128753 1.240204
    37 0.928312 0.000000 -0.000002 0.000000 0.000000 0.000000
    38 0.928314 0.000000 0.000001 0.000000 0.000000 -1.430444
    39 1.533672 0.109715 1.664491 -0.733354 -0.285116 1.223813
    40 0.928313 0.000000 0.000000 0.000000 0.000000 0.000000
    41 0.928314 0.000000 0.000001 0.000000 0.000000 0.000000
  time 3
    0 0.235347 0.367732 -14.553656 -0.045585 0.257873 -1.742273
    1 0.000000 0.000000 0.000000 -1.570795 -1.570796 0.000000
    2 -0.000005 0.000007 3.713255 2.914525 6.061903 1.331528
    3 18.045721 0.000000 0.000000 0.000000 0.000000 -1.349242
    4 17.597597 0.000000 0.000000 -0.205057 0.225938 -0.216505
    5 0.000005 -0.000003 -3.713255 -0.067002 -3.740518 -0.837425
    6 18.045725 0.000000 0.000000 0.000000 0.000000 -2.074647
    7 17.597597 0.000000 0.000000 -0.092081 0.087821 0.559948
    8 1.293670 0.684478 -0.000001 -0.000004 -0.000001 0.271132
    9 5.309685 -0.003834 0.000000 -0.032332 0.013075 0.383508
    10 4.826790 -0.004591 0.000000 -0.142214 0.224747 0.329954
    11 5.792767 -0.005304 0.000000 -0.021999 0.089765 0.111396
    12 6.662317 -0.001453 0.000000 0.000000 -0.000001 -0.314374
    13 2.046985 -0.000002 0.000000 0.296238 -0.323855 -0.213398
    14 -3.272185 -1.123452 4.341911 -1.854296 -1.353141 5.315989
    15 4.827230 0.000000 0.000001 -1.805968 1.223451 -1.311179
    16 11.139763 0.000000 0.000000 0.000000 0.000000 -1.566136
    17 10.314597 0.000001 0.000000 -1.384037 -0.010306 0.140724
    18 2.975834 -0.386307 -0.044143 -0.038872 -0.019786 1.082090
    19 1.438886 0.000000 0.000000 0.000000 0.000000 1.413283
    20 1.485303 0.000000 0.000000 0.000000 0.000000 1.168985
    21 -3.014434 -1.037911 -4.140396 0.055593 1.370512 3.509632
    22 4.972048 0.000000 0.000001 0.887865 -0.664361 -1.007223
    23 11.585355 0.000000 0.000000 0.000000 0.000000 -1.561990
    24 10.127057 0.000000 0.000001 1.956105 0.012399 -0.104492
    25 2.683750 -0.427338 0.044205 0.001045 0.043611 0.000046
    26 1.438885 -0.000001 0.000000 0.000000 0.000000 0.767762
    27 1.485305 0.000001 0.000000 0.000000 0.000000 1.221689
    28 1.038631 0.548043 -0.144017 -0.000001 0.000001 -1.849906
    29 -0.064003 -0.023521 0.026161 0.000000 0.000000 0.000000
    30 3.013925 3.984634 -0.088975 -0.000001 0.000001 -1.849906
    31 -0.084188 -0.025627 -0.001098 0.000000 0.000000 0.000000
    32 4.778187 3.972486 -0.079803 -0.000001 0.000001 -1.849906
    33 -0.058556 -0.021324 0.004244 0.000000 0.000000 0.000000
    34 1.640598 -1.968779 -0.099219 -0.000001 0.000001 -1.849906
    35 0.055573 -0.028908 0.000000 0.000000 0.000000 0.000000
    36 1.646738 0.449549 -1.702246 0.449790 0.128753 1.240204
    37 0.928312 0.000000 -0.000002 0.000000 0.000000 0.000000
    38 0.928314 0.000000 0.000001 0.000000 0.000000 -1.430444
    39 1.533672 0.109715 1.664491 -0.733354 -0.285116 1.223813
    40 0.928313 0.000000 0.000000 0.000000 0.000000 0.000000
    41 0.928314 0.000000 0.000001 0.000000 0.000000 0.000000
  time 4
    0 0.235347 0.367732 -14.553656 -0.045585 0.257873 -1.742273
    1 0.000000 0.000000 0.000000 -1.570795 -1.570796 0.000000
    2 -0.000005 0.000007 3.713255 2.914525 6.061903 1.331528
    3 18.045721 0.000000 0.000000 0.000000 0.000000 -1.349242
    4 17.597597 0.000000 0.000000 -0.205057 0.225938 -0.216505
    5 0.000005 -0.000003 -3.713255 -0.067002 -3.740518 -0.837425
    6 18.045725 0.000000 0.000000 0.000000 0.000000 -2.074647
    7 17.597597 0.000000 0.000000 -0.092081 0.087821 0.559948
    8 1.293670 0.684478 -0.000001 -0.000004 -0.000001 0.271132
    9 5.309685 -0.003834 0.000000 -0.032332 0.013075 0.383508
    10 4.826790 -0.004591 0.000000 -0.143872 0.219749 0.294411
    11 5.792767 -0.005304 0.000000 0.000065 0.087260 0.113347
    12 6.662317 -0.001453 0.000000 0.000000 -0.000001 -0.314374
    13 2.046985 -0.000002 0.000000 0.265994 -0.336464 -0.171147
    14 -3.272185 -1.123452 4.341911 -1.854296 -1.353141 5.315989
    15 4.827230 0.000000 0.000001 -1.812605 1.249066 -1.295690
    16 11.139763 0.000000 0.000000 0.000000 0.000000 -1.566136
    17 10.314597 0.000001 0.000000 -1.384037 -0.010306 0.140724
    18 2.975834 -0.386307 -0.044143 -0.038872 -0.019786 1.082090
    19 1.438886 0.000000 0.000000 0.000000 0.000000 1.413283
    20 1.485303 0.000000 0.000000 0.000000 0.000000 1.168985
    21 -3.014434 -1.037911 -4.140396 -0.000013 1.370795 3.455176
    22 4.972048 0.000000 0.000001 0.895600 -0.653582 -1.003468
    23 11.585355 0.000000 0.000000 0.000000 0.000000 -1.512531
    24 10.127057 0.000000 0.000001 1.956105 0.012399 -0.104492
    25 2.683750 -0.427338 0.044205 0.001045 0.043611 0.000046
    26 1.438885 -0.000001 0.000000 0.000000 0.000000 0.767762
    27 1.485305 0.000001 0.000000 0.000000 0.000000 1.221689
    28 1.038631 0.548043 -0.144017 -0.000001 0.000001 -1.849906
    29 -0.064003 -0.023521 0.026161 0.000000 0.000000 0.000000
    30 3.013925 3.984634 -0.088975 -0.000001 0.000001 -1.849906
    31 -0.084188 -0.025627 -0.001098 0.000000 0.000000 0.000000
    32 4.778187 3.972486 -0.079803 -0.000001 0.000001 -1.849906
    33 -0.058556 -0.021324 0.004244 0.000000 0.000000 0.000000
    34 1.640598 -1.968779 -0.099219 -0.000001 0.000001 -1.849906
    35 0.055573 -0.028908 0.000000 0.000000 0.000000 0.000000
    36 1.646738 0.449549 -1.702246 0.449790 0.128753 1.240204
    37 0.928312 0.000000 -0.000002 0.000000 0.000000 0.000000
    38 0.928314 0.000000 0.000001 0.000000 0.000000 -1.430444
    39 1.533672 0.109715 1.664491 -0.733354 -0.285116 1.223813
    40 0.928313 0.000000 0.000000 0.000000 0.000000 0.000000
    41 0.928314 0.000000 0.000001 0.000000 0.000000 0.000000
end
