version 1
nodes
  0 "Bip01" -1
  1 "Bip01 Pelvis" 0
  2 "Bip01 L Leg" 1
  3 "Bip01 L Leg1" 2
  4 "Bip01 L Foot" 3
  5 "Bip01 R Leg" 1
  6 "Bip01 R Leg1" 5
  7 "Bip01 R Foot" 6
  8 "Bip01 Spine" 1
  9 "Bip01 Spine1" 8
  10 "Bip01 Spine2" 9
  11 "Bip01 Spine3" 10
  12 "Bip01 Neck" 11
  13 "Bip01 Head" 12
  14 "Bip01 L Arm" 12
  15 "Bip01 L Arm1" 14
  16 "Bip01 L Arm2" 15
  17 "Bip01 L Hand" 16
  18 "Bip01 L Finger1" 17
  19 "Bip01 L Finger11" 18
  20 "Bip01 L Finger12" 19
  21 "Bip01 R Arm" 12
  22 "Bip01 R Arm1" 21
  23 "Bip01 R Arm2" 22
  24 "Bip01 R Hand" 23
  25 "Bip01 R Finger1" 24
  26 "Bip01 R Finger11" 25
  27 "Bip01 R Finger12" 26
  28 "Dummy08" 13
  29 "Bone02" 28
  30 "Dummy04" 13
  31 "Bone05" 30
  32 "Dummy03" 13
  33 "Bone07" 32
  34 "Dummy10" 13
  35 "Bone13" 34
  36 "Bip01 L Finger0" 17
  37 "Bip01 L Finger01" 36
  38 "Bip01 L Finger02" 37
  39 "Bip01 R Finger0" 24
  40 "Bip01 R Finger01" 39
  41 "Bip01 R Finger02" 40
end
skeleton
  time 0
    0 0.235347 0.367732 -14.393495 -0.045585 0.257873 -1.742273
    1 0.000000 0.000000 0.000000 -1.570795 -1.570796 0.000000
    2 -0.000005 0.000007 3.713255 2.914525 6.061903 1.331528
    3 18.045721 0.000000 0.000000 0.000000 0.000000 -1.349242
    4 17.597597 0.000000 0.000000 -0.205057 0.225938 -0.216505
    5 0.000005 -0.000003 -3.713255 -0.067002 -3.740518 -0.837425
    6 18.045725 0.000000 0.000000 0.000000 0.000000 -2.074647
    7 17.597597 0.000000 0.000000 -0.092081 0.087821 0.559948
    8 1.293670 0.684478 -0.000001 -0.000004 -0.000001 0.271132
    9 5.309685 -0.003834 0.000000 -0.032981 0.011373 0.331209
    10 4.826790 -0.004591 0.000000 -0.148782 0.198393 0.146749
    11 5.792767 -0.005304 0.000000 0.000065 0.087260 0.034843
    12 6.662317 -0.001453 0.000000 0.000000 -0.000001 -0.314374
    13 2.046985 -0.000002 0.000000 0.409331 -0.063019 -0.770929
    14 -3.272185 -1.123452 4.341911 1.923488 -1.393569 1.526584
    15 4.827230 0.000000 0.000001 -0.699669 -0.225985 -1.374187
    16 11.139763 0.000000 0.000000 0.000000 0.000000 -1.619047
    17 10.314597 0.000001 0.000000 -0.695012 -0.010306 0.140724
    18 2.975834 -0.386307 -0.044143 -0.017432 -0.039992 0.392972
    19 1.438886 0.000000 0.000000 0.000000 0.000000 0.270702
    20 1.485303 0.000000 0.000000 0.000000 0.000000 0.375250
    21 -3.014434 -1.037911 -4.140396 -0.000013 1.370795 3.455176
    22 4.972048 0.000000 0.000001 0.776474 0.000483 -1.045297
    23 11.585355 0.000000 0.000000 0.000000 0.000000 -2.068268
    24 10.127057 0.000000 0.000001 1.980376 -0.285848 1.184258
    25 2.683750 -0.427338 0.044205 0.001045 0.043611 0.000046
    26 1.438885 -0.000001 0.000000 0.000000 0.000000 0.767762
    27 1.485305 0.000001 0.000000 0.000000 0.000000 1.221689
    28 1.038631 0.548043 -0.144017 -0.000001 0.000001 -1.849906
    29 -0.064003 -0.023521 0.026161 0.000000 0.000000 0.000000
    30 3.013925 3.984634 -0.088975 -0.000001 0.000001 -1.849906
    31 -0.084188 -0.025627 -0.001098 0.000000 0.000000 0.000000
    32 4.778187 3.972486 -0.079803 -0.000001 0.000001 -1.849906
    33 -0.058556 -0.021324 0.004244 0.000000 0.000000 0.000000
    34 1.640598 -1.968779 -0.099219 -0.000001 0.000001 -1.849906
    35 0.055573 -0.028908 0.000000 0.000000 0.000000 0.000000
    36 1.646738 0.449549 -1.702246 0.449790 0.128753 1.240204
    37 0.928312 0.000000 -0.000002 0.000000 0.000000 0.000000
    38 0.928314 0.000000 0.000001 0.000000 0.000000 0.000000
    39 1.533672 0.109715 1.664491 -0.733354 -0.285116 1.223813
    40 0.928313 0.000000 0.000000 0.000000 0.000000 0.000000
    41 0.928314 0.000000 0.000001 0.000000 0.000000 0.000000
  time 1
    0 0.235347 0.367732 -14.393495 -0.045585 0.257873 -1.742273
    1 0.000000 0.000000 0.000000 -1.570795 -1.570796 0.000000
    2 -0.000005 0.000007 3.713255 2.914525 6.061903 1.331528
    3 18.045721 0.000000 0.000000 0.000000 0.000000 -1.349242
    4 17.597597 0.000000 0.000000 -0.205057 0.225938 -0.216505
    5 0.000005 -0.000003 -3.713255 -0.067002 -3.740518 -0.837425
    6 18.045725 0.000000 0.000000 0.000000 0.000000 -2.074647
    7 17.597597 0.000000 0.000000 -0.092081 0.087821 0.559948
    8 1.293670 0.684478 -0.000001 -0.000004 -0.000001 0.271132
    9 5.309685 -0.003834 0.000000 -0.032981 0.011373 0.331209
    10 4.826790 -0.004591 0.000000 -0.028440 0.179433 0.169371
    11 5.792767 -0.005304 0.000000 0.050325 0.085366 0.039162
    12 6.662317 -0.001453 0.000000 0.000000 -0.000001 -0.314374
    13 2.046985 -0.000002 0.000000 0.310929 -0.196105 -0.793628
    14 -3.272185 -1.123452 4.341911 1.923488 -1.393569 1.526584
    15 4.827230 0.000000 0.000001 -0.851326 -0.219858 -1.376638
    16 11.139763 0.000000 0.000000 0.000000 0.000000 -1.619047
    17 10.314597 0.000001 0.000000 -0.694923 -0.005762 0.136944
    18 2.975834 -0.386307 -0.044143 -0.017432 -0.045876 0.393071
    19 1.438886 0.000000 0.000000 0.000000 0.000000 0.270702
    20 1.485303 0.000000 0.000000 0.000000 0.000000 0.375250
    21 -3.014434 -1.037911 -4.140396 -0.679562 1.315878 2.791542
    22 4.972048 0.000000 0.000001 0.841916 0.376545 -0.960849
    23 11.585355 0.000000 0.000000 0.000000 0.000000 -1.618586
    24 10.127057 0.000000 0.000001 2.511715 -0.285685 0.758584
    25 2.683750 -0.427338 0.044205 -0.006134 0.043192 -0.165168
    26 1.438885 -0.000001 0.000000 0.000000 0.000000 0.523101
    27 1.485305 0.000001 0.000000 0.000000 0.000000 0.773652
    28 1.038631 0.548043 -0.144017 -0.000001 0.000001 -1.849906
    29 -0.064003 -0.023521 0.026161 0.000000 0.000000 0.000000
    30 3.013925 3.984634 -0.088975 -0.000001 0.000001 -1.849906
    31 -0.084188 -0.025627 -0.001098 0.000000 0.000000 0.000000
    32 4.778187 3.972486 -0.079803 -0.000001 0.000001 -1.849906
    33 -0.058556 -0.021324 0.004244 0.000000 0.000000 0.000000
    34 1.640598 -1.968779 -0.099219 -0.000001 0.000001 -1.849906
    35 0.055573 -0.028908 0.000000 0.000000 0.000000 0.000000
    36 1.646738 0.449549 -1.702246 0.449457 0.123438 1.237618
    37 0.928312 0.000000 -0.000002 0.000000 0.000000 0.000000
    38 0.928314 0.000000 0.000001 0.000000 0.000000 0.000000
    39 1.533672 0.109715 1.664491 -0.733354 -0.285116 1.223813
    40 0.928313 0.000000 0.000000 0.000000 0.000000 0.000000
    41 0.928314 0.000000 0.000001 0.000000 0.000000 0.000000
  time 2
    0 0.235347 0.367732 -14.393495 -0.045585 0.257873 -1.742273
    1 0.000000 0.000000 0.000000 -1.570795 -1.570796 0.000000
    2 -0.000005 0.000007 3.713255 2.914525 6.061903 1.331528
    3 18.045721 0.000000 0.000000 0.000000 0.000000 -1.349242
    4 17.597597 0.000000 0.000000 -0.205057 0.225938 -0.216505
    5 0.000005 -0.000003 -3.713255 -0.067002 -3.740518 -0.837425
    6 18.045725 0.000000 0.000000 0.000000 0.000000 -2.074647
    7 17.597597 0.000000 0.000000 -0.092081 0.087821 0.559948
    8 1.293670 0.684478 -0.000001 -0.000004 -0.000001 0.271132
    9 5.309685 -0.003834 0.000000 -0.032981 0.011373 0.331209
    10 4.826790 -0.004591 0.000000 0.124809 0.151437 0.194661
    11 5.792767 -0.005304 0.000000 0.116420 0.082550 0.044726
    12 6.662317 -0.001453 0.000000 0.000000 -0.000001 -0.314374
    13 2.046985 -0.000002 0.000000 0.184266 -0.371272 -0.805135
    14 -3.272185 -1.123452 4.341911 1.923488 -1.393569 1.526584
    15 4.827230 0.000000 0.000001 -1.049738 -0.167691 -1.386877
    16 11.139763 0.000000 0.000000 0.000000 0.000000 -1.619047
    17 10.314597 0.000001 0.000000 -0.694923 0.000152 0.131966
    18 2.975834 -0.386307 -0.044143 -0.017432 -0.053630 0.393236
    19 1.438886 0.000000 0.000000 0.000000 0.000000 0.270702
    20 1.485303 0.000000 0.000000 0.000000 0.000000 0.375250
    21 -3.014434 -1.037911 -4.140396 -1.095652 1.153670 2.396928
    22 4.972048 0.000000 0.000001 0.792099 0.858306 -0.850512
    23 11.585355 0.000000 0.000000 0.000000 0.000000 -1.036614
    24 10.127057 0.000000 0.000001 3.120579 0.007824 0.306158
    25 2.683750 -0.427338 0.044205 -0.015302 0.040855 -0.382491
    26 1.438885 -0.000001 0.000000 0.000000 0.000000 0.201279
    27 1.485305 0.000001 0.000000 0.000000 0.000000 0.184283
    28 1.038631 0.548043 -0.144017 -0.000001 0.000001 -1.849906
    29 -0.064003 -0.023521 0.026161 0.000000 0.000000 0.000000
    30 3.013925 3.984634 -0.088975 -0.000001 0.000001 -1.849906
    31 -0.084188 -0.025627 -0.001098 0.000000 0.000000 0.000000
    32 4.778187 3.972486 -0.079803 -0.000001 0.000001 -1.849906
    33 -0.058556 -0.021324 0.004244 0.000000 0.000000 0.000000
    34 1.640598 -1.968779 -0.099219 -0.000001 0.000001 -1.849906
    35 0.055573 -0.028908 0.000000 0.000000 0.000000 0.000000
    36 1.646738 0.449549 -1.702246 0.449057 0.116459 1.234209
    37 0.928312 0.000000 -0.000002 0.000000 0.000000 0.000000
    38 0.928314 0.000000 0.000001 0.000000 0.000000 0.000000
    39 1.533672 0.109715 1.664491 -0.733354 -0.285116 1.223813
    40 0.928313 0.000000 0.000000 0.000000 0.000000 0.000000
    41 0.928314 0.000000 0.000001 0.000000 0.000000 0.000000
  time 3
    0 0.235347 0.367732 -14.393495 -0.045585 0.257873 -1.742273
    1 0.000000 0.000000 0.000000 -1.570795 -1.570796 0.000000
    2 -0.000005 0.000007 3.713255 2.914525 6.061903 1.331528
    3 18.045721 0.000000 0.000000 0.000000 0.000000 -1.349242
    4 17.597597 0.000000 0.000000 -0.205057 0.225938 -0.216505
    5 0.000005 -0.000003 -3.713255 -0.067002 -3.740518 -0.837425
    6 18.045725 0.000000 0.000000 0.000000 0.000000 -2.074647
    7 17.597597 0.000000 0.000000 -0.092081 0.087821 0.559948
    8 1.293670 0.684478 -0.000001 -0.000004 -0.000001 0.271132
    9 5.309685 -0.003834 0.000000 -0.032981 0.011373 0.331209
    10 4.826790 -0.004591 0.000000 0.182262 0.139920 0.202996
    11 5.792767 -0.005304 0.000000 0.148741 0.081040 0.047363
    12 6.662317 -0.001453 0.000000 0.000000 -0.000001 -0.314374
    13 2.046985 -0.000002 0.000000 0.131360 -0.444220 -0.802977
    14 -3.272185 -1.123452 4.341911 1.923488 -1.393569 1.526584
    15 4.827230 0.000000 0.000001 -1.163980 -0.081229 -1.366136
    16 11.139763 0.000000 0.000000 0.000000 0.000000 -1.619047
    17 10.314597 0.000001 0.000000 -0.694923 0.003066 0.129539
    18 2.975834 -0.386307 -0.044143 -0.017444 -0.057417 0.393302
    19 1.438886 0.000000 0.000000 0.000000 0.000000 0.270702
    20 1.485303 0.000000 0.000000 0.000000 0.000000 0.375250
    21 -3.014434 -1.037911 -4.140396 -1.198811 1.062066 2.304602
    22 4.972048 0.000000 0.000001 0.720546 0.999399 -0.791359
    23 11.585355 0.000000 0.000000 0.000000 0.000000 -0.795613
    24 10.127057 0.000000 0.000001 3.364877 0.229729 0.162280
    25 2.683750 -0.427338 0.044205 -0.019545 0.039009 -0.488790
    26 1.438885 -0.000001 0.000000 0.000000 0.000000 0.043861
    27 1.485305 0.000001 0.000000 0.000000 0.000000 -0.104020
    28 1.038631 0.548043 -0.144017 -0.000001 0.000001 -1.849906
    29 -0.064003 -0.023521 0.026161 0.000000 0.000000 0.000000
    30 3.013925 3.984634 -0.088975 -0.000001 0.000001 -1.849906
    31 -0.084188 -0.025627 -0.001098 0.000000 0.000000 0.000000
    32 4.778187 3.972486 -0.079803 -0.000001 0.000001 -1.849906
    33 -0.058556 -0.021324 0.004244 0.000000 0.000000 0.000000
    34 1.640598 -1.968779 -0.099219 -0.000001 0.000001 -1.849906
    35 0.055573 -0.028908 0.000000 0.000000 0.000000 0.000000
    36 1.646738 0.449549 -1.702246 0.448874 0.113031 1.232563
    37 0.928312 0.000000 -0.000002 0.000000 0.000000 0.000000
    38 0.928314 0.000000 0.000001 0.000000 0.000000 0.000000
    39 1.533672 0.109715 1.664491 -0.733354 -0.285116 1.223813
    40 0.928313 0.000000 0.000000 0.000000 0.000000 0.000000
    41 0.928314 0.000000 0.000001 0.000000 0.000000 0.000000
  time 4
    0 0.235347 0.367732 -14.393495 -0.045585 0.257873 -1.742273
    1 0.000000 0.000000 0.000000 -1.570795 -1.570796 0.000000
    2 -0.000005 0.000007 3.713255 2.914525 6.061903 1.331528
    3 18.045721 0.000000 0.000000 0.000000 0.000000 -1.349242
    4 17.597597 0.000000 0.000000 -0.205057 0.225938 -0.216505
    5 0.000005 -0.000003 -3.713255 -0.067002 -3.740518 -0.837425
    6 18.045725 0.000000 0.000000 0.000000 0.000000 -2.074647
    7 17.597597 0.000000 0.000000 -0.092081 0.087821 0.559948
    8 1.293670 0.684478 -0.000001 -0.000004 -0.000001 0.271132
    9 5.309685 -0.003834 0.000000 -0.032981 0.011373 0.331209
    10 4.826790 -0.004591 0.000000 0.140014 0.146428 0.210801
    11 5.792767 -0.005304 0.000000 0.146850 0.077540 0.071448
    12 6.662317 -0.001453 0.000000 0.000000 -0.000001 -0.314374
    13 2.046985 -0.000002 0.000000 0.163672 -0.406035 -0.842172
    14 -3.272185 -1.123452 4.341911 1.923488 -1.393569 1.526584
    15 4.827230 0.000000 0.000001 -1.213847 -0.012808 -1.283176
    16 11.139763 0.000000 0.000000 0.000000 0.000000 -1.631311
    17 10.314597 0.000001 0.000000 -0.694923 0.002913 0.129664
    18 2.975834 -0.386307 -0.044143 -0.017444 -0.057225 0.393269
    19 1.438886 0.000000 0.000000 0.000000 0.000000 0.270702
    20 1.485303 0.000000 0.000000 0.000000 0.000000 0.375250
    21 -3.014434 -1.037911 -4.140396 -1.194305 1.066899 2.308533
    22 4.972048 0.000000 0.000001 0.814610 0.832726 -0.673315
    23 11.585355 0.000000 0.000000 0.000000 0.000000 -0.908034
    24 10.127057 0.000000 0.000001 3.352710 0.217411 0.168477
    25 2.683750 -0.427338 0.044205 -0.019329 0.039117 -0.483274
    26 1.438885 -0.000001 0.000000 0.000000 0.000000 0.052013
    27 1.485305 0.000001 0.000000 0.000000 0.000000 -0.089067
    28 1.038631 0.548043 -0.144017 -0.000001 0.000001 -1.849906
    29 -0.064003 -0.023521 0.026161 0.000000 0.000000 0.000000
    30 3.013925 3.984634 -0.088975 -0.000001 0.000001 -1.849906
    31 -0.084188 -0.025627 -0.001098 0.000000 0.000000 0.000000
    32 4.778187 3.972486 -0.079803 -0.000001 0.000001 -1.849906
    33 -0.058556 -0.021324 0.004244 0.000000 0.000000 0.000000
    34 1.640598 -1.968779 -0.099219 -0.000001 0.000001 -1.849906
    35 0.055573 -0.028908 0.000000 0.000000 0.000000 0.000000
    36 1.646738 0.449549 -1.702246 0.448874 0.113213 1.232651
    37 0.928312 0.000000 -0.000002 0.000000 0.000000 0.000000
    38 0.928314 0.000000 0.000001 0.000000 0.000000 0.000000
    39 1.533672 0.109715 1.664491 -0.733354 -0.285116 1.223813
    40 0.928313 0.000000 0.000000 0.000000 0.000000 0.000000
    41 0.928314 0.000000 0.000001 0.000000 0.000000 0.000000
  time 5
    0 0.235347 0.367732 -14.393495 -0.045585 0.257873 -1.742273
    1 0.000000 0.000000 0.000000 -1.570795 -1.570796 0.000000
    2 -0.000005 0.000007 3.713255 2.914525 6.061903 1.331528
    3 18.045721 0.000000 0.000000 0.000000 0.000000 -1.349242
    4 17.597597 0.000000 0.000000 -0.205057 0.225938 -0.216505
    5 0.000005 -0.000003 -3.713255 -0.067002 -3.740518 -0.837425
    6 18.045725 0.000000 0.000000 0.000000 0.000000 -2.074647
    7 17.597597 0.000000 0.000000 -0.092081 0.087821 0.559948
    8 1.293670 0.684478 -0.000001 -0.000004 -0.000001 0.271132
    9 5.309685 -0.003834 0.000000 -0.032981 0.011373 0.331209
    10 4.826790 -0.004591 0.000000 0.059835 0.161840 0.216423
    11 5.792767 -0.005304 0.000000 0.132548 0.074388 0.101616
    12 6.662317 -0.001453 0.000000 0.000000 -0.000001 -0.314374
    13 2.046985 -0.000002 0.000000 0.225970 -0.326129 -0.889546
    14 -3.272185 -1.123452 4.341911 1.923488 -1.393569 1.526584
    15 4.827230 0.000000 0.000001 -1.249794 0.058507 -1.175887
    16 11.139763 0.000000 0.000000 0.000000 0.000000 -1.647078
    17 10.314597 0.000001 0.000000 -0.694923 0.001652 0.130706
    18 2.975834 -0.386307 -0.044143 -0.017444 -0.055584 0.393269
    19 1.438886 0.000000 0.000000 0.000000 0.000000 0.270702
    20 1.485303 0.000000 0.000000 0.000000 0.000000 0.375250
    21 -3.014434 -1.037911 -4.140396 -1.153655 1.106893 2.344486
    22 4.972048 0.000000 0.000001 0.862956 0.532520 -0.614821
    23 11.585355 0.000000 0.000000 0.000000 0.000000 -1.153652
    24 10.127057 0.000000 0.000001 3.249958 0.118059 0.225511
    25 2.683750 -0.427338 0.044205 -0.017519 0.039956 -0.437391
    26 1.438885 -0.000001 0.000000 0.000000 0.000000 0.119991
    27 1.485305 0.000001 0.000000 0.000000 0.000000 0.035403
    28 1.038631 0.548043 -0.144017 -0.000001 0.000001 -1.849906
    29 -0.064003 -0.023521 0.026161 0.000000 0.000000 0.000000
    30 3.013925 3.984634 -0.088975 -0.000001 0.000001 -1.849906
    31 -0.084188 -0.025627 -0.001098 0.000000 0.000000 0.000000
    32 4.778187 3.972486 -0.079803 -0.000001 0.000001 -1.849906
    33 -0.058556 -0.021324 0.004244 0.000000 0.000000 0.000000
    34 1.640598 -1.968779 -0.099219 -0.000001 0.000001 -1.849906
    35 0.055573 -0.028908 0.000000 0.000000 0.000000 0.000000
    36 1.646738 0.449549 -1.702246 0.448957 0.114694 1.233356
    37 0.928312 0.000000 -0.000002 0.000000 0.000000 0.000000
    38 0.928314 0.000000 0.000001 0.000000 0.000000 0.000000
    39 1.533672 0.109715 1.664491 -0.733354 -0.285116 1.223813
    40 0.928313 0.000000 0.000000 0.000000 0.000000 0.000000
    41 0.928314 0.000000 0.000001 0.000000 0.000000 0.000000
  time 6
    0 0.235347 0.367732 -14.393495 -0.045585 0.257873 -1.742273
    1 0.000000 0.000000 0.000000 -1.570795 -1.570796 0.000000
    2 -0.000005 0.000007 3.713255 2.914525 6.061903 1.331528
    3 18.045721 0.000000 0.000000 0.000000 0.000000 -1.349242
    4 17.597597 0.000000 0.000000 -0.205057 0.225938 -0.216505
    5 0.000005 -0.000003 -3.713255 -0.067002 -3.740518 -0.837425
    6 18.045725 0.000000 0.000000 0.000000 0.000000 -2.074647
    7 17.597597 0.000000 0.000000 -0.092081 0.087821 0.559948
    8 1.293670 0.684478 -0.000001 -0.000004 -0.000001 0.271132
    9 5.309685 -0.003834 0.000000 -0.032981 0.011373 0.331209
    10 4.826790 -0.004591 0.000000 -0.028390 0.180859 0.218628
    11 5.792767 -0.005304 0.000000 0.113599 0.072866 0.130165
    12 6.662317 -0.001453 0.000000 0.000000 -0.000001 -0.314374
    13 2.046985 -0.000002 0.000000 0.293524 -0.236047 -0.928741
    14 -3.272185 -1.123452 4.341911 1.923488 -1.393569 1.526584
    15 4.827230 0.000000 0.000001 -1.275755 0.121311 -1.075074
    16 11.139763 0.000000 0.000000 0.000000 0.000000 -1.662146
    17 10.314597 0.000001 0.000000 -0.694923 0.000000 0.132122
    18 2.975834 -0.386307 -0.044143 -0.017432 -0.053402 0.393203
    19 1.438886 0.000000 0.000000 0.000000 0.000000 0.270702
    20 1.485303 0.000000 0.000000 0.000000 0.000000 0.375250
    21 -3.014434 -1.037911 -4.140396 -1.088078 1.159068 2.403927
    22 4.972048 0.000000 0.000001 0.839054 0.213330 -0.598023
    23 11.585355 0.000000 0.000000 0.000000 0.000000 -1.434039
    24 10.127057 0.000000 0.000001 3.104909 -0.004359 0.316514
    25 2.683750 -0.427338 0.044205 -0.015038 0.040950 -0.376066
    26 1.438885 -0.000001 0.000000 0.000000 0.000000 0.210828
    27 1.485305 0.000001 0.000000 0.000000 0.000000 0.201705
    28 1.038631 0.548043 -0.144017 -0.000001 0.000001 -1.849906
    29 -0.064003 -0.023521 0.026161 0.000000 0.000000 0.000000
    30 3.013925 3.984634 -0.088975 -0.000001 0.000001 -1.849906
    31 -0.084188 -0.025627 -0.001098 0.000000 0.000000 0.000000
    32 4.778187 3.972486 -0.079803 -0.000001 0.000001 -1.849906
    33 -0.058556 -0.021324 0.004244 0.000000 0.000000 0.000000
    34 1.640598 -1.968779 -0.099219 -0.000001 0.000001 -1.849906
    35 0.055573 -0.028908 0.000000 0.000000 0.000000 0.000000
    36 1.646738 0.449549 -1.702246 0.449074 0.116662 1.234326
    37 0.928312 0.000000 -0.000002 0.000000 0.000000 0.000000
    38 0.928314 0.000000 0.000001 0.000000 0.000000 0.000000
    39 1.533672 0.109715 1.664491 -0.733354 -0.285116 1.223813
    40 0.928313 0.000000 0.000000 0.000000 0.000000 0.000000
    41 0.928314 0.000000 0.000001 0.000000 0.000000 0.000000
  time 7
    0 0.235347 0.367732 -14.393495 -0.045585 0.257873 -1.742273
    1 0.000000 0.000000 0.000000 -1.570795 -1.570796 0.000000
    2 -0.000005 0.000007 3.713255 2.914525 6.061903 1.331528
    3 18.045721 0.000000 0.000000 0.000000 0.000000 -1.349242
    4 17.597597 0.000000 0.000000 -0.205057 0.225938 -0.216505
    5 0.000005 -0.000003 -3.713255 -0.067002 -3.740518 -0.837425
    6 18.045725 0.000000 0.000000 0.000000 0.000000 -2.074647
    7 17.597597 0.000000 0.000000 -0.092081 0.087821 0.559948
    8 1.293670 0.684478 -0.000001 -0.000004 -0.000001 0.271132
    9 5.309685 -0.003834 0.000000 -0.032981 0.011373 0.331209
    10 4.826790 -0.004591 0.000000 -0.111492 0.200011 0.216864
    11 5.792767 -0.005304 0.000000 0.093116 0.073226 0.153046
    12 6.662317 -0.001453 0.000000 0.000000 -0.000001 -0.314374
    13 2.046985 -0.000002 0.000000 0.357028 -0.149950 -0.954316
    14 -3.272185 -1.123452 4.341911 1.923488 -1.393569 1.526584
    15 4.827230 0.000000 0.000001 -1.288031 0.166840 -0.993164
    16 11.139763 0.000000 0.000000 0.000000 0.000000 -1.674410
    17 10.314597 0.000001 0.000000 -0.694923 -0.001826 0.133646
    18 2.975834 -0.386307 -0.044143 -0.017432 -0.051017 0.393170
    19 1.438886 0.000000 0.000000 0.000000 0.000000 0.270702
    20 1.485303 0.000000 0.000000 0.000000 0.000000 0.375250
    21 -3.014434 -1.037911 -4.140396 -0.996615 1.213618 2.488775
    22 4.972048 0.000000 0.000001 0.765567 -0.066685 -0.580040
    23 11.585355 0.000000 0.000000 0.000000 0.000000 -1.705962
    24 10.127057 0.000000 0.000001 2.933677 -0.120522 0.435484
    25 2.683750 -0.427338 0.044205 -0.012270 0.041873 -0.309240
    26 1.438885 -0.000001 0.000000 0.000000 0.000000 0.309784
    27 1.485305 0.000001 0.000000 0.000000 0.000000 0.382960
    28 1.038631 0.548043 -0.144017 -0.000001 0.000001 -1.849906
    29 -0.064003 -0.023521 0.026161 0.000000 0.000000 0.000000
    30 3.013925 3.984634 -0.088975 -0.000001 0.000001 -1.849906
    31 -0.084188 -0.025627 -0.001098 0.000000 0.000000 0.000000
    32 4.778187 3.972486 -0.079803 -0.000001 0.000001 -1.849906
    33 -0.058556 -0.021324 0.004244 0.000000 0.000000 0.000000
    34 1.640598 -1.968779 -0.099219 -0.000001 0.000001 -1.849906
    35 0.055573 -0.028908 0.000000 0.000000 0.000000 0.000000
    36 1.646738 0.449549 -1.702246 0.449190 0.118813 1.235355
    37 0.928312 0.000000 -0.000002 0.000000 0.000000 0.000000
    38 0.928314 0.000000 0.000001 0.000000 0.000000 0.000000
    39 1.533672 0.109715 1.664491 -0.733354 -0.285116 1.223813
    40 0.928313 0.000000 0.000000 0.000000 0.000000 0.000000
    41 0.928314 0.000000 0.000001 0.000000 0.000000 0.000000
  time 8
    0 0.235347 0.367732 -14.393495 -0.045585 0.257873 -1.742273
    1 0.000000 0.000000 0.000000 -1.570795 -1.570796 0.000000
    2 -0.000005 0.000007 3.713255 2.914525 6.061903 1.331528
    3 18.045721 0.000000 0.000000 0.000000 0.000000 -1.349242
    4 17.597597 0.000000 0.000000 -0.205057 0.225938 -0.216505
    5 0.000005 -0.000003 -3.713255 -0.067002 -3.740518 -0.837425
    6 18.045725 0.000000 0.000000 0.000000 0.000000 -2.074647
    7 17.597597 0.000000 0.000000 -0.092081 0.087821 0.559948
    8 1.293670 0.684478 -0.000001 -0.000004 -0.000001 0.271132
    9 5.309685 -0.003834 0.000000 -0.032981 0.011373 0.331209
    10 4.826790 -0.004591 0.000000 -0.171491 0.213769 0.210977
    11 5.792767 -0.005304 0.000000 0.074167 0.075275 0.162970
    12 6.662317 -0.001453 0.000000 0.000000 -0.000001 -0.314374
    13 2.046985 -0.000002 0.000000 0.403989 -0.085805 -0.959665
    14 -3.272185 -1.123452 4.341911 1.923488 -1.393569 1.526584
    15 4.827230 0.000000 0.000001 -1.271056 0.174158 -0.947833
    16 11.139763 0.000000 0.000000 0.000000 0.000000 -1.680086
    17 10.314597 0.000001 0.000000 -0.694923 -0.003544 0.135077
    18 2.975834 -0.386307 -0.044143 -0.017432 -0.048776 0.393137
    19 1.438886 0.000000 0.000000 0.000000 0.000000 0.270702
    20 1.485303 0.000000 0.000000 0.000000 0.000000 0.375250
    21 -3.014434 -1.037911 -4.140396 -0.883868 1.261385 2.595194
    22 4.972048 0.000000 0.000001 0.682333 -0.243575 -0.566009
    23 11.585355 0.000000 0.000000 0.000000 0.000000 -1.914363
    24 10.127057 0.000000 0.000001 2.759006 -0.208559 0.565517
    25 2.683750 -0.427338 0.044205 -0.009633 0.042556 -0.246660
    26 1.438885 -0.000001 0.000000 0.000000 0.000000 0.402418
    27 1.485305 0.000001 0.000000 0.000000 0.000000 0.552662
    28 1.038631 0.548043 -0.144017 -0.000001 0.000001 -1.849906
    29 -0.064003 -0.023521 0.026161 0.000000 0.000000 0.000000
    30 3.013925 3.984634 -0.088975 -0.000001 0.000001 -1.849906
    31 -0.084188 -0.025627 -0.001098 0.000000 0.000000 0.000000
    32 4.778187 3.972486 -0.079803 -0.000001 0.000001 -1.849906
    33 -0.058556 -0.021324 0.004244 0.000000 0.000000 0.000000
    34 1.640598 -1.968779 -0.099219 -0.000001 0.000001 -1.849906
    35 0.055573 -0.028908 0.000000 0.000000 0.000000 0.000000
    36 1.646738 0.449549 -1.702246 0.449307 0.120821 1.236325
    37 0.928312 0.000000 -0.000002 0.000000 0.000000 0.000000
    38 0.928314 0.000000 0.000001 0.000000 0.000000 0.000000
    39 1.533672 0.109715 1.664491 -0.733354 -0.285116 1.223813
    40 0.928313 0.000000 0.000000 0.000000 0.000000 0.000000
    41 0.928314 0.000000 0.000001 0.000000 0.000000 0.000000
  time 9
    0 0.235347 0.367732 -14.393495 -0.045585 0.257873 -1.742273
    1 0.000000 0.000000 0.000000 -1.570795 -1.570796 0.000000
    2 -0.000005 0.000007 3.713255 2.914525 6.061903 1.331528
    3 18.045721 0.000000 0.000000 0.000000 0.000000 -1.349242
    4 17.597597 0.000000 0.000000 -0.205057 0.225938 -0.216505
    5 0.000005 -0.000003 -3.713255 -0.067002 -3.740518 -0.837425
    6 18.045725 0.000000 0.000000 0.000000 0.000000 -2.074647
    7 17.597597 0.000000 0.000000 -0.092081 0.087821 0.559948
    8 1.293670 0.684478 -0.000001 -0.000004 -0.000001 0.271132
    9 5.309685 -0.003834 0.000000 -0.032981 0.011373 0.331209
    10 4.826790 -0.004591 0.000000 -0.191589 0.216322 0.198498
    11 5.792767 -0.005304 0.000000 0.056049 0.079110 0.146547
    12 6.662317 -0.001453 0.000000 0.000000 -0.000001 -0.314374
    13 2.046985 -0.000002 0.000000 0.422730 -0.057773 -0.931213
    14 -3.272185 -1.123452 4.341911 1.923488 -1.393569 1.526584
    15 4.827230 0.000000 0.000001 -1.184537 0.104801 -0.970411
    16 11.139763 0.000000 0.000000 0.000000 0.000000 -1.673288
    17 10.314597 0.000001 0.000000 -0.694923 -0.005196 0.136462
    18 2.975834 -0.386307 -0.044143 -0.017432 -0.046607 0.393104
    19 1.438886 0.000000 0.000000 0.000000 0.000000 0.270702
    20 1.485303 0.000000 0.000000 0.000000 0.000000 0.375250
    21 -3.014434 -1.037911 -4.140396 -0.739003 1.303131 2.734114
    22 4.972048 0.000000 0.000001 0.658508 -0.273740 -0.625360
    23 11.585355 0.000000 0.000000 0.000000 0.000000 -2.018039
    24 10.127057 0.000000 0.000001 2.576372 -0.270552 0.707395
    25 2.683750 -0.427338 0.044205 -0.007021 0.043060 -0.185863
    26 1.438885 -0.000001 0.000000 0.000000 0.000000 0.492456
    27 1.485305 0.000001 0.000000 0.000000 0.000000 0.717566
    28 1.038631 0.548043 -0.144017 -0.000001 0.000001 -1.849906
    29 -0.064003 -0.023521 0.026161 0.000000 0.000000 0.000000
    30 3.013925 3.984634 -0.088975 -0.000001 0.000001 -1.849906
    31 -0.084188 -0.025627 -0.001098 0.000000 0.000000 0.000000
    32 4.778187 3.972486 -0.079803 -0.000001 0.000001 -1.849906
    33 -0.058556 -0.021324 0.004244 0.000000 0.000000 0.000000
    34 1.640598 -1.968779 -0.099219 -0.000001 0.000001 -1.849906
    35 0.055573 -0.028908 0.000000 0.000000 0.000000 0.000000
    36 1.646738 0.449549 -1.702246 0.449424 0.122769 1.237294
    37 0.928312 0.000000 -0.000002 0.000000 0.000000 0.000000
    38 0.928314 0.000000 0.000001 0.000000 0.000000 0.000000
    39 1.533672 0.109715 1.664491 -0.733354 -0.285116 1.223813
    40 0.928313 0.000000 0.000000 0.000000 0.000000 0.000000
    41 0.928314 0.000000 0.000001 0.000000 0.000000 0.000000
  time 10
    0 0.235347 0.367732 -14.393495 -0.045585 0.257873 -1.742273
    1 0.000000 0.000000 0.000000 -1.570795 -1.570796 0.000000
    2 -0.000005 0.000007 3.713255 2.914525 6.061903 1.331528
    3 18.045721 0.000000 0.000000 0.000000 0.000000 -1.349242
    4 17.597597 0.000000 0.000000 -0.205057 0.225938 -0.216505
    5 0.000005 -0.000003 -3.713255 -0.067002 -3.740518 -0.837425
    6 18.045725 0.000000 0.000000 0.000000 0.000000 -2.074647
    7 17.597597 0.000000 0.000000 -0.092081 0.087821 0.559948
    8 1.293670 0.684478 -0.000001 -0.000004 -0.000001 0.271132
    9 5.309685 -0.003834 0.000000 -0.032981 0.011373 0.331209
    10 4.826790 -0.004591 0.000000 -0.184791 0.211085 0.179602
    11 5.792767 -0.005304 0.000000 0.035502 0.083461 0.107783
    12 6.662317 -0.001453 0.000000 0.000000 -0.000001 -0.314374
    13 2.046985 -0.000002 0.000000 0.423376 -0.052302 -0.874399
    14 -3.272185 -1.123452 4.341911 1.923488 -1.393569 1.526584
    15 4.827230 0.000000 0.000001 -1.028710 -0.020977 -1.070524
    16 11.139763 0.000000 0.000000 0.000000 0.000000 -1.656049
    17 10.314597 0.000001 0.000000 -0.694923 -0.007088 0.138033
    18 2.975834 -0.386307 -0.044143 -0.017432 -0.044162 0.393071
    19 1.438886 0.000000 0.000000 0.000000 0.000000 0.270702
    20 1.485303 0.000000 0.000000 0.000000 0.000000 0.375250
    21 -3.014434 -1.037911 -4.140396 -0.518303 1.341542 2.948199
    22 4.972048 0.000000 0.000001 0.690223 -0.208181 -0.762770
    23 11.585355 0.000000 0.000000 0.000000 0.000000 -2.059314
    24 10.127057 0.000000 0.000001 2.358002 -0.308209 0.881438
    25 2.683750 -0.427338 0.044205 -0.004048 0.043443 -0.117055
    26 1.438885 -0.000001 0.000000 0.000000 0.000000 0.594340
    27 1.485305 0.000001 0.000000 0.000000 0.000000 0.904132
    28 1.038631 0.548043 -0.144017 -0.000001 0.000001 -1.849906
    29 -0.064003 -0.023521 0.026161 0.000000 0.000000 0.000000
    30 3.013925 3.984634 -0.088975 -0.000001 0.000001 -1.849906
    31 -0.084188 -0.025627 -0.001098 0.000000 0.000000 0.000000
    32 4.778187 3.972486 -0.079803 -0.000001 0.000001 -1.849906
    33 -0.058556 -0.021324 0.004244 0.000000 0.000000 0.000000
    34 1.640598 -1.968779 -0.099219 -0.000001 0.000001 -1.849906
    35 0.055573 -0.028908 0.000000 0.000000 0.000000 0.000000
    36 1.646738 0.449549 -1.702246 0.449557 0.124980 1.238352
    37 0.928312 0.000000 -0.000002 0.000000 0.000000 0.000000
    38 0.928314 0.000000 0.000001 0.000000 0.000000 0.000000
    39 1.533672 0.109715 1.664491 -0.733354 -0.285116 1.223813
    40 0.928313 0.000000 0.000000 0.000000 0.000000 0.000000
    41 0.928314 0.000000 0.000001 0.000000 0.000000 0.000000
  time 11
    0 0.235347 0.367732 -14.393495 -0.045585 0.257873 -1.742273
    1 0.000000 0.000000 0.000000 -1.570795 -1.570796 0.000000
    2 -0.000005 0.000007 3.713255 2.914525 6.061903 1.331528
    3 18.045721 0.000000 0.000000 0.000000 0.000000 -1.349242
    4 17.597597 0.000000 0.000000 -0.205057 0.225938 -0.216505
    5 0.000005 -0.000003 -3.713255 -0.067002 -3.740518 -0.837425
    6 18.045725 0.000000 0.000000 0.000000 0.000000 -2.074647
    7 17.597597 0.000000 0.000000 -0.092081 0.087821 0.559948
    8 1.293670 0.684478 -0.000001 -0.000004 -0.000001 0.271132
    9 5.309685 -0.003834 0.000000 -0.032981 0.011373 0.331209
    10 4.826790 -0.004591 0.000000 -0.163971 0.203235 0.159625
    11 5.792767 -0.005304 0.000000 0.015313 0.086301 0.062603
    12 6.662317 -0.001453 0.000000 0.000000 -0.000001 -0.314374
    13 2.046985 -0.000002 0.000000 0.414673 -0.059147 -0.810573
    14 -3.272185 -1.123452 4.341911 1.923488 -1.393569 1.526584
    15 4.827230 0.000000 0.000001 -0.843925 -0.146501 -1.232419
    16 11.139763 0.000000 0.000000 0.000000 0.000000 -1.634815
    17 10.314597 0.000001 0.000000 -0.695012 -0.008914 0.139573
    18 2.975834 -0.386307 -0.044143 -0.017432 -0.041777 0.393005
    19 1.438886 0.000000 0.000000 0.000000 0.000000 0.270702
    20 1.485303 0.000000 0.000000 0.000000 0.000000 0.375250
    21 -3.014434 -1.037911 -4.140396 -0.239025 1.365114 3.220958
    22 4.972048 0.000000 0.000001 0.741355 -0.092265 -0.925344
    23 11.585355 0.000000 0.000000 0.000000 0.000000 -2.063511
    24 10.127057 0.000000 0.000001 2.140969 -0.308831 1.055913
    25 2.683750 -0.427338 0.044205 -0.001136 0.043611 -0.050164
    26 1.438885 -0.000001 0.000000 0.000000 0.000000 0.693396
    27 1.485305 0.000001 0.000000 0.000000 0.000000 1.085526
    28 1.038631 0.548043 -0.144017 -0.000001 0.000001 -1.849906
    29 -0.064003 -0.023521 0.026161 0.000000 0.000000 0.000000
    30 3.013925 3.984634 -0.088975 -0.000001 0.000001 -1.849906
    31 -0.084188 -0.025627 -0.001098 0.000000 0.000000 0.000000
    32 4.778187 3.972486 -0.079803 -0.000001 0.000001 -1.849906
    33 -0.058556 -0.021324 0.004244 0.000000 0.000000 0.000000
    34 1.640598 -1.968779 -0.099219 -0.000001 0.000001 -1.849906
    35 0.055573 -0.028908 0.000000 0.000000 0.000000 0.000000
    36 1.646738 0.449549 -1.702246 0.449690 0.127130 1.239410
    37 0.928312 0.000000 -0.000002 0.000000 0.000000 0.000000
    38 0.928314 0.000000 0.000001 0.000000 0.000000 0.000000
    39 1.533672 0.109715 1.664491 -0.733354 -0.285116 1.223813
    40 0.928313 0.000000 0.000000 0.000000 0.000000 0.000000
    41 0.928314 0.000000 0.000001 0.000000 0.000000 0.000000
  time 12
    0 0.235347 0.367732 -14.393495 -0.045585 0.257873 -1.742273
    1 0.000000 0.000000 0.000000 -1.570795 -1.570796 0.000000
    2 -0.000005 0.000007 3.713255 2.914525 6.061903 1.331528
    3 18.045721 0.000000 0.000000 0.000000 0.000000 -1.349242
    4 17.597597 0.000000 0.000000 -0.205057 0.225938 -0.216505
    5 0.000005 -0.000003 -3.713255 -0.067002 -3.740518 -0.837425
    6 18.045725 0.000000 0.000000 0.000000 0.000000 -2.074647
    7 17.597597 0.000000 0.000000 -0.092081 0.087821 0.559948
    8 1.293670 0.684478 -0.000001 -0.000004 -0.000001 0.271132
    9 5.309685 -0.003834 0.000000 -0.032981 0.011373 0.331209
    10 4.826790 -0.004591 0.000000 -0.148782 0.198393 0.146749
    11 5.792767 -0.005304 0.000000 0.000065 0.087260 0.034843
    12 6.662317 -0.001453 0.000000 0.000000 -0.000001 -0.314374
    13 2.046985 -0.000002 0.000000 0.409331 -0.063019 -0.770929
    14 -3.272185 -1.123452 4.341911 1.923488 -1.393569 1.526584
    15 4.827230 0.000000 0.000001 -0.699669 -0.225985 -1.374187
    16 11.139763 0.000000 0.000000 0.000000 0.000000 -1.619047
    17 10.314597 0.000001 0.000000 -0.695012 -0.010306 0.140724
    18 2.975834 -0.386307 -0.044143 -0.017432 -0.039992 0.392972
    19 1.438886 0.000000 0.000000 0.000000 0.000000 0.270702
    20 1.485303 0.000000 0.000000 0.000000 0.000000 0.375250
    21 -3.014434 -1.037911 -4.140396 -0.000013 1.370795 3.455176
    22 4.972048 0.000000 0.000001 0.776474 0.000483 -1.045297
    23 11.585355 0.000000 0.000000 0.000000 0.000000 -2.068268
    24 10.127057 0.000000 0.000001 1.980376 -0.285848 1.184258
    25 2.683750 -0.427338 0.044205 0.001045 0.043611 0.000046
    26 1.438885 -0.000001 0.000000 0.000000 0.000000 0.767762
    27 1.485305 0.000001 0.000000 0.000000 0.000000 1.221689
    28 1.038631 0.548043 -0.144017 -0.000001 0.000001 -1.849906
    29 -0.064003 -0.023521 0.026161 0.000000 0.000000 0.000000
    30 3.013925 3.984634 -0.088975 -0.000001 0.000001 -1.849906
    31 -0.084188 -0.025627 -0.001098 0.000000 0.000000 0.000000
    32 4.778187 3.972486 -0.079803 -0.000001 0.000001 -1.849906
    33 -0.058556 -0.021324 0.004244 0.000000 0.000000 0.000000
    34 1.640598 -1.968779 -0.099219 -0.000001 0.000001 -1.849906
    35 0.055573 -0.028908 0.000000 0.000000 0.000000 0.000000
    36 1.646738 0.449549 -1.702246 0.449790 0.128753 1.240204
    37 0.928312 0.000000 -0.000002 0.000000 0.000000 0.000000
    38 0.928314 0.000000 0.000001 0.000000 0.000000 0.000000
    39 1.533672 0.109715 1.664491 -0.733354 -0.285116 1.223813
    40 0.928313 0.000000 0.000000 0.000000 0.000000 0.000000
    41 0.928314 0.000000 0.000001 0.000000 0.000000 0.000000
end
