version 1
nodes
  0 "Bip01" -1
  1 "Bip01 Pelvis" 0
  2 "Bip01 L Leg" 1
  3 "Bip01 L Leg1" 2
  4 "Bip01 L Foot" 3
  5 "Bip01 R Leg" 1
  6 "Bip01 R Leg1" 5
  7 "Bip01 R Foot" 6
  8 "Bip01 Spine" 1
  9 "Bip01 Spine1" 8
  10 "Bip01 Spine2" 9
  11 "Bip01 Spine3" 10
  12 "Bip01 Neck" 11
  13 "Bip01 Head" 12
  14 "Bip01 L Arm" 12
  15 "Bip01 L Arm1" 14
  16 "Bip01 L Arm2" 15
  17 "Bip01 L Hand" 16
  18 "Bip01 L Finger1" 17
  19 "Bip01 L Finger11" 18
  20 "Bip01 L Finger12" 19
  21 "Bip01 R Arm" 12
  22 "Bip01 R Arm1" 21
  23 "Bip01 R Arm2" 22
  24 "Bip01 R Hand" 23
  25 "Bip01 R Finger1" 24
  26 "Bip01 R Finger11" 25
  27 "Bip01 R Finger12" 26
  28 "Dummy08" 13
  29 "Bone02" 28
  30 "Dummy04" 13
  31 "Bone05" 30
  32 "Dummy03" 13
  33 "Bone07" 32
  34 "Dummy10" 13
  35 "Bone13" 34
  36 "Bip01 L Finger0" 17
  37 "Bip01 L Finger01" 36
  38 "Bip01 L Finger02" 37
  39 "Bip01 R Finger0" 24
  40 "Bip01 R Finger01" 39
  41 "Bip01 R Finger02" 40
end
skeleton
  time 0
    0 0.235347 0.367732 1.786686 0.000000 0.134627 -1.570874
    1 -1.875057 0.203131 0.000000 -1.570795 -1.570796 0.000000
    2 -0.000005 0.000007 3.713255 -0.044145 3.176127 -0.539496
    3 18.045721 0.000000 0.000000 0.000000 0.000000 -0.507174
    4 17.597597 0.000000 0.000000 -0.102694 -0.014324 0.101157
    5 0.000005 -0.000003 -3.713255 0.208321 -3.302766 -0.380029
    6 18.045725 0.000000 0.000000 0.000000 0.000000 -1.136271
    7 17.597597 0.000000 0.000000 -0.059827 0.039122 -0.004841
    8 1.293670 0.684478 -0.000001 -0.069775 0.000658 0.009504
    9 5.309685 -0.003834 0.000000 0.000000 0.000000 0.290953
    10 4.826790 -0.004591 0.000000 -0.077913 0.009528 0.120643
    11 5.792767 -0.005304 0.000000 0.000000 0.000000 0.185872
    12 6.662317 -0.001453 0.000000 0.000000 -0.000001 0.471000
    13 2.046985 -0.000002 0.000000 0.076645 -0.145064 0.175174
    14 -3.112024 1.517254 4.341911 -0.000014 -1.370797 2.669810
    15 4.827230 0.000000 0.000001 -0.849564 1.065844 -0.733255
    16 11.139763 0.000000 0.000000 0.000000 0.000000 -0.503306
    17 10.314597 0.000001 0.000000 -1.570000 0.000000 -0.069778
    18 2.975834 -0.386307 -0.044143 -0.000797 -0.043611 0.000035
    19 1.438886 0.000000 0.000000 0.000000 0.000000 0.793701
    20 1.485303 0.000000 0.000000 0.000000 0.000000 1.465302
    21 -2.869898 1.399663 -4.140396 -0.000013 1.370795 2.669783
    22 4.972048 0.000000 0.000001 1.203549 -1.081850 -0.921194
    23 11.585355 0.000000 0.000000 0.000000 0.000000 -1.290208
    24 10.127057 0.000000 0.000001 1.569752 0.000000 -0.069778
    25 2.683750 -0.427338 0.044205 0.001045 0.043611 0.000046
    26 1.438885 -0.000001 0.000000 0.000000 0.000000 0.331445
    27 1.485305 0.000001 0.000000 0.000000 0.000000 0.000000
    28 1.038631 0.548043 -0.144017 -0.000001 0.000001 -1.849906
    29 -0.064003 -0.023521 0.026161 0.000000 0.000000 0.000000
    30 3.013925 3.984634 -0.088975 -0.000001 0.000001 -1.849906
    31 -0.084188 -0.025627 -0.001098 0.000000 0.000000 0.000000
    32 4.778187 3.972486 -0.079803 -0.000001 0.000001 -1.849906
    33 -0.058556 -0.021324 0.004244 0.000000 0.000000 0.000000
    34 1.640598 -1.968779 -0.099219 -0.000001 0.000001 -1.849906
    35 0.055573 -0.028908 0.000000 0.000000 0.000000 0.000000
    36 1.646738 0.449549 -1.702246 0.154002 0.442277 0.277235
    37 0.928312 0.000000 -0.000002 0.000000 0.000000 0.000000
    38 0.928314 0.000000 0.000001 0.000000 0.000000 0.000000
    39 1.533672 0.109715 1.664491 -0.233255 -0.412980 0.435684
    40 0.928313 0.000000 0.000000 0.000000 0.000000 0.000000
    41 0.928314 0.000000 0.000001 0.000000 0.000000 0.000000
  time 1
    0 0.235347 0.203664 -2.463443 -0.157577 0.223993 -1.601467
    1 -1.875057 0.203131 0.000000 -1.570795 -1.570796 0.000000
    2 -0.000005 0.000007 3.713255 0.000041 3.109194 -0.850863
    3 18.045721 0.000000 0.000000 0.000000 0.000000 -1.235997
    4 17.597597 0.000000 0.000000 0.328000 0.016007 0.314776
    5 0.000005 -0.000003 -3.713255 0.185266 -3.453534 -0.475251
    6 18.045725 0.000000 0.000000 0.000000 0.000000 -1.136271
    7 17.597597 0.000000 0.000000 0.294721 0.078097 -0.206726
    8 1.293670 0.684478 -0.000001 -0.069775 0.000658 0.009504
    9 5.309685 -0.003834 0.000000 0.000000 0.000000 0.290953
    10 4.826790 -0.004591 0.000000 -0.077913 0.009528 0.120643
    11 5.792767 -0.005304 0.000000 0.000000 0.000000 0.185872
    12 6.662317 -0.001453 0.000000 0.000000 -0.000001 0.471000
    13 2.046985 -0.000002 0.000000 0.064883 0.099381 0.037635
    14 -3.112024 1.517254 4.341911 0.932735 -1.242744 1.763398
    15 4.827230 0.000000 0.000001 -0.433241 0.806712 -0.136604
    16 11.139763 0.000000 0.000000 0.000000 0.000000 -0.503306
    17 10.314597 0.000001 0.000000 -1.570000 0.000000 -0.069778
    18 2.975834 -0.386307 -0.044143 -0.000797 -0.043611 0.000035
    19 1.438886 0.000000 0.000000 0.000000 0.000000 0.793701
    20 1.485303 0.000000 0.000000 0.000000 0.000000 1.465302
    21 -2.869898 1.399663 -4.140396 -0.211893 1.366358 2.462218
    22 4.972048 0.000000 0.000001 0.929095 -0.803042 -0.859273
    23 11.585355 0.000000 0.000000 0.000000 0.000000 -1.290208
    24 10.127057 0.000000 0.000001 1.569752 0.000000 -0.069778
    25 2.683750 -0.427338 0.044205 0.001045 0.043611 0.000046
    26 1.438885 -0.000001 0.000000 0.000000 0.000000 0.331445
    27 1.485305 0.000001 0.000000 0.000000 0.000000 0.000000
    28 1.038631 0.548043 -0.144017 -0.000001 0.000001 -1.849906
    29 -0.064003 -0.023521 0.026161 0.000000 0.000000 0.000000
    30 3.013925 3.984634 -0.088975 -0.000001 0.000001 -1.849906
    31 -0.084188 -0.025627 -0.001098 0.000000 0.000000 0.000000
    32 4.778187 3.972486 -0.079803 -0.000001 0.000001 -1.849906
    33 -0.058556 -0.021324 0.004244 0.000000 0.000000 0.000000
    34 1.640598 -1.968779 -0.099219 -0.000001 0.000001 -1.849906
    35 0.055573 -0.028908 0.000000 0.000000 0.000000 0.000000
    36 1.646738 0.449549 -1.702246 0.154002 0.442277 0.277235
    37 0.928312 0.000000 -0.000002 0.000000 0.000000 0.000000
    38 0.928314 0.000000 0.000001 0.000000 0.000000 0.000000
    39 1.533672 0.109715 1.664491 -0.233255 -0.412980 0.435684
    40 0.928313 0.000000 0.000000 0.000000 0.000000 0.000000
    41 0.928314 0.000000 0.000001 0.000000 0.000000 0.000000
  time 2
    0 0.235347 0.008346 -6.971393 -0.340432 0.309536 -1.652013
    1 -1.875057 0.203131 0.000000 -1.570795 -1.570796 0.000000
    2 -0.000005 0.000007 3.713255 0.009818 3.034994 -1.020444
    3 18.045721 0.000000 0.000000 0.000000 0.000000 -1.717624
    4 17.597597 0.000000 0.000000 0.584364 0.082000 0.383451
    5 0.000005 -0.000003 -3.713255 0.153027 -3.509054 -0.544922
    6 18.045725 0.000000 0.000000 0.000000 0.000000 -1.136271
    7 17.597597 0.000000 0.000000 0.478303 0.096026 -0.264795
    8 1.293670 0.684478 -0.000001 -0.069775 0.000658 0.009504
    9 5.309685 -0.003834 0.000000 0.000000 0.000000 0.290953
    10 4.826790 -0.004591 0.000000 -0.077913 0.009528 0.120643
    11 5.792767 -0.005304 0.000000 0.000000 0.000000 0.185872
    12 6.662317 -0.001453 0.000000 0.000000 -0.000001 0.471000
    13 2.046985 -0.000002 0.000000 0.004179 0.361253 -0.198431
    14 -3.112024 1.517254 4.341911 1.187854 -1.073647 1.528693
    15 4.827230 0.000000 0.000001 -0.210572 0.564430 0.213878
    16 11.139763 0.000000 0.000000 0.000000 0.000000 -0.503306
    17 10.314597 0.000001 0.000000 -1.570000 0.000000 -0.069778
    18 2.975834 -0.386307 -0.044143 -0.000797 -0.043611 0.000035
    19 1.438886 0.000000 0.000000 0.000000 0.000000 0.793701
    20 1.485303 0.000000 0.000000 0.000000 0.000000 1.465302
    21 -2.869898 1.399663 -4.140396 -0.414952 1.352819 2.263665
    22 4.972048 0.000000 0.000001 0.767887 -0.567832 -0.929889
    23 11.585355 0.000000 0.000000 0.000000 0.000000 -1.290208
    24 10.127057 0.000000 0.000001 1.569752 0.000000 -0.069778
    25 2.683750 -0.427338 0.044205 0.001045 0.043611 0.000046
    26 1.438885 -0.000001 0.000000 0.000000 0.000000 0.331445
    27 1.485305 0.000001 0.000000 0.000000 0.000000 0.000000
    28 1.038631 0.548043 -0.144017 -0.000001 0.000001 -1.849906
    29 -0.064003 -0.023521 0.026161 0.000000 0.000000 0.000000
    30 3.013925 3.984634 -0.088975 -0.000001 0.000001 -1.849906
    31 -0.084188 -0.025627 -0.001098 0.000000 0.000000 0.000000
    32 4.778187 3.972486 -0.079803 -0.000001 0.000001 -1.849906
    33 -0.058556 -0.021324 0.004244 0.000000 0.000000 0.000000
    34 1.640598 -1.968779 -0.099219 -0.000001 0.000001 -1.849906
    35 0.055573 -0.028908 0.000000 0.000000 0.000000 0.000000
    36 1.646738 0.449549 -1.702246 0.154002 0.442277 0.277235
    37 0.928312 0.000000 -0.000002 0.000000 0.000000 0.000000
    38 0.928314 0.000000 0.000001 0.000000 0.000000 0.000000
    39 1.533672 0.109715 1.664491 -0.233255 -0.412980 0.435684
    40 0.928313 0.000000 0.000000 0.000000 0.000000 0.000000
    41 0.928314 0.000000 0.000001 0.000000 0.000000 0.000000
  time 3
    0 0.235347 -0.198692 -10.826980 -0.511749 0.374982 -1.711205
    1 -1.875057 0.203131 0.000000 -1.570795 -1.570796 0.000000
    2 -0.000005 0.000007 3.713255 -0.026126 2.972268 -1.003049
    3 18.045721 0.000000 0.000000 0.000000 0.000000 -1.775434
    4 17.597597 0.000000 0.000000 0.519037 0.094074 0.187401
    5 0.000005 -0.000003 -3.713255 0.118779 -3.489335 -0.615806
    6 18.045725 0.000000 0.000000 0.000000 0.000000 -1.136271
    7 17.597597 0.000000 0.000000 0.488922 0.101588 -0.320494
    8 1.293670 0.684478 -0.000001 -0.069775 0.000658 0.009504
    9 5.309685 -0.003834 0.000000 0.000000 0.000000 0.290953
    10 4.826790 -0.004591 0.000000 -0.077913 0.009528 0.120643
    11 5.792767 -0.005304 0.000000 0.000000 0.000000 0.185872
    12 6.662317 -0.001453 0.000000 0.000000 -0.000001 0.471000
    13 2.046985 -0.000002 0.000000 -0.108138 0.551369 -0.448295
    14 -3.112024 1.517254 4.341911 1.178171 -1.083571 1.537226
    15 4.827230 0.000000 0.000001 -0.051279 0.483925 0.283975
    16 11.139763 0.000000 0.000000 0.000000 0.000000 -0.503306
    17 10.314597 0.000001 0.000000 -1.570000 0.000000 -0.069778
    18 2.975834 -0.386307 -0.044143 -0.000797 -0.043611 0.000035
    19 1.438886 0.000000 0.000000 0.000000 0.000000 0.793701
    20 1.485303 0.000000 0.000000 0.000000 0.000000 1.465302
    21 -2.869898 1.399663 -4.140396 -0.555790 1.336567 2.126278
    22 4.972048 0.000000 0.000001 0.757135 -0.476210 -1.042070
    23 11.585355 0.000000 0.000000 0.000000 0.000000 -1.290208
    24 10.127057 0.000000 0.000001 1.569752 0.000000 -0.069778
    25 2.683750 -0.427338 0.044205 0.001045 0.043611 0.000046
    26 1.438885 -0.000001 0.000000 0.000000 0.000000 0.331445
    27 1.485305 0.000001 0.000000 0.000000 0.000000 0.000000
    28 1.038631 0.548043 -0.144017 -0.000001 0.000001 -1.849906
    29 -0.064003 -0.023521 0.026161 0.000000 0.000000 0.000000
    30 3.013925 3.984634 -0.088975 -0.000001 0.000001 -1.849906
    31 -0.084188 -0.025627 -0.001098 0.000000 0.000000 0.000000
    32 4.778187 3.972486 -0.079803 -0.000001 0.000001 -1.849906
    33 -0.058556 -0.021324 0.004244 0.000000 0.000000 0.000000
    34 1.640598 -1.968779 -0.099219 -0.000001 0.000001 -1.849906
    35 0.055573 -0.028908 0.000000 0.000000 0.000000 0.000000
    36 1.646738 0.449549 -1.702246 0.154002 0.442277 0.277235
    37 0.928312 0.000000 -0.000002 0.000000 0.000000 0.000000
    38 0.928314 0.000000 0.000001 0.000000 0.000000 0.000000
    39 1.533672 0.109715 1.664491 -0.233255 -0.412980 0.435684
    40 0.928313 0.000000 0.000000 0.000000 0.000000 0.000000
    41 0.928314 0.000000 0.000001 0.000000 0.000000 0.000000
  time 4
    0 0.235347 -0.409636 -14.034109 -0.664027 0.421399 -1.771441
    1 -1.875057 0.203131 0.000000 -1.570795 -1.570796 0.000000
    2 -0.000005 0.000007 3.713255 -0.059769 2.911933 -0.918161
    3 18.045721 0.000000 0.000000 0.000000 0.000000 -1.682671
    4 17.597597 0.000000 0.000000 0.351702 0.042516 -0.074671
    5 0.000005 -0.000003 -3.713255 0.087688 -3.454491 -0.680289
    6 18.045725 0.000000 0.000000 0.000000 0.000000 -1.136271
    7 17.597597 0.000000 0.000000 0.471674 0.107900 -0.365308
    8 1.293670 0.684478 -0.000001 -0.069775 0.000658 0.009504
    9 5.309685 -0.003834 0.000000 0.000000 0.000000 0.290953
    10 4.826790 -0.004591 0.000000 -0.077913 0.009528 0.120643
    11 5.792767 -0.005304 0.000000 0.000000 0.000000 0.185872
    12 6.662317 -0.001453 0.000000 0.000000 -0.000001 0.471000
    13 2.046985 -0.000002 0.000000 -0.256430 0.674166 -0.706070
    14 -3.112024 1.517254 4.341911 0.924586 -1.246090 1.771260
    15 4.827230 0.000000 0.000001 0.120936 0.532262 0.177561
    16 11.139763 0.000000 0.000000 0.000000 0.000000 -0.503306
    17 10.314597 0.000001 0.000000 -1.570000 0.000000 -0.069778
    18 2.975834 -0.386307 -0.044143 -0.000797 -0.043611 0.000035
    19 1.438886 0.000000 0.000000 0.000000 0.000000 0.793701
    20 1.485303 0.000000 0.000000 0.000000 0.000000 1.465302
    21 -2.869898 1.399663 -4.140396 -0.661058 1.319439 2.024174
    22 4.972048 0.000000 0.000001 0.873012 -0.473958 -1.186528
    23 11.585355 0.000000 0.000000 0.000000 0.000000 -1.290208
    24 10.127057 0.000000 0.000001 1.569752 0.000000 -0.069778
    25 2.683750 -0.427338 0.044205 0.001045 0.043611 0.000046
    26 1.438885 -0.000001 0.000000 0.000000 0.000000 0.331445
    27 1.485305 0.000001 0.000000 0.000000 0.000000 0.000000
    28 1.038631 0.548043 -0.144017 -0.000001 0.000001 -1.849906
    29 -0.064003 -0.023521 0.026161 0.000000 0.000000 0.000000
    30 3.013925 3.984634 -0.088975 -0.000001 0.000001 -1.849906
    31 -0.084188 -0.025627 -0.001098 0.000000 0.000000 0.000000
    32 4.778187 3.972486 -0.079803 -0.000001 0.000001 -1.849906
    33 -0.058556 -0.021324 0.004244 0.000000 0.000000 0.000000
    34 1.640598 -1.968779 -0.099219 -0.000001 0.000001 -1.849906
    35 0.055573 -0.028908 0.000000 0.000000 0.000000 0.000000
    36 1.646738 0.449549 -1.702246 0.154002 0.442277 0.277235
    37 0.928312 0.000000 -0.000002 0.000000 0.000000 0.000000
    38 0.928314 0.000000 0.000001 0.000000 0.000000 0.000000
    39 1.533672 0.109715 1.664491 -0.233255 -0.412980 0.435684
    40 0.928313 0.000000 0.000000 0.000000 0.000000 0.000000
    41 0.928314 0.000000 0.000001 0.000000 0.000000 0.000000
  time 5
    0 0.235347 -0.612767 -16.920916 -0.803407 0.454389 -1.831393
    1 -1.875057 0.203131 0.000000 -1.570795 -1.570796 0.000000
    2 -0.000005 0.000007 3.713255 -0.049417 2.857717 -0.841291
    3 18.045721 0.000000 0.000000 0.000000 0.000000 -1.593915
    4 17.597597 0.000000 0.000000 0.221429 -0.008652 -0.269898
    5 0.000005 -0.000003 -3.713255 0.063867 -3.418977 -0.733427
    6 18.045725 0.000000 0.000000 0.000000 0.000000 -1.136271
    7 17.597597 0.000000 0.000000 0.447351 0.114153 -0.400918
    8 1.293670 0.684478 -0.000001 -0.069775 0.000658 0.009504
    9 5.309685 -0.003834 0.000000 0.000000 0.000000 0.290953
    10 4.826790 -0.004591 0.000000 -0.077913 0.009528 0.120643
    11 5.792767 -0.005304 0.000000 0.000000 0.000000 0.185872
    12 6.662317 -0.001453 0.000000 0.000000 -0.000001 0.471000
    13 2.046985 -0.000002 0.000000 -0.424237 0.737726 -0.966811
    14 -3.112024 1.517254 4.341911 0.060003 -1.370451 2.611038
    15 4.827230 0.000000 0.000001 0.311653 0.624001 0.044632
    16 11.139763 0.000000 0.000000 0.000000 0.000000 -0.503306
    17 10.314597 0.000001 0.000000 -1.570000 0.000000 -0.069778
    18 2.975834 -0.386307 -0.044143 -0.000797 -0.043611 0.000035
    19 1.438886 0.000000 0.000000 0.000000 0.000000 0.793701
    20 1.485303 0.000000 0.000000 0.000000 0.000000 1.465302
    21 -2.869898 1.399663 -4.140396 -0.742838 1.302254 1.945174
    22 4.972048 0.000000 0.000001 1.036540 -0.481197 -1.344490
    23 11.585355 0.000000 0.000000 0.000000 0.000000 -1.290208
    24 10.127057 0.000000 0.000001 1.569752 0.000000 -0.069778
    25 2.683750 -0.427338 0.044205 0.001045 0.043611 0.000046
    26 1.438885 -0.000001 0.000000 0.000000 0.000000 0.331445
    27 1.485305 0.000001 0.000000 0.000000 0.000000 0.000000
    28 1.038631 0.548043 -0.144017 -0.000001 0.000001 -1.849906
    29 -0.064003 -0.023521 0.026161 0.000000 0.000000 0.000000
    30 3.013925 3.984634 -0.088975 -0.000001 0.000001 -1.849906
    31 -0.084188 -0.025627 -0.001098 0.000000 0.000000 0.000000
    32 4.778187 3.972486 -0.079803 -0.000001 0.000001 -1.849906
    33 -0.058556 -0.021324 0.004244 0.000000 0.000000 0.000000
    34 1.640598 -1.968779 -0.099219 -0.000001 0.000001 -1.849906
    35 0.055573 -0.028908 0.000000 0.000000 0.000000 0.000000
    36 1.646738 0.449549 -1.702246 0.154002 0.442277 0.277235
    37 0.928312 0.000000 -0.000002 0.000000 0.000000 0.000000
    38 0.928314 0.000000 0.000001 0.000000 0.000000 0.000000
    39 1.533672 0.109715 1.664491 -0.233255 -0.412980 0.435684
    40 0.928313 0.000000 0.000000 0.000000 0.000000 0.000000
    41 0.928314 0.000000 0.000001 0.000000 0.000000 0.000000
  time 6
    0 0.235347 -0.796366 -19.874131 -0.941287 0.478398 -1.894195
    1 -1.875057 0.203131 0.000000 -1.570795 -1.570796 0.000000
    2 -0.000005 0.000007 3.713255 0.014898 2.810194 -0.777929
    3 18.045721 0.000000 0.000000 0.000000 0.000000 -1.529723
    4 17.597597 0.000000 0.000000 0.136279 -0.017416 -0.405555
    5 0.000005 -0.000003 -3.713255 0.045021 -3.383654 -0.780651
    6 18.045725 0.000000 0.000000 0.000000 0.000000 -1.136271
    7 17.597597 0.000000 0.000000 0.419929 0.120307 -0.432236
    8 1.293670 0.684478 -0.000001 -0.069775 0.000658 0.009504
    9 5.309685 -0.003834 0.000000 0.000000 0.000000 0.290953
    10 4.826790 -0.004591 0.000000 -0.077913 0.009528 0.120643
    11 5.792767 -0.005304 0.000000 0.000000 0.000000 0.185872
    12 6.662317 -0.001453 0.000000 0.000000 -0.000001 0.471000
    13 2.046985 -0.000002 0.000000 -0.533151 0.734956 -1.131410
    14 -3.112024 1.517254 4.341911 -0.885019 -1.261015 3.530873
    15 4.827230 0.000000 0.000001 0.522340 0.721441 -0.057406
    16 11.139763 0.000000 0.000000 0.000000 0.000000 -0.503306
    17 10.314597 0.000001 0.000000 -1.570000 0.000000 -0.069778
    18 2.975834 -0.386307 -0.044143 -0.000797 -0.043611 0.000035
    19 1.438886 0.000000 0.000000 0.000000 0.000000 0.793701
    20 1.485303 0.000000 0.000000 0.000000 0.000000 1.465302
    21 -2.869898 1.399663 -4.140396 -0.807744 1.285494 1.882665
    22 4.972048 0.000000 0.000001 1.209505 -0.471786 -1.497512
    23 11.585355 0.000000 0.000000 0.000000 0.000000 -1.290208
    24 10.127057 0.000000 0.000001 1.569752 0.000000 -0.069778
    25 2.683750 -0.427338 0.044205 0.001045 0.043611 0.000046
    26 1.438885 -0.000001 0.000000 0.000000 0.000000 0.331445
    27 1.485305 0.000001 0.000000 0.000000 0.000000 0.000000
    28 1.038631 0.548043 -0.144017 -0.000001 0.000001 -1.849906
    29 -0.064003 -0.023521 0.026161 0.000000 0.000000 0.000000
    30 3.013925 3.984634 -0.088975 -0.000001 0.000001 -1.849906
    31 -0.084188 -0.025627 -0.001098 0.000000 0.000000 0.000000
    32 4.778187 3.972486 -0.079803 -0.000001 0.000001 -1.849906
    33 -0.058556 -0.021324 0.004244 0.000000 0.000000 0.000000
    34 1.640598 -1.968779 -0.099219 -0.000001 0.000001 -1.849906
    35 0.055573 -0.028908 0.000000 0.000000 0.000000 0.000000
    36 1.646738 0.449549 -1.702246 0.154002 0.442277 0.277235
    37 0.928312 0.000000 -0.000002 0.000000 0.000000 0.000000
    38 0.928314 0.000000 0.000001 0.000000 0.000000 0.000000
    39 1.533672 0.109715 1.664491 -0.233255 -0.412980 0.435684
    40 0.928313 0.000000 0.000000 0.000000 0.000000 0.000000
    41 0.928314 0.000000 0.000001 0.000000 0.000000 0.000000
  time 7
    0 0.235347 -0.940902 -23.206264 -1.087843 0.494760 -1.963458
    1 -1.875057 0.203131 0.000000 -1.570795 -1.570796 0.000000
    2 -0.000005 0.000007 3.713255 0.103942 2.771660 -0.710534
    3 18.045721 0.000000 0.000000 0.000000 0.000000 -1.460336
    4 17.597597 0.000000 0.000000 0.061243 -0.010989 -0.526343
    5 0.000005 -0.000003 -3.713255 0.028950 -3.345364 -0.828552
    6 18.045725 0.000000 0.000000 0.000000 0.000000 -1.136271
    7 17.597597 0.000000 0.000000 0.387328 0.126618 -0.463967
    8 1.293670 0.684478 -0.000001 -0.069775 0.000658 0.009504
    9 5.309685 -0.003834 0.000000 0.000000 0.000000 0.290953
    10 4.826790 -0.004591 0.000000 -0.077913 0.009528 0.120643
    11 5.792767 -0.005304 0.000000 0.000000 0.000000 0.185872
    12 6.662317 -0.001453 0.000000 0.000000 -0.000001 0.471000
    13 2.046985 -0.000002 0.000000 -0.437550 0.624430 -1.006635
    14 -3.112024 1.517254 4.341911 -1.221917 -1.035527 3.840456
    15 4.827230 0.000000 0.000001 0.781074 0.813605 -0.114289
    16 11.139763 0.000000 0.000000 0.000000 0.000000 -0.503306
    17 10.314597 0.000001 0.000000 -1.570000 0.000000 -0.069778
    18 2.975834 -0.386307 -0.044143 -0.000797 -0.043611 0.000035
    19 1.438886 0.000000 0.000000 0.000000 0.000000 0.793701
    20 1.485303 0.000000 0.000000 0.000000 0.000000 1.465302
    21 -2.869898 1.399663 -4.140396 -0.865268 1.267801 1.827634
    22 4.972048 0.000000 0.000001 1.390361 -0.438081 -1.648031
    23 11.585355 0.000000 0.000000 0.000000 0.000000 -1.290208
    24 10.127057 0.000000 0.000001 1.569752 0.000000 -0.069778
    25 2.683750 -0.427338 0.044205 0.001045 0.043611 0.000046
    26 1.438885 -0.000001 0.000000 0.000000 0.000000 0.331445
    27 1.485305 0.000001 0.000000 0.000000 0.000000 0.000000
    28 1.038631 0.548043 -0.144017 -0.000001 0.000001 -1.849906
    29 -0.064003 -0.023521 0.026161 0.000000 0.000000 0.000000
    30 3.013925 3.984634 -0.088975 -0.000001 0.000001 -1.849906
    31 -0.084188 -0.025627 -0.001098 0.000000 0.000000 0.000000
    32 4.778187 3.972486 -0.079803 -0.000001 0.000001 -1.849906
    33 -0.058556 -0.021324 0.004244 0.000000 0.000000 0.000000
    34 1.640598 -1.968779 -0.099219 -0.000001 0.000001 -1.849906
    35 0.055573 -0.028908 0.000000 0.000000 0.000000 0.000000
    36 1.646738 0.449549 -1.702246 0.154002 0.442277 0.277235
    37 0.928312 0.000000 -0.000002 0.000000 0.000000 0.000000
    38 0.928314 0.000000 0.000001 0.000000 0.000000 0.000000
    39 1.533672 0.109715 1.664491 -0.233255 -0.412980 0.435684
    40 0.928313 0.000000 0.000000 0.000000 0.000000 0.000000
    41 0.928314 0.000000 0.000001 0.000000 0.000000 0.000000
  time 8
    0 0.235347 -1.038561 -26.936846 -1.243778 0.502051 -2.038802
    1 -1.875057 0.203131 0.000000 -1.570795 -1.570796 0.000000
    2 -0.000005 0.000007 3.713255 0.204296 2.744982 -0.640078
    3 18.045721 0.000000 0.000000 0.000000 0.000000 -1.389242
    4 17.597597 0.000000 0.000000 -0.005401 -0.000230 -0.645712
    5 0.000005 -0.000003 -3.713255 0.016992 -3.303915 -0.880188
    6 18.045725 0.000000 0.000000 0.000000 0.000000 -1.136271
    7 17.597597 0.000000 0.000000 0.347522 0.131865 -0.498581
    8 1.293670 0.684478 -0.000001 -0.069775 0.000658 0.009504
    9 5.309685 -0.003834 0.000000 0.000000 0.000000 0.290953
    10 4.826790 -0.004591 0.000000 -0.077913 0.009528 0.120643
    11 5.792767 -0.005304 0.000000 0.000000 0.000000 0.185872
    12 6.662317 -0.001453 0.000000 0.000000 -0.000001 0.471000
    13 2.046985 -0.000002 0.000000 -0.243892 0.355827 -0.700002
    14 -3.112024 1.517254 4.341911 -1.370616 -0.775651 3.958576
    15 4.827230 0.000000 0.000001 1.112288 0.881346 -0.108163
    16 11.139763 0.000000 0.000000 0.000000 0.000000 -0.503306
    17 10.314597 0.000001 0.000000 -1.570000 0.000000 -0.069778
    18 2.975834 -0.386307 -0.044143 -0.000797 -0.043611 0.000035
    19 1.438886 0.000000 0.000000 0.000000 0.000000 0.793701
    20 1.485303 0.000000 0.000000 0.000000 0.000000 1.465302
    21 -2.869898 1.399663 -4.140396 -0.919533 1.248072 1.775958
    22 4.972048 0.000000 0.000001 -1.566910 -2.767813 1.351539
    23 11.585355 0.000000 0.000000 0.000000 0.000000 -1.290208
    24 10.127057 0.000000 0.000001 1.569752 0.000000 -0.069778
    25 2.683750 -0.427338 0.044205 0.001045 0.043611 0.000046
    26 1.438885 -0.000001 0.000000 0.000000 0.000000 0.331445
    27 1.485305 0.000001 0.000000 0.000000 0.000000 0.000000
    28 1.038631 0.548043 -0.144017 -0.000001 0.000001 -1.849906
    29 -0.064003 -0.023521 0.026161 0.000000 0.000000 0.000000
    30 3.013925 3.984634 -0.088975 -0.000001 0.000001 -1.849906
    31 -0.084188 -0.025627 -0.001098 0.000000 0.000000 0.000000
    32 4.778187 3.972486 -0.079803 -0.000001 0.000001 -1.849906
    33 -0.058556 -0.021324 0.004244 0.000000 0.000000 0.000000
    34 1.640598 -1.968779 -0.099219 -0.000001 0.000001 -1.849906
    35 0.055573 -0.028908 0.000000 0.000000 0.000000 0.000000
    36 1.646738 0.449549 -1.702246 0.154002 0.442277 0.277235
    37 0.928312 0.000000 -0.000002 0.000000 0.000000 0.000000
    38 0.928314 0.000000 0.000001 0.000000 0.000000 0.000000
    39 1.533672 0.109715 1.664491 -0.233255 -0.412980 0.435684
    40 0.928313 0.000000 0.000000 0.000000 0.000000 0.000000
    41 0.928314 0.000000 0.000001 0.000000 0.000000 0.000000
  time 9
    0 0.235347 -1.073718 -30.331481 -1.386347 0.500273 -2.108349
    1 -1.875057 0.203131 0.000000 -1.570795 -1.570796 0.000000
    2 -0.000005 0.000007 3.713255 0.292668 2.738384 -0.579388
    3 18.045721 0.000000 0.000000 0.000000 0.000000 -1.327053
    4 17.597597 0.000000 0.000000 -0.050651 0.008655 -0.755198
    5 0.000005 -0.000003 -3.713255 0.016896 -3.272995 -0.928138
    6 18.045725 0.000000 0.000000 0.000000 0.000000 -1.136271
    7 17.597597 0.000000 0.000000 0.307072 0.128571 -0.532509
    8 1.293670 0.684478 -0.000001 -0.069775 0.000658 0.009504
    9 5.309685 -0.003834 0.000000 0.000000 0.000000 0.290953
    10 4.826790 -0.004591 0.000000 -0.077913 0.009528 0.120643
    11 5.792767 -0.005304 0.000000 0.000000 0.000000 0.185872
    12 6.662317 -0.001453 0.000000 0.000000 -0.000001 0.471000
    13 2.046985 -0.000002 0.000000 -0.123303 -0.035011 -0.365097
    14 -3.112024 1.517254 4.341911 -1.439836 -0.572051 4.002008
    15 4.827230 0.000000 0.000001 1.427291 0.892664 -0.047518
    16 11.139763 0.000000 0.000000 0.000000 0.000000 -0.503306
    17 10.314597 0.000001 0.000000 -1.570000 0.000000 -0.069778
    18 2.975834 -0.386307 -0.044143 -0.000797 -0.043611 0.000035
    19 1.438886 0.000000 0.000000 0.000000 0.000000 0.793701
    20 1.485303 0.000000 0.000000 0.000000 0.000000 1.465302
    21 -2.869898 1.399663 -4.140396 -0.964593 1.228966 1.733390
    22 4.972048 0.000000 0.000001 -1.427439 -2.847288 1.261689
    23 11.585355 0.000000 0.000000 0.000000 0.000000 -1.290208
    24 10.127057 0.000000 0.000001 1.569752 0.000000 -0.069778
    25 2.683750 -0.427338 0.044205 0.001045 0.043611 0.000046
    26 1.438885 -0.000001 0.000000 0.000000 0.000000 0.331445
    27 1.485305 0.000001 0.000000 0.000000 0.000000 0.000000
    28 1.038631 0.548043 -0.144017 -0.000001 0.000001 -1.849906
    29 -0.064003 -0.023521 0.026161 0.000000 0.000000 0.000000
    30 3.013925 3.984634 -0.088975 -0.000001 0.000001 -1.849906
    31 -0.084188 -0.025627 -0.001098 0.000000 0.000000 0.000000
    32 4.778187 3.972486 -0.079803 -0.000001 0.000001 -1.849906
    33 -0.058556 -0.021324 0.004244 0.000000 0.000000 0.000000
    34 1.640598 -1.968779 -0.099219 -0.000001 0.000001 -1.849906
    35 0.055573 -0.028908 0.000000 0.000000 0.000000 0.000000
    36 1.646738 0.449549 -1.702246 0.154002 0.442277 0.277235
    37 0.928312 0.000000 -0.000002 0.000000 0.000000 0.000000
    38 0.928314 0.000000 0.000001 0.000000 0.000000 0.000000
    39 1.533672 0.109715 1.664491 -0.233255 -0.412980 0.435684
    40 0.928313 0.000000 0.000000 0.000000 0.000000 0.000000
    41 0.928314 0.000000 0.000001 0.000000 0.000000 0.000000
  time 10
    0 0.235347 -1.073718 -31.323699 -1.386347 0.500273 -2.108349
    1 -1.875057 0.203131 0.000000 -1.570795 -1.570796 0.000000
    2 -0.000005 0.000007 3.713255 0.308484 2.800824 -0.582644
    3 18.045721 0.000000 0.000000 0.000000 0.000000 -1.327053
    4 17.597597 0.000000 0.000000 0.010518 0.022993 -0.738636
    5 0.000005 -0.000003 -3.713255 0.097063 -3.320379 -0.944332
    6 18.045725 0.000000 0.000000 0.000000 0.000000 -1.136271
    7 17.597597 0.000000 0.000000 0.269772 0.041371 -0.554349
    8 1.293670 0.684478 -0.000001 -0.069775 0.000658 0.009504
    9 5.309685 -0.003834 0.000000 0.000000 0.000000 0.290953
    10 4.826790 -0.004591 0.000000 -0.077913 0.009528 0.120643
    11 5.792767 -0.005304 0.000000 0.000000 0.000000 0.185872
    12 6.662317 -0.001453 0.000000 0.000000 -0.000001 0.471000
    13 2.046985 -0.000002 0.000000 -0.120331 -0.309333 -0.107412
    14 -3.112024 1.517254 4.341911 -1.381066 -0.749225 3.965766
    15 4.827230 0.000000 0.000001 1.369377 0.893345 0.086812
    16 11.139763 0.000000 0.000000 0.000000 0.000000 -0.503306
    17 10.314597 0.000001 0.000000 -1.570000 0.000000 -0.069778
    18 2.975834 -0.386307 -0.044143 -0.000797 -0.043611 0.000035
    19 1.438886 0.000000 0.000000 0.000000 0.000000 0.793701
    20 1.485303 0.000000 0.000000 0.000000 0.000000 1.465302
    21 -2.869898 1.399663 -4.140396 -0.875335 1.203782 1.828592
    22 4.972048 0.000000 0.000001 -1.468360 -2.853563 1.394949
    23 11.585355 0.000000 0.000000 0.000000 0.000000 -1.290208
    24 10.127057 0.000000 0.000001 1.569752 0.000000 -0.069778
    25 2.683750 -0.427338 0.044205 0.001045 0.043611 0.000046
    26 1.438885 -0.000001 0.000000 0.000000 0.000000 0.331445
    27 1.485305 0.000001 0.000000 0.000000 0.000000 0.000000
    28 1.038631 0.548043 -0.144017 -0.000001 0.000001 -1.849906
    29 -0.064003 -0.023521 0.026161 0.000000 0.000000 0.000000
    30 3.013925 3.984634 -0.088975 -0.000001 0.000001 -1.849906
    31 -0.084188 -0.025627 -0.001098 0.000000 0.000000 0.000000
    32 4.778187 3.972486 -0.079803 -0.000001 0.000001 -1.849906
    33 -0.058556 -0.021324 0.004244 0.000000 0.000000 0.000000
    34 1.640598 -1.968779 -0.099219 -0.000001 0.000001 -1.849906
    35 0.055573 -0.028908 0.000000 0.000000 0.000000 0.000000
    36 1.646738 0.449549 -1.702246 0.154002 0.442277 0.277235
    37 0.928312 0.000000 -0.000002 0.000000 0.000000 0.000000
    38 0.928314 0.000000 0.000001 0.000000 0.000000 0.000000
    39 1.533672 0.109715 1.664491 -0.233255 -0.412980 0.435684
    40 0.928313 0.000000 0.000000 0.000000 0.000000 0.000000
    41 0.928314 0.000000 0.000001 0.000000 0.000000 0.000000
  time 11
    0 0.235347 -1.073718 -27.608742 -1.386347 0.500273 -2.108349
    1 -1.875057 0.203131 0.000000 -1.570795 -1.570796 0.000000
    2 -0.000005 0.000007 3.713255 0.278866 2.872251 -0.621031
    3 18.045721 0.000000 0.000000 0.000000 0.000000 -1.327053
    4 17.597597 0.000000 0.000000 0.071282 0.076717 -0.749982
    5 0.000005 -0.000003 -3.713255 0.205834 -3.409691 -0.899436
    6 18.045725 0.000000 0.000000 0.000000 0.000000 -1.136271
    7 17.597597 0.000000 0.000000 0.185723 -0.066718 -0.523443
    8 1.293670 0.684478 -0.000001 -0.069775 0.000658 0.009504
    9 5.309685 -0.003834 0.000000 0.000000 0.000000 0.290953
    10 4.826790 -0.004591 0.000000 -0.077913 0.009528 0.120643
    11 5.792767 -0.005304 0.000000 0.000000 0.000000 0.185872
    12 6.662317 -0.001453 0.000000 0.000000 -0.000001 0.471000
    13 2.046985 -0.000002 0.000000 -0.114471 -0.021907 -0.091635
    14 -3.112024 1.517254 4.341911 -1.123359 -1.132654 3.753209
    15 4.827230 0.000000 0.000001 1.242389 0.912407 0.389076
    16 11.139763 0.000000 0.000000 0.000000 0.000000 -0.503306
    17 10.314597 0.000001 0.000000 -1.570000 0.000000 -0.069778
    18 2.975834 -0.386307 -0.044143 -0.000797 -0.043611 0.000035
    19 1.438886 0.000000 0.000000 0.000000 0.000000 0.793701
    20 1.485303 0.000000 0.000000 0.000000 0.000000 1.465302
    21 -2.869898 1.399663 -4.140396 -0.791158 1.173031 1.919288
    22 4.972048 0.000000 0.000001 1.507089 -0.318304 -1.476565
    23 11.585355 0.000000 0.000000 0.000000 0.000000 -1.290208
    24 10.127057 0.000000 0.000001 1.569752 0.000000 -0.069778
    25 2.683750 -0.427338 0.044205 0.001045 0.043611 0.000046
    26 1.438885 -0.000001 0.000000 0.000000 0.000000 0.331445
    27 1.485305 0.000001 0.000000 0.000000 0.000000 0.000000
    28 1.038631 0.548043 -0.144017 -0.000001 0.000001 -1.849906
    29 -0.064003 -0.023521 0.026161 0.000000 0.000000 0.000000
    30 3.013925 3.984634 -0.088975 -0.000001 0.000001 -1.849906
    31 -0.084188 -0.025627 -0.001098 0.000000 0.000000 0.000000
    32 4.778187 3.972486 -0.079803 -0.000001 0.000001 -1.849906
    33 -0.058556 -0.021324 0.004244 0.000000 0.000000 0.000000
    34 1.640598 -1.968779 -0.099219 -0.000001 0.000001 -1.849906
    35 0.055573 -0.028908 0.000000 0.000000 0.000000 0.000000
    36 1.646738 0.449549 -1.702246 0.154002 0.442277 0.277235
    37 0.928312 0.000000 -0.000002 0.000000 0.000000 0.000000
    38 0.928314 0.000000 0.000001 0.000000 0.000000 0.000000
    39 1.533672 0.109715 1.664491 -0.233255 -0.412980 0.435684
    40 0.928313 0.000000 0.000000 0.000000 0.000000 0.000000
    41 0.928314 0.000000 0.000001 0.000000 0.000000 0.000000
  time 12
    0 0.235347 -1.073718 -28.893937 -1.386347 0.500273 -2.108349
    1 -1.875057 0.203131 0.000000 -1.570795 -1.570796 0.000000
    2 -0.000005 0.000007 3.713255 0.284138 2.813636 -0.603295
    3 18.045721 0.000000 0.000000 0.000000 0.000000 -1.327053
    4 17.597597 0.000000 0.000000 0.017819 0.047019 -0.753277
    5 0.000005 -0.000003 -3.713255 0.122032 -3.350533 -0.915338
    6 18.045725 0.000000 0.000000 0.000000 0.000000 -1.136271
    7 17.597597 0.000000 0.000000 0.238969 0.018569 -0.530311
    8 1.293670 0.684478 -0.000001 -0.069775 0.000658 0.009504
    9 5.309685 -0.003834 0.000000 0.000000 0.000000 0.290953
    10 4.826790 -0.004591 0.000000 -0.077913 0.009528 0.120643
    11 5.792767 -0.005304 0.000000 0.000000 0.000000 0.185872
    12 6.662317 -0.001453 0.000000 0.000000 -0.000001 0.471000
    13 2.046985 -0.000002 0.000000 -0.125457 0.418261 -0.195374
    14 -3.112024 1.517254 4.341911 -1.316160 -0.893126 3.918116
    15 4.827230 0.000000 0.000001 1.322094 0.897600 0.197339
    16 11.139763 0.000000 0.000000 0.000000 0.000000 -0.503306
    17 10.314597 0.000001 0.000000 -1.570000 0.000000 -0.069778
    18 2.975834 -0.386307 -0.044143 -0.000797 -0.043611 0.000035
    19 1.438886 0.000000 0.000000 0.000000 0.000000 0.793701
    20 1.485303 0.000000 0.000000 0.000000 0.000000 1.465302
    21 -2.869898 1.399663 -4.140396 -0.860475 1.198921 1.844507
    22 4.972048 0.000000 0.000001 -1.542156 -2.820260 1.487434
    23 11.585355 0.000000 0.000000 0.000000 0.000000 -1.290208
    24 10.127057 0.000000 0.000001 1.569752 0.000000 -0.069778
    25 2.683750 -0.427338 0.044205 0.001045 0.043611 0.000046
    26 1.438885 -0.000001 0.000000 0.000000 0.000000 0.331445
    27 1.485305 0.000001 0.000000 0.000000 0.000000 0.000000
    28 1.038631 0.548043 -0.144017 -0.000001 0.000001 -1.849906
    29 -0.064003 -0.023521 0.026161 0.000000 0.000000 0.000000
    30 3.013925 3.984634 -0.088975 -0.000001 0.000001 -1.849906
    31 -0.084188 -0.025627 -0.001098 0.000000 0.000000 0.000000
    32 4.778187 3.972486 -0.079803 -0.000001 0.000001 -1.849906
    33 -0.058556 -0.021324 0.004244 0.000000 0.000000 0.000000
    34 1.640598 -1.968779 -0.099219 -0.000001 0.000001 -1.849906
    35 0.055573 -0.028908 0.000000 0.000000 0.000000 0.000000
    36 1.646738 0.449549 -1.702246 0.154002 0.442277 0.277235
    37 0.928312 0.000000 -0.000002 0.000000 0.000000 0.000000
    38 0.928314 0.000000 0.000001 0.000000 0.000000 0.000000
    39 1.533672 0.109715 1.664491 -0.233255 -0.412980 0.435684
    40 0.928313 0.000000 0.000000 0.000000 0.000000 0.000000
    41 0.928314 0.000000 0.000001 0.000000 0.000000 0.000000
  time 13
    0 0.235347 -1.073718 -30.518987 -1.386347 0.500273 -2.108349
    1 -1.875057 0.203131 0.000000 -1.570795 -1.570796 0.000000
    2 -0.000005 0.000007 3.713255 0.292668 2.738384 -0.579388
    3 18.045721 0.000000 0.000000 0.000000 0.000000 -1.327053
    4 17.597597 0.000000 0.000000 -0.050651 0.008655 -0.755198
    5 0.000005 -0.000003 -3.713255 0.016896 -3.272995 -0.928138
    6 18.045725 0.000000 0.000000 0.000000 0.000000 -1.136271
    7 17.597597 0.000000 0.000000 0.307072 0.128571 -0.532509
    8 1.293670 0.684478 -0.000001 -0.069775 0.000658 0.009504
    9 5.309685 -0.003834 0.000000 0.000000 0.000000 0.290953
    10 4.826790 -0.004591 0.000000 -0.077913 0.009528 0.120643
    11 5.792767 -0.005304 0.000000 0.000000 0.000000 0.185872
    12 6.662317 -0.001453 0.000000 0.000000 -0.000001 0.471000
    13 2.046985 -0.000002 0.000000 -0.115635 0.134662 -0.159776
    14 -3.112024 1.517254 4.341911 -1.439836 -0.572051 4.002008
    15 4.827230 0.000000 0.000001 1.427291 0.892664 -0.047518
    16 11.139763 0.000000 0.000000 0.000000 0.000000 -0.503306
    17 10.314597 0.000001 0.000000 -1.570000 0.000000 -0.069778
    18 2.975834 -0.386307 -0.044143 -0.000797 -0.043611 0.000035
    19 1.438886 0.000000 0.000000 0.000000 0.000000 0.793701
    20 1.485303 0.000000 0.000000 0.000000 0.000000 1.465302
    21 -2.869898 1.399663 -4.140396 -0.964593 1.228966 1.733390
    22 4.972048 0.000000 0.000001 -1.427439 -2.847288 1.261689
    23 11.585355 0.000000 0.000000 0.000000 0.000000 -1.290208
    24 10.127057 0.000000 0.000001 1.569752 0.000000 -0.069778
    25 2.683750 -0.427338 0.044205 0.001045 0.043611 0.000046
    26 1.438885 -0.000001 0.000000 0.000000 0.000000 0.331445
    27 1.485305 0.000001 0.000000 0.000000 0.000000 0.000000
    28 1.038631 0.548043 -0.144017 -0.000001 0.000001 -1.849906
    29 -0.064003 -0.023521 0.026161 0.000000 0.000000 0.000000
    30 3.013925 3.984634 -0.088975 -0.000001 0.000001 -1.849906
    31 -0.084188 -0.025627 -0.001098 0.000000 0.000000 0.000000
    32 4.778187 3.972486 -0.079803 -0.000001 0.000001 -1.849906
    33 -0.058556 -0.021324 0.004244 0.000000 0.000000 0.000000
    34 1.640598 -1.968779 -0.099219 -0.000001 0.000001 -1.849906
    35 0.055573 -0.028908 0.000000 0.000000 0.000000 0.000000
    36 1.646738 0.449549 -1.702246 0.154002 0.442277 0.277235
    37 0.928312 0.000000 -0.000002 0.000000 0.000000 0.000000
    38 0.928314 0.000000 0.000001 0.000000 0.000000 0.000000
    39 1.533672 0.109715 1.664491 -0.233255 -0.412980 0.435684
    40 0.928313 0.000000 0.000000 0.000000 0.000000 0.000000
    41 0.928314 0.000000 0.000001 0.000000 0.000000 0.000000
  time 14
    0 0.235347 -1.073718 -30.518987 -1.386347 0.500273 -2.108349
    1 -1.875057 0.203131 0.000000 -1.570795 -1.570796 0.000000
    2 -0.000005 0.000007 3.713255 0.292668 2.738384 -0.579388
    3 18.045721 0.000000 0.000000 0.000000 0.000000 -1.327053
    4 17.597597 0.000000 0.000000 -0.050651 0.008655 -0.755198
    5 0.000005 -0.000003 -3.713255 0.016896 -3.272995 -0.928138
    6 18.045725 0.000000 0.000000 0.000000 0.000000 -1.136271
    7 17.597597 0.000000 0.000000 0.307072 0.128571 -0.532509
    8 1.293670 0.684478 -0.000001 -0.069775 0.000658 0.009504
    9 5.309685 -0.003834 0.000000 0.000000 0.000000 0.290953
    10 4.826790 -0.004591 0.000000 -0.077913 0.009528 0.120643
    11 5.792767 -0.005304 0.000000 0.000000 0.000000 0.185872
    12 6.662317 -0.001453 0.000000 0.000000 -0.000001 0.471000
    13 2.046985 -0.000002 0.000000 -0.117961 -0.240055 -0.116042
    14 -3.112024 1.517254 4.341911 -1.439836 -0.572051 4.002008
    15 4.827230 0.000000 0.000001 1.427291 0.892664 -0.047518
    16 11.139763 0.000000 0.000000 0.000000 0.000000 -0.503306
    17 10.314597 0.000001 0.000000 -1.570000 0.000000 -0.069778
    18 2.975834 -0.386307 -0.044143 -0.000797 -0.043611 0.000035
    19 1.438886 0.000000 0.000000 0.000000 0.000000 0.793701
    20 1.485303 0.000000 0.000000 0.000000 0.000000 1.465302
    21 -2.869898 1.399663 -4.140396 -0.964593 1.228966 1.733390
    22 4.972048 0.000000 0.000001 -1.427439 -2.847288 1.261689
    23 11.585355 0.000000 0.000000 0.000000 0.000000 -1.290208
    24 10.127057 0.000000 0.000001 1.569752 0.000000 -0.069778
    25 2.683750 -0.427338 0.044205 0.001045 0.043611 0.000046
    26 1.438885 -0.000001 0.000000 0.000000 0.000000 0.331445
    27 1.485305 0.000001 0.000000 0.000000 0.000000 0.000000
    28 1.038631 0.548043 -0.144017 -0.000001 0.000001 -1.849906
    29 -0.064003 -0.023521 0.026161 0.000000 0.000000 0.000000
    30 3.013925 3.984634 -0.088975 -0.000001 0.000001 -1.849906
    31 -0.084188 -0.025627 -0.001098 0.000000 0.000000 0.000000
    32 4.778187 3.972486 -0.079803 -0.000001 0.000001 -1.849906
    33 -0.058556 -0.021324 0.004244 0.000000 0.000000 0.000000
    34 1.640598 -1.968779 -0.099219 -0.000001 0.000001 -1.849906
    35 0.055573 -0.028908 0.000000 0.000000 0.000000 0.000000
    36 1.646738 0.449549 -1.702246 0.154002 0.442277 0.277235
    37 0.928312 0.000000 -0.000002 0.000000 0.000000 0.000000
    38 0.928314 0.000000 0.000001 0.000000 0.000000 0.000000
    39 1.533672 0.109715 1.664491 -0.233255 -0.412980 0.435684
    40 0.928313 0.000000 0.000000 0.000000 0.000000 0.000000
    41 0.928314 0.000000 0.000001 0.000000 0.000000 0.000000
  time 15
    0 0.235347 -1.073718 -30.518987 -1.386347 0.500273 -2.108349
    1 -1.875057 0.203131 0.000000 -1.570795 -1.570796 0.000000
    2 -0.000005 0.000007 3.713255 0.292668 2.738384 -0.579388
    3 18.045721 0.000000 0.000000 0.000000 0.000000 -1.327053
    4 17.597597 0.000000 0.000000 -0.050651 0.008655 -0.755198
    5 0.000005 -0.000003 -3.713255 0.016896 -3.272995 -0.928138
    6 18.045725 0.000000 0.000000 0.000000 0.000000 -1.136271
    7 17.597597 0.000000 0.000000 0.307072 0.128571 -0.532509
    8 1.293670 0.684478 -0.000001 -0.069775 0.000658 0.009504
    9 5.309685 -0.003834 0.000000 0.000000 0.000000 0.290953
    10 4.826790 -0.004591 0.000000 -0.077913 0.009528 0.120643
    11 5.792767 -0.005304 0.000000 0.000000 0.000000 0.185872
    12 6.662317 -0.001453 0.000000 0.000000 -0.000001 0.471000
    13 2.046985 -0.000002 0.000000 -0.117961 -0.240055 -0.116042
    14 -3.112024 1.517254 4.341911 -1.439836 -0.572051 4.002008
    15 4.827230 0.000000 0.000001 1.427291 0.892664 -0.047518
    16 11.139763 0.000000 0.000000 0.000000 0.000000 -0.503306
    17 10.314597 0.000001 0.000000 -1.570000 0.000000 -0.069778
    18 2.975834 -0.386307 -0.044143 -0.000797 -0.043611 0.000035
    19 1.438886 0.000000 0.000000 0.000000 0.000000 0.793701
    20 1.485303 0.000000 0.000000 0.000000 0.000000 1.465302
    21 -2.869898 1.399663 -4.140396 -0.964593 1.228966 1.733390
    22 4.972048 0.000000 0.000001 -1.427439 -2.847288 1.261689
    23 11.585355 0.000000 0.000000 0.000000 0.000000 -1.290208
    24 10.127057 0.000000 0.000001 1.569752 0.000000 -0.069778
    25 2.683750 -0.427338 0.044205 0.001045 0.043611 0.000046
    26 1.438885 -0.000001 0.000000 0.000000 0.000000 0.331445
    27 1.485305 0.000001 0.000000 0.000000 0.000000 0.000000
    28 1.038631 0.548043 -0.144017 -0.000001 0.000001 -1.849906
    29 -0.064003 -0.023521 0.026161 0.000000 0.000000 0.000000
    30 3.013925 3.984634 -0.088975 -0.000001 0.000001 -1.849906
    31 -0.084188 -0.025627 -0.001098 0.000000 0.000000 0.000000
    32 4.778187 3.972486 -0.079803 -0.000001 0.000001 -1.849906
    33 -0.058556 -0.021324 0.004244 0.000000 0.000000 0.000000
    34 1.640598 -1.968779 -0.099219 -0.000001 0.000001 -1.849906
    35 0.055573 -0.028908 0.000000 0.000000 0.000000 0.000000
    36 1.646738 0.449549 -1.702246 0.154002 0.442277 0.277235
    37 0.928312 0.000000 -0.000002 0.000000 0.000000 0.000000
    38 0.928314 0.000000 0.000001 0.000000 0.000000 0.000000
    39 1.533672 0.109715 1.664491 -0.233255 -0.412980 0.435684
    40 0.928313 0.000000 0.000000 0.000000 0.000000 0.000000
    41 0.928314 0.000000 0.000001 0.000000 0.000000 0.000000
  time 16
    0 0.235347 -1.073718 -30.518987 -1.386347 0.500273 -2.108349
    1 -1.875057 0.203131 0.000000 -1.570795 -1.570796 0.000000
    2 -0.000005 0.000007 3.713255 0.292668 2.738384 -0.579388
    3 18.045721 0.000000 0.000000 0.000000 0.000000 -1.327053
    4 17.597597 0.000000 0.000000 -0.050651 0.008655 -0.755198
    5 0.000005 -0.000003 -3.713255 0.016896 -3.272995 -0.928138
    6 18.045725 0.000000 0.000000 0.000000 0.000000 -1.136271
    7 17.597597 0.000000 0.000000 0.307072 0.128571 -0.532509
    8 1.293670 0.684478 -0.000001 -0.069775 0.000658 0.009504
    9 5.309685 -0.003834 0.000000 0.000000 0.000000 0.290953
    10 4.826790 -0.004591 0.000000 -0.077913 0.009528 0.120643
    11 5.792767 -0.005304 0.000000 0.000000 0.000000 0.185872
    12 6.662317 -0.001453 0.000000 0.000000 -0.000001 0.471000
    13 2.046985 -0.000002 0.000000 -0.117961 -0.240055 -0.116042
    14 -3.112024 1.517254 4.341911 -1.439836 -0.572051 4.002008
    15 4.827230 0.000000 0.000001 1.427291 0.892664 -0.047518
    16 11.139763 0.000000 0.000000 0.000000 0.000000 -0.503306
    17 10.314597 0.000001 0.000000 -1.570000 0.000000 -0.069778
    18 2.975834 -0.386307 -0.044143 -0.000797 -0.043611 0.000035
    19 1.438886 0.000000 0.000000 0.000000 0.000000 0.793701
    20 1.485303 0.000000 0.000000 0.000000 0.000000 1.465302
    21 -2.869898 1.399663 -4.140396 -0.964593 1.228966 1.733390
    22 4.972048 0.000000 0.000001 -1.427439 -2.847288 1.261689
    23 11.585355 0.000000 0.000000 0.000000 0.000000 -1.290208
    24 10.127057 0.000000 0.000001 1.569752 0.000000 -0.069778
    25 2.683750 -0.427338 0.044205 0.001045 0.043611 0.000046
    26 1.438885 -0.000001 0.000000 0.000000 0.000000 0.331445
    27 1.485305 0.000001 0.000000 0.000000 0.000000 0.000000
    28 1.038631 0.548043 -0.144017 -0.000001 0.000001 -1.849906
    29 -0.064003 -0.023521 0.026161 0.000000 0.000000 0.000000
    30 3.013925 3.984634 -0.088975 -0.000001 0.000001 -1.849906
    31 -0.084188 -0.025627 -0.001098 0.000000 0.000000 0.000000
    32 4.778187 3.972486 -0.079803 -0.000001 0.000001 -1.849906
    33 -0.058556 -0.021324 0.004244 0.000000 0.000000 0.000000
    34 1.640598 -1.968779 -0.099219 -0.000001 0.000001 -1.849906
    35 0.055573 -0.028908 0.000000 0.000000 0.000000 0.000000
    36 1.646738 0.449549 -1.702246 0.154002 0.442277 0.277235
    37 0.928312 0.000000 -0.000002 0.000000 0.000000 0.000000
    38 0.928314 0.000000 0.000001 0.000000 0.000000 0.000000
    39 1.533672 0.109715 1.664491 -0.233255 -0.412980 0.435684
    40 0.928313 0.000000 0.000000 0.000000 0.000000 0.000000
    41 0.928314 0.000000 0.000001 0.000000 0.000000 0.000000
  time 17
    0 0.235347 -1.073718 -30.518987 -1.386347 0.500273 -2.108349
    1 -1.875057 0.203131 0.000000 -1.570795 -1.570796 0.000000
    2 -0.000005 0.000007 3.713255 0.292668 2.738384 -0.579388
    3 18.045721 0.000000 0.000000 0.000000 0.000000 -1.327053
    4 17.597597 0.000000 0.000000 -0.050651 0.008655 -0.755198
    5 0.000005 -0.000003 -3.713255 0.016896 -3.272995 -0.928138
    6 18.045725 0.000000 0.000000 0.000000 0.000000 -1.136271
    7 17.597597 0.000000 0.000000 0.307072 0.128571 -0.532509
    8 1.293670 0.684478 -0.000001 -0.069775 0.000658 0.009504
    9 5.309685 -0.003834 0.000000 0.000000 0.000000 0.290953
    10 4.826790 -0.004591 0.000000 -0.077913 0.009528 0.120643
    11 5.792767 -0.005304 0.000000 0.000000 0.000000 0.185872
    12 6.662317 -0.001453 0.000000 0.000000 -0.000001 0.471000
    13 2.046985 -0.000002 0.000000 -0.117961 -0.240055 -0.116042
    14 -3.112024 1.517254 4.341911 -1.439836 -0.572051 4.002008
    15 4.827230 0.000000 0.000001 1.427291 0.892664 -0.047518
    16 11.139763 0.000000 0.000000 0.000000 0.000000 -0.503306
    17 10.314597 0.000001 0.000000 -1.570000 0.000000 -0.069778
    18 2.975834 -0.386307 -0.044143 -0.000797 -0.043611 0.000035
    19 1.438886 0.000000 0.000000 0.000000 0.000000 0.793701
    20 1.485303 0.000000 0.000000 0.000000 0.000000 1.465302
    21 -2.869898 1.399663 -4.140396 -0.964593 1.228966 1.733390
    22 4.972048 0.000000 0.000001 -1.427439 -2.847288 1.261689
    23 11.585355 0.000000 0.000000 0.000000 0.000000 -1.290208
    24 10.127057 0.000000 0.000001 1.569752 0.000000 -0.069778
    25 2.683750 -0.427338 0.044205 0.001045 0.043611 0.000046
    26 1.438885 -0.000001 0.000000 0.000000 0.000000 0.331445
    27 1.485305 0.000001 0.000000 0.000000 0.000000 0.000000
    28 1.038631 0.548043 -0.144017 -0.000001 0.000001 -1.849906
    29 -0.064003 -0.023521 0.026161 0.000000 0.000000 0.000000
    30 3.013925 3.984634 -0.088975 -0.000001 0.000001 -1.849906
    31 -0.084188 -0.025627 -0.001098 0.000000 0.000000 0.000000
    32 4.778187 3.972486 -0.079803 -0.000001 0.000001 -1.849906
    33 -0.058556 -0.021324 0.004244 0.000000 0.000000 0.000000
    34 1.640598 -1.968779 -0.099219 -0.000001 0.000001 -1.849906
    35 0.055573 -0.028908 0.000000 0.000000 0.000000 0.000000
    36 1.646738 0.449549 -1.702246 0.154002 0.442277 0.277235
    37 0.928312 0.000000 -0.000002 0.000000 0.000000 0.000000
    38 0.928314 0.000000 0.000001 0.000000 0.000000 0.000000
    39 1.533672 0.109715 1.664491 -0.233255 -0.412980 0.435684
    40 0.928313 0.000000 0.000000 0.000000 0.000000 0.000000
    41 0.928314 0.000000 0.000001 0.000000 0.000000 0.000000
  time 18
    0 0.235347 -1.073718 -30.518987 -1.386347 0.500273 -2.108349
    1 -1.875057 0.203131 0.000000 -1.570795 -1.570796 0.000000
    2 -0.000005 0.000007 3.713255 0.292668 2.738384 -0.579388
    3 18.045721 0.000000 0.000000 0.000000 0.000000 -1.327053
    4 17.597597 0.000000 0.000000 -0.050651 0.008655 -0.755198
    5 0.000005 -0.000003 -3.713255 0.016896 -3.272995 -0.928138
    6 18.045725 0.000000 0.000000 0.000000 0.000000 -1.136271
    7 17.597597 0.000000 0.000000 0.307072 0.128571 -0.532509
    8 1.293670 0.684478 -0.000001 -0.069775 0.000658 0.009504
    9 5.309685 -0.003834 0.000000 0.000000 0.000000 0.290953
    10 4.826790 -0.004591 0.000000 -0.077913 0.009528 0.120643
    11 5.792767 -0.005304 0.000000 0.000000 0.000000 0.185872
    12 6.662317 -0.001453 0.000000 0.000000 -0.000001 0.471000
    13 2.046985 -0.000002 0.000000 -0.117961 -0.240055 -0.116042
    14 -3.112024 1.517254 4.341911 -1.439836 -0.572051 4.002008
    15 4.827230 0.000000 0.000001 1.427291 0.892664 -0.047518
    16 11.139763 0.000000 0.000000 0.000000 0.000000 -0.503306
    17 10.314597 0.000001 0.000000 -1.570000 0.000000 -0.069778
    18 2.975834 -0.386307 -0.044143 -0.000797 -0.043611 0.000035
    19 1.438886 0.000000 0.000000 0.000000 0.000000 0.793701
    20 1.485303 0.000000 0.000000 0.000000 0.000000 1.465302
    21 -2.869898 1.399663 -4.140396 -0.964593 1.228966 1.733390
    22 4.972048 0.000000 0.000001 -1.427439 -2.847288 1.261689
    23 11.585355 0.000000 0.000000 0.000000 0.000000 -1.290208
    24 10.127057 0.000000 0.000001 1.569752 0.000000 -0.069778
    25 2.683750 -0.427338 0.044205 0.001045 0.043611 0.000046
    26 1.438885 -0.000001 0.000000 0.000000 0.000000 0.331445
    27 1.485305 0.000001 0.000000 0.000000 0.000000 0.000000
    28 1.038631 0.548043 -0.144017 -0.000001 0.000001 -1.849906
    29 -0.064003 -0.023521 0.026161 0.000000 0.000000 0.000000
    30 3.013925 3.984634 -0.088975 -0.000001 0.000001 -1.849906
    31 -0.084188 -0.025627 -0.001098 0.000000 0.000000 0.000000
    32 4.778187 3.972486 -0.079803 -0.000001 0.000001 -1.849906
    33 -0.058556 -0.021324 0.004244 0.000000 0.000000 0.000000
    34 1.640598 -1.968779 -0.099219 -0.000001 0.000001 -1.849906
    35 0.055573 -0.028908 0.000000 0.000000 0.000000 0.000000
    36 1.646738 0.449549 -1.702246 0.154002 0.442277 0.277235
    37 0.928312 0.000000 -0.000002 0.000000 0.000000 0.000000
    38 0.928314 0.000000 0.000001 0.000000 0.000000 0.000000
    39 1.533672 0.109715 1.664491 -0.233255 -0.412980 0.435684
    40 0.928313 0.000000 0.000000 0.000000 0.000000 0.000000
    41 0.928314 0.000000 0.000001 0.000000 0.000000 0.000000
end
