version 1
nodes
  0 "Bip01" -1
  1 "Bip01 Pelvis" 0
  2 "Bip01 L Leg" 1
  3 "Bip01 L Leg1" 2
  4 "Bip01 L Foot" 3
  5 "Bip01 R Leg" 1
  6 "Bip01 R Leg1" 5
  7 "Bip01 R Foot" 6
  8 "Bip01 Spine" 1
  9 "Bip01 Spine1" 8
  10 "Bip01 Spine2" 9
  11 "Bip01 Spine3" 10
  12 "Bip01 Neck" 11
  13 "Bip01 Head" 12
  14 "Bip01 L Arm" 12
  15 "Bip01 L Arm1" 14
  16 "Bip01 L Arm2" 15
  17 "Bip01 L Hand" 16
  18 "Bip01 L Finger1" 17
  19 "Bip01 L Finger11" 18
  20 "Bip01 L Finger12" 19
  21 "Bip01 R Arm" 12
  22 "Bip01 R Arm1" 21
  23 "Bip01 R Arm2" 22
  24 "Bip01 R Hand" 23
  25 "Bip01 R Finger1" 24
  26 "Bip01 R Finger11" 25
  27 "Bip01 R Finger12" 26
  28 "Dummy08" 13
  29 "Bone02" 28
  30 "Dummy04" 13
  31 "Bone05" 30
  32 "Dummy03" 13
  33 "Bone07" 32
  34 "Dummy10" 13
  35 "Bone13" 34
  36 "Bip01 L Finger0" 17
  37 "Bip01 L Finger01" 36
  38 "Bip01 L Finger02" 37
  39 "Bip01 R Finger0" 24
  40 "Bip01 R Finger01" 39
  41 "Bip01 R Finger02" 40
end
skeleton
  time 0
    0 0.235347 0.367732 2.884376 0.000000 0.000000 -1.570874
    1 0.679708 -0.015625 0.000000 -1.570795 -1.570796 0.000000
    2 -0.000005 0.000007 3.713255 -0.055264 3.176510 -0.210053
    3 18.045721 0.000000 0.000000 0.000000 0.000000 -0.234821
    4 17.597597 0.000000 0.000000 -0.095596 -0.022601 0.023194
    5 0.000005 -0.000003 -3.713255 0.257876 -3.191916 0.080567
    6 18.045725 0.000000 0.000000 0.000000 0.000000 -0.127551
    7 17.597597 0.000000 0.000000 -0.018141 0.069142 0.192751
    8 1.293670 0.684478 -0.000001 -0.069775 0.000658 0.009504
    9 5.309685 -0.003834 0.000000 0.000000 0.000000 -0.069778
    10 4.826790 -0.004591 0.000000 -0.078488 0.000060 -0.000009
    11 5.792767 -0.005304 0.000000 0.000000 0.000000 0.017444
    12 6.662317 -0.001453 0.000000 0.000000 -0.000001 0.471000
    13 2.046985 -0.000002 0.000000 0.158588 -0.045255 -0.152135
    14 -3.112024 1.517254 4.341911 -0.000014 -1.370797 2.669810
    15 4.827230 0.000000 0.000001 0.484103 1.160391 0.758723
    16 11.139763 0.000000 0.000000 0.000000 0.000000 -0.287179
    17 10.314597 0.000001 0.000000 -1.570000 0.000000 -0.069778
    18 2.975834 -0.386307 -0.044143 -0.000797 -0.043611 0.000035
    19 1.438886 0.000000 0.000000 0.000000 0.000000 0.793701
    20 1.485303 0.000000 0.000000 0.000000 0.000000 1.465302
    21 -2.869898 1.399663 -4.140396 -0.000013 1.370795 2.669783
    22 4.972048 0.000000 0.000001 -0.592859 -1.258740 0.836878
    23 11.585355 0.000000 0.000000 0.000000 0.000000 -1.290208
    24 10.127057 0.000000 0.000001 1.569752 0.000000 -0.069778
    25 2.683750 -0.427338 0.044205 0.001045 0.043611 0.000046
    26 1.438885 -0.000001 0.000000 0.000000 0.000000 0.915830
    27 1.485305 0.000001 0.000000 0.000000 0.000000 1.526342
    28 1.038631 0.548043 -0.144017 -0.000001 0.000001 -1.849906
    29 -0.064003 -0.023521 0.026161 0.000000 0.000000 0.000000
    30 3.013925 3.984634 -0.088975 -0.000001 0.000001 -1.849906
    31 -0.084188 -0.025627 -0.001098 0.000000 0.000000 0.000000
    32 4.778187 3.972486 -0.079803 -0.000001 0.000001 -1.849906
    33 -0.058556 -0.021324 0.004244 0.000000 0.000000 0.000000
    34 1.640598 -1.968779 -0.099219 -0.000001 0.000001 -1.849906
    35 0.055573 -0.028908 0.000000 0.000000 0.000000 0.000000
    36 1.646738 0.449549 -1.702246 0.154002 0.442277 0.277235
    37 0.928312 0.000000 -0.000002 0.000000 0.000000 0.000000
    38 0.928314 0.000000 0.000001 0.000000 0.000000 0.000000
    39 1.533672 0.109715 1.664491 -0.233255 -0.412980 0.435684
    40 0.928313 0.000000 0.000000 0.000000 0.000000 0.000000
    41 0.928314 0.000000 0.000001 0.000000 0.000000 0.000000
  time 1
    0 0.235347 4.133472 10.322103 0.566901 -0.235464 -2.739601
    1 0.679708 -0.015625 0.000000 -1.570795 -1.570796 0.000000
    2 -0.000005 0.000007 3.713255 -0.497703 2.766114 0.347571
    3 18.045721 0.000000 0.000000 0.000000 0.000000 -0.601199
    4 17.597597 0.000000 0.000000 -0.126625 0.446507 -0.480544
    5 0.000005 -0.000003 -3.713255 0.257876 -3.191916 0.080567
    6 18.045725 0.000000 0.000000 0.000000 0.000000 -0.554902
    7 17.597597 0.000000 0.000000 -0.068599 0.020088 -0.409126
    8 1.293670 0.684478 -0.000001 -0.069775 0.000658 0.009504
    9 5.309685 -0.003834 0.000000 0.000000 0.000000 -0.069778
    10 4.826790 -0.004591 0.000000 -0.078488 0.000060 -0.000009
    11 5.792767 -0.005304 0.000000 0.000000 0.000000 0.017444
    12 6.662317 -0.001453 0.000000 0.000000 -0.000001 0.471000
    13 2.046985 -0.000002 0.000000 0.141700 0.084566 -0.962362
    14 -3.112024 1.517254 4.341911 -0.000014 -1.370797 2.669810
    15 4.827230 0.000000 0.000001 0.409919 0.583408 1.556913
    16 11.139763 0.000000 0.000000 0.000000 0.000000 -0.287179
    17 10.314597 0.000001 0.000000 -1.570000 0.000000 -0.069778
    18 2.975834 -0.386307 -0.044143 -0.000797 -0.043611 0.000035
    19 1.438886 0.000000 0.000000 0.000000 0.000000 0.793701
    20 1.485303 0.000000 0.000000 0.000000 0.000000 1.465302
    21 -2.869898 1.399663 -4.140396 -0.000013 1.370795 2.669783
    22 4.972048 0.000000 0.000001 -0.520842 -0.714959 1.060778
    23 11.585355 0.000000 0.000000 0.000000 0.000000 -0.217419
    24 10.127057 0.000000 0.000001 1.569752 0.000000 -0.069778
    25 2.683750 -0.427338 0.044205 0.001045 0.043611 0.000046
    26 1.438885 -0.000001 0.000000 0.000000 0.000000 0.915830
    27 1.485305 0.000001 0.000000 0.000000 0.000000 1.526342
    28 1.038631 0.548043 -0.144017 -0.000001 0.000001 -1.849906
    29 -0.064003 -0.023521 0.026161 0.000000 0.000000 0.000000
    30 3.013925 3.984634 -0.088975 -0.000001 0.000001 -1.849906
    31 -0.084188 -0.025627 -0.001098 0.000000 0.000000 0.000000
    32 4.778187 3.972486 -0.079803 -0.000001 0.000001 -1.849906
    33 -0.058556 -0.021324 0.004244 0.000000 0.000000 0.000000
    34 1.640598 -1.968779 -0.099219 -0.000001 0.000001 -1.849906
    35 0.055573 -0.028908 0.000000 0.000000 0.000000 0.000000
    36 1.646738 0.449549 -1.702246 0.154002 0.442277 0.277235
    37 0.928312 0.000000 -0.000002 0.000000 0.000000 0.000000
    38 0.928314 0.000000 0.000001 0.000000 0.000000 0.000000
    39 1.533672 0.109715 1.664491 -0.233255 -0.412980 0.435684
    40 0.928313 0.000000 0.000000 0.000000 0.000000 0.000000
    41 0.928314 0.000000 0.000001 0.000000 0.000000 0.000000
  time 2
    0 0.235347 5.086626 13.826116 0.696339 0.049618 -3.234702
    1 0.679708 -0.015625 0.000000 -1.570795 -1.570796 0.000000
    2 -0.000005 0.000007 3.713255 -0.639656 2.774337 0.311955
    3 18.045721 0.000000 0.000000 0.000000 0.000000 -0.601199
    4 17.597597 0.000000 0.000000 -0.068725 0.565713 -0.484891
    5 0.000005 -0.000003 -3.713255 0.355932 -3.196128 0.002702
    6 18.045725 0.000000 0.000000 0.000000 0.000000 -0.600035
    7 17.597597 0.000000 0.000000 -0.121548 -0.086462 -0.526500
    8 1.293670 0.684478 -0.000001 -0.069775 0.000658 0.009504
    9 5.309685 -0.003834 0.000000 0.000000 0.000000 -0.069778
    10 4.826790 -0.004591 0.000000 -0.078488 0.000060 -0.000009
    11 5.792767 -0.005304 0.000000 0.000000 0.000000 0.017444
    12 6.662317 -0.001453 0.000000 0.000000 -0.000001 0.471000
    13 2.046985 -0.000002 0.000000 0.141700 0.084566 -0.962362
    14 -3.112024 1.517254 4.341911 -0.000014 -1.370797 2.669810
    15 4.827230 0.000000 0.000001 0.408920 0.538219 1.635235
    16 11.139763 0.000000 0.000000 0.000000 0.000000 -0.287179
    17 10.314597 0.000001 0.000000 -1.570000 0.000000 -0.069778
    18 2.975834 -0.386307 -0.044143 -0.000797 -0.043611 0.000035
    19 1.438886 0.000000 0.000000 0.000000 0.000000 0.793701
    20 1.485303 0.000000 0.000000 0.000000 0.000000 1.465302
    21 -2.869898 1.399663 -4.140396 -0.000013 1.370795 2.669783
    22 4.972048 0.000000 0.000001 -0.301542 -0.778105 0.765933
    23 11.585355 0.000000 0.000000 0.000000 0.000000 -0.217419
    24 10.127057 0.000000 0.000001 1.569752 0.000000 -0.069778
    25 2.683750 -0.427338 0.044205 0.001045 0.043611 0.000046
    26 1.438885 -0.000001 0.000000 0.000000 0.000000 0.915830
    27 1.485305 0.000001 0.000000 0.000000 0.000000 1.526342
    28 1.038631 0.548043 -0.144017 -0.000001 0.000001 -1.849906
    29 -0.064003 -0.023521 0.026161 0.000000 0.000000 0.000000
    30 3.013925 3.984634 -0.088975 -0.000001 0.000001 -1.849906
    31 -0.084188 -0.025627 -0.001098 0.000000 0.000000 0.000000
    32 4.778187 3.972486 -0.079803 -0.000001 0.000001 -1.849906
    33 -0.058556 -0.021324 0.004244 0.000000 0.000000 0.000000
    34 1.640598 -1.968779 -0.099219 -0.000001 0.000001 -1.849906
    35 0.055573 -0.028908 0.000000 0.000000 0.000000 0.000000
    36 1.646738 0.449549 -1.702246 0.154002 0.442277 0.277235
    37 0.928312 0.000000 -0.000002 0.000000 0.000000 0.000000
    38 0.928314 0.000000 0.000001 0.000000 0.000000 0.000000
    39 1.533672 0.109715 1.664491 -0.233255 -0.412980 0.435684
    40 0.928313 0.000000 0.000000 0.000000 0.000000 0.000000
    41 0.928314 0.000000 0.000001 0.000000 0.000000 0.000000
  time 3
    0 0.235347 5.449918 16.525417 0.656054 0.330966 -3.615505
    1 0.679708 -0.015625 0.000000 -1.570795 -1.570796 0.000000
    2 -0.000005 0.000007 3.713255 -0.759275 2.827214 0.246552
    3 18.045721 0.000000 0.000000 0.000000 0.000000 -0.601199
    4 17.597597 0.000000 0.000000 -0.015034 0.652957 -0.535448
    5 0.000005 -0.000003 -3.713255 0.466234 -3.210199 -0.082145
    6 18.045725 0.000000 0.000000 0.000000 0.000000 -0.615539
    7 17.597597 0.000000 0.000000 -0.167885 -0.204234 -0.606752
    8 1.293670 0.684478 -0.000001 -0.069775 0.000658 0.009504
    9 5.309685 -0.003834 0.000000 0.000000 0.000000 -0.069778
    10 4.826790 -0.004591 0.000000 -0.078488 0.000060 -0.000009
    11 5.792767 -0.005304 0.000000 0.000000 0.000000 0.017444
    12 6.662317 -0.001453 0.000000 0.000000 -0.000001 0.471000
    13 2.046985 -0.000002 0.000000 0.141700 0.084566 -0.962362
    14 -3.112024 1.517254 4.341911 -0.000014 -1.370797 2.669810
    15 4.827230 0.000000 0.000001 0.430242 0.508945 1.700344
    16 11.139763 0.000000 0.000000 0.000000 0.000000 -0.287179
    17 10.314597 0.000001 0.000000 -1.570000 0.000000 -0.069778
    18 2.975834 -0.386307 -0.044143 -0.000797 -0.043611 0.000035
    19 1.438886 0.000000 0.000000 0.000000 0.000000 0.793701
    20 1.485303 0.000000 0.000000 0.000000 0.000000 1.465302
    21 -2.869898 1.399663 -4.140396 -0.000013 1.370795 2.669783
    22 4.972048 0.000000 0.000001 -0.025230 -0.810684 0.393819
    23 11.585355 0.000000 0.000000 0.000000 0.000000 -0.217419
    24 10.127057 0.000000 0.000001 1.569752 0.000000 -0.069778
    25 2.683750 -0.427338 0.044205 0.001045 0.043611 0.000046
    26 1.438885 -0.000001 0.000000 0.000000 0.000000 0.915830
    27 1.485305 0.000001 0.000000 0.000000 0.000000 1.526342
    28 1.038631 0.548043 -0.144017 -0.000001 0.000001 -1.849906
    29 -0.064003 -0.023521 0.026161 0.000000 0.000000 0.000000
    30 3.013925 3.984634 -0.088975 -0.000001 0.000001 -1.849906
    31 -0.084188 -0.025627 -0.001098 0.000000 0.000000 0.000000
    32 4.778187 3.972486 -0.079803 -0.000001 0.000001 -1.849906
    33 -0.058556 -0.021324 0.004244 0.000000 0.000000 0.000000
    34 1.640598 -1.968779 -0.099219 -0.000001 0.000001 -1.849906
    35 0.055573 -0.028908 0.000000 0.000000 0.000000 0.000000
    36 1.646738 0.449549 -1.702246 0.154002 0.442277 0.277235
    37 0.928312 0.000000 -0.000002 0.000000 0.000000 0.000000
    38 0.928314 0.000000 0.000001 0.000000 0.000000 0.000000
    39 1.533672 0.109715 1.664491 -0.233255 -0.412980 0.435684
    40 0.928313 0.000000 0.000000 0.000000 0.000000 0.000000
    41 0.928314 0.000000 0.000001 0.000000 0.000000 0.000000
  time 4
    0 0.235347 6.156971 18.177812 0.505277 0.560650 -3.982342
    1 0.679708 -0.015625 0.000000 -1.570795 -1.570796 0.000000
    2 -0.000005 0.000007 3.713255 -0.843814 2.884968 0.193977
    3 18.045721 0.000000 0.000000 0.000000 0.000000 -0.601199
    4 17.597597 0.000000 0.000000 0.025272 0.715323 -0.586553
    5 0.000005 -0.000003 -3.713255 0.554245 -3.228100 -0.153707
    6 18.045725 0.000000 0.000000 0.000000 0.000000 -0.621334
    7 17.597597 0.000000 0.000000 -0.201540 -0.299068 -0.662555
    8 1.293670 0.684478 -0.000001 -0.069775 0.000658 0.009504
    9 5.309685 -0.003834 0.000000 0.000000 0.000000 -0.069778
    10 4.826790 -0.004591 0.000000 -0.078488 0.000060 -0.000009
    11 5.792767 -0.005304 0.000000 0.000000 0.000000 0.017444
    12 6.662317 -0.001453 0.000000 0.000000 -0.000001 0.471000
    13 2.046985 -0.000002 0.000000 0.141700 0.084566 -0.962362
    14 -3.112024 1.517254 4.341911 -0.000014 -1.370797 2.669810
    15 4.827230 0.000000 0.000001 0.451798 0.490818 1.744624
    16 11.139763 0.000000 0.000000 0.000000 0.000000 -0.287179
    17 10.314597 0.000001 0.000000 -1.570000 0.000000 -0.069778
    18 2.975834 -0.386307 -0.044143 -0.000797 -0.043611 0.000035
    19 1.438886 0.000000 0.000000 0.000000 0.000000 0.793701
    20 1.485303 0.000000 0.000000 0.000000 0.000000 1.465302
    21 -2.869898 1.399663 -4.140396 -0.000013 1.370795 2.669783
    22 4.972048 0.000000 0.000001 0.217741 -0.786632 0.064061
    23 11.585355 0.000000 0.000000 0.000000 0.000000 -0.217419
    24 10.127057 0.000000 0.000001 1.569752 0.000000 -0.069778
    25 2.683750 -0.427338 0.044205 0.001045 0.043611 0.000046
    26 1.438885 -0.000001 0.000000 0.000000 0.000000 0.915830
    27 1.485305 0.000001 0.000000 0.000000 0.000000 1.526342
    28 1.038631 0.548043 -0.144017 -0.000001 0.000001 -1.849906
    29 -0.064003 -0.023521 0.026161 0.000000 0.000000 0.000000
    30 3.013925 3.984634 -0.088975 -0.000001 0.000001 -1.849906
    31 -0.084188 -0.025627 -0.001098 0.000000 0.000000 0.000000
    32 4.778187 3.972486 -0.079803 -0.000001 0.000001 -1.849906
    33 -0.058556 -0.021324 0.004244 0.000000 0.000000 0.000000
    34 1.640598 -1.968779 -0.099219 -0.000001 0.000001 -1.849906
    35 0.055573 -0.028908 0.000000 0.000000 0.000000 0.000000
    36 1.646738 0.449549 -1.702246 0.154002 0.442277 0.277235
    37 0.928312 0.000000 -0.000002 0.000000 0.000000 0.000000
    38 0.928314 0.000000 0.000001 0.000000 0.000000 0.000000
    39 1.533672 0.109715 1.664491 -0.233255 -0.412980 0.435684
    40 0.928313 0.000000 0.000000 0.000000 0.000000 0.000000
    41 0.928314 0.000000 0.000001 0.000000 0.000000 0.000000
  time 5
    0 0.235347 8.149219 18.654389 0.205459 0.739383 -4.461671
    1 0.679708 -0.015625 0.000000 -1.570795 -1.570796 0.000000
    2 -0.000005 0.000007 3.713255 -0.907841 2.942244 0.152627
    3 18.045721 0.000000 0.000000 0.000000 0.000000 -0.601199
    4 17.597597 0.000000 0.000000 0.058531 0.764495 -0.633862
    5 0.000005 -0.000003 -3.713255 0.618054 -3.245139 -0.212081
    6 18.045725 0.000000 0.000000 0.000000 0.000000 -0.624811
    7 17.597597 0.000000 0.000000 -0.224808 -0.369562 -0.704552
    8 1.293670 0.684478 -0.000001 -0.069775 0.000658 0.009504
    9 5.309685 -0.003834 0.000000 0.000000 0.000000 -0.069778
    10 4.826790 -0.004591 0.000000 -0.078488 0.000060 -0.000009
    11 5.792767 -0.005304 0.000000 0.000000 0.000000 0.017444
    12 6.662317 -0.001453 0.000000 0.000000 -0.000001 0.471000
    13 2.046985 -0.000002 0.000000 0.141700 0.084566 -0.962362
    14 -3.112024 1.517254 4.341911 -0.000014 -1.370797 2.669810
    15 4.827230 0.000000 0.000001 0.469536 0.479925 1.773415
    16 11.139763 0.000000 0.000000 0.000000 0.000000 -0.287179
    17 10.314597 0.000001 0.000000 -1.570000 0.000000 -0.069778
    18 2.975834 -0.386307 -0.044143 -0.000797 -0.043611 0.000035
    19 1.438886 0.000000 0.000000 0.000000 0.000000 0.793701
    20 1.485303 0.000000 0.000000 0.000000 0.000000 1.465302
    21 -2.869898 1.399663 -4.140396 -0.000013 1.370795 2.669783
    22 4.972048 0.000000 0.000001 0.398519 -0.729197 -0.192446
    23 11.585355 0.000000 0.000000 0.000000 0.000000 -0.217419
    24 10.127057 0.000000 0.000001 1.569752 0.000000 -0.069778
    25 2.683750 -0.427338 0.044205 0.001045 0.043611 0.000046
    26 1.438885 -0.000001 0.000000 0.000000 0.000000 0.915830
    27 1.485305 0.000001 0.000000 0.000000 0.000000 1.526342
    28 1.038631 0.548043 -0.144017 -0.000001 0.000001 -1.849906
    29 -0.064003 -0.023521 0.026161 0.000000 0.000000 0.000000
    30 3.013925 3.984634 -0.088975 -0.000001 0.000001 -1.849906
    31 -0.084188 -0.025627 -0.001098 0.000000 0.000000 0.000000
    32 4.778187 3.972486 -0.079803 -0.000001 0.000001 -1.849906
    33 -0.058556 -0.021324 0.004244 0.000000 0.000000 0.000000
    34 1.640598 -1.968779 -0.099219 -0.000001 0.000001 -1.849906
    35 0.055573 -0.028908 0.000000 0.000000 0.000000 0.000000
    36 1.646738 0.449549 -1.702246 0.154002 0.442277 0.277235
    37 0.928312 0.000000 -0.000002 0.000000 0.000000 0.000000
    38 0.928314 0.000000 0.000001 0.000000 0.000000 0.000000
    39 1.533672 0.109715 1.664491 -0.233255 -0.412980 0.435684
    40 0.928313 0.000000 0.000000 0.000000 0.000000 0.000000
    41 0.928314 0.000000 0.000001 0.000000 0.000000 0.000000
  time 6
    0 0.235347 12.149341 17.521541 -0.263988 0.821902 -5.098623
    1 0.679708 -0.015625 0.000000 -1.570795 -1.570796 0.000000
    2 -0.000005 0.000007 3.713255 -0.959696 3.000954 0.119779
    3 18.045721 0.000000 0.000000 0.000000 0.000000 -0.601199
    4 17.597597 0.000000 0.000000 0.090700 0.805707 -0.677647
    5 0.000005 -0.000003 -3.713255 0.661390 -3.259211 -0.262213
    6 18.045725 0.000000 0.000000 0.000000 0.000000 -0.629158
    7 17.597597 0.000000 0.000000 -0.239071 -0.419957 -0.739888
    8 1.293670 0.684478 -0.000001 -0.069775 0.000658 0.009504
    9 5.309685 -0.003834 0.000000 0.000000 0.000000 -0.069778
    10 4.826790 -0.004591 0.000000 -0.078488 0.000060 -0.000009
    11 5.792767 -0.005304 0.000000 0.000000 0.000000 0.017444
    12 6.662317 -0.001453 0.000000 0.000000 -0.000001 0.471000
    13 2.046985 -0.000002 0.000000 0.141700 0.084566 -0.962362
    14 -3.112024 1.517254 4.341911 -0.000014 -1.370797 2.669810
    15 4.827230 0.000000 0.000001 0.484103 0.473883 1.792055
    16 11.139763 0.000000 0.000000 0.000000 0.000000 -0.287179
    17 10.314597 0.000001 0.000000 -1.570000 0.000000 -0.069778
    18 2.975834 -0.386307 -0.044143 -0.000797 -0.043611 0.000035
    19 1.438886 0.000000 0.000000 0.000000 0.000000 0.793701
    20 1.485303 0.000000 0.000000 0.000000 0.000000 1.465302
    21 -2.869898 1.399663 -4.140396 -0.000013 1.370795 2.669783
    22 4.972048 0.000000 0.000001 0.533967 -0.653180 -0.399088
    23 11.585355 0.000000 0.000000 0.000000 0.000000 -0.217419
    24 10.127057 0.000000 0.000001 1.569752 0.000000 -0.069778
    25 2.683750 -0.427338 0.044205 0.001045 0.043611 0.000046
    26 1.438885 -0.000001 0.000000 0.000000 0.000000 0.915830
    27 1.485305 0.000001 0.000000 0.000000 0.000000 1.526342
    28 1.038631 0.548043 -0.144017 -0.000001 0.000001 -1.849906
    29 -0.064003 -0.023521 0.026161 0.000000 0.000000 0.000000
    30 3.013925 3.984634 -0.088975 -0.000001 0.000001 -1.849906
    31 -0.084188 -0.025627 -0.001098 0.000000 0.000000 0.000000
    32 4.778187 3.972486 -0.079803 -0.000001 0.000001 -1.849906
    33 -0.058556 -0.021324 0.004244 0.000000 0.000000 0.000000
    34 1.640598 -1.968779 -0.099219 -0.000001 0.000001 -1.849906
    35 0.055573 -0.028908 0.000000 0.000000 0.000000 0.000000
    36 1.646738 0.449549 -1.702246 0.154002 0.442277 0.277235
    37 0.928312 0.000000 -0.000002 0.000000 0.000000 0.000000
    38 0.928314 0.000000 0.000001 0.000000 0.000000 0.000000
    39 1.533672 0.109715 1.664491 -0.233255 -0.412980 0.435684
    40 0.928313 0.000000 0.000000 0.000000 0.000000 0.000000
    41 0.928314 0.000000 0.000001 0.000000 0.000000 0.000000
  time 7
    0 0.235347 17.497161 14.876930 -0.757776 0.716085 -5.728924
    1 0.679708 -0.015625 0.000000 -1.570795 -1.570796 0.000000
    2 -0.000005 0.000007 3.713255 -0.984233 3.044269 0.109624
    3 18.045721 0.000000 0.000000 0.000000 0.000000 -0.601199
    4 17.597597 0.000000 0.000000 0.122641 0.823672 -0.695857
    5 0.000005 -0.000003 -3.713255 0.679375 -3.266390 -0.306382
    6 18.045725 0.000000 0.000000 0.000000 0.000000 -0.637707
    7 17.597597 0.000000 0.000000 -0.241281 -0.446447 -0.772202
    8 1.293670 0.684478 -0.000001 -0.069775 0.000658 0.009504
    9 5.309685 -0.003834 0.000000 0.000000 0.000000 -0.069778
    10 4.826790 -0.004591 0.000000 -0.078488 0.000060 -0.000009
    11 5.792767 -0.005304 0.000000 0.000000 0.000000 0.017444
    12 6.662317 -0.001453 0.000000 0.000000 -0.000001 0.471000
    13 2.046985 -0.000002 0.000000 0.141700 0.084566 -0.962362
    14 -3.112024 1.517254 4.341911 -0.000014 -1.370797 2.669810
    15 4.827230 0.000000 0.000001 0.496496 0.472181 1.802294
    16 11.139763 0.000000 0.000000 0.000000 0.000000 -0.287179
    17 10.314597 0.000001 0.000000 -1.570000 0.000000 -0.069778
    18 2.975834 -0.386307 -0.044143 -0.000797 -0.043611 0.000035
    19 1.438886 0.000000 0.000000 0.000000 0.000000 0.793701
    20 1.485303 0.000000 0.000000 0.000000 0.000000 1.465302
    21 -2.869898 1.399663 -4.140396 -0.000013 1.370795 2.669783
    22 4.972048 0.000000 0.000001 0.643888 -0.557134 -0.585837
    23 11.585355 0.000000 0.000000 0.000000 0.000000 -0.217419
    24 10.127057 0.000000 0.000001 1.569752 0.000000 -0.069778
    25 2.683750 -0.427338 0.044205 0.001045 0.043611 0.000046
    26 1.438885 -0.000001 0.000000 0.000000 0.000000 0.915830
    27 1.485305 0.000001 0.000000 0.000000 0.000000 1.526342
    28 1.038631 0.548043 -0.144017 -0.000001 0.000001 -1.849906
    29 -0.064003 -0.023521 0.026161 0.000000 0.000000 0.000000
    30 3.013925 3.984634 -0.088975 -0.000001 0.000001 -1.849906
    31 -0.084188 -0.025627 -0.001098 0.000000 0.000000 0.000000
    32 4.778187 3.972486 -0.079803 -0.000001 0.000001 -1.849906
    33 -0.058556 -0.021324 0.004244 0.000000 0.000000 0.000000
    34 1.640598 -1.968779 -0.099219 -0.000001 0.000001 -1.849906
    35 0.055573 -0.028908 0.000000 0.000000 0.000000 0.000000
    36 1.646738 0.449549 -1.702246 0.154002 0.442277 0.277235
    37 0.928312 0.000000 -0.000002 0.000000 0.000000 0.000000
    38 0.928314 0.000000 0.000001 0.000000 0.000000 0.000000
    39 1.533672 0.109715 1.664491 -0.233255 -0.412980 0.435684
    40 0.928313 0.000000 0.000000 0.000000 0.000000 0.000000
    41 0.928314 0.000000 0.000001 0.000000 0.000000 0.000000
  time 8
    0 0.235347 23.055924 10.810399 -1.058016 0.417309 -6.127969
    1 0.679708 -0.015625 0.000000 -1.570795 -1.570796 0.000000
    2 -0.000005 0.000007 3.713255 -0.884742 3.006786 0.205687
    3 18.045721 0.000000 0.000000 0.000000 0.000000 -0.601199
    4 17.597597 0.000000 0.000000 0.154987 0.722528 -0.586370
    5 0.000005 -0.000003 -3.713255 0.660911 -3.260360 -0.339739
    6 18.045725 0.000000 0.000000 0.000000 0.000000 -0.646472
    7 17.597597 0.000000 0.000000 -0.231173 -0.436092 -0.795622
    8 1.293670 0.684478 -0.000001 -0.069775 0.000658 0.009504
    9 5.309685 -0.003834 0.000000 0.000000 0.000000 -0.069778
    10 4.826790 -0.004591 0.000000 -0.078488 0.000060 -0.000009
    11 5.792767 -0.005304 0.000000 0.000000 0.000000 0.017444
    12 6.662317 -0.001453 0.000000 0.000000 -0.000001 0.471000
    13 2.046985 -0.000002 0.000000 0.141700 0.084566 -0.962362
    14 -3.112024 1.517254 4.341911 -0.000014 -1.370797 2.669810
    15 4.827230 0.000000 0.000001 0.504896 0.478138 1.799056
    16 11.139763 0.000000 0.000000 0.000000 0.000000 -0.287179
    17 10.314597 0.000001 0.000000 -1.570000 0.000000 -0.069778
    18 2.975834 -0.386307 -0.044143 -0.000797 -0.043611 0.000035
    19 1.438886 0.000000 0.000000 0.000000 0.000000 0.793701
    20 1.485303 0.000000 0.000000 0.000000 0.000000 1.465302
    21 -2.869898 1.399663 -4.140396 -0.000013 1.370795 2.669783
    22 4.972048 0.000000 0.000001 0.735476 -0.433496 -0.769753
    23 11.585355 0.000000 0.000000 0.000000 0.000000 -0.217419
    24 10.127057 0.000000 0.000001 1.569752 0.000000 -0.069778
    25 2.683750 -0.427338 0.044205 0.001045 0.043611 0.000046
    26 1.438885 -0.000001 0.000000 0.000000 0.000000 0.915830
    27 1.485305 0.000001 0.000000 0.000000 0.000000 1.526342
    28 1.038631 0.548043 -0.144017 -0.000001 0.000001 -1.849906
    29 -0.064003 -0.023521 0.026161 0.000000 0.000000 0.000000
    30 3.013925 3.984634 -0.088975 -0.000001 0.000001 -1.849906
    31 -0.084188 -0.025627 -0.001098 0.000000 0.000000 0.000000
    32 4.778187 3.972486 -0.079803 -0.000001 0.000001 -1.849906
    33 -0.058556 -0.021324 0.004244 0.000000 0.000000 0.000000
    34 1.640598 -1.968779 -0.099219 -0.000001 0.000001 -1.849906
    35 0.055573 -0.028908 0.000000 0.000000 0.000000 0.000000
    36 1.646738 0.449549 -1.702246 0.154002 0.442277 0.277235
    37 0.928312 0.000000 -0.000002 0.000000 0.000000 0.000000
    38 0.928314 0.000000 0.000001 0.000000 0.000000 0.000000
    39 1.533672 0.109715 1.664491 -0.233255 -0.412980 0.435684
    40 0.928313 0.000000 0.000000 0.000000 0.000000 0.000000
    41 0.928314 0.000000 0.000001 0.000000 0.000000 0.000000
  time 9
    0 0.235347 27.692784 6.091505 -1.171930 0.020007 -0.028374
    1 0.679708 -0.015625 0.000000 -1.570795 -1.570796 0.000000
    2 -0.000005 0.000007 3.713255 -0.620486 2.932873 0.408212
    3 18.045721 0.000000 0.000000 0.000000 0.000000 -0.601199
    4 17.597597 0.000000 0.000000 0.118686 0.481585 -0.409673
    5 0.000005 -0.000003 -3.713255 0.623124 -3.245714 -0.363351
    6 18.045725 0.000000 0.000000 0.000000 0.000000 -0.651181
    7 17.597597 0.000000 0.000000 -0.218443 -0.403922 -0.807916
    8 1.293670 0.684478 -0.000001 -0.069775 0.000658 0.009504
    9 5.309685 -0.003834 0.000000 0.000000 0.000000 -0.069778
    10 4.826790 -0.004591 0.000000 -0.078488 0.000060 -0.000009
    11 5.792767 -0.005304 0.000000 0.000000 0.000000 0.017444
    12 6.662317 -0.001453 0.000000 0.000000 -0.000001 0.471000
    13 2.046985 -0.000002 0.000000 0.141700 0.084566 -0.962362
    14 -3.112024 1.517254 4.341911 -0.000014 -1.370797 2.669810
    15 4.827230 0.000000 0.000001 0.499198 0.501201 1.762652
    16 11.139763 0.000000 0.000000 0.000000 0.000000 -0.287179
    17 10.314597 0.000001 0.000000 -1.570000 0.000000 -0.069778
    18 2.975834 -0.386307 -0.044143 -0.000797 -0.043611 0.000035
    19 1.438886 0.000000 0.000000 0.000000 0.000000 0.793701
    20 1.485303 0.000000 0.000000 0.000000 0.000000 1.465302
    21 -2.869898 1.399663 -4.140396 -0.000013 1.370795 2.669783
    22 4.972048 0.000000 0.000001 0.802929 -0.284921 -0.947872
    23 11.585355 0.000000 0.000000 0.000000 0.000000 -0.217419
    24 10.127057 0.000000 0.000001 1.569752 0.000000 -0.069778
    25 2.683750 -0.427338 0.044205 0.001045 0.043611 0.000046
    26 1.438885 -0.000001 0.000000 0.000000 0.000000 0.915830
    27 1.485305 0.000001 0.000000 0.000000 0.000000 1.526342
    28 1.038631 0.548043 -0.144017 -0.000001 0.000001 -1.849906
    29 -0.064003 -0.023521 0.026161 0.000000 0.000000 0.000000
    30 3.013925 3.984634 -0.088975 -0.000001 0.000001 -1.849906
    31 -0.084188 -0.025627 -0.001098 0.000000 0.000000 0.000000
    32 4.778187 3.972486 -0.079803 -0.000001 0.000001 -1.849906
    33 -0.058556 -0.021324 0.004244 0.000000 0.000000 0.000000
    34 1.640598 -1.968779 -0.099219 -0.000001 0.000001 -1.849906
    35 0.055573 -0.028908 0.000000 0.000000 0.000000 0.000000
    36 1.646738 0.449549 -1.702246 0.154002 0.442277 0.277235
    37 0.928312 0.000000 -0.000002 0.000000 0.000000 0.000000
    38 0.928314 0.000000 0.000001 0.000000 0.000000 0.000000
    39 1.533672 0.109715 1.664491 -0.233255 -0.412980 0.435684
    40 0.928313 0.000000 0.000000 0.000000 0.000000 0.000000
    41 0.928314 0.000000 0.000001 0.000000 0.000000 0.000000
  time 10
    0 0.235347 31.704626 1.110884 -1.200116 -0.418020 -0.098112
    1 0.679708 -0.015625 0.000000 -1.570795 -1.570796 0.000000
    2 -0.000005 0.000007 3.713255 -0.470099 2.943869 0.444752
    3 18.045721 0.000000 0.000000 0.000000 0.000000 -0.601199
    4 17.597597 0.000000 0.000000 0.061421 0.345558 -0.407706
    5 0.000005 -0.000003 -3.713255 0.575004 -3.226090 -0.381435
    6 18.045725 0.000000 0.000000 0.000000 0.000000 -0.654731
    7 17.597597 0.000000 0.000000 -0.204558 -0.360154 -0.812620
    8 1.293670 0.684478 -0.000001 -0.069775 0.000658 0.009504
    9 5.309685 -0.003834 0.000000 0.000000 0.000000 -0.069778
    10 4.826790 -0.004591 0.000000 -0.078488 0.000060 -0.000009
    11 5.792767 -0.005304 0.000000 0.000000 0.000000 0.017444
    12 6.662317 -0.001453 0.000000 0.000000 -0.000001 0.471000
    13 2.046985 -0.000002 0.000000 0.141700 0.084566 -0.962362
    14 -3.112024 1.517254 4.341911 -0.000014 -1.370797 2.669810
    15 4.827230 0.000000 0.000001 0.443634 0.560005 1.638998
    16 11.139763 0.000000 0.000000 0.000000 0.000000 -0.287179
    17 10.314597 0.000001 0.000000 -1.570000 0.000000 -0.069778
    18 2.975834 -0.386307 -0.044143 -0.000797 -0.043611 0.000035
    19 1.438886 0.000000 0.000000 0.000000 0.000000 0.793701
    20 1.485303 0.000000 0.000000 0.000000 0.000000 1.465302
    21 -2.869898 1.399663 -4.140396 -0.000013 1.370795 2.669783
    22 4.972048 0.000000 0.000001 0.835650 -0.152757 -1.082581
    23 11.585355 0.000000 0.000000 0.000000 0.000000 -0.217419
    24 10.127057 0.000000 0.000001 1.569752 0.000000 -0.069778
    25 2.683750 -0.427338 0.044205 0.001045 0.043611 0.000046
    26 1.438885 -0.000001 0.000000 0.000000 0.000000 0.915830
    27 1.485305 0.000001 0.000000 0.000000 0.000000 1.526342
    28 1.038631 0.548043 -0.144017 -0.000001 0.000001 -1.849906
    29 -0.064003 -0.023521 0.026161 0.000000 0.000000 0.000000
    30 3.013925 3.984634 -0.088975 -0.000001 0.000001 -1.849906
    31 -0.084188 -0.025627 -0.001098 0.000000 0.000000 0.000000
    32 4.778187 3.972486 -0.079803 -0.000001 0.000001 -1.849906
    33 -0.058556 -0.021324 0.004244 0.000000 0.000000 0.000000
    34 1.640598 -1.968779 -0.099219 -0.000001 0.000001 -1.849906
    35 0.055573 -0.028908 0.000000 0.000000 0.000000 0.000000
    36 1.646738 0.449549 -1.702246 0.154002 0.442277 0.277235
    37 0.928312 0.000000 -0.000002 0.000000 0.000000 0.000000
    38 0.928314 0.000000 0.000001 0.000000 0.000000 0.000000
    39 1.533672 0.109715 1.664491 -0.233255 -0.412980 0.435684
    40 0.928313 0.000000 0.000000 0.000000 0.000000 0.000000
    41 0.928314 0.000000 0.000001 0.000000 0.000000 0.000000
  time 11
    0 0.235347 35.950849 -3.764264 -1.211184 -0.862272 -0.113314
    1 0.679708 -0.015625 0.000000 -1.570795 -1.570796 0.000000
    2 -0.000005 0.000007 3.713255 -0.472591 3.000476 0.312926
    3 18.045721 0.000000 0.000000 0.000000 0.000000 -0.629918
    4 17.597597 0.000000 0.000000 0.050343 0.362208 -0.472583
    5 0.000005 -0.000003 -3.713255 0.515597 -3.200914 -0.396368
    6 18.045725 0.000000 0.000000 0.000000 0.000000 -0.658788
    7 17.597597 0.000000 0.000000 -0.188481 -0.304591 -0.810319
    8 1.293670 0.684478 -0.000001 -0.069775 0.000658 0.009504
    9 5.309685 -0.003834 0.000000 0.000000 0.000000 -0.069778
    10 4.826790 -0.004591 0.000000 -0.078488 0.000060 -0.000009
    11 5.792767 -0.005304 0.000000 0.000000 0.000000 0.017444
    12 6.662317 -0.001453 0.000000 0.000000 -0.000001 0.471000
    13 2.046985 -0.000002 0.000000 0.141700 0.084566 -0.962362
    14 -3.112024 1.517254 4.341911 -0.000014 -1.370797 2.669810
    15 4.827230 0.000000 0.000001 -0.484988 0.619150 0.318017
    16 11.139763 0.000000 0.000000 0.000000 0.000000 -0.287179
    17 10.314597 0.000001 0.000000 -1.570000 0.000000 -0.069778
    18 2.975834 -0.386307 -0.044143 -0.000797 -0.043611 0.000035
    19 1.438886 0.000000 0.000000 0.000000 0.000000 0.793701
    20 1.485303 0.000000 0.000000 0.000000 0.000000 1.465302
    21 -2.869898 1.399663 -4.140396 -0.000013 1.370795 2.669783
    22 4.972048 0.000000 0.000001 0.828920 -0.213731 -1.031069
    23 11.585355 0.000000 0.000000 0.000000 0.000000 -0.217419
    24 10.127057 0.000000 0.000001 1.569752 0.000000 -0.069778
    25 2.683750 -0.427338 0.044205 0.001045 0.043611 0.000046
    26 1.438885 -0.000001 0.000000 0.000000 0.000000 0.915830
    27 1.485305 0.000001 0.000000 0.000000 0.000000 1.526342
    28 1.038631 0.548043 -0.144017 -0.000001 0.000001 -1.849906
    29 -0.064003 -0.023521 0.026161 0.000000 0.000000 0.000000
    30 3.013925 3.984634 -0.088975 -0.000001 0.000001 -1.849906
    31 -0.084188 -0.025627 -0.001098 0.000000 0.000000 0.000000
    32 4.778187 3.972486 -0.079803 -0.000001 0.000001 -1.849906
    33 -0.058556 -0.021324 0.004244 0.000000 0.000000 0.000000
    34 1.640598 -1.968779 -0.099219 -0.000001 0.000001 -1.849906
    35 0.055573 -0.028908 0.000000 0.000000 0.000000 0.000000
    36 1.646738 0.449549 -1.702246 0.154002 0.442277 0.277235
    37 0.928312 0.000000 -0.000002 0.000000 0.000000 0.000000
    38 0.928314 0.000000 0.000001 0.000000 0.000000 0.000000
    39 1.533672 0.109715 1.664491 -0.233255 -0.412980 0.435684
    40 0.928313 0.000000 0.000000 0.000000 0.000000 0.000000
    41 0.928314 0.000000 0.000001 0.000000 0.000000 0.000000
  time 12
    0 0.235347 40.122851 -8.303465 -1.271917 -1.320218 -0.046711
    1 0.679708 -0.015625 0.000000 -1.570795 -1.570796 0.000000
    2 -0.000005 0.000007 3.713255 -0.499620 3.070469 0.149274
    3 18.045721 0.000000 0.000000 0.000000 0.000000 -0.661309
    4 17.597597 0.000000 0.000000 0.048797 0.410601 -0.565461
    5 0.000005 -0.000003 -3.713255 0.441265 -3.168750 -0.408586
    6 18.045725 0.000000 0.000000 0.000000 0.000000 -0.665598
    7 17.597597 0.000000 0.000000 -0.168412 -0.234156 -0.798506
    8 1.293670 0.684478 -0.000001 -0.069775 0.000658 0.009504
    9 5.309685 -0.003834 0.000000 0.000000 0.000000 -0.069778
    10 4.826790 -0.004591 0.000000 -0.078488 0.000060 -0.000009
    11 5.792767 -0.005304 0.000000 0.000000 0.000000 0.017444
    12 6.662317 -0.001453 0.000000 0.000000 -0.000001 0.471000
    13 2.046985 -0.000002 0.000000 0.141700 0.084566 -0.962362
    14 -3.112024 1.517254 4.341911 -0.000014 -1.370797 2.669810
    15 4.827230 0.000000 0.000001 -0.699023 0.002170 -0.679173
    16 11.139763 0.000000 0.000000 0.000000 0.000000 -0.287179
    17 10.314597 0.000001 0.000000 -1.570000 0.000000 -0.069778
    18 2.975834 -0.386307 -0.044143 -0.000797 -0.043611 0.000035
    19 1.438886 0.000000 0.000000 0.000000 0.000000 0.793701
    20 1.485303 0.000000 0.000000 0.000000 0.000000 1.465302
    21 -2.869898 1.399663 -4.140396 -0.000013 1.370795 2.669783
    22 4.972048 0.000000 0.000001 0.705849 -0.534208 -0.690376
    23 11.585355 0.000000 0.000000 0.000000 0.000000 -0.217419
    24 10.127057 0.000000 0.000001 1.569752 0.000000 -0.069778
    25 2.683750 -0.427338 0.044205 0.001045 0.043611 0.000046
    26 1.438885 -0.000001 0.000000 0.000000 0.000000 0.915830
    27 1.485305 0.000001 0.000000 0.000000 0.000000 1.526342
    28 1.038631 0.548043 -0.144017 -0.000001 0.000001 -1.849906
    29 -0.064003 -0.023521 0.026161 0.000000 0.000000 0.000000
    30 3.013925 3.984634 -0.088975 -0.000001 0.000001 -1.849906
    31 -0.084188 -0.025627 -0.001098 0.000000 0.000000 0.000000
    32 4.778187 3.972486 -0.079803 -0.000001 0.000001 -1.849906
    33 -0.058556 -0.021324 0.004244 0.000000 0.000000 0.000000
    34 1.640598 -1.968779 -0.099219 -0.000001 0.000001 -1.849906
    35 0.055573 -0.028908 0.000000 0.000000 0.000000 0.000000
    36 1.646738 0.449549 -1.702246 0.154002 0.442277 0.277235
    37 0.928312 0.000000 -0.000002 0.000000 0.000000 0.000000
    38 0.928314 0.000000 0.000001 0.000000 0.000000 0.000000
    39 1.533672 0.109715 1.664491 -0.233255 -0.412980 0.435684
    40 0.928313 0.000000 0.000000 0.000000 0.000000 0.000000
    41 0.928314 0.000000 0.000001 0.000000 0.000000 0.000000
  time 13
    0 0.235347 43.908123 -12.889543 -1.015385 -1.817379 -0.278252
    1 0.679708 -0.015625 0.000000 -1.570795 -1.570796 0.000000
    2 -0.000005 0.000007 3.713255 -0.526362 3.150501 -0.032066
    3 18.045721 0.000000 0.000000 0.000000 0.000000 -0.695298
    4 17.597597 0.000000 0.000000 0.048695 0.471750 -0.669320
    5 0.000005 -0.000003 -3.713255 0.353732 -3.130460 -0.417798
    6 18.045725 0.000000 0.000000 0.000000 0.000000 -0.680521
    7 17.597597 0.000000 0.000000 -0.143595 -0.151216 -0.771996
    8 1.293670 0.684478 -0.000001 -0.069775 0.000658 0.009504
    9 5.309685 -0.003834 0.000000 0.000000 0.000000 -0.069778
    10 4.826790 -0.004591 0.000000 -0.078488 0.000060 -0.000009
    11 5.792767 -0.005304 0.000000 0.000000 0.000000 0.017444
    12 6.662317 -0.001453 0.000000 0.000000 -0.000001 0.471000
    13 2.046985 -0.000002 0.000000 0.141700 0.084566 -0.962362
    14 -3.112024 1.517254 4.341911 -0.000014 -1.370797 2.669810
    15 4.827230 0.000000 0.000001 -0.419732 0.238750 -0.600501
    16 11.139763 0.000000 0.000000 0.000000 0.000000 -0.589083
    17 10.314597 0.000001 0.000000 -1.570000 0.000000 -0.069778
    18 2.975834 -0.386307 -0.044143 -0.000797 -0.043611 0.000035
    19 1.438886 0.000000 0.000000 0.000000 0.000000 0.793701
    20 1.485303 0.000000 0.000000 0.000000 0.000000 1.465302
    21 -2.869898 1.399663 -4.140396 -0.000013 1.370795 2.669783
    22 4.972048 0.000000 0.000001 0.705849 -0.534208 -0.690376
    23 11.585355 0.000000 0.000000 0.000000 0.000000 -0.217419
    24 10.127057 0.000000 0.000001 1.569752 0.000000 -0.069778
    25 2.683750 -0.427338 0.044205 0.001045 0.043611 0.000046
    26 1.438885 -0.000001 0.000000 0.000000 0.000000 0.915830
    27 1.485305 0.000001 0.000000 0.000000 0.000000 1.526342
    28 1.038631 0.548043 -0.144017 -0.000001 0.000001 -1.849906
    29 -0.064003 -0.023521 0.026161 0.000000 0.000000 0.000000
    30 3.013925 3.984634 -0.088975 -0.000001 0.000001 -1.849906
    31 -0.084188 -0.025627 -0.001098 0.000000 0.000000 0.000000
    32 4.778187 3.972486 -0.079803 -0.000001 0.000001 -1.849906
    33 -0.058556 -0.021324 0.004244 0.000000 0.000000 0.000000
    34 1.640598 -1.968779 -0.099219 -0.000001 0.000001 -1.849906
    35 0.055573 -0.028908 0.000000 0.000000 0.000000 0.000000
    36 1.646738 0.449549 -1.702246 0.154002 0.442277 0.277235
    37 0.928312 0.000000 -0.000002 0.000000 0.000000 0.000000
    38 0.928314 0.000000 0.000001 0.000000 0.000000 0.000000
    39 1.533672 0.109715 1.664491 -0.233255 -0.412980 0.435684
    40 0.928313 0.000000 0.000000 0.000000 0.000000 0.000000
    41 0.928314 0.000000 0.000001 0.000000 0.000000 0.000000
  time 14
    0 0.235347 46.998061 -18.038137 -1.090938 -2.297289 -0.180961
    1 0.679708 -0.015625 0.000000 -1.570795 -1.570796 0.000000
    2 -0.000005 0.000007 3.713255 -0.544382 3.247459 -0.257574
    3 18.045721 0.000000 0.000000 0.000000 0.000000 -0.737227
    4 17.597597 0.000000 0.000000 0.045881 0.546458 -0.789879
    5 0.000005 -0.000003 -3.713255 0.277487 -3.097435 -0.427446
    6 18.045725 0.000000 0.000000 0.000000 0.000000 -0.716816
    7 17.597597 0.000000 0.000000 -0.119866 -0.079499 -0.726736
    8 1.293670 0.684478 -0.000001 -0.069775 0.000658 0.009504
    9 5.309685 -0.003834 0.000000 0.000000 0.000000 -0.069778
    10 4.826790 -0.004591 0.000000 -0.078488 0.000060 -0.000009
    11 5.792767 -0.005304 0.000000 0.000000 0.000000 0.017444
    12 6.662317 -0.001453 0.000000 0.000000 -0.000001 0.471000
    13 2.046985 -0.000002 0.000000 0.141700 0.084566 -0.962362
    14 -3.112024 1.517254 4.341911 -0.000014 -1.370797 2.669810
    15 4.827230 0.000000 0.000001 -0.024377 0.509115 -0.245993
    16 11.139763 0.000000 0.000000 0.000000 0.000000 -0.906895
    17 10.314597 0.000001 0.000000 -1.570000 0.000000 -0.069778
    18 2.975834 -0.386307 -0.044143 -0.000797 -0.043611 0.000035
    19 1.438886 0.000000 0.000000 0.000000 0.000000 0.793701
    20 1.485303 0.000000 0.000000 0.000000 0.000000 1.465302
    21 -2.869898 1.399663 -4.140396 -0.000013 1.370795 2.669783
    22 4.972048 0.000000 0.000001 0.705849 -0.534208 -0.690376
    23 11.585355 0.000000 0.000000 0.000000 0.000000 -0.217419
    24 10.127057 0.000000 0.000001 1.569752 0.000000 -0.069778
    25 2.683750 -0.427338 0.044205 0.001045 0.043611 0.000046
    26 1.438885 -0.000001 0.000000 0.000000 0.000000 0.915830
    27 1.485305 0.000001 0.000000 0.000000 0.000000 1.526342
    28 1.038631 0.548043 -0.144017 -0.000001 0.000001 -1.849906
    29 -0.064003 -0.023521 0.026161 0.000000 0.000000 0.000000
    30 3.013925 3.984634 -0.088975 -0.000001 0.000001 -1.849906
    31 -0.084188 -0.025627 -0.001098 0.000000 0.000000 0.000000
    32 4.778187 3.972486 -0.079803 -0.000001 0.000001 -1.849906
    33 -0.058556 -0.021324 0.004244 0.000000 0.000000 0.000000
    34 1.640598 -1.968779 -0.099219 -0.000001 0.000001 -1.849906
    35 0.055573 -0.028908 0.000000 0.000000 0.000000 0.000000
    36 1.646738 0.449549 -1.702246 0.154002 0.442277 0.277235
    37 0.928312 0.000000 -0.000002 0.000000 0.000000 0.000000
    38 0.928314 0.000000 0.000001 0.000000 0.000000 0.000000
    39 1.533672 0.109715 1.664491 -0.233255 -0.412980 0.435684
    40 0.928313 0.000000 0.000000 0.000000 0.000000 0.000000
    41 0.928314 0.000000 0.000001 0.000000 0.000000 0.000000
  time 15
    0 0.235347 49.080156 -22.612496 -1.105758 -2.698147 -0.153598
    1 -3.203223 0.347667 0.000000 -1.570795 -1.570796 0.000000
    2 -0.000005 0.000007 3.713255 -0.537097 3.320990 -0.503101
    3 18.045721 0.000000 0.000000 0.000000 0.000000 -0.782792
    4 17.597597 0.000000 0.000000 0.032446 0.602422 -0.873195
    5 0.000005 -0.000003 -3.713255 0.268781 -3.114665 -0.456536
    6 18.045725 0.000000 0.000000 0.000000 0.000000 -1.078315
    7 17.597597 0.000000 0.000000 -0.105223 -0.068848 -0.391303
    8 1.293670 0.684478 -0.000001 -0.069775 0.000658 0.009504
    9 5.309685 -0.003834 0.000000 0.000000 0.000000 0.340155
    10 4.826790 -0.004591 0.000000 -0.063529 0.046129 0.626512
    11 5.792767 -0.005304 0.000000 0.433602 -0.048142 0.102779
    12 6.662317 -0.001453 0.000000 0.000000 -0.000001 0.471000
    13 2.046985 -0.000002 0.000000 -0.298435 -0.163369 -0.719419
    14 -3.112024 1.517254 4.341911 -0.000014 -1.370797 2.669810
    15 4.827230 0.000000 0.000001 -0.600287 0.455587 -0.946345
    16 11.139763 0.000000 0.000000 0.000000 0.000000 -1.261429
    17 10.314597 0.000001 0.000000 -1.570000 0.000000 -0.069778
    18 2.975834 -0.386307 -0.044143 -0.000797 -0.043611 0.000035
    19 1.438886 0.000000 0.000000 0.000000 0.000000 0.793701
    20 1.485303 0.000000 0.000000 0.000000 0.000000 1.465302
    21 -2.869898 1.399663 -4.140396 -0.000013 1.370795 2.669783
    22 4.972048 0.000000 0.000001 1.486203 0.346862 -0.703617
    23 11.585355 0.000000 0.000000 0.000000 0.000000 -0.217419
    24 10.127057 0.000000 0.000001 1.569752 0.000000 -0.069778
    25 2.683750 -0.427338 0.044205 0.001045 0.043611 0.000046
    26 1.438885 -0.000001 0.000000 0.000000 0.000000 0.915830
    27 1.485305 0.000001 0.000000 0.000000 0.000000 1.526342
    28 1.038631 0.548043 -0.144017 -0.000001 0.000001 -1.849906
    29 -0.064003 -0.023521 0.026161 0.000000 0.000000 0.000000
    30 3.013925 3.984634 -0.088975 -0.000001 0.000001 -1.849906
    31 -0.084188 -0.025627 -0.001098 0.000000 0.000000 0.000000
    32 4.778187 3.972486 -0.079803 -0.000001 0.000001 -1.849906
    33 -0.058556 -0.021324 0.004244 0.000000 0.000000 0.000000
    34 1.640598 -1.968779 -0.099219 -0.000001 0.000001 -1.849906
    35 0.055573 -0.028908 0.000000 0.000000 0.000000 0.000000
    36 1.646738 0.449549 -1.702246 0.154002 0.442277 0.277235
    37 0.928312 0.000000 -0.000002 0.000000 0.000000 0.000000
    38 0.928314 0.000000 0.000001 0.000000 0.000000 0.000000
    39 1.533672 0.109715 1.664491 -0.233255 -0.412980 0.435684
    40 0.928313 0.000000 0.000000 0.000000 0.000000 0.000000
    41 0.928314 0.000000 0.000001 0.000000 0.000000 0.000000
  time 16
    0 0.235347 49.845804 -26.655588 -1.081418 -2.913782 -0.140107
    1 -4.961089 -2.011780 0.000000 -1.570795 -1.570796 0.000000
    2 -0.000005 0.000007 3.713255 -0.553008 3.017783 -0.736238
    3 18.045721 0.000000 0.000000 0.000000 0.000000 -0.828877
    4 17.597597 0.000000 0.000000 -0.105787 0.583093 -0.366437
    5 0.000005 -0.000003 -3.713255 0.156088 -3.368625 -0.349145
    6 18.045725 0.000000 0.000000 0.000000 0.000000 -1.222987
    7 17.597597 0.000000 0.000000 0.088780 0.087703 -0.197008
    8 1.293670 0.684478 -0.000001 0.106367 -0.060068 0.512202
    9 5.309685 -0.003834 0.000000 0.194313 -0.237942 0.300207
    10 4.826790 -0.004591 0.000000 -0.077322 -0.013543 -0.173909
    11 5.792767 -0.005304 0.000000 0.433602 -0.048142 0.102779
    12 6.662317 -0.001453 0.000000 0.000000 -0.000001 0.471000
    13 2.046985 -0.000002 0.000000 -0.657230 0.329326 -0.618377
    14 -3.112024 1.517254 4.341911 -0.000014 -1.370797 2.669810
    15 4.827230 0.000000 0.000001 0.471005 0.396867 -0.367546
    16 11.139763 0.000000 0.000000 0.000000 0.000000 -1.639159
    17 10.314597 0.000001 0.000000 -1.570000 0.000000 -0.069778
    18 2.975834 -0.386307 -0.044143 -0.000797 -0.043611 0.000035
    19 1.438886 0.000000 0.000000 0.000000 0.000000 0.793701
    20 1.485303 0.000000 0.000000 0.000000 0.000000 1.465302
    21 -2.869898 1.399663 -4.140396 -0.000013 1.370795 2.669783
    22 4.972048 0.000000 0.000001 1.715328 -0.290633 -0.423461
    23 11.585355 0.000000 0.000000 0.000000 0.000000 -0.565035
    24 10.127057 0.000000 0.000001 1.569752 0.000000 -0.069778
    25 2.683750 -0.427338 0.044205 0.001045 0.043611 0.000046
    26 1.438885 -0.000001 0.000000 0.000000 0.000000 0.915830
    27 1.485305 0.000001 0.000000 0.000000 0.000000 1.526342
    28 1.038631 0.548043 -0.144017 -0.000001 0.000001 -1.849906
    29 -0.064003 -0.023521 0.026161 0.000000 0.000000 0.000000
    30 3.013925 3.984634 -0.088975 -0.000001 0.000001 -1.849906
    31 -0.084188 -0.025627 -0.001098 0.000000 0.000000 0.000000
    32 4.778187 3.972486 -0.079803 -0.000001 0.000001 -1.849906
    33 -0.058556 -0.021324 0.004244 0.000000 0.000000 0.000000
    34 1.640598 -1.968779 -0.099219 -0.000001 0.000001 -1.849906
    35 0.055573 -0.028908 0.000000 0.000000 0.000000 0.000000
    36 1.646738 0.449549 -1.702246 0.154002 0.442277 0.277235
    37 0.928312 0.000000 -0.000002 0.000000 0.000000 0.000000
    38 0.928314 0.000000 0.000001 0.000000 0.000000 0.000000
    39 1.533672 0.109715 1.664491 -0.233255 -0.412980 0.435684
    40 0.928313 0.000000 0.000000 0.000000 0.000000 0.000000
    41 0.928314 0.000000 0.000001 0.000000 0.000000 0.000000
  time 17
    0 0.235347 49.845804 -26.889970 -1.081418 -2.913782 -0.140107
    1 -4.961089 -2.011780 0.000000 -1.570795 -1.570796 0.000000
    2 -0.000005 0.000007 3.713255 -0.651253 2.623642 -0.899065
    3 18.045721 0.000000 0.000000 0.000000 0.000000 -0.856335
    4 17.597597 0.000000 0.000000 0.208856 0.173626 -0.464485
    5 0.000005 -0.000003 -3.713255 0.065589 -3.641251 -0.258044
    6 18.045725 0.000000 0.000000 0.000000 0.000000 -1.322454
    7 17.597597 0.000000 0.000000 0.271421 0.252991 -0.087497
    8 1.293670 0.684478 -0.000001 0.106367 -0.060068 0.512202
    9 5.309685 -0.003834 0.000000 0.194313 -0.237942 0.300207
    10 4.826790 -0.004591 0.000000 -0.077322 -0.013543 -0.173909
    11 5.792767 -0.005304 0.000000 0.433602 -0.048142 0.102779
    12 6.662317 -0.001453 0.000000 0.000000 -0.000001 0.471000
    13 2.046985 -0.000002 0.000000 -0.683984 0.259305 -0.710565
    14 -3.112024 1.517254 4.341911 -0.000014 -1.370797 2.669810
    15 4.827230 0.000000 0.000001 0.471005 0.396867 -0.367546
    16 11.139763 0.000000 0.000000 0.000000 0.000000 -1.639159
    17 10.314597 0.000001 0.000000 -1.570000 0.000000 -0.069778
    18 2.975834 -0.386307 -0.044143 -0.000797 -0.043611 0.000035
    19 1.438886 0.000000 0.000000 0.000000 0.000000 0.793701
    20 1.485303 0.000000 0.000000 0.000000 0.000000 1.465302
    21 -2.869898 1.399663 -4.140396 -0.000013 1.370795 2.669783
    22 4.972048 0.000000 0.000001 1.722909 -0.425371 -0.443025
    23 11.585355 0.000000 0.000000 0.000000 0.000000 -0.915519
    24 10.127057 0.000000 0.000001 1.569752 -0.095995 -0.069778
    25 2.683750 -0.427338 0.044205 0.001045 0.043611 0.000046
    26 1.438885 -0.000001 0.000000 0.000000 0.000000 0.915830
    27 1.485305 0.000001 0.000000 0.000000 0.000000 1.526342
    28 1.038631 0.548043 -0.144017 -0.000001 0.000001 -1.849906
    29 -0.064003 -0.023521 0.026161 0.000000 0.000000 0.000000
    30 3.013925 3.984634 -0.088975 -0.000001 0.000001 -1.849906
    31 -0.084188 -0.025627 -0.001098 0.000000 0.000000 0.000000
    32 4.778187 3.972486 -0.079803 -0.000001 0.000001 -1.849906
    33 -0.058556 -0.021324 0.004244 0.000000 0.000000 0.000000
    34 1.640598 -1.968779 -0.099219 -0.000001 0.000001 -1.849906
    35 0.055573 -0.028908 0.000000 0.000000 0.000000 0.000000
    36 1.646738 0.449549 -1.702246 0.154002 0.442277 0.277235
    37 0.928312 0.000000 -0.000002 0.000000 0.000000 0.000000
    38 0.928314 0.000000 0.000001 0.000000 0.000000 0.000000
    39 1.533672 0.109715 1.664491 -0.233255 -0.412980 0.435684
    40 0.928313 0.000000 0.000000 0.000000 0.000000 0.000000
    41 0.928314 0.000000 0.000001 0.000000 0.000000 0.000000
  time 18
    0 0.235347 49.845804 -26.038382 -1.081418 -2.913782 -0.140107
    1 -4.441542 -1.800836 0.000000 -1.570795 -1.570796 0.000000
    2 -0.000005 0.000007 3.713255 -0.651253 2.623642 -0.899065
    3 18.045721 0.000000 0.000000 0.000000 0.000000 -0.856335
    4 17.597597 0.000000 0.000000 0.162643 0.130612 -0.433831
    5 0.000005 -0.000003 -3.713255 0.069129 -3.728266 -0.251208
    6 18.045725 0.000000 0.000000 0.000000 0.000000 -1.322454
    7 17.597597 0.000000 0.000000 0.182178 0.265969 -0.110402
    8 1.293670 0.684478 -0.000001 0.106367 -0.060068 0.512202
    9 5.309685 -0.003834 0.000000 0.200569 -0.212607 0.170601
    10 4.826790 -0.004591 0.000000 -0.077322 -0.013543 -0.173909
    11 5.792767 -0.005304 0.000000 0.433602 -0.048142 0.102779
    12 6.662317 -0.001453 0.000000 0.000000 -0.000001 0.471000
    13 2.046985 -0.000002 0.000000 -0.687302 0.237803 -0.678427
    14 -3.112024 1.517254 4.341911 -0.000014 -1.370797 2.669810
    15 4.827230 0.000000 0.000001 0.841044 0.787650 0.139319
    16 11.139763 0.000000 0.000000 0.000000 0.000000 -1.909527
    17 10.314597 0.000001 0.000000 -1.570000 0.000000 -0.069778
    18 2.975834 -0.386307 -0.044143 -0.000797 -0.043611 0.000035
    19 1.438886 0.000000 0.000000 0.000000 0.000000 0.793701
    20 1.485303 0.000000 0.000000 0.000000 0.000000 1.046656
    21 -2.869898 1.399663 -4.140396 -0.000013 1.370795 2.669783
    22 4.972048 0.000000 0.000001 1.621574 -0.639586 -0.404951
    23 11.585355 0.000000 0.000000 0.000000 0.000000 -1.230745
    24 10.127057 0.000000 0.000001 1.569752 -0.191477 -0.069778
    25 2.683750 -0.427338 0.044205 0.001045 0.043611 0.000046
    26 1.438885 -0.000001 0.000000 0.000000 0.000000 0.915830
    27 1.485305 0.000001 0.000000 0.000000 0.000000 1.526342
    28 1.038631 0.548043 -0.144017 -0.000001 0.000001 -1.849906
    29 -0.064003 -0.023521 0.026161 0.000000 0.000000 0.000000
    30 3.013925 3.984634 -0.088975 -0.000001 0.000001 -1.849906
    31 -0.084188 -0.025627 -0.001098 0.000000 0.000000 0.000000
    32 4.778187 3.972486 -0.079803 -0.000001 0.000001 -1.849906
    33 -0.058556 -0.021324 0.004244 0.000000 0.000000 0.000000
    34 1.640598 -1.968779 -0.099219 -0.000001 0.000001 -1.849906
    35 0.055573 -0.028908 0.000000 0.000000 0.000000 0.000000
    36 1.646738 0.449549 -1.702246 0.154002 0.442277 0.277235
    37 0.928312 0.000000 -0.000002 0.000000 0.000000 0.000000
    38 0.928314 0.000000 0.000001 0.000000 0.000000 0.000000
    39 1.533672 0.109715 1.664491 -0.233255 -0.412980 0.435684
    40 0.928313 0.000000 0.000000 0.000000 0.000000 0.000000
    41 0.928314 0.000000 0.000001 0.000000 0.000000 0.000000
  time 19
    0 0.235347 49.845804 -26.698558 -1.081418 -2.913782 -0.140107
    1 -4.652486 -1.843806 0.000000 -1.570795 -1.570796 0.000000
    2 -0.000005 0.000007 3.713255 -0.651253 2.623642 -0.899065
    3 18.045721 0.000000 0.000000 0.000000 0.000000 -0.856335
    4 17.597597 0.000000 0.000000 0.042637 0.156367 -0.388490
    5 0.000005 -0.000003 -3.713255 0.067216 -3.685189 -0.254698
    6 18.045725 0.000000 0.000000 0.000000 0.000000 -1.322454
    7 17.597597 0.000000 0.000000 0.226437 0.259796 -0.098898
    8 1.293670 0.684478 -0.000001 0.106367 -0.060068 0.512202
    9 5.309685 -0.003834 0.000000 0.197900 -0.225250 0.234652
    10 4.826790 -0.004591 0.000000 -0.077322 -0.013543 -0.173909
    11 5.792767 -0.005304 0.000000 0.435950 -0.011613 0.024130
    12 6.662317 -0.001453 0.000000 0.000000 -0.000001 0.471000
    13 2.046985 -0.000002 0.000000 -0.710093 0.148666 -0.728993
    14 -3.112024 1.517254 4.341911 -0.000014 -1.370797 2.669810
    15 4.827230 0.000000 0.000001 1.520858 1.005763 0.962974
    16 11.139763 0.000000 0.000000 0.000000 0.000000 -2.179895
    17 10.314597 0.000001 0.000000 -1.570000 0.000000 -0.069778
    18 2.975834 -0.386307 -0.044143 -0.000797 -0.043611 0.000035
    19 1.438886 0.000000 0.000000 0.000000 0.000000 0.793701
    20 1.485303 0.000000 0.000000 0.000000 0.000000 0.627962
    21 -2.869898 1.399663 -4.140396 -0.000013 1.370795 2.669783
    22 4.972048 0.000000 0.000001 1.582355 -0.721394 -0.361673
    23 11.585355 0.000000 0.000000 0.000000 0.000000 -1.473495
    24 10.127057 0.000000 0.000001 1.569752 -0.266600 -0.069778
    25 2.683750 -0.427338 0.044205 0.001045 0.043611 0.000046
    26 1.438885 -0.000001 0.000000 0.000000 0.000000 0.915830
    27 1.485305 0.000001 0.000000 0.000000 0.000000 1.526342
    28 1.038631 0.548043 -0.144017 -0.000001 0.000001 -1.849906
    29 -0.064003 -0.023521 0.026161 0.000000 0.000000 0.000000
    30 3.013925 3.984634 -0.088975 -0.000001 0.000001 -1.849906
    31 -0.084188 -0.025627 -0.001098 0.000000 0.000000 0.000000
    32 4.778187 3.972486 -0.079803 -0.000001 0.000001 -1.849906
    33 -0.058556 -0.021324 0.004244 0.000000 0.000000 0.000000
    34 1.640598 -1.968779 -0.099219 -0.000001 0.000001 -1.849906
    35 0.055573 -0.028908 0.000000 0.000000 0.000000 0.000000
    36 1.646738 0.449549 -1.702246 0.154002 0.442277 0.277235
    37 0.928312 0.000000 -0.000002 0.000000 0.000000 0.000000
    38 0.928314 0.000000 0.000001 0.000000 0.000000 0.000000
    39 1.533672 0.109715 1.664491 -0.233255 -0.412980 0.435684
    40 0.928313 0.000000 0.000000 0.000000 0.000000 0.000000
    41 0.928314 0.000000 0.000001 0.000000 0.000000 0.000000
  time 20
    0 0.235347 49.845804 -27.327483 -1.081418 -2.913782 -0.140107
    1 -4.867336 -1.898495 0.000000 -1.570795 -1.570796 0.000000
    2 -0.000005 0.000007 3.713255 -0.651253 2.623642 -0.899065
    3 18.045721 0.000000 0.000000 0.000000 0.000000 -0.856335
    4 17.597597 0.000000 0.000000 -0.042869 0.179103 -0.358339
    5 0.000005 -0.000003 -3.713255 0.065589 -3.641251 -0.258044
    6 18.045725 0.000000 0.000000 0.000000 0.000000 -1.322454
    7 17.597597 0.000000 0.000000 0.271421 0.252991 -0.087497
    8 1.293670 0.684478 -0.000001 0.106367 -0.060068 0.512202
    9 5.309685 -0.003834 0.000000 0.194313 -0.237942 0.300207
    10 4.826790 -0.004591 0.000000 -0.077322 -0.013543 -0.173909
    11 5.792767 -0.005304 0.000000 0.435754 0.018073 -0.039591
    12 6.662317 -0.001453 0.000000 0.000000 -0.000001 0.471000
    13 2.046985 -0.000002 0.000000 -0.720734 0.076258 -0.771739
    14 -3.112024 1.517254 4.341911 -0.000014 -1.370797 2.669810
    15 4.827230 0.000000 0.000001 1.415309 1.009252 0.996841
    16 11.139763 0.000000 0.000000 0.000000 0.000000 -2.179895
    17 10.314597 0.000001 0.000000 -1.570000 0.418648 -0.069778
    18 2.975834 -0.386307 -0.044143 -0.000797 -0.043611 0.000035
    19 1.438886 0.000000 0.000000 0.000000 0.000000 0.793701
    20 1.485303 0.000000 0.000000 0.000000 0.000000 0.627962
    21 -2.869898 1.399663 -4.140396 -0.000013 1.370795 2.669783
    22 4.972048 0.000000 0.000001 1.560077 -0.771750 -0.331371
    23 11.585355 0.000000 0.000000 0.000000 0.000000 -1.656572
    24 10.127057 0.000000 0.000001 1.569752 -0.322719 -0.069778
    25 2.683750 -0.427338 0.044205 0.001045 0.043611 0.000046
    26 1.438885 -0.000001 0.000000 0.000000 0.000000 0.915830
    27 1.485305 0.000001 0.000000 0.000000 0.000000 1.526342
    28 1.038631 0.548043 -0.144017 -0.000001 0.000001 -1.849906
    29 -0.064003 -0.023521 0.026161 0.000000 0.000000 0.000000
    30 3.013925 3.984634 -0.088975 -0.000001 0.000001 -1.849906
    31 -0.084188 -0.025627 -0.001098 0.000000 0.000000 0.000000
    32 4.778187 3.972486 -0.079803 -0.000001 0.000001 -1.849906
    33 -0.058556 -0.021324 0.004244 0.000000 0.000000 0.000000
    34 1.640598 -1.968779 -0.099219 -0.000001 0.000001 -1.849906
    35 0.055573 -0.028908 0.000000 0.000000 0.000000 0.000000
    36 1.646738 0.449549 -1.702246 0.154002 0.442277 0.277235
    37 0.928312 0.000000 -0.000002 0.000000 0.000000 0.000000
    38 0.928314 0.000000 0.000001 0.000000 0.000000 0.000000
    39 1.533672 0.109715 1.664491 -0.233255 -0.412980 0.435684
    40 0.928313 0.000000 0.000000 0.000000 0.000000 0.000000
    41 0.928314 0.000000 0.000001 0.000000 0.000000 0.000000
end
