version 1
nodes
  0 "Bip01" -1
  1 "Bip01 Pelvis" 0
  2 "Bip01 L Leg" 1
  3 "Bip01 L Leg1" 2
  4 "Bip01 L Foot" 3
  5 "Bip01 R Leg" 1
  6 "Bip01 R Leg1" 5
  7 "Bip01 R Foot" 6
  8 "Bip01 Spine" 1
  9 "Bip01 Spine1" 8
  10 "Bip01 Spine2" 9
  11 "Bip01 Spine3" 10
  12 "Bip01 Neck" 11
  13 "Bip01 Head" 12
  14 "Bip01 L Arm" 12
  15 "Bip01 L Arm1" 14
  16 "Bip01 L Arm2" 15
  17 "Bip01 L Hand" 16
  18 "Bip01 L Finger1" 17
  19 "Bip01 L Finger11" 18
  20 "Bip01 L Finger12" 19
  21 "Bip01 R Arm" 12
  22 "Bip01 R Arm1" 21
  23 "Bip01 R Arm2" 22
  24 "Bip01 R Hand" 23
  25 "Bip01 R Finger1" 24
  26 "Bip01 R Finger11" 25
  27 "Bip01 R Finger12" 26
  28 "Dummy08" 13
  29 "Bone02" 28
  30 "Dummy04" 13
  31 "Bone05" 30
  32 "Dummy03" 13
  33 "Bone07" 32
  34 "Dummy10" 13
  35 "Bone13" 34
  36 "Bip01 L Finger0" 17
  37 "Bip01 L Finger01" 36
  38 "Bip01 L Finger02" 37
  39 "Bip01 R Finger0" 24
  40 "Bip01 R Finger01" 39
  41 "Bip01 R Finger02" 40
end
skeleton
  time 0
    0 0.235347 0.367732 3.528927 0.000000 0.000000 -1.570874
    1 0.000000 0.000000 0.000000 -1.570795 -1.570796 0.000000
    2 -0.000005 0.000007 3.713255 0.002054 3.115505 -0.021473
    3 18.045721 0.000000 0.000000 0.000000 0.000000 -0.121501
    4 17.597597 0.000000 0.000000 -0.002613 0.026036 0.099967
    5 0.000005 -0.000003 -3.713255 -0.002524 -3.124238 -0.024449
    6 18.045725 0.000000 0.000000 0.000000 0.000000 -0.127551
    7 17.597597 0.000000 0.000000 0.002950 -0.017289 0.103055
    8 1.293670 0.684478 -0.000001 -0.000004 -0.000001 0.306070
    9 5.309685 -0.003834 0.000000 0.000000 0.000000 -0.000004
    10 4.826790 -0.004591 0.000000 -0.173330 0.019775 0.111669
    11 5.792767 -0.005304 0.000000 -0.138190 0.019451 0.138200
    12 6.662317 -0.001453 0.000000 0.000000 -0.000001 0.471000
    13 2.046985 -0.000002 0.000000 0.254749 -0.184713 -0.060846
    14 -3.112024 1.517254 4.341911 1.021706 -1.200316 1.679890
    15 4.827230 0.000000 0.000001 0.100848 0.743738 -0.910378
    16 11.139763 0.000000 0.000000 0.000000 0.000000 -0.786849
    17 10.314597 0.000001 0.000000 -3.878403 0.130323 -0.281151
    18 2.975834 -0.386307 -0.044143 -0.000797 -0.043611 0.000035
    19 1.438886 0.000000 0.000000 0.000000 0.000000 0.872212
    20 1.485303 0.000000 0.000000 0.000000 0.000000 0.907076
    21 -2.869898 1.399663 -4.140396 0.672729 1.317206 3.326706
    22 4.972048 0.000000 0.000001 -1.089399 -1.024254 0.318132
    23 11.585355 0.000000 0.000000 0.000000 0.000000 -1.839859
    24 10.127057 0.000000 0.000001 1.597717 0.255825 0.214802
    25 2.683750 -0.427338 0.044205 -0.005786 0.043239 -0.157091
    26 1.438885 -0.000001 0.000000 0.000000 0.000000 0.732658
    27 1.485305 0.000001 0.000000 0.000000 0.000000 1.168770
    28 1.038631 0.548043 -0.144017 -0.000001 0.000001 -1.849906
    29 -0.064003 -0.023521 0.026161 0.000000 0.000000 0.000000
    30 3.013925 3.984634 -0.088975 -0.000001 0.000001 -1.849906
    31 -0.084188 -0.025627 -0.001098 0.000000 0.000000 0.000000
    32 4.778187 3.972486 -0.079803 -0.000001 0.000001 -1.849906
    33 -0.058556 -0.021324 0.004244 0.000000 0.000000 0.000000
    34 1.640598 -1.968779 -0.099219 -0.000001 0.000001 -1.849906
    35 0.055573 -0.028908 0.000000 0.000000 0.000000 0.000000
    36 1.646738 0.449549 -1.702246 -0.161934 0.581206 -0.284024
    37 0.928312 0.000000 -0.000002 0.000000 0.000000 0.000000
    38 0.928314 0.000000 0.000001 0.000000 0.000000 0.000000
    39 1.533672 0.109715 1.664491 -0.264755 -0.055959 0.783109
    40 0.928313 0.000000 0.000000 0.000000 0.000000 -0.453556
    41 0.928314 0.000000 0.000001 0.000000 0.000000 0.000000
  time 1
    0 0.235347 0.367732 3.528927 0.000000 0.000000 -1.570874
    1 0.000000 0.000000 0.000000 -1.570795 -1.570796 0.000000
    2 -0.000005 0.000007 3.713255 0.002054 3.115505 -0.021473
    3 18.045721 0.000000 0.000000 0.000000 0.000000 -0.121501
    4 17.597597 0.000000 0.000000 -0.002613 0.026036 0.099967
    5 0.000005 -0.000003 -3.713255 -0.002524 -3.124238 -0.024449
    6 18.045725 0.000000 0.000000 0.000000 0.000000 -0.127551
    7 17.597597 0.000000 0.000000 0.002950 -0.017289 0.103055
    8 1.293670 0.684478 -0.000001 -0.000004 -0.000001 0.306070
    9 5.309685 -0.003834 0.000000 0.000000 0.000000 -0.000004
    10 4.826790 -0.004591 0.000000 -0.173297 0.019954 0.112727
    11 5.792767 -0.005304 0.000000 -0.138158 0.019655 0.139633
    12 6.662317 -0.001453 0.000000 0.000000 -0.000001 0.471000
    13 2.046985 -0.000002 0.000000 0.254835 -0.184578 -0.063363
    14 -3.112024 1.517254 4.341911 1.016145 -1.198969 1.685834
    15 4.827230 0.000000 0.000001 0.102610 0.739738 -0.909590
    16 11.139763 0.000000 0.000000 0.000000 0.000000 -0.786849
    17 10.314597 0.000001 0.000000 -3.878403 0.130323 -0.281151
    18 2.975834 -0.386307 -0.044143 -0.000797 -0.043611 0.000035
    19 1.438886 0.000000 0.000000 0.000000 0.000000 0.872212
    20 1.485303 0.000000 0.000000 0.000000 0.000000 0.907076
    21 -2.869898 1.399663 -4.140396 0.663238 1.314041 3.316927
    22 4.972048 0.000000 0.000001 -1.082901 -1.021680 0.312071
    23 11.585355 0.000000 0.000000 0.000000 0.000000 -1.839859
    24 10.127057 0.000000 0.000001 1.597717 0.255825 0.214802
    25 2.683750 -0.427338 0.044205 -0.005786 0.043239 -0.157091
    26 1.438885 -0.000001 0.000000 0.000000 0.000000 0.732658
    27 1.485305 0.000001 0.000000 0.000000 0.000000 1.168770
    28 1.038631 0.548043 -0.144017 -0.000001 0.000001 -1.849906
    29 -0.064003 -0.023521 0.026161 0.000000 0.000000 0.000000
    30 3.013925 3.984634 -0.088975 -0.000001 0.000001 -1.849906
    31 -0.084188 -0.025627 -0.001098 0.000000 0.000000 0.000000
    32 4.778187 3.972486 -0.079803 -0.000001 0.000001 -1.849906
    33 -0.058556 -0.021324 0.004244 0.000000 0.000000 0.000000
    34 1.640598 -1.968779 -0.099219 -0.000001 0.000001 -1.849906
    35 0.055573 -0.028908 0.000000 0.000000 0.000000 0.000000
    36 1.646738 0.449549 -1.702246 -0.161934 0.581206 -0.284024
    37 0.928312 0.000000 -0.000002 0.000000 0.000000 0.000000
    38 0.928314 0.000000 0.000001 0.000000 0.000000 0.000000
    39 1.533672 0.109715 1.664491 -0.264755 -0.055959 0.783109
    40 0.928313 0.000000 0.000000 0.000000 0.000000 -0.453556
    41 0.928314 0.000000 0.000001 0.000000 0.000000 0.000000
  time 2
    0 0.235347 0.367732 3.528927 0.000000 0.000000 -1.570874
    1 0.000000 0.000000 0.000000 -1.570795 -1.570796 0.000000
    2 -0.000005 0.000007 3.713255 0.002054 3.115505 -0.021473
    3 18.045721 0.000000 0.000000 0.000000 0.000000 -0.121501
    4 17.597597 0.000000 0.000000 -0.002613 0.026036 0.099967
    5 0.000005 -0.000003 -3.713255 -0.002524 -3.124238 -0.024449
    6 18.045725 0.000000 0.000000 0.000000 0.000000 -0.127551
    7 17.597597 0.000000 0.000000 0.002950 -0.017289 0.103055
    8 1.293670 0.684478 -0.000001 -0.000004 -0.000001 0.306070
    9 5.309685 -0.003834 0.000000 0.000000 0.000000 -0.000004
    10 4.826790 -0.004591 0.000000 -0.173264 0.020218 0.114205
    11 5.792767 -0.005304 0.000000 -0.138125 0.019930 0.141605
    12 6.662317 -0.001453 0.000000 0.000000 -0.000001 0.471000
    13 2.046985 -0.000002 0.000000 0.254922 -0.184398 -0.066869
    14 -3.112024 1.517254 4.341911 1.008571 -1.197123 1.693888
    15 4.827230 0.000000 0.000001 0.105019 0.734377 -0.908628
    16 11.139763 0.000000 0.000000 0.000000 0.000000 -0.786849
    17 10.314597 0.000001 0.000000 -3.878403 0.130323 -0.281151
    18 2.975834 -0.386307 -0.044143 -0.000797 -0.043611 0.000035
    19 1.438886 0.000000 0.000000 0.000000 0.000000 0.872212
    20 1.485303 0.000000 0.000000 0.000000 0.000000 0.907076
    21 -2.869898 1.399663 -4.140396 0.650678 1.309716 3.303888
    22 4.972048 0.000000 0.000001 -1.074160 -1.018221 0.303903
    23 11.585355 0.000000 0.000000 0.000000 0.000000 -1.839859
    24 10.127057 0.000000 0.000001 1.597717 0.255825 0.214802
    25 2.683750 -0.427338 0.044205 -0.005786 0.043239 -0.157091
    26 1.438885 -0.000001 0.000000 0.000000 0.000000 0.732658
    27 1.485305 0.000001 0.000000 0.000000 0.000000 1.168770
    28 1.038631 0.548043 -0.144017 -0.000001 0.000001 -1.849906
    29 -0.064003 -0.023521 0.026161 0.000000 0.000000 0.000000
    30 3.013925 3.984634 -0.088975 -0.000001 0.000001 -1.849906
    31 -0.084188 -0.025627 -0.001098 0.000000 0.000000 0.000000
    32 4.778187 3.972486 -0.079803 -0.000001 0.000001 -1.849906
    33 -0.058556 -0.021324 0.004244 0.000000 0.000000 0.000000
    34 1.640598 -1.968779 -0.099219 -0.000001 0.000001 -1.849906
    35 0.055573 -0.028908 0.000000 0.000000 0.000000 0.000000
    36 1.646738 0.449549 -1.702246 -0.161934 0.581206 -0.284024
    37 0.928312 0.000000 -0.000002 0.000000 0.000000 0.000000
    38 0.928314 0.000000 0.000001 0.000000 0.000000 0.000000
    39 1.533672 0.109715 1.664491 -0.264755 -0.055959 0.783109
    40 0.928313 0.000000 0.000000 0.000000 0.000000 -0.453556
    41 0.928314 0.000000 0.000001 0.000000 0.000000 0.000000
  time 3
    0 0.235347 0.367732 3.528927 0.000000 0.000000 -1.570874
    1 0.000000 0.000000 0.000000 -1.570795 -1.570796 0.000000
    2 -0.000005 0.000007 3.713255 0.002054 3.115505 -0.021473
    3 18.045721 0.000000 0.000000 0.000000 0.000000 -0.121501
    4 17.597597 0.000000 0.000000 -0.002613 0.026036 0.099967
    5 0.000005 -0.000003 -3.713255 -0.002524 -3.124238 -0.024449
    6 18.045725 0.000000 0.000000 0.000000 0.000000 -0.127551
    7 17.597597 0.000000 0.000000 0.002950 -0.017289 0.103055
    8 1.293670 0.684478 -0.000001 -0.000004 -0.000001 0.306070
    9 5.309685 -0.003834 0.000000 0.000000 0.000000 -0.000004
    10 4.826790 -0.004591 0.000000 -0.173231 0.020530 0.115991
    11 5.792767 -0.005304 0.000000 -0.138076 0.020266 0.144014
    12 6.662317 -0.001453 0.000000 0.000000 -0.000001 0.471000
    13 2.046985 -0.000002 0.000000 0.255051 -0.184195 -0.071094
    14 -3.112024 1.517254 4.341911 0.999559 -1.194854 1.703667
    15 4.827230 0.000000 0.000001 0.107955 0.727739 -0.907490
    16 11.139763 0.000000 0.000000 0.000000 0.000000 -0.786849
    17 10.314597 0.000001 0.000000 -3.878403 0.130323 -0.281151
    18 2.975834 -0.386307 -0.044143 -0.000797 -0.043611 0.000035
    19 1.438886 0.000000 0.000000 0.000000 0.000000 0.872212
    20 1.485303 0.000000 0.000000 0.000000 0.000000 0.907076
    21 -2.869898 1.399663 -4.140396 0.635818 1.304403 3.288548
    22 4.972048 0.000000 0.000001 -1.063640 -1.013958 0.294088
    23 11.585355 0.000000 0.000000 0.000000 0.000000 -1.839859
    24 10.127057 0.000000 0.000001 1.597717 0.255825 0.214802
    25 2.683750 -0.427338 0.044205 -0.005786 0.043239 -0.157091
    26 1.438885 -0.000001 0.000000 0.000000 0.000000 0.732658
    27 1.485305 0.000001 0.000000 0.000000 0.000000 1.168770
    28 1.038631 0.548043 -0.144017 -0.000001 0.000001 -1.849906
    29 -0.064003 -0.023521 0.026161 0.000000 0.000000 0.000000
    30 3.013925 3.984634 -0.088975 -0.000001 0.000001 -1.849906
    31 -0.084188 -0.025627 -0.001098 0.000000 0.000000 0.000000
    32 4.778187 3.972486 -0.079803 -0.000001 0.000001 -1.849906
    33 -0.058556 -0.021324 0.004244 0.000000 0.000000 0.000000
    34 1.640598 -1.968779 -0.099219 -0.000001 0.000001 -1.849906
    35 0.055573 -0.028908 0.000000 0.000000 0.000000 0.000000
    36 1.646738 0.449549 -1.702246 -0.161934 0.581206 -0.284024
    37 0.928312 0.000000 -0.000002 0.000000 0.000000 0.000000
    38 0.928314 0.000000 0.000001 0.000000 0.000000 0.000000
    39 1.533672 0.109715 1.664491 -0.264755 -0.055959 0.783109
    40 0.928313 0.000000 0.000000 0.000000 0.000000 -0.453556
    41 0.928314 0.000000 0.000001 0.000000 0.000000 0.000000
  time 4
    0 0.235347 0.367732 3.528927 0.000000 0.000000 -1.570874
    1 0.000000 0.000000 0.000000 -1.570795 -1.570796 0.000000
    2 -0.000005 0.000007 3.713255 0.002054 3.115505 -0.021473
    3 18.045721 0.000000 0.000000 0.000000 0.000000 -0.121501
    4 17.597597 0.000000 0.000000 -0.002613 0.026036 0.099967
    5 0.000005 -0.000003 -3.713255 -0.002524 -3.124238 -0.024449
    6 18.045725 0.000000 0.000000 0.000000 0.000000 -0.127551
    7 17.597597 0.000000 0.000000 0.002950 -0.017289 0.103055
    8 1.293670 0.684478 -0.000001 -0.000004 -0.000001 0.306070
    9 5.309685 -0.003834 0.000000 0.000000 0.000000 -0.000004
    10 4.826790 -0.004591 0.000000 -0.173199 0.020889 0.118019
    11 5.792767 -0.005304 0.000000 -0.138027 0.020637 0.146734
    12 6.662317 -0.001453 0.000000 0.000000 -0.000001 0.471000
    13 2.046985 -0.000002 0.000000 0.255223 -0.183947 -0.075948
    14 -3.112024 1.517254 4.341911 0.989301 -1.192238 1.714693
    15 4.827230 0.000000 0.000001 0.111303 0.720250 -0.906178
    16 11.139763 0.000000 0.000000 0.000000 0.000000 -0.786849
    17 10.314597 0.000001 0.000000 -3.878403 0.130323 -0.281151
    18 2.975834 -0.386307 -0.044143 -0.000797 -0.043611 0.000035
    19 1.438886 0.000000 0.000000 0.000000 0.000000 0.872212
    20 1.485303 0.000000 0.000000 0.000000 0.000000 0.907076
    21 -2.869898 1.399663 -4.140396 0.619711 1.298269 3.271866
    22 4.972048 0.000000 0.000001 -1.051805 -1.008971 0.283022
    23 11.585355 0.000000 0.000000 0.000000 0.000000 -1.839859
    24 10.127057 0.000000 0.000001 1.597717 0.255825 0.214802
    25 2.683750 -0.427338 0.044205 -0.005786 0.043239 -0.157091
    26 1.438885 -0.000001 0.000000 0.000000 0.000000 0.732658
    27 1.485305 0.000001 0.000000 0.000000 0.000000 1.168770
    28 1.038631 0.548043 -0.144017 -0.000001 0.000001 -1.849906
    29 -0.064003 -0.023521 0.026161 0.000000 0.000000 0.000000
    30 3.013925 3.984634 -0.088975 -0.000001 0.000001 -1.849906
    31 -0.084188 -0.025627 -0.001098 0.000000 0.000000 0.000000
    32 4.778187 3.972486 -0.079803 -0.000001 0.000001 -1.849906
    33 -0.058556 -0.021324 0.004244 0.000000 0.000000 0.000000
    34 1.640598 -1.968779 -0.099219 -0.000001 0.000001 -1.849906
    35 0.055573 -0.028908 0.000000 0.000000 0.000000 0.000000
    36 1.646738 0.449549 -1.702246 -0.161934 0.581206 -0.284024
    37 0.928312 0.000000 -0.000002 0.000000 0.000000 0.000000
    38 0.928314 0.000000 0.000001 0.000000 0.000000 0.000000
    39 1.533672 0.109715 1.664491 -0.264755 -0.055959 0.783109
    40 0.928313 0.000000 0.000000 0.000000 0.000000 -0.453556
    41 0.928314 0.000000 0.000001 0.000000 0.000000 0.000000
  time 5
    0 0.235347 0.367732 3.528927 0.000000 0.000000 -1.570874
    1 0.000000 0.000000 0.000000 -1.570795 -1.570796 0.000000
    2 -0.000005 0.000007 3.713255 0.002054 3.115505 -0.021473
    3 18.045721 0.000000 0.000000 0.000000 0.000000 -0.121501
    4 17.597597 0.000000 0.000000 -0.002613 0.026036 0.099967
    5 0.000005 -0.000003 -3.713255 -0.002524 -3.124238 -0.024449
    6 18.045725 0.000000 0.000000 0.000000 0.000000 -0.127551
    7 17.597597 0.000000 0.000000 0.002950 -0.017289 0.103055
    8 1.293670 0.684478 -0.000001 -0.000004 -0.000001 0.306070
    9 5.309685 -0.003834 0.000000 0.000000 0.000000 -0.000004
    10 4.826790 -0.004591 0.000000 -0.173149 0.021273 0.120246
    11 5.792767 -0.005304 0.000000 -0.137962 0.021057 0.149724
    12 6.662317 -0.001453 0.000000 0.000000 -0.000001 0.471000
    13 2.046985 -0.000002 0.000000 0.255396 -0.183677 -0.081207
    14 -3.112024 1.517254 4.341911 0.978371 -1.189314 1.726486
    15 4.827230 0.000000 0.000001 0.114769 0.712080 -0.904865
    16 11.139763 0.000000 0.000000 0.000000 0.000000 -0.786849
    17 10.314597 0.000001 0.000000 -3.878403 0.130323 -0.281151
    18 2.975834 -0.386307 -0.044143 -0.000797 -0.043611 0.000035
    19 1.438886 0.000000 0.000000 0.000000 0.000000 0.872212
    20 1.485303 0.000000 0.000000 0.000000 0.000000 0.907076
    21 -2.869898 1.399663 -4.140396 0.602933 1.291486 3.254417
    22 4.972048 0.000000 0.000001 -1.039196 -1.003420 0.271165
    23 11.585355 0.000000 0.000000 0.000000 0.000000 -1.839859
    24 10.127057 0.000000 0.000001 1.597717 0.255825 0.214802
    25 2.683750 -0.427338 0.044205 -0.005786 0.043239 -0.157091
    26 1.438885 -0.000001 0.000000 0.000000 0.000000 0.732658
    27 1.485305 0.000001 0.000000 0.000000 0.000000 1.168770
    28 1.038631 0.548043 -0.144017 -0.000001 0.000001 -1.849906
    29 -0.064003 -0.023521 0.026161 0.000000 0.000000 0.000000
    30 3.013925 3.984634 -0.088975 -0.000001 0.000001 -1.849906
    31 -0.084188 -0.025627 -0.001098 0.000000 0.000000 0.000000
    32 4.778187 3.972486 -0.079803 -0.000001 0.000001 -1.849906
    33 -0.058556 -0.021324 0.004244 0.000000 0.000000 0.000000
    34 1.640598 -1.968779 -0.099219 -0.000001 0.000001 -1.849906
    35 0.055573 -0.028908 0.000000 0.000000 0.000000 0.000000
    36 1.646738 0.449549 -1.702246 -0.161934 0.581206 -0.284024
    37 0.928312 0.000000 -0.000002 0.000000 0.000000 0.000000
    38 0.928314 0.000000 0.000001 0.000000 0.000000 0.000000
    39 1.533672 0.109715 1.664491 -0.264755 -0.055959 0.783109
    40 0.928313 0.000000 0.000000 0.000000 0.000000 -0.453556
    41 0.928314 0.000000 0.000001 0.000000 0.000000 0.000000
  time 6
    0 0.235347 0.367732 3.528927 0.000000 0.000000 -1.570874
    1 0.000000 0.000000 0.000000 -1.570795 -1.570796 0.000000
    2 -0.000005 0.000007 3.713255 0.002054 3.115505 -0.021473
    3 18.045721 0.000000 0.000000 0.000000 0.000000 -0.121501
    4 17.597597 0.000000 0.000000 -0.002613 0.026036 0.099967
    5 0.000005 -0.000003 -3.713255 -0.002524 -3.124238 -0.024449
    6 18.045725 0.000000 0.000000 0.000000 0.000000 -0.127551
    7 17.597597 0.000000 0.000000 0.002950 -0.017289 0.103055
    8 1.293670 0.684478 -0.000001 -0.000004 -0.000001 0.306070
    9 5.309685 -0.003834 0.000000 0.000000 0.000000 -0.000004
    10 4.826790 -0.004591 0.000000 -0.173100 0.021680 0.122583
    11 5.792767 -0.005304 0.000000 -0.137897 0.021488 0.152859
    12 6.662317 -0.001453 0.000000 0.000000 -0.000001 0.471000
    13 2.046985 -0.000002 0.000000 0.255568 -0.183384 -0.086736
    14 -3.112024 1.517254 4.341911 0.966962 -1.186199 1.738758
    15 4.827230 0.000000 0.000001 0.118528 0.703400 -0.903465
    16 11.139763 0.000000 0.000000 0.000000 0.000000 -0.786849
    17 10.314597 0.000001 0.000000 -3.878403 0.130323 -0.281151
    18 2.975834 -0.386307 -0.044143 -0.000797 -0.043611 0.000035
    19 1.438886 0.000000 0.000000 0.000000 0.000000 0.872212
    20 1.485303 0.000000 0.000000 0.000000 0.000000 0.907076
    21 -2.869898 1.399663 -4.140396 0.586156 1.284279 3.236968
    22 4.972048 0.000000 0.000001 -1.026200 -0.997548 0.258912
    23 11.585355 0.000000 0.000000 0.000000 0.000000 -1.839859
    24 10.127057 0.000000 0.000001 1.597717 0.255825 0.214802
    25 2.683750 -0.427338 0.044205 -0.005786 0.043239 -0.157091
    26 1.438885 -0.000001 0.000000 0.000000 0.000000 0.732658
    27 1.485305 0.000001 0.000000 0.000000 0.000000 1.168770
    28 1.038631 0.548043 -0.144017 -0.000001 0.000001 -1.849906
    29 -0.064003 -0.023521 0.026161 0.000000 0.000000 0.000000
    30 3.013925 3.984634 -0.088975 -0.000001 0.000001 -1.849906
    31 -0.084188 -0.025627 -0.001098 0.000000 0.000000 0.000000
    32 4.778187 3.972486 -0.079803 -0.000001 0.000001 -1.849906
    33 -0.058556 -0.021324 0.004244 0.000000 0.000000 0.000000
    34 1.640598 -1.968779 -0.099219 -0.000001 0.000001 -1.849906
    35 0.055573 -0.028908 0.000000 0.000000 0.000000 0.000000
    36 1.646738 0.449549 -1.702246 -0.161934 0.581206 -0.284024
    37 0.928312 0.000000 -0.000002 0.000000 0.000000 0.000000
    38 0.928314 0.000000 0.000001 0.000000 0.000000 0.000000
    39 1.533672 0.109715 1.664491 -0.264755 -0.055959 0.783109
    40 0.928313 0.000000 0.000000 0.000000 0.000000 -0.453556
    41 0.928314 0.000000 0.000001 0.000000 0.000000 0.000000
  time 7
    0 0.235347 0.367732 3.528927 0.000000 0.000000 -1.570874
    1 0.000000 0.000000 0.000000 -1.570795 -1.570796 0.000000
    2 -0.000005 0.000007 3.713255 0.002054 3.115505 -0.021473
    3 18.045721 0.000000 0.000000 0.000000 0.000000 -0.121501
    4 17.597597 0.000000 0.000000 -0.002613 0.026036 0.099967
    5 0.000005 -0.000003 -3.713255 -0.002524 -3.124238 -0.024449
    6 18.045725 0.000000 0.000000 0.000000 0.000000 -0.127551
    7 17.597597 0.000000 0.000000 0.002950 -0.017289 0.103055
    8 1.293670 0.684478 -0.000001 -0.000004 -0.000001 0.306070
    9 5.309685 -0.003834 0.000000 0.000000 0.000000 -0.000004
    10 4.826790 -0.004591 0.000000 -0.173051 0.022100 0.124964
    11 5.792767 -0.005304 0.000000 -0.137815 0.021932 0.156056
    12 6.662317 -0.001453 0.000000 0.000000 -0.000001 0.471000
    13 2.046985 -0.000002 0.000000 0.255740 -0.183092 -0.092399
    14 -3.112024 1.517254 4.341911 0.955553 -1.182968 1.751030
    15 4.827230 0.000000 0.000001 0.122287 0.694635 -0.902240
    16 11.139763 0.000000 0.000000 0.000000 0.000000 -0.786849
    17 10.314597 0.000001 0.000000 -3.878403 0.130323 -0.281151
    18 2.975834 -0.386307 -0.044143 -0.000797 -0.043611 0.000035
    19 1.438886 0.000000 0.000000 0.000000 0.000000 0.872212
    20 1.485303 0.000000 0.000000 0.000000 0.000000 0.907076
    21 -2.869898 1.399663 -4.140396 0.569953 1.276845 3.219999
    22 4.972048 0.000000 0.000001 -1.013205 -0.991434 0.246660
    23 11.585355 0.000000 0.000000 0.000000 0.000000 -1.839859
    24 10.127057 0.000000 0.000001 1.597717 0.255825 0.214802
    25 2.683750 -0.427338 0.044205 -0.005786 0.043239 -0.157091
    26 1.438885 -0.000001 0.000000 0.000000 0.000000 0.732658
    27 1.485305 0.000001 0.000000 0.000000 0.000000 1.168770
    28 1.038631 0.548043 -0.144017 -0.000001 0.000001 -1.849906
    29 -0.064003 -0.023521 0.026161 0.000000 0.000000 0.000000
    30 3.013925 3.984634 -0.088975 -0.000001 0.000001 -1.849906
    31 -0.084188 -0.025627 -0.001098 0.000000 0.000000 0.000000
    32 4.778187 3.972486 -0.079803 -0.000001 0.000001 -1.849906
    33 -0.058556 -0.021324 0.004244 0.000000 0.000000 0.000000
    34 1.640598 -1.968779 -0.099219 -0.000001 0.000001 -1.849906
    35 0.055573 -0.028908 0.000000 0.000000 0.000000 0.000000
    36 1.646738 0.449549 -1.702246 -0.161934 0.581206 -0.284024
    37 0.928312 0.000000 -0.000002 0.000000 0.000000 0.000000
    38 0.928314 0.000000 0.000001 0.000000 0.000000 0.000000
    39 1.533672 0.109715 1.664491 -0.264755 -0.055959 0.783109
    40 0.928313 0.000000 0.000000 0.000000 0.000000 -0.453556
    41 0.928314 0.000000 0.000001 0.000000 0.000000 0.000000
  time 8
    0 0.235347 0.367732 3.528927 0.000000 0.000000 -1.570874
    1 0.000000 0.000000 0.000000 -1.570795 -1.570796 0.000000
    2 -0.000005 0.000007 3.713255 0.002054 3.115505 -0.021473
    3 18.045721 0.000000 0.000000 0.000000 0.000000 -0.121501
    4 17.597597 0.000000 0.000000 -0.002613 0.026036 0.099967
    5 0.000005 -0.000003 -3.713255 -0.002524 -3.124238 -0.024449
    6 18.045725 0.000000 0.000000 0.000000 0.000000 -0.127551
    7 17.597597 0.000000 0.000000 0.002950 -0.017289 0.103055
    8 1.293670 0.684478 -0.000001 -0.000004 -0.000001 0.306070
    9 5.309685 -0.003834 0.000000 0.000000 0.000000 -0.000004
    10 4.826790 -0.004591 0.000000 -0.172985 0.022507 0.127346
    11 5.792767 -0.005304 0.000000 -0.137750 0.022375 0.159212
    12 6.662317 -0.001453 0.000000 0.000000 -0.000001 0.471000
    13 2.046985 -0.000002 0.000000 0.255913 -0.182822 -0.098018
    14 -3.112024 1.517254 4.341911 0.944528 -1.179736 1.763015
    15 4.827230 0.000000 0.000001 0.125929 0.685954 -0.901014
    16 11.139763 0.000000 0.000000 0.000000 0.000000 -0.786849
    17 10.314597 0.000001 0.000000 -3.878403 0.130323 -0.281151
    18 2.975834 -0.386307 -0.044143 -0.000797 -0.043611 0.000035
    19 1.438886 0.000000 0.000000 0.000000 0.000000 0.872212
    20 1.485303 0.000000 0.000000 0.000000 0.000000 0.907076
    21 -2.869898 1.399663 -4.140396 0.554709 1.269412 3.204084
    22 4.972048 0.000000 0.000001 -1.000673 -0.985321 0.234737
    23 11.585355 0.000000 0.000000 0.000000 0.000000 -1.839859
    24 10.127057 0.000000 0.000001 1.597717 0.255825 0.214802
    25 2.683750 -0.427338 0.044205 -0.005786 0.043239 -0.157091
    26 1.438885 -0.000001 0.000000 0.000000 0.000000 0.732658
    27 1.485305 0.000001 0.000000 0.000000 0.000000 1.168770
    28 1.038631 0.548043 -0.144017 -0.000001 0.000001 -1.849906
    29 -0.064003 -0.023521 0.026161 0.000000 0.000000 0.000000
    30 3.013925 3.984634 -0.088975 -0.000001 0.000001 -1.849906
    31 -0.084188 -0.025627 -0.001098 0.000000 0.000000 0.000000
    32 4.778187 3.972486 -0.079803 -0.000001 0.000001 -1.849906
    33 -0.058556 -0.021324 0.004244 0.000000 0.000000 0.000000
    34 1.640598 -1.968779 -0.099219 -0.000001 0.000001 -1.849906
    35 0.055573 -0.028908 0.000000 0.000000 0.000000 0.000000
    36 1.646738 0.449549 -1.702246 -0.161934 0.581206 -0.284024
    37 0.928312 0.000000 -0.000002 0.000000 0.000000 0.000000
    38 0.928314 0.000000 0.000001 0.000000 0.000000 0.000000
    39 1.533672 0.109715 1.664491 -0.264755 -0.055959 0.783109
    40 0.928313 0.000000 0.000000 0.000000 0.000000 -0.453556
    41 0.928314 0.000000 0.000001 0.000000 0.000000 0.000000
  time 9
    0 0.235347 0.367732 3.528927 0.000000 0.000000 -1.570874
    1 0.000000 0.000000 0.000000 -1.570795 -1.570796 0.000000
    2 -0.000005 0.000007 3.713255 0.002054 3.115505 -0.021473
    3 18.045721 0.000000 0.000000 0.000000 0.000000 -0.121501
    4 17.597597 0.000000 0.000000 -0.002613 0.026036 0.099967
    5 0.000005 -0.000003 -3.713255 -0.002524 -3.124238 -0.024449
    6 18.045725 0.000000 0.000000 0.000000 0.000000 -0.127551
    7 17.597597 0.000000 0.000000 0.002950 -0.017289 0.103055
    8 1.293670 0.684478 -0.000001 -0.000004 -0.000001 0.306070
    9 5.309685 -0.003834 0.000000 0.000000 0.000000 -0.000004
    10 4.826790 -0.004591 0.000000 -0.172936 0.022903 0.129595
    11 5.792767 -0.005304 0.000000 -0.137685 0.022795 0.162264
    12 6.662317 -0.001453 0.000000 0.000000 -0.000001 0.471000
    13 2.046985 -0.000002 0.000000 0.256085 -0.182529 -0.103366
    14 -3.112024 1.517254 4.341911 0.934078 -1.176544 1.774328
    15 4.827230 0.000000 0.000001 0.129453 0.677614 -0.899964
    16 11.139763 0.000000 0.000000 0.000000 0.000000 -0.786849
    17 10.314597 0.000001 0.000000 -3.878403 0.130323 -0.281151
    18 2.975834 -0.386307 -0.044143 -0.000797 -0.043611 0.000035
    19 1.438886 0.000000 0.000000 0.000000 0.000000 0.872212
    20 1.485303 0.000000 0.000000 0.000000 0.000000 0.907076
    21 -2.869898 1.399663 -4.140396 0.540712 1.262204 3.189415
    22 4.972048 0.000000 0.000001 -0.988838 -0.979368 0.223473
    23 11.585355 0.000000 0.000000 0.000000 0.000000 -1.839859
    24 10.127057 0.000000 0.000001 1.597717 0.255825 0.214802
    25 2.683750 -0.427338 0.044205 -0.005786 0.043239 -0.157091
    26 1.438885 -0.000001 0.000000 0.000000 0.000000 0.732658
    27 1.485305 0.000001 0.000000 0.000000 0.000000 1.168770
    28 1.038631 0.548043 -0.144017 -0.000001 0.000001 -1.849906
    29 -0.064003 -0.023521 0.026161 0.000000 0.000000 0.000000
    30 3.013925 3.984634 -0.088975 -0.000001 0.000001 -1.849906
    31 -0.084188 -0.025627 -0.001098 0.000000 0.000000 0.000000
    32 4.778187 3.972486 -0.079803 -0.000001 0.000001 -1.849906
    33 -0.058556 -0.021324 0.004244 0.000000 0.000000 0.000000
    34 1.640598 -1.968779 -0.099219 -0.000001 0.000001 -1.849906
    35 0.055573 -0.028908 0.000000 0.000000 0.000000 0.000000
    36 1.646738 0.449549 -1.702246 -0.161934 0.581206 -0.284024
    37 0.928312 0.000000 -0.000002 0.000000 0.000000 0.000000
    38 0.928314 0.000000 0.000001 0.000000 0.000000 0.000000
    39 1.533672 0.109715 1.664491 -0.264755 -0.055959 0.783109
    40 0.928313 0.000000 0.000000 0.000000 0.000000 -0.453556
    41 0.928314 0.000000 0.000001 0.000000 0.000000 0.000000
  time 10
    0 0.235347 0.367732 3.528927 0.000000 0.000000 -1.570874
    1 0.000000 0.000000 0.000000 -1.570795 -1.570796 0.000000
    2 -0.000005 0.000007 3.713255 0.002054 3.115505 -0.021473
    3 18.045721 0.000000 0.000000 0.000000 0.000000 -0.121501
    4 17.597597 0.000000 0.000000 -0.002613 0.026036 0.099967
    5 0.000005 -0.000003 -3.713255 -0.002524 -3.124238 -0.024449
    6 18.045725 0.000000 0.000000 0.000000 0.000000 -0.127551
    7 17.597597 0.000000 0.000000 0.002950 -0.017289 0.103055
    8 1.293670 0.684478 -0.000001 -0.000004 -0.000001 0.306070
    9 5.309685 -0.003834 0.000000 0.000000 0.000000 -0.000004
    10 4.826790 -0.004591 0.000000 -0.172887 0.023274 0.131711
    11 5.792767 -0.005304 0.000000 -0.137620 0.023190 0.165088
    12 6.662317 -0.001453 0.000000 0.000000 -0.000001 0.471000
    13 2.046985 -0.000002 0.000000 0.256214 -0.182281 -0.108400
    14 -3.112024 1.517254 4.341911 0.924490 -1.173582 1.784682
    15 4.827230 0.000000 0.000001 0.132683 0.669785 -0.899002
    16 11.139763 0.000000 0.000000 0.000000 0.000000 -0.786849
    17 10.314597 0.000001 0.000000 -3.878403 0.130323 -0.281151
    18 2.975834 -0.386307 -0.044143 -0.000797 -0.043611 0.000035
    19 1.438886 0.000000 0.000000 0.000000 0.000000 0.872212
    20 1.485303 0.000000 0.000000 0.000000 0.000000 0.907076
    21 -2.869898 1.399663 -4.140396 0.528344 1.255477 3.176377
    22 4.972048 0.000000 0.000001 -0.978086 -0.973818 0.213197
    23 11.585355 0.000000 0.000000 0.000000 0.000000 -1.839859
    24 10.127057 0.000000 0.000001 1.597717 0.255825 0.214802
    25 2.683750 -0.427338 0.044205 -0.005786 0.043239 -0.157091
    26 1.438885 -0.000001 0.000000 0.000000 0.000000 0.732658
    27 1.485305 0.000001 0.000000 0.000000 0.000000 1.168770
    28 1.038631 0.548043 -0.144017 -0.000001 0.000001 -1.849906
    29 -0.064003 -0.023521 0.026161 0.000000 0.000000 0.000000
    30 3.013925 3.984634 -0.088975 -0.000001 0.000001 -1.849906
    31 -0.084188 -0.025627 -0.001098 0.000000 0.000000 0.000000
    32 4.778187 3.972486 -0.079803 -0.000001 0.000001 -1.849906
    33 -0.058556 -0.021324 0.004244 0.000000 0.000000 0.000000
    34 1.640598 -1.968779 -0.099219 -0.000001 0.000001 -1.849906
    35 0.055573 -0.028908 0.000000 0.000000 0.000000 0.000000
    36 1.646738 0.449549 -1.702246 -0.161934 0.581206 -0.284024
    37 0.928312 0.000000 -0.000002 0.000000 0.000000 0.000000
    38 0.928314 0.000000 0.000001 0.000000 0.000000 0.000000
    39 1.533672 0.109715 1.664491 -0.264755 -0.055959 0.783109
    40 0.928313 0.000000 0.000000 0.000000 0.000000 -0.453556
    41 0.928314 0.000000 0.000001 0.000000 0.000000 0.000000
  time 11
    0 0.235347 0.367732 3.528927 0.000000 0.000000 -1.570874
    1 0.000000 0.000000 0.000000 -1.570795 -1.570796 0.000000
    2 -0.000005 0.000007 3.713255 0.002054 3.115505 -0.021473
    3 18.045721 0.000000 0.000000 0.000000 0.000000 -0.121501
    4 17.597597 0.000000 0.000000 -0.002613 0.026036 0.099967
    5 0.000005 -0.000003 -3.713255 -0.002524 -3.124238 -0.024449
    6 18.045725 0.000000 0.000000 0.000000 0.000000 -0.127551
    7 17.597597 0.000000 0.000000 0.002950 -0.017289 0.103055
    8 1.293670 0.684478 -0.000001 -0.000004 -0.000001 0.306070
    9 5.309685 -0.003834 0.000000 0.000000 0.000000 -0.000004
    10 4.826790 -0.004591 0.000000 -0.172854 0.023610 0.133586
    11 5.792767 -0.005304 0.000000 -0.137554 0.023538 0.167600
    12 6.662317 -0.001453 0.000000 0.000000 -0.000001 0.471000
    13 2.046985 -0.000002 0.000000 0.256343 -0.182056 -0.112850
    14 -3.112024 1.517254 4.341911 0.916054 -1.170851 1.793791
    15 4.827230 0.000000 0.000001 0.135562 0.662892 -0.898214
    16 11.139763 0.000000 0.000000 0.000000 0.000000 -0.786849
    17 10.314597 0.000001 0.000000 -3.878403 0.130323 -0.281151
    18 2.975834 -0.386307 -0.044143 -0.000797 -0.043611 0.000035
    19 1.438886 0.000000 0.000000 0.000000 0.000000 0.872212
    20 1.485303 0.000000 0.000000 0.000000 0.000000 0.907076
    21 -2.869898 1.399663 -4.140396 0.517702 1.249401 3.165255
    22 4.972048 0.000000 0.000001 -0.968649 -0.968750 0.204172
    23 11.585355 0.000000 0.000000 0.000000 0.000000 -1.839859
    24 10.127057 0.000000 0.000001 1.597717 0.255825 0.214802
    25 2.683750 -0.427338 0.044205 -0.005786 0.043239 -0.157091
    26 1.438885 -0.000001 0.000000 0.000000 0.000000 0.732658
    27 1.485305 0.000001 0.000000 0.000000 0.000000 1.168770
    28 1.038631 0.548043 -0.144017 -0.000001 0.000001 -1.849906
    29 -0.064003 -0.023521 0.026161 0.000000 0.000000 0.000000
    30 3.013925 3.984634 -0.088975 -0.000001 0.000001 -1.849906
    31 -0.084188 -0.025627 -0.001098 0.000000 0.000000 0.000000
    32 4.778187 3.972486 -0.079803 -0.000001 0.000001 -1.849906
    33 -0.058556 -0.021324 0.004244 0.000000 0.000000 0.000000
    34 1.640598 -1.968779 -0.099219 -0.000001 0.000001 -1.849906
    35 0.055573 -0.028908 0.000000 0.000000 0.000000 0.000000
    36 1.646738 0.449549 -1.702246 -0.161934 0.581206 -0.284024
    37 0.928312 0.000000 -0.000002 0.000000 0.000000 0.000000
    38 0.928314 0.000000 0.000001 0.000000 0.000000 0.000000
    39 1.533672 0.109715 1.664491 -0.264755 -0.055959 0.783109
    40 0.928313 0.000000 0.000000 0.000000 0.000000 -0.453556
    41 0.928314 0.000000 0.000001 0.000000 0.000000 0.000000
  time 12
    0 0.235347 0.367732 3.528927 0.000000 0.000000 -1.570874
    1 0.000000 0.000000 0.000000 -1.570795 -1.570796 0.000000
    2 -0.000005 0.000007 3.713255 0.002054 3.115505 -0.021473
    3 18.045721 0.000000 0.000000 0.000000 0.000000 -0.121501
    4 17.597597 0.000000 0.000000 -0.002613 0.026036 0.099967
    5 0.000005 -0.000003 -3.713255 -0.002524 -3.124238 -0.024449
    6 18.045725 0.000000 0.000000 0.000000 0.000000 -0.127551
    7 17.597597 0.000000 0.000000 0.002950 -0.017289 0.103055
    8 1.293670 0.684478 -0.000001 -0.000004 -0.000001 0.306070
    9 5.309685 -0.003834 0.000000 0.000000 0.000000 -0.000004
    10 4.826790 -0.004591 0.000000 -0.172805 0.023885 0.135173
    11 5.792767 -0.005304 0.000000 -0.137505 0.023825 0.169718
    12 6.662317 -0.001453 0.000000 0.000000 -0.000001 0.471000
    13 2.046985 -0.000002 0.000000 0.256473 -0.181853 -0.116581
    14 -3.112024 1.517254 4.341911 0.909055 -1.168581 1.801461
    15 4.827230 0.000000 0.000001 0.137911 0.657105 -0.897601
    16 11.139763 0.000000 0.000000 0.000000 0.000000 -0.786849
    17 10.314597 0.000001 0.000000 -3.878403 0.130323 -0.281151
    18 2.975834 -0.386307 -0.044143 -0.000797 -0.043611 0.000035
    19 1.438886 0.000000 0.000000 0.000000 0.000000 0.872212
    20 1.485303 0.000000 0.000000 0.000000 0.000000 0.907076
    21 -2.869898 1.399663 -4.140396 0.509074 1.244285 3.156147
    22 4.972048 0.000000 0.000001 -0.960836 -0.964406 0.196663
    23 11.585355 0.000000 0.000000 0.000000 0.000000 -1.839859
    24 10.127057 0.000000 0.000001 1.597717 0.255825 0.214802
    25 2.683750 -0.427338 0.044205 -0.005786 0.043239 -0.157091
    26 1.438885 -0.000001 0.000000 0.000000 0.000000 0.732658
    27 1.485305 0.000001 0.000000 0.000000 0.000000 1.168770
    28 1.038631 0.548043 -0.144017 -0.000001 0.000001 -1.849906
    29 -0.064003 -0.023521 0.026161 0.000000 0.000000 0.000000
    30 3.013925 3.984634 -0.088975 -0.000001 0.000001 -1.849906
    31 -0.084188 -0.025627 -0.001098 0.000000 0.000000 0.000000
    32 4.778187 3.972486 -0.079803 -0.000001 0.000001 -1.849906
    33 -0.058556 -0.021324 0.004244 0.000000 0.000000 0.000000
    34 1.640598 -1.968779 -0.099219 -0.000001 0.000001 -1.849906
    35 0.055573 -0.028908 0.000000 0.000000 0.000000 0.000000
    36 1.646738 0.449549 -1.702246 -0.161934 0.581206 -0.284024
    37 0.928312 0.000000 -0.000002 0.000000 0.000000 0.000000
    38 0.928314 0.000000 0.000001 0.000000 0.000000 0.000000
    39 1.533672 0.109715 1.664491 -0.264755 -0.055959 0.783109
    40 0.928313 0.000000 0.000000 0.000000 0.000000 -0.453556
    41 0.928314 0.000000 0.000001 0.000000 0.000000 0.000000
  time 13
    0 0.235347 0.367732 3.528927 0.000000 0.000000 -1.570874
    1 0.000000 0.000000 0.000000 -1.570795 -1.570796 0.000000
    2 -0.000005 0.000007 3.713255 0.002054 3.115505 -0.021473
    3 18.045721 0.000000 0.000000 0.000000 0.000000 -0.121501
    4 17.597597 0.000000 0.000000 -0.002613 0.026036 0.099967
    5 0.000005 -0.000003 -3.713255 -0.002524 -3.124238 -0.024449
    6 18.045725 0.000000 0.000000 0.000000 0.000000 -0.127551
    7 17.597597 0.000000 0.000000 0.002950 -0.017289 0.103055
    8 1.293670 0.684478 -0.000001 -0.000004 -0.000001 0.306070
    9 5.309685 -0.003834 0.000000 0.000000 0.000000 -0.000004
    10 4.826790 -0.004591 0.000000 -0.172788 0.024089 0.136386
    11 5.792767 -0.005304 0.000000 -0.137473 0.024053 0.171358
    12 6.662317 -0.001453 0.000000 0.000000 -0.000001 0.471000
    13 2.046985 -0.000002 0.000000 0.256559 -0.181718 -0.119458
    14 -3.112024 1.517254 4.341911 0.903782 -1.166812 1.807213
    15 4.827230 0.000000 0.000001 0.139732 0.652595 -0.897164
    16 11.139763 0.000000 0.000000 0.000000 0.000000 -0.786849
    17 10.314597 0.000001 0.000000 -3.878403 0.130323 -0.281151
    18 2.975834 -0.386307 -0.044143 -0.000797 -0.043611 0.000035
    19 1.438886 0.000000 0.000000 0.000000 0.000000 0.872212
    20 1.485303 0.000000 0.000000 0.000000 0.000000 0.907076
    21 -2.869898 1.399663 -4.140396 0.502650 1.240328 3.149340
    22 4.972048 0.000000 0.000001 -0.954879 -0.961108 0.190998
    23 11.585355 0.000000 0.000000 0.000000 0.000000 -1.839859
    24 10.127057 0.000000 0.000001 1.597717 0.255825 0.214802
    25 2.683750 -0.427338 0.044205 -0.005786 0.043239 -0.157091
    26 1.438885 -0.000001 0.000000 0.000000 0.000000 0.732658
    27 1.485305 0.000001 0.000000 0.000000 0.000000 1.168770
    28 1.038631 0.548043 -0.144017 -0.000001 0.000001 -1.849906
    29 -0.064003 -0.023521 0.026161 0.000000 0.000000 0.000000
    30 3.013925 3.984634 -0.088975 -0.000001 0.000001 -1.849906
    31 -0.084188 -0.025627 -0.001098 0.000000 0.000000 0.000000
    32 4.778187 3.972486 -0.079803 -0.000001 0.000001 -1.849906
    33 -0.058556 -0.021324 0.004244 0.000000 0.000000 0.000000
    34 1.640598 -1.968779 -0.099219 -0.000001 0.000001 -1.849906
    35 0.055573 -0.028908 0.000000 0.000000 0.000000 0.000000
    36 1.646738 0.449549 -1.702246 -0.161934 0.581206 -0.284024
    37 0.928312 0.000000 -0.000002 0.000000 0.000000 0.000000
    38 0.928314 0.000000 0.000001 0.000000 0.000000 0.000000
    39 1.533672 0.109715 1.664491 -0.264755 -0.055959 0.783109
    40 0.928313 0.000000 0.000000 0.000000 0.000000 -0.453556
    41 0.928314 0.000000 0.000001 0.000000 0.000000 0.000000
  time 14
    0 0.235347 0.367732 3.528927 0.000000 0.000000 -1.570874
    1 0.000000 0.000000 0.000000 -1.570795 -1.570796 0.000000
    2 -0.000005 0.000007 3.713255 0.002054 3.115505 -0.021473
    3 18.045721 0.000000 0.000000 0.000000 0.000000 -0.121501
    4 17.597597 0.000000 0.000000 -0.002613 0.026036 0.099967
    5 0.000005 -0.000003 -3.713255 -0.002524 -3.124238 -0.024449
    6 18.045725 0.000000 0.000000 0.000000 0.000000 -0.127551
    7 17.597597 0.000000 0.000000 0.002950 -0.017289 0.103055
    8 1.293670 0.684478 -0.000001 -0.000004 -0.000001 0.306070
    9 5.309685 -0.003834 0.000000 0.000000 0.000000 -0.000004
    10 4.826790 -0.004591 0.000000 -0.172755 0.024233 0.137158
    11 5.792767 -0.005304 0.000000 -0.137440 0.024197 0.172397
    12 6.662317 -0.001453 0.000000 0.000000 -0.000001 0.471000
    13 2.046985 -0.000002 0.000000 0.256602 -0.181606 -0.121300
    14 -3.112024 1.517254 4.341911 0.900426 -1.165658 1.810857
    15 4.827230 0.000000 0.000001 0.140907 0.649701 -0.896901
    16 11.139763 0.000000 0.000000 0.000000 0.000000 -0.786849
    17 10.314597 0.000001 0.000000 -3.878403 0.130323 -0.281151
    18 2.975834 -0.386307 -0.044143 -0.000797 -0.043611 0.000035
    19 1.438886 0.000000 0.000000 0.000000 0.000000 0.872212
    20 1.485303 0.000000 0.000000 0.000000 0.000000 0.907076
    21 -2.869898 1.399663 -4.140396 0.498623 1.237784 3.145122
    22 4.972048 0.000000 0.000001 -0.951166 -0.959017 0.187375
    23 11.585355 0.000000 0.000000 0.000000 0.000000 -1.839859
    24 10.127057 0.000000 0.000001 1.597717 0.255825 0.214802
    25 2.683750 -0.427338 0.044205 -0.005786 0.043239 -0.157091
    26 1.438885 -0.000001 0.000000 0.000000 0.000000 0.732658
    27 1.485305 0.000001 0.000000 0.000000 0.000000 1.168770
    28 1.038631 0.548043 -0.144017 -0.000001 0.000001 -1.849906
    29 -0.064003 -0.023521 0.026161 0.000000 0.000000 0.000000
    30 3.013925 3.984634 -0.088975 -0.000001 0.000001 -1.849906
    31 -0.084188 -0.025627 -0.001098 0.000000 0.000000 0.000000
    32 4.778187 3.972486 -0.079803 -0.000001 0.000001 -1.849906
    33 -0.058556 -0.021324 0.004244 0.000000 0.000000 0.000000
    34 1.640598 -1.968779 -0.099219 -0.000001 0.000001 -1.849906
    35 0.055573 -0.028908 0.000000 0.000000 0.000000 0.000000
    36 1.646738 0.449549 -1.702246 -0.161934 0.581206 -0.284024
    37 0.928312 0.000000 -0.000002 0.000000 0.000000 0.000000
    38 0.928314 0.000000 0.000001 0.000000 0.000000 0.000000
    39 1.533672 0.109715 1.664491 -0.264755 -0.055959 0.783109
    40 0.928313 0.000000 0.000000 0.000000 0.000000 -0.453556
    41 0.928314 0.000000 0.000001 0.000000 0.000000 0.000000
  time 15
    0 0.235347 0.367732 3.528927 0.000000 0.000000 -1.570874
    1 0.000000 0.000000 0.000000 -1.570795 -1.570796 0.000000
    2 -0.000005 0.000007 3.713255 0.002054 3.115505 -0.021473
    3 18.045721 0.000000 0.000000 0.000000 0.000000 -0.121501
    4 17.597597 0.000000 0.000000 -0.002613 0.026036 0.099967
    5 0.000005 -0.000003 -3.713255 -0.002524 -3.124238 -0.024449
    6 18.045725 0.000000 0.000000 0.000000 0.000000 -0.127551
    7 17.597597 0.000000 0.000000 0.002950 -0.017289 0.103055
    8 1.293670 0.684478 -0.000001 -0.000004 -0.000001 0.306070
    9 5.309685 -0.003834 0.000000 0.000000 0.000000 -0.000004
    10 4.826790 -0.004591 0.000000 -0.172755 0.024281 0.137444
    11 5.792767 -0.005304 0.000000 -0.137440 0.024245 0.172770
    12 6.662317 -0.001453 0.000000 0.000000 -0.000001 0.471000
    13 2.046985 -0.000002 0.000000 0.256645 -0.181583 -0.121975
    14 -3.112024 1.517254 4.341911 0.899180 -1.165273 1.812199
    15 4.827230 0.000000 0.000001 0.141318 0.648680 -0.896726
    16 11.139763 0.000000 0.000000 0.000000 0.000000 -0.786849
    17 10.314597 0.000001 0.000000 -3.878403 0.130323 -0.281151
    18 2.975834 -0.386307 -0.044143 -0.000797 -0.043611 0.000035
    19 1.438886 0.000000 0.000000 0.000000 0.000000 0.872212
    20 1.485303 0.000000 0.000000 0.000000 0.000000 0.907076
    21 -2.869898 1.399663 -4.140396 0.497281 1.236880 3.143588
    22 4.972048 0.000000 0.000001 -0.949851 -0.958212 0.186123
    23 11.585355 0.000000 0.000000 0.000000 0.000000 -1.839859
    24 10.127057 0.000000 0.000001 1.597717 0.255825 0.214802
    25 2.683750 -0.427338 0.044205 -0.005786 0.043239 -0.157091
    26 1.438885 -0.000001 0.000000 0.000000 0.000000 0.732658
    27 1.485305 0.000001 0.000000 0.000000 0.000000 1.168770
    28 1.038631 0.548043 -0.144017 -0.000001 0.000001 -1.849906
    29 -0.064003 -0.023521 0.026161 0.000000 0.000000 0.000000
    30 3.013925 3.984634 -0.088975 -0.000001 0.000001 -1.849906
    31 -0.084188 -0.025627 -0.001098 0.000000 0.000000 0.000000
    32 4.778187 3.972486 -0.079803 -0.000001 0.000001 -1.849906
    33 -0.058556 -0.021324 0.004244 0.000000 0.000000 0.000000
    34 1.640598 -1.968779 -0.099219 -0.000001 0.000001 -1.849906
    35 0.055573 -0.028908 0.000000 0.000000 0.000000 0.000000
    36 1.646738 0.449549 -1.702246 -0.161934 0.581206 -0.284024
    37 0.928312 0.000000 -0.000002 0.000000 0.000000 0.000000
    38 0.928314 0.000000 0.000001 0.000000 0.000000 0.000000
    39 1.533672 0.109715 1.664491 -0.264755 -0.055959 0.783109
    40 0.928313 0.000000 0.000000 0.000000 0.000000 -0.453556
    41 0.928314 0.000000 0.000001 0.000000 0.000000 0.000000
  time 16
    0 0.235347 0.367732 3.528927 0.000000 0.000000 -1.570874
    1 0.000000 0.000000 0.000000 -1.570795 -1.570796 0.000000
    2 -0.000005 0.000007 3.713255 0.002054 3.115505 -0.021473
    3 18.045721 0.000000 0.000000 0.000000 0.000000 -0.121501
    4 17.597597 0.000000 0.000000 -0.002613 0.026036 0.099967
    5 0.000005 -0.000003 -3.713255 -0.002524 -3.124238 -0.024449
    6 18.045725 0.000000 0.000000 0.000000 0.000000 -0.127551
    7 17.597597 0.000000 0.000000 0.002950 -0.017289 0.103055
    8 1.293670 0.684478 -0.000001 -0.000004 -0.000001 0.306070
    9 5.309685 -0.003834 0.000000 0.000000 0.000000 -0.000004
    10 4.826790 -0.004591 0.000000 -0.172755 0.024233 0.137158
    11 5.792767 -0.005304 0.000000 -0.137440 0.024197 0.172397
    12 6.662317 -0.001453 0.000000 0.000000 -0.000001 0.471000
    13 2.046985 -0.000002 0.000000 0.256602 -0.181606 -0.121300
    14 -3.112024 1.517254 4.341911 0.900426 -1.165658 1.810857
    15 4.827230 0.000000 0.000001 0.140907 0.649701 -0.896901
    16 11.139763 0.000000 0.000000 0.000000 0.000000 -0.786849
    17 10.314597 0.000001 0.000000 -3.878403 0.130323 -0.281151
    18 2.975834 -0.386307 -0.044143 -0.000797 -0.043611 0.000035
    19 1.438886 0.000000 0.000000 0.000000 0.000000 0.872212
    20 1.485303 0.000000 0.000000 0.000000 0.000000 0.907076
    21 -2.869898 1.399663 -4.140396 0.498623 1.237784 3.145122
    22 4.972048 0.000000 0.000001 -0.951166 -0.959017 0.187375
    23 11.585355 0.000000 0.000000 0.000000 0.000000 -1.839859
    24 10.127057 0.000000 0.000001 1.597717 0.255825 0.214802
    25 2.683750 -0.427338 0.044205 -0.005786 0.043239 -0.157091
    26 1.438885 -0.000001 0.000000 0.000000 0.000000 0.732658
    27 1.485305 0.000001 0.000000 0.000000 0.000000 1.168770
    28 1.038631 0.548043 -0.144017 -0.000001 0.000001 -1.849906
    29 -0.064003 -0.023521 0.026161 0.000000 0.000000 0.000000
    30 3.013925 3.984634 -0.088975 -0.000001 0.000001 -1.849906
    31 -0.084188 -0.025627 -0.001098 0.000000 0.000000 0.000000
    32 4.778187 3.972486 -0.079803 -0.000001 0.000001 -1.849906
    33 -0.058556 -0.021324 0.004244 0.000000 0.000000 0.000000
    34 1.640598 -1.968779 -0.099219 -0.000001 0.000001 -1.849906
    35 0.055573 -0.028908 0.000000 0.000000 0.000000 0.000000
    36 1.646738 0.449549 -1.702246 -0.161934 0.581206 -0.284024
    37 0.928312 0.000000 -0.000002 0.000000 0.000000 0.000000
    38 0.928314 0.000000 0.000001 0.000000 0.000000 0.000000
    39 1.533672 0.109715 1.664491 -0.264755 -0.055959 0.783109
    40 0.928313 0.000000 0.000000 0.000000 0.000000 -0.453556
    41 0.928314 0.000000 0.000001 0.000000 0.000000 0.000000
  time 17
    0 0.235347 0.367732 3.528927 0.000000 0.000000 -1.570874
    1 0.000000 0.000000 0.000000 -1.570795 -1.570796 0.000000
    2 -0.000005 0.000007 3.713255 0.002054 3.115505 -0.021473
    3 18.045721 0.000000 0.000000 0.000000 0.000000 -0.121501
    4 17.597597 0.000000 0.000000 -0.002613 0.026036 0.099967
    5 0.000005 -0.000003 -3.713255 -0.002524 -3.124238 -0.024449
    6 18.045725 0.000000 0.000000 0.000000 0.000000 -0.127551
    7 17.597597 0.000000 0.000000 0.002950 -0.017289 0.103055
    8 1.293670 0.684478 -0.000001 -0.000004 -0.000001 0.306070
    9 5.309685 -0.003834 0.000000 0.000000 0.000000 -0.000004
    10 4.826790 -0.004591 0.000000 -0.172788 0.024089 0.136386
    11 5.792767 -0.005304 0.000000 -0.137473 0.024053 0.171358
    12 6.662317 -0.001453 0.000000 0.000000 -0.000001 0.471000
    13 2.046985 -0.000002 0.000000 0.256559 -0.181718 -0.119458
    14 -3.112024 1.517254 4.341911 0.903782 -1.166812 1.807213
    15 4.827230 0.000000 0.000001 0.139732 0.652595 -0.897164
    16 11.139763 0.000000 0.000000 0.000000 0.000000 -0.786849
    17 10.314597 0.000001 0.000000 -3.878403 0.130323 -0.281151
    18 2.975834 -0.386307 -0.044143 -0.000797 -0.043611 0.000035
    19 1.438886 0.000000 0.000000 0.000000 0.000000 0.872212
    20 1.485303 0.000000 0.000000 0.000000 0.000000 0.907076
    21 -2.869898 1.399663 -4.140396 0.502650 1.240328 3.149340
    22 4.972048 0.000000 0.000001 -0.954879 -0.961108 0.190998
    23 11.585355 0.000000 0.000000 0.000000 0.000000 -1.839859
    24 10.127057 0.000000 0.000001 1.597717 0.255825 0.214802
    25 2.683750 -0.427338 0.044205 -0.005786 0.043239 -0.157091
    26 1.438885 -0.000001 0.000000 0.000000 0.000000 0.732658
    27 1.485305 0.000001 0.000000 0.000000 0.000000 1.168770
    28 1.038631 0.548043 -0.144017 -0.000001 0.000001 -1.849906
    29 -0.064003 -0.023521 0.026161 0.000000 0.000000 0.000000
    30 3.013925 3.984634 -0.088975 -0.000001 0.000001 -1.849906
    31 -0.084188 -0.025627 -0.001098 0.000000 0.000000 0.000000
    32 4.778187 3.972486 -0.079803 -0.000001 0.000001 -1.849906
    33 -0.058556 -0.021324 0.004244 0.000000 0.000000 0.000000
    34 1.640598 -1.968779 -0.099219 -0.000001 0.000001 -1.849906
    35 0.055573 -0.028908 0.000000 0.000000 0.000000 0.000000
    36 1.646738 0.449549 -1.702246 -0.161934 0.581206 -0.284024
    37 0.928312 0.000000 -0.000002 0.000000 0.000000 0.000000
    38 0.928314 0.000000 0.000001 0.000000 0.000000 0.000000
    39 1.533672 0.109715 1.664491 -0.264755 -0.055959 0.783109
    40 0.928313 0.000000 0.000000 0.000000 0.000000 -0.453556
    41 0.928314 0.000000 0.000001 0.000000 0.000000 0.000000
  time 18
    0 0.235347 0.367732 3.528927 0.000000 0.000000 -1.570874
    1 0.000000 0.000000 0.000000 -1.570795 -1.570796 0.000000
    2 -0.000005 0.000007 3.713255 0.002054 3.115505 -0.021473
    3 18.045721 0.000000 0.000000 0.000000 0.000000 -0.121501
    4 17.597597 0.000000 0.000000 -0.002613 0.026036 0.099967
    5 0.000005 -0.000003 -3.713255 -0.002524 -3.124238 -0.024449
    6 18.045725 0.000000 0.000000 0.000000 0.000000 -0.127551
    7 17.597597 0.000000 0.000000 0.002950 -0.017289 0.103055
    8 1.293670 0.684478 -0.000001 -0.000004 -0.000001 0.306070
    9 5.309685 -0.003834 0.000000 0.000000 0.000000 -0.000004
    10 4.826790 -0.004591 0.000000 -0.172805 0.023885 0.135173
    11 5.792767 -0.005304 0.000000 -0.137505 0.023825 0.169718
    12 6.662317 -0.001453 0.000000 0.000000 -0.000001 0.471000
    13 2.046985 -0.000002 0.000000 0.256473 -0.181853 -0.116581
    14 -3.112024 1.517254 4.341911 0.909055 -1.168581 1.801461
    15 4.827230 0.000000 0.000001 0.137911 0.657105 -0.897601
    16 11.139763 0.000000 0.000000 0.000000 0.000000 -0.786849
    17 10.314597 0.000001 0.000000 -3.878403 0.130323 -0.281151
    18 2.975834 -0.386307 -0.044143 -0.000797 -0.043611 0.000035
    19 1.438886 0.000000 0.000000 0.000000 0.000000 0.872212
    20 1.485303 0.000000 0.000000 0.000000 0.000000 0.907076
    21 -2.869898 1.399663 -4.140396 0.509074 1.244285 3.156147
    22 4.972048 0.000000 0.000001 -0.960836 -0.964406 0.196663
    23 11.585355 0.000000 0.000000 0.000000 0.000000 -1.839859
    24 10.127057 0.000000 0.000001 1.597717 0.255825 0.214802
    25 2.683750 -0.427338 0.044205 -0.005786 0.043239 -0.157091
    26 1.438885 -0.000001 0.000000 0.000000 0.000000 0.732658
    27 1.485305 0.000001 0.000000 0.000000 0.000000 1.168770
    28 1.038631 0.548043 -0.144017 -0.000001 0.000001 -1.849906
    29 -0.064003 -0.023521 0.026161 0.000000 0.000000 0.000000
    30 3.013925 3.984634 -0.088975 -0.000001 0.000001 -1.849906
    31 -0.084188 -0.025627 -0.001098 0.000000 0.000000 0.000000
    32 4.778187 3.972486 -0.079803 -0.000001 0.000001 -1.849906
    33 -0.058556 -0.021324 0.004244 0.000000 0.000000 0.000000
    34 1.640598 -1.968779 -0.099219 -0.000001 0.000001 -1.849906
    35 0.055573 -0.028908 0.000000 0.000000 0.000000 0.000000
    36 1.646738 0.449549 -1.702246 -0.161934 0.581206 -0.284024
    37 0.928312 0.000000 -0.000002 0.000000 0.000000 0.000000
    38 0.928314 0.000000 0.000001 0.000000 0.000000 0.000000
    39 1.533672 0.109715 1.664491 -0.264755 -0.055959 0.783109
    40 0.928313 0.000000 0.000000 0.000000 0.000000 -0.453556
    41 0.928314 0.000000 0.000001 0.000000 0.000000 0.000000
  time 19
    0 0.235347 0.367732 3.528927 0.000000 0.000000 -1.570874
    1 0.000000 0.000000 0.000000 -1.570795 -1.570796 0.000000
    2 -0.000005 0.000007 3.713255 0.002054 3.115505 -0.021473
    3 18.045721 0.000000 0.000000 0.000000 0.000000 -0.121501
    4 17.597597 0.000000 0.000000 -0.002613 0.026036 0.099967
    5 0.000005 -0.000003 -3.713255 -0.002524 -3.124238 -0.024449
    6 18.045725 0.000000 0.000000 0.000000 0.000000 -0.127551
    7 17.597597 0.000000 0.000000 0.002950 -0.017289 0.103055
    8 1.293670 0.684478 -0.000001 -0.000004 -0.000001 0.306070
    9 5.309685 -0.003834 0.000000 0.000000 0.000000 -0.000004
    10 4.826790 -0.004591 0.000000 -0.172854 0.023610 0.133586
    11 5.792767 -0.005304 0.000000 -0.137554 0.023538 0.167600
    12 6.662317 -0.001453 0.000000 0.000000 -0.000001 0.471000
    13 2.046985 -0.000002 0.000000 0.256343 -0.182056 -0.112850
    14 -3.112024 1.517254 4.341911 0.916054 -1.170851 1.793791
    15 4.827230 0.000000 0.000001 0.135562 0.662892 -0.898214
    16 11.139763 0.000000 0.000000 0.000000 0.000000 -0.786849
    17 10.314597 0.000001 0.000000 -3.878403 0.130323 -0.281151
    18 2.975834 -0.386307 -0.044143 -0.000797 -0.043611 0.000035
    19 1.438886 0.000000 0.000000 0.000000 0.000000 0.872212
    20 1.485303 0.000000 0.000000 0.000000 0.000000 0.907076
    21 -2.869898 1.399663 -4.140396 0.517702 1.249401 3.165255
    22 4.972048 0.000000 0.000001 -0.968649 -0.968750 0.204172
    23 11.585355 0.000000 0.000000 0.000000 0.000000 -1.839859
    24 10.127057 0.000000 0.000001 1.597717 0.255825 0.214802
    25 2.683750 -0.427338 0.044205 -0.005786 0.043239 -0.157091
    26 1.438885 -0.000001 0.000000 0.000000 0.000000 0.732658
    27 1.485305 0.000001 0.000000 0.000000 0.000000 1.168770
    28 1.038631 0.548043 -0.144017 -0.000001 0.000001 -1.849906
    29 -0.064003 -0.023521 0.026161 0.000000 0.000000 0.000000
    30 3.013925 3.984634 -0.088975 -0.000001 0.000001 -1.849906
    31 -0.084188 -0.025627 -0.001098 0.000000 0.000000 0.000000
    32 4.778187 3.972486 -0.079803 -0.000001 0.000001 -1.849906
    33 -0.058556 -0.021324 0.004244 0.000000 0.000000 0.000000
    34 1.640598 -1.968779 -0.099219 -0.000001 0.000001 -1.849906
    35 0.055573 -0.028908 0.000000 0.000000 0.000000 0.000000
    36 1.646738 0.449549 -1.702246 -0.161934 0.581206 -0.284024
    37 0.928312 0.000000 -0.000002 0.000000 0.000000 0.000000
    38 0.928314 0.000000 0.000001 0.000000 0.000000 0.000000
    39 1.533672 0.109715 1.664491 -0.264755 -0.055959 0.783109
    40 0.928313 0.000000 0.000000 0.000000 0.000000 -0.453556
    41 0.928314 0.000000 0.000001 0.000000 0.000000 0.000000
  time 20
    0 0.235347 0.367732 3.528927 0.000000 0.000000 -1.570874
    1 0.000000 0.000000 0.000000 -1.570795 -1.570796 0.000000
    2 -0.000005 0.000007 3.713255 0.002054 3.115505 -0.021473
    3 18.045721 0.000000 0.000000 0.000000 0.000000 -0.121501
    4 17.597597 0.000000 0.000000 -0.002613 0.026036 0.099967
    5 0.000005 -0.000003 -3.713255 -0.002524 -3.124238 -0.024449
    6 18.045725 0.000000 0.000000 0.000000 0.000000 -0.127551
    7 17.597597 0.000000 0.000000 0.002950 -0.017289 0.103055
    8 1.293670 0.684478 -0.000001 -0.000004 -0.000001 0.306070
    9 5.309685 -0.003834 0.000000 0.000000 0.000000 -0.000004
    10 4.826790 -0.004591 0.000000 -0.172887 0.023274 0.131711
    11 5.792767 -0.005304 0.000000 -0.137620 0.023190 0.165088
    12 6.662317 -0.001453 0.000000 0.000000 -0.000001 0.471000
    13 2.046985 -0.000002 0.000000 0.256214 -0.182281 -0.108400
    14 -3.112024 1.517254 4.341911 0.924490 -1.173582 1.784682
    15 4.827230 0.000000 0.000001 0.132683 0.669785 -0.899002
    16 11.139763 0.000000 0.000000 0.000000 0.000000 -0.786849
    17 10.314597 0.000001 0.000000 -3.878403 0.130323 -0.281151
    18 2.975834 -0.386307 -0.044143 -0.000797 -0.043611 0.000035
    19 1.438886 0.000000 0.000000 0.000000 0.000000 0.872212
    20 1.485303 0.000000 0.000000 0.000000 0.000000 0.907076
    21 -2.869898 1.399663 -4.140396 0.528344 1.255477 3.176377
    22 4.972048 0.000000 0.000001 -0.978086 -0.973818 0.213197
    23 11.585355 0.000000 0.000000 0.000000 0.000000 -1.839859
    24 10.127057 0.000000 0.000001 1.597717 0.255825 0.214802
    25 2.683750 -0.427338 0.044205 -0.005786 0.043239 -0.157091
    26 1.438885 -0.000001 0.000000 0.000000 0.000000 0.732658
    27 1.485305 0.000001 0.000000 0.000000 0.000000 1.168770
    28 1.038631 0.548043 -0.144017 -0.000001 0.000001 -1.849906
    29 -0.064003 -0.023521 0.026161 0.000000 0.000000 0.000000
    30 3.013925 3.984634 -0.088975 -0.000001 0.000001 -1.849906
    31 -0.084188 -0.025627 -0.001098 0.000000 0.000000 0.000000
    32 4.778187 3.972486 -0.079803 -0.000001 0.000001 -1.849906
    33 -0.058556 -0.021324 0.004244 0.000000 0.000000 0.000000
    34 1.640598 -1.968779 -0.099219 -0.000001 0.000001 -1.849906
    35 0.055573 -0.028908 0.000000 0.000000 0.000000 0.000000
    36 1.646738 0.449549 -1.702246 -0.161934 0.581206 -0.284024
    37 0.928312 0.000000 -0.000002 0.000000 0.000000 0.000000
    38 0.928314 0.000000 0.000001 0.000000 0.000000 0.000000
    39 1.533672 0.109715 1.664491 -0.264755 -0.055959 0.783109
    40 0.928313 0.000000 0.000000 0.000000 0.000000 -0.453556
    41 0.928314 0.000000 0.000001 0.000000 0.000000 0.000000
  time 21
    0 0.235347 0.367732 3.528927 0.000000 0.000000 -1.570874
    1 0.000000 0.000000 0.000000 -1.570795 -1.570796 0.000000
    2 -0.000005 0.000007 3.713255 0.002054 3.115505 -0.021473
    3 18.045721 0.000000 0.000000 0.000000 0.000000 -0.121501
    4 17.597597 0.000000 0.000000 -0.002613 0.026036 0.099967
    5 0.000005 -0.000003 -3.713255 -0.002524 -3.124238 -0.024449
    6 18.045725 0.000000 0.000000 0.000000 0.000000 -0.127551
    7 17.597597 0.000000 0.000000 0.002950 -0.017289 0.103055
    8 1.293670 0.684478 -0.000001 -0.000004 -0.000001 0.306070
    9 5.309685 -0.003834 0.000000 0.000000 0.000000 -0.000004
    10 4.826790 -0.004591 0.000000 -0.172936 0.022903 0.129595
    11 5.792767 -0.005304 0.000000 -0.137685 0.022795 0.162264
    12 6.662317 -0.001453 0.000000 0.000000 -0.000001 0.471000
    13 2.046985 -0.000002 0.000000 0.256085 -0.182529 -0.103366
    14 -3.112024 1.517254 4.341911 0.934078 -1.176544 1.774328
    15 4.827230 0.000000 0.000001 0.129453 0.677614 -0.899964
    16 11.139763 0.000000 0.000000 0.000000 0.000000 -0.786849
    17 10.314597 0.000001 0.000000 -3.878403 0.130323 -0.281151
    18 2.975834 -0.386307 -0.044143 -0.000797 -0.043611 0.000035
    19 1.438886 0.000000 0.000000 0.000000 0.000000 0.872212
    20 1.485303 0.000000 0.000000 0.000000 0.000000 0.907076
    21 -2.869898 1.399663 -4.140396 0.540712 1.262204 3.189415
    22 4.972048 0.000000 0.000001 -0.988838 -0.979368 0.223473
    23 11.585355 0.000000 0.000000 0.000000 0.000000 -1.839859
    24 10.127057 0.000000 0.000001 1.597717 0.255825 0.214802
    25 2.683750 -0.427338 0.044205 -0.005786 0.043239 -0.157091
    26 1.438885 -0.000001 0.000000 0.000000 0.000000 0.732658
    27 1.485305 0.000001 0.000000 0.000000 0.000000 1.168770
    28 1.038631 0.548043 -0.144017 -0.000001 0.000001 -1.849906
    29 -0.064003 -0.023521 0.026161 0.000000 0.000000 0.000000
    30 3.013925 3.984634 -0.088975 -0.000001 0.000001 -1.849906
    31 -0.084188 -0.025627 -0.001098 0.000000 0.000000 0.000000
    32 4.778187 3.972486 -0.079803 -0.000001 0.000001 -1.849906
    33 -0.058556 -0.021324 0.004244 0.000000 0.000000 0.000000
    34 1.640598 -1.968779 -0.099219 -0.000001 0.000001 -1.849906
    35 0.055573 -0.028908 0.000000 0.000000 0.000000 0.000000
    36 1.646738 0.449549 -1.702246 -0.161934 0.581206 -0.284024
    37 0.928312 0.000000 -0.000002 0.000000 0.000000 0.000000
    38 0.928314 0.000000 0.000001 0.000000 0.000000 0.000000
    39 1.533672 0.109715 1.664491 -0.264755 -0.055959 0.783109
    40 0.928313 0.000000 0.000000 0.000000 0.000000 -0.453556
    41 0.928314 0.000000 0.000001 0.000000 0.000000 0.000000
  time 22
    0 0.235347 0.367732 3.528927 0.000000 0.000000 -1.570874
    1 0.000000 0.000000 0.000000 -1.570795 -1.570796 0.000000
    2 -0.000005 0.000007 3.713255 0.002054 3.115505 -0.021473
    3 18.045721 0.000000 0.000000 0.000000 0.000000 -0.121501
    4 17.597597 0.000000 0.000000 -0.002613 0.026036 0.099967
    5 0.000005 -0.000003 -3.713255 -0.002524 -3.124238 -0.024449
    6 18.045725 0.000000 0.000000 0.000000 0.000000 -0.127551
    7 17.597597 0.000000 0.000000 0.002950 -0.017289 0.103055
    8 1.293670 0.684478 -0.000001 -0.000004 -0.000001 0.306070
    9 5.309685 -0.003834 0.000000 0.000000 0.000000 -0.000004
    10 4.826790 -0.004591 0.000000 -0.172985 0.022507 0.127346
    11 5.792767 -0.005304 0.000000 -0.137750 0.022375 0.159212
    12 6.662317 -0.001453 0.000000 0.000000 -0.000001 0.471000
    13 2.046985 -0.000002 0.000000 0.255913 -0.182822 -0.098018
    14 -3.112024 1.517254 4.341911 0.944528 -1.179736 1.763015
    15 4.827230 0.000000 0.000001 0.125929 0.685954 -0.901014
    16 11.139763 0.000000 0.000000 0.000000 0.000000 -0.786849
    17 10.314597 0.000001 0.000000 -3.878403 0.130323 -0.281151
    18 2.975834 -0.386307 -0.044143 -0.000797 -0.043611 0.000035
    19 1.438886 0.000000 0.000000 0.000000 0.000000 0.872212
    20 1.485303 0.000000 0.000000 0.000000 0.000000 0.907076
    21 -2.869898 1.399663 -4.140396 0.554709 1.269412 3.204084
    22 4.972048 0.000000 0.000001 -1.000673 -0.985321 0.234737
    23 11.585355 0.000000 0.000000 0.000000 0.000000 -1.839859
    24 10.127057 0.000000 0.000001 1.597717 0.255825 0.214802
    25 2.683750 -0.427338 0.044205 -0.005786 0.043239 -0.157091
    26 1.438885 -0.000001 0.000000 0.000000 0.000000 0.732658
    27 1.485305 0.000001 0.000000 0.000000 0.000000 1.168770
    28 1.038631 0.548043 -0.144017 -0.000001 0.000001 -1.849906
    29 -0.064003 -0.023521 0.026161 0.000000 0.000000 0.000000
    30 3.013925 3.984634 -0.088975 -0.000001 0.000001 -1.849906
    31 -0.084188 -0.025627 -0.001098 0.000000 0.000000 0.000000
    32 4.778187 3.972486 -0.079803 -0.000001 0.000001 -1.849906
    33 -0.058556 -0.021324 0.004244 0.000000 0.000000 0.000000
    34 1.640598 -1.968779 -0.099219 -0.000001 0.000001 -1.849906
    35 0.055573 -0.028908 0.000000 0.000000 0.000000 0.000000
    36 1.646738 0.449549 -1.702246 -0.161934 0.581206 -0.284024
    37 0.928312 0.000000 -0.000002 0.000000 0.000000 0.000000
    38 0.928314 0.000000 0.000001 0.000000 0.000000 0.000000
    39 1.533672 0.109715 1.664491 -0.264755 -0.055959 0.783109
    40 0.928313 0.000000 0.000000 0.000000 0.000000 -0.453556
    41 0.928314 0.000000 0.000001 0.000000 0.000000 0.000000
  time 23
    0 0.235347 0.367732 3.528927 0.000000 0.000000 -1.570874
    1 0.000000 0.000000 0.000000 -1.570795 -1.570796 0.000000
    2 -0.000005 0.000007 3.713255 0.002054 3.115505 -0.021473
    3 18.045721 0.000000 0.000000 0.000000 0.000000 -0.121501
    4 17.597597 0.000000 0.000000 -0.002613 0.026036 0.099967
    5 0.000005 -0.000003 -3.713255 -0.002524 -3.124238 -0.024449
    6 18.045725 0.000000 0.000000 0.000000 0.000000 -0.127551
    7 17.597597 0.000000 0.000000 0.002950 -0.017289 0.103055
    8 1.293670 0.684478 -0.000001 -0.000004 -0.000001 0.306070
    9 5.309685 -0.003834 0.000000 0.000000 0.000000 -0.000004
    10 4.826790 -0.004591 0.000000 -0.173051 0.022100 0.124964
    11 5.792767 -0.005304 0.000000 -0.137815 0.021932 0.156056
    12 6.662317 -0.001453 0.000000 0.000000 -0.000001 0.471000
    13 2.046985 -0.000002 0.000000 0.255740 -0.183092 -0.092399
    14 -3.112024 1.517254 4.341911 0.955553 -1.182968 1.751030
    15 4.827230 0.000000 0.000001 0.122287 0.694635 -0.902240
    16 11.139763 0.000000 0.000000 0.000000 0.000000 -0.786849
    17 10.314597 0.000001 0.000000 -3.878403 0.130323 -0.281151
    18 2.975834 -0.386307 -0.044143 -0.000797 -0.043611 0.000035
    19 1.438886 0.000000 0.000000 0.000000 0.000000 0.872212
    20 1.485303 0.000000 0.000000 0.000000 0.000000 0.907076
    21 -2.869898 1.399663 -4.140396 0.569953 1.276845 3.219999
    22 4.972048 0.000000 0.000001 -1.013205 -0.991434 0.246660
    23 11.585355 0.000000 0.000000 0.000000 0.000000 -1.839859
    24 10.127057 0.000000 0.000001 1.597717 0.255825 0.214802
    25 2.683750 -0.427338 0.044205 -0.005786 0.043239 -0.157091
    26 1.438885 -0.000001 0.000000 0.000000 0.000000 0.732658
    27 1.485305 0.000001 0.000000 0.000000 0.000000 1.168770
    28 1.038631 0.548043 -0.144017 -0.000001 0.000001 -1.849906
    29 -0.064003 -0.023521 0.026161 0.000000 0.000000 0.000000
    30 3.013925 3.984634 -0.088975 -0.000001 0.000001 -1.849906
    31 -0.084188 -0.025627 -0.001098 0.000000 0.000000 0.000000
    32 4.778187 3.972486 -0.079803 -0.000001 0.000001 -1.849906
    33 -0.058556 -0.021324 0.004244 0.000000 0.000000 0.000000
    34 1.640598 -1.968779 -0.099219 -0.000001 0.000001 -1.849906
    35 0.055573 -0.028908 0.000000 0.000000 0.000000 0.000000
    36 1.646738 0.449549 -1.702246 -0.161934 0.581206 -0.284024
    37 0.928312 0.000000 -0.000002 0.000000 0.000000 0.000000
    38 0.928314 0.000000 0.000001 0.000000 0.000000 0.000000
    39 1.533672 0.109715 1.664491 -0.264755 -0.055959 0.783109
    40 0.928313 0.000000 0.000000 0.000000 0.000000 -0.453556
    41 0.928314 0.000000 0.000001 0.000000 0.000000 0.000000
  time 24
    0 0.235347 0.367732 3.528927 0.000000 0.000000 -1.570874
    1 0.000000 0.000000 0.000000 -1.570795 -1.570796 0.000000
    2 -0.000005 0.000007 3.713255 0.002054 3.115505 -0.021473
    3 18.045721 0.000000 0.000000 0.000000 0.000000 -0.121501
    4 17.597597 0.000000 0.000000 -0.002613 0.026036 0.099967
    5 0.000005 -0.000003 -3.713255 -0.002524 -3.124238 -0.024449
    6 18.045725 0.000000 0.000000 0.000000 0.000000 -0.127551
    7 17.597597 0.000000 0.000000 0.002950 -0.017289 0.103055
    8 1.293670 0.684478 -0.000001 -0.000004 -0.000001 0.306070
    9 5.309685 -0.003834 0.000000 0.000000 0.000000 -0.000004
    10 4.826790 -0.004591 0.000000 -0.173100 0.021680 0.122583
    11 5.792767 -0.005304 0.000000 -0.137897 0.021488 0.152859
    12 6.662317 -0.001453 0.000000 0.000000 -0.000001 0.471000
    13 2.046985 -0.000002 0.000000 0.255568 -0.183384 -0.086736
    14 -3.112024 1.517254 4.341911 0.966962 -1.186199 1.738758
    15 4.827230 0.000000 0.000001 0.118528 0.703400 -0.903465
    16 11.139763 0.000000 0.000000 0.000000 0.000000 -0.786849
    17 10.314597 0.000001 0.000000 -3.878403 0.130323 -0.281151
    18 2.975834 -0.386307 -0.044143 -0.000797 -0.043611 0.000035
    19 1.438886 0.000000 0.000000 0.000000 0.000000 0.872212
    20 1.485303 0.000000 0.000000 0.000000 0.000000 0.907076
    21 -2.869898 1.399663 -4.140396 0.586156 1.284279 3.236968
    22 4.972048 0.000000 0.000001 -1.026200 -0.997548 0.258912
    23 11.585355 0.000000 0.000000 0.000000 0.000000 -1.839859
    24 10.127057 0.000000 0.000001 1.597717 0.255825 0.214802
    25 2.683750 -0.427338 0.044205 -0.005786 0.043239 -0.157091
    26 1.438885 -0.000001 0.000000 0.000000 0.000000 0.732658
    27 1.485305 0.000001 0.000000 0.000000 0.000000 1.168770
    28 1.038631 0.548043 -0.144017 -0.000001 0.000001 -1.849906
    29 -0.064003 -0.023521 0.026161 0.000000 0.000000 0.000000
    30 3.013925 3.984634 -0.088975 -0.000001 0.000001 -1.849906
    31 -0.084188 -0.025627 -0.001098 0.000000 0.000000 0.000000
    32 4.778187 3.972486 -0.079803 -0.000001 0.000001 -1.849906
    33 -0.058556 -0.021324 0.004244 0.000000 0.000000 0.000000
    34 1.640598 -1.968779 -0.099219 -0.000001 0.000001 -1.849906
    35 0.055573 -0.028908 0.000000 0.000000 0.000000 0.000000
    36 1.646738 0.449549 -1.702246 -0.161934 0.581206 -0.284024
    37 0.928312 0.000000 -0.000002 0.000000 0.000000 0.000000
    38 0.928314 0.000000 0.000001 0.000000 0.000000 0.000000
    39 1.533672 0.109715 1.664491 -0.264755 -0.055959 0.783109
    40 0.928313 0.000000 0.000000 0.000000 0.000000 -0.453556
    41 0.928314 0.000000 0.000001 0.000000 0.000000 0.000000
  time 25
    0 0.235347 0.367732 3.528927 0.000000 0.000000 -1.570874
    1 0.000000 0.000000 0.000000 -1.570795 -1.570796 0.000000
    2 -0.000005 0.000007 3.713255 0.002054 3.115505 -0.021473
    3 18.045721 0.000000 0.000000 0.000000 0.000000 -0.121501
    4 17.597597 0.000000 0.000000 -0.002613 0.026036 0.099967
    5 0.000005 -0.000003 -3.713255 -0.002524 -3.124238 -0.024449
    6 18.045725 0.000000 0.000000 0.000000 0.000000 -0.127551
    7 17.597597 0.000000 0.000000 0.002950 -0.017289 0.103055
    8 1.293670 0.684478 -0.000001 -0.000004 -0.000001 0.306070
    9 5.309685 -0.003834 0.000000 0.000000 0.000000 -0.000004
    10 4.826790 -0.004591 0.000000 -0.173149 0.021273 0.120246
    11 5.792767 -0.005304 0.000000 -0.137962 0.021057 0.149724
    12 6.662317 -0.001453 0.000000 0.000000 -0.000001 0.471000
    13 2.046985 -0.000002 0.000000 0.255396 -0.183677 -0.081207
    14 -3.112024 1.517254 4.341911 0.978371 -1.189314 1.726486
    15 4.827230 0.000000 0.000001 0.114769 0.712080 -0.904865
    16 11.139763 0.000000 0.000000 0.000000 0.000000 -0.786849
    17 10.314597 0.000001 0.000000 -3.878403 0.130323 -0.281151
    18 2.975834 -0.386307 -0.044143 -0.000797 -0.043611 0.000035
    19 1.438886 0.000000 0.000000 0.000000 0.000000 0.872212
    20 1.485303 0.000000 0.000000 0.000000 0.000000 0.907076
    21 -2.869898 1.399663 -4.140396 0.602933 1.291486 3.254417
    22 4.972048 0.000000 0.000001 -1.039196 -1.003420 0.271165
    23 11.585355 0.000000 0.000000 0.000000 0.000000 -1.839859
    24 10.127057 0.000000 0.000001 1.597717 0.255825 0.214802
    25 2.683750 -0.427338 0.044205 -0.005786 0.043239 -0.157091
    26 1.438885 -0.000001 0.000000 0.000000 0.000000 0.732658
    27 1.485305 0.000001 0.000000 0.000000 0.000000 1.168770
    28 1.038631 0.548043 -0.144017 -0.000001 0.000001 -1.849906
    29 -0.064003 -0.023521 0.026161 0.000000 0.000000 0.000000
    30 3.013925 3.984634 -0.088975 -0.000001 0.000001 -1.849906
    31 -0.084188 -0.025627 -0.001098 0.000000 0.000000 0.000000
    32 4.778187 3.972486 -0.079803 -0.000001 0.000001 -1.849906
    33 -0.058556 -0.021324 0.004244 0.000000 0.000000 0.000000
    34 1.640598 -1.968779 -0.099219 -0.000001 0.000001 -1.849906
    35 0.055573 -0.028908 0.000000 0.000000 0.000000 0.000000
    36 1.646738 0.449549 -1.702246 -0.161934 0.581206 -0.284024
    37 0.928312 0.000000 -0.000002 0.000000 0.000000 0.000000
    38 0.928314 0.000000 0.000001 0.000000 0.000000 0.000000
    39 1.533672 0.109715 1.664491 -0.264755 -0.055959 0.783109
    40 0.928313 0.000000 0.000000 0.000000 0.000000 -0.453556
    41 0.928314 0.000000 0.000001 0.000000 0.000000 0.000000
  time 26
    0 0.235347 0.367732 3.528927 0.000000 0.000000 -1.570874
    1 0.000000 0.000000 0.000000 -1.570795 -1.570796 0.000000
    2 -0.000005 0.000007 3.713255 0.002054 3.115505 -0.021473
    3 18.045721 0.000000 0.000000 0.000000 0.000000 -0.121501
    4 17.597597 0.000000 0.000000 -0.002613 0.026036 0.099967
    5 0.000005 -0.000003 -3.713255 -0.002524 -3.124238 -0.024449
    6 18.045725 0.000000 0.000000 0.000000 0.000000 -0.127551
    7 17.597597 0.000000 0.000000 0.002950 -0.017289 0.103055
    8 1.293670 0.684478 -0.000001 -0.000004 -0.000001 0.306070
    9 5.309685 -0.003834 0.000000 0.000000 0.000000 -0.000004
    10 4.826790 -0.004591 0.000000 -0.173199 0.020889 0.118019
    11 5.792767 -0.005304 0.000000 -0.138027 0.020637 0.146734
    12 6.662317 -0.001453 0.000000 0.000000 -0.000001 0.471000
    13 2.046985 -0.000002 0.000000 0.255223 -0.183947 -0.075948
    14 -3.112024 1.517254 4.341911 0.989301 -1.192238 1.714693
    15 4.827230 0.000000 0.000001 0.111303 0.720250 -0.906178
    16 11.139763 0.000000 0.000000 0.000000 0.000000 -0.786849
    17 10.314597 0.000001 0.000000 -3.878403 0.130323 -0.281151
    18 2.975834 -0.386307 -0.044143 -0.000797 -0.043611 0.000035
    19 1.438886 0.000000 0.000000 0.000000 0.000000 0.872212
    20 1.485303 0.000000 0.000000 0.000000 0.000000 0.907076
    21 -2.869898 1.399663 -4.140396 0.619711 1.298269 3.271866
    22 4.972048 0.000000 0.000001 -1.051805 -1.008971 0.283022
    23 11.585355 0.000000 0.000000 0.000000 0.000000 -1.839859
    24 10.127057 0.000000 0.000001 1.597717 0.255825 0.214802
    25 2.683750 -0.427338 0.044205 -0.005786 0.043239 -0.157091
    26 1.438885 -0.000001 0.000000 0.000000 0.000000 0.732658
    27 1.485305 0.000001 0.000000 0.000000 0.000000 1.168770
    28 1.038631 0.548043 -0.144017 -0.000001 0.000001 -1.849906
    29 -0.064003 -0.023521 0.026161 0.000000 0.000000 0.000000
    30 3.013925 3.984634 -0.088975 -0.000001 0.000001 -1.849906
    31 -0.084188 -0.025627 -0.001098 0.000000 0.000000 0.000000
    32 4.778187 3.972486 -0.079803 -0.000001 0.000001 -1.849906
    33 -0.058556 -0.021324 0.004244 0.000000 0.000000 0.000000
    34 1.640598 -1.968779 -0.099219 -0.000001 0.000001 -1.849906
    35 0.055573 -0.028908 0.000000 0.000000 0.000000 0.000000
    36 1.646738 0.449549 -1.702246 -0.161934 0.581206 -0.284024
    37 0.928312 0.000000 -0.000002 0.000000 0.000000 0.000000
    38 0.928314 0.000000 0.000001 0.000000 0.000000 0.000000
    39 1.533672 0.109715 1.664491 -0.264755 -0.055959 0.783109
    40 0.928313 0.000000 0.000000 0.000000 0.000000 -0.453556
    41 0.928314 0.000000 0.000001 0.000000 0.000000 0.000000
  time 27
    0 0.235347 0.367732 3.528927 0.000000 0.000000 -1.570874
    1 0.000000 0.000000 0.000000 -1.570795 -1.570796 0.000000
    2 -0.000005 0.000007 3.713255 0.002054 3.115505 -0.021473
    3 18.045721 0.000000 0.000000 0.000000 0.000000 -0.121501
    4 17.597597 0.000000 0.000000 -0.002613 0.026036 0.099967
    5 0.000005 -0.000003 -3.713255 -0.002524 -3.124238 -0.024449
    6 18.045725 0.000000 0.000000 0.000000 0.000000 -0.127551
    7 17.597597 0.000000 0.000000 0.002950 -0.017289 0.103055
    8 1.293670 0.684478 -0.000001 -0.000004 -0.000001 0.306070
    9 5.309685 -0.003834 0.000000 0.000000 0.000000 -0.000004
    10 4.826790 -0.004591 0.000000 -0.173231 0.020530 0.115991
    11 5.792767 -0.005304 0.000000 -0.138076 0.020266 0.144014
    12 6.662317 -0.001453 0.000000 0.000000 -0.000001 0.471000
    13 2.046985 -0.000002 0.000000 0.255051 -0.184195 -0.071094
    14 -3.112024 1.517254 4.341911 0.999559 -1.194854 1.703667
    15 4.827230 0.000000 0.000001 0.107955 0.727739 -0.907490
    16 11.139763 0.000000 0.000000 0.000000 0.000000 -0.786849
    17 10.314597 0.000001 0.000000 -3.878403 0.130323 -0.281151
    18 2.975834 -0.386307 -0.044143 -0.000797 -0.043611 0.000035
    19 1.438886 0.000000 0.000000 0.000000 0.000000 0.872212
    20 1.485303 0.000000 0.000000 0.000000 0.000000 0.907076
    21 -2.869898 1.399663 -4.140396 0.635818 1.304403 3.288548
    22 4.972048 0.000000 0.000001 -1.063640 -1.013958 0.294088
    23 11.585355 0.000000 0.000000 0.000000 0.000000 -1.839859
    24 10.127057 0.000000 0.000001 1.597717 0.255825 0.214802
    25 2.683750 -0.427338 0.044205 -0.005786 0.043239 -0.157091
    26 1.438885 -0.000001 0.000000 0.000000 0.000000 0.732658
    27 1.485305 0.000001 0.000000 0.000000 0.000000 1.168770
    28 1.038631 0.548043 -0.144017 -0.000001 0.000001 -1.849906
    29 -0.064003 -0.023521 0.026161 0.000000 0.000000 0.000000
    30 3.013925 3.984634 -0.088975 -0.000001 0.000001 -1.849906
    31 -0.084188 -0.025627 -0.001098 0.000000 0.000000 0.000000
    32 4.778187 3.972486 -0.079803 -0.000001 0.000001 -1.849906
    33 -0.058556 -0.021324 0.004244 0.000000 0.000000 0.000000
    34 1.640598 -1.968779 -0.099219 -0.000001 0.000001 -1.849906
    35 0.055573 -0.028908 0.000000 0.000000 0.000000 0.000000
    36 1.646738 0.449549 -1.702246 -0.161934 0.581206 -0.284024
    37 0.928312 0.000000 -0.000002 0.000000 0.000000 0.000000
    38 0.928314 0.000000 0.000001 0.000000 0.000000 0.000000
    39 1.533672 0.109715 1.664491 -0.264755 -0.055959 0.783109
    40 0.928313 0.000000 0.000000 0.000000 0.000000 -0.453556
    41 0.928314 0.000000 0.000001 0.000000 0.000000 0.000000
  time 28
    0 0.235347 0.367732 3.528927 0.000000 0.000000 -1.570874
    1 0.000000 0.000000 0.000000 -1.570795 -1.570796 0.000000
    2 -0.000005 0.000007 3.713255 0.002054 3.115505 -0.021473
    3 18.045721 0.000000 0.000000 0.000000 0.000000 -0.121501
    4 17.597597 0.000000 0.000000 -0.002613 0.026036 0.099967
    5 0.000005 -0.000003 -3.713255 -0.002524 -3.124238 -0.024449
    6 18.045725 0.000000 0.000000 0.000000 0.000000 -0.127551
    7 17.597597 0.000000 0.000000 0.002950 -0.017289 0.103055
    8 1.293670 0.684478 -0.000001 -0.000004 -0.000001 0.306070
    9 5.309685 -0.003834 0.000000 0.000000 0.000000 -0.000004
    10 4.826790 -0.004591 0.000000 -0.173264 0.020218 0.114205
    11 5.792767 -0.005304 0.000000 -0.138125 0.019930 0.141605
    12 6.662317 -0.001453 0.000000 0.000000 -0.000001 0.471000
    13 2.046985 -0.000002 0.000000 0.254922 -0.184398 -0.066869
    14 -3.112024 1.517254 4.341911 1.008571 -1.197123 1.693888
    15 4.827230 0.000000 0.000001 0.105019 0.734377 -0.908628
    16 11.139763 0.000000 0.000000 0.000000 0.000000 -0.786849
    17 10.314597 0.000001 0.000000 -3.878403 0.130323 -0.281151
    18 2.975834 -0.386307 -0.044143 -0.000797 -0.043611 0.000035
    19 1.438886 0.000000 0.000000 0.000000 0.000000 0.872212
    20 1.485303 0.000000 0.000000 0.000000 0.000000 0.907076
    21 -2.869898 1.399663 -4.140396 0.650678 1.309716 3.303888
    22 4.972048 0.000000 0.000001 -1.074160 -1.018221 0.303903
    23 11.585355 0.000000 0.000000 0.000000 0.000000 -1.839859
    24 10.127057 0.000000 0.000001 1.597717 0.255825 0.214802
    25 2.683750 -0.427338 0.044205 -0.005786 0.043239 -0.157091
    26 1.438885 -0.000001 0.000000 0.000000 0.000000 0.732658
    27 1.485305 0.000001 0.000000 0.000000 0.000000 1.168770
    28 1.038631 0.548043 -0.144017 -0.000001 0.000001 -1.849906
    29 -0.064003 -0.023521 0.026161 0.000000 0.000000 0.000000
    30 3.013925 3.984634 -0.088975 -0.000001 0.000001 -1.849906
    31 -0.084188 -0.025627 -0.001098 0.000000 0.000000 0.000000
    32 4.778187 3.972486 -0.079803 -0.000001 0.000001 -1.849906
    33 -0.058556 -0.021324 0.004244 0.000000 0.000000 0.000000
    34 1.640598 -1.968779 -0.099219 -0.000001 0.000001 -1.849906
    35 0.055573 -0.028908 0.000000 0.000000 0.000000 0.000000
    36 1.646738 0.449549 -1.702246 -0.161934 0.581206 -0.284024
    37 0.928312 0.000000 -0.000002 0.000000 0.000000 0.000000
    38 0.928314 0.000000 0.000001 0.000000 0.000000 0.000000
    39 1.533672 0.109715 1.664491 -0.264755 -0.055959 0.783109
    40 0.928313 0.000000 0.000000 0.000000 0.000000 -0.453556
    41 0.928314 0.000000 0.000001 0.000000 0.000000 0.000000
  time 29
    0 0.235347 0.367732 3.528927 0.000000 0.000000 -1.570874
    1 0.000000 0.000000 0.000000 -1.570795 -1.570796 0.000000
    2 -0.000005 0.000007 3.713255 0.002054 3.115505 -0.021473
    3 18.045721 0.000000 0.000000 0.000000 0.000000 -0.121501
    4 17.597597 0.000000 0.000000 -0.002613 0.026036 0.099967
    5 0.000005 -0.000003 -3.713255 -0.002524 -3.124238 -0.024449
    6 18.045725 0.000000 0.000000 0.000000 0.000000 -0.127551
    7 17.597597 0.000000 0.000000 0.002950 -0.017289 0.103055
    8 1.293670 0.684478 -0.000001 -0.000004 -0.000001 0.306070
    9 5.309685 -0.003834 0.000000 0.000000 0.000000 -0.000004
    10 4.826790 -0.004591 0.000000 -0.173297 0.019954 0.112727
    11 5.792767 -0.005304 0.000000 -0.138158 0.019655 0.139633
    12 6.662317 -0.001453 0.000000 0.000000 -0.000001 0.471000
    13 2.046985 -0.000002 0.000000 0.254835 -0.184578 -0.063363
    14 -3.112024 1.517254 4.341911 1.016145 -1.198969 1.685834
    15 4.827230 0.000000 0.000001 0.102610 0.739738 -0.909590
    16 11.139763 0.000000 0.000000 0.000000 0.000000 -0.786849
    17 10.314597 0.000001 0.000000 -3.878403 0.130323 -0.281151
    18 2.975834 -0.386307 -0.044143 -0.000797 -0.043611 0.000035
    19 1.438886 0.000000 0.000000 0.000000 0.000000 0.872212
    20 1.485303 0.000000 0.000000 0.000000 0.000000 0.907076
    21 -2.869898 1.399663 -4.140396 0.663238 1.314041 3.316927
    22 4.972048 0.000000 0.000001 -1.082901 -1.021680 0.312071
    23 11.585355 0.000000 0.000000 0.000000 0.000000 -1.839859
    24 10.127057 0.000000 0.000001 1.597717 0.255825 0.214802
    25 2.683750 -0.427338 0.044205 -0.005786 0.043239 -0.157091
    26 1.438885 -0.000001 0.000000 0.000000 0.000000 0.732658
    27 1.485305 0.000001 0.000000 0.000000 0.000000 1.168770
    28 1.038631 0.548043 -0.144017 -0.000001 0.000001 -1.849906
    29 -0.064003 -0.023521 0.026161 0.000000 0.000000 0.000000
    30 3.013925 3.984634 -0.088975 -0.000001 0.000001 -1.849906
    31 -0.084188 -0.025627 -0.001098 0.000000 0.000000 0.000000
    32 4.778187 3.972486 -0.079803 -0.000001 0.000001 -1.849906
    33 -0.058556 -0.021324 0.004244 0.000000 0.000000 0.000000
    34 1.640598 -1.968779 -0.099219 -0.000001 0.000001 -1.849906
    35 0.055573 -0.028908 0.000000 0.000000 0.000000 0.000000
    36 1.646738 0.449549 -1.702246 -0.161934 0.581206 -0.284024
    37 0.928312 0.000000 -0.000002 0.000000 0.000000 0.000000
    38 0.928314 0.000000 0.000001 0.000000 0.000000 0.000000
    39 1.533672 0.109715 1.664491 -0.264755 -0.055959 0.783109
    40 0.928313 0.000000 0.000000 0.000000 0.000000 -0.453556
    41 0.928314 0.000000 0.000001 0.000000 0.000000 0.000000
  time 30
    0 0.235347 0.367732 3.528927 0.000000 0.000000 -1.570874
    1 0.000000 0.000000 0.000000 -1.570795 -1.570796 0.000000
    2 -0.000005 0.000007 3.713255 0.002054 3.115505 -0.021473
    3 18.045721 0.000000 0.000000 0.000000 0.000000 -0.121501
    4 17.597597 0.000000 0.000000 -0.002613 0.026036 0.099967
    5 0.000005 -0.000003 -3.713255 -0.002524 -3.124238 -0.024449
    6 18.045725 0.000000 0.000000 0.000000 0.000000 -0.127551
    7 17.597597 0.000000 0.000000 0.002950 -0.017289 0.103055
    8 1.293670 0.684478 -0.000001 -0.000004 -0.000001 0.306070
    9 5.309685 -0.003834 0.000000 0.000000 0.000000 -0.000004
    10 4.826790 -0.004591 0.000000 -0.173330 0.019775 0.111669
    11 5.792767 -0.005304 0.000000 -0.138190 0.019451 0.138200
    12 6.662317 -0.001453 0.000000 0.000000 -0.000001 0.471000
    13 2.046985 -0.000002 0.000000 0.254749 -0.184713 -0.060846
    14 -3.112024 1.517254 4.341911 1.021706 -1.200316 1.679890
    15 4.827230 0.000000 0.000001 0.100848 0.743738 -0.910378
    16 11.139763 0.000000 0.000000 0.000000 0.000000 -0.786849
    17 10.314597 0.000001 0.000000 -3.878403 0.130323 -0.281151
    18 2.975834 -0.386307 -0.044143 -0.000797 -0.043611 0.000035
    19 1.438886 0.000000 0.000000 0.000000 0.000000 0.872212
    20 1.485303 0.000000 0.000000 0.000000 0.000000 0.907076
    21 -2.869898 1.399663 -4.140396 0.672729 1.317206 3.326706
    22 4.972048 0.000000 0.000001 -1.089399 -1.024254 0.318132
    23 11.585355 0.000000 0.000000 0.000000 0.000000 -1.839859
    24 10.127057 0.000000 0.000001 1.597717 0.255825 0.214802
    25 2.683750 -0.427338 0.044205 -0.005786 0.043239 -0.157091
    26 1.438885 -0.000001 0.000000 0.000000 0.000000 0.732658
    27 1.485305 0.000001 0.000000 0.000000 0.000000 1.168770
    28 1.038631 0.548043 -0.144017 -0.000001 0.000001 -1.849906
    29 -0.064003 -0.023521 0.026161 0.000000 0.000000 0.000000
    30 3.013925 3.984634 -0.088975 -0.000001 0.000001 -1.849906
    31 -0.084188 -0.025627 -0.001098 0.000000 0.000000 0.000000
    32 4.778187 3.972486 -0.079803 -0.000001 0.000001 -1.849906
    33 -0.058556 -0.021324 0.004244 0.000000 0.000000 0.000000
    34 1.640598 -1.968779 -0.099219 -0.000001 0.000001 -1.849906
    35 0.055573 -0.028908 0.000000 0.000000 0.000000 0.000000
    36 1.646738 0.449549 -1.702246 -0.161934 0.581206 -0.284024
    37 0.928312 0.000000 -0.000002 0.000000 0.000000 0.000000
    38 0.928314 0.000000 0.000001 0.000000 0.000000 0.000000
    39 1.533672 0.109715 1.664491 -0.264755 -0.055959 0.783109
    40 0.928313 0.000000 0.000000 0.000000 0.000000 -0.453556
    41 0.928314 0.000000 0.000001 0.000000 0.000000 0.000000
end
