version 1
nodes
  0 "Bip01" -1
  1 "Bip01 Pelvis" 0
  2 "Bip01 L Leg" 1
  3 "Bip01 L Leg1" 2
  4 "Bip01 L Foot" 3
  5 "Bip01 R Leg" 1
  6 "Bip01 R Leg1" 5
  7 "Bip01 R Foot" 6
  8 "Bip01 Spine" 1
  9 "Bip01 Spine1" 8
  10 "Bip01 Spine2" 9
  11 "Bip01 Spine3" 10
  12 "Bip01 Neck" 11
  13 "Bip01 Head" 12
  14 "Bip01 L Arm" 12
  15 "Bip01 L Arm1" 14
  16 "Bip01 L Arm2" 15
  17 "Bip01 L Hand" 16
  18 "Bip01 L Finger1" 17
  19 "Bip01 L Finger11" 18
  20 "Bip01 L Finger12" 19
  21 "Bip01 R Arm" 12
  22 "Bip01 R Arm1" 21
  23 "Bip01 R Arm2" 22
  24 "Bip01 R Hand" 23
  25 "Bip01 R Finger1" 24
  26 "Bip01 R Finger11" 25
  27 "Bip01 R Finger12" 26
  28 "Dummy08" 13
  29 "Bone02" 28
  30 "Dummy04" 13
  31 "Bone05" 30
  32 "Dummy03" 13
  33 "Bone07" 32
  34 "Dummy10" 13
  35 "Bone13" 34
  36 "Bip01 L Finger0" 17
  37 "Bip01 L Finger01" 36
  38 "Bip01 L Finger02" 37
  39 "Bip01 R Finger0" 24
  40 "Bip01 R Finger01" 39
  41 "Bip01 R Finger02" 40
end
skeleton
  time 0
    0 0.235347 0.367732 3.528927 0.000000 0.000000 -1.570874
    1 0.000000 0.000000 0.000000 -1.570795 -1.570796 0.000000
    2 -0.000005 0.000007 3.713255 0.002054 3.115505 -0.021473
    3 18.045721 0.000000 0.000000 0.000000 0.000000 -0.121501
    4 17.597597 0.000000 0.000000 -0.002613 0.026036 0.099967
    5 0.000005 -0.000003 -3.713255 -0.002524 -3.124238 -0.024449
    6 18.045725 0.000000 0.000000 0.000000 0.000000 -0.127551
    7 17.597597 0.000000 0.000000 0.002950 -0.017289 0.103055
    8 1.293670 0.684478 -0.000001 -0.000004 -0.000001 0.061853
    9 5.309685 -0.003834 0.000000 -0.221112 0.050743 0.221143
    10 4.826790 -0.004591 0.000000 -0.152378 0.037931 0.241317
    11 5.792767 -0.005304 0.000000 -0.206796 0.032658 0.153606
    12 6.662317 -0.001453 0.000000 0.000000 -0.000001 0.471000
    13 2.046985 -0.000002 0.000000 0.505707 -0.039199 -0.235243
    14 -3.112024 1.517254 4.341911 0.999080 -1.044298 1.738758
    15 4.827230 0.000000 0.000001 -0.353125 0.507583 -0.603389
    16 11.139763 0.000000 0.000000 0.000000 0.000000 -1.045513
    17 10.314597 0.000001 0.000000 -2.987507 -0.064640 0.326477
    18 2.975834 -0.386307 -0.044143 -0.023136 -0.036984 0.541211
    19 1.438886 0.000000 0.000000 0.000000 0.000000 0.784982
    20 1.485303 0.000000 0.000000 0.000000 0.000000 0.689056
    21 -2.869898 1.399663 -4.140396 -1.188073 0.734767 1.639722
    22 4.972048 0.000000 0.000001 0.527082 -0.428669 -1.004588
    23 11.585355 0.000000 0.000000 0.000000 0.000000 -0.911881
    24 10.127057 0.000000 0.000001 2.052614 0.054684 0.642320
    25 2.683750 -0.427338 0.044205 -0.005786 0.043239 -0.157091
    26 1.438885 -0.000001 0.000000 0.000000 0.000000 0.732658
    27 1.485305 0.000001 0.000000 0.000000 0.000000 1.168770
    28 1.038631 0.548043 -0.144017 -0.000001 0.000001 -1.849906
    29 -0.064003 -0.023521 0.026161 0.000000 0.000000 0.000000
    30 3.013925 3.984634 -0.088975 -0.000001 0.000001 -1.849906
    31 -0.084188 -0.025627 -0.001098 0.000000 0.000000 0.000000
    32 4.778187 3.972486 -0.079803 -0.000001 0.000001 -1.849906
    33 -0.058556 -0.021324 0.004244 0.000000 0.000000 0.000000
    34 1.640598 -1.968779 -0.099219 -0.000001 0.000001 -1.849906
    35 0.055573 -0.028908 0.000000 0.000000 0.000000 0.000000
    36 1.646738 0.449549 -1.702246 0.154002 0.442277 0.277235
    37 0.928312 0.000000 -0.000002 0.000000 0.000000 0.000000
    38 0.928314 0.000000 0.000001 0.000000 0.000000 0.000000
    39 1.533672 0.109715 1.664491 -0.264755 -0.055959 0.783109
    40 0.928313 0.000000 0.000000 0.000000 0.000000 -0.453556
    41 0.928314 0.000000 0.000001 0.000000 0.000000 0.000000
  time 1
    0 0.235347 0.367732 3.528927 0.000000 0.000000 -1.570874
    1 0.000000 0.000000 0.000000 -1.570795 -1.570796 0.000000
    2 -0.000005 0.000007 3.713255 0.002054 3.115505 -0.021473
    3 18.045721 0.000000 0.000000 0.000000 0.000000 -0.121501
    4 17.597597 0.000000 0.000000 -0.002613 0.026036 0.099967
    5 0.000005 -0.000003 -3.713255 -0.002524 -3.124238 -0.024449
    6 18.045725 0.000000 0.000000 0.000000 0.000000 -0.127551
    7 17.597597 0.000000 0.000000 0.002950 -0.017289 0.103055
    8 1.293670 0.684478 -0.000001 -0.000004 -0.000001 0.061853
    9 5.309685 -0.003834 0.000000 -0.222520 0.044067 0.191535
    10 4.826790 -0.004591 0.000000 -0.214413 0.052469 0.235540
    11 5.792767 -0.005304 0.000000 -0.284746 0.044667 0.150596
    12 6.662317 -0.001453 0.000000 0.000000 -0.000001 0.471000
    13 2.046985 -0.000002 0.000000 0.623065 -0.119780 -0.217848
    14 -3.112024 1.517254 4.341911 0.999080 -1.044298 1.738758
    15 4.827230 0.000000 0.000001 -0.184845 0.749014 -0.317840
    16 11.139763 0.000000 0.000000 0.000000 0.000000 -1.678474
    17 10.314597 0.000001 0.000000 -2.987507 -0.064640 0.326477
    18 2.975834 -0.386307 -0.044143 -0.023136 -0.036984 0.541211
    19 1.438886 0.000000 0.000000 0.000000 0.000000 0.784982
    20 1.485303 0.000000 0.000000 0.000000 0.000000 0.689056
    21 -2.869898 1.399663 -4.140396 -0.332597 1.158616 2.363277
    22 4.972048 0.000000 0.000001 0.173881 -0.821945 -1.336059
    23 11.585355 0.000000 0.000000 0.000000 0.000000 -1.386469
    24 10.127057 0.000000 0.000001 1.980057 0.174828 0.694490
    25 2.683750 -0.427338 0.044205 -0.005786 0.043239 -0.157091
    26 1.438885 -0.000001 0.000000 0.000000 0.000000 0.732658
    27 1.485305 0.000001 0.000000 0.000000 0.000000 1.168770
    28 1.038631 0.548043 -0.144017 -0.000001 0.000001 -1.849906
    29 -0.064003 -0.023521 0.026161 0.000000 0.000000 0.000000
    30 3.013925 3.984634 -0.088975 -0.000001 0.000001 -1.849906
    31 -0.084188 -0.025627 -0.001098 0.000000 0.000000 0.000000
    32 4.778187 3.972486 -0.079803 -0.000001 0.000001 -1.849906
    33 -0.058556 -0.021324 0.004244 0.000000 0.000000 0.000000
    34 1.640598 -1.968779 -0.099219 -0.000001 0.000001 -1.849906
    35 0.055573 -0.028908 0.000000 0.000000 0.000000 0.000000
    36 1.646738 0.449549 -1.702246 0.154002 0.442277 0.277235
    37 0.928312 0.000000 -0.000002 0.000000 0.000000 0.000000
    38 0.928314 0.000000 0.000001 0.000000 0.000000 0.000000
    39 1.533672 0.109715 1.664491 -0.264755 -0.055959 0.783109
    40 0.928313 0.000000 0.000000 0.000000 0.000000 -0.453556
    41 0.928314 0.000000 0.000001 0.000000 0.000000 0.000000
  time 2
    0 0.235347 0.367732 3.528927 0.000000 0.000000 -1.570874
    1 0.000000 0.000000 0.000000 -1.570795 -1.570796 0.000000
    2 -0.000005 0.000007 3.713255 0.002054 3.115505 -0.021473
    3 18.045721 0.000000 0.000000 0.000000 0.000000 -0.121501
    4 17.597597 0.000000 0.000000 -0.002613 0.026036 0.099967
    5 0.000005 -0.000003 -3.713255 -0.002524 -3.124238 -0.024449
    6 18.045725 0.000000 0.000000 0.000000 0.000000 -0.127551
    7 17.597597 0.000000 0.000000 0.002950 -0.017289 0.103055
    8 1.293670 0.684478 -0.000001 -0.000004 -0.000001 0.061853
    9 5.309685 -0.003834 0.000000 -0.224050 0.035295 0.152836
    10 4.826790 -0.004591 0.000000 -0.295824 0.070613 0.226698
    11 5.792767 -0.005304 0.000000 -0.386815 0.059947 0.145239
    12 6.662317 -0.001453 0.000000 0.000000 -0.000001 0.471000
    13 2.046985 -0.000002 0.000000 0.774674 -0.231386 -0.214387
    14 -3.112024 1.517254 4.341911 0.999080 -1.044298 1.738758
    15 4.827230 0.000000 0.000001 -0.100970 0.865006 0.019428
    16 11.139763 0.000000 0.000000 0.000000 0.000000 -1.723886
    17 10.314597 0.000001 0.000000 -2.987507 -0.064640 0.326477
    18 2.975834 -0.386307 -0.044143 -0.023136 -0.036984 0.541211
    19 1.438886 0.000000 0.000000 0.000000 0.000000 0.784982
    20 1.485303 0.000000 0.000000 0.000000 0.000000 0.689056
    21 -2.869898 1.399663 -4.140396 -0.957978 0.947766 1.812582
    22 4.972048 0.000000 0.000001 0.219288 -0.701686 -1.196606
    23 11.585355 0.000000 0.000000 0.000000 0.000000 -1.237670
    24 10.127057 0.000000 0.000001 1.895206 0.311511 0.296195
    25 2.683750 -0.427338 0.044205 -0.005786 0.043239 -0.157091
    26 1.438885 -0.000001 0.000000 0.000000 0.000000 0.732658
    27 1.485305 0.000001 0.000000 0.000000 0.000000 1.168770
    28 1.038631 0.548043 -0.144017 -0.000001 0.000001 -1.849906
    29 -0.064003 -0.023521 0.026161 0.000000 0.000000 0.000000
    30 3.013925 3.984634 -0.088975 -0.000001 0.000001 -1.849906
    31 -0.084188 -0.025627 -0.001098 0.000000 0.000000 0.000000
    32 4.778187 3.972486 -0.079803 -0.000001 0.000001 -1.849906
    33 -0.058556 -0.021324 0.004244 0.000000 0.000000 0.000000
    34 1.640598 -1.968779 -0.099219 -0.000001 0.000001 -1.849906
    35 0.055573 -0.028908 0.000000 0.000000 0.000000 0.000000
    36 1.646738 0.449549 -1.702246 0.154002 0.442277 0.277235
    37 0.928312 0.000000 -0.000002 0.000000 0.000000 0.000000
    38 0.928314 0.000000 0.000001 0.000000 0.000000 0.000000
    39 1.533672 0.109715 1.664491 -0.264755 -0.055959 0.783109
    40 0.928313 0.000000 0.000000 0.000000 0.000000 -0.453556
    41 0.928314 0.000000 0.000001 0.000000 0.000000 0.000000
  time 3
    0 0.235347 0.367732 3.528927 0.000000 0.000000 -1.570874
    1 0.000000 0.000000 0.000000 -1.570795 -1.570796 0.000000
    2 -0.000005 0.000007 3.713255 0.002054 3.115505 -0.021473
    3 18.045721 0.000000 0.000000 0.000000 0.000000 -0.121501
    4 17.597597 0.000000 0.000000 -0.002613 0.026036 0.099967
    5 0.000005 -0.000003 -3.713255 -0.002524 -3.124238 -0.024449
    6 18.045725 0.000000 0.000000 0.000000 0.000000 -0.127551
    7 17.597597 0.000000 0.000000 0.002950 -0.017289 0.103055
    8 1.293670 0.684478 -0.000001 -0.000004 -0.000001 0.061853
    9 5.309685 -0.003834 0.000000 -0.224613 0.031448 0.135994
    10 4.826790 -0.004591 0.000000 -0.331389 0.078175 0.222399
    11 5.792767 -0.005304 0.000000 -0.431335 0.066419 0.142436
    12 6.662317 -0.001453 0.000000 0.000000 -0.000001 0.471000
    13 2.046985 -0.000002 0.000000 0.841151 -0.281212 -0.220185
    14 -3.112024 1.517254 4.341911 0.999080 -1.044298 1.738758
    15 4.827230 0.000000 0.000001 -0.047167 0.898876 0.205215
    16 11.139763 0.000000 0.000000 0.000000 0.000000 -1.666140
    17 10.314597 0.000001 0.000000 -2.987507 -0.064640 0.326477
    18 2.975834 -0.386307 -0.044143 -0.023136 -0.036984 0.541211
    19 1.438886 0.000000 0.000000 0.000000 0.000000 0.784982
    20 1.485303 0.000000 0.000000 0.000000 0.000000 0.689056
    21 -2.869898 1.399663 -4.140396 -1.031417 0.893244 1.754195
    22 4.972048 0.000000 0.000001 0.261833 -0.666614 -1.258988
    23 11.585355 0.000000 0.000000 0.000000 0.000000 -1.080407
    24 10.127057 0.000000 0.000001 2.005219 0.131757 0.676878
    25 2.683750 -0.427338 0.044205 -0.005786 0.043239 -0.157091
    26 1.438885 -0.000001 0.000000 0.000000 0.000000 0.732658
    27 1.485305 0.000001 0.000000 0.000000 0.000000 1.168770
    28 1.038631 0.548043 -0.144017 -0.000001 0.000001 -1.849906
    29 -0.064003 -0.023521 0.026161 0.000000 0.000000 0.000000
    30 3.013925 3.984634 -0.088975 -0.000001 0.000001 -1.849906
    31 -0.084188 -0.025627 -0.001098 0.000000 0.000000 0.000000
    32 4.778187 3.972486 -0.079803 -0.000001 0.000001 -1.849906
    33 -0.058556 -0.021324 0.004244 0.000000 0.000000 0.000000
    34 1.640598 -1.968779 -0.099219 -0.000001 0.000001 -1.849906
    35 0.055573 -0.028908 0.000000 0.000000 0.000000 0.000000
    36 1.646738 0.449549 -1.702246 0.154002 0.442277 0.277235
    37 0.928312 0.000000 -0.000002 0.000000 0.000000 0.000000
    38 0.928314 0.000000 0.000001 0.000000 0.000000 0.000000
    39 1.533672 0.109715 1.664491 -0.264755 -0.055959 0.783109
    40 0.928313 0.000000 0.000000 0.000000 0.000000 -0.453556
    41 0.928314 0.000000 0.000001 0.000000 0.000000 0.000000
  time 4
    0 0.235347 0.367732 3.528927 0.000000 0.000000 -1.570874
    1 0.000000 0.000000 0.000000 -1.570795 -1.570796 0.000000
    2 -0.000005 0.000007 3.713255 0.002054 3.115505 -0.021473
    3 18.045721 0.000000 0.000000 0.000000 0.000000 -0.121501
    4 17.597597 0.000000 0.000000 -0.002613 0.026036 0.099967
    5 0.000005 -0.000003 -3.713255 -0.002524 -3.124238 -0.024449
    6 18.045725 0.000000 0.000000 0.000000 0.000000 -0.127551
    7 17.597597 0.000000 0.000000 0.002950 -0.017289 0.103055
    8 1.293670 0.684478 -0.000001 -0.000004 -0.000001 0.061853
    9 5.309685 -0.003834 0.000000 -0.224185 0.034420 0.148997
    10 4.826790 -0.004591 0.000000 -0.303935 0.072351 0.225728
    11 5.792767 -0.005304 0.000000 -0.396975 0.061433 0.144637
    12 6.662317 -0.001453 0.000000 0.000000 -0.000001 0.471000
    13 2.046985 -0.000002 0.000000 0.789796 -0.242734 -0.215286
    14 -3.112024 1.517254 4.341911 0.999080 -1.044298 1.738758
    15 4.827230 0.000000 0.000001 -0.155771 0.813095 0.054083
    16 11.139763 0.000000 0.000000 0.000000 0.000000 -1.568659
    17 10.314597 0.000001 0.000000 -2.987507 -0.064640 0.326477
    18 2.975834 -0.386307 -0.044143 -0.023136 -0.036984 0.541211
    19 1.438886 0.000000 0.000000 0.000000 0.000000 0.784982
    20 1.485303 0.000000 0.000000 0.000000 0.000000 0.689056
    21 -2.869898 1.399663 -4.140396 -1.088269 0.843160 1.710764
    22 4.972048 0.000000 0.000001 0.316523 -0.623337 -1.214392
    23 11.585355 0.000000 0.000000 0.000000 0.000000 -1.018635
    24 10.127057 0.000000 0.000001 2.024012 0.093776 0.693705
    25 2.683750 -0.427338 0.044205 -0.005786 0.043239 -0.157091
    26 1.438885 -0.000001 0.000000 0.000000 0.000000 0.732658
    27 1.485305 0.000001 0.000000 0.000000 0.000000 1.168770
    28 1.038631 0.548043 -0.144017 -0.000001 0.000001 -1.849906
    29 -0.064003 -0.023521 0.026161 0.000000 0.000000 0.000000
    30 3.013925 3.984634 -0.088975 -0.000001 0.000001 -1.849906
    31 -0.084188 -0.025627 -0.001098 0.000000 0.000000 0.000000
    32 4.778187 3.972486 -0.079803 -0.000001 0.000001 -1.849906
    33 -0.058556 -0.021324 0.004244 0.000000 0.000000 0.000000
    34 1.640598 -1.968779 -0.099219 -0.000001 0.000001 -1.849906
    35 0.055573 -0.028908 0.000000 0.000000 0.000000 0.000000
    36 1.646738 0.449549 -1.702246 0.154002 0.442277 0.277235
    37 0.928312 0.000000 -0.000002 0.000000 0.000000 0.000000
    38 0.928314 0.000000 0.000001 0.000000 0.000000 0.000000
    39 1.533672 0.109715 1.664491 -0.264755 -0.055959 0.783109
    40 0.928313 0.000000 0.000000 0.000000 0.000000 -0.453556
    41 0.928314 0.000000 0.000001 0.000000 0.000000 0.000000
  time 5
    0 0.235347 0.367732 3.528927 0.000000 0.000000 -1.570874
    1 0.000000 0.000000 0.000000 -1.570795 -1.570796 0.000000
    2 -0.000005 0.000007 3.713255 0.002054 3.115505 -0.021473
    3 18.045721 0.000000 0.000000 0.000000 0.000000 -0.121501
    4 17.597597 0.000000 0.000000 -0.002613 0.026036 0.099967
    5 0.000005 -0.000003 -3.713255 -0.002524 -3.124238 -0.024449
    6 18.045725 0.000000 0.000000 0.000000 0.000000 -0.127551
    7 17.597597 0.000000 0.000000 0.002950 -0.017289 0.103055
    8 1.293670 0.684478 -0.000001 -0.000004 -0.000001 0.061853
    9 5.309685 -0.003834 0.000000 -0.223205 0.040400 0.175327
    10 4.826790 -0.004591 0.000000 -0.248468 0.060187 0.231990
    11 5.792767 -0.005304 0.000000 -0.327472 0.051126 0.148540
    12 6.662317 -0.001453 0.000000 0.000000 -0.000001 0.471000
    13 2.046985 -0.000002 0.000000 0.686612 -0.165890 -0.213623
    14 -3.112024 1.517254 4.341911 0.999080 -1.044298 1.738758
    15 4.827230 0.000000 0.000001 -0.268956 0.678891 -0.195849
    16 11.139763 0.000000 0.000000 0.000000 0.000000 -1.425206
    17 10.314597 0.000001 0.000000 -2.987507 -0.064640 0.326477
    18 2.975834 -0.386307 -0.044143 -0.023136 -0.036984 0.541211
    19 1.438886 0.000000 0.000000 0.000000 0.000000 0.784982
    20 1.485303 0.000000 0.000000 0.000000 0.000000 0.689056
    21 -2.869898 1.399663 -4.140396 -1.133521 0.797598 1.677592
    22 4.972048 0.000000 0.000001 0.397204 -0.551503 -1.139166
    23 11.585355 0.000000 0.000000 0.000000 0.000000 -0.972254
    24 10.127057 0.000000 0.000001 2.036370 0.075286 0.675466
    25 2.683750 -0.427338 0.044205 -0.005786 0.043239 -0.157091
    26 1.438885 -0.000001 0.000000 0.000000 0.000000 0.732658
    27 1.485305 0.000001 0.000000 0.000000 0.000000 1.168770
    28 1.038631 0.548043 -0.144017 -0.000001 0.000001 -1.849906
    29 -0.064003 -0.023521 0.026161 0.000000 0.000000 0.000000
    30 3.013925 3.984634 -0.088975 -0.000001 0.000001 -1.849906
    31 -0.084188 -0.025627 -0.001098 0.000000 0.000000 0.000000
    32 4.778187 3.972486 -0.079803 -0.000001 0.000001 -1.849906
    33 -0.058556 -0.021324 0.004244 0.000000 0.000000 0.000000
    34 1.640598 -1.968779 -0.099219 -0.000001 0.000001 -1.849906
    35 0.055573 -0.028908 0.000000 0.000000 0.000000 0.000000
    36 1.646738 0.449549 -1.702246 0.154002 0.442277 0.277235
    37 0.928312 0.000000 -0.000002 0.000000 0.000000 0.000000
    38 0.928314 0.000000 0.000001 0.000000 0.000000 0.000000
    39 1.533672 0.109715 1.664491 -0.264755 -0.055959 0.783109
    40 0.928313 0.000000 0.000000 0.000000 0.000000 -0.453556
    41 0.928314 0.000000 0.000001 0.000000 0.000000 0.000000
  time 6
    0 0.235347 0.367732 3.528927 0.000000 0.000000 -1.570874
    1 0.000000 0.000000 0.000000 -1.570795 -1.570796 0.000000
    2 -0.000005 0.000007 3.713255 0.002054 3.115505 -0.021473
    3 18.045721 0.000000 0.000000 0.000000 0.000000 -0.121501
    4 17.597597 0.000000 0.000000 -0.002613 0.026036 0.099967
    5 0.000005 -0.000003 -3.713255 -0.002524 -3.124238 -0.024449
    6 18.045725 0.000000 0.000000 0.000000 0.000000 -0.127551
    7 17.597597 0.000000 0.000000 0.002950 -0.017289 0.103055
    8 1.293670 0.684478 -0.000001 -0.000004 -0.000001 0.061853
    9 5.309685 -0.003834 0.000000 -0.222018 0.046560 0.202527
    10 4.826790 -0.004591 0.000000 -0.191359 0.047135 0.237789
    11 5.792767 -0.005304 0.000000 -0.255784 0.040232 0.151821
    12 6.662317 -0.001453 0.000000 0.000000 -0.000001 0.471000
    13 2.046985 -0.000002 0.000000 0.579767 -0.089249 -0.222882
    14 -3.112024 1.517254 4.341911 0.999080 -1.044298 1.738758
    15 4.827230 0.000000 0.000001 -0.322406 0.574728 -0.429241
    16 11.139763 0.000000 0.000000 0.000000 0.000000 -1.220292
    17 10.314597 0.000001 0.000000 -2.987507 -0.064640 0.326477
    18 2.975834 -0.386307 -0.044143 -0.023136 -0.036984 0.541211
    19 1.438886 0.000000 0.000000 0.000000 0.000000 0.784982
    20 1.485303 0.000000 0.000000 0.000000 0.000000 0.689056
    21 -2.869898 1.399663 -4.140396 -1.165351 0.761986 1.655158
    22 4.972048 0.000000 0.000001 0.474404 -0.478784 -1.061634
    23 11.585355 0.000000 0.000000 0.000000 0.000000 -0.938185
    24 10.127057 0.000000 0.000001 2.045415 0.064051 0.655421
    25 2.683750 -0.427338 0.044205 -0.005786 0.043239 -0.157091
    26 1.438885 -0.000001 0.000000 0.000000 0.000000 0.732658
    27 1.485305 0.000001 0.000000 0.000000 0.000000 1.168770
    28 1.038631 0.548043 -0.144017 -0.000001 0.000001 -1.849906
    29 -0.064003 -0.023521 0.026161 0.000000 0.000000 0.000000
    30 3.013925 3.984634 -0.088975 -0.000001 0.000001 -1.849906
    31 -0.084188 -0.025627 -0.001098 0.000000 0.000000 0.000000
    32 4.778187 3.972486 -0.079803 -0.000001 0.000001 -1.849906
    33 -0.058556 -0.021324 0.004244 0.000000 0.000000 0.000000
    34 1.640598 -1.968779 -0.099219 -0.000001 0.000001 -1.849906
    35 0.055573 -0.028908 0.000000 0.000000 0.000000 0.000000
    36 1.646738 0.449549 -1.702246 0.154002 0.442277 0.277235
    37 0.928312 0.000000 -0.000002 0.000000 0.000000 0.000000
    38 0.928314 0.000000 0.000001 0.000000 0.000000 0.000000
    39 1.533672 0.109715 1.664491 -0.264755 -0.055959 0.783109
    40 0.928313 0.000000 0.000000 0.000000 0.000000 -0.453556
    41 0.928314 0.000000 0.000001 0.000000 0.000000 0.000000
  time 7
    0 0.235347 0.367732 3.528927 0.000000 0.000000 -1.570874
    1 0.000000 0.000000 0.000000 -1.570795 -1.570796 0.000000
    2 -0.000005 0.000007 3.713255 0.002054 3.115505 -0.021473
    3 18.045721 0.000000 0.000000 0.000000 0.000000 -0.121501
    4 17.597597 0.000000 0.000000 -0.002613 0.026036 0.099967
    5 0.000005 -0.000003 -3.713255 -0.002524 -3.124238 -0.024449
    6 18.045725 0.000000 0.000000 0.000000 0.000000 -0.127551
    7 17.597597 0.000000 0.000000 0.002950 -0.017289 0.103055
    8 1.293670 0.684478 -0.000001 -0.000004 -0.000001 0.061853
    9 5.309685 -0.003834 0.000000 -0.221112 0.050743 0.221143
    10 4.826790 -0.004591 0.000000 -0.152378 0.037931 0.241317
    11 5.792767 -0.005304 0.000000 -0.206796 0.032658 0.153606
    12 6.662317 -0.001453 0.000000 0.000000 -0.000001 0.471000
    13 2.046985 -0.000002 0.000000 0.505707 -0.039199 -0.235243
    14 -3.112024 1.517254 4.341911 0.999080 -1.044298 1.738758
    15 4.827230 0.000000 0.000001 -0.353125 0.507583 -0.603389
    16 11.139763 0.000000 0.000000 0.000000 0.000000 -1.045513
    17 10.314597 0.000001 0.000000 -2.987507 -0.064640 0.326477
    18 2.975834 -0.386307 -0.044143 -0.023136 -0.036984 0.541211
    19 1.438886 0.000000 0.000000 0.000000 0.000000 0.784982
    20 1.485303 0.000000 0.000000 0.000000 0.000000 0.689056
    21 -2.869898 1.399663 -4.140396 -1.188073 0.734767 1.639722
    22 4.972048 0.000000 0.000001 0.527082 -0.428669 -1.004588
    23 11.585355 0.000000 0.000000 0.000000 0.000000 -0.911881
    24 10.127057 0.000000 0.000001 2.052614 0.054684 0.642320
    25 2.683750 -0.427338 0.044205 -0.005786 0.043239 -0.157091
    26 1.438885 -0.000001 0.000000 0.000000 0.000000 0.732658
    27 1.485305 0.000001 0.000000 0.000000 0.000000 1.168770
    28 1.038631 0.548043 -0.144017 -0.000001 0.000001 -1.849906
    29 -0.064003 -0.023521 0.026161 0.000000 0.000000 0.000000
    30 3.013925 3.984634 -0.088975 -0.000001 0.000001 -1.849906
    31 -0.084188 -0.025627 -0.001098 0.000000 0.000000 0.000000
    32 4.778187 3.972486 -0.079803 -0.000001 0.000001 -1.849906
    33 -0.058556 -0.021324 0.004244 0.000000 0.000000 0.000000
    34 1.640598 -1.968779 -0.099219 -0.000001 0.000001 -1.849906
    35 0.055573 -0.028908 0.000000 0.000000 0.000000 0.000000
    36 1.646738 0.449549 -1.702246 0.154002 0.442277 0.277235
    37 0.928312 0.000000 -0.000002 0.000000 0.000000 0.000000
    38 0.928314 0.000000 0.000001 0.000000 0.000000 0.000000
    39 1.533672 0.109715 1.664491 -0.264755 -0.055959 0.783109
    40 0.928313 0.000000 0.000000 0.000000 0.000000 -0.453556
    41 0.928314 0.000000 0.000001 0.000000 0.000000 0.000000
end
