version 1
nodes
  0 "Bip01" -1
  1 "Bip01 Pelvis" 0
  2 "Bip01 L Leg" 1
  3 "Bip01 L Leg1" 2
  4 "Bip01 L Foot" 3
  5 "Bip01 R Leg" 1
  6 "Bip01 R Leg1" 5
  7 "Bip01 R Foot" 6
  8 "Bip01 Spine" 1
  9 "Bip01 Spine1" 8
  10 "Bip01 Spine2" 9
  11 "Bip01 Spine3" 10
  12 "Bip01 Neck" 11
  13 "Bip01 Head" 12
  14 "Bip01 L Arm" 12
  15 "Bip01 L Arm1" 14
  16 "Bip01 L Arm2" 15
  17 "Bip01 L Hand" 16
  18 "Bip01 L Finger1" 17
  19 "Bip01 L Finger11" 18
  20 "Bip01 L Finger12" 19
  21 "Bip01 R Arm" 12
  22 "Bip01 R Arm1" 21
  23 "Bip01 R Arm2" 22
  24 "Bip01 R Hand" 23
  25 "Bip01 R Finger1" 24
  26 "Bip01 R Finger11" 25
  27 "Bip01 R Finger12" 26
  28 "Dummy08" 13
  29 "Bone02" 28
  30 "Dummy04" 13
  31 "Bone05" 30
  32 "Dummy03" 13
  33 "Bone07" 32
  34 "Dummy10" 13
  35 "Bone13" 34
  36 "Bip01 L Finger0" 17
  37 "Bip01 L Finger01" 36
  38 "Bip01 L Finger02" 37
  39 "Bip01 R Finger0" 24
  40 "Bip01 R Finger01" 39
  41 "Bip01 R Finger02" 40
end
skeleton
  time 0
    0 0.235347 0.367732 -12.139520 0.000000 0.270322 -1.570874
    1 -2.027406 -0.062502 0.000000 -1.570795 -1.570796 0.000000
    2 -0.000005 0.000007 3.713255 2.893246 6.073186 1.567094
    3 18.045721 0.000000 0.000000 0.000000 0.000000 -1.744785
    4 17.597597 0.000000 0.000000 -0.164903 0.191688 0.413694
    5 0.000005 -0.000003 -3.713255 0.311735 -3.346321 -0.928284
    6 18.045725 0.000000 0.000000 0.000000 0.000000 -1.993364
    7 17.597597 0.000000 0.000000 0.131027 -0.129934 1.055714
    8 1.293670 0.684478 -0.000001 -0.000004 -0.000001 0.279904
    9 5.309685 -0.003834 0.000000 -0.209347 -0.005273 -0.025628
    10 4.826790 -0.004591 0.000000 -0.409861 -0.013579 -0.032068
    11 5.792767 -0.005304 0.000000 0.000000 0.000000 0.043605
    12 6.662317 -0.001453 0.000000 0.000000 -0.000001 0.078527
    13 2.046985 -0.000002 0.000000 0.548833 0.303254 -0.532886
    14 -3.451878 0.212527 4.341911 1.808536 -0.756034 1.151901
    15 4.827230 0.000000 0.000001 -0.340849 -0.503754 -0.009275
    16 11.139763 0.000000 0.000000 0.000000 0.000000 -1.327094
    17 10.314597 0.000001 0.000000 -4.434764 0.060509 -0.051407
    18 2.975834 -0.386307 -0.044143 -0.012063 -0.041921 0.262037
    19 1.438886 0.000000 0.000000 0.000000 0.000000 0.924863
    20 1.485303 0.000000 0.000000 0.000000 0.000000 0.540993
    21 -3.186314 0.196501 -4.140396 -1.122975 1.033293 2.001356
    22 4.972048 0.000000 0.000001 0.430698 -0.394965 -1.091540
    23 11.585355 0.000000 0.000000 0.000000 0.000000 -1.873858
    24 10.127057 0.000000 0.000001 2.063125 0.632579 0.364486
    25 2.683750 -0.427338 0.044205 0.001045 0.043611 0.000046
    26 1.438885 -0.000001 0.000000 0.000000 0.000000 0.767762
    27 1.485305 0.000001 0.000000 0.000000 0.000000 1.221689
    28 1.038631 0.548043 -0.144017 -0.000001 0.000001 -1.849906
    29 -0.064003 -0.023521 0.026161 0.000000 0.000000 0.000000
    30 3.013925 3.984634 -0.088975 -0.000001 0.000001 -1.849906
    31 -0.084188 -0.025627 -0.001098 0.000000 0.000000 0.000000
    32 4.778187 3.972486 -0.079803 -0.000001 0.000001 -1.849906
    33 -0.058556 -0.021324 0.004244 0.000000 0.000000 0.000000
    34 1.640598 -1.968779 -0.099219 -0.000001 0.000001 -1.849906
    35 0.055573 -0.028908 0.000000 0.000000 0.000000 0.000000
    36 1.646738 0.449549 -1.702246 0.195746 0.777407 0.349090
    37 0.928312 0.000000 -0.000002 0.000000 0.000000 0.000000
    38 0.928314 0.000000 0.000001 0.000000 0.000000 0.000000
    39 1.533672 0.109715 1.664491 -0.233255 -0.412980 0.435684
    40 0.928313 0.000000 0.000000 0.000000 0.000000 0.000000
    41 0.928314 0.000000 0.000001 0.000000 0.000000 0.000000
  time 1
    0 0.235347 0.367732 -12.143426 0.000000 0.270322 -1.570874
    1 -2.039125 -0.058596 0.000000 -1.570795 -1.570796 0.000000
    2 -0.000005 0.000007 3.713255 2.892958 6.073473 1.566851
    3 18.045721 0.000000 0.000000 0.000000 0.000000 -1.744340
    4 17.597597 0.000000 0.000000 -0.165106 0.192077 0.413008
    5 0.000005 -0.000003 -3.713255 0.311448 -3.346704 -0.929108
    6 18.045725 0.000000 0.000000 0.000000 0.000000 -1.993654
    7 17.597597 0.000000 0.000000 0.131027 -0.129855 1.055131
    8 1.293670 0.684478 -0.000001 -0.000004 -0.000001 0.279904
    9 5.309685 -0.003834 0.000000 -0.209359 -0.005046 -0.024560
    10 4.826790 -0.004591 0.000000 -0.409877 -0.012859 -0.030415
    11 5.792767 -0.005304 0.000000 0.000000 0.000000 0.047239
    12 6.662317 -0.001453 0.000000 0.000000 -0.000001 0.078527
    13 2.046985 -0.000002 0.000000 0.548618 0.303637 -0.539449
    14 -3.451878 0.212527 4.341911 1.804893 -0.756957 1.157270
    15 4.827230 0.000000 0.000001 -0.345489 -0.512690 -0.005950
    16 11.139763 0.000000 0.000000 0.000000 0.000000 -1.325973
    17 10.314597 0.000001 0.000000 -4.434764 0.060509 -0.051407
    18 2.975834 -0.386307 -0.044143 -0.012063 -0.041921 0.262037
    19 1.438886 0.000000 0.000000 0.000000 0.000000 0.924863
    20 1.485303 0.000000 0.000000 0.000000 0.000000 0.540993
    21 -3.186314 0.196501 -4.140396 -1.129495 1.027245 1.995795
    22 4.972048 0.000000 0.000001 0.431859 -0.387081 -1.086797
    23 11.585355 0.000000 0.000000 0.000000 0.000000 -1.873858
    24 10.127057 0.000000 0.000001 2.063125 0.632579 0.364486
    25 2.683750 -0.427338 0.044205 0.001045 0.043611 0.000046
    26 1.438885 -0.000001 0.000000 0.000000 0.000000 0.767762
    27 1.485305 0.000001 0.000000 0.000000 0.000000 1.221689
    28 1.038631 0.548043 -0.144017 -0.000001 0.000001 -1.849906
    29 -0.064003 -0.023521 0.026161 0.000000 0.000000 0.000000
    30 3.013925 3.984634 -0.088975 -0.000001 0.000001 -1.849906
    31 -0.084188 -0.025627 -0.001098 0.000000 0.000000 0.000000
    32 4.778187 3.972486 -0.079803 -0.000001 0.000001 -1.849906
    33 -0.058556 -0.021324 0.004244 0.000000 0.000000 0.000000
    34 1.640598 -1.968779 -0.099219 -0.000001 0.000001 -1.849906
    35 0.055573 -0.028908 0.000000 0.000000 0.000000 0.000000
    36 1.646738 0.449549 -1.702246 0.195746 0.777407 0.349090
    37 0.928312 0.000000 -0.000002 0.000000 0.000000 0.000000
    38 0.928314 0.000000 0.000001 0.000000 0.000000 0.000000
    39 1.533672 0.109715 1.664491 -0.233255 -0.412980 0.435684
    40 0.928313 0.000000 0.000000 0.000000 0.000000 0.000000
    41 0.928314 0.000000 0.000001 0.000000 0.000000 0.000000
  time 2
    0 0.235347 0.367732 -12.147333 0.000000 0.270322 -1.570874
    1 -2.058657 -0.046876 0.000000 -1.570795 -1.570796 0.000000
    2 -0.000005 0.000007 3.713255 2.892575 6.073759 1.566560
    3 18.045721 0.000000 0.000000 0.000000 0.000000 -1.743672
    4 17.597597 0.000000 0.000000 -0.165410 0.192613 0.412092
    5 0.000005 -0.000003 -3.713255 0.311161 -3.347087 -0.930223
    6 18.045725 0.000000 0.000000 0.000000 0.000000 -1.994016
    7 17.597597 0.000000 0.000000 0.131027 -0.129717 1.054306
    8 1.293670 0.684478 -0.000001 -0.000004 -0.000001 0.279904
    9 5.309685 -0.003834 0.000000 -0.209359 -0.004734 -0.023093
    10 4.826790 -0.004591 0.000000 -0.409910 -0.011865 -0.028121
    11 5.792767 -0.005304 0.000000 0.000000 0.000000 0.052201
    12 6.662317 -0.001453 0.000000 0.000000 -0.000001 0.078527
    13 2.046985 -0.000002 0.000000 0.548359 0.304177 -0.548304
    14 -3.451878 0.212527 4.341911 1.799812 -0.758226 1.164556
    15 4.827230 0.000000 0.000001 -0.351950 -0.524774 -0.001399
    16 11.139763 0.000000 0.000000 0.000000 0.000000 -1.324501
    17 10.314597 0.000001 0.000000 -4.434764 0.060509 -0.051407
    18 2.975834 -0.386307 -0.044143 -0.012063 -0.041921 0.262037
    19 1.438886 0.000000 0.000000 0.000000 0.000000 0.924863
    20 1.485303 0.000000 0.000000 0.000000 0.000000 0.540993
    21 -3.186314 0.196501 -4.140396 -1.138219 1.018963 1.988413
    22 4.972048 0.000000 0.000001 0.433560 -0.376463 -1.080276
    23 11.585355 0.000000 0.000000 0.000000 0.000000 -1.873858
    24 10.127057 0.000000 0.000001 2.063125 0.632579 0.364486
    25 2.683750 -0.427338 0.044205 0.001045 0.043611 0.000046
    26 1.438885 -0.000001 0.000000 0.000000 0.000000 0.767762
    27 1.485305 0.000001 0.000000 0.000000 0.000000 1.221689
    28 1.038631 0.548043 -0.144017 -0.000001 0.000001 -1.849906
    29 -0.064003 -0.023521 0.026161 0.000000 0.000000 0.000000
    30 3.013925 3.984634 -0.088975 -0.000001 0.000001 -1.849906
    31 -0.084188 -0.025627 -0.001098 0.000000 0.000000 0.000000
    32 4.778187 3.972486 -0.079803 -0.000001 0.000001 -1.849906
    33 -0.058556 -0.021324 0.004244 0.000000 0.000000 0.000000
    34 1.640598 -1.968779 -0.099219 -0.000001 0.000001 -1.849906
    35 0.055573 -0.028908 0.000000 0.000000 0.000000 0.000000
    36 1.646738 0.449549 -1.702246 0.195746 0.777407 0.349090
    37 0.928312 0.000000 -0.000002 0.000000 0.000000 0.000000
    38 0.928314 0.000000 0.000001 0.000000 0.000000 0.000000
    39 1.533672 0.109715 1.664491 -0.233255 -0.412980 0.435684
    40 0.928313 0.000000 0.000000 0.000000 0.000000 0.000000
    41 0.928314 0.000000 0.000001 0.000000 0.000000 0.000000
  time 3
    0 0.235347 0.367732 -12.155145 0.000000 0.270322 -1.570874
    1 -2.082095 -0.035157 0.000000 -1.570795 -1.570796 0.000000
    2 -0.000005 0.000007 3.713255 2.892096 6.074238 1.566171
    3 18.045721 0.000000 0.000000 0.000000 0.000000 -1.742930
    4 17.597597 0.000000 0.000000 -0.165740 0.193270 0.410994
    5 0.000005 -0.000003 -3.713255 0.310683 -3.347661 -0.931629
    6 18.045725 0.000000 0.000000 0.000000 0.000000 -1.994523
    7 17.597597 0.000000 0.000000 0.131043 -0.129559 1.053345
    8 1.293670 0.684478 -0.000001 -0.000004 -0.000001 0.279904
    9 5.309685 -0.003834 0.000000 -0.209371 -0.004350 -0.021318
    10 4.826790 -0.004591 0.000000 -0.409943 -0.010666 -0.025365
    11 5.792767 -0.005304 0.000000 0.000000 0.000000 0.058264
    12 6.662317 -0.001453 0.000000 0.000000 -0.000001 0.078527
    13 2.046985 -0.000002 0.000000 0.548015 0.304830 -0.559136
    14 -3.451878 0.212527 4.341911 1.793676 -0.759688 1.173473
    15 4.827230 0.000000 0.000001 -0.359997 -0.539496 0.004289
    16 11.139763 0.000000 0.000000 0.000000 0.000000 -1.322679
    17 10.314597 0.000001 0.000000 -4.434764 0.060509 -0.051407
    18 2.975834 -0.386307 -0.044143 -0.012063 -0.041921 0.262037
    19 1.438886 0.000000 0.000000 0.000000 0.000000 0.924863
    20 1.485303 0.000000 0.000000 0.000000 0.000000 0.540993
    21 -3.186314 0.196501 -4.140396 -1.148478 1.008845 1.979688
    22 4.972048 0.000000 0.000001 0.435572 -0.363432 -1.072371
    23 11.585355 0.000000 0.000000 0.000000 0.000000 -1.873858
    24 10.127057 0.000000 0.000001 2.063125 0.632579 0.364486
    25 2.683750 -0.427338 0.044205 0.001045 0.043611 0.000046
    26 1.438885 -0.000001 0.000000 0.000000 0.000000 0.767762
    27 1.485305 0.000001 0.000000 0.000000 0.000000 1.221689
    28 1.038631 0.548043 -0.144017 -0.000001 0.000001 -1.849906
    29 -0.064003 -0.023521 0.026161 0.000000 0.000000 0.000000
    30 3.013925 3.984634 -0.088975 -0.000001 0.000001 -1.849906
    31 -0.084188 -0.025627 -0.001098 0.000000 0.000000 0.000000
    32 4.778187 3.972486 -0.079803 -0.000001 0.000001 -1.849906
    33 -0.058556 -0.021324 0.004244 0.000000 0.000000 0.000000
    34 1.640598 -1.968779 -0.099219 -0.000001 0.000001 -1.849906
    35 0.055573 -0.028908 0.000000 0.000000 0.000000 0.000000
    36 1.646738 0.449549 -1.702246 0.195746 0.777407 0.349090
    37 0.928312 0.000000 -0.000002 0.000000 0.000000 0.000000
    38 0.928314 0.000000 0.000001 0.000000 0.000000 0.000000
    39 1.533672 0.109715 1.664491 -0.233255 -0.412980 0.435684
    40 0.928313 0.000000 0.000000 0.000000 0.000000 0.000000
    41 0.928314 0.000000 0.000001 0.000000 0.000000 0.000000
  time 4
    0 0.235347 0.367732 -12.159052 0.000000 0.270322 -1.570874
    1 -2.109439 -0.023438 0.000000 -1.570795 -1.570796 0.000000
    2 -0.000005 0.000007 3.713255 2.891617 6.074716 1.565734
    3 18.045721 0.000000 0.000000 0.000000 0.000000 -1.741965
    4 17.597597 0.000000 0.000000 -0.166145 0.194000 0.409713
    5 0.000005 -0.000003 -3.713255 0.310204 -3.348236 -0.933180
    6 18.045725 0.000000 0.000000 0.000000 0.000000 -1.995031
    7 17.597597 0.000000 0.000000 0.131043 -0.129362 1.052212
    8 1.293670 0.684478 -0.000001 -0.000004 -0.000001 0.279904
    9 5.309685 -0.003834 0.000000 -0.209383 -0.003919 -0.019290
    10 4.826790 -0.004591 0.000000 -0.409976 -0.009288 -0.022190
    11 5.792767 -0.005304 0.000000 0.000000 0.000000 0.065157
    12 6.662317 -0.001453 0.000000 0.000000 -0.000001 0.078527
    13 2.046985 -0.000002 0.000000 0.547670 0.305573 -0.571497
    14 -3.451878 0.212527 4.341911 1.786677 -0.761342 1.183732
    15 4.827230 0.000000 0.000001 -0.369336 -0.556346 0.011027
    16 11.139763 0.000000 0.000000 0.000000 0.000000 -1.320647
    17 10.314597 0.000001 0.000000 -4.434764 0.060509 -0.051407
    18 2.975834 -0.386307 -0.044143 -0.012063 -0.041921 0.262037
    19 1.438886 0.000000 0.000000 0.000000 0.000000 0.924863
    20 1.485303 0.000000 0.000000 0.000000 0.000000 0.540993
    21 -3.186314 0.196501 -4.140396 -1.159791 0.997228 1.970101
    22 4.972048 0.000000 0.000001 0.437815 -0.348631 -1.063215
    23 11.585355 0.000000 0.000000 0.000000 0.000000 -1.873858
    24 10.127057 0.000000 0.000001 2.063125 0.632579 0.364486
    25 2.683750 -0.427338 0.044205 0.001045 0.043611 0.000046
    26 1.438885 -0.000001 0.000000 0.000000 0.000000 0.767762
    27 1.485305 0.000001 0.000000 0.000000 0.000000 1.221689
    28 1.038631 0.548043 -0.144017 -0.000001 0.000001 -1.849906
    29 -0.064003 -0.023521 0.026161 0.000000 0.000000 0.000000
    30 3.013925 3.984634 -0.088975 -0.000001 0.000001 -1.849906
    31 -0.084188 -0.025627 -0.001098 0.000000 0.000000 0.000000
    32 4.778187 3.972486 -0.079803 -0.000001 0.000001 -1.849906
    33 -0.058556 -0.021324 0.004244 0.000000 0.000000 0.000000
    34 1.640598 -1.968779 -0.099219 -0.000001 0.000001 -1.849906
    35 0.055573 -0.028908 0.000000 0.000000 0.000000 0.000000
    36 1.646738 0.449549 -1.702246 0.195746 0.777407 0.349090
    37 0.928312 0.000000 -0.000002 0.000000 0.000000 0.000000
    38 0.928314 0.000000 0.000001 0.000000 0.000000 0.000000
    39 1.533672 0.109715 1.664491 -0.233255 -0.412980 0.435684
    40 0.928313 0.000000 0.000000 0.000000 0.000000 0.000000
    41 0.928314 0.000000 0.000001 0.000000 0.000000 0.000000
  time 5
    0 0.235347 0.367732 -12.166865 0.000000 0.270322 -1.570874
    1 -2.136784 -0.007813 0.000000 -1.570795 -1.570796 0.000000
    2 -0.000005 0.000007 3.713255 2.891042 6.075194 1.565297
    3 18.045721 0.000000 0.000000 0.000000 0.000000 -1.741000
    4 17.597597 0.000000 0.000000 -0.166576 0.194804 0.408295
    5 0.000005 -0.000003 -3.713255 0.309726 -3.348906 -0.934926
    6 18.045725 0.000000 0.000000 0.000000 0.000000 -1.995610
    7 17.597597 0.000000 0.000000 0.131043 -0.129164 1.051010
    8 1.293670 0.684478 -0.000001 -0.000004 -0.000001 0.279904
    9 5.309685 -0.003834 0.000000 -0.209383 -0.003452 -0.017099
    10 4.826790 -0.004591 0.000000 -0.409992 -0.007790 -0.018751
    11 5.792767 -0.005304 0.000000 0.000000 0.000000 0.072673
    12 6.662317 -0.001453 0.000000 0.000000 -0.000001 0.078527
    13 2.046985 -0.000002 0.000000 0.547239 0.306384 -0.584981
    14 -3.451878 0.212527 4.341911 1.778911 -0.763111 1.194949
    15 4.827230 0.000000 0.000001 -0.379850 -0.574558 0.018553
    16 11.139763 0.000000 0.000000 0.000000 0.000000 -1.318334
    17 10.314597 0.000001 0.000000 -4.434764 0.060509 -0.051407
    18 2.975834 -0.386307 -0.044143 -0.012063 -0.041921 0.262037
    19 1.438886 0.000000 0.000000 0.000000 0.000000 0.924863
    20 1.485303 0.000000 0.000000 0.000000 0.000000 0.540993
    21 -3.186314 0.196501 -4.140396 -1.171679 0.984509 1.960130
    22 4.972048 0.000000 0.000001 0.440135 -0.332542 -1.053202
    23 11.585355 0.000000 0.000000 0.000000 0.000000 -1.873858
    24 10.127057 0.000000 0.000001 2.063125 0.632579 0.364486
    25 2.683750 -0.427338 0.044205 0.001045 0.043611 0.000046
    26 1.438885 -0.000001 0.000000 0.000000 0.000000 0.767762
    27 1.485305 0.000001 0.000000 0.000000 0.000000 1.221689
    28 1.038631 0.548043 -0.144017 -0.000001 0.000001 -1.849906
    29 -0.064003 -0.023521 0.026161 0.000000 0.000000 0.000000
    30 3.013925 3.984634 -0.088975 -0.000001 0.000001 -1.849906
    31 -0.084188 -0.025627 -0.001098 0.000000 0.000000 0.000000
    32 4.778187 3.972486 -0.079803 -0.000001 0.000001 -1.849906
    33 -0.058556 -0.021324 0.004244 0.000000 0.000000 0.000000
    34 1.640598 -1.968779 -0.099219 -0.000001 0.000001 -1.849906
    35 0.055573 -0.028908 0.000000 0.000000 0.000000 0.000000
    36 1.646738 0.449549 -1.702246 0.195746 0.777407 0.349090
    37 0.928312 0.000000 -0.000002 0.000000 0.000000 0.000000
    38 0.928314 0.000000 0.000001 0.000000 0.000000 0.000000
    39 1.533672 0.109715 1.664491 -0.233255 -0.412980 0.435684
    40 0.928313 0.000000 0.000000 0.000000 0.000000 0.000000
    41 0.928314 0.000000 0.000001 0.000000 0.000000 0.000000
  time 6
    0 0.235347 0.367732 -12.174677 0.000000 0.270322 -1.570874
    1 -2.168035 0.003906 0.000000 -1.570795 -1.570796 0.000000
    2 -0.000005 0.000007 3.713255 2.890371 6.075672 1.564811
    3 18.045721 0.000000 0.000000 0.000000 0.000000 -1.739961
    4 17.597597 0.000000 0.000000 -0.167032 0.195656 0.406877
    5 0.000005 -0.000003 -3.713255 0.309152 -3.349576 -0.936720
    6 18.045725 0.000000 0.000000 0.000000 0.000000 -1.996262
    7 17.597597 0.000000 0.000000 0.131060 -0.128947 1.049705
    8 1.293670 0.684478 -0.000001 -0.000004 -0.000001 0.279904
    9 5.309685 -0.003834 0.000000 -0.209396 -0.002960 -0.014763
    10 4.826790 -0.004591 0.000000 -0.410025 -0.006208 -0.015113
    11 5.792767 -0.005304 0.000000 0.000000 0.000000 0.080584
    12 6.662317 -0.001453 0.000000 0.000000 -0.000001 0.078527
    13 2.046985 -0.000002 0.000000 0.546808 0.307217 -0.599139
    14 -3.451878 0.212527 4.341911 1.770762 -0.764881 1.206742
    15 4.827230 0.000000 0.000001 -0.391186 -0.593620 0.026867
    16 11.139763 0.000000 0.000000 0.000000 0.000000 -1.316021
    17 10.314597 0.000001 0.000000 -4.434764 0.060509 -0.051407
    18 2.975834 -0.386307 -0.044143 -0.012063 -0.041921 0.262037
    19 1.438886 0.000000 0.000000 0.000000 0.000000 0.924863
    20 1.485303 0.000000 0.000000 0.000000 0.000000 0.540993
    21 -3.186314 0.196501 -4.140396 -1.183759 0.971084 1.950160
    22 4.972048 0.000000 0.000001 0.442611 -0.315569 -1.042662
    23 11.585355 0.000000 0.000000 0.000000 0.000000 -1.873858
    24 10.127057 0.000000 0.000001 2.063125 0.632579 0.364486
    25 2.683750 -0.427338 0.044205 0.001045 0.043611 0.000046
    26 1.438885 -0.000001 0.000000 0.000000 0.000000 0.767762
    27 1.485305 0.000001 0.000000 0.000000 0.000000 1.221689
    28 1.038631 0.548043 -0.144017 -0.000001 0.000001 -1.849906
    29 -0.064003 -0.023521 0.026161 0.000000 0.000000 0.000000
    30 3.013925 3.984634 -0.088975 -0.000001 0.000001 -1.849906
    31 -0.084188 -0.025627 -0.001098 0.000000 0.000000 0.000000
    32 4.778187 3.972486 -0.079803 -0.000001 0.000001 -1.849906
    33 -0.058556 -0.021324 0.004244 0.000000 0.000000 0.000000
    34 1.640598 -1.968779 -0.099219 -0.000001 0.000001 -1.849906
    35 0.055573 -0.028908 0.000000 0.000000 0.000000 0.000000
    36 1.646738 0.449549 -1.702246 0.195746 0.777407 0.349090
    37 0.928312 0.000000 -0.000002 0.000000 0.000000 0.000000
    38 0.928314 0.000000 0.000001 0.000000 0.000000 0.000000
    39 1.533672 0.109715 1.664491 -0.233255 -0.412980 0.435684
    40 0.928313 0.000000 0.000000 0.000000 0.000000 0.000000
    41 0.928314 0.000000 0.000001 0.000000 0.000000 0.000000
  time 7
    0 0.235347 0.367732 -12.182490 0.000000 0.270322 -1.570874
    1 -2.195379 0.019532 0.000000 -1.570795 -1.570796 0.000000
    2 -0.000005 0.000007 3.713255 2.889795 6.076246 1.564276
    3 18.045721 0.000000 0.000000 0.000000 0.000000 -1.738922
    4 17.597597 0.000000 0.000000 -0.167489 0.196508 0.405367
    5 0.000005 -0.000003 -3.713255 0.308578 -3.350342 -0.938562
    6 18.045725 0.000000 0.000000 0.000000 0.000000 -1.996842
    7 17.597597 0.000000 0.000000 0.131060 -0.128730 1.048400
    8 1.293670 0.684478 -0.000001 -0.000004 -0.000001 0.279904
    9 5.309685 -0.003834 0.000000 -0.209408 -0.002457 -0.012409
    10 4.826790 -0.004591 0.000000 -0.410041 -0.004602 -0.011408
    11 5.792767 -0.005304 0.000000 0.000000 0.000000 0.088640
    12 6.662317 -0.001453 0.000000 0.000000 -0.000001 0.078527
    13 2.046985 -0.000002 0.000000 0.546378 0.308095 -0.613613
    14 -3.451878 0.212527 4.341911 1.762421 -0.766573 1.218822
    15 4.827230 0.000000 0.000001 -0.403168 -0.613023 0.035530
    16 11.139763 0.000000 0.000000 0.000000 0.000000 -1.313569
    17 10.314597 0.000001 0.000000 -4.434764 0.060509 -0.051407
    18 2.975834 -0.386307 -0.044143 -0.012063 -0.041921 0.262037
    19 1.438886 0.000000 0.000000 0.000000 0.000000 0.924863
    20 1.485303 0.000000 0.000000 0.000000 0.000000 0.540993
    21 -3.186314 0.196501 -4.140396 -1.195551 0.957291 1.940476
    22 4.972048 0.000000 0.000001 0.445086 -0.298275 -1.031793
    23 11.585355 0.000000 0.000000 0.000000 0.000000 -1.873858
    24 10.127057 0.000000 0.000001 2.063125 0.632579 0.364486
    25 2.683750 -0.427338 0.044205 0.001045 0.043611 0.000046
    26 1.438885 -0.000001 0.000000 0.000000 0.000000 0.767762
    27 1.485305 0.000001 0.000000 0.000000 0.000000 1.221689
    28 1.038631 0.548043 -0.144017 -0.000001 0.000001 -1.849906
    29 -0.064003 -0.023521 0.026161 0.000000 0.000000 0.000000
    30 3.013925 3.984634 -0.088975 -0.000001 0.000001 -1.849906
    31 -0.084188 -0.025627 -0.001098 0.000000 0.000000 0.000000
    32 4.778187 3.972486 -0.079803 -0.000001 0.000001 -1.849906
    33 -0.058556 -0.021324 0.004244 0.000000 0.000000 0.000000
    34 1.640598 -1.968779 -0.099219 -0.000001 0.000001 -1.849906
    35 0.055573 -0.028908 0.000000 0.000000 0.000000 0.000000
    36 1.646738 0.449549 -1.702246 0.195746 0.777407 0.349090
    37 0.928312 0.000000 -0.000002 0.000000 0.000000 0.000000
    38 0.928314 0.000000 0.000001 0.000000 0.000000 0.000000
    39 1.533672 0.109715 1.664491 -0.233255 -0.412980 0.435684
    40 0.928313 0.000000 0.000000 0.000000 0.000000 0.000000
    41 0.928314 0.000000 0.000001 0.000000 0.000000 0.000000
  time 8
    0 0.235347 0.367732 -12.190303 0.000000 0.270322 -1.570874
    1 -2.226630 0.035157 0.000000 -1.570795 -1.570796 0.000000
    2 -0.000005 0.000007 3.713255 2.889125 6.076724 1.563790
    3 18.045721 0.000000 0.000000 0.000000 0.000000 -1.737883
    4 17.597597 0.000000 0.000000 -0.167945 0.197384 0.403903
    5 0.000005 -0.000003 -3.713255 0.308100 -3.351012 -0.940405
    6 18.045725 0.000000 0.000000 0.000000 0.000000 -1.997494
    7 17.597597 0.000000 0.000000 0.131060 -0.128513 1.047129
    8 1.293670 0.684478 -0.000001 -0.000004 -0.000001 0.279904
    9 5.309685 -0.003834 0.000000 -0.209408 -0.001965 -0.010055
    10 4.826790 -0.004591 0.000000 -0.410058 -0.003020 -0.007748
    11 5.792767 -0.005304 0.000000 0.000000 0.000000 0.096633
    12 6.662317 -0.001453 0.000000 0.000000 -0.000001 0.078527
    13 2.046985 -0.000002 0.000000 0.545904 0.308950 -0.627906
    14 -3.451878 0.212527 4.341911 1.754080 -0.768227 1.230807
    15 4.827230 0.000000 0.000001 -0.415385 -0.632086 0.044544
    16 11.139763 0.000000 0.000000 0.000000 0.000000 -1.311186
    17 10.314597 0.000001 0.000000 -4.434764 0.060509 -0.051407
    18 2.975834 -0.386307 -0.044143 -0.012063 -0.041921 0.262037
    19 1.438886 0.000000 0.000000 0.000000 0.000000 0.924863
    20 1.485303 0.000000 0.000000 0.000000 0.000000 0.540993
    21 -3.186314 0.196501 -4.140396 -1.206769 0.943611 1.931368
    22 4.972048 0.000000 0.000001 0.447484 -0.281221 -1.020925
    23 11.585355 0.000000 0.000000 0.000000 0.000000 -1.873858
    24 10.127057 0.000000 0.000001 2.063125 0.632579 0.364486
    25 2.683750 -0.427338 0.044205 0.001045 0.043611 0.000046
    26 1.438885 -0.000001 0.000000 0.000000 0.000000 0.767762
    27 1.485305 0.000001 0.000000 0.000000 0.000000 1.221689
    28 1.038631 0.548043 -0.144017 -0.000001 0.000001 -1.849906
    29 -0.064003 -0.023521 0.026161 0.000000 0.000000 0.000000
    30 3.013925 3.984634 -0.088975 -0.000001 0.000001 -1.849906
    31 -0.084188 -0.025627 -0.001098 0.000000 0.000000 0.000000
    32 4.778187 3.972486 -0.079803 -0.000001 0.000001 -1.849906
    33 -0.058556 -0.021324 0.004244 0.000000 0.000000 0.000000
    34 1.640598 -1.968779 -0.099219 -0.000001 0.000001 -1.849906
    35 0.055573 -0.028908 0.000000 0.000000 0.000000 0.000000
    36 1.646738 0.449549 -1.702246 0.195746 0.777407 0.349090
    37 0.928312 0.000000 -0.000002 0.000000 0.000000 0.000000
    38 0.928314 0.000000 0.000001 0.000000 0.000000 0.000000
    39 1.533672 0.109715 1.664491 -0.233255 -0.412980 0.435684
    40 0.928313 0.000000 0.000000 0.000000 0.000000 0.000000
    41 0.928314 0.000000 0.000001 0.000000 0.000000 0.000000
  time 9
    0 0.235347 0.367732 -12.198115 0.000000 0.270322 -1.570874
    1 -2.253975 0.050783 0.000000 -1.570795 -1.570796 0.000000
    2 -0.000005 0.000007 3.713255 2.888549 6.077297 1.563304
    3 18.045721 0.000000 0.000000 0.000000 0.000000 -1.736845
    4 17.597597 0.000000 0.000000 -0.168376 0.198187 0.402484
    5 0.000005 -0.000003 -3.713255 0.307526 -3.351682 -0.942150
    6 18.045725 0.000000 0.000000 0.000000 0.000000 -1.998073
    7 17.597597 0.000000 0.000000 0.131076 -0.128316 1.045859
    8 1.293670 0.684478 -0.000001 -0.000004 -0.000001 0.279904
    9 5.309685 -0.003834 0.000000 -0.209408 -0.001486 -0.007809
    10 4.826790 -0.004591 0.000000 -0.410074 -0.001486 -0.004242
    11 5.792767 -0.005304 0.000000 0.000000 0.000000 0.104315
    12 6.662317 -0.001453 0.000000 0.000000 -0.000001 0.078527
    13 2.046985 -0.000002 0.000000 0.545473 0.309761 -0.641660
    14 -3.451878 0.212527 4.341911 1.746027 -0.769727 1.242312
    15 4.827230 0.000000 0.000001 -0.427544 -0.650383 0.053558
    16 11.139763 0.000000 0.000000 0.000000 0.000000 -1.308873
    17 10.314597 0.000001 0.000000 -4.434764 0.060509 -0.051407
    18 2.975834 -0.386307 -0.044143 -0.012063 -0.041921 0.262037
    19 1.438886 0.000000 0.000000 0.000000 0.000000 0.924863
    20 1.485303 0.000000 0.000000 0.000000 0.000000 0.540993
    21 -3.186314 0.196501 -4.140396 -1.217123 0.930383 1.923027
    22 4.972048 0.000000 0.000001 0.449727 -0.264811 -1.010517
    23 11.585355 0.000000 0.000000 0.000000 0.000000 -1.873858
    24 10.127057 0.000000 0.000001 2.063125 0.632579 0.364486
    25 2.683750 -0.427338 0.044205 0.001045 0.043611 0.000046
    26 1.438885 -0.000001 0.000000 0.000000 0.000000 0.767762
    27 1.485305 0.000001 0.000000 0.000000 0.000000 1.221689
    28 1.038631 0.548043 -0.144017 -0.000001 0.000001 -1.849906
    29 -0.064003 -0.023521 0.026161 0.000000 0.000000 0.000000
    30 3.013925 3.984634 -0.088975 -0.000001 0.000001 -1.849906
    31 -0.084188 -0.025627 -0.001098 0.000000 0.000000 0.000000
    32 4.778187 3.972486 -0.079803 -0.000001 0.000001 -1.849906
    33 -0.058556 -0.021324 0.004244 0.000000 0.000000 0.000000
    34 1.640598 -1.968779 -0.099219 -0.000001 0.000001 -1.849906
    35 0.055573 -0.028908 0.000000 0.000000 0.000000 0.000000
    36 1.646738 0.449549 -1.702246 0.195746 0.777407 0.349090
    37 0.928312 0.000000 -0.000002 0.000000 0.000000 0.000000
    38 0.928314 0.000000 0.000001 0.000000 0.000000 0.000000
    39 1.533672 0.109715 1.664491 -0.233255 -0.412980 0.435684
    40 0.928313 0.000000 0.000000 0.000000 0.000000 0.000000
    41 0.928314 0.000000 0.000001 0.000000 0.000000 0.000000
  time 10
    0 0.235347 0.367732 -12.205928 0.000000 0.270322 -1.570874
    1 -2.281320 0.066408 0.000000 -1.570795 -1.570796 0.000000
    2 -0.000005 0.000007 3.713255 2.887974 6.077775 1.562867
    3 18.045721 0.000000 0.000000 0.000000 0.000000 -1.735954
    4 17.597597 0.000000 0.000000 -0.168807 0.198966 0.401158
    5 0.000005 -0.000003 -3.713255 0.307047 -3.352256 -0.943750
    6 18.045725 0.000000 0.000000 0.000000 0.000000 -1.998653
    7 17.597597 0.000000 0.000000 0.131076 -0.128119 1.044726
    8 1.293670 0.684478 -0.000001 -0.000004 -0.000001 0.279904
    9 5.309685 -0.003834 0.000000 -0.209408 -0.001043 -0.005708
    10 4.826790 -0.004591 0.000000 -0.410074 -0.000060 -0.000957
    11 5.792767 -0.005304 0.000000 0.000000 0.000000 0.111437
    12 6.662317 -0.001453 0.000000 0.000000 -0.000001 0.078527
    13 2.046985 -0.000002 0.000000 0.545085 0.310526 -0.654470
    14 -3.451878 0.212527 4.341911 1.738549 -0.771074 1.253146
    15 4.827230 0.000000 0.000001 -0.439173 -0.667232 0.062221
    16 11.139763 0.000000 0.000000 0.000000 0.000000 -1.306771
    17 10.314597 0.000001 0.000000 -4.434764 0.060509 -0.051407
    18 2.975834 -0.386307 -0.044143 -0.012063 -0.041921 0.262037
    19 1.438886 0.000000 0.000000 0.000000 0.000000 0.924863
    20 1.485303 0.000000 0.000000 0.000000 0.000000 0.540993
    21 -3.186314 0.196501 -4.140396 -1.226423 0.918060 1.915549
    22 4.972048 0.000000 0.000001 0.451816 -0.249527 -1.000702
    23 11.585355 0.000000 0.000000 0.000000 0.000000 -1.873858
    24 10.127057 0.000000 0.000001 2.063125 0.632579 0.364486
    25 2.683750 -0.427338 0.044205 0.001045 0.043611 0.000046
    26 1.438885 -0.000001 0.000000 0.000000 0.000000 0.767762
    27 1.485305 0.000001 0.000000 0.000000 0.000000 1.221689
    28 1.038631 0.548043 -0.144017 -0.000001 0.000001 -1.849906
    29 -0.064003 -0.023521 0.026161 0.000000 0.000000 0.000000
    30 3.013925 3.984634 -0.088975 -0.000001 0.000001 -1.849906
    31 -0.084188 -0.025627 -0.001098 0.000000 0.000000 0.000000
    32 4.778187 3.972486 -0.079803 -0.000001 0.000001 -1.849906
    33 -0.058556 -0.021324 0.004244 0.000000 0.000000 0.000000
    34 1.640598 -1.968779 -0.099219 -0.000001 0.000001 -1.849906
    35 0.055573 -0.028908 0.000000 0.000000 0.000000 0.000000
    36 1.646738 0.449549 -1.702246 0.195746 0.777407 0.349090
    37 0.928312 0.000000 -0.000002 0.000000 0.000000 0.000000
    38 0.928314 0.000000 0.000001 0.000000 0.000000 0.000000
    39 1.533672 0.109715 1.664491 -0.233255 -0.412980 0.435684
    40 0.928313 0.000000 0.000000 0.000000 0.000000 0.000000
    41 0.928314 0.000000 0.000001 0.000000 0.000000 0.000000
  time 11
    0 0.235347 0.367732 -12.213741 0.000000 0.270322 -1.570874
    1 -2.304758 0.078127 0.000000 -1.570795 -1.570796 0.000000
    2 -0.000005 0.000007 3.713255 2.887495 6.078158 1.562478
    3 18.045721 0.000000 0.000000 0.000000 0.000000 -1.735138
    4 17.597597 0.000000 0.000000 -0.169162 0.199648 0.399968
    5 0.000005 -0.000003 -3.713255 0.306569 -3.352830 -0.945204
    6 18.045725 0.000000 0.000000 0.000000 0.000000 -1.999087
    7 17.597597 0.000000 0.000000 0.131076 -0.127941 1.043695
    8 1.293670 0.684478 -0.000001 -0.000004 -0.000001 0.279904
    9 5.309685 -0.003834 0.000000 -0.209420 -0.000635 -0.003843
    10 4.826790 -0.004591 0.000000 -0.410074 0.001186 0.001953
    11 5.792767 -0.005304 0.000000 0.000000 0.000000 0.117791
    12 6.662317 -0.001453 0.000000 0.000000 -0.000001 0.078527
    13 2.046985 -0.000002 0.000000 0.544740 0.311224 -0.665842
    14 -3.451878 0.212527 4.341911 1.731838 -0.772228 1.262733
    15 4.827230 0.000000 0.000001 -0.449863 -0.682210 0.070185
    16 11.139763 0.000000 0.000000 0.000000 0.000000 -1.304809
    17 10.314597 0.000001 0.000000 -4.434764 0.060509 -0.051407
    18 2.975834 -0.386307 -0.044143 -0.012063 -0.041921 0.262037
    19 1.438886 0.000000 0.000000 0.000000 0.000000 0.924863
    20 1.485303 0.000000 0.000000 0.000000 0.000000 0.540993
    21 -3.186314 0.196501 -4.140396 -1.234476 0.907037 1.909126
    22 4.972048 0.000000 0.000001 0.453673 -0.236013 -0.991941
    23 11.585355 0.000000 0.000000 0.000000 0.000000 -1.873858
    24 10.127057 0.000000 0.000001 2.063125 0.632579 0.364486
    25 2.683750 -0.427338 0.044205 0.001045 0.043611 0.000046
    26 1.438885 -0.000001 0.000000 0.000000 0.000000 0.767762
    27 1.485305 0.000001 0.000000 0.000000 0.000000 1.221689
    28 1.038631 0.548043 -0.144017 -0.000001 0.000001 -1.849906
    29 -0.064003 -0.023521 0.026161 0.000000 0.000000 0.000000
    30 3.013925 3.984634 -0.088975 -0.000001 0.000001 -1.849906
    31 -0.084188 -0.025627 -0.001098 0.000000 0.000000 0.000000
    32 4.778187 3.972486 -0.079803 -0.000001 0.000001 -1.849906
    33 -0.058556 -0.021324 0.004244 0.000000 0.000000 0.000000
    34 1.640598 -1.968779 -0.099219 -0.000001 0.000001 -1.849906
    35 0.055573 -0.028908 0.000000 0.000000 0.000000 0.000000
    36 1.646738 0.449549 -1.702246 0.195746 0.777407 0.349090
    37 0.928312 0.000000 -0.000002 0.000000 0.000000 0.000000
    38 0.928314 0.000000 0.000001 0.000000 0.000000 0.000000
    39 1.533672 0.109715 1.664491 -0.233255 -0.412980 0.435684
    40 0.928313 0.000000 0.000000 0.000000 0.000000 0.000000
    41 0.928314 0.000000 0.000001 0.000000 0.000000 0.000000
  time 12
    0 0.235347 0.367732 -12.217647 0.000000 0.270322 -1.570874
    1 -2.324290 0.085940 0.000000 -1.570795 -1.570796 0.000000
    2 -0.000005 0.000007 3.713255 2.887112 6.078540 1.562138
    3 18.045721 0.000000 0.000000 0.000000 0.000000 -1.734396
    4 17.597597 0.000000 0.000000 -0.169466 0.200208 0.398961
    5 0.000005 -0.000003 -3.713255 0.306186 -3.353309 -0.946465
    6 18.045725 0.000000 0.000000 0.000000 0.000000 -1.999522
    7 17.597597 0.000000 0.000000 0.131076 -0.127803 1.042803
    8 1.293670 0.684478 -0.000001 -0.000004 -0.000001 0.279904
    9 5.309685 -0.003834 0.000000 -0.209420 -0.000312 -0.002286
    10 4.826790 -0.004591 0.000000 -0.410058 0.002253 0.004401
    11 5.792767 -0.005304 0.000000 0.000000 0.000000 0.123147
    12 6.662317 -0.001453 0.000000 0.000000 -0.000001 0.078527
    13 2.046985 -0.000002 0.000000 0.544439 0.311787 -0.675461
    14 -3.451878 0.212527 4.341911 1.726181 -0.773151 1.270883
    15 4.827230 0.000000 0.000001 -0.459085 -0.694805 0.077098
    16 11.139763 0.000000 0.000000 0.000000 0.000000 -1.303197
    17 10.314597 0.000001 0.000000 -4.434764 0.060509 -0.051407
    18 2.975834 -0.386307 -0.044143 -0.012063 -0.041921 0.262037
    19 1.438886 0.000000 0.000000 0.000000 0.000000 0.924863
    20 1.485303 0.000000 0.000000 0.000000 0.000000 0.540993
    21 -3.186314 0.196501 -4.140396 -1.241091 0.897738 1.903949
    22 4.972048 0.000000 0.000001 0.455142 -0.224591 -0.984563
    23 11.585355 0.000000 0.000000 0.000000 0.000000 -1.873858
    24 10.127057 0.000000 0.000001 2.063125 0.632579 0.364486
    25 2.683750 -0.427338 0.044205 0.001045 0.043611 0.000046
    26 1.438885 -0.000001 0.000000 0.000000 0.000000 0.767762
    27 1.485305 0.000001 0.000000 0.000000 0.000000 1.221689
    28 1.038631 0.548043 -0.144017 -0.000001 0.000001 -1.849906
    29 -0.064003 -0.023521 0.026161 0.000000 0.000000 0.000000
    30 3.013925 3.984634 -0.088975 -0.000001 0.000001 -1.849906
    31 -0.084188 -0.025627 -0.001098 0.000000 0.000000 0.000000
    32 4.778187 3.972486 -0.079803 -0.000001 0.000001 -1.849906
    33 -0.058556 -0.021324 0.004244 0.000000 0.000000 0.000000
    34 1.640598 -1.968779 -0.099219 -0.000001 0.000001 -1.849906
    35 0.055573 -0.028908 0.000000 0.000000 0.000000 0.000000
    36 1.646738 0.449549 -1.702246 0.195746 0.777407 0.349090
    37 0.928312 0.000000 -0.000002 0.000000 0.000000 0.000000
    38 0.928314 0.000000 0.000001 0.000000 0.000000 0.000000
    39 1.533672 0.109715 1.664491 -0.233255 -0.412980 0.435684
    40 0.928313 0.000000 0.000000 0.000000 0.000000 0.000000
    41 0.928314 0.000000 0.000001 0.000000 0.000000 0.000000
  time 13
    0 0.235347 0.367732 -12.221554 0.000000 0.270322 -1.570874
    1 -2.339915 0.093753 0.000000 -1.570795 -1.570796 0.000000
    2 -0.000005 0.000007 3.713255 2.886728 6.078827 1.561847
    3 18.045721 0.000000 0.000000 0.000000 0.000000 -1.733876
    4 17.597597 0.000000 0.000000 -0.169719 0.200646 0.398229
    5 0.000005 -0.000003 -3.713255 0.305899 -3.353692 -0.947386
    6 18.045725 0.000000 0.000000 0.000000 0.000000 -1.999884
    7 17.597597 0.000000 0.000000 0.131076 -0.127685 1.042150
    8 1.293670 0.684478 -0.000001 -0.000004 -0.000001 0.279904
    9 5.309685 -0.003834 0.000000 -0.209420 -0.000048 -0.001073
    10 4.826790 -0.004591 0.000000 -0.410058 0.003080 0.006297
    11 5.792767 -0.005304 0.000000 0.000000 0.000000 0.127258
    12 6.662317 -0.001453 0.000000 0.000000 -0.000001 0.078527
    13 2.046985 -0.000002 0.000000 0.544180 0.312215 -0.682787
    14 -3.451878 0.212527 4.341911 1.721771 -0.773843 1.277115
    15 4.827230 0.000000 0.000001 -0.466310 -0.704421 0.082524
    16 11.139763 0.000000 0.000000 0.000000 0.000000 -1.302005
    17 10.314597 0.000001 0.000000 -4.434764 0.060509 -0.051407
    18 2.975834 -0.386307 -0.044143 -0.012063 -0.041921 0.262037
    19 1.438886 0.000000 0.000000 0.000000 0.000000 0.924863
    20 1.485303 0.000000 0.000000 0.000000 0.000000 0.540993
    21 -3.186314 0.196501 -4.140396 -1.246077 0.890559 1.900114
    22 4.972048 0.000000 0.000001 0.456303 -0.215823 -0.978832
    23 11.585355 0.000000 0.000000 0.000000 0.000000 -1.873858
    24 10.127057 0.000000 0.000001 2.063125 0.632579 0.364486
    25 2.683750 -0.427338 0.044205 0.001045 0.043611 0.000046
    26 1.438885 -0.000001 0.000000 0.000000 0.000000 0.767762
    27 1.485305 0.000001 0.000000 0.000000 0.000000 1.221689
    28 1.038631 0.548043 -0.144017 -0.000001 0.000001 -1.849906
    29 -0.064003 -0.023521 0.026161 0.000000 0.000000 0.000000
    30 3.013925 3.984634 -0.088975 -0.000001 0.000001 -1.849906
    31 -0.084188 -0.025627 -0.001098 0.000000 0.000000 0.000000
    32 4.778187 3.972486 -0.079803 -0.000001 0.000001 -1.849906
    33 -0.058556 -0.021324 0.004244 0.000000 0.000000 0.000000
    34 1.640598 -1.968779 -0.099219 -0.000001 0.000001 -1.849906
    35 0.055573 -0.028908 0.000000 0.000000 0.000000 0.000000
    36 1.646738 0.449549 -1.702246 0.195746 0.777407 0.349090
    37 0.928312 0.000000 -0.000002 0.000000 0.000000 0.000000
    38 0.928314 0.000000 0.000001 0.000000 0.000000 0.000000
    39 1.533672 0.109715 1.664491 -0.233255 -0.412980 0.435684
    40 0.928313 0.000000 0.000000 0.000000 0.000000 0.000000
    41 0.928314 0.000000 0.000001 0.000000 0.000000 0.000000
  time 14
    0 0.235347 0.367732 -12.225460 0.000000 0.270322 -1.570874
    1 -2.351634 0.101566 0.000000 -1.570795 -1.570796 0.000000
    2 -0.000005 0.000007 3.713255 2.886537 6.079018 1.561701
    3 18.045721 0.000000 0.000000 0.000000 0.000000 -1.733505
    4 17.597597 0.000000 0.000000 -0.169872 0.200938 0.397726
    5 0.000005 -0.000003 -3.713255 0.305708 -3.353883 -0.948017
    6 18.045725 0.000000 0.000000 0.000000 0.000000 -2.000029
    7 17.597597 0.000000 0.000000 0.131076 -0.127626 1.041738
    8 1.293670 0.684478 -0.000001 -0.000004 -0.000001 0.279904
    9 5.309685 -0.003834 0.000000 -0.209420 0.000108 -0.000294
    10 4.826790 -0.004591 0.000000 -0.410058 0.003607 0.007488
    11 5.792767 -0.005304 0.000000 0.000000 0.000000 0.129895
    12 6.662317 -0.001453 0.000000 0.000000 -0.000001 0.078527
    13 2.046985 -0.000002 0.000000 0.544051 0.312508 -0.687551
    14 -3.451878 0.212527 4.341911 1.718991 -0.774266 1.281142
    15 4.827230 0.000000 0.000001 -0.471009 -0.710549 0.086112
    16 11.139763 0.000000 0.000000 0.000000 0.000000 -1.301235
    17 10.314597 0.000001 0.000000 -4.434764 0.060509 -0.051407
    18 2.975834 -0.386307 -0.044143 -0.012063 -0.041921 0.262037
    19 1.438886 0.000000 0.000000 0.000000 0.000000 0.924863
    20 1.485303 0.000000 0.000000 0.000000 0.000000 0.540993
    21 -3.186314 0.196501 -4.140396 -1.249240 0.885980 1.897621
    22 4.972048 0.000000 0.000001 0.456999 -0.210192 -0.975143
    23 11.585355 0.000000 0.000000 0.000000 0.000000 -1.873858
    24 10.127057 0.000000 0.000001 2.063125 0.632579 0.364486
    25 2.683750 -0.427338 0.044205 0.001045 0.043611 0.000046
    26 1.438885 -0.000001 0.000000 0.000000 0.000000 0.767762
    27 1.485305 0.000001 0.000000 0.000000 0.000000 1.221689
    28 1.038631 0.548043 -0.144017 -0.000001 0.000001 -1.849906
    29 -0.064003 -0.023521 0.026161 0.000000 0.000000 0.000000
    30 3.013925 3.984634 -0.088975 -0.000001 0.000001 -1.849906
    31 -0.084188 -0.025627 -0.001098 0.000000 0.000000 0.000000
    32 4.778187 3.972486 -0.079803 -0.000001 0.000001 -1.849906
    33 -0.058556 -0.021324 0.004244 0.000000 0.000000 0.000000
    34 1.640598 -1.968779 -0.099219 -0.000001 0.000001 -1.849906
    35 0.055573 -0.028908 0.000000 0.000000 0.000000 0.000000
    36 1.646738 0.449549 -1.702246 0.195746 0.777407 0.349090
    37 0.928312 0.000000 -0.000002 0.000000 0.000000 0.000000
    38 0.928314 0.000000 0.000001 0.000000 0.000000 0.000000
    39 1.533672 0.109715 1.664491 -0.233255 -0.412980 0.435684
    40 0.928313 0.000000 0.000000 0.000000 0.000000 0.000000
    41 0.928314 0.000000 0.000001 0.000000 0.000000 0.000000
  time 15
    0 0.235347 0.367732 -12.225460 0.000000 0.270322 -1.570874
    1 -2.351634 0.101566 0.000000 -1.570795 -1.570796 0.000000
    2 -0.000005 0.000007 3.713255 2.886441 6.079018 1.561652
    3 18.045721 0.000000 0.000000 0.000000 0.000000 -1.733431
    4 17.597597 0.000000 0.000000 -0.169922 0.201035 0.397543
    5 0.000005 -0.000003 -3.713255 0.305612 -3.353979 -0.948210
    6 18.045725 0.000000 0.000000 0.000000 0.000000 -2.000102
    7 17.597597 0.000000 0.000000 0.131076 -0.127586 1.041566
    8 1.293670 0.684478 -0.000001 -0.000004 -0.000001 0.279904
    9 5.309685 -0.003834 0.000000 -0.209420 0.000156 -0.000022
    10 4.826790 -0.004591 0.000000 -0.410058 0.003787 0.007929
    11 5.792767 -0.005304 0.000000 0.000000 0.000000 0.130830
    12 6.662317 -0.001453 0.000000 0.000000 -0.000001 0.078527
    13 2.046985 -0.000002 0.000000 0.544008 0.312598 -0.689215
    14 -3.451878 0.212527 4.341911 1.718032 -0.774420 1.282484
    15 4.827230 0.000000 0.000001 -0.472653 -0.712761 0.087425
    16 11.139763 0.000000 0.000000 0.000000 0.000000 -1.300954
    17 10.314597 0.000001 0.000000 -4.434764 0.060509 -0.051407
    18 2.975834 -0.386307 -0.044143 -0.012063 -0.041921 0.262037
    19 1.438886 0.000000 0.000000 0.000000 0.000000 0.924863
    20 1.485303 0.000000 0.000000 0.000000 0.000000 0.540993
    21 -3.186314 0.196501 -4.140396 -1.250391 0.884341 1.896758
    22 4.972048 0.000000 0.000001 0.457308 -0.208261 -0.973892
    23 11.585355 0.000000 0.000000 0.000000 0.000000 -1.873858
    24 10.127057 0.000000 0.000001 2.063125 0.632579 0.364486
    25 2.683750 -0.427338 0.044205 0.001045 0.043611 0.000046
    26 1.438885 -0.000001 0.000000 0.000000 0.000000 0.767762
    27 1.485305 0.000001 0.000000 0.000000 0.000000 1.221689
    28 1.038631 0.548043 -0.144017 -0.000001 0.000001 -1.849906
    29 -0.064003 -0.023521 0.026161 0.000000 0.000000 0.000000
    30 3.013925 3.984634 -0.088975 -0.000001 0.000001 -1.849906
    31 -0.084188 -0.025627 -0.001098 0.000000 0.000000 0.000000
    32 4.778187 3.972486 -0.079803 -0.000001 0.000001 -1.849906
    33 -0.058556 -0.021324 0.004244 0.000000 0.000000 0.000000
    34 1.640598 -1.968779 -0.099219 -0.000001 0.000001 -1.849906
    35 0.055573 -0.028908 0.000000 0.000000 0.000000 0.000000
    36 1.646738 0.449549 -1.702246 0.195746 0.777407 0.349090
    37 0.928312 0.000000 -0.000002 0.000000 0.000000 0.000000
    38 0.928314 0.000000 0.000001 0.000000 0.000000 0.000000
    39 1.533672 0.109715 1.664491 -0.233255 -0.412980 0.435684
    40 0.928313 0.000000 0.000000 0.000000 0.000000 0.000000
    41 0.928314 0.000000 0.000001 0.000000 0.000000 0.000000
  time 16
    0 0.235347 0.367732 -12.225460 0.000000 0.270322 -1.570874
    1 -2.351634 0.101566 0.000000 -1.570795 -1.570796 0.000000
    2 -0.000005 0.000007 3.713255 2.886537 6.079018 1.561701
    3 18.045721 0.000000 0.000000 0.000000 0.000000 -1.733505
    4 17.597597 0.000000 0.000000 -0.169872 0.200938 0.397726
    5 0.000005 -0.000003 -3.713255 0.305708 -3.353883 -0.948017
    6 18.045725 0.000000 0.000000 0.000000 0.000000 -2.000029
    7 17.597597 0.000000 0.000000 0.131076 -0.127626 1.041738
    8 1.293670 0.684478 -0.000001 -0.000004 -0.000001 0.279904
    9 5.309685 -0.003834 0.000000 -0.209420 0.000108 -0.000294
    10 4.826790 -0.004591 0.000000 -0.410058 0.003607 0.007488
    11 5.792767 -0.005304 0.000000 0.000000 0.000000 0.129895
    12 6.662317 -0.001453 0.000000 0.000000 -0.000001 0.078527
    13 2.046985 -0.000002 0.000000 0.544051 0.312508 -0.687551
    14 -3.451878 0.212527 4.341911 1.718991 -0.774266 1.281142
    15 4.827230 0.000000 0.000001 -0.471009 -0.710549 0.086112
    16 11.139763 0.000000 0.000000 0.000000 0.000000 -1.301235
    17 10.314597 0.000001 0.000000 -4.434764 0.060509 -0.051407
    18 2.975834 -0.386307 -0.044143 -0.012063 -0.041921 0.262037
    19 1.438886 0.000000 0.000000 0.000000 0.000000 0.924863
    20 1.485303 0.000000 0.000000 0.000000 0.000000 0.540993
    21 -3.186314 0.196501 -4.140396 -1.249240 0.885980 1.897621
    22 4.972048 0.000000 0.000001 0.456999 -0.210192 -0.975143
    23 11.585355 0.000000 0.000000 0.000000 0.000000 -1.873858
    24 10.127057 0.000000 0.000001 2.063125 0.632579 0.364486
    25 2.683750 -0.427338 0.044205 0.001045 0.043611 0.000046
    26 1.438885 -0.000001 0.000000 0.000000 0.000000 0.767762
    27 1.485305 0.000001 0.000000 0.000000 0.000000 1.221689
    28 1.038631 0.548043 -0.144017 -0.000001 0.000001 -1.849906
    29 -0.064003 -0.023521 0.026161 0.000000 0.000000 0.000000
    30 3.013925 3.984634 -0.088975 -0.000001 0.000001 -1.849906
    31 -0.084188 -0.025627 -0.001098 0.000000 0.000000 0.000000
    32 4.778187 3.972486 -0.079803 -0.000001 0.000001 -1.849906
    33 -0.058556 -0.021324 0.004244 0.000000 0.000000 0.000000
    34 1.640598 -1.968779 -0.099219 -0.000001 0.000001 -1.849906
    35 0.055573 -0.028908 0.000000 0.000000 0.000000 0.000000
    36 1.646738 0.449549 -1.702246 0.195746 0.777407 0.349090
    37 0.928312 0.000000 -0.000002 0.000000 0.000000 0.000000
    38 0.928314 0.000000 0.000001 0.000000 0.000000 0.000000
    39 1.533672 0.109715 1.664491 -0.233255 -0.412980 0.435684
    40 0.928313 0.000000 0.000000 0.000000 0.000000 0.000000
    41 0.928314 0.000000 0.000001 0.000000 0.000000 0.000000
  time 17
    0 0.235347 0.367732 -12.221554 0.000000 0.270322 -1.570874
    1 -2.339915 0.093753 0.000000 -1.570795 -1.570796 0.000000
    2 -0.000005 0.000007 3.713255 2.886728 6.078827 1.561847
    3 18.045721 0.000000 0.000000 0.000000 0.000000 -1.733876
    4 17.597597 0.000000 0.000000 -0.169719 0.200646 0.398229
    5 0.000005 -0.000003 -3.713255 0.305899 -3.353692 -0.947386
    6 18.045725 0.000000 0.000000 0.000000 0.000000 -1.999884
    7 17.597597 0.000000 0.000000 0.131076 -0.127685 1.042150
    8 1.293670 0.684478 -0.000001 -0.000004 -0.000001 0.279904
    9 5.309685 -0.003834 0.000000 -0.209420 -0.000048 -0.001073
    10 4.826790 -0.004591 0.000000 -0.410058 0.003080 0.006297
    11 5.792767 -0.005304 0.000000 0.000000 0.000000 0.127258
    12 6.662317 -0.001453 0.000000 0.000000 -0.000001 0.078527
    13 2.046985 -0.000002 0.000000 0.544180 0.312215 -0.682787
    14 -3.451878 0.212527 4.341911 1.721771 -0.773843 1.277115
    15 4.827230 0.000000 0.000001 -0.466310 -0.704421 0.082524
    16 11.139763 0.000000 0.000000 0.000000 0.000000 -1.302005
    17 10.314597 0.000001 0.000000 -4.434764 0.060509 -0.051407
    18 2.975834 -0.386307 -0.044143 -0.012063 -0.041921 0.262037
    19 1.438886 0.000000 0.000000 0.000000 0.000000 0.924863
    20 1.485303 0.000000 0.000000 0.000000 0.000000 0.540993
    21 -3.186314 0.196501 -4.140396 -1.246077 0.890559 1.900114
    22 4.972048 0.000000 0.000001 0.456303 -0.215823 -0.978832
    23 11.585355 0.000000 0.000000 0.000000 0.000000 -1.873858
    24 10.127057 0.000000 0.000001 2.063125 0.632579 0.364486
    25 2.683750 -0.427338 0.044205 0.001045 0.043611 0.000046
    26 1.438885 -0.000001 0.000000 0.000000 0.000000 0.767762
    27 1.485305 0.000001 0.000000 0.000000 0.000000 1.221689
    28 1.038631 0.548043 -0.144017 -0.000001 0.000001 -1.849906
    29 -0.064003 -0.023521 0.026161 0.000000 0.000000 0.000000
    30 3.013925 3.984634 -0.088975 -0.000001 0.000001 -1.849906
    31 -0.084188 -0.025627 -0.001098 0.000000 0.000000 0.000000
    32 4.778187 3.972486 -0.079803 -0.000001 0.000001 -1.849906
    33 -0.058556 -0.021324 0.004244 0.000000 0.000000 0.000000
    34 1.640598 -1.968779 -0.099219 -0.000001 0.000001 -1.849906
    35 0.055573 -0.028908 0.000000 0.000000 0.000000 0.000000
    36 1.646738 0.449549 -1.702246 0.195746 0.777407 0.349090
    37 0.928312 0.000000 -0.000002 0.000000 0.000000 0.000000
    38 0.928314 0.000000 0.000001 0.000000 0.000000 0.000000
    39 1.533672 0.109715 1.664491 -0.233255 -0.412980 0.435684
    40 0.928313 0.000000 0.000000 0.000000 0.000000 0.000000
    41 0.928314 0.000000 0.000001 0.000000 0.000000 0.000000
  time 18
    0 0.235347 0.367732 -12.217647 0.000000 0.270322 -1.570874
    1 -2.324290 0.085940 0.000000 -1.570795 -1.570796 0.000000
    2 -0.000005 0.000007 3.713255 2.887112 6.078540 1.562138
    3 18.045721 0.000000 0.000000 0.000000 0.000000 -1.734396
    4 17.597597 0.000000 0.000000 -0.169466 0.200208 0.398961
    5 0.000005 -0.000003 -3.713255 0.306186 -3.353309 -0.946465
    6 18.045725 0.000000 0.000000 0.000000 0.000000 -1.999522
    7 17.597597 0.000000 0.000000 0.131076 -0.127803 1.042803
    8 1.293670 0.684478 -0.000001 -0.000004 -0.000001 0.279904
    9 5.309685 -0.003834 0.000000 -0.209420 -0.000312 -0.002286
    10 4.826790 -0.004591 0.000000 -0.410058 0.002253 0.004401
    11 5.792767 -0.005304 0.000000 0.000000 0.000000 0.123147
    12 6.662317 -0.001453 0.000000 0.000000 -0.000001 0.078527
    13 2.046985 -0.000002 0.000000 0.544439 0.311787 -0.675461
    14 -3.451878 0.212527 4.341911 1.726181 -0.773151 1.270883
    15 4.827230 0.000000 0.000001 -0.459085 -0.694805 0.077098
    16 11.139763 0.000000 0.000000 0.000000 0.000000 -1.303197
    17 10.314597 0.000001 0.000000 -4.434764 0.060509 -0.051407
    18 2.975834 -0.386307 -0.044143 -0.012063 -0.041921 0.262037
    19 1.438886 0.000000 0.000000 0.000000 0.000000 0.924863
    20 1.485303 0.000000 0.000000 0.000000 0.000000 0.540993
    21 -3.186314 0.196501 -4.140396 -1.241091 0.897738 1.903949
    22 4.972048 0.000000 0.000001 0.455142 -0.224591 -0.984563
    23 11.585355 0.000000 0.000000 0.000000 0.000000 -1.873858
    24 10.127057 0.000000 0.000001 2.063125 0.632579 0.364486
    25 2.683750 -0.427338 0.044205 0.001045 0.043611 0.000046
    26 1.438885 -0.000001 0.000000 0.000000 0.000000 0.767762
    27 1.485305 0.000001 0.000000 0.000000 0.000000 1.221689
    28 1.038631 0.548043 -0.144017 -0.000001 0.000001 -1.849906
    29 -0.064003 -0.023521 0.026161 0.000000 0.000000 0.000000
    30 3.013925 3.984634 -0.088975 -0.000001 0.000001 -1.849906
    31 -0.084188 -0.025627 -0.001098 0.000000 0.000000 0.000000
    32 4.778187 3.972486 -0.079803 -0.000001 0.000001 -1.849906
    33 -0.058556 -0.021324 0.004244 0.000000 0.000000 0.000000
    34 1.640598 -1.968779 -0.099219 -0.000001 0.000001 -1.849906
    35 0.055573 -0.028908 0.000000 0.000000 0.000000 0.000000
    36 1.646738 0.449549 -1.702246 0.195746 0.777407 0.349090
    37 0.928312 0.000000 -0.000002 0.000000 0.000000 0.000000
    38 0.928314 0.000000 0.000001 0.000000 0.000000 0.000000
    39 1.533672 0.109715 1.664491 -0.233255 -0.412980 0.435684
    40 0.928313 0.000000 0.000000 0.000000 0.000000 0.000000
    41 0.928314 0.000000 0.000001 0.000000 0.000000 0.000000
  time 19
    0 0.235347 0.367732 -12.213741 0.000000 0.270322 -1.570874
    1 -2.304758 0.078127 0.000000 -1.570795 -1.570796 0.000000
    2 -0.000005 0.000007 3.713255 2.887495 6.078158 1.562478
    3 18.045721 0.000000 0.000000 0.000000 0.000000 -1.735138
    4 17.597597 0.000000 0.000000 -0.169162 0.199648 0.399968
    5 0.000005 -0.000003 -3.713255 0.306569 -3.352830 -0.945204
    6 18.045725 0.000000 0.000000 0.000000 0.000000 -1.999087
    7 17.597597 0.000000 0.000000 0.131076 -0.127941 1.043695
    8 1.293670 0.684478 -0.000001 -0.000004 -0.000001 0.279904
    9 5.309685 -0.003834 0.000000 -0.209420 -0.000635 -0.003843
    10 4.826790 -0.004591 0.000000 -0.410074 0.001186 0.001953
    11 5.792767 -0.005304 0.000000 0.000000 0.000000 0.117791
    12 6.662317 -0.001453 0.000000 0.000000 -0.000001 0.078527
    13 2.046985 -0.000002 0.000000 0.544740 0.311224 -0.665842
    14 -3.451878 0.212527 4.341911 1.731838 -0.772228 1.262733
    15 4.827230 0.000000 0.000001 -0.449863 -0.682210 0.070185
    16 11.139763 0.000000 0.000000 0.000000 0.000000 -1.304809
    17 10.314597 0.000001 0.000000 -4.434764 0.060509 -0.051407
    18 2.975834 -0.386307 -0.044143 -0.012063 -0.041921 0.262037
    19 1.438886 0.000000 0.000000 0.000000 0.000000 0.924863
    20 1.485303 0.000000 0.000000 0.000000 0.000000 0.540993
    21 -3.186314 0.196501 -4.140396 -1.234476 0.907037 1.909126
    22 4.972048 0.000000 0.000001 0.453673 -0.236013 -0.991941
    23 11.585355 0.000000 0.000000 0.000000 0.000000 -1.873858
    24 10.127057 0.000000 0.000001 2.063125 0.632579 0.364486
    25 2.683750 -0.427338 0.044205 0.001045 0.043611 0.000046
    26 1.438885 -0.000001 0.000000 0.000000 0.000000 0.767762
    27 1.485305 0.000001 0.000000 0.000000 0.000000 1.221689
    28 1.038631 0.548043 -0.144017 -0.000001 0.000001 -1.849906
    29 -0.064003 -0.023521 0.026161 0.000000 0.000000 0.000000
    30 3.013925 3.984634 -0.088975 -0.000001 0.000001 -1.849906
    31 -0.084188 -0.025627 -0.001098 0.000000 0.000000 0.000000
    32 4.778187 3.972486 -0.079803 -0.000001 0.000001 -1.849906
    33 -0.058556 -0.021324 0.004244 0.000000 0.000000 0.000000
    34 1.640598 -1.968779 -0.099219 -0.000001 0.000001 -1.849906
    35 0.055573 -0.028908 0.000000 0.000000 0.000000 0.000000
    36 1.646738 0.449549 -1.702246 0.195746 0.777407 0.349090
    37 0.928312 0.000000 -0.000002 0.000000 0.000000 0.000000
    38 0.928314 0.000000 0.000001 0.000000 0.000000 0.000000
    39 1.533672 0.109715 1.664491 -0.233255 -0.412980 0.435684
    40 0.928313 0.000000 0.000000 0.000000 0.000000 0.000000
    41 0.928314 0.000000 0.000001 0.000000 0.000000 0.000000
  time 20
    0 0.235347 0.367732 -12.205928 0.000000 0.270322 -1.570874
    1 -2.281320 0.066408 0.000000 -1.570795 -1.570796 0.000000
    2 -0.000005 0.000007 3.713255 2.887974 6.077775 1.562867
    3 18.045721 0.000000 0.000000 0.000000 0.000000 -1.735954
    4 17.597597 0.000000 0.000000 -0.168807 0.198966 0.401158
    5 0.000005 -0.000003 -3.713255 0.307047 -3.352256 -0.943750
    6 18.045725 0.000000 0.000000 0.000000 0.000000 -1.998653
    7 17.597597 0.000000 0.000000 0.131076 -0.128119 1.044726
    8 1.293670 0.684478 -0.000001 -0.000004 -0.000001 0.279904
    9 5.309685 -0.003834 0.000000 -0.209408 -0.001043 -0.005708
    10 4.826790 -0.004591 0.000000 -0.410074 -0.000060 -0.000957
    11 5.792767 -0.005304 0.000000 0.000000 0.000000 0.111437
    12 6.662317 -0.001453 0.000000 0.000000 -0.000001 0.078527
    13 2.046985 -0.000002 0.000000 0.545085 0.310526 -0.654470
    14 -3.451878 0.212527 4.341911 1.738549 -0.771074 1.253146
    15 4.827230 0.000000 0.000001 -0.439173 -0.667232 0.062221
    16 11.139763 0.000000 0.000000 0.000000 0.000000 -1.306771
    17 10.314597 0.000001 0.000000 -4.434764 0.060509 -0.051407
    18 2.975834 -0.386307 -0.044143 -0.012063 -0.041921 0.262037
    19 1.438886 0.000000 0.000000 0.000000 0.000000 0.924863
    20 1.485303 0.000000 0.000000 0.000000 0.000000 0.540993
    21 -3.186314 0.196501 -4.140396 -1.226423 0.918060 1.915549
    22 4.972048 0.000000 0.000001 0.451816 -0.249527 -1.000702
    23 11.585355 0.000000 0.000000 0.000000 0.000000 -1.873858
    24 10.127057 0.000000 0.000001 2.063125 0.632579 0.364486
    25 2.683750 -0.427338 0.044205 0.001045 0.043611 0.000046
    26 1.438885 -0.000001 0.000000 0.000000 0.000000 0.767762
    27 1.485305 0.000001 0.000000 0.000000 0.000000 1.221689
    28 1.038631 0.548043 -0.144017 -0.000001 0.000001 -1.849906
    29 -0.064003 -0.023521 0.026161 0.000000 0.000000 0.000000
    30 3.013925 3.984634 -0.088975 -0.000001 0.000001 -1.849906
    31 -0.084188 -0.025627 -0.001098 0.000000 0.000000 0.000000
    32 4.778187 3.972486 -0.079803 -0.000001 0.000001 -1.849906
    33 -0.058556 -0.021324 0.004244 0.000000 0.000000 0.000000
    34 1.640598 -1.968779 -0.099219 -0.000001 0.000001 -1.849906
    35 0.055573 -0.028908 0.000000 0.000000 0.000000 0.000000
    36 1.646738 0.449549 -1.702246 0.195746 0.777407 0.349090
    37 0.928312 0.000000 -0.000002 0.000000 0.000000 0.000000
    38 0.928314 0.000000 0.000001 0.000000 0.000000 0.000000
    39 1.533672 0.109715 1.664491 -0.233255 -0.412980 0.435684
    40 0.928313 0.000000 0.000000 0.000000 0.000000 0.000000
    41 0.928314 0.000000 0.000001 0.000000 0.000000 0.000000
  time 21
    0 0.235347 0.367732 -12.198115 0.000000 0.270322 -1.570874
    1 -2.253975 0.050783 0.000000 -1.570795 -1.570796 0.000000
    2 -0.000005 0.000007 3.713255 2.888549 6.077297 1.563304
    3 18.045721 0.000000 0.000000 0.000000 0.000000 -1.736845
    4 17.597597 0.000000 0.000000 -0.168376 0.198187 0.402484
    5 0.000005 -0.000003 -3.713255 0.307526 -3.351682 -0.942150
    6 18.045725 0.000000 0.000000 0.000000 0.000000 -1.998073
    7 17.597597 0.000000 0.000000 0.131076 -0.128316 1.045859
    8 1.293670 0.684478 -0.000001 -0.000004 -0.000001 0.279904
    9 5.309685 -0.003834 0.000000 -0.209408 -0.001486 -0.007809
    10 4.826790 -0.004591 0.000000 -0.410074 -0.001486 -0.004242
    11 5.792767 -0.005304 0.000000 0.000000 0.000000 0.104315
    12 6.662317 -0.001453 0.000000 0.000000 -0.000001 0.078527
    13 2.046985 -0.000002 0.000000 0.545473 0.309761 -0.641660
    14 -3.451878 0.212527 4.341911 1.746027 -0.769727 1.242312
    15 4.827230 0.000000 0.000001 -0.427544 -0.650383 0.053558
    16 11.139763 0.000000 0.000000 0.000000 0.000000 -1.308873
    17 10.314597 0.000001 0.000000 -4.434764 0.060509 -0.051407
    18 2.975834 -0.386307 -0.044143 -0.012063 -0.041921 0.262037
    19 1.438886 0.000000 0.000000 0.000000 0.000000 0.924863
    20 1.485303 0.000000 0.000000 0.000000 0.000000 0.540993
    21 -3.186314 0.196501 -4.140396 -1.217123 0.930383 1.923027
    22 4.972048 0.000000 0.000001 0.449727 -0.264811 -1.010517
    23 11.585355 0.000000 0.000000 0.000000 0.000000 -1.873858
    24 10.127057 0.000000 0.000001 2.063125 0.632579 0.364486
    25 2.683750 -0.427338 0.044205 0.001045 0.043611 0.000046
    26 1.438885 -0.000001 0.000000 0.000000 0.000000 0.767762
    27 1.485305 0.000001 0.000000 0.000000 0.000000 1.221689
    28 1.038631 0.548043 -0.144017 -0.000001 0.000001 -1.849906
    29 -0.064003 -0.023521 0.026161 0.000000 0.000000 0.000000
    30 3.013925 3.984634 -0.088975 -0.000001 0.000001 -1.849906
    31 -0.084188 -0.025627 -0.001098 0.000000 0.000000 0.000000
    32 4.778187 3.972486 -0.079803 -0.000001 0.000001 -1.849906
    33 -0.058556 -0.021324 0.004244 0.000000 0.000000 0.000000
    34 1.640598 -1.968779 -0.099219 -0.000001 0.000001 -1.849906
    35 0.055573 -0.028908 0.000000 0.000000 0.000000 0.000000
    36 1.646738 0.449549 -1.702246 0.195746 0.777407 0.349090
    37 0.928312 0.000000 -0.000002 0.000000 0.000000 0.000000
    38 0.928314 0.000000 0.000001 0.000000 0.000000 0.000000
    39 1.533672 0.109715 1.664491 -0.233255 -0.412980 0.435684
    40 0.928313 0.000000 0.000000 0.000000 0.000000 0.000000
    41 0.928314 0.000000 0.000001 0.000000 0.000000 0.000000
  time 22
    0 0.235347 0.367732 -12.190303 0.000000 0.270322 -1.570874
    1 -2.226630 0.035157 0.000000 -1.570795 -1.570796 0.000000
    2 -0.000005 0.000007 3.713255 2.889125 6.076724 1.563790
    3 18.045721 0.000000 0.000000 0.000000 0.000000 -1.737883
    4 17.597597 0.000000 0.000000 -0.167945 0.197384 0.403903
    5 0.000005 -0.000003 -3.713255 0.308100 -3.351012 -0.940405
    6 18.045725 0.000000 0.000000 0.000000 0.000000 -1.997494
    7 17.597597 0.000000 0.000000 0.131060 -0.128513 1.047129
    8 1.293670 0.684478 -0.000001 -0.000004 -0.000001 0.279904
    9 5.309685 -0.003834 0.000000 -0.209408 -0.001965 -0.010055
    10 4.826790 -0.004591 0.000000 -0.410058 -0.003020 -0.007748
    11 5.792767 -0.005304 0.000000 0.000000 0.000000 0.096633
    12 6.662317 -0.001453 0.000000 0.000000 -0.000001 0.078527
    13 2.046985 -0.000002 0.000000 0.545904 0.308950 -0.627906
    14 -3.451878 0.212527 4.341911 1.754080 -0.768227 1.230807
    15 4.827230 0.000000 0.000001 -0.415385 -0.632086 0.044544
    16 11.139763 0.000000 0.000000 0.000000 0.000000 -1.311186
    17 10.314597 0.000001 0.000000 -4.434764 0.060509 -0.051407
    18 2.975834 -0.386307 -0.044143 -0.012063 -0.041921 0.262037
    19 1.438886 0.000000 0.000000 0.000000 0.000000 0.924863
    20 1.485303 0.000000 0.000000 0.000000 0.000000 0.540993
    21 -3.186314 0.196501 -4.140396 -1.206769 0.943611 1.931368
    22 4.972048 0.000000 0.000001 0.447484 -0.281221 -1.020925
    23 11.585355 0.000000 0.000000 0.000000 0.000000 -1.873858
    24 10.127057 0.000000 0.000001 2.063125 0.632579 0.364486
    25 2.683750 -0.427338 0.044205 0.001045 0.043611 0.000046
    26 1.438885 -0.000001 0.000000 0.000000 0.000000 0.767762
    27 1.485305 0.000001 0.000000 0.000000 0.000000 1.221689
    28 1.038631 0.548043 -0.144017 -0.000001 0.000001 -1.849906
    29 -0.064003 -0.023521 0.026161 0.000000 0.000000 0.000000
    30 3.013925 3.984634 -0.088975 -0.000001 0.000001 -1.849906
    31 -0.084188 -0.025627 -0.001098 0.000000 0.000000 0.000000
    32 4.778187 3.972486 -0.079803 -0.000001 0.000001 -1.849906
    33 -0.058556 -0.021324 0.004244 0.000000 0.000000 0.000000
    34 1.640598 -1.968779 -0.099219 -0.000001 0.000001 -1.849906
    35 0.055573 -0.028908 0.000000 0.000000 0.000000 0.000000
    36 1.646738 0.449549 -1.702246 0.195746 0.777407 0.349090
    37 0.928312 0.000000 -0.000002 0.000000 0.000000 0.000000
    38 0.928314 0.000000 0.000001 0.000000 0.000000 0.000000
    39 1.533672 0.109715 1.664491 -0.233255 -0.412980 0.435684
    40 0.928313 0.000000 0.000000 0.000000 0.000000 0.000000
    41 0.928314 0.000000 0.000001 0.000000 0.000000 0.000000
  time 23
    0 0.235347 0.367732 -12.182490 0.000000 0.270322 -1.570874
    1 -2.195379 0.019532 0.000000 -1.570795 -1.570796 0.000000
    2 -0.000005 0.000007 3.713255 2.889795 6.076246 1.564276
    3 18.045721 0.000000 0.000000 0.000000 0.000000 -1.738922
    4 17.597597 0.000000 0.000000 -0.167489 0.196508 0.405367
    5 0.000005 -0.000003 -3.713255 0.308578 -3.350342 -0.938562
    6 18.045725 0.000000 0.000000 0.000000 0.000000 -1.996842
    7 17.597597 0.000000 0.000000 0.131060 -0.128730 1.048400
    8 1.293670 0.684478 -0.000001 -0.000004 -0.000001 0.279904
    9 5.309685 -0.003834 0.000000 -0.209408 -0.002457 -0.012409
    10 4.826790 -0.004591 0.000000 -0.410041 -0.004602 -0.011408
    11 5.792767 -0.005304 0.000000 0.000000 0.000000 0.088640
    12 6.662317 -0.001453 0.000000 0.000000 -0.000001 0.078527
    13 2.046985 -0.000002 0.000000 0.546378 0.308095 -0.613613
    14 -3.451878 0.212527 4.341911 1.762421 -0.766573 1.218822
    15 4.827230 0.000000 0.000001 -0.403168 -0.613023 0.035530
    16 11.139763 0.000000 0.000000 0.000000 0.000000 -1.313569
    17 10.314597 0.000001 0.000000 -4.434764 0.060509 -0.051407
    18 2.975834 -0.386307 -0.044143 -0.012063 -0.041921 0.262037
    19 1.438886 0.000000 0.000000 0.000000 0.000000 0.924863
    20 1.485303 0.000000 0.000000 0.000000 0.000000 0.540993
    21 -3.186314 0.196501 -4.140396 -1.195551 0.957291 1.940476
    22 4.972048 0.000000 0.000001 0.445086 -0.298275 -1.031793
    23 11.585355 0.000000 0.000000 0.000000 0.000000 -1.873858
    24 10.127057 0.000000 0.000001 2.063125 0.632579 0.364486
    25 2.683750 -0.427338 0.044205 0.001045 0.043611 0.000046
    26 1.438885 -0.000001 0.000000 0.000000 0.000000 0.767762
    27 1.485305 0.000001 0.000000 0.000000 0.000000 1.221689
    28 1.038631 0.548043 -0.144017 -0.000001 0.000001 -1.849906
    29 -0.064003 -0.023521 0.026161 0.000000 0.000000 0.000000
    30 3.013925 3.984634 -0.088975 -0.000001 0.000001 -1.849906
    31 -0.084188 -0.025627 -0.001098 0.000000 0.000000 0.000000
    32 4.778187 3.972486 -0.079803 -0.000001 0.000001 -1.849906
    33 -0.058556 -0.021324 0.004244 0.000000 0.000000 0.000000
    34 1.640598 -1.968779 -0.099219 -0.000001 0.000001 -1.849906
    35 0.055573 -0.028908 0.000000 0.000000 0.000000 0.000000
    36 1.646738 0.449549 -1.702246 0.195746 0.777407 0.349090
    37 0.928312 0.000000 -0.000002 0.000000 0.000000 0.000000
    38 0.928314 0.000000 0.000001 0.000000 0.000000 0.000000
    39 1.533672 0.109715 1.664491 -0.233255 -0.412980 0.435684
    40 0.928313 0.000000 0.000000 0.000000 0.000000 0.000000
    41 0.928314 0.000000 0.000001 0.000000 0.000000 0.000000
  time 24
    0 0.235347 0.367732 -12.174677 0.000000 0.270322 -1.570874
    1 -2.168035 0.003906 0.000000 -1.570795 -1.570796 0.000000
    2 -0.000005 0.000007 3.713255 2.890371 6.075672 1.564811
    3 18.045721 0.000000 0.000000 0.000000 0.000000 -1.739961
    4 17.597597 0.000000 0.000000 -0.167032 0.195656 0.406877
    5 0.000005 -0.000003 -3.713255 0.309152 -3.349576 -0.936720
    6 18.045725 0.000000 0.000000 0.000000 0.000000 -1.996262
    7 17.597597 0.000000 0.000000 0.131060 -0.128947 1.049705
    8 1.293670 0.684478 -0.000001 -0.000004 -0.000001 0.279904
    9 5.309685 -0.003834 0.000000 -0.209396 -0.002960 -0.014763
    10 4.826790 -0.004591 0.000000 -0.410025 -0.006208 -0.015113
    11 5.792767 -0.005304 0.000000 0.000000 0.000000 0.080584
    12 6.662317 -0.001453 0.000000 0.000000 -0.000001 0.078527
    13 2.046985 -0.000002 0.000000 0.546808 0.307217 -0.599139
    14 -3.451878 0.212527 4.341911 1.770762 -0.764881 1.206742
    15 4.827230 0.000000 0.000001 -0.391186 -0.593620 0.026867
    16 11.139763 0.000000 0.000000 0.000000 0.000000 -1.316021
    17 10.314597 0.000001 0.000000 -4.434764 0.060509 -0.051407
    18 2.975834 -0.386307 -0.044143 -0.012063 -0.041921 0.262037
    19 1.438886 0.000000 0.000000 0.000000 0.000000 0.924863
    20 1.485303 0.000000 0.000000 0.000000 0.000000 0.540993
    21 -3.186314 0.196501 -4.140396 -1.183759 0.971084 1.950160
    22 4.972048 0.000000 0.000001 0.442611 -0.315569 -1.042662
    23 11.585355 0.000000 0.000000 0.000000 0.000000 -1.873858
    24 10.127057 0.000000 0.000001 2.063125 0.632579 0.364486
    25 2.683750 -0.427338 0.044205 0.001045 0.043611 0.000046
    26 1.438885 -0.000001 0.000000 0.000000 0.000000 0.767762
    27 1.485305 0.000001 0.000000 0.000000 0.000000 1.221689
    28 1.038631 0.548043 -0.144017 -0.000001 0.000001 -1.849906
    29 -0.064003 -0.023521 0.026161 0.000000 0.000000 0.000000
    30 3.013925 3.984634 -0.088975 -0.000001 0.000001 -1.849906
    31 -0.084188 -0.025627 -0.001098 0.000000 0.000000 0.000000
    32 4.778187 3.972486 -0.079803 -0.000001 0.000001 -1.849906
    33 -0.058556 -0.021324 0.004244 0.000000 0.000000 0.000000
    34 1.640598 -1.968779 -0.099219 -0.000001 0.000001 -1.849906
    35 0.055573 -0.028908 0.000000 0.000000 0.000000 0.000000
    36 1.646738 0.449549 -1.702246 0.195746 0.777407 0.349090
    37 0.928312 0.000000 -0.000002 0.000000 0.000000 0.000000
    38 0.928314 0.000000 0.000001 0.000000 0.000000 0.000000
    39 1.533672 0.109715 1.664491 -0.233255 -0.412980 0.435684
    40 0.928313 0.000000 0.000000 0.000000 0.000000 0.000000
    41 0.928314 0.000000 0.000001 0.000000 0.000000 0.000000
  time 25
    0 0.235347 0.367732 -12.166865 0.000000 0.270322 -1.570874
    1 -2.136784 -0.007813 0.000000 -1.570795 -1.570796 0.000000
    2 -0.000005 0.000007 3.713255 2.891042 6.075194 1.565297
    3 18.045721 0.000000 0.000000 0.000000 0.000000 -1.741000
    4 17.597597 0.000000 0.000000 -0.166576 0.194804 0.408295
    5 0.000005 -0.000003 -3.713255 0.309726 -3.348906 -0.934926
    6 18.045725 0.000000 0.000000 0.000000 0.000000 -1.995610
    7 17.597597 0.000000 0.000000 0.131043 -0.129164 1.051010
    8 1.293670 0.684478 -0.000001 -0.000004 -0.000001 0.279904
    9 5.309685 -0.003834 0.000000 -0.209383 -0.003452 -0.017099
    10 4.826790 -0.004591 0.000000 -0.409992 -0.007790 -0.018751
    11 5.792767 -0.005304 0.000000 0.000000 0.000000 0.072673
    12 6.662317 -0.001453 0.000000 0.000000 -0.000001 0.078527
    13 2.046985 -0.000002 0.000000 0.547239 0.306384 -0.584981
    14 -3.451878 0.212527 4.341911 1.778911 -0.763111 1.194949
    15 4.827230 0.000000 0.000001 -0.379850 -0.574558 0.018553
    16 11.139763 0.000000 0.000000 0.000000 0.000000 -1.318334
    17 10.314597 0.000001 0.000000 -4.434764 0.060509 -0.051407
    18 2.975834 -0.386307 -0.044143 -0.012063 -0.041921 0.262037
    19 1.438886 0.000000 0.000000 0.000000 0.000000 0.924863
    20 1.485303 0.000000 0.000000 0.000000 0.000000 0.540993
    21 -3.186314 0.196501 -4.140396 -1.171679 0.984509 1.960130
    22 4.972048 0.000000 0.000001 0.440135 -0.332542 -1.053202
    23 11.585355 0.000000 0.000000 0.000000 0.000000 -1.873858
    24 10.127057 0.000000 0.000001 2.063125 0.632579 0.364486
    25 2.683750 -0.427338 0.044205 0.001045 0.043611 0.000046
    26 1.438885 -0.000001 0.000000 0.000000 0.000000 0.767762
    27 1.485305 0.000001 0.000000 0.000000 0.000000 1.221689
    28 1.038631 0.548043 -0.144017 -0.000001 0.000001 -1.849906
    29 -0.064003 -0.023521 0.026161 0.000000 0.000000 0.000000
    30 3.013925 3.984634 -0.088975 -0.000001 0.000001 -1.849906
    31 -0.084188 -0.025627 -0.001098 0.000000 0.000000 0.000000
    32 4.778187 3.972486 -0.079803 -0.000001 0.000001 -1.849906
    33 -0.058556 -0.021324 0.004244 0.000000 0.000000 0.000000
    34 1.640598 -1.968779 -0.099219 -0.000001 0.000001 -1.849906
    35 0.055573 -0.028908 0.000000 0.000000 0.000000 0.000000
    36 1.646738 0.449549 -1.702246 0.195746 0.777407 0.349090
    37 0.928312 0.000000 -0.000002 0.000000 0.000000 0.000000
    38 0.928314 0.000000 0.000001 0.000000 0.000000 0.000000
    39 1.533672 0.109715 1.664491 -0.233255 -0.412980 0.435684
    40 0.928313 0.000000 0.000000 0.000000 0.000000 0.000000
    41 0.928314 0.000000 0.000001 0.000000 0.000000 0.000000
  time 26
    0 0.235347 0.367732 -12.159052 0.000000 0.270322 -1.570874
    1 -2.109439 -0.023438 0.000000 -1.570795 -1.570796 0.000000
    2 -0.000005 0.000007 3.713255 2.891617 6.074716 1.565734
    3 18.045721 0.000000 0.000000 0.000000 0.000000 -1.741965
    4 17.597597 0.000000 0.000000 -0.166145 0.194000 0.409713
    5 0.000005 -0.000003 -3.713255 0.310204 -3.348236 -0.933180
    6 18.045725 0.000000 0.000000 0.000000 0.000000 -1.995031
    7 17.597597 0.000000 0.000000 0.131043 -0.129362 1.052212
    8 1.293670 0.684478 -0.000001 -0.000004 -0.000001 0.279904
    9 5.309685 -0.003834 0.000000 -0.209383 -0.003919 -0.019290
    10 4.826790 -0.004591 0.000000 -0.409976 -0.009288 -0.022190
    11 5.792767 -0.005304 0.000000 0.000000 0.000000 0.065157
    12 6.662317 -0.001453 0.000000 0.000000 -0.000001 0.078527
    13 2.046985 -0.000002 0.000000 0.547670 0.305573 -0.571497
    14 -3.451878 0.212527 4.341911 1.786677 -0.761342 1.183732
    15 4.827230 0.000000 0.000001 -0.369336 -0.556346 0.011027
    16 11.139763 0.000000 0.000000 0.000000 0.000000 -1.320647
    17 10.314597 0.000001 0.000000 -4.434764 0.060509 -0.051407
    18 2.975834 -0.386307 -0.044143 -0.012063 -0.041921 0.262037
    19 1.438886 0.000000 0.000000 0.000000 0.000000 0.924863
    20 1.485303 0.000000 0.000000 0.000000 0.000000 0.540993
    21 -3.186314 0.196501 -4.140396 -1.159791 0.997228 1.970101
    22 4.972048 0.000000 0.000001 0.437815 -0.348631 -1.063215
    23 11.585355 0.000000 0.000000 0.000000 0.000000 -1.873858
    24 10.127057 0.000000 0.000001 2.063125 0.632579 0.364486
    25 2.683750 -0.427338 0.044205 0.001045 0.043611 0.000046
    26 1.438885 -0.000001 0.000000 0.000000 0.000000 0.767762
    27 1.485305 0.000001 0.000000 0.000000 0.000000 1.221689
    28 1.038631 0.548043 -0.144017 -0.000001 0.000001 -1.849906
    29 -0.064003 -0.023521 0.026161 0.000000 0.000000 0.000000
    30 3.013925 3.984634 -0.088975 -0.000001 0.000001 -1.849906
    31 -0.084188 -0.025627 -0.001098 0.000000 0.000000 0.000000
    32 4.778187 3.972486 -0.079803 -0.000001 0.000001 -1.849906
    33 -0.058556 -0.021324 0.004244 0.000000 0.000000 0.000000
    34 1.640598 -1.968779 -0.099219 -0.000001 0.000001 -1.849906
    35 0.055573 -0.028908 0.000000 0.000000 0.000000 0.000000
    36 1.646738 0.449549 -1.702246 0.195746 0.777407 0.349090
    37 0.928312 0.000000 -0.000002 0.000000 0.000000 0.000000
    38 0.928314 0.000000 0.000001 0.000000 0.000000 0.000000
    39 1.533672 0.109715 1.664491 -0.233255 -0.412980 0.435684
    40 0.928313 0.000000 0.000000 0.000000 0.000000 0.000000
    41 0.928314 0.000000 0.000001 0.000000 0.000000 0.000000
  time 27
    0 0.235347 0.367732 -12.155145 0.000000 0.270322 -1.570874
    1 -2.082095 -0.035157 0.000000 -1.570795 -1.570796 0.000000
    2 -0.000005 0.000007 3.713255 2.892096 6.074238 1.566171
    3 18.045721 0.000000 0.000000 0.000000 0.000000 -1.742930
    4 17.597597 0.000000 0.000000 -0.165740 0.193270 0.410994
    5 0.000005 -0.000003 -3.713255 0.310683 -3.347661 -0.931629
    6 18.045725 0.000000 0.000000 0.000000 0.000000 -1.994523
    7 17.597597 0.000000 0.000000 0.131043 -0.129559 1.053345
    8 1.293670 0.684478 -0.000001 -0.000004 -0.000001 0.279904
    9 5.309685 -0.003834 0.000000 -0.209371 -0.004350 -0.021318
    10 4.826790 -0.004591 0.000000 -0.409943 -0.010666 -0.025365
    11 5.792767 -0.005304 0.000000 0.000000 0.000000 0.058264
    12 6.662317 -0.001453 0.000000 0.000000 -0.000001 0.078527
    13 2.046985 -0.000002 0.000000 0.548015 0.304830 -0.559136
    14 -3.451878 0.212527 4.341911 1.793676 -0.759688 1.173473
    15 4.827230 0.000000 0.000001 -0.359997 -0.539496 0.004289
    16 11.139763 0.000000 0.000000 0.000000 0.000000 -1.322679
    17 10.314597 0.000001 0.000000 -4.434764 0.060509 -0.051407
    18 2.975834 -0.386307 -0.044143 -0.012063 -0.041921 0.262037
    19 1.438886 0.000000 0.000000 0.000000 0.000000 0.924863
    20 1.485303 0.000000 0.000000 0.000000 0.000000 0.540993
    21 -3.186314 0.196501 -4.140396 -1.148478 1.008845 1.979688
    22 4.972048 0.000000 0.000001 0.435572 -0.363432 -1.072371
    23 11.585355 0.000000 0.000000 0.000000 0.000000 -1.873858
    24 10.127057 0.000000 0.000001 2.063125 0.632579 0.364486
    25 2.683750 -0.427338 0.044205 0.001045 0.043611 0.000046
    26 1.438885 -0.000001 0.000000 0.000000 0.000000 0.767762
    27 1.485305 0.000001 0.000000 0.000000 0.000000 1.221689
    28 1.038631 0.548043 -0.144017 -0.000001 0.000001 -1.849906
    29 -0.064003 -0.023521 0.026161 0.000000 0.000000 0.000000
    30 3.013925 3.984634 -0.088975 -0.000001 0.000001 -1.849906
    31 -0.084188 -0.025627 -0.001098 0.000000 0.000000 0.000000
    32 4.778187 3.972486 -0.079803 -0.000001 0.000001 -1.849906
    33 -0.058556 -0.021324 0.004244 0.000000 0.000000 0.000000
    34 1.640598 -1.968779 -0.099219 -0.000001 0.000001 -1.849906
    35 0.055573 -0.028908 0.000000 0.000000 0.000000 0.000000
    36 1.646738 0.449549 -1.702246 0.195746 0.777407 0.349090
    37 0.928312 0.000000 -0.000002 0.000000 0.000000 0.000000
    38 0.928314 0.000000 0.000001 0.000000 0.000000 0.000000
    39 1.533672 0.109715 1.664491 -0.233255 -0.412980 0.435684
    40 0.928313 0.000000 0.000000 0.000000 0.000000 0.000000
    41 0.928314 0.000000 0.000001 0.000000 0.000000 0.000000
  time 28
    0 0.235347 0.367732 -12.147333 0.000000 0.270322 -1.570874
    1 -2.058657 -0.046876 0.000000 -1.570795 -1.570796 0.000000
    2 -0.000005 0.000007 3.713255 2.892575 6.073759 1.566560
    3 18.045721 0.000000 0.000000 0.000000 0.000000 -1.743672
    4 17.597597 0.000000 0.000000 -0.165410 0.192613 0.412092
    5 0.000005 -0.000003 -3.713255 0.311161 -3.347087 -0.930223
    6 18.045725 0.000000 0.000000 0.000000 0.000000 -1.994016
    7 17.597597 0.000000 0.000000 0.131027 -0.129717 1.054306
    8 1.293670 0.684478 -0.000001 -0.000004 -0.000001 0.279904
    9 5.309685 -0.003834 0.000000 -0.209359 -0.004734 -0.023093
    10 4.826790 -0.004591 0.000000 -0.409910 -0.011865 -0.028121
    11 5.792767 -0.005304 0.000000 0.000000 0.000000 0.052201
    12 6.662317 -0.001453 0.000000 0.000000 -0.000001 0.078527
    13 2.046985 -0.000002 0.000000 0.548359 0.304177 -0.548304
    14 -3.451878 0.212527 4.341911 1.799812 -0.758226 1.164556
    15 4.827230 0.000000 0.000001 -0.351950 -0.524774 -0.001399
    16 11.139763 0.000000 0.000000 0.000000 0.000000 -1.324501
    17 10.314597 0.000001 0.000000 -4.434764 0.060509 -0.051407
    18 2.975834 -0.386307 -0.044143 -0.012063 -0.041921 0.262037
    19 1.438886 0.000000 0.000000 0.000000 0.000000 0.924863
    20 1.485303 0.000000 0.000000 0.000000 0.000000 0.540993
    21 -3.186314 0.196501 -4.140396 -1.138219 1.018963 1.988413
    22 4.972048 0.000000 0.000001 0.433560 -0.376463 -1.080276
    23 11.585355 0.000000 0.000000 0.000000 0.000000 -1.873858
    24 10.127057 0.000000 0.000001 2.063125 0.632579 0.364486
    25 2.683750 -0.427338 0.044205 0.001045 0.043611 0.000046
    26 1.438885 -0.000001 0.000000 0.000000 0.000000 0.767762
    27 1.485305 0.000001 0.000000 0.000000 0.000000 1.221689
    28 1.038631 0.548043 -0.144017 -0.000001 0.000001 -1.849906
    29 -0.064003 -0.023521 0.026161 0.000000 0.000000 0.000000
    30 3.013925 3.984634 -0.088975 -0.000001 0.000001 -1.849906
    31 -0.084188 -0.025627 -0.001098 0.000000 0.000000 0.000000
    32 4.778187 3.972486 -0.079803 -0.000001 0.000001 -1.849906
    33 -0.058556 -0.021324 0.004244 0.000000 0.000000 0.000000
    34 1.640598 -1.968779 -0.099219 -0.000001 0.000001 -1.849906
    35 0.055573 -0.028908 0.000000 0.000000 0.000000 0.000000
    36 1.646738 0.449549 -1.702246 0.195746 0.777407 0.349090
    37 0.928312 0.000000 -0.000002 0.000000 0.000000 0.000000
    38 0.928314 0.000000 0.000001 0.000000 0.000000 0.000000
    39 1.533672 0.109715 1.664491 -0.233255 -0.412980 0.435684
    40 0.928313 0.000000 0.000000 0.000000 0.000000 0.000000
    41 0.928314 0.000000 0.000001 0.000000 0.000000 0.000000
  time 29
    0 0.235347 0.367732 -12.143426 0.000000 0.270322 -1.570874
    1 -2.039125 -0.058596 0.000000 -1.570795 -1.570796 0.000000
    2 -0.000005 0.000007 3.713255 2.892958 6.073473 1.566851
    3 18.045721 0.000000 0.000000 0.000000 0.000000 -1.744340
    4 17.597597 0.000000 0.000000 -0.165106 0.192077 0.413008
    5 0.000005 -0.000003 -3.713255 0.311448 -3.346704 -0.929108
    6 18.045725 0.000000 0.000000 0.000000 0.000000 -1.993654
    7 17.597597 0.000000 0.000000 0.131027 -0.129855 1.055131
    8 1.293670 0.684478 -0.000001 -0.000004 -0.000001 0.279904
    9 5.309685 -0.003834 0.000000 -0.209359 -0.005046 -0.024560
    10 4.826790 -0.004591 0.000000 -0.409877 -0.012859 -0.030415
    11 5.792767 -0.005304 0.000000 0.000000 0.000000 0.047239
    12 6.662317 -0.001453 0.000000 0.000000 -0.000001 0.078527
    13 2.046985 -0.000002 0.000000 0.548618 0.303637 -0.539449
    14 -3.451878 0.212527 4.341911 1.804893 -0.756957 1.157270
    15 4.827230 0.000000 0.000001 -0.345489 -0.512690 -0.005950
    16 11.139763 0.000000 0.000000 0.000000 0.000000 -1.325973
    17 10.314597 0.000001 0.000000 -4.434764 0.060509 -0.051407
    18 2.975834 -0.386307 -0.044143 -0.012063 -0.041921 0.262037
    19 1.438886 0.000000 0.000000 0.000000 0.000000 0.924863
    20 1.485303 0.000000 0.000000 0.000000 0.000000 0.540993
    21 -3.186314 0.196501 -4.140396 -1.129495 1.027245 1.995795
    22 4.972048 0.000000 0.000001 0.431859 -0.387081 -1.086797
    23 11.585355 0.000000 0.000000 0.000000 0.000000 -1.873858
    24 10.127057 0.000000 0.000001 2.063125 0.632579 0.364486
    25 2.683750 -0.427338 0.044205 0.001045 0.043611 0.000046
    26 1.438885 -0.000001 0.000000 0.000000 0.000000 0.767762
    27 1.485305 0.000001 0.000000 0.000000 0.000000 1.221689
    28 1.038631 0.548043 -0.144017 -0.000001 0.000001 -1.849906
    29 -0.064003 -0.023521 0.026161 0.000000 0.000000 0.000000
    30 3.013925 3.984634 -0.088975 -0.000001 0.000001 -1.849906
    31 -0.084188 -0.025627 -0.001098 0.000000 0.000000 0.000000
    32 4.778187 3.972486 -0.079803 -0.000001 0.000001 -1.849906
    33 -0.058556 -0.021324 0.004244 0.000000 0.000000 0.000000
    34 1.640598 -1.968779 -0.099219 -0.000001 0.000001 -1.849906
    35 0.055573 -0.028908 0.000000 0.000000 0.000000 0.000000
    36 1.646738 0.449549 -1.702246 0.195746 0.777407 0.349090
    37 0.928312 0.000000 -0.000002 0.000000 0.000000 0.000000
    38 0.928314 0.000000 0.000001 0.000000 0.000000 0.000000
    39 1.533672 0.109715 1.664491 -0.233255 -0.412980 0.435684
    40 0.928313 0.000000 0.000000 0.000000 0.000000 0.000000
    41 0.928314 0.000000 0.000001 0.000000 0.000000 0.000000
  time 30
    0 0.235347 0.367732 -12.139520 0.000000 0.270322 -1.570874
    1 -2.027406 -0.062502 0.000000 -1.570795 -1.570796 0.000000
    2 -0.000005 0.000007 3.713255 2.893246 6.073186 1.567094
    3 18.045721 0.000000 0.000000 0.000000 0.000000 -1.744785
    4 17.597597 0.000000 0.000000 -0.164903 0.191688 0.413694
    5 0.000005 -0.000003 -3.713255 0.311735 -3.346321 -0.928284
    6 18.045725 0.000000 0.000000 0.000000 0.000000 -1.993364
    7 17.597597 0.000000 0.000000 0.131027 -0.129934 1.055714
    8 1.293670 0.684478 -0.000001 -0.000004 -0.000001 0.279904
    9 5.309685 -0.003834 0.000000 -0.209347 -0.005273 -0.025628
    10 4.826790 -0.004591 0.000000 -0.409861 -0.013579 -0.032068
    11 5.792767 -0.005304 0.000000 0.000000 0.000000 0.043605
    12 6.662317 -0.001453 0.000000 0.000000 -0.000001 0.078527
    13 2.046985 -0.000002 0.000000 0.548833 0.303254 -0.532886
    14 -3.451878 0.212527 4.341911 1.808536 -0.756034 1.151901
    15 4.827230 0.000000 0.000001 -0.340849 -0.503754 -0.009275
    16 11.139763 0.000000 0.000000 0.000000 0.000000 -1.327094
    17 10.314597 0.000001 0.000000 -4.434764 0.060509 -0.051407
    18 2.975834 -0.386307 -0.044143 -0.012063 -0.041921 0.262037
    19 1.438886 0.000000 0.000000 0.000000 0.000000 0.924863
    20 1.485303 0.000000 0.000000 0.000000 0.000000 0.540993
    21 -3.186314 0.196501 -4.140396 -1.122975 1.033293 2.001356
    22 4.972048 0.000000 0.000001 0.430698 -0.394965 -1.091540
    23 11.585355 0.000000 0.000000 0.000000 0.000000 -1.873858
    24 10.127057 0.000000 0.000001 2.063125 0.632579 0.364486
    25 2.683750 -0.427338 0.044205 0.001045 0.043611 0.000046
    26 1.438885 -0.000001 0.000000 0.000000 0.000000 0.767762
    27 1.485305 0.000001 0.000000 0.000000 0.000000 1.221689
    28 1.038631 0.548043 -0.144017 -0.000001 0.000001 -1.849906
    29 -0.064003 -0.023521 0.026161 0.000000 0.000000 0.000000
    30 3.013925 3.984634 -0.088975 -0.000001 0.000001 -1.849906
    31 -0.084188 -0.025627 -0.001098 0.000000 0.000000 0.000000
    32 4.778187 3.972486 -0.079803 -0.000001 0.000001 -1.849906
    33 -0.058556 -0.021324 0.004244 0.000000 0.000000 0.000000
    34 1.640598 -1.968779 -0.099219 -0.000001 0.000001 -1.849906
    35 0.055573 -0.028908 0.000000 0.000000 0.000000 0.000000
    36 1.646738 0.449549 -1.702246 0.195746 0.777407 0.349090
    37 0.928312 0.000000 -0.000002 0.000000 0.000000 0.000000
    38 0.928314 0.000000 0.000001 0.000000 0.000000 0.000000
    39 1.533672 0.109715 1.664491 -0.233255 -0.412980 0.435684
    40 0.928313 0.000000 0.000000 0.000000 0.000000 0.000000
    41 0.928314 0.000000 0.000001 0.000000 0.000000 0.000000
end
