version 1
nodes
  0 "Bip01" -1
  1 "Bip01 Pelvis" 0
  2 "Bip01 L Leg" 1
  3 "Bip01 L Leg1" 2
  4 "Bip01 L Foot" 3
  5 "Bip01 R Leg" 1
  6 "Bip01 R Leg1" 5
  7 "Bip01 R Foot" 6
  8 "Bip01 Spine" 1
  9 "Bip01 Spine1" 8
  10 "Bip01 Spine2" 9
  11 "Bip01 Spine3" 10
  12 "Bip01 Neck" 11
  13 "Bip01 Head" 12
  14 "Bip01 L Arm" 12
  15 "Bip01 L Arm1" 14
  16 "Bip01 L Arm2" 15
  17 "Bip01 L Hand" 16
  18 "Bip01 L Finger1" 17
  19 "Bip01 L Finger11" 18
  20 "Bip01 L Finger12" 19
  21 "Bip01 R Arm" 12
  22 "Bip01 R Arm1" 21
  23 "Bip01 R Arm2" 22
  24 "Bip01 R Hand" 23
  25 "Bip01 R Finger1" 24
  26 "Bip01 R Finger11" 25
  27 "Bip01 R Finger12" 26
  28 "Dummy08" 13
  29 "Bone02" 28
  30 "Dummy04" 13
  31 "Bone05" 30
  32 "Dummy03" 13
  33 "Bone07" 32
  34 "Dummy10" 13
  35 "Bone13" 34
  36 "Bip01 L Finger0" 17
  37 "Bip01 L Finger01" 36
  38 "Bip01 L Finger02" 37
  39 "Bip01 R Finger0" 24
  40 "Bip01 R Finger01" 39
  41 "Bip01 R Finger02" 40
end
skeleton
  time 0
    0 0.235347 0.367732 -14.514592 0.000000 0.270322 -1.570874
    1 0.000000 0.000000 0.000000 -1.570795 -1.570796 0.000000
    2 -0.000005 0.000007 3.713255 2.914525 6.061903 1.331528
    3 18.045721 0.000000 0.000000 0.000000 0.000000 -1.349242
    4 17.597597 0.000000 0.000000 -0.205057 0.225938 -0.216505
    5 0.000005 -0.000003 -3.713255 -0.067002 -3.740518 -0.837425
    6 18.045725 0.000000 0.000000 0.000000 0.000000 -2.074647
    7 17.597597 0.000000 0.000000 -0.092081 0.087821 0.559948
    8 1.293670 0.684478 -0.000001 -0.000004 -0.000001 0.009520
    9 5.309685 -0.003834 0.000000 -0.156851 -0.006687 -0.043085
    10 4.826790 -0.004591 0.000000 -0.060968 -0.003140 -0.052243
    11 5.792767 -0.005304 0.000000 -0.087131 -0.003727 -0.043432
    12 6.662317 -0.001453 0.000000 0.000000 -0.000001 0.296580
    13 2.046985 -0.000002 0.000000 0.289474 0.097377 -0.508884
    14 -3.326874 0.954737 4.341911 1.034649 -1.193007 1.842208
    15 4.827230 0.000000 0.000001 -0.704662 0.045486 -1.088288
    16 11.139763 0.000000 0.000000 0.000000 0.000000 -1.630890
    17 10.314597 0.000001 0.000000 -0.172447 -0.528729 0.398578
    18 2.975834 -0.386307 -0.044143 -0.021506 -0.037954 0.497588
    19 1.438886 0.000000 0.000000 0.000000 0.000000 0.889650
    20 1.485303 0.000000 0.000000 0.000000 0.000000 1.116422
    21 -3.065217 0.884022 -4.140396 -0.000013 1.370795 2.844176
    22 4.972048 0.000000 0.000001 0.869996 -1.152558 -1.239028
    23 11.585355 0.000000 0.000000 0.000000 0.000000 -1.867212
    24 10.127057 0.000000 0.000001 1.569752 0.000000 -0.069778
    25 2.683750 -0.427338 0.044205 -0.005786 0.043239 -0.157091
    26 1.438885 -0.000001 0.000000 0.000000 0.000000 0.732658
    27 1.485305 0.000001 0.000000 0.000000 0.000000 1.168770
    28 1.038631 0.548043 -0.144017 -0.000001 0.000001 -1.849906
    29 -0.064003 -0.023521 0.026161 0.000000 0.000000 0.000000
    30 3.013925 3.984634 -0.088975 -0.000001 0.000001 -1.849906
    31 -0.084188 -0.025627 -0.001098 0.000000 0.000000 0.000000
    32 4.778187 3.972486 -0.079803 -0.000001 0.000001 -1.849906
    33 -0.058556 -0.021324 0.004244 0.000000 0.000000 0.000000
    34 1.640598 -1.968779 -0.099219 -0.000001 0.000001 -1.849906
    35 0.055573 -0.028908 0.000000 0.000000 0.000000 0.000000
    36 1.646738 0.449549 -1.702246 0.441914 0.155087 1.184542
    37 0.928312 0.000000 -0.000002 0.000000 0.000000 0.000000
    38 0.928314 0.000000 0.000001 0.000000 0.000000 0.000000
    39 1.533672 0.109715 1.664491 -0.264755 -0.055959 0.783109
    40 0.928313 0.000000 0.000000 0.000000 0.000000 -0.453556
    41 0.928314 0.000000 0.000001 0.000000 0.000000 0.000000
  time 1
    0 0.235347 0.367732 -14.514592 0.000000 0.270322 -1.570874
    1 0.000000 0.000000 0.000000 -1.570795 -1.570796 0.000000
    2 -0.000005 0.000007 3.713255 2.914525 6.061903 1.331528
    3 18.045721 0.000000 0.000000 0.000000 0.000000 -1.349242
    4 17.597597 0.000000 0.000000 -0.205057 0.225938 -0.216505
    5 0.000005 -0.000003 -3.713255 -0.067002 -3.740518 -0.837425
    6 18.045725 0.000000 0.000000 0.000000 0.000000 -2.074647
    7 17.597597 0.000000 0.000000 -0.092081 0.087821 0.559948
    8 1.293670 0.684478 -0.000001 -0.000004 -0.000001 0.009520
    9 5.309685 -0.003834 0.000000 -0.156851 -0.006687 -0.043085
    10 4.826790 -0.004591 0.000000 -0.060968 -0.003140 -0.052243
    11 5.792767 -0.005304 0.000000 -0.087148 -0.003595 -0.041979
    12 6.662317 -0.001453 0.000000 0.000000 -0.000001 0.296580
    13 2.046985 -0.000002 0.000000 0.289474 0.097377 -0.510323
    14 -3.326874 0.954737 4.341911 1.019788 -1.189430 1.858219
    15 4.827230 0.000000 0.000001 -0.698729 0.040891 -1.088288
    16 11.139763 0.000000 0.000000 0.000000 0.000000 -1.630890
    17 10.314597 0.000001 0.000000 -0.172447 -0.528729 0.398578
    18 2.975834 -0.386307 -0.044143 -0.021506 -0.037954 0.497588
    19 1.438886 0.000000 0.000000 0.000000 0.000000 0.889650
    20 1.485303 0.000000 0.000000 0.000000 0.000000 1.116422
    21 -3.065217 0.884022 -4.140396 -0.000013 1.366075 2.844176
    22 4.972048 0.000000 0.000001 0.860172 -1.149662 -1.230333
    23 11.585355 0.000000 0.000000 0.000000 0.000000 -1.867212
    24 10.127057 0.000000 0.000001 1.569752 0.000000 -0.069778
    25 2.683750 -0.427338 0.044205 -0.005786 0.043239 -0.157091
    26 1.438885 -0.000001 0.000000 0.000000 0.000000 0.732658
    27 1.485305 0.000001 0.000000 0.000000 0.000000 1.168770
    28 1.038631 0.548043 -0.144017 -0.000001 0.000001 -1.849906
    29 -0.064003 -0.023521 0.026161 0.000000 0.000000 0.000000
    30 3.013925 3.984634 -0.088975 -0.000001 0.000001 -1.849906
    31 -0.084188 -0.025627 -0.001098 0.000000 0.000000 0.000000
    32 4.778187 3.972486 -0.079803 -0.000001 0.000001 -1.849906
    33 -0.058556 -0.021324 0.004244 0.000000 0.000000 0.000000
    34 1.640598 -1.968779 -0.099219 -0.000001 0.000001 -1.849906
    35 0.055573 -0.028908 0.000000 0.000000 0.000000 0.000000
    36 1.646738 0.449549 -1.702246 0.441914 0.155087 1.184542
    37 0.928312 0.000000 -0.000002 0.000000 0.000000 0.000000
    38 0.928314 0.000000 0.000001 0.000000 0.000000 0.000000
    39 1.533672 0.109715 1.664491 -0.264755 -0.055959 0.783109
    40 0.928313 0.000000 0.000000 0.000000 0.000000 -0.453556
    41 0.928314 0.000000 0.000001 0.000000 0.000000 0.000000
  time 2
    0 0.235347 0.367732 -14.514592 0.000000 0.270322 -1.570874
    1 0.000000 0.000000 0.000000 -1.570795 -1.570796 0.000000
    2 -0.000005 0.000007 3.713255 2.914525 6.061903 1.331528
    3 18.045721 0.000000 0.000000 0.000000 0.000000 -1.349242
    4 17.597597 0.000000 0.000000 -0.205057 0.225938 -0.216505
    5 0.000005 -0.000003 -3.713255 -0.067002 -3.740518 -0.837425
    6 18.045725 0.000000 0.000000 0.000000 0.000000 -2.074647
    7 17.597597 0.000000 0.000000 -0.092081 0.087821 0.559948
    8 1.293670 0.684478 -0.000001 -0.000004 -0.000001 0.009520
    9 5.309685 -0.003834 0.000000 -0.156851 -0.006687 -0.043085
    10 4.826790 -0.004591 0.000000 -0.060968 -0.003140 -0.052243
    11 5.792767 -0.005304 0.000000 -0.087148 -0.003428 -0.040007
    12 6.662317 -0.001453 0.000000 0.000000 -0.000001 0.296580
    13 2.046985 -0.000002 0.000000 0.289474 0.097377 -0.512345
    14 -3.326874 0.954737 4.341911 1.000038 -1.184391 1.879504
    15 4.827230 0.000000 0.000001 -0.690682 0.034593 -1.088376
    16 11.139763 0.000000 0.000000 0.000000 0.000000 -1.630890
    17 10.314597 0.000001 0.000000 -0.172447 -0.528729 0.398578
    18 2.975834 -0.386307 -0.044143 -0.021506 -0.037954 0.497588
    19 1.438886 0.000000 0.000000 0.000000 0.000000 0.889650
    20 1.485303 0.000000 0.000000 0.000000 0.000000 1.116422
    21 -3.065217 0.884022 -4.140396 -0.000013 1.359631 2.844176
    22 4.972048 0.000000 0.000001 0.846944 -1.145640 -1.218740
    23 11.585355 0.000000 0.000000 0.000000 0.000000 -1.867212
    24 10.127057 0.000000 0.000001 1.569752 0.000000 -0.069778
    25 2.683750 -0.427338 0.044205 -0.005786 0.043239 -0.157091
    26 1.438885 -0.000001 0.000000 0.000000 0.000000 0.732658
    27 1.485305 0.000001 0.000000 0.000000 0.000000 1.168770
    28 1.038631 0.548043 -0.144017 -0.000001 0.000001 -1.849906
    29 -0.064003 -0.023521 0.026161 0.000000 0.000000 0.000000
    30 3.013925 3.984634 -0.088975 -0.000001 0.000001 -1.849906
    31 -0.084188 -0.025627 -0.001098 0.000000 0.000000 0.000000
    32 4.778187 3.972486 -0.079803 -0.000001 0.000001 -1.849906
    33 -0.058556 -0.021324 0.004244 0.000000 0.000000 0.000000
    34 1.640598 -1.968779 -0.099219 -0.000001 0.000001 -1.849906
    35 0.055573 -0.028908 0.000000 0.000000 0.000000 0.000000
    36 1.646738 0.449549 -1.702246 0.441914 0.155087 1.184542
    37 0.928312 0.000000 -0.000002 0.000000 0.000000 0.000000
    38 0.928314 0.000000 0.000001 0.000000 0.000000 0.000000
    39 1.533672 0.109715 1.664491 -0.264755 -0.055959 0.783109
    40 0.928313 0.000000 0.000000 0.000000 0.000000 -0.453556
    41 0.928314 0.000000 0.000001 0.000000 0.000000 0.000000
  time 3
    0 0.235347 0.367732 -14.514592 0.000000 0.270322 -1.570874
    1 0.000000 0.000000 0.000000 -1.570795 -1.570796 0.000000
    2 -0.000005 0.000007 3.713255 2.914525 6.061903 1.331528
    3 18.045721 0.000000 0.000000 0.000000 0.000000 -1.349242
    4 17.597597 0.000000 0.000000 -0.205057 0.225938 -0.216505
    5 0.000005 -0.000003 -3.713255 -0.067002 -3.740518 -0.837425
    6 18.045725 0.000000 0.000000 0.000000 0.000000 -2.074647
    7 17.597597 0.000000 0.000000 -0.092081 0.087821 0.559948
    8 1.293670 0.684478 -0.000001 -0.000004 -0.000001 0.009520
    9 5.309685 -0.003834 0.000000 -0.156851 -0.006687 -0.043085
    10 4.826790 -0.004591 0.000000 -0.060968 -0.003140 -0.052243
    11 5.792767 -0.005304 0.000000 -0.087148 -0.003212 -0.037598
    12 6.662317 -0.001453 0.000000 0.000000 -0.000001 0.296580
    13 2.046985 -0.000002 0.000000 0.289474 0.097377 -0.514728
    14 -3.326874 0.954737 4.341911 0.976741 -1.178082 1.904815
    15 4.827230 0.000000 0.000001 -0.680873 0.026934 -1.088551
    16 11.139763 0.000000 0.000000 0.000000 0.000000 -1.630890
    17 10.314597 0.000001 0.000000 -0.172447 -0.528729 0.398578
    18 2.975834 -0.386307 -0.044143 -0.021506 -0.037954 0.497588
    19 1.438886 0.000000 0.000000 0.000000 0.000000 0.889650
    20 1.485303 0.000000 0.000000 0.000000 0.000000 1.116422
    21 -3.065217 0.884022 -4.140396 -0.000013 1.351773 2.844176
    22 4.972048 0.000000 0.000001 0.831241 -1.140653 -1.204906
    23 11.585355 0.000000 0.000000 0.000000 0.000000 -1.867212
    24 10.127057 0.000000 0.000001 1.569752 0.000000 -0.069778
    25 2.683750 -0.427338 0.044205 -0.005786 0.043239 -0.157091
    26 1.438885 -0.000001 0.000000 0.000000 0.000000 0.732658
    27 1.485305 0.000001 0.000000 0.000000 0.000000 1.168770
    28 1.038631 0.548043 -0.144017 -0.000001 0.000001 -1.849906
    29 -0.064003 -0.023521 0.026161 0.000000 0.000000 0.000000
    30 3.013925 3.984634 -0.088975 -0.000001 0.000001 -1.849906
    31 -0.084188 -0.025627 -0.001098 0.000000 0.000000 0.000000
    32 4.778187 3.972486 -0.079803 -0.000001 0.000001 -1.849906
    33 -0.058556 -0.021324 0.004244 0.000000 0.000000 0.000000
    34 1.640598 -1.968779 -0.099219 -0.000001 0.000001 -1.849906
    35 0.055573 -0.028908 0.000000 0.000000 0.000000 0.000000
    36 1.646738 0.449549 -1.702246 0.441914 0.155087 1.184542
    37 0.928312 0.000000 -0.000002 0.000000 0.000000 0.000000
    38 0.928314 0.000000 0.000001 0.000000 0.000000 0.000000
    39 1.533672 0.109715 1.664491 -0.264755 -0.055959 0.783109
    40 0.928313 0.000000 0.000000 0.000000 0.000000 -0.453556
    41 0.928314 0.000000 0.000001 0.000000 0.000000 0.000000
  time 4
    0 0.235347 0.367732 -14.514592 0.000000 0.270322 -1.570874
    1 0.000000 0.000000 0.000000 -1.570795 -1.570796 0.000000
    2 -0.000005 0.000007 3.713255 2.914525 6.061903 1.331528
    3 18.045721 0.000000 0.000000 0.000000 0.000000 -1.349242
    4 17.597597 0.000000 0.000000 -0.205057 0.225938 -0.216505
    5 0.000005 -0.000003 -3.713255 -0.067002 -3.740518 -0.837425
    6 18.045725 0.000000 0.000000 0.000000 0.000000 -2.074647
    7 17.597597 0.000000 0.000000 -0.092081 0.087821 0.559948
    8 1.293670 0.684478 -0.000001 -0.000004 -0.000001 0.009520
    9 5.309685 -0.003834 0.000000 -0.156851 -0.006687 -0.043085
    10 4.826790 -0.004591 0.000000 -0.060968 -0.003140 -0.052243
    11 5.792767 -0.005304 0.000000 -0.087164 -0.002972 -0.034857
    12 6.662317 -0.001453 0.000000 0.000000 -0.000001 0.296580
    13 2.046985 -0.000002 0.000000 0.289474 0.097377 -0.517514
    14 -3.326874 0.954737 4.341911 0.950951 -1.170620 1.932715
    15 4.827230 0.000000 0.000001 -0.669655 0.018169 -1.088901
    16 11.139763 0.000000 0.000000 0.000000 0.000000 -1.630890
    17 10.314597 0.000001 0.000000 -0.172447 -0.528729 0.398578
    18 2.975834 -0.386307 -0.044143 -0.021506 -0.037954 0.497588
    19 1.438886 0.000000 0.000000 0.000000 0.000000 0.889650
    20 1.485303 0.000000 0.000000 0.000000 0.000000 1.116422
    21 -3.065217 0.884022 -4.140396 -0.000013 1.342785 2.844176
    22 4.972048 0.000000 0.000001 0.813681 -1.134861 -1.189624
    23 11.585355 0.000000 0.000000 0.000000 0.000000 -1.867212
    24 10.127057 0.000000 0.000001 1.569752 0.000000 -0.069778
    25 2.683750 -0.427338 0.044205 -0.005786 0.043239 -0.157091
    26 1.438885 -0.000001 0.000000 0.000000 0.000000 0.732658
    27 1.485305 0.000001 0.000000 0.000000 0.000000 1.168770
    28 1.038631 0.548043 -0.144017 -0.000001 0.000001 -1.849906
    29 -0.064003 -0.023521 0.026161 0.000000 0.000000 0.000000
    30 3.013925 3.984634 -0.088975 -0.000001 0.000001 -1.849906
    31 -0.084188 -0.025627 -0.001098 0.000000 0.000000 0.000000
    32 4.778187 3.972486 -0.079803 -0.000001 0.000001 -1.849906
    33 -0.058556 -0.021324 0.004244 0.000000 0.000000 0.000000
    34 1.640598 -1.968779 -0.099219 -0.000001 0.000001 -1.849906
    35 0.055573 -0.028908 0.000000 0.000000 0.000000 0.000000
    36 1.646738 0.449549 -1.702246 0.441914 0.155087 1.184542
    37 0.928312 0.000000 -0.000002 0.000000 0.000000 0.000000
    38 0.928314 0.000000 0.000001 0.000000 0.000000 0.000000
    39 1.533672 0.109715 1.664491 -0.264755 -0.055959 0.783109
    40 0.928313 0.000000 0.000000 0.000000 0.000000 -0.453556
    41 0.928314 0.000000 0.000001 0.000000 0.000000 0.000000
  time 5
    0 0.235347 0.367732 -14.514592 0.000000 0.270322 -1.570874
    1 0.000000 0.000000 0.000000 -1.570795 -1.570796 0.000000
    2 -0.000005 0.000007 3.713255 2.914525 6.061903 1.331528
    3 18.045721 0.000000 0.000000 0.000000 0.000000 -1.349242
    4 17.597597 0.000000 0.000000 -0.205057 0.225938 -0.216505
    5 0.000005 -0.000003 -3.713255 -0.067002 -3.740518 -0.837425
    6 18.045725 0.000000 0.000000 0.000000 0.000000 -2.074647
    7 17.597597 0.000000 0.000000 -0.092081 0.087821 0.559948
    8 1.293670 0.684478 -0.000001 -0.000004 -0.000001 0.009520
    9 5.309685 -0.003834 0.000000 -0.156851 -0.006687 -0.043085
    10 4.826790 -0.004591 0.000000 -0.060968 -0.003140 -0.052243
    11 5.792767 -0.005304 0.000000 -0.087164 -0.002709 -0.031847
    12 6.662317 -0.001453 0.000000 0.000000 -0.000001 0.296580
    13 2.046985 -0.000002 0.000000 0.289474 0.097377 -0.520526
    14 -3.326874 0.954737 4.341911 0.924107 -1.162158 1.961957
    15 4.827230 0.000000 0.000001 -0.657379 0.008638 -1.089514
    16 11.139763 0.000000 0.000000 0.000000 0.000000 -1.630890
    17 10.314597 0.000001 0.000000 -0.172447 -0.528729 0.398578
    18 2.975834 -0.386307 -0.044143 -0.021506 -0.037954 0.497588
    19 1.438886 0.000000 0.000000 0.000000 0.000000 0.889650
    20 1.485303 0.000000 0.000000 0.000000 0.000000 1.116422
    21 -3.065217 0.884022 -4.140396 -0.000013 1.333006 2.844176
    22 4.972048 0.000000 0.000001 0.795039 -1.128425 -1.173419
    23 11.585355 0.000000 0.000000 0.000000 0.000000 -1.867212
    24 10.127057 0.000000 0.000001 1.569752 0.000000 -0.069778
    25 2.683750 -0.427338 0.044205 -0.005786 0.043239 -0.157091
    26 1.438885 -0.000001 0.000000 0.000000 0.000000 0.732658
    27 1.485305 0.000001 0.000000 0.000000 0.000000 1.168770
    28 1.038631 0.548043 -0.144017 -0.000001 0.000001 -1.849906
    29 -0.064003 -0.023521 0.026161 0.000000 0.000000 0.000000
    30 3.013925 3.984634 -0.088975 -0.000001 0.000001 -1.849906
    31 -0.084188 -0.025627 -0.001098 0.000000 0.000000 0.000000
    32 4.778187 3.972486 -0.079803 -0.000001 0.000001 -1.849906
    33 -0.058556 -0.021324 0.004244 0.000000 0.000000 0.000000
    34 1.640598 -1.968779 -0.099219 -0.000001 0.000001 -1.849906
    35 0.055573 -0.028908 0.000000 0.000000 0.000000 0.000000
    36 1.646738 0.449549 -1.702246 0.441914 0.155087 1.184542
    37 0.928312 0.000000 -0.000002 0.000000 0.000000 0.000000
    38 0.928314 0.000000 0.000001 0.000000 0.000000 0.000000
    39 1.533672 0.109715 1.664491 -0.264755 -0.055959 0.783109
    40 0.928313 0.000000 0.000000 0.000000 0.000000 -0.453556
    41 0.928314 0.000000 0.000001 0.000000 0.000000 0.000000
  time 6
    0 0.235347 0.367732 -14.514592 0.000000 0.270322 -1.570874
    1 0.000000 0.000000 0.000000 -1.570795 -1.570796 0.000000
    2 -0.000005 0.000007 3.713255 2.914525 6.061903 1.331528
    3 18.045721 0.000000 0.000000 0.000000 0.000000 -1.349242
    4 17.597597 0.000000 0.000000 -0.205057 0.225938 -0.216505
    5 0.000005 -0.000003 -3.713255 -0.067002 -3.740518 -0.837425
    6 18.045725 0.000000 0.000000 0.000000 0.000000 -2.074647
    7 17.597597 0.000000 0.000000 -0.092081 0.087821 0.559948
    8 1.293670 0.684478 -0.000001 -0.000004 -0.000001 0.009520
    9 5.309685 -0.003834 0.000000 -0.156851 -0.006687 -0.043085
    10 4.826790 -0.004591 0.000000 -0.060968 -0.003140 -0.052243
    11 5.792767 -0.005304 0.000000 -0.087180 -0.002433 -0.028712
    12 6.662317 -0.001453 0.000000 0.000000 -0.000001 0.296580
    13 2.046985 -0.000002 0.000000 0.289474 0.097377 -0.523672
    14 -3.326874 0.954737 4.341911 0.896975 -1.152926 1.991487
    15 4.827230 0.000000 0.000001 -0.644516 -0.001319 -1.090214
    16 11.139763 0.000000 0.000000 0.000000 0.000000 -1.630890
    17 10.314597 0.000001 0.000000 -0.172447 -0.528729 0.398578
    18 2.975834 -0.386307 -0.044143 -0.021506 -0.037954 0.497588
    19 1.438886 0.000000 0.000000 0.000000 0.000000 0.889650
    20 1.485303 0.000000 0.000000 0.000000 0.000000 1.116422
    21 -3.065217 0.884022 -4.140396 -0.000013 1.322746 2.844176
    22 4.972048 0.000000 0.000001 0.775932 -1.121588 -1.156951
    23 11.585355 0.000000 0.000000 0.000000 0.000000 -1.867212
    24 10.127057 0.000000 0.000001 1.569752 0.000000 -0.069778
    25 2.683750 -0.427338 0.044205 -0.005786 0.043239 -0.157091
    26 1.438885 -0.000001 0.000000 0.000000 0.000000 0.732658
    27 1.485305 0.000001 0.000000 0.000000 0.000000 1.168770
    28 1.038631 0.548043 -0.144017 -0.000001 0.000001 -1.849906
    29 -0.064003 -0.023521 0.026161 0.000000 0.000000 0.000000
    30 3.013925 3.984634 -0.088975 -0.000001 0.000001 -1.849906
    31 -0.084188 -0.025627 -0.001098 0.000000 0.000000 0.000000
    32 4.778187 3.972486 -0.079803 -0.000001 0.000001 -1.849906
    33 -0.058556 -0.021324 0.004244 0.000000 0.000000 0.000000
    34 1.640598 -1.968779 -0.099219 -0.000001 0.000001 -1.849906
    35 0.055573 -0.028908 0.000000 0.000000 0.000000 0.000000
    36 1.646738 0.449549 -1.702246 0.441914 0.155087 1.184542
    37 0.928312 0.000000 -0.000002 0.000000 0.000000 0.000000
    38 0.928314 0.000000 0.000001 0.000000 0.000000 0.000000
    39 1.533672 0.109715 1.664491 -0.264755 -0.055959 0.783109
    40 0.928313 0.000000 0.000000 0.000000 0.000000 -0.453556
    41 0.928314 0.000000 0.000001 0.000000 0.000000 0.000000
  time 7
    0 0.235347 0.367732 -14.514592 0.000000 0.270322 -1.570874
    1 0.000000 0.000000 0.000000 -1.570795 -1.570796 0.000000
    2 -0.000005 0.000007 3.713255 2.914525 6.061903 1.331528
    3 18.045721 0.000000 0.000000 0.000000 0.000000 -1.349242
    4 17.597597 0.000000 0.000000 -0.205057 0.225938 -0.216505
    5 0.000005 -0.000003 -3.713255 -0.067002 -3.740518 -0.837425
    6 18.045725 0.000000 0.000000 0.000000 0.000000 -2.074647
    7 17.597597 0.000000 0.000000 -0.092081 0.087821 0.559948
    8 1.293670 0.684478 -0.000001 -0.000004 -0.000001 0.009520
    9 5.309685 -0.003834 0.000000 -0.156851 -0.006687 -0.043085
    10 4.826790 -0.004591 0.000000 -0.060968 -0.003140 -0.052243
    11 5.792767 -0.005304 0.000000 -0.087180 -0.002157 -0.025493
    12 6.662317 -0.001453 0.000000 0.000000 -0.000001 0.296580
    13 2.046985 -0.000002 0.000000 0.289474 0.097377 -0.526908
    14 -3.326874 0.954737 4.341911 0.870706 -1.143232 2.020346
    15 4.827230 0.000000 0.000001 -0.631417 -0.011446 -1.091176
    16 11.139763 0.000000 0.000000 0.000000 0.000000 -1.630890
    17 10.314597 0.000001 0.000000 -0.172447 -0.528729 0.398578
    18 2.975834 -0.386307 -0.044143 -0.021506 -0.037954 0.497588
    19 1.438886 0.000000 0.000000 0.000000 0.000000 0.889650
    20 1.485303 0.000000 0.000000 0.000000 0.000000 1.116422
    21 -3.065217 0.884022 -4.140396 -0.000013 1.312260 2.844176
    22 4.972048 0.000000 0.000001 0.756980 -1.114429 -1.140681
    23 11.585355 0.000000 0.000000 0.000000 0.000000 -1.867212
    24 10.127057 0.000000 0.000001 1.569752 0.000000 -0.069778
    25 2.683750 -0.427338 0.044205 -0.005786 0.043239 -0.157091
    26 1.438885 -0.000001 0.000000 0.000000 0.000000 0.732658
    27 1.485305 0.000001 0.000000 0.000000 0.000000 1.168770
    28 1.038631 0.548043 -0.144017 -0.000001 0.000001 -1.849906
    29 -0.064003 -0.023521 0.026161 0.000000 0.000000 0.000000
    30 3.013925 3.984634 -0.088975 -0.000001 0.000001 -1.849906
    31 -0.084188 -0.025627 -0.001098 0.000000 0.000000 0.000000
    32 4.778187 3.972486 -0.079803 -0.000001 0.000001 -1.849906
    33 -0.058556 -0.021324 0.004244 0.000000 0.000000 0.000000
    34 1.640598 -1.968779 -0.099219 -0.000001 0.000001 -1.849906
    35 0.055573 -0.028908 0.000000 0.000000 0.000000 0.000000
    36 1.646738 0.449549 -1.702246 0.441914 0.155087 1.184542
    37 0.928312 0.000000 -0.000002 0.000000 0.000000 0.000000
    38 0.928314 0.000000 0.000001 0.000000 0.000000 0.000000
    39 1.533672 0.109715 1.664491 -0.264755 -0.055959 0.783109
    40 0.928313 0.000000 0.000000 0.000000 0.000000 -0.453556
    41 0.928314 0.000000 0.000001 0.000000 0.000000 0.000000
  time 8
    0 0.235347 0.367732 -14.514592 0.000000 0.270322 -1.570874
    1 0.000000 0.000000 0.000000 -1.570795 -1.570796 0.000000
    2 -0.000005 0.000007 3.713255 2.914525 6.061903 1.331528
    3 18.045721 0.000000 0.000000 0.000000 0.000000 -1.349242
    4 17.597597 0.000000 0.000000 -0.205057 0.225938 -0.216505
    5 0.000005 -0.000003 -3.713255 -0.067002 -3.740518 -0.837425
    6 18.045725 0.000000 0.000000 0.000000 0.000000 -2.074647
    7 17.597597 0.000000 0.000000 -0.092081 0.087821 0.559948
    8 1.293670 0.684478 -0.000001 -0.000004 -0.000001 0.009520
    9 5.309685 -0.003834 0.000000 -0.156851 -0.006687 -0.043085
    10 4.826790 -0.004591 0.000000 -0.060968 -0.003140 -0.052243
    11 5.792767 -0.005304 0.000000 -0.087197 -0.001882 -0.022317
    12 6.662317 -0.001453 0.000000 0.000000 -0.000001 0.296580
    13 2.046985 -0.000002 0.000000 0.289474 0.097377 -0.530100
    14 -3.326874 0.954737 4.341911 0.845779 -1.133308 2.047766
    15 4.827230 0.000000 0.000001 -0.618378 -0.021488 -1.092226
    16 11.139763 0.000000 0.000000 0.000000 0.000000 -1.630890
    17 10.314597 0.000001 0.000000 -0.172447 -0.528729 0.398578
    18 2.975834 -0.386307 -0.044143 -0.021506 -0.037954 0.497588
    19 1.438886 0.000000 0.000000 0.000000 0.000000 0.889650
    20 1.485303 0.000000 0.000000 0.000000 0.000000 1.116422
    21 -3.065217 0.884022 -4.140396 -0.000013 1.301859 2.844176
    22 4.972048 0.000000 0.000001 0.738725 -1.107270 -1.125201
    23 11.585355 0.000000 0.000000 0.000000 0.000000 -1.867212
    24 10.127057 0.000000 0.000001 1.569752 0.000000 -0.069778
    25 2.683750 -0.427338 0.044205 -0.005786 0.043239 -0.157091
    26 1.438885 -0.000001 0.000000 0.000000 0.000000 0.732658
    27 1.485305 0.000001 0.000000 0.000000 0.000000 1.168770
    28 1.038631 0.548043 -0.144017 -0.000001 0.000001 -1.849906
    29 -0.064003 -0.023521 0.026161 0.000000 0.000000 0.000000
    30 3.013925 3.984634 -0.088975 -0.000001 0.000001 -1.849906
    31 -0.084188 -0.025627 -0.001098 0.000000 0.000000 0.000000
    32 4.778187 3.972486 -0.079803 -0.000001 0.000001 -1.849906
    33 -0.058556 -0.021324 0.004244 0.000000 0.000000 0.000000
    34 1.640598 -1.968779 -0.099219 -0.000001 0.000001 -1.849906
    35 0.055573 -0.028908 0.000000 0.000000 0.000000 0.000000
    36 1.646738 0.449549 -1.702246 0.441914 0.155087 1.184542
    37 0.928312 0.000000 -0.000002 0.000000 0.000000 0.000000
    38 0.928314 0.000000 0.000001 0.000000 0.000000 0.000000
    39 1.533672 0.109715 1.664491 -0.264755 -0.055959 0.783109
    40 0.928313 0.000000 0.000000 0.000000 0.000000 -0.453556
    41 0.928314 0.000000 0.000001 0.000000 0.000000 0.000000
  time 9
    0 0.235347 0.367732 -14.514592 0.000000 0.270322 -1.570874
    1 0.000000 0.000000 0.000000 -1.570795 -1.570796 0.000000
    2 -0.000005 0.000007 3.713255 2.914525 6.061903 1.331528
    3 18.045721 0.000000 0.000000 0.000000 0.000000 -1.349242
    4 17.597597 0.000000 0.000000 -0.205057 0.225938 -0.216505
    5 0.000005 -0.000003 -3.713255 -0.067002 -3.740518 -0.837425
    6 18.045725 0.000000 0.000000 0.000000 0.000000 -2.074647
    7 17.597597 0.000000 0.000000 -0.092081 0.087821 0.559948
    8 1.293670 0.684478 -0.000001 -0.000004 -0.000001 0.009520
    9 5.309685 -0.003834 0.000000 -0.156851 -0.006687 -0.043085
    10 4.826790 -0.004591 0.000000 -0.060968 -0.003140 -0.052243
    11 5.792767 -0.005304 0.000000 -0.087197 -0.001606 -0.019244
    12 6.662317 -0.001453 0.000000 0.000000 -0.000001 0.296580
    13 2.046985 -0.000002 0.000000 0.289474 0.097377 -0.533156
    14 -3.326874 0.954737 4.341911 0.822961 -1.123499 2.072982
    15 4.827230 0.000000 0.000001 -0.605808 -0.031104 -1.093452
    16 11.139763 0.000000 0.000000 0.000000 0.000000 -1.630890
    17 10.314597 0.000001 0.000000 -0.172447 -0.528729 0.398578
    18 2.975834 -0.386307 -0.044143 -0.021506 -0.037954 0.497588
    19 1.438886 0.000000 0.000000 0.000000 0.000000 0.889650
    20 1.485303 0.000000 0.000000 0.000000 0.000000 1.116422
    21 -3.065217 0.884022 -4.140396 -0.000013 1.291882 2.844176
    22 4.972048 0.000000 0.000001 0.721707 -1.100191 -1.110840
    23 11.585355 0.000000 0.000000 0.000000 0.000000 -1.867212
    24 10.127057 0.000000 0.000001 1.569752 0.000000 -0.069778
    25 2.683750 -0.427338 0.044205 -0.005786 0.043239 -0.157091
    26 1.438885 -0.000001 0.000000 0.000000 0.000000 0.732658
    27 1.485305 0.000001 0.000000 0.000000 0.000000 1.168770
    28 1.038631 0.548043 -0.144017 -0.000001 0.000001 -1.849906
    29 -0.064003 -0.023521 0.026161 0.000000 0.000000 0.000000
    30 3.013925 3.984634 -0.088975 -0.000001 0.000001 -1.849906
    31 -0.084188 -0.025627 -0.001098 0.000000 0.000000 0.000000
    32 4.778187 3.972486 -0.079803 -0.000001 0.000001 -1.849906
    33 -0.058556 -0.021324 0.004244 0.000000 0.000000 0.000000
    34 1.640598 -1.968779 -0.099219 -0.000001 0.000001 -1.849906
    35 0.055573 -0.028908 0.000000 0.000000 0.000000 0.000000
    36 1.646738 0.449549 -1.702246 0.441914 0.155087 1.184542
    37 0.928312 0.000000 -0.000002 0.000000 0.000000 0.000000
    38 0.928314 0.000000 0.000001 0.000000 0.000000 0.000000
    39 1.533672 0.109715 1.664491 -0.264755 -0.055959 0.783109
    40 0.928313 0.000000 0.000000 0.000000 0.000000 -0.453556
    41 0.928314 0.000000 0.000001 0.000000 0.000000 0.000000
  time 10
    0 0.235347 0.367732 -14.514592 0.000000 0.270322 -1.570874
    1 0.000000 0.000000 0.000000 -1.570795 -1.570796 0.000000
    2 -0.000005 0.000007 3.713255 2.914525 6.061903 1.331528
    3 18.045721 0.000000 0.000000 0.000000 0.000000 -1.349242
    4 17.597597 0.000000 0.000000 -0.205057 0.225938 -0.216505
    5 0.000005 -0.000003 -3.713255 -0.067002 -3.740518 -0.837425
    6 18.045725 0.000000 0.000000 0.000000 0.000000 -2.074647
    7 17.597597 0.000000 0.000000 -0.092081 0.087821 0.559948
    8 1.293670 0.684478 -0.000001 -0.000004 -0.000001 0.009520
    9 5.309685 -0.003834 0.000000 -0.156851 -0.006687 -0.043085
    10 4.826790 -0.004591 0.000000 -0.060968 -0.003140 -0.052243
    11 5.792767 -0.005304 0.000000 -0.087197 -0.001354 -0.016399
    12 6.662317 -0.001453 0.000000 0.000000 -0.000001 0.296580
    13 2.046985 -0.000002 0.000000 0.289474 0.097377 -0.536033
    14 -3.326874 0.954737 4.341911 0.802731 -1.114190 2.095513
    15 4.827230 0.000000 0.000001 -0.594120 -0.040040 -1.094677
    16 11.139763 0.000000 0.000000 0.000000 0.000000 -1.630890
    17 10.314597 0.000001 0.000000 -0.172447 -0.528729 0.398578
    18 2.975834 -0.386307 -0.044143 -0.021506 -0.037954 0.497588
    19 1.438886 0.000000 0.000000 0.000000 0.000000 0.889650
    20 1.485303 0.000000 0.000000 0.000000 0.000000 1.116422
    21 -3.065217 0.884022 -4.140396 -0.000013 1.282611 2.844176
    22 4.972048 0.000000 0.000001 0.706236 -1.093595 -1.097864
    23 11.585355 0.000000 0.000000 0.000000 0.000000 -1.867212
    24 10.127057 0.000000 0.000001 1.569752 0.000000 -0.069778
    25 2.683750 -0.427338 0.044205 -0.005786 0.043239 -0.157091
    26 1.438885 -0.000001 0.000000 0.000000 0.000000 0.732658
    27 1.485305 0.000001 0.000000 0.000000 0.000000 1.168770
    28 1.038631 0.548043 -0.144017 -0.000001 0.000001 -1.849906
    29 -0.064003 -0.023521 0.026161 0.000000 0.000000 0.000000
    30 3.013925 3.984634 -0.088975 -0.000001 0.000001 -1.849906
    31 -0.084188 -0.025627 -0.001098 0.000000 0.000000 0.000000
    32 4.778187 3.972486 -0.079803 -0.000001 0.000001 -1.849906
    33 -0.058556 -0.021324 0.004244 0.000000 0.000000 0.000000
    34 1.640598 -1.968779 -0.099219 -0.000001 0.000001 -1.849906
    35 0.055573 -0.028908 0.000000 0.000000 0.000000 0.000000
    36 1.646738 0.449549 -1.702246 0.441914 0.155087 1.184542
    37 0.928312 0.000000 -0.000002 0.000000 0.000000 0.000000
    38 0.928314 0.000000 0.000001 0.000000 0.000000 0.000000
    39 1.533672 0.109715 1.664491 -0.264755 -0.055959 0.783109
    40 0.928313 0.000000 0.000000 0.000000 0.000000 -0.453556
    41 0.928314 0.000000 0.000001 0.000000 0.000000 0.000000
  time 11
    0 0.235347 0.367732 -14.514592 0.000000 0.270322 -1.570874
    1 0.000000 0.000000 0.000000 -1.570795 -1.570796 0.000000
    2 -0.000005 0.000007 3.713255 2.914525 6.061903 1.331528
    3 18.045721 0.000000 0.000000 0.000000 0.000000 -1.349242
    4 17.597597 0.000000 0.000000 -0.205057 0.225938 -0.216505
    5 0.000005 -0.000003 -3.713255 -0.067002 -3.740518 -0.837425
    6 18.045725 0.000000 0.000000 0.000000 0.000000 -2.074647
    7 17.597597 0.000000 0.000000 -0.092081 0.087821 0.559948
    8 1.293670 0.684478 -0.000001 -0.000004 -0.000001 0.009520
    9 5.309685 -0.003834 0.000000 -0.156851 -0.006687 -0.043085
    10 4.826790 -0.004591 0.000000 -0.060968 -0.003140 -0.052243
    11 5.792767 -0.005304 0.000000 -0.087213 -0.001139 -0.013866
    12 6.662317 -0.001453 0.000000 0.000000 -0.000001 0.296580
    13 2.046985 -0.000002 0.000000 0.289474 0.097377 -0.538550
    14 -3.326874 0.954737 4.341911 0.785378 -1.105728 2.114880
    15 4.827230 0.000000 0.000001 -0.583724 -0.047954 -1.095989
    16 11.139763 0.000000 0.000000 0.000000 0.000000 -1.630890
    17 10.314597 0.000001 0.000000 -0.172447 -0.528729 0.398578
    18 2.975834 -0.386307 -0.044143 -0.021506 -0.037954 0.497588
    19 1.438886 0.000000 0.000000 0.000000 0.000000 0.889650
    20 1.485303 0.000000 0.000000 0.000000 0.000000 1.116422
    21 -3.065217 0.884022 -4.140396 -0.000013 1.274358 2.844176
    22 4.972048 0.000000 0.000001 0.692776 -1.087642 -1.086665
    23 11.585355 0.000000 0.000000 0.000000 0.000000 -1.867212
    24 10.127057 0.000000 0.000001 1.569752 0.000000 -0.069778
    25 2.683750 -0.427338 0.044205 -0.005786 0.043239 -0.157091
    26 1.438885 -0.000001 0.000000 0.000000 0.000000 0.732658
    27 1.485305 0.000001 0.000000 0.000000 0.000000 1.168770
    28 1.038631 0.548043 -0.144017 -0.000001 0.000001 -1.849906
    29 -0.064003 -0.023521 0.026161 0.000000 0.000000 0.000000
    30 3.013925 3.984634 -0.088975 -0.000001 0.000001 -1.849906
    31 -0.084188 -0.025627 -0.001098 0.000000 0.000000 0.000000
    32 4.778187 3.972486 -0.079803 -0.000001 0.000001 -1.849906
    33 -0.058556 -0.021324 0.004244 0.000000 0.000000 0.000000
    34 1.640598 -1.968779 -0.099219 -0.000001 0.000001 -1.849906
    35 0.055573 -0.028908 0.000000 0.000000 0.000000 0.000000
    36 1.646738 0.449549 -1.702246 0.441914 0.155087 1.184542
    37 0.928312 0.000000 -0.000002 0.000000 0.000000 0.000000
    38 0.928314 0.000000 0.000001 0.000000 0.000000 0.000000
    39 1.533672 0.109715 1.664491 -0.264755 -0.055959 0.783109
    40 0.928313 0.000000 0.000000 0.000000 0.000000 -0.453556
    41 0.928314 0.000000 0.000001 0.000000 0.000000 0.000000
  time 12
    0 0.235347 0.367732 -14.514592 0.000000 0.270322 -1.570874
    1 0.000000 0.000000 0.000000 -1.570795 -1.570796 0.000000
    2 -0.000005 0.000007 3.713255 2.914525 6.061903 1.331528
    3 18.045721 0.000000 0.000000 0.000000 0.000000 -1.349242
    4 17.597597 0.000000 0.000000 -0.205057 0.225938 -0.216505
    5 0.000005 -0.000003 -3.713255 -0.067002 -3.740518 -0.837425
    6 18.045725 0.000000 0.000000 0.000000 0.000000 -2.074647
    7 17.597597 0.000000 0.000000 -0.092081 0.087821 0.559948
    8 1.293670 0.684478 -0.000001 -0.000004 -0.000001 0.009520
    9 5.309685 -0.003834 0.000000 -0.156851 -0.006687 -0.043085
    10 4.826790 -0.004591 0.000000 -0.060968 -0.003140 -0.052243
    11 5.792767 -0.005304 0.000000 -0.087213 -0.000947 -0.011748
    12 6.662317 -0.001453 0.000000 0.000000 -0.000001 0.296580
    13 2.046985 -0.000002 0.000000 0.289474 0.097377 -0.540707
    14 -3.326874 0.954737 4.341911 0.771285 -1.098496 2.130699
    15 4.827230 0.000000 0.000001 -0.574913 -0.054592 -1.097127
    16 11.139763 0.000000 0.000000 0.000000 0.000000 -1.630890
    17 10.314597 0.000001 0.000000 -0.172447 -0.528729 0.398578
    18 2.975834 -0.386307 -0.044143 -0.021506 -0.037954 0.497588
    19 1.438886 0.000000 0.000000 0.000000 0.000000 0.889650
    20 1.485303 0.000000 0.000000 0.000000 0.000000 1.116422
    21 -3.065217 0.884022 -4.140396 -0.000013 1.267405 2.844176
    22 4.972048 0.000000 0.000001 0.681714 -1.082574 -1.077509
    23 11.585355 0.000000 0.000000 0.000000 0.000000 -1.867212
    24 10.127057 0.000000 0.000001 1.569752 0.000000 -0.069778
    25 2.683750 -0.427338 0.044205 -0.005786 0.043239 -0.157091
    26 1.438885 -0.000001 0.000000 0.000000 0.000000 0.732658
    27 1.485305 0.000001 0.000000 0.000000 0.000000 1.168770
    28 1.038631 0.548043 -0.144017 -0.000001 0.000001 -1.849906
    29 -0.064003 -0.023521 0.026161 0.000000 0.000000 0.000000
    30 3.013925 3.984634 -0.088975 -0.000001 0.000001 -1.849906
    31 -0.084188 -0.025627 -0.001098 0.000000 0.000000 0.000000
    32 4.778187 3.972486 -0.079803 -0.000001 0.000001 -1.849906
    33 -0.058556 -0.021324 0.004244 0.000000 0.000000 0.000000
    34 1.640598 -1.968779 -0.099219 -0.000001 0.000001 -1.849906
    35 0.055573 -0.028908 0.000000 0.000000 0.000000 0.000000
    36 1.646738 0.449549 -1.702246 0.441914 0.155087 1.184542
    37 0.928312 0.000000 -0.000002 0.000000 0.000000 0.000000
    38 0.928314 0.000000 0.000001 0.000000 0.000000 0.000000
    39 1.533672 0.109715 1.664491 -0.264755 -0.055959 0.783109
    40 0.928313 0.000000 0.000000 0.000000 0.000000 -0.453556
    41 0.928314 0.000000 0.000001 0.000000 0.000000 0.000000
  time 13
    0 0.235347 0.367732 -14.514592 0.000000 0.270322 -1.570874
    1 0.000000 0.000000 0.000000 -1.570795 -1.570796 0.000000
    2 -0.000005 0.000007 3.713255 2.914525 6.061903 1.331528
    3 18.045721 0.000000 0.000000 0.000000 0.000000 -1.349242
    4 17.597597 0.000000 0.000000 -0.205057 0.225938 -0.216505
    5 0.000005 -0.000003 -3.713255 -0.067002 -3.740518 -0.837425
    6 18.045725 0.000000 0.000000 0.000000 0.000000 -2.074647
    7 17.597597 0.000000 0.000000 -0.092081 0.087821 0.559948
    8 1.293670 0.684478 -0.000001 -0.000004 -0.000001 0.009520
    9 5.309685 -0.003834 0.000000 -0.156851 -0.006687 -0.043085
    10 4.826790 -0.004591 0.000000 -0.060968 -0.003140 -0.052243
    11 5.792767 -0.005304 0.000000 -0.087213 -0.000815 -0.010108
    12 6.662317 -0.001453 0.000000 0.000000 -0.000001 0.296580
    13 2.046985 -0.000002 0.000000 0.289474 0.097377 -0.542370
    14 -3.326874 0.954737 4.341911 0.760739 -1.092842 2.142588
    15 4.827230 0.000000 0.000001 -0.568158 -0.059698 -1.098002
    16 11.139763 0.000000 0.000000 0.000000 0.000000 -1.630890
    17 10.314597 0.000001 0.000000 -0.172447 -0.528729 0.398578
    18 2.975834 -0.386307 -0.044143 -0.021506 -0.037954 0.497588
    19 1.438886 0.000000 0.000000 0.000000 0.000000 0.889650
    20 1.485303 0.000000 0.000000 0.000000 0.000000 1.116422
    21 -3.065217 0.884022 -4.140396 -0.000013 1.262063 2.844176
    22 4.972048 0.000000 0.000001 0.673283 -1.078633 -1.070592
    23 11.585355 0.000000 0.000000 0.000000 0.000000 -1.867212
    24 10.127057 0.000000 0.000001 1.569752 0.000000 -0.069778
    25 2.683750 -0.427338 0.044205 -0.005786 0.043239 -0.157091
    26 1.438885 -0.000001 0.000000 0.000000 0.000000 0.732658
    27 1.485305 0.000001 0.000000 0.000000 0.000000 1.168770
    28 1.038631 0.548043 -0.144017 -0.000001 0.000001 -1.849906
    29 -0.064003 -0.023521 0.026161 0.000000 0.000000 0.000000
    30 3.013925 3.984634 -0.088975 -0.000001 0.000001 -1.849906
    31 -0.084188 -0.025627 -0.001098 0.000000 0.000000 0.000000
    32 4.778187 3.972486 -0.079803 -0.000001 0.000001 -1.849906
    33 -0.058556 -0.021324 0.004244 0.000000 0.000000 0.000000
    34 1.640598 -1.968779 -0.099219 -0.000001 0.000001 -1.849906
    35 0.055573 -0.028908 0.000000 0.000000 0.000000 0.000000
    36 1.646738 0.449549 -1.702246 0.441914 0.155087 1.184542
    37 0.928312 0.000000 -0.000002 0.000000 0.000000 0.000000
    38 0.928314 0.000000 0.000001 0.000000 0.000000 0.000000
    39 1.533672 0.109715 1.664491 -0.264755 -0.055959 0.783109
    40 0.928313 0.000000 0.000000 0.000000 0.000000 -0.453556
    41 0.928314 0.000000 0.000001 0.000000 0.000000 0.000000
  time 14
    0 0.235347 0.367732 -14.514592 0.000000 0.270322 -1.570874
    1 0.000000 0.000000 0.000000 -1.570795 -1.570796 0.000000
    2 -0.000005 0.000007 3.713255 2.914525 6.061903 1.331528
    3 18.045721 0.000000 0.000000 0.000000 0.000000 -1.349242
    4 17.597597 0.000000 0.000000 -0.205057 0.225938 -0.216505
    5 0.000005 -0.000003 -3.713255 -0.067002 -3.740518 -0.837425
    6 18.045725 0.000000 0.000000 0.000000 0.000000 -2.074647
    7 17.597597 0.000000 0.000000 -0.092081 0.087821 0.559948
    8 1.293670 0.684478 -0.000001 -0.000004 -0.000001 0.009520
    9 5.309685 -0.003834 0.000000 -0.156851 -0.006687 -0.043085
    10 4.826790 -0.004591 0.000000 -0.060968 -0.003140 -0.052243
    11 5.792767 -0.005304 0.000000 -0.087213 -0.000719 -0.009049
    12 6.662317 -0.001453 0.000000 0.000000 -0.000001 0.296580
    13 2.046985 -0.000002 0.000000 0.289474 0.097377 -0.543404
    14 -3.326874 0.954737 4.341911 0.754124 -1.089226 2.149970
    15 4.827230 0.000000 0.000001 -0.563812 -0.063017 -1.098615
    16 11.139763 0.000000 0.000000 0.000000 0.000000 -1.630890
    17 10.314597 0.000001 0.000000 -0.172447 -0.528729 0.398578
    18 2.975834 -0.386307 -0.044143 -0.021506 -0.037954 0.497588
    19 1.438886 0.000000 0.000000 0.000000 0.000000 0.889650
    20 1.485303 0.000000 0.000000 0.000000 0.000000 1.116422
    21 -3.065217 0.884022 -4.140396 -0.000013 1.258643 2.844176
    22 4.972048 0.000000 0.000001 0.667945 -1.076139 -1.066245
    23 11.585355 0.000000 0.000000 0.000000 0.000000 -1.867212
    24 10.127057 0.000000 0.000001 1.569752 0.000000 -0.069778
    25 2.683750 -0.427338 0.044205 -0.005786 0.043239 -0.157091
    26 1.438885 -0.000001 0.000000 0.000000 0.000000 0.732658
    27 1.485305 0.000001 0.000000 0.000000 0.000000 1.168770
    28 1.038631 0.548043 -0.144017 -0.000001 0.000001 -1.849906
    29 -0.064003 -0.023521 0.026161 0.000000 0.000000 0.000000
    30 3.013925 3.984634 -0.088975 -0.000001 0.000001 -1.849906
    31 -0.084188 -0.025627 -0.001098 0.000000 0.000000 0.000000
    32 4.778187 3.972486 -0.079803 -0.000001 0.000001 -1.849906
    33 -0.058556 -0.021324 0.004244 0.000000 0.000000 0.000000
    34 1.640598 -1.968779 -0.099219 -0.000001 0.000001 -1.849906
    35 0.055573 -0.028908 0.000000 0.000000 0.000000 0.000000
    36 1.646738 0.449549 -1.702246 0.441914 0.155087 1.184542
    37 0.928312 0.000000 -0.000002 0.000000 0.000000 0.000000
    38 0.928314 0.000000 0.000001 0.000000 0.000000 0.000000
    39 1.533672 0.109715 1.664491 -0.264755 -0.055959 0.783109
    40 0.928313 0.000000 0.000000 0.000000 0.000000 -0.453556
    41 0.928314 0.000000 0.000001 0.000000 0.000000 0.000000
  time 15
    0 0.235347 0.367732 -14.514592 0.000000 0.270322 -1.570874
    1 0.000000 0.000000 0.000000 -1.570795 -1.570796 0.000000
    2 -0.000005 0.000007 3.713255 2.914525 6.061903 1.331528
    3 18.045721 0.000000 0.000000 0.000000 0.000000 -1.349242
    4 17.597597 0.000000 0.000000 -0.205057 0.225938 -0.216505
    5 0.000005 -0.000003 -3.713255 -0.067002 -3.740518 -0.837425
    6 18.045725 0.000000 0.000000 0.000000 0.000000 -2.074647
    7 17.597597 0.000000 0.000000 -0.092081 0.087821 0.559948
    8 1.293670 0.684478 -0.000001 -0.000004 -0.000001 0.009520
    9 5.309685 -0.003834 0.000000 -0.156851 -0.006687 -0.043085
    10 4.826790 -0.004591 0.000000 -0.060968 -0.003140 -0.052243
    11 5.792767 -0.005304 0.000000 -0.087213 -0.000683 -0.008676
    12 6.662317 -0.001453 0.000000 0.000000 -0.000001 0.296580
    13 2.046985 -0.000002 0.000000 0.289474 0.097377 -0.543764
    14 -3.326874 0.954737 4.341911 0.751823 -1.087918 2.152559
    15 4.827230 0.000000 0.000001 -0.562285 -0.064124 -1.098877
    16 11.139763 0.000000 0.000000 0.000000 0.000000 -1.630890
    17 10.314597 0.000001 0.000000 -0.172447 -0.528729 0.398578
    18 2.975834 -0.386307 -0.044143 -0.021506 -0.037954 0.497588
    19 1.438886 0.000000 0.000000 0.000000 0.000000 0.889650
    20 1.485303 0.000000 0.000000 0.000000 0.000000 1.116422
    21 -3.065217 0.884022 -4.140396 -0.000013 1.257428 2.844176
    22 4.972048 0.000000 0.000001 0.666089 -1.075254 -1.064664
    23 11.585355 0.000000 0.000000 0.000000 0.000000 -1.867212
    24 10.127057 0.000000 0.000001 1.569752 0.000000 -0.069778
    25 2.683750 -0.427338 0.044205 -0.005786 0.043239 -0.157091
    26 1.438885 -0.000001 0.000000 0.000000 0.000000 0.732658
    27 1.485305 0.000001 0.000000 0.000000 0.000000 1.168770
    28 1.038631 0.548043 -0.144017 -0.000001 0.000001 -1.849906
    29 -0.064003 -0.023521 0.026161 0.000000 0.000000 0.000000
    30 3.013925 3.984634 -0.088975 -0.000001 0.000001 -1.849906
    31 -0.084188 -0.025627 -0.001098 0.000000 0.000000 0.000000
    32 4.778187 3.972486 -0.079803 -0.000001 0.000001 -1.849906
    33 -0.058556 -0.021324 0.004244 0.000000 0.000000 0.000000
    34 1.640598 -1.968779 -0.099219 -0.000001 0.000001 -1.849906
    35 0.055573 -0.028908 0.000000 0.000000 0.000000 0.000000
    36 1.646738 0.449549 -1.702246 0.441914 0.155087 1.184542
    37 0.928312 0.000000 -0.000002 0.000000 0.000000 0.000000
    38 0.928314 0.000000 0.000001 0.000000 0.000000 0.000000
    39 1.533672 0.109715 1.664491 -0.264755 -0.055959 0.783109
    40 0.928313 0.000000 0.000000 0.000000 0.000000 -0.453556
    41 0.928314 0.000000 0.000001 0.000000 0.000000 0.000000
  time 16
    0 0.235347 0.367732 -14.514592 0.000000 0.270322 -1.570874
    1 0.000000 0.000000 0.000000 -1.570795 -1.570796 0.000000
    2 -0.000005 0.000007 3.713255 2.914525 6.061903 1.331528
    3 18.045721 0.000000 0.000000 0.000000 0.000000 -1.349242
    4 17.597597 0.000000 0.000000 -0.205057 0.225938 -0.216505
    5 0.000005 -0.000003 -3.713255 -0.067002 -3.740518 -0.837425
    6 18.045725 0.000000 0.000000 0.000000 0.000000 -2.074647
    7 17.597597 0.000000 0.000000 -0.092081 0.087821 0.559948
    8 1.293670 0.684478 -0.000001 -0.000004 -0.000001 0.009520
    9 5.309685 -0.003834 0.000000 -0.156851 -0.006687 -0.043085
    10 4.826790 -0.004591 0.000000 -0.060968 -0.003140 -0.052243
    11 5.792767 -0.005304 0.000000 -0.087213 -0.000719 -0.009049
    12 6.662317 -0.001453 0.000000 0.000000 -0.000001 0.296580
    13 2.046985 -0.000002 0.000000 0.289474 0.097377 -0.543404
    14 -3.326874 0.954737 4.341911 0.754124 -1.089226 2.149970
    15 4.827230 0.000000 0.000001 -0.563812 -0.063017 -1.098615
    16 11.139763 0.000000 0.000000 0.000000 0.000000 -1.630890
    17 10.314597 0.000001 0.000000 -0.172447 -0.528729 0.398578
    18 2.975834 -0.386307 -0.044143 -0.021506 -0.037954 0.497588
    19 1.438886 0.000000 0.000000 0.000000 0.000000 0.889650
    20 1.485303 0.000000 0.000000 0.000000 0.000000 1.116422
    21 -3.065217 0.884022 -4.140396 -0.000013 1.258643 2.844176
    22 4.972048 0.000000 0.000001 0.667945 -1.076139 -1.066245
    23 11.585355 0.000000 0.000000 0.000000 0.000000 -1.867212
    24 10.127057 0.000000 0.000001 1.569752 0.000000 -0.069778
    25 2.683750 -0.427338 0.044205 -0.005786 0.043239 -0.157091
    26 1.438885 -0.000001 0.000000 0.000000 0.000000 0.732658
    27 1.485305 0.000001 0.000000 0.000000 0.000000 1.168770
    28 1.038631 0.548043 -0.144017 -0.000001 0.000001 -1.849906
    29 -0.064003 -0.023521 0.026161 0.000000 0.000000 0.000000
    30 3.013925 3.984634 -0.088975 -0.000001 0.000001 -1.849906
    31 -0.084188 -0.025627 -0.001098 0.000000 0.000000 0.000000
    32 4.778187 3.972486 -0.079803 -0.000001 0.000001 -1.849906
    33 -0.058556 -0.021324 0.004244 0.000000 0.000000 0.000000
    34 1.640598 -1.968779 -0.099219 -0.000001 0.000001 -1.849906
    35 0.055573 -0.028908 0.000000 0.000000 0.000000 0.000000
    36 1.646738 0.449549 -1.702246 0.441914 0.155087 1.184542
    37 0.928312 0.000000 -0.000002 0.000000 0.000000 0.000000
    38 0.928314 0.000000 0.000001 0.000000 0.000000 0.000000
    39 1.533672 0.109715 1.664491 -0.264755 -0.055959 0.783109
    40 0.928313 0.000000 0.000000 0.000000 0.000000 -0.453556
    41 0.928314 0.000000 0.000001 0.000000 0.000000 0.000000
  time 17
    0 0.235347 0.367732 -14.514592 0.000000 0.270322 -1.570874
    1 0.000000 0.000000 0.000000 -1.570795 -1.570796 0.000000
    2 -0.000005 0.000007 3.713255 2.914525 6.061903 1.331528
    3 18.045721 0.000000 0.000000 0.000000 0.000000 -1.349242
    4 17.597597 0.000000 0.000000 -0.205057 0.225938 -0.216505
    5 0.000005 -0.000003 -3.713255 -0.067002 -3.740518 -0.837425
    6 18.045725 0.000000 0.000000 0.000000 0.000000 -2.074647
    7 17.597597 0.000000 0.000000 -0.092081 0.087821 0.559948
    8 1.293670 0.684478 -0.000001 -0.000004 -0.000001 0.009520
    9 5.309685 -0.003834 0.000000 -0.156851 -0.006687 -0.043085
    10 4.826790 -0.004591 0.000000 -0.060968 -0.003140 -0.052243
    11 5.792767 -0.005304 0.000000 -0.087213 -0.000815 -0.010108
    12 6.662317 -0.001453 0.000000 0.000000 -0.000001 0.296580
    13 2.046985 -0.000002 0.000000 0.289474 0.097377 -0.542370
    14 -3.326874 0.954737 4.341911 0.760739 -1.092842 2.142588
    15 4.827230 0.000000 0.000001 -0.568158 -0.059698 -1.098002
    16 11.139763 0.000000 0.000000 0.000000 0.000000 -1.630890
    17 10.314597 0.000001 0.000000 -0.172447 -0.528729 0.398578
    18 2.975834 -0.386307 -0.044143 -0.021506 -0.037954 0.497588
    19 1.438886 0.000000 0.000000 0.000000 0.000000 0.889650
    20 1.485303 0.000000 0.000000 0.000000 0.000000 1.116422
    21 -3.065217 0.884022 -4.140396 -0.000013 1.262063 2.844176
    22 4.972048 0.000000 0.000001 0.673283 -1.078633 -1.070592
    23 11.585355 0.000000 0.000000 0.000000 0.000000 -1.867212
    24 10.127057 0.000000 0.000001 1.569752 0.000000 -0.069778
    25 2.683750 -0.427338 0.044205 -0.005786 0.043239 -0.157091
    26 1.438885 -0.000001 0.000000 0.000000 0.000000 0.732658
    27 1.485305 0.000001 0.000000 0.000000 0.000000 1.168770
    28 1.038631 0.548043 -0.144017 -0.000001 0.000001 -1.849906
    29 -0.064003 -0.023521 0.026161 0.000000 0.000000 0.000000
    30 3.013925 3.984634 -0.088975 -0.000001 0.000001 -1.849906
    31 -0.084188 -0.025627 -0.001098 0.000000 0.000000 0.000000
    32 4.778187 3.972486 -0.079803 -0.000001 0.000001 -1.849906
    33 -0.058556 -0.021324 0.004244 0.000000 0.000000 0.000000
    34 1.640598 -1.968779 -0.099219 -0.000001 0.000001 -1.849906
    35 0.055573 -0.028908 0.000000 0.000000 0.000000 0.000000
    36 1.646738 0.449549 -1.702246 0.441914 0.155087 1.184542
    37 0.928312 0.000000 -0.000002 0.000000 0.000000 0.000000
    38 0.928314 0.000000 0.000001 0.000000 0.000000 0.000000
    39 1.533672 0.109715 1.664491 -0.264755 -0.055959 0.783109
    40 0.928313 0.000000 0.000000 0.000000 0.000000 -0.453556
    41 0.928314 0.000000 0.000001 0.000000 0.000000 0.000000
  time 18
    0 0.235347 0.367732 -14.514592 0.000000 0.270322 -1.570874
    1 0.000000 0.000000 0.000000 -1.570795 -1.570796 0.000000
    2 -0.000005 0.000007 3.713255 2.914525 6.061903 1.331528
    3 18.045721 0.000000 0.000000 0.000000 0.000000 -1.349242
    4 17.597597 0.000000 0.000000 -0.205057 0.225938 -0.216505
    5 0.000005 -0.000003 -3.713255 -0.067002 -3.740518 -0.837425
    6 18.045725 0.000000 0.000000 0.000000 0.000000 -2.074647
    7 17.597597 0.000000 0.000000 -0.092081 0.087821 0.559948
    8 1.293670 0.684478 -0.000001 -0.000004 -0.000001 0.009520
    9 5.309685 -0.003834 0.000000 -0.156851 -0.006687 -0.043085
    10 4.826790 -0.004591 0.000000 -0.060968 -0.003140 -0.052243
    11 5.792767 -0.005304 0.000000 -0.087213 -0.000947 -0.011748
    12 6.662317 -0.001453 0.000000 0.000000 -0.000001 0.296580
    13 2.046985 -0.000002 0.000000 0.289474 0.097377 -0.540707
    14 -3.326874 0.954737 4.341911 0.771285 -1.098496 2.130699
    15 4.827230 0.000000 0.000001 -0.574913 -0.054592 -1.097127
    16 11.139763 0.000000 0.000000 0.000000 0.000000 -1.630890
    17 10.314597 0.000001 0.000000 -0.172447 -0.528729 0.398578
    18 2.975834 -0.386307 -0.044143 -0.021506 -0.037954 0.497588
    19 1.438886 0.000000 0.000000 0.000000 0.000000 0.889650
    20 1.485303 0.000000 0.000000 0.000000 0.000000 1.116422
    21 -3.065217 0.884022 -4.140396 -0.000013 1.267405 2.844176
    22 4.972048 0.000000 0.000001 0.681714 -1.082574 -1.077509
    23 11.585355 0.000000 0.000000 0.000000 0.000000 -1.867212
    24 10.127057 0.000000 0.000001 1.569752 0.000000 -0.069778
    25 2.683750 -0.427338 0.044205 -0.005786 0.043239 -0.157091
    26 1.438885 -0.000001 0.000000 0.000000 0.000000 0.732658
    27 1.485305 0.000001 0.000000 0.000000 0.000000 1.168770
    28 1.038631 0.548043 -0.144017 -0.000001 0.000001 -1.849906
    29 -0.064003 -0.023521 0.026161 0.000000 0.000000 0.000000
    30 3.013925 3.984634 -0.088975 -0.000001 0.000001 -1.849906
    31 -0.084188 -0.025627 -0.001098 0.000000 0.000000 0.000000
    32 4.778187 3.972486 -0.079803 -0.000001 0.000001 -1.849906
    33 -0.058556 -0.021324 0.004244 0.000000 0.000000 0.000000
    34 1.640598 -1.968779 -0.099219 -0.000001 0.000001 -1.849906
    35 0.055573 -0.028908 0.000000 0.000000 0.000000 0.000000
    36 1.646738 0.449549 -1.702246 0.441914 0.155087 1.184542
    37 0.928312 0.000000 -0.000002 0.000000 0.000000 0.000000
    38 0.928314 0.000000 0.000001 0.000000 0.000000 0.000000
    39 1.533672 0.109715 1.664491 -0.264755 -0.055959 0.783109
    40 0.928313 0.000000 0.000000 0.000000 0.000000 -0.453556
    41 0.928314 0.000000 0.000001 0.000000 0.000000 0.000000
  time 19
    0 0.235347 0.367732 -14.514592 0.000000 0.270322 -1.570874
    1 0.000000 0.000000 0.000000 -1.570795 -1.570796 0.000000
    2 -0.000005 0.000007 3.713255 2.914525 6.061903 1.331528
    3 18.045721 0.000000 0.000000 0.000000 0.000000 -1.349242
    4 17.597597 0.000000 0.000000 -0.205057 0.225938 -0.216505
    5 0.000005 -0.000003 -3.713255 -0.067002 -3.740518 -0.837425
    6 18.045725 0.000000 0.000000 0.000000 0.000000 -2.074647
    7 17.597597 0.000000 0.000000 -0.092081 0.087821 0.559948
    8 1.293670 0.684478 -0.000001 -0.000004 -0.000001 0.009520
    9 5.309685 -0.003834 0.000000 -0.156851 -0.006687 -0.043085
    10 4.826790 -0.004591 0.000000 -0.060968 -0.003140 -0.052243
    11 5.792767 -0.005304 0.000000 -0.087213 -0.001139 -0.013866
    12 6.662317 -0.001453 0.000000 0.000000 -0.000001 0.296580
    13 2.046985 -0.000002 0.000000 0.289474 0.097377 -0.538550
    14 -3.326874 0.954737 4.341911 0.785378 -1.105728 2.114880
    15 4.827230 0.000000 0.000001 -0.583724 -0.047954 -1.095989
    16 11.139763 0.000000 0.000000 0.000000 0.000000 -1.630890
    17 10.314597 0.000001 0.000000 -0.172447 -0.528729 0.398578
    18 2.975834 -0.386307 -0.044143 -0.021506 -0.037954 0.497588
    19 1.438886 0.000000 0.000000 0.000000 0.000000 0.889650
    20 1.485303 0.000000 0.000000 0.000000 0.000000 1.116422
    21 -3.065217 0.884022 -4.140396 -0.000013 1.274358 2.844176
    22 4.972048 0.000000 0.000001 0.692776 -1.087642 -1.086665
    23 11.585355 0.000000 0.000000 0.000000 0.000000 -1.867212
    24 10.127057 0.000000 0.000001 1.569752 0.000000 -0.069778
    25 2.683750 -0.427338 0.044205 -0.005786 0.043239 -0.157091
    26 1.438885 -0.000001 0.000000 0.000000 0.000000 0.732658
    27 1.485305 0.000001 0.000000 0.000000 0.000000 1.168770
    28 1.038631 0.548043 -0.144017 -0.000001 0.000001 -1.849906
    29 -0.064003 -0.023521 0.026161 0.000000 0.000000 0.000000
    30 3.013925 3.984634 -0.088975 -0.000001 0.000001 -1.849906
    31 -0.084188 -0.025627 -0.001098 0.000000 0.000000 0.000000
    32 4.778187 3.972486 -0.079803 -0.000001 0.000001 -1.849906
    33 -0.058556 -0.021324 0.004244 0.000000 0.000000 0.000000
    34 1.640598 -1.968779 -0.099219 -0.000001 0.000001 -1.849906
    35 0.055573 -0.028908 0.000000 0.000000 0.000000 0.000000
    36 1.646738 0.449549 -1.702246 0.441914 0.155087 1.184542
    37 0.928312 0.000000 -0.000002 0.000000 0.000000 0.000000
    38 0.928314 0.000000 0.000001 0.000000 0.000000 0.000000
    39 1.533672 0.109715 1.664491 -0.264755 -0.055959 0.783109
    40 0.928313 0.000000 0.000000 0.000000 0.000000 -0.453556
    41 0.928314 0.000000 0.000001 0.000000 0.000000 0.000000
  time 20
    0 0.235347 0.367732 -14.514592 0.000000 0.270322 -1.570874
    1 0.000000 0.000000 0.000000 -1.570795 -1.570796 0.000000
    2 -0.000005 0.000007 3.713255 2.914525 6.061903 1.331528
    3 18.045721 0.000000 0.000000 0.000000 0.000000 -1.349242
    4 17.597597 0.000000 0.000000 -0.205057 0.225938 -0.216505
    5 0.000005 -0.000003 -3.713255 -0.067002 -3.740518 -0.837425
    6 18.045725 0.000000 0.000000 0.000000 0.000000 -2.074647
    7 17.597597 0.000000 0.000000 -0.092081 0.087821 0.559948
    8 1.293670 0.684478 -0.000001 -0.000004 -0.000001 0.009520
    9 5.309685 -0.003834 0.000000 -0.156851 -0.006687 -0.043085
    10 4.826790 -0.004591 0.000000 -0.060968 -0.003140 -0.052243
    11 5.792767 -0.005304 0.000000 -0.087197 -0.001354 -0.016399
    12 6.662317 -0.001453 0.000000 0.000000 -0.000001 0.296580
    13 2.046985 -0.000002 0.000000 0.289474 0.097377 -0.536033
    14 -3.326874 0.954737 4.341911 0.802731 -1.114190 2.095513
    15 4.827230 0.000000 0.000001 -0.594120 -0.040040 -1.094677
    16 11.139763 0.000000 0.000000 0.000000 0.000000 -1.630890
    17 10.314597 0.000001 0.000000 -0.172447 -0.528729 0.398578
    18 2.975834 -0.386307 -0.044143 -0.021506 -0.037954 0.497588
    19 1.438886 0.000000 0.000000 0.000000 0.000000 0.889650
    20 1.485303 0.000000 0.000000 0.000000 0.000000 1.116422
    21 -3.065217 0.884022 -4.140396 -0.000013 1.282611 2.844176
    22 4.972048 0.000000 0.000001 0.706236 -1.093595 -1.097864
    23 11.585355 0.000000 0.000000 0.000000 0.000000 -1.867212
    24 10.127057 0.000000 0.000001 1.569752 0.000000 -0.069778
    25 2.683750 -0.427338 0.044205 -0.005786 0.043239 -0.157091
    26 1.438885 -0.000001 0.000000 0.000000 0.000000 0.732658
    27 1.485305 0.000001 0.000000 0.000000 0.000000 1.168770
    28 1.038631 0.548043 -0.144017 -0.000001 0.000001 -1.849906
    29 -0.064003 -0.023521 0.026161 0.000000 0.000000 0.000000
    30 3.013925 3.984634 -0.088975 -0.000001 0.000001 -1.849906
    31 -0.084188 -0.025627 -0.001098 0.000000 0.000000 0.000000
    32 4.778187 3.972486 -0.079803 -0.000001 0.000001 -1.849906
    33 -0.058556 -0.021324 0.004244 0.000000 0.000000 0.000000
    34 1.640598 -1.968779 -0.099219 -0.000001 0.000001 -1.849906
    35 0.055573 -0.028908 0.000000 0.000000 0.000000 0.000000
    36 1.646738 0.449549 -1.702246 0.441914 0.155087 1.184542
    37 0.928312 0.000000 -0.000002 0.000000 0.000000 0.000000
    38 0.928314 0.000000 0.000001 0.000000 0.000000 0.000000
    39 1.533672 0.109715 1.664491 -0.264755 -0.055959 0.783109
    40 0.928313 0.000000 0.000000 0.000000 0.000000 -0.453556
    41 0.928314 0.000000 0.000001 0.000000 0.000000 0.000000
  time 21
    0 0.235347 0.367732 -14.514592 0.000000 0.270322 -1.570874
    1 0.000000 0.000000 0.000000 -1.570795 -1.570796 0.000000
    2 -0.000005 0.000007 3.713255 2.914525 6.061903 1.331528
    3 18.045721 0.000000 0.000000 0.000000 0.000000 -1.349242
    4 17.597597 0.000000 0.000000 -0.205057 0.225938 -0.216505
    5 0.000005 -0.000003 -3.713255 -0.067002 -3.740518 -0.837425
    6 18.045725 0.000000 0.000000 0.000000 0.000000 -2.074647
    7 17.597597 0.000000 0.000000 -0.092081 0.087821 0.559948
    8 1.293670 0.684478 -0.000001 -0.000004 -0.000001 0.009520
    9 5.309685 -0.003834 0.000000 -0.156851 -0.006687 -0.043085
    10 4.826790 -0.004591 0.000000 -0.060968 -0.003140 -0.052243
    11 5.792767 -0.005304 0.000000 -0.087197 -0.001606 -0.019244
    12 6.662317 -0.001453 0.000000 0.000000 -0.000001 0.296580
    13 2.046985 -0.000002 0.000000 0.289474 0.097377 -0.533156
    14 -3.326874 0.954737 4.341911 0.822961 -1.123499 2.072982
    15 4.827230 0.000000 0.000001 -0.605808 -0.031104 -1.093452
    16 11.139763 0.000000 0.000000 0.000000 0.000000 -1.630890
    17 10.314597 0.000001 0.000000 -0.172447 -0.528729 0.398578
    18 2.975834 -0.386307 -0.044143 -0.021506 -0.037954 0.497588
    19 1.438886 0.000000 0.000000 0.000000 0.000000 0.889650
    20 1.485303 0.000000 0.000000 0.000000 0.000000 1.116422
    21 -3.065217 0.884022 -4.140396 -0.000013 1.291882 2.844176
    22 4.972048 0.000000 0.000001 0.721707 -1.100191 -1.110840
    23 11.585355 0.000000 0.000000 0.000000 0.000000 -1.867212
    24 10.127057 0.000000 0.000001 1.569752 0.000000 -0.069778
    25 2.683750 -0.427338 0.044205 -0.005786 0.043239 -0.157091
    26 1.438885 -0.000001 0.000000 0.000000 0.000000 0.732658
    27 1.485305 0.000001 0.000000 0.000000 0.000000 1.168770
    28 1.038631 0.548043 -0.144017 -0.000001 0.000001 -1.849906
    29 -0.064003 -0.023521 0.026161 0.000000 0.000000 0.000000
    30 3.013925 3.984634 -0.088975 -0.000001 0.000001 -1.849906
    31 -0.084188 -0.025627 -0.001098 0.000000 0.000000 0.000000
    32 4.778187 3.972486 -0.079803 -0.000001 0.000001 -1.849906
    33 -0.058556 -0.021324 0.004244 0.000000 0.000000 0.000000
    34 1.640598 -1.968779 -0.099219 -0.000001 0.000001 -1.849906
    35 0.055573 -0.028908 0.000000 0.000000 0.000000 0.000000
    36 1.646738 0.449549 -1.702246 0.441914 0.155087 1.184542
    37 0.928312 0.000000 -0.000002 0.000000 0.000000 0.000000
    38 0.928314 0.000000 0.000001 0.000000 0.000000 0.000000
    39 1.533672 0.109715 1.664491 -0.264755 -0.055959 0.783109
    40 0.928313 0.000000 0.000000 0.000000 0.000000 -0.453556
    41 0.928314 0.000000 0.000001 0.000000 0.000000 0.000000
  time 22
    0 0.235347 0.367732 -14.514592 0.000000 0.270322 -1.570874
    1 0.000000 0.000000 0.000000 -1.570795 -1.570796 0.000000
    2 -0.000005 0.000007 3.713255 2.914525 6.061903 1.331528
    3 18.045721 0.000000 0.000000 0.000000 0.000000 -1.349242
    4 17.597597 0.000000 0.000000 -0.205057 0.225938 -0.216505
    5 0.000005 -0.000003 -3.713255 -0.067002 -3.740518 -0.837425
    6 18.045725 0.000000 0.000000 0.000000 0.000000 -2.074647
    7 17.597597 0.000000 0.000000 -0.092081 0.087821 0.559948
    8 1.293670 0.684478 -0.000001 -0.000004 -0.000001 0.009520
    9 5.309685 -0.003834 0.000000 -0.156851 -0.006687 -0.043085
    10 4.826790 -0.004591 0.000000 -0.060968 -0.003140 -0.052243
    11 5.792767 -0.005304 0.000000 -0.087197 -0.001882 -0.022317
    12 6.662317 -0.001453 0.000000 0.000000 -0.000001 0.296580
    13 2.046985 -0.000002 0.000000 0.289474 0.097377 -0.530100
    14 -3.326874 0.954737 4.341911 0.845779 -1.133308 2.047766
    15 4.827230 0.000000 0.000001 -0.618378 -0.021488 -1.092226
    16 11.139763 0.000000 0.000000 0.000000 0.000000 -1.630890
    17 10.314597 0.000001 0.000000 -0.172447 -0.528729 0.398578
    18 2.975834 -0.386307 -0.044143 -0.021506 -0.037954 0.497588
    19 1.438886 0.000000 0.000000 0.000000 0.000000 0.889650
    20 1.485303 0.000000 0.000000 0.000000 0.000000 1.116422
    21 -3.065217 0.884022 -4.140396 -0.000013 1.301859 2.844176
    22 4.972048 0.000000 0.000001 0.738725 -1.107270 -1.125201
    23 11.585355 0.000000 0.000000 0.000000 0.000000 -1.867212
    24 10.127057 0.000000 0.000001 1.569752 0.000000 -0.069778
    25 2.683750 -0.427338 0.044205 -0.005786 0.043239 -0.157091
    26 1.438885 -0.000001 0.000000 0.000000 0.000000 0.732658
    27 1.485305 0.000001 0.000000 0.000000 0.000000 1.168770
    28 1.038631 0.548043 -0.144017 -0.000001 0.000001 -1.849906
    29 -0.064003 -0.023521 0.026161 0.000000 0.000000 0.000000
    30 3.013925 3.984634 -0.088975 -0.000001 0.000001 -1.849906
    31 -0.084188 -0.025627 -0.001098 0.000000 0.000000 0.000000
    32 4.778187 3.972486 -0.079803 -0.000001 0.000001 -1.849906
    33 -0.058556 -0.021324 0.004244 0.000000 0.000000 0.000000
    34 1.640598 -1.968779 -0.099219 -0.000001 0.000001 -1.849906
    35 0.055573 -0.028908 0.000000 0.000000 0.000000 0.000000
    36 1.646738 0.449549 -1.702246 0.441914 0.155087 1.184542
    37 0.928312 0.000000 -0.000002 0.000000 0.000000 0.000000
    38 0.928314 0.000000 0.000001 0.000000 0.000000 0.000000
    39 1.533672 0.109715 1.664491 -0.264755 -0.055959 0.783109
    40 0.928313 0.000000 0.000000 0.000000 0.000000 -0.453556
    41 0.928314 0.000000 0.000001 0.000000 0.000000 0.000000
  time 23
    0 0.235347 0.367732 -14.514592 0.000000 0.270322 -1.570874
    1 0.000000 0.000000 0.000000 -1.570795 -1.570796 0.000000
    2 -0.000005 0.000007 3.713255 2.914525 6.061903 1.331528
    3 18.045721 0.000000 0.000000 0.000000 0.000000 -1.349242
    4 17.597597 0.000000 0.000000 -0.205057 0.225938 -0.216505
    5 0.000005 -0.000003 -3.713255 -0.067002 -3.740518 -0.837425
    6 18.045725 0.000000 0.000000 0.000000 0.000000 -2.074647
    7 17.597597 0.000000 0.000000 -0.092081 0.087821 0.559948
    8 1.293670 0.684478 -0.000001 -0.000004 -0.000001 0.009520
    9 5.309685 -0.003834 0.000000 -0.156851 -0.006687 -0.043085
    10 4.826790 -0.004591 0.000000 -0.060968 -0.003140 -0.052243
    11 5.792767 -0.005304 0.000000 -0.087180 -0.002157 -0.025493
    12 6.662317 -0.001453 0.000000 0.000000 -0.000001 0.296580
    13 2.046985 -0.000002 0.000000 0.289474 0.097377 -0.526908
    14 -3.326874 0.954737 4.341911 0.870706 -1.143232 2.020346
    15 4.827230 0.000000 0.000001 -0.631417 -0.011446 -1.091176
    16 11.139763 0.000000 0.000000 0.000000 0.000000 -1.630890
    17 10.314597 0.000001 0.000000 -0.172447 -0.528729 0.398578
    18 2.975834 -0.386307 -0.044143 -0.021506 -0.037954 0.497588
    19 1.438886 0.000000 0.000000 0.000000 0.000000 0.889650
    20 1.485303 0.000000 0.000000 0.000000 0.000000 1.116422
    21 -3.065217 0.884022 -4.140396 -0.000013 1.312260 2.844176
    22 4.972048 0.000000 0.000001 0.756980 -1.114429 -1.140681
    23 11.585355 0.000000 0.000000 0.000000 0.000000 -1.867212
    24 10.127057 0.000000 0.000001 1.569752 0.000000 -0.069778
    25 2.683750 -0.427338 0.044205 -0.005786 0.043239 -0.157091
    26 1.438885 -0.000001 0.000000 0.000000 0.000000 0.732658
    27 1.485305 0.000001 0.000000 0.000000 0.000000 1.168770
    28 1.038631 0.548043 -0.144017 -0.000001 0.000001 -1.849906
    29 -0.064003 -0.023521 0.026161 0.000000 0.000000 0.000000
    30 3.013925 3.984634 -0.088975 -0.000001 0.000001 -1.849906
    31 -0.084188 -0.025627 -0.001098 0.000000 0.000000 0.000000
    32 4.778187 3.972486 -0.079803 -0.000001 0.000001 -1.849906
    33 -0.058556 -0.021324 0.004244 0.000000 0.000000 0.000000
    34 1.640598 -1.968779 -0.099219 -0.000001 0.000001 -1.849906
    35 0.055573 -0.028908 0.000000 0.000000 0.000000 0.000000
    36 1.646738 0.449549 -1.702246 0.441914 0.155087 1.184542
    37 0.928312 0.000000 -0.000002 0.000000 0.000000 0.000000
    38 0.928314 0.000000 0.000001 0.000000 0.000000 0.000000
    39 1.533672 0.109715 1.664491 -0.264755 -0.055959 0.783109
    40 0.928313 0.000000 0.000000 0.000000 0.000000 -0.453556
    41 0.928314 0.000000 0.000001 0.000000 0.000000 0.000000
  time 24
    0 0.235347 0.367732 -14.514592 0.000000 0.270322 -1.570874
    1 0.000000 0.000000 0.000000 -1.570795 -1.570796 0.000000
    2 -0.000005 0.000007 3.713255 2.914525 6.061903 1.331528
    3 18.045721 0.000000 0.000000 0.000000 0.000000 -1.349242
    4 17.597597 0.000000 0.000000 -0.205057 0.225938 -0.216505
    5 0.000005 -0.000003 -3.713255 -0.067002 -3.740518 -0.837425
    6 18.045725 0.000000 0.000000 0.000000 0.000000 -2.074647
    7 17.597597 0.000000 0.000000 -0.092081 0.087821 0.559948
    8 1.293670 0.684478 -0.000001 -0.000004 -0.000001 0.009520
    9 5.309685 -0.003834 0.000000 -0.156851 -0.006687 -0.043085
    10 4.826790 -0.004591 0.000000 -0.060968 -0.003140 -0.052243
    11 5.792767 -0.005304 0.000000 -0.087180 -0.002433 -0.028712
    12 6.662317 -0.001453 0.000000 0.000000 -0.000001 0.296580
    13 2.046985 -0.000002 0.000000 0.289474 0.097377 -0.523672
    14 -3.326874 0.954737 4.341911 0.896975 -1.152926 1.991487
    15 4.827230 0.000000 0.000001 -0.644516 -0.001319 -1.090214
    16 11.139763 0.000000 0.000000 0.000000 0.000000 -1.630890
    17 10.314597 0.000001 0.000000 -0.172447 -0.528729 0.398578
    18 2.975834 -0.386307 -0.044143 -0.021506 -0.037954 0.497588
    19 1.438886 0.000000 0.000000 0.000000 0.000000 0.889650
    20 1.485303 0.000000 0.000000 0.000000 0.000000 1.116422
    21 -3.065217 0.884022 -4.140396 -0.000013 1.322746 2.844176
    22 4.972048 0.000000 0.000001 0.775932 -1.121588 -1.156951
    23 11.585355 0.000000 0.000000 0.000000 0.000000 -1.867212
    24 10.127057 0.000000 0.000001 1.569752 0.000000 -0.069778
    25 2.683750 -0.427338 0.044205 -0.005786 0.043239 -0.157091
    26 1.438885 -0.000001 0.000000 0.000000 0.000000 0.732658
    27 1.485305 0.000001 0.000000 0.000000 0.000000 1.168770
    28 1.038631 0.548043 -0.144017 -0.000001 0.000001 -1.849906
    29 -0.064003 -0.023521 0.026161 0.000000 0.000000 0.000000
    30 3.013925 3.984634 -0.088975 -0.000001 0.000001 -1.849906
    31 -0.084188 -0.025627 -0.001098 0.000000 0.000000 0.000000
    32 4.778187 3.972486 -0.079803 -0.000001 0.000001 -1.849906
    33 -0.058556 -0.021324 0.004244 0.000000 0.000000 0.000000
    34 1.640598 -1.968779 -0.099219 -0.000001 0.000001 -1.849906
    35 0.055573 -0.028908 0.000000 0.000000 0.000000 0.000000
    36 1.646738 0.449549 -1.702246 0.441914 0.155087 1.184542
    37 0.928312 0.000000 -0.000002 0.000000 0.000000 0.000000
    38 0.928314 0.000000 0.000001 0.000000 0.000000 0.000000
    39 1.533672 0.109715 1.664491 -0.264755 -0.055959 0.783109
    40 0.928313 0.000000 0.000000 0.000000 0.000000 -0.453556
    41 0.928314 0.000000 0.000001 0.000000 0.000000 0.000000
  time 25
    0 0.235347 0.367732 -14.514592 0.000000 0.270322 -1.570874
    1 0.000000 0.000000 0.000000 -1.570795 -1.570796 0.000000
    2 -0.000005 0.000007 3.713255 2.914525 6.061903 1.331528
    3 18.045721 0.000000 0.000000 0.000000 0.000000 -1.349242
    4 17.597597 0.000000 0.000000 -0.205057 0.225938 -0.216505
    5 0.000005 -0.000003 -3.713255 -0.067002 -3.740518 -0.837425
    6 18.045725 0.000000 0.000000 0.000000 0.000000 -2.074647
    7 17.597597 0.000000 0.000000 -0.092081 0.087821 0.559948
    8 1.293670 0.684478 -0.000001 -0.000004 -0.000001 0.009520
    9 5.309685 -0.003834 0.000000 -0.156851 -0.006687 -0.043085
    10 4.826790 -0.004591 0.000000 -0.060968 -0.003140 -0.052243
    11 5.792767 -0.005304 0.000000 -0.087164 -0.002709 -0.031847
    12 6.662317 -0.001453 0.000000 0.000000 -0.000001 0.296580
    13 2.046985 -0.000002 0.000000 0.289474 0.097377 -0.520526
    14 -3.326874 0.954737 4.341911 0.924107 -1.162158 1.961957
    15 4.827230 0.000000 0.000001 -0.657379 0.008638 -1.089514
    16 11.139763 0.000000 0.000000 0.000000 0.000000 -1.630890
    17 10.314597 0.000001 0.000000 -0.172447 -0.528729 0.398578
    18 2.975834 -0.386307 -0.044143 -0.021506 -0.037954 0.497588
    19 1.438886 0.000000 0.000000 0.000000 0.000000 0.889650
    20 1.485303 0.000000 0.000000 0.000000 0.000000 1.116422
    21 -3.065217 0.884022 -4.140396 -0.000013 1.333006 2.844176
    22 4.972048 0.000000 0.000001 0.795039 -1.128425 -1.173419
    23 11.585355 0.000000 0.000000 0.000000 0.000000 -1.867212
    24 10.127057 0.000000 0.000001 1.569752 0.000000 -0.069778
    25 2.683750 -0.427338 0.044205 -0.005786 0.043239 -0.157091
    26 1.438885 -0.000001 0.000000 0.000000 0.000000 0.732658
    27 1.485305 0.000001 0.000000 0.000000 0.000000 1.168770
    28 1.038631 0.548043 -0.144017 -0.000001 0.000001 -1.849906
    29 -0.064003 -0.023521 0.026161 0.000000 0.000000 0.000000
    30 3.013925 3.984634 -0.088975 -0.000001 0.000001 -1.849906
    31 -0.084188 -0.025627 -0.001098 0.000000 0.000000 0.000000
    32 4.778187 3.972486 -0.079803 -0.000001 0.000001 -1.849906
    33 -0.058556 -0.021324 0.004244 0.000000 0.000000 0.000000
    34 1.640598 -1.968779 -0.099219 -0.000001 0.000001 -1.849906
    35 0.055573 -0.028908 0.000000 0.000000 0.000000 0.000000
    36 1.646738 0.449549 -1.702246 0.441914 0.155087 1.184542
    37 0.928312 0.000000 -0.000002 0.000000 0.000000 0.000000
    38 0.928314 0.000000 0.000001 0.000000 0.000000 0.000000
    39 1.533672 0.109715 1.664491 -0.264755 -0.055959 0.783109
    40 0.928313 0.000000 0.000000 0.000000 0.000000 -0.453556
    41 0.928314 0.000000 0.000001 0.000000 0.000000 0.000000
  time 26
    0 0.235347 0.367732 -14.514592 0.000000 0.270322 -1.570874
    1 0.000000 0.000000 0.000000 -1.570795 -1.570796 0.000000
    2 -0.000005 0.000007 3.713255 2.914525 6.061903 1.331528
    3 18.045721 0.000000 0.000000 0.000000 0.000000 -1.349242
    4 17.597597 0.000000 0.000000 -0.205057 0.225938 -0.216505
    5 0.000005 -0.000003 -3.713255 -0.067002 -3.740518 -0.837425
    6 18.045725 0.000000 0.000000 0.000000 0.000000 -2.074647
    7 17.597597 0.000000 0.000000 -0.092081 0.087821 0.559948
    8 1.293670 0.684478 -0.000001 -0.000004 -0.000001 0.009520
    9 5.309685 -0.003834 0.000000 -0.156851 -0.006687 -0.043085
    10 4.826790 -0.004591 0.000000 -0.060968 -0.003140 -0.052243
    11 5.792767 -0.005304 0.000000 -0.087164 -0.002972 -0.034857
    12 6.662317 -0.001453 0.000000 0.000000 -0.000001 0.296580
    13 2.046985 -0.000002 0.000000 0.289474 0.097377 -0.517514
    14 -3.326874 0.954737 4.341911 0.950951 -1.170620 1.932715
    15 4.827230 0.000000 0.000001 -0.669655 0.018169 -1.088901
    16 11.139763 0.000000 0.000000 0.000000 0.000000 -1.630890
    17 10.314597 0.000001 0.000000 -0.172447 -0.528729 0.398578
    18 2.975834 -0.386307 -0.044143 -0.021506 -0.037954 0.497588
    19 1.438886 0.000000 0.000000 0.000000 0.000000 0.889650
    20 1.485303 0.000000 0.000000 0.000000 0.000000 1.116422
    21 -3.065217 0.884022 -4.140396 -0.000013 1.342785 2.844176
    22 4.972048 0.000000 0.000001 0.813681 -1.134861 -1.189624
    23 11.585355 0.000000 0.000000 0.000000 0.000000 -1.867212
    24 10.127057 0.000000 0.000001 1.569752 0.000000 -0.069778
    25 2.683750 -0.427338 0.044205 -0.005786 0.043239 -0.157091
    26 1.438885 -0.000001 0.000000 0.000000 0.000000 0.732658
    27 1.485305 0.000001 0.000000 0.000000 0.000000 1.168770
    28 1.038631 0.548043 -0.144017 -0.000001 0.000001 -1.849906
    29 -0.064003 -0.023521 0.026161 0.000000 0.000000 0.000000
    30 3.013925 3.984634 -0.088975 -0.000001 0.000001 -1.849906
    31 -0.084188 -0.025627 -0.001098 0.000000 0.000000 0.000000
    32 4.778187 3.972486 -0.079803 -0.000001 0.000001 -1.849906
    33 -0.058556 -0.021324 0.004244 0.000000 0.000000 0.000000
    34 1.640598 -1.968779 -0.099219 -0.000001 0.000001 -1.849906
    35 0.055573 -0.028908 0.000000 0.000000 0.000000 0.000000
    36 1.646738 0.449549 -1.702246 0.441914 0.155087 1.184542
    37 0.928312 0.000000 -0.000002 0.000000 0.000000 0.000000
    38 0.928314 0.000000 0.000001 0.000000 0.000000 0.000000
    39 1.533672 0.109715 1.664491 -0.264755 -0.055959 0.783109
    40 0.928313 0.000000 0.000000 0.000000 0.000000 -0.453556
    41 0.928314 0.000000 0.000001 0.000000 0.000000 0.000000
  time 27
    0 0.235347 0.367732 -14.514592 0.000000 0.270322 -1.570874
    1 0.000000 0.000000 0.000000 -1.570795 -1.570796 0.000000
    2 -0.000005 0.000007 3.713255 2.914525 6.061903 1.331528
    3 18.045721 0.000000 0.000000 0.000000 0.000000 -1.349242
    4 17.597597 0.000000 0.000000 -0.205057 0.225938 -0.216505
    5 0.000005 -0.000003 -3.713255 -0.067002 -3.740518 -0.837425
    6 18.045725 0.000000 0.000000 0.000000 0.000000 -2.074647
    7 17.597597 0.000000 0.000000 -0.092081 0.087821 0.559948
    8 1.293670 0.684478 -0.000001 -0.000004 -0.000001 0.009520
    9 5.309685 -0.003834 0.000000 -0.156851 -0.006687 -0.043085
    10 4.826790 -0.004591 0.000000 -0.060968 -0.003140 -0.052243
    11 5.792767 -0.005304 0.000000 -0.087148 -0.003212 -0.037598
    12 6.662317 -0.001453 0.000000 0.000000 -0.000001 0.296580
    13 2.046985 -0.000002 0.000000 0.289474 0.097377 -0.514728
    14 -3.326874 0.954737 4.341911 0.976741 -1.178082 1.904815
    15 4.827230 0.000000 0.000001 -0.680873 0.026934 -1.088551
    16 11.139763 0.000000 0.000000 0.000000 0.000000 -1.630890
    17 10.314597 0.000001 0.000000 -0.172447 -0.528729 0.398578
    18 2.975834 -0.386307 -0.044143 -0.021506 -0.037954 0.497588
    19 1.438886 0.000000 0.000000 0.000000 0.000000 0.889650
    20 1.485303 0.000000 0.000000 0.000000 0.000000 1.116422
    21 -3.065217 0.884022 -4.140396 -0.000013 1.351773 2.844176
    22 4.972048 0.000000 0.000001 0.831241 -1.140653 -1.204906
    23 11.585355 0.000000 0.000000 0.000000 0.000000 -1.867212
    24 10.127057 0.000000 0.000001 1.569752 0.000000 -0.069778
    25 2.683750 -0.427338 0.044205 -0.005786 0.043239 -0.157091
    26 1.438885 -0.000001 0.000000 0.000000 0.000000 0.732658
    27 1.485305 0.000001 0.000000 0.000000 0.000000 1.168770
    28 1.038631 0.548043 -0.144017 -0.000001 0.000001 -1.849906
    29 -0.064003 -0.023521 0.026161 0.000000 0.000000 0.000000
    30 3.013925 3.984634 -0.088975 -0.000001 0.000001 -1.849906
    31 -0.084188 -0.025627 -0.001098 0.000000 0.000000 0.000000
    32 4.778187 3.972486 -0.079803 -0.000001 0.000001 -1.849906
    33 -0.058556 -0.021324 0.004244 0.000000 0.000000 0.000000
    34 1.640598 -1.968779 -0.099219 -0.000001 0.000001 -1.849906
    35 0.055573 -0.028908 0.000000 0.000000 0.000000 0.000000
    36 1.646738 0.449549 -1.702246 0.441914 0.155087 1.184542
    37 0.928312 0.000000 -0.000002 0.000000 0.000000 0.000000
    38 0.928314 0.000000 0.000001 0.000000 0.000000 0.000000
    39 1.533672 0.109715 1.664491 -0.264755 -0.055959 0.783109
    40 0.928313 0.000000 0.000000 0.000000 0.000000 -0.453556
    41 0.928314 0.000000 0.000001 0.000000 0.000000 0.000000
  time 28
    0 0.235347 0.367732 -14.514592 0.000000 0.270322 -1.570874
    1 0.000000 0.000000 0.000000 -1.570795 -1.570796 0.000000
    2 -0.000005 0.000007 3.713255 2.914525 6.061903 1.331528
    3 18.045721 0.000000 0.000000 0.000000 0.000000 -1.349242
    4 17.597597 0.000000 0.000000 -0.205057 0.225938 -0.216505
    5 0.000005 -0.000003 -3.713255 -0.067002 -3.740518 -0.837425
    6 18.045725 0.000000 0.000000 0.000000 0.000000 -2.074647
    7 17.597597 0.000000 0.000000 -0.092081 0.087821 0.559948
    8 1.293670 0.684478 -0.000001 -0.000004 -0.000001 0.009520
    9 5.309685 -0.003834 0.000000 -0.156851 -0.006687 -0.043085
    10 4.826790 -0.004591 0.000000 -0.060968 -0.003140 -0.052243
    11 5.792767 -0.005304 0.000000 -0.087148 -0.003428 -0.040007
    12 6.662317 -0.001453 0.000000 0.000000 -0.000001 0.296580
    13 2.046985 -0.000002 0.000000 0.289474 0.097377 -0.512345
    14 -3.326874 0.954737 4.341911 1.000038 -1.184391 1.879504
    15 4.827230 0.000000 0.000001 -0.690682 0.034593 -1.088376
    16 11.139763 0.000000 0.000000 0.000000 0.000000 -1.630890
    17 10.314597 0.000001 0.000000 -0.172447 -0.528729 0.398578
    18 2.975834 -0.386307 -0.044143 -0.021506 -0.037954 0.497588
    19 1.438886 0.000000 0.000000 0.000000 0.000000 0.889650
    20 1.485303 0.000000 0.000000 0.000000 0.000000 1.116422
    21 -3.065217 0.884022 -4.140396 -0.000013 1.359631 2.844176
    22 4.972048 0.000000 0.000001 0.846944 -1.145640 -1.218740
    23 11.585355 0.000000 0.000000 0.000000 0.000000 -1.867212
    24 10.127057 0.000000 0.000001 1.569752 0.000000 -0.069778
    25 2.683750 -0.427338 0.044205 -0.005786 0.043239 -0.157091
    26 1.438885 -0.000001 0.000000 0.000000 0.000000 0.732658
    27 1.485305 0.000001 0.000000 0.000000 0.000000 1.168770
    28 1.038631 0.548043 -0.144017 -0.000001 0.000001 -1.849906
    29 -0.064003 -0.023521 0.026161 0.000000 0.000000 0.000000
    30 3.013925 3.984634 -0.088975 -0.000001 0.000001 -1.849906
    31 -0.084188 -0.025627 -0.001098 0.000000 0.000000 0.000000
    32 4.778187 3.972486 -0.079803 -0.000001 0.000001 -1.849906
    33 -0.058556 -0.021324 0.004244 0.000000 0.000000 0.000000
    34 1.640598 -1.968779 -0.099219 -0.000001 0.000001 -1.849906
    35 0.055573 -0.028908 0.000000 0.000000 0.000000 0.000000
    36 1.646738 0.449549 -1.702246 0.441914 0.155087 1.184542
    37 0.928312 0.000000 -0.000002 0.000000 0.000000 0.000000
    38 0.928314 0.000000 0.000001 0.000000 0.000000 0.000000
    39 1.533672 0.109715 1.664491 -0.264755 -0.055959 0.783109
    40 0.928313 0.000000 0.000000 0.000000 0.000000 -0.453556
    41 0.928314 0.000000 0.000001 0.000000 0.000000 0.000000
  time 29
    0 0.235347 0.367732 -14.514592 0.000000 0.270322 -1.570874
    1 0.000000 0.000000 0.000000 -1.570795 -1.570796 0.000000
    2 -0.000005 0.000007 3.713255 2.914525 6.061903 1.331528
    3 18.045721 0.000000 0.000000 0.000000 0.000000 -1.349242
    4 17.597597 0.000000 0.000000 -0.205057 0.225938 -0.216505
    5 0.000005 -0.000003 -3.713255 -0.067002 -3.740518 -0.837425
    6 18.045725 0.000000 0.000000 0.000000 0.000000 -2.074647
    7 17.597597 0.000000 0.000000 -0.092081 0.087821 0.559948
    8 1.293670 0.684478 -0.000001 -0.000004 -0.000001 0.009520
    9 5.309685 -0.003834 0.000000 -0.156851 -0.006687 -0.043085
    10 4.826790 -0.004591 0.000000 -0.060968 -0.003140 -0.052243
    11 5.792767 -0.005304 0.000000 -0.087148 -0.003595 -0.041979
    12 6.662317 -0.001453 0.000000 0.000000 -0.000001 0.296580
    13 2.046985 -0.000002 0.000000 0.289474 0.097377 -0.510323
    14 -3.326874 0.954737 4.341911 1.019788 -1.189430 1.858219
    15 4.827230 0.000000 0.000001 -0.698729 0.040891 -1.088288
    16 11.139763 0.000000 0.000000 0.000000 0.000000 -1.630890
    17 10.314597 0.000001 0.000000 -0.172447 -0.528729 0.398578
    18 2.975834 -0.386307 -0.044143 -0.021506 -0.037954 0.497588
    19 1.438886 0.000000 0.000000 0.000000 0.000000 0.889650
    20 1.485303 0.000000 0.000000 0.000000 0.000000 1.116422
    21 -3.065217 0.884022 -4.140396 -0.000013 1.366075 2.844176
    22 4.972048 0.000000 0.000001 0.860172 -1.149662 -1.230333
    23 11.585355 0.000000 0.000000 0.000000 0.000000 -1.867212
    24 10.127057 0.000000 0.000001 1.569752 0.000000 -0.069778
    25 2.683750 -0.427338 0.044205 -0.005786 0.043239 -0.157091
    26 1.438885 -0.000001 0.000000 0.000000 0.000000 0.732658
    27 1.485305 0.000001 0.000000 0.000000 0.000000 1.168770
    28 1.038631 0.548043 -0.144017 -0.000001 0.000001 -1.849906
    29 -0.064003 -0.023521 0.026161 0.000000 0.000000 0.000000
    30 3.013925 3.984634 -0.088975 -0.000001 0.000001 -1.849906
    31 -0.084188 -0.025627 -0.001098 0.000000 0.000000 0.000000
    32 4.778187 3.972486 -0.079803 -0.000001 0.000001 -1.849906
    33 -0.058556 -0.021324 0.004244 0.000000 0.000000 0.000000
    34 1.640598 -1.968779 -0.099219 -0.000001 0.000001 -1.849906
    35 0.055573 -0.028908 0.000000 0.000000 0.000000 0.000000
    36 1.646738 0.449549 -1.702246 0.441914 0.155087 1.184542
    37 0.928312 0.000000 -0.000002 0.000000 0.000000 0.000000
    38 0.928314 0.000000 0.000001 0.000000 0.000000 0.000000
    39 1.533672 0.109715 1.664491 -0.264755 -0.055959 0.783109
    40 0.928313 0.000000 0.000000 0.000000 0.000000 -0.453556
    41 0.928314 0.000000 0.000001 0.000000 0.000000 0.000000
  time 30
    0 0.235347 0.367732 -14.514592 0.000000 0.270322 -1.570874
    1 0.000000 0.000000 0.000000 -1.570795 -1.570796 0.000000
    2 -0.000005 0.000007 3.713255 2.914525 6.061903 1.331528
    3 18.045721 0.000000 0.000000 0.000000 0.000000 -1.349242
    4 17.597597 0.000000 0.000000 -0.205057 0.225938 -0.216505
    5 0.000005 -0.000003 -3.713255 -0.067002 -3.740518 -0.837425
    6 18.045725 0.000000 0.000000 0.000000 0.000000 -2.074647
    7 17.597597 0.000000 0.000000 -0.092081 0.087821 0.559948
    8 1.293670 0.684478 -0.000001 -0.000004 -0.000001 0.009520
    9 5.309685 -0.003834 0.000000 -0.156851 -0.006687 -0.043085
    10 4.826790 -0.004591 0.000000 -0.060968 -0.003140 -0.052243
    11 5.792767 -0.005304 0.000000 -0.087131 -0.003727 -0.043432
    12 6.662317 -0.001453 0.000000 0.000000 -0.000001 0.296580
    13 2.046985 -0.000002 0.000000 0.289474 0.097377 -0.508884
    14 -3.326874 0.954737 4.341911 1.034649 -1.193007 1.842208
    15 4.827230 0.000000 0.000001 -0.704662 0.045486 -1.088288
    16 11.139763 0.000000 0.000000 0.000000 0.000000 -1.630890
    17 10.314597 0.000001 0.000000 -0.172447 -0.528729 0.398578
    18 2.975834 -0.386307 -0.044143 -0.021506 -0.037954 0.497588
    19 1.438886 0.000000 0.000000 0.000000 0.000000 0.889650
    20 1.485303 0.000000 0.000000 0.000000 0.000000 1.116422
    21 -3.065217 0.884022 -4.140396 -0.000013 1.370795 2.844176
    22 4.972048 0.000000 0.000001 0.869996 -1.152558 -1.239028
    23 11.585355 0.000000 0.000000 0.000000 0.000000 -1.867212
    24 10.127057 0.000000 0.000001 1.569752 0.000000 -0.069778
    25 2.683750 -0.427338 0.044205 -0.005786 0.043239 -0.157091
    26 1.438885 -0.000001 0.000000 0.000000 0.000000 0.732658
    27 1.485305 0.000001 0.000000 0.000000 0.000000 1.168770
    28 1.038631 0.548043 -0.144017 -0.000001 0.000001 -1.849906
    29 -0.064003 -0.023521 0.026161 0.000000 0.000000 0.000000
    30 3.013925 3.984634 -0.088975 -0.000001 0.000001 -1.849906
    31 -0.084188 -0.025627 -0.001098 0.000000 0.000000 0.000000
    32 4.778187 3.972486 -0.079803 -0.000001 0.000001 -1.849906
    33 -0.058556 -0.021324 0.004244 0.000000 0.000000 0.000000
    34 1.640598 -1.968779 -0.099219 -0.000001 0.000001 -1.849906
    35 0.055573 -0.028908 0.000000 0.000000 0.000000 0.000000
    36 1.646738 0.449549 -1.702246 0.441914 0.155087 1.184542
    37 0.928312 0.000000 -0.000002 0.000000 0.000000 0.000000
    38 0.928314 0.000000 0.000001 0.000000 0.000000 0.000000
    39 1.533672 0.109715 1.664491 -0.264755 -0.055959 0.783109
    40 0.928313 0.000000 0.000000 0.000000 0.000000 -0.453556
    41 0.928314 0.000000 0.000001 0.000000 0.000000 0.000000
end
