version 1
nodes
  0 "Bip01" -1
  1 "Bip01 Pelvis" 0
  2 "Bip01 L Leg" 1
  3 "Bip01 L Leg1" 2
  4 "Bip01 L Foot" 3
  5 "Bip01 R Leg" 1
  6 "Bip01 R Leg1" 5
  7 "Bip01 R Foot" 6
  8 "Bip01 Spine" 1
  9 "Bip01 Spine1" 8
  10 "Bip01 Spine2" 9
  11 "Bip01 Spine3" 10
  12 "Bip01 Neck" 11
  13 "Bip01 Head" 12
  14 "Bip01 L Arm" 12
  15 "Bip01 L Arm1" 14
  16 "Bip01 L Arm2" 15
  17 "Bip01 L Hand" 16
  18 "Bip01 L Finger1" 17
  19 "Bip01 L Finger11" 18
  20 "Bip01 L Finger12" 19
  21 "Bip01 R Arm" 12
  22 "Bip01 R Arm1" 21
  23 "Bip01 R Arm2" 22
  24 "Bip01 R Hand" 23
  25 "Bip01 R Finger1" 24
  26 "Bip01 R Finger11" 25
  27 "Bip01 R Finger12" 26
  28 "Dummy08" 13
  29 "Bone02" 28
  30 "Dummy04" 13
  31 "Bone05" 30
  32 "Dummy03" 13
  33 "Bone07" 32
  34 "Dummy10" 13
  35 "Bone13" 34
  36 "Bip01 L Finger0" 17
  37 "Bip01 L Finger01" 36
  38 "Bip01 L Finger02" 37
  39 "Bip01 R Finger0" 24
  40 "Bip01 R Finger01" 39
  41 "Bip01 R Finger02" 40
end
skeleton
  time 0
    0 0.235347 0.367732 -14.608345 0.000000 0.270322 -1.570874
    1 0.000000 0.000000 0.000000 -1.570795 -1.570796 0.000000
    2 -0.000005 0.000007 3.713255 2.914525 6.061903 1.331528
    3 18.045721 0.000000 0.000000 0.000000 0.000000 -1.349242
    4 17.597597 0.000000 0.000000 -0.205057 0.225938 -0.216505
    5 0.000005 -0.000003 -3.713255 -0.067002 -3.740518 -0.837425
    6 18.045725 0.000000 0.000000 0.000000 0.000000 -2.074647
    7 17.597597 0.000000 0.000000 -0.092081 0.087821 0.559948
    8 1.293670 0.684478 -0.000001 -0.000004 -0.000001 0.079297
    9 5.309685 -0.003834 0.000000 -0.268710 0.030429 0.109266
    10 4.826790 -0.004591 0.000000 -0.270225 -0.009096 -0.033656
    11 5.792767 -0.005304 0.000000 -0.139218 -0.009588 -0.069095
    12 6.662317 -0.001453 0.000000 0.000000 -0.000001 0.471000
    13 2.046985 -0.000002 0.000000 0.375295 0.579063 -1.241577
    14 -3.112024 1.517254 4.341911 2.426343 -0.917552 0.132067
    15 4.827230 0.000000 0.000001 -1.604209 -0.487925 -1.247209
    16 11.139763 0.000000 0.000000 0.000000 0.000000 -1.137528
    17 10.314597 0.000001 0.000000 -0.655375 0.368141 -0.269531
    18 2.975834 -0.386307 -0.044143 -0.019493 -0.039033 0.445214
    19 1.438886 0.000000 0.000000 0.000000 0.000000 0.505855
    20 1.485303 0.000000 0.000000 0.000000 0.000000 0.532034
    21 -2.869898 1.399663 -4.140396 -0.000013 1.370795 2.669783
    22 4.972048 0.000000 0.000001 1.139732 -0.164823 -1.868177
    23 11.585355 0.000000 0.000000 0.000000 0.000000 -2.024615
    24 10.127057 0.000000 0.000001 1.969610 0.138389 0.944277
    25 2.683750 -0.427338 0.044205 -0.005786 0.043239 -0.157091
    26 1.438885 -0.000001 0.000000 0.000000 0.000000 0.732658
    27 1.485305 0.000001 0.000000 0.000000 0.000000 1.168770
    28 1.038631 0.548043 -0.144017 -0.000001 0.000001 -1.849906
    29 -0.064003 -0.023521 0.026161 0.000000 0.000000 0.000000
    30 3.013925 3.984634 -0.088975 -0.000001 0.000001 -1.849906
    31 -0.084188 -0.025627 -0.001098 0.000000 0.000000 0.000000
    32 4.778187 3.972486 -0.079803 -0.000001 0.000001 -1.849906
    33 -0.058556 -0.021324 0.004244 0.000000 0.000000 0.000000
    34 1.640598 -1.968779 -0.099219 -0.000001 0.000001 -1.849906
    35 0.055573 -0.028908 0.000000 0.000000 0.000000 0.000000
    36 1.646738 0.449549 -1.702246 -0.391617 1.092980 -0.290137
    37 0.928312 0.000000 -0.000002 0.000000 0.000000 0.000000
    38 0.928314 0.000000 0.000001 0.000000 0.000000 0.000000
    39 1.533672 0.109715 1.664491 -0.264755 -0.055959 0.783109
    40 0.928313 0.000000 0.000000 0.000000 0.000000 -0.453556
    41 0.928314 0.000000 0.000001 0.000000 0.000000 0.000000
  time 1
    0 0.235347 0.367732 -14.608345 0.000000 0.270322 -1.570874
    1 0.000000 0.000000 0.000000 -1.570795 -1.570796 0.000000
    2 -0.000005 0.000007 3.713255 2.914525 6.061903 1.331528
    3 18.045721 0.000000 0.000000 0.000000 0.000000 -1.349242
    4 17.597597 0.000000 0.000000 -0.205057 0.225938 -0.216505
    5 0.000005 -0.000003 -3.713255 -0.067002 -3.740518 -0.837425
    6 18.045725 0.000000 0.000000 0.000000 0.000000 -2.074647
    7 17.597597 0.000000 0.000000 -0.092081 0.087821 0.559948
    8 1.293670 0.684478 -0.000001 -0.000004 -0.000001 0.079297
    9 5.309685 -0.003834 0.000000 -0.268710 0.030429 0.109266
    10 4.826790 -0.004591 0.000000 -0.270241 -0.008617 -0.031914
    11 5.792767 -0.005304 0.000000 -0.139234 -0.009276 -0.066936
    12 6.662317 -0.001453 0.000000 0.000000 -0.000001 0.471000
    13 2.046985 -0.000002 0.000000 0.375080 0.579243 -1.245712
    14 -3.112024 1.517254 4.341911 2.423562 -0.920053 0.135615
    15 4.827230 0.000000 0.000001 -1.599862 -0.492436 -1.247471
    16 11.139763 0.000000 0.000000 0.000000 0.000000 -1.137528
    17 10.314597 0.000001 0.000000 -0.655375 0.368141 -0.269531
    18 2.975834 -0.386307 -0.044143 -0.019493 -0.039033 0.445214
    19 1.438886 0.000000 0.000000 0.000000 0.000000 0.505855
    20 1.485303 0.000000 0.000000 0.000000 0.000000 0.532034
    21 -2.869898 1.399663 -4.140396 -0.000013 1.366810 2.669783
    22 4.972048 0.000000 0.000001 1.134936 -0.162168 -1.868177
    23 11.585355 0.000000 0.000000 0.000000 0.000000 -2.024615
    24 10.127057 0.000000 0.000001 1.969610 0.138389 0.944277
    25 2.683750 -0.427338 0.044205 -0.005786 0.043239 -0.157091
    26 1.438885 -0.000001 0.000000 0.000000 0.000000 0.732658
    27 1.485305 0.000001 0.000000 0.000000 0.000000 1.168770
    28 1.038631 0.548043 -0.144017 -0.000001 0.000001 -1.849906
    29 -0.064003 -0.023521 0.026161 0.000000 0.000000 0.000000
    30 3.013925 3.984634 -0.088975 -0.000001 0.000001 -1.849906
    31 -0.084188 -0.025627 -0.001098 0.000000 0.000000 0.000000
    32 4.778187 3.972486 -0.079803 -0.000001 0.000001 -1.849906
    33 -0.058556 -0.021324 0.004244 0.000000 0.000000 0.000000
    34 1.640598 -1.968779 -0.099219 -0.000001 0.000001 -1.849906
    35 0.055573 -0.028908 0.000000 0.000000 0.000000 0.000000
    36 1.646738 0.449549 -1.702246 -0.391617 1.092980 -0.290137
    37 0.928312 0.000000 -0.000002 0.000000 0.000000 0.000000
    38 0.928314 0.000000 0.000001 0.000000 0.000000 0.000000
    39 1.533672 0.109715 1.664491 -0.264755 -0.055959 0.783109
    40 0.928313 0.000000 0.000000 0.000000 0.000000 -0.453556
    41 0.928314 0.000000 0.000001 0.000000 0.000000 0.000000
  time 2
    0 0.235347 0.367732 -14.608345 0.000000 0.270322 -1.570874
    1 0.000000 0.000000 0.000000 -1.570795 -1.570796 0.000000
    2 -0.000005 0.000007 3.713255 2.914525 6.061903 1.331528
    3 18.045721 0.000000 0.000000 0.000000 0.000000 -1.349242
    4 17.597597 0.000000 0.000000 -0.205057 0.225938 -0.216505
    5 0.000005 -0.000003 -3.713255 -0.067002 -3.740518 -0.837425
    6 18.045725 0.000000 0.000000 0.000000 0.000000 -2.074647
    7 17.597597 0.000000 0.000000 -0.092081 0.087821 0.559948
    8 1.293670 0.684478 -0.000001 -0.000004 -0.000001 0.079297
    9 5.309685 -0.003834 0.000000 -0.268710 0.030429 0.109266
    10 4.826790 -0.004591 0.000000 -0.270274 -0.007946 -0.029511
    11 5.792767 -0.005304 0.000000 -0.139267 -0.008869 -0.063988
    12 6.662317 -0.001453 0.000000 0.000000 -0.000001 0.471000
    13 2.046985 -0.000002 0.000000 0.374778 0.579468 -1.251285
    14 -3.112024 1.517254 4.341911 2.419631 -0.923399 0.140504
    15 4.827230 0.000000 0.000001 -1.593871 -0.498648 -1.247909
    16 11.139763 0.000000 0.000000 0.000000 0.000000 -1.137528
    17 10.314597 0.000001 0.000000 -0.655375 0.368141 -0.269531
    18 2.975834 -0.386307 -0.044143 -0.019493 -0.039033 0.445214
    19 1.438886 0.000000 0.000000 0.000000 0.000000 0.505855
    20 1.485303 0.000000 0.000000 0.000000 0.000000 0.532034
    21 -2.869898 1.399663 -4.140396 -0.000013 1.361355 2.669783
    22 4.972048 0.000000 0.000001 1.128360 -0.158629 -1.868242
    23 11.585355 0.000000 0.000000 0.000000 0.000000 -2.024615
    24 10.127057 0.000000 0.000001 1.969610 0.138389 0.944277
    25 2.683750 -0.427338 0.044205 -0.005786 0.043239 -0.157091
    26 1.438885 -0.000001 0.000000 0.000000 0.000000 0.732658
    27 1.485305 0.000001 0.000000 0.000000 0.000000 1.168770
    28 1.038631 0.548043 -0.144017 -0.000001 0.000001 -1.849906
    29 -0.064003 -0.023521 0.026161 0.000000 0.000000 0.000000
    30 3.013925 3.984634 -0.088975 -0.000001 0.000001 -1.849906
    31 -0.084188 -0.025627 -0.001098 0.000000 0.000000 0.000000
    32 4.778187 3.972486 -0.079803 -0.000001 0.000001 -1.849906
    33 -0.058556 -0.021324 0.004244 0.000000 0.000000 0.000000
    34 1.640598 -1.968779 -0.099219 -0.000001 0.000001 -1.849906
    35 0.055573 -0.028908 0.000000 0.000000 0.000000 0.000000
    36 1.646738 0.449549 -1.702246 -0.391617 1.092980 -0.290137
    37 0.928312 0.000000 -0.000002 0.000000 0.000000 0.000000
    38 0.928314 0.000000 0.000001 0.000000 0.000000 0.000000
    39 1.533672 0.109715 1.664491 -0.264755 -0.055959 0.783109
    40 0.928313 0.000000 0.000000 0.000000 0.000000 -0.453556
    41 0.928314 0.000000 0.000001 0.000000 0.000000 0.000000
  time 3
    0 0.235347 0.367732 -14.608345 0.000000 0.270322 -1.570874
    1 0.000000 0.000000 0.000000 -1.570795 -1.570796 0.000000
    2 -0.000005 0.000007 3.713255 2.914525 6.061903 1.331528
    3 18.045721 0.000000 0.000000 0.000000 0.000000 -1.349242
    4 17.597597 0.000000 0.000000 -0.205057 0.225938 -0.216505
    5 0.000005 -0.000003 -3.713255 -0.067002 -3.740518 -0.837425
    6 18.045725 0.000000 0.000000 0.000000 0.000000 -2.074647
    7 17.597597 0.000000 0.000000 -0.092081 0.087821 0.559948
    8 1.293670 0.684478 -0.000001 -0.000004 -0.000001 0.079297
    9 5.309685 -0.003834 0.000000 -0.268710 0.030429 0.109266
    10 4.826790 -0.004591 0.000000 -0.270290 -0.007143 -0.026600
    11 5.792767 -0.005304 0.000000 -0.139299 -0.008365 -0.060396
    12 6.662317 -0.001453 0.000000 0.000000 -0.000001 0.471000
    13 2.046985 -0.000002 0.000000 0.374391 0.579738 -1.258117
    14 -3.112024 1.517254 4.341911 2.414838 -0.927476 0.146449
    15 4.827230 0.000000 0.000001 -1.586588 -0.506222 -1.248609
    16 11.139763 0.000000 0.000000 0.000000 0.000000 -1.137528
    17 10.314597 0.000001 0.000000 -0.655375 0.368141 -0.269531
    18 2.975834 -0.386307 -0.044143 -0.019493 -0.039033 0.445214
    19 1.438886 0.000000 0.000000 0.000000 0.000000 0.505855
    20 1.485303 0.000000 0.000000 0.000000 0.000000 0.532034
    21 -2.869898 1.399663 -4.140396 -0.000013 1.354684 2.669783
    22 4.972048 0.000000 0.000001 1.120470 -0.154205 -1.868374
    23 11.585355 0.000000 0.000000 0.000000 0.000000 -2.024615
    24 10.127057 0.000000 0.000001 1.969610 0.138389 0.944277
    25 2.683750 -0.427338 0.044205 -0.005786 0.043239 -0.157091
    26 1.438885 -0.000001 0.000000 0.000000 0.000000 0.732658
    27 1.485305 0.000001 0.000000 0.000000 0.000000 1.168770
    28 1.038631 0.548043 -0.144017 -0.000001 0.000001 -1.849906
    29 -0.064003 -0.023521 0.026161 0.000000 0.000000 0.000000
    30 3.013925 3.984634 -0.088975 -0.000001 0.000001 -1.849906
    31 -0.084188 -0.025627 -0.001098 0.000000 0.000000 0.000000
    32 4.778187 3.972486 -0.079803 -0.000001 0.000001 -1.849906
    33 -0.058556 -0.021324 0.004244 0.000000 0.000000 0.000000
    34 1.640598 -1.968779 -0.099219 -0.000001 0.000001 -1.849906
    35 0.055573 -0.028908 0.000000 0.000000 0.000000 0.000000
    36 1.646738 0.449549 -1.702246 -0.391617 1.092980 -0.290137
    37 0.928312 0.000000 -0.000002 0.000000 0.000000 0.000000
    38 0.928314 0.000000 0.000001 0.000000 0.000000 0.000000
    39 1.533672 0.109715 1.664491 -0.264755 -0.055959 0.783109
    40 0.928313 0.000000 0.000000 0.000000 0.000000 -0.453556
    41 0.928314 0.000000 0.000001 0.000000 0.000000 0.000000
  time 4
    0 0.235347 0.367732 -14.608345 0.000000 0.270322 -1.570874
    1 0.000000 0.000000 0.000000 -1.570795 -1.570796 0.000000
    2 -0.000005 0.000007 3.713255 2.914525 6.061903 1.331528
    3 18.045721 0.000000 0.000000 0.000000 0.000000 -1.349242
    4 17.597597 0.000000 0.000000 -0.205057 0.225938 -0.216505
    5 0.000005 -0.000003 -3.713255 -0.067002 -3.740518 -0.837425
    6 18.045725 0.000000 0.000000 0.000000 0.000000 -2.074647
    7 17.597597 0.000000 0.000000 -0.092081 0.087821 0.559948
    8 1.293670 0.684478 -0.000001 -0.000004 -0.000001 0.079297
    9 5.309685 -0.003834 0.000000 -0.268710 0.030429 0.109266
    10 4.826790 -0.004591 0.000000 -0.270307 -0.006220 -0.023271
    11 5.792767 -0.005304 0.000000 -0.139332 -0.007790 -0.056285
    12 6.662317 -0.001453 0.000000 0.000000 -0.000001 0.471000
    13 2.046985 -0.000002 0.000000 0.373960 0.580053 -1.265893
    14 -3.112024 1.517254 4.341911 2.409277 -0.932092 0.153448
    15 4.827230 0.000000 0.000001 -1.578247 -0.514902 -1.249396
    16 11.139763 0.000000 0.000000 0.000000 0.000000 -1.137528
    17 10.314597 0.000001 0.000000 -0.655375 0.368141 -0.269531
    18 2.975834 -0.386307 -0.044143 -0.019493 -0.039033 0.445214
    19 1.438886 0.000000 0.000000 0.000000 0.000000 0.505855
    20 1.485303 0.000000 0.000000 0.000000 0.000000 0.532034
    21 -2.869898 1.399663 -4.140396 -0.000013 1.347110 2.669783
    22 4.972048 0.000000 0.000001 1.111342 -0.149298 -1.868638
    23 11.585355 0.000000 0.000000 0.000000 0.000000 -2.024615
    24 10.127057 0.000000 0.000001 1.969610 0.138389 0.944277
    25 2.683750 -0.427338 0.044205 -0.005786 0.043239 -0.157091
    26 1.438885 -0.000001 0.000000 0.000000 0.000000 0.732658
    27 1.485305 0.000001 0.000000 0.000000 0.000000 1.168770
    28 1.038631 0.548043 -0.144017 -0.000001 0.000001 -1.849906
    29 -0.064003 -0.023521 0.026161 0.000000 0.000000 0.000000
    30 3.013925 3.984634 -0.088975 -0.000001 0.000001 -1.849906
    31 -0.084188 -0.025627 -0.001098 0.000000 0.000000 0.000000
    32 4.778187 3.972486 -0.079803 -0.000001 0.000001 -1.849906
    33 -0.058556 -0.021324 0.004244 0.000000 0.000000 0.000000
    34 1.640598 -1.968779 -0.099219 -0.000001 0.000001 -1.849906
    35 0.055573 -0.028908 0.000000 0.000000 0.000000 0.000000
    36 1.646738 0.449549 -1.702246 -0.391617 1.092980 -0.290137
    37 0.928312 0.000000 -0.000002 0.000000 0.000000 0.000000
    38 0.928314 0.000000 0.000001 0.000000 0.000000 0.000000
    39 1.533672 0.109715 1.664491 -0.264755 -0.055959 0.783109
    40 0.928313 0.000000 0.000000 0.000000 0.000000 -0.453556
    41 0.928314 0.000000 0.000001 0.000000 0.000000 0.000000
  time 5
    0 0.235347 0.367732 -14.608345 0.000000 0.270322 -1.570874
    1 0.000000 0.000000 0.000000 -1.570795 -1.570796 0.000000
    2 -0.000005 0.000007 3.713255 2.914525 6.061903 1.331528
    3 18.045721 0.000000 0.000000 0.000000 0.000000 -1.349242
    4 17.597597 0.000000 0.000000 -0.205057 0.225938 -0.216505
    5 0.000005 -0.000003 -3.713255 -0.067002 -3.740518 -0.837425
    6 18.045725 0.000000 0.000000 0.000000 0.000000 -2.074647
    7 17.597597 0.000000 0.000000 -0.092081 0.087821 0.559948
    8 1.293670 0.684478 -0.000001 -0.000004 -0.000001 0.079297
    9 5.309685 -0.003834 0.000000 -0.268710 0.030429 0.109266
    10 4.826790 -0.004591 0.000000 -0.270340 -0.005213 -0.019655
    11 5.792767 -0.005304 0.000000 -0.139364 -0.007155 -0.051821
    12 6.662317 -0.001453 0.000000 0.000000 -0.000001 0.471000
    13 2.046985 -0.000002 0.000000 0.373486 0.580413 -1.274389
    14 -3.112024 1.517254 4.341911 2.403141 -0.937131 0.161022
    15 4.827230 0.000000 0.000001 -1.569025 -0.524348 -1.250447
    16 11.139763 0.000000 0.000000 0.000000 0.000000 -1.137528
    17 10.314597 0.000001 0.000000 -0.655375 0.368141 -0.269531
    18 2.975834 -0.386307 -0.044143 -0.019493 -0.039033 0.445214
    19 1.438886 0.000000 0.000000 0.000000 0.000000 0.505855
    20 1.485303 0.000000 0.000000 0.000000 0.000000 0.532034
    21 -2.869898 1.399663 -4.140396 -0.000013 1.338828 2.669783
    22 4.972048 0.000000 0.000001 1.101518 -0.143908 -1.869033
    23 11.585355 0.000000 0.000000 0.000000 0.000000 -2.024615
    24 10.127057 0.000000 0.000001 1.969610 0.138389 0.944277
    25 2.683750 -0.427338 0.044205 -0.005786 0.043239 -0.157091
    26 1.438885 -0.000001 0.000000 0.000000 0.000000 0.732658
    27 1.485305 0.000001 0.000000 0.000000 0.000000 1.168770
    28 1.038631 0.548043 -0.144017 -0.000001 0.000001 -1.849906
    29 -0.064003 -0.023521 0.026161 0.000000 0.000000 0.000000
    30 3.013925 3.984634 -0.088975 -0.000001 0.000001 -1.849906
    31 -0.084188 -0.025627 -0.001098 0.000000 0.000000 0.000000
    32 4.778187 3.972486 -0.079803 -0.000001 0.000001 -1.849906
    33 -0.058556 -0.021324 0.004244 0.000000 0.000000 0.000000
    34 1.640598 -1.968779 -0.099219 -0.000001 0.000001 -1.849906
    35 0.055573 -0.028908 0.000000 0.000000 0.000000 0.000000
    36 1.646738 0.449549 -1.702246 -0.391617 1.092980 -0.290137
    37 0.928312 0.000000 -0.000002 0.000000 0.000000 0.000000
    38 0.928314 0.000000 0.000001 0.000000 0.000000 0.000000
    39 1.533672 0.109715 1.664491 -0.264755 -0.055959 0.783109
    40 0.928313 0.000000 0.000000 0.000000 0.000000 -0.453556
    41 0.928314 0.000000 0.000001 0.000000 0.000000 0.000000
  time 6
    0 0.235347 0.367732 -14.608345 0.000000 0.270322 -1.570874
    1 0.000000 0.000000 0.000000 -1.570795 -1.570796 0.000000
    2 -0.000005 0.000007 3.713255 2.914525 6.061903 1.331528
    3 18.045721 0.000000 0.000000 0.000000 0.000000 -1.349242
    4 17.597597 0.000000 0.000000 -0.205057 0.225938 -0.216505
    5 0.000005 -0.000003 -3.713255 -0.067002 -3.740518 -0.837425
    6 18.045725 0.000000 0.000000 0.000000 0.000000 -2.074647
    7 17.597597 0.000000 0.000000 -0.092081 0.087821 0.559948
    8 1.293670 0.684478 -0.000001 -0.000004 -0.000001 0.079297
    9 5.309685 -0.003834 0.000000 -0.268710 0.030429 0.109266
    10 4.826790 -0.004591 0.000000 -0.270356 -0.004159 -0.015840
    11 5.792767 -0.005304 0.000000 -0.139397 -0.006496 -0.047128
    12 6.662317 -0.001453 0.000000 0.000000 -0.000001 0.471000
    13 2.046985 -0.000002 0.000000 0.373012 0.580774 -1.283333
    14 -3.112024 1.517254 4.341911 2.396622 -0.942363 0.169171
    15 4.827230 0.000000 0.000001 -1.559334 -0.534305 -1.251672
    16 11.139763 0.000000 0.000000 0.000000 0.000000 -1.137528
    17 10.314597 0.000001 0.000000 -0.655375 0.368141 -0.269531
    18 2.975834 -0.386307 -0.044143 -0.019493 -0.039033 0.445214
    19 1.438886 0.000000 0.000000 0.000000 0.000000 0.505855
    20 1.485303 0.000000 0.000000 0.000000 0.000000 0.532034
    21 -2.869898 1.399663 -4.140396 -0.000013 1.330123 2.669783
    22 4.972048 0.000000 0.000001 1.091153 -0.138197 -1.869560
    23 11.585355 0.000000 0.000000 0.000000 0.000000 -2.024615
    24 10.127057 0.000000 0.000001 1.969610 0.138389 0.944277
    25 2.683750 -0.427338 0.044205 -0.005786 0.043239 -0.157091
    26 1.438885 -0.000001 0.000000 0.000000 0.000000 0.732658
    27 1.485305 0.000001 0.000000 0.000000 0.000000 1.168770
    28 1.038631 0.548043 -0.144017 -0.000001 0.000001 -1.849906
    29 -0.064003 -0.023521 0.026161 0.000000 0.000000 0.000000
    30 3.013925 3.984634 -0.088975 -0.000001 0.000001 -1.849906
    31 -0.084188 -0.025627 -0.001098 0.000000 0.000000 0.000000
    32 4.778187 3.972486 -0.079803 -0.000001 0.000001 -1.849906
    33 -0.058556 -0.021324 0.004244 0.000000 0.000000 0.000000
    34 1.640598 -1.968779 -0.099219 -0.000001 0.000001 -1.849906
    35 0.055573 -0.028908 0.000000 0.000000 0.000000 0.000000
    36 1.646738 0.449549 -1.702246 -0.391617 1.092980 -0.290137
    37 0.928312 0.000000 -0.000002 0.000000 0.000000 0.000000
    38 0.928314 0.000000 0.000001 0.000000 0.000000 0.000000
    39 1.533672 0.109715 1.664491 -0.264755 -0.055959 0.783109
    40 0.928313 0.000000 0.000000 0.000000 0.000000 -0.453556
    41 0.928314 0.000000 0.000001 0.000000 0.000000 0.000000
  time 7
    0 0.235347 0.367732 -14.608345 0.000000 0.270322 -1.570874
    1 0.000000 0.000000 0.000000 -1.570795 -1.570796 0.000000
    2 -0.000005 0.000007 3.713255 2.914525 6.061903 1.331528
    3 18.045721 0.000000 0.000000 0.000000 0.000000 -1.349242
    4 17.597597 0.000000 0.000000 -0.205057 0.225938 -0.216505
    5 0.000005 -0.000003 -3.713255 -0.067002 -3.740518 -0.837425
    6 18.045725 0.000000 0.000000 0.000000 0.000000 -2.074647
    7 17.597597 0.000000 0.000000 -0.092081 0.087821 0.559948
    8 1.293670 0.684478 -0.000001 -0.000004 -0.000001 0.079297
    9 5.309685 -0.003834 0.000000 -0.268710 0.030429 0.109266
    10 4.826790 -0.004591 0.000000 -0.270356 -0.003080 -0.011960
    11 5.792767 -0.005304 0.000000 -0.139430 -0.005825 -0.042332
    12 6.662317 -0.001453 0.000000 0.000000 -0.000001 0.471000
    13 2.046985 -0.000002 0.000000 0.372495 0.581134 -1.292457
    14 -3.112024 1.517254 4.341911 2.389719 -0.947671 0.177608
    15 4.827230 0.000000 0.000001 -1.549408 -0.544432 -1.253159
    16 11.139763 0.000000 0.000000 0.000000 0.000000 -1.137528
    17 10.314597 0.000001 0.000000 -0.655375 0.368141 -0.269531
    18 2.975834 -0.386307 -0.044143 -0.019493 -0.039033 0.445214
    19 1.438886 0.000000 0.000000 0.000000 0.000000 0.505855
    20 1.485303 0.000000 0.000000 0.000000 0.000000 0.532034
    21 -2.869898 1.399663 -4.140396 -0.000013 1.321248 2.669783
    22 4.972048 0.000000 0.000001 1.080555 -0.132486 -1.870284
    23 11.585355 0.000000 0.000000 0.000000 0.000000 -2.024615
    24 10.127057 0.000000 0.000001 1.969610 0.138389 0.944277
    25 2.683750 -0.427338 0.044205 -0.005786 0.043239 -0.157091
    26 1.438885 -0.000001 0.000000 0.000000 0.000000 0.732658
    27 1.485305 0.000001 0.000000 0.000000 0.000000 1.168770
    28 1.038631 0.548043 -0.144017 -0.000001 0.000001 -1.849906
    29 -0.064003 -0.023521 0.026161 0.000000 0.000000 0.000000
    30 3.013925 3.984634 -0.088975 -0.000001 0.000001 -1.849906
    31 -0.084188 -0.025627 -0.001098 0.000000 0.000000 0.000000
    32 4.778187 3.972486 -0.079803 -0.000001 0.000001 -1.849906
    33 -0.058556 -0.021324 0.004244 0.000000 0.000000 0.000000
    34 1.640598 -1.968779 -0.099219 -0.000001 0.000001 -1.849906
    35 0.055573 -0.028908 0.000000 0.000000 0.000000 0.000000
    36 1.646738 0.449549 -1.702246 -0.391617 1.092980 -0.290137
    37 0.928312 0.000000 -0.000002 0.000000 0.000000 0.000000
    38 0.928314 0.000000 0.000001 0.000000 0.000000 0.000000
    39 1.533672 0.109715 1.664491 -0.264755 -0.055959 0.783109
    40 0.928313 0.000000 0.000000 0.000000 0.000000 -0.453556
    41 0.928314 0.000000 0.000001 0.000000 0.000000 0.000000
  time 8
    0 0.235347 0.367732 -14.608345 0.000000 0.270322 -1.570874
    1 0.000000 0.000000 0.000000 -1.570795 -1.570796 0.000000
    2 -0.000005 0.000007 3.713255 2.914525 6.061903 1.331528
    3 18.045721 0.000000 0.000000 0.000000 0.000000 -1.349242
    4 17.597597 0.000000 0.000000 -0.205057 0.225938 -0.216505
    5 0.000005 -0.000003 -3.713255 -0.067002 -3.740518 -0.837425
    6 18.045725 0.000000 0.000000 0.000000 0.000000 -2.074647
    7 17.597597 0.000000 0.000000 -0.092081 0.087821 0.559948
    8 1.293670 0.684478 -0.000001 -0.000004 -0.000001 0.079297
    9 5.309685 -0.003834 0.000000 -0.268710 0.030429 0.109266
    10 4.826790 -0.004591 0.000000 -0.270372 -0.002013 -0.008101
    11 5.792767 -0.005304 0.000000 -0.139446 -0.005165 -0.037577
    12 6.662317 -0.001453 0.000000 0.000000 -0.000001 0.471000
    13 2.046985 -0.000002 0.000000 0.371978 0.581494 -1.301492
    14 -3.112024 1.517254 4.341911 2.382816 -0.952903 0.186141
    15 4.827230 0.000000 0.000001 -1.539481 -0.554474 -1.254735
    16 11.139763 0.000000 0.000000 0.000000 0.000000 -1.137528
    17 10.314597 0.000001 0.000000 -0.655375 0.368141 -0.269531
    18 2.975834 -0.386307 -0.044143 -0.019493 -0.039033 0.445214
    19 1.438886 0.000000 0.000000 0.000000 0.000000 0.505855
    20 1.485303 0.000000 0.000000 0.000000 0.000000 0.532034
    21 -2.869898 1.399663 -4.140396 -0.000013 1.312486 2.669783
    22 4.972048 0.000000 0.000001 1.070112 -0.126774 -1.871075
    23 11.585355 0.000000 0.000000 0.000000 0.000000 -2.024615
    24 10.127057 0.000000 0.000001 1.969610 0.138389 0.944277
    25 2.683750 -0.427338 0.044205 -0.005786 0.043239 -0.157091
    26 1.438885 -0.000001 0.000000 0.000000 0.000000 0.732658
    27 1.485305 0.000001 0.000000 0.000000 0.000000 1.168770
    28 1.038631 0.548043 -0.144017 -0.000001 0.000001 -1.849906
    29 -0.064003 -0.023521 0.026161 0.000000 0.000000 0.000000
    30 3.013925 3.984634 -0.088975 -0.000001 0.000001 -1.849906
    31 -0.084188 -0.025627 -0.001098 0.000000 0.000000 0.000000
    32 4.778187 3.972486 -0.079803 -0.000001 0.000001 -1.849906
    33 -0.058556 -0.021324 0.004244 0.000000 0.000000 0.000000
    34 1.640598 -1.968779 -0.099219 -0.000001 0.000001 -1.849906
    35 0.055573 -0.028908 0.000000 0.000000 0.000000 0.000000
    36 1.646738 0.449549 -1.702246 -0.391617 1.092980 -0.290137
    37 0.928312 0.000000 -0.000002 0.000000 0.000000 0.000000
    38 0.928314 0.000000 0.000001 0.000000 0.000000 0.000000
    39 1.533672 0.109715 1.664491 -0.264755 -0.055959 0.783109
    40 0.928313 0.000000 0.000000 0.000000 0.000000 -0.453556
    41 0.928314 0.000000 0.000001 0.000000 0.000000 0.000000
  time 9
    0 0.235347 0.367732 -14.608345 0.000000 0.270322 -1.570874
    1 0.000000 0.000000 0.000000 -1.570795 -1.570796 0.000000
    2 -0.000005 0.000007 3.713255 2.914525 6.061903 1.331528
    3 18.045721 0.000000 0.000000 0.000000 0.000000 -1.349242
    4 17.597597 0.000000 0.000000 -0.205057 0.225938 -0.216505
    5 0.000005 -0.000003 -3.713255 -0.067002 -3.740518 -0.837425
    6 18.045725 0.000000 0.000000 0.000000 0.000000 -2.074647
    7 17.597597 0.000000 0.000000 -0.092081 0.087821 0.559948
    8 1.293670 0.684478 -0.000001 -0.000004 -0.000001 0.079297
    9 5.309685 -0.003834 0.000000 -0.268710 0.030429 0.109266
    10 4.826790 -0.004591 0.000000 -0.270372 -0.000995 -0.004419
    11 5.792767 -0.005304 0.000000 -0.139479 -0.004518 -0.033030
    12 6.662317 -0.001453 0.000000 0.000000 -0.000001 0.471000
    13 2.046985 -0.000002 0.000000 0.371504 0.581832 -1.310167
    14 -3.112024 1.517254 4.341911 2.376105 -0.957903 0.194387
    15 4.827230 0.000000 0.000001 -1.529848 -0.564175 -1.256485
    16 11.139763 0.000000 0.000000 0.000000 0.000000 -1.137528
    17 10.314597 0.000001 0.000000 -0.655375 0.368141 -0.269531
    18 2.975834 -0.386307 -0.044143 -0.019493 -0.039033 0.445214
    19 1.438886 0.000000 0.000000 0.000000 0.000000 0.505855
    20 1.485303 0.000000 0.000000 0.000000 0.000000 0.532034
    21 -2.869898 1.399663 -4.140396 -0.000013 1.304035 2.669783
    22 4.972048 0.000000 0.000001 1.060056 -0.121385 -1.871997
    23 11.585355 0.000000 0.000000 0.000000 0.000000 -2.024615
    24 10.127057 0.000000 0.000001 1.969610 0.138389 0.944277
    25 2.683750 -0.427338 0.044205 -0.005786 0.043239 -0.157091
    26 1.438885 -0.000001 0.000000 0.000000 0.000000 0.732658
    27 1.485305 0.000001 0.000000 0.000000 0.000000 1.168770
    28 1.038631 0.548043 -0.144017 -0.000001 0.000001 -1.849906
    29 -0.064003 -0.023521 0.026161 0.000000 0.000000 0.000000
    30 3.013925 3.984634 -0.088975 -0.000001 0.000001 -1.849906
    31 -0.084188 -0.025627 -0.001098 0.000000 0.000000 0.000000
    32 4.778187 3.972486 -0.079803 -0.000001 0.000001 -1.849906
    33 -0.058556 -0.021324 0.004244 0.000000 0.000000 0.000000
    34 1.640598 -1.968779 -0.099219 -0.000001 0.000001 -1.849906
    35 0.055573 -0.028908 0.000000 0.000000 0.000000 0.000000
    36 1.646738 0.449549 -1.702246 -0.391617 1.092980 -0.290137
    37 0.928312 0.000000 -0.000002 0.000000 0.000000 0.000000
    38 0.928314 0.000000 0.000001 0.000000 0.000000 0.000000
    39 1.533672 0.109715 1.664491 -0.264755 -0.055959 0.783109
    40 0.928313 0.000000 0.000000 0.000000 0.000000 -0.453556
    41 0.928314 0.000000 0.000001 0.000000 0.000000 0.000000
  time 10
    0 0.235347 0.367732 -14.608345 0.000000 0.270322 -1.570874
    1 0.000000 0.000000 0.000000 -1.570795 -1.570796 0.000000
    2 -0.000005 0.000007 3.713255 2.914525 6.061903 1.331528
    3 18.045721 0.000000 0.000000 0.000000 0.000000 -1.349242
    4 17.597597 0.000000 0.000000 -0.205057 0.225938 -0.216505
    5 0.000005 -0.000003 -3.713255 -0.067002 -3.740518 -0.837425
    6 18.045725 0.000000 0.000000 0.000000 0.000000 -2.074647
    7 17.597597 0.000000 0.000000 -0.092081 0.087821 0.559948
    8 1.293670 0.684478 -0.000001 -0.000004 -0.000001 0.079297
    9 5.309685 -0.003834 0.000000 -0.268710 0.030429 0.109266
    10 4.826790 -0.004591 0.000000 -0.270389 -0.000036 -0.000979
    11 5.792767 -0.005304 0.000000 -0.139495 -0.003931 -0.028795
    12 6.662317 -0.001453 0.000000 0.000000 -0.000001 0.471000
    13 2.046985 -0.000002 0.000000 0.371030 0.582147 -1.318213
    14 -3.112024 1.517254 4.341911 2.369777 -0.962519 0.202153
    15 4.827230 0.000000 0.000001 -1.520862 -0.573196 -1.258235
    16 11.139763 0.000000 0.000000 0.000000 0.000000 -1.137528
    17 10.314597 0.000001 0.000000 -0.655375 0.368141 -0.269531
    18 2.975834 -0.386307 -0.044143 -0.019493 -0.039033 0.445214
    19 1.438886 0.000000 0.000000 0.000000 0.000000 0.505855
    20 1.485303 0.000000 0.000000 0.000000 0.000000 0.532034
    21 -2.869898 1.399663 -4.140396 -0.000013 1.296178 2.669783
    22 4.972048 0.000000 0.000001 1.050774 -0.116397 -1.872985
    23 11.585355 0.000000 0.000000 0.000000 0.000000 -2.024615
    24 10.127057 0.000000 0.000001 1.969610 0.138389 0.944277
    25 2.683750 -0.427338 0.044205 -0.005786 0.043239 -0.157091
    26 1.438885 -0.000001 0.000000 0.000000 0.000000 0.732658
    27 1.485305 0.000001 0.000000 0.000000 0.000000 1.168770
    28 1.038631 0.548043 -0.144017 -0.000001 0.000001 -1.849906
    29 -0.064003 -0.023521 0.026161 0.000000 0.000000 0.000000
    30 3.013925 3.984634 -0.088975 -0.000001 0.000001 -1.849906
    31 -0.084188 -0.025627 -0.001098 0.000000 0.000000 0.000000
    32 4.778187 3.972486 -0.079803 -0.000001 0.000001 -1.849906
    33 -0.058556 -0.021324 0.004244 0.000000 0.000000 0.000000
    34 1.640598 -1.968779 -0.099219 -0.000001 0.000001 -1.849906
    35 0.055573 -0.028908 0.000000 0.000000 0.000000 0.000000
    36 1.646738 0.449549 -1.702246 -0.391617 1.092980 -0.290137
    37 0.928312 0.000000 -0.000002 0.000000 0.000000 0.000000
    38 0.928314 0.000000 0.000001 0.000000 0.000000 0.000000
    39 1.533672 0.109715 1.664491 -0.264755 -0.055959 0.783109
    40 0.928313 0.000000 0.000000 0.000000 0.000000 -0.453556
    41 0.928314 0.000000 0.000001 0.000000 0.000000 0.000000
  time 11
    0 0.235347 0.367732 -14.608345 0.000000 0.270322 -1.570874
    1 0.000000 0.000000 0.000000 -1.570795 -1.570796 0.000000
    2 -0.000005 0.000007 3.713255 2.914525 6.061903 1.331528
    3 18.045721 0.000000 0.000000 0.000000 0.000000 -1.349242
    4 17.597597 0.000000 0.000000 -0.205057 0.225938 -0.216505
    5 0.000005 -0.000003 -3.713255 -0.067002 -3.740518 -0.837425
    6 18.045725 0.000000 0.000000 0.000000 0.000000 -2.074647
    7 17.597597 0.000000 0.000000 -0.092081 0.087821 0.559948
    8 1.293670 0.684478 -0.000001 -0.000004 -0.000001 0.079297
    9 5.309685 -0.003834 0.000000 -0.268710 0.030429 0.109266
    10 4.826790 -0.004591 0.000000 -0.270372 0.000803 0.002086
    11 5.792767 -0.005304 0.000000 -0.139511 -0.003392 -0.025016
    12 6.662317 -0.001453 0.000000 0.000000 -0.000001 0.471000
    13 2.046985 -0.000002 0.000000 0.370642 0.582440 -1.325404
    14 -3.112024 1.517254 4.341911 2.363929 -0.966635 0.209152
    15 4.827230 0.000000 0.000001 -1.512815 -0.581196 -1.259810
    16 11.139763 0.000000 0.000000 0.000000 0.000000 -1.137528
    17 10.314597 0.000001 0.000000 -0.655375 0.368141 -0.269531
    18 2.975834 -0.386307 -0.044143 -0.019493 -0.039033 0.445214
    19 1.438886 0.000000 0.000000 0.000000 0.000000 0.505855
    20 1.485303 0.000000 0.000000 0.000000 0.000000 0.532034
    21 -2.869898 1.399663 -4.140396 -0.000013 1.289196 2.669783
    22 4.972048 0.000000 0.000001 1.042419 -0.111973 -1.873907
    23 11.585355 0.000000 0.000000 0.000000 0.000000 -2.024615
    24 10.127057 0.000000 0.000001 1.969610 0.138389 0.944277
    25 2.683750 -0.427338 0.044205 -0.005786 0.043239 -0.157091
    26 1.438885 -0.000001 0.000000 0.000000 0.000000 0.732658
    27 1.485305 0.000001 0.000000 0.000000 0.000000 1.168770
    28 1.038631 0.548043 -0.144017 -0.000001 0.000001 -1.849906
    29 -0.064003 -0.023521 0.026161 0.000000 0.000000 0.000000
    30 3.013925 3.984634 -0.088975 -0.000001 0.000001 -1.849906
    31 -0.084188 -0.025627 -0.001098 0.000000 0.000000 0.000000
    32 4.778187 3.972486 -0.079803 -0.000001 0.000001 -1.849906
    33 -0.058556 -0.021324 0.004244 0.000000 0.000000 0.000000
    34 1.640598 -1.968779 -0.099219 -0.000001 0.000001 -1.849906
    35 0.055573 -0.028908 0.000000 0.000000 0.000000 0.000000
    36 1.646738 0.449549 -1.702246 -0.391617 1.092980 -0.290137
    37 0.928312 0.000000 -0.000002 0.000000 0.000000 0.000000
    38 0.928314 0.000000 0.000001 0.000000 0.000000 0.000000
    39 1.533672 0.109715 1.664491 -0.264755 -0.055959 0.783109
    40 0.928313 0.000000 0.000000 0.000000 0.000000 -0.453556
    41 0.928314 0.000000 0.000001 0.000000 0.000000 0.000000
  time 12
    0 0.235347 0.367732 -14.608345 0.000000 0.270322 -1.570874
    1 0.000000 0.000000 0.000000 -1.570795 -1.570796 0.000000
    2 -0.000005 0.000007 3.713255 2.914525 6.061903 1.331528
    3 18.045721 0.000000 0.000000 0.000000 0.000000 -1.349242
    4 17.597597 0.000000 0.000000 -0.205057 0.225938 -0.216505
    5 0.000005 -0.000003 -3.713255 -0.067002 -3.740518 -0.837425
    6 18.045725 0.000000 0.000000 0.000000 0.000000 -2.074647
    7 17.597597 0.000000 0.000000 -0.092081 0.087821 0.559948
    8 1.293670 0.684478 -0.000001 -0.000004 -0.000001 0.079297
    9 5.309685 -0.003834 0.000000 -0.268710 0.030429 0.109266
    10 4.826790 -0.004591 0.000000 -0.270372 0.001510 0.004665
    11 5.792767 -0.005304 0.000000 -0.139511 -0.002948 -0.021839
    12 6.662317 -0.001453 0.000000 0.000000 -0.000001 0.471000
    13 2.046985 -0.000002 0.000000 0.370298 0.582665 -1.331427
    14 -3.112024 1.517254 4.341911 2.359040 -0.970058 0.215192
    15 4.827230 0.000000 0.000001 -1.505943 -0.588004 -1.261298
    16 11.139763 0.000000 0.000000 0.000000 0.000000 -1.137528
    17 10.314597 0.000001 0.000000 -0.655375 0.368141 -0.269531
    18 2.975834 -0.386307 -0.044143 -0.019493 -0.039033 0.445214
    19 1.438886 0.000000 0.000000 0.000000 0.000000 0.505855
    20 1.485303 0.000000 0.000000 0.000000 0.000000 0.532034
    21 -2.869898 1.399663 -4.140396 -0.000013 1.283318 2.669783
    22 4.972048 0.000000 0.000001 1.035457 -0.108192 -1.874830
    23 11.585355 0.000000 0.000000 0.000000 0.000000 -2.024615
    24 10.127057 0.000000 0.000001 1.969610 0.138389 0.944277
    25 2.683750 -0.427338 0.044205 -0.005786 0.043239 -0.157091
    26 1.438885 -0.000001 0.000000 0.000000 0.000000 0.732658
    27 1.485305 0.000001 0.000000 0.000000 0.000000 1.168770
    28 1.038631 0.548043 -0.144017 -0.000001 0.000001 -1.849906
    29 -0.064003 -0.023521 0.026161 0.000000 0.000000 0.000000
    30 3.013925 3.984634 -0.088975 -0.000001 0.000001 -1.849906
    31 -0.084188 -0.025627 -0.001098 0.000000 0.000000 0.000000
    32 4.778187 3.972486 -0.079803 -0.000001 0.000001 -1.849906
    33 -0.058556 -0.021324 0.004244 0.000000 0.000000 0.000000
    34 1.640598 -1.968779 -0.099219 -0.000001 0.000001 -1.849906
    35 0.055573 -0.028908 0.000000 0.000000 0.000000 0.000000
    36 1.646738 0.449549 -1.702246 -0.391617 1.092980 -0.290137
    37 0.928312 0.000000 -0.000002 0.000000 0.000000 0.000000
    38 0.928314 0.000000 0.000001 0.000000 0.000000 0.000000
    39 1.533672 0.109715 1.664491 -0.264755 -0.055959 0.783109
    40 0.928313 0.000000 0.000000 0.000000 0.000000 -0.453556
    41 0.928314 0.000000 0.000001 0.000000 0.000000 0.000000
  time 13
    0 0.235347 0.367732 -14.608345 0.000000 0.270322 -1.570874
    1 0.000000 0.000000 0.000000 -1.570795 -1.570796 0.000000
    2 -0.000005 0.000007 3.713255 2.914525 6.061903 1.331528
    3 18.045721 0.000000 0.000000 0.000000 0.000000 -1.349242
    4 17.597597 0.000000 0.000000 -0.205057 0.225938 -0.216505
    5 0.000005 -0.000003 -3.713255 -0.067002 -3.740518 -0.837425
    6 18.045725 0.000000 0.000000 0.000000 0.000000 -2.074647
    7 17.597597 0.000000 0.000000 -0.092081 0.087821 0.559948
    8 1.293670 0.684478 -0.000001 -0.000004 -0.000001 0.079297
    9 5.309685 -0.003834 0.000000 -0.268710 0.030429 0.109266
    10 4.826790 -0.004591 0.000000 -0.270372 0.002061 0.006650
    11 5.792767 -0.005304 0.000000 -0.139528 -0.002613 -0.019389
    12 6.662317 -0.001453 0.000000 0.000000 -0.000001 0.471000
    13 2.046985 -0.000002 0.000000 0.370039 0.582868 -1.336102
    14 -3.112024 1.517254 4.341911 2.355205 -0.972674 0.219794
    15 4.827230 0.000000 0.000001 -1.500656 -0.593195 -1.262523
    16 11.139763 0.000000 0.000000 0.000000 0.000000 -1.137528
    17 10.314597 0.000001 0.000000 -0.655375 0.368141 -0.269531
    18 2.975834 -0.386307 -0.044143 -0.019493 -0.039033 0.445214
    19 1.438886 0.000000 0.000000 0.000000 0.000000 0.505855
    20 1.485303 0.000000 0.000000 0.000000 0.000000 0.532034
    21 -2.869898 1.399663 -4.140396 -0.000013 1.278795 2.669783
    22 4.972048 0.000000 0.000001 1.030120 -0.105377 -1.875488
    23 11.585355 0.000000 0.000000 0.000000 0.000000 -2.024615
    24 10.127057 0.000000 0.000001 1.969610 0.138389 0.944277
    25 2.683750 -0.427338 0.044205 -0.005786 0.043239 -0.157091
    26 1.438885 -0.000001 0.000000 0.000000 0.000000 0.732658
    27 1.485305 0.000001 0.000000 0.000000 0.000000 1.168770
    28 1.038631 0.548043 -0.144017 -0.000001 0.000001 -1.849906
    29 -0.064003 -0.023521 0.026161 0.000000 0.000000 0.000000
    30 3.013925 3.984634 -0.088975 -0.000001 0.000001 -1.849906
    31 -0.084188 -0.025627 -0.001098 0.000000 0.000000 0.000000
    32 4.778187 3.972486 -0.079803 -0.000001 0.000001 -1.849906
    33 -0.058556 -0.021324 0.004244 0.000000 0.000000 0.000000
    34 1.640598 -1.968779 -0.099219 -0.000001 0.000001 -1.849906
    35 0.055573 -0.028908 0.000000 0.000000 0.000000 0.000000
    36 1.646738 0.449549 -1.702246 -0.391617 1.092980 -0.290137
    37 0.928312 0.000000 -0.000002 0.000000 0.000000 0.000000
    38 0.928314 0.000000 0.000001 0.000000 0.000000 0.000000
    39 1.533672 0.109715 1.664491 -0.264755 -0.055959 0.783109
    40 0.928313 0.000000 0.000000 0.000000 0.000000 -0.453556
    41 0.928314 0.000000 0.000001 0.000000 0.000000 0.000000
  time 14
    0 0.235347 0.367732 -14.608345 0.000000 0.270322 -1.570874
    1 0.000000 0.000000 0.000000 -1.570795 -1.570796 0.000000
    2 -0.000005 0.000007 3.713255 2.914525 6.061903 1.331528
    3 18.045721 0.000000 0.000000 0.000000 0.000000 -1.349242
    4 17.597597 0.000000 0.000000 -0.205057 0.225938 -0.216505
    5 0.000005 -0.000003 -3.713255 -0.067002 -3.740518 -0.837425
    6 18.045725 0.000000 0.000000 0.000000 0.000000 -2.074647
    7 17.597597 0.000000 0.000000 -0.092081 0.087821 0.559948
    8 1.293670 0.684478 -0.000001 -0.000004 -0.000001 0.079297
    9 5.309685 -0.003834 0.000000 -0.268710 0.030429 0.109266
    10 4.826790 -0.004591 0.000000 -0.270372 0.002409 0.007907
    11 5.792767 -0.005304 0.000000 -0.139528 -0.002385 -0.017832
    12 6.662317 -0.001453 0.000000 0.000000 -0.000001 0.471000
    13 2.046985 -0.000002 0.000000 0.369867 0.582980 -1.339068
    14 -3.112024 1.517254 4.341911 2.352712 -0.974328 0.222766
    15 4.827230 0.000000 0.000001 -1.497308 -0.596514 -1.263311
    16 11.139763 0.000000 0.000000 0.000000 0.000000 -1.137528
    17 10.314597 0.000001 0.000000 -0.655375 0.368141 -0.269531
    18 2.975834 -0.386307 -0.044143 -0.019493 -0.039033 0.445214
    19 1.438886 0.000000 0.000000 0.000000 0.000000 0.505855
    20 1.485303 0.000000 0.000000 0.000000 0.000000 0.532034
    21 -2.869898 1.399663 -4.140396 -0.000013 1.275884 2.669783
    22 4.972048 0.000000 0.000001 1.026639 -0.103527 -1.876015
    23 11.585355 0.000000 0.000000 0.000000 0.000000 -2.024615
    24 10.127057 0.000000 0.000001 1.969610 0.138389 0.944277
    25 2.683750 -0.427338 0.044205 -0.005786 0.043239 -0.157091
    26 1.438885 -0.000001 0.000000 0.000000 0.000000 0.732658
    27 1.485305 0.000001 0.000000 0.000000 0.000000 1.168770
    28 1.038631 0.548043 -0.144017 -0.000001 0.000001 -1.849906
    29 -0.064003 -0.023521 0.026161 0.000000 0.000000 0.000000
    30 3.013925 3.984634 -0.088975 -0.000001 0.000001 -1.849906
    31 -0.084188 -0.025627 -0.001098 0.000000 0.000000 0.000000
    32 4.778187 3.972486 -0.079803 -0.000001 0.000001 -1.849906
    33 -0.058556 -0.021324 0.004244 0.000000 0.000000 0.000000
    34 1.640598 -1.968779 -0.099219 -0.000001 0.000001 -1.849906
    35 0.055573 -0.028908 0.000000 0.000000 0.000000 0.000000
    36 1.646738 0.449549 -1.702246 -0.391617 1.092980 -0.290137
    37 0.928312 0.000000 -0.000002 0.000000 0.000000 0.000000
    38 0.928314 0.000000 0.000001 0.000000 0.000000 0.000000
    39 1.533672 0.109715 1.664491 -0.264755 -0.055959 0.783109
    40 0.928313 0.000000 0.000000 0.000000 0.000000 -0.453556
    41 0.928314 0.000000 0.000001 0.000000 0.000000 0.000000
  time 15
    0 0.235347 0.367732 -14.608345 0.000000 0.270322 -1.570874
    1 0.000000 0.000000 0.000000 -1.570795 -1.570796 0.000000
    2 -0.000005 0.000007 3.713255 2.914525 6.061903 1.331528
    3 18.045721 0.000000 0.000000 0.000000 0.000000 -1.349242
    4 17.597597 0.000000 0.000000 -0.205057 0.225938 -0.216505
    5 0.000005 -0.000003 -3.713255 -0.067002 -3.740518 -0.837425
    6 18.045725 0.000000 0.000000 0.000000 0.000000 -2.074647
    7 17.597597 0.000000 0.000000 -0.092081 0.087821 0.559948
    8 1.293670 0.684478 -0.000001 -0.000004 -0.000001 0.079297
    9 5.309685 -0.003834 0.000000 -0.268710 0.030429 0.109266
    10 4.826790 -0.004591 0.000000 -0.270372 0.002541 0.008370
    11 5.792767 -0.005304 0.000000 -0.139528 -0.002313 -0.017271
    12 6.662317 -0.001453 0.000000 0.000000 -0.000001 0.471000
    13 2.046985 -0.000002 0.000000 0.369781 0.583003 -1.340102
    14 -3.112024 1.517254 4.341911 2.351849 -0.974905 0.223821
    15 4.827230 0.000000 0.000001 -1.496075 -0.597705 -1.263573
    16 11.139763 0.000000 0.000000 0.000000 0.000000 -1.137528
    17 10.314597 0.000001 0.000000 -0.655375 0.368141 -0.269531
    18 2.975834 -0.386307 -0.044143 -0.019493 -0.039033 0.445214
    19 1.438886 0.000000 0.000000 0.000000 0.000000 0.505855
    20 1.485303 0.000000 0.000000 0.000000 0.000000 0.532034
    21 -2.869898 1.399663 -4.140396 -0.000013 1.274867 2.669783
    22 4.972048 0.000000 0.000001 1.025479 -0.102883 -1.876147
    23 11.585355 0.000000 0.000000 0.000000 0.000000 -2.024615
    24 10.127057 0.000000 0.000001 1.969610 0.138389 0.944277
    25 2.683750 -0.427338 0.044205 -0.005786 0.043239 -0.157091
    26 1.438885 -0.000001 0.000000 0.000000 0.000000 0.732658
    27 1.485305 0.000001 0.000000 0.000000 0.000000 1.168770
    28 1.038631 0.548043 -0.144017 -0.000001 0.000001 -1.849906
    29 -0.064003 -0.023521 0.026161 0.000000 0.000000 0.000000
    30 3.013925 3.984634 -0.088975 -0.000001 0.000001 -1.849906
    31 -0.084188 -0.025627 -0.001098 0.000000 0.000000 0.000000
    32 4.778187 3.972486 -0.079803 -0.000001 0.000001 -1.849906
    33 -0.058556 -0.021324 0.004244 0.000000 0.000000 0.000000
    34 1.640598 -1.968779 -0.099219 -0.000001 0.000001 -1.849906
    35 0.055573 -0.028908 0.000000 0.000000 0.000000 0.000000
    36 1.646738 0.449549 -1.702246 -0.391617 1.092980 -0.290137
    37 0.928312 0.000000 -0.000002 0.000000 0.000000 0.000000
    38 0.928314 0.000000 0.000001 0.000000 0.000000 0.000000
    39 1.533672 0.109715 1.664491 -0.264755 -0.055959 0.783109
    40 0.928313 0.000000 0.000000 0.000000 0.000000 -0.453556
    41 0.928314 0.000000 0.000001 0.000000 0.000000 0.000000
  time 16
    0 0.235347 0.367732 -14.608345 0.000000 0.270322 -1.570874
    1 0.000000 0.000000 0.000000 -1.570795 -1.570796 0.000000
    2 -0.000005 0.000007 3.713255 2.914525 6.061903 1.331528
    3 18.045721 0.000000 0.000000 0.000000 0.000000 -1.349242
    4 17.597597 0.000000 0.000000 -0.205057 0.225938 -0.216505
    5 0.000005 -0.000003 -3.713255 -0.067002 -3.740518 -0.837425
    6 18.045725 0.000000 0.000000 0.000000 0.000000 -2.074647
    7 17.597597 0.000000 0.000000 -0.092081 0.087821 0.559948
    8 1.293670 0.684478 -0.000001 -0.000004 -0.000001 0.079297
    9 5.309685 -0.003834 0.000000 -0.268710 0.030429 0.109266
    10 4.826790 -0.004591 0.000000 -0.270372 0.002409 0.007907
    11 5.792767 -0.005304 0.000000 -0.139528 -0.002385 -0.017832
    12 6.662317 -0.001453 0.000000 0.000000 -0.000001 0.471000
    13 2.046985 -0.000002 0.000000 0.369867 0.582980 -1.339068
    14 -3.112024 1.517254 4.341911 2.352712 -0.974328 0.222766
    15 4.827230 0.000000 0.000001 -1.497308 -0.596514 -1.263311
    16 11.139763 0.000000 0.000000 0.000000 0.000000 -1.137528
    17 10.314597 0.000001 0.000000 -0.655375 0.368141 -0.269531
    18 2.975834 -0.386307 -0.044143 -0.019493 -0.039033 0.445214
    19 1.438886 0.000000 0.000000 0.000000 0.000000 0.505855
    20 1.485303 0.000000 0.000000 0.000000 0.000000 0.532034
    21 -2.869898 1.399663 -4.140396 -0.000013 1.275884 2.669783
    22 4.972048 0.000000 0.000001 1.026639 -0.103527 -1.876015
    23 11.585355 0.000000 0.000000 0.000000 0.000000 -2.024615
    24 10.127057 0.000000 0.000001 1.969610 0.138389 0.944277
    25 2.683750 -0.427338 0.044205 -0.005786 0.043239 -0.157091
    26 1.438885 -0.000001 0.000000 0.000000 0.000000 0.732658
    27 1.485305 0.000001 0.000000 0.000000 0.000000 1.168770
    28 1.038631 0.548043 -0.144017 -0.000001 0.000001 -1.849906
    29 -0.064003 -0.023521 0.026161 0.000000 0.000000 0.000000
    30 3.013925 3.984634 -0.088975 -0.000001 0.000001 -1.849906
    31 -0.084188 -0.025627 -0.001098 0.000000 0.000000 0.000000
    32 4.778187 3.972486 -0.079803 -0.000001 0.000001 -1.849906
    33 -0.058556 -0.021324 0.004244 0.000000 0.000000 0.000000
    34 1.640598 -1.968779 -0.099219 -0.000001 0.000001 -1.849906
    35 0.055573 -0.028908 0.000000 0.000000 0.000000 0.000000
    36 1.646738 0.449549 -1.702246 -0.391617 1.092980 -0.290137
    37 0.928312 0.000000 -0.000002 0.000000 0.000000 0.000000
    38 0.928314 0.000000 0.000001 0.000000 0.000000 0.000000
    39 1.533672 0.109715 1.664491 -0.264755 -0.055959 0.783109
    40 0.928313 0.000000 0.000000 0.000000 0.000000 -0.453556
    41 0.928314 0.000000 0.000001 0.000000 0.000000 0.000000
  time 17
    0 0.235347 0.367732 -14.608345 0.000000 0.270322 -1.570874
    1 0.000000 0.000000 0.000000 -1.570795 -1.570796 0.000000
    2 -0.000005 0.000007 3.713255 2.914525 6.061903 1.331528
    3 18.045721 0.000000 0.000000 0.000000 0.000000 -1.349242
    4 17.597597 0.000000 0.000000 -0.205057 0.225938 -0.216505
    5 0.000005 -0.000003 -3.713255 -0.067002 -3.740518 -0.837425
    6 18.045725 0.000000 0.000000 0.000000 0.000000 -2.074647
    7 17.597597 0.000000 0.000000 -0.092081 0.087821 0.559948
    8 1.293670 0.684478 -0.000001 -0.000004 -0.000001 0.079297
    9 5.309685 -0.003834 0.000000 -0.268710 0.030429 0.109266
    10 4.826790 -0.004591 0.000000 -0.270372 0.002061 0.006650
    11 5.792767 -0.005304 0.000000 -0.139528 -0.002613 -0.019389
    12 6.662317 -0.001453 0.000000 0.000000 -0.000001 0.471000
    13 2.046985 -0.000002 0.000000 0.370039 0.582868 -1.336102
    14 -3.112024 1.517254 4.341911 2.355205 -0.972674 0.219794
    15 4.827230 0.000000 0.000001 -1.500656 -0.593195 -1.262523
    16 11.139763 0.000000 0.000000 0.000000 0.000000 -1.137528
    17 10.314597 0.000001 0.000000 -0.655375 0.368141 -0.269531
    18 2.975834 -0.386307 -0.044143 -0.019493 -0.039033 0.445214
    19 1.438886 0.000000 0.000000 0.000000 0.000000 0.505855
    20 1.485303 0.000000 0.000000 0.000000 0.000000 0.532034
    21 -2.869898 1.399663 -4.140396 -0.000013 1.278795 2.669783
    22 4.972048 0.000000 0.000001 1.030120 -0.105377 -1.875488
    23 11.585355 0.000000 0.000000 0.000000 0.000000 -2.024615
    24 10.127057 0.000000 0.000001 1.969610 0.138389 0.944277
    25 2.683750 -0.427338 0.044205 -0.005786 0.043239 -0.157091
    26 1.438885 -0.000001 0.000000 0.000000 0.000000 0.732658
    27 1.485305 0.000001 0.000000 0.000000 0.000000 1.168770
    28 1.038631 0.548043 -0.144017 -0.000001 0.000001 -1.849906
    29 -0.064003 -0.023521 0.026161 0.000000 0.000000 0.000000
    30 3.013925 3.984634 -0.088975 -0.000001 0.000001 -1.849906
    31 -0.084188 -0.025627 -0.001098 0.000000 0.000000 0.000000
    32 4.778187 3.972486 -0.079803 -0.000001 0.000001 -1.849906
    33 -0.058556 -0.021324 0.004244 0.000000 0.000000 0.000000
    34 1.640598 -1.968779 -0.099219 -0.000001 0.000001 -1.849906
    35 0.055573 -0.028908 0.000000 0.000000 0.000000 0.000000
    36 1.646738 0.449549 -1.702246 -0.391617 1.092980 -0.290137
    37 0.928312 0.000000 -0.000002 0.000000 0.000000 0.000000
    38 0.928314 0.000000 0.000001 0.000000 0.000000 0.000000
    39 1.533672 0.109715 1.664491 -0.264755 -0.055959 0.783109
    40 0.928313 0.000000 0.000000 0.000000 0.000000 -0.453556
    41 0.928314 0.000000 0.000001 0.000000 0.000000 0.000000
  time 18
    0 0.235347 0.367732 -14.608345 0.000000 0.270322 -1.570874
    1 0.000000 0.000000 0.000000 -1.570795 -1.570796 0.000000
    2 -0.000005 0.000007 3.713255 2.914525 6.061903 1.331528
    3 18.045721 0.000000 0.000000 0.000000 0.000000 -1.349242
    4 17.597597 0.000000 0.000000 -0.205057 0.225938 -0.216505
    5 0.000005 -0.000003 -3.713255 -0.067002 -3.740518 -0.837425
    6 18.045725 0.000000 0.000000 0.000000 0.000000 -2.074647
    7 17.597597 0.000000 0.000000 -0.092081 0.087821 0.559948
    8 1.293670 0.684478 -0.000001 -0.000004 -0.000001 0.079297
    9 5.309685 -0.003834 0.000000 -0.268710 0.030429 0.109266
    10 4.826790 -0.004591 0.000000 -0.270372 0.001510 0.004665
    11 5.792767 -0.005304 0.000000 -0.139511 -0.002948 -0.021839
    12 6.662317 -0.001453 0.000000 0.000000 -0.000001 0.471000
    13 2.046985 -0.000002 0.000000 0.370298 0.582665 -1.331427
    14 -3.112024 1.517254 4.341911 2.359040 -0.970058 0.215192
    15 4.827230 0.000000 0.000001 -1.505943 -0.588004 -1.261298
    16 11.139763 0.000000 0.000000 0.000000 0.000000 -1.137528
    17 10.314597 0.000001 0.000000 -0.655375 0.368141 -0.269531
    18 2.975834 -0.386307 -0.044143 -0.019493 -0.039033 0.445214
    19 1.438886 0.000000 0.000000 0.000000 0.000000 0.505855
    20 1.485303 0.000000 0.000000 0.000000 0.000000 0.532034
    21 -2.869898 1.399663 -4.140396 -0.000013 1.283318 2.669783
    22 4.972048 0.000000 0.000001 1.035457 -0.108192 -1.874830
    23 11.585355 0.000000 0.000000 0.000000 0.000000 -2.024615
    24 10.127057 0.000000 0.000001 1.969610 0.138389 0.944277
    25 2.683750 -0.427338 0.044205 -0.005786 0.043239 -0.157091
    26 1.438885 -0.000001 0.000000 0.000000 0.000000 0.732658
    27 1.485305 0.000001 0.000000 0.000000 0.000000 1.168770
    28 1.038631 0.548043 -0.144017 -0.000001 0.000001 -1.849906
    29 -0.064003 -0.023521 0.026161 0.000000 0.000000 0.000000
    30 3.013925 3.984634 -0.088975 -0.000001 0.000001 -1.849906
    31 -0.084188 -0.025627 -0.001098 0.000000 0.000000 0.000000
    32 4.778187 3.972486 -0.079803 -0.000001 0.000001 -1.849906
    33 -0.058556 -0.021324 0.004244 0.000000 0.000000 0.000000
    34 1.640598 -1.968779 -0.099219 -0.000001 0.000001 -1.849906
    35 0.055573 -0.028908 0.000000 0.000000 0.000000 0.000000
    36 1.646738 0.449549 -1.702246 -0.391617 1.092980 -0.290137
    37 0.928312 0.000000 -0.000002 0.000000 0.000000 0.000000
    38 0.928314 0.000000 0.000001 0.000000 0.000000 0.000000
    39 1.533672 0.109715 1.664491 -0.264755 -0.055959 0.783109
    40 0.928313 0.000000 0.000000 0.000000 0.000000 -0.453556
    41 0.928314 0.000000 0.000001 0.000000 0.000000 0.000000
  time 19
    0 0.235347 0.367732 -14.608345 0.000000 0.270322 -1.570874
    1 0.000000 0.000000 0.000000 -1.570795 -1.570796 0.000000
    2 -0.000005 0.000007 3.713255 2.914525 6.061903 1.331528
    3 18.045721 0.000000 0.000000 0.000000 0.000000 -1.349242
    4 17.597597 0.000000 0.000000 -0.205057 0.225938 -0.216505
    5 0.000005 -0.000003 -3.713255 -0.067002 -3.740518 -0.837425
    6 18.045725 0.000000 0.000000 0.000000 0.000000 -2.074647
    7 17.597597 0.000000 0.000000 -0.092081 0.087821 0.559948
    8 1.293670 0.684478 -0.000001 -0.000004 -0.000001 0.079297
    9 5.309685 -0.003834 0.000000 -0.268710 0.030429 0.109266
    10 4.826790 -0.004591 0.000000 -0.270372 0.000803 0.002086
    11 5.792767 -0.005304 0.000000 -0.139511 -0.003392 -0.025016
    12 6.662317 -0.001453 0.000000 0.000000 -0.000001 0.471000
    13 2.046985 -0.000002 0.000000 0.370642 0.582440 -1.325404
    14 -3.112024 1.517254 4.341911 2.363929 -0.966635 0.209152
    15 4.827230 0.000000 0.000001 -1.512815 -0.581196 -1.259810
    16 11.139763 0.000000 0.000000 0.000000 0.000000 -1.137528
    17 10.314597 0.000001 0.000000 -0.655375 0.368141 -0.269531
    18 2.975834 -0.386307 -0.044143 -0.019493 -0.039033 0.445214
    19 1.438886 0.000000 0.000000 0.000000 0.000000 0.505855
    20 1.485303 0.000000 0.000000 0.000000 0.000000 0.532034
    21 -2.869898 1.399663 -4.140396 -0.000013 1.289196 2.669783
    22 4.972048 0.000000 0.000001 1.042419 -0.111973 -1.873907
    23 11.585355 0.000000 0.000000 0.000000 0.000000 -2.024615
    24 10.127057 0.000000 0.000001 1.969610 0.138389 0.944277
    25 2.683750 -0.427338 0.044205 -0.005786 0.043239 -0.157091
    26 1.438885 -0.000001 0.000000 0.000000 0.000000 0.732658
    27 1.485305 0.000001 0.000000 0.000000 0.000000 1.168770
    28 1.038631 0.548043 -0.144017 -0.000001 0.000001 -1.849906
    29 -0.064003 -0.023521 0.026161 0.000000 0.000000 0.000000
    30 3.013925 3.984634 -0.088975 -0.000001 0.000001 -1.849906
    31 -0.084188 -0.025627 -0.001098 0.000000 0.000000 0.000000
    32 4.778187 3.972486 -0.079803 -0.000001 0.000001 -1.849906
    33 -0.058556 -0.021324 0.004244 0.000000 0.000000 0.000000
    34 1.640598 -1.968779 -0.099219 -0.000001 0.000001 -1.849906
    35 0.055573 -0.028908 0.000000 0.000000 0.000000 0.000000
    36 1.646738 0.449549 -1.702246 -0.391617 1.092980 -0.290137
    37 0.928312 0.000000 -0.000002 0.000000 0.000000 0.000000
    38 0.928314 0.000000 0.000001 0.000000 0.000000 0.000000
    39 1.533672 0.109715 1.664491 -0.264755 -0.055959 0.783109
    40 0.928313 0.000000 0.000000 0.000000 0.000000 -0.453556
    41 0.928314 0.000000 0.000001 0.000000 0.000000 0.000000
  time 20
    0 0.235347 0.367732 -14.608345 0.000000 0.270322 -1.570874
    1 0.000000 0.000000 0.000000 -1.570795 -1.570796 0.000000
    2 -0.000005 0.000007 3.713255 2.914525 6.061903 1.331528
    3 18.045721 0.000000 0.000000 0.000000 0.000000 -1.349242
    4 17.597597 0.000000 0.000000 -0.205057 0.225938 -0.216505
    5 0.000005 -0.000003 -3.713255 -0.067002 -3.740518 -0.837425
    6 18.045725 0.000000 0.000000 0.000000 0.000000 -2.074647
    7 17.597597 0.000000 0.000000 -0.092081 0.087821 0.559948
    8 1.293670 0.684478 -0.000001 -0.000004 -0.000001 0.079297
    9 5.309685 -0.003834 0.000000 -0.268710 0.030429 0.109266
    10 4.826790 -0.004591 0.000000 -0.270389 -0.000036 -0.000979
    11 5.792767 -0.005304 0.000000 -0.139495 -0.003931 -0.028795
    12 6.662317 -0.001453 0.000000 0.000000 -0.000001 0.471000
    13 2.046985 -0.000002 0.000000 0.371030 0.582147 -1.318213
    14 -3.112024 1.517254 4.341911 2.369777 -0.962519 0.202153
    15 4.827230 0.000000 0.000001 -1.520862 -0.573196 -1.258235
    16 11.139763 0.000000 0.000000 0.000000 0.000000 -1.137528
    17 10.314597 0.000001 0.000000 -0.655375 0.368141 -0.269531
    18 2.975834 -0.386307 -0.044143 -0.019493 -0.039033 0.445214
    19 1.438886 0.000000 0.000000 0.000000 0.000000 0.505855
    20 1.485303 0.000000 0.000000 0.000000 0.000000 0.532034
    21 -2.869898 1.399663 -4.140396 -0.000013 1.296178 2.669783
    22 4.972048 0.000000 0.000001 1.050774 -0.116397 -1.872985
    23 11.585355 0.000000 0.000000 0.000000 0.000000 -2.024615
    24 10.127057 0.000000 0.000001 1.969610 0.138389 0.944277
    25 2.683750 -0.427338 0.044205 -0.005786 0.043239 -0.157091
    26 1.438885 -0.000001 0.000000 0.000000 0.000000 0.732658
    27 1.485305 0.000001 0.000000 0.000000 0.000000 1.168770
    28 1.038631 0.548043 -0.144017 -0.000001 0.000001 -1.849906
    29 -0.064003 -0.023521 0.026161 0.000000 0.000000 0.000000
    30 3.013925 3.984634 -0.088975 -0.000001 0.000001 -1.849906
    31 -0.084188 -0.025627 -0.001098 0.000000 0.000000 0.000000
    32 4.778187 3.972486 -0.079803 -0.000001 0.000001 -1.849906
    33 -0.058556 -0.021324 0.004244 0.000000 0.000000 0.000000
    34 1.640598 -1.968779 -0.099219 -0.000001 0.000001 -1.849906
    35 0.055573 -0.028908 0.000000 0.000000 0.000000 0.000000
    36 1.646738 0.449549 -1.702246 -0.391617 1.092980 -0.290137
    37 0.928312 0.000000 -0.000002 0.000000 0.000000 0.000000
    38 0.928314 0.000000 0.000001 0.000000 0.000000 0.000000
    39 1.533672 0.109715 1.664491 -0.264755 -0.055959 0.783109
    40 0.928313 0.000000 0.000000 0.000000 0.000000 -0.453556
    41 0.928314 0.000000 0.000001 0.000000 0.000000 0.000000
  time 21
    0 0.235347 0.367732 -14.608345 0.000000 0.270322 -1.570874
    1 0.000000 0.000000 0.000000 -1.570795 -1.570796 0.000000
    2 -0.000005 0.000007 3.713255 2.914525 6.061903 1.331528
    3 18.045721 0.000000 0.000000 0.000000 0.000000 -1.349242
    4 17.597597 0.000000 0.000000 -0.205057 0.225938 -0.216505
    5 0.000005 -0.000003 -3.713255 -0.067002 -3.740518 -0.837425
    6 18.045725 0.000000 0.000000 0.000000 0.000000 -2.074647
    7 17.597597 0.000000 0.000000 -0.092081 0.087821 0.559948
    8 1.293670 0.684478 -0.000001 -0.000004 -0.000001 0.079297
    9 5.309685 -0.003834 0.000000 -0.268710 0.030429 0.109266
    10 4.826790 -0.004591 0.000000 -0.270372 -0.000995 -0.004419
    11 5.792767 -0.005304 0.000000 -0.139479 -0.004518 -0.033030
    12 6.662317 -0.001453 0.000000 0.000000 -0.000001 0.471000
    13 2.046985 -0.000002 0.000000 0.371504 0.581832 -1.310167
    14 -3.112024 1.517254 4.341911 2.376105 -0.957903 0.194387
    15 4.827230 0.000000 0.000001 -1.529848 -0.564175 -1.256485
    16 11.139763 0.000000 0.000000 0.000000 0.000000 -1.137528
    17 10.314597 0.000001 0.000000 -0.655375 0.368141 -0.269531
    18 2.975834 -0.386307 -0.044143 -0.019493 -0.039033 0.445214
    19 1.438886 0.000000 0.000000 0.000000 0.000000 0.505855
    20 1.485303 0.000000 0.000000 0.000000 0.000000 0.532034
    21 -2.869898 1.399663 -4.140396 -0.000013 1.304035 2.669783
    22 4.972048 0.000000 0.000001 1.060056 -0.121385 -1.871997
    23 11.585355 0.000000 0.000000 0.000000 0.000000 -2.024615
    24 10.127057 0.000000 0.000001 1.969610 0.138389 0.944277
    25 2.683750 -0.427338 0.044205 -0.005786 0.043239 -0.157091
    26 1.438885 -0.000001 0.000000 0.000000 0.000000 0.732658
    27 1.485305 0.000001 0.000000 0.000000 0.000000 1.168770
    28 1.038631 0.548043 -0.144017 -0.000001 0.000001 -1.849906
    29 -0.064003 -0.023521 0.026161 0.000000 0.000000 0.000000
    30 3.013925 3.984634 -0.088975 -0.000001 0.000001 -1.849906
    31 -0.084188 -0.025627 -0.001098 0.000000 0.000000 0.000000
    32 4.778187 3.972486 -0.079803 -0.000001 0.000001 -1.849906
    33 -0.058556 -0.021324 0.004244 0.000000 0.000000 0.000000
    34 1.640598 -1.968779 -0.099219 -0.000001 0.000001 -1.849906
    35 0.055573 -0.028908 0.000000 0.000000 0.000000 0.000000
    36 1.646738 0.449549 -1.702246 -0.391617 1.092980 -0.290137
    37 0.928312 0.000000 -0.000002 0.000000 0.000000 0.000000
    38 0.928314 0.000000 0.000001 0.000000 0.000000 0.000000
    39 1.533672 0.109715 1.664491 -0.264755 -0.055959 0.783109
    40 0.928313 0.000000 0.000000 0.000000 0.000000 -0.453556
    41 0.928314 0.000000 0.000001 0.000000 0.000000 0.000000
  time 22
    0 0.235347 0.367732 -14.608345 0.000000 0.270322 -1.570874
    1 0.000000 0.000000 0.000000 -1.570795 -1.570796 0.000000
    2 -0.000005 0.000007 3.713255 2.914525 6.061903 1.331528
    3 18.045721 0.000000 0.000000 0.000000 0.000000 -1.349242
    4 17.597597 0.000000 0.000000 -0.205057 0.225938 -0.216505
    5 0.000005 -0.000003 -3.713255 -0.067002 -3.740518 -0.837425
    6 18.045725 0.000000 0.000000 0.000000 0.000000 -2.074647
    7 17.597597 0.000000 0.000000 -0.092081 0.087821 0.559948
    8 1.293670 0.684478 -0.000001 -0.000004 -0.000001 0.079297
    9 5.309685 -0.003834 0.000000 -0.268710 0.030429 0.109266
    10 4.826790 -0.004591 0.000000 -0.270372 -0.002013 -0.008101
    11 5.792767 -0.005304 0.000000 -0.139446 -0.005165 -0.037577
    12 6.662317 -0.001453 0.000000 0.000000 -0.000001 0.471000
    13 2.046985 -0.000002 0.000000 0.371978 0.581494 -1.301492
    14 -3.112024 1.517254 4.341911 2.382816 -0.952903 0.186141
    15 4.827230 0.000000 0.000001 -1.539481 -0.554474 -1.254735
    16 11.139763 0.000000 0.000000 0.000000 0.000000 -1.137528
    17 10.314597 0.000001 0.000000 -0.655375 0.368141 -0.269531
    18 2.975834 -0.386307 -0.044143 -0.019493 -0.039033 0.445214
    19 1.438886 0.000000 0.000000 0.000000 0.000000 0.505855
    20 1.485303 0.000000 0.000000 0.000000 0.000000 0.532034
    21 -2.869898 1.399663 -4.140396 -0.000013 1.312486 2.669783
    22 4.972048 0.000000 0.000001 1.070112 -0.126774 -1.871075
    23 11.585355 0.000000 0.000000 0.000000 0.000000 -2.024615
    24 10.127057 0.000000 0.000001 1.969610 0.138389 0.944277
    25 2.683750 -0.427338 0.044205 -0.005786 0.043239 -0.157091
    26 1.438885 -0.000001 0.000000 0.000000 0.000000 0.732658
    27 1.485305 0.000001 0.000000 0.000000 0.000000 1.168770
    28 1.038631 0.548043 -0.144017 -0.000001 0.000001 -1.849906
    29 -0.064003 -0.023521 0.026161 0.000000 0.000000 0.000000
    30 3.013925 3.984634 -0.088975 -0.000001 0.000001 -1.849906
    31 -0.084188 -0.025627 -0.001098 0.000000 0.000000 0.000000
    32 4.778187 3.972486 -0.079803 -0.000001 0.000001 -1.849906
    33 -0.058556 -0.021324 0.004244 0.000000 0.000000 0.000000
    34 1.640598 -1.968779 -0.099219 -0.000001 0.000001 -1.849906
    35 0.055573 -0.028908 0.000000 0.000000 0.000000 0.000000
    36 1.646738 0.449549 -1.702246 -0.391617 1.092980 -0.290137
    37 0.928312 0.000000 -0.000002 0.000000 0.000000 0.000000
    38 0.928314 0.000000 0.000001 0.000000 0.000000 0.000000
    39 1.533672 0.109715 1.664491 -0.264755 -0.055959 0.783109
    40 0.928313 0.000000 0.000000 0.000000 0.000000 -0.453556
    41 0.928314 0.000000 0.000001 0.000000 0.000000 0.000000
  time 23
    0 0.235347 0.367732 -14.608345 0.000000 0.270322 -1.570874
    1 0.000000 0.000000 0.000000 -1.570795 -1.570796 0.000000
    2 -0.000005 0.000007 3.713255 2.914525 6.061903 1.331528
    3 18.045721 0.000000 0.000000 0.000000 0.000000 -1.349242
    4 17.597597 0.000000 0.000000 -0.205057 0.225938 -0.216505
    5 0.000005 -0.000003 -3.713255 -0.067002 -3.740518 -0.837425
    6 18.045725 0.000000 0.000000 0.000000 0.000000 -2.074647
    7 17.597597 0.000000 0.000000 -0.092081 0.087821 0.559948
    8 1.293670 0.684478 -0.000001 -0.000004 -0.000001 0.079297
    9 5.309685 -0.003834 0.000000 -0.268710 0.030429 0.109266
    10 4.826790 -0.004591 0.000000 -0.270356 -0.003080 -0.011960
    11 5.792767 -0.005304 0.000000 -0.139430 -0.005825 -0.042332
    12 6.662317 -0.001453 0.000000 0.000000 -0.000001 0.471000
    13 2.046985 -0.000002 0.000000 0.372495 0.581134 -1.292457
    14 -3.112024 1.517254 4.341911 2.389719 -0.947671 0.177608
    15 4.827230 0.000000 0.000001 -1.549408 -0.544432 -1.253159
    16 11.139763 0.000000 0.000000 0.000000 0.000000 -1.137528
    17 10.314597 0.000001 0.000000 -0.655375 0.368141 -0.269531
    18 2.975834 -0.386307 -0.044143 -0.019493 -0.039033 0.445214
    19 1.438886 0.000000 0.000000 0.000000 0.000000 0.505855
    20 1.485303 0.000000 0.000000 0.000000 0.000000 0.532034
    21 -2.869898 1.399663 -4.140396 -0.000013 1.321248 2.669783
    22 4.972048 0.000000 0.000001 1.080555 -0.132486 -1.870284
    23 11.585355 0.000000 0.000000 0.000000 0.000000 -2.024615
    24 10.127057 0.000000 0.000001 1.969610 0.138389 0.944277
    25 2.683750 -0.427338 0.044205 -0.005786 0.043239 -0.157091
    26 1.438885 -0.000001 0.000000 0.000000 0.000000 0.732658
    27 1.485305 0.000001 0.000000 0.000000 0.000000 1.168770
    28 1.038631 0.548043 -0.144017 -0.000001 0.000001 -1.849906
    29 -0.064003 -0.023521 0.026161 0.000000 0.000000 0.000000
    30 3.013925 3.984634 -0.088975 -0.000001 0.000001 -1.849906
    31 -0.084188 -0.025627 -0.001098 0.000000 0.000000 0.000000
    32 4.778187 3.972486 -0.079803 -0.000001 0.000001 -1.849906
    33 -0.058556 -0.021324 0.004244 0.000000 0.000000 0.000000
    34 1.640598 -1.968779 -0.099219 -0.000001 0.000001 -1.849906
    35 0.055573 -0.028908 0.000000 0.000000 0.000000 0.000000
    36 1.646738 0.449549 -1.702246 -0.391617 1.092980 -0.290137
    37 0.928312 0.000000 -0.000002 0.000000 0.000000 0.000000
    38 0.928314 0.000000 0.000001 0.000000 0.000000 0.000000
    39 1.533672 0.109715 1.664491 -0.264755 -0.055959 0.783109
    40 0.928313 0.000000 0.000000 0.000000 0.000000 -0.453556
    41 0.928314 0.000000 0.000001 0.000000 0.000000 0.000000
  time 24
    0 0.235347 0.367732 -14.608345 0.000000 0.270322 -1.570874
    1 0.000000 0.000000 0.000000 -1.570795 -1.570796 0.000000
    2 -0.000005 0.000007 3.713255 2.914525 6.061903 1.331528
    3 18.045721 0.000000 0.000000 0.000000 0.000000 -1.349242
    4 17.597597 0.000000 0.000000 -0.205057 0.225938 -0.216505
    5 0.000005 -0.000003 -3.713255 -0.067002 -3.740518 -0.837425
    6 18.045725 0.000000 0.000000 0.000000 0.000000 -2.074647
    7 17.597597 0.000000 0.000000 -0.092081 0.087821 0.559948
    8 1.293670 0.684478 -0.000001 -0.000004 -0.000001 0.079297
    9 5.309685 -0.003834 0.000000 -0.268710 0.030429 0.109266
    10 4.826790 -0.004591 0.000000 -0.270356 -0.004159 -0.015840
    11 5.792767 -0.005304 0.000000 -0.139397 -0.006496 -0.047128
    12 6.662317 -0.001453 0.000000 0.000000 -0.000001 0.471000
    13 2.046985 -0.000002 0.000000 0.373012 0.580774 -1.283333
    14 -3.112024 1.517254 4.341911 2.396622 -0.942363 0.169171
    15 4.827230 0.000000 0.000001 -1.559334 -0.534305 -1.251672
    16 11.139763 0.000000 0.000000 0.000000 0.000000 -1.137528
    17 10.314597 0.000001 0.000000 -0.655375 0.368141 -0.269531
    18 2.975834 -0.386307 -0.044143 -0.019493 -0.039033 0.445214
    19 1.438886 0.000000 0.000000 0.000000 0.000000 0.505855
    20 1.485303 0.000000 0.000000 0.000000 0.000000 0.532034
    21 -2.869898 1.399663 -4.140396 -0.000013 1.330123 2.669783
    22 4.972048 0.000000 0.000001 1.091153 -0.138197 -1.869560
    23 11.585355 0.000000 0.000000 0.000000 0.000000 -2.024615
    24 10.127057 0.000000 0.000001 1.969610 0.138389 0.944277
    25 2.683750 -0.427338 0.044205 -0.005786 0.043239 -0.157091
    26 1.438885 -0.000001 0.000000 0.000000 0.000000 0.732658
    27 1.485305 0.000001 0.000000 0.000000 0.000000 1.168770
    28 1.038631 0.548043 -0.144017 -0.000001 0.000001 -1.849906
    29 -0.064003 -0.023521 0.026161 0.000000 0.000000 0.000000
    30 3.013925 3.984634 -0.088975 -0.000001 0.000001 -1.849906
    31 -0.084188 -0.025627 -0.001098 0.000000 0.000000 0.000000
    32 4.778187 3.972486 -0.079803 -0.000001 0.000001 -1.849906
    33 -0.058556 -0.021324 0.004244 0.000000 0.000000 0.000000
    34 1.640598 -1.968779 -0.099219 -0.000001 0.000001 -1.849906
    35 0.055573 -0.028908 0.000000 0.000000 0.000000 0.000000
    36 1.646738 0.449549 -1.702246 -0.391617 1.092980 -0.290137
    37 0.928312 0.000000 -0.000002 0.000000 0.000000 0.000000
    38 0.928314 0.000000 0.000001 0.000000 0.000000 0.000000
    39 1.533672 0.109715 1.664491 -0.264755 -0.055959 0.783109
    40 0.928313 0.000000 0.000000 0.000000 0.000000 -0.453556
    41 0.928314 0.000000 0.000001 0.000000 0.000000 0.000000
  time 25
    0 0.235347 0.367732 -14.608345 0.000000 0.270322 -1.570874
    1 0.000000 0.000000 0.000000 -1.570795 -1.570796 0.000000
    2 -0.000005 0.000007 3.713255 2.914525 6.061903 1.331528
    3 18.045721 0.000000 0.000000 0.000000 0.000000 -1.349242
    4 17.597597 0.000000 0.000000 -0.205057 0.225938 -0.216505
    5 0.000005 -0.000003 -3.713255 -0.067002 -3.740518 -0.837425
    6 18.045725 0.000000 0.000000 0.000000 0.000000 -2.074647
    7 17.597597 0.000000 0.000000 -0.092081 0.087821 0.559948
    8 1.293670 0.684478 -0.000001 -0.000004 -0.000001 0.079297
    9 5.309685 -0.003834 0.000000 -0.268710 0.030429 0.109266
    10 4.826790 -0.004591 0.000000 -0.270340 -0.005213 -0.019655
    11 5.792767 -0.005304 0.000000 -0.139364 -0.007155 -0.051821
    12 6.662317 -0.001453 0.000000 0.000000 -0.000001 0.471000
    13 2.046985 -0.000002 0.000000 0.373486 0.580413 -1.274389
    14 -3.112024 1.517254 4.341911 2.403141 -0.937131 0.161022
    15 4.827230 0.000000 0.000001 -1.569025 -0.524348 -1.250447
    16 11.139763 0.000000 0.000000 0.000000 0.000000 -1.137528
    17 10.314597 0.000001 0.000000 -0.655375 0.368141 -0.269531
    18 2.975834 -0.386307 -0.044143 -0.019493 -0.039033 0.445214
    19 1.438886 0.000000 0.000000 0.000000 0.000000 0.505855
    20 1.485303 0.000000 0.000000 0.000000 0.000000 0.532034
    21 -2.869898 1.399663 -4.140396 -0.000013 1.338828 2.669783
    22 4.972048 0.000000 0.000001 1.101518 -0.143908 -1.869033
    23 11.585355 0.000000 0.000000 0.000000 0.000000 -2.024615
    24 10.127057 0.000000 0.000001 1.969610 0.138389 0.944277
    25 2.683750 -0.427338 0.044205 -0.005786 0.043239 -0.157091
    26 1.438885 -0.000001 0.000000 0.000000 0.000000 0.732658
    27 1.485305 0.000001 0.000000 0.000000 0.000000 1.168770
    28 1.038631 0.548043 -0.144017 -0.000001 0.000001 -1.849906
    29 -0.064003 -0.023521 0.026161 0.000000 0.000000 0.000000
    30 3.013925 3.984634 -0.088975 -0.000001 0.000001 -1.849906
    31 -0.084188 -0.025627 -0.001098 0.000000 0.000000 0.000000
    32 4.778187 3.972486 -0.079803 -0.000001 0.000001 -1.849906
    33 -0.058556 -0.021324 0.004244 0.000000 0.000000 0.000000
    34 1.640598 -1.968779 -0.099219 -0.000001 0.000001 -1.849906
    35 0.055573 -0.028908 0.000000 0.000000 0.000000 0.000000
    36 1.646738 0.449549 -1.702246 -0.391617 1.092980 -0.290137
    37 0.928312 0.000000 -0.000002 0.000000 0.000000 0.000000
    38 0.928314 0.000000 0.000001 0.000000 0.000000 0.000000
    39 1.533672 0.109715 1.664491 -0.264755 -0.055959 0.783109
    40 0.928313 0.000000 0.000000 0.000000 0.000000 -0.453556
    41 0.928314 0.000000 0.000001 0.000000 0.000000 0.000000
  time 26
    0 0.235347 0.367732 -14.608345 0.000000 0.270322 -1.570874
    1 0.000000 0.000000 0.000000 -1.570795 -1.570796 0.000000
    2 -0.000005 0.000007 3.713255 2.914525 6.061903 1.331528
    3 18.045721 0.000000 0.000000 0.000000 0.000000 -1.349242
    4 17.597597 0.000000 0.000000 -0.205057 0.225938 -0.216505
    5 0.000005 -0.000003 -3.713255 -0.067002 -3.740518 -0.837425
    6 18.045725 0.000000 0.000000 0.000000 0.000000 -2.074647
    7 17.597597 0.000000 0.000000 -0.092081 0.087821 0.559948
    8 1.293670 0.684478 -0.000001 -0.000004 -0.000001 0.079297
    9 5.309685 -0.003834 0.000000 -0.268710 0.030429 0.109266
    10 4.826790 -0.004591 0.000000 -0.270307 -0.006220 -0.023271
    11 5.792767 -0.005304 0.000000 -0.139332 -0.007790 -0.056285
    12 6.662317 -0.001453 0.000000 0.000000 -0.000001 0.471000
    13 2.046985 -0.000002 0.000000 0.373960 0.580053 -1.265893
    14 -3.112024 1.517254 4.341911 2.409277 -0.932092 0.153448
    15 4.827230 0.000000 0.000001 -1.578247 -0.514902 -1.249396
    16 11.139763 0.000000 0.000000 0.000000 0.000000 -1.137528
    17 10.314597 0.000001 0.000000 -0.655375 0.368141 -0.269531
    18 2.975834 -0.386307 -0.044143 -0.019493 -0.039033 0.445214
    19 1.438886 0.000000 0.000000 0.000000 0.000000 0.505855
    20 1.485303 0.000000 0.000000 0.000000 0.000000 0.532034
    21 -2.869898 1.399663 -4.140396 -0.000013 1.347110 2.669783
    22 4.972048 0.000000 0.000001 1.111342 -0.149298 -1.868638
    23 11.585355 0.000000 0.000000 0.000000 0.000000 -2.024615
    24 10.127057 0.000000 0.000001 1.969610 0.138389 0.944277
    25 2.683750 -0.427338 0.044205 -0.005786 0.043239 -0.157091
    26 1.438885 -0.000001 0.000000 0.000000 0.000000 0.732658
    27 1.485305 0.000001 0.000000 0.000000 0.000000 1.168770
    28 1.038631 0.548043 -0.144017 -0.000001 0.000001 -1.849906
    29 -0.064003 -0.023521 0.026161 0.000000 0.000000 0.000000
    30 3.013925 3.984634 -0.088975 -0.000001 0.000001 -1.849906
    31 -0.084188 -0.025627 -0.001098 0.000000 0.000000 0.000000
    32 4.778187 3.972486 -0.079803 -0.000001 0.000001 -1.849906
    33 -0.058556 -0.021324 0.004244 0.000000 0.000000 0.000000
    34 1.640598 -1.968779 -0.099219 -0.000001 0.000001 -1.849906
    35 0.055573 -0.028908 0.000000 0.000000 0.000000 0.000000
    36 1.646738 0.449549 -1.702246 -0.391617 1.092980 -0.290137
    37 0.928312 0.000000 -0.000002 0.000000 0.000000 0.000000
    38 0.928314 0.000000 0.000001 0.000000 0.000000 0.000000
    39 1.533672 0.109715 1.664491 -0.264755 -0.055959 0.783109
    40 0.928313 0.000000 0.000000 0.000000 0.000000 -0.453556
    41 0.928314 0.000000 0.000001 0.000000 0.000000 0.000000
  time 27
    0 0.235347 0.367732 -14.608345 0.000000 0.270322 -1.570874
    1 0.000000 0.000000 0.000000 -1.570795 -1.570796 0.000000
    2 -0.000005 0.000007 3.713255 2.914525 6.061903 1.331528
    3 18.045721 0.000000 0.000000 0.000000 0.000000 -1.349242
    4 17.597597 0.000000 0.000000 -0.205057 0.225938 -0.216505
    5 0.000005 -0.000003 -3.713255 -0.067002 -3.740518 -0.837425
    6 18.045725 0.000000 0.000000 0.000000 0.000000 -2.074647
    7 17.597597 0.000000 0.000000 -0.092081 0.087821 0.559948
    8 1.293670 0.684478 -0.000001 -0.000004 -0.000001 0.079297
    9 5.309685 -0.003834 0.000000 -0.268710 0.030429 0.109266
    10 4.826790 -0.004591 0.000000 -0.270290 -0.007143 -0.026600
    11 5.792767 -0.005304 0.000000 -0.139299 -0.008365 -0.060396
    12 6.662317 -0.001453 0.000000 0.000000 -0.000001 0.471000
    13 2.046985 -0.000002 0.000000 0.374391 0.579738 -1.258117
    14 -3.112024 1.517254 4.341911 2.414838 -0.927476 0.146449
    15 4.827230 0.000000 0.000001 -1.586588 -0.506222 -1.248609
    16 11.139763 0.000000 0.000000 0.000000 0.000000 -1.137528
    17 10.314597 0.000001 0.000000 -0.655375 0.368141 -0.269531
    18 2.975834 -0.386307 -0.044143 -0.019493 -0.039033 0.445214
    19 1.438886 0.000000 0.000000 0.000000 0.000000 0.505855
    20 1.485303 0.000000 0.000000 0.000000 0.000000 0.532034
    21 -2.869898 1.399663 -4.140396 -0.000013 1.354684 2.669783
    22 4.972048 0.000000 0.000001 1.120470 -0.154205 -1.868374
    23 11.585355 0.000000 0.000000 0.000000 0.000000 -2.024615
    24 10.127057 0.000000 0.000001 1.969610 0.138389 0.944277
    25 2.683750 -0.427338 0.044205 -0.005786 0.043239 -0.157091
    26 1.438885 -0.000001 0.000000 0.000000 0.000000 0.732658
    27 1.485305 0.000001 0.000000 0.000000 0.000000 1.168770
    28 1.038631 0.548043 -0.144017 -0.000001 0.000001 -1.849906
    29 -0.064003 -0.023521 0.026161 0.000000 0.000000 0.000000
    30 3.013925 3.984634 -0.088975 -0.000001 0.000001 -1.849906
    31 -0.084188 -0.025627 -0.001098 0.000000 0.000000 0.000000
    32 4.778187 3.972486 -0.079803 -0.000001 0.000001 -1.849906
    33 -0.058556 -0.021324 0.004244 0.000000 0.000000 0.000000
    34 1.640598 -1.968779 -0.099219 -0.000001 0.000001 -1.849906
    35 0.055573 -0.028908 0.000000 0.000000 0.000000 0.000000
    36 1.646738 0.449549 -1.702246 -0.391617 1.092980 -0.290137
    37 0.928312 0.000000 -0.000002 0.000000 0.000000 0.000000
    38 0.928314 0.000000 0.000001 0.000000 0.000000 0.000000
    39 1.533672 0.109715 1.664491 -0.264755 -0.055959 0.783109
    40 0.928313 0.000000 0.000000 0.000000 0.000000 -0.453556
    41 0.928314 0.000000 0.000001 0.000000 0.000000 0.000000
  time 28
    0 0.235347 0.367732 -14.608345 0.000000 0.270322 -1.570874
    1 0.000000 0.000000 0.000000 -1.570795 -1.570796 0.000000
    2 -0.000005 0.000007 3.713255 2.914525 6.061903 1.331528
    3 18.045721 0.000000 0.000000 0.000000 0.000000 -1.349242
    4 17.597597 0.000000 0.000000 -0.205057 0.225938 -0.216505
    5 0.000005 -0.000003 -3.713255 -0.067002 -3.740518 -0.837425
    6 18.045725 0.000000 0.000000 0.000000 0.000000 -2.074647
    7 17.597597 0.000000 0.000000 -0.092081 0.087821 0.559948
    8 1.293670 0.684478 -0.000001 -0.000004 -0.000001 0.079297
    9 5.309685 -0.003834 0.000000 -0.268710 0.030429 0.109266
    10 4.826790 -0.004591 0.000000 -0.270274 -0.007946 -0.029511
    11 5.792767 -0.005304 0.000000 -0.139267 -0.008869 -0.063988
    12 6.662317 -0.001453 0.000000 0.000000 -0.000001 0.471000
    13 2.046985 -0.000002 0.000000 0.374778 0.579468 -1.251285
    14 -3.112024 1.517254 4.341911 2.419631 -0.923399 0.140504
    15 4.827230 0.000000 0.000001 -1.593871 -0.498648 -1.247909
    16 11.139763 0.000000 0.000000 0.000000 0.000000 -1.137528
    17 10.314597 0.000001 0.000000 -0.655375 0.368141 -0.269531
    18 2.975834 -0.386307 -0.044143 -0.019493 -0.039033 0.445214
    19 1.438886 0.000000 0.000000 0.000000 0.000000 0.505855
    20 1.485303 0.000000 0.000000 0.000000 0.000000 0.532034
    21 -2.869898 1.399663 -4.140396 -0.000013 1.361355 2.669783
    22 4.972048 0.000000 0.000001 1.128360 -0.158629 -1.868242
    23 11.585355 0.000000 0.000000 0.000000 0.000000 -2.024615
    24 10.127057 0.000000 0.000001 1.969610 0.138389 0.944277
    25 2.683750 -0.427338 0.044205 -0.005786 0.043239 -0.157091
    26 1.438885 -0.000001 0.000000 0.000000 0.000000 0.732658
    27 1.485305 0.000001 0.000000 0.000000 0.000000 1.168770
    28 1.038631 0.548043 -0.144017 -0.000001 0.000001 -1.849906
    29 -0.064003 -0.023521 0.026161 0.000000 0.000000 0.000000
    30 3.013925 3.984634 -0.088975 -0.000001 0.000001 -1.849906
    31 -0.084188 -0.025627 -0.001098 0.000000 0.000000 0.000000
    32 4.778187 3.972486 -0.079803 -0.000001 0.000001 -1.849906
    33 -0.058556 -0.021324 0.004244 0.000000 0.000000 0.000000
    34 1.640598 -1.968779 -0.099219 -0.000001 0.000001 -1.849906
    35 0.055573 -0.028908 0.000000 0.000000 0.000000 0.000000
    36 1.646738 0.449549 -1.702246 -0.391617 1.092980 -0.290137
    37 0.928312 0.000000 -0.000002 0.000000 0.000000 0.000000
    38 0.928314 0.000000 0.000001 0.000000 0.000000 0.000000
    39 1.533672 0.109715 1.664491 -0.264755 -0.055959 0.783109
    40 0.928313 0.000000 0.000000 0.000000 0.000000 -0.453556
    41 0.928314 0.000000 0.000001 0.000000 0.000000 0.000000
  time 29
    0 0.235347 0.367732 -14.608345 0.000000 0.270322 -1.570874
    1 0.000000 0.000000 0.000000 -1.570795 -1.570796 0.000000
    2 -0.000005 0.000007 3.713255 2.914525 6.061903 1.331528
    3 18.045721 0.000000 0.000000 0.000000 0.000000 -1.349242
    4 17.597597 0.000000 0.000000 -0.205057 0.225938 -0.216505
    5 0.000005 -0.000003 -3.713255 -0.067002 -3.740518 -0.837425
    6 18.045725 0.000000 0.000000 0.000000 0.000000 -2.074647
    7 17.597597 0.000000 0.000000 -0.092081 0.087821 0.559948
    8 1.293670 0.684478 -0.000001 -0.000004 -0.000001 0.079297
    9 5.309685 -0.003834 0.000000 -0.268710 0.030429 0.109266
    10 4.826790 -0.004591 0.000000 -0.270241 -0.008617 -0.031914
    11 5.792767 -0.005304 0.000000 -0.139234 -0.009276 -0.066936
    12 6.662317 -0.001453 0.000000 0.000000 -0.000001 0.471000
    13 2.046985 -0.000002 0.000000 0.375080 0.579243 -1.245712
    14 -3.112024 1.517254 4.341911 2.423562 -0.920053 0.135615
    15 4.827230 0.000000 0.000001 -1.599862 -0.492436 -1.247471
    16 11.139763 0.000000 0.000000 0.000000 0.000000 -1.137528
    17 10.314597 0.000001 0.000000 -0.655375 0.368141 -0.269531
    18 2.975834 -0.386307 -0.044143 -0.019493 -0.039033 0.445214
    19 1.438886 0.000000 0.000000 0.000000 0.000000 0.505855
    20 1.485303 0.000000 0.000000 0.000000 0.000000 0.532034
    21 -2.869898 1.399663 -4.140396 -0.000013 1.366810 2.669783
    22 4.972048 0.000000 0.000001 1.134936 -0.162168 -1.868177
    23 11.585355 0.000000 0.000000 0.000000 0.000000 -2.024615
    24 10.127057 0.000000 0.000001 1.969610 0.138389 0.944277
    25 2.683750 -0.427338 0.044205 -0.005786 0.043239 -0.157091
    26 1.438885 -0.000001 0.000000 0.000000 0.000000 0.732658
    27 1.485305 0.000001 0.000000 0.000000 0.000000 1.168770
    28 1.038631 0.548043 -0.144017 -0.000001 0.000001 -1.849906
    29 -0.064003 -0.023521 0.026161 0.000000 0.000000 0.000000
    30 3.013925 3.984634 -0.088975 -0.000001 0.000001 -1.849906
    31 -0.084188 -0.025627 -0.001098 0.000000 0.000000 0.000000
    32 4.778187 3.972486 -0.079803 -0.000001 0.000001 -1.849906
    33 -0.058556 -0.021324 0.004244 0.000000 0.000000 0.000000
    34 1.640598 -1.968779 -0.099219 -0.000001 0.000001 -1.849906
    35 0.055573 -0.028908 0.000000 0.000000 0.000000 0.000000
    36 1.646738 0.449549 -1.702246 -0.391617 1.092980 -0.290137
    37 0.928312 0.000000 -0.000002 0.000000 0.000000 0.000000
    38 0.928314 0.000000 0.000001 0.000000 0.000000 0.000000
    39 1.533672 0.109715 1.664491 -0.264755 -0.055959 0.783109
    40 0.928313 0.000000 0.000000 0.000000 0.000000 -0.453556
    41 0.928314 0.000000 0.000001 0.000000 0.000000 0.000000
  time 30
    0 0.235347 0.367732 -14.608345 0.000000 0.270322 -1.570874
    1 0.000000 0.000000 0.000000 -1.570795 -1.570796 0.000000
    2 -0.000005 0.000007 3.713255 2.914525 6.061903 1.331528
    3 18.045721 0.000000 0.000000 0.000000 0.000000 -1.349242
    4 17.597597 0.000000 0.000000 -0.205057 0.225938 -0.216505
    5 0.000005 -0.000003 -3.713255 -0.067002 -3.740518 -0.837425
    6 18.045725 0.000000 0.000000 0.000000 0.000000 -2.074647
    7 17.597597 0.000000 0.000000 -0.092081 0.087821 0.559948
    8 1.293670 0.684478 -0.000001 -0.000004 -0.000001 0.079297
    9 5.309685 -0.003834 0.000000 -0.268710 0.030429 0.109266
    10 4.826790 -0.004591 0.000000 -0.270225 -0.009096 -0.033656
    11 5.792767 -0.005304 0.000000 -0.139218 -0.009588 -0.069095
    12 6.662317 -0.001453 0.000000 0.000000 -0.000001 0.471000
    13 2.046985 -0.000002 0.000000 0.375295 0.579063 -1.241577
    14 -3.112024 1.517254 4.341911 2.426343 -0.917552 0.132067
    15 4.827230 0.000000 0.000001 -1.604209 -0.487925 -1.247209
    16 11.139763 0.000000 0.000000 0.000000 0.000000 -1.137528
    17 10.314597 0.000001 0.000000 -0.655375 0.368141 -0.269531
    18 2.975834 -0.386307 -0.044143 -0.019493 -0.039033 0.445214
    19 1.438886 0.000000 0.000000 0.000000 0.000000 0.505855
    20 1.485303 0.000000 0.000000 0.000000 0.000000 0.532034
    21 -2.869898 1.399663 -4.140396 -0.000013 1.370795 2.669783
    22 4.972048 0.000000 0.000001 1.139732 -0.164823 -1.868177
    23 11.585355 0.000000 0.000000 0.000000 0.000000 -2.024615
    24 10.127057 0.000000 0.000001 1.969610 0.138389 0.944277
    25 2.683750 -0.427338 0.044205 -0.005786 0.043239 -0.157091
    26 1.438885 -0.000001 0.000000 0.000000 0.000000 0.732658
    27 1.485305 0.000001 0.000000 0.000000 0.000000 1.168770
    28 1.038631 0.548043 -0.144017 -0.000001 0.000001 -1.849906
    29 -0.064003 -0.023521 0.026161 0.000000 0.000000 0.000000
    30 3.013925 3.984634 -0.088975 -0.000001 0.000001 -1.849906
    31 -0.084188 -0.025627 -0.001098 0.000000 0.000000 0.000000
    32 4.778187 3.972486 -0.079803 -0.000001 0.000001 -1.849906
    33 -0.058556 -0.021324 0.004244 0.000000 0.000000 0.000000
    34 1.640598 -1.968779 -0.099219 -0.000001 0.000001 -1.849906
    35 0.055573 -0.028908 0.000000 0.000000 0.000000 0.000000
    36 1.646738 0.449549 -1.702246 -0.391617 1.092980 -0.290137
    37 0.928312 0.000000 -0.000002 0.000000 0.000000 0.000000
    38 0.928314 0.000000 0.000001 0.000000 0.000000 0.000000
    39 1.533672 0.109715 1.664491 -0.264755 -0.055959 0.783109
    40 0.928313 0.000000 0.000000 0.000000 0.000000 -0.453556
    41 0.928314 0.000000 0.000001 0.000000 0.000000 0.000000
end
