version 1
nodes
  0 "Bip01" -1
  1 "Bip01 Pelvis" 0
  2 "Bip01 L Leg" 1
  3 "Bip01 L Leg1" 2
  4 "Bip01 L Foot" 3
  5 "Bip01 R Leg" 1
  6 "Bip01 R Leg1" 5
  7 "Bip01 R Foot" 6
  8 "Bip01 Spine" 1
  9 "Bip01 Spine1" 8
  10 "Bip01 Spine2" 9
  11 "Bip01 Spine3" 10
  12 "Bip01 Neck" 11
  13 "Bip01 Head" 12
  14 "Bip01 L Arm" 12
  15 "Bip01 L Arm1" 14
  16 "Bip01 L Arm2" 15
  17 "Bip01 L Hand" 16
  18 "Bip01 L Finger1" 17
  19 "Bip01 L Finger11" 18
  20 "Bip01 L Finger12" 19
  21 "Bip01 R Arm" 12
  22 "Bip01 R Arm1" 21
  23 "Bip01 R Arm2" 22
  24 "Bip01 R Hand" 23
  25 "Bip01 R Finger1" 24
  26 "Bip01 R Finger11" 25
  27 "Bip01 R Finger12" 26
  28 "Dummy08" 13
  29 "Bone02" 28
  30 "Dummy04" 13
  31 "Bone05" 30
  32 "Dummy03" 13
  33 "Bone07" 32
  34 "Dummy10" 13
  35 "Bone13" 34
  36 "Bip01 L Finger0" 17
  37 "Bip01 L Finger01" 36
  38 "Bip01 L Finger02" 37
  39 "Bip01 R Finger0" 24
  40 "Bip01 R Finger01" 39
  41 "Bip01 R Finger02" 40
end
skeleton
  time 0
    0 0.235347 0.367732 -14.514592 0.000000 0.270322 -1.570874
    1 0.000000 0.000000 0.000000 -1.570795 -1.570796 0.000000
    2 -0.000005 0.000007 3.713255 2.914525 6.061903 1.331528
    3 18.045721 0.000000 0.000000 0.000000 0.000000 -1.349242
    4 17.597597 0.000000 0.000000 -0.205057 0.225938 -0.216505
    5 0.000005 -0.000003 -3.713255 -0.067002 -3.740518 -0.837425
    6 18.045725 0.000000 0.000000 0.000000 0.000000 -2.074647
    7 17.597597 0.000000 0.000000 -0.092081 0.087821 0.559948
    8 1.293670 0.684478 -0.000001 -0.000004 -0.000001 0.061853
    9 5.309685 -0.003834 0.000000 -0.153876 0.031280 0.198199
    10 4.826790 -0.004591 0.000000 -0.060590 0.007478 0.121878
    11 5.792767 -0.005304 0.000000 -0.086251 0.012931 0.147710
    12 6.662317 -0.001453 0.000000 0.000000 -0.000001 0.296580
    13 2.046985 -0.000002 0.000000 0.223040 -0.205539 0.094718
    14 -3.326874 0.954737 4.341911 1.034649 -1.193007 1.842208
    15 4.827230 0.000000 0.000001 -0.596234 0.642893 -1.180263
    16 11.139763 0.000000 0.000000 0.000000 0.000000 -1.108585
    17 10.314597 0.000001 0.000000 -0.676227 -0.708799 0.439925
    18 2.975834 -0.386307 -0.044143 -0.021506 -0.037954 0.497588
    19 1.438886 0.000000 0.000000 0.000000 0.000000 0.889650
    20 1.485303 0.000000 0.000000 0.000000 0.000000 1.116422
    21 -3.065217 0.884022 -4.140396 -0.000013 1.370795 2.844176
    22 4.972048 0.000000 0.000001 -0.412546 -1.148375 0.204370
    23 11.585355 0.000000 0.000000 0.000000 0.000000 -1.745138
    24 10.127057 0.000000 0.000001 1.569752 0.000000 -0.069778
    25 2.683750 -0.427338 0.044205 -0.005786 0.043239 -0.157091
    26 1.438885 -0.000001 0.000000 0.000000 0.000000 0.732658
    27 1.485305 0.000001 0.000000 0.000000 0.000000 1.168770
    28 1.038631 0.548043 -0.144017 -0.000001 0.000001 -1.849906
    29 -0.064003 -0.023521 0.026161 0.000000 0.000000 0.000000
    30 3.013925 3.984634 -0.088975 -0.000001 0.000001 -1.849906
    31 -0.084188 -0.025627 -0.001098 0.000000 0.000000 0.000000
    32 4.778187 3.972486 -0.079803 -0.000001 0.000001 -1.849906
    33 -0.058556 -0.021324 0.004244 0.000000 0.000000 0.000000
    34 1.640598 -1.968779 -0.099219 -0.000001 0.000001 -1.849906
    35 0.055573 -0.028908 0.000000 0.000000 0.000000 0.000000
    36 1.646738 0.449549 -1.702246 0.441914 0.155087 1.184542
    37 0.928312 0.000000 -0.000002 0.000000 0.000000 0.000000
    38 0.928314 0.000000 0.000001 0.000000 0.000000 0.000000
    39 1.533672 0.109715 1.664491 -0.264755 -0.055959 0.783109
    40 0.928313 0.000000 0.000000 0.000000 0.000000 -0.453556
    41 0.928314 0.000000 0.000001 0.000000 0.000000 0.000000
  time 1
    0 0.235347 0.367732 -14.514592 0.000000 0.270322 -1.570874
    1 0.000000 0.000000 0.000000 -1.570795 -1.570796 0.000000
    2 -0.000005 0.000007 3.713255 2.914525 6.061903 1.331528
    3 18.045721 0.000000 0.000000 0.000000 0.000000 -1.349242
    4 17.597597 0.000000 0.000000 -0.205057 0.225938 -0.216505
    5 0.000005 -0.000003 -3.713255 -0.067002 -3.740518 -0.837425
    6 18.045725 0.000000 0.000000 0.000000 0.000000 -2.074647
    7 17.597597 0.000000 0.000000 -0.092081 0.087821 0.559948
    8 1.293670 0.684478 -0.000001 -0.000004 -0.000001 0.061853
    9 5.309685 -0.003834 0.000000 -0.153876 0.031280 0.198199
    10 4.826790 -0.004591 0.000000 -0.060590 0.007478 0.121878
    11 5.792767 -0.005304 0.000000 -0.086202 0.013243 0.151343
    12 6.662317 -0.001453 0.000000 0.000000 -0.000001 0.296580
    13 2.046985 -0.000002 0.000000 0.223040 -0.205539 0.091077
    14 -3.326874 0.954737 4.341911 1.025253 -1.190738 1.852371
    15 4.827230 0.000000 0.000001 -0.591477 0.637617 -1.178075
    16 11.139763 0.000000 0.000000 0.000000 0.000000 -1.108585
    17 10.314597 0.000001 0.000000 -0.676227 -0.708799 0.439925
    18 2.975834 -0.386307 -0.044143 -0.021506 -0.037954 0.497588
    19 1.438886 0.000000 0.000000 0.000000 0.000000 0.889650
    20 1.485303 0.000000 0.000000 0.000000 0.000000 1.116422
    21 -3.065217 0.884022 -4.140396 -0.000013 1.367177 2.844176
    22 4.972048 0.000000 0.000001 -0.402335 -1.145559 0.194291
    23 11.585355 0.000000 0.000000 0.000000 0.000000 -1.745138
    24 10.127057 0.000000 0.000001 1.569752 0.000000 -0.069778
    25 2.683750 -0.427338 0.044205 -0.005786 0.043239 -0.157091
    26 1.438885 -0.000001 0.000000 0.000000 0.000000 0.732658
    27 1.485305 0.000001 0.000000 0.000000 0.000000 1.168770
    28 1.038631 0.548043 -0.144017 -0.000001 0.000001 -1.849906
    29 -0.064003 -0.023521 0.026161 0.000000 0.000000 0.000000
    30 3.013925 3.984634 -0.088975 -0.000001 0.000001 -1.849906
    31 -0.084188 -0.025627 -0.001098 0.000000 0.000000 0.000000
    32 4.778187 3.972486 -0.079803 -0.000001 0.000001 -1.849906
    33 -0.058556 -0.021324 0.004244 0.000000 0.000000 0.000000
    34 1.640598 -1.968779 -0.099219 -0.000001 0.000001 -1.849906
    35 0.055573 -0.028908 0.000000 0.000000 0.000000 0.000000
    36 1.646738 0.449549 -1.702246 0.441914 0.155087 1.184542
    37 0.928312 0.000000 -0.000002 0.000000 0.000000 0.000000
    38 0.928314 0.000000 0.000001 0.000000 0.000000 0.000000
    39 1.533672 0.109715 1.664491 -0.264755 -0.055959 0.783109
    40 0.928313 0.000000 0.000000 0.000000 0.000000 -0.453556
    41 0.928314 0.000000 0.000001 0.000000 0.000000 0.000000
  time 2
    0 0.235347 0.367732 -14.514592 0.000000 0.270322 -1.570874
    1 0.000000 0.000000 0.000000 -1.570795 -1.570796 0.000000
    2 -0.000005 0.000007 3.713255 2.914525 6.061903 1.331528
    3 18.045721 0.000000 0.000000 0.000000 0.000000 -1.349242
    4 17.597597 0.000000 0.000000 -0.205057 0.225938 -0.216505
    5 0.000005 -0.000003 -3.713255 -0.067002 -3.740518 -0.837425
    6 18.045725 0.000000 0.000000 0.000000 0.000000 -2.074647
    7 17.597597 0.000000 0.000000 -0.092081 0.087821 0.559948
    8 1.293670 0.684478 -0.000001 -0.000004 -0.000001 0.061853
    9 5.309685 -0.003834 0.000000 -0.153876 0.031280 0.198199
    10 4.826790 -0.004591 0.000000 -0.060590 0.007478 0.121878
    11 5.792767 -0.005304 0.000000 -0.086137 0.013674 0.156285
    12 6.662317 -0.001453 0.000000 0.000000 -0.000001 0.296580
    13 2.046985 -0.000002 0.000000 0.223040 -0.205539 0.086088
    14 -3.326874 0.954737 4.341911 1.012598 -1.187622 1.865985
    15 4.827230 0.000000 0.000001 -0.585016 0.630469 -1.175274
    16 11.139763 0.000000 0.000000 0.000000 0.000000 -1.108585
    17 10.314597 0.000001 0.000000 -0.676227 -0.708799 0.439925
    18 2.975834 -0.386307 -0.044143 -0.021506 -0.037954 0.497588
    19 1.438886 0.000000 0.000000 0.000000 0.000000 0.889650
    20 1.485303 0.000000 0.000000 0.000000 0.000000 1.116422
    21 -3.065217 0.884022 -4.140396 -0.000013 1.362203 2.844176
    22 4.972048 0.000000 0.000001 -0.388566 -1.141537 0.180722
    23 11.585355 0.000000 0.000000 0.000000 0.000000 -1.745138
    24 10.127057 0.000000 0.000001 1.569752 0.000000 -0.069778
    25 2.683750 -0.427338 0.044205 -0.005786 0.043239 -0.157091
    26 1.438885 -0.000001 0.000000 0.000000 0.000000 0.732658
    27 1.485305 0.000001 0.000000 0.000000 0.000000 1.168770
    28 1.038631 0.548043 -0.144017 -0.000001 0.000001 -1.849906
    29 -0.064003 -0.023521 0.026161 0.000000 0.000000 0.000000
    30 3.013925 3.984634 -0.088975 -0.000001 0.000001 -1.849906
    31 -0.084188 -0.025627 -0.001098 0.000000 0.000000 0.000000
    32 4.778187 3.972486 -0.079803 -0.000001 0.000001 -1.849906
    33 -0.058556 -0.021324 0.004244 0.000000 0.000000 0.000000
    34 1.640598 -1.968779 -0.099219 -0.000001 0.000001 -1.849906
    35 0.055573 -0.028908 0.000000 0.000000 0.000000 0.000000
    36 1.646738 0.449549 -1.702246 0.441914 0.155087 1.184542
    37 0.928312 0.000000 -0.000002 0.000000 0.000000 0.000000
    38 0.928314 0.000000 0.000001 0.000000 0.000000 0.000000
    39 1.533672 0.109715 1.664491 -0.264755 -0.055959 0.783109
    40 0.928313 0.000000 0.000000 0.000000 0.000000 -0.453556
    41 0.928314 0.000000 0.000001 0.000000 0.000000 0.000000
  time 3
    0 0.235347 0.367732 -14.514592 0.000000 0.270322 -1.570874
    1 0.000000 0.000000 0.000000 -1.570795 -1.570796 0.000000
    2 -0.000005 0.000007 3.713255 2.914525 6.061903 1.331528
    3 18.045721 0.000000 0.000000 0.000000 0.000000 -1.349242
    4 17.597597 0.000000 0.000000 -0.205057 0.225938 -0.216505
    5 0.000005 -0.000003 -3.713255 -0.067002 -3.740518 -0.837425
    6 18.045725 0.000000 0.000000 0.000000 0.000000 -2.074647
    7 17.597597 0.000000 0.000000 -0.092081 0.087821 0.559948
    8 1.293670 0.684478 -0.000001 -0.000004 -0.000001 0.061853
    9 5.309685 -0.003834 0.000000 -0.153876 0.031280 0.198199
    10 4.826790 -0.004591 0.000000 -0.060590 0.007478 0.121878
    11 5.792767 -0.005304 0.000000 -0.086055 0.014190 0.162306
    12 6.662317 -0.001453 0.000000 0.000000 -0.000001 0.296580
    13 2.046985 -0.000002 0.000000 0.223040 -0.205539 0.080065
    14 -3.326874 0.954737 4.341911 0.997546 -1.183737 1.882284
    15 4.827230 0.000000 0.000001 -0.577263 0.621788 -1.171949
    16 11.139763 0.000000 0.000000 0.000000 0.000000 -1.108585
    17 10.314597 0.000001 0.000000 -0.676227 -0.708799 0.439925
    18 2.975834 -0.386307 -0.044143 -0.021506 -0.037954 0.497588
    19 1.438886 0.000000 0.000000 0.000000 0.000000 0.889650
    20 1.485303 0.000000 0.000000 0.000000 0.000000 1.116422
    21 -3.065217 0.884022 -4.140396 -0.000013 1.356154 2.844176
    22 4.972048 0.000000 0.000001 -0.372166 -1.136630 0.164583
    23 11.585355 0.000000 0.000000 0.000000 0.000000 -1.745138
    24 10.127057 0.000000 0.000001 1.569752 0.000000 -0.069778
    25 2.683750 -0.427338 0.044205 -0.005786 0.043239 -0.157091
    26 1.438885 -0.000001 0.000000 0.000000 0.000000 0.732658
    27 1.485305 0.000001 0.000000 0.000000 0.000000 1.168770
    28 1.038631 0.548043 -0.144017 -0.000001 0.000001 -1.849906
    29 -0.064003 -0.023521 0.026161 0.000000 0.000000 0.000000
    30 3.013925 3.984634 -0.088975 -0.000001 0.000001 -1.849906
    31 -0.084188 -0.025627 -0.001098 0.000000 0.000000 0.000000
    32 4.778187 3.972486 -0.079803 -0.000001 0.000001 -1.849906
    33 -0.058556 -0.021324 0.004244 0.000000 0.000000 0.000000
    34 1.640598 -1.968779 -0.099219 -0.000001 0.000001 -1.849906
    35 0.055573 -0.028908 0.000000 0.000000 0.000000 0.000000
    36 1.646738 0.449549 -1.702246 0.441914 0.155087 1.184542
    37 0.928312 0.000000 -0.000002 0.000000 0.000000 0.000000
    38 0.928314 0.000000 0.000001 0.000000 0.000000 0.000000
    39 1.533672 0.109715 1.664491 -0.264755 -0.055959 0.783109
    40 0.928313 0.000000 0.000000 0.000000 0.000000 -0.453556
    41 0.928314 0.000000 0.000001 0.000000 0.000000 0.000000
  time 4
    0 0.235347 0.367732 -14.514592 0.000000 0.270322 -1.570874
    1 0.000000 0.000000 0.000000 -1.570795 -1.570796 0.000000
    2 -0.000005 0.000007 3.713255 2.914525 6.061903 1.331528
    3 18.045721 0.000000 0.000000 0.000000 0.000000 -1.349242
    4 17.597597 0.000000 0.000000 -0.205057 0.225938 -0.216505
    5 0.000005 -0.000003 -3.713255 -0.067002 -3.740518 -0.837425
    6 18.045725 0.000000 0.000000 0.000000 0.000000 -2.074647
    7 17.597597 0.000000 0.000000 -0.092081 0.087821 0.559948
    8 1.293670 0.684478 -0.000001 -0.000004 -0.000001 0.061853
    9 5.309685 -0.003834 0.000000 -0.153876 0.031280 0.198199
    10 4.826790 -0.004591 0.000000 -0.060590 0.007478 0.121878
    11 5.792767 -0.005304 0.000000 -0.085957 0.014789 0.169178
    12 6.662317 -0.001453 0.000000 0.000000 -0.000001 0.296580
    13 2.046985 -0.000002 0.000000 0.223040 -0.205539 0.073143
    14 -3.326874 0.954737 4.341911 0.980672 -1.179198 1.900501
    15 4.827230 0.000000 0.000001 -0.568511 0.611832 -1.168274
    16 11.139763 0.000000 0.000000 0.000000 0.000000 -1.108585
    17 10.314597 0.000001 0.000000 -0.676227 -0.708799 0.439925
    18 2.975834 -0.386307 -0.044143 -0.021506 -0.037954 0.497588
    19 1.438886 0.000000 0.000000 0.000000 0.000000 0.889650
    20 1.485303 0.000000 0.000000 0.000000 0.000000 1.116422
    21 -3.065217 0.884022 -4.140396 -0.000013 1.349258 2.844176
    22 4.972048 0.000000 0.000001 -0.353911 -1.130839 0.146534
    23 11.585355 0.000000 0.000000 0.000000 0.000000 -1.745138
    24 10.127057 0.000000 0.000001 1.569752 0.000000 -0.069778
    25 2.683750 -0.427338 0.044205 -0.005786 0.043239 -0.157091
    26 1.438885 -0.000001 0.000000 0.000000 0.000000 0.732658
    27 1.485305 0.000001 0.000000 0.000000 0.000000 1.168770
    28 1.038631 0.548043 -0.144017 -0.000001 0.000001 -1.849906
    29 -0.064003 -0.023521 0.026161 0.000000 0.000000 0.000000
    30 3.013925 3.984634 -0.088975 -0.000001 0.000001 -1.849906
    31 -0.084188 -0.025627 -0.001098 0.000000 0.000000 0.000000
    32 4.778187 3.972486 -0.079803 -0.000001 0.000001 -1.849906
    33 -0.058556 -0.021324 0.004244 0.000000 0.000000 0.000000
    34 1.640598 -1.968779 -0.099219 -0.000001 0.000001 -1.849906
    35 0.055573 -0.028908 0.000000 0.000000 0.000000 0.000000
    36 1.646738 0.449549 -1.702246 0.441914 0.155087 1.184542
    37 0.928312 0.000000 -0.000002 0.000000 0.000000 0.000000
    38 0.928314 0.000000 0.000001 0.000000 0.000000 0.000000
    39 1.533672 0.109715 1.664491 -0.264755 -0.055959 0.783109
    40 0.928313 0.000000 0.000000 0.000000 0.000000 -0.453556
    41 0.928314 0.000000 0.000001 0.000000 0.000000 0.000000
  time 5
    0 0.235347 0.367732 -14.514592 0.000000 0.270322 -1.570874
    1 0.000000 0.000000 0.000000 -1.570795 -1.570796 0.000000
    2 -0.000005 0.000007 3.713255 2.914525 6.061903 1.331528
    3 18.045721 0.000000 0.000000 0.000000 0.000000 -1.349242
    4 17.597597 0.000000 0.000000 -0.205057 0.225938 -0.216505
    5 0.000005 -0.000003 -3.713255 -0.067002 -3.740518 -0.837425
    6 18.045725 0.000000 0.000000 0.000000 0.000000 -2.074647
    7 17.597597 0.000000 0.000000 -0.092081 0.087821 0.559948
    8 1.293670 0.684478 -0.000001 -0.000004 -0.000001 0.061853
    9 5.309685 -0.003834 0.000000 -0.153876 0.031280 0.198199
    10 4.826790 -0.004591 0.000000 -0.060590 0.007478 0.121878
    11 5.792767 -0.005304 0.000000 -0.085843 0.015436 0.176674
    12 6.662317 -0.001453 0.000000 0.000000 -0.000001 0.296580
    13 2.046985 -0.000002 0.000000 0.223040 -0.205539 0.065637
    14 -3.326874 0.954737 4.341911 0.962744 -1.174082 1.919868
    15 4.827230 0.000000 0.000001 -0.559054 0.600939 -1.164511
    16 11.139763 0.000000 0.000000 0.000000 0.000000 -1.108585
    17 10.314597 0.000001 0.000000 -0.676227 -0.708799 0.439925
    18 2.975834 -0.386307 -0.044143 -0.021506 -0.037954 0.497588
    19 1.438886 0.000000 0.000000 0.000000 0.000000 0.889650
    20 1.485303 0.000000 0.000000 0.000000 0.000000 1.116422
    21 -3.065217 0.884022 -4.140396 -0.000013 1.341739 2.844176
    22 4.972048 0.000000 0.000001 -0.334572 -1.124403 0.127431
    23 11.585355 0.000000 0.000000 0.000000 0.000000 -1.745138
    24 10.127057 0.000000 0.000001 1.569752 0.000000 -0.069778
    25 2.683750 -0.427338 0.044205 -0.005786 0.043239 -0.157091
    26 1.438885 -0.000001 0.000000 0.000000 0.000000 0.732658
    27 1.485305 0.000001 0.000000 0.000000 0.000000 1.168770
    28 1.038631 0.548043 -0.144017 -0.000001 0.000001 -1.849906
    29 -0.064003 -0.023521 0.026161 0.000000 0.000000 0.000000
    30 3.013925 3.984634 -0.088975 -0.000001 0.000001 -1.849906
    31 -0.084188 -0.025627 -0.001098 0.000000 0.000000 0.000000
    32 4.778187 3.972486 -0.079803 -0.000001 0.000001 -1.849906
    33 -0.058556 -0.021324 0.004244 0.000000 0.000000 0.000000
    34 1.640598 -1.968779 -0.099219 -0.000001 0.000001 -1.849906
    35 0.055573 -0.028908 0.000000 0.000000 0.000000 0.000000
    36 1.646738 0.449549 -1.702246 0.441914 0.155087 1.184542
    37 0.928312 0.000000 -0.000002 0.000000 0.000000 0.000000
    38 0.928314 0.000000 0.000001 0.000000 0.000000 0.000000
    39 1.533672 0.109715 1.664491 -0.264755 -0.055959 0.783109
    40 0.928313 0.000000 0.000000 0.000000 0.000000 -0.453556
    41 0.928314 0.000000 0.000001 0.000000 0.000000 0.000000
  time 6
    0 0.235347 0.367732 -14.514592 0.000000 0.270322 -1.570874
    1 0.000000 0.000000 0.000000 -1.570795 -1.570796 0.000000
    2 -0.000005 0.000007 3.713255 2.914525 6.061903 1.331528
    3 18.045721 0.000000 0.000000 0.000000 0.000000 -1.349242
    4 17.597597 0.000000 0.000000 -0.205057 0.225938 -0.216505
    5 0.000005 -0.000003 -3.713255 -0.067002 -3.740518 -0.837425
    6 18.045725 0.000000 0.000000 0.000000 0.000000 -2.074647
    7 17.597597 0.000000 0.000000 -0.092081 0.087821 0.559948
    8 1.293670 0.684478 -0.000001 -0.000004 -0.000001 0.061853
    9 5.309685 -0.003834 0.000000 -0.153876 0.031280 0.198199
    10 4.826790 -0.004591 0.000000 -0.060590 0.007478 0.121878
    11 5.792767 -0.005304 0.000000 -0.085713 0.016107 0.184564
    12 6.662317 -0.001453 0.000000 0.000000 -0.000001 0.296580
    13 2.046985 -0.000002 0.000000 0.223040 -0.205539 0.057726
    14 -3.326874 0.954737 4.341911 0.944432 -1.168620 1.939810
    15 4.827230 0.000000 0.000001 -0.549245 0.589450 -1.160835
    16 11.139763 0.000000 0.000000 0.000000 0.000000 -1.108585
    17 10.314597 0.000001 0.000000 -0.676227 -0.708799 0.439925
    18 2.975834 -0.386307 -0.044143 -0.021506 -0.037954 0.497588
    19 1.438886 0.000000 0.000000 0.000000 0.000000 0.889650
    20 1.485303 0.000000 0.000000 0.000000 0.000000 1.116422
    21 -3.065217 0.884022 -4.140396 -0.000013 1.333826 2.844176
    22 4.972048 0.000000 0.000001 -0.314847 -1.117486 0.107932
    23 11.585355 0.000000 0.000000 0.000000 0.000000 -1.745138
    24 10.127057 0.000000 0.000001 1.569752 0.000000 -0.069778
    25 2.683750 -0.427338 0.044205 -0.005786 0.043239 -0.157091
    26 1.438885 -0.000001 0.000000 0.000000 0.000000 0.732658
    27 1.485305 0.000001 0.000000 0.000000 0.000000 1.168770
    28 1.038631 0.548043 -0.144017 -0.000001 0.000001 -1.849906
    29 -0.064003 -0.023521 0.026161 0.000000 0.000000 0.000000
    30 3.013925 3.984634 -0.088975 -0.000001 0.000001 -1.849906
    31 -0.084188 -0.025627 -0.001098 0.000000 0.000000 0.000000
    32 4.778187 3.972486 -0.079803 -0.000001 0.000001 -1.849906
    33 -0.058556 -0.021324 0.004244 0.000000 0.000000 0.000000
    34 1.640598 -1.968779 -0.099219 -0.000001 0.000001 -1.849906
    35 0.055573 -0.028908 0.000000 0.000000 0.000000 0.000000
    36 1.646738 0.449549 -1.702246 0.441914 0.155087 1.184542
    37 0.928312 0.000000 -0.000002 0.000000 0.000000 0.000000
    38 0.928314 0.000000 0.000001 0.000000 0.000000 0.000000
    39 1.533672 0.109715 1.664491 -0.264755 -0.055959 0.783109
    40 0.928313 0.000000 0.000000 0.000000 0.000000 -0.453556
    41 0.928314 0.000000 0.000001 0.000000 0.000000 0.000000
  time 7
    0 0.235347 0.367732 -14.514592 0.000000 0.270322 -1.570874
    1 0.000000 0.000000 0.000000 -1.570795 -1.570796 0.000000
    2 -0.000005 0.000007 3.713255 2.914525 6.061903 1.331528
    3 18.045721 0.000000 0.000000 0.000000 0.000000 -1.349242
    4 17.597597 0.000000 0.000000 -0.205057 0.225938 -0.216505
    5 0.000005 -0.000003 -3.713255 -0.067002 -3.740518 -0.837425
    6 18.045725 0.000000 0.000000 0.000000 0.000000 -2.074647
    7 17.597597 0.000000 0.000000 -0.092081 0.087821 0.559948
    8 1.293670 0.684478 -0.000001 -0.000004 -0.000001 0.061853
    9 5.309685 -0.003834 0.000000 -0.153876 0.031280 0.198199
    10 4.826790 -0.004591 0.000000 -0.060590 0.007478 0.121878
    11 5.792767 -0.005304 0.000000 -0.085582 0.016802 0.192599
    12 6.662317 -0.001453 0.000000 0.000000 -0.000001 0.296580
    13 2.046985 -0.000002 0.000000 0.223040 -0.205539 0.049681
    14 -3.326874 0.954737 4.341911 0.926216 -1.162850 1.959560
    15 4.827230 0.000000 0.000001 -0.539378 0.577791 -1.157247
    16 11.139763 0.000000 0.000000 0.000000 0.000000 -1.108585
    17 10.314597 0.000001 0.000000 -0.676227 -0.708799 0.439925
    18 2.975834 -0.386307 -0.044143 -0.021506 -0.037954 0.497588
    19 1.438886 0.000000 0.000000 0.000000 0.000000 0.889650
    20 1.485303 0.000000 0.000000 0.000000 0.000000 1.116422
    21 -3.065217 0.884022 -4.140396 -0.000013 1.325770 2.844176
    22 4.972048 0.000000 0.000001 -0.295430 -1.110165 0.088500
    23 11.585355 0.000000 0.000000 0.000000 0.000000 -1.745138
    24 10.127057 0.000000 0.000001 1.569752 0.000000 -0.069778
    25 2.683750 -0.427338 0.044205 -0.005786 0.043239 -0.157091
    26 1.438885 -0.000001 0.000000 0.000000 0.000000 0.732658
    27 1.485305 0.000001 0.000000 0.000000 0.000000 1.168770
    28 1.038631 0.548043 -0.144017 -0.000001 0.000001 -1.849906
    29 -0.064003 -0.023521 0.026161 0.000000 0.000000 0.000000
    30 3.013925 3.984634 -0.088975 -0.000001 0.000001 -1.849906
    31 -0.084188 -0.025627 -0.001098 0.000000 0.000000 0.000000
    32 4.778187 3.972486 -0.079803 -0.000001 0.000001 -1.849906
    33 -0.058556 -0.021324 0.004244 0.000000 0.000000 0.000000
    34 1.640598 -1.968779 -0.099219 -0.000001 0.000001 -1.849906
    35 0.055573 -0.028908 0.000000 0.000000 0.000000 0.000000
    36 1.646738 0.449549 -1.702246 0.441914 0.155087 1.184542
    37 0.928312 0.000000 -0.000002 0.000000 0.000000 0.000000
    38 0.928314 0.000000 0.000001 0.000000 0.000000 0.000000
    39 1.533672 0.109715 1.664491 -0.264755 -0.055959 0.783109
    40 0.928313 0.000000 0.000000 0.000000 0.000000 -0.453556
    41 0.928314 0.000000 0.000001 0.000000 0.000000 0.000000
  time 8
    0 0.235347 0.367732 -14.514592 0.000000 0.270322 -1.570874
    1 0.000000 0.000000 0.000000 -1.570795 -1.570796 0.000000
    2 -0.000005 0.000007 3.713255 2.914525 6.061903 1.331528
    3 18.045721 0.000000 0.000000 0.000000 0.000000 -1.349242
    4 17.597597 0.000000 0.000000 -0.205057 0.225938 -0.216505
    5 0.000005 -0.000003 -3.713255 -0.067002 -3.740518 -0.837425
    6 18.045725 0.000000 0.000000 0.000000 0.000000 -2.074647
    7 17.597597 0.000000 0.000000 -0.092081 0.087821 0.559948
    8 1.293670 0.684478 -0.000001 -0.000004 -0.000001 0.061853
    9 5.309685 -0.003834 0.000000 -0.153876 0.031280 0.198199
    10 4.826790 -0.004591 0.000000 -0.060590 0.007478 0.121878
    11 5.792767 -0.005304 0.000000 -0.085452 0.017486 0.200551
    12 6.662317 -0.001453 0.000000 0.000000 -0.000001 0.296580
    13 2.046985 -0.000002 0.000000 0.223040 -0.205539 0.041680
    14 -3.326874 0.954737 4.341911 0.908767 -1.157042 1.978640
    15 4.827230 0.000000 0.000001 -0.529686 0.566218 -1.154009
    16 11.139763 0.000000 0.000000 0.000000 0.000000 -1.108585
    17 10.314597 0.000001 0.000000 -0.676227 -0.708799 0.439925
    18 2.975834 -0.386307 -0.044143 -0.021506 -0.037954 0.497588
    19 1.438886 0.000000 0.000000 0.000000 0.000000 0.889650
    20 1.485303 0.000000 0.000000 0.000000 0.000000 1.116422
    21 -3.065217 0.884022 -4.140396 -0.000013 1.317772 2.844176
    22 4.972048 0.000000 0.000001 -0.276788 -1.102845 0.069924
    23 11.585355 0.000000 0.000000 0.000000 0.000000 -1.745138
    24 10.127057 0.000000 0.000001 1.569752 0.000000 -0.069778
    25 2.683750 -0.427338 0.044205 -0.005786 0.043239 -0.157091
    26 1.438885 -0.000001 0.000000 0.000000 0.000000 0.732658
    27 1.485305 0.000001 0.000000 0.000000 0.000000 1.168770
    28 1.038631 0.548043 -0.144017 -0.000001 0.000001 -1.849906
    29 -0.064003 -0.023521 0.026161 0.000000 0.000000 0.000000
    30 3.013925 3.984634 -0.088975 -0.000001 0.000001 -1.849906
    31 -0.084188 -0.025627 -0.001098 0.000000 0.000000 0.000000
    32 4.778187 3.972486 -0.079803 -0.000001 0.000001 -1.849906
    33 -0.058556 -0.021324 0.004244 0.000000 0.000000 0.000000
    34 1.640598 -1.968779 -0.099219 -0.000001 0.000001 -1.849906
    35 0.055573 -0.028908 0.000000 0.000000 0.000000 0.000000
    36 1.646738 0.449549 -1.702246 0.441914 0.155087 1.184542
    37 0.928312 0.000000 -0.000002 0.000000 0.000000 0.000000
    38 0.928314 0.000000 0.000001 0.000000 0.000000 0.000000
    39 1.533672 0.109715 1.664491 -0.264755 -0.055959 0.783109
    40 0.928313 0.000000 0.000000 0.000000 0.000000 -0.453556
    41 0.928314 0.000000 0.000001 0.000000 0.000000 0.000000
  time 9
    0 0.235347 0.367732 -14.514592 0.000000 0.270322 -1.570874
    1 0.000000 0.000000 0.000000 -1.570795 -1.570796 0.000000
    2 -0.000005 0.000007 3.713255 2.914525 6.061903 1.331528
    3 18.045721 0.000000 0.000000 0.000000 0.000000 -1.349242
    4 17.597597 0.000000 0.000000 -0.205057 0.225938 -0.216505
    5 0.000005 -0.000003 -3.713255 -0.067002 -3.740518 -0.837425
    6 18.045725 0.000000 0.000000 0.000000 0.000000 -2.074647
    7 17.597597 0.000000 0.000000 -0.092081 0.087821 0.559948
    8 1.293670 0.684478 -0.000001 -0.000004 -0.000001 0.061853
    9 5.309685 -0.003834 0.000000 -0.153876 0.031280 0.198199
    10 4.826790 -0.004591 0.000000 -0.060590 0.007478 0.121878
    11 5.792767 -0.005304 0.000000 -0.085305 0.018133 0.208192
    12 6.662317 -0.001453 0.000000 0.000000 -0.000001 0.296580
    13 2.046985 -0.000002 0.000000 0.223040 -0.205539 0.033994
    14 -3.326874 0.954737 4.341911 0.892469 -1.151310 1.996473
    15 4.827230 0.000000 0.000001 -0.520523 0.555069 -1.151034
    16 11.139763 0.000000 0.000000 0.000000 0.000000 -1.108585
    17 10.314597 0.000001 0.000000 -0.676227 -0.708799 0.439925
    18 2.975834 -0.386307 -0.044143 -0.021506 -0.037954 0.497588
    19 1.438886 0.000000 0.000000 0.000000 0.000000 0.889650
    20 1.485303 0.000000 0.000000 0.000000 0.000000 1.116422
    21 -3.065217 0.884022 -4.140396 -0.000013 1.310112 2.844176
    22 4.972048 0.000000 0.000001 -0.259461 -1.095606 0.052468
    23 11.585355 0.000000 0.000000 0.000000 0.000000 -1.745138
    24 10.127057 0.000000 0.000001 1.569752 0.000000 -0.069778
    25 2.683750 -0.427338 0.044205 -0.005786 0.043239 -0.157091
    26 1.438885 -0.000001 0.000000 0.000000 0.000000 0.732658
    27 1.485305 0.000001 0.000000 0.000000 0.000000 1.168770
    28 1.038631 0.548043 -0.144017 -0.000001 0.000001 -1.849906
    29 -0.064003 -0.023521 0.026161 0.000000 0.000000 0.000000
    30 3.013925 3.984634 -0.088975 -0.000001 0.000001 -1.849906
    31 -0.084188 -0.025627 -0.001098 0.000000 0.000000 0.000000
    32 4.778187 3.972486 -0.079803 -0.000001 0.000001 -1.849906
    33 -0.058556 -0.021324 0.004244 0.000000 0.000000 0.000000
    34 1.640598 -1.968779 -0.099219 -0.000001 0.000001 -1.849906
    35 0.055573 -0.028908 0.000000 0.000000 0.000000 0.000000
    36 1.646738 0.449549 -1.702246 0.441914 0.155087 1.184542
    37 0.928312 0.000000 -0.000002 0.000000 0.000000 0.000000
    38 0.928314 0.000000 0.000001 0.000000 0.000000 0.000000
    39 1.533672 0.109715 1.664491 -0.264755 -0.055959 0.783109
    40 0.928313 0.000000 0.000000 0.000000 0.000000 -0.453556
    41 0.928314 0.000000 0.000001 0.000000 0.000000 0.000000
  time 10
    0 0.235347 0.367732 -14.514592 0.000000 0.270322 -1.570874
    1 0.000000 0.000000 0.000000 -1.570795 -1.570796 0.000000
    2 -0.000005 0.000007 3.713255 2.914525 6.061903 1.331528
    3 18.045721 0.000000 0.000000 0.000000 0.000000 -1.349242
    4 17.597597 0.000000 0.000000 -0.205057 0.225938 -0.216505
    5 0.000005 -0.000003 -3.713255 -0.067002 -3.740518 -0.837425
    6 18.045725 0.000000 0.000000 0.000000 0.000000 -2.074647
    7 17.597597 0.000000 0.000000 -0.092081 0.087821 0.559948
    8 1.293670 0.684478 -0.000001 -0.000004 -0.000001 0.061853
    9 5.309685 -0.003834 0.000000 -0.153876 0.031280 0.198199
    10 4.826790 -0.004591 0.000000 -0.060590 0.007478 0.121878
    11 5.792767 -0.005304 0.000000 -0.085174 0.018744 0.215313
    12 6.662317 -0.001453 0.000000 0.000000 -0.000001 0.296580
    13 2.046985 -0.000002 0.000000 0.223040 -0.205539 0.026847
    14 -3.326874 0.954737 4.341911 0.877704 -1.145886 2.012580
    15 4.827230 0.000000 0.000001 -0.512065 0.544687 -1.148409
    16 11.139763 0.000000 0.000000 0.000000 0.000000 -1.108585
    17 10.314597 0.000001 0.000000 -0.676227 -0.708799 0.439925
    18 2.975834 -0.386307 -0.044143 -0.021506 -0.037954 0.497588
    19 1.438886 0.000000 0.000000 0.000000 0.000000 0.889650
    20 1.485303 0.000000 0.000000 0.000000 0.000000 1.116422
    21 -3.065217 0.884022 -4.140396 -0.000013 1.302961 2.844176
    22 4.972048 0.000000 0.000001 -0.243835 -1.088849 0.036790
    23 11.585355 0.000000 0.000000 0.000000 0.000000 -1.745138
    24 10.127057 0.000000 0.000001 1.569752 0.000000 -0.069778
    25 2.683750 -0.427338 0.044205 -0.005786 0.043239 -0.157091
    26 1.438885 -0.000001 0.000000 0.000000 0.000000 0.732658
    27 1.485305 0.000001 0.000000 0.000000 0.000000 1.168770
    28 1.038631 0.548043 -0.144017 -0.000001 0.000001 -1.849906
    29 -0.064003 -0.023521 0.026161 0.000000 0.000000 0.000000
    30 3.013925 3.984634 -0.088975 -0.000001 0.000001 -1.849906
    31 -0.084188 -0.025627 -0.001098 0.000000 0.000000 0.000000
    32 4.778187 3.972486 -0.079803 -0.000001 0.000001 -1.849906
    33 -0.058556 -0.021324 0.004244 0.000000 0.000000 0.000000
    34 1.640598 -1.968779 -0.099219 -0.000001 0.000001 -1.849906
    35 0.055573 -0.028908 0.000000 0.000000 0.000000 0.000000
    36 1.646738 0.449549 -1.702246 0.441914 0.155087 1.184542
    37 0.928312 0.000000 -0.000002 0.000000 0.000000 0.000000
    38 0.928314 0.000000 0.000001 0.000000 0.000000 0.000000
    39 1.533672 0.109715 1.664491 -0.264755 -0.055959 0.783109
    40 0.928313 0.000000 0.000000 0.000000 0.000000 -0.453556
    41 0.928314 0.000000 0.000001 0.000000 0.000000 0.000000
  time 11
    0 0.235347 0.367732 -14.514592 0.000000 0.270322 -1.570874
    1 0.000000 0.000000 0.000000 -1.570795 -1.570796 0.000000
    2 -0.000005 0.000007 3.713255 2.914525 6.061903 1.331528
    3 18.045721 0.000000 0.000000 0.000000 0.000000 -1.349242
    4 17.597597 0.000000 0.000000 -0.205057 0.225938 -0.216505
    5 0.000005 -0.000003 -3.713255 -0.067002 -3.740518 -0.837425
    6 18.045725 0.000000 0.000000 0.000000 0.000000 -2.074647
    7 17.597597 0.000000 0.000000 -0.092081 0.087821 0.559948
    8 1.293670 0.684478 -0.000001 -0.000004 -0.000001 0.061853
    9 5.309685 -0.003834 0.000000 -0.153876 0.031280 0.198199
    10 4.826790 -0.004591 0.000000 -0.060590 0.007478 0.121878
    11 5.792767 -0.005304 0.000000 -0.085060 0.019283 0.221646
    12 6.662317 -0.001453 0.000000 0.000000 -0.000001 0.296580
    13 2.046985 -0.000002 0.000000 0.223040 -0.205539 0.020509
    14 -3.326874 0.954737 4.341911 0.864857 -1.141001 2.026674
    15 4.827230 0.000000 0.000001 -0.504547 0.535496 -1.146308
    16 11.139763 0.000000 0.000000 0.000000 0.000000 -1.108585
    17 10.314597 0.000001 0.000000 -0.676227 -0.708799 0.439925
    18 2.975834 -0.386307 -0.044143 -0.021506 -0.037954 0.497588
    19 1.438886 0.000000 0.000000 0.000000 0.000000 0.889650
    20 1.485303 0.000000 0.000000 0.000000 0.000000 1.116422
    21 -3.065217 0.884022 -4.140396 -0.000013 1.296602 2.844176
    22 4.972048 0.000000 0.000001 -0.230298 -1.082655 0.023089
    23 11.585355 0.000000 0.000000 0.000000 0.000000 -1.745138
    24 10.127057 0.000000 0.000001 1.569752 0.000000 -0.069778
    25 2.683750 -0.427338 0.044205 -0.005786 0.043239 -0.157091
    26 1.438885 -0.000001 0.000000 0.000000 0.000000 0.732658
    27 1.485305 0.000001 0.000000 0.000000 0.000000 1.168770
    28 1.038631 0.548043 -0.144017 -0.000001 0.000001 -1.849906
    29 -0.064003 -0.023521 0.026161 0.000000 0.000000 0.000000
    30 3.013925 3.984634 -0.088975 -0.000001 0.000001 -1.849906
    31 -0.084188 -0.025627 -0.001098 0.000000 0.000000 0.000000
    32 4.778187 3.972486 -0.079803 -0.000001 0.000001 -1.849906
    33 -0.058556 -0.021324 0.004244 0.000000 0.000000 0.000000
    34 1.640598 -1.968779 -0.099219 -0.000001 0.000001 -1.849906
    35 0.055573 -0.028908 0.000000 0.000000 0.000000 0.000000
    36 1.646738 0.449549 -1.702246 0.441914 0.155087 1.184542
    37 0.928312 0.000000 -0.000002 0.000000 0.000000 0.000000
    38 0.928314 0.000000 0.000001 0.000000 0.000000 0.000000
    39 1.533672 0.109715 1.664491 -0.264755 -0.055959 0.783109
    40 0.928313 0.000000 0.000000 0.000000 0.000000 -0.453556
    41 0.928314 0.000000 0.000001 0.000000 0.000000 0.000000
  time 12
    0 0.235347 0.367732 -14.514592 0.000000 0.270322 -1.570874
    1 0.000000 0.000000 0.000000 -1.570795 -1.570796 0.000000
    2 -0.000005 0.000007 3.713255 2.914525 6.061903 1.331528
    3 18.045721 0.000000 0.000000 0.000000 0.000000 -1.349242
    4 17.597597 0.000000 0.000000 -0.205057 0.225938 -0.216505
    5 0.000005 -0.000003 -3.713255 -0.067002 -3.740518 -0.837425
    6 18.045725 0.000000 0.000000 0.000000 0.000000 -2.074647
    7 17.597597 0.000000 0.000000 -0.092081 0.087821 0.559948
    8 1.293670 0.684478 -0.000001 -0.000004 -0.000001 0.061853
    9 5.309685 -0.003834 0.000000 -0.153876 0.031280 0.198199
    10 4.826790 -0.004591 0.000000 -0.060590 0.007478 0.121878
    11 5.792767 -0.005304 0.000000 -0.084962 0.019739 0.226982
    12 6.662317 -0.001453 0.000000 0.000000 -0.000001 0.296580
    13 2.046985 -0.000002 0.000000 0.223040 -0.205539 0.015161
    14 -3.326874 0.954737 4.341911 0.854311 -1.136808 2.038370
    15 4.827230 0.000000 0.000001 -0.498321 0.527667 -1.144558
    16 11.139763 0.000000 0.000000 0.000000 0.000000 -1.108585
    17 10.314597 0.000001 0.000000 -0.676227 -0.708799 0.439925
    18 2.975834 -0.386307 -0.044143 -0.021506 -0.037954 0.497588
    19 1.438886 0.000000 0.000000 0.000000 0.000000 0.889650
    20 1.485303 0.000000 0.000000 0.000000 0.000000 1.116422
    21 -3.065217 0.884022 -4.140396 -0.000013 1.291260 2.844176
    22 4.972048 0.000000 0.000001 -0.219159 -1.077426 0.011824
    23 11.585355 0.000000 0.000000 0.000000 0.000000 -1.745138
    24 10.127057 0.000000 0.000001 1.569752 0.000000 -0.069778
    25 2.683750 -0.427338 0.044205 -0.005786 0.043239 -0.157091
    26 1.438885 -0.000001 0.000000 0.000000 0.000000 0.732658
    27 1.485305 0.000001 0.000000 0.000000 0.000000 1.168770
    28 1.038631 0.548043 -0.144017 -0.000001 0.000001 -1.849906
    29 -0.064003 -0.023521 0.026161 0.000000 0.000000 0.000000
    30 3.013925 3.984634 -0.088975 -0.000001 0.000001 -1.849906
    31 -0.084188 -0.025627 -0.001098 0.000000 0.000000 0.000000
    32 4.778187 3.972486 -0.079803 -0.000001 0.000001 -1.849906
    33 -0.058556 -0.021324 0.004244 0.000000 0.000000 0.000000
    34 1.640598 -1.968779 -0.099219 -0.000001 0.000001 -1.849906
    35 0.055573 -0.028908 0.000000 0.000000 0.000000 0.000000
    36 1.646738 0.449549 -1.702246 0.441914 0.155087 1.184542
    37 0.928312 0.000000 -0.000002 0.000000 0.000000 0.000000
    38 0.928314 0.000000 0.000001 0.000000 0.000000 0.000000
    39 1.533672 0.109715 1.664491 -0.264755 -0.055959 0.783109
    40 0.928313 0.000000 0.000000 0.000000 0.000000 -0.453556
    41 0.928314 0.000000 0.000001 0.000000 0.000000 0.000000
  time 13
    0 0.235347 0.367732 -14.514592 0.000000 0.270322 -1.570874
    1 0.000000 0.000000 0.000000 -1.570795 -1.570796 0.000000
    2 -0.000005 0.000007 3.713255 2.914525 6.061903 1.331528
    3 18.045721 0.000000 0.000000 0.000000 0.000000 -1.349242
    4 17.597597 0.000000 0.000000 -0.205057 0.225938 -0.216505
    5 0.000005 -0.000003 -3.713255 -0.067002 -3.740518 -0.837425
    6 18.045725 0.000000 0.000000 0.000000 0.000000 -2.074647
    7 17.597597 0.000000 0.000000 -0.092081 0.087821 0.559948
    8 1.293670 0.684478 -0.000001 -0.000004 -0.000001 0.061853
    9 5.309685 -0.003834 0.000000 -0.153876 0.031280 0.198199
    10 4.826790 -0.004591 0.000000 -0.060590 0.007478 0.121878
    11 5.792767 -0.005304 0.000000 -0.084881 0.020086 0.231072
    12 6.662317 -0.001453 0.000000 0.000000 -0.000001 0.296580
    13 2.046985 -0.000002 0.000000 0.223040 -0.205539 0.011070
    14 -3.326874 0.954737 4.341911 0.846354 -1.133539 2.047095
    15 4.827230 0.000000 0.000001 -0.493563 0.521710 -1.143333
    16 11.139763 0.000000 0.000000 0.000000 0.000000 -1.108585
    17 10.314597 0.000001 0.000000 -0.676227 -0.708799 0.439925
    18 2.975834 -0.386307 -0.044143 -0.021506 -0.037954 0.497588
    19 1.438886 0.000000 0.000000 0.000000 0.000000 0.889650
    20 1.485303 0.000000 0.000000 0.000000 0.000000 1.116422
    21 -3.065217 0.884022 -4.140396 -0.000013 1.287161 2.844176
    22 4.972048 0.000000 0.000001 -0.210804 -1.073323 0.003327
    23 11.585355 0.000000 0.000000 0.000000 0.000000 -1.745138
    24 10.127057 0.000000 0.000001 1.569752 0.000000 -0.069778
    25 2.683750 -0.427338 0.044205 -0.005786 0.043239 -0.157091
    26 1.438885 -0.000001 0.000000 0.000000 0.000000 0.732658
    27 1.485305 0.000001 0.000000 0.000000 0.000000 1.168770
    28 1.038631 0.548043 -0.144017 -0.000001 0.000001 -1.849906
    29 -0.064003 -0.023521 0.026161 0.000000 0.000000 0.000000
    30 3.013925 3.984634 -0.088975 -0.000001 0.000001 -1.849906
    31 -0.084188 -0.025627 -0.001098 0.000000 0.000000 0.000000
    32 4.778187 3.972486 -0.079803 -0.000001 0.000001 -1.849906
    33 -0.058556 -0.021324 0.004244 0.000000 0.000000 0.000000
    34 1.640598 -1.968779 -0.099219 -0.000001 0.000001 -1.849906
    35 0.055573 -0.028908 0.000000 0.000000 0.000000 0.000000
    36 1.646738 0.449549 -1.702246 0.441914 0.155087 1.184542
    37 0.928312 0.000000 -0.000002 0.000000 0.000000 0.000000
    38 0.928314 0.000000 0.000001 0.000000 0.000000 0.000000
    39 1.533672 0.109715 1.664491 -0.264755 -0.055959 0.783109
    40 0.928313 0.000000 0.000000 0.000000 0.000000 -0.453556
    41 0.928314 0.000000 0.000001 0.000000 0.000000 0.000000
  time 14
    0 0.235347 0.367732 -14.514592 0.000000 0.270322 -1.570874
    1 0.000000 0.000000 0.000000 -1.570795 -1.570796 0.000000
    2 -0.000005 0.000007 3.713255 2.914525 6.061903 1.331528
    3 18.045721 0.000000 0.000000 0.000000 0.000000 -1.349242
    4 17.597597 0.000000 0.000000 -0.205057 0.225938 -0.216505
    5 0.000005 -0.000003 -3.713255 -0.067002 -3.740518 -0.837425
    6 18.045725 0.000000 0.000000 0.000000 0.000000 -2.074647
    7 17.597597 0.000000 0.000000 -0.092081 0.087821 0.559948
    8 1.293670 0.684478 -0.000001 -0.000004 -0.000001 0.061853
    9 5.309685 -0.003834 0.000000 -0.153876 0.031280 0.198199
    10 4.826790 -0.004591 0.000000 -0.060590 0.007478 0.121878
    11 5.792767 -0.005304 0.000000 -0.084816 0.020314 0.233688
    12 6.662317 -0.001453 0.000000 0.000000 -0.000001 0.296580
    13 2.046985 -0.000002 0.000000 0.223040 -0.205539 0.008419
    14 -3.326874 0.954737 4.341911 0.841368 -1.131423 2.052656
    15 4.827230 0.000000 0.000001 -0.490509 0.517880 -1.142545
    16 11.139763 0.000000 0.000000 0.000000 0.000000 -1.108585
    17 10.314597 0.000001 0.000000 -0.676227 -0.708799 0.439925
    18 2.975834 -0.386307 -0.044143 -0.021506 -0.037954 0.497588
    19 1.438886 0.000000 0.000000 0.000000 0.000000 0.889650
    20 1.485303 0.000000 0.000000 0.000000 0.000000 1.116422
    21 -3.065217 0.884022 -4.140396 -0.000013 1.284505 2.844176
    22 4.972048 0.000000 0.000001 -0.205544 -1.070669 -0.002075
    23 11.585355 0.000000 0.000000 0.000000 0.000000 -1.745138
    24 10.127057 0.000000 0.000001 1.569752 0.000000 -0.069778
    25 2.683750 -0.427338 0.044205 -0.005786 0.043239 -0.157091
    26 1.438885 -0.000001 0.000000 0.000000 0.000000 0.732658
    27 1.485305 0.000001 0.000000 0.000000 0.000000 1.168770
    28 1.038631 0.548043 -0.144017 -0.000001 0.000001 -1.849906
    29 -0.064003 -0.023521 0.026161 0.000000 0.000000 0.000000
    30 3.013925 3.984634 -0.088975 -0.000001 0.000001 -1.849906
    31 -0.084188 -0.025627 -0.001098 0.000000 0.000000 0.000000
    32 4.778187 3.972486 -0.079803 -0.000001 0.000001 -1.849906
    33 -0.058556 -0.021324 0.004244 0.000000 0.000000 0.000000
    34 1.640598 -1.968779 -0.099219 -0.000001 0.000001 -1.849906
    35 0.055573 -0.028908 0.000000 0.000000 0.000000 0.000000
    36 1.646738 0.449549 -1.702246 0.441914 0.155087 1.184542
    37 0.928312 0.000000 -0.000002 0.000000 0.000000 0.000000
    38 0.928314 0.000000 0.000001 0.000000 0.000000 0.000000
    39 1.533672 0.109715 1.664491 -0.264755 -0.055959 0.783109
    40 0.928313 0.000000 0.000000 0.000000 0.000000 -0.453556
    41 0.928314 0.000000 0.000001 0.000000 0.000000 0.000000
  time 15
    0 0.235347 0.367732 -14.514592 0.000000 0.270322 -1.570874
    1 0.000000 0.000000 0.000000 -1.570795 -1.570796 0.000000
    2 -0.000005 0.000007 3.713255 2.914525 6.061903 1.331528
    3 18.045721 0.000000 0.000000 0.000000 0.000000 -1.349242
    4 17.597597 0.000000 0.000000 -0.205057 0.225938 -0.216505
    5 0.000005 -0.000003 -3.713255 -0.067002 -3.740518 -0.837425
    6 18.045725 0.000000 0.000000 0.000000 0.000000 -2.074647
    7 17.597597 0.000000 0.000000 -0.092081 0.087821 0.559948
    8 1.293670 0.684478 -0.000001 -0.000004 -0.000001 0.061853
    9 5.309685 -0.003834 0.000000 -0.153876 0.031280 0.198199
    10 4.826790 -0.004591 0.000000 -0.060590 0.007478 0.121878
    11 5.792767 -0.005304 0.000000 -0.084799 0.020386 0.234623
    12 6.662317 -0.001453 0.000000 0.000000 -0.000001 0.296580
    13 2.046985 -0.000002 0.000000 0.223040 -0.205539 0.007475
    14 -3.326874 0.954737 4.341911 0.839547 -1.130692 2.054669
    15 4.827230 0.000000 0.000001 -0.489393 0.516519 -1.142283
    16 11.139763 0.000000 0.000000 0.000000 0.000000 -1.108585
    17 10.314597 0.000001 0.000000 -0.676227 -0.708799 0.439925
    18 2.975834 -0.386307 -0.044143 -0.021506 -0.037954 0.497588
    19 1.438886 0.000000 0.000000 0.000000 0.000000 0.889650
    20 1.485303 0.000000 0.000000 0.000000 0.000000 1.116422
    21 -3.065217 0.884022 -4.140396 -0.000013 1.283600 2.844176
    22 4.972048 0.000000 0.000001 -0.203688 -1.069704 -0.003985
    23 11.585355 0.000000 0.000000 0.000000 0.000000 -1.745138
    24 10.127057 0.000000 0.000001 1.569752 0.000000 -0.069778
    25 2.683750 -0.427338 0.044205 -0.005786 0.043239 -0.157091
    26 1.438885 -0.000001 0.000000 0.000000 0.000000 0.732658
    27 1.485305 0.000001 0.000000 0.000000 0.000000 1.168770
    28 1.038631 0.548043 -0.144017 -0.000001 0.000001 -1.849906
    29 -0.064003 -0.023521 0.026161 0.000000 0.000000 0.000000
    30 3.013925 3.984634 -0.088975 -0.000001 0.000001 -1.849906
    31 -0.084188 -0.025627 -0.001098 0.000000 0.000000 0.000000
    32 4.778187 3.972486 -0.079803 -0.000001 0.000001 -1.849906
    33 -0.058556 -0.021324 0.004244 0.000000 0.000000 0.000000
    34 1.640598 -1.968779 -0.099219 -0.000001 0.000001 -1.849906
    35 0.055573 -0.028908 0.000000 0.000000 0.000000 0.000000
    36 1.646738 0.449549 -1.702246 0.441914 0.155087 1.184542
    37 0.928312 0.000000 -0.000002 0.000000 0.000000 0.000000
    38 0.928314 0.000000 0.000001 0.000000 0.000000 0.000000
    39 1.533672 0.109715 1.664491 -0.264755 -0.055959 0.783109
    40 0.928313 0.000000 0.000000 0.000000 0.000000 -0.453556
    41 0.928314 0.000000 0.000001 0.000000 0.000000 0.000000
  time 16
    0 0.235347 0.367732 -14.514592 0.000000 0.270322 -1.570874
    1 0.000000 0.000000 0.000000 -1.570795 -1.570796 0.000000
    2 -0.000005 0.000007 3.713255 2.914525 6.061903 1.331528
    3 18.045721 0.000000 0.000000 0.000000 0.000000 -1.349242
    4 17.597597 0.000000 0.000000 -0.205057 0.225938 -0.216505
    5 0.000005 -0.000003 -3.713255 -0.067002 -3.740518 -0.837425
    6 18.045725 0.000000 0.000000 0.000000 0.000000 -2.074647
    7 17.597597 0.000000 0.000000 -0.092081 0.087821 0.559948
    8 1.293670 0.684478 -0.000001 -0.000004 -0.000001 0.061853
    9 5.309685 -0.003834 0.000000 -0.153876 0.031280 0.198199
    10 4.826790 -0.004591 0.000000 -0.060590 0.007478 0.121878
    11 5.792767 -0.005304 0.000000 -0.084816 0.020314 0.233688
    12 6.662317 -0.001453 0.000000 0.000000 -0.000001 0.296580
    13 2.046985 -0.000002 0.000000 0.223040 -0.205539 0.008419
    14 -3.326874 0.954737 4.341911 0.841368 -1.131423 2.052656
    15 4.827230 0.000000 0.000001 -0.490509 0.517880 -1.142545
    16 11.139763 0.000000 0.000000 0.000000 0.000000 -1.108585
    17 10.314597 0.000001 0.000000 -0.676227 -0.708799 0.439925
    18 2.975834 -0.386307 -0.044143 -0.021506 -0.037954 0.497588
    19 1.438886 0.000000 0.000000 0.000000 0.000000 0.889650
    20 1.485303 0.000000 0.000000 0.000000 0.000000 1.116422
    21 -3.065217 0.884022 -4.140396 -0.000013 1.284505 2.844176
    22 4.972048 0.000000 0.000001 -0.205544 -1.070669 -0.002075
    23 11.585355 0.000000 0.000000 0.000000 0.000000 -1.745138
    24 10.127057 0.000000 0.000001 1.569752 0.000000 -0.069778
    25 2.683750 -0.427338 0.044205 -0.005786 0.043239 -0.157091
    26 1.438885 -0.000001 0.000000 0.000000 0.000000 0.732658
    27 1.485305 0.000001 0.000000 0.000000 0.000000 1.168770
    28 1.038631 0.548043 -0.144017 -0.000001 0.000001 -1.849906
    29 -0.064003 -0.023521 0.026161 0.000000 0.000000 0.000000
    30 3.013925 3.984634 -0.088975 -0.000001 0.000001 -1.849906
    31 -0.084188 -0.025627 -0.001098 0.000000 0.000000 0.000000
    32 4.778187 3.972486 -0.079803 -0.000001 0.000001 -1.849906
    33 -0.058556 -0.021324 0.004244 0.000000 0.000000 0.000000
    34 1.640598 -1.968779 -0.099219 -0.000001 0.000001 -1.849906
    35 0.055573 -0.028908 0.000000 0.000000 0.000000 0.000000
    36 1.646738 0.449549 -1.702246 0.441914 0.155087 1.184542
    37 0.928312 0.000000 -0.000002 0.000000 0.000000 0.000000
    38 0.928314 0.000000 0.000001 0.000000 0.000000 0.000000
    39 1.533672 0.109715 1.664491 -0.264755 -0.055959 0.783109
    40 0.928313 0.000000 0.000000 0.000000 0.000000 -0.453556
    41 0.928314 0.000000 0.000001 0.000000 0.000000 0.000000
  time 17
    0 0.235347 0.367732 -14.514592 0.000000 0.270322 -1.570874
    1 0.000000 0.000000 0.000000 -1.570795 -1.570796 0.000000
    2 -0.000005 0.000007 3.713255 2.914525 6.061903 1.331528
    3 18.045721 0.000000 0.000000 0.000000 0.000000 -1.349242
    4 17.597597 0.000000 0.000000 -0.205057 0.225938 -0.216505
    5 0.000005 -0.000003 -3.713255 -0.067002 -3.740518 -0.837425
    6 18.045725 0.000000 0.000000 0.000000 0.000000 -2.074647
    7 17.597597 0.000000 0.000000 -0.092081 0.087821 0.559948
    8 1.293670 0.684478 -0.000001 -0.000004 -0.000001 0.061853
    9 5.309685 -0.003834 0.000000 -0.153876 0.031280 0.198199
    10 4.826790 -0.004591 0.000000 -0.060590 0.007478 0.121878
    11 5.792767 -0.005304 0.000000 -0.084881 0.020086 0.231072
    12 6.662317 -0.001453 0.000000 0.000000 -0.000001 0.296580
    13 2.046985 -0.000002 0.000000 0.223040 -0.205539 0.011070
    14 -3.326874 0.954737 4.341911 0.846354 -1.133539 2.047095
    15 4.827230 0.000000 0.000001 -0.493563 0.521710 -1.143333
    16 11.139763 0.000000 0.000000 0.000000 0.000000 -1.108585
    17 10.314597 0.000001 0.000000 -0.676227 -0.708799 0.439925
    18 2.975834 -0.386307 -0.044143 -0.021506 -0.037954 0.497588
    19 1.438886 0.000000 0.000000 0.000000 0.000000 0.889650
    20 1.485303 0.000000 0.000000 0.000000 0.000000 1.116422
    21 -3.065217 0.884022 -4.140396 -0.000013 1.287161 2.844176
    22 4.972048 0.000000 0.000001 -0.210804 -1.073323 0.003327
    23 11.585355 0.000000 0.000000 0.000000 0.000000 -1.745138
    24 10.127057 0.000000 0.000001 1.569752 0.000000 -0.069778
    25 2.683750 -0.427338 0.044205 -0.005786 0.043239 -0.157091
    26 1.438885 -0.000001 0.000000 0.000000 0.000000 0.732658
    27 1.485305 0.000001 0.000000 0.000000 0.000000 1.168770
    28 1.038631 0.548043 -0.144017 -0.000001 0.000001 -1.849906
    29 -0.064003 -0.023521 0.026161 0.000000 0.000000 0.000000
    30 3.013925 3.984634 -0.088975 -0.000001 0.000001 -1.849906
    31 -0.084188 -0.025627 -0.001098 0.000000 0.000000 0.000000
    32 4.778187 3.972486 -0.079803 -0.000001 0.000001 -1.849906
    33 -0.058556 -0.021324 0.004244 0.000000 0.000000 0.000000
    34 1.640598 -1.968779 -0.099219 -0.000001 0.000001 -1.849906
    35 0.055573 -0.028908 0.000000 0.000000 0.000000 0.000000
    36 1.646738 0.449549 -1.702246 0.441914 0.155087 1.184542
    37 0.928312 0.000000 -0.000002 0.000000 0.000000 0.000000
    38 0.928314 0.000000 0.000001 0.000000 0.000000 0.000000
    39 1.533672 0.109715 1.664491 -0.264755 -0.055959 0.783109
    40 0.928313 0.000000 0.000000 0.000000 0.000000 -0.453556
    41 0.928314 0.000000 0.000001 0.000000 0.000000 0.000000
  time 18
    0 0.235347 0.367732 -14.514592 0.000000 0.270322 -1.570874
    1 0.000000 0.000000 0.000000 -1.570795 -1.570796 0.000000
    2 -0.000005 0.000007 3.713255 2.914525 6.061903 1.331528
    3 18.045721 0.000000 0.000000 0.000000 0.000000 -1.349242
    4 17.597597 0.000000 0.000000 -0.205057 0.225938 -0.216505
    5 0.000005 -0.000003 -3.713255 -0.067002 -3.740518 -0.837425
    6 18.045725 0.000000 0.000000 0.000000 0.000000 -2.074647
    7 17.597597 0.000000 0.000000 -0.092081 0.087821 0.559948
    8 1.293670 0.684478 -0.000001 -0.000004 -0.000001 0.061853
    9 5.309685 -0.003834 0.000000 -0.153876 0.031280 0.198199
    10 4.826790 -0.004591 0.000000 -0.060590 0.007478 0.121878
    11 5.792767 -0.005304 0.000000 -0.084962 0.019739 0.226982
    12 6.662317 -0.001453 0.000000 0.000000 -0.000001 0.296580
    13 2.046985 -0.000002 0.000000 0.223040 -0.205539 0.015161
    14 -3.326874 0.954737 4.341911 0.854311 -1.136808 2.038370
    15 4.827230 0.000000 0.000001 -0.498321 0.527667 -1.144558
    16 11.139763 0.000000 0.000000 0.000000 0.000000 -1.108585
    17 10.314597 0.000001 0.000000 -0.676227 -0.708799 0.439925
    18 2.975834 -0.386307 -0.044143 -0.021506 -0.037954 0.497588
    19 1.438886 0.000000 0.000000 0.000000 0.000000 0.889650
    20 1.485303 0.000000 0.000000 0.000000 0.000000 1.116422
    21 -3.065217 0.884022 -4.140396 -0.000013 1.291260 2.844176
    22 4.972048 0.000000 0.000001 -0.219159 -1.077426 0.011824
    23 11.585355 0.000000 0.000000 0.000000 0.000000 -1.745138
    24 10.127057 0.000000 0.000001 1.569752 0.000000 -0.069778
    25 2.683750 -0.427338 0.044205 -0.005786 0.043239 -0.157091
    26 1.438885 -0.000001 0.000000 0.000000 0.000000 0.732658
    27 1.485305 0.000001 0.000000 0.000000 0.000000 1.168770
    28 1.038631 0.548043 -0.144017 -0.000001 0.000001 -1.849906
    29 -0.064003 -0.023521 0.026161 0.000000 0.000000 0.000000
    30 3.013925 3.984634 -0.088975 -0.000001 0.000001 -1.849906
    31 -0.084188 -0.025627 -0.001098 0.000000 0.000000 0.000000
    32 4.778187 3.972486 -0.079803 -0.000001 0.000001 -1.849906
    33 -0.058556 -0.021324 0.004244 0.000000 0.000000 0.000000
    34 1.640598 -1.968779 -0.099219 -0.000001 0.000001 -1.849906
    35 0.055573 -0.028908 0.000000 0.000000 0.000000 0.000000
    36 1.646738 0.449549 -1.702246 0.441914 0.155087 1.184542
    37 0.928312 0.000000 -0.000002 0.000000 0.000000 0.000000
    38 0.928314 0.000000 0.000001 0.000000 0.000000 0.000000
    39 1.533672 0.109715 1.664491 -0.264755 -0.055959 0.783109
    40 0.928313 0.000000 0.000000 0.000000 0.000000 -0.453556
    41 0.928314 0.000000 0.000001 0.000000 0.000000 0.000000
  time 19
    0 0.235347 0.367732 -14.514592 0.000000 0.270322 -1.570874
    1 0.000000 0.000000 0.000000 -1.570795 -1.570796 0.000000
    2 -0.000005 0.000007 3.713255 2.914525 6.061903 1.331528
    3 18.045721 0.000000 0.000000 0.000000 0.000000 -1.349242
    4 17.597597 0.000000 0.000000 -0.205057 0.225938 -0.216505
    5 0.000005 -0.000003 -3.713255 -0.067002 -3.740518 -0.837425
    6 18.045725 0.000000 0.000000 0.000000 0.000000 -2.074647
    7 17.597597 0.000000 0.000000 -0.092081 0.087821 0.559948
    8 1.293670 0.684478 -0.000001 -0.000004 -0.000001 0.061853
    9 5.309685 -0.003834 0.000000 -0.153876 0.031280 0.198199
    10 4.826790 -0.004591 0.000000 -0.060590 0.007478 0.121878
    11 5.792767 -0.005304 0.000000 -0.085060 0.019283 0.221646
    12 6.662317 -0.001453 0.000000 0.000000 -0.000001 0.296580
    13 2.046985 -0.000002 0.000000 0.223040 -0.205539 0.020509
    14 -3.326874 0.954737 4.341911 0.864857 -1.141001 2.026674
    15 4.827230 0.000000 0.000001 -0.504547 0.535496 -1.146308
    16 11.139763 0.000000 0.000000 0.000000 0.000000 -1.108585
    17 10.314597 0.000001 0.000000 -0.676227 -0.708799 0.439925
    18 2.975834 -0.386307 -0.044143 -0.021506 -0.037954 0.497588
    19 1.438886 0.000000 0.000000 0.000000 0.000000 0.889650
    20 1.485303 0.000000 0.000000 0.000000 0.000000 1.116422
    21 -3.065217 0.884022 -4.140396 -0.000013 1.296602 2.844176
    22 4.972048 0.000000 0.000001 -0.230298 -1.082655 0.023089
    23 11.585355 0.000000 0.000000 0.000000 0.000000 -1.745138
    24 10.127057 0.000000 0.000001 1.569752 0.000000 -0.069778
    25 2.683750 -0.427338 0.044205 -0.005786 0.043239 -0.157091
    26 1.438885 -0.000001 0.000000 0.000000 0.000000 0.732658
    27 1.485305 0.000001 0.000000 0.000000 0.000000 1.168770
    28 1.038631 0.548043 -0.144017 -0.000001 0.000001 -1.849906
    29 -0.064003 -0.023521 0.026161 0.000000 0.000000 0.000000
    30 3.013925 3.984634 -0.088975 -0.000001 0.000001 -1.849906
    31 -0.084188 -0.025627 -0.001098 0.000000 0.000000 0.000000
    32 4.778187 3.972486 -0.079803 -0.000001 0.000001 -1.849906
    33 -0.058556 -0.021324 0.004244 0.000000 0.000000 0.000000
    34 1.640598 -1.968779 -0.099219 -0.000001 0.000001 -1.849906
    35 0.055573 -0.028908 0.000000 0.000000 0.000000 0.000000
    36 1.646738 0.449549 -1.702246 0.441914 0.155087 1.184542
    37 0.928312 0.000000 -0.000002 0.000000 0.000000 0.000000
    38 0.928314 0.000000 0.000001 0.000000 0.000000 0.000000
    39 1.533672 0.109715 1.664491 -0.264755 -0.055959 0.783109
    40 0.928313 0.000000 0.000000 0.000000 0.000000 -0.453556
    41 0.928314 0.000000 0.000001 0.000000 0.000000 0.000000
  time 20
    0 0.235347 0.367732 -14.514592 0.000000 0.270322 -1.570874
    1 0.000000 0.000000 0.000000 -1.570795 -1.570796 0.000000
    2 -0.000005 0.000007 3.713255 2.914525 6.061903 1.331528
    3 18.045721 0.000000 0.000000 0.000000 0.000000 -1.349242
    4 17.597597 0.000000 0.000000 -0.205057 0.225938 -0.216505
    5 0.000005 -0.000003 -3.713255 -0.067002 -3.740518 -0.837425
    6 18.045725 0.000000 0.000000 0.000000 0.000000 -2.074647
    7 17.597597 0.000000 0.000000 -0.092081 0.087821 0.559948
    8 1.293670 0.684478 -0.000001 -0.000004 -0.000001 0.061853
    9 5.309685 -0.003834 0.000000 -0.153876 0.031280 0.198199
    10 4.826790 -0.004591 0.000000 -0.060590 0.007478 0.121878
    11 5.792767 -0.005304 0.000000 -0.085174 0.018744 0.215313
    12 6.662317 -0.001453 0.000000 0.000000 -0.000001 0.296580
    13 2.046985 -0.000002 0.000000 0.223040 -0.205539 0.026847
    14 -3.326874 0.954737 4.341911 0.877704 -1.145886 2.012580
    15 4.827230 0.000000 0.000001 -0.512065 0.544687 -1.148409
    16 11.139763 0.000000 0.000000 0.000000 0.000000 -1.108585
    17 10.314597 0.000001 0.000000 -0.676227 -0.708799 0.439925
    18 2.975834 -0.386307 -0.044143 -0.021506 -0.037954 0.497588
    19 1.438886 0.000000 0.000000 0.000000 0.000000 0.889650
    20 1.485303 0.000000 0.000000 0.000000 0.000000 1.116422
    21 -3.065217 0.884022 -4.140396 -0.000013 1.302961 2.844176
    22 4.972048 0.000000 0.000001 -0.243835 -1.088849 0.036790
    23 11.585355 0.000000 0.000000 0.000000 0.000000 -1.745138
    24 10.127057 0.000000 0.000001 1.569752 0.000000 -0.069778
    25 2.683750 -0.427338 0.044205 -0.005786 0.043239 -0.157091
    26 1.438885 -0.000001 0.000000 0.000000 0.000000 0.732658
    27 1.485305 0.000001 0.000000 0.000000 0.000000 1.168770
    28 1.038631 0.548043 -0.144017 -0.000001 0.000001 -1.849906
    29 -0.064003 -0.023521 0.026161 0.000000 0.000000 0.000000
    30 3.013925 3.984634 -0.088975 -0.000001 0.000001 -1.849906
    31 -0.084188 -0.025627 -0.001098 0.000000 0.000000 0.000000
    32 4.778187 3.972486 -0.079803 -0.000001 0.000001 -1.849906
    33 -0.058556 -0.021324 0.004244 0.000000 0.000000 0.000000
    34 1.640598 -1.968779 -0.099219 -0.000001 0.000001 -1.849906
    35 0.055573 -0.028908 0.000000 0.000000 0.000000 0.000000
    36 1.646738 0.449549 -1.702246 0.441914 0.155087 1.184542
    37 0.928312 0.000000 -0.000002 0.000000 0.000000 0.000000
    38 0.928314 0.000000 0.000001 0.000000 0.000000 0.000000
    39 1.533672 0.109715 1.664491 -0.264755 -0.055959 0.783109
    40 0.928313 0.000000 0.000000 0.000000 0.000000 -0.453556
    41 0.928314 0.000000 0.000001 0.000000 0.000000 0.000000
  time 21
    0 0.235347 0.367732 -14.514592 0.000000 0.270322 -1.570874
    1 0.000000 0.000000 0.000000 -1.570795 -1.570796 0.000000
    2 -0.000005 0.000007 3.713255 2.914525 6.061903 1.331528
    3 18.045721 0.000000 0.000000 0.000000 0.000000 -1.349242
    4 17.597597 0.000000 0.000000 -0.205057 0.225938 -0.216505
    5 0.000005 -0.000003 -3.713255 -0.067002 -3.740518 -0.837425
    6 18.045725 0.000000 0.000000 0.000000 0.000000 -2.074647
    7 17.597597 0.000000 0.000000 -0.092081 0.087821 0.559948
    8 1.293670 0.684478 -0.000001 -0.000004 -0.000001 0.061853
    9 5.309685 -0.003834 0.000000 -0.153876 0.031280 0.198199
    10 4.826790 -0.004591 0.000000 -0.060590 0.007478 0.121878
    11 5.792767 -0.005304 0.000000 -0.085305 0.018133 0.208192
    12 6.662317 -0.001453 0.000000 0.000000 -0.000001 0.296580
    13 2.046985 -0.000002 0.000000 0.223040 -0.205539 0.033994
    14 -3.326874 0.954737 4.341911 0.892469 -1.151310 1.996473
    15 4.827230 0.000000 0.000001 -0.520523 0.555069 -1.151034
    16 11.139763 0.000000 0.000000 0.000000 0.000000 -1.108585
    17 10.314597 0.000001 0.000000 -0.676227 -0.708799 0.439925
    18 2.975834 -0.386307 -0.044143 -0.021506 -0.037954 0.497588
    19 1.438886 0.000000 0.000000 0.000000 0.000000 0.889650
    20 1.485303 0.000000 0.000000 0.000000 0.000000 1.116422
    21 -3.065217 0.884022 -4.140396 -0.000013 1.310112 2.844176
    22 4.972048 0.000000 0.000001 -0.259461 -1.095606 0.052468
    23 11.585355 0.000000 0.000000 0.000000 0.000000 -1.745138
    24 10.127057 0.000000 0.000001 1.569752 0.000000 -0.069778
    25 2.683750 -0.427338 0.044205 -0.005786 0.043239 -0.157091
    26 1.438885 -0.000001 0.000000 0.000000 0.000000 0.732658
    27 1.485305 0.000001 0.000000 0.000000 0.000000 1.168770
    28 1.038631 0.548043 -0.144017 -0.000001 0.000001 -1.849906
    29 -0.064003 -0.023521 0.026161 0.000000 0.000000 0.000000
    30 3.013925 3.984634 -0.088975 -0.000001 0.000001 -1.849906
    31 -0.084188 -0.025627 -0.001098 0.000000 0.000000 0.000000
    32 4.778187 3.972486 -0.079803 -0.000001 0.000001 -1.849906
    33 -0.058556 -0.021324 0.004244 0.000000 0.000000 0.000000
    34 1.640598 -1.968779 -0.099219 -0.000001 0.000001 -1.849906
    35 0.055573 -0.028908 0.000000 0.000000 0.000000 0.000000
    36 1.646738 0.449549 -1.702246 0.441914 0.155087 1.184542
    37 0.928312 0.000000 -0.000002 0.000000 0.000000 0.000000
    38 0.928314 0.000000 0.000001 0.000000 0.000000 0.000000
    39 1.533672 0.109715 1.664491 -0.264755 -0.055959 0.783109
    40 0.928313 0.000000 0.000000 0.000000 0.000000 -0.453556
    41 0.928314 0.000000 0.000001 0.000000 0.000000 0.000000
  time 22
    0 0.235347 0.367732 -14.514592 0.000000 0.270322 -1.570874
    1 0.000000 0.000000 0.000000 -1.570795 -1.570796 0.000000
    2 -0.000005 0.000007 3.713255 2.914525 6.061903 1.331528
    3 18.045721 0.000000 0.000000 0.000000 0.000000 -1.349242
    4 17.597597 0.000000 0.000000 -0.205057 0.225938 -0.216505
    5 0.000005 -0.000003 -3.713255 -0.067002 -3.740518 -0.837425
    6 18.045725 0.000000 0.000000 0.000000 0.000000 -2.074647
    7 17.597597 0.000000 0.000000 -0.092081 0.087821 0.559948
    8 1.293670 0.684478 -0.000001 -0.000004 -0.000001 0.061853
    9 5.309685 -0.003834 0.000000 -0.153876 0.031280 0.198199
    10 4.826790 -0.004591 0.000000 -0.060590 0.007478 0.121878
    11 5.792767 -0.005304 0.000000 -0.085452 0.017486 0.200551
    12 6.662317 -0.001453 0.000000 0.000000 -0.000001 0.296580
    13 2.046985 -0.000002 0.000000 0.223040 -0.205539 0.041680
    14 -3.326874 0.954737 4.341911 0.908767 -1.157042 1.978640
    15 4.827230 0.000000 0.000001 -0.529686 0.566218 -1.154009
    16 11.139763 0.000000 0.000000 0.000000 0.000000 -1.108585
    17 10.314597 0.000001 0.000000 -0.676227 -0.708799 0.439925
    18 2.975834 -0.386307 -0.044143 -0.021506 -0.037954 0.497588
    19 1.438886 0.000000 0.000000 0.000000 0.000000 0.889650
    20 1.485303 0.000000 0.000000 0.000000 0.000000 1.116422
    21 -3.065217 0.884022 -4.140396 -0.000013 1.317772 2.844176
    22 4.972048 0.000000 0.000001 -0.276788 -1.102845 0.069924
    23 11.585355 0.000000 0.000000 0.000000 0.000000 -1.745138
    24 10.127057 0.000000 0.000001 1.569752 0.000000 -0.069778
    25 2.683750 -0.427338 0.044205 -0.005786 0.043239 -0.157091
    26 1.438885 -0.000001 0.000000 0.000000 0.000000 0.732658
    27 1.485305 0.000001 0.000000 0.000000 0.000000 1.168770
    28 1.038631 0.548043 -0.144017 -0.000001 0.000001 -1.849906
    29 -0.064003 -0.023521 0.026161 0.000000 0.000000 0.000000
    30 3.013925 3.984634 -0.088975 -0.000001 0.000001 -1.849906
    31 -0.084188 -0.025627 -0.001098 0.000000 0.000000 0.000000
    32 4.778187 3.972486 -0.079803 -0.000001 0.000001 -1.849906
    33 -0.058556 -0.021324 0.004244 0.000000 0.000000 0.000000
    34 1.640598 -1.968779 -0.099219 -0.000001 0.000001 -1.849906
    35 0.055573 -0.028908 0.000000 0.000000 0.000000 0.000000
    36 1.646738 0.449549 -1.702246 0.441914 0.155087 1.184542
    37 0.928312 0.000000 -0.000002 0.000000 0.000000 0.000000
    38 0.928314 0.000000 0.000001 0.000000 0.000000 0.000000
    39 1.533672 0.109715 1.664491 -0.264755 -0.055959 0.783109
    40 0.928313 0.000000 0.000000 0.000000 0.000000 -0.453556
    41 0.928314 0.000000 0.000001 0.000000 0.000000 0.000000
  time 23
    0 0.235347 0.367732 -14.514592 0.000000 0.270322 -1.570874
    1 0.000000 0.000000 0.000000 -1.570795 -1.570796 0.000000
    2 -0.000005 0.000007 3.713255 2.914525 6.061903 1.331528
    3 18.045721 0.000000 0.000000 0.000000 0.000000 -1.349242
    4 17.597597 0.000000 0.000000 -0.205057 0.225938 -0.216505
    5 0.000005 -0.000003 -3.713255 -0.067002 -3.740518 -0.837425
    6 18.045725 0.000000 0.000000 0.000000 0.000000 -2.074647
    7 17.597597 0.000000 0.000000 -0.092081 0.087821 0.559948
    8 1.293670 0.684478 -0.000001 -0.000004 -0.000001 0.061853
    9 5.309685 -0.003834 0.000000 -0.153876 0.031280 0.198199
    10 4.826790 -0.004591 0.000000 -0.060590 0.007478 0.121878
    11 5.792767 -0.005304 0.000000 -0.085582 0.016802 0.192599
    12 6.662317 -0.001453 0.000000 0.000000 -0.000001 0.296580
    13 2.046985 -0.000002 0.000000 0.223040 -0.205539 0.049681
    14 -3.326874 0.954737 4.341911 0.926216 -1.162850 1.959560
    15 4.827230 0.000000 0.000001 -0.539378 0.577791 -1.157247
    16 11.139763 0.000000 0.000000 0.000000 0.000000 -1.108585
    17 10.314597 0.000001 0.000000 -0.676227 -0.708799 0.439925
    18 2.975834 -0.386307 -0.044143 -0.021506 -0.037954 0.497588
    19 1.438886 0.000000 0.000000 0.000000 0.000000 0.889650
    20 1.485303 0.000000 0.000000 0.000000 0.000000 1.116422
    21 -3.065217 0.884022 -4.140396 -0.000013 1.325770 2.844176
    22 4.972048 0.000000 0.000001 -0.295430 -1.110165 0.088500
    23 11.585355 0.000000 0.000000 0.000000 0.000000 -1.745138
    24 10.127057 0.000000 0.000001 1.569752 0.000000 -0.069778
    25 2.683750 -0.427338 0.044205 -0.005786 0.043239 -0.157091
    26 1.438885 -0.000001 0.000000 0.000000 0.000000 0.732658
    27 1.485305 0.000001 0.000000 0.000000 0.000000 1.168770
    28 1.038631 0.548043 -0.144017 -0.000001 0.000001 -1.849906
    29 -0.064003 -0.023521 0.026161 0.000000 0.000000 0.000000
    30 3.013925 3.984634 -0.088975 -0.000001 0.000001 -1.849906
    31 -0.084188 -0.025627 -0.001098 0.000000 0.000000 0.000000
    32 4.778187 3.972486 -0.079803 -0.000001 0.000001 -1.849906
    33 -0.058556 -0.021324 0.004244 0.000000 0.000000 0.000000
    34 1.640598 -1.968779 -0.099219 -0.000001 0.000001 -1.849906
    35 0.055573 -0.028908 0.000000 0.000000 0.000000 0.000000
    36 1.646738 0.449549 -1.702246 0.441914 0.155087 1.184542
    37 0.928312 0.000000 -0.000002 0.000000 0.000000 0.000000
    38 0.928314 0.000000 0.000001 0.000000 0.000000 0.000000
    39 1.533672 0.109715 1.664491 -0.264755 -0.055959 0.783109
    40 0.928313 0.000000 0.000000 0.000000 0.000000 -0.453556
    41 0.928314 0.000000 0.000001 0.000000 0.000000 0.000000
  time 24
    0 0.235347 0.367732 -14.514592 0.000000 0.270322 -1.570874
    1 0.000000 0.000000 0.000000 -1.570795 -1.570796 0.000000
    2 -0.000005 0.000007 3.713255 2.914525 6.061903 1.331528
    3 18.045721 0.000000 0.000000 0.000000 0.000000 -1.349242
    4 17.597597 0.000000 0.000000 -0.205057 0.225938 -0.216505
    5 0.000005 -0.000003 -3.713255 -0.067002 -3.740518 -0.837425
    6 18.045725 0.000000 0.000000 0.000000 0.000000 -2.074647
    7 17.597597 0.000000 0.000000 -0.092081 0.087821 0.559948
    8 1.293670 0.684478 -0.000001 -0.000004 -0.000001 0.061853
    9 5.309685 -0.003834 0.000000 -0.153876 0.031280 0.198199
    10 4.826790 -0.004591 0.000000 -0.060590 0.007478 0.121878
    11 5.792767 -0.005304 0.000000 -0.085713 0.016107 0.184564
    12 6.662317 -0.001453 0.000000 0.000000 -0.000001 0.296580
    13 2.046985 -0.000002 0.000000 0.223040 -0.205539 0.057726
    14 -3.326874 0.954737 4.341911 0.944432 -1.168620 1.939810
    15 4.827230 0.000000 0.000001 -0.549245 0.589450 -1.160835
    16 11.139763 0.000000 0.000000 0.000000 0.000000 -1.108585
    17 10.314597 0.000001 0.000000 -0.676227 -0.708799 0.439925
    18 2.975834 -0.386307 -0.044143 -0.021506 -0.037954 0.497588
    19 1.438886 0.000000 0.000000 0.000000 0.000000 0.889650
    20 1.485303 0.000000 0.000000 0.000000 0.000000 1.116422
    21 -3.065217 0.884022 -4.140396 -0.000013 1.333826 2.844176
    22 4.972048 0.000000 0.000001 -0.314847 -1.117486 0.107932
    23 11.585355 0.000000 0.000000 0.000000 0.000000 -1.745138
    24 10.127057 0.000000 0.000001 1.569752 0.000000 -0.069778
    25 2.683750 -0.427338 0.044205 -0.005786 0.043239 -0.157091
    26 1.438885 -0.000001 0.000000 0.000000 0.000000 0.732658
    27 1.485305 0.000001 0.000000 0.000000 0.000000 1.168770
    28 1.038631 0.548043 -0.144017 -0.000001 0.000001 -1.849906
    29 -0.064003 -0.023521 0.026161 0.000000 0.000000 0.000000
    30 3.013925 3.984634 -0.088975 -0.000001 0.000001 -1.849906
    31 -0.084188 -0.025627 -0.001098 0.000000 0.000000 0.000000
    32 4.778187 3.972486 -0.079803 -0.000001 0.000001 -1.849906
    33 -0.058556 -0.021324 0.004244 0.000000 0.000000 0.000000
    34 1.640598 -1.968779 -0.099219 -0.000001 0.000001 -1.849906
    35 0.055573 -0.028908 0.000000 0.000000 0.000000 0.000000
    36 1.646738 0.449549 -1.702246 0.441914 0.155087 1.184542
    37 0.928312 0.000000 -0.000002 0.000000 0.000000 0.000000
    38 0.928314 0.000000 0.000001 0.000000 0.000000 0.000000
    39 1.533672 0.109715 1.664491 -0.264755 -0.055959 0.783109
    40 0.928313 0.000000 0.000000 0.000000 0.000000 -0.453556
    41 0.928314 0.000000 0.000001 0.000000 0.000000 0.000000
  time 25
    0 0.235347 0.367732 -14.514592 0.000000 0.270322 -1.570874
    1 0.000000 0.000000 0.000000 -1.570795 -1.570796 0.000000
    2 -0.000005 0.000007 3.713255 2.914525 6.061903 1.331528
    3 18.045721 0.000000 0.000000 0.000000 0.000000 -1.349242
    4 17.597597 0.000000 0.000000 -0.205057 0.225938 -0.216505
    5 0.000005 -0.000003 -3.713255 -0.067002 -3.740518 -0.837425
    6 18.045725 0.000000 0.000000 0.000000 0.000000 -2.074647
    7 17.597597 0.000000 0.000000 -0.092081 0.087821 0.559948
    8 1.293670 0.684478 -0.000001 -0.000004 -0.000001 0.061853
    9 5.309685 -0.003834 0.000000 -0.153876 0.031280 0.198199
    10 4.826790 -0.004591 0.000000 -0.060590 0.007478 0.121878
    11 5.792767 -0.005304 0.000000 -0.085843 0.015436 0.176674
    12 6.662317 -0.001453 0.000000 0.000000 -0.000001 0.296580
    13 2.046985 -0.000002 0.000000 0.223040 -0.205539 0.065637
    14 -3.326874 0.954737 4.341911 0.962744 -1.174082 1.919868
    15 4.827230 0.000000 0.000001 -0.559054 0.600939 -1.164511
    16 11.139763 0.000000 0.000000 0.000000 0.000000 -1.108585
    17 10.314597 0.000001 0.000000 -0.676227 -0.708799 0.439925
    18 2.975834 -0.386307 -0.044143 -0.021506 -0.037954 0.497588
    19 1.438886 0.000000 0.000000 0.000000 0.000000 0.889650
    20 1.485303 0.000000 0.000000 0.000000 0.000000 1.116422
    21 -3.065217 0.884022 -4.140396 -0.000013 1.341739 2.844176
    22 4.972048 0.000000 0.000001 -0.334572 -1.124403 0.127431
    23 11.585355 0.000000 0.000000 0.000000 0.000000 -1.745138
    24 10.127057 0.000000 0.000001 1.569752 0.000000 -0.069778
    25 2.683750 -0.427338 0.044205 -0.005786 0.043239 -0.157091
    26 1.438885 -0.000001 0.000000 0.000000 0.000000 0.732658
    27 1.485305 0.000001 0.000000 0.000000 0.000000 1.168770
    28 1.038631 0.548043 -0.144017 -0.000001 0.000001 -1.849906
    29 -0.064003 -0.023521 0.026161 0.000000 0.000000 0.000000
    30 3.013925 3.984634 -0.088975 -0.000001 0.000001 -1.849906
    31 -0.084188 -0.025627 -0.001098 0.000000 0.000000 0.000000
    32 4.778187 3.972486 -0.079803 -0.000001 0.000001 -1.849906
    33 -0.058556 -0.021324 0.004244 0.000000 0.000000 0.000000
    34 1.640598 -1.968779 -0.099219 -0.000001 0.000001 -1.849906
    35 0.055573 -0.028908 0.000000 0.000000 0.000000 0.000000
    36 1.646738 0.449549 -1.702246 0.441914 0.155087 1.184542
    37 0.928312 0.000000 -0.000002 0.000000 0.000000 0.000000
    38 0.928314 0.000000 0.000001 0.000000 0.000000 0.000000
    39 1.533672 0.109715 1.664491 -0.264755 -0.055959 0.783109
    40 0.928313 0.000000 0.000000 0.000000 0.000000 -0.453556
    41 0.928314 0.000000 0.000001 0.000000 0.000000 0.000000
  time 26
    0 0.235347 0.367732 -14.514592 0.000000 0.270322 -1.570874
    1 0.000000 0.000000 0.000000 -1.570795 -1.570796 0.000000
    2 -0.000005 0.000007 3.713255 2.914525 6.061903 1.331528
    3 18.045721 0.000000 0.000000 0.000000 0.000000 -1.349242
    4 17.597597 0.000000 0.000000 -0.205057 0.225938 -0.216505
    5 0.000005 -0.000003 -3.713255 -0.067002 -3.740518 -0.837425
    6 18.045725 0.000000 0.000000 0.000000 0.000000 -2.074647
    7 17.597597 0.000000 0.000000 -0.092081 0.087821 0.559948
    8 1.293670 0.684478 -0.000001 -0.000004 -0.000001 0.061853
    9 5.309685 -0.003834 0.000000 -0.153876 0.031280 0.198199
    10 4.826790 -0.004591 0.000000 -0.060590 0.007478 0.121878
    11 5.792767 -0.005304 0.000000 -0.085957 0.014789 0.169178
    12 6.662317 -0.001453 0.000000 0.000000 -0.000001 0.296580
    13 2.046985 -0.000002 0.000000 0.223040 -0.205539 0.073143
    14 -3.326874 0.954737 4.341911 0.980672 -1.179198 1.900501
    15 4.827230 0.000000 0.000001 -0.568511 0.611832 -1.168274
    16 11.139763 0.000000 0.000000 0.000000 0.000000 -1.108585
    17 10.314597 0.000001 0.000000 -0.676227 -0.708799 0.439925
    18 2.975834 -0.386307 -0.044143 -0.021506 -0.037954 0.497588
    19 1.438886 0.000000 0.000000 0.000000 0.000000 0.889650
    20 1.485303 0.000000 0.000000 0.000000 0.000000 1.116422
    21 -3.065217 0.884022 -4.140396 -0.000013 1.349258 2.844176
    22 4.972048 0.000000 0.000001 -0.353911 -1.130839 0.146534
    23 11.585355 0.000000 0.000000 0.000000 0.000000 -1.745138
    24 10.127057 0.000000 0.000001 1.569752 0.000000 -0.069778
    25 2.683750 -0.427338 0.044205 -0.005786 0.043239 -0.157091
    26 1.438885 -0.000001 0.000000 0.000000 0.000000 0.732658
    27 1.485305 0.000001 0.000000 0.000000 0.000000 1.168770
    28 1.038631 0.548043 -0.144017 -0.000001 0.000001 -1.849906
    29 -0.064003 -0.023521 0.026161 0.000000 0.000000 0.000000
    30 3.013925 3.984634 -0.088975 -0.000001 0.000001 -1.849906
    31 -0.084188 -0.025627 -0.001098 0.000000 0.000000 0.000000
    32 4.778187 3.972486 -0.079803 -0.000001 0.000001 -1.849906
    33 -0.058556 -0.021324 0.004244 0.000000 0.000000 0.000000
    34 1.640598 -1.968779 -0.099219 -0.000001 0.000001 -1.849906
    35 0.055573 -0.028908 0.000000 0.000000 0.000000 0.000000
    36 1.646738 0.449549 -1.702246 0.441914 0.155087 1.184542
    37 0.928312 0.000000 -0.000002 0.000000 0.000000 0.000000
    38 0.928314 0.000000 0.000001 0.000000 0.000000 0.000000
    39 1.533672 0.109715 1.664491 -0.264755 -0.055959 0.783109
    40 0.928313 0.000000 0.000000 0.000000 0.000000 -0.453556
    41 0.928314 0.000000 0.000001 0.000000 0.000000 0.000000
  time 27
    0 0.235347 0.367732 -14.514592 0.000000 0.270322 -1.570874
    1 0.000000 0.000000 0.000000 -1.570795 -1.570796 0.000000
    2 -0.000005 0.000007 3.713255 2.914525 6.061903 1.331528
    3 18.045721 0.000000 0.000000 0.000000 0.000000 -1.349242
    4 17.597597 0.000000 0.000000 -0.205057 0.225938 -0.216505
    5 0.000005 -0.000003 -3.713255 -0.067002 -3.740518 -0.837425
    6 18.045725 0.000000 0.000000 0.000000 0.000000 -2.074647
    7 17.597597 0.000000 0.000000 -0.092081 0.087821 0.559948
    8 1.293670 0.684478 -0.000001 -0.000004 -0.000001 0.061853
    9 5.309685 -0.003834 0.000000 -0.153876 0.031280 0.198199
    10 4.826790 -0.004591 0.000000 -0.060590 0.007478 0.121878
    11 5.792767 -0.005304 0.000000 -0.086055 0.014190 0.162306
    12 6.662317 -0.001453 0.000000 0.000000 -0.000001 0.296580
    13 2.046985 -0.000002 0.000000 0.223040 -0.205539 0.080065
    14 -3.326874 0.954737 4.341911 0.997546 -1.183737 1.882284
    15 4.827230 0.000000 0.000001 -0.577263 0.621788 -1.171949
    16 11.139763 0.000000 0.000000 0.000000 0.000000 -1.108585
    17 10.314597 0.000001 0.000000 -0.676227 -0.708799 0.439925
    18 2.975834 -0.386307 -0.044143 -0.021506 -0.037954 0.497588
    19 1.438886 0.000000 0.000000 0.000000 0.000000 0.889650
    20 1.485303 0.000000 0.000000 0.000000 0.000000 1.116422
    21 -3.065217 0.884022 -4.140396 -0.000013 1.356154 2.844176
    22 4.972048 0.000000 0.000001 -0.372166 -1.136630 0.164583
    23 11.585355 0.000000 0.000000 0.000000 0.000000 -1.745138
    24 10.127057 0.000000 0.000001 1.569752 0.000000 -0.069778
    25 2.683750 -0.427338 0.044205 -0.005786 0.043239 -0.157091
    26 1.438885 -0.000001 0.000000 0.000000 0.000000 0.732658
    27 1.485305 0.000001 0.000000 0.000000 0.000000 1.168770
    28 1.038631 0.548043 -0.144017 -0.000001 0.000001 -1.849906
    29 -0.064003 -0.023521 0.026161 0.000000 0.000000 0.000000
    30 3.013925 3.984634 -0.088975 -0.000001 0.000001 -1.849906
    31 -0.084188 -0.025627 -0.001098 0.000000 0.000000 0.000000
    32 4.778187 3.972486 -0.079803 -0.000001 0.000001 -1.849906
    33 -0.058556 -0.021324 0.004244 0.000000 0.000000 0.000000
    34 1.640598 -1.968779 -0.099219 -0.000001 0.000001 -1.849906
    35 0.055573 -0.028908 0.000000 0.000000 0.000000 0.000000
    36 1.646738 0.449549 -1.702246 0.441914 0.155087 1.184542
    37 0.928312 0.000000 -0.000002 0.000000 0.000000 0.000000
    38 0.928314 0.000000 0.000001 0.000000 0.000000 0.000000
    39 1.533672 0.109715 1.664491 -0.264755 -0.055959 0.783109
    40 0.928313 0.000000 0.000000 0.000000 0.000000 -0.453556
    41 0.928314 0.000000 0.000001 0.000000 0.000000 0.000000
  time 28
    0 0.235347 0.367732 -14.514592 0.000000 0.270322 -1.570874
    1 0.000000 0.000000 0.000000 -1.570795 -1.570796 0.000000
    2 -0.000005 0.000007 3.713255 2.914525 6.061903 1.331528
    3 18.045721 0.000000 0.000000 0.000000 0.000000 -1.349242
    4 17.597597 0.000000 0.000000 -0.205057 0.225938 -0.216505
    5 0.000005 -0.000003 -3.713255 -0.067002 -3.740518 -0.837425
    6 18.045725 0.000000 0.000000 0.000000 0.000000 -2.074647
    7 17.597597 0.000000 0.000000 -0.092081 0.087821 0.559948
    8 1.293670 0.684478 -0.000001 -0.000004 -0.000001 0.061853
    9 5.309685 -0.003834 0.000000 -0.153876 0.031280 0.198199
    10 4.826790 -0.004591 0.000000 -0.060590 0.007478 0.121878
    11 5.792767 -0.005304 0.000000 -0.086137 0.013674 0.156285
    12 6.662317 -0.001453 0.000000 0.000000 -0.000001 0.296580
    13 2.046985 -0.000002 0.000000 0.223040 -0.205539 0.086088
    14 -3.326874 0.954737 4.341911 1.012598 -1.187622 1.865985
    15 4.827230 0.000000 0.000001 -0.585016 0.630469 -1.175274
    16 11.139763 0.000000 0.000000 0.000000 0.000000 -1.108585
    17 10.314597 0.000001 0.000000 -0.676227 -0.708799 0.439925
    18 2.975834 -0.386307 -0.044143 -0.021506 -0.037954 0.497588
    19 1.438886 0.000000 0.000000 0.000000 0.000000 0.889650
    20 1.485303 0.000000 0.000000 0.000000 0.000000 1.116422
    21 -3.065217 0.884022 -4.140396 -0.000013 1.362203 2.844176
    22 4.972048 0.000000 0.000001 -0.388566 -1.141537 0.180722
    23 11.585355 0.000000 0.000000 0.000000 0.000000 -1.745138
    24 10.127057 0.000000 0.000001 1.569752 0.000000 -0.069778
    25 2.683750 -0.427338 0.044205 -0.005786 0.043239 -0.157091
    26 1.438885 -0.000001 0.000000 0.000000 0.000000 0.732658
    27 1.485305 0.000001 0.000000 0.000000 0.000000 1.168770
    28 1.038631 0.548043 -0.144017 -0.000001 0.000001 -1.849906
    29 -0.064003 -0.023521 0.026161 0.000000 0.000000 0.000000
    30 3.013925 3.984634 -0.088975 -0.000001 0.000001 -1.849906
    31 -0.084188 -0.025627 -0.001098 0.000000 0.000000 0.000000
    32 4.778187 3.972486 -0.079803 -0.000001 0.000001 -1.849906
    33 -0.058556 -0.021324 0.004244 0.000000 0.000000 0.000000
    34 1.640598 -1.968779 -0.099219 -0.000001 0.000001 -1.849906
    35 0.055573 -0.028908 0.000000 0.000000 0.000000 0.000000
    36 1.646738 0.449549 -1.702246 0.441914 0.155087 1.184542
    37 0.928312 0.000000 -0.000002 0.000000 0.000000 0.000000
    38 0.928314 0.000000 0.000001 0.000000 0.000000 0.000000
    39 1.533672 0.109715 1.664491 -0.264755 -0.055959 0.783109
    40 0.928313 0.000000 0.000000 0.000000 0.000000 -0.453556
    41 0.928314 0.000000 0.000001 0.000000 0.000000 0.000000
  time 29
    0 0.235347 0.367732 -14.514592 0.000000 0.270322 -1.570874
    1 0.000000 0.000000 0.000000 -1.570795 -1.570796 0.000000
    2 -0.000005 0.000007 3.713255 2.914525 6.061903 1.331528
    3 18.045721 0.000000 0.000000 0.000000 0.000000 -1.349242
    4 17.597597 0.000000 0.000000 -0.205057 0.225938 -0.216505
    5 0.000005 -0.000003 -3.713255 -0.067002 -3.740518 -0.837425
    6 18.045725 0.000000 0.000000 0.000000 0.000000 -2.074647
    7 17.597597 0.000000 0.000000 -0.092081 0.087821 0.559948
    8 1.293670 0.684478 -0.000001 -0.000004 -0.000001 0.061853
    9 5.309685 -0.003834 0.000000 -0.153876 0.031280 0.198199
    10 4.826790 -0.004591 0.000000 -0.060590 0.007478 0.121878
    11 5.792767 -0.005304 0.000000 -0.086202 0.013243 0.151343
    12 6.662317 -0.001453 0.000000 0.000000 -0.000001 0.296580
    13 2.046985 -0.000002 0.000000 0.223040 -0.205539 0.091077
    14 -3.326874 0.954737 4.341911 1.025253 -1.190738 1.852371
    15 4.827230 0.000000 0.000001 -0.591477 0.637617 -1.178075
    16 11.139763 0.000000 0.000000 0.000000 0.000000 -1.108585
    17 10.314597 0.000001 0.000000 -0.676227 -0.708799 0.439925
    18 2.975834 -0.386307 -0.044143 -0.021506 -0.037954 0.497588
    19 1.438886 0.000000 0.000000 0.000000 0.000000 0.889650
    20 1.485303 0.000000 0.000000 0.000000 0.000000 1.116422
    21 -3.065217 0.884022 -4.140396 -0.000013 1.367177 2.844176
    22 4.972048 0.000000 0.000001 -0.402335 -1.145559 0.194291
    23 11.585355 0.000000 0.000000 0.000000 0.000000 -1.745138
    24 10.127057 0.000000 0.000001 1.569752 0.000000 -0.069778
    25 2.683750 -0.427338 0.044205 -0.005786 0.043239 -0.157091
    26 1.438885 -0.000001 0.000000 0.000000 0.000000 0.732658
    27 1.485305 0.000001 0.000000 0.000000 0.000000 1.168770
    28 1.038631 0.548043 -0.144017 -0.000001 0.000001 -1.849906
    29 -0.064003 -0.023521 0.026161 0.000000 0.000000 0.000000
    30 3.013925 3.984634 -0.088975 -0.000001 0.000001 -1.849906
    31 -0.084188 -0.025627 -0.001098 0.000000 0.000000 0.000000
    32 4.778187 3.972486 -0.079803 -0.000001 0.000001 -1.849906
    33 -0.058556 -0.021324 0.004244 0.000000 0.000000 0.000000
    34 1.640598 -1.968779 -0.099219 -0.000001 0.000001 -1.849906
    35 0.055573 -0.028908 0.000000 0.000000 0.000000 0.000000
    36 1.646738 0.449549 -1.702246 0.441914 0.155087 1.184542
    37 0.928312 0.000000 -0.000002 0.000000 0.000000 0.000000
    38 0.928314 0.000000 0.000001 0.000000 0.000000 0.000000
    39 1.533672 0.109715 1.664491 -0.264755 -0.055959 0.783109
    40 0.928313 0.000000 0.000000 0.000000 0.000000 -0.453556
    41 0.928314 0.000000 0.000001 0.000000 0.000000 0.000000
  time 30
    0 0.235347 0.367732 -14.514592 0.000000 0.270322 -1.570874
    1 0.000000 0.000000 0.000000 -1.570795 -1.570796 0.000000
    2 -0.000005 0.000007 3.713255 2.914525 6.061903 1.331528
    3 18.045721 0.000000 0.000000 0.000000 0.000000 -1.349242
    4 17.597597 0.000000 0.000000 -0.205057 0.225938 -0.216505
    5 0.000005 -0.000003 -3.713255 -0.067002 -3.740518 -0.837425
    6 18.045725 0.000000 0.000000 0.000000 0.000000 -2.074647
    7 17.597597 0.000000 0.000000 -0.092081 0.087821 0.559948
    8 1.293670 0.684478 -0.000001 -0.000004 -0.000001 0.061853
    9 5.309685 -0.003834 0.000000 -0.153876 0.031280 0.198199
    10 4.826790 -0.004591 0.000000 -0.060590 0.007478 0.121878
    11 5.792767 -0.005304 0.000000 -0.086251 0.012931 0.147710
    12 6.662317 -0.001453 0.000000 0.000000 -0.000001 0.296580
    13 2.046985 -0.000002 0.000000 0.223040 -0.205539 0.094718
    14 -3.326874 0.954737 4.341911 1.034649 -1.193007 1.842208
    15 4.827230 0.000000 0.000001 -0.596234 0.642893 -1.180263
    16 11.139763 0.000000 0.000000 0.000000 0.000000 -1.108585
    17 10.314597 0.000001 0.000000 -0.676227 -0.708799 0.439925
    18 2.975834 -0.386307 -0.044143 -0.021506 -0.037954 0.497588
    19 1.438886 0.000000 0.000000 0.000000 0.000000 0.889650
    20 1.485303 0.000000 0.000000 0.000000 0.000000 1.116422
    21 -3.065217 0.884022 -4.140396 -0.000013 1.370795 2.844176
    22 4.972048 0.000000 0.000001 -0.412546 -1.148375 0.204370
    23 11.585355 0.000000 0.000000 0.000000 0.000000 -1.745138
    24 10.127057 0.000000 0.000001 1.569752 0.000000 -0.069778
    25 2.683750 -0.427338 0.044205 -0.005786 0.043239 -0.157091
    26 1.438885 -0.000001 0.000000 0.000000 0.000000 0.732658
    27 1.485305 0.000001 0.000000 0.000000 0.000000 1.168770
    28 1.038631 0.548043 -0.144017 -0.000001 0.000001 -1.849906
    29 -0.064003 -0.023521 0.026161 0.000000 0.000000 0.000000
    30 3.013925 3.984634 -0.088975 -0.000001 0.000001 -1.849906
    31 -0.084188 -0.025627 -0.001098 0.000000 0.000000 0.000000
    32 4.778187 3.972486 -0.079803 -0.000001 0.000001 -1.849906
    33 -0.058556 -0.021324 0.004244 0.000000 0.000000 0.000000
    34 1.640598 -1.968779 -0.099219 -0.000001 0.000001 -1.849906
    35 0.055573 -0.028908 0.000000 0.000000 0.000000 0.000000
    36 1.646738 0.449549 -1.702246 0.441914 0.155087 1.184542
    37 0.928312 0.000000 -0.000002 0.000000 0.000000 0.000000
    38 0.928314 0.000000 0.000001 0.000000 0.000000 0.000000
    39 1.533672 0.109715 1.664491 -0.264755 -0.055959 0.783109
    40 0.928313 0.000000 0.000000 0.000000 0.000000 -0.453556
    41 0.928314 0.000000 0.000001 0.000000 0.000000 0.000000
end
