version 1
nodes
  0 "Bip01" -1
  1 "Bip01 Pelvis" 0
  2 "Bip01 L Leg" 1
  3 "Bip01 L Leg1" 2
  4 "Bip01 L Foot" 3
  5 "Bip01 R Leg" 1
  6 "Bip01 R Leg1" 5
  7 "Bip01 R Foot" 6
  8 "Bip01 Spine" 1
  9 "Bip01 Spine1" 8
  10 "Bip01 Spine2" 9
  11 "Bip01 Spine3" 10
  12 "Bip01 Neck" 11
  13 "Bip01 Head" 12
  14 "Bip01 L Arm" 12
  15 "Bip01 L Arm1" 14
  16 "Bip01 L Arm2" 15
  17 "Bip01 L Hand" 16
  18 "Bip01 L Finger1" 17
  19 "Bip01 L Finger11" 18
  20 "Bip01 L Finger12" 19
  21 "Bip01 R Arm" 12
  22 "Bip01 R Arm1" 21
  23 "Bip01 R Arm2" 22
  24 "Bip01 R Hand" 23
  25 "Bip01 R Finger1" 24
  26 "Bip01 R Finger11" 25
  27 "Bip01 R Finger12" 26
  28 "Dummy08" 13
  29 "Bone02" 28
  30 "Dummy04" 13
  31 "Bone05" 30
  32 "Dummy03" 13
  33 "Bone07" 32
  34 "Dummy10" 13
  35 "Bone13" 34
  36 "Bip01 L Finger0" 17
  37 "Bip01 L Finger01" 36
  38 "Bip01 L Finger02" 37
  39 "Bip01 R Finger0" 24
  40 "Bip01 R Finger01" 39
  41 "Bip01 R Finger02" 40
end
skeleton
  time 0
    0 0.235347 -0.065875 -11.756696 0.000000 0.270322 -1.570874
    1 0.000000 0.000000 0.000000 -1.570795 -1.570796 0.000000
    2 -0.000005 0.000007 3.713255 2.893246 6.073186 1.567094
    3 18.045721 0.000000 0.000000 0.000000 0.000000 -1.744785
    4 17.597597 0.000000 0.000000 -0.164903 0.191688 0.413694
    5 0.000005 -0.000003 -3.713255 0.311735 -3.346321 -0.928284
    6 18.045725 0.000000 0.000000 0.000000 0.000000 -1.993364
    7 17.597597 0.000000 0.000000 0.131027 -0.129934 1.055714
    8 1.293670 0.684478 -0.000001 -0.000004 -0.000001 0.279904
    9 5.309685 -0.003834 0.000000 -0.034867 -0.000875 -0.026153
    10 4.826790 -0.004591 0.000000 -0.148191 -0.005034 -0.034516
    11 5.792767 -0.005304 0.000000 0.000000 0.000000 -0.200607
    12 6.662317 -0.001453 0.000000 0.000000 -0.000001 0.078527
    13 2.046985 -0.000002 0.000000 0.157813 0.093302 -0.368378
    14 -3.451878 0.212527 4.341911 1.808536 -0.756034 1.151901
    15 4.827230 0.000000 0.000001 -0.221967 -0.510477 -0.633055
    16 11.139763 0.000000 0.000000 0.000000 0.000000 -0.678295
    17 10.314597 0.000001 0.000000 -3.512769 0.127932 0.246270
    18 2.975834 -0.386307 -0.044143 -0.012063 -0.041921 0.262037
    19 1.438886 0.000000 0.000000 0.000000 0.000000 0.924863
    20 1.485303 0.000000 0.000000 0.000000 0.000000 0.540993
    21 -3.186314 0.196501 -4.140396 -1.908560 1.059663 1.108681
    22 4.972048 0.000000 0.000001 0.489952 0.496643 -0.993653
    23 11.585355 0.000000 0.000000 0.000000 0.000000 -0.760984
    24 10.127057 0.000000 0.000001 2.926861 0.300358 0.653225
    25 2.683750 -0.427338 0.044205 0.001045 0.043611 0.000046
    26 1.438885 -0.000001 0.000000 0.000000 0.000000 0.767762
    27 1.485305 0.000001 0.000000 0.000000 0.000000 1.221689
    28 1.038631 0.548043 -0.144017 -0.000001 0.000001 -1.849906
    29 -0.064003 -0.023521 0.026161 0.000000 0.000000 0.000000
    30 3.013925 3.984634 -0.088975 -0.000001 0.000001 -1.849906
    31 -0.084188 -0.025627 -0.001098 0.000000 0.000000 0.000000
    32 4.778187 3.972486 -0.079803 -0.000001 0.000001 -1.849906
    33 -0.058556 -0.021324 0.004244 0.000000 0.000000 0.000000
    34 1.640598 -1.968779 -0.099219 -0.000001 0.000001 -1.849906
    35 0.055573 -0.028908 0.000000 0.000000 0.000000 0.000000
    36 1.646738 0.449549 -1.702246 0.154002 0.442277 0.277235
    37 0.928312 0.000000 -0.000002 0.000000 0.000000 0.000000
    38 0.928314 0.000000 0.000001 0.000000 0.000000 0.000000
    39 1.533672 0.109715 1.664491 -0.233255 -0.412980 0.435684
    40 0.928313 0.000000 0.000000 0.000000 0.000000 0.000000
    41 0.928314 0.000000 0.000001 0.000000 0.000000 0.000000
  time 1
    0 0.235347 -0.065875 -11.756696 0.000000 0.270322 -1.570874
    1 0.000000 0.000000 0.000000 -1.570795 -1.570796 0.000000
    2 -0.000005 0.000007 3.713255 2.893246 6.073186 1.567094
    3 18.045721 0.000000 0.000000 0.000000 0.000000 -1.744785
    4 17.597597 0.000000 0.000000 -0.164903 0.191688 0.413694
    5 0.000005 -0.000003 -3.713255 0.311735 -3.346321 -0.928284
    6 18.045725 0.000000 0.000000 0.000000 0.000000 -1.993364
    7 17.597597 0.000000 0.000000 0.131027 -0.129934 1.055714
    8 1.293670 0.684478 -0.000001 -0.000004 -0.000001 0.279904
    9 5.309685 -0.003834 0.000000 -0.067175 -0.001702 -0.026117
    10 4.826790 -0.004591 0.000000 -0.211539 -0.012176 -0.057469
    11 5.792767 -0.005304 0.000000 -0.067301 -0.006088 -0.090979
    12 6.662317 -0.001453 0.000000 0.000000 -0.000001 0.078527
    13 2.046985 -0.000002 0.000000 0.302787 0.171159 -0.434406
    14 -3.451878 0.212527 4.341911 1.956085 -0.863431 1.001375
    15 4.827230 0.000000 0.000001 -0.430011 -0.283343 -0.433705
    16 11.139763 0.000000 0.000000 0.000000 0.000000 -1.218470
    17 10.314597 0.000001 0.000000 -3.526970 0.071445 0.104012
    18 2.975834 -0.386307 -0.044143 -0.012063 -0.041921 0.262037
    19 1.438886 0.000000 0.000000 0.000000 0.000000 0.924863
    20 1.485303 0.000000 0.000000 0.000000 0.000000 0.540993
    21 -3.186314 0.196501 -4.140396 -2.221586 1.273142 0.818857
    22 4.972048 0.000000 0.000001 0.580380 0.286692 -1.187450
    23 11.585355 0.000000 0.000000 0.000000 0.000000 -1.267122
    24 10.127057 0.000000 0.000001 2.941385 0.328377 0.793730
    25 2.683750 -0.427338 0.044205 0.001045 0.043611 0.000046
    26 1.438885 -0.000001 0.000000 0.000000 0.000000 0.767762
    27 1.485305 0.000001 0.000000 0.000000 0.000000 1.221689
    28 1.038631 0.548043 -0.144017 -0.000001 0.000001 -1.849906
    29 -0.064003 -0.023521 0.026161 0.000000 0.000000 0.000000
    30 3.013925 3.984634 -0.088975 -0.000001 0.000001 -1.849906
    31 -0.084188 -0.025627 -0.001098 0.000000 0.000000 0.000000
    32 4.778187 3.972486 -0.079803 -0.000001 0.000001 -1.849906
    33 -0.058556 -0.021324 0.004244 0.000000 0.000000 0.000000
    34 1.640598 -1.968779 -0.099219 -0.000001 0.000001 -1.849906
    35 0.055573 -0.028908 0.000000 0.000000 0.000000 0.000000
    36 1.646738 0.449549 -1.702246 0.154002 0.442277 0.277235
    37 0.928312 0.000000 -0.000002 0.000000 0.000000 0.000000
    38 0.928314 0.000000 0.000001 0.000000 0.000000 0.000000
    39 1.533672 0.109715 1.664491 -0.233255 -0.412980 0.435684
    40 0.928313 0.000000 0.000000 0.000000 0.000000 0.000000
    41 0.928314 0.000000 0.000001 0.000000 0.000000 0.000000
  time 2
    0 0.235347 -0.065875 -11.756696 0.000000 0.270322 -1.570874
    1 0.000000 0.000000 0.000000 -1.570795 -1.570796 0.000000
    2 -0.000005 0.000007 3.713255 2.893246 6.073186 1.567094
    3 18.045721 0.000000 0.000000 0.000000 0.000000 -1.744785
    4 17.597597 0.000000 0.000000 -0.164903 0.191688 0.413694
    5 0.000005 -0.000003 -3.713255 0.311735 -3.346321 -0.928284
    6 18.045725 0.000000 0.000000 0.000000 0.000000 -1.993364
    7 17.597597 0.000000 0.000000 0.131027 -0.129934 1.055714
    8 1.293670 0.684478 -0.000001 -0.000004 -0.000001 0.279904
    9 5.309685 -0.003834 0.000000 -0.113341 -0.002864 -0.026009
    10 4.826790 -0.004591 0.000000 -0.286809 -0.024497 -0.083685
    11 5.792767 -0.005304 0.000000 -0.148122 0.006556 0.043107
    12 6.662317 -0.001453 0.000000 0.000000 -0.000001 0.078527
    13 2.046985 -0.000002 0.000000 0.489767 0.258697 -0.499400
    14 -3.451878 0.212527 4.341911 2.210245 -0.964558 0.755933
    15 4.827230 0.000000 0.000001 -0.718641 -0.220283 -0.398350
    16 11.139763 0.000000 0.000000 0.000000 0.000000 -1.262480
    17 10.314597 0.000001 0.000000 -3.533172 0.000000 -0.069778
    18 2.975834 -0.386307 -0.044143 -0.012063 -0.041921 0.262037
    19 1.438886 0.000000 0.000000 0.000000 0.000000 0.924863
    20 1.485303 0.000000 0.000000 0.000000 0.000000 0.540993
    21 -3.186314 0.196501 -4.140396 -2.158310 1.247281 0.879161
    22 4.972048 0.000000 0.000001 0.608459 0.466237 -1.343370
    23 11.585355 0.000000 0.000000 0.000000 0.000000 -1.200243
    24 10.127057 0.000000 0.000001 2.939219 0.324804 0.775059
    25 2.683750 -0.427338 0.044205 0.001045 0.043611 0.000046
    26 1.438885 -0.000001 0.000000 0.000000 0.000000 0.767762
    27 1.485305 0.000001 0.000000 0.000000 0.000000 1.221689
    28 1.038631 0.548043 -0.144017 -0.000001 0.000001 -1.849906
    29 -0.064003 -0.023521 0.026161 0.000000 0.000000 0.000000
    30 3.013925 3.984634 -0.088975 -0.000001 0.000001 -1.849906
    31 -0.084188 -0.025627 -0.001098 0.000000 0.000000 0.000000
    32 4.778187 3.972486 -0.079803 -0.000001 0.000001 -1.849906
    33 -0.058556 -0.021324 0.004244 0.000000 0.000000 0.000000
    34 1.640598 -1.968779 -0.099219 -0.000001 0.000001 -1.849906
    35 0.055573 -0.028908 0.000000 0.000000 0.000000 0.000000
    36 1.646738 0.449549 -1.702246 0.154002 0.442277 0.277235
    37 0.928312 0.000000 -0.000002 0.000000 0.000000 0.000000
    38 0.928314 0.000000 0.000001 0.000000 0.000000 0.000000
    39 1.533672 0.109715 1.664491 -0.233255 -0.412980 0.435684
    40 0.928313 0.000000 0.000000 0.000000 0.000000 0.000000
    41 0.928314 0.000000 0.000001 0.000000 0.000000 0.000000
  time 3
    0 0.235347 -0.065875 -11.756696 0.000000 0.270322 -1.570874
    1 0.000000 0.000000 0.000000 -1.570795 -1.570796 0.000000
    2 -0.000005 0.000007 3.713255 2.893246 6.073186 1.567094
    3 18.045721 0.000000 0.000000 0.000000 0.000000 -1.744785
    4 17.597597 0.000000 0.000000 -0.164903 0.191688 0.413694
    5 0.000005 -0.000003 -3.713255 0.311735 -3.346321 -0.928284
    6 18.045725 0.000000 0.000000 0.000000 0.000000 -1.993364
    7 17.597597 0.000000 0.000000 0.131027 -0.129934 1.055714
    8 1.293670 0.684478 -0.000001 -0.000004 -0.000001 0.279904
    9 5.309685 -0.003834 0.000000 -0.163584 -0.004123 -0.025846
    10 4.826790 -0.004591 0.000000 -0.267827 -0.020997 -0.077202
    11 5.792767 -0.005304 0.000000 -0.127753 0.005657 0.043231
    12 6.662317 -0.001453 0.000000 0.000000 -0.000001 0.078527
    13 2.046985 -0.000002 0.000000 0.497995 0.266983 -0.503491
    14 -3.451878 0.212527 4.341911 2.128561 -0.939939 0.833784
    15 4.827230 0.000000 0.000001 -0.660668 -0.364614 -0.366496
    16 11.139763 0.000000 0.000000 0.000000 0.000000 -1.151684
    17 10.314597 0.000001 0.000000 -3.529307 0.056356 0.066958
    18 2.975834 -0.386307 -0.044143 -0.012063 -0.041921 0.262037
    19 1.438886 0.000000 0.000000 0.000000 0.000000 0.924863
    20 1.485303 0.000000 0.000000 0.000000 0.000000 0.540993
    21 -3.186314 0.196501 -4.140396 -2.071545 1.201465 0.960749
    22 4.972048 0.000000 0.000001 0.606835 0.545873 -1.328747
    23 11.585355 0.000000 0.000000 0.000000 0.000000 -1.087403
    24 10.127057 0.000000 0.000001 2.935716 0.318658 0.743639
    25 2.683750 -0.427338 0.044205 0.001045 0.043611 0.000046
    26 1.438885 -0.000001 0.000000 0.000000 0.000000 0.767762
    27 1.485305 0.000001 0.000000 0.000000 0.000000 1.221689
    28 1.038631 0.548043 -0.144017 -0.000001 0.000001 -1.849906
    29 -0.064003 -0.023521 0.026161 0.000000 0.000000 0.000000
    30 3.013925 3.984634 -0.088975 -0.000001 0.000001 -1.849906
    31 -0.084188 -0.025627 -0.001098 0.000000 0.000000 0.000000
    32 4.778187 3.972486 -0.079803 -0.000001 0.000001 -1.849906
    33 -0.058556 -0.021324 0.004244 0.000000 0.000000 0.000000
    34 1.640598 -1.968779 -0.099219 -0.000001 0.000001 -1.849906
    35 0.055573 -0.028908 0.000000 0.000000 0.000000 0.000000
    36 1.646738 0.449549 -1.702246 0.154002 0.442277 0.277235
    37 0.928312 0.000000 -0.000002 0.000000 0.000000 0.000000
    38 0.928314 0.000000 0.000001 0.000000 0.000000 0.000000
    39 1.533672 0.109715 1.664491 -0.233255 -0.412980 0.435684
    40 0.928313 0.000000 0.000000 0.000000 0.000000 0.000000
    41 0.928314 0.000000 0.000001 0.000000 0.000000 0.000000
  time 4
    0 0.235347 -0.065875 -11.756696 0.000000 0.270322 -1.570874
    1 0.000000 0.000000 0.000000 -1.570795 -1.570796 0.000000
    2 -0.000005 0.000007 3.713255 2.893246 6.073186 1.567094
    3 18.045721 0.000000 0.000000 0.000000 0.000000 -1.744785
    4 17.597597 0.000000 0.000000 -0.164903 0.191688 0.413694
    5 0.000005 -0.000003 -3.713255 0.311735 -3.346321 -0.928284
    6 18.045725 0.000000 0.000000 0.000000 0.000000 -1.993364
    7 17.597597 0.000000 0.000000 0.131027 -0.129934 1.055714
    8 1.293670 0.684478 -0.000001 -0.000004 -0.000001 0.279904
    9 5.309685 -0.003834 0.000000 -0.129428 -0.003272 -0.025954
    10 4.826790 -0.004591 0.000000 -0.090162 -0.005860 -0.065583
    11 5.792767 -0.005304 0.000000 -0.087588 0.003883 0.043439
    12 6.662317 -0.001453 0.000000 0.000000 -0.000001 0.078527
    13 2.046985 -0.000002 0.000000 0.268148 0.151886 -0.567631
    14 -3.451878 0.212527 4.341911 2.026072 -0.899281 0.932632
    15 4.827230 0.000000 0.000001 -0.568511 -0.449545 -0.583349
    16 11.139763 0.000000 0.000000 0.000000 0.000000 -0.879844
    17 10.314597 0.000001 0.000000 -3.515376 0.119539 0.224710
    18 2.975834 -0.386307 -0.044143 -0.012063 -0.041921 0.262037
    19 1.438886 0.000000 0.000000 0.000000 0.000000 0.924863
    20 1.485303 0.000000 0.000000 0.000000 0.000000 0.540993
    21 -3.186314 0.196501 -4.140396 -2.008172 1.157288 1.019423
    22 4.972048 0.000000 0.000001 0.572644 0.584807 -1.074545
    23 11.585355 0.000000 0.000000 0.000000 0.000000 -0.983097
    24 10.127057 0.000000 0.000001 2.932722 0.312892 0.714652
    25 2.683750 -0.427338 0.044205 0.001045 0.043611 0.000046
    26 1.438885 -0.000001 0.000000 0.000000 0.000000 0.767762
    27 1.485305 0.000001 0.000000 0.000000 0.000000 1.221689
    28 1.038631 0.548043 -0.144017 -0.000001 0.000001 -1.849906
    29 -0.064003 -0.023521 0.026161 0.000000 0.000000 0.000000
    30 3.013925 3.984634 -0.088975 -0.000001 0.000001 -1.849906
    31 -0.084188 -0.025627 -0.001098 0.000000 0.000000 0.000000
    32 4.778187 3.972486 -0.079803 -0.000001 0.000001 -1.849906
    33 -0.058556 -0.021324 0.004244 0.000000 0.000000 0.000000
    34 1.640598 -1.968779 -0.099219 -0.000001 0.000001 -1.849906
    35 0.055573 -0.028908 0.000000 0.000000 0.000000 0.000000
    36 1.646738 0.449549 -1.702246 0.154002 0.442277 0.277235
    37 0.928312 0.000000 -0.000002 0.000000 0.000000 0.000000
    38 0.928314 0.000000 0.000001 0.000000 0.000000 0.000000
    39 1.533672 0.109715 1.664491 -0.233255 -0.412980 0.435684
    40 0.928313 0.000000 0.000000 0.000000 0.000000 0.000000
    41 0.928314 0.000000 0.000001 0.000000 0.000000 0.000000
  time 5
    0 0.235347 -0.065875 -11.756696 0.000000 0.270322 -1.570874
    1 0.000000 0.000000 0.000000 -1.570795 -1.570796 0.000000
    2 -0.000005 0.000007 3.713255 2.893246 6.073186 1.567094
    3 18.045721 0.000000 0.000000 0.000000 0.000000 -1.744785
    4 17.597597 0.000000 0.000000 -0.164903 0.191688 0.413694
    5 0.000005 -0.000003 -3.713255 0.311735 -3.346321 -0.928284
    6 18.045725 0.000000 0.000000 0.000000 0.000000 -1.993364
    7 17.597597 0.000000 0.000000 0.131027 -0.129934 1.055714
    8 1.293670 0.684478 -0.000001 -0.000004 -0.000001 0.279904
    9 5.309685 -0.003834 0.000000 -0.089823 -0.002265 -0.026081
    10 4.826790 -0.004591 0.000000 0.030492 0.001582 -0.052860
    11 5.792767 -0.005304 0.000000 -0.050896 0.002253 0.043543
    12 6.662317 -0.001453 0.000000 0.000000 -0.000001 0.078527
    13 2.046985 -0.000002 0.000000 0.095170 0.055499 -0.599319
    14 -3.451878 0.212527 4.341911 1.940362 -0.854314 1.016907
    15 4.827230 0.000000 0.000001 -0.456324 -0.529454 -0.745594
    16 11.139763 0.000000 0.000000 0.000000 0.000000 -0.671427
    17 10.314597 0.000001 0.000000 -3.500815 0.159610 0.329712
    18 2.975834 -0.386307 -0.044143 -0.012063 -0.041921 0.262037
    19 1.438886 0.000000 0.000000 0.000000 0.000000 0.924863
    20 1.485303 0.000000 0.000000 0.000000 0.000000 0.540993
    21 -3.186314 0.196501 -4.140396 -1.963783 1.118962 1.059690
    22 4.972048 0.000000 0.000001 0.536597 0.624223 -0.882131
    23 11.585355 0.000000 0.000000 0.000000 0.000000 -0.894812
    24 10.127057 0.000000 0.000001 2.930301 0.307965 0.690214
    25 2.683750 -0.427338 0.044205 0.001045 0.043611 0.000046
    26 1.438885 -0.000001 0.000000 0.000000 0.000000 0.767762
    27 1.485305 0.000001 0.000000 0.000000 0.000000 1.221689
    28 1.038631 0.548043 -0.144017 -0.000001 0.000001 -1.849906
    29 -0.064003 -0.023521 0.026161 0.000000 0.000000 0.000000
    30 3.013925 3.984634 -0.088975 -0.000001 0.000001 -1.849906
    31 -0.084188 -0.025627 -0.001098 0.000000 0.000000 0.000000
    32 4.778187 3.972486 -0.079803 -0.000001 0.000001 -1.849906
    33 -0.058556 -0.021324 0.004244 0.000000 0.000000 0.000000
    34 1.640598 -1.968779 -0.099219 -0.000001 0.000001 -1.849906
    35 0.055573 -0.028908 0.000000 0.000000 0.000000 0.000000
    36 1.646738 0.449549 -1.702246 0.154002 0.442277 0.277235
    37 0.928312 0.000000 -0.000002 0.000000 0.000000 0.000000
    38 0.928314 0.000000 0.000001 0.000000 0.000000 0.000000
    39 1.533672 0.109715 1.664491 -0.233255 -0.412980 0.435684
    40 0.928313 0.000000 0.000000 0.000000 0.000000 0.000000
    41 0.928314 0.000000 0.000001 0.000000 0.000000 0.000000
  time 6
    0 0.235347 -0.065875 -11.756696 0.000000 0.270322 -1.570874
    1 0.000000 0.000000 0.000000 -1.570795 -1.570796 0.000000
    2 -0.000005 0.000007 3.713255 2.893246 6.073186 1.567094
    3 18.045721 0.000000 0.000000 0.000000 0.000000 -1.744785
    4 17.597597 0.000000 0.000000 -0.164903 0.191688 0.413694
    5 0.000005 -0.000003 -3.713255 0.311735 -3.346321 -0.928284
    6 18.045725 0.000000 0.000000 0.000000 0.000000 -1.993364
    7 17.597597 0.000000 0.000000 0.131027 -0.129934 1.055714
    8 1.293670 0.684478 -0.000001 -0.000004 -0.000001 0.279904
    9 5.309685 -0.003834 0.000000 -0.057736 -0.001462 -0.026135
    10 4.826790 -0.004591 0.000000 -0.040131 -0.001654 -0.042167
    11 5.792767 -0.005304 0.000000 -0.020596 -0.001594 -0.078480
    12 6.662317 -0.001453 0.000000 0.000000 -0.000001 0.078527
    13 2.046985 -0.000002 0.000000 0.101934 0.060565 -0.487444
    14 -3.451878 0.212527 4.341911 1.860883 -0.800346 1.097347
    15 4.827230 0.000000 0.000001 -0.329689 -0.525284 -0.709015
    16 11.139763 0.000000 0.000000 0.000000 0.000000 -0.644867
    17 10.314597 0.000001 0.000000 -3.504680 0.150152 0.304465
    18 2.975834 -0.386307 -0.044143 -0.012063 -0.041921 0.262037
    19 1.438886 0.000000 0.000000 0.000000 0.000000 0.924863
    20 1.485303 0.000000 0.000000 0.000000 0.000000 0.540993
    21 -3.186314 0.196501 -4.140396 -1.931090 1.085638 1.088931
    22 4.972048 0.000000 0.000001 0.496063 0.565259 -0.918822
    23 11.585355 0.000000 0.000000 0.000000 0.000000 -0.819258
    24 10.127057 0.000000 0.000001 2.928326 0.303688 0.669307
    25 2.683750 -0.427338 0.044205 0.001045 0.043611 0.000046
    26 1.438885 -0.000001 0.000000 0.000000 0.000000 0.767762
    27 1.485305 0.000001 0.000000 0.000000 0.000000 1.221689
    28 1.038631 0.548043 -0.144017 -0.000001 0.000001 -1.849906
    29 -0.064003 -0.023521 0.026161 0.000000 0.000000 0.000000
    30 3.013925 3.984634 -0.088975 -0.000001 0.000001 -1.849906
    31 -0.084188 -0.025627 -0.001098 0.000000 0.000000 0.000000
    32 4.778187 3.972486 -0.079803 -0.000001 0.000001 -1.849906
    33 -0.058556 -0.021324 0.004244 0.000000 0.000000 0.000000
    34 1.640598 -1.968779 -0.099219 -0.000001 0.000001 -1.849906
    35 0.055573 -0.028908 0.000000 0.000000 0.000000 0.000000
    36 1.646738 0.449549 -1.702246 0.154002 0.442277 0.277235
    37 0.928312 0.000000 -0.000002 0.000000 0.000000 0.000000
    38 0.928314 0.000000 0.000001 0.000000 0.000000 0.000000
    39 1.533672 0.109715 1.664491 -0.233255 -0.412980 0.435684
    40 0.928313 0.000000 0.000000 0.000000 0.000000 0.000000
    41 0.928314 0.000000 0.000001 0.000000 0.000000 0.000000
  time 7
    0 0.235347 -0.065875 -11.756696 0.000000 0.270322 -1.570874
    1 0.000000 0.000000 0.000000 -1.570795 -1.570796 0.000000
    2 -0.000005 0.000007 3.713255 2.893246 6.073186 1.567094
    3 18.045721 0.000000 0.000000 0.000000 0.000000 -1.744785
    4 17.597597 0.000000 0.000000 -0.164903 0.191688 0.413694
    5 0.000005 -0.000003 -3.713255 0.311735 -3.346321 -0.928284
    6 18.045725 0.000000 0.000000 0.000000 0.000000 -1.993364
    7 17.597597 0.000000 0.000000 0.131027 -0.129934 1.055714
    8 1.293670 0.684478 -0.000001 -0.000004 -0.000001 0.279904
    9 5.309685 -0.003834 0.000000 -0.034867 -0.000875 -0.026153
    10 4.826790 -0.004591 0.000000 -0.148191 -0.005034 -0.034516
    11 5.792767 -0.005304 0.000000 0.000000 0.000000 -0.200607
    12 6.662317 -0.001453 0.000000 0.000000 -0.000001 0.078527
    13 2.046985 -0.000002 0.000000 0.157813 0.093302 -0.368378
    14 -3.451878 0.212527 4.341911 1.808536 -0.756034 1.151901
    15 4.827230 0.000000 0.000001 -0.221967 -0.510477 -0.633055
    16 11.139763 0.000000 0.000000 0.000000 0.000000 -0.678295
    17 10.314597 0.000001 0.000000 -3.512769 0.127932 0.246270
    18 2.975834 -0.386307 -0.044143 -0.012063 -0.041921 0.262037
    19 1.438886 0.000000 0.000000 0.000000 0.000000 0.924863
    20 1.485303 0.000000 0.000000 0.000000 0.000000 0.540993
    21 -3.186314 0.196501 -4.140396 -1.908560 1.059663 1.108681
    22 4.972048 0.000000 0.000001 0.489952 0.496643 -0.993653
    23 11.585355 0.000000 0.000000 0.000000 0.000000 -0.760984
    24 10.127057 0.000000 0.000001 2.926861 0.300358 0.653225
    25 2.683750 -0.427338 0.044205 0.001045 0.043611 0.000046
    26 1.438885 -0.000001 0.000000 0.000000 0.000000 0.767762
    27 1.485305 0.000001 0.000000 0.000000 0.000000 1.221689
    28 1.038631 0.548043 -0.144017 -0.000001 0.000001 -1.849906
    29 -0.064003 -0.023521 0.026161 0.000000 0.000000 0.000000
    30 3.013925 3.984634 -0.088975 -0.000001 0.000001 -1.849906
    31 -0.084188 -0.025627 -0.001098 0.000000 0.000000 0.000000
    32 4.778187 3.972486 -0.079803 -0.000001 0.000001 -1.849906
    33 -0.058556 -0.021324 0.004244 0.000000 0.000000 0.000000
    34 1.640598 -1.968779 -0.099219 -0.000001 0.000001 -1.849906
    35 0.055573 -0.028908 0.000000 0.000000 0.000000 0.000000
    36 1.646738 0.449549 -1.702246 0.154002 0.442277 0.277235
    37 0.928312 0.000000 -0.000002 0.000000 0.000000 0.000000
    38 0.928314 0.000000 0.000001 0.000000 0.000000 0.000000
    39 1.533672 0.109715 1.664491 -0.233255 -0.412980 0.435684
    40 0.928313 0.000000 0.000000 0.000000 0.000000 0.000000
    41 0.928314 0.000000 0.000001 0.000000 0.000000 0.000000
end
