version 1
nodes
  0 "Bip01" -1
  1 "Bip01 Pelvis" 0
  2 "Bip01 L Leg" 1
  3 "Bip01 L Leg1" 2
  4 "Bip01 L Foot" 3
  5 "Bip01 R Leg" 1
  6 "Bip01 R Leg1" 5
  7 "Bip01 R Foot" 6
  8 "Bip01 Spine" 1
  9 "Bip01 Spine1" 8
  10 "Bip01 Spine2" 9
  11 "Bip01 Spine3" 10
  12 "Bip01 Neck" 11
  13 "Bip01 Head" 12
  14 "Bip01 L Arm" 12
  15 "Bip01 L Arm1" 14
  16 "Bip01 L Arm2" 15
  17 "Bip01 L Hand" 16
  18 "Bip01 L Finger1" 17
  19 "Bip01 L Finger11" 18
  20 "Bip01 L Finger12" 19
  21 "Bip01 R Arm" 12
  22 "Bip01 R Arm1" 21
  23 "Bip01 R Arm2" 22
  24 "Bip01 R Hand" 23
  25 "Bip01 R Finger1" 24
  26 "Bip01 R Finger11" 25
  27 "Bip01 R Finger12" 26
  28 "Dummy08" 13
  29 "Bone02" 28
  30 "Dummy04" 13
  31 "Bone05" 30
  32 "Dummy03" 13
  33 "Bone07" 32
  34 "Dummy10" 13
  35 "Bone13" 34
  36 "Bip01 L Finger0" 17
  37 "Bip01 L Finger01" 36
  38 "Bip01 L Finger02" 37
  39 "Bip01 R Finger0" 24
  40 "Bip01 R Finger01" 39
  41 "Bip01 R Finger02" 40
end
skeleton
  time 0
    0 0.235347 0.367732 -14.393495 -0.045585 0.257873 -1.742273
    1 0.000000 0.000000 0.000000 -1.570795 -1.570796 0.000000
    2 -0.000005 0.000007 3.713255 2.914525 6.061903 1.331528
    3 18.045721 0.000000 0.000000 0.000000 0.000000 -1.349242
    4 17.597597 0.000000 0.000000 -0.205057 0.225938 -0.216505
    5 0.000005 -0.000003 -3.713255 -0.067002 -3.740518 -0.837425
    6 18.045725 0.000000 0.000000 0.000000 0.000000 -2.074647
    7 17.597597 0.000000 0.000000 -0.092081 0.087821 0.559948
    8 1.293670 0.684478 -0.000001 -0.000004 -0.000001 0.271132
    9 5.309685 -0.003834 0.000000 -0.032332 0.013075 0.383508
    10 4.826790 -0.004591 0.000000 -0.143872 0.219749 0.294411
    11 5.792767 -0.005304 0.000000 0.000065 0.087260 0.113347
    12 6.662317 -0.001453 0.000000 0.000000 -0.000001 -0.314374
    13 2.046985 -0.000002 0.000000 0.265994 -0.336464 -0.171147
    14 -3.272185 -1.123452 4.341911 1.923488 -1.393569 1.526584
    15 4.827230 0.000000 0.000001 -0.589715 -0.396102 -1.347934
    16 11.139763 0.000000 0.000000 0.000000 0.000000 -1.566136
    17 10.314597 0.000001 0.000000 -0.695012 -0.010306 0.140724
    18 2.975834 -0.386307 -0.044143 -0.017432 -0.039992 0.392972
    19 1.438886 0.000000 0.000000 0.000000 0.000000 0.270702
    20 1.485303 0.000000 0.000000 0.000000 0.000000 0.375250
    21 -3.014434 -1.037911 -4.140396 -0.000013 1.370795 3.455176
    22 4.972048 0.000000 0.000001 0.811980 0.093875 -1.124344
    23 11.585355 0.000000 0.000000 0.000000 0.000000 -1.988587
    24 10.127057 0.000000 0.000001 1.980376 -0.285848 1.184258
    25 2.683750 -0.427338 0.044205 0.001045 0.043611 0.000046
    26 1.438885 -0.000001 0.000000 0.000000 0.000000 0.767762
    27 1.485305 0.000001 0.000000 0.000000 0.000000 1.221689
    28 1.038631 0.548043 -0.144017 -0.000001 0.000001 -1.849906
    29 -0.064003 -0.023521 0.026161 0.000000 0.000000 0.000000
    30 3.013925 3.984634 -0.088975 -0.000001 0.000001 -1.849906
    31 -0.084188 -0.025627 -0.001098 0.000000 0.000000 0.000000
    32 4.778187 3.972486 -0.079803 -0.000001 0.000001 -1.849906
    33 -0.058556 -0.021324 0.004244 0.000000 0.000000 0.000000
    34 1.640598 -1.968779 -0.099219 -0.000001 0.000001 -1.849906
    35 0.055573 -0.028908 0.000000 0.000000 0.000000 0.000000
    36 1.646738 0.449549 -1.702246 0.449790 0.128753 1.240204
    37 0.928312 0.000000 -0.000002 0.000000 0.000000 0.000000
    38 0.928314 0.000000 0.000001 0.000000 0.000000 0.000000
    39 1.533672 0.109715 1.664491 -0.733354 -0.285116 1.223813
    40 0.928313 0.000000 0.000000 0.000000 0.000000 0.000000
    41 0.928314 0.000000 0.000001 0.000000 0.000000 0.000000
  time 1
    0 0.235347 0.367732 -14.393495 -0.045585 0.257873 -1.742273
    1 0.000000 0.000000 0.000000 -1.570795 -1.570796 0.000000
    2 -0.000005 0.000007 3.713255 2.914525 6.061903 1.331528
    3 18.045721 0.000000 0.000000 0.000000 0.000000 -1.349242
    4 17.597597 0.000000 0.000000 -0.205057 0.225938 -0.216505
    5 0.000005 -0.000003 -3.713255 -0.067002 -3.740518 -0.837425
    6 18.045725 0.000000 0.000000 0.000000 0.000000 -2.074647
    7 17.597597 0.000000 0.000000 -0.092081 0.087821 0.559948
    8 1.293670 0.684478 -0.000001 -0.000004 -0.000001 0.271132
    9 5.309685 -0.003834 0.000000 0.025195 -0.010187 0.383599
    10 4.826790 -0.004591 0.000000 -0.050410 0.190939 0.313483
    11 5.792767 -0.005304 0.000000 0.061920 0.080033 0.118517
    12 6.662317 -0.001453 0.000000 0.000000 -0.000001 -0.314374
    13 2.046985 -0.000002 0.000000 0.045539 -0.338625 -0.138381
    14 -3.272185 -1.123452 4.341911 1.923488 -1.393569 1.526584
    15 4.827230 0.000000 0.000001 -0.716056 -0.362997 -1.355723
    16 11.139763 0.000000 0.000000 0.000000 0.000000 -1.566136
    17 10.314597 0.000001 0.000000 -0.695012 -0.010306 0.140724
    18 2.975834 -0.386307 -0.044143 -0.017432 -0.039992 0.392972
    19 1.438886 0.000000 0.000000 0.000000 0.000000 0.270702
    20 1.485303 0.000000 0.000000 0.000000 0.000000 0.375250
    21 -3.014434 -1.037911 -4.140396 -0.343622 1.358754 3.118565
    22 4.972048 0.000000 0.000001 0.870150 0.307366 -1.071053
    23 11.585355 0.000000 0.000000 0.000000 0.000000 -1.434249
    24 10.127057 0.000000 0.000001 2.519423 -0.421692 0.908700
    25 2.683750 -0.427338 0.044205 -0.002395 0.043563 -0.079018
    26 1.438885 -0.000001 0.000000 0.000000 0.000000 0.578735
    27 1.485305 0.000001 0.000000 0.000000 0.000000 0.773140
    28 1.038631 0.548043 -0.144017 -0.000001 0.000001 -1.849906
    29 -0.064003 -0.023521 0.026161 0.000000 0.000000 0.000000
    30 3.013925 3.984634 -0.088975 -0.000001 0.000001 -1.849906
    31 -0.084188 -0.025627 -0.001098 0.000000 0.000000 0.000000
    32 4.778187 3.972486 -0.079803 -0.000001 0.000001 -1.849906
    33 -0.058556 -0.021324 0.004244 0.000000 0.000000 0.000000
    34 1.640598 -1.968779 -0.099219 -0.000001 0.000001 -1.849906
    35 0.055573 -0.028908 0.000000 0.000000 0.000000 0.000000
    36 1.646738 0.449549 -1.702246 0.449790 0.128753 1.240204
    37 0.928312 0.000000 -0.000002 0.000000 0.000000 0.000000
    38 0.928314 0.000000 0.000001 0.000000 0.000000 0.000000
    39 1.533672 0.109715 1.664491 -0.733354 -0.285116 1.223813
    40 0.928313 0.000000 0.000000 0.000000 0.000000 0.000000
    41 0.928314 0.000000 0.000001 0.000000 0.000000 0.000000
  time 2
    0 0.235347 0.367732 -14.393495 -0.045585 0.257873 -1.742273
    1 0.000000 0.000000 0.000000 -1.570795 -1.570796 0.000000
    2 -0.000005 0.000007 3.713255 2.914525 6.061903 1.331528
    3 18.045721 0.000000 0.000000 0.000000 0.000000 -1.349242
    4 17.597597 0.000000 0.000000 -0.205057 0.225938 -0.216505
    5 0.000005 -0.000003 -3.713255 -0.067002 -3.740518 -0.837425
    6 18.045725 0.000000 0.000000 0.000000 0.000000 -2.074647
    7 17.597597 0.000000 0.000000 -0.092081 0.087821 0.559948
    8 1.293670 0.684478 -0.000001 -0.000004 -0.000001 0.271132
    9 5.309685 -0.003834 0.000000 0.102237 -0.041275 0.381607
    10 4.826790 -0.004591 0.000000 0.073004 0.149939 0.334452
    11 5.792767 -0.005304 0.000000 0.144583 0.069882 0.124705
    12 6.662317 -0.001453 0.000000 0.000000 -0.000001 -0.314374
    13 2.046985 -0.000002 0.000000 -0.246822 -0.334325 -0.105659
    14 -3.272185 -1.123452 4.341911 1.923488 -1.393569 1.526584
    15 4.827230 0.000000 0.000001 -0.867537 -0.291087 -1.382414
    16 11.139763 0.000000 0.000000 0.000000 0.000000 -1.566136
    17 10.314597 0.000001 0.000000 -0.695012 -0.010306 0.140724
    18 2.975834 -0.386307 -0.044143 -0.017432 -0.039992 0.392972
    19 1.438886 0.000000 0.000000 0.000000 0.000000 0.270702
    20 1.485303 0.000000 0.000000 0.000000 0.000000 0.375250
    21 -3.014434 -1.037911 -4.140396 -0.699791 1.311751 2.771984
    22 4.972048 0.000000 0.000001 0.892429 0.612478 -0.969742
    23 11.585355 0.000000 0.000000 0.000000 0.000000 -0.698583
    24 10.127057 0.000000 0.000001 3.274229 -0.356640 0.495029
    25 2.683750 -0.427338 0.044205 -0.006985 0.043072 -0.184822
    26 1.438885 -0.000001 0.000000 0.000000 0.000000 0.325855
    27 1.485305 0.000001 0.000000 0.000000 0.000000 0.172917
    28 1.038631 0.548043 -0.144017 -0.000001 0.000001 -1.849906
    29 -0.064003 -0.023521 0.026161 0.000000 0.000000 0.000000
    30 3.013925 3.984634 -0.088975 -0.000001 0.000001 -1.849906
    31 -0.084188 -0.025627 -0.001098 0.000000 0.000000 0.000000
    32 4.778187 3.972486 -0.079803 -0.000001 0.000001 -1.849906
    33 -0.058556 -0.021324 0.004244 0.000000 0.000000 0.000000
    34 1.640598 -1.968779 -0.099219 -0.000001 0.000001 -1.849906
    35 0.055573 -0.028908 0.000000 0.000000 0.000000 0.000000
    36 1.646738 0.449549 -1.702246 0.449790 0.128753 1.240204
    37 0.928312 0.000000 -0.000002 0.000000 0.000000 0.000000
    38 0.928314 0.000000 0.000001 0.000000 0.000000 0.000000
    39 1.533672 0.109715 1.664491 -0.733354 -0.285116 1.223813
    40 0.928313 0.000000 0.000000 0.000000 0.000000 0.000000
    41 0.928314 0.000000 0.000001 0.000000 0.000000 0.000000
  time 3
    0 0.235347 0.367732 -14.393495 -0.045585 0.257873 -1.742273
    1 0.000000 0.000000 0.000000 -1.570795 -1.570796 0.000000
    2 -0.000005 0.000007 3.713255 2.914525 6.061903 1.331528
    3 18.045721 0.000000 0.000000 0.000000 0.000000 -1.349242
    4 17.597597 0.000000 0.000000 -0.205057 0.225938 -0.216505
    5 0.000005 -0.000003 -3.713255 -0.067002 -3.740518 -0.837425
    6 18.045725 0.000000 0.000000 0.000000 0.000000 -2.074647
    7 17.597597 0.000000 0.000000 -0.092081 0.087821 0.559948
    8 1.293670 0.684478 -0.000001 -0.000004 -0.000001 0.271132
    9 5.309685 -0.003834 0.000000 0.145698 -0.058677 0.379433
    10 4.826790 -0.004591 0.000000 0.141787 0.125814 0.343911
    11 5.792767 -0.005304 0.000000 0.191076 0.063950 0.127819
    12 6.662317 -0.001453 0.000000 0.000000 -0.000001 -0.314374
    13 2.046985 -0.000002 0.000000 -0.409805 -0.330182 -0.093433
    14 -3.272185 -1.123452 4.341911 1.923488 -1.393569 1.526584
    15 4.827230 0.000000 0.000001 -0.942544 -0.238920 -1.405779
    16 11.139763 0.000000 0.000000 0.000000 0.000000 -1.566136
    17 10.314597 0.000001 0.000000 -0.695012 -0.010306 0.140724
    18 2.975834 -0.386307 -0.044143 -0.017432 -0.039992 0.392972
    19 1.438886 0.000000 0.000000 0.000000 0.000000 0.270702
    20 1.485303 0.000000 0.000000 0.000000 0.000000 0.375250
    21 -3.014434 -1.037911 -4.140396 -0.839862 1.275997 2.637378
    22 4.972048 0.000000 0.000001 0.874714 0.784622 -0.907756
    23 11.585355 0.000000 0.000000 0.000000 0.000000 -0.317737
    24 10.127057 0.000000 0.000001 3.654658 -0.208586 0.324555
    25 2.683750 -0.427338 0.044205 -0.009525 0.042580 -0.244397
    26 1.438885 -0.000001 0.000000 0.000000 0.000000 0.183411
    27 1.485305 0.000001 0.000000 0.000000 0.000000 -0.165091
    28 1.038631 0.548043 -0.144017 -0.000001 0.000001 -1.849906
    29 -0.064003 -0.023521 0.026161 0.000000 0.000000 0.000000
    30 3.013925 3.984634 -0.088975 -0.000001 0.000001 -1.849906
    31 -0.084188 -0.025627 -0.001098 0.000000 0.000000 0.000000
    32 4.778187 3.972486 -0.079803 -0.000001 0.000001 -1.849906
    33 -0.058556 -0.021324 0.004244 0.000000 0.000000 0.000000
    34 1.640598 -1.968779 -0.099219 -0.000001 0.000001 -1.849906
    35 0.055573 -0.028908 0.000000 0.000000 0.000000 0.000000
    36 1.646738 0.449549 -1.702246 0.449790 0.128753 1.240204
    37 0.928312 0.000000 -0.000002 0.000000 0.000000 0.000000
    38 0.928314 0.000000 0.000001 0.000000 0.000000 0.000000
    39 1.533672 0.109715 1.664491 -0.733354 -0.285116 1.223813
    40 0.928313 0.000000 0.000000 0.000000 0.000000 0.000000
    41 0.928314 0.000000 0.000001 0.000000 0.000000 0.000000
  time 4
    0 0.235347 0.367732 -14.393495 -0.045585 0.257873 -1.742273
    1 0.000000 0.000000 0.000000 -1.570795 -1.570796 0.000000
    2 -0.000005 0.000007 3.713255 2.914525 6.061903 1.331528
    3 18.045721 0.000000 0.000000 0.000000 0.000000 -1.349242
    4 17.597597 0.000000 0.000000 -0.205057 0.225938 -0.216505
    5 0.000005 -0.000003 -3.713255 -0.067002 -3.740518 -0.837425
    6 18.045725 0.000000 0.000000 0.000000 0.000000 -2.074647
    7 17.597597 0.000000 0.000000 -0.092081 0.087821 0.559948
    8 1.293670 0.684478 -0.000001 -0.000004 -0.000001 0.271132
    9 5.309685 -0.003834 0.000000 0.145979 -0.058796 0.379415
    10 4.826790 -0.004591 0.000000 0.141196 0.122842 0.363865
    11 5.792767 -0.005304 0.000000 0.191386 0.063914 0.127840
    12 6.662317 -0.001453 0.000000 0.000000 -0.000001 -0.314374
    13 2.046985 -0.000002 0.000000 -0.404462 -0.332051 -0.114693
    14 -3.272185 -1.123452 4.341911 1.923488 -1.393569 1.526584
    15 4.827230 0.000000 0.000001 -0.947301 -0.257472 -1.398866
    16 11.139763 0.000000 0.000000 0.000000 0.000000 -1.464941
    17 10.314597 0.000001 0.000000 -0.695012 -0.010306 0.140724
    18 2.975834 -0.386307 -0.044143 -0.017432 -0.039992 0.392972
    19 1.438886 0.000000 0.000000 0.000000 0.000000 0.270702
    20 1.485303 0.000000 0.000000 0.000000 0.000000 0.375250
    21 -3.014434 -1.037911 -4.140396 -0.833726 1.277891 2.643226
    22 4.972048 0.000000 0.000001 0.883765 0.798136 -0.909073
    23 11.585355 0.000000 0.000000 0.000000 0.000000 -0.407282
    24 10.127057 0.000000 0.000001 3.657078 -0.207395 0.323653
    25 2.683750 -0.427338 0.044205 -0.009549 0.042568 -0.244793
    26 1.438885 -0.000001 0.000000 0.000000 0.000000 0.182479
    27 1.485305 0.000001 0.000000 0.000000 0.000000 -0.167327
    28 1.038631 0.548043 -0.144017 -0.000001 0.000001 -1.849906
    29 -0.064003 -0.023521 0.026161 0.000000 0.000000 0.000000
    30 3.013925 3.984634 -0.088975 -0.000001 0.000001 -1.849906
    31 -0.084188 -0.025627 -0.001098 0.000000 0.000000 0.000000
    32 4.778187 3.972486 -0.079803 -0.000001 0.000001 -1.849906
    33 -0.058556 -0.021324 0.004244 0.000000 0.000000 0.000000
    34 1.640598 -1.968779 -0.099219 -0.000001 0.000001 -1.849906
    35 0.055573 -0.028908 0.000000 0.000000 0.000000 0.000000
    36 1.646738 0.449549 -1.702246 0.449790 0.128753 1.240204
    37 0.928312 0.000000 -0.000002 0.000000 0.000000 0.000000
    38 0.928314 0.000000 0.000001 0.000000 0.000000 0.000000
    39 1.533672 0.109715 1.664491 -0.733354 -0.285116 1.223813
    40 0.928313 0.000000 0.000000 0.000000 0.000000 0.000000
    41 0.928314 0.000000 0.000001 0.000000 0.000000 0.000000
  time 5
    0 0.235347 0.367732 -14.393495 -0.045585 0.257873 -1.742273
    1 0.000000 0.000000 0.000000 -1.570795 -1.570796 0.000000
    2 -0.000005 0.000007 3.713255 2.914525 6.061903 1.331528
    3 18.045721 0.000000 0.000000 0.000000 0.000000 -1.349242
    4 17.597597 0.000000 0.000000 -0.205057 0.225938 -0.216505
    5 0.000005 -0.000003 -3.713255 -0.067002 -3.740518 -0.837425
    6 18.045725 0.000000 0.000000 0.000000 0.000000 -2.074647
    7 17.597597 0.000000 0.000000 -0.092081 0.087821 0.559948
    8 1.293670 0.684478 -0.000001 -0.000004 -0.000001 0.271132
    9 5.309685 -0.003834 0.000000 0.126771 -0.051114 0.380484
    10 4.826790 -0.004591 0.000000 0.109932 0.131207 0.386972
    11 5.792767 -0.005304 0.000000 0.170854 0.066550 0.126490
    12 6.662317 -0.001453 0.000000 0.000000 -0.000001 -0.314374
    13 2.046985 -0.000002 0.000000 -0.324242 -0.335293 -0.148404
    14 -3.272185 -1.123452 4.341911 1.923488 -1.393569 1.526584
    15 4.827230 0.000000 0.000001 -0.920811 -0.306916 -1.378038
    16 11.139763 0.000000 0.000000 0.000000 0.000000 -1.328355
    17 10.314597 0.000001 0.000000 -0.695012 -0.010306 0.140724
    18 2.975834 -0.386307 -0.044143 -0.017432 -0.039992 0.392972
    19 1.438886 0.000000 0.000000 0.000000 0.000000 0.270702
    20 1.485303 0.000000 0.000000 0.000000 0.000000 0.375250
    21 -3.014434 -1.037911 -4.140396 -0.763739 1.297167 2.710242
    22 4.972048 0.000000 0.000001 0.906584 0.737805 -0.939638
    23 11.585355 0.000000 0.000000 0.000000 0.000000 -0.711595
    24 10.127057 0.000000 0.000001 3.494447 -0.280569 0.390532
    25 2.683750 -0.427338 0.044205 -0.008423 0.042808 -0.218466
    26 1.438885 -0.000001 0.000000 0.000000 0.000000 0.245366
    27 1.485305 0.000001 0.000000 0.000000 0.000000 -0.018028
    28 1.038631 0.548043 -0.144017 -0.000001 0.000001 -1.849906
    29 -0.064003 -0.023521 0.026161 0.000000 0.000000 0.000000
    30 3.013925 3.984634 -0.088975 -0.000001 0.000001 -1.849906
    31 -0.084188 -0.025627 -0.001098 0.000000 0.000000 0.000000
    32 4.778187 3.972486 -0.079803 -0.000001 0.000001 -1.849906
    33 -0.058556 -0.021324 0.004244 0.000000 0.000000 0.000000
    34 1.640598 -1.968779 -0.099219 -0.000001 0.000001 -1.849906
    35 0.055573 -0.028908 0.000000 0.000000 0.000000 0.000000
    36 1.646738 0.449549 -1.702246 0.449790 0.128753 1.240204
    37 0.928312 0.000000 -0.000002 0.000000 0.000000 0.000000
    38 0.928314 0.000000 0.000001 0.000000 0.000000 0.000000
    39 1.533672 0.109715 1.664491 -0.733354 -0.285116 1.223813
    40 0.928313 0.000000 0.000000 0.000000 0.000000 0.000000
    41 0.928314 0.000000 0.000001 0.000000 0.000000 0.000000
  time 6
    0 0.235347 0.367732 -14.393495 -0.045585 0.257873 -1.742273
    1 0.000000 0.000000 0.000000 -1.570795 -1.570796 0.000000
    2 -0.000005 0.000007 3.713255 2.914525 6.061903 1.331528
    3 18.045721 0.000000 0.000000 0.000000 0.000000 -1.349242
    4 17.597597 0.000000 0.000000 -0.205057 0.225938 -0.216505
    5 0.000005 -0.000003 -3.713255 -0.067002 -3.740518 -0.837425
    6 18.045725 0.000000 0.000000 0.000000 0.000000 -2.074647
    7 17.597597 0.000000 0.000000 -0.092081 0.087821 0.559948
    8 1.293670 0.684478 -0.000001 -0.000004 -0.000001 0.271132
    9 5.309685 -0.003834 0.000000 0.101111 -0.040820 0.381661
    10 4.826790 -0.004591 0.000000 0.069325 0.145733 0.403443
    11 5.792767 -0.005304 0.000000 0.143392 0.070038 0.124621
    12 6.662317 -0.001453 0.000000 0.000000 -0.000001 -0.314374
    13 2.046985 -0.000002 0.000000 -0.221403 -0.337027 -0.179688
    14 -3.272185 -1.123452 4.341911 1.923488 -1.393569 1.526584
    15 4.827230 0.000000 0.000001 -0.879461 -0.357466 -1.356510
    16 11.139763 0.000000 0.000000 0.000000 0.000000 -1.217559
    17 10.314597 0.000001 0.000000 -0.695012 -0.010306 0.140724
    18 2.975834 -0.386307 -0.044143 -0.017432 -0.039992 0.392972
    19 1.438886 0.000000 0.000000 0.000000 0.000000 0.270702
    20 1.485303 0.000000 0.000000 0.000000 0.000000 0.375250
    21 -3.014434 -1.037911 -4.140396 -0.661346 1.319383 2.809183
    22 4.972048 0.000000 0.000001 0.921514 0.647631 -0.981928
    23 11.585355 0.000000 0.000000 0.000000 0.000000 -1.053124
    24 10.127057 0.000000 0.000001 3.263909 -0.359563 0.500246
    25 2.683750 -0.427338 0.044205 -0.006913 0.043084 -0.183286
    26 1.438885 -0.000001 0.000000 0.000000 0.000000 0.329515
    27 1.485305 0.000001 0.000000 0.000000 0.000000 0.181628
    28 1.038631 0.548043 -0.144017 -0.000001 0.000001 -1.849906
    29 -0.064003 -0.023521 0.026161 0.000000 0.000000 0.000000
    30 3.013925 3.984634 -0.088975 -0.000001 0.000001 -1.849906
    31 -0.084188 -0.025627 -0.001098 0.000000 0.000000 0.000000
    32 4.778187 3.972486 -0.079803 -0.000001 0.000001 -1.849906
    33 -0.058556 -0.021324 0.004244 0.000000 0.000000 0.000000
    34 1.640598 -1.968779 -0.099219 -0.000001 0.000001 -1.849906
    35 0.055573 -0.028908 0.000000 0.000000 0.000000 0.000000
    36 1.646738 0.449549 -1.702246 0.449790 0.128753 1.240204
    37 0.928312 0.000000 -0.000002 0.000000 0.000000 0.000000
    38 0.928314 0.000000 0.000001 0.000000 0.000000 0.000000
    39 1.533672 0.109715 1.664491 -0.733354 -0.285116 1.223813
    40 0.928313 0.000000 0.000000 0.000000 0.000000 0.000000
    41 0.928314 0.000000 0.000001 0.000000 0.000000 0.000000
  time 7
    0 0.235347 0.367732 -14.393495 -0.045585 0.257873 -1.742273
    1 0.000000 0.000000 0.000000 -1.570795 -1.570796 0.000000
    2 -0.000005 0.000007 3.713255 2.914525 6.061903 1.331528
    3 18.045721 0.000000 0.000000 0.000000 0.000000 -1.349242
    4 17.597597 0.000000 0.000000 -0.205057 0.225938 -0.216505
    5 0.000005 -0.000003 -3.713255 -0.067002 -3.740518 -0.837425
    6 18.045725 0.000000 0.000000 0.000000 0.000000 -2.074647
    7 17.597597 0.000000 0.000000 -0.092081 0.087821 0.559948
    8 1.293670 0.684478 -0.000001 -0.000004 -0.000001 0.271132
    9 5.309685 -0.003834 0.000000 0.077874 -0.031472 0.382494
    10 4.826790 -0.004591 0.000000 0.033168 0.160570 0.406684
    11 5.792767 -0.005304 0.000000 0.118474 0.073142 0.122836
    12 6.662317 -0.001453 0.000000 0.000000 -0.000001 -0.314374
    13 2.046985 -0.000002 0.000000 -0.131618 -0.337117 -0.197487
    14 -3.272185 -1.123452 4.341911 1.923488 -1.393569 1.526584
    15 4.827230 0.000000 0.000001 -0.836936 -0.390400 -1.342946
    16 11.139763 0.000000 0.000000 0.000000 0.000000 -1.173689
    17 10.314597 0.000001 0.000000 -0.695012 -0.010306 0.140724
    18 2.975834 -0.386307 -0.044143 -0.017432 -0.039992 0.392972
    19 1.438886 0.000000 0.000000 0.000000 0.000000 0.270702
    20 1.485303 0.000000 0.000000 0.000000 0.000000 0.375250
    21 -3.014434 -1.037911 -4.140396 -0.559049 1.336087 2.908411
    22 4.972048 0.000000 0.000001 0.923216 0.559307 -1.018817
    23 11.585355 0.000000 0.000000 0.000000 0.000000 -1.311125
    24 10.127057 0.000000 0.000001 3.042608 -0.408184 0.616824
    25 2.683750 -0.427338 0.044205 -0.005535 0.043275 -0.151377
    26 1.438885 -0.000001 0.000000 0.000000 0.000000 0.405745
    27 1.485305 0.000001 0.000000 0.000000 0.000000 0.362603
    28 1.038631 0.548043 -0.144017 -0.000001 0.000001 -1.849906
    29 -0.064003 -0.023521 0.026161 0.000000 0.000000 0.000000
    30 3.013925 3.984634 -0.088975 -0.000001 0.000001 -1.849906
    31 -0.084188 -0.025627 -0.001098 0.000000 0.000000 0.000000
    32 4.778187 3.972486 -0.079803 -0.000001 0.000001 -1.849906
    33 -0.058556 -0.021324 0.004244 0.000000 0.000000 0.000000
    34 1.640598 -1.968779 -0.099219 -0.000001 0.000001 -1.849906
    35 0.055573 -0.028908 0.000000 0.000000 0.000000 0.000000
    36 1.646738 0.449549 -1.702246 0.449790 0.128753 1.240204
    37 0.928312 0.000000 -0.000002 0.000000 0.000000 0.000000
    38 0.928314 0.000000 0.000001 0.000000 0.000000 0.000000
    39 1.533672 0.109715 1.664491 -0.733354 -0.285116 1.223813
    40 0.928313 0.000000 0.000000 0.000000 0.000000 0.000000
    41 0.928314 0.000000 0.000001 0.000000 0.000000 0.000000
  time 8
    0 0.235347 0.367732 -14.393495 -0.045585 0.257873 -1.742273
    1 0.000000 0.000000 0.000000 -1.570795 -1.570796 0.000000
    2 -0.000005 0.000007 3.713255 2.914525 6.061903 1.331528
    3 18.045721 0.000000 0.000000 0.000000 0.000000 -1.349242
    4 17.597597 0.000000 0.000000 -0.205057 0.225938 -0.216505
    5 0.000005 -0.000003 -3.713255 -0.067002 -3.740518 -0.837425
    6 18.045725 0.000000 0.000000 0.000000 0.000000 -2.074647
    7 17.597597 0.000000 0.000000 -0.092081 0.087821 0.559948
    8 1.293670 0.684478 -0.000001 -0.000004 -0.000001 0.271132
    9 5.309685 -0.003834 0.000000 0.056034 -0.022651 0.383091
    10 4.826790 -0.004591 0.000000 -0.000739 0.174891 0.393719
    11 5.792767 -0.005304 0.000000 0.095040 0.076030 0.121092
    12 6.662317 -0.001453 0.000000 0.000000 -0.000001 -0.314374
    13 2.046985 -0.000002 0.000000 -0.051484 -0.336756 -0.198880
    14 -3.272185 -1.123452 4.341911 1.923488 -1.393569 1.526584
    15 4.827230 0.000000 0.000001 -0.791650 -0.404441 -1.337870
    16 11.139763 0.000000 0.000000 0.000000 0.000000 -1.210201
    17 10.314597 0.000001 0.000000 -0.695012 -0.010306 0.140724
    18 2.975834 -0.386307 -0.044143 -0.017432 -0.039992 0.392972
    19 1.438886 0.000000 0.000000 0.000000 0.000000 0.270702
    20 1.485303 0.000000 0.000000 0.000000 0.000000 0.375250
    21 -3.014434 -1.037911 -4.140396 -0.445536 1.349823 3.019049
    22 4.972048 0.000000 0.000001 0.913160 0.467363 -1.052346
    23 11.585355 0.000000 0.000000 0.000000 0.000000 -1.482799
    24 10.127057 0.000000 0.000001 2.826976 -0.430788 0.736265
    25 2.683750 -0.427338 0.044205 -0.004240 0.043419 -0.121383
    26 1.438885 -0.000001 0.000000 0.000000 0.000000 0.477450
    27 1.485305 0.000001 0.000000 0.000000 0.000000 0.532725
    28 1.038631 0.548043 -0.144017 -0.000001 0.000001 -1.849906
    29 -0.064003 -0.023521 0.026161 0.000000 0.000000 0.000000
    30 3.013925 3.984634 -0.088975 -0.000001 0.000001 -1.849906
    31 -0.084188 -0.025627 -0.001098 0.000000 0.000000 0.000000
    32 4.778187 3.972486 -0.079803 -0.000001 0.000001 -1.849906
    33 -0.058556 -0.021324 0.004244 0.000000 0.000000 0.000000
    34 1.640598 -1.968779 -0.099219 -0.000001 0.000001 -1.849906
    35 0.055573 -0.028908 0.000000 0.000000 0.000000 0.000000
    36 1.646738 0.449549 -1.702246 0.449790 0.128753 1.240204
    37 0.928312 0.000000 -0.000002 0.000000 0.000000 0.000000
    38 0.928314 0.000000 0.000001 0.000000 0.000000 0.000000
    39 1.533672 0.109715 1.664491 -0.733354 -0.285116 1.223813
    40 0.928313 0.000000 0.000000 0.000000 0.000000 0.000000
    41 0.928314 0.000000 0.000001 0.000000 0.000000 0.000000
  time 9
    0 0.235347 0.367732 -14.393495 -0.045585 0.257873 -1.742273
    1 0.000000 0.000000 0.000000 -1.570795 -1.570796 0.000000
    2 -0.000005 0.000007 3.713255 2.914525 6.061903 1.331528
    3 18.045721 0.000000 0.000000 0.000000 0.000000 -1.349242
    4 17.597597 0.000000 0.000000 -0.205057 0.225938 -0.216505
    5 0.000005 -0.000003 -3.713255 -0.067002 -3.740518 -0.837425
    6 18.045725 0.000000 0.000000 0.000000 0.000000 -2.074647
    7 17.597597 0.000000 0.000000 -0.092081 0.087821 0.559948
    8 1.293670 0.684478 -0.000001 -0.000004 -0.000001 0.271132
    9 5.309685 -0.003834 0.000000 0.032577 -0.013183 0.383508
    10 4.826790 -0.004591 0.000000 -0.037717 0.189213 0.371273
    11 5.792767 -0.005304 0.000000 0.069862 0.079074 0.119140
    12 6.662317 -0.001453 0.000000 0.000000 -0.000001 -0.314374
    13 2.046985 -0.000002 0.000000 0.032743 -0.336486 -0.193172
    14 -3.272185 -1.123452 4.341911 1.923488 -1.393569 1.526584
    15 4.827230 0.000000 0.000001 -0.739845 -0.409547 -1.337170
    16 11.139763 0.000000 0.000000 0.000000 0.000000 -1.288971
    17 10.314597 0.000001 0.000000 -0.695012 -0.010306 0.140724
    18 2.975834 -0.386307 -0.044143 -0.017432 -0.039992 0.392972
    19 1.438886 0.000000 0.000000 0.000000 0.000000 0.270702
    20 1.485303 0.000000 0.000000 0.000000 0.000000 0.375250
    21 -3.014434 -1.037911 -4.140396 -0.303643 1.361496 3.157777
    22 4.972048 0.000000 0.000001 0.894362 0.365122 -1.085611
    23 11.585355 0.000000 0.000000 0.000000 0.000000 -1.631248
    24 10.127057 0.000000 0.000001 2.592744 -0.428271 0.867866
    25 2.683750 -0.427338 0.044205 -0.002838 0.043539 -0.089176
    26 1.438885 -0.000001 0.000000 0.000000 0.000000 0.554445
    27 1.485305 0.000001 0.000000 0.000000 0.000000 0.715470
    28 1.038631 0.548043 -0.144017 -0.000001 0.000001 -1.849906
    29 -0.064003 -0.023521 0.026161 0.000000 0.000000 0.000000
    30 3.013925 3.984634 -0.088975 -0.000001 0.000001 -1.849906
    31 -0.084188 -0.025627 -0.001098 0.000000 0.000000 0.000000
    32 4.778187 3.972486 -0.079803 -0.000001 0.000001 -1.849906
    33 -0.058556 -0.021324 0.004244 0.000000 0.000000 0.000000
    34 1.640598 -1.968779 -0.099219 -0.000001 0.000001 -1.849906
    35 0.055573 -0.028908 0.000000 0.000000 0.000000 0.000000
    36 1.646738 0.449549 -1.702246 0.449790 0.128753 1.240204
    37 0.928312 0.000000 -0.000002 0.000000 0.000000 0.000000
    38 0.928314 0.000000 0.000001 0.000000 0.000000 0.000000
    39 1.533672 0.109715 1.664491 -0.733354 -0.285116 1.223813
    40 0.928313 0.000000 0.000000 0.000000 0.000000 0.000000
    41 0.928314 0.000000 0.000001 0.000000 0.000000 0.000000
  time 10
    0 0.235347 0.367732 -14.393495 -0.045585 0.257873 -1.742273
    1 0.000000 0.000000 0.000000 -1.570795 -1.570796 0.000000
    2 -0.000005 0.000007 3.713255 2.914525 6.061903 1.331528
    3 18.045721 0.000000 0.000000 0.000000 0.000000 -1.349242
    4 17.597597 0.000000 0.000000 -0.205057 0.225938 -0.216505
    5 0.000005 -0.000003 -3.713255 -0.067002 -3.740518 -0.837425
    6 18.045725 0.000000 0.000000 0.000000 0.000000 -2.074647
    7 17.597597 0.000000 0.000000 -0.092081 0.087821 0.559948
    8 1.293670 0.684478 -0.000001 -0.000004 -0.000001 0.271132
    9 5.309685 -0.003834 0.000000 0.008986 -0.003631 0.383707
    10 4.826790 -0.004591 0.000000 -0.075664 0.201928 0.344528
    11 5.792767 -0.005304 0.000000 0.044520 0.082094 0.117105
    12 6.662317 -0.001453 0.000000 0.000000 -0.000001 -0.314374
    13 2.046985 -0.000002 0.000000 0.117142 -0.336441 -0.184901
    14 -3.272185 -1.123452 4.341911 1.923488 -1.393569 1.526584
    15 4.827230 0.000000 0.000001 -0.685983 -0.408186 -1.339533
    16 11.139763 0.000000 0.000000 0.000000 0.000000 -1.385961
    17 10.314597 0.000001 0.000000 -0.695012 -0.010306 0.140724
    18 2.975834 -0.386307 -0.044143 -0.017432 -0.039992 0.392972
    19 1.438886 0.000000 0.000000 0.000000 0.000000 0.270702
    20 1.485303 0.000000 0.000000 0.000000 0.000000 0.375250
    21 -3.014434 -1.037911 -4.140396 -0.156478 1.368393 3.301683
    22 4.972048 0.000000 0.000001 0.869067 0.262721 -1.112421
    23 11.585355 0.000000 0.000000 0.000000 0.000000 -1.764446
    24 10.127057 0.000000 0.000001 2.361123 -0.397978 0.995113
    25 2.683750 -0.427338 0.044205 -0.001424 0.043611 -0.056754
    26 1.438885 -0.000001 0.000000 0.000000 0.000000 0.631939
    27 1.485305 0.000001 0.000000 0.000000 0.000000 0.899427
    28 1.038631 0.548043 -0.144017 -0.000001 0.000001 -1.849906
    29 -0.064003 -0.023521 0.026161 0.000000 0.000000 0.000000
    30 3.013925 3.984634 -0.088975 -0.000001 0.000001 -1.849906
    31 -0.084188 -0.025627 -0.001098 0.000000 0.000000 0.000000
    32 4.778187 3.972486 -0.079803 -0.000001 0.000001 -1.849906
    33 -0.058556 -0.021324 0.004244 0.000000 0.000000 0.000000
    34 1.640598 -1.968779 -0.099219 -0.000001 0.000001 -1.849906
    35 0.055573 -0.028908 0.000000 0.000000 0.000000 0.000000
    36 1.646738 0.449549 -1.702246 0.449790 0.128753 1.240204
    37 0.928312 0.000000 -0.000002 0.000000 0.000000 0.000000
    38 0.928314 0.000000 0.000001 0.000000 0.000000 0.000000
    39 1.533672 0.109715 1.664491 -0.733354 -0.285116 1.223813
    40 0.928313 0.000000 0.000000 0.000000 0.000000 0.000000
    41 0.928314 0.000000 0.000001 0.000000 0.000000 0.000000
  time 11
    0 0.235347 0.367732 -14.393495 -0.045585 0.257873 -1.742273
    1 0.000000 0.000000 0.000000 -1.570795 -1.570796 0.000000
    2 -0.000005 0.000007 3.713255 2.914525 6.061903 1.331528
    3 18.045721 0.000000 0.000000 0.000000 0.000000 -1.349242
    4 17.597597 0.000000 0.000000 -0.205057 0.225938 -0.216505
    5 0.000005 -0.000003 -3.713255 -0.067002 -3.740518 -0.837425
    6 18.045725 0.000000 0.000000 0.000000 0.000000 -2.074647
    7 17.597597 0.000000 0.000000 -0.092081 0.087821 0.559948
    8 1.293670 0.684478 -0.000001 -0.000004 -0.000001 0.271132
    9 5.309685 -0.003834 0.000000 -0.013797 0.005585 0.383689
    10 4.826790 -0.004591 0.000000 -0.113068 0.212415 0.316636
    11 5.792767 -0.005304 0.000000 0.019993 0.084971 0.115050
    12 6.662317 -0.001453 0.000000 0.000000 -0.000001 -0.314374
    13 2.046985 -0.000002 0.000000 0.198957 -0.336509 -0.176451
    14 -3.272185 -1.123452 4.341911 1.923488 -1.393569 1.526584
    15 4.827230 0.000000 0.000001 -0.633003 -0.402399 -1.343821
    16 11.139763 0.000000 0.000000 0.000000 0.000000 -1.487367
    17 10.314597 0.000001 0.000000 -0.695012 -0.010306 0.140724
    18 2.975834 -0.386307 -0.044143 -0.017432 -0.039992 0.392972
    19 1.438886 0.000000 0.000000 0.000000 0.000000 0.270702
    20 1.485303 0.000000 0.000000 0.000000 0.000000 0.375250
    21 -3.014434 -1.037911 -4.140396 -0.034144 1.370710 3.421620
    22 4.972048 0.000000 0.000001 0.839131 0.166674 -1.128165
    23 11.585355 0.000000 0.000000 0.000000 0.000000 -1.886241
    24 10.127057 0.000000 0.000001 2.146383 -0.344457 1.106082
    25 2.683750 -0.427338 0.044205 -0.000058 0.043623 -0.025422
    26 1.438885 -0.000001 0.000000 0.000000 0.000000 0.706871
    27 1.485305 0.000001 0.000000 0.000000 0.000000 1.077188
    28 1.038631 0.548043 -0.144017 -0.000001 0.000001 -1.849906
    29 -0.064003 -0.023521 0.026161 0.000000 0.000000 0.000000
    30 3.013925 3.984634 -0.088975 -0.000001 0.000001 -1.849906
    31 -0.084188 -0.025627 -0.001098 0.000000 0.000000 0.000000
    32 4.778187 3.972486 -0.079803 -0.000001 0.000001 -1.849906
    33 -0.058556 -0.021324 0.004244 0.000000 0.000000 0.000000
    34 1.640598 -1.968779 -0.099219 -0.000001 0.000001 -1.849906
    35 0.055573 -0.028908 0.000000 0.000000 0.000000 0.000000
    36 1.646738 0.449549 -1.702246 0.449790 0.128753 1.240204
    37 0.928312 0.000000 -0.000002 0.000000 0.000000 0.000000
    38 0.928314 0.000000 0.000001 0.000000 0.000000 0.000000
    39 1.533672 0.109715 1.664491 -0.733354 -0.285116 1.223813
    40 0.928313 0.000000 0.000000 0.000000 0.000000 0.000000
    41 0.928314 0.000000 0.000001 0.000000 0.000000 0.000000
  time 12
    0 0.235347 0.367732 -14.393495 -0.045585 0.257873 -1.742273
    1 0.000000 0.000000 0.000000 -1.570795 -1.570796 0.000000
    2 -0.000005 0.000007 3.713255 2.914525 6.061903 1.331528
    3 18.045721 0.000000 0.000000 0.000000 0.000000 -1.349242
    4 17.597597 0.000000 0.000000 -0.205057 0.225938 -0.216505
    5 0.000005 -0.000003 -3.713255 -0.067002 -3.740518 -0.837425
    6 18.045725 0.000000 0.000000 0.000000 0.000000 -2.074647
    7 17.597597 0.000000 0.000000 -0.092081 0.087821 0.559948
    8 1.293670 0.684478 -0.000001 -0.000004 -0.000001 0.271132
    9 5.309685 -0.003834 0.000000 -0.032332 0.013075 0.383508
    10 4.826790 -0.004591 0.000000 -0.143872 0.219749 0.294411
    11 5.792767 -0.005304 0.000000 0.000065 0.087260 0.113347
    12 6.662317 -0.001453 0.000000 0.000000 -0.000001 -0.314374
    13 2.046985 -0.000002 0.000000 0.265994 -0.336464 -0.171147
    14 -3.272185 -1.123452 4.341911 1.923488 -1.393569 1.526584
    15 4.827230 0.000000 0.000001 -0.589715 -0.396102 -1.347934
    16 11.139763 0.000000 0.000000 0.000000 0.000000 -1.566136
    17 10.314597 0.000001 0.000000 -0.695012 -0.010306 0.140724
    18 2.975834 -0.386307 -0.044143 -0.017432 -0.039992 0.392972
    19 1.438886 0.000000 0.000000 0.000000 0.000000 0.270702
    20 1.485303 0.000000 0.000000 0.000000 0.000000 0.375250
    21 -3.014434 -1.037911 -4.140396 -0.000013 1.370795 3.455176
    22 4.972048 0.000000 0.000001 0.811980 0.093875 -1.124344
    23 11.585355 0.000000 0.000000 0.000000 0.000000 -1.988587
    24 10.127057 0.000000 0.000001 1.980376 -0.285848 1.184258
    25 2.683750 -0.427338 0.044205 0.001045 0.043611 0.000046
    26 1.438885 -0.000001 0.000000 0.000000 0.000000 0.767762
    27 1.485305 0.000001 0.000000 0.000000 0.000000 1.221689
    28 1.038631 0.548043 -0.144017 -0.000001 0.000001 -1.849906
    29 -0.064003 -0.023521 0.026161 0.000000 0.000000 0.000000
    30 3.013925 3.984634 -0.088975 -0.000001 0.000001 -1.849906
    31 -0.084188 -0.025627 -0.001098 0.000000 0.000000 0.000000
    32 4.778187 3.972486 -0.079803 -0.000001 0.000001 -1.849906
    33 -0.058556 -0.021324 0.004244 0.000000 0.000000 0.000000
    34 1.640598 -1.968779 -0.099219 -0.000001 0.000001 -1.849906
    35 0.055573 -0.028908 0.000000 0.000000 0.000000 0.000000
    36 1.646738 0.449549 -1.702246 0.449790 0.128753 1.240204
    37 0.928312 0.000000 -0.000002 0.000000 0.000000 0.000000
    38 0.928314 0.000000 0.000001 0.000000 0.000000 0.000000
    39 1.533672 0.109715 1.664491 -0.733354 -0.285116 1.223813
    40 0.928313 0.000000 0.000000 0.000000 0.000000 0.000000
    41 0.928314 0.000000 0.000001 0.000000 0.000000 0.000000
end
