version 1
nodes
  0 "Bip01" -1
  1 "Bip01 Pelvis" 0
  2 "Bip01 L Leg" 1
  3 "Bip01 L Leg1" 2
  4 "Bip01 L Foot" 3
  5 "Bip01 R Leg" 1
  6 "Bip01 R Leg1" 5
  7 "Bip01 R Foot" 6
  8 "Bip01 Spine" 1
  9 "Bip01 Spine1" 8
  10 "Bip01 Spine2" 9
  11 "Bip01 Spine3" 10
  12 "Bip01 Neck" 11
  13 "Bip01 Head" 12
  14 "Bip01 L Arm" 12
  15 "Bip01 L Arm1" 14
  16 "Bip01 L Arm2" 15
  17 "Bip01 L Hand" 16
  18 "Bip01 L Finger1" 17
  19 "Bip01 L Finger11" 18
  20 "Bip01 L Finger12" 19
  21 "Bip01 R Arm" 12
  22 "Bip01 R Arm1" 21
  23 "Bip01 R Arm2" 22
  24 "Bip01 R Hand" 23
  25 "Bip01 R Finger1" 24
  26 "Bip01 R Finger11" 25
  27 "Bip01 R Finger12" 26
  28 "Dummy08" 13
  29 "Bone02" 28
  30 "Dummy04" 13
  31 "Bone05" 30
  32 "Dummy03" 13
  33 "Bone07" 32
  34 "Dummy10" 13
  35 "Bone13" 34
  36 "Bip01 L Finger0" 17
  37 "Bip01 L Finger01" 36
  38 "Bip01 L Finger02" 37
  39 "Bip01 R Finger0" 24
  40 "Bip01 R Finger01" 39
  41 "Bip01 R Finger02" 40
end
skeleton
  time 0
    0 0.235347 0.367732 -14.389589 -0.045585 0.257873 -1.742273
    1 0.000000 0.000000 0.000000 -1.570795 -1.570796 0.000000
    2 -0.000005 0.000007 3.713255 2.914525 6.061903 1.331528
    3 18.045721 0.000000 0.000000 0.000000 0.000000 -1.349242
    4 17.597597 0.000000 0.000000 -0.205057 0.225938 -0.216505
    5 0.000005 -0.000003 -3.713255 -0.067002 -3.740518 -0.837425
    6 18.045725 0.000000 0.000000 0.000000 0.000000 -2.074647
    7 17.597597 0.000000 0.000000 -0.092081 0.087821 0.559948
    8 1.293670 0.684478 -0.000001 -0.000004 -0.000001 0.271132
    9 5.309685 -0.003834 0.000000 -0.032981 0.011373 0.331209
    10 4.826790 -0.004591 0.000000 -0.148782 0.198393 0.146749
    11 5.792767 -0.005304 0.000000 0.000065 0.087260 0.034843
    12 6.662317 -0.001453 0.000000 0.000000 -0.000001 -0.314374
    13 2.046985 -0.000002 0.000000 0.409331 -0.063019 -0.770929
    14 -3.272185 -1.123452 4.341911 1.923488 -1.393569 1.526584
    15 4.827230 0.000000 0.000001 -0.705190 -0.201902 -1.344171
    16 11.139763 0.000000 0.000000 0.000000 0.000000 -1.550088
    17 10.314597 0.000001 0.000000 -1.627074 0.320808 -0.018693
    18 2.975834 -0.386307 -0.044143 -0.037781 -0.021799 1.029782
    19 1.438886 0.000000 0.000000 0.000000 0.000000 1.256303
    20 1.485303 0.000000 0.000000 0.000000 0.000000 1.666118
    21 -3.014434 -1.037911 -4.140396 -0.000013 1.370795 3.455176
    22 4.972048 0.000000 0.000001 1.910958 0.000483 -1.045297
    23 11.585355 0.000000 0.000000 0.000000 0.000000 -2.068268
    24 10.127057 0.000000 0.000001 2.180591 0.000000 -0.069778
    25 2.683750 -0.427338 0.044205 0.001045 0.043611 0.000046
    26 1.438885 -0.000001 0.000000 0.000000 0.000000 0.767762
    27 1.485305 0.000001 0.000000 0.000000 0.000000 1.221689
    28 1.038631 0.548043 -0.144017 -0.000001 0.000001 -1.849906
    29 -0.064003 -0.023521 0.026161 0.000000 0.000000 0.000000
    30 3.013925 3.984634 -0.088975 -0.000001 0.000001 -1.849906
    31 -0.084188 -0.025627 -0.001098 0.000000 0.000000 0.000000
    32 4.778187 3.972486 -0.079803 -0.000001 0.000001 -1.849906
    33 -0.058556 -0.021324 0.004244 0.000000 0.000000 0.000000
    34 1.640598 -1.968779 -0.099219 -0.000001 0.000001 -1.849906
    35 0.055573 -0.028908 0.000000 0.000000 0.000000 0.000000
    36 1.646738 0.449549 -1.702246 0.449790 0.128753 1.240204
    37 0.928312 0.000000 -0.000002 0.000000 0.000000 0.000000
    38 0.928314 0.000000 0.000001 0.000000 0.000000 0.000000
    39 1.533672 0.109715 1.664491 -0.233255 -0.412980 0.435684
    40 0.928313 0.000000 0.000000 0.000000 0.000000 0.000000
    41 0.928314 0.000000 0.000001 0.000000 0.000000 0.000000
  time 1
    0 0.235347 0.367732 -14.389589 -0.045585 0.257873 -1.742273
    1 0.000000 0.000000 0.000000 -1.570795 -1.570796 0.000000
    2 -0.000005 0.000007 3.713255 2.914525 6.061903 1.331528
    3 18.045721 0.000000 0.000000 0.000000 0.000000 -1.349242
    4 17.597597 0.000000 0.000000 -0.205057 0.225938 -0.216505
    5 0.000005 -0.000003 -3.713255 -0.067002 -3.740518 -0.837425
    6 18.045725 0.000000 0.000000 0.000000 0.000000 -2.074647
    7 17.597597 0.000000 0.000000 -0.092081 0.087821 0.559948
    8 1.293670 0.684478 -0.000001 -0.000004 -0.000001 0.271132
    9 5.309685 -0.003834 0.000000 -0.032981 0.011373 0.331209
    10 4.826790 -0.004591 0.000000 -0.146697 0.102312 0.161191
    11 5.792767 -0.005304 0.000000 -0.000033 -0.058437 0.034843
    12 6.662317 -0.001453 0.000000 0.000000 -0.000001 -0.314374
    13 2.046985 -0.000002 0.000000 0.196458 0.053968 -0.769941
    14 -3.272185 -1.123452 4.341911 1.923488 -1.393569 1.526584
    15 4.827230 0.000000 0.000001 -1.258956 0.125311 -0.894276
    16 11.139763 0.000000 0.000000 0.000000 0.000000 -1.550088
    17 10.314597 0.000001 0.000000 -1.627074 0.320808 -0.018693
    18 2.975834 -0.386307 -0.044143 -0.037781 -0.021799 1.029782
    19 1.438886 0.000000 0.000000 0.000000 0.000000 1.256303
    20 1.485303 0.000000 0.000000 0.000000 0.000000 1.666118
    21 -3.014434 -1.037911 -4.140396 -3.141489 1.481251 0.313701
    22 4.972048 0.000000 0.000001 1.967891 0.711260 -1.111038
    23 11.585355 0.000000 0.000000 0.000000 0.000000 -0.984636
    24 10.127057 0.000000 0.000001 2.465085 0.555967 -0.347965
    25 2.683750 -0.427338 0.044205 0.001045 0.043611 0.000046
    26 1.438885 -0.000001 0.000000 0.000000 0.000000 0.767762
    27 1.485305 0.000001 0.000000 0.000000 0.000000 1.221689
    28 1.038631 0.548043 -0.144017 -0.000001 0.000001 -1.849906
    29 -0.064003 -0.023521 0.026161 0.000000 0.000000 0.000000
    30 3.013925 3.984634 -0.088975 -0.000001 0.000001 -1.849906
    31 -0.084188 -0.025627 -0.001098 0.000000 0.000000 0.000000
    32 4.778187 3.972486 -0.079803 -0.000001 0.000001 -1.849906
    33 -0.058556 -0.021324 0.004244 0.000000 0.000000 0.000000
    34 1.640598 -1.968779 -0.099219 -0.000001 0.000001 -1.849906
    35 0.055573 -0.028908 0.000000 0.000000 0.000000 0.000000
    36 1.646738 0.449549 -1.702246 0.449790 0.128753 1.240204
    37 0.928312 0.000000 -0.000002 0.000000 0.000000 0.000000
    38 0.928314 0.000000 0.000001 0.000000 0.000000 0.000000
    39 1.533672 0.109715 1.664491 -0.233255 -0.412980 0.435684
    40 0.928313 0.000000 0.000000 0.000000 0.000000 0.000000
    41 0.928314 0.000000 0.000001 0.000000 0.000000 0.000000
  time 2
    0 0.235347 0.367732 -14.389589 -0.045585 0.257873 -1.742273
    1 0.000000 0.000000 0.000000 -1.570795 -1.570796 0.000000
    2 -0.000005 0.000007 3.713255 2.914525 6.061903 1.331528
    3 18.045721 0.000000 0.000000 0.000000 0.000000 -1.349242
    4 17.597597 0.000000 0.000000 -0.205057 0.225938 -0.216505
    5 0.000005 -0.000003 -3.713255 -0.067002 -3.740518 -0.837425
    6 18.045725 0.000000 0.000000 0.000000 0.000000 -2.074647
    7 17.597597 0.000000 0.000000 -0.092081 0.087821 0.559948
    8 1.293670 0.684478 -0.000001 -0.000004 -0.000001 0.271132
    9 5.309685 -0.003834 0.000000 -0.032981 0.011373 0.331209
    10 4.826790 -0.004591 0.000000 -0.146040 0.025743 0.172502
    11 5.792767 -0.005304 0.000000 -0.000130 -0.174532 0.034843
    12 6.662317 -0.001453 0.000000 0.000000 -0.000001 -0.314374
    13 2.046985 -0.000002 0.000000 0.025204 0.145649 -0.787380
    14 -3.272185 -1.123452 4.341911 1.923488 -1.393569 1.526584
    15 4.827230 0.000000 0.000001 -1.449262 0.289215 -0.709190
    16 11.139763 0.000000 0.000000 0.000000 0.000000 -1.550088
    17 10.314597 0.000001 0.000000 -1.627074 0.320808 -0.018693
    18 2.975834 -0.386307 -0.044143 -0.037781 -0.021799 1.029782
    19 1.438886 0.000000 0.000000 0.000000 0.000000 1.256303
    20 1.485303 0.000000 0.000000 0.000000 0.000000 1.666118
    21 -3.014434 -1.037911 -4.140396 -3.141489 1.334476 0.313701
    22 4.972048 0.000000 0.000001 2.155940 1.020395 -0.862369
    23 11.585355 0.000000 0.000000 0.000000 0.000000 -0.435265
    24 10.127057 0.000000 0.000001 2.231362 -0.700177 0.172400
    25 2.683750 -0.427338 0.044205 0.001045 0.043611 0.000046
    26 1.438885 -0.000001 0.000000 0.000000 0.000000 0.767762
    27 1.485305 0.000001 0.000000 0.000000 0.000000 1.221689
    28 1.038631 0.548043 -0.144017 -0.000001 0.000001 -1.849906
    29 -0.064003 -0.023521 0.026161 0.000000 0.000000 0.000000
    30 3.013925 3.984634 -0.088975 -0.000001 0.000001 -1.849906
    31 -0.084188 -0.025627 -0.001098 0.000000 0.000000 0.000000
    32 4.778187 3.972486 -0.079803 -0.000001 0.000001 -1.849906
    33 -0.058556 -0.021324 0.004244 0.000000 0.000000 0.000000
    34 1.640598 -1.968779 -0.099219 -0.000001 0.000001 -1.849906
    35 0.055573 -0.028908 0.000000 0.000000 0.000000 0.000000
    36 1.646738 0.449549 -1.702246 0.449790 0.128753 1.240175
    37 0.928312 0.000000 -0.000002 0.000000 0.000000 0.000000
    38 0.928314 0.000000 0.000001 0.000000 0.000000 0.000000
    39 1.533672 0.109715 1.664491 -0.233255 -0.412980 0.435684
    40 0.928313 0.000000 0.000000 0.000000 0.000000 0.000000
    41 0.928314 0.000000 0.000001 0.000000 0.000000 0.000000
  time 3
    0 0.235347 0.367732 -14.389589 -0.045585 0.257873 -1.742273
    1 0.000000 0.000000 0.000000 -1.570795 -1.570796 0.000000
    2 -0.000005 0.000007 3.713255 2.914525 6.061903 1.331528
    3 18.045721 0.000000 0.000000 0.000000 0.000000 -1.349242
    4 17.597597 0.000000 0.000000 -0.205057 0.225938 -0.216505
    5 0.000005 -0.000003 -3.713255 -0.067002 -3.740518 -0.837425
    6 18.045725 0.000000 0.000000 0.000000 0.000000 -2.074647
    7 17.597597 0.000000 0.000000 -0.092081 0.087821 0.559948
    8 1.293670 0.684478 -0.000001 -0.000004 -0.000001 0.271132
    9 5.309685 -0.003834 0.000000 -0.032565 0.012512 0.365960
    10 4.826790 -0.004591 0.000000 -0.145088 0.037044 0.206016
    11 5.792767 -0.005304 0.000000 -0.000130 -0.165052 0.034843
    12 6.662317 -0.001453 0.000000 0.000000 -0.000001 -0.314374
    13 2.046985 -0.000002 0.000000 0.030546 0.131532 -0.854982
    14 -3.272185 -1.123452 4.341911 1.923488 -1.393569 1.526584
    15 4.827230 0.000000 0.000001 -1.424240 0.179179 -0.756008
    16 11.139763 0.000000 0.000000 0.000000 0.000000 -1.550088
    17 10.314597 0.000001 0.000000 -1.627074 0.320808 -0.018693
    18 2.975834 -0.386307 -0.044143 -0.037781 -0.021799 1.029782
    19 1.438886 0.000000 0.000000 0.000000 0.000000 1.256303
    20 1.485303 0.000000 0.000000 0.000000 0.000000 1.666118
    21 -3.014434 -1.037911 -4.140396 -2.245363 1.287585 1.189886
    22 4.972048 0.000000 0.000001 1.830664 0.821464 -1.109984
    23 11.585355 0.000000 0.000000 0.000000 0.000000 -0.244143
    24 10.127057 0.000000 0.000001 1.360108 -0.530303 0.632043
    25 2.683750 -0.427338 0.044205 0.001045 0.043611 0.000046
    26 1.438885 -0.000001 0.000000 0.000000 0.000000 0.767762
    27 1.485305 0.000001 0.000000 0.000000 0.000000 1.221689
    28 1.038631 0.548043 -0.144017 -0.000001 0.000001 -1.849906
    29 -0.064003 -0.023521 0.026161 0.000000 0.000000 0.000000
    30 3.013925 3.984634 -0.088975 -0.000001 0.000001 -1.849906
    31 -0.084188 -0.025627 -0.001098 0.000000 0.000000 0.000000
    32 4.778187 3.972486 -0.079803 -0.000001 0.000001 -1.849906
    33 -0.058556 -0.021324 0.004244 0.000000 0.000000 0.000000
    34 1.640598 -1.968779 -0.099219 -0.000001 0.000001 -1.849906
    35 0.055573 -0.028908 0.000000 0.000000 0.000000 0.000000
    36 1.646738 0.449549 -1.702246 0.449790 0.128753 1.240204
    37 0.928312 0.000000 -0.000002 0.000000 0.000000 0.000000
    38 0.928314 0.000000 0.000001 0.000000 0.000000 0.000000
    39 1.533672 0.109715 1.664491 -0.233255 -0.412980 0.435684
    40 0.928313 0.000000 0.000000 0.000000 0.000000 0.000000
    41 0.928314 0.000000 0.000001 0.000000 0.000000 0.000000
  time 4
    0 0.235347 0.367732 -14.389589 -0.045585 0.257873 -1.742273
    1 0.000000 0.000000 0.000000 -1.570795 -1.570796 0.000000
    2 -0.000005 0.000007 3.713255 2.914525 6.061903 1.331528
    3 18.045721 0.000000 0.000000 0.000000 0.000000 -1.349242
    4 17.597597 0.000000 0.000000 -0.205057 0.225938 -0.216505
    5 0.000005 -0.000003 -3.713255 -0.067002 -3.740518 -0.837425
    6 18.045725 0.000000 0.000000 0.000000 0.000000 -2.074647
    7 17.597597 0.000000 0.000000 -0.092081 0.087821 0.559948
    8 1.293670 0.684478 -0.000001 -0.000004 -0.000001 0.271132
    9 5.309685 -0.003834 0.000000 -0.032063 0.013746 0.404080
    10 4.826790 -0.004591 0.000000 -0.144069 0.074640 0.239112
    11 5.792767 -0.005304 0.000000 -0.000082 -0.116382 0.034843
    12 6.662317 -0.001453 0.000000 0.000000 -0.000001 -0.314374
    13 2.046985 -0.000002 0.000000 0.098488 0.096251 -0.922673
    14 -3.272185 -1.123452 4.341911 1.923488 -1.393569 1.526584
    15 4.827230 0.000000 0.000001 -1.366796 0.036040 -0.831618
    16 11.139763 0.000000 0.000000 0.000000 0.000000 -1.550088
    17 10.314597 0.000001 0.000000 -1.627074 0.320808 -0.018693
    18 2.975834 -0.386307 -0.044143 -0.037781 -0.021799 1.029782
    19 1.438886 0.000000 0.000000 0.000000 0.000000 1.256303
    20 1.485303 0.000000 0.000000 0.000000 0.000000 1.666118
    21 -3.014434 -1.037911 -4.140396 1.372507 2.029745 4.805453
    22 4.972048 0.000000 0.000001 1.648880 0.514984 -1.190744
    23 11.585355 0.000000 0.000000 0.000000 0.000000 -0.108566
    24 10.127057 0.000000 0.000001 0.795389 -0.109152 0.620746
    25 2.683750 -0.427338 0.044205 0.001045 0.043611 0.000046
    26 1.438885 -0.000001 0.000000 0.000000 0.000000 0.767762
    27 1.485305 0.000001 0.000000 0.000000 0.000000 1.221689
    28 1.038631 0.548043 -0.144017 -0.000001 0.000001 -1.849906
    29 -0.064003 -0.023521 0.026161 0.000000 0.000000 0.000000
    30 3.013925 3.984634 -0.088975 -0.000001 0.000001 -1.849906
    31 -0.084188 -0.025627 -0.001098 0.000000 0.000000 0.000000
    32 4.778187 3.972486 -0.079803 -0.000001 0.000001 -1.849906
    33 -0.058556 -0.021324 0.004244 0.000000 0.000000 0.000000
    34 1.640598 -1.968779 -0.099219 -0.000001 0.000001 -1.849906
    35 0.055573 -0.028908 0.000000 0.000000 0.000000 0.000000
    36 1.646738 0.449549 -1.702246 0.449790 0.128753 1.240204
    37 0.928312 0.000000 -0.000002 0.000000 0.000000 0.000000
    38 0.928314 0.000000 0.000001 0.000000 0.000000 0.000000
    39 1.533672 0.109715 1.664491 -0.233255 -0.412980 0.435684
    40 0.928313 0.000000 0.000000 0.000000 0.000000 0.000000
    41 0.928314 0.000000 0.000001 0.000000 0.000000 0.000000
  time 5
    0 0.235347 0.367732 -14.389589 -0.045585 0.257873 -1.742273
    1 0.000000 0.000000 0.000000 -1.570795 -1.570796 0.000000
    2 -0.000005 0.000007 3.713255 2.914525 6.061903 1.331528
    3 18.045721 0.000000 0.000000 0.000000 0.000000 -1.349242
    4 17.597597 0.000000 0.000000 -0.205057 0.225938 -0.216505
    5 0.000005 -0.000003 -3.713255 -0.067002 -3.740518 -0.837425
    6 18.045725 0.000000 0.000000 0.000000 0.000000 -2.074647
    7 17.597597 0.000000 0.000000 -0.092081 0.087821 0.559948
    8 1.293670 0.684478 -0.000001 -0.000004 -0.000001 0.271132
    9 5.309685 -0.003834 0.000000 -0.031855 0.014202 0.418422
    10 4.826790 -0.004591 0.000000 -0.143905 0.105165 0.249210
    11 5.792767 -0.005304 0.000000 -0.000049 -0.073238 0.034843
    12 6.662317 -0.001453 0.000000 0.000000 -0.000001 -0.314374
    13 2.046985 -0.000002 0.000000 0.164491 0.072543 -0.945596
    14 -3.272185 -1.123452 4.341911 1.923488 -1.393569 1.526584
    15 4.827230 0.000000 0.000001 -1.253376 -0.082761 -0.906703
    16 11.139763 0.000000 0.000000 0.000000 0.000000 -1.550088
    17 10.314597 0.000001 0.000000 -1.627074 0.320808 -0.018693
    18 2.975834 -0.386307 -0.044143 -0.037781 -0.021799 1.029782
    19 1.438886 0.000000 0.000000 0.000000 0.000000 1.256303
    20 1.485303 0.000000 0.000000 0.000000 0.000000 1.666118
    21 -3.014434 -1.037911 -4.140396 1.512674 2.095346 4.958850
    22 4.972048 0.000000 0.000001 1.637896 0.327556 -1.166634
    23 11.585355 0.000000 0.000000 0.000000 0.000000 -0.002372
    24 10.127057 0.000000 0.000001 0.635433 0.050191 0.482280
    25 2.683750 -0.427338 0.044205 0.001045 0.043611 0.000046
    26 1.438885 -0.000001 0.000000 0.000000 0.000000 0.767762
    27 1.485305 0.000001 0.000000 0.000000 0.000000 1.221689
    28 1.038631 0.548043 -0.144017 -0.000001 0.000001 -1.849906
    29 -0.064003 -0.023521 0.026161 0.000000 0.000000 0.000000
    30 3.013925 3.984634 -0.088975 -0.000001 0.000001 -1.849906
    31 -0.084188 -0.025627 -0.001098 0.000000 0.000000 0.000000
    32 4.778187 3.972486 -0.079803 -0.000001 0.000001 -1.849906
    33 -0.058556 -0.021324 0.004244 0.000000 0.000000 0.000000
    34 1.640598 -1.968779 -0.099219 -0.000001 0.000001 -1.849906
    35 0.055573 -0.028908 0.000000 0.000000 0.000000 0.000000
    36 1.646738 0.449549 -1.702246 0.449790 0.128753 1.240204
    37 0.928312 0.000000 -0.000002 0.000000 0.000000 0.000000
    38 0.928314 0.000000 0.000001 0.000000 0.000000 0.000000
    39 1.533672 0.109715 1.664491 -0.233255 -0.412980 0.435684
    40 0.928313 0.000000 0.000000 0.000000 0.000000 0.000000
    41 0.928314 0.000000 0.000001 0.000000 0.000000 0.000000
  time 6
    0 0.235347 0.367732 -14.389589 -0.045585 0.257873 -1.742273
    1 0.000000 0.000000 0.000000 -1.570795 -1.570796 0.000000
    2 -0.000005 0.000007 3.713255 2.914525 6.061903 1.331528
    3 18.045721 0.000000 0.000000 0.000000 0.000000 -1.349242
    4 17.597597 0.000000 0.000000 -0.205057 0.225938 -0.216505
    5 0.000005 -0.000003 -3.713255 -0.067002 -3.740518 -0.837425
    6 18.045725 0.000000 0.000000 0.000000 0.000000 -2.074647
    7 17.597597 0.000000 0.000000 -0.092081 0.087821 0.559948
    8 1.293670 0.684478 -0.000001 -0.000004 -0.000001 0.271132
    9 5.309685 -0.003834 0.000000 -0.032002 0.013878 0.408335
    10 4.826790 -0.004591 0.000000 -0.144661 0.127804 0.235650
    11 5.792767 -0.005304 0.000000 -0.000016 -0.036733 0.034843
    12 6.662317 -0.001453 0.000000 0.000000 -0.000001 -0.314374
    13 2.046985 -0.000002 0.000000 0.222997 0.051086 -0.921819
    14 -3.272185 -1.123452 4.341911 1.923488 -1.393569 1.526584
    15 4.827230 0.000000 0.000001 -1.114348 -0.149990 -0.992376
    16 11.139763 0.000000 0.000000 0.000000 0.000000 -1.550088
    17 10.314597 0.000001 0.000000 -1.627074 0.320808 -0.018693
    18 2.975834 -0.386307 -0.044143 -0.037781 -0.021799 1.029782
    19 1.438886 0.000000 0.000000 0.000000 0.000000 1.256303
    20 1.485303 0.000000 0.000000 0.000000 0.000000 1.666118
    21 -3.014434 -1.037911 -4.140396 -1.495730 1.171731 1.965883
    22 4.972048 0.000000 0.000001 1.791600 -0.289024 -1.315967
    23 11.585355 0.000000 0.000000 0.000000 0.000000 -0.515995
    24 10.127057 0.000000 0.000001 1.003377 -0.028885 0.348443
    25 2.683750 -0.427338 0.044205 0.001045 0.043611 0.000046
    26 1.438885 -0.000001 0.000000 0.000000 0.000000 0.767762
    27 1.485305 0.000001 0.000000 0.000000 0.000000 1.221689
    28 1.038631 0.548043 -0.144017 -0.000001 0.000001 -1.849906
    29 -0.064003 -0.023521 0.026161 0.000000 0.000000 0.000000
    30 3.013925 3.984634 -0.088975 -0.000001 0.000001 -1.849906
    31 -0.084188 -0.025627 -0.001098 0.000000 0.000000 0.000000
    32 4.778187 3.972486 -0.079803 -0.000001 0.000001 -1.849906
    33 -0.058556 -0.021324 0.004244 0.000000 0.000000 0.000000
    34 1.640598 -1.968779 -0.099219 -0.000001 0.000001 -1.849906
    35 0.055573 -0.028908 0.000000 0.000000 0.000000 0.000000
    36 1.646738 0.449549 -1.702246 0.449790 0.128753 1.240204
    37 0.928312 0.000000 -0.000002 0.000000 0.000000 0.000000
    38 0.928314 0.000000 0.000001 0.000000 0.000000 0.000000
    39 1.533672 0.109715 1.664491 -0.233255 -0.412980 0.435684
    40 0.928313 0.000000 0.000000 0.000000 0.000000 0.000000
    41 0.928314 0.000000 0.000001 0.000000 0.000000 0.000000
  time 7
    0 0.235347 0.367732 -14.389589 -0.045585 0.257873 -1.742273
    1 0.000000 0.000000 0.000000 -1.570795 -1.570796 0.000000
    2 -0.000005 0.000007 3.713255 2.914525 6.061903 1.331528
    3 18.045721 0.000000 0.000000 0.000000 0.000000 -1.349242
    4 17.597597 0.000000 0.000000 -0.205057 0.225938 -0.216505
    5 0.000005 -0.000003 -3.713255 -0.067002 -3.740518 -0.837425
    6 18.045725 0.000000 0.000000 0.000000 0.000000 -2.074647
    7 17.597597 0.000000 0.000000 -0.092081 0.087821 0.559948
    8 1.293670 0.684478 -0.000001 -0.000004 -0.000001 0.271132
    9 5.309685 -0.003834 0.000000 -0.032283 0.013219 0.387818
    10 4.826790 -0.004591 0.000000 -0.145826 0.149891 0.211573
    11 5.792767 -0.005304 0.000000 0.000000 0.001234 0.034843
    12 6.662317 -0.001453 0.000000 0.000000 -0.000001 -0.314374
    13 2.046985 -0.000002 0.000000 0.283098 0.023100 -0.878939
    14 -3.272185 -1.123452 4.341911 1.923488 -1.393569 1.526584
    15 4.827230 0.000000 0.000001 -0.987360 -0.179180 -1.085663
    16 11.139763 0.000000 0.000000 0.000000 0.000000 -1.550088
    17 10.314597 0.000001 0.000000 -1.627074 0.320808 -0.018693
    18 2.975834 -0.386307 -0.044143 -0.037781 -0.021799 1.029782
    19 1.438886 0.000000 0.000000 0.000000 0.000000 1.256303
    20 1.485303 0.000000 0.000000 0.000000 0.000000 1.666118
    21 -3.014434 -1.037911 -4.140396 -1.268703 1.288603 2.198183
    22 4.972048 0.000000 0.000001 1.896493 -0.660500 -1.376307
    23 11.585355 0.000000 0.000000 0.000000 0.000000 -1.018286
    24 10.127057 0.000000 0.000001 1.384188 -0.074798 0.212802
    25 2.683750 -0.427338 0.044205 0.001045 0.043611 0.000046
    26 1.438885 -0.000001 0.000000 0.000000 0.000000 0.767762
    27 1.485305 0.000001 0.000000 0.000000 0.000000 1.221689
    28 1.038631 0.548043 -0.144017 -0.000001 0.000001 -1.849906
    29 -0.064003 -0.023521 0.026161 0.000000 0.000000 0.000000
    30 3.013925 3.984634 -0.088975 -0.000001 0.000001 -1.849906
    31 -0.084188 -0.025627 -0.001098 0.000000 0.000000 0.000000
    32 4.778187 3.972486 -0.079803 -0.000001 0.000001 -1.849906
    33 -0.058556 -0.021324 0.004244 0.000000 0.000000 0.000000
    34 1.640598 -1.968779 -0.099219 -0.000001 0.000001 -1.849906
    35 0.055573 -0.028908 0.000000 0.000000 0.000000 0.000000
    36 1.646738 0.449549 -1.702246 0.449790 0.128753 1.240204
    37 0.928312 0.000000 -0.000002 0.000000 0.000000 0.000000
    38 0.928314 0.000000 0.000001 0.000000 0.000000 0.000000
    39 1.533672 0.109715 1.664491 -0.233255 -0.412980 0.435684
    40 0.928313 0.000000 0.000000 0.000000 0.000000 0.000000
    41 0.928314 0.000000 0.000001 0.000000 0.000000 0.000000
  time 8
    0 0.235347 0.367732 -14.389589 -0.045585 0.257873 -1.742273
    1 0.000000 0.000000 0.000000 -1.570795 -1.570796 0.000000
    2 -0.000005 0.000007 3.713255 2.914525 6.061903 1.331528
    3 18.045721 0.000000 0.000000 0.000000 0.000000 -1.349242
    4 17.597597 0.000000 0.000000 -0.205057 0.225938 -0.216505
    5 0.000005 -0.000003 -3.713255 -0.067002 -3.740518 -0.837425
    6 18.045725 0.000000 0.000000 0.000000 0.000000 -2.074647
    7 17.597597 0.000000 0.000000 -0.092081 0.087821 0.559948
    8 1.293670 0.684478 -0.000001 -0.000004 -0.000001 0.271132
    9 5.309685 -0.003834 0.000000 -0.032565 0.012488 0.365308
    10 4.826790 -0.004591 0.000000 -0.147025 0.169594 0.185753
    11 5.792767 -0.005304 0.000000 0.000016 0.036050 0.034843
    12 6.662317 -0.001453 0.000000 0.000000 -0.000001 -0.314374
    13 2.046985 -0.000002 0.000000 0.336090 -0.008240 -0.834351
    14 -3.272185 -1.123452 4.341911 1.923488 -1.393569 1.526584
    15 4.827230 0.000000 0.000001 -0.874880 -0.191434 -1.181138
    16 11.139763 0.000000 0.000000 0.000000 0.000000 -1.550088
    17 10.314597 0.000001 0.000000 -1.627074 0.320808 -0.018708
    18 2.975834 -0.386307 -0.044143 -0.037781 -0.021799 1.029782
    19 1.438886 0.000000 0.000000 0.000000 0.000000 1.256303
    20 1.485303 0.000000 0.000000 0.000000 0.000000 1.666118
    21 -3.014434 -1.037911 -4.140396 -0.888086 1.362429 2.577841
    22 4.972048 0.000000 0.000001 1.870579 -0.533404 -1.233890
    23 11.585355 0.000000 0.000000 0.000000 0.000000 -1.440965
    24 10.127057 0.000000 0.000001 1.706266 -0.070440 0.091399
    25 2.683750 -0.427338 0.044205 0.001045 0.043611 0.000046
    26 1.438885 -0.000001 0.000000 0.000000 0.000000 0.767762
    27 1.485305 0.000001 0.000000 0.000000 0.000000 1.221689
    28 1.038631 0.548043 -0.144017 -0.000001 0.000001 -1.849906
    29 -0.064003 -0.023521 0.026161 0.000000 0.000000 0.000000
    30 3.013925 3.984634 -0.088975 -0.000001 0.000001 -1.849906
    31 -0.084188 -0.025627 -0.001098 0.000000 0.000000 0.000000
    32 4.778187 3.972486 -0.079803 -0.000001 0.000001 -1.849906
    33 -0.058556 -0.021324 0.004244 0.000000 0.000000 0.000000
    34 1.640598 -1.968779 -0.099219 -0.000001 0.000001 -1.849906
    35 0.055573 -0.028908 0.000000 0.000000 0.000000 0.000000
    36 1.646738 0.449549 -1.702246 0.449790 0.128753 1.240204
    37 0.928312 0.000000 -0.000002 0.000000 0.000000 0.000000
    38 0.928314 0.000000 0.000001 0.000000 0.000000 0.000000
    39 1.533672 0.109715 1.664491 -0.233255 -0.412980 0.435684
    40 0.928313 0.000000 0.000000 0.000000 0.000000 0.000000
    41 0.928314 0.000000 0.000001 0.000000 0.000000 0.000000
  time 9
    0 0.235347 0.367732 -14.389589 -0.045585 0.257873 -1.742273
    1 0.000000 0.000000 0.000000 -1.570795 -1.570796 0.000000
    2 -0.000005 0.000007 3.713255 2.914525 6.061903 1.331528
    3 18.045721 0.000000 0.000000 0.000000 0.000000 -1.349242
    4 17.597597 0.000000 0.000000 -0.205057 0.225938 -0.216505
    5 0.000005 -0.000003 -3.713255 -0.067002 -3.740518 -0.837425
    6 18.045725 0.000000 0.000000 0.000000 0.000000 -2.074647
    7 17.597597 0.000000 0.000000 -0.092081 0.087821 0.559948
    8 1.293670 0.684478 -0.000001 -0.000004 -0.000001 0.271132
    9 5.309685 -0.003834 0.000000 -0.032810 0.011829 0.345081
    10 4.826790 -0.004591 0.000000 -0.148060 0.186157 0.162712
    11 5.792767 -0.005304 0.000000 0.000049 0.065616 0.034843
    12 6.662317 -0.001453 0.000000 0.000000 -0.000001 -0.314374
    13 2.046985 -0.000002 0.000000 0.379044 -0.038973 -0.796100
    14 -3.272185 -1.123452 4.341911 1.923488 -1.393569 1.526584
    15 4.827230 0.000000 0.000001 -0.778023 -0.197136 -1.272062
    16 11.139763 0.000000 0.000000 0.000000 0.000000 -1.550088
    17 10.314597 0.000001 0.000000 -1.627074 0.320808 -0.018693
    18 2.975834 -0.386307 -0.044143 -0.037781 -0.021799 1.029782
    19 1.438886 0.000000 0.000000 0.000000 0.000000 1.256303
    20 1.485303 0.000000 0.000000 0.000000 0.000000 1.666118
    21 -3.014434 -1.037911 -4.140396 -0.369508 1.386255 3.091337
    22 4.972048 0.000000 0.000001 1.876226 -0.231106 -1.111104
    23 11.585355 0.000000 0.000000 0.000000 0.000000 -1.810337
    24 10.127057 0.000000 0.000001 1.987001 -0.038062 -0.007802
    25 2.683750 -0.427338 0.044205 0.001045 0.043611 0.000046
    26 1.438885 -0.000001 0.000000 0.000000 0.000000 0.767762
    27 1.485305 0.000001 0.000000 0.000000 0.000000 1.221689
    28 1.038631 0.548043 -0.144017 -0.000001 0.000001 -1.849906
    29 -0.064003 -0.023521 0.026161 0.000000 0.000000 0.000000
    30 3.013925 3.984634 -0.088975 -0.000001 0.000001 -1.849906
    31 -0.084188 -0.025627 -0.001098 0.000000 0.000000 0.000000
    32 4.778187 3.972486 -0.079803 -0.000001 0.000001 -1.849906
    33 -0.058556 -0.021324 0.004244 0.000000 0.000000 0.000000
    34 1.640598 -1.968779 -0.099219 -0.000001 0.000001 -1.849906
    35 0.055573 -0.028908 0.000000 0.000000 0.000000 0.000000
    36 1.646738 0.449549 -1.702246 0.449790 0.128753 1.240204
    37 0.928312 0.000000 -0.000002 0.000000 0.000000 0.000000
    38 0.928314 0.000000 0.000001 0.000000 0.000000 0.000000
    39 1.533672 0.109715 1.664491 -0.233255 -0.412980 0.435684
    40 0.928313 0.000000 0.000000 0.000000 0.000000 0.000000
    41 0.928314 0.000000 0.000001 0.000000 0.000000 0.000000
  time 10
    0 0.235347 0.367732 -14.389589 -0.045585 0.257873 -1.742273
    1 0.000000 0.000000 0.000000 -1.570795 -1.570796 0.000000
    2 -0.000005 0.000007 3.713255 2.914525 6.061903 1.331528
    3 18.045721 0.000000 0.000000 0.000000 0.000000 -1.349242
    4 17.597597 0.000000 0.000000 -0.205057 0.225938 -0.216505
    5 0.000005 -0.000003 -3.713255 -0.067002 -3.740518 -0.837425
    6 18.045725 0.000000 0.000000 0.000000 0.000000 -2.074647
    7 17.597597 0.000000 0.000000 -0.092081 0.087821 0.559948
    8 1.293670 0.684478 -0.000001 -0.000004 -0.000001 0.271132
    9 5.309685 -0.003834 0.000000 -0.032981 0.011373 0.331209
    10 4.826790 -0.004591 0.000000 -0.148782 0.198393 0.146749
    11 5.792767 -0.005304 0.000000 0.000065 0.087260 0.034843
    12 6.662317 -0.001453 0.000000 0.000000 -0.000001 -0.314374
    13 2.046985 -0.000002 0.000000 0.409331 -0.063019 -0.770929
    14 -3.272185 -1.123452 4.341911 1.923488 -1.393569 1.526584
    15 4.827230 0.000000 0.000001 -0.705190 -0.201902 -1.344171
    16 11.139763 0.000000 0.000000 0.000000 0.000000 -1.550088
    17 10.314597 0.000001 0.000000 -1.627074 0.320808 -0.018693
    18 2.975834 -0.386307 -0.044143 -0.037781 -0.021799 1.029782
    19 1.438886 0.000000 0.000000 0.000000 0.000000 1.256303
    20 1.485303 0.000000 0.000000 0.000000 0.000000 1.666118
    21 -3.014434 -1.037911 -4.140396 -0.000013 1.370795 3.455176
    22 4.972048 0.000000 0.000001 1.910958 0.000483 -1.045297
    23 11.585355 0.000000 0.000000 0.000000 0.000000 -2.068268
    24 10.127057 0.000000 0.000001 2.180591 0.000000 -0.069778
    25 2.683750 -0.427338 0.044205 0.001045 0.043611 0.000046
    26 1.438885 -0.000001 0.000000 0.000000 0.000000 0.767762
    27 1.485305 0.000001 0.000000 0.000000 0.000000 1.221689
    28 1.038631 0.548043 -0.144017 -0.000001 0.000001 -1.849906
    29 -0.064003 -0.023521 0.026161 0.000000 0.000000 0.000000
    30 3.013925 3.984634 -0.088975 -0.000001 0.000001 -1.849906
    31 -0.084188 -0.025627 -0.001098 0.000000 0.000000 0.000000
    32 4.778187 3.972486 -0.079803 -0.000001 0.000001 -1.849906
    33 -0.058556 -0.021324 0.004244 0.000000 0.000000 0.000000
    34 1.640598 -1.968779 -0.099219 -0.000001 0.000001 -1.849906
    35 0.055573 -0.028908 0.000000 0.000000 0.000000 0.000000
    36 1.646738 0.449549 -1.702246 0.449790 0.128753 1.240204
    37 0.928312 0.000000 -0.000002 0.000000 0.000000 0.000000
    38 0.928314 0.000000 0.000001 0.000000 0.000000 0.000000
    39 1.533672 0.109715 1.664491 -0.233255 -0.412980 0.435684
    40 0.928313 0.000000 0.000000 0.000000 0.000000 0.000000
    41 0.928314 0.000000 0.000001 0.000000 0.000000 0.000000
end
