version 1
nodes
  0 "Bip01" -1
  1 "Bip01 Pelvis" 0
  2 "Bip01 L Leg" 1
  3 "Bip01 L Leg1" 2
  4 "Bip01 L Foot" 3
  5 "Bip01 R Leg" 1
  6 "Bip01 R Leg1" 5
  7 "Bip01 R Foot" 6
  8 "Bip01 Spine" 1
  9 "Bip01 Spine1" 8
  10 "Bip01 Spine2" 9
  11 "Bip01 Spine3" 10
  12 "Bip01 Neck" 11
  13 "Bip01 Head" 12
  14 "Bip01 L Arm" 12
  15 "Bip01 L Arm1" 14
  16 "Bip01 L Arm2" 15
  17 "Bip01 L Hand" 16
  18 "Bip01 L Finger1" 17
  19 "Bip01 L Finger11" 18
  20 "Bip01 L Finger12" 19
  21 "Bip01 R Arm" 12
  22 "Bip01 R Arm1" 21
  23 "Bip01 R Arm2" 22
  24 "Bip01 R Hand" 23
  25 "Bip01 R Finger1" 24
  26 "Bip01 R Finger11" 25
  27 "Bip01 R Finger12" 26
  28 "Dummy08" 13
  29 "Bone02" 28
  30 "Dummy04" 13
  31 "Bone05" 30
  32 "Dummy03" 13
  33 "Bone07" 32
  34 "Dummy10" 13
  35 "Bone13" 34
  36 "Bip01 L Finger0" 17
  37 "Bip01 L Finger01" 36
  38 "Bip01 L Finger02" 37
  39 "Bip01 R Finger0" 24
  40 "Bip01 R Finger01" 39
  41 "Bip01 R Finger02" 40
end
skeleton
  time 0
    0 0.235347 0.367732 3.528927 0.000000 0.000000 -1.570874
    1 0.000000 0.000000 0.000000 -1.570795 -1.570796 0.000000
    2 -0.000005 0.000007 3.713255 0.002054 3.115505 -0.021473
    3 18.045721 0.000000 0.000000 0.000000 0.000000 -0.121501
    4 17.597597 0.000000 0.000000 -0.002613 0.026036 0.099967
    5 0.000005 -0.000003 -3.713255 -0.002524 -3.124238 -0.024449
    6 18.045725 0.000000 0.000000 0.000000 0.000000 -0.127551
    7 17.597597 0.000000 0.000000 0.002950 -0.017289 0.103055
    8 1.293670 0.684478 -0.000001 -0.000004 -0.000001 -0.103866
    9 5.309685 -0.003834 0.000000 -0.268490 -0.032322 -0.117731
    10 4.826790 -0.004591 0.000000 -0.268747 -0.030009 -0.109328
    11 5.792767 -0.005304 0.000000 -0.139218 -0.009588 -0.069095
    12 6.662317 -0.001453 0.000000 0.000000 -0.000001 0.471000
    13 2.046985 -0.000002 0.000000 0.538192 0.256085 -0.244232
    14 -3.112024 1.517254 4.341911 1.141931 -1.117191 1.569537
    15 4.827230 0.000000 0.000001 -1.153642 -0.204540 -1.229094
    16 11.139763 0.000000 0.000000 0.000000 0.000000 -1.010613
    17 10.314597 0.000001 0.000000 -0.863718 0.363096 -0.290874
    18 2.975834 -0.386307 -0.044143 -0.011691 -0.042029 0.253187
    19 1.438886 0.000000 0.000000 0.000000 0.000000 0.741389
    20 1.485303 0.000000 0.000000 0.000000 0.000000 0.532034
    21 -2.869898 1.399663 -4.140396 -0.000013 1.370795 2.669783
    22 4.972048 0.000000 0.000001 1.036850 -0.589954 -1.749474
    23 11.585355 0.000000 0.000000 0.000000 0.000000 -1.837551
    24 10.127057 0.000000 0.000001 1.949416 -0.006416 0.977737
    25 2.683750 -0.427338 0.044205 -0.005786 0.043239 -0.157091
    26 1.438885 -0.000001 0.000000 0.000000 0.000000 0.732658
    27 1.485305 0.000001 0.000000 0.000000 0.000000 1.168770
    28 1.038631 0.548043 -0.144017 -0.000001 0.000001 -1.849906
    29 -0.064003 -0.023521 0.026161 0.000000 0.000000 0.000000
    30 3.013925 3.984634 -0.088975 -0.000001 0.000001 -1.849906
    31 -0.084188 -0.025627 -0.001098 0.000000 0.000000 0.000000
    32 4.778187 3.972486 -0.079803 -0.000001 0.000001 -1.849906
    33 -0.058556 -0.021324 0.004244 0.000000 0.000000 0.000000
    34 1.640598 -1.968779 -0.099219 -0.000001 0.000001 -1.849906
    35 0.055573 -0.028908 0.000000 0.000000 0.000000 0.000000
    36 1.646738 0.449549 -1.702246 -0.391617 1.092980 -0.290137
    37 0.928312 0.000000 -0.000002 0.000000 0.000000 0.000000
    38 0.928314 0.000000 0.000001 0.000000 0.000000 0.000000
    39 1.533672 0.109715 1.664491 -0.264755 -0.055959 0.783109
    40 0.928313 0.000000 0.000000 0.000000 0.000000 -0.453556
    41 0.928314 0.000000 0.000001 0.000000 0.000000 0.000000
  time 1
    0 0.235347 0.367732 3.528927 0.000000 0.000000 -1.570874
    1 0.000000 0.000000 0.000000 -1.570795 -1.570796 0.000000
    2 -0.000005 0.000007 3.713255 0.002054 3.115505 -0.021473
    3 18.045721 0.000000 0.000000 0.000000 0.000000 -0.121501
    4 17.597597 0.000000 0.000000 -0.002613 0.026036 0.099967
    5 0.000005 -0.000003 -3.713255 -0.002524 -3.124238 -0.024449
    6 18.045725 0.000000 0.000000 0.000000 0.000000 -0.127551
    7 17.597597 0.000000 0.000000 0.002950 -0.017289 0.103055
    8 1.293670 0.684478 -0.000001 -0.000004 -0.000001 -0.103866
    9 5.309685 -0.003834 0.000000 -0.268502 -0.032227 -0.117387
    10 4.826790 -0.004591 0.000000 -0.268747 -0.030009 -0.109328
    11 5.792767 -0.005304 0.000000 -0.139234 -0.009276 -0.066936
    12 6.662317 -0.001453 0.000000 0.000000 -0.000001 0.471000
    13 2.046985 -0.000002 0.000000 0.538235 0.256220 -0.246749
    14 -3.112024 1.517254 4.341911 1.135219 -1.115652 1.577111
    15 4.827230 0.000000 0.000001 -1.149824 -0.208199 -1.230407
    16 11.139763 0.000000 0.000000 0.000000 0.000000 -1.010613
    17 10.314597 0.000001 0.000000 -0.863718 0.363096 -0.290874
    18 2.975834 -0.386307 -0.044143 -0.011691 -0.042029 0.253187
    19 1.438886 0.000000 0.000000 0.000000 0.000000 0.741389
    20 1.485303 0.000000 0.000000 0.000000 0.000000 0.532034
    21 -2.869898 1.399663 -4.140396 -0.000013 1.368251 2.669783
    22 4.972048 0.000000 0.000001 1.033524 -0.587943 -1.748091
    23 11.585355 0.000000 0.000000 0.000000 0.000000 -1.837551
    24 10.127057 0.000000 0.000001 1.949416 -0.006416 0.977737
    25 2.683750 -0.427338 0.044205 -0.005786 0.043239 -0.157091
    26 1.438885 -0.000001 0.000000 0.000000 0.000000 0.732658
    27 1.485305 0.000001 0.000000 0.000000 0.000000 1.168770
    28 1.038631 0.548043 -0.144017 -0.000001 0.000001 -1.849906
    29 -0.064003 -0.023521 0.026161 0.000000 0.000000 0.000000
    30 3.013925 3.984634 -0.088975 -0.000001 0.000001 -1.849906
    31 -0.084188 -0.025627 -0.001098 0.000000 0.000000 0.000000
    32 4.778187 3.972486 -0.079803 -0.000001 0.000001 -1.849906
    33 -0.058556 -0.021324 0.004244 0.000000 0.000000 0.000000
    34 1.640598 -1.968779 -0.099219 -0.000001 0.000001 -1.849906
    35 0.055573 -0.028908 0.000000 0.000000 0.000000 0.000000
    36 1.646738 0.449549 -1.702246 -0.391617 1.092980 -0.290137
    37 0.928312 0.000000 -0.000002 0.000000 0.000000 0.000000
    38 0.928314 0.000000 0.000001 0.000000 0.000000 0.000000
    39 1.533672 0.109715 1.664491 -0.264755 -0.055959 0.783109
    40 0.928313 0.000000 0.000000 0.000000 0.000000 -0.453556
    41 0.928314 0.000000 0.000001 0.000000 0.000000 0.000000
  time 2
    0 0.235347 0.367732 3.528927 0.000000 0.000000 -1.570874
    1 0.000000 0.000000 0.000000 -1.570795 -1.570796 0.000000
    2 -0.000005 0.000007 3.713255 0.002054 3.115505 -0.021473
    3 18.045721 0.000000 0.000000 0.000000 0.000000 -0.121501
    4 17.597597 0.000000 0.000000 -0.002613 0.026036 0.099967
    5 0.000005 -0.000003 -3.713255 -0.002524 -3.124238 -0.024449
    6 18.045725 0.000000 0.000000 0.000000 0.000000 -0.127551
    7 17.597597 0.000000 0.000000 0.002950 -0.017289 0.103055
    8 1.293670 0.684478 -0.000001 -0.000004 -0.000001 -0.103866
    9 5.309685 -0.003834 0.000000 -0.268515 -0.032095 -0.116898
    10 4.826790 -0.004591 0.000000 -0.268747 -0.030009 -0.109328
    11 5.792767 -0.005304 0.000000 -0.139267 -0.008869 -0.063988
    12 6.662317 -0.001453 0.000000 0.000000 -0.000001 0.471000
    13 2.046985 -0.000002 0.000000 0.538235 0.256423 -0.250210
    14 -3.112024 1.517254 4.341911 1.126016 -1.113536 1.587274
    15 4.827230 0.000000 0.000001 -1.144538 -0.213220 -1.232157
    16 11.139763 0.000000 0.000000 0.000000 0.000000 -1.010613
    17 10.314597 0.000001 0.000000 -0.863718 0.363096 -0.290874
    18 2.975834 -0.386307 -0.044143 -0.011691 -0.042029 0.253187
    19 1.438886 0.000000 0.000000 0.000000 0.000000 0.741389
    20 1.485303 0.000000 0.000000 0.000000 0.000000 0.532034
    21 -2.869898 1.399663 -4.140396 -0.000013 1.364775 2.669783
    22 4.972048 0.000000 0.000001 1.028882 -0.585208 -1.746181
    23 11.585355 0.000000 0.000000 0.000000 0.000000 -1.837551
    24 10.127057 0.000000 0.000001 1.949416 -0.006416 0.977737
    25 2.683750 -0.427338 0.044205 -0.005786 0.043239 -0.157091
    26 1.438885 -0.000001 0.000000 0.000000 0.000000 0.732658
    27 1.485305 0.000001 0.000000 0.000000 0.000000 1.168770
    28 1.038631 0.548043 -0.144017 -0.000001 0.000001 -1.849906
    29 -0.064003 -0.023521 0.026161 0.000000 0.000000 0.000000
    30 3.013925 3.984634 -0.088975 -0.000001 0.000001 -1.849906
    31 -0.084188 -0.025627 -0.001098 0.000000 0.000000 0.000000
    32 4.778187 3.972486 -0.079803 -0.000001 0.000001 -1.849906
    33 -0.058556 -0.021324 0.004244 0.000000 0.000000 0.000000
    34 1.640598 -1.968779 -0.099219 -0.000001 0.000001 -1.849906
    35 0.055573 -0.028908 0.000000 0.000000 0.000000 0.000000
    36 1.646738 0.449549 -1.702246 -0.391617 1.092980 -0.290137
    37 0.928312 0.000000 -0.000002 0.000000 0.000000 0.000000
    38 0.928314 0.000000 0.000001 0.000000 0.000000 0.000000
    39 1.533672 0.109715 1.664491 -0.264755 -0.055959 0.783109
    40 0.928313 0.000000 0.000000 0.000000 0.000000 -0.453556
    41 0.928314 0.000000 0.000001 0.000000 0.000000 0.000000
  time 3
    0 0.235347 0.367732 3.528927 0.000000 0.000000 -1.570874
    1 0.000000 0.000000 0.000000 -1.570795 -1.570796 0.000000
    2 -0.000005 0.000007 3.713255 0.002054 3.115505 -0.021473
    3 18.045721 0.000000 0.000000 0.000000 0.000000 -0.121501
    4 17.597597 0.000000 0.000000 -0.002613 0.026036 0.099967
    5 0.000005 -0.000003 -3.713255 -0.002524 -3.124238 -0.024449
    6 18.045725 0.000000 0.000000 0.000000 0.000000 -0.127551
    7 17.597597 0.000000 0.000000 0.002950 -0.017289 0.103055
    8 1.293670 0.684478 -0.000001 -0.000004 -0.000001 -0.103866
    9 5.309685 -0.003834 0.000000 -0.268539 -0.031939 -0.116318
    10 4.826790 -0.004591 0.000000 -0.268747 -0.030009 -0.109328
    11 5.792767 -0.005304 0.000000 -0.139299 -0.008365 -0.060396
    12 6.662317 -0.001453 0.000000 0.000000 -0.000001 0.471000
    13 2.046985 -0.000002 0.000000 0.538278 0.256671 -0.254391
    14 -3.112024 1.517254 4.341911 1.114990 -1.110921 1.599546
    15 4.827230 0.000000 0.000001 -1.138136 -0.219262 -1.234345
    16 11.139763 0.000000 0.000000 0.000000 0.000000 -1.010613
    17 10.314597 0.000001 0.000000 -0.863718 0.363096 -0.290874
    18 2.975834 -0.386307 -0.044143 -0.011691 -0.042029 0.253187
    19 1.438886 0.000000 0.000000 0.000000 0.000000 0.741389
    20 1.485303 0.000000 0.000000 0.000000 0.000000 0.532034
    21 -2.869898 1.399663 -4.140396 -0.000013 1.360563 2.669783
    22 4.972048 0.000000 0.000001 1.023313 -0.581909 -1.743941
    23 11.585355 0.000000 0.000000 0.000000 0.000000 -1.837551
    24 10.127057 0.000000 0.000001 1.949416 -0.006416 0.977737
    25 2.683750 -0.427338 0.044205 -0.005786 0.043239 -0.157091
    26 1.438885 -0.000001 0.000000 0.000000 0.000000 0.732658
    27 1.485305 0.000001 0.000000 0.000000 0.000000 1.168770
    28 1.038631 0.548043 -0.144017 -0.000001 0.000001 -1.849906
    29 -0.064003 -0.023521 0.026161 0.000000 0.000000 0.000000
    30 3.013925 3.984634 -0.088975 -0.000001 0.000001 -1.849906
    31 -0.084188 -0.025627 -0.001098 0.000000 0.000000 0.000000
    32 4.778187 3.972486 -0.079803 -0.000001 0.000001 -1.849906
    33 -0.058556 -0.021324 0.004244 0.000000 0.000000 0.000000
    34 1.640598 -1.968779 -0.099219 -0.000001 0.000001 -1.849906
    35 0.055573 -0.028908 0.000000 0.000000 0.000000 0.000000
    36 1.646738 0.449549 -1.702246 -0.391617 1.092980 -0.290137
    37 0.928312 0.000000 -0.000002 0.000000 0.000000 0.000000
    38 0.928314 0.000000 0.000001 0.000000 0.000000 0.000000
    39 1.533672 0.109715 1.664491 -0.264755 -0.055959 0.783109
    40 0.928313 0.000000 0.000000 0.000000 0.000000 -0.453556
    41 0.928314 0.000000 0.000001 0.000000 0.000000 0.000000
  time 4
    0 0.235347 0.367732 3.528927 0.000000 0.000000 -1.570874
    1 0.000000 0.000000 0.000000 -1.570795 -1.570796 0.000000
    2 -0.000005 0.000007 3.713255 0.002054 3.115505 -0.021473
    3 18.045721 0.000000 0.000000 0.000000 0.000000 -0.121501
    4 17.597597 0.000000 0.000000 -0.002613 0.026036 0.099967
    5 0.000005 -0.000003 -3.713255 -0.002524 -3.124238 -0.024449
    6 18.045725 0.000000 0.000000 0.000000 0.000000 -0.127551
    7 17.597597 0.000000 0.000000 0.002950 -0.017289 0.103055
    8 1.293670 0.684478 -0.000001 -0.000004 -0.000001 -0.103866
    9 5.309685 -0.003834 0.000000 -0.268551 -0.031747 -0.115648
    10 4.826790 -0.004591 0.000000 -0.268747 -0.030009 -0.109328
    11 5.792767 -0.005304 0.000000 -0.139332 -0.007790 -0.056285
    12 6.662317 -0.001453 0.000000 0.000000 -0.000001 0.471000
    13 2.046985 -0.000002 0.000000 0.538278 0.256941 -0.259155
    14 -3.112024 1.517254 4.341911 1.102623 -1.107844 1.613448
    15 4.827230 0.000000 0.000001 -1.130735 -0.226155 -1.236882
    16 11.139763 0.000000 0.000000 0.000000 0.000000 -1.010613
    17 10.314597 0.000001 0.000000 -0.863718 0.363096 -0.290874
    18 2.975834 -0.386307 -0.044143 -0.011691 -0.042029 0.253187
    19 1.438886 0.000000 0.000000 0.000000 0.000000 0.741389
    20 1.485303 0.000000 0.000000 0.000000 0.000000 0.532034
    21 -2.869898 1.399663 -4.140396 -0.000013 1.355730 2.669783
    22 4.972048 0.000000 0.000001 1.017047 -0.578048 -1.741504
    23 11.585355 0.000000 0.000000 0.000000 0.000000 -1.837551
    24 10.127057 0.000000 0.000001 1.949416 -0.006416 0.977737
    25 2.683750 -0.427338 0.044205 -0.005786 0.043239 -0.157091
    26 1.438885 -0.000001 0.000000 0.000000 0.000000 0.732658
    27 1.485305 0.000001 0.000000 0.000000 0.000000 1.168770
    28 1.038631 0.548043 -0.144017 -0.000001 0.000001 -1.849906
    29 -0.064003 -0.023521 0.026161 0.000000 0.000000 0.000000
    30 3.013925 3.984634 -0.088975 -0.000001 0.000001 -1.849906
    31 -0.084188 -0.025627 -0.001098 0.000000 0.000000 0.000000
    32 4.778187 3.972486 -0.079803 -0.000001 0.000001 -1.849906
    33 -0.058556 -0.021324 0.004244 0.000000 0.000000 0.000000
    34 1.640598 -1.968779 -0.099219 -0.000001 0.000001 -1.849906
    35 0.055573 -0.028908 0.000000 0.000000 0.000000 0.000000
    36 1.646738 0.449549 -1.702246 -0.391617 1.092980 -0.290137
    37 0.928312 0.000000 -0.000002 0.000000 0.000000 0.000000
    38 0.928314 0.000000 0.000001 0.000000 0.000000 0.000000
    39 1.533672 0.109715 1.664491 -0.264755 -0.055959 0.783109
    40 0.928313 0.000000 0.000000 0.000000 0.000000 -0.453556
    41 0.928314 0.000000 0.000001 0.000000 0.000000 0.000000
  time 5
    0 0.235347 0.367732 3.528927 0.000000 0.000000 -1.570874
    1 0.000000 0.000000 0.000000 -1.570795 -1.570796 0.000000
    2 -0.000005 0.000007 3.713255 0.002054 3.115505 -0.021473
    3 18.045721 0.000000 0.000000 0.000000 0.000000 -0.121501
    4 17.597597 0.000000 0.000000 -0.002613 0.026036 0.099967
    5 0.000005 -0.000003 -3.713255 -0.002524 -3.124238 -0.024449
    6 18.045725 0.000000 0.000000 0.000000 0.000000 -0.127551
    7 17.597597 0.000000 0.000000 0.002950 -0.017289 0.103055
    8 1.293670 0.684478 -0.000001 -0.000004 -0.000001 -0.103866
    9 5.309685 -0.003834 0.000000 -0.268576 -0.031555 -0.114924
    10 4.826790 -0.004591 0.000000 -0.268747 -0.030009 -0.109328
    11 5.792767 -0.005304 0.000000 -0.139364 -0.007155 -0.051821
    12 6.662317 -0.001453 0.000000 0.000000 -0.000001 0.471000
    13 2.046985 -0.000002 0.000000 0.538321 0.257234 -0.264324
    14 -3.112024 1.517254 4.341911 1.089200 -1.104382 1.628405
    15 4.827230 0.000000 0.000001 -1.122688 -0.233729 -1.239858
    16 11.139763 0.000000 0.000000 0.000000 0.000000 -1.010613
    17 10.314597 0.000001 0.000000 -0.863718 0.363096 -0.290874
    18 2.975834 -0.386307 -0.044143 -0.011691 -0.042029 0.253187
    19 1.438886 0.000000 0.000000 0.000000 0.000000 0.741389
    20 1.485303 0.000000 0.000000 0.000000 0.000000 0.532034
    21 -2.869898 1.399663 -4.140396 -0.000013 1.350445 2.669783
    22 4.972048 0.000000 0.000001 1.010162 -0.573865 -1.738803
    23 11.585355 0.000000 0.000000 0.000000 0.000000 -1.837551
    24 10.127057 0.000000 0.000001 1.949416 -0.006416 0.977737
    25 2.683750 -0.427338 0.044205 -0.005786 0.043239 -0.157091
    26 1.438885 -0.000001 0.000000 0.000000 0.000000 0.732658
    27 1.485305 0.000001 0.000000 0.000000 0.000000 1.168770
    28 1.038631 0.548043 -0.144017 -0.000001 0.000001 -1.849906
    29 -0.064003 -0.023521 0.026161 0.000000 0.000000 0.000000
    30 3.013925 3.984634 -0.088975 -0.000001 0.000001 -1.849906
    31 -0.084188 -0.025627 -0.001098 0.000000 0.000000 0.000000
    32 4.778187 3.972486 -0.079803 -0.000001 0.000001 -1.849906
    33 -0.058556 -0.021324 0.004244 0.000000 0.000000 0.000000
    34 1.640598 -1.968779 -0.099219 -0.000001 0.000001 -1.849906
    35 0.055573 -0.028908 0.000000 0.000000 0.000000 0.000000
    36 1.646738 0.449549 -1.702246 -0.391617 1.092980 -0.290137
    37 0.928312 0.000000 -0.000002 0.000000 0.000000 0.000000
    38 0.928314 0.000000 0.000001 0.000000 0.000000 0.000000
    39 1.533672 0.109715 1.664491 -0.264755 -0.055959 0.783109
    40 0.928313 0.000000 0.000000 0.000000 0.000000 -0.453556
    41 0.928314 0.000000 0.000001 0.000000 0.000000 0.000000
  time 6
    0 0.235347 0.367732 3.528927 0.000000 0.000000 -1.570874
    1 0.000000 0.000000 0.000000 -1.570795 -1.570796 0.000000
    2 -0.000005 0.000007 3.713255 0.002054 3.115505 -0.021473
    3 18.045721 0.000000 0.000000 0.000000 0.000000 -0.121501
    4 17.597597 0.000000 0.000000 -0.002613 0.026036 0.099967
    5 0.000005 -0.000003 -3.713255 -0.002524 -3.124238 -0.024449
    6 18.045725 0.000000 0.000000 0.000000 0.000000 -0.127551
    7 17.597597 0.000000 0.000000 0.002950 -0.017289 0.103055
    8 1.293670 0.684478 -0.000001 -0.000004 -0.000001 -0.103866
    9 5.309685 -0.003834 0.000000 -0.268600 -0.031340 -0.114163
    10 4.826790 -0.004591 0.000000 -0.268747 -0.030009 -0.109328
    11 5.792767 -0.005304 0.000000 -0.139397 -0.006496 -0.047128
    12 6.662317 -0.001453 0.000000 0.000000 -0.000001 0.471000
    13 2.046985 -0.000002 0.000000 0.538321 0.257549 -0.269808
    14 -3.112024 1.517254 4.341911 1.075395 -1.100689 1.643841
    15 4.827230 0.000000 0.000001 -1.114171 -0.241559 -1.243008
    16 11.139763 0.000000 0.000000 0.000000 0.000000 -1.010613
    17 10.314597 0.000001 0.000000 -0.863718 0.363096 -0.290874
    18 2.975834 -0.386307 -0.044143 -0.011691 -0.042029 0.253187
    19 1.438886 0.000000 0.000000 0.000000 0.000000 0.741389
    20 1.485303 0.000000 0.000000 0.000000 0.000000 0.532034
    21 -2.869898 1.399663 -4.140396 -0.000013 1.344933 2.669783
    22 4.972048 0.000000 0.000001 1.002968 -0.569441 -1.736102
    23 11.585355 0.000000 0.000000 0.000000 0.000000 -1.837551
    24 10.127057 0.000000 0.000001 1.949416 -0.006416 0.977737
    25 2.683750 -0.427338 0.044205 -0.005786 0.043239 -0.157091
    26 1.438885 -0.000001 0.000000 0.000000 0.000000 0.732658
    27 1.485305 0.000001 0.000000 0.000000 0.000000 1.168770
    28 1.038631 0.548043 -0.144017 -0.000001 0.000001 -1.849906
    29 -0.064003 -0.023521 0.026161 0.000000 0.000000 0.000000
    30 3.013925 3.984634 -0.088975 -0.000001 0.000001 -1.849906
    31 -0.084188 -0.025627 -0.001098 0.000000 0.000000 0.000000
    32 4.778187 3.972486 -0.079803 -0.000001 0.000001 -1.849906
    33 -0.058556 -0.021324 0.004244 0.000000 0.000000 0.000000
    34 1.640598 -1.968779 -0.099219 -0.000001 0.000001 -1.849906
    35 0.055573 -0.028908 0.000000 0.000000 0.000000 0.000000
    36 1.646738 0.449549 -1.702246 -0.391617 1.092980 -0.290137
    37 0.928312 0.000000 -0.000002 0.000000 0.000000 0.000000
    38 0.928314 0.000000 0.000001 0.000000 0.000000 0.000000
    39 1.533672 0.109715 1.664491 -0.264755 -0.055959 0.783109
    40 0.928313 0.000000 0.000000 0.000000 0.000000 -0.453556
    41 0.928314 0.000000 0.000001 0.000000 0.000000 0.000000
  time 7
    0 0.235347 0.367732 3.528927 0.000000 0.000000 -1.570874
    1 0.000000 0.000000 0.000000 -1.570795 -1.570796 0.000000
    2 -0.000005 0.000007 3.713255 0.002054 3.115505 -0.021473
    3 18.045721 0.000000 0.000000 0.000000 0.000000 -0.121501
    4 17.597597 0.000000 0.000000 -0.002613 0.026036 0.099967
    5 0.000005 -0.000003 -3.713255 -0.002524 -3.124238 -0.024449
    6 18.045725 0.000000 0.000000 0.000000 0.000000 -0.127551
    7 17.597597 0.000000 0.000000 0.002950 -0.017289 0.103055
    8 1.293670 0.684478 -0.000001 -0.000004 -0.000001 -0.103866
    9 5.309685 -0.003834 0.000000 -0.268625 -0.031124 -0.113384
    10 4.826790 -0.004591 0.000000 -0.268747 -0.030009 -0.109328
    11 5.792767 -0.005304 0.000000 -0.139430 -0.005825 -0.042332
    12 6.662317 -0.001453 0.000000 0.000000 -0.000001 0.471000
    13 2.046985 -0.000002 0.000000 0.538364 0.257864 -0.275381
    14 -3.112024 1.517254 4.341911 1.061589 -1.096804 1.659373
    15 4.827230 0.000000 0.000001 -1.105420 -0.249473 -1.246334
    16 11.139763 0.000000 0.000000 0.000000 0.000000 -1.010613
    17 10.314597 0.000001 0.000000 -0.863718 0.363096 -0.290874
    18 2.975834 -0.386307 -0.044143 -0.011691 -0.042029 0.253187
    19 1.438886 0.000000 0.000000 0.000000 0.000000 0.741389
    20 1.485303 0.000000 0.000000 0.000000 0.000000 0.532034
    21 -2.869898 1.399663 -4.140396 -0.000013 1.339281 2.669783
    22 4.972048 0.000000 0.000001 0.995697 -0.565017 -1.733401
    23 11.585355 0.000000 0.000000 0.000000 0.000000 -1.837551
    24 10.127057 0.000000 0.000001 1.949416 -0.006416 0.977737
    25 2.683750 -0.427338 0.044205 -0.005786 0.043239 -0.157091
    26 1.438885 -0.000001 0.000000 0.000000 0.000000 0.732658
    27 1.485305 0.000001 0.000000 0.000000 0.000000 1.168770
    28 1.038631 0.548043 -0.144017 -0.000001 0.000001 -1.849906
    29 -0.064003 -0.023521 0.026161 0.000000 0.000000 0.000000
    30 3.013925 3.984634 -0.088975 -0.000001 0.000001 -1.849906
    31 -0.084188 -0.025627 -0.001098 0.000000 0.000000 0.000000
    32 4.778187 3.972486 -0.079803 -0.000001 0.000001 -1.849906
    33 -0.058556 -0.021324 0.004244 0.000000 0.000000 0.000000
    34 1.640598 -1.968779 -0.099219 -0.000001 0.000001 -1.849906
    35 0.055573 -0.028908 0.000000 0.000000 0.000000 0.000000
    36 1.646738 0.449549 -1.702246 -0.391617 1.092980 -0.290137
    37 0.928312 0.000000 -0.000002 0.000000 0.000000 0.000000
    38 0.928314 0.000000 0.000001 0.000000 0.000000 0.000000
    39 1.533672 0.109715 1.664491 -0.264755 -0.055959 0.783109
    40 0.928313 0.000000 0.000000 0.000000 0.000000 -0.453556
    41 0.928314 0.000000 0.000001 0.000000 0.000000 0.000000
  time 8
    0 0.235347 0.367732 3.528927 0.000000 0.000000 -1.570874
    1 0.000000 0.000000 0.000000 -1.570795 -1.570796 0.000000
    2 -0.000005 0.000007 3.713255 0.002054 3.115505 -0.021473
    3 18.045721 0.000000 0.000000 0.000000 0.000000 -0.121501
    4 17.597597 0.000000 0.000000 -0.002613 0.026036 0.099967
    5 0.000005 -0.000003 -3.713255 -0.002524 -3.124238 -0.024449
    6 18.045725 0.000000 0.000000 0.000000 0.000000 -0.127551
    7 17.597597 0.000000 0.000000 0.002950 -0.017289 0.103055
    8 1.293670 0.684478 -0.000001 -0.000004 -0.000001 -0.103866
    9 5.309685 -0.003834 0.000000 -0.268649 -0.030920 -0.112624
    10 4.826790 -0.004591 0.000000 -0.268747 -0.030009 -0.109328
    11 5.792767 -0.005304 0.000000 -0.139446 -0.005165 -0.037577
    12 6.662317 -0.001453 0.000000 0.000000 -0.000001 0.471000
    13 2.046985 -0.000002 0.000000 0.538364 0.258179 -0.280865
    14 -3.112024 1.517254 4.341911 1.048071 -1.092880 1.674521
    15 4.827230 0.000000 0.000001 -1.096727 -0.257387 -1.249747
    16 11.139763 0.000000 0.000000 0.000000 0.000000 -1.010613
    17 10.314597 0.000001 0.000000 -0.863718 0.363096 -0.290874
    18 2.975834 -0.386307 -0.044143 -0.011691 -0.042029 0.253187
    19 1.438886 0.000000 0.000000 0.000000 0.000000 0.741389
    20 1.485303 0.000000 0.000000 0.000000 0.000000 0.532034
    21 -2.869898 1.399663 -4.140396 -0.000013 1.333684 2.669783
    22 4.972048 0.000000 0.000001 0.988503 -0.560512 -1.730832
    23 11.585355 0.000000 0.000000 0.000000 0.000000 -1.837551
    24 10.127057 0.000000 0.000001 1.949416 -0.006416 0.977737
    25 2.683750 -0.427338 0.044205 -0.005786 0.043239 -0.157091
    26 1.438885 -0.000001 0.000000 0.000000 0.000000 0.732658
    27 1.485305 0.000001 0.000000 0.000000 0.000000 1.168770
    28 1.038631 0.548043 -0.144017 -0.000001 0.000001 -1.849906
    29 -0.064003 -0.023521 0.026161 0.000000 0.000000 0.000000
    30 3.013925 3.984634 -0.088975 -0.000001 0.000001 -1.849906
    31 -0.084188 -0.025627 -0.001098 0.000000 0.000000 0.000000
    32 4.778187 3.972486 -0.079803 -0.000001 0.000001 -1.849906
    33 -0.058556 -0.021324 0.004244 0.000000 0.000000 0.000000
    34 1.640598 -1.968779 -0.099219 -0.000001 0.000001 -1.849906
    35 0.055573 -0.028908 0.000000 0.000000 0.000000 0.000000
    36 1.646738 0.449549 -1.702246 -0.391617 1.092980 -0.290137
    37 0.928312 0.000000 -0.000002 0.000000 0.000000 0.000000
    38 0.928314 0.000000 0.000001 0.000000 0.000000 0.000000
    39 1.533672 0.109715 1.664491 -0.264755 -0.055959 0.783109
    40 0.928313 0.000000 0.000000 0.000000 0.000000 -0.453556
    41 0.928314 0.000000 0.000001 0.000000 0.000000 0.000000
  time 9
    0 0.235347 0.367732 3.528927 0.000000 0.000000 -1.570874
    1 0.000000 0.000000 0.000000 -1.570795 -1.570796 0.000000
    2 -0.000005 0.000007 3.713255 0.002054 3.115505 -0.021473
    3 18.045721 0.000000 0.000000 0.000000 0.000000 -0.121501
    4 17.597597 0.000000 0.000000 -0.002613 0.026036 0.099967
    5 0.000005 -0.000003 -3.713255 -0.002524 -3.124238 -0.024449
    6 18.045725 0.000000 0.000000 0.000000 0.000000 -0.127551
    7 17.597597 0.000000 0.000000 0.002950 -0.017289 0.103055
    8 1.293670 0.684478 -0.000001 -0.000004 -0.000001 -0.103866
    9 5.309685 -0.003834 0.000000 -0.268674 -0.030717 -0.111881
    10 4.826790 -0.004591 0.000000 -0.268747 -0.030009 -0.109328
    11 5.792767 -0.005304 0.000000 -0.139479 -0.004518 -0.033030
    12 6.662317 -0.001453 0.000000 0.000000 -0.000001 0.471000
    13 2.046985 -0.000002 0.000000 0.538407 0.258494 -0.286169
    14 -3.112024 1.517254 4.341911 1.035416 -1.088995 1.688902
    15 4.827230 0.000000 0.000001 -1.088327 -0.264876 -1.253159
    16 11.139763 0.000000 0.000000 0.000000 0.000000 -1.010613
    17 10.314597 0.000001 0.000000 -0.863718 0.363096 -0.290874
    18 2.975834 -0.386307 -0.044143 -0.011691 -0.042029 0.253187
    19 1.438886 0.000000 0.000000 0.000000 0.000000 0.741389
    20 1.485303 0.000000 0.000000 0.000000 0.000000 0.532034
    21 -2.869898 1.399663 -4.140396 -0.000013 1.328314 2.669783
    22 4.972048 0.000000 0.000001 0.981696 -0.556249 -1.728461
    23 11.585355 0.000000 0.000000 0.000000 0.000000 -1.837551
    24 10.127057 0.000000 0.000001 1.949416 -0.006416 0.977737
    25 2.683750 -0.427338 0.044205 -0.005786 0.043239 -0.157091
    26 1.438885 -0.000001 0.000000 0.000000 0.000000 0.732658
    27 1.485305 0.000001 0.000000 0.000000 0.000000 1.168770
    28 1.038631 0.548043 -0.144017 -0.000001 0.000001 -1.849906
    29 -0.064003 -0.023521 0.026161 0.000000 0.000000 0.000000
    30 3.013925 3.984634 -0.088975 -0.000001 0.000001 -1.849906
    31 -0.084188 -0.025627 -0.001098 0.000000 0.000000 0.000000
    32 4.778187 3.972486 -0.079803 -0.000001 0.000001 -1.849906
    33 -0.058556 -0.021324 0.004244 0.000000 0.000000 0.000000
    34 1.640598 -1.968779 -0.099219 -0.000001 0.000001 -1.849906
    35 0.055573 -0.028908 0.000000 0.000000 0.000000 0.000000
    36 1.646738 0.449549 -1.702246 -0.391617 1.092980 -0.290137
    37 0.928312 0.000000 -0.000002 0.000000 0.000000 0.000000
    38 0.928314 0.000000 0.000001 0.000000 0.000000 0.000000
    39 1.533672 0.109715 1.664491 -0.264755 -0.055959 0.783109
    40 0.928313 0.000000 0.000000 0.000000 0.000000 -0.453556
    41 0.928314 0.000000 0.000001 0.000000 0.000000 0.000000
  time 10
    0 0.235347 0.367732 3.528927 0.000000 0.000000 -1.570874
    1 0.000000 0.000000 0.000000 -1.570795 -1.570796 0.000000
    2 -0.000005 0.000007 3.713255 0.002054 3.115505 -0.021473
    3 18.045721 0.000000 0.000000 0.000000 0.000000 -0.121501
    4 17.597597 0.000000 0.000000 -0.002613 0.026036 0.099967
    5 0.000005 -0.000003 -3.713255 -0.002524 -3.124238 -0.024449
    6 18.045725 0.000000 0.000000 0.000000 0.000000 -0.127551
    7 17.597597 0.000000 0.000000 0.002950 -0.017289 0.103055
    8 1.293670 0.684478 -0.000001 -0.000004 -0.000001 -0.103866
    9 5.309685 -0.003834 0.000000 -0.268698 -0.030525 -0.111193
    10 4.826790 -0.004591 0.000000 -0.268747 -0.030009 -0.109328
    11 5.792767 -0.005304 0.000000 -0.139495 -0.003931 -0.028795
    12 6.662317 -0.001453 0.000000 0.000000 -0.000001 0.471000
    13 2.046985 -0.000002 0.000000 0.538407 0.258765 -0.291113
    14 -3.112024 1.517254 4.341911 1.023719 -1.085302 1.702037
    15 4.827230 0.000000 0.000001 -1.080457 -0.271854 -1.256485
    16 11.139763 0.000000 0.000000 0.000000 0.000000 -1.010613
    17 10.314597 0.000001 0.000000 -0.863718 0.363096 -0.290874
    18 2.975834 -0.386307 -0.044143 -0.011691 -0.042029 0.253187
    19 1.438886 0.000000 0.000000 0.000000 0.000000 0.741389
    20 1.485303 0.000000 0.000000 0.000000 0.000000 0.532034
    21 -2.869898 1.399663 -4.140396 -0.000013 1.323311 2.669783
    22 4.972048 0.000000 0.000001 0.975275 -0.552227 -1.726287
    23 11.585355 0.000000 0.000000 0.000000 0.000000 -1.837551
    24 10.127057 0.000000 0.000001 1.949416 -0.006416 0.977737
    25 2.683750 -0.427338 0.044205 -0.005786 0.043239 -0.157091
    26 1.438885 -0.000001 0.000000 0.000000 0.000000 0.732658
    27 1.485305 0.000001 0.000000 0.000000 0.000000 1.168770
    28 1.038631 0.548043 -0.144017 -0.000001 0.000001 -1.849906
    29 -0.064003 -0.023521 0.026161 0.000000 0.000000 0.000000
    30 3.013925 3.984634 -0.088975 -0.000001 0.000001 -1.849906
    31 -0.084188 -0.025627 -0.001098 0.000000 0.000000 0.000000
    32 4.778187 3.972486 -0.079803 -0.000001 0.000001 -1.849906
    33 -0.058556 -0.021324 0.004244 0.000000 0.000000 0.000000
    34 1.640598 -1.968779 -0.099219 -0.000001 0.000001 -1.849906
    35 0.055573 -0.028908 0.000000 0.000000 0.000000 0.000000
    36 1.646738 0.449549 -1.702246 -0.391617 1.092980 -0.290137
    37 0.928312 0.000000 -0.000002 0.000000 0.000000 0.000000
    38 0.928314 0.000000 0.000001 0.000000 0.000000 0.000000
    39 1.533672 0.109715 1.664491 -0.264755 -0.055959 0.783109
    40 0.928313 0.000000 0.000000 0.000000 0.000000 -0.453556
    41 0.928314 0.000000 0.000001 0.000000 0.000000 0.000000
  time 11
    0 0.235347 0.367732 3.528927 0.000000 0.000000 -1.570874
    1 0.000000 0.000000 0.000000 -1.570795 -1.570796 0.000000
    2 -0.000005 0.000007 3.713255 0.002054 3.115505 -0.021473
    3 18.045721 0.000000 0.000000 0.000000 0.000000 -0.121501
    4 17.597597 0.000000 0.000000 -0.002613 0.026036 0.099967
    5 0.000005 -0.000003 -3.713255 -0.002524 -3.124238 -0.024449
    6 18.045725 0.000000 0.000000 0.000000 0.000000 -0.127551
    7 17.597597 0.000000 0.000000 0.002950 -0.017289 0.103055
    8 1.293670 0.684478 -0.000001 -0.000004 -0.000001 -0.103866
    9 5.309685 -0.003834 0.000000 -0.268710 -0.030357 -0.110578
    10 4.826790 -0.004591 0.000000 -0.268747 -0.030009 -0.109328
    11 5.792767 -0.005304 0.000000 -0.139511 -0.003392 -0.025016
    12 6.662317 -0.001453 0.000000 0.000000 -0.000001 0.471000
    13 2.046985 -0.000002 0.000000 0.538450 0.259035 -0.295518
    14 -3.112024 1.517254 4.341911 1.013556 -1.081994 1.713638
    15 4.827230 0.000000 0.000001 -1.073467 -0.277982 -1.259460
    16 11.139763 0.000000 0.000000 0.000000 0.000000 -1.010613
    17 10.314597 0.000001 0.000000 -0.863718 0.363096 -0.290874
    18 2.975834 -0.386307 -0.044143 -0.011691 -0.042029 0.253187
    19 1.438886 0.000000 0.000000 0.000000 0.000000 0.741389
    20 1.485303 0.000000 0.000000 0.000000 0.000000 0.532034
    21 -2.869898 1.399663 -4.140396 -0.000013 1.318874 2.669783
    22 4.972048 0.000000 0.000001 0.969706 -0.548687 -1.724377
    23 11.585355 0.000000 0.000000 0.000000 0.000000 -1.837551
    24 10.127057 0.000000 0.000001 1.949416 -0.006416 0.977737
    25 2.683750 -0.427338 0.044205 -0.005786 0.043239 -0.157091
    26 1.438885 -0.000001 0.000000 0.000000 0.000000 0.732658
    27 1.485305 0.000001 0.000000 0.000000 0.000000 1.168770
    28 1.038631 0.548043 -0.144017 -0.000001 0.000001 -1.849906
    29 -0.064003 -0.023521 0.026161 0.000000 0.000000 0.000000
    30 3.013925 3.984634 -0.088975 -0.000001 0.000001 -1.849906
    31 -0.084188 -0.025627 -0.001098 0.000000 0.000000 0.000000
    32 4.778187 3.972486 -0.079803 -0.000001 0.000001 -1.849906
    33 -0.058556 -0.021324 0.004244 0.000000 0.000000 0.000000
    34 1.640598 -1.968779 -0.099219 -0.000001 0.000001 -1.849906
    35 0.055573 -0.028908 0.000000 0.000000 0.000000 0.000000
    36 1.646738 0.449549 -1.702246 -0.391617 1.092980 -0.290137
    37 0.928312 0.000000 -0.000002 0.000000 0.000000 0.000000
    38 0.928314 0.000000 0.000001 0.000000 0.000000 0.000000
    39 1.533672 0.109715 1.664491 -0.264755 -0.055959 0.783109
    40 0.928313 0.000000 0.000000 0.000000 0.000000 -0.453556
    41 0.928314 0.000000 0.000001 0.000000 0.000000 0.000000
  time 12
    0 0.235347 0.367732 3.528927 0.000000 0.000000 -1.570874
    1 0.000000 0.000000 0.000000 -1.570795 -1.570796 0.000000
    2 -0.000005 0.000007 3.713255 0.002054 3.115505 -0.021473
    3 18.045721 0.000000 0.000000 0.000000 0.000000 -0.121501
    4 17.597597 0.000000 0.000000 -0.002613 0.026036 0.099967
    5 0.000005 -0.000003 -3.713255 -0.002524 -3.124238 -0.024449
    6 18.045725 0.000000 0.000000 0.000000 0.000000 -0.127551
    7 17.597597 0.000000 0.000000 0.002950 -0.017289 0.103055
    8 1.293670 0.684478 -0.000001 -0.000004 -0.000001 -0.103866
    9 5.309685 -0.003834 0.000000 -0.268735 -0.030213 -0.110070
    10 4.826790 -0.004591 0.000000 -0.268747 -0.030009 -0.109328
    11 5.792767 -0.005304 0.000000 -0.139511 -0.002948 -0.021839
    12 6.662317 -0.001453 0.000000 0.000000 -0.000001 0.471000
    13 2.046985 -0.000002 0.000000 0.538450 0.259237 -0.299203
    14 -3.112024 1.517254 4.341911 1.005024 -1.079148 1.723226
    15 4.827230 0.000000 0.000001 -1.067476 -0.283173 -1.261998
    16 11.139763 0.000000 0.000000 0.000000 0.000000 -1.010613
    17 10.314597 0.000001 0.000000 -0.863718 0.363096 -0.290874
    18 2.975834 -0.386307 -0.044143 -0.011691 -0.042029 0.253187
    19 1.438886 0.000000 0.000000 0.000000 0.000000 0.741389
    20 1.485303 0.000000 0.000000 0.000000 0.000000 0.532034
    21 -2.869898 1.399663 -4.140396 -0.000013 1.315115 2.669783
    22 4.972048 0.000000 0.000001 0.964910 -0.545631 -1.722796
    23 11.585355 0.000000 0.000000 0.000000 0.000000 -1.837551
    24 10.127057 0.000000 0.000001 1.949416 -0.006416 0.977737
    25 2.683750 -0.427338 0.044205 -0.005786 0.043239 -0.157091
    26 1.438885 -0.000001 0.000000 0.000000 0.000000 0.732658
    27 1.485305 0.000001 0.000000 0.000000 0.000000 1.168770
    28 1.038631 0.548043 -0.144017 -0.000001 0.000001 -1.849906
    29 -0.064003 -0.023521 0.026161 0.000000 0.000000 0.000000
    30 3.013925 3.984634 -0.088975 -0.000001 0.000001 -1.849906
    31 -0.084188 -0.025627 -0.001098 0.000000 0.000000 0.000000
    32 4.778187 3.972486 -0.079803 -0.000001 0.000001 -1.849906
    33 -0.058556 -0.021324 0.004244 0.000000 0.000000 0.000000
    34 1.640598 -1.968779 -0.099219 -0.000001 0.000001 -1.849906
    35 0.055573 -0.028908 0.000000 0.000000 0.000000 0.000000
    36 1.646738 0.449549 -1.702246 -0.391617 1.092980 -0.290137
    37 0.928312 0.000000 -0.000002 0.000000 0.000000 0.000000
    38 0.928314 0.000000 0.000001 0.000000 0.000000 0.000000
    39 1.533672 0.109715 1.664491 -0.264755 -0.055959 0.783109
    40 0.928313 0.000000 0.000000 0.000000 0.000000 -0.453556
    41 0.928314 0.000000 0.000001 0.000000 0.000000 0.000000
  time 13
    0 0.235347 0.367732 3.528927 0.000000 0.000000 -1.570874
    1 0.000000 0.000000 0.000000 -1.570795 -1.570796 0.000000
    2 -0.000005 0.000007 3.713255 0.002054 3.115505 -0.021473
    3 18.045721 0.000000 0.000000 0.000000 0.000000 -0.121501
    4 17.597597 0.000000 0.000000 -0.002613 0.026036 0.099967
    5 0.000005 -0.000003 -3.713255 -0.002524 -3.124238 -0.024449
    6 18.045725 0.000000 0.000000 0.000000 0.000000 -0.127551
    7 17.597597 0.000000 0.000000 0.002950 -0.017289 0.103055
    8 1.293670 0.684478 -0.000001 -0.000004 -0.000001 -0.103866
    9 5.309685 -0.003834 0.000000 -0.268747 -0.030105 -0.109672
    10 4.826790 -0.004591 0.000000 -0.268747 -0.030009 -0.109328
    11 5.792767 -0.005304 0.000000 -0.139528 -0.002613 -0.019389
    12 6.662317 -0.001453 0.000000 0.000000 -0.000001 0.471000
    13 2.046985 -0.000002 0.000000 0.538493 0.259395 -0.302035
    14 -3.112024 1.517254 4.341911 0.998600 -1.076917 1.730513
    15 4.827230 0.000000 0.000001 -1.062895 -0.287087 -1.264011
    16 11.139763 0.000000 0.000000 0.000000 0.000000 -1.010613
    17 10.314597 0.000001 0.000000 -0.863718 0.363096 -0.290874
    18 2.975834 -0.386307 -0.044143 -0.011691 -0.042029 0.253187
    19 1.438886 0.000000 0.000000 0.000000 0.000000 0.741389
    20 1.485303 0.000000 0.000000 0.000000 0.000000 0.532034
    21 -2.869898 1.399663 -4.140396 -0.000013 1.312260 2.669783
    22 4.972048 0.000000 0.000001 0.961352 -0.543298 -1.721676
    23 11.585355 0.000000 0.000000 0.000000 0.000000 -1.837551
    24 10.127057 0.000000 0.000001 1.949416 -0.006416 0.977737
    25 2.683750 -0.427338 0.044205 -0.005786 0.043239 -0.157091
    26 1.438885 -0.000001 0.000000 0.000000 0.000000 0.732658
    27 1.485305 0.000001 0.000000 0.000000 0.000000 1.168770
    28 1.038631 0.548043 -0.144017 -0.000001 0.000001 -1.849906
    29 -0.064003 -0.023521 0.026161 0.000000 0.000000 0.000000
    30 3.013925 3.984634 -0.088975 -0.000001 0.000001 -1.849906
    31 -0.084188 -0.025627 -0.001098 0.000000 0.000000 0.000000
    32 4.778187 3.972486 -0.079803 -0.000001 0.000001 -1.849906
    33 -0.058556 -0.021324 0.004244 0.000000 0.000000 0.000000
    34 1.640598 -1.968779 -0.099219 -0.000001 0.000001 -1.849906
    35 0.055573 -0.028908 0.000000 0.000000 0.000000 0.000000
    36 1.646738 0.449549 -1.702246 -0.391617 1.092980 -0.290137
    37 0.928312 0.000000 -0.000002 0.000000 0.000000 0.000000
    38 0.928314 0.000000 0.000001 0.000000 0.000000 0.000000
    39 1.533672 0.109715 1.664491 -0.264755 -0.055959 0.783109
    40 0.928313 0.000000 0.000000 0.000000 0.000000 -0.453556
    41 0.928314 0.000000 0.000001 0.000000 0.000000 0.000000
  time 14
    0 0.235347 0.367732 3.528927 0.000000 0.000000 -1.570874
    1 0.000000 0.000000 0.000000 -1.570795 -1.570796 0.000000
    2 -0.000005 0.000007 3.713255 0.002054 3.115505 -0.021473
    3 18.045721 0.000000 0.000000 0.000000 0.000000 -0.121501
    4 17.597597 0.000000 0.000000 -0.002613 0.026036 0.099967
    5 0.000005 -0.000003 -3.713255 -0.002524 -3.124238 -0.024449
    6 18.045725 0.000000 0.000000 0.000000 0.000000 -0.127551
    7 17.597597 0.000000 0.000000 0.002950 -0.017289 0.103055
    8 1.293670 0.684478 -0.000001 -0.000004 -0.000001 -0.103866
    9 5.309685 -0.003834 0.000000 -0.268747 -0.030033 -0.109419
    10 4.826790 -0.004591 0.000000 -0.268747 -0.030009 -0.109328
    11 5.792767 -0.005304 0.000000 -0.139528 -0.002385 -0.017832
    12 6.662317 -0.001453 0.000000 0.000000 -0.000001 0.471000
    13 2.046985 -0.000002 0.000000 0.538493 0.259508 -0.303878
    14 -3.112024 1.517254 4.341911 0.994478 -1.075494 1.735210
    15 4.827230 0.000000 0.000001 -1.059958 -0.289641 -1.265324
    16 11.139763 0.000000 0.000000 0.000000 0.000000 -1.010613
    17 10.314597 0.000001 0.000000 -0.863718 0.363096 -0.290874
    18 2.975834 -0.386307 -0.044143 -0.011691 -0.042029 0.253187
    19 1.438886 0.000000 0.000000 0.000000 0.000000 0.741389
    20 1.485303 0.000000 0.000000 0.000000 0.000000 0.532034
    21 -2.869898 1.399663 -4.140396 -0.000013 1.310395 2.669783
    22 4.972048 0.000000 0.000001 0.959031 -0.541850 -1.720886
    23 11.585355 0.000000 0.000000 0.000000 0.000000 -1.837551
    24 10.127057 0.000000 0.000001 1.949416 -0.006416 0.977737
    25 2.683750 -0.427338 0.044205 -0.005786 0.043239 -0.157091
    26 1.438885 -0.000001 0.000000 0.000000 0.000000 0.732658
    27 1.485305 0.000001 0.000000 0.000000 0.000000 1.168770
    28 1.038631 0.548043 -0.144017 -0.000001 0.000001 -1.849906
    29 -0.064003 -0.023521 0.026161 0.000000 0.000000 0.000000
    30 3.013925 3.984634 -0.088975 -0.000001 0.000001 -1.849906
    31 -0.084188 -0.025627 -0.001098 0.000000 0.000000 0.000000
    32 4.778187 3.972486 -0.079803 -0.000001 0.000001 -1.849906
    33 -0.058556 -0.021324 0.004244 0.000000 0.000000 0.000000
    34 1.640598 -1.968779 -0.099219 -0.000001 0.000001 -1.849906
    35 0.055573 -0.028908 0.000000 0.000000 0.000000 0.000000
    36 1.646738 0.449549 -1.702246 -0.391617 1.092980 -0.290137
    37 0.928312 0.000000 -0.000002 0.000000 0.000000 0.000000
    38 0.928314 0.000000 0.000001 0.000000 0.000000 0.000000
    39 1.533672 0.109715 1.664491 -0.264755 -0.055959 0.783109
    40 0.928313 0.000000 0.000000 0.000000 0.000000 -0.453556
    41 0.928314 0.000000 0.000001 0.000000 0.000000 0.000000
  time 15
    0 0.235347 0.367732 3.528927 0.000000 0.000000 -1.570874
    1 0.000000 0.000000 0.000000 -1.570795 -1.570796 0.000000
    2 -0.000005 0.000007 3.713255 0.002054 3.115505 -0.021473
    3 18.045721 0.000000 0.000000 0.000000 0.000000 -0.121501
    4 17.597597 0.000000 0.000000 -0.002613 0.026036 0.099967
    5 0.000005 -0.000003 -3.713255 -0.002524 -3.124238 -0.024449
    6 18.045725 0.000000 0.000000 0.000000 0.000000 -0.127551
    7 17.597597 0.000000 0.000000 0.002950 -0.017289 0.103055
    8 1.293670 0.684478 -0.000001 -0.000004 -0.000001 -0.103866
    9 5.309685 -0.003834 0.000000 -0.268747 -0.030009 -0.109328
    10 4.826790 -0.004591 0.000000 -0.268747 -0.030009 -0.109328
    11 5.792767 -0.005304 0.000000 -0.139528 -0.002313 -0.017271
    12 6.662317 -0.001453 0.000000 0.000000 -0.000001 0.471000
    13 2.046985 -0.000002 0.000000 0.538493 0.259553 -0.304507
    14 -3.112024 1.517254 4.341911 0.993040 -1.074994 1.736840
    15 4.827230 0.000000 0.000001 -1.058900 -0.290577 -1.265761
    16 11.139763 0.000000 0.000000 0.000000 0.000000 -1.010613
    17 10.314597 0.000001 0.000000 -0.863718 0.363096 -0.290874
    18 2.975834 -0.386307 -0.044143 -0.011691 -0.042029 0.253187
    19 1.438886 0.000000 0.000000 0.000000 0.000000 0.741389
    20 1.485303 0.000000 0.000000 0.000000 0.000000 0.532034
    21 -2.869898 1.399663 -4.140396 -0.000013 1.309744 2.669783
    22 4.972048 0.000000 0.000001 0.958180 -0.541287 -1.720622
    23 11.585355 0.000000 0.000000 0.000000 0.000000 -1.837551
    24 10.127057 0.000000 0.000001 1.949416 -0.006416 0.977737
    25 2.683750 -0.427338 0.044205 -0.005786 0.043239 -0.157091
    26 1.438885 -0.000001 0.000000 0.000000 0.000000 0.732658
    27 1.485305 0.000001 0.000000 0.000000 0.000000 1.168770
    28 1.038631 0.548043 -0.144017 -0.000001 0.000001 -1.849906
    29 -0.064003 -0.023521 0.026161 0.000000 0.000000 0.000000
    30 3.013925 3.984634 -0.088975 -0.000001 0.000001 -1.849906
    31 -0.084188 -0.025627 -0.001098 0.000000 0.000000 0.000000
    32 4.778187 3.972486 -0.079803 -0.000001 0.000001 -1.849906
    33 -0.058556 -0.021324 0.004244 0.000000 0.000000 0.000000
    34 1.640598 -1.968779 -0.099219 -0.000001 0.000001 -1.849906
    35 0.055573 -0.028908 0.000000 0.000000 0.000000 0.000000
    36 1.646738 0.449549 -1.702246 -0.391617 1.092980 -0.290137
    37 0.928312 0.000000 -0.000002 0.000000 0.000000 0.000000
    38 0.928314 0.000000 0.000001 0.000000 0.000000 0.000000
    39 1.533672 0.109715 1.664491 -0.264755 -0.055959 0.783109
    40 0.928313 0.000000 0.000000 0.000000 0.000000 -0.453556
    41 0.928314 0.000000 0.000001 0.000000 0.000000 0.000000
  time 16
    0 0.235347 0.367732 3.528927 0.000000 0.000000 -1.570874
    1 0.000000 0.000000 0.000000 -1.570795 -1.570796 0.000000
    2 -0.000005 0.000007 3.713255 0.002054 3.115505 -0.021473
    3 18.045721 0.000000 0.000000 0.000000 0.000000 -0.121501
    4 17.597597 0.000000 0.000000 -0.002613 0.026036 0.099967
    5 0.000005 -0.000003 -3.713255 -0.002524 -3.124238 -0.024449
    6 18.045725 0.000000 0.000000 0.000000 0.000000 -0.127551
    7 17.597597 0.000000 0.000000 0.002950 -0.017289 0.103055
    8 1.293670 0.684478 -0.000001 -0.000004 -0.000001 -0.103866
    9 5.309685 -0.003834 0.000000 -0.268747 -0.030033 -0.109419
    10 4.826790 -0.004591 0.000000 -0.268747 -0.030009 -0.109328
    11 5.792767 -0.005304 0.000000 -0.139528 -0.002385 -0.017832
    12 6.662317 -0.001453 0.000000 0.000000 -0.000001 0.471000
    13 2.046985 -0.000002 0.000000 0.538493 0.259508 -0.303878
    14 -3.112024 1.517254 4.341911 0.994478 -1.075494 1.735210
    15 4.827230 0.000000 0.000001 -1.059958 -0.289641 -1.265324
    16 11.139763 0.000000 0.000000 0.000000 0.000000 -1.010613
    17 10.314597 0.000001 0.000000 -0.863718 0.363096 -0.290874
    18 2.975834 -0.386307 -0.044143 -0.011691 -0.042029 0.253187
    19 1.438886 0.000000 0.000000 0.000000 0.000000 0.741389
    20 1.485303 0.000000 0.000000 0.000000 0.000000 0.532034
    21 -2.869898 1.399663 -4.140396 -0.000013 1.310395 2.669783
    22 4.972048 0.000000 0.000001 0.959031 -0.541850 -1.720886
    23 11.585355 0.000000 0.000000 0.000000 0.000000 -1.837551
    24 10.127057 0.000000 0.000001 1.949416 -0.006416 0.977737
    25 2.683750 -0.427338 0.044205 -0.005786 0.043239 -0.157091
    26 1.438885 -0.000001 0.000000 0.000000 0.000000 0.732658
    27 1.485305 0.000001 0.000000 0.000000 0.000000 1.168770
    28 1.038631 0.548043 -0.144017 -0.000001 0.000001 -1.849906
    29 -0.064003 -0.023521 0.026161 0.000000 0.000000 0.000000
    30 3.013925 3.984634 -0.088975 -0.000001 0.000001 -1.849906
    31 -0.084188 -0.025627 -0.001098 0.000000 0.000000 0.000000
    32 4.778187 3.972486 -0.079803 -0.000001 0.000001 -1.849906
    33 -0.058556 -0.021324 0.004244 0.000000 0.000000 0.000000
    34 1.640598 -1.968779 -0.099219 -0.000001 0.000001 -1.849906
    35 0.055573 -0.028908 0.000000 0.000000 0.000000 0.000000
    36 1.646738 0.449549 -1.702246 -0.391617 1.092980 -0.290137
    37 0.928312 0.000000 -0.000002 0.000000 0.000000 0.000000
    38 0.928314 0.000000 0.000001 0.000000 0.000000 0.000000
    39 1.533672 0.109715 1.664491 -0.264755 -0.055959 0.783109
    40 0.928313 0.000000 0.000000 0.000000 0.000000 -0.453556
    41 0.928314 0.000000 0.000001 0.000000 0.000000 0.000000
  time 17
    0 0.235347 0.367732 3.528927 0.000000 0.000000 -1.570874
    1 0.000000 0.000000 0.000000 -1.570795 -1.570796 0.000000
    2 -0.000005 0.000007 3.713255 0.002054 3.115505 -0.021473
    3 18.045721 0.000000 0.000000 0.000000 0.000000 -0.121501
    4 17.597597 0.000000 0.000000 -0.002613 0.026036 0.099967
    5 0.000005 -0.000003 -3.713255 -0.002524 -3.124238 -0.024449
    6 18.045725 0.000000 0.000000 0.000000 0.000000 -0.127551
    7 17.597597 0.000000 0.000000 0.002950 -0.017289 0.103055
    8 1.293670 0.684478 -0.000001 -0.000004 -0.000001 -0.103866
    9 5.309685 -0.003834 0.000000 -0.268747 -0.030105 -0.109672
    10 4.826790 -0.004591 0.000000 -0.268747 -0.030009 -0.109328
    11 5.792767 -0.005304 0.000000 -0.139528 -0.002613 -0.019389
    12 6.662317 -0.001453 0.000000 0.000000 -0.000001 0.471000
    13 2.046985 -0.000002 0.000000 0.538493 0.259395 -0.302035
    14 -3.112024 1.517254 4.341911 0.998600 -1.076917 1.730513
    15 4.827230 0.000000 0.000001 -1.062895 -0.287087 -1.264011
    16 11.139763 0.000000 0.000000 0.000000 0.000000 -1.010613
    17 10.314597 0.000001 0.000000 -0.863718 0.363096 -0.290874
    18 2.975834 -0.386307 -0.044143 -0.011691 -0.042029 0.253187
    19 1.438886 0.000000 0.000000 0.000000 0.000000 0.741389
    20 1.485303 0.000000 0.000000 0.000000 0.000000 0.532034
    21 -2.869898 1.399663 -4.140396 -0.000013 1.312260 2.669783
    22 4.972048 0.000000 0.000001 0.961352 -0.543298 -1.721676
    23 11.585355 0.000000 0.000000 0.000000 0.000000 -1.837551
    24 10.127057 0.000000 0.000001 1.949416 -0.006416 0.977737
    25 2.683750 -0.427338 0.044205 -0.005786 0.043239 -0.157091
    26 1.438885 -0.000001 0.000000 0.000000 0.000000 0.732658
    27 1.485305 0.000001 0.000000 0.000000 0.000000 1.168770
    28 1.038631 0.548043 -0.144017 -0.000001 0.000001 -1.849906
    29 -0.064003 -0.023521 0.026161 0.000000 0.000000 0.000000
    30 3.013925 3.984634 -0.088975 -0.000001 0.000001 -1.849906
    31 -0.084188 -0.025627 -0.001098 0.000000 0.000000 0.000000
    32 4.778187 3.972486 -0.079803 -0.000001 0.000001 -1.849906
    33 -0.058556 -0.021324 0.004244 0.000000 0.000000 0.000000
    34 1.640598 -1.968779 -0.099219 -0.000001 0.000001 -1.849906
    35 0.055573 -0.028908 0.000000 0.000000 0.000000 0.000000
    36 1.646738 0.449549 -1.702246 -0.391617 1.092980 -0.290137
    37 0.928312 0.000000 -0.000002 0.000000 0.000000 0.000000
    38 0.928314 0.000000 0.000001 0.000000 0.000000 0.000000
    39 1.533672 0.109715 1.664491 -0.264755 -0.055959 0.783109
    40 0.928313 0.000000 0.000000 0.000000 0.000000 -0.453556
    41 0.928314 0.000000 0.000001 0.000000 0.000000 0.000000
  time 18
    0 0.235347 0.367732 3.528927 0.000000 0.000000 -1.570874
    1 0.000000 0.000000 0.000000 -1.570795 -1.570796 0.000000
    2 -0.000005 0.000007 3.713255 0.002054 3.115505 -0.021473
    3 18.045721 0.000000 0.000000 0.000000 0.000000 -0.121501
    4 17.597597 0.000000 0.000000 -0.002613 0.026036 0.099967
    5 0.000005 -0.000003 -3.713255 -0.002524 -3.124238 -0.024449
    6 18.045725 0.000000 0.000000 0.000000 0.000000 -0.127551
    7 17.597597 0.000000 0.000000 0.002950 -0.017289 0.103055
    8 1.293670 0.684478 -0.000001 -0.000004 -0.000001 -0.103866
    9 5.309685 -0.003834 0.000000 -0.268735 -0.030213 -0.110070
    10 4.826790 -0.004591 0.000000 -0.268747 -0.030009 -0.109328
    11 5.792767 -0.005304 0.000000 -0.139511 -0.002948 -0.021839
    12 6.662317 -0.001453 0.000000 0.000000 -0.000001 0.471000
    13 2.046985 -0.000002 0.000000 0.538450 0.259237 -0.299203
    14 -3.112024 1.517254 4.341911 1.005024 -1.079148 1.723226
    15 4.827230 0.000000 0.000001 -1.067476 -0.283173 -1.261998
    16 11.139763 0.000000 0.000000 0.000000 0.000000 -1.010613
    17 10.314597 0.000001 0.000000 -0.863718 0.363096 -0.290874
    18 2.975834 -0.386307 -0.044143 -0.011691 -0.042029 0.253187
    19 1.438886 0.000000 0.000000 0.000000 0.000000 0.741389
    20 1.485303 0.000000 0.000000 0.000000 0.000000 0.532034
    21 -2.869898 1.399663 -4.140396 -0.000013 1.315115 2.669783
    22 4.972048 0.000000 0.000001 0.964910 -0.545631 -1.722796
    23 11.585355 0.000000 0.000000 0.000000 0.000000 -1.837551
    24 10.127057 0.000000 0.000001 1.949416 -0.006416 0.977737
    25 2.683750 -0.427338 0.044205 -0.005786 0.043239 -0.157091
    26 1.438885 -0.000001 0.000000 0.000000 0.000000 0.732658
    27 1.485305 0.000001 0.000000 0.000000 0.000000 1.168770
    28 1.038631 0.548043 -0.144017 -0.000001 0.000001 -1.849906
    29 -0.064003 -0.023521 0.026161 0.000000 0.000000 0.000000
    30 3.013925 3.984634 -0.088975 -0.000001 0.000001 -1.849906
    31 -0.084188 -0.025627 -0.001098 0.000000 0.000000 0.000000
    32 4.778187 3.972486 -0.079803 -0.000001 0.000001 -1.849906
    33 -0.058556 -0.021324 0.004244 0.000000 0.000000 0.000000
    34 1.640598 -1.968779 -0.099219 -0.000001 0.000001 -1.849906
    35 0.055573 -0.028908 0.000000 0.000000 0.000000 0.000000
    36 1.646738 0.449549 -1.702246 -0.391617 1.092980 -0.290137
    37 0.928312 0.000000 -0.000002 0.000000 0.000000 0.000000
    38 0.928314 0.000000 0.000001 0.000000 0.000000 0.000000
    39 1.533672 0.109715 1.664491 -0.264755 -0.055959 0.783109
    40 0.928313 0.000000 0.000000 0.000000 0.000000 -0.453556
    41 0.928314 0.000000 0.000001 0.000000 0.000000 0.000000
  time 19
    0 0.235347 0.367732 3.528927 0.000000 0.000000 -1.570874
    1 0.000000 0.000000 0.000000 -1.570795 -1.570796 0.000000
    2 -0.000005 0.000007 3.713255 0.002054 3.115505 -0.021473
    3 18.045721 0.000000 0.000000 0.000000 0.000000 -0.121501
    4 17.597597 0.000000 0.000000 -0.002613 0.026036 0.099967
    5 0.000005 -0.000003 -3.713255 -0.002524 -3.124238 -0.024449
    6 18.045725 0.000000 0.000000 0.000000 0.000000 -0.127551
    7 17.597597 0.000000 0.000000 0.002950 -0.017289 0.103055
    8 1.293670 0.684478 -0.000001 -0.000004 -0.000001 -0.103866
    9 5.309685 -0.003834 0.000000 -0.268710 -0.030357 -0.110578
    10 4.826790 -0.004591 0.000000 -0.268747 -0.030009 -0.109328
    11 5.792767 -0.005304 0.000000 -0.139511 -0.003392 -0.025016
    12 6.662317 -0.001453 0.000000 0.000000 -0.000001 0.471000
    13 2.046985 -0.000002 0.000000 0.538450 0.259035 -0.295518
    14 -3.112024 1.517254 4.341911 1.013556 -1.081994 1.713638
    15 4.827230 0.000000 0.000001 -1.073467 -0.277982 -1.259460
    16 11.139763 0.000000 0.000000 0.000000 0.000000 -1.010613
    17 10.314597 0.000001 0.000000 -0.863718 0.363096 -0.290874
    18 2.975834 -0.386307 -0.044143 -0.011691 -0.042029 0.253187
    19 1.438886 0.000000 0.000000 0.000000 0.000000 0.741389
    20 1.485303 0.000000 0.000000 0.000000 0.000000 0.532034
    21 -2.869898 1.399663 -4.140396 -0.000013 1.318874 2.669783
    22 4.972048 0.000000 0.000001 0.969706 -0.548687 -1.724377
    23 11.585355 0.000000 0.000000 0.000000 0.000000 -1.837551
    24 10.127057 0.000000 0.000001 1.949416 -0.006416 0.977737
    25 2.683750 -0.427338 0.044205 -0.005786 0.043239 -0.157091
    26 1.438885 -0.000001 0.000000 0.000000 0.000000 0.732658
    27 1.485305 0.000001 0.000000 0.000000 0.000000 1.168770
    28 1.038631 0.548043 -0.144017 -0.000001 0.000001 -1.849906
    29 -0.064003 -0.023521 0.026161 0.000000 0.000000 0.000000
    30 3.013925 3.984634 -0.088975 -0.000001 0.000001 -1.849906
    31 -0.084188 -0.025627 -0.001098 0.000000 0.000000 0.000000
    32 4.778187 3.972486 -0.079803 -0.000001 0.000001 -1.849906
    33 -0.058556 -0.021324 0.004244 0.000000 0.000000 0.000000
    34 1.640598 -1.968779 -0.099219 -0.000001 0.000001 -1.849906
    35 0.055573 -0.028908 0.000000 0.000000 0.000000 0.000000
    36 1.646738 0.449549 -1.702246 -0.391617 1.092980 -0.290137
    37 0.928312 0.000000 -0.000002 0.000000 0.000000 0.000000
    38 0.928314 0.000000 0.000001 0.000000 0.000000 0.000000
    39 1.533672 0.109715 1.664491 -0.264755 -0.055959 0.783109
    40 0.928313 0.000000 0.000000 0.000000 0.000000 -0.453556
    41 0.928314 0.000000 0.000001 0.000000 0.000000 0.000000
  time 20
    0 0.235347 0.367732 3.528927 0.000000 0.000000 -1.570874
    1 0.000000 0.000000 0.000000 -1.570795 -1.570796 0.000000
    2 -0.000005 0.000007 3.713255 0.002054 3.115505 -0.021473
    3 18.045721 0.000000 0.000000 0.000000 0.000000 -0.121501
    4 17.597597 0.000000 0.000000 -0.002613 0.026036 0.099967
    5 0.000005 -0.000003 -3.713255 -0.002524 -3.124238 -0.024449
    6 18.045725 0.000000 0.000000 0.000000 0.000000 -0.127551
    7 17.597597 0.000000 0.000000 0.002950 -0.017289 0.103055
    8 1.293670 0.684478 -0.000001 -0.000004 -0.000001 -0.103866
    9 5.309685 -0.003834 0.000000 -0.268698 -0.030525 -0.111193
    10 4.826790 -0.004591 0.000000 -0.268747 -0.030009 -0.109328
    11 5.792767 -0.005304 0.000000 -0.139495 -0.003931 -0.028795
    12 6.662317 -0.001453 0.000000 0.000000 -0.000001 0.471000
    13 2.046985 -0.000002 0.000000 0.538407 0.258765 -0.291113
    14 -3.112024 1.517254 4.341911 1.023719 -1.085302 1.702037
    15 4.827230 0.000000 0.000001 -1.080457 -0.271854 -1.256485
    16 11.139763 0.000000 0.000000 0.000000 0.000000 -1.010613
    17 10.314597 0.000001 0.000000 -0.863718 0.363096 -0.290874
    18 2.975834 -0.386307 -0.044143 -0.011691 -0.042029 0.253187
    19 1.438886 0.000000 0.000000 0.000000 0.000000 0.741389
    20 1.485303 0.000000 0.000000 0.000000 0.000000 0.532034
    21 -2.869898 1.399663 -4.140396 -0.000013 1.323311 2.669783
    22 4.972048 0.000000 0.000001 0.975275 -0.552227 -1.726287
    23 11.585355 0.000000 0.000000 0.000000 0.000000 -1.837551
    24 10.127057 0.000000 0.000001 1.949416 -0.006416 0.977737
    25 2.683750 -0.427338 0.044205 -0.005786 0.043239 -0.157091
    26 1.438885 -0.000001 0.000000 0.000000 0.000000 0.732658
    27 1.485305 0.000001 0.000000 0.000000 0.000000 1.168770
    28 1.038631 0.548043 -0.144017 -0.000001 0.000001 -1.849906
    29 -0.064003 -0.023521 0.026161 0.000000 0.000000 0.000000
    30 3.013925 3.984634 -0.088975 -0.000001 0.000001 -1.849906
    31 -0.084188 -0.025627 -0.001098 0.000000 0.000000 0.000000
    32 4.778187 3.972486 -0.079803 -0.000001 0.000001 -1.849906
    33 -0.058556 -0.021324 0.004244 0.000000 0.000000 0.000000
    34 1.640598 -1.968779 -0.099219 -0.000001 0.000001 -1.849906
    35 0.055573 -0.028908 0.000000 0.000000 0.000000 0.000000
    36 1.646738 0.449549 -1.702246 -0.391617 1.092980 -0.290137
    37 0.928312 0.000000 -0.000002 0.000000 0.000000 0.000000
    38 0.928314 0.000000 0.000001 0.000000 0.000000 0.000000
    39 1.533672 0.109715 1.664491 -0.264755 -0.055959 0.783109
    40 0.928313 0.000000 0.000000 0.000000 0.000000 -0.453556
    41 0.928314 0.000000 0.000001 0.000000 0.000000 0.000000
  time 21
    0 0.235347 0.367732 3.528927 0.000000 0.000000 -1.570874
    1 0.000000 0.000000 0.000000 -1.570795 -1.570796 0.000000
    2 -0.000005 0.000007 3.713255 0.002054 3.115505 -0.021473
    3 18.045721 0.000000 0.000000 0.000000 0.000000 -0.121501
    4 17.597597 0.000000 0.000000 -0.002613 0.026036 0.099967
    5 0.000005 -0.000003 -3.713255 -0.002524 -3.124238 -0.024449
    6 18.045725 0.000000 0.000000 0.000000 0.000000 -0.127551
    7 17.597597 0.000000 0.000000 0.002950 -0.017289 0.103055
    8 1.293670 0.684478 -0.000001 -0.000004 -0.000001 -0.103866
    9 5.309685 -0.003834 0.000000 -0.268674 -0.030717 -0.111881
    10 4.826790 -0.004591 0.000000 -0.268747 -0.030009 -0.109328
    11 5.792767 -0.005304 0.000000 -0.139479 -0.004518 -0.033030
    12 6.662317 -0.001453 0.000000 0.000000 -0.000001 0.471000
    13 2.046985 -0.000002 0.000000 0.538407 0.258494 -0.286169
    14 -3.112024 1.517254 4.341911 1.035416 -1.088995 1.688902
    15 4.827230 0.000000 0.000001 -1.088327 -0.264876 -1.253159
    16 11.139763 0.000000 0.000000 0.000000 0.000000 -1.010613
    17 10.314597 0.000001 0.000000 -0.863718 0.363096 -0.290874
    18 2.975834 -0.386307 -0.044143 -0.011691 -0.042029 0.253187
    19 1.438886 0.000000 0.000000 0.000000 0.000000 0.741389
    20 1.485303 0.000000 0.000000 0.000000 0.000000 0.532034
    21 -2.869898 1.399663 -4.140396 -0.000013 1.328314 2.669783
    22 4.972048 0.000000 0.000001 0.981696 -0.556249 -1.728461
    23 11.585355 0.000000 0.000000 0.000000 0.000000 -1.837551
    24 10.127057 0.000000 0.000001 1.949416 -0.006416 0.977737
    25 2.683750 -0.427338 0.044205 -0.005786 0.043239 -0.157091
    26 1.438885 -0.000001 0.000000 0.000000 0.000000 0.732658
    27 1.485305 0.000001 0.000000 0.000000 0.000000 1.168770
    28 1.038631 0.548043 -0.144017 -0.000001 0.000001 -1.849906
    29 -0.064003 -0.023521 0.026161 0.000000 0.000000 0.000000
    30 3.013925 3.984634 -0.088975 -0.000001 0.000001 -1.849906
    31 -0.084188 -0.025627 -0.001098 0.000000 0.000000 0.000000
    32 4.778187 3.972486 -0.079803 -0.000001 0.000001 -1.849906
    33 -0.058556 -0.021324 0.004244 0.000000 0.000000 0.000000
    34 1.640598 -1.968779 -0.099219 -0.000001 0.000001 -1.849906
    35 0.055573 -0.028908 0.000000 0.000000 0.000000 0.000000
    36 1.646738 0.449549 -1.702246 -0.391617 1.092980 -0.290137
    37 0.928312 0.000000 -0.000002 0.000000 0.000000 0.000000
    38 0.928314 0.000000 0.000001 0.000000 0.000000 0.000000
    39 1.533672 0.109715 1.664491 -0.264755 -0.055959 0.783109
    40 0.928313 0.000000 0.000000 0.000000 0.000000 -0.453556
    41 0.928314 0.000000 0.000001 0.000000 0.000000 0.000000
  time 22
    0 0.235347 0.367732 3.528927 0.000000 0.000000 -1.570874
    1 0.000000 0.000000 0.000000 -1.570795 -1.570796 0.000000
    2 -0.000005 0.000007 3.713255 0.002054 3.115505 -0.021473
    3 18.045721 0.000000 0.000000 0.000000 0.000000 -0.121501
    4 17.597597 0.000000 0.000000 -0.002613 0.026036 0.099967
    5 0.000005 -0.000003 -3.713255 -0.002524 -3.124238 -0.024449
    6 18.045725 0.000000 0.000000 0.000000 0.000000 -0.127551
    7 17.597597 0.000000 0.000000 0.002950 -0.017289 0.103055
    8 1.293670 0.684478 -0.000001 -0.000004 -0.000001 -0.103866
    9 5.309685 -0.003834 0.000000 -0.268649 -0.030920 -0.112624
    10 4.826790 -0.004591 0.000000 -0.268747 -0.030009 -0.109328
    11 5.792767 -0.005304 0.000000 -0.139446 -0.005165 -0.037577
    12 6.662317 -0.001453 0.000000 0.000000 -0.000001 0.471000
    13 2.046985 -0.000002 0.000000 0.538364 0.258179 -0.280865
    14 -3.112024 1.517254 4.341911 1.048071 -1.092880 1.674521
    15 4.827230 0.000000 0.000001 -1.096727 -0.257387 -1.249747
    16 11.139763 0.000000 0.000000 0.000000 0.000000 -1.010613
    17 10.314597 0.000001 0.000000 -0.863718 0.363096 -0.290874
    18 2.975834 -0.386307 -0.044143 -0.011691 -0.042029 0.253187
    19 1.438886 0.000000 0.000000 0.000000 0.000000 0.741389
    20 1.485303 0.000000 0.000000 0.000000 0.000000 0.532034
    21 -2.869898 1.399663 -4.140396 -0.000013 1.333684 2.669783
    22 4.972048 0.000000 0.000001 0.988503 -0.560512 -1.730832
    23 11.585355 0.000000 0.000000 0.000000 0.000000 -1.837551
    24 10.127057 0.000000 0.000001 1.949416 -0.006416 0.977737
    25 2.683750 -0.427338 0.044205 -0.005786 0.043239 -0.157091
    26 1.438885 -0.000001 0.000000 0.000000 0.000000 0.732658
    27 1.485305 0.000001 0.000000 0.000000 0.000000 1.168770
    28 1.038631 0.548043 -0.144017 -0.000001 0.000001 -1.849906
    29 -0.064003 -0.023521 0.026161 0.000000 0.000000 0.000000
    30 3.013925 3.984634 -0.088975 -0.000001 0.000001 -1.849906
    31 -0.084188 -0.025627 -0.001098 0.000000 0.000000 0.000000
    32 4.778187 3.972486 -0.079803 -0.000001 0.000001 -1.849906
    33 -0.058556 -0.021324 0.004244 0.000000 0.000000 0.000000
    34 1.640598 -1.968779 -0.099219 -0.000001 0.000001 -1.849906
    35 0.055573 -0.028908 0.000000 0.000000 0.000000 0.000000
    36 1.646738 0.449549 -1.702246 -0.391617 1.092980 -0.290137
    37 0.928312 0.000000 -0.000002 0.000000 0.000000 0.000000
    38 0.928314 0.000000 0.000001 0.000000 0.000000 0.000000
    39 1.533672 0.109715 1.664491 -0.264755 -0.055959 0.783109
    40 0.928313 0.000000 0.000000 0.000000 0.000000 -0.453556
    41 0.928314 0.000000 0.000001 0.000000 0.000000 0.000000
  time 23
    0 0.235347 0.367732 3.528927 0.000000 0.000000 -1.570874
    1 0.000000 0.000000 0.000000 -1.570795 -1.570796 0.000000
    2 -0.000005 0.000007 3.713255 0.002054 3.115505 -0.021473
    3 18.045721 0.000000 0.000000 0.000000 0.000000 -0.121501
    4 17.597597 0.000000 0.000000 -0.002613 0.026036 0.099967
    5 0.000005 -0.000003 -3.713255 -0.002524 -3.124238 -0.024449
    6 18.045725 0.000000 0.000000 0.000000 0.000000 -0.127551
    7 17.597597 0.000000 0.000000 0.002950 -0.017289 0.103055
    8 1.293670 0.684478 -0.000001 -0.000004 -0.000001 -0.103866
    9 5.309685 -0.003834 0.000000 -0.268625 -0.031124 -0.113384
    10 4.826790 -0.004591 0.000000 -0.268747 -0.030009 -0.109328
    11 5.792767 -0.005304 0.000000 -0.139430 -0.005825 -0.042332
    12 6.662317 -0.001453 0.000000 0.000000 -0.000001 0.471000
    13 2.046985 -0.000002 0.000000 0.538364 0.257864 -0.275381
    14 -3.112024 1.517254 4.341911 1.061589 -1.096804 1.659373
    15 4.827230 0.000000 0.000001 -1.105420 -0.249473 -1.246334
    16 11.139763 0.000000 0.000000 0.000000 0.000000 -1.010613
    17 10.314597 0.000001 0.000000 -0.863718 0.363096 -0.290874
    18 2.975834 -0.386307 -0.044143 -0.011691 -0.042029 0.253187
    19 1.438886 0.000000 0.000000 0.000000 0.000000 0.741389
    20 1.485303 0.000000 0.000000 0.000000 0.000000 0.532034
    21 -2.869898 1.399663 -4.140396 -0.000013 1.339281 2.669783
    22 4.972048 0.000000 0.000001 0.995697 -0.565017 -1.733401
    23 11.585355 0.000000 0.000000 0.000000 0.000000 -1.837551
    24 10.127057 0.000000 0.000001 1.949416 -0.006416 0.977737
    25 2.683750 -0.427338 0.044205 -0.005786 0.043239 -0.157091
    26 1.438885 -0.000001 0.000000 0.000000 0.000000 0.732658
    27 1.485305 0.000001 0.000000 0.000000 0.000000 1.168770
    28 1.038631 0.548043 -0.144017 -0.000001 0.000001 -1.849906
    29 -0.064003 -0.023521 0.026161 0.000000 0.000000 0.000000
    30 3.013925 3.984634 -0.088975 -0.000001 0.000001 -1.849906
    31 -0.084188 -0.025627 -0.001098 0.000000 0.000000 0.000000
    32 4.778187 3.972486 -0.079803 -0.000001 0.000001 -1.849906
    33 -0.058556 -0.021324 0.004244 0.000000 0.000000 0.000000
    34 1.640598 -1.968779 -0.099219 -0.000001 0.000001 -1.849906
    35 0.055573 -0.028908 0.000000 0.000000 0.000000 0.000000
    36 1.646738 0.449549 -1.702246 -0.391617 1.092980 -0.290137
    37 0.928312 0.000000 -0.000002 0.000000 0.000000 0.000000
    38 0.928314 0.000000 0.000001 0.000000 0.000000 0.000000
    39 1.533672 0.109715 1.664491 -0.264755 -0.055959 0.783109
    40 0.928313 0.000000 0.000000 0.000000 0.000000 -0.453556
    41 0.928314 0.000000 0.000001 0.000000 0.000000 0.000000
  time 24
    0 0.235347 0.367732 3.528927 0.000000 0.000000 -1.570874
    1 0.000000 0.000000 0.000000 -1.570795 -1.570796 0.000000
    2 -0.000005 0.000007 3.713255 0.002054 3.115505 -0.021473
    3 18.045721 0.000000 0.000000 0.000000 0.000000 -0.121501
    4 17.597597 0.000000 0.000000 -0.002613 0.026036 0.099967
    5 0.000005 -0.000003 -3.713255 -0.002524 -3.124238 -0.024449
    6 18.045725 0.000000 0.000000 0.000000 0.000000 -0.127551
    7 17.597597 0.000000 0.000000 0.002950 -0.017289 0.103055
    8 1.293670 0.684478 -0.000001 -0.000004 -0.000001 -0.103866
    9 5.309685 -0.003834 0.000000 -0.268600 -0.031340 -0.114163
    10 4.826790 -0.004591 0.000000 -0.268747 -0.030009 -0.109328
    11 5.792767 -0.005304 0.000000 -0.139397 -0.006496 -0.047128
    12 6.662317 -0.001453 0.000000 0.000000 -0.000001 0.471000
    13 2.046985 -0.000002 0.000000 0.538321 0.257549 -0.269808
    14 -3.112024 1.517254 4.341911 1.075395 -1.100689 1.643841
    15 4.827230 0.000000 0.000001 -1.114171 -0.241559 -1.243008
    16 11.139763 0.000000 0.000000 0.000000 0.000000 -1.010613
    17 10.314597 0.000001 0.000000 -0.863718 0.363096 -0.290874
    18 2.975834 -0.386307 -0.044143 -0.011691 -0.042029 0.253187
    19 1.438886 0.000000 0.000000 0.000000 0.000000 0.741389
    20 1.485303 0.000000 0.000000 0.000000 0.000000 0.532034
    21 -2.869898 1.399663 -4.140396 -0.000013 1.344933 2.669783
    22 4.972048 0.000000 0.000001 1.002968 -0.569441 -1.736102
    23 11.585355 0.000000 0.000000 0.000000 0.000000 -1.837551
    24 10.127057 0.000000 0.000001 1.949416 -0.006416 0.977737
    25 2.683750 -0.427338 0.044205 -0.005786 0.043239 -0.157091
    26 1.438885 -0.000001 0.000000 0.000000 0.000000 0.732658
    27 1.485305 0.000001 0.000000 0.000000 0.000000 1.168770
    28 1.038631 0.548043 -0.144017 -0.000001 0.000001 -1.849906
    29 -0.064003 -0.023521 0.026161 0.000000 0.000000 0.000000
    30 3.013925 3.984634 -0.088975 -0.000001 0.000001 -1.849906
    31 -0.084188 -0.025627 -0.001098 0.000000 0.000000 0.000000
    32 4.778187 3.972486 -0.079803 -0.000001 0.000001 -1.849906
    33 -0.058556 -0.021324 0.004244 0.000000 0.000000 0.000000
    34 1.640598 -1.968779 -0.099219 -0.000001 0.000001 -1.849906
    35 0.055573 -0.028908 0.000000 0.000000 0.000000 0.000000
    36 1.646738 0.449549 -1.702246 -0.391617 1.092980 -0.290137
    37 0.928312 0.000000 -0.000002 0.000000 0.000000 0.000000
    38 0.928314 0.000000 0.000001 0.000000 0.000000 0.000000
    39 1.533672 0.109715 1.664491 -0.264755 -0.055959 0.783109
    40 0.928313 0.000000 0.000000 0.000000 0.000000 -0.453556
    41 0.928314 0.000000 0.000001 0.000000 0.000000 0.000000
  time 25
    0 0.235347 0.367732 3.528927 0.000000 0.000000 -1.570874
    1 0.000000 0.000000 0.000000 -1.570795 -1.570796 0.000000
    2 -0.000005 0.000007 3.713255 0.002054 3.115505 -0.021473
    3 18.045721 0.000000 0.000000 0.000000 0.000000 -0.121501
    4 17.597597 0.000000 0.000000 -0.002613 0.026036 0.099967
    5 0.000005 -0.000003 -3.713255 -0.002524 -3.124238 -0.024449
    6 18.045725 0.000000 0.000000 0.000000 0.000000 -0.127551
    7 17.597597 0.000000 0.000000 0.002950 -0.017289 0.103055
    8 1.293670 0.684478 -0.000001 -0.000004 -0.000001 -0.103866
    9 5.309685 -0.003834 0.000000 -0.268576 -0.031555 -0.114924
    10 4.826790 -0.004591 0.000000 -0.268747 -0.030009 -0.109328
    11 5.792767 -0.005304 0.000000 -0.139364 -0.007155 -0.051821
    12 6.662317 -0.001453 0.000000 0.000000 -0.000001 0.471000
    13 2.046985 -0.000002 0.000000 0.538321 0.257234 -0.264324
    14 -3.112024 1.517254 4.341911 1.089200 -1.104382 1.628405
    15 4.827230 0.000000 0.000001 -1.122688 -0.233729 -1.239858
    16 11.139763 0.000000 0.000000 0.000000 0.000000 -1.010613
    17 10.314597 0.000001 0.000000 -0.863718 0.363096 -0.290874
    18 2.975834 -0.386307 -0.044143 -0.011691 -0.042029 0.253187
    19 1.438886 0.000000 0.000000 0.000000 0.000000 0.741389
    20 1.485303 0.000000 0.000000 0.000000 0.000000 0.532034
    21 -2.869898 1.399663 -4.140396 -0.000013 1.350445 2.669783
    22 4.972048 0.000000 0.000001 1.010162 -0.573865 -1.738803
    23 11.585355 0.000000 0.000000 0.000000 0.000000 -1.837551
    24 10.127057 0.000000 0.000001 1.949416 -0.006416 0.977737
    25 2.683750 -0.427338 0.044205 -0.005786 0.043239 -0.157091
    26 1.438885 -0.000001 0.000000 0.000000 0.000000 0.732658
    27 1.485305 0.000001 0.000000 0.000000 0.000000 1.168770
    28 1.038631 0.548043 -0.144017 -0.000001 0.000001 -1.849906
    29 -0.064003 -0.023521 0.026161 0.000000 0.000000 0.000000
    30 3.013925 3.984634 -0.088975 -0.000001 0.000001 -1.849906
    31 -0.084188 -0.025627 -0.001098 0.000000 0.000000 0.000000
    32 4.778187 3.972486 -0.079803 -0.000001 0.000001 -1.849906
    33 -0.058556 -0.021324 0.004244 0.000000 0.000000 0.000000
    34 1.640598 -1.968779 -0.099219 -0.000001 0.000001 -1.849906
    35 0.055573 -0.028908 0.000000 0.000000 0.000000 0.000000
    36 1.646738 0.449549 -1.702246 -0.391617 1.092980 -0.290137
    37 0.928312 0.000000 -0.000002 0.000000 0.000000 0.000000
    38 0.928314 0.000000 0.000001 0.000000 0.000000 0.000000
    39 1.533672 0.109715 1.664491 -0.264755 -0.055959 0.783109
    40 0.928313 0.000000 0.000000 0.000000 0.000000 -0.453556
    41 0.928314 0.000000 0.000001 0.000000 0.000000 0.000000
  time 26
    0 0.235347 0.367732 3.528927 0.000000 0.000000 -1.570874
    1 0.000000 0.000000 0.000000 -1.570795 -1.570796 0.000000
    2 -0.000005 0.000007 3.713255 0.002054 3.115505 -0.021473
    3 18.045721 0.000000 0.000000 0.000000 0.000000 -0.121501
    4 17.597597 0.000000 0.000000 -0.002613 0.026036 0.099967
    5 0.000005 -0.000003 -3.713255 -0.002524 -3.124238 -0.024449
    6 18.045725 0.000000 0.000000 0.000000 0.000000 -0.127551
    7 17.597597 0.000000 0.000000 0.002950 -0.017289 0.103055
    8 1.293670 0.684478 -0.000001 -0.000004 -0.000001 -0.103866
    9 5.309685 -0.003834 0.000000 -0.268551 -0.031747 -0.115648
    10 4.826790 -0.004591 0.000000 -0.268747 -0.030009 -0.109328
    11 5.792767 -0.005304 0.000000 -0.139332 -0.007790 -0.056285
    12 6.662317 -0.001453 0.000000 0.000000 -0.000001 0.471000
    13 2.046985 -0.000002 0.000000 0.538278 0.256941 -0.259155
    14 -3.112024 1.517254 4.341911 1.102623 -1.107844 1.613448
    15 4.827230 0.000000 0.000001 -1.130735 -0.226155 -1.236882
    16 11.139763 0.000000 0.000000 0.000000 0.000000 -1.010613
    17 10.314597 0.000001 0.000000 -0.863718 0.363096 -0.290874
    18 2.975834 -0.386307 -0.044143 -0.011691 -0.042029 0.253187
    19 1.438886 0.000000 0.000000 0.000000 0.000000 0.741389
    20 1.485303 0.000000 0.000000 0.000000 0.000000 0.532034
    21 -2.869898 1.399663 -4.140396 -0.000013 1.355730 2.669783
    22 4.972048 0.000000 0.000001 1.017047 -0.578048 -1.741504
    23 11.585355 0.000000 0.000000 0.000000 0.000000 -1.837551
    24 10.127057 0.000000 0.000001 1.949416 -0.006416 0.977737
    25 2.683750 -0.427338 0.044205 -0.005786 0.043239 -0.157091
    26 1.438885 -0.000001 0.000000 0.000000 0.000000 0.732658
    27 1.485305 0.000001 0.000000 0.000000 0.000000 1.168770
    28 1.038631 0.548043 -0.144017 -0.000001 0.000001 -1.849906
    29 -0.064003 -0.023521 0.026161 0.000000 0.000000 0.000000
    30 3.013925 3.984634 -0.088975 -0.000001 0.000001 -1.849906
    31 -0.084188 -0.025627 -0.001098 0.000000 0.000000 0.000000
    32 4.778187 3.972486 -0.079803 -0.000001 0.000001 -1.849906
    33 -0.058556 -0.021324 0.004244 0.000000 0.000000 0.000000
    34 1.640598 -1.968779 -0.099219 -0.000001 0.000001 -1.849906
    35 0.055573 -0.028908 0.000000 0.000000 0.000000 0.000000
    36 1.646738 0.449549 -1.702246 -0.391617 1.092980 -0.290137
    37 0.928312 0.000000 -0.000002 0.000000 0.000000 0.000000
    38 0.928314 0.000000 0.000001 0.000000 0.000000 0.000000
    39 1.533672 0.109715 1.664491 -0.264755 -0.055959 0.783109
    40 0.928313 0.000000 0.000000 0.000000 0.000000 -0.453556
    41 0.928314 0.000000 0.000001 0.000000 0.000000 0.000000
  time 27
    0 0.235347 0.367732 3.528927 0.000000 0.000000 -1.570874
    1 0.000000 0.000000 0.000000 -1.570795 -1.570796 0.000000
    2 -0.000005 0.000007 3.713255 0.002054 3.115505 -0.021473
    3 18.045721 0.000000 0.000000 0.000000 0.000000 -0.121501
    4 17.597597 0.000000 0.000000 -0.002613 0.026036 0.099967
    5 0.000005 -0.000003 -3.713255 -0.002524 -3.124238 -0.024449
    6 18.045725 0.000000 0.000000 0.000000 0.000000 -0.127551
    7 17.597597 0.000000 0.000000 0.002950 -0.017289 0.103055
    8 1.293670 0.684478 -0.000001 -0.000004 -0.000001 -0.103866
    9 5.309685 -0.003834 0.000000 -0.268539 -0.031939 -0.116318
    10 4.826790 -0.004591 0.000000 -0.268747 -0.030009 -0.109328
    11 5.792767 -0.005304 0.000000 -0.139299 -0.008365 -0.060396
    12 6.662317 -0.001453 0.000000 0.000000 -0.000001 0.471000
    13 2.046985 -0.000002 0.000000 0.538278 0.256671 -0.254391
    14 -3.112024 1.517254 4.341911 1.114990 -1.110921 1.599546
    15 4.827230 0.000000 0.000001 -1.138136 -0.219262 -1.234345
    16 11.139763 0.000000 0.000000 0.000000 0.000000 -1.010613
    17 10.314597 0.000001 0.000000 -0.863718 0.363096 -0.290874
    18 2.975834 -0.386307 -0.044143 -0.011691 -0.042029 0.253187
    19 1.438886 0.000000 0.000000 0.000000 0.000000 0.741389
    20 1.485303 0.000000 0.000000 0.000000 0.000000 0.532034
    21 -2.869898 1.399663 -4.140396 -0.000013 1.360563 2.669783
    22 4.972048 0.000000 0.000001 1.023313 -0.581909 -1.743941
    23 11.585355 0.000000 0.000000 0.000000 0.000000 -1.837551
    24 10.127057 0.000000 0.000001 1.949416 -0.006416 0.977737
    25 2.683750 -0.427338 0.044205 -0.005786 0.043239 -0.157091
    26 1.438885 -0.000001 0.000000 0.000000 0.000000 0.732658
    27 1.485305 0.000001 0.000000 0.000000 0.000000 1.168770
    28 1.038631 0.548043 -0.144017 -0.000001 0.000001 -1.849906
    29 -0.064003 -0.023521 0.026161 0.000000 0.000000 0.000000
    30 3.013925 3.984634 -0.088975 -0.000001 0.000001 -1.849906
    31 -0.084188 -0.025627 -0.001098 0.000000 0.000000 0.000000
    32 4.778187 3.972486 -0.079803 -0.000001 0.000001 -1.849906
    33 -0.058556 -0.021324 0.004244 0.000000 0.000000 0.000000
    34 1.640598 -1.968779 -0.099219 -0.000001 0.000001 -1.849906
    35 0.055573 -0.028908 0.000000 0.000000 0.000000 0.000000
    36 1.646738 0.449549 -1.702246 -0.391617 1.092980 -0.290137
    37 0.928312 0.000000 -0.000002 0.000000 0.000000 0.000000
    38 0.928314 0.000000 0.000001 0.000000 0.000000 0.000000
    39 1.533672 0.109715 1.664491 -0.264755 -0.055959 0.783109
    40 0.928313 0.000000 0.000000 0.000000 0.000000 -0.453556
    41 0.928314 0.000000 0.000001 0.000000 0.000000 0.000000
  time 28
    0 0.235347 0.367732 3.528927 0.000000 0.000000 -1.570874
    1 0.000000 0.000000 0.000000 -1.570795 -1.570796 0.000000
    2 -0.000005 0.000007 3.713255 0.002054 3.115505 -0.021473
    3 18.045721 0.000000 0.000000 0.000000 0.000000 -0.121501
    4 17.597597 0.000000 0.000000 -0.002613 0.026036 0.099967
    5 0.000005 -0.000003 -3.713255 -0.002524 -3.124238 -0.024449
    6 18.045725 0.000000 0.000000 0.000000 0.000000 -0.127551
    7 17.597597 0.000000 0.000000 0.002950 -0.017289 0.103055
    8 1.293670 0.684478 -0.000001 -0.000004 -0.000001 -0.103866
    9 5.309685 -0.003834 0.000000 -0.268515 -0.032095 -0.116898
    10 4.826790 -0.004591 0.000000 -0.268747 -0.030009 -0.109328
    11 5.792767 -0.005304 0.000000 -0.139267 -0.008869 -0.063988
    12 6.662317 -0.001453 0.000000 0.000000 -0.000001 0.471000
    13 2.046985 -0.000002 0.000000 0.538235 0.256423 -0.250210
    14 -3.112024 1.517254 4.341911 1.126016 -1.113536 1.587274
    15 4.827230 0.000000 0.000001 -1.144538 -0.213220 -1.232157
    16 11.139763 0.000000 0.000000 0.000000 0.000000 -1.010613
    17 10.314597 0.000001 0.000000 -0.863718 0.363096 -0.290874
    18 2.975834 -0.386307 -0.044143 -0.011691 -0.042029 0.253187
    19 1.438886 0.000000 0.000000 0.000000 0.000000 0.741389
    20 1.485303 0.000000 0.000000 0.000000 0.000000 0.532034
    21 -2.869898 1.399663 -4.140396 -0.000013 1.364775 2.669783
    22 4.972048 0.000000 0.000001 1.028882 -0.585208 -1.746181
    23 11.585355 0.000000 0.000000 0.000000 0.000000 -1.837551
    24 10.127057 0.000000 0.000001 1.949416 -0.006416 0.977737
    25 2.683750 -0.427338 0.044205 -0.005786 0.043239 -0.157091
    26 1.438885 -0.000001 0.000000 0.000000 0.000000 0.732658
    27 1.485305 0.000001 0.000000 0.000000 0.000000 1.168770
    28 1.038631 0.548043 -0.144017 -0.000001 0.000001 -1.849906
    29 -0.064003 -0.023521 0.026161 0.000000 0.000000 0.000000
    30 3.013925 3.984634 -0.088975 -0.000001 0.000001 -1.849906
    31 -0.084188 -0.025627 -0.001098 0.000000 0.000000 0.000000
    32 4.778187 3.972486 -0.079803 -0.000001 0.000001 -1.849906
    33 -0.058556 -0.021324 0.004244 0.000000 0.000000 0.000000
    34 1.640598 -1.968779 -0.099219 -0.000001 0.000001 -1.849906
    35 0.055573 -0.028908 0.000000 0.000000 0.000000 0.000000
    36 1.646738 0.449549 -1.702246 -0.391617 1.092980 -0.290137
    37 0.928312 0.000000 -0.000002 0.000000 0.000000 0.000000
    38 0.928314 0.000000 0.000001 0.000000 0.000000 0.000000
    39 1.533672 0.109715 1.664491 -0.264755 -0.055959 0.783109
    40 0.928313 0.000000 0.000000 0.000000 0.000000 -0.453556
    41 0.928314 0.000000 0.000001 0.000000 0.000000 0.000000
  time 29
    0 0.235347 0.367732 3.528927 0.000000 0.000000 -1.570874
    1 0.000000 0.000000 0.000000 -1.570795 -1.570796 0.000000
    2 -0.000005 0.000007 3.713255 0.002054 3.115505 -0.021473
    3 18.045721 0.000000 0.000000 0.000000 0.000000 -0.121501
    4 17.597597 0.000000 0.000000 -0.002613 0.026036 0.099967
    5 0.000005 -0.000003 -3.713255 -0.002524 -3.124238 -0.024449
    6 18.045725 0.000000 0.000000 0.000000 0.000000 -0.127551
    7 17.597597 0.000000 0.000000 0.002950 -0.017289 0.103055
    8 1.293670 0.684478 -0.000001 -0.000004 -0.000001 -0.103866
    9 5.309685 -0.003834 0.000000 -0.268502 -0.032227 -0.117387
    10 4.826790 -0.004591 0.000000 -0.268747 -0.030009 -0.109328
    11 5.792767 -0.005304 0.000000 -0.139234 -0.009276 -0.066936
    12 6.662317 -0.001453 0.000000 0.000000 -0.000001 0.471000
    13 2.046985 -0.000002 0.000000 0.538235 0.256220 -0.246749
    14 -3.112024 1.517254 4.341911 1.135219 -1.115652 1.577111
    15 4.827230 0.000000 0.000001 -1.149824 -0.208199 -1.230407
    16 11.139763 0.000000 0.000000 0.000000 0.000000 -1.010613
    17 10.314597 0.000001 0.000000 -0.863718 0.363096 -0.290874
    18 2.975834 -0.386307 -0.044143 -0.011691 -0.042029 0.253187
    19 1.438886 0.000000 0.000000 0.000000 0.000000 0.741389
    20 1.485303 0.000000 0.000000 0.000000 0.000000 0.532034
    21 -2.869898 1.399663 -4.140396 -0.000013 1.368251 2.669783
    22 4.972048 0.000000 0.000001 1.033524 -0.587943 -1.748091
    23 11.585355 0.000000 0.000000 0.000000 0.000000 -1.837551
    24 10.127057 0.000000 0.000001 1.949416 -0.006416 0.977737
    25 2.683750 -0.427338 0.044205 -0.005786 0.043239 -0.157091
    26 1.438885 -0.000001 0.000000 0.000000 0.000000 0.732658
    27 1.485305 0.000001 0.000000 0.000000 0.000000 1.168770
    28 1.038631 0.548043 -0.144017 -0.000001 0.000001 -1.849906
    29 -0.064003 -0.023521 0.026161 0.000000 0.000000 0.000000
    30 3.013925 3.984634 -0.088975 -0.000001 0.000001 -1.849906
    31 -0.084188 -0.025627 -0.001098 0.000000 0.000000 0.000000
    32 4.778187 3.972486 -0.079803 -0.000001 0.000001 -1.849906
    33 -0.058556 -0.021324 0.004244 0.000000 0.000000 0.000000
    34 1.640598 -1.968779 -0.099219 -0.000001 0.000001 -1.849906
    35 0.055573 -0.028908 0.000000 0.000000 0.000000 0.000000
    36 1.646738 0.449549 -1.702246 -0.391617 1.092980 -0.290137
    37 0.928312 0.000000 -0.000002 0.000000 0.000000 0.000000
    38 0.928314 0.000000 0.000001 0.000000 0.000000 0.000000
    39 1.533672 0.109715 1.664491 -0.264755 -0.055959 0.783109
    40 0.928313 0.000000 0.000000 0.000000 0.000000 -0.453556
    41 0.928314 0.000000 0.000001 0.000000 0.000000 0.000000
  time 30
    0 0.235347 0.367732 3.528927 0.000000 0.000000 -1.570874
    1 0.000000 0.000000 0.000000 -1.570795 -1.570796 0.000000
    2 -0.000005 0.000007 3.713255 0.002054 3.115505 -0.021473
    3 18.045721 0.000000 0.000000 0.000000 0.000000 -0.121501
    4 17.597597 0.000000 0.000000 -0.002613 0.026036 0.099967
    5 0.000005 -0.000003 -3.713255 -0.002524 -3.124238 -0.024449
    6 18.045725 0.000000 0.000000 0.000000 0.000000 -0.127551
    7 17.597597 0.000000 0.000000 0.002950 -0.017289 0.103055
    8 1.293670 0.684478 -0.000001 -0.000004 -0.000001 -0.103866
    9 5.309685 -0.003834 0.000000 -0.268490 -0.032322 -0.117731
    10 4.826790 -0.004591 0.000000 -0.268747 -0.030009 -0.109328
    11 5.792767 -0.005304 0.000000 -0.139218 -0.009588 -0.069095
    12 6.662317 -0.001453 0.000000 0.000000 -0.000001 0.471000
    13 2.046985 -0.000002 0.000000 0.538192 0.256085 -0.244232
    14 -3.112024 1.517254 4.341911 1.141931 -1.117191 1.569537
    15 4.827230 0.000000 0.000001 -1.153642 -0.204540 -1.229094
    16 11.139763 0.000000 0.000000 0.000000 0.000000 -1.010613
    17 10.314597 0.000001 0.000000 -0.863718 0.363096 -0.290874
    18 2.975834 -0.386307 -0.044143 -0.011691 -0.042029 0.253187
    19 1.438886 0.000000 0.000000 0.000000 0.000000 0.741389
    20 1.485303 0.000000 0.000000 0.000000 0.000000 0.532034
    21 -2.869898 1.399663 -4.140396 -0.000013 1.370795 2.669783
    22 4.972048 0.000000 0.000001 1.036850 -0.589954 -1.749474
    23 11.585355 0.000000 0.000000 0.000000 0.000000 -1.837551
    24 10.127057 0.000000 0.000001 1.949416 -0.006416 0.977737
    25 2.683750 -0.427338 0.044205 -0.005786 0.043239 -0.157091
    26 1.438885 -0.000001 0.000000 0.000000 0.000000 0.732658
    27 1.485305 0.000001 0.000000 0.000000 0.000000 1.168770
    28 1.038631 0.548043 -0.144017 -0.000001 0.000001 -1.849906
    29 -0.064003 -0.023521 0.026161 0.000000 0.000000 0.000000
    30 3.013925 3.984634 -0.088975 -0.000001 0.000001 -1.849906
    31 -0.084188 -0.025627 -0.001098 0.000000 0.000000 0.000000
    32 4.778187 3.972486 -0.079803 -0.000001 0.000001 -1.849906
    33 -0.058556 -0.021324 0.004244 0.000000 0.000000 0.000000
    34 1.640598 -1.968779 -0.099219 -0.000001 0.000001 -1.849906
    35 0.055573 -0.028908 0.000000 0.000000 0.000000 0.000000
    36 1.646738 0.449549 -1.702246 -0.391617 1.092980 -0.290137
    37 0.928312 0.000000 -0.000002 0.000000 0.000000 0.000000
    38 0.928314 0.000000 0.000001 0.000000 0.000000 0.000000
    39 1.533672 0.109715 1.664491 -0.264755 -0.055959 0.783109
    40 0.928313 0.000000 0.000000 0.000000 0.000000 -0.453556
    41 0.928314 0.000000 0.000001 0.000000 0.000000 0.000000
end
