version 1
nodes
  0 "Bip01" -1
  1 "Bip01 Pelvis" 0
  2 "Bip01 L Leg" 1
  3 "Bip01 L Leg1" 2
  4 "Bip01 L Foot" 3
  5 "Bip01 R Leg" 1
  6 "Bip01 R Leg1" 5
  7 "Bip01 R Foot" 6
  8 "Bip01 Spine" 1
  9 "Bip01 Spine1" 8
  10 "Bip01 Spine2" 9
  11 "Bip01 Spine3" 10
  12 "Bip01 Neck" 11
  13 "Bip01 Head" 12
  14 "Bip01 L Arm" 12
  15 "Bip01 L Arm1" 14
  16 "Bip01 L Arm2" 15
  17 "Bip01 L Hand" 16
  18 "Bip01 L Finger1" 17
  19 "Bip01 L Finger11" 18
  20 "Bip01 L Finger12" 19
  21 "Bip01 R Arm" 12
  22 "Bip01 R Arm1" 21
  23 "Bip01 R Arm2" 22
  24 "Bip01 R Hand" 23
  25 "Bip01 R Finger1" 24
  26 "Bip01 R Finger11" 25
  27 "Bip01 R Finger12" 26
  28 "Dummy08" 13
  29 "Bone02" 28
  30 "Dummy04" 13
  31 "Bone05" 30
  32 "Dummy03" 13
  33 "Bone07" 32
  34 "Dummy10" 13
  35 "Bone13" 34
  36 "Bip01 L Finger0" 17
  37 "Bip01 L Finger01" 36
  38 "Bip01 L Finger02" 37
  39 "Bip01 R Finger0" 24
  40 "Bip01 R Finger01" 39
  41 "Bip01 R Finger02" 40
end
skeleton
  time 0
    0 0.235347 0.367732 3.528927 0.000000 0.000000 -1.570874
    1 -2.921964 0.109378 0.000000 -1.570795 -1.570796 0.000000
    2 -0.000005 0.000007 3.713255 0.002054 3.115505 -0.021473
    3 18.045721 0.000000 0.000000 0.000000 0.000000 -0.121501
    4 17.597597 0.000000 0.000000 -0.002613 0.026036 0.099967
    5 0.000005 -0.000003 -3.713255 -0.002524 -3.124238 -0.024449
    6 18.045725 0.000000 0.000000 0.000000 0.000000 -0.127551
    7 17.597597 0.000000 0.000000 0.002950 -0.017289 0.103055
    8 1.293670 0.684478 -0.000001 -0.000004 -0.000001 0.306070
    9 5.309685 -0.003834 0.000000 0.000000 0.000000 -0.000004
    10 4.826790 -0.004591 0.000000 -0.173330 0.019775 0.111669
    11 5.792767 -0.005304 0.000000 -0.138190 0.019451 0.138200
    12 6.662317 -0.001453 0.000000 0.000000 -0.000001 0.471000
    13 2.046985 -0.000002 0.000000 0.254749 -0.184713 -0.060846
    14 -3.112024 1.517254 4.341911 1.021706 -1.200316 1.679890
    15 4.827230 0.000000 0.000001 0.032597 0.743482 -1.011454
    16 11.139763 0.000000 0.000000 0.000000 0.000000 -0.951536
    17 10.314597 0.000001 0.000000 -3.965498 0.019264 -0.392329
    18 2.975834 -0.386307 -0.044143 -0.000797 -0.043611 0.000035
    19 1.438886 0.000000 0.000000 0.000000 0.000000 0.706471
    20 1.485303 0.000000 0.000000 0.000000 0.000000 0.732660
    21 -2.869898 1.399663 -4.140396 0.672729 1.317206 3.326706
    22 4.972048 0.000000 0.000001 -1.089399 -1.024254 0.318132
    23 11.585355 0.000000 0.000000 0.000000 0.000000 -1.839859
    24 10.127057 0.000000 0.000001 1.645685 0.344322 0.060490
    25 2.683750 -0.427338 0.044205 -0.005786 0.043239 -0.157091
    26 1.438885 -0.000001 0.000000 0.000000 0.000000 0.732658
    27 1.485305 0.000001 0.000000 0.000000 0.000000 1.168770
    28 1.038631 0.548043 -0.144017 -0.000001 0.000001 -1.849906
    29 -0.064003 -0.023521 0.026161 0.000000 0.000000 0.000000
    30 3.013925 3.984634 -0.088975 -0.000001 0.000001 -1.849906
    31 -0.084188 -0.025627 -0.001098 0.000000 0.000000 0.000000
    32 4.778187 3.972486 -0.079803 -0.000001 0.000001 -1.849906
    33 -0.058556 -0.021324 0.004244 0.000000 0.000000 0.000000
    34 1.640598 -1.968779 -0.099219 -0.000001 0.000001 -1.849906
    35 0.055573 -0.028908 0.000000 0.000000 0.000000 0.000000
    36 1.646738 0.449549 -1.702246 -0.161934 0.581206 -0.284024
    37 0.928312 0.000000 -0.000002 0.000000 0.000000 0.000000
    38 0.928314 0.000000 0.000001 0.000000 0.000000 0.000000
    39 1.533672 0.109715 1.664491 -0.264755 -0.055959 0.783109
    40 0.928313 0.000000 0.000000 0.000000 0.000000 -0.453556
    41 0.928314 0.000000 0.000001 0.000000 0.000000 0.000000
  time 1
    0 0.235347 0.367732 3.528927 0.000000 0.000000 -1.570874
    1 -2.925871 0.109378 0.000000 -1.570795 -1.570796 0.000000
    2 -0.000005 0.000007 3.713255 0.002054 3.115505 -0.021473
    3 18.045721 0.000000 0.000000 0.000000 0.000000 -0.121501
    4 17.597597 0.000000 0.000000 -0.002613 0.026036 0.099967
    5 0.000005 -0.000003 -3.713255 -0.002524 -3.124238 -0.024449
    6 18.045725 0.000000 0.000000 0.000000 0.000000 -0.127551
    7 17.597597 0.000000 0.000000 0.002950 -0.017289 0.103055
    8 1.293670 0.684478 -0.000001 -0.000004 -0.000001 0.306070
    9 5.309685 -0.003834 0.000000 0.000000 0.000000 -0.000004
    10 4.826790 -0.004591 0.000000 -0.173297 0.019954 0.112727
    11 5.792767 -0.005304 0.000000 -0.138141 0.019139 0.141190
    12 6.662317 -0.001453 0.000000 0.000000 -0.000001 0.471000
    13 2.046985 -0.000002 0.000000 0.255094 -0.183902 -0.064891
    14 -3.112024 1.517254 4.341911 1.015378 -1.198777 1.686697
    15 4.827230 0.000000 0.000001 0.035827 0.737951 -1.009966
    16 11.139763 0.000000 0.000000 0.000000 0.000000 -0.951536
    17 10.314597 0.000001 0.000000 -3.965498 0.019264 -0.392329
    18 2.975834 -0.386307 -0.044143 -0.000797 -0.043611 0.000035
    19 1.438886 0.000000 0.000000 0.000000 0.000000 0.706471
    20 1.485303 0.000000 0.000000 0.000000 0.000000 0.732660
    21 -2.869898 1.399663 -4.140396 0.664100 1.314352 3.317789
    22 4.972048 0.000000 0.000001 -1.081277 -1.023370 0.310490
    23 11.585355 0.000000 0.000000 0.000000 0.000000 -1.839859
    24 10.127057 0.000000 0.000001 1.645685 0.344322 0.060490
    25 2.683750 -0.427338 0.044205 -0.005786 0.043239 -0.157091
    26 1.438885 -0.000001 0.000000 0.000000 0.000000 0.732658
    27 1.485305 0.000001 0.000000 0.000000 0.000000 1.168770
    28 1.038631 0.548043 -0.144017 -0.000001 0.000001 -1.849906
    29 -0.064003 -0.023521 0.026161 0.000000 0.000000 0.000000
    30 3.013925 3.984634 -0.088975 -0.000001 0.000001 -1.849906
    31 -0.084188 -0.025627 -0.001098 0.000000 0.000000 0.000000
    32 4.778187 3.972486 -0.079803 -0.000001 0.000001 -1.849906
    33 -0.058556 -0.021324 0.004244 0.000000 0.000000 0.000000
    34 1.640598 -1.968779 -0.099219 -0.000001 0.000001 -1.849906
    35 0.055573 -0.028908 0.000000 0.000000 0.000000 0.000000
    36 1.646738 0.449549 -1.702246 -0.161934 0.581206 -0.284024
    37 0.928312 0.000000 -0.000002 0.000000 0.000000 0.000000
    38 0.928314 0.000000 0.000001 0.000000 0.000000 0.000000
    39 1.533672 0.109715 1.664491 -0.264755 -0.055959 0.783109
    40 0.928313 0.000000 0.000000 0.000000 0.000000 -0.453556
    41 0.928314 0.000000 0.000001 0.000000 0.000000 0.000000
  time 2
    0 0.235347 0.367732 3.528927 0.000000 0.000000 -1.570874
    1 -2.937590 0.113285 0.000000 -1.570795 -1.570796 0.000000
    2 -0.000005 0.000007 3.713255 0.002054 3.115505 -0.021473
    3 18.045721 0.000000 0.000000 0.000000 0.000000 -0.121501
    4 17.597597 0.000000 0.000000 -0.002613 0.026036 0.099967
    5 0.000005 -0.000003 -3.713255 -0.002524 -3.124238 -0.024449
    6 18.045725 0.000000 0.000000 0.000000 0.000000 -0.127551
    7 17.597597 0.000000 0.000000 0.002950 -0.017289 0.103055
    8 1.293670 0.684478 -0.000001 -0.000004 -0.000001 0.306070
    9 5.309685 -0.003834 0.000000 0.000000 0.000000 -0.000004
    10 4.826790 -0.004591 0.000000 -0.173264 0.020218 0.114205
    11 5.792767 -0.005304 0.000000 -0.138060 0.018696 0.145260
    12 6.662317 -0.001453 0.000000 0.000000 -0.000001 0.471000
    13 2.046985 -0.000002 0.000000 0.255611 -0.182822 -0.070420
    14 -3.112024 1.517254 4.341911 1.006749 -1.196700 1.695901
    15 4.827230 0.000000 0.000001 0.040232 0.730292 -1.008041
    16 11.139763 0.000000 0.000000 0.000000 0.000000 -0.951536
    17 10.314597 0.000001 0.000000 -3.965498 0.019264 -0.392329
    18 2.975834 -0.386307 -0.044143 -0.000797 -0.043611 0.000035
    19 1.438886 0.000000 0.000000 0.000000 0.000000 0.706471
    20 1.485303 0.000000 0.000000 0.000000 0.000000 0.732660
    21 -2.869898 1.399663 -4.140396 0.652596 1.310423 3.305901
    22 4.972048 0.000000 0.000001 -1.070293 -1.022083 0.300017
    23 11.585355 0.000000 0.000000 0.000000 0.000000 -1.839859
    24 10.127057 0.000000 0.000001 1.645685 0.344322 0.060490
    25 2.683750 -0.427338 0.044205 -0.005786 0.043239 -0.157091
    26 1.438885 -0.000001 0.000000 0.000000 0.000000 0.732658
    27 1.485305 0.000001 0.000000 0.000000 0.000000 1.168770
    28 1.038631 0.548043 -0.144017 -0.000001 0.000001 -1.849906
    29 -0.064003 -0.023521 0.026161 0.000000 0.000000 0.000000
    30 3.013925 3.984634 -0.088975 -0.000001 0.000001 -1.849906
    31 -0.084188 -0.025627 -0.001098 0.000000 0.000000 0.000000
    32 4.778187 3.972486 -0.079803 -0.000001 0.000001 -1.849906
    33 -0.058556 -0.021324 0.004244 0.000000 0.000000 0.000000
    34 1.640598 -1.968779 -0.099219 -0.000001 0.000001 -1.849906
    35 0.055573 -0.028908 0.000000 0.000000 0.000000 0.000000
    36 1.646738 0.449549 -1.702246 -0.161934 0.581206 -0.284024
    37 0.928312 0.000000 -0.000002 0.000000 0.000000 0.000000
    38 0.928314 0.000000 0.000001 0.000000 0.000000 0.000000
    39 1.533672 0.109715 1.664491 -0.264755 -0.055959 0.783109
    40 0.928313 0.000000 0.000000 0.000000 0.000000 -0.453556
    41 0.928314 0.000000 0.000001 0.000000 0.000000 0.000000
  time 3
    0 0.235347 0.367732 3.528927 0.000000 0.000000 -1.570874
    1 -2.945402 0.113285 0.000000 -1.570795 -1.570796 0.000000
    2 -0.000005 0.000007 3.713255 0.002054 3.115505 -0.021473
    3 18.045721 0.000000 0.000000 0.000000 0.000000 -0.121501
    4 17.597597 0.000000 0.000000 -0.002613 0.026036 0.099967
    5 0.000005 -0.000003 -3.713255 -0.002524 -3.124238 -0.024449
    6 18.045725 0.000000 0.000000 0.000000 0.000000 -0.127551
    7 17.597597 0.000000 0.000000 0.002950 -0.017289 0.103055
    8 1.293670 0.684478 -0.000001 -0.000004 -0.000001 0.306070
    9 5.309685 -0.003834 0.000000 0.000000 0.000000 -0.000004
    10 4.826790 -0.004591 0.000000 -0.173231 0.020530 0.115991
    11 5.792767 -0.005304 0.000000 -0.137946 0.018169 0.150222
    12 6.662317 -0.001453 0.000000 0.000000 -0.000001 0.471000
    13 2.046985 -0.000002 0.000000 0.256214 -0.181471 -0.077162
    14 -3.112024 1.517254 4.341911 0.996395 -1.194084 1.707023
    15 4.827230 0.000000 0.000001 0.045460 0.721016 -1.005765
    16 11.139763 0.000000 0.000000 0.000000 0.000000 -0.951536
    17 10.314597 0.000001 0.000000 -3.965498 0.019264 -0.392329
    18 2.975834 -0.386307 -0.044143 -0.000797 -0.043611 0.000035
    19 1.438886 0.000000 0.000000 0.000000 0.000000 0.706471
    20 1.485303 0.000000 0.000000 0.000000 0.000000 0.732660
    21 -2.869898 1.399663 -4.140396 0.639078 1.305590 3.291904
    22 4.972048 0.000000 0.000001 -1.056988 -1.020474 0.287303
    23 11.585355 0.000000 0.000000 0.000000 0.000000 -1.839859
    24 10.127057 0.000000 0.000001 1.645685 0.344322 0.060490
    25 2.683750 -0.427338 0.044205 -0.005786 0.043239 -0.157091
    26 1.438885 -0.000001 0.000000 0.000000 0.000000 0.732658
    27 1.485305 0.000001 0.000000 0.000000 0.000000 1.168770
    28 1.038631 0.548043 -0.144017 -0.000001 0.000001 -1.849906
    29 -0.064003 -0.023521 0.026161 0.000000 0.000000 0.000000
    30 3.013925 3.984634 -0.088975 -0.000001 0.000001 -1.849906
    31 -0.084188 -0.025627 -0.001098 0.000000 0.000000 0.000000
    32 4.778187 3.972486 -0.079803 -0.000001 0.000001 -1.849906
    33 -0.058556 -0.021324 0.004244 0.000000 0.000000 0.000000
    34 1.640598 -1.968779 -0.099219 -0.000001 0.000001 -1.849906
    35 0.055573 -0.028908 0.000000 0.000000 0.000000 0.000000
    36 1.646738 0.449549 -1.702246 -0.161934 0.581206 -0.284024
    37 0.928312 0.000000 -0.000002 0.000000 0.000000 0.000000
    38 0.928314 0.000000 0.000001 0.000000 0.000000 0.000000
    39 1.533672 0.109715 1.664491 -0.264755 -0.055959 0.783109
    40 0.928313 0.000000 0.000000 0.000000 0.000000 -0.453556
    41 0.928314 0.000000 0.000001 0.000000 0.000000 0.000000
  time 4
    0 0.235347 0.367732 3.528927 0.000000 0.000000 -1.570874
    1 -2.957121 0.113285 0.000000 -1.570795 -1.570796 0.000000
    2 -0.000005 0.000007 3.713255 0.002054 3.115505 -0.021473
    3 18.045721 0.000000 0.000000 0.000000 0.000000 -0.121501
    4 17.597597 0.000000 0.000000 -0.002613 0.026036 0.099967
    5 0.000005 -0.000003 -3.713255 -0.002524 -3.124238 -0.024449
    6 18.045725 0.000000 0.000000 0.000000 0.000000 -0.127551
    7 17.597597 0.000000 0.000000 0.002950 -0.017289 0.103055
    8 1.293670 0.684478 -0.000001 -0.000004 -0.000001 0.306070
    9 5.309685 -0.003834 0.000000 0.000000 0.000000 -0.000004
    10 4.826790 -0.004591 0.000000 -0.173199 0.020889 0.118019
    11 5.792767 -0.005304 0.000000 -0.137832 0.017557 0.155869
    12 6.662317 -0.001453 0.000000 0.000000 -0.000001 0.471000
    13 2.046985 -0.000002 0.000000 0.256860 -0.179940 -0.084848
    14 -3.112024 1.517254 4.341911 0.984795 -1.191045 1.719487
    15 4.827230 0.000000 0.000001 0.051392 0.710463 -1.003315
    16 11.139763 0.000000 0.000000 0.000000 0.000000 -0.951536
    17 10.314597 0.000001 0.000000 -3.965498 0.019264 -0.392329
    18 2.975834 -0.386307 -0.044143 -0.000797 -0.043611 0.000035
    19 1.438886 0.000000 0.000000 0.000000 0.000000 0.706471
    20 1.485303 0.000000 0.000000 0.000000 0.000000 0.732660
    21 -2.869898 1.399663 -4.140396 0.624217 1.300022 3.276564
    22 4.972048 0.000000 0.000001 -1.041903 -1.018463 0.272877
    23 11.585355 0.000000 0.000000 0.000000 0.000000 -1.839859
    24 10.127057 0.000000 0.000001 1.645685 0.344322 0.060490
    25 2.683750 -0.427338 0.044205 -0.005786 0.043239 -0.157091
    26 1.438885 -0.000001 0.000000 0.000000 0.000000 0.732658
    27 1.485305 0.000001 0.000000 0.000000 0.000000 1.168770
    28 1.038631 0.548043 -0.144017 -0.000001 0.000001 -1.849906
    29 -0.064003 -0.023521 0.026161 0.000000 0.000000 0.000000
    30 3.013925 3.984634 -0.088975 -0.000001 0.000001 -1.849906
    31 -0.084188 -0.025627 -0.001098 0.000000 0.000000 0.000000
    32 4.778187 3.972486 -0.079803 -0.000001 0.000001 -1.849906
    33 -0.058556 -0.021324 0.004244 0.000000 0.000000 0.000000
    34 1.640598 -1.968779 -0.099219 -0.000001 0.000001 -1.849906
    35 0.055573 -0.028908 0.000000 0.000000 0.000000 0.000000
    36 1.646738 0.449549 -1.702246 -0.161934 0.581206 -0.284024
    37 0.928312 0.000000 -0.000002 0.000000 0.000000 0.000000
    38 0.928314 0.000000 0.000001 0.000000 0.000000 0.000000
    39 1.533672 0.109715 1.664491 -0.264755 -0.055959 0.783109
    40 0.928313 0.000000 0.000000 0.000000 0.000000 -0.453556
    41 0.928314 0.000000 0.000001 0.000000 0.000000 0.000000
  time 5
    0 0.235347 0.367732 3.528927 0.000000 0.000000 -1.570874
    1 -2.968841 0.117191 0.000000 -1.570795 -1.570796 0.000000
    2 -0.000005 0.000007 3.713255 0.002054 3.115505 -0.021473
    3 18.045721 0.000000 0.000000 0.000000 0.000000 -0.121501
    4 17.597597 0.000000 0.000000 -0.002613 0.026036 0.099967
    5 0.000005 -0.000003 -3.713255 -0.002524 -3.124238 -0.024449
    6 18.045725 0.000000 0.000000 0.000000 0.000000 -0.127551
    7 17.597597 0.000000 0.000000 0.002950 -0.017289 0.103055
    8 1.293670 0.684478 -0.000001 -0.000004 -0.000001 0.306070
    9 5.309685 -0.003834 0.000000 0.000000 0.000000 -0.000004
    10 4.826790 -0.004591 0.000000 -0.173149 0.021273 0.120246
    11 5.792767 -0.005304 0.000000 -0.137701 0.016898 0.162036
    12 6.662317 -0.001453 0.000000 0.000000 -0.000001 0.471000
    13 2.046985 -0.000002 0.000000 0.257550 -0.178274 -0.093253
    14 -3.112024 1.517254 4.341911 0.972331 -1.187699 1.732909
    15 4.827230 0.000000 0.000001 0.057736 0.698890 -1.000777
    16 11.139763 0.000000 0.000000 0.000000 0.000000 -0.951536
    17 10.314597 0.000001 0.000000 -3.965498 0.019264 -0.392329
    18 2.975834 -0.386307 -0.044143 -0.000797 -0.043611 0.000035
    19 1.438886 0.000000 0.000000 0.000000 0.000000 0.706471
    20 1.485303 0.000000 0.000000 0.000000 0.000000 0.732660
    21 -2.869898 1.399663 -4.140396 0.608782 1.293888 3.260457
    22 4.972048 0.000000 0.000001 -1.025659 -1.016210 0.257265
    23 11.585355 0.000000 0.000000 0.000000 0.000000 -1.839859
    24 10.127057 0.000000 0.000001 1.645685 0.344322 0.060490
    25 2.683750 -0.427338 0.044205 -0.005786 0.043239 -0.157091
    26 1.438885 -0.000001 0.000000 0.000000 0.000000 0.732658
    27 1.485305 0.000001 0.000000 0.000000 0.000000 1.168770
    28 1.038631 0.548043 -0.144017 -0.000001 0.000001 -1.849906
    29 -0.064003 -0.023521 0.026161 0.000000 0.000000 0.000000
    30 3.013925 3.984634 -0.088975 -0.000001 0.000001 -1.849906
    31 -0.084188 -0.025627 -0.001098 0.000000 0.000000 0.000000
    32 4.778187 3.972486 -0.079803 -0.000001 0.000001 -1.849906
    33 -0.058556 -0.021324 0.004244 0.000000 0.000000 0.000000
    34 1.640598 -1.968779 -0.099219 -0.000001 0.000001 -1.849906
    35 0.055573 -0.028908 0.000000 0.000000 0.000000 0.000000
    36 1.646738 0.449549 -1.702246 -0.161934 0.581206 -0.284024
    37 0.928312 0.000000 -0.000002 0.000000 0.000000 0.000000
    38 0.928314 0.000000 0.000001 0.000000 0.000000 0.000000
    39 1.533672 0.109715 1.664491 -0.264755 -0.055959 0.783109
    40 0.928313 0.000000 0.000000 0.000000 0.000000 -0.453556
    41 0.928314 0.000000 0.000001 0.000000 0.000000 0.000000
  time 6
    0 0.235347 0.367732 3.528927 0.000000 0.000000 -1.570874
    1 -2.980560 0.117191 0.000000 -1.570795 -1.570796 0.000000
    2 -0.000005 0.000007 3.713255 0.002054 3.115505 -0.021473
    3 18.045721 0.000000 0.000000 0.000000 0.000000 -0.121501
    4 17.597597 0.000000 0.000000 -0.002613 0.026036 0.099967
    5 0.000005 -0.000003 -3.713255 -0.002524 -3.124238 -0.024449
    6 18.045725 0.000000 0.000000 0.000000 0.000000 -0.127551
    7 17.597597 0.000000 0.000000 0.002950 -0.017289 0.103055
    8 1.293670 0.684478 -0.000001 -0.000004 -0.000001 0.306070
    9 5.309685 -0.003834 0.000000 0.000000 0.000000 -0.000004
    10 4.826790 -0.004591 0.000000 -0.173100 0.021680 0.122583
    11 5.792767 -0.005304 0.000000 -0.137554 0.016191 0.168535
    12 6.662317 -0.001453 0.000000 0.000000 -0.000001 0.471000
    13 2.046985 -0.000002 0.000000 0.258282 -0.176495 -0.102018
    14 -3.112024 1.517254 4.341911 0.959484 -1.184083 1.746811
    15 4.827230 0.000000 0.000001 0.064314 0.686805 -0.998239
    16 11.139763 0.000000 0.000000 0.000000 0.000000 -0.951536
    17 10.314597 0.000001 0.000000 -3.965498 0.019264 -0.392329
    18 2.975834 -0.386307 -0.044143 -0.000797 -0.043611 0.000035
    19 1.438886 0.000000 0.000000 0.000000 0.000000 0.706471
    20 1.485303 0.000000 0.000000 0.000000 0.000000 0.732660
    21 -2.869898 1.399663 -4.140396 0.593154 1.287359 3.244255
    22 4.972048 0.000000 0.000001 -1.008641 -1.013717 0.240995
    23 11.585355 0.000000 0.000000 0.000000 0.000000 -1.839859
    24 10.127057 0.000000 0.000001 1.645685 0.344322 0.060490
    25 2.683750 -0.427338 0.044205 -0.005786 0.043239 -0.157091
    26 1.438885 -0.000001 0.000000 0.000000 0.000000 0.732658
    27 1.485305 0.000001 0.000000 0.000000 0.000000 1.168770
    28 1.038631 0.548043 -0.144017 -0.000001 0.000001 -1.849906
    29 -0.064003 -0.023521 0.026161 0.000000 0.000000 0.000000
    30 3.013925 3.984634 -0.088975 -0.000001 0.000001 -1.849906
    31 -0.084188 -0.025627 -0.001098 0.000000 0.000000 0.000000
    32 4.778187 3.972486 -0.079803 -0.000001 0.000001 -1.849906
    33 -0.058556 -0.021324 0.004244 0.000000 0.000000 0.000000
    34 1.640598 -1.968779 -0.099219 -0.000001 0.000001 -1.849906
    35 0.055573 -0.028908 0.000000 0.000000 0.000000 0.000000
    36 1.646738 0.449549 -1.702246 -0.161934 0.581206 -0.284024
    37 0.928312 0.000000 -0.000002 0.000000 0.000000 0.000000
    38 0.928314 0.000000 0.000001 0.000000 0.000000 0.000000
    39 1.533672 0.109715 1.664491 -0.264755 -0.055959 0.783109
    40 0.928313 0.000000 0.000000 0.000000 0.000000 -0.453556
    41 0.928314 0.000000 0.000001 0.000000 0.000000 0.000000
  time 7
    0 0.235347 0.367732 3.528927 0.000000 0.000000 -1.570874
    1 -2.996185 0.121097 0.000000 -1.570795 -1.570796 0.000000
    2 -0.000005 0.000007 3.713255 0.002054 3.115505 -0.021473
    3 18.045721 0.000000 0.000000 0.000000 0.000000 -0.121501
    4 17.597597 0.000000 0.000000 -0.002613 0.026036 0.099967
    5 0.000005 -0.000003 -3.713255 -0.002524 -3.124238 -0.024449
    6 18.045725 0.000000 0.000000 0.000000 0.000000 -0.127551
    7 17.597597 0.000000 0.000000 0.002950 -0.017289 0.103055
    8 1.293670 0.684478 -0.000001 -0.000004 -0.000001 0.306070
    9 5.309685 -0.003834 0.000000 0.000000 0.000000 -0.000004
    10 4.826790 -0.004591 0.000000 -0.173051 0.022100 0.124964
    11 5.792767 -0.005304 0.000000 -0.137391 0.015484 0.175137
    12 6.662317 -0.001453 0.000000 0.000000 -0.000001 0.471000
    13 2.046985 -0.000002 0.000000 0.258971 -0.174671 -0.111007
    14 -3.112024 1.517254 4.341911 0.946637 -1.180352 1.760713
    15 4.827230 0.000000 0.000001 0.070952 0.674466 -0.995877
    16 11.139763 0.000000 0.000000 0.000000 0.000000 -0.951536
    17 10.314597 0.000001 0.000000 -3.965498 0.019264 -0.392329
    18 2.975834 -0.386307 -0.044143 -0.000797 -0.043611 0.000035
    19 1.438886 0.000000 0.000000 0.000000 0.000000 0.706471
    20 1.485303 0.000000 0.000000 0.000000 0.000000 0.732660
    21 -2.869898 1.399663 -4.140396 0.578102 1.280632 3.228532
    22 4.972048 0.000000 0.000001 -0.991546 -1.010982 0.224461
    23 11.585355 0.000000 0.000000 0.000000 0.000000 -1.839859
    24 10.127057 0.000000 0.000001 1.645685 0.344322 0.060490
    25 2.683750 -0.427338 0.044205 -0.005786 0.043239 -0.157091
    26 1.438885 -0.000001 0.000000 0.000000 0.000000 0.732658
    27 1.485305 0.000001 0.000000 0.000000 0.000000 1.168770
    28 1.038631 0.548043 -0.144017 -0.000001 0.000001 -1.849906
    29 -0.064003 -0.023521 0.026161 0.000000 0.000000 0.000000
    30 3.013925 3.984634 -0.088975 -0.000001 0.000001 -1.849906
    31 -0.084188 -0.025627 -0.001098 0.000000 0.000000 0.000000
    32 4.778187 3.972486 -0.079803 -0.000001 0.000001 -1.849906
    33 -0.058556 -0.021324 0.004244 0.000000 0.000000 0.000000
    34 1.640598 -1.968779 -0.099219 -0.000001 0.000001 -1.849906
    35 0.055573 -0.028908 0.000000 0.000000 0.000000 0.000000
    36 1.646738 0.449549 -1.702246 -0.161934 0.581206 -0.284024
    37 0.928312 0.000000 -0.000002 0.000000 0.000000 0.000000
    38 0.928314 0.000000 0.000001 0.000000 0.000000 0.000000
    39 1.533672 0.109715 1.664491 -0.264755 -0.055959 0.783109
    40 0.928313 0.000000 0.000000 0.000000 0.000000 -0.453556
    41 0.928314 0.000000 0.000001 0.000000 0.000000 0.000000
  time 8
    0 0.235347 0.367732 3.528927 0.000000 0.000000 -1.570874
    1 -3.007904 0.121097 0.000000 -1.570795 -1.570796 0.000000
    2 -0.000005 0.000007 3.713255 0.002054 3.115505 -0.021473
    3 18.045721 0.000000 0.000000 0.000000 0.000000 -0.121501
    4 17.597597 0.000000 0.000000 -0.002613 0.026036 0.099967
    5 0.000005 -0.000003 -3.713255 -0.002524 -3.124238 -0.024449
    6 18.045725 0.000000 0.000000 0.000000 0.000000 -0.127551
    7 17.597597 0.000000 0.000000 0.002950 -0.017289 0.103055
    8 1.293670 0.684478 -0.000001 -0.000004 -0.000001 0.306070
    9 5.309685 -0.003834 0.000000 0.000000 0.000000 -0.000004
    10 4.826790 -0.004591 0.000000 -0.172985 0.022507 0.127346
    11 5.792767 -0.005304 0.000000 -0.137228 0.014777 0.181678
    12 6.662317 -0.001453 0.000000 0.000000 -0.000001 0.471000
    13 2.046985 -0.000002 0.000000 0.259618 -0.172870 -0.119862
    14 -3.112024 1.517254 4.341911 0.934174 -1.176582 1.774136
    15 4.827230 0.000000 0.000001 0.077413 0.662211 -0.993776
    16 11.139763 0.000000 0.000000 0.000000 0.000000 -0.951536
    17 10.314597 0.000001 0.000000 -3.965498 0.019264 -0.392329
    18 2.975834 -0.386307 -0.044143 -0.000797 -0.043611 0.000035
    19 1.438886 0.000000 0.000000 0.000000 0.000000 0.706471
    20 1.485303 0.000000 0.000000 0.000000 0.000000 0.732660
    21 -2.869898 1.399663 -4.140396 0.563817 1.273906 3.213575
    22 4.972048 0.000000 0.000001 -0.974837 -1.008086 0.208256
    23 11.585355 0.000000 0.000000 0.000000 0.000000 -1.839859
    24 10.127057 0.000000 0.000001 1.645685 0.344322 0.060490
    25 2.683750 -0.427338 0.044205 -0.005786 0.043239 -0.157091
    26 1.438885 -0.000001 0.000000 0.000000 0.000000 0.732658
    27 1.485305 0.000001 0.000000 0.000000 0.000000 1.168770
    28 1.038631 0.548043 -0.144017 -0.000001 0.000001 -1.849906
    29 -0.064003 -0.023521 0.026161 0.000000 0.000000 0.000000
    30 3.013925 3.984634 -0.088975 -0.000001 0.000001 -1.849906
    31 -0.084188 -0.025627 -0.001098 0.000000 0.000000 0.000000
    32 4.778187 3.972486 -0.079803 -0.000001 0.000001 -1.849906
    33 -0.058556 -0.021324 0.004244 0.000000 0.000000 0.000000
    34 1.640598 -1.968779 -0.099219 -0.000001 0.000001 -1.849906
    35 0.055573 -0.028908 0.000000 0.000000 0.000000 0.000000
    36 1.646738 0.449549 -1.702246 -0.161934 0.581206 -0.284024
    37 0.928312 0.000000 -0.000002 0.000000 0.000000 0.000000
    38 0.928314 0.000000 0.000001 0.000000 0.000000 0.000000
    39 1.533672 0.109715 1.664491 -0.264755 -0.055959 0.783109
    40 0.928313 0.000000 0.000000 0.000000 0.000000 -0.453556
    41 0.928314 0.000000 0.000001 0.000000 0.000000 0.000000
  time 9
    0 0.235347 0.367732 3.528927 0.000000 0.000000 -1.570874
    1 -3.019623 0.125004 0.000000 -1.570795 -1.570796 0.000000
    2 -0.000005 0.000007 3.713255 0.002054 3.115505 -0.021473
    3 18.045721 0.000000 0.000000 0.000000 0.000000 -0.121501
    4 17.597597 0.000000 0.000000 -0.002613 0.026036 0.099967
    5 0.000005 -0.000003 -3.713255 -0.002524 -3.124238 -0.024449
    6 18.045725 0.000000 0.000000 0.000000 0.000000 -0.127551
    7 17.597597 0.000000 0.000000 0.002950 -0.017289 0.103055
    8 1.293670 0.684478 -0.000001 -0.000004 -0.000001 0.306070
    9 5.309685 -0.003834 0.000000 0.000000 0.000000 -0.000004
    10 4.826790 -0.004591 0.000000 -0.172936 0.022903 0.129595
    11 5.792767 -0.005304 0.000000 -0.137065 0.014094 0.187969
    12 6.662317 -0.001453 0.000000 0.000000 -0.000001 0.471000
    13 2.046985 -0.000002 0.000000 0.260221 -0.171114 -0.128402
    14 -3.112024 1.517254 4.341911 0.922381 -1.172928 1.786888
    15 4.827230 0.000000 0.000001 0.083521 0.650382 -0.991851
    16 11.139763 0.000000 0.000000 0.000000 0.000000 -0.951536
    17 10.314597 0.000001 0.000000 -3.965498 0.019264 -0.392329
    18 2.975834 -0.386307 -0.044143 -0.000797 -0.043611 0.000035
    19 1.438886 0.000000 0.000000 0.000000 0.000000 0.706471
    20 1.485303 0.000000 0.000000 0.000000 0.000000 0.732660
    21 -2.869898 1.399663 -4.140396 0.550682 1.267405 3.199866
    22 4.972048 0.000000 0.000001 -0.958902 -1.005190 0.192776
    23 11.585355 0.000000 0.000000 0.000000 0.000000 -1.839859
    24 10.127057 0.000000 0.000001 1.645685 0.344322 0.060490
    25 2.683750 -0.427338 0.044205 -0.005786 0.043239 -0.157091
    26 1.438885 -0.000001 0.000000 0.000000 0.000000 0.732658
    27 1.485305 0.000001 0.000000 0.000000 0.000000 1.168770
    28 1.038631 0.548043 -0.144017 -0.000001 0.000001 -1.849906
    29 -0.064003 -0.023521 0.026161 0.000000 0.000000 0.000000
    30 3.013925 3.984634 -0.088975 -0.000001 0.000001 -1.849906
    31 -0.084188 -0.025627 -0.001098 0.000000 0.000000 0.000000
    32 4.778187 3.972486 -0.079803 -0.000001 0.000001 -1.849906
    33 -0.058556 -0.021324 0.004244 0.000000 0.000000 0.000000
    34 1.640598 -1.968779 -0.099219 -0.000001 0.000001 -1.849906
    35 0.055573 -0.028908 0.000000 0.000000 0.000000 0.000000
    36 1.646738 0.449549 -1.702246 -0.161934 0.581206 -0.284024
    37 0.928312 0.000000 -0.000002 0.000000 0.000000 0.000000
    38 0.928314 0.000000 0.000001 0.000000 0.000000 0.000000
    39 1.533672 0.109715 1.664491 -0.264755 -0.055959 0.783109
    40 0.928313 0.000000 0.000000 0.000000 0.000000 -0.453556
    41 0.928314 0.000000 0.000001 0.000000 0.000000 0.000000
  time 10
    0 0.235347 0.367732 3.528927 0.000000 0.000000 -1.570874
    1 -3.031343 0.125004 0.000000 -1.570795 -1.570796 0.000000
    2 -0.000005 0.000007 3.713255 0.002054 3.115505 -0.021473
    3 18.045721 0.000000 0.000000 0.000000 0.000000 -0.121501
    4 17.597597 0.000000 0.000000 -0.002613 0.026036 0.099967
    5 0.000005 -0.000003 -3.713255 -0.002524 -3.124238 -0.024449
    6 18.045725 0.000000 0.000000 0.000000 0.000000 -0.127551
    7 17.597597 0.000000 0.000000 0.002950 -0.017289 0.103055
    8 1.293670 0.684478 -0.000001 -0.000004 -0.000001 0.306070
    9 5.309685 -0.003834 0.000000 0.000000 0.000000 -0.000004
    10 4.826790 -0.004591 0.000000 -0.172887 0.023274 0.131711
    11 5.792767 -0.005304 0.000000 -0.136918 0.013459 0.193824
    12 6.662317 -0.001453 0.000000 0.000000 -0.000001 0.471000
    13 2.046985 -0.000002 0.000000 0.260781 -0.169470 -0.136313
    14 -3.112024 1.517254 4.341911 0.911739 -1.169428 1.798585
    15 4.827230 0.000000 0.000001 0.089160 0.639489 -0.990276
    16 11.139763 0.000000 0.000000 0.000000 0.000000 -0.951536
    17 10.314597 0.000001 0.000000 -3.965498 0.019264 -0.392329
    18 2.975834 -0.386307 -0.044143 -0.000797 -0.043611 0.000035
    19 1.438886 0.000000 0.000000 0.000000 0.000000 0.706471
    20 1.485303 0.000000 0.000000 0.000000 0.000000 0.732660
    21 -2.869898 1.399663 -4.140396 0.538986 1.261300 3.187594
    22 4.972048 0.000000 0.000001 -0.944204 -1.002374 0.178482
    23 11.585355 0.000000 0.000000 0.000000 0.000000 -1.839859
    24 10.127057 0.000000 0.000001 1.645685 0.344322 0.060490
    25 2.683750 -0.427338 0.044205 -0.005786 0.043239 -0.157091
    26 1.438885 -0.000001 0.000000 0.000000 0.000000 0.732658
    27 1.485305 0.000001 0.000000 0.000000 0.000000 1.168770
    28 1.038631 0.548043 -0.144017 -0.000001 0.000001 -1.849906
    29 -0.064003 -0.023521 0.026161 0.000000 0.000000 0.000000
    30 3.013925 3.984634 -0.088975 -0.000001 0.000001 -1.849906
    31 -0.084188 -0.025627 -0.001098 0.000000 0.000000 0.000000
    32 4.778187 3.972486 -0.079803 -0.000001 0.000001 -1.849906
    33 -0.058556 -0.021324 0.004244 0.000000 0.000000 0.000000
    34 1.640598 -1.968779 -0.099219 -0.000001 0.000001 -1.849906
    35 0.055573 -0.028908 0.000000 0.000000 0.000000 0.000000
    36 1.646738 0.449549 -1.702246 -0.161934 0.581206 -0.284024
    37 0.928312 0.000000 -0.000002 0.000000 0.000000 0.000000
    38 0.928314 0.000000 0.000001 0.000000 0.000000 0.000000
    39 1.533672 0.109715 1.664491 -0.264755 -0.055959 0.783109
    40 0.928313 0.000000 0.000000 0.000000 0.000000 -0.453556
    41 0.928314 0.000000 0.000001 0.000000 0.000000 0.000000
  time 11
    0 0.235347 0.367732 3.528927 0.000000 0.000000 -1.570874
    1 -3.043062 0.125004 0.000000 -1.570795 -1.570796 0.000000
    2 -0.000005 0.000007 3.713255 0.002054 3.115505 -0.021473
    3 18.045721 0.000000 0.000000 0.000000 0.000000 -0.121501
    4 17.597597 0.000000 0.000000 -0.002613 0.026036 0.099967
    5 0.000005 -0.000003 -3.713255 -0.002524 -3.124238 -0.024449
    6 18.045725 0.000000 0.000000 0.000000 0.000000 -0.127551
    7 17.597597 0.000000 0.000000 0.002950 -0.017289 0.103055
    8 1.293670 0.684478 -0.000001 -0.000004 -0.000001 0.306070
    9 5.309685 -0.003834 0.000000 0.000000 0.000000 -0.000004
    10 4.826790 -0.004591 0.000000 -0.172854 0.023610 0.133586
    11 5.792767 -0.005304 0.000000 -0.136772 0.012895 0.199035
    12 6.662317 -0.001453 0.000000 0.000000 -0.000001 0.471000
    13 2.046985 -0.000002 0.000000 0.261212 -0.168007 -0.143370
    14 -3.112024 1.517254 4.341911 0.902344 -1.166312 1.808747
    15 4.827230 0.000000 0.000001 0.094152 0.629703 -0.988876
    16 11.139763 0.000000 0.000000 0.000000 0.000000 -0.951536
    17 10.314597 0.000001 0.000000 -3.965498 0.019264 -0.392329
    18 2.975834 -0.386307 -0.044143 -0.000797 -0.043611 0.000035
    19 1.438886 0.000000 0.000000 0.000000 0.000000 0.706471
    20 1.485303 0.000000 0.000000 0.000000 0.000000 0.732660
    21 -2.869898 1.399663 -4.140396 0.529015 1.255845 3.177048
    22 4.972048 0.000000 0.000001 -0.931286 -0.999800 0.165900
    23 11.585355 0.000000 0.000000 0.000000 0.000000 -1.839859
    24 10.127057 0.000000 0.000001 1.645685 0.344322 0.060490
    25 2.683750 -0.427338 0.044205 -0.005786 0.043239 -0.157091
    26 1.438885 -0.000001 0.000000 0.000000 0.000000 0.732658
    27 1.485305 0.000001 0.000000 0.000000 0.000000 1.168770
    28 1.038631 0.548043 -0.144017 -0.000001 0.000001 -1.849906
    29 -0.064003 -0.023521 0.026161 0.000000 0.000000 0.000000
    30 3.013925 3.984634 -0.088975 -0.000001 0.000001 -1.849906
    31 -0.084188 -0.025627 -0.001098 0.000000 0.000000 0.000000
    32 4.778187 3.972486 -0.079803 -0.000001 0.000001 -1.849906
    33 -0.058556 -0.021324 0.004244 0.000000 0.000000 0.000000
    34 1.640598 -1.968779 -0.099219 -0.000001 0.000001 -1.849906
    35 0.055573 -0.028908 0.000000 0.000000 0.000000 0.000000
    36 1.646738 0.449549 -1.702246 -0.161934 0.581206 -0.284024
    37 0.928312 0.000000 -0.000002 0.000000 0.000000 0.000000
    38 0.928314 0.000000 0.000001 0.000000 0.000000 0.000000
    39 1.533672 0.109715 1.664491 -0.264755 -0.055959 0.783109
    40 0.928313 0.000000 0.000000 0.000000 0.000000 -0.453556
    41 0.928314 0.000000 0.000001 0.000000 0.000000 0.000000
  time 12
    0 0.235347 0.367732 3.528927 0.000000 0.000000 -1.570874
    1 -3.050874 0.128910 0.000000 -1.570795 -1.570796 0.000000
    2 -0.000005 0.000007 3.713255 0.002054 3.115505 -0.021473
    3 18.045721 0.000000 0.000000 0.000000 0.000000 -0.121501
    4 17.597597 0.000000 0.000000 -0.002613 0.026036 0.099967
    5 0.000005 -0.000003 -3.713255 -0.002524 -3.124238 -0.024449
    6 18.045725 0.000000 0.000000 0.000000 0.000000 -0.127551
    7 17.597597 0.000000 0.000000 0.002950 -0.017289 0.103055
    8 1.293670 0.684478 -0.000001 -0.000004 -0.000001 0.306070
    9 5.309685 -0.003834 0.000000 0.000000 0.000000 -0.000004
    10 4.826790 -0.004591 0.000000 -0.172805 0.023885 0.135173
    11 5.792767 -0.005304 0.000000 -0.136657 0.012416 0.203416
    12 6.662317 -0.001453 0.000000 0.000000 -0.000001 0.471000
    13 2.046985 -0.000002 0.000000 0.261599 -0.166768 -0.149303
    14 -3.112024 1.517254 4.341911 0.894482 -1.163658 1.817280
    15 4.827230 0.000000 0.000001 0.098264 0.621533 -0.987825
    16 11.139763 0.000000 0.000000 0.000000 0.000000 -0.951536
    17 10.314597 0.000001 0.000000 -3.965498 0.019264 -0.392329
    18 2.975834 -0.386307 -0.044143 -0.000797 -0.043611 0.000035
    19 1.438886 0.000000 0.000000 0.000000 0.000000 0.706471
    20 1.485303 0.000000 0.000000 0.000000 0.000000 0.732660
    21 -2.869898 1.399663 -4.140396 0.520866 1.251209 3.168515
    22 4.972048 0.000000 0.000001 -0.920534 -0.997548 0.155361
    23 11.585355 0.000000 0.000000 0.000000 0.000000 -1.839859
    24 10.127057 0.000000 0.000001 1.645685 0.344322 0.060490
    25 2.683750 -0.427338 0.044205 -0.005786 0.043239 -0.157091
    26 1.438885 -0.000001 0.000000 0.000000 0.000000 0.732658
    27 1.485305 0.000001 0.000000 0.000000 0.000000 1.168770
    28 1.038631 0.548043 -0.144017 -0.000001 0.000001 -1.849906
    29 -0.064003 -0.023521 0.026161 0.000000 0.000000 0.000000
    30 3.013925 3.984634 -0.088975 -0.000001 0.000001 -1.849906
    31 -0.084188 -0.025627 -0.001098 0.000000 0.000000 0.000000
    32 4.778187 3.972486 -0.079803 -0.000001 0.000001 -1.849906
    33 -0.058556 -0.021324 0.004244 0.000000 0.000000 0.000000
    34 1.640598 -1.968779 -0.099219 -0.000001 0.000001 -1.849906
    35 0.055573 -0.028908 0.000000 0.000000 0.000000 0.000000
    36 1.646738 0.449549 -1.702246 -0.161934 0.581206 -0.284024
    37 0.928312 0.000000 -0.000002 0.000000 0.000000 0.000000
    38 0.928314 0.000000 0.000001 0.000000 0.000000 0.000000
    39 1.533672 0.109715 1.664491 -0.264755 -0.055959 0.783109
    40 0.928313 0.000000 0.000000 0.000000 0.000000 -0.453556
    41 0.928314 0.000000 0.000001 0.000000 0.000000 0.000000
  time 13
    0 0.235347 0.367732 3.528927 0.000000 0.000000 -1.570874
    1 -3.058687 0.128910 0.000000 -1.570795 -1.570796 0.000000
    2 -0.000005 0.000007 3.713255 0.002054 3.115505 -0.021473
    3 18.045721 0.000000 0.000000 0.000000 0.000000 -0.121501
    4 17.597597 0.000000 0.000000 -0.002613 0.026036 0.099967
    5 0.000005 -0.000003 -3.713255 -0.002524 -3.124238 -0.024449
    6 18.045725 0.000000 0.000000 0.000000 0.000000 -0.127551
    7 17.597597 0.000000 0.000000 0.002950 -0.017289 0.103055
    8 1.293670 0.684478 -0.000001 -0.000004 -0.000001 0.306070
    9 5.309685 -0.003834 0.000000 0.000000 0.000000 -0.000004
    10 4.826790 -0.004591 0.000000 -0.172788 0.024089 0.136386
    11 5.792767 -0.005304 0.000000 -0.136560 0.012045 0.206780
    12 6.662317 -0.001453 0.000000 0.000000 -0.000001 0.471000
    13 2.046985 -0.000002 0.000000 0.261858 -0.165823 -0.153843
    14 -3.112024 1.517254 4.341911 0.888634 -1.161581 1.823704
    15 4.827230 0.000000 0.000001 0.101436 0.615236 -0.987125
    16 11.139763 0.000000 0.000000 0.000000 0.000000 -0.951536
    17 10.314597 0.000001 0.000000 -3.965498 0.019264 -0.392329
    18 2.975834 -0.386307 -0.044143 -0.000797 -0.043611 0.000035
    19 1.438886 0.000000 0.000000 0.000000 0.000000 0.706471
    20 1.485303 0.000000 0.000000 0.000000 0.000000 0.732660
    21 -2.869898 1.399663 -4.140396 0.514730 1.247620 3.162092
    22 4.972048 0.000000 0.000001 -0.912334 -0.995778 0.147324
    23 11.585355 0.000000 0.000000 0.000000 0.000000 -1.839859
    24 10.127057 0.000000 0.000001 1.645685 0.344322 0.060490
    25 2.683750 -0.427338 0.044205 -0.005786 0.043239 -0.157091
    26 1.438885 -0.000001 0.000000 0.000000 0.000000 0.732658
    27 1.485305 0.000001 0.000000 0.000000 0.000000 1.168770
    28 1.038631 0.548043 -0.144017 -0.000001 0.000001 -1.849906
    29 -0.064003 -0.023521 0.026161 0.000000 0.000000 0.000000
    30 3.013925 3.984634 -0.088975 -0.000001 0.000001 -1.849906
    31 -0.084188 -0.025627 -0.001098 0.000000 0.000000 0.000000
    32 4.778187 3.972486 -0.079803 -0.000001 0.000001 -1.849906
    33 -0.058556 -0.021324 0.004244 0.000000 0.000000 0.000000
    34 1.640598 -1.968779 -0.099219 -0.000001 0.000001 -1.849906
    35 0.055573 -0.028908 0.000000 0.000000 0.000000 0.000000
    36 1.646738 0.449549 -1.702246 -0.161934 0.581206 -0.284024
    37 0.928312 0.000000 -0.000002 0.000000 0.000000 0.000000
    38 0.928314 0.000000 0.000001 0.000000 0.000000 0.000000
    39 1.533672 0.109715 1.664491 -0.264755 -0.055959 0.783109
    40 0.928313 0.000000 0.000000 0.000000 0.000000 -0.453556
    41 0.928314 0.000000 0.000001 0.000000 0.000000 0.000000
  time 14
    0 0.235347 0.367732 3.528927 0.000000 0.000000 -1.570874
    1 -3.062593 0.128910 0.000000 -1.570795 -1.570796 0.000000
    2 -0.000005 0.000007 3.713255 0.002054 3.115505 -0.021473
    3 18.045721 0.000000 0.000000 0.000000 0.000000 -0.121501
    4 17.597597 0.000000 0.000000 -0.002613 0.026036 0.099967
    5 0.000005 -0.000003 -3.713255 -0.002524 -3.124238 -0.024449
    6 18.045725 0.000000 0.000000 0.000000 0.000000 -0.127551
    7 17.597597 0.000000 0.000000 0.002950 -0.017289 0.103055
    8 1.293670 0.684478 -0.000001 -0.000004 -0.000001 0.306070
    9 5.309685 -0.003834 0.000000 0.000000 0.000000 -0.000004
    10 4.826790 -0.004591 0.000000 -0.172755 0.024233 0.137158
    11 5.792767 -0.005304 0.000000 -0.136511 0.011817 0.208960
    12 6.662317 -0.001453 0.000000 0.000000 -0.000001 0.471000
    13 2.046985 -0.000002 0.000000 0.262030 -0.165215 -0.156764
    14 -3.112024 1.517254 4.341911 0.884799 -1.160234 1.827827
    15 4.827230 0.000000 0.000001 0.103491 0.611151 -0.986688
    16 11.139763 0.000000 0.000000 0.000000 0.000000 -0.951536
    17 10.314597 0.000001 0.000000 -3.965498 0.019264 -0.392329
    18 2.975834 -0.386307 -0.044143 -0.000797 -0.043611 0.000035
    19 1.438886 0.000000 0.000000 0.000000 0.000000 0.706471
    20 1.485303 0.000000 0.000000 0.000000 0.000000 0.732660
    21 -2.869898 1.399663 -4.140396 0.510895 1.245331 3.157969
    22 4.972048 0.000000 0.000001 -0.907074 -0.994572 0.142186
    23 11.585355 0.000000 0.000000 0.000000 0.000000 -1.839859
    24 10.127057 0.000000 0.000001 1.645685 0.344322 0.060490
    25 2.683750 -0.427338 0.044205 -0.005786 0.043239 -0.157091
    26 1.438885 -0.000001 0.000000 0.000000 0.000000 0.732658
    27 1.485305 0.000001 0.000000 0.000000 0.000000 1.168770
    28 1.038631 0.548043 -0.144017 -0.000001 0.000001 -1.849906
    29 -0.064003 -0.023521 0.026161 0.000000 0.000000 0.000000
    30 3.013925 3.984634 -0.088975 -0.000001 0.000001 -1.849906
    31 -0.084188 -0.025627 -0.001098 0.000000 0.000000 0.000000
    32 4.778187 3.972486 -0.079803 -0.000001 0.000001 -1.849906
    33 -0.058556 -0.021324 0.004244 0.000000 0.000000 0.000000
    34 1.640598 -1.968779 -0.099219 -0.000001 0.000001 -1.849906
    35 0.055573 -0.028908 0.000000 0.000000 0.000000 0.000000
    36 1.646738 0.449549 -1.702246 -0.161934 0.581206 -0.284024
    37 0.928312 0.000000 -0.000002 0.000000 0.000000 0.000000
    38 0.928314 0.000000 0.000001 0.000000 0.000000 0.000000
    39 1.533672 0.109715 1.664491 -0.264755 -0.055959 0.783109
    40 0.928313 0.000000 0.000000 0.000000 0.000000 -0.453556
    41 0.928314 0.000000 0.000001 0.000000 0.000000 0.000000
  time 15
    0 0.235347 0.367732 3.528927 0.000000 0.000000 -1.570874
    1 -3.062593 0.128910 0.000000 -1.570795 -1.570796 0.000000
    2 -0.000005 0.000007 3.713255 0.002054 3.115505 -0.021473
    3 18.045721 0.000000 0.000000 0.000000 0.000000 -0.121501
    4 17.597597 0.000000 0.000000 -0.002613 0.026036 0.099967
    5 0.000005 -0.000003 -3.713255 -0.002524 -3.124238 -0.024449
    6 18.045725 0.000000 0.000000 0.000000 0.000000 -0.127551
    7 17.597597 0.000000 0.000000 0.002950 -0.017289 0.103055
    8 1.293670 0.684478 -0.000001 -0.000004 -0.000001 0.306070
    9 5.309685 -0.003834 0.000000 0.000000 0.000000 -0.000004
    10 4.826790 -0.004591 0.000000 -0.172755 0.024281 0.137444
    11 5.792767 -0.005304 0.000000 -0.136478 0.011733 0.209707
    12 6.662317 -0.001453 0.000000 0.000000 -0.000001 0.471000
    13 2.046985 -0.000002 0.000000 0.262116 -0.164990 -0.157798
    14 -3.112024 1.517254 4.341911 0.883553 -1.159773 1.829265
    15 4.827230 0.000000 0.000001 0.104196 0.609789 -0.986513
    16 11.139763 0.000000 0.000000 0.000000 0.000000 -0.951536
    17 10.314597 0.000001 0.000000 -3.965498 0.019264 -0.392329
    18 2.975834 -0.386307 -0.044143 -0.000797 -0.043611 0.000035
    19 1.438886 0.000000 0.000000 0.000000 0.000000 0.706471
    20 1.485303 0.000000 0.000000 0.000000 0.000000 0.732660
    21 -2.869898 1.399663 -4.140396 0.509553 1.244511 3.156531
    22 4.972048 0.000000 0.000001 -0.905218 -0.994169 0.140342
    23 11.585355 0.000000 0.000000 0.000000 0.000000 -1.839859
    24 10.127057 0.000000 0.000001 1.645685 0.344322 0.060490
    25 2.683750 -0.427338 0.044205 -0.005786 0.043239 -0.157091
    26 1.438885 -0.000001 0.000000 0.000000 0.000000 0.732658
    27 1.485305 0.000001 0.000000 0.000000 0.000000 1.168770
    28 1.038631 0.548043 -0.144017 -0.000001 0.000001 -1.849906
    29 -0.064003 -0.023521 0.026161 0.000000 0.000000 0.000000
    30 3.013925 3.984634 -0.088975 -0.000001 0.000001 -1.849906
    31 -0.084188 -0.025627 -0.001098 0.000000 0.000000 0.000000
    32 4.778187 3.972486 -0.079803 -0.000001 0.000001 -1.849906
    33 -0.058556 -0.021324 0.004244 0.000000 0.000000 0.000000
    34 1.640598 -1.968779 -0.099219 -0.000001 0.000001 -1.849906
    35 0.055573 -0.028908 0.000000 0.000000 0.000000 0.000000
    36 1.646738 0.449549 -1.702246 -0.161934 0.581206 -0.284024
    37 0.928312 0.000000 -0.000002 0.000000 0.000000 0.000000
    38 0.928314 0.000000 0.000001 0.000000 0.000000 0.000000
    39 1.533672 0.109715 1.664491 -0.264755 -0.055959 0.783109
    40 0.928313 0.000000 0.000000 0.000000 0.000000 -0.453556
    41 0.928314 0.000000 0.000001 0.000000 0.000000 0.000000
  time 16
    0 0.235347 0.367732 3.528927 0.000000 0.000000 -1.570874
    1 -3.062593 0.128910 0.000000 -1.570795 -1.570796 0.000000
    2 -0.000005 0.000007 3.713255 0.002054 3.115505 -0.021473
    3 18.045721 0.000000 0.000000 0.000000 0.000000 -0.121501
    4 17.597597 0.000000 0.000000 -0.002613 0.026036 0.099967
    5 0.000005 -0.000003 -3.713255 -0.002524 -3.124238 -0.024449
    6 18.045725 0.000000 0.000000 0.000000 0.000000 -0.127551
    7 17.597597 0.000000 0.000000 0.002950 -0.017289 0.103055
    8 1.293670 0.684478 -0.000001 -0.000004 -0.000001 0.306070
    9 5.309685 -0.003834 0.000000 0.000000 0.000000 -0.000004
    10 4.826790 -0.004591 0.000000 -0.172755 0.024233 0.137158
    11 5.792767 -0.005304 0.000000 -0.136511 0.011817 0.208960
    12 6.662317 -0.001453 0.000000 0.000000 -0.000001 0.471000
    13 2.046985 -0.000002 0.000000 0.262030 -0.165215 -0.156764
    14 -3.112024 1.517254 4.341911 0.884799 -1.160234 1.827827
    15 4.827230 0.000000 0.000001 0.103491 0.611151 -0.986688
    16 11.139763 0.000000 0.000000 0.000000 0.000000 -0.951536
    17 10.314597 0.000001 0.000000 -3.965498 0.019264 -0.392329
    18 2.975834 -0.386307 -0.044143 -0.000797 -0.043611 0.000035
    19 1.438886 0.000000 0.000000 0.000000 0.000000 0.706471
    20 1.485303 0.000000 0.000000 0.000000 0.000000 0.732660
    21 -2.869898 1.399663 -4.140396 0.510895 1.245331 3.157969
    22 4.972048 0.000000 0.000001 -0.907074 -0.994572 0.142186
    23 11.585355 0.000000 0.000000 0.000000 0.000000 -1.839859
    24 10.127057 0.000000 0.000001 1.645685 0.344322 0.060490
    25 2.683750 -0.427338 0.044205 -0.005786 0.043239 -0.157091
    26 1.438885 -0.000001 0.000000 0.000000 0.000000 0.732658
    27 1.485305 0.000001 0.000000 0.000000 0.000000 1.168770
    28 1.038631 0.548043 -0.144017 -0.000001 0.000001 -1.849906
    29 -0.064003 -0.023521 0.026161 0.000000 0.000000 0.000000
    30 3.013925 3.984634 -0.088975 -0.000001 0.000001 -1.849906
    31 -0.084188 -0.025627 -0.001098 0.000000 0.000000 0.000000
    32 4.778187 3.972486 -0.079803 -0.000001 0.000001 -1.849906
    33 -0.058556 -0.021324 0.004244 0.000000 0.000000 0.000000
    34 1.640598 -1.968779 -0.099219 -0.000001 0.000001 -1.849906
    35 0.055573 -0.028908 0.000000 0.000000 0.000000 0.000000
    36 1.646738 0.449549 -1.702246 -0.161934 0.581206 -0.284024
    37 0.928312 0.000000 -0.000002 0.000000 0.000000 0.000000
    38 0.928314 0.000000 0.000001 0.000000 0.000000 0.000000
    39 1.533672 0.109715 1.664491 -0.264755 -0.055959 0.783109
    40 0.928313 0.000000 0.000000 0.000000 0.000000 -0.453556
    41 0.928314 0.000000 0.000001 0.000000 0.000000 0.000000
  time 17
    0 0.235347 0.367732 3.528927 0.000000 0.000000 -1.570874
    1 -3.058687 0.128910 0.000000 -1.570795 -1.570796 0.000000
    2 -0.000005 0.000007 3.713255 0.002054 3.115505 -0.021473
    3 18.045721 0.000000 0.000000 0.000000 0.000000 -0.121501
    4 17.597597 0.000000 0.000000 -0.002613 0.026036 0.099967
    5 0.000005 -0.000003 -3.713255 -0.002524 -3.124238 -0.024449
    6 18.045725 0.000000 0.000000 0.000000 0.000000 -0.127551
    7 17.597597 0.000000 0.000000 0.002950 -0.017289 0.103055
    8 1.293670 0.684478 -0.000001 -0.000004 -0.000001 0.306070
    9 5.309685 -0.003834 0.000000 0.000000 0.000000 -0.000004
    10 4.826790 -0.004591 0.000000 -0.172788 0.024089 0.136386
    11 5.792767 -0.005304 0.000000 -0.136560 0.012045 0.206780
    12 6.662317 -0.001453 0.000000 0.000000 -0.000001 0.471000
    13 2.046985 -0.000002 0.000000 0.261858 -0.165823 -0.153843
    14 -3.112024 1.517254 4.341911 0.888634 -1.161581 1.823704
    15 4.827230 0.000000 0.000001 0.101436 0.615236 -0.987125
    16 11.139763 0.000000 0.000000 0.000000 0.000000 -0.951536
    17 10.314597 0.000001 0.000000 -3.965498 0.019264 -0.392329
    18 2.975834 -0.386307 -0.044143 -0.000797 -0.043611 0.000035
    19 1.438886 0.000000 0.000000 0.000000 0.000000 0.706471
    20 1.485303 0.000000 0.000000 0.000000 0.000000 0.732660
    21 -2.869898 1.399663 -4.140396 0.514730 1.247620 3.162092
    22 4.972048 0.000000 0.000001 -0.912334 -0.995778 0.147324
    23 11.585355 0.000000 0.000000 0.000000 0.000000 -1.839859
    24 10.127057 0.000000 0.000001 1.645685 0.344322 0.060490
    25 2.683750 -0.427338 0.044205 -0.005786 0.043239 -0.157091
    26 1.438885 -0.000001 0.000000 0.000000 0.000000 0.732658
    27 1.485305 0.000001 0.000000 0.000000 0.000000 1.168770
    28 1.038631 0.548043 -0.144017 -0.000001 0.000001 -1.849906
    29 -0.064003 -0.023521 0.026161 0.000000 0.000000 0.000000
    30 3.013925 3.984634 -0.088975 -0.000001 0.000001 -1.849906
    31 -0.084188 -0.025627 -0.001098 0.000000 0.000000 0.000000
    32 4.778187 3.972486 -0.079803 -0.000001 0.000001 -1.849906
    33 -0.058556 -0.021324 0.004244 0.000000 0.000000 0.000000
    34 1.640598 -1.968779 -0.099219 -0.000001 0.000001 -1.849906
    35 0.055573 -0.028908 0.000000 0.000000 0.000000 0.000000
    36 1.646738 0.449549 -1.702246 -0.161934 0.581206 -0.284024
    37 0.928312 0.000000 -0.000002 0.000000 0.000000 0.000000
    38 0.928314 0.000000 0.000001 0.000000 0.000000 0.000000
    39 1.533672 0.109715 1.664491 -0.264755 -0.055959 0.783109
    40 0.928313 0.000000 0.000000 0.000000 0.000000 -0.453556
    41 0.928314 0.000000 0.000001 0.000000 0.000000 0.000000
  time 18
    0 0.235347 0.367732 3.528927 0.000000 0.000000 -1.570874
    1 -3.050874 0.128910 0.000000 -1.570795 -1.570796 0.000000
    2 -0.000005 0.000007 3.713255 0.002054 3.115505 -0.021473
    3 18.045721 0.000000 0.000000 0.000000 0.000000 -0.121501
    4 17.597597 0.000000 0.000000 -0.002613 0.026036 0.099967
    5 0.000005 -0.000003 -3.713255 -0.002524 -3.124238 -0.024449
    6 18.045725 0.000000 0.000000 0.000000 0.000000 -0.127551
    7 17.597597 0.000000 0.000000 0.002950 -0.017289 0.103055
    8 1.293670 0.684478 -0.000001 -0.000004 -0.000001 0.306070
    9 5.309685 -0.003834 0.000000 0.000000 0.000000 -0.000004
    10 4.826790 -0.004591 0.000000 -0.172805 0.023885 0.135173
    11 5.792767 -0.005304 0.000000 -0.136657 0.012416 0.203416
    12 6.662317 -0.001453 0.000000 0.000000 -0.000001 0.471000
    13 2.046985 -0.000002 0.000000 0.261599 -0.166768 -0.149303
    14 -3.112024 1.517254 4.341911 0.894482 -1.163658 1.817280
    15 4.827230 0.000000 0.000001 0.098264 0.621533 -0.987825
    16 11.139763 0.000000 0.000000 0.000000 0.000000 -0.951536
    17 10.314597 0.000001 0.000000 -3.965498 0.019264 -0.392329
    18 2.975834 -0.386307 -0.044143 -0.000797 -0.043611 0.000035
    19 1.438886 0.000000 0.000000 0.000000 0.000000 0.706471
    20 1.485303 0.000000 0.000000 0.000000 0.000000 0.732660
    21 -2.869898 1.399663 -4.140396 0.520866 1.251209 3.168515
    22 4.972048 0.000000 0.000001 -0.920534 -0.997548 0.155361
    23 11.585355 0.000000 0.000000 0.000000 0.000000 -1.839859
    24 10.127057 0.000000 0.000001 1.645685 0.344322 0.060490
    25 2.683750 -0.427338 0.044205 -0.005786 0.043239 -0.157091
    26 1.438885 -0.000001 0.000000 0.000000 0.000000 0.732658
    27 1.485305 0.000001 0.000000 0.000000 0.000000 1.168770
    28 1.038631 0.548043 -0.144017 -0.000001 0.000001 -1.849906
    29 -0.064003 -0.023521 0.026161 0.000000 0.000000 0.000000
    30 3.013925 3.984634 -0.088975 -0.000001 0.000001 -1.849906
    31 -0.084188 -0.025627 -0.001098 0.000000 0.000000 0.000000
    32 4.778187 3.972486 -0.079803 -0.000001 0.000001 -1.849906
    33 -0.058556 -0.021324 0.004244 0.000000 0.000000 0.000000
    34 1.640598 -1.968779 -0.099219 -0.000001 0.000001 -1.849906
    35 0.055573 -0.028908 0.000000 0.000000 0.000000 0.000000
    36 1.646738 0.449549 -1.702246 -0.161934 0.581206 -0.284024
    37 0.928312 0.000000 -0.000002 0.000000 0.000000 0.000000
    38 0.928314 0.000000 0.000001 0.000000 0.000000 0.000000
    39 1.533672 0.109715 1.664491 -0.264755 -0.055959 0.783109
    40 0.928313 0.000000 0.000000 0.000000 0.000000 -0.453556
    41 0.928314 0.000000 0.000001 0.000000 0.000000 0.000000
  time 19
    0 0.235347 0.367732 3.528927 0.000000 0.000000 -1.570874
    1 -3.043062 0.125004 0.000000 -1.570795 -1.570796 0.000000
    2 -0.000005 0.000007 3.713255 0.002054 3.115505 -0.021473
    3 18.045721 0.000000 0.000000 0.000000 0.000000 -0.121501
    4 17.597597 0.000000 0.000000 -0.002613 0.026036 0.099967
    5 0.000005 -0.000003 -3.713255 -0.002524 -3.124238 -0.024449
    6 18.045725 0.000000 0.000000 0.000000 0.000000 -0.127551
    7 17.597597 0.000000 0.000000 0.002950 -0.017289 0.103055
    8 1.293670 0.684478 -0.000001 -0.000004 -0.000001 0.306070
    9 5.309685 -0.003834 0.000000 0.000000 0.000000 -0.000004
    10 4.826790 -0.004591 0.000000 -0.172854 0.023610 0.133586
    11 5.792767 -0.005304 0.000000 -0.136772 0.012895 0.199035
    12 6.662317 -0.001453 0.000000 0.000000 -0.000001 0.471000
    13 2.046985 -0.000002 0.000000 0.261212 -0.168007 -0.143370
    14 -3.112024 1.517254 4.341911 0.902344 -1.166312 1.808747
    15 4.827230 0.000000 0.000001 0.094152 0.629703 -0.988876
    16 11.139763 0.000000 0.000000 0.000000 0.000000 -0.951536
    17 10.314597 0.000001 0.000000 -3.965498 0.019264 -0.392329
    18 2.975834 -0.386307 -0.044143 -0.000797 -0.043611 0.000035
    19 1.438886 0.000000 0.000000 0.000000 0.000000 0.706471
    20 1.485303 0.000000 0.000000 0.000000 0.000000 0.732660
    21 -2.869898 1.399663 -4.140396 0.529015 1.255845 3.177048
    22 4.972048 0.000000 0.000001 -0.931286 -0.999800 0.165900
    23 11.585355 0.000000 0.000000 0.000000 0.000000 -1.839859
    24 10.127057 0.000000 0.000001 1.645685 0.344322 0.060490
    25 2.683750 -0.427338 0.044205 -0.005786 0.043239 -0.157091
    26 1.438885 -0.000001 0.000000 0.000000 0.000000 0.732658
    27 1.485305 0.000001 0.000000 0.000000 0.000000 1.168770
    28 1.038631 0.548043 -0.144017 -0.000001 0.000001 -1.849906
    29 -0.064003 -0.023521 0.026161 0.000000 0.000000 0.000000
    30 3.013925 3.984634 -0.088975 -0.000001 0.000001 -1.849906
    31 -0.084188 -0.025627 -0.001098 0.000000 0.000000 0.000000
    32 4.778187 3.972486 -0.079803 -0.000001 0.000001 -1.849906
    33 -0.058556 -0.021324 0.004244 0.000000 0.000000 0.000000
    34 1.640598 -1.968779 -0.099219 -0.000001 0.000001 -1.849906
    35 0.055573 -0.028908 0.000000 0.000000 0.000000 0.000000
    36 1.646738 0.449549 -1.702246 -0.161934 0.581206 -0.284024
    37 0.928312 0.000000 -0.000002 0.000000 0.000000 0.000000
    38 0.928314 0.000000 0.000001 0.000000 0.000000 0.000000
    39 1.533672 0.109715 1.664491 -0.264755 -0.055959 0.783109
    40 0.928313 0.000000 0.000000 0.000000 0.000000 -0.453556
    41 0.928314 0.000000 0.000001 0.000000 0.000000 0.000000
  time 20
    0 0.235347 0.367732 3.528927 0.000000 0.000000 -1.570874
    1 -3.031343 0.125004 0.000000 -1.570795 -1.570796 0.000000
    2 -0.000005 0.000007 3.713255 0.002054 3.115505 -0.021473
    3 18.045721 0.000000 0.000000 0.000000 0.000000 -0.121501
    4 17.597597 0.000000 0.000000 -0.002613 0.026036 0.099967
    5 0.000005 -0.000003 -3.713255 -0.002524 -3.124238 -0.024449
    6 18.045725 0.000000 0.000000 0.000000 0.000000 -0.127551
    7 17.597597 0.000000 0.000000 0.002950 -0.017289 0.103055
    8 1.293670 0.684478 -0.000001 -0.000004 -0.000001 0.306070
    9 5.309685 -0.003834 0.000000 0.000000 0.000000 -0.000004
    10 4.826790 -0.004591 0.000000 -0.172887 0.023274 0.131711
    11 5.792767 -0.005304 0.000000 -0.136918 0.013459 0.193824
    12 6.662317 -0.001453 0.000000 0.000000 -0.000001 0.471000
    13 2.046985 -0.000002 0.000000 0.260781 -0.169470 -0.136313
    14 -3.112024 1.517254 4.341911 0.911739 -1.169428 1.798585
    15 4.827230 0.000000 0.000001 0.089160 0.639489 -0.990276
    16 11.139763 0.000000 0.000000 0.000000 0.000000 -0.951536
    17 10.314597 0.000001 0.000000 -3.965498 0.019264 -0.392329
    18 2.975834 -0.386307 -0.044143 -0.000797 -0.043611 0.000035
    19 1.438886 0.000000 0.000000 0.000000 0.000000 0.706471
    20 1.485303 0.000000 0.000000 0.000000 0.000000 0.732660
    21 -2.869898 1.399663 -4.140396 0.538986 1.261300 3.187594
    22 4.972048 0.000000 0.000001 -0.944204 -1.002374 0.178482
    23 11.585355 0.000000 0.000000 0.000000 0.000000 -1.839859
    24 10.127057 0.000000 0.000001 1.645685 0.344322 0.060490
    25 2.683750 -0.427338 0.044205 -0.005786 0.043239 -0.157091
    26 1.438885 -0.000001 0.000000 0.000000 0.000000 0.732658
    27 1.485305 0.000001 0.000000 0.000000 0.000000 1.168770
    28 1.038631 0.548043 -0.144017 -0.000001 0.000001 -1.849906
    29 -0.064003 -0.023521 0.026161 0.000000 0.000000 0.000000
    30 3.013925 3.984634 -0.088975 -0.000001 0.000001 -1.849906
    31 -0.084188 -0.025627 -0.001098 0.000000 0.000000 0.000000
    32 4.778187 3.972486 -0.079803 -0.000001 0.000001 -1.849906
    33 -0.058556 -0.021324 0.004244 0.000000 0.000000 0.000000
    34 1.640598 -1.968779 -0.099219 -0.000001 0.000001 -1.849906
    35 0.055573 -0.028908 0.000000 0.000000 0.000000 0.000000
    36 1.646738 0.449549 -1.702246 -0.161934 0.581206 -0.284024
    37 0.928312 0.000000 -0.000002 0.000000 0.000000 0.000000
    38 0.928314 0.000000 0.000001 0.000000 0.000000 0.000000
    39 1.533672 0.109715 1.664491 -0.264755 -0.055959 0.783109
    40 0.928313 0.000000 0.000000 0.000000 0.000000 -0.453556
    41 0.928314 0.000000 0.000001 0.000000 0.000000 0.000000
  time 21
    0 0.235347 0.367732 3.528927 0.000000 0.000000 -1.570874
    1 -3.019623 0.125004 0.000000 -1.570795 -1.570796 0.000000
    2 -0.000005 0.000007 3.713255 0.002054 3.115505 -0.021473
    3 18.045721 0.000000 0.000000 0.000000 0.000000 -0.121501
    4 17.597597 0.000000 0.000000 -0.002613 0.026036 0.099967
    5 0.000005 -0.000003 -3.713255 -0.002524 -3.124238 -0.024449
    6 18.045725 0.000000 0.000000 0.000000 0.000000 -0.127551
    7 17.597597 0.000000 0.000000 0.002950 -0.017289 0.103055
    8 1.293670 0.684478 -0.000001 -0.000004 -0.000001 0.306070
    9 5.309685 -0.003834 0.000000 0.000000 0.000000 -0.000004
    10 4.826790 -0.004591 0.000000 -0.172936 0.022903 0.129595
    11 5.792767 -0.005304 0.000000 -0.137065 0.014094 0.187969
    12 6.662317 -0.001453 0.000000 0.000000 -0.000001 0.471000
    13 2.046985 -0.000002 0.000000 0.260221 -0.171114 -0.128402
    14 -3.112024 1.517254 4.341911 0.922381 -1.172928 1.786888
    15 4.827230 0.000000 0.000001 0.083521 0.650382 -0.991851
    16 11.139763 0.000000 0.000000 0.000000 0.000000 -0.951536
    17 10.314597 0.000001 0.000000 -3.965498 0.019264 -0.392329
    18 2.975834 -0.386307 -0.044143 -0.000797 -0.043611 0.000035
    19 1.438886 0.000000 0.000000 0.000000 0.000000 0.706471
    20 1.485303 0.000000 0.000000 0.000000 0.000000 0.732660
    21 -2.869898 1.399663 -4.140396 0.550682 1.267405 3.199866
    22 4.972048 0.000000 0.000001 -0.958902 -1.005190 0.192776
    23 11.585355 0.000000 0.000000 0.000000 0.000000 -1.839859
    24 10.127057 0.000000 0.000001 1.645685 0.344322 0.060490
    25 2.683750 -0.427338 0.044205 -0.005786 0.043239 -0.157091
    26 1.438885 -0.000001 0.000000 0.000000 0.000000 0.732658
    27 1.485305 0.000001 0.000000 0.000000 0.000000 1.168770
    28 1.038631 0.548043 -0.144017 -0.000001 0.000001 -1.849906
    29 -0.064003 -0.023521 0.026161 0.000000 0.000000 0.000000
    30 3.013925 3.984634 -0.088975 -0.000001 0.000001 -1.849906
    31 -0.084188 -0.025627 -0.001098 0.000000 0.000000 0.000000
    32 4.778187 3.972486 -0.079803 -0.000001 0.000001 -1.849906
    33 -0.058556 -0.021324 0.004244 0.000000 0.000000 0.000000
    34 1.640598 -1.968779 -0.099219 -0.000001 0.000001 -1.849906
    35 0.055573 -0.028908 0.000000 0.000000 0.000000 0.000000
    36 1.646738 0.449549 -1.702246 -0.161934 0.581206 -0.284024
    37 0.928312 0.000000 -0.000002 0.000000 0.000000 0.000000
    38 0.928314 0.000000 0.000001 0.000000 0.000000 0.000000
    39 1.533672 0.109715 1.664491 -0.264755 -0.055959 0.783109
    40 0.928313 0.000000 0.000000 0.000000 0.000000 -0.453556
    41 0.928314 0.000000 0.000001 0.000000 0.000000 0.000000
  time 22
    0 0.235347 0.367732 3.528927 0.000000 0.000000 -1.570874
    1 -3.007904 0.121097 0.000000 -1.570795 -1.570796 0.000000
    2 -0.000005 0.000007 3.713255 0.002054 3.115505 -0.021473
    3 18.045721 0.000000 0.000000 0.000000 0.000000 -0.121501
    4 17.597597 0.000000 0.000000 -0.002613 0.026036 0.099967
    5 0.000005 -0.000003 -3.713255 -0.002524 -3.124238 -0.024449
    6 18.045725 0.000000 0.000000 0.000000 0.000000 -0.127551
    7 17.597597 0.000000 0.000000 0.002950 -0.017289 0.103055
    8 1.293670 0.684478 -0.000001 -0.000004 -0.000001 0.306070
    9 5.309685 -0.003834 0.000000 0.000000 0.000000 -0.000004
    10 4.826790 -0.004591 0.000000 -0.172985 0.022507 0.127346
    11 5.792767 -0.005304 0.000000 -0.137228 0.014777 0.181678
    12 6.662317 -0.001453 0.000000 0.000000 -0.000001 0.471000
    13 2.046985 -0.000002 0.000000 0.259618 -0.172870 -0.119862
    14 -3.112024 1.517254 4.341911 0.934174 -1.176582 1.774136
    15 4.827230 0.000000 0.000001 0.077413 0.662211 -0.993776
    16 11.139763 0.000000 0.000000 0.000000 0.000000 -0.951536
    17 10.314597 0.000001 0.000000 -3.965498 0.019264 -0.392329
    18 2.975834 -0.386307 -0.044143 -0.000797 -0.043611 0.000035
    19 1.438886 0.000000 0.000000 0.000000 0.000000 0.706471
    20 1.485303 0.000000 0.000000 0.000000 0.000000 0.732660
    21 -2.869898 1.399663 -4.140396 0.563817 1.273906 3.213575
    22 4.972048 0.000000 0.000001 -0.974837 -1.008086 0.208256
    23 11.585355 0.000000 0.000000 0.000000 0.000000 -1.839859
    24 10.127057 0.000000 0.000001 1.645685 0.344322 0.060490
    25 2.683750 -0.427338 0.044205 -0.005786 0.043239 -0.157091
    26 1.438885 -0.000001 0.000000 0.000000 0.000000 0.732658
    27 1.485305 0.000001 0.000000 0.000000 0.000000 1.168770
    28 1.038631 0.548043 -0.144017 -0.000001 0.000001 -1.849906
    29 -0.064003 -0.023521 0.026161 0.000000 0.000000 0.000000
    30 3.013925 3.984634 -0.088975 -0.000001 0.000001 -1.849906
    31 -0.084188 -0.025627 -0.001098 0.000000 0.000000 0.000000
    32 4.778187 3.972486 -0.079803 -0.000001 0.000001 -1.849906
    33 -0.058556 -0.021324 0.004244 0.000000 0.000000 0.000000
    34 1.640598 -1.968779 -0.099219 -0.000001 0.000001 -1.849906
    35 0.055573 -0.028908 0.000000 0.000000 0.000000 0.000000
    36 1.646738 0.449549 -1.702246 -0.161934 0.581206 -0.284024
    37 0.928312 0.000000 -0.000002 0.000000 0.000000 0.000000
    38 0.928314 0.000000 0.000001 0.000000 0.000000 0.000000
    39 1.533672 0.109715 1.664491 -0.264755 -0.055959 0.783109
    40 0.928313 0.000000 0.000000 0.000000 0.000000 -0.453556
    41 0.928314 0.000000 0.000001 0.000000 0.000000 0.000000
  time 23
    0 0.235347 0.367732 3.528927 0.000000 0.000000 -1.570874
    1 -2.996185 0.121097 0.000000 -1.570795 -1.570796 0.000000
    2 -0.000005 0.000007 3.713255 0.002054 3.115505 -0.021473
    3 18.045721 0.000000 0.000000 0.000000 0.000000 -0.121501
    4 17.597597 0.000000 0.000000 -0.002613 0.026036 0.099967
    5 0.000005 -0.000003 -3.713255 -0.002524 -3.124238 -0.024449
    6 18.045725 0.000000 0.000000 0.000000 0.000000 -0.127551
    7 17.597597 0.000000 0.000000 0.002950 -0.017289 0.103055
    8 1.293670 0.684478 -0.000001 -0.000004 -0.000001 0.306070
    9 5.309685 -0.003834 0.000000 0.000000 0.000000 -0.000004
    10 4.826790 -0.004591 0.000000 -0.173051 0.022100 0.124964
    11 5.792767 -0.005304 0.000000 -0.137391 0.015484 0.175137
    12 6.662317 -0.001453 0.000000 0.000000 -0.000001 0.471000
    13 2.046985 -0.000002 0.000000 0.258971 -0.174671 -0.111007
    14 -3.112024 1.517254 4.341911 0.946637 -1.180352 1.760713
    15 4.827230 0.000000 0.000001 0.070952 0.674466 -0.995877
    16 11.139763 0.000000 0.000000 0.000000 0.000000 -0.951536
    17 10.314597 0.000001 0.000000 -3.965498 0.019264 -0.392329
    18 2.975834 -0.386307 -0.044143 -0.000797 -0.043611 0.000035
    19 1.438886 0.000000 0.000000 0.000000 0.000000 0.706471
    20 1.485303 0.000000 0.000000 0.000000 0.000000 0.732660
    21 -2.869898 1.399663 -4.140396 0.578102 1.280632 3.228532
    22 4.972048 0.000000 0.000001 -0.991546 -1.010982 0.224461
    23 11.585355 0.000000 0.000000 0.000000 0.000000 -1.839859
    24 10.127057 0.000000 0.000001 1.645685 0.344322 0.060490
    25 2.683750 -0.427338 0.044205 -0.005786 0.043239 -0.157091
    26 1.438885 -0.000001 0.000000 0.000000 0.000000 0.732658
    27 1.485305 0.000001 0.000000 0.000000 0.000000 1.168770
    28 1.038631 0.548043 -0.144017 -0.000001 0.000001 -1.849906
    29 -0.064003 -0.023521 0.026161 0.000000 0.000000 0.000000
    30 3.013925 3.984634 -0.088975 -0.000001 0.000001 -1.849906
    31 -0.084188 -0.025627 -0.001098 0.000000 0.000000 0.000000
    32 4.778187 3.972486 -0.079803 -0.000001 0.000001 -1.849906
    33 -0.058556 -0.021324 0.004244 0.000000 0.000000 0.000000
    34 1.640598 -1.968779 -0.099219 -0.000001 0.000001 -1.849906
    35 0.055573 -0.028908 0.000000 0.000000 0.000000 0.000000
    36 1.646738 0.449549 -1.702246 -0.161934 0.581206 -0.284024
    37 0.928312 0.000000 -0.000002 0.000000 0.000000 0.000000
    38 0.928314 0.000000 0.000001 0.000000 0.000000 0.000000
    39 1.533672 0.109715 1.664491 -0.264755 -0.055959 0.783109
    40 0.928313 0.000000 0.000000 0.000000 0.000000 -0.453556
    41 0.928314 0.000000 0.000001 0.000000 0.000000 0.000000
  time 24
    0 0.235347 0.367732 3.528927 0.000000 0.000000 -1.570874
    1 -2.980560 0.117191 0.000000 -1.570795 -1.570796 0.000000
    2 -0.000005 0.000007 3.713255 0.002054 3.115505 -0.021473
    3 18.045721 0.000000 0.000000 0.000000 0.000000 -0.121501
    4 17.597597 0.000000 0.000000 -0.002613 0.026036 0.099967
    5 0.000005 -0.000003 -3.713255 -0.002524 -3.124238 -0.024449
    6 18.045725 0.000000 0.000000 0.000000 0.000000 -0.127551
    7 17.597597 0.000000 0.000000 0.002950 -0.017289 0.103055
    8 1.293670 0.684478 -0.000001 -0.000004 -0.000001 0.306070
    9 5.309685 -0.003834 0.000000 0.000000 0.000000 -0.000004
    10 4.826790 -0.004591 0.000000 -0.173100 0.021680 0.122583
    11 5.792767 -0.005304 0.000000 -0.137554 0.016191 0.168535
    12 6.662317 -0.001453 0.000000 0.000000 -0.000001 0.471000
    13 2.046985 -0.000002 0.000000 0.258282 -0.176495 -0.102018
    14 -3.112024 1.517254 4.341911 0.959484 -1.184083 1.746811
    15 4.827230 0.000000 0.000001 0.064314 0.686805 -0.998239
    16 11.139763 0.000000 0.000000 0.000000 0.000000 -0.951536
    17 10.314597 0.000001 0.000000 -3.965498 0.019264 -0.392329
    18 2.975834 -0.386307 -0.044143 -0.000797 -0.043611 0.000035
    19 1.438886 0.000000 0.000000 0.000000 0.000000 0.706471
    20 1.485303 0.000000 0.000000 0.000000 0.000000 0.732660
    21 -2.869898 1.399663 -4.140396 0.593154 1.287359 3.244255
    22 4.972048 0.000000 0.000001 -1.008641 -1.013717 0.240995
    23 11.585355 0.000000 0.000000 0.000000 0.000000 -1.839859
    24 10.127057 0.000000 0.000001 1.645685 0.344322 0.060490
    25 2.683750 -0.427338 0.044205 -0.005786 0.043239 -0.157091
    26 1.438885 -0.000001 0.000000 0.000000 0.000000 0.732658
    27 1.485305 0.000001 0.000000 0.000000 0.000000 1.168770
    28 1.038631 0.548043 -0.144017 -0.000001 0.000001 -1.849906
    29 -0.064003 -0.023521 0.026161 0.000000 0.000000 0.000000
    30 3.013925 3.984634 -0.088975 -0.000001 0.000001 -1.849906
    31 -0.084188 -0.025627 -0.001098 0.000000 0.000000 0.000000
    32 4.778187 3.972486 -0.079803 -0.000001 0.000001 -1.849906
    33 -0.058556 -0.021324 0.004244 0.000000 0.000000 0.000000
    34 1.640598 -1.968779 -0.099219 -0.000001 0.000001 -1.849906
    35 0.055573 -0.028908 0.000000 0.000000 0.000000 0.000000
    36 1.646738 0.449549 -1.702246 -0.161934 0.581206 -0.284024
    37 0.928312 0.000000 -0.000002 0.000000 0.000000 0.000000
    38 0.928314 0.000000 0.000001 0.000000 0.000000 0.000000
    39 1.533672 0.109715 1.664491 -0.264755 -0.055959 0.783109
    40 0.928313 0.000000 0.000000 0.000000 0.000000 -0.453556
    41 0.928314 0.000000 0.000001 0.000000 0.000000 0.000000
  time 25
    0 0.235347 0.367732 3.528927 0.000000 0.000000 -1.570874
    1 -2.968841 0.117191 0.000000 -1.570795 -1.570796 0.000000
    2 -0.000005 0.000007 3.713255 0.002054 3.115505 -0.021473
    3 18.045721 0.000000 0.000000 0.000000 0.000000 -0.121501
    4 17.597597 0.000000 0.000000 -0.002613 0.026036 0.099967
    5 0.000005 -0.000003 -3.713255 -0.002524 -3.124238 -0.024449
    6 18.045725 0.000000 0.000000 0.000000 0.000000 -0.127551
    7 17.597597 0.000000 0.000000 0.002950 -0.017289 0.103055
    8 1.293670 0.684478 -0.000001 -0.000004 -0.000001 0.306070
    9 5.309685 -0.003834 0.000000 0.000000 0.000000 -0.000004
    10 4.826790 -0.004591 0.000000 -0.173149 0.021273 0.120246
    11 5.792767 -0.005304 0.000000 -0.137701 0.016898 0.162036
    12 6.662317 -0.001453 0.000000 0.000000 -0.000001 0.471000
    13 2.046985 -0.000002 0.000000 0.257550 -0.178274 -0.093253
    14 -3.112024 1.517254 4.341911 0.972331 -1.187699 1.732909
    15 4.827230 0.000000 0.000001 0.057736 0.698890 -1.000777
    16 11.139763 0.000000 0.000000 0.000000 0.000000 -0.951536
    17 10.314597 0.000001 0.000000 -3.965498 0.019264 -0.392329
    18 2.975834 -0.386307 -0.044143 -0.000797 -0.043611 0.000035
    19 1.438886 0.000000 0.000000 0.000000 0.000000 0.706471
    20 1.485303 0.000000 0.000000 0.000000 0.000000 0.732660
    21 -2.869898 1.399663 -4.140396 0.608782 1.293888 3.260457
    22 4.972048 0.000000 0.000001 -1.025659 -1.016210 0.257265
    23 11.585355 0.000000 0.000000 0.000000 0.000000 -1.839859
    24 10.127057 0.000000 0.000001 1.645685 0.344322 0.060490
    25 2.683750 -0.427338 0.044205 -0.005786 0.043239 -0.157091
    26 1.438885 -0.000001 0.000000 0.000000 0.000000 0.732658
    27 1.485305 0.000001 0.000000 0.000000 0.000000 1.168770
    28 1.038631 0.548043 -0.144017 -0.000001 0.000001 -1.849906
    29 -0.064003 -0.023521 0.026161 0.000000 0.000000 0.000000
    30 3.013925 3.984634 -0.088975 -0.000001 0.000001 -1.849906
    31 -0.084188 -0.025627 -0.001098 0.000000 0.000000 0.000000
    32 4.778187 3.972486 -0.079803 -0.000001 0.000001 -1.849906
    33 -0.058556 -0.021324 0.004244 0.000000 0.000000 0.000000
    34 1.640598 -1.968779 -0.099219 -0.000001 0.000001 -1.849906
    35 0.055573 -0.028908 0.000000 0.000000 0.000000 0.000000
    36 1.646738 0.449549 -1.702246 -0.161934 0.581206 -0.284024
    37 0.928312 0.000000 -0.000002 0.000000 0.000000 0.000000
    38 0.928314 0.000000 0.000001 0.000000 0.000000 0.000000
    39 1.533672 0.109715 1.664491 -0.264755 -0.055959 0.783109
    40 0.928313 0.000000 0.000000 0.000000 0.000000 -0.453556
    41 0.928314 0.000000 0.000001 0.000000 0.000000 0.000000
  time 26
    0 0.235347 0.367732 3.528927 0.000000 0.000000 -1.570874
    1 -2.957121 0.113285 0.000000 -1.570795 -1.570796 0.000000
    2 -0.000005 0.000007 3.713255 0.002054 3.115505 -0.021473
    3 18.045721 0.000000 0.000000 0.000000 0.000000 -0.121501
    4 17.597597 0.000000 0.000000 -0.002613 0.026036 0.099967
    5 0.000005 -0.000003 -3.713255 -0.002524 -3.124238 -0.024449
    6 18.045725 0.000000 0.000000 0.000000 0.000000 -0.127551
    7 17.597597 0.000000 0.000000 0.002950 -0.017289 0.103055
    8 1.293670 0.684478 -0.000001 -0.000004 -0.000001 0.306070
    9 5.309685 -0.003834 0.000000 0.000000 0.000000 -0.000004
    10 4.826790 -0.004591 0.000000 -0.173199 0.020889 0.118019
    11 5.792767 -0.005304 0.000000 -0.137832 0.017557 0.155869
    12 6.662317 -0.001453 0.000000 0.000000 -0.000001 0.471000
    13 2.046985 -0.000002 0.000000 0.256860 -0.179940 -0.084848
    14 -3.112024 1.517254 4.341911 0.984795 -1.191045 1.719487
    15 4.827230 0.000000 0.000001 0.051392 0.710463 -1.003315
    16 11.139763 0.000000 0.000000 0.000000 0.000000 -0.951536
    17 10.314597 0.000001 0.000000 -3.965498 0.019264 -0.392329
    18 2.975834 -0.386307 -0.044143 -0.000797 -0.043611 0.000035
    19 1.438886 0.000000 0.000000 0.000000 0.000000 0.706471
    20 1.485303 0.000000 0.000000 0.000000 0.000000 0.732660
    21 -2.869898 1.399663 -4.140396 0.624217 1.300022 3.276564
    22 4.972048 0.000000 0.000001 -1.041903 -1.018463 0.272877
    23 11.585355 0.000000 0.000000 0.000000 0.000000 -1.839859
    24 10.127057 0.000000 0.000001 1.645685 0.344322 0.060490
    25 2.683750 -0.427338 0.044205 -0.005786 0.043239 -0.157091
    26 1.438885 -0.000001 0.000000 0.000000 0.000000 0.732658
    27 1.485305 0.000001 0.000000 0.000000 0.000000 1.168770
    28 1.038631 0.548043 -0.144017 -0.000001 0.000001 -1.849906
    29 -0.064003 -0.023521 0.026161 0.000000 0.000000 0.000000
    30 3.013925 3.984634 -0.088975 -0.000001 0.000001 -1.849906
    31 -0.084188 -0.025627 -0.001098 0.000000 0.000000 0.000000
    32 4.778187 3.972486 -0.079803 -0.000001 0.000001 -1.849906
    33 -0.058556 -0.021324 0.004244 0.000000 0.000000 0.000000
    34 1.640598 -1.968779 -0.099219 -0.000001 0.000001 -1.849906
    35 0.055573 -0.028908 0.000000 0.000000 0.000000 0.000000
    36 1.646738 0.449549 -1.702246 -0.161934 0.581206 -0.284024
    37 0.928312 0.000000 -0.000002 0.000000 0.000000 0.000000
    38 0.928314 0.000000 0.000001 0.000000 0.000000 0.000000
    39 1.533672 0.109715 1.664491 -0.264755 -0.055959 0.783109
    40 0.928313 0.000000 0.000000 0.000000 0.000000 -0.453556
    41 0.928314 0.000000 0.000001 0.000000 0.000000 0.000000
  time 27
    0 0.235347 0.367732 3.528927 0.000000 0.000000 -1.570874
    1 -2.945402 0.113285 0.000000 -1.570795 -1.570796 0.000000
    2 -0.000005 0.000007 3.713255 0.002054 3.115505 -0.021473
    3 18.045721 0.000000 0.000000 0.000000 0.000000 -0.121501
    4 17.597597 0.000000 0.000000 -0.002613 0.026036 0.099967
    5 0.000005 -0.000003 -3.713255 -0.002524 -3.124238 -0.024449
    6 18.045725 0.000000 0.000000 0.000000 0.000000 -0.127551
    7 17.597597 0.000000 0.000000 0.002950 -0.017289 0.103055
    8 1.293670 0.684478 -0.000001 -0.000004 -0.000001 0.306070
    9 5.309685 -0.003834 0.000000 0.000000 0.000000 -0.000004
    10 4.826790 -0.004591 0.000000 -0.173231 0.020530 0.115991
    11 5.792767 -0.005304 0.000000 -0.137946 0.018169 0.150222
    12 6.662317 -0.001453 0.000000 0.000000 -0.000001 0.471000
    13 2.046985 -0.000002 0.000000 0.256214 -0.181471 -0.077162
    14 -3.112024 1.517254 4.341911 0.996395 -1.194084 1.707023
    15 4.827230 0.000000 0.000001 0.045460 0.721016 -1.005765
    16 11.139763 0.000000 0.000000 0.000000 0.000000 -0.951536
    17 10.314597 0.000001 0.000000 -3.965498 0.019264 -0.392329
    18 2.975834 -0.386307 -0.044143 -0.000797 -0.043611 0.000035
    19 1.438886 0.000000 0.000000 0.000000 0.000000 0.706471
    20 1.485303 0.000000 0.000000 0.000000 0.000000 0.732660
    21 -2.869898 1.399663 -4.140396 0.639078 1.305590 3.291904
    22 4.972048 0.000000 0.000001 -1.056988 -1.020474 0.287303
    23 11.585355 0.000000 0.000000 0.000000 0.000000 -1.839859
    24 10.127057 0.000000 0.000001 1.645685 0.344322 0.060490
    25 2.683750 -0.427338 0.044205 -0.005786 0.043239 -0.157091
    26 1.438885 -0.000001 0.000000 0.000000 0.000000 0.732658
    27 1.485305 0.000001 0.000000 0.000000 0.000000 1.168770
    28 1.038631 0.548043 -0.144017 -0.000001 0.000001 -1.849906
    29 -0.064003 -0.023521 0.026161 0.000000 0.000000 0.000000
    30 3.013925 3.984634 -0.088975 -0.000001 0.000001 -1.849906
    31 -0.084188 -0.025627 -0.001098 0.000000 0.000000 0.000000
    32 4.778187 3.972486 -0.079803 -0.000001 0.000001 -1.849906
    33 -0.058556 -0.021324 0.004244 0.000000 0.000000 0.000000
    34 1.640598 -1.968779 -0.099219 -0.000001 0.000001 -1.849906
    35 0.055573 -0.028908 0.000000 0.000000 0.000000 0.000000
    36 1.646738 0.449549 -1.702246 -0.161934 0.581206 -0.284024
    37 0.928312 0.000000 -0.000002 0.000000 0.000000 0.000000
    38 0.928314 0.000000 0.000001 0.000000 0.000000 0.000000
    39 1.533672 0.109715 1.664491 -0.264755 -0.055959 0.783109
    40 0.928313 0.000000 0.000000 0.000000 0.000000 -0.453556
    41 0.928314 0.000000 0.000001 0.000000 0.000000 0.000000
  time 28
    0 0.235347 0.367732 3.528927 0.000000 0.000000 -1.570874
    1 -2.937590 0.113285 0.000000 -1.570795 -1.570796 0.000000
    2 -0.000005 0.000007 3.713255 0.002054 3.115505 -0.021473
    3 18.045721 0.000000 0.000000 0.000000 0.000000 -0.121501
    4 17.597597 0.000000 0.000000 -0.002613 0.026036 0.099967
    5 0.000005 -0.000003 -3.713255 -0.002524 -3.124238 -0.024449
    6 18.045725 0.000000 0.000000 0.000000 0.000000 -0.127551
    7 17.597597 0.000000 0.000000 0.002950 -0.017289 0.103055
    8 1.293670 0.684478 -0.000001 -0.000004 -0.000001 0.306070
    9 5.309685 -0.003834 0.000000 0.000000 0.000000 -0.000004
    10 4.826790 -0.004591 0.000000 -0.173264 0.020218 0.114205
    11 5.792767 -0.005304 0.000000 -0.138060 0.018696 0.145260
    12 6.662317 -0.001453 0.000000 0.000000 -0.000001 0.471000
    13 2.046985 -0.000002 0.000000 0.255611 -0.182822 -0.070420
    14 -3.112024 1.517254 4.341911 1.006749 -1.196700 1.695901
    15 4.827230 0.000000 0.000001 0.040232 0.730292 -1.008041
    16 11.139763 0.000000 0.000000 0.000000 0.000000 -0.951536
    17 10.314597 0.000001 0.000000 -3.965498 0.019264 -0.392329
    18 2.975834 -0.386307 -0.044143 -0.000797 -0.043611 0.000035
    19 1.438886 0.000000 0.000000 0.000000 0.000000 0.706471
    20 1.485303 0.000000 0.000000 0.000000 0.000000 0.732660
    21 -2.869898 1.399663 -4.140396 0.652596 1.310423 3.305901
    22 4.972048 0.000000 0.000001 -1.070293 -1.022083 0.300017
    23 11.585355 0.000000 0.000000 0.000000 0.000000 -1.839859
    24 10.127057 0.000000 0.000001 1.645685 0.344322 0.060490
    25 2.683750 -0.427338 0.044205 -0.005786 0.043239 -0.157091
    26 1.438885 -0.000001 0.000000 0.000000 0.000000 0.732658
    27 1.485305 0.000001 0.000000 0.000000 0.000000 1.168770
    28 1.038631 0.548043 -0.144017 -0.000001 0.000001 -1.849906
    29 -0.064003 -0.023521 0.026161 0.000000 0.000000 0.000000
    30 3.013925 3.984634 -0.088975 -0.000001 0.000001 -1.849906
    31 -0.084188 -0.025627 -0.001098 0.000000 0.000000 0.000000
    32 4.778187 3.972486 -0.079803 -0.000001 0.000001 -1.849906
    33 -0.058556 -0.021324 0.004244 0.000000 0.000000 0.000000
    34 1.640598 -1.968779 -0.099219 -0.000001 0.000001 -1.849906
    35 0.055573 -0.028908 0.000000 0.000000 0.000000 0.000000
    36 1.646738 0.449549 -1.702246 -0.161934 0.581206 -0.284024
    37 0.928312 0.000000 -0.000002 0.000000 0.000000 0.000000
    38 0.928314 0.000000 0.000001 0.000000 0.000000 0.000000
    39 1.533672 0.109715 1.664491 -0.264755 -0.055959 0.783109
    40 0.928313 0.000000 0.000000 0.000000 0.000000 -0.453556
    41 0.928314 0.000000 0.000001 0.000000 0.000000 0.000000
  time 29
    0 0.235347 0.367732 3.528927 0.000000 0.000000 -1.570874
    1 -2.925871 0.109378 0.000000 -1.570795 -1.570796 0.000000
    2 -0.000005 0.000007 3.713255 0.002054 3.115505 -0.021473
    3 18.045721 0.000000 0.000000 0.000000 0.000000 -0.121501
    4 17.597597 0.000000 0.000000 -0.002613 0.026036 0.099967
    5 0.000005 -0.000003 -3.713255 -0.002524 -3.124238 -0.024449
    6 18.045725 0.000000 0.000000 0.000000 0.000000 -0.127551
    7 17.597597 0.000000 0.000000 0.002950 -0.017289 0.103055
    8 1.293670 0.684478 -0.000001 -0.000004 -0.000001 0.306070
    9 5.309685 -0.003834 0.000000 0.000000 0.000000 -0.000004
    10 4.826790 -0.004591 0.000000 -0.173297 0.019954 0.112727
    11 5.792767 -0.005304 0.000000 -0.138141 0.019139 0.141190
    12 6.662317 -0.001453 0.000000 0.000000 -0.000001 0.471000
    13 2.046985 -0.000002 0.000000 0.255094 -0.183902 -0.064891
    14 -3.112024 1.517254 4.341911 1.015378 -1.198777 1.686697
    15 4.827230 0.000000 0.000001 0.035827 0.737951 -1.009966
    16 11.139763 0.000000 0.000000 0.000000 0.000000 -0.951536
    17 10.314597 0.000001 0.000000 -3.965498 0.019264 -0.392329
    18 2.975834 -0.386307 -0.044143 -0.000797 -0.043611 0.000035
    19 1.438886 0.000000 0.000000 0.000000 0.000000 0.706471
    20 1.485303 0.000000 0.000000 0.000000 0.000000 0.732660
    21 -2.869898 1.399663 -4.140396 0.664100 1.314352 3.317789
    22 4.972048 0.000000 0.000001 -1.081277 -1.023370 0.310490
    23 11.585355 0.000000 0.000000 0.000000 0.000000 -1.839859
    24 10.127057 0.000000 0.000001 1.645685 0.344322 0.060490
    25 2.683750 -0.427338 0.044205 -0.005786 0.043239 -0.157091
    26 1.438885 -0.000001 0.000000 0.000000 0.000000 0.732658
    27 1.485305 0.000001 0.000000 0.000000 0.000000 1.168770
    28 1.038631 0.548043 -0.144017 -0.000001 0.000001 -1.849906
    29 -0.064003 -0.023521 0.026161 0.000000 0.000000 0.000000
    30 3.013925 3.984634 -0.088975 -0.000001 0.000001 -1.849906
    31 -0.084188 -0.025627 -0.001098 0.000000 0.000000 0.000000
    32 4.778187 3.972486 -0.079803 -0.000001 0.000001 -1.849906
    33 -0.058556 -0.021324 0.004244 0.000000 0.000000 0.000000
    34 1.640598 -1.968779 -0.099219 -0.000001 0.000001 -1.849906
    35 0.055573 -0.028908 0.000000 0.000000 0.000000 0.000000
    36 1.646738 0.449549 -1.702246 -0.161934 0.581206 -0.284024
    37 0.928312 0.000000 -0.000002 0.000000 0.000000 0.000000
    38 0.928314 0.000000 0.000001 0.000000 0.000000 0.000000
    39 1.533672 0.109715 1.664491 -0.264755 -0.055959 0.783109
    40 0.928313 0.000000 0.000000 0.000000 0.000000 -0.453556
    41 0.928314 0.000000 0.000001 0.000000 0.000000 0.000000
  time 30
    0 0.235347 0.367732 3.528927 0.000000 0.000000 -1.570874
    1 -2.921964 0.109378 0.000000 -1.570795 -1.570796 0.000000
    2 -0.000005 0.000007 3.713255 0.002054 3.115505 -0.021473
    3 18.045721 0.000000 0.000000 0.000000 0.000000 -0.121501
    4 17.597597 0.000000 0.000000 -0.002613 0.026036 0.099967
    5 0.000005 -0.000003 -3.713255 -0.002524 -3.124238 -0.024449
    6 18.045725 0.000000 0.000000 0.000000 0.000000 -0.127551
    7 17.597597 0.000000 0.000000 0.002950 -0.017289 0.103055
    8 1.293670 0.684478 -0.000001 -0.000004 -0.000001 0.306070
    9 5.309685 -0.003834 0.000000 0.000000 0.000000 -0.000004
    10 4.826790 -0.004591 0.000000 -0.173330 0.019775 0.111669
    11 5.792767 -0.005304 0.000000 -0.138190 0.019451 0.138200
    12 6.662317 -0.001453 0.000000 0.000000 -0.000001 0.471000
    13 2.046985 -0.000002 0.000000 0.254749 -0.184713 -0.060846
    14 -3.112024 1.517254 4.341911 1.021706 -1.200316 1.679890
    15 4.827230 0.000000 0.000001 0.032597 0.743482 -1.011454
    16 11.139763 0.000000 0.000000 0.000000 0.000000 -0.951536
    17 10.314597 0.000001 0.000000 -3.965498 0.019264 -0.392329
    18 2.975834 -0.386307 -0.044143 -0.000797 -0.043611 0.000035
    19 1.438886 0.000000 0.000000 0.000000 0.000000 0.706471
    20 1.485303 0.000000 0.000000 0.000000 0.000000 0.732660
    21 -2.869898 1.399663 -4.140396 0.672729 1.317206 3.326706
    22 4.972048 0.000000 0.000001 -1.089399 -1.024254 0.318132
    23 11.585355 0.000000 0.000000 0.000000 0.000000 -1.839859
    24 10.127057 0.000000 0.000001 1.645685 0.344322 0.060490
    25 2.683750 -0.427338 0.044205 -0.005786 0.043239 -0.157091
    26 1.438885 -0.000001 0.000000 0.000000 0.000000 0.732658
    27 1.485305 0.000001 0.000000 0.000000 0.000000 1.168770
    28 1.038631 0.548043 -0.144017 -0.000001 0.000001 -1.849906
    29 -0.064003 -0.023521 0.026161 0.000000 0.000000 0.000000
    30 3.013925 3.984634 -0.088975 -0.000001 0.000001 -1.849906
    31 -0.084188 -0.025627 -0.001098 0.000000 0.000000 0.000000
    32 4.778187 3.972486 -0.079803 -0.000001 0.000001 -1.849906
    33 -0.058556 -0.021324 0.004244 0.000000 0.000000 0.000000
    34 1.640598 -1.968779 -0.099219 -0.000001 0.000001 -1.849906
    35 0.055573 -0.028908 0.000000 0.000000 0.000000 0.000000
    36 1.646738 0.449549 -1.702246 -0.161934 0.581206 -0.284024
    37 0.928312 0.000000 -0.000002 0.000000 0.000000 0.000000
    38 0.928314 0.000000 0.000001 0.000000 0.000000 0.000000
    39 1.533672 0.109715 1.664491 -0.264755 -0.055959 0.783109
    40 0.928313 0.000000 0.000000 0.000000 0.000000 -0.453556
    41 0.928314 0.000000 0.000001 0.000000 0.000000 0.000000
end
