version 1
nodes
  0 "Bip01" -1
  1 "Bip01 Pelvis" 0
  2 "Bip01 L Leg" 1
  3 "Bip01 L Leg1" 2
  4 "Bip01 L Foot" 3
  5 "Bip01 R Leg" 1
  6 "Bip01 R Leg1" 5
  7 "Bip01 R Foot" 6
  8 "Bip01 Spine" 1
  9 "Bip01 Spine1" 8
  10 "Bip01 Spine2" 9
  11 "Bip01 Spine3" 10
  12 "Bip01 Neck" 11
  13 "Bip01 Head" 12
  14 "Bip01 L Arm" 12
  15 "Bip01 L Arm1" 14
  16 "Bip01 L Arm2" 15
  17 "Bip01 L Hand" 16
  18 "Bip01 L Finger1" 17
  19 "Bip01 L Finger11" 18
  20 "Bip01 L Finger12" 19
  21 "Bip01 R Arm" 12
  22 "Bip01 R Arm1" 21
  23 "Bip01 R Arm2" 22
  24 "Bip01 R Hand" 23
  25 "Bip01 R Finger1" 24
  26 "Bip01 R Finger11" 25
  27 "Bip01 R Finger12" 26
  28 "Dummy08" 13
  29 "Bone02" 28
  30 "Dummy04" 13
  31 "Bone05" 30
  32 "Dummy03" 13
  33 "Bone07" 32
  34 "Dummy10" 13
  35 "Bone13" 34
  36 "Bip01 L Finger0" 17
  37 "Bip01 L Finger01" 36
  38 "Bip01 L Finger02" 37
  39 "Bip01 R Finger0" 24
  40 "Bip01 R Finger01" 39
  41 "Bip01 R Finger02" 40
end
skeleton
  time 0
    0 0.235347 0.367732 3.528927 0.000000 0.000000 -1.570874
    1 0.000000 0.000000 0.000000 -1.570795 -1.570796 0.000000
    2 -0.000005 0.000007 3.713255 0.003204 3.158916 -0.091346
    3 18.045721 0.000000 0.000000 0.000000 0.000000 -0.243578
    4 17.597597 0.000000 0.000000 -0.001675 -0.017562 0.152262
    5 0.000005 -0.000003 -3.713255 0.355071 -3.167219 -0.017370
    6 18.045725 0.000000 0.000000 0.000000 0.000000 -0.267079
    7 17.597597 0.000000 0.000000 0.202642 0.018017 0.241891
    8 1.293670 0.684478 -0.000001 -0.000004 -0.000001 0.061735
    9 5.309685 -0.003834 0.000000 -0.258329 0.042905 0.160134
    10 4.826790 -0.004591 0.000000 0.000000 0.000000 0.183152
    11 5.792767 -0.005304 0.000000 0.000000 0.000000 0.287817
    12 6.662317 -0.001453 0.000000 0.000000 -0.000001 0.209228
    13 2.046985 -0.000002 0.000000 0.150747 -0.214838 0.104966
    14 -3.397189 0.661759 4.341911 1.008283 -1.207586 1.954191
    15 4.827230 0.000000 0.000001 -0.377911 0.911301 -0.791713
    16 11.139763 0.000000 0.000000 0.000000 0.000000 -1.914924
    17 10.314597 0.000001 0.000000 -1.174256 -0.598196 -0.222490
    18 2.975834 -0.386307 -0.044143 0.001097 -0.043611 -0.043588
    19 1.438886 0.000000 0.000000 0.000000 0.000000 1.334476
    20 1.485303 0.000000 0.000000 0.000000 0.000000 0.793705
    21 -3.131625 0.610576 -4.140396 -1.213000 1.046068 1.768576
    22 4.972048 0.000000 0.000001 0.156089 -0.753329 -0.225448
    23 11.585355 0.000000 0.000000 0.000000 0.000000 -1.961934
    24 10.127057 0.000000 0.000001 1.667216 0.765311 -0.200791
    25 2.683750 -0.427338 0.044205 -0.005786 0.043239 -0.157091
    26 1.438885 -0.000001 0.000000 0.000000 0.000000 0.732658
    27 1.485305 0.000001 0.000000 0.000000 0.000000 1.168770
    28 1.038631 0.548043 -0.144017 -0.000001 0.000001 -1.849906
    29 -0.064003 -0.023521 0.026161 0.000000 0.000000 0.000000
    30 3.013925 3.984634 -0.088975 -0.000001 0.000001 -1.849906
    31 -0.084188 -0.025627 -0.001098 0.000000 0.000000 0.000000
    32 4.778187 3.972486 -0.079803 -0.000001 0.000001 -1.849906
    33 -0.058556 -0.021324 0.004244 0.000000 0.000000 0.000000
    34 1.640598 -1.968779 -0.099219 -0.000001 0.000001 -1.849906
    35 0.055573 -0.028908 0.000000 0.000000 0.000000 0.000000
    36 1.646738 0.449549 -1.702246 0.369699 -0.012752 0.801964
    37 0.928312 0.000000 -0.000002 0.000000 0.000000 0.000000
    38 0.928314 0.000000 0.000001 0.000000 0.000000 0.000000
    39 1.533672 0.109715 1.664491 -0.264755 -0.055959 0.783109
    40 0.928313 0.000000 0.000000 0.000000 0.000000 -0.453556
    41 0.928314 0.000000 0.000001 0.000000 0.000000 0.000000
  time 1
    0 0.235347 0.367732 3.528927 0.000000 0.000000 -1.570874
    1 0.000000 0.000000 0.000000 -1.570795 -1.570796 0.000000
    2 -0.000005 0.000007 3.713255 0.003204 3.158916 -0.091346
    3 18.045721 0.000000 0.000000 0.000000 0.000000 -0.243578
    4 17.597597 0.000000 0.000000 -0.001675 -0.017562 0.152262
    5 0.000005 -0.000003 -3.713255 0.355071 -3.167219 -0.017370
    6 18.045725 0.000000 0.000000 0.000000 0.000000 -0.267079
    7 17.597597 0.000000 0.000000 0.202642 0.018017 0.241891
    8 1.293670 0.684478 -0.000001 -0.000004 -0.000001 0.061735
    9 5.309685 -0.003834 0.000000 -0.258329 0.042905 0.160134
    10 4.826790 -0.004591 0.000000 0.000000 0.000000 0.183152
    11 5.792767 -0.005304 0.000000 0.000000 0.000000 0.289644
    12 6.662317 -0.001453 0.000000 0.000000 -0.000001 0.209228
    13 2.046985 -0.000002 0.000000 0.150747 -0.214838 0.103123
    14 -3.397189 0.661759 4.341911 1.001764 -1.206009 1.961094
    15 4.827230 0.000000 0.000001 -0.375797 0.907642 -0.790400
    16 11.139763 0.000000 0.000000 0.000000 0.000000 -1.914924
    17 10.314597 0.000001 0.000000 -1.174256 -0.598196 -0.222490
    18 2.975834 -0.386307 -0.044143 0.001097 -0.043611 -0.043588
    19 1.438886 0.000000 0.000000 0.000000 0.000000 1.334476
    20 1.485303 0.000000 0.000000 0.000000 0.000000 0.793705
    21 -3.131625 0.610576 -4.140396 -1.207631 1.044938 1.774712
    22 4.972048 0.000000 0.000001 0.156940 -0.748985 -0.226370
    23 11.585355 0.000000 0.000000 0.000000 0.000000 -1.961934
    24 10.127057 0.000000 0.000001 1.667216 0.765311 -0.200791
    25 2.683750 -0.427338 0.044205 -0.005786 0.043239 -0.157091
    26 1.438885 -0.000001 0.000000 0.000000 0.000000 0.732658
    27 1.485305 0.000001 0.000000 0.000000 0.000000 1.168770
    28 1.038631 0.548043 -0.144017 -0.000001 0.000001 -1.849906
    29 -0.064003 -0.023521 0.026161 0.000000 0.000000 0.000000
    30 3.013925 3.984634 -0.088975 -0.000001 0.000001 -1.849906
    31 -0.084188 -0.025627 -0.001098 0.000000 0.000000 0.000000
    32 4.778187 3.972486 -0.079803 -0.000001 0.000001 -1.849906
    33 -0.058556 -0.021324 0.004244 0.000000 0.000000 0.000000
    34 1.640598 -1.968779 -0.099219 -0.000001 0.000001 -1.849906
    35 0.055573 -0.028908 0.000000 0.000000 0.000000 0.000000
    36 1.646738 0.449549 -1.702246 0.369699 -0.012752 0.801964
    37 0.928312 0.000000 -0.000002 0.000000 0.000000 0.000000
    38 0.928314 0.000000 0.000001 0.000000 0.000000 0.000000
    39 1.533672 0.109715 1.664491 -0.264755 -0.055959 0.783109
    40 0.928313 0.000000 0.000000 0.000000 0.000000 -0.453556
    41 0.928314 0.000000 0.000001 0.000000 0.000000 0.000000
  time 2
    0 0.235347 0.367732 3.528927 0.000000 0.000000 -1.570874
    1 0.000000 0.000000 0.000000 -1.570795 -1.570796 0.000000
    2 -0.000005 0.000007 3.713255 0.003204 3.158916 -0.091346
    3 18.045721 0.000000 0.000000 0.000000 0.000000 -0.243578
    4 17.597597 0.000000 0.000000 -0.001675 -0.017562 0.152262
    5 0.000005 -0.000003 -3.713255 0.355071 -3.167219 -0.017370
    6 18.045725 0.000000 0.000000 0.000000 0.000000 -0.267079
    7 17.597597 0.000000 0.000000 0.202642 0.018017 0.241891
    8 1.293670 0.684478 -0.000001 -0.000004 -0.000001 0.061735
    9 5.309685 -0.003834 0.000000 -0.258329 0.042905 0.160134
    10 4.826790 -0.004591 0.000000 0.000000 0.000000 0.183152
    11 5.792767 -0.005304 0.000000 0.000000 0.000000 0.292136
    12 6.662317 -0.001453 0.000000 0.000000 -0.000001 0.209228
    13 2.046985 -0.000002 0.000000 0.150747 -0.214838 0.100651
    14 -3.397189 0.661759 4.341911 0.993040 -1.203855 1.970490
    15 4.827230 0.000000 0.000001 -0.373036 0.902706 -0.788738
    16 11.139763 0.000000 0.000000 0.000000 0.000000 -1.914924
    17 10.314597 0.000001 0.000000 -1.174256 -0.598196 -0.222490
    18 2.975834 -0.386307 -0.044143 0.001097 -0.043611 -0.043588
    19 1.438886 0.000000 0.000000 0.000000 0.000000 1.334476
    20 1.485303 0.000000 0.000000 0.000000 0.000000 0.793705
    21 -3.131625 0.610576 -4.140396 -1.200537 1.043327 1.783053
    22 4.972048 0.000000 0.000001 0.158023 -0.743033 -0.227556
    23 11.585355 0.000000 0.000000 0.000000 0.000000 -1.961934
    24 10.127057 0.000000 0.000001 1.667216 0.765311 -0.200791
    25 2.683750 -0.427338 0.044205 -0.005786 0.043239 -0.157091
    26 1.438885 -0.000001 0.000000 0.000000 0.000000 0.732658
    27 1.485305 0.000001 0.000000 0.000000 0.000000 1.168770
    28 1.038631 0.548043 -0.144017 -0.000001 0.000001 -1.849906
    29 -0.064003 -0.023521 0.026161 0.000000 0.000000 0.000000
    30 3.013925 3.984634 -0.088975 -0.000001 0.000001 -1.849906
    31 -0.084188 -0.025627 -0.001098 0.000000 0.000000 0.000000
    32 4.778187 3.972486 -0.079803 -0.000001 0.000001 -1.849906
    33 -0.058556 -0.021324 0.004244 0.000000 0.000000 0.000000
    34 1.640598 -1.968779 -0.099219 -0.000001 0.000001 -1.849906
    35 0.055573 -0.028908 0.000000 0.000000 0.000000 0.000000
    36 1.646738 0.449549 -1.702246 0.369699 -0.012752 0.801964
    37 0.928312 0.000000 -0.000002 0.000000 0.000000 0.000000
    38 0.928314 0.000000 0.000001 0.000000 0.000000 0.000000
    39 1.533672 0.109715 1.664491 -0.264755 -0.055959 0.783109
    40 0.928313 0.000000 0.000000 0.000000 0.000000 -0.453556
    41 0.928314 0.000000 0.000001 0.000000 0.000000 0.000000
  time 3
    0 0.235347 0.367732 3.528927 0.000000 0.000000 -1.570874
    1 0.000000 0.000000 0.000000 -1.570795 -1.570796 0.000000
    2 -0.000005 0.000007 3.713255 0.003204 3.158916 -0.091346
    3 18.045721 0.000000 0.000000 0.000000 0.000000 -0.243578
    4 17.597597 0.000000 0.000000 -0.001675 -0.017562 0.152262
    5 0.000005 -0.000003 -3.713255 0.355071 -3.167219 -0.017370
    6 18.045725 0.000000 0.000000 0.000000 0.000000 -0.267079
    7 17.597597 0.000000 0.000000 0.202642 0.018017 0.241891
    8 1.293670 0.684478 -0.000001 -0.000004 -0.000001 0.061735
    9 5.309685 -0.003834 0.000000 -0.258329 0.042905 0.160134
    10 4.826790 -0.004591 0.000000 0.000000 0.000000 0.183152
    11 5.792767 -0.005304 0.000000 0.000000 0.000000 0.295146
    12 6.662317 -0.001453 0.000000 0.000000 -0.000001 0.209228
    13 2.046985 -0.000002 0.000000 0.150747 -0.214838 0.097640
    14 -3.397189 0.661759 4.341911 0.982589 -1.201200 1.981708
    15 4.827230 0.000000 0.000001 -0.369688 0.896664 -0.786725
    16 11.139763 0.000000 0.000000 0.000000 0.000000 -1.914924
    17 10.314597 0.000001 0.000000 -1.174256 -0.598196 -0.222490
    18 2.975834 -0.386307 -0.044143 0.001097 -0.043611 -0.043588
    19 1.438886 0.000000 0.000000 0.000000 0.000000 1.334476
    20 1.485303 0.000000 0.000000 0.000000 0.000000 0.793705
    21 -3.131625 0.610576 -4.140396 -1.191812 1.041320 1.793119
    22 4.972048 0.000000 0.000001 0.159415 -0.735713 -0.229005
    23 11.585355 0.000000 0.000000 0.000000 0.000000 -1.961934
    24 10.127057 0.000000 0.000001 1.667216 0.765311 -0.200791
    25 2.683750 -0.427338 0.044205 -0.005786 0.043239 -0.157091
    26 1.438885 -0.000001 0.000000 0.000000 0.000000 0.732658
    27 1.485305 0.000001 0.000000 0.000000 0.000000 1.168770
    28 1.038631 0.548043 -0.144017 -0.000001 0.000001 -1.849906
    29 -0.064003 -0.023521 0.026161 0.000000 0.000000 0.000000
    30 3.013925 3.984634 -0.088975 -0.000001 0.000001 -1.849906
    31 -0.084188 -0.025627 -0.001098 0.000000 0.000000 0.000000
    32 4.778187 3.972486 -0.079803 -0.000001 0.000001 -1.849906
    33 -0.058556 -0.021324 0.004244 0.000000 0.000000 0.000000
    34 1.640598 -1.968779 -0.099219 -0.000001 0.000001 -1.849906
    35 0.055573 -0.028908 0.000000 0.000000 0.000000 0.000000
    36 1.646738 0.449549 -1.702246 0.369699 -0.012752 0.801964
    37 0.928312 0.000000 -0.000002 0.000000 0.000000 0.000000
    38 0.928314 0.000000 0.000001 0.000000 0.000000 0.000000
    39 1.533672 0.109715 1.664491 -0.264755 -0.055959 0.783109
    40 0.928313 0.000000 0.000000 0.000000 0.000000 -0.453556
    41 0.928314 0.000000 0.000001 0.000000 0.000000 0.000000
  time 4
    0 0.235347 0.367732 3.528927 0.000000 0.000000 -1.570874
    1 0.000000 0.000000 0.000000 -1.570795 -1.570796 0.000000
    2 -0.000005 0.000007 3.713255 0.003204 3.158916 -0.091346
    3 18.045721 0.000000 0.000000 0.000000 0.000000 -0.243578
    4 17.597597 0.000000 0.000000 -0.001675 -0.017562 0.152262
    5 0.000005 -0.000003 -3.713255 0.355071 -3.167219 -0.017370
    6 18.045725 0.000000 0.000000 0.000000 0.000000 -0.267079
    7 17.597597 0.000000 0.000000 0.202642 0.018017 0.241891
    8 1.293670 0.684478 -0.000001 -0.000004 -0.000001 0.061735
    9 5.309685 -0.003834 0.000000 -0.258329 0.042905 0.160134
    10 4.826790 -0.004591 0.000000 0.000000 0.000000 0.183152
    11 5.792767 -0.005304 0.000000 0.000000 0.000000 0.298593
    12 6.662317 -0.001453 0.000000 0.000000 -0.000001 0.209228
    13 2.046985 -0.000002 0.000000 0.150747 -0.214838 0.094179
    14 -3.397189 0.661759 4.341911 0.970893 -1.198123 1.994268
    15 4.827230 0.000000 0.000001 -0.365929 0.889685 -0.784449
    16 11.139763 0.000000 0.000000 0.000000 0.000000 -1.914924
    17 10.314597 0.000001 0.000000 -1.174256 -0.598196 -0.222490
    18 2.975834 -0.386307 -0.044143 0.001097 -0.043611 -0.043588
    19 1.438886 0.000000 0.000000 0.000000 0.000000 1.334476
    20 1.485303 0.000000 0.000000 0.000000 0.000000 0.793705
    21 -3.131625 0.610576 -4.140396 -1.182033 1.039002 1.804432
    22 4.972048 0.000000 0.000001 0.160885 -0.727427 -0.230652
    23 11.585355 0.000000 0.000000 0.000000 0.000000 -1.961934
    24 10.127057 0.000000 0.000001 1.667216 0.765311 -0.200791
    25 2.683750 -0.427338 0.044205 -0.005786 0.043239 -0.157091
    26 1.438885 -0.000001 0.000000 0.000000 0.000000 0.732658
    27 1.485305 0.000001 0.000000 0.000000 0.000000 1.168770
    28 1.038631 0.548043 -0.144017 -0.000001 0.000001 -1.849906
    29 -0.064003 -0.023521 0.026161 0.000000 0.000000 0.000000
    30 3.013925 3.984634 -0.088975 -0.000001 0.000001 -1.849906
    31 -0.084188 -0.025627 -0.001098 0.000000 0.000000 0.000000
    32 4.778187 3.972486 -0.079803 -0.000001 0.000001 -1.849906
    33 -0.058556 -0.021324 0.004244 0.000000 0.000000 0.000000
    34 1.640598 -1.968779 -0.099219 -0.000001 0.000001 -1.849906
    35 0.055573 -0.028908 0.000000 0.000000 0.000000 0.000000
    36 1.646738 0.449549 -1.702246 0.369699 -0.012752 0.801964
    37 0.928312 0.000000 -0.000002 0.000000 0.000000 0.000000
    38 0.928314 0.000000 0.000001 0.000000 0.000000 0.000000
    39 1.533672 0.109715 1.664491 -0.264755 -0.055959 0.783109
    40 0.928313 0.000000 0.000000 0.000000 0.000000 -0.453556
    41 0.928314 0.000000 0.000001 0.000000 0.000000 0.000000
  time 5
    0 0.235347 0.367732 3.528927 0.000000 0.000000 -1.570874
    1 0.000000 0.000000 0.000000 -1.570795 -1.570796 0.000000
    2 -0.000005 0.000007 3.713255 0.003204 3.158916 -0.091346
    3 18.045721 0.000000 0.000000 0.000000 0.000000 -0.243578
    4 17.597597 0.000000 0.000000 -0.001675 -0.017562 0.152262
    5 0.000005 -0.000003 -3.713255 0.355071 -3.167219 -0.017370
    6 18.045725 0.000000 0.000000 0.000000 0.000000 -0.267079
    7 17.597597 0.000000 0.000000 0.202642 0.018017 0.241891
    8 1.293670 0.684478 -0.000001 -0.000004 -0.000001 0.061735
    9 5.309685 -0.003834 0.000000 -0.258329 0.042905 0.160134
    10 4.826790 -0.004591 0.000000 0.000000 0.000000 0.183152
    11 5.792767 -0.005304 0.000000 0.000000 0.000000 0.302351
    12 6.662317 -0.001453 0.000000 0.000000 -0.000001 0.209228
    13 2.046985 -0.000002 0.000000 0.150747 -0.214838 0.090403
    14 -3.397189 0.661759 4.341911 0.958238 -1.194700 2.007786
    15 4.827230 0.000000 0.000001 -0.361876 0.882197 -0.782087
    16 11.139763 0.000000 0.000000 0.000000 0.000000 -1.914924
    17 10.314597 0.000001 0.000000 -1.174256 -0.598196 -0.222490
    18 2.975834 -0.386307 -0.044143 0.001097 -0.043611 -0.043588
    19 1.438886 0.000000 0.000000 0.000000 0.000000 1.334476
    20 1.485303 0.000000 0.000000 0.000000 0.000000 0.793705
    21 -3.131625 0.610576 -4.140396 -1.171391 1.036402 1.816800
    22 4.972048 0.000000 0.000001 0.162509 -0.718337 -0.232497
    23 11.585355 0.000000 0.000000 0.000000 0.000000 -1.961934
    24 10.127057 0.000000 0.000001 1.667216 0.765311 -0.200791
    25 2.683750 -0.427338 0.044205 -0.005786 0.043239 -0.157091
    26 1.438885 -0.000001 0.000000 0.000000 0.000000 0.732658
    27 1.485305 0.000001 0.000000 0.000000 0.000000 1.168770
    28 1.038631 0.548043 -0.144017 -0.000001 0.000001 -1.849906
    29 -0.064003 -0.023521 0.026161 0.000000 0.000000 0.000000
    30 3.013925 3.984634 -0.088975 -0.000001 0.000001 -1.849906
    31 -0.084188 -0.025627 -0.001098 0.000000 0.000000 0.000000
    32 4.778187 3.972486 -0.079803 -0.000001 0.000001 -1.849906
    33 -0.058556 -0.021324 0.004244 0.000000 0.000000 0.000000
    34 1.640598 -1.968779 -0.099219 -0.000001 0.000001 -1.849906
    35 0.055573 -0.028908 0.000000 0.000000 0.000000 0.000000
    36 1.646738 0.449549 -1.702246 0.369699 -0.012752 0.801964
    37 0.928312 0.000000 -0.000002 0.000000 0.000000 0.000000
    38 0.928314 0.000000 0.000001 0.000000 0.000000 0.000000
    39 1.533672 0.109715 1.664491 -0.264755 -0.055959 0.783109
    40 0.928313 0.000000 0.000000 0.000000 0.000000 -0.453556
    41 0.928314 0.000000 0.000001 0.000000 0.000000 0.000000
  time 6
    0 0.235347 0.367732 3.528927 0.000000 0.000000 -1.570874
    1 0.000000 0.000000 0.000000 -1.570795 -1.570796 0.000000
    2 -0.000005 0.000007 3.713255 0.003204 3.158916 -0.091346
    3 18.045721 0.000000 0.000000 0.000000 0.000000 -0.243578
    4 17.597597 0.000000 0.000000 -0.001675 -0.017562 0.152262
    5 0.000005 -0.000003 -3.713255 0.355071 -3.167219 -0.017370
    6 18.045725 0.000000 0.000000 0.000000 0.000000 -0.267079
    7 17.597597 0.000000 0.000000 0.202642 0.018017 0.241891
    8 1.293670 0.684478 -0.000001 -0.000004 -0.000001 0.061735
    9 5.309685 -0.003834 0.000000 -0.258329 0.042905 0.160134
    10 4.826790 -0.004591 0.000000 0.000000 0.000000 0.183152
    11 5.792767 -0.005304 0.000000 0.000000 0.000000 0.306317
    12 6.662317 -0.001453 0.000000 0.000000 -0.000001 0.209228
    13 2.046985 -0.000002 0.000000 0.150747 -0.214838 0.086448
    14 -3.397189 0.661759 4.341911 0.945295 -1.191007 2.021784
    15 4.827230 0.000000 0.000001 -0.357647 0.874282 -0.779724
    16 11.139763 0.000000 0.000000 0.000000 0.000000 -1.914924
    17 10.314597 0.000001 0.000000 -1.174256 -0.598196 -0.222490
    18 2.975834 -0.386307 -0.044143 0.001097 -0.043611 -0.043588
    19 1.438886 0.000000 0.000000 0.000000 0.000000 1.334476
    20 1.485303 0.000000 0.000000 0.000000 0.000000 0.793705
    21 -3.131625 0.610576 -4.140396 -1.160366 1.033604 1.829551
    22 4.972048 0.000000 0.000001 0.164134 -0.708845 -0.234341
    23 11.585355 0.000000 0.000000 0.000000 0.000000 -1.961934
    24 10.127057 0.000000 0.000001 1.667216 0.765311 -0.200791
    25 2.683750 -0.427338 0.044205 -0.005786 0.043239 -0.157091
    26 1.438885 -0.000001 0.000000 0.000000 0.000000 0.732658
    27 1.485305 0.000001 0.000000 0.000000 0.000000 1.168770
    28 1.038631 0.548043 -0.144017 -0.000001 0.000001 -1.849906
    29 -0.064003 -0.023521 0.026161 0.000000 0.000000 0.000000
    30 3.013925 3.984634 -0.088975 -0.000001 0.000001 -1.849906
    31 -0.084188 -0.025627 -0.001098 0.000000 0.000000 0.000000
    32 4.778187 3.972486 -0.079803 -0.000001 0.000001 -1.849906
    33 -0.058556 -0.021324 0.004244 0.000000 0.000000 0.000000
    34 1.640598 -1.968779 -0.099219 -0.000001 0.000001 -1.849906
    35 0.055573 -0.028908 0.000000 0.000000 0.000000 0.000000
    36 1.646738 0.449549 -1.702246 0.369699 -0.012752 0.801964
    37 0.928312 0.000000 -0.000002 0.000000 0.000000 0.000000
    38 0.928314 0.000000 0.000001 0.000000 0.000000 0.000000
    39 1.533672 0.109715 1.664491 -0.264755 -0.055959 0.783109
    40 0.928313 0.000000 0.000000 0.000000 0.000000 -0.453556
    41 0.928314 0.000000 0.000001 0.000000 0.000000 0.000000
  time 7
    0 0.235347 0.367732 3.528927 0.000000 0.000000 -1.570874
    1 0.000000 0.000000 0.000000 -1.570795 -1.570796 0.000000
    2 -0.000005 0.000007 3.713255 0.003204 3.158916 -0.091346
    3 18.045721 0.000000 0.000000 0.000000 0.000000 -0.243578
    4 17.597597 0.000000 0.000000 -0.001675 -0.017562 0.152262
    5 0.000005 -0.000003 -3.713255 0.355071 -3.167219 -0.017370
    6 18.045725 0.000000 0.000000 0.000000 0.000000 -0.267079
    7 17.597597 0.000000 0.000000 0.202642 0.018017 0.241891
    8 1.293670 0.684478 -0.000001 -0.000004 -0.000001 0.061735
    9 5.309685 -0.003834 0.000000 -0.258329 0.042905 0.160134
    10 4.826790 -0.004591 0.000000 0.000000 0.000000 0.183152
    11 5.792767 -0.005304 0.000000 0.000000 0.000000 0.310345
    12 6.662317 -0.001453 0.000000 0.000000 -0.000001 0.209228
    13 2.046985 -0.000002 0.000000 0.150747 -0.214838 0.082447
    14 -3.397189 0.661759 4.341911 0.932352 -1.187199 2.035782
    15 4.827230 0.000000 0.000001 -0.353477 0.866198 -0.777361
    16 11.139763 0.000000 0.000000 0.000000 0.000000 -1.914924
    17 10.314597 0.000001 0.000000 -1.174256 -0.598196 -0.222490
    18 2.975834 -0.386307 -0.044143 0.001097 -0.043611 -0.043588
    19 1.438886 0.000000 0.000000 0.000000 0.000000 1.334476
    20 1.485303 0.000000 0.000000 0.000000 0.000000 0.793705
    21 -3.131625 0.610576 -4.140396 -1.149341 1.030664 1.842494
    22 4.972048 0.000000 0.000001 0.165758 -0.699112 -0.236185
    23 11.585355 0.000000 0.000000 0.000000 0.000000 -1.961934
    24 10.127057 0.000000 0.000001 1.667216 0.765311 -0.200791
    25 2.683750 -0.427338 0.044205 -0.005786 0.043239 -0.157091
    26 1.438885 -0.000001 0.000000 0.000000 0.000000 0.732658
    27 1.485305 0.000001 0.000000 0.000000 0.000000 1.168770
    28 1.038631 0.548043 -0.144017 -0.000001 0.000001 -1.849906
    29 -0.064003 -0.023521 0.026161 0.000000 0.000000 0.000000
    30 3.013925 3.984634 -0.088975 -0.000001 0.000001 -1.849906
    31 -0.084188 -0.025627 -0.001098 0.000000 0.000000 0.000000
    32 4.778187 3.972486 -0.079803 -0.000001 0.000001 -1.849906
    33 -0.058556 -0.021324 0.004244 0.000000 0.000000 0.000000
    34 1.640598 -1.968779 -0.099219 -0.000001 0.000001 -1.849906
    35 0.055573 -0.028908 0.000000 0.000000 0.000000 0.000000
    36 1.646738 0.449549 -1.702246 0.369699 -0.012752 0.801964
    37 0.928312 0.000000 -0.000002 0.000000 0.000000 0.000000
    38 0.928314 0.000000 0.000001 0.000000 0.000000 0.000000
    39 1.533672 0.109715 1.664491 -0.264755 -0.055959 0.783109
    40 0.928313 0.000000 0.000000 0.000000 0.000000 -0.453556
    41 0.928314 0.000000 0.000001 0.000000 0.000000 0.000000
  time 8
    0 0.235347 0.367732 3.528927 0.000000 0.000000 -1.570874
    1 0.000000 0.000000 0.000000 -1.570795 -1.570796 0.000000
    2 -0.000005 0.000007 3.713255 0.003204 3.158916 -0.091346
    3 18.045721 0.000000 0.000000 0.000000 0.000000 -0.243578
    4 17.597597 0.000000 0.000000 -0.001675 -0.017562 0.152262
    5 0.000005 -0.000003 -3.713255 0.355071 -3.167219 -0.017370
    6 18.045725 0.000000 0.000000 0.000000 0.000000 -0.267079
    7 17.597597 0.000000 0.000000 0.202642 0.018017 0.241891
    8 1.293670 0.684478 -0.000001 -0.000004 -0.000001 0.061735
    9 5.309685 -0.003834 0.000000 -0.258329 0.042905 0.160134
    10 4.826790 -0.004591 0.000000 0.000000 0.000000 0.183152
    11 5.792767 -0.005304 0.000000 0.000000 0.000000 0.314331
    12 6.662317 -0.001453 0.000000 0.000000 -0.000001 0.209228
    13 2.046985 -0.000002 0.000000 0.150747 -0.214838 0.078447
    14 -3.397189 0.661759 4.341911 0.919793 -1.183352 2.049300
    15 4.827230 0.000000 0.000001 -0.349366 0.858198 -0.775173
    16 11.139763 0.000000 0.000000 0.000000 0.000000 -1.914924
    17 10.314597 0.000001 0.000000 -1.174256 -0.598196 -0.222490
    18 2.975834 -0.386307 -0.044143 0.001097 -0.043611 -0.043588
    19 1.438886 0.000000 0.000000 0.000000 0.000000 1.334476
    20 1.485303 0.000000 0.000000 0.000000 0.000000 0.793705
    21 -3.131625 0.610576 -4.140396 -1.138411 1.027697 1.855245
    22 4.972048 0.000000 0.000001 0.167305 -0.689539 -0.238030
    23 11.585355 0.000000 0.000000 0.000000 0.000000 -1.961934
    24 10.127057 0.000000 0.000001 1.667216 0.765311 -0.200791
    25 2.683750 -0.427338 0.044205 -0.005786 0.043239 -0.157091
    26 1.438885 -0.000001 0.000000 0.000000 0.000000 0.732658
    27 1.485305 0.000001 0.000000 0.000000 0.000000 1.168770
    28 1.038631 0.548043 -0.144017 -0.000001 0.000001 -1.849906
    29 -0.064003 -0.023521 0.026161 0.000000 0.000000 0.000000
    30 3.013925 3.984634 -0.088975 -0.000001 0.000001 -1.849906
    31 -0.084188 -0.025627 -0.001098 0.000000 0.000000 0.000000
    32 4.778187 3.972486 -0.079803 -0.000001 0.000001 -1.849906
    33 -0.058556 -0.021324 0.004244 0.000000 0.000000 0.000000
    34 1.640598 -1.968779 -0.099219 -0.000001 0.000001 -1.849906
    35 0.055573 -0.028908 0.000000 0.000000 0.000000 0.000000
    36 1.646738 0.449549 -1.702246 0.369699 -0.012752 0.801964
    37 0.928312 0.000000 -0.000002 0.000000 0.000000 0.000000
    38 0.928314 0.000000 0.000001 0.000000 0.000000 0.000000
    39 1.533672 0.109715 1.664491 -0.264755 -0.055959 0.783109
    40 0.928313 0.000000 0.000000 0.000000 0.000000 -0.453556
    41 0.928314 0.000000 0.000001 0.000000 0.000000 0.000000
  time 9
    0 0.235347 0.367732 3.528927 0.000000 0.000000 -1.570874
    1 0.000000 0.000000 0.000000 -1.570795 -1.570796 0.000000
    2 -0.000005 0.000007 3.713255 0.003204 3.158916 -0.091346
    3 18.045721 0.000000 0.000000 0.000000 0.000000 -0.243578
    4 17.597597 0.000000 0.000000 -0.001675 -0.017562 0.152262
    5 0.000005 -0.000003 -3.713255 0.355071 -3.167219 -0.017370
    6 18.045725 0.000000 0.000000 0.000000 0.000000 -0.267079
    7 17.597597 0.000000 0.000000 0.202642 0.018017 0.241891
    8 1.293670 0.684478 -0.000001 -0.000004 -0.000001 0.061735
    9 5.309685 -0.003834 0.000000 -0.258329 0.042905 0.160134
    10 4.826790 -0.004591 0.000000 0.000000 0.000000 0.183152
    11 5.792767 -0.005304 0.000000 0.000000 0.000000 0.318172
    12 6.662317 -0.001453 0.000000 0.000000 -0.000001 0.209228
    13 2.046985 -0.000002 0.000000 0.150747 -0.214838 0.074582
    14 -3.397189 0.661759 4.341911 0.907904 -1.179621 2.062148
    15 4.827230 0.000000 0.000001 -0.345430 0.850454 -0.773073
    16 11.139763 0.000000 0.000000 0.000000 0.000000 -1.914924
    17 10.314597 0.000001 0.000000 -1.174256 -0.598196 -0.222490
    18 2.975834 -0.386307 -0.044143 0.001097 -0.043611 -0.043588
    19 1.438886 0.000000 0.000000 0.000000 0.000000 1.334476
    20 1.485303 0.000000 0.000000 0.000000 0.000000 0.793705
    21 -3.131625 0.610576 -4.140396 -1.128057 1.024757 1.867229
    22 4.972048 0.000000 0.000001 0.168775 -0.680289 -0.239808
    23 11.585355 0.000000 0.000000 0.000000 0.000000 -1.961934
    24 10.127057 0.000000 0.000001 1.667216 0.765311 -0.200791
    25 2.683750 -0.427338 0.044205 -0.005786 0.043239 -0.157091
    26 1.438885 -0.000001 0.000000 0.000000 0.000000 0.732658
    27 1.485305 0.000001 0.000000 0.000000 0.000000 1.168770
    28 1.038631 0.548043 -0.144017 -0.000001 0.000001 -1.849906
    29 -0.064003 -0.023521 0.026161 0.000000 0.000000 0.000000
    30 3.013925 3.984634 -0.088975 -0.000001 0.000001 -1.849906
    31 -0.084188 -0.025627 -0.001098 0.000000 0.000000 0.000000
    32 4.778187 3.972486 -0.079803 -0.000001 0.000001 -1.849906
    33 -0.058556 -0.021324 0.004244 0.000000 0.000000 0.000000
    34 1.640598 -1.968779 -0.099219 -0.000001 0.000001 -1.849906
    35 0.055573 -0.028908 0.000000 0.000000 0.000000 0.000000
    36 1.646738 0.449549 -1.702246 0.369699 -0.012752 0.801964
    37 0.928312 0.000000 -0.000002 0.000000 0.000000 0.000000
    38 0.928314 0.000000 0.000001 0.000000 0.000000 0.000000
    39 1.533672 0.109715 1.664491 -0.264755 -0.055959 0.783109
    40 0.928313 0.000000 0.000000 0.000000 0.000000 -0.453556
    41 0.928314 0.000000 0.000001 0.000000 0.000000 0.000000
  time 10
    0 0.235347 0.367732 3.528927 0.000000 0.000000 -1.570874
    1 0.000000 0.000000 0.000000 -1.570795 -1.570796 0.000000
    2 -0.000005 0.000007 3.713255 0.003204 3.158916 -0.091346
    3 18.045721 0.000000 0.000000 0.000000 0.000000 -0.243578
    4 17.597597 0.000000 0.000000 -0.001675 -0.017562 0.152262
    5 0.000005 -0.000003 -3.713255 0.355071 -3.167219 -0.017370
    6 18.045725 0.000000 0.000000 0.000000 0.000000 -0.267079
    7 17.597597 0.000000 0.000000 0.202642 0.018017 0.241891
    8 1.293670 0.684478 -0.000001 -0.000004 -0.000001 0.061735
    9 5.309685 -0.003834 0.000000 -0.258329 0.042905 0.160134
    10 4.826790 -0.004591 0.000000 0.000000 0.000000 0.183152
    11 5.792767 -0.005304 0.000000 0.000000 0.000000 0.321743
    12 6.662317 -0.001453 0.000000 0.000000 -0.000001 0.209228
    13 2.046985 -0.000002 0.000000 0.150747 -0.214838 0.071031
    14 -3.397189 0.661759 4.341911 0.897071 -1.176082 2.073845
    15 4.827230 0.000000 0.000001 -0.341847 0.843306 -0.771235
    16 11.139763 0.000000 0.000000 0.000000 0.000000 -1.914924
    17 10.314597 0.000001 0.000000 -1.174256 -0.598196 -0.222490
    18 2.975834 -0.386307 -0.044143 0.001097 -0.043611 -0.043588
    19 1.438886 0.000000 0.000000 0.000000 0.000000 1.334476
    20 1.485303 0.000000 0.000000 0.000000 0.000000 0.793705
    21 -3.131625 0.610576 -4.140396 -1.118565 1.021987 1.878351
    22 4.972048 0.000000 0.000001 0.170090 -0.671682 -0.241455
    23 11.585355 0.000000 0.000000 0.000000 0.000000 -1.961934
    24 10.127057 0.000000 0.000001 1.667216 0.765311 -0.200791
    25 2.683750 -0.427338 0.044205 -0.005786 0.043239 -0.157091
    26 1.438885 -0.000001 0.000000 0.000000 0.000000 0.732658
    27 1.485305 0.000001 0.000000 0.000000 0.000000 1.168770
    28 1.038631 0.548043 -0.144017 -0.000001 0.000001 -1.849906
    29 -0.064003 -0.023521 0.026161 0.000000 0.000000 0.000000
    30 3.013925 3.984634 -0.088975 -0.000001 0.000001 -1.849906
    31 -0.084188 -0.025627 -0.001098 0.000000 0.000000 0.000000
    32 4.778187 3.972486 -0.079803 -0.000001 0.000001 -1.849906
    33 -0.058556 -0.021324 0.004244 0.000000 0.000000 0.000000
    34 1.640598 -1.968779 -0.099219 -0.000001 0.000001 -1.849906
    35 0.055573 -0.028908 0.000000 0.000000 0.000000 0.000000
    36 1.646738 0.449549 -1.702246 0.369699 -0.012752 0.801964
    37 0.928312 0.000000 -0.000002 0.000000 0.000000 0.000000
    38 0.928314 0.000000 0.000001 0.000000 0.000000 0.000000
    39 1.533672 0.109715 1.664491 -0.264755 -0.055959 0.783109
    40 0.928313 0.000000 0.000000 0.000000 0.000000 -0.453556
    41 0.928314 0.000000 0.000001 0.000000 0.000000 0.000000
  time 11
    0 0.235347 0.367732 3.528927 0.000000 0.000000 -1.570874
    1 0.000000 0.000000 0.000000 -1.570795 -1.570796 0.000000
    2 -0.000005 0.000007 3.713255 0.003204 3.158916 -0.091346
    3 18.045721 0.000000 0.000000 0.000000 0.000000 -0.243578
    4 17.597597 0.000000 0.000000 -0.001675 -0.017562 0.152262
    5 0.000005 -0.000003 -3.713255 0.355071 -3.167219 -0.017370
    6 18.045725 0.000000 0.000000 0.000000 0.000000 -0.267079
    7 17.597597 0.000000 0.000000 0.202642 0.018017 0.241891
    8 1.293670 0.684478 -0.000001 -0.000004 -0.000001 0.061735
    9 5.309685 -0.003834 0.000000 -0.258329 0.042905 0.160134
    10 4.826790 -0.004591 0.000000 0.000000 0.000000 0.183152
    11 5.792767 -0.005304 0.000000 0.000000 0.000000 0.324920
    12 6.662317 -0.001453 0.000000 0.000000 -0.000001 0.209228
    13 2.046985 -0.000002 0.000000 0.150747 -0.214838 0.067839
    14 -3.397189 0.661759 4.341911 0.887675 -1.172890 2.084103
    15 4.827230 0.000000 0.000001 -0.338734 0.836923 -0.769660
    16 11.139763 0.000000 0.000000 0.000000 0.000000 -1.914924
    17 10.314597 0.000001 0.000000 -1.174256 -0.598196 -0.222490
    18 2.975834 -0.386307 -0.044143 0.001097 -0.043611 -0.043588
    19 1.438886 0.000000 0.000000 0.000000 0.000000 1.334476
    20 1.485303 0.000000 0.000000 0.000000 0.000000 0.793705
    21 -3.131625 0.610576 -4.140396 -1.110224 1.019472 1.888226
    22 4.972048 0.000000 0.000001 0.171173 -0.664040 -0.242904
    23 11.585355 0.000000 0.000000 0.000000 0.000000 -1.961934
    24 10.127057 0.000000 0.000001 1.667216 0.765311 -0.200791
    25 2.683750 -0.427338 0.044205 -0.005786 0.043239 -0.157091
    26 1.438885 -0.000001 0.000000 0.000000 0.000000 0.732658
    27 1.485305 0.000001 0.000000 0.000000 0.000000 1.168770
    28 1.038631 0.548043 -0.144017 -0.000001 0.000001 -1.849906
    29 -0.064003 -0.023521 0.026161 0.000000 0.000000 0.000000
    30 3.013925 3.984634 -0.088975 -0.000001 0.000001 -1.849906
    31 -0.084188 -0.025627 -0.001098 0.000000 0.000000 0.000000
    32 4.778187 3.972486 -0.079803 -0.000001 0.000001 -1.849906
    33 -0.058556 -0.021324 0.004244 0.000000 0.000000 0.000000
    34 1.640598 -1.968779 -0.099219 -0.000001 0.000001 -1.849906
    35 0.055573 -0.028908 0.000000 0.000000 0.000000 0.000000
    36 1.646738 0.449549 -1.702246 0.369699 -0.012752 0.801964
    37 0.928312 0.000000 -0.000002 0.000000 0.000000 0.000000
    38 0.928314 0.000000 0.000001 0.000000 0.000000 0.000000
    39 1.533672 0.109715 1.664491 -0.264755 -0.055959 0.783109
    40 0.928313 0.000000 0.000000 0.000000 0.000000 -0.453556
    41 0.928314 0.000000 0.000001 0.000000 0.000000 0.000000
  time 12
    0 0.235347 0.367732 3.528927 0.000000 0.000000 -1.570874
    1 0.000000 0.000000 0.000000 -1.570795 -1.570796 0.000000
    2 -0.000005 0.000007 3.713255 0.003204 3.158916 -0.091346
    3 18.045721 0.000000 0.000000 0.000000 0.000000 -0.243578
    4 17.597597 0.000000 0.000000 -0.001675 -0.017562 0.152262
    5 0.000005 -0.000003 -3.713255 0.355071 -3.167219 -0.017370
    6 18.045725 0.000000 0.000000 0.000000 0.000000 -0.267079
    7 17.597597 0.000000 0.000000 0.202642 0.018017 0.241891
    8 1.293670 0.684478 -0.000001 -0.000004 -0.000001 0.061735
    9 5.309685 -0.003834 0.000000 -0.258329 0.042905 0.160134
    10 4.826790 -0.004591 0.000000 0.000000 0.000000 0.183152
    11 5.792767 -0.005304 0.000000 0.000000 0.000000 0.327598
    12 6.662317 -0.001453 0.000000 0.000000 -0.000001 0.209228
    13 2.046985 -0.000002 0.000000 0.150747 -0.214838 0.065187
    14 -3.397189 0.661759 4.341911 0.879813 -1.170158 2.092636
    15 4.827230 0.000000 0.000001 -0.336091 0.831562 -0.768435
    16 11.139763 0.000000 0.000000 0.000000 0.000000 -1.914924
    17 10.314597 0.000001 0.000000 -1.174256 -0.598196 -0.222490
    18 2.975834 -0.386307 -0.044143 0.001097 -0.043611 -0.043588
    19 1.438886 0.000000 0.000000 0.000000 0.000000 1.334476
    20 1.485303 0.000000 0.000000 0.000000 0.000000 0.793705
    21 -3.131625 0.610576 -4.140396 -1.103226 1.017324 1.896471
    22 4.972048 0.000000 0.000001 0.172179 -0.657604 -0.244090
    23 11.585355 0.000000 0.000000 0.000000 0.000000 -1.961934
    24 10.127057 0.000000 0.000001 1.667216 0.765311 -0.200791
    25 2.683750 -0.427338 0.044205 -0.005786 0.043239 -0.157091
    26 1.438885 -0.000001 0.000000 0.000000 0.000000 0.732658
    27 1.485305 0.000001 0.000000 0.000000 0.000000 1.168770
    28 1.038631 0.548043 -0.144017 -0.000001 0.000001 -1.849906
    29 -0.064003 -0.023521 0.026161 0.000000 0.000000 0.000000
    30 3.013925 3.984634 -0.088975 -0.000001 0.000001 -1.849906
    31 -0.084188 -0.025627 -0.001098 0.000000 0.000000 0.000000
    32 4.778187 3.972486 -0.079803 -0.000001 0.000001 -1.849906
    33 -0.058556 -0.021324 0.004244 0.000000 0.000000 0.000000
    34 1.640598 -1.968779 -0.099219 -0.000001 0.000001 -1.849906
    35 0.055573 -0.028908 0.000000 0.000000 0.000000 0.000000
    36 1.646738 0.449549 -1.702246 0.369699 -0.012752 0.801964
    37 0.928312 0.000000 -0.000002 0.000000 0.000000 0.000000
    38 0.928314 0.000000 0.000001 0.000000 0.000000 0.000000
    39 1.533672 0.109715 1.664491 -0.264755 -0.055959 0.783109
    40 0.928313 0.000000 0.000000 0.000000 0.000000 -0.453556
    41 0.928314 0.000000 0.000001 0.000000 0.000000 0.000000
  time 13
    0 0.235347 0.367732 3.528927 0.000000 0.000000 -1.570874
    1 0.000000 0.000000 0.000000 -1.570795 -1.570796 0.000000
    2 -0.000005 0.000007 3.713255 0.003204 3.158916 -0.091346
    3 18.045721 0.000000 0.000000 0.000000 0.000000 -0.243578
    4 17.597597 0.000000 0.000000 -0.001675 -0.017562 0.152262
    5 0.000005 -0.000003 -3.713255 0.355071 -3.167219 -0.017370
    6 18.045725 0.000000 0.000000 0.000000 0.000000 -0.267079
    7 17.597597 0.000000 0.000000 0.202642 0.018017 0.241891
    8 1.293670 0.684478 -0.000001 -0.000004 -0.000001 0.061735
    9 5.309685 -0.003834 0.000000 -0.258329 0.042905 0.160134
    10 4.826790 -0.004591 0.000000 0.000000 0.000000 0.183152
    11 5.792767 -0.005304 0.000000 0.000000 0.000000 0.329654
    12 6.662317 -0.001453 0.000000 0.000000 -0.000001 0.209228
    13 2.046985 -0.000002 0.000000 0.150747 -0.214838 0.063120
    14 -3.397189 0.661759 4.341911 0.873869 -1.168081 2.099060
    15 4.827230 0.000000 0.000001 -0.334094 0.827477 -0.767472
    16 11.139763 0.000000 0.000000 0.000000 0.000000 -1.914924
    17 10.314597 0.000001 0.000000 -1.174256 -0.598196 -0.222490
    18 2.975834 -0.386307 -0.044143 0.001097 -0.043611 -0.043588
    19 1.438886 0.000000 0.000000 0.000000 0.000000 1.334476
    20 1.485303 0.000000 0.000000 0.000000 0.000000 0.793705
    21 -3.131625 0.610576 -4.140396 -1.097953 1.015656 1.902702
    22 4.972048 0.000000 0.000001 0.172875 -0.652697 -0.245012
    23 11.585355 0.000000 0.000000 0.000000 0.000000 -1.961934
    24 10.127057 0.000000 0.000001 1.667216 0.765311 -0.200791
    25 2.683750 -0.427338 0.044205 -0.005786 0.043239 -0.157091
    26 1.438885 -0.000001 0.000000 0.000000 0.000000 0.732658
    27 1.485305 0.000001 0.000000 0.000000 0.000000 1.168770
    28 1.038631 0.548043 -0.144017 -0.000001 0.000001 -1.849906
    29 -0.064003 -0.023521 0.026161 0.000000 0.000000 0.000000
    30 3.013925 3.984634 -0.088975 -0.000001 0.000001 -1.849906
    31 -0.084188 -0.025627 -0.001098 0.000000 0.000000 0.000000
    32 4.778187 3.972486 -0.079803 -0.000001 0.000001 -1.849906
    33 -0.058556 -0.021324 0.004244 0.000000 0.000000 0.000000
    34 1.640598 -1.968779 -0.099219 -0.000001 0.000001 -1.849906
    35 0.055573 -0.028908 0.000000 0.000000 0.000000 0.000000
    36 1.646738 0.449549 -1.702246 0.369699 -0.012752 0.801964
    37 0.928312 0.000000 -0.000002 0.000000 0.000000 0.000000
    38 0.928314 0.000000 0.000001 0.000000 0.000000 0.000000
    39 1.533672 0.109715 1.664491 -0.264755 -0.055959 0.783109
    40 0.928313 0.000000 0.000000 0.000000 0.000000 -0.453556
    41 0.928314 0.000000 0.000001 0.000000 0.000000 0.000000
  time 14
    0 0.235347 0.367732 3.528927 0.000000 0.000000 -1.570874
    1 0.000000 0.000000 0.000000 -1.570795 -1.570796 0.000000
    2 -0.000005 0.000007 3.713255 0.003204 3.158916 -0.091346
    3 18.045721 0.000000 0.000000 0.000000 0.000000 -0.243578
    4 17.597597 0.000000 0.000000 -0.001675 -0.017562 0.152262
    5 0.000005 -0.000003 -3.713255 0.355071 -3.167219 -0.017370
    6 18.045725 0.000000 0.000000 0.000000 0.000000 -0.267079
    7 17.597597 0.000000 0.000000 0.202642 0.018017 0.241891
    8 1.293670 0.684478 -0.000001 -0.000004 -0.000001 0.061735
    9 5.309685 -0.003834 0.000000 -0.258329 0.042905 0.160134
    10 4.826790 -0.004591 0.000000 0.000000 0.000000 0.183152
    11 5.792767 -0.005304 0.000000 0.000000 0.000000 0.330962
    12 6.662317 -0.001453 0.000000 0.000000 -0.000001 0.209228
    13 2.046985 -0.000002 0.000000 0.150747 -0.214838 0.061816
    14 -3.397189 0.661759 4.341911 0.870034 -1.166696 2.103183
    15 4.827230 0.000000 0.000001 -0.332802 0.824839 -0.766860
    16 11.139763 0.000000 0.000000 0.000000 0.000000 -1.914924
    17 10.314597 0.000001 0.000000 -1.174256 -0.598196 -0.222490
    18 2.975834 -0.386307 -0.044143 0.001097 -0.043611 -0.043588
    19 1.438886 0.000000 0.000000 0.000000 0.000000 1.334476
    20 1.485303 0.000000 0.000000 0.000000 0.000000 0.793705
    21 -3.131625 0.610576 -4.140396 -1.094501 1.014554 1.906729
    22 4.972048 0.000000 0.000001 0.173339 -0.649480 -0.245605
    23 11.585355 0.000000 0.000000 0.000000 0.000000 -1.961934
    24 10.127057 0.000000 0.000001 1.667216 0.765311 -0.200791
    25 2.683750 -0.427338 0.044205 -0.005786 0.043239 -0.157091
    26 1.438885 -0.000001 0.000000 0.000000 0.000000 0.732658
    27 1.485305 0.000001 0.000000 0.000000 0.000000 1.168770
    28 1.038631 0.548043 -0.144017 -0.000001 0.000001 -1.849906
    29 -0.064003 -0.023521 0.026161 0.000000 0.000000 0.000000
    30 3.013925 3.984634 -0.088975 -0.000001 0.000001 -1.849906
    31 -0.084188 -0.025627 -0.001098 0.000000 0.000000 0.000000
    32 4.778187 3.972486 -0.079803 -0.000001 0.000001 -1.849906
    33 -0.058556 -0.021324 0.004244 0.000000 0.000000 0.000000
    34 1.640598 -1.968779 -0.099219 -0.000001 0.000001 -1.849906
    35 0.055573 -0.028908 0.000000 0.000000 0.000000 0.000000
    36 1.646738 0.449549 -1.702246 0.369699 -0.012752 0.801964
    37 0.928312 0.000000 -0.000002 0.000000 0.000000 0.000000
    38 0.928314 0.000000 0.000001 0.000000 0.000000 0.000000
    39 1.533672 0.109715 1.664491 -0.264755 -0.055959 0.783109
    40 0.928313 0.000000 0.000000 0.000000 0.000000 -0.453556
    41 0.928314 0.000000 0.000001 0.000000 0.000000 0.000000
  time 15
    0 0.235347 0.367732 3.528927 0.000000 0.000000 -1.570874
    1 0.000000 0.000000 0.000000 -1.570795 -1.570796 0.000000
    2 -0.000005 0.000007 3.713255 0.003204 3.158916 -0.091346
    3 18.045721 0.000000 0.000000 0.000000 0.000000 -0.243578
    4 17.597597 0.000000 0.000000 -0.001675 -0.017562 0.152262
    5 0.000005 -0.000003 -3.713255 0.355071 -3.167219 -0.017370
    6 18.045725 0.000000 0.000000 0.000000 0.000000 -0.267079
    7 17.597597 0.000000 0.000000 0.202642 0.018017 0.241891
    8 1.293670 0.684478 -0.000001 -0.000004 -0.000001 0.061735
    9 5.309685 -0.003834 0.000000 -0.258329 0.042905 0.160134
    10 4.826790 -0.004591 0.000000 0.000000 0.000000 0.183152
    11 5.792767 -0.005304 0.000000 0.000000 0.000000 0.331439
    12 6.662317 -0.001453 0.000000 0.000000 -0.000001 0.209228
    13 2.046985 -0.000002 0.000000 0.150747 -0.214838 0.061367
    14 -3.397189 0.661759 4.341911 0.868692 -1.166235 2.104621
    15 4.827230 0.000000 0.000001 -0.332391 0.823903 -0.766597
    16 11.139763 0.000000 0.000000 0.000000 0.000000 -1.914924
    17 10.314597 0.000001 0.000000 -1.174256 -0.598196 -0.222490
    18 2.975834 -0.386307 -0.044143 0.001097 -0.043611 -0.043588
    19 1.438886 0.000000 0.000000 0.000000 0.000000 1.334476
    20 1.485303 0.000000 0.000000 0.000000 0.000000 0.793705
    21 -3.131625 0.610576 -4.140396 -1.093351 1.014186 1.908071
    22 4.972048 0.000000 0.000001 0.173494 -0.648354 -0.245803
    23 11.585355 0.000000 0.000000 0.000000 0.000000 -1.961934
    24 10.127057 0.000000 0.000001 1.667216 0.765311 -0.200791
    25 2.683750 -0.427338 0.044205 -0.005786 0.043239 -0.157091
    26 1.438885 -0.000001 0.000000 0.000000 0.000000 0.732658
    27 1.485305 0.000001 0.000000 0.000000 0.000000 1.168770
    28 1.038631 0.548043 -0.144017 -0.000001 0.000001 -1.849906
    29 -0.064003 -0.023521 0.026161 0.000000 0.000000 0.000000
    30 3.013925 3.984634 -0.088975 -0.000001 0.000001 -1.849906
    31 -0.084188 -0.025627 -0.001098 0.000000 0.000000 0.000000
    32 4.778187 3.972486 -0.079803 -0.000001 0.000001 -1.849906
    33 -0.058556 -0.021324 0.004244 0.000000 0.000000 0.000000
    34 1.640598 -1.968779 -0.099219 -0.000001 0.000001 -1.849906
    35 0.055573 -0.028908 0.000000 0.000000 0.000000 0.000000
    36 1.646738 0.449549 -1.702246 0.369699 -0.012752 0.801964
    37 0.928312 0.000000 -0.000002 0.000000 0.000000 0.000000
    38 0.928314 0.000000 0.000001 0.000000 0.000000 0.000000
    39 1.533672 0.109715 1.664491 -0.264755 -0.055959 0.783109
    40 0.928313 0.000000 0.000000 0.000000 0.000000 -0.453556
    41 0.928314 0.000000 0.000001 0.000000 0.000000 0.000000
  time 16
    0 0.235347 0.367732 3.528927 0.000000 0.000000 -1.570874
    1 0.000000 0.000000 0.000000 -1.570795 -1.570796 0.000000
    2 -0.000005 0.000007 3.713255 0.003204 3.158916 -0.091346
    3 18.045721 0.000000 0.000000 0.000000 0.000000 -0.243578
    4 17.597597 0.000000 0.000000 -0.001675 -0.017562 0.152262
    5 0.000005 -0.000003 -3.713255 0.355071 -3.167219 -0.017370
    6 18.045725 0.000000 0.000000 0.000000 0.000000 -0.267079
    7 17.597597 0.000000 0.000000 0.202642 0.018017 0.241891
    8 1.293670 0.684478 -0.000001 -0.000004 -0.000001 0.061735
    9 5.309685 -0.003834 0.000000 -0.258329 0.042905 0.160134
    10 4.826790 -0.004591 0.000000 0.000000 0.000000 0.183152
    11 5.792767 -0.005304 0.000000 0.000000 0.000000 0.330962
    12 6.662317 -0.001453 0.000000 0.000000 -0.000001 0.209228
    13 2.046985 -0.000002 0.000000 0.150747 -0.214838 0.061816
    14 -3.397189 0.661759 4.341911 0.870034 -1.166696 2.103183
    15 4.827230 0.000000 0.000001 -0.332802 0.824839 -0.766860
    16 11.139763 0.000000 0.000000 0.000000 0.000000 -1.914924
    17 10.314597 0.000001 0.000000 -1.174256 -0.598196 -0.222490
    18 2.975834 -0.386307 -0.044143 0.001097 -0.043611 -0.043588
    19 1.438886 0.000000 0.000000 0.000000 0.000000 1.334476
    20 1.485303 0.000000 0.000000 0.000000 0.000000 0.793705
    21 -3.131625 0.610576 -4.140396 -1.094501 1.014554 1.906729
    22 4.972048 0.000000 0.000001 0.173339 -0.649480 -0.245605
    23 11.585355 0.000000 0.000000 0.000000 0.000000 -1.961934
    24 10.127057 0.000000 0.000001 1.667216 0.765311 -0.200791
    25 2.683750 -0.427338 0.044205 -0.005786 0.043239 -0.157091
    26 1.438885 -0.000001 0.000000 0.000000 0.000000 0.732658
    27 1.485305 0.000001 0.000000 0.000000 0.000000 1.168770
    28 1.038631 0.548043 -0.144017 -0.000001 0.000001 -1.849906
    29 -0.064003 -0.023521 0.026161 0.000000 0.000000 0.000000
    30 3.013925 3.984634 -0.088975 -0.000001 0.000001 -1.849906
    31 -0.084188 -0.025627 -0.001098 0.000000 0.000000 0.000000
    32 4.778187 3.972486 -0.079803 -0.000001 0.000001 -1.849906
    33 -0.058556 -0.021324 0.004244 0.000000 0.000000 0.000000
    34 1.640598 -1.968779 -0.099219 -0.000001 0.000001 -1.849906
    35 0.055573 -0.028908 0.000000 0.000000 0.000000 0.000000
    36 1.646738 0.449549 -1.702246 0.369699 -0.012752 0.801964
    37 0.928312 0.000000 -0.000002 0.000000 0.000000 0.000000
    38 0.928314 0.000000 0.000001 0.000000 0.000000 0.000000
    39 1.533672 0.109715 1.664491 -0.264755 -0.055959 0.783109
    40 0.928313 0.000000 0.000000 0.000000 0.000000 -0.453556
    41 0.928314 0.000000 0.000001 0.000000 0.000000 0.000000
  time 17
    0 0.235347 0.367732 3.528927 0.000000 0.000000 -1.570874
    1 0.000000 0.000000 0.000000 -1.570795 -1.570796 0.000000
    2 -0.000005 0.000007 3.713255 0.003204 3.158916 -0.091346
    3 18.045721 0.000000 0.000000 0.000000 0.000000 -0.243578
    4 17.597597 0.000000 0.000000 -0.001675 -0.017562 0.152262
    5 0.000005 -0.000003 -3.713255 0.355071 -3.167219 -0.017370
    6 18.045725 0.000000 0.000000 0.000000 0.000000 -0.267079
    7 17.597597 0.000000 0.000000 0.202642 0.018017 0.241891
    8 1.293670 0.684478 -0.000001 -0.000004 -0.000001 0.061735
    9 5.309685 -0.003834 0.000000 -0.258329 0.042905 0.160134
    10 4.826790 -0.004591 0.000000 0.000000 0.000000 0.183152
    11 5.792767 -0.005304 0.000000 0.000000 0.000000 0.329654
    12 6.662317 -0.001453 0.000000 0.000000 -0.000001 0.209228
    13 2.046985 -0.000002 0.000000 0.150747 -0.214838 0.063120
    14 -3.397189 0.661759 4.341911 0.873869 -1.168081 2.099060
    15 4.827230 0.000000 0.000001 -0.334094 0.827477 -0.767472
    16 11.139763 0.000000 0.000000 0.000000 0.000000 -1.914924
    17 10.314597 0.000001 0.000000 -1.174256 -0.598196 -0.222490
    18 2.975834 -0.386307 -0.044143 0.001097 -0.043611 -0.043588
    19 1.438886 0.000000 0.000000 0.000000 0.000000 1.334476
    20 1.485303 0.000000 0.000000 0.000000 0.000000 0.793705
    21 -3.131625 0.610576 -4.140396 -1.097953 1.015656 1.902702
    22 4.972048 0.000000 0.000001 0.172875 -0.652697 -0.245012
    23 11.585355 0.000000 0.000000 0.000000 0.000000 -1.961934
    24 10.127057 0.000000 0.000001 1.667216 0.765311 -0.200791
    25 2.683750 -0.427338 0.044205 -0.005786 0.043239 -0.157091
    26 1.438885 -0.000001 0.000000 0.000000 0.000000 0.732658
    27 1.485305 0.000001 0.000000 0.000000 0.000000 1.168770
    28 1.038631 0.548043 -0.144017 -0.000001 0.000001 -1.849906
    29 -0.064003 -0.023521 0.026161 0.000000 0.000000 0.000000
    30 3.013925 3.984634 -0.088975 -0.000001 0.000001 -1.849906
    31 -0.084188 -0.025627 -0.001098 0.000000 0.000000 0.000000
    32 4.778187 3.972486 -0.079803 -0.000001 0.000001 -1.849906
    33 -0.058556 -0.021324 0.004244 0.000000 0.000000 0.000000
    34 1.640598 -1.968779 -0.099219 -0.000001 0.000001 -1.849906
    35 0.055573 -0.028908 0.000000 0.000000 0.000000 0.000000
    36 1.646738 0.449549 -1.702246 0.369699 -0.012752 0.801964
    37 0.928312 0.000000 -0.000002 0.000000 0.000000 0.000000
    38 0.928314 0.000000 0.000001 0.000000 0.000000 0.000000
    39 1.533672 0.109715 1.664491 -0.264755 -0.055959 0.783109
    40 0.928313 0.000000 0.000000 0.000000 0.000000 -0.453556
    41 0.928314 0.000000 0.000001 0.000000 0.000000 0.000000
  time 18
    0 0.235347 0.367732 3.528927 0.000000 0.000000 -1.570874
    1 0.000000 0.000000 0.000000 -1.570795 -1.570796 0.000000
    2 -0.000005 0.000007 3.713255 0.003204 3.158916 -0.091346
    3 18.045721 0.000000 0.000000 0.000000 0.000000 -0.243578
    4 17.597597 0.000000 0.000000 -0.001675 -0.017562 0.152262
    5 0.000005 -0.000003 -3.713255 0.355071 -3.167219 -0.017370
    6 18.045725 0.000000 0.000000 0.000000 0.000000 -0.267079
    7 17.597597 0.000000 0.000000 0.202642 0.018017 0.241891
    8 1.293670 0.684478 -0.000001 -0.000004 -0.000001 0.061735
    9 5.309685 -0.003834 0.000000 -0.258329 0.042905 0.160134
    10 4.826790 -0.004591 0.000000 0.000000 0.000000 0.183152
    11 5.792767 -0.005304 0.000000 0.000000 0.000000 0.327598
    12 6.662317 -0.001453 0.000000 0.000000 -0.000001 0.209228
    13 2.046985 -0.000002 0.000000 0.150747 -0.214838 0.065187
    14 -3.397189 0.661759 4.341911 0.879813 -1.170158 2.092636
    15 4.827230 0.000000 0.000001 -0.336091 0.831562 -0.768435
    16 11.139763 0.000000 0.000000 0.000000 0.000000 -1.914924
    17 10.314597 0.000001 0.000000 -1.174256 -0.598196 -0.222490
    18 2.975834 -0.386307 -0.044143 0.001097 -0.043611 -0.043588
    19 1.438886 0.000000 0.000000 0.000000 0.000000 1.334476
    20 1.485303 0.000000 0.000000 0.000000 0.000000 0.793705
    21 -3.131625 0.610576 -4.140396 -1.103226 1.017324 1.896471
    22 4.972048 0.000000 0.000001 0.172179 -0.657604 -0.244090
    23 11.585355 0.000000 0.000000 0.000000 0.000000 -1.961934
    24 10.127057 0.000000 0.000001 1.667216 0.765311 -0.200791
    25 2.683750 -0.427338 0.044205 -0.005786 0.043239 -0.157091
    26 1.438885 -0.000001 0.000000 0.000000 0.000000 0.732658
    27 1.485305 0.000001 0.000000 0.000000 0.000000 1.168770
    28 1.038631 0.548043 -0.144017 -0.000001 0.000001 -1.849906
    29 -0.064003 -0.023521 0.026161 0.000000 0.000000 0.000000
    30 3.013925 3.984634 -0.088975 -0.000001 0.000001 -1.849906
    31 -0.084188 -0.025627 -0.001098 0.000000 0.000000 0.000000
    32 4.778187 3.972486 -0.079803 -0.000001 0.000001 -1.849906
    33 -0.058556 -0.021324 0.004244 0.000000 0.000000 0.000000
    34 1.640598 -1.968779 -0.099219 -0.000001 0.000001 -1.849906
    35 0.055573 -0.028908 0.000000 0.000000 0.000000 0.000000
    36 1.646738 0.449549 -1.702246 0.369699 -0.012752 0.801964
    37 0.928312 0.000000 -0.000002 0.000000 0.000000 0.000000
    38 0.928314 0.000000 0.000001 0.000000 0.000000 0.000000
    39 1.533672 0.109715 1.664491 -0.264755 -0.055959 0.783109
    40 0.928313 0.000000 0.000000 0.000000 0.000000 -0.453556
    41 0.928314 0.000000 0.000001 0.000000 0.000000 0.000000
  time 19
    0 0.235347 0.367732 3.528927 0.000000 0.000000 -1.570874
    1 0.000000 0.000000 0.000000 -1.570795 -1.570796 0.000000
    2 -0.000005 0.000007 3.713255 0.003204 3.158916 -0.091346
    3 18.045721 0.000000 0.000000 0.000000 0.000000 -0.243578
    4 17.597597 0.000000 0.000000 -0.001675 -0.017562 0.152262
    5 0.000005 -0.000003 -3.713255 0.355071 -3.167219 -0.017370
    6 18.045725 0.000000 0.000000 0.000000 0.000000 -0.267079
    7 17.597597 0.000000 0.000000 0.202642 0.018017 0.241891
    8 1.293670 0.684478 -0.000001 -0.000004 -0.000001 0.061735
    9 5.309685 -0.003834 0.000000 -0.258329 0.042905 0.160134
    10 4.826790 -0.004591 0.000000 0.000000 0.000000 0.183152
    11 5.792767 -0.005304 0.000000 0.000000 0.000000 0.324920
    12 6.662317 -0.001453 0.000000 0.000000 -0.000001 0.209228
    13 2.046985 -0.000002 0.000000 0.150747 -0.214838 0.067839
    14 -3.397189 0.661759 4.341911 0.887675 -1.172890 2.084103
    15 4.827230 0.000000 0.000001 -0.338734 0.836923 -0.769660
    16 11.139763 0.000000 0.000000 0.000000 0.000000 -1.914924
    17 10.314597 0.000001 0.000000 -1.174256 -0.598196 -0.222490
    18 2.975834 -0.386307 -0.044143 0.001097 -0.043611 -0.043588
    19 1.438886 0.000000 0.000000 0.000000 0.000000 1.334476
    20 1.485303 0.000000 0.000000 0.000000 0.000000 0.793705
    21 -3.131625 0.610576 -4.140396 -1.110224 1.019472 1.888226
    22 4.972048 0.000000 0.000001 0.171173 -0.664040 -0.242904
    23 11.585355 0.000000 0.000000 0.000000 0.000000 -1.961934
    24 10.127057 0.000000 0.000001 1.667216 0.765311 -0.200791
    25 2.683750 -0.427338 0.044205 -0.005786 0.043239 -0.157091
    26 1.438885 -0.000001 0.000000 0.000000 0.000000 0.732658
    27 1.485305 0.000001 0.000000 0.000000 0.000000 1.168770
    28 1.038631 0.548043 -0.144017 -0.000001 0.000001 -1.849906
    29 -0.064003 -0.023521 0.026161 0.000000 0.000000 0.000000
    30 3.013925 3.984634 -0.088975 -0.000001 0.000001 -1.849906
    31 -0.084188 -0.025627 -0.001098 0.000000 0.000000 0.000000
    32 4.778187 3.972486 -0.079803 -0.000001 0.000001 -1.849906
    33 -0.058556 -0.021324 0.004244 0.000000 0.000000 0.000000
    34 1.640598 -1.968779 -0.099219 -0.000001 0.000001 -1.849906
    35 0.055573 -0.028908 0.000000 0.000000 0.000000 0.000000
    36 1.646738 0.449549 -1.702246 0.369699 -0.012752 0.801964
    37 0.928312 0.000000 -0.000002 0.000000 0.000000 0.000000
    38 0.928314 0.000000 0.000001 0.000000 0.000000 0.000000
    39 1.533672 0.109715 1.664491 -0.264755 -0.055959 0.783109
    40 0.928313 0.000000 0.000000 0.000000 0.000000 -0.453556
    41 0.928314 0.000000 0.000001 0.000000 0.000000 0.000000
  time 20
    0 0.235347 0.367732 3.528927 0.000000 0.000000 -1.570874
    1 0.000000 0.000000 0.000000 -1.570795 -1.570796 0.000000
    2 -0.000005 0.000007 3.713255 0.003204 3.158916 -0.091346
    3 18.045721 0.000000 0.000000 0.000000 0.000000 -0.243578
    4 17.597597 0.000000 0.000000 -0.001675 -0.017562 0.152262
    5 0.000005 -0.000003 -3.713255 0.355071 -3.167219 -0.017370
    6 18.045725 0.000000 0.000000 0.000000 0.000000 -0.267079
    7 17.597597 0.000000 0.000000 0.202642 0.018017 0.241891
    8 1.293670 0.684478 -0.000001 -0.000004 -0.000001 0.061735
    9 5.309685 -0.003834 0.000000 -0.258329 0.042905 0.160134
    10 4.826790 -0.004591 0.000000 0.000000 0.000000 0.183152
    11 5.792767 -0.005304 0.000000 0.000000 0.000000 0.321743
    12 6.662317 -0.001453 0.000000 0.000000 -0.000001 0.209228
    13 2.046985 -0.000002 0.000000 0.150747 -0.214838 0.071031
    14 -3.397189 0.661759 4.341911 0.897071 -1.176082 2.073845
    15 4.827230 0.000000 0.000001 -0.341847 0.843306 -0.771235
    16 11.139763 0.000000 0.000000 0.000000 0.000000 -1.914924
    17 10.314597 0.000001 0.000000 -1.174256 -0.598196 -0.222490
    18 2.975834 -0.386307 -0.044143 0.001097 -0.043611 -0.043588
    19 1.438886 0.000000 0.000000 0.000000 0.000000 1.334476
    20 1.485303 0.000000 0.000000 0.000000 0.000000 0.793705
    21 -3.131625 0.610576 -4.140396 -1.118565 1.021987 1.878351
    22 4.972048 0.000000 0.000001 0.170090 -0.671682 -0.241455
    23 11.585355 0.000000 0.000000 0.000000 0.000000 -1.961934
    24 10.127057 0.000000 0.000001 1.667216 0.765311 -0.200791
    25 2.683750 -0.427338 0.044205 -0.005786 0.043239 -0.157091
    26 1.438885 -0.000001 0.000000 0.000000 0.000000 0.732658
    27 1.485305 0.000001 0.000000 0.000000 0.000000 1.168770
    28 1.038631 0.548043 -0.144017 -0.000001 0.000001 -1.849906
    29 -0.064003 -0.023521 0.026161 0.000000 0.000000 0.000000
    30 3.013925 3.984634 -0.088975 -0.000001 0.000001 -1.849906
    31 -0.084188 -0.025627 -0.001098 0.000000 0.000000 0.000000
    32 4.778187 3.972486 -0.079803 -0.000001 0.000001 -1.849906
    33 -0.058556 -0.021324 0.004244 0.000000 0.000000 0.000000
    34 1.640598 -1.968779 -0.099219 -0.000001 0.000001 -1.849906
    35 0.055573 -0.028908 0.000000 0.000000 0.000000 0.000000
    36 1.646738 0.449549 -1.702246 0.369699 -0.012752 0.801964
    37 0.928312 0.000000 -0.000002 0.000000 0.000000 0.000000
    38 0.928314 0.000000 0.000001 0.000000 0.000000 0.000000
    39 1.533672 0.109715 1.664491 -0.264755 -0.055959 0.783109
    40 0.928313 0.000000 0.000000 0.000000 0.000000 -0.453556
    41 0.928314 0.000000 0.000001 0.000000 0.000000 0.000000
  time 21
    0 0.235347 0.367732 3.528927 0.000000 0.000000 -1.570874
    1 0.000000 0.000000 0.000000 -1.570795 -1.570796 0.000000
    2 -0.000005 0.000007 3.713255 0.003204 3.158916 -0.091346
    3 18.045721 0.000000 0.000000 0.000000 0.000000 -0.243578
    4 17.597597 0.000000 0.000000 -0.001675 -0.017562 0.152262
    5 0.000005 -0.000003 -3.713255 0.355071 -3.167219 -0.017370
    6 18.045725 0.000000 0.000000 0.000000 0.000000 -0.267079
    7 17.597597 0.000000 0.000000 0.202642 0.018017 0.241891
    8 1.293670 0.684478 -0.000001 -0.000004 -0.000001 0.061735
    9 5.309685 -0.003834 0.000000 -0.258329 0.042905 0.160134
    10 4.826790 -0.004591 0.000000 0.000000 0.000000 0.183152
    11 5.792767 -0.005304 0.000000 0.000000 0.000000 0.318172
    12 6.662317 -0.001453 0.000000 0.000000 -0.000001 0.209228
    13 2.046985 -0.000002 0.000000 0.150747 -0.214838 0.074582
    14 -3.397189 0.661759 4.341911 0.907904 -1.179621 2.062148
    15 4.827230 0.000000 0.000001 -0.345430 0.850454 -0.773073
    16 11.139763 0.000000 0.000000 0.000000 0.000000 -1.914924
    17 10.314597 0.000001 0.000000 -1.174256 -0.598196 -0.222490
    18 2.975834 -0.386307 -0.044143 0.001097 -0.043611 -0.043588
    19 1.438886 0.000000 0.000000 0.000000 0.000000 1.334476
    20 1.485303 0.000000 0.000000 0.000000 0.000000 0.793705
    21 -3.131625 0.610576 -4.140396 -1.128057 1.024757 1.867229
    22 4.972048 0.000000 0.000001 0.168775 -0.680289 -0.239808
    23 11.585355 0.000000 0.000000 0.000000 0.000000 -1.961934
    24 10.127057 0.000000 0.000001 1.667216 0.765311 -0.200791
    25 2.683750 -0.427338 0.044205 -0.005786 0.043239 -0.157091
    26 1.438885 -0.000001 0.000000 0.000000 0.000000 0.732658
    27 1.485305 0.000001 0.000000 0.000000 0.000000 1.168770
    28 1.038631 0.548043 -0.144017 -0.000001 0.000001 -1.849906
    29 -0.064003 -0.023521 0.026161 0.000000 0.000000 0.000000
    30 3.013925 3.984634 -0.088975 -0.000001 0.000001 -1.849906
    31 -0.084188 -0.025627 -0.001098 0.000000 0.000000 0.000000
    32 4.778187 3.972486 -0.079803 -0.000001 0.000001 -1.849906
    33 -0.058556 -0.021324 0.004244 0.000000 0.000000 0.000000
    34 1.640598 -1.968779 -0.099219 -0.000001 0.000001 -1.849906
    35 0.055573 -0.028908 0.000000 0.000000 0.000000 0.000000
    36 1.646738 0.449549 -1.702246 0.369699 -0.012752 0.801964
    37 0.928312 0.000000 -0.000002 0.000000 0.000000 0.000000
    38 0.928314 0.000000 0.000001 0.000000 0.000000 0.000000
    39 1.533672 0.109715 1.664491 -0.264755 -0.055959 0.783109
    40 0.928313 0.000000 0.000000 0.000000 0.000000 -0.453556
    41 0.928314 0.000000 0.000001 0.000000 0.000000 0.000000
  time 22
    0 0.235347 0.367732 3.528927 0.000000 0.000000 -1.570874
    1 0.000000 0.000000 0.000000 -1.570795 -1.570796 0.000000
    2 -0.000005 0.000007 3.713255 0.003204 3.158916 -0.091346
    3 18.045721 0.000000 0.000000 0.000000 0.000000 -0.243578
    4 17.597597 0.000000 0.000000 -0.001675 -0.017562 0.152262
    5 0.000005 -0.000003 -3.713255 0.355071 -3.167219 -0.017370
    6 18.045725 0.000000 0.000000 0.000000 0.000000 -0.267079
    7 17.597597 0.000000 0.000000 0.202642 0.018017 0.241891
    8 1.293670 0.684478 -0.000001 -0.000004 -0.000001 0.061735
    9 5.309685 -0.003834 0.000000 -0.258329 0.042905 0.160134
    10 4.826790 -0.004591 0.000000 0.000000 0.000000 0.183152
    11 5.792767 -0.005304 0.000000 0.000000 0.000000 0.314331
    12 6.662317 -0.001453 0.000000 0.000000 -0.000001 0.209228
    13 2.046985 -0.000002 0.000000 0.150747 -0.214838 0.078447
    14 -3.397189 0.661759 4.341911 0.919793 -1.183352 2.049300
    15 4.827230 0.000000 0.000001 -0.349366 0.858198 -0.775173
    16 11.139763 0.000000 0.000000 0.000000 0.000000 -1.914924
    17 10.314597 0.000001 0.000000 -1.174256 -0.598196 -0.222490
    18 2.975834 -0.386307 -0.044143 0.001097 -0.043611 -0.043588
    19 1.438886 0.000000 0.000000 0.000000 0.000000 1.334476
    20 1.485303 0.000000 0.000000 0.000000 0.000000 0.793705
    21 -3.131625 0.610576 -4.140396 -1.138411 1.027697 1.855245
    22 4.972048 0.000000 0.000001 0.167305 -0.689539 -0.238030
    23 11.585355 0.000000 0.000000 0.000000 0.000000 -1.961934
    24 10.127057 0.000000 0.000001 1.667216 0.765311 -0.200791
    25 2.683750 -0.427338 0.044205 -0.005786 0.043239 -0.157091
    26 1.438885 -0.000001 0.000000 0.000000 0.000000 0.732658
    27 1.485305 0.000001 0.000000 0.000000 0.000000 1.168770
    28 1.038631 0.548043 -0.144017 -0.000001 0.000001 -1.849906
    29 -0.064003 -0.023521 0.026161 0.000000 0.000000 0.000000
    30 3.013925 3.984634 -0.088975 -0.000001 0.000001 -1.849906
    31 -0.084188 -0.025627 -0.001098 0.000000 0.000000 0.000000
    32 4.778187 3.972486 -0.079803 -0.000001 0.000001 -1.849906
    33 -0.058556 -0.021324 0.004244 0.000000 0.000000 0.000000
    34 1.640598 -1.968779 -0.099219 -0.000001 0.000001 -1.849906
    35 0.055573 -0.028908 0.000000 0.000000 0.000000 0.000000
    36 1.646738 0.449549 -1.702246 0.369699 -0.012752 0.801964
    37 0.928312 0.000000 -0.000002 0.000000 0.000000 0.000000
    38 0.928314 0.000000 0.000001 0.000000 0.000000 0.000000
    39 1.533672 0.109715 1.664491 -0.264755 -0.055959 0.783109
    40 0.928313 0.000000 0.000000 0.000000 0.000000 -0.453556
    41 0.928314 0.000000 0.000001 0.000000 0.000000 0.000000
  time 23
    0 0.235347 0.367732 3.528927 0.000000 0.000000 -1.570874
    1 0.000000 0.000000 0.000000 -1.570795 -1.570796 0.000000
    2 -0.000005 0.000007 3.713255 0.003204 3.158916 -0.091346
    3 18.045721 0.000000 0.000000 0.000000 0.000000 -0.243578
    4 17.597597 0.000000 0.000000 -0.001675 -0.017562 0.152262
    5 0.000005 -0.000003 -3.713255 0.355071 -3.167219 -0.017370
    6 18.045725 0.000000 0.000000 0.000000 0.000000 -0.267079
    7 17.597597 0.000000 0.000000 0.202642 0.018017 0.241891
    8 1.293670 0.684478 -0.000001 -0.000004 -0.000001 0.061735
    9 5.309685 -0.003834 0.000000 -0.258329 0.042905 0.160134
    10 4.826790 -0.004591 0.000000 0.000000 0.000000 0.183152
    11 5.792767 -0.005304 0.000000 0.000000 0.000000 0.310345
    12 6.662317 -0.001453 0.000000 0.000000 -0.000001 0.209228
    13 2.046985 -0.000002 0.000000 0.150747 -0.214838 0.082447
    14 -3.397189 0.661759 4.341911 0.932352 -1.187199 2.035782
    15 4.827230 0.000000 0.000001 -0.353477 0.866198 -0.777361
    16 11.139763 0.000000 0.000000 0.000000 0.000000 -1.914924
    17 10.314597 0.000001 0.000000 -1.174256 -0.598196 -0.222490
    18 2.975834 -0.386307 -0.044143 0.001097 -0.043611 -0.043588
    19 1.438886 0.000000 0.000000 0.000000 0.000000 1.334476
    20 1.485303 0.000000 0.000000 0.000000 0.000000 0.793705
    21 -3.131625 0.610576 -4.140396 -1.149341 1.030664 1.842494
    22 4.972048 0.000000 0.000001 0.165758 -0.699112 -0.236185
    23 11.585355 0.000000 0.000000 0.000000 0.000000 -1.961934
    24 10.127057 0.000000 0.000001 1.667216 0.765311 -0.200791
    25 2.683750 -0.427338 0.044205 -0.005786 0.043239 -0.157091
    26 1.438885 -0.000001 0.000000 0.000000 0.000000 0.732658
    27 1.485305 0.000001 0.000000 0.000000 0.000000 1.168770
    28 1.038631 0.548043 -0.144017 -0.000001 0.000001 -1.849906
    29 -0.064003 -0.023521 0.026161 0.000000 0.000000 0.000000
    30 3.013925 3.984634 -0.088975 -0.000001 0.000001 -1.849906
    31 -0.084188 -0.025627 -0.001098 0.000000 0.000000 0.000000
    32 4.778187 3.972486 -0.079803 -0.000001 0.000001 -1.849906
    33 -0.058556 -0.021324 0.004244 0.000000 0.000000 0.000000
    34 1.640598 -1.968779 -0.099219 -0.000001 0.000001 -1.849906
    35 0.055573 -0.028908 0.000000 0.000000 0.000000 0.000000
    36 1.646738 0.449549 -1.702246 0.369699 -0.012752 0.801964
    37 0.928312 0.000000 -0.000002 0.000000 0.000000 0.000000
    38 0.928314 0.000000 0.000001 0.000000 0.000000 0.000000
    39 1.533672 0.109715 1.664491 -0.264755 -0.055959 0.783109
    40 0.928313 0.000000 0.000000 0.000000 0.000000 -0.453556
    41 0.928314 0.000000 0.000001 0.000000 0.000000 0.000000
  time 24
    0 0.235347 0.367732 3.528927 0.000000 0.000000 -1.570874
    1 0.000000 0.000000 0.000000 -1.570795 -1.570796 0.000000
    2 -0.000005 0.000007 3.713255 0.003204 3.158916 -0.091346
    3 18.045721 0.000000 0.000000 0.000000 0.000000 -0.243578
    4 17.597597 0.000000 0.000000 -0.001675 -0.017562 0.152262
    5 0.000005 -0.000003 -3.713255 0.355071 -3.167219 -0.017370
    6 18.045725 0.000000 0.000000 0.000000 0.000000 -0.267079
    7 17.597597 0.000000 0.000000 0.202642 0.018017 0.241891
    8 1.293670 0.684478 -0.000001 -0.000004 -0.000001 0.061735
    9 5.309685 -0.003834 0.000000 -0.258329 0.042905 0.160134
    10 4.826790 -0.004591 0.000000 0.000000 0.000000 0.183152
    11 5.792767 -0.005304 0.000000 0.000000 0.000000 0.306317
    12 6.662317 -0.001453 0.000000 0.000000 -0.000001 0.209228
    13 2.046985 -0.000002 0.000000 0.150747 -0.214838 0.086448
    14 -3.397189 0.661759 4.341911 0.945295 -1.191007 2.021784
    15 4.827230 0.000000 0.000001 -0.357647 0.874282 -0.779724
    16 11.139763 0.000000 0.000000 0.000000 0.000000 -1.914924
    17 10.314597 0.000001 0.000000 -1.174256 -0.598196 -0.222490
    18 2.975834 -0.386307 -0.044143 0.001097 -0.043611 -0.043588
    19 1.438886 0.000000 0.000000 0.000000 0.000000 1.334476
    20 1.485303 0.000000 0.000000 0.000000 0.000000 0.793705
    21 -3.131625 0.610576 -4.140396 -1.160366 1.033604 1.829551
    22 4.972048 0.000000 0.000001 0.164134 -0.708845 -0.234341
    23 11.585355 0.000000 0.000000 0.000000 0.000000 -1.961934
    24 10.127057 0.000000 0.000001 1.667216 0.765311 -0.200791
    25 2.683750 -0.427338 0.044205 -0.005786 0.043239 -0.157091
    26 1.438885 -0.000001 0.000000 0.000000 0.000000 0.732658
    27 1.485305 0.000001 0.000000 0.000000 0.000000 1.168770
    28 1.038631 0.548043 -0.144017 -0.000001 0.000001 -1.849906
    29 -0.064003 -0.023521 0.026161 0.000000 0.000000 0.000000
    30 3.013925 3.984634 -0.088975 -0.000001 0.000001 -1.849906
    31 -0.084188 -0.025627 -0.001098 0.000000 0.000000 0.000000
    32 4.778187 3.972486 -0.079803 -0.000001 0.000001 -1.849906
    33 -0.058556 -0.021324 0.004244 0.000000 0.000000 0.000000
    34 1.640598 -1.968779 -0.099219 -0.000001 0.000001 -1.849906
    35 0.055573 -0.028908 0.000000 0.000000 0.000000 0.000000
    36 1.646738 0.449549 -1.702246 0.369699 -0.012752 0.801964
    37 0.928312 0.000000 -0.000002 0.000000 0.000000 0.000000
    38 0.928314 0.000000 0.000001 0.000000 0.000000 0.000000
    39 1.533672 0.109715 1.664491 -0.264755 -0.055959 0.783109
    40 0.928313 0.000000 0.000000 0.000000 0.000000 -0.453556
    41 0.928314 0.000000 0.000001 0.000000 0.000000 0.000000
  time 25
    0 0.235347 0.367732 3.528927 0.000000 0.000000 -1.570874
    1 0.000000 0.000000 0.000000 -1.570795 -1.570796 0.000000
    2 -0.000005 0.000007 3.713255 0.003204 3.158916 -0.091346
    3 18.045721 0.000000 0.000000 0.000000 0.000000 -0.243578
    4 17.597597 0.000000 0.000000 -0.001675 -0.017562 0.152262
    5 0.000005 -0.000003 -3.713255 0.355071 -3.167219 -0.017370
    6 18.045725 0.000000 0.000000 0.000000 0.000000 -0.267079
    7 17.597597 0.000000 0.000000 0.202642 0.018017 0.241891
    8 1.293670 0.684478 -0.000001 -0.000004 -0.000001 0.061735
    9 5.309685 -0.003834 0.000000 -0.258329 0.042905 0.160134
    10 4.826790 -0.004591 0.000000 0.000000 0.000000 0.183152
    11 5.792767 -0.005304 0.000000 0.000000 0.000000 0.302351
    12 6.662317 -0.001453 0.000000 0.000000 -0.000001 0.209228
    13 2.046985 -0.000002 0.000000 0.150747 -0.214838 0.090403
    14 -3.397189 0.661759 4.341911 0.958238 -1.194700 2.007786
    15 4.827230 0.000000 0.000001 -0.361876 0.882197 -0.782087
    16 11.139763 0.000000 0.000000 0.000000 0.000000 -1.914924
    17 10.314597 0.000001 0.000000 -1.174256 -0.598196 -0.222490
    18 2.975834 -0.386307 -0.044143 0.001097 -0.043611 -0.043588
    19 1.438886 0.000000 0.000000 0.000000 0.000000 1.334476
    20 1.485303 0.000000 0.000000 0.000000 0.000000 0.793705
    21 -3.131625 0.610576 -4.140396 -1.171391 1.036402 1.816800
    22 4.972048 0.000000 0.000001 0.162509 -0.718337 -0.232497
    23 11.585355 0.000000 0.000000 0.000000 0.000000 -1.961934
    24 10.127057 0.000000 0.000001 1.667216 0.765311 -0.200791
    25 2.683750 -0.427338 0.044205 -0.005786 0.043239 -0.157091
    26 1.438885 -0.000001 0.000000 0.000000 0.000000 0.732658
    27 1.485305 0.000001 0.000000 0.000000 0.000000 1.168770
    28 1.038631 0.548043 -0.144017 -0.000001 0.000001 -1.849906
    29 -0.064003 -0.023521 0.026161 0.000000 0.000000 0.000000
    30 3.013925 3.984634 -0.088975 -0.000001 0.000001 -1.849906
    31 -0.084188 -0.025627 -0.001098 0.000000 0.000000 0.000000
    32 4.778187 3.972486 -0.079803 -0.000001 0.000001 -1.849906
    33 -0.058556 -0.021324 0.004244 0.000000 0.000000 0.000000
    34 1.640598 -1.968779 -0.099219 -0.000001 0.000001 -1.849906
    35 0.055573 -0.028908 0.000000 0.000000 0.000000 0.000000
    36 1.646738 0.449549 -1.702246 0.369699 -0.012752 0.801964
    37 0.928312 0.000000 -0.000002 0.000000 0.000000 0.000000
    38 0.928314 0.000000 0.000001 0.000000 0.000000 0.000000
    39 1.533672 0.109715 1.664491 -0.264755 -0.055959 0.783109
    40 0.928313 0.000000 0.000000 0.000000 0.000000 -0.453556
    41 0.928314 0.000000 0.000001 0.000000 0.000000 0.000000
  time 26
    0 0.235347 0.367732 3.528927 0.000000 0.000000 -1.570874
    1 0.000000 0.000000 0.000000 -1.570795 -1.570796 0.000000
    2 -0.000005 0.000007 3.713255 0.003204 3.158916 -0.091346
    3 18.045721 0.000000 0.000000 0.000000 0.000000 -0.243578
    4 17.597597 0.000000 0.000000 -0.001675 -0.017562 0.152262
    5 0.000005 -0.000003 -3.713255 0.355071 -3.167219 -0.017370
    6 18.045725 0.000000 0.000000 0.000000 0.000000 -0.267079
    7 17.597597 0.000000 0.000000 0.202642 0.018017 0.241891
    8 1.293670 0.684478 -0.000001 -0.000004 -0.000001 0.061735
    9 5.309685 -0.003834 0.000000 -0.258329 0.042905 0.160134
    10 4.826790 -0.004591 0.000000 0.000000 0.000000 0.183152
    11 5.792767 -0.005304 0.000000 0.000000 0.000000 0.298593
    12 6.662317 -0.001453 0.000000 0.000000 -0.000001 0.209228
    13 2.046985 -0.000002 0.000000 0.150747 -0.214838 0.094179
    14 -3.397189 0.661759 4.341911 0.970893 -1.198123 1.994268
    15 4.827230 0.000000 0.000001 -0.365929 0.889685 -0.784449
    16 11.139763 0.000000 0.000000 0.000000 0.000000 -1.914924
    17 10.314597 0.000001 0.000000 -1.174256 -0.598196 -0.222490
    18 2.975834 -0.386307 -0.044143 0.001097 -0.043611 -0.043588
    19 1.438886 0.000000 0.000000 0.000000 0.000000 1.334476
    20 1.485303 0.000000 0.000000 0.000000 0.000000 0.793705
    21 -3.131625 0.610576 -4.140396 -1.182033 1.039002 1.804432
    22 4.972048 0.000000 0.000001 0.160885 -0.727427 -0.230652
    23 11.585355 0.000000 0.000000 0.000000 0.000000 -1.961934
    24 10.127057 0.000000 0.000001 1.667216 0.765311 -0.200791
    25 2.683750 -0.427338 0.044205 -0.005786 0.043239 -0.157091
    26 1.438885 -0.000001 0.000000 0.000000 0.000000 0.732658
    27 1.485305 0.000001 0.000000 0.000000 0.000000 1.168770
    28 1.038631 0.548043 -0.144017 -0.000001 0.000001 -1.849906
    29 -0.064003 -0.023521 0.026161 0.000000 0.000000 0.000000
    30 3.013925 3.984634 -0.088975 -0.000001 0.000001 -1.849906
    31 -0.084188 -0.025627 -0.001098 0.000000 0.000000 0.000000
    32 4.778187 3.972486 -0.079803 -0.000001 0.000001 -1.849906
    33 -0.058556 -0.021324 0.004244 0.000000 0.000000 0.000000
    34 1.640598 -1.968779 -0.099219 -0.000001 0.000001 -1.849906
    35 0.055573 -0.028908 0.000000 0.000000 0.000000 0.000000
    36 1.646738 0.449549 -1.702246 0.369699 -0.012752 0.801964
    37 0.928312 0.000000 -0.000002 0.000000 0.000000 0.000000
    38 0.928314 0.000000 0.000001 0.000000 0.000000 0.000000
    39 1.533672 0.109715 1.664491 -0.264755 -0.055959 0.783109
    40 0.928313 0.000000 0.000000 0.000000 0.000000 -0.453556
    41 0.928314 0.000000 0.000001 0.000000 0.000000 0.000000
  time 27
    0 0.235347 0.367732 3.528927 0.000000 0.000000 -1.570874
    1 0.000000 0.000000 0.000000 -1.570795 -1.570796 0.000000
    2 -0.000005 0.000007 3.713255 0.003204 3.158916 -0.091346
    3 18.045721 0.000000 0.000000 0.000000 0.000000 -0.243578
    4 17.597597 0.000000 0.000000 -0.001675 -0.017562 0.152262
    5 0.000005 -0.000003 -3.713255 0.355071 -3.167219 -0.017370
    6 18.045725 0.000000 0.000000 0.000000 0.000000 -0.267079
    7 17.597597 0.000000 0.000000 0.202642 0.018017 0.241891
    8 1.293670 0.684478 -0.000001 -0.000004 -0.000001 0.061735
    9 5.309685 -0.003834 0.000000 -0.258329 0.042905 0.160134
    10 4.826790 -0.004591 0.000000 0.000000 0.000000 0.183152
    11 5.792767 -0.005304 0.000000 0.000000 0.000000 0.295146
    12 6.662317 -0.001453 0.000000 0.000000 -0.000001 0.209228
    13 2.046985 -0.000002 0.000000 0.150747 -0.214838 0.097640
    14 -3.397189 0.661759 4.341911 0.982589 -1.201200 1.981708
    15 4.827230 0.000000 0.000001 -0.369688 0.896664 -0.786725
    16 11.139763 0.000000 0.000000 0.000000 0.000000 -1.914924
    17 10.314597 0.000001 0.000000 -1.174256 -0.598196 -0.222490
    18 2.975834 -0.386307 -0.044143 0.001097 -0.043611 -0.043588
    19 1.438886 0.000000 0.000000 0.000000 0.000000 1.334476
    20 1.485303 0.000000 0.000000 0.000000 0.000000 0.793705
    21 -3.131625 0.610576 -4.140396 -1.191812 1.041320 1.793119
    22 4.972048 0.000000 0.000001 0.159415 -0.735713 -0.229005
    23 11.585355 0.000000 0.000000 0.000000 0.000000 -1.961934
    24 10.127057 0.000000 0.000001 1.667216 0.765311 -0.200791
    25 2.683750 -0.427338 0.044205 -0.005786 0.043239 -0.157091
    26 1.438885 -0.000001 0.000000 0.000000 0.000000 0.732658
    27 1.485305 0.000001 0.000000 0.000000 0.000000 1.168770
    28 1.038631 0.548043 -0.144017 -0.000001 0.000001 -1.849906
    29 -0.064003 -0.023521 0.026161 0.000000 0.000000 0.000000
    30 3.013925 3.984634 -0.088975 -0.000001 0.000001 -1.849906
    31 -0.084188 -0.025627 -0.001098 0.000000 0.000000 0.000000
    32 4.778187 3.972486 -0.079803 -0.000001 0.000001 -1.849906
    33 -0.058556 -0.021324 0.004244 0.000000 0.000000 0.000000
    34 1.640598 -1.968779 -0.099219 -0.000001 0.000001 -1.849906
    35 0.055573 -0.028908 0.000000 0.000000 0.000000 0.000000
    36 1.646738 0.449549 -1.702246 0.369699 -0.012752 0.801964
    37 0.928312 0.000000 -0.000002 0.000000 0.000000 0.000000
    38 0.928314 0.000000 0.000001 0.000000 0.000000 0.000000
    39 1.533672 0.109715 1.664491 -0.264755 -0.055959 0.783109
    40 0.928313 0.000000 0.000000 0.000000 0.000000 -0.453556
    41 0.928314 0.000000 0.000001 0.000000 0.000000 0.000000
  time 28
    0 0.235347 0.367732 3.528927 0.000000 0.000000 -1.570874
    1 0.000000 0.000000 0.000000 -1.570795 -1.570796 0.000000
    2 -0.000005 0.000007 3.713255 0.003204 3.158916 -0.091346
    3 18.045721 0.000000 0.000000 0.000000 0.000000 -0.243578
    4 17.597597 0.000000 0.000000 -0.001675 -0.017562 0.152262
    5 0.000005 -0.000003 -3.713255 0.355071 -3.167219 -0.017370
    6 18.045725 0.000000 0.000000 0.000000 0.000000 -0.267079
    7 17.597597 0.000000 0.000000 0.202642 0.018017 0.241891
    8 1.293670 0.684478 -0.000001 -0.000004 -0.000001 0.061735
    9 5.309685 -0.003834 0.000000 -0.258329 0.042905 0.160134
    10 4.826790 -0.004591 0.000000 0.000000 0.000000 0.183152
    11 5.792767 -0.005304 0.000000 0.000000 0.000000 0.292136
    12 6.662317 -0.001453 0.000000 0.000000 -0.000001 0.209228
    13 2.046985 -0.000002 0.000000 0.150747 -0.214838 0.100651
    14 -3.397189 0.661759 4.341911 0.993040 -1.203855 1.970490
    15 4.827230 0.000000 0.000001 -0.373036 0.902706 -0.788738
    16 11.139763 0.000000 0.000000 0.000000 0.000000 -1.914924
    17 10.314597 0.000001 0.000000 -1.174256 -0.598196 -0.222490
    18 2.975834 -0.386307 -0.044143 0.001097 -0.043611 -0.043588
    19 1.438886 0.000000 0.000000 0.000000 0.000000 1.334476
    20 1.485303 0.000000 0.000000 0.000000 0.000000 0.793705
    21 -3.131625 0.610576 -4.140396 -1.200537 1.043327 1.783053
    22 4.972048 0.000000 0.000001 0.158023 -0.743033 -0.227556
    23 11.585355 0.000000 0.000000 0.000000 0.000000 -1.961934
    24 10.127057 0.000000 0.000001 1.667216 0.765311 -0.200791
    25 2.683750 -0.427338 0.044205 -0.005786 0.043239 -0.157091
    26 1.438885 -0.000001 0.000000 0.000000 0.000000 0.732658
    27 1.485305 0.000001 0.000000 0.000000 0.000000 1.168770
    28 1.038631 0.548043 -0.144017 -0.000001 0.000001 -1.849906
    29 -0.064003 -0.023521 0.026161 0.000000 0.000000 0.000000
    30 3.013925 3.984634 -0.088975 -0.000001 0.000001 -1.849906
    31 -0.084188 -0.025627 -0.001098 0.000000 0.000000 0.000000
    32 4.778187 3.972486 -0.079803 -0.000001 0.000001 -1.849906
    33 -0.058556 -0.021324 0.004244 0.000000 0.000000 0.000000
    34 1.640598 -1.968779 -0.099219 -0.000001 0.000001 -1.849906
    35 0.055573 -0.028908 0.000000 0.000000 0.000000 0.000000
    36 1.646738 0.449549 -1.702246 0.369699 -0.012752 0.801964
    37 0.928312 0.000000 -0.000002 0.000000 0.000000 0.000000
    38 0.928314 0.000000 0.000001 0.000000 0.000000 0.000000
    39 1.533672 0.109715 1.664491 -0.264755 -0.055959 0.783109
    40 0.928313 0.000000 0.000000 0.000000 0.000000 -0.453556
    41 0.928314 0.000000 0.000001 0.000000 0.000000 0.000000
  time 29
    0 0.235347 0.367732 3.528927 0.000000 0.000000 -1.570874
    1 0.000000 0.000000 0.000000 -1.570795 -1.570796 0.000000
    2 -0.000005 0.000007 3.713255 0.003204 3.158916 -0.091346
    3 18.045721 0.000000 0.000000 0.000000 0.000000 -0.243578
    4 17.597597 0.000000 0.000000 -0.001675 -0.017562 0.152262
    5 0.000005 -0.000003 -3.713255 0.355071 -3.167219 -0.017370
    6 18.045725 0.000000 0.000000 0.000000 0.000000 -0.267079
    7 17.597597 0.000000 0.000000 0.202642 0.018017 0.241891
    8 1.293670 0.684478 -0.000001 -0.000004 -0.000001 0.061735
    9 5.309685 -0.003834 0.000000 -0.258329 0.042905 0.160134
    10 4.826790 -0.004591 0.000000 0.000000 0.000000 0.183152
    11 5.792767 -0.005304 0.000000 0.000000 0.000000 0.289644
    12 6.662317 -0.001453 0.000000 0.000000 -0.000001 0.209228
    13 2.046985 -0.000002 0.000000 0.150747 -0.214838 0.103123
    14 -3.397189 0.661759 4.341911 1.001764 -1.206009 1.961094
    15 4.827230 0.000000 0.000001 -0.375797 0.907642 -0.790400
    16 11.139763 0.000000 0.000000 0.000000 0.000000 -1.914924
    17 10.314597 0.000001 0.000000 -1.174256 -0.598196 -0.222490
    18 2.975834 -0.386307 -0.044143 0.001097 -0.043611 -0.043588
    19 1.438886 0.000000 0.000000 0.000000 0.000000 1.334476
    20 1.485303 0.000000 0.000000 0.000000 0.000000 0.793705
    21 -3.131625 0.610576 -4.140396 -1.207631 1.044938 1.774712
    22 4.972048 0.000000 0.000001 0.156940 -0.748985 -0.226370
    23 11.585355 0.000000 0.000000 0.000000 0.000000 -1.961934
    24 10.127057 0.000000 0.000001 1.667216 0.765311 -0.200791
    25 2.683750 -0.427338 0.044205 -0.005786 0.043239 -0.157091
    26 1.438885 -0.000001 0.000000 0.000000 0.000000 0.732658
    27 1.485305 0.000001 0.000000 0.000000 0.000000 1.168770
    28 1.038631 0.548043 -0.144017 -0.000001 0.000001 -1.849906
    29 -0.064003 -0.023521 0.026161 0.000000 0.000000 0.000000
    30 3.013925 3.984634 -0.088975 -0.000001 0.000001 -1.849906
    31 -0.084188 -0.025627 -0.001098 0.000000 0.000000 0.000000
    32 4.778187 3.972486 -0.079803 -0.000001 0.000001 -1.849906
    33 -0.058556 -0.021324 0.004244 0.000000 0.000000 0.000000
    34 1.640598 -1.968779 -0.099219 -0.000001 0.000001 -1.849906
    35 0.055573 -0.028908 0.000000 0.000000 0.000000 0.000000
    36 1.646738 0.449549 -1.702246 0.369699 -0.012752 0.801964
    37 0.928312 0.000000 -0.000002 0.000000 0.000000 0.000000
    38 0.928314 0.000000 0.000001 0.000000 0.000000 0.000000
    39 1.533672 0.109715 1.664491 -0.264755 -0.055959 0.783109
    40 0.928313 0.000000 0.000000 0.000000 0.000000 -0.453556
    41 0.928314 0.000000 0.000001 0.000000 0.000000 0.000000
  time 30
    0 0.235347 0.367732 3.528927 0.000000 0.000000 -1.570874
    1 0.000000 0.000000 0.000000 -1.570795 -1.570796 0.000000
    2 -0.000005 0.000007 3.713255 0.003204 3.158916 -0.091346
    3 18.045721 0.000000 0.000000 0.000000 0.000000 -0.243578
    4 17.597597 0.000000 0.000000 -0.001675 -0.017562 0.152262
    5 0.000005 -0.000003 -3.713255 0.355071 -3.167219 -0.017370
    6 18.045725 0.000000 0.000000 0.000000 0.000000 -0.267079
    7 17.597597 0.000000 0.000000 0.202642 0.018017 0.241891
    8 1.293670 0.684478 -0.000001 -0.000004 -0.000001 0.061735
    9 5.309685 -0.003834 0.000000 -0.258329 0.042905 0.160134
    10 4.826790 -0.004591 0.000000 0.000000 0.000000 0.183152
    11 5.792767 -0.005304 0.000000 0.000000 0.000000 0.287817
    12 6.662317 -0.001453 0.000000 0.000000 -0.000001 0.209228
    13 2.046985 -0.000002 0.000000 0.150747 -0.214838 0.104966
    14 -3.397189 0.661759 4.341911 1.008283 -1.207586 1.954191
    15 4.827230 0.000000 0.000001 -0.377911 0.911301 -0.791713
    16 11.139763 0.000000 0.000000 0.000000 0.000000 -1.914924
    17 10.314597 0.000001 0.000000 -1.174256 -0.598196 -0.222490
    18 2.975834 -0.386307 -0.044143 0.001097 -0.043611 -0.043588
    19 1.438886 0.000000 0.000000 0.000000 0.000000 1.334476
    20 1.485303 0.000000 0.000000 0.000000 0.000000 0.793705
    21 -3.131625 0.610576 -4.140396 -1.213000 1.046068 1.768576
    22 4.972048 0.000000 0.000001 0.156089 -0.753329 -0.225448
    23 11.585355 0.000000 0.000000 0.000000 0.000000 -1.961934
    24 10.127057 0.000000 0.000001 1.667216 0.765311 -0.200791
    25 2.683750 -0.427338 0.044205 -0.005786 0.043239 -0.157091
    26 1.438885 -0.000001 0.000000 0.000000 0.000000 0.732658
    27 1.485305 0.000001 0.000000 0.000000 0.000000 1.168770
    28 1.038631 0.548043 -0.144017 -0.000001 0.000001 -1.849906
    29 -0.064003 -0.023521 0.026161 0.000000 0.000000 0.000000
    30 3.013925 3.984634 -0.088975 -0.000001 0.000001 -1.849906
    31 -0.084188 -0.025627 -0.001098 0.000000 0.000000 0.000000
    32 4.778187 3.972486 -0.079803 -0.000001 0.000001 -1.849906
    33 -0.058556 -0.021324 0.004244 0.000000 0.000000 0.000000
    34 1.640598 -1.968779 -0.099219 -0.000001 0.000001 -1.849906
    35 0.055573 -0.028908 0.000000 0.000000 0.000000 0.000000
    36 1.646738 0.449549 -1.702246 0.369699 -0.012752 0.801964
    37 0.928312 0.000000 -0.000002 0.000000 0.000000 0.000000
    38 0.928314 0.000000 0.000001 0.000000 0.000000 0.000000
    39 1.533672 0.109715 1.664491 -0.264755 -0.055959 0.783109
    40 0.928313 0.000000 0.000000 0.000000 0.000000 -0.453556
    41 0.928314 0.000000 0.000001 0.000000 0.000000 0.000000
end
