version 1
nodes
  0 "Bip01" -1
  1 "Bip01 Pelvis" 0
  2 "Bip01 L Leg" 1
  3 "Bip01 L Leg1" 2
  4 "Bip01 L Foot" 3
  5 "Bip01 R Leg" 1
  6 "Bip01 R Leg1" 5
  7 "Bip01 R Foot" 6
  8 "Bip01 Spine" 1
  9 "Bip01 Spine1" 8
  10 "Bip01 Spine2" 9
  11 "Bip01 Spine3" 10
  12 "Bip01 Neck" 11
  13 "Bip01 Head" 12
  14 "Bip01 L Arm" 12
  15 "Bip01 L Arm1" 14
  16 "Bip01 L Arm2" 15
  17 "Bip01 L Hand" 16
  18 "Bip01 L Finger1" 17
  19 "Bip01 L Finger11" 18
  20 "Bip01 L Finger12" 19
  21 "Bip01 R Arm" 12
  22 "Bip01 R Arm1" 21
  23 "Bip01 R Arm2" 22
  24 "Bip01 R Hand" 23
  25 "Bip01 R Finger1" 24
  26 "Bip01 R Finger11" 25
  27 "Bip01 R Finger12" 26
  28 "Dummy08" 13
  29 "Bone02" 28
  30 "Dummy04" 13
  31 "Bone05" 30
  32 "Dummy03" 13
  33 "Bone07" 32
  34 "Dummy10" 13
  35 "Bone13" 34
  36 "Bip01 L Finger0" 17
  37 "Bip01 L Finger01" 36
  38 "Bip01 L Finger02" 37
  39 "Bip01 R Finger0" 24
  40 "Bip01 R Finger01" 39
  41 "Bip01 R Finger02" 40
end
skeleton
  time 0
    0 0.235347 0.367732 3.528927 0.000000 0.000000 -1.570874
    1 0.000000 0.000000 0.000000 -1.570795 -1.570796 0.000000
    2 -0.000005 0.000007 3.713255 0.003204 3.158916 -0.091346
    3 18.045721 0.000000 0.000000 0.000000 0.000000 -0.243578
    4 17.597597 0.000000 0.000000 -0.001675 -0.017562 0.152262
    5 0.000005 -0.000003 -3.713255 0.355071 -3.167219 -0.017370
    6 18.045725 0.000000 0.000000 0.000000 0.000000 -0.267079
    7 17.597597 0.000000 0.000000 0.202642 0.018017 0.241891
    8 1.293670 0.684478 -0.000001 -0.000004 -0.000001 0.061735
    9 5.309685 -0.003834 0.000000 -0.258329 0.042905 0.160134
    10 4.826790 -0.004591 0.000000 0.000000 0.000000 0.183152
    11 5.792767 -0.005304 0.000000 0.000000 0.000000 0.287817
    12 6.662317 -0.001453 0.000000 0.000000 -0.000001 0.209228
    13 2.046985 -0.000002 0.000000 0.150747 -0.214838 0.104966
    14 -3.397189 0.661759 4.341911 1.008283 -1.207586 1.954191
    15 4.827230 0.000000 0.000001 -0.377911 0.911301 -0.791713
    16 11.139763 0.000000 0.000000 0.000000 0.000000 -1.914924
    17 10.314597 0.000001 0.000000 -1.174256 -0.598196 -0.222490
    18 2.975834 -0.386307 -0.044143 0.001097 -0.043611 -0.043588
    19 1.438886 0.000000 0.000000 0.000000 0.000000 1.334476
    20 1.485303 0.000000 0.000000 0.000000 0.000000 0.793705
    21 -3.131625 0.610576 -4.140396 -1.213000 1.046068 1.768576
    22 4.972048 0.000000 0.000001 0.156089 -0.753329 -0.225448
    23 11.585355 0.000000 0.000000 0.000000 0.000000 -1.961934
    24 10.127057 0.000000 0.000001 1.667216 0.765311 -0.200791
    25 2.683750 -0.427338 0.044205 -0.005786 0.043239 -0.157091
    26 1.438885 -0.000001 0.000000 0.000000 0.000000 0.732658
    27 1.485305 0.000001 0.000000 0.000000 0.000000 1.168770
    28 1.038631 0.548043 -0.144017 -0.000001 0.000001 -1.849906
    29 -0.064003 -0.023521 0.026161 0.000000 0.000000 0.000000
    30 3.013925 3.984634 -0.088975 -0.000001 0.000001 -1.849906
    31 -0.084188 -0.025627 -0.001098 0.000000 0.000000 0.000000
    32 4.778187 3.972486 -0.079803 -0.000001 0.000001 -1.849906
    33 -0.058556 -0.021324 0.004244 0.000000 0.000000 0.000000
    34 1.640598 -1.968779 -0.099219 -0.000001 0.000001 -1.849906
    35 0.055573 -0.028908 0.000000 0.000000 0.000000 0.000000
    36 1.646738 0.449549 -1.702246 0.369699 -0.012752 0.801964
    37 0.928312 0.000000 -0.000002 0.000000 0.000000 0.000000
    38 0.928314 0.000000 0.000001 0.000000 0.000000 0.000000
    39 1.533672 0.109715 1.664491 -0.264755 -0.055959 0.783109
    40 0.928313 0.000000 0.000000 0.000000 0.000000 -0.453556
    41 0.928314 0.000000 0.000001 0.000000 0.000000 0.000000
  time 1
    0 0.235347 0.367732 3.528927 0.000000 0.000000 -1.570874
    1 0.000000 0.000000 0.000000 -1.570795 -1.570796 0.000000
    2 -0.000005 0.000007 3.713255 0.003204 3.158916 -0.091346
    3 18.045721 0.000000 0.000000 0.000000 0.000000 -0.243578
    4 17.597597 0.000000 0.000000 -0.001675 -0.017562 0.152262
    5 0.000005 -0.000003 -3.713255 0.355071 -3.167219 -0.017370
    6 18.045725 0.000000 0.000000 0.000000 0.000000 -0.267079
    7 17.597597 0.000000 0.000000 0.202642 0.018017 0.241891
    8 1.293670 0.684478 -0.000001 -0.000004 -0.000001 0.061735
    9 5.309685 -0.003834 0.000000 -0.257288 0.048921 0.182969
    10 4.826790 -0.004591 0.000000 0.037930 -0.007047 0.183019
    11 5.792767 -0.005304 0.000000 0.000000 0.000000 0.287817
    12 6.662317 -0.001453 0.000000 0.000000 -0.000001 0.209228
    13 2.046985 -0.000002 0.000000 0.122355 -0.188113 0.087077
    14 -3.397189 0.661759 4.341911 1.008283 -1.207586 1.954191
    15 4.827230 0.000000 0.000001 -0.535442 0.724420 -0.948708
    16 11.139763 0.000000 0.000000 0.000000 0.000000 -1.598793
    17 10.314597 0.000001 0.000000 -1.344939 -0.598196 -0.222490
    18 2.975834 -0.386307 -0.044143 0.001097 -0.043611 -0.043588
    19 1.438886 0.000000 0.000000 0.000000 0.000000 1.334476
    20 1.485303 0.000000 0.000000 0.000000 0.000000 0.793705
    21 -3.131625 0.610576 -4.140396 -1.213000 1.046068 1.768576
    22 4.972048 0.000000 0.000001 0.390706 -0.671440 -0.538672
    23 11.585355 0.000000 0.000000 0.000000 0.000000 -1.659790
    24 10.127057 0.000000 0.000001 1.741365 0.715120 -0.135402
    25 2.683750 -0.427338 0.044205 -0.005786 0.043239 -0.157091
    26 1.438885 -0.000001 0.000000 0.000000 0.000000 0.732658
    27 1.485305 0.000001 0.000000 0.000000 0.000000 1.168770
    28 1.038631 0.548043 -0.144017 -0.000001 0.000001 -1.849906
    29 -0.064003 -0.023521 0.026161 0.000000 0.000000 0.000000
    30 3.013925 3.984634 -0.088975 -0.000001 0.000001 -1.849906
    31 -0.084188 -0.025627 -0.001098 0.000000 0.000000 0.000000
    32 4.778187 3.972486 -0.079803 -0.000001 0.000001 -1.849906
    33 -0.058556 -0.021324 0.004244 0.000000 0.000000 0.000000
    34 1.640598 -1.968779 -0.099219 -0.000001 0.000001 -1.849906
    35 0.055573 -0.028908 0.000000 0.000000 0.000000 0.000000
    36 1.646738 0.449549 -1.702246 0.369699 -0.012752 0.801964
    37 0.928312 0.000000 -0.000002 0.000000 0.000000 0.000000
    38 0.928314 0.000000 0.000001 0.000000 0.000000 0.000000
    39 1.533672 0.109715 1.664491 -0.264755 -0.055959 0.783109
    40 0.928313 0.000000 0.000000 0.000000 0.000000 -0.453556
    41 0.928314 0.000000 0.000001 0.000000 0.000000 0.000000
  time 2
    0 0.235347 0.367732 3.528927 0.000000 0.000000 -1.570874
    1 0.000000 0.000000 0.000000 -1.570795 -1.570796 0.000000
    2 -0.000005 0.000007 3.713255 0.003204 3.158916 -0.091346
    3 18.045721 0.000000 0.000000 0.000000 0.000000 -0.243578
    4 17.597597 0.000000 0.000000 -0.001675 -0.017562 0.152262
    5 0.000005 -0.000003 -3.713255 0.355071 -3.167219 -0.017370
    6 18.045725 0.000000 0.000000 0.000000 0.000000 -0.267079
    7 17.597597 0.000000 0.000000 0.202642 0.018017 0.241891
    8 1.293670 0.684478 -0.000001 -0.000004 -0.000001 0.061735
    9 5.309685 -0.003834 0.000000 -0.255427 0.058005 0.217666
    10 4.826790 -0.004591 0.000000 0.095581 -0.017749 0.182314
    11 5.792767 -0.005304 0.000000 0.000000 0.000000 0.287817
    12 6.662317 -0.001453 0.000000 0.000000 -0.000001 0.209228
    13 2.046985 -0.000002 0.000000 0.077291 -0.149747 0.058850
    14 -3.397189 0.661759 4.341911 1.008283 -1.207586 1.954191
    15 4.827230 0.000000 0.000001 -0.690389 0.428099 -1.107803
    16 11.139763 0.000000 0.000000 0.000000 0.000000 -1.123442
    17 10.314597 0.000001 0.000000 -1.601368 -0.598196 -0.222490
    18 2.975834 -0.386307 -0.044143 0.001097 -0.043611 -0.043588
    19 1.438886 0.000000 0.000000 0.000000 0.000000 1.334476
    20 1.485303 0.000000 0.000000 0.000000 0.000000 0.793705
    21 -3.131625 0.610576 -4.140396 -1.213000 1.046068 1.768576
    22 4.972048 0.000000 0.000001 0.621687 -0.450228 -0.899983
    23 11.585355 0.000000 0.000000 0.000000 0.000000 -1.206540
    24 10.127057 0.000000 0.000001 1.839339 0.633689 -0.051107
    25 2.683750 -0.427338 0.044205 -0.005786 0.043239 -0.157091
    26 1.438885 -0.000001 0.000000 0.000000 0.000000 0.732658
    27 1.485305 0.000001 0.000000 0.000000 0.000000 1.168770
    28 1.038631 0.548043 -0.144017 -0.000001 0.000001 -1.849906
    29 -0.064003 -0.023521 0.026161 0.000000 0.000000 0.000000
    30 3.013925 3.984634 -0.088975 -0.000001 0.000001 -1.849906
    31 -0.084188 -0.025627 -0.001098 0.000000 0.000000 0.000000
    32 4.778187 3.972486 -0.079803 -0.000001 0.000001 -1.849906
    33 -0.058556 -0.021324 0.004244 0.000000 0.000000 0.000000
    34 1.640598 -1.968779 -0.099219 -0.000001 0.000001 -1.849906
    35 0.055573 -0.028908 0.000000 0.000000 0.000000 0.000000
    36 1.646738 0.449549 -1.702246 0.369699 -0.012752 0.801964
    37 0.928312 0.000000 -0.000002 0.000000 0.000000 0.000000
    38 0.928314 0.000000 0.000001 0.000000 0.000000 0.000000
    39 1.533672 0.109715 1.664491 -0.264755 -0.055959 0.783109
    40 0.928313 0.000000 0.000000 0.000000 0.000000 -0.453556
    41 0.928314 0.000000 0.000001 0.000000 0.000000 0.000000
  time 3
    0 0.235347 0.367732 3.528927 0.000000 0.000000 -1.570874
    1 0.000000 0.000000 0.000000 -1.570795 -1.570796 0.000000
    2 -0.000005 0.000007 3.713255 0.003204 3.158916 -0.091346
    3 18.045721 0.000000 0.000000 0.000000 0.000000 -0.243578
    4 17.597597 0.000000 0.000000 -0.001675 -0.017562 0.152262
    5 0.000005 -0.000003 -3.713255 0.355071 -3.167219 -0.017370
    6 18.045725 0.000000 0.000000 0.000000 0.000000 -0.267079
    7 17.597597 0.000000 0.000000 0.202642 0.018017 0.241891
    8 1.293670 0.684478 -0.000001 -0.000004 -0.000001 0.061735
    9 5.309685 -0.003834 0.000000 -0.253775 0.065016 0.244666
    10 4.826790 -0.004591 0.000000 0.140391 -0.026031 0.181322
    11 5.792767 -0.005304 0.000000 0.000000 0.000000 0.287817
    12 6.662317 -0.001453 0.000000 0.000000 -0.000001 0.209228
    13 2.046985 -0.000002 0.000000 0.040756 -0.121896 0.036151
    14 -3.397189 0.661759 4.341911 1.008283 -1.207586 1.954191
    15 4.827230 0.000000 0.000001 -0.786364 0.183009 -1.185776
    16 11.139763 0.000000 0.000000 0.000000 0.000000 -0.721324
    17 10.314597 0.000001 0.000000 -1.818430 -0.598196 -0.222490
    18 2.975834 -0.386307 -0.044143 0.001097 -0.043611 -0.043588
    19 1.438886 0.000000 0.000000 0.000000 0.000000 1.334476
    20 1.485303 0.000000 0.000000 0.000000 0.000000 0.793705
    21 -3.131625 0.610576 -4.140396 -1.213000 1.046068 1.768576
    22 4.972048 0.000000 0.000001 0.717065 -0.215179 -1.127506
    23 11.585355 0.000000 0.000000 0.000000 0.000000 -0.811143
    24 10.127057 0.000000 0.000001 1.911323 0.560325 0.008947
    25 2.683750 -0.427338 0.044205 -0.005786 0.043239 -0.157091
    26 1.438885 -0.000001 0.000000 0.000000 0.000000 0.732658
    27 1.485305 0.000001 0.000000 0.000000 0.000000 1.168770
    28 1.038631 0.548043 -0.144017 -0.000001 0.000001 -1.849906
    29 -0.064003 -0.023521 0.026161 0.000000 0.000000 0.000000
    30 3.013925 3.984634 -0.088975 -0.000001 0.000001 -1.849906
    31 -0.084188 -0.025627 -0.001098 0.000000 0.000000 0.000000
    32 4.778187 3.972486 -0.079803 -0.000001 0.000001 -1.849906
    33 -0.058556 -0.021324 0.004244 0.000000 0.000000 0.000000
    34 1.640598 -1.968779 -0.099219 -0.000001 0.000001 -1.849906
    35 0.055573 -0.028908 0.000000 0.000000 0.000000 0.000000
    36 1.646738 0.449549 -1.702246 0.369699 -0.012752 0.801964
    37 0.928312 0.000000 -0.000002 0.000000 0.000000 0.000000
    38 0.928314 0.000000 0.000001 0.000000 0.000000 0.000000
    39 1.533672 0.109715 1.664491 -0.264755 -0.055959 0.783109
    40 0.928313 0.000000 0.000000 0.000000 0.000000 -0.453556
    41 0.928314 0.000000 0.000001 0.000000 0.000000 0.000000
  time 4
    0 0.235347 0.367732 3.528927 0.000000 0.000000 -1.570874
    1 0.000000 0.000000 0.000000 -1.570795 -1.570796 0.000000
    2 -0.000005 0.000007 3.713255 0.003204 3.158916 -0.091346
    3 18.045721 0.000000 0.000000 0.000000 0.000000 -0.243578
    4 17.597597 0.000000 0.000000 -0.001675 -0.017562 0.152262
    5 0.000005 -0.000003 -3.713255 0.355071 -3.167219 -0.017370
    6 18.045725 0.000000 0.000000 0.000000 0.000000 -0.267079
    7 17.597597 0.000000 0.000000 0.202642 0.018017 0.241891
    8 1.293670 0.684478 -0.000001 -0.000004 -0.000001 0.061735
    9 5.309685 -0.003834 0.000000 -0.253211 0.067198 0.253105
    10 4.826790 -0.004591 0.000000 0.154381 -0.028595 0.180947
    11 5.792767 -0.005304 0.000000 0.000000 0.000000 0.287817
    12 6.662317 -0.001453 0.000000 0.000000 -0.000001 0.209228
    13 2.046985 -0.000002 0.000000 0.029081 -0.113566 0.028960
    14 -3.397189 0.661759 4.341911 1.008283 -1.207586 1.954191
    15 4.827230 0.000000 0.000001 -0.824014 0.104461 -1.174049
    16 11.139763 0.000000 0.000000 0.000000 0.000000 -0.557617
    17 10.314597 0.000001 0.000000 -1.906873 -0.598196 -0.222490
    18 2.975834 -0.386307 -0.044143 0.001097 -0.043611 -0.043588
    19 1.438886 0.000000 0.000000 0.000000 0.000000 1.334476
    20 1.485303 0.000000 0.000000 0.000000 0.000000 0.793705
    21 -3.131625 0.610576 -4.140396 -1.213000 1.046068 1.768576
    22 4.972048 0.000000 0.000001 0.744372 -0.112858 -1.208332
    23 11.585355 0.000000 0.000000 0.000000 0.000000 -0.625268
    24 10.127057 0.000000 0.000001 1.938269 0.529518 0.030835
    25 2.683750 -0.427338 0.044205 -0.005786 0.043239 -0.157091
    26 1.438885 -0.000001 0.000000 0.000000 0.000000 0.732658
    27 1.485305 0.000001 0.000000 0.000000 0.000000 1.168770
    28 1.038631 0.548043 -0.144017 -0.000001 0.000001 -1.849906
    29 -0.064003 -0.023521 0.026161 0.000000 0.000000 0.000000
    30 3.013925 3.984634 -0.088975 -0.000001 0.000001 -1.849906
    31 -0.084188 -0.025627 -0.001098 0.000000 0.000000 0.000000
    32 4.778187 3.972486 -0.079803 -0.000001 0.000001 -1.849906
    33 -0.058556 -0.021324 0.004244 0.000000 0.000000 0.000000
    34 1.640598 -1.968779 -0.099219 -0.000001 0.000001 -1.849906
    35 0.055573 -0.028908 0.000000 0.000000 0.000000 0.000000
    36 1.646738 0.449549 -1.702246 0.369699 -0.012752 0.801964
    37 0.928312 0.000000 -0.000002 0.000000 0.000000 0.000000
    38 0.928314 0.000000 0.000001 0.000000 0.000000 0.000000
    39 1.533672 0.109715 1.664491 -0.264755 -0.055959 0.783109
    40 0.928313 0.000000 0.000000 0.000000 0.000000 -0.453556
    41 0.928314 0.000000 0.000001 0.000000 0.000000 0.000000
  time 5
    0 0.235347 0.367732 3.528927 0.000000 0.000000 -1.570874
    1 0.000000 0.000000 0.000000 -1.570795 -1.570796 0.000000
    2 -0.000005 0.000007 3.713255 0.003204 3.158916 -0.091346
    3 18.045721 0.000000 0.000000 0.000000 0.000000 -0.243578
    4 17.597597 0.000000 0.000000 -0.001675 -0.017562 0.152262
    5 0.000005 -0.000003 -3.713255 0.355071 -3.167219 -0.017370
    6 18.045725 0.000000 0.000000 0.000000 0.000000 -0.267079
    7 17.597597 0.000000 0.000000 0.202642 0.018017 0.241891
    8 1.293670 0.684478 -0.000001 -0.000004 -0.000001 0.061735
    9 5.309685 -0.003834 0.000000 -0.253554 0.065855 0.247908
    10 4.826790 -0.004591 0.000000 0.145777 -0.027013 0.181189
    11 5.792767 -0.005304 0.000000 0.000000 0.000000 0.287817
    12 6.662317 -0.001453 0.000000 0.000000 -0.000001 0.209228
    13 2.046985 -0.000002 0.000000 0.036276 -0.118676 0.033409
    14 -3.397189 0.661759 4.341911 1.008283 -1.207586 1.954191
    15 4.827230 0.000000 0.000001 -0.809917 0.179945 -1.089514
    16 11.139763 0.000000 0.000000 0.000000 0.000000 -0.613261
    17 10.314597 0.000001 0.000000 -1.876852 -0.598196 -0.222490
    18 2.975834 -0.386307 -0.044143 0.001097 -0.043611 -0.043588
    19 1.438886 0.000000 0.000000 0.000000 0.000000 1.334476
    20 1.485303 0.000000 0.000000 0.000000 0.000000 0.793705
    21 -3.131625 0.610576 -4.140396 -1.213000 1.046068 1.768576
    22 4.972048 0.000000 0.000001 0.763323 -0.141656 -1.175857
    23 11.585355 0.000000 0.000000 0.000000 0.000000 -0.627227
    24 10.127057 0.000000 0.000001 1.929287 0.540049 0.023539
    25 2.683750 -0.427338 0.044205 -0.005786 0.043239 -0.157091
    26 1.438885 -0.000001 0.000000 0.000000 0.000000 0.732658
    27 1.485305 0.000001 0.000000 0.000000 0.000000 1.168770
    28 1.038631 0.548043 -0.144017 -0.000001 0.000001 -1.849906
    29 -0.064003 -0.023521 0.026161 0.000000 0.000000 0.000000
    30 3.013925 3.984634 -0.088975 -0.000001 0.000001 -1.849906
    31 -0.084188 -0.025627 -0.001098 0.000000 0.000000 0.000000
    32 4.778187 3.972486 -0.079803 -0.000001 0.000001 -1.849906
    33 -0.058556 -0.021324 0.004244 0.000000 0.000000 0.000000
    34 1.640598 -1.968779 -0.099219 -0.000001 0.000001 -1.849906
    35 0.055573 -0.028908 0.000000 0.000000 0.000000 0.000000
    36 1.646738 0.449549 -1.702246 0.369699 -0.012752 0.801964
    37 0.928312 0.000000 -0.000002 0.000000 0.000000 0.000000
    38 0.928314 0.000000 0.000001 0.000000 0.000000 0.000000
    39 1.533672 0.109715 1.664491 -0.264755 -0.055959 0.783109
    40 0.928313 0.000000 0.000000 0.000000 0.000000 -0.453556
    41 0.928314 0.000000 0.000001 0.000000 0.000000 0.000000
  time 6
    0 0.235347 0.367732 3.528927 0.000000 0.000000 -1.570874
    1 0.000000 0.000000 0.000000 -1.570795 -1.570796 0.000000
    2 -0.000005 0.000007 3.713255 0.003204 3.158916 -0.091346
    3 18.045721 0.000000 0.000000 0.000000 0.000000 -0.243578
    4 17.597597 0.000000 0.000000 -0.001675 -0.017562 0.152262
    5 0.000005 -0.000003 -3.713255 0.355071 -3.167219 -0.017370
    6 18.045725 0.000000 0.000000 0.000000 0.000000 -0.267079
    7 17.597597 0.000000 0.000000 0.202642 0.018017 0.241891
    8 1.293670 0.684478 -0.000001 -0.000004 -0.000001 0.061735
    9 5.309685 -0.003834 0.000000 -0.254313 0.062835 0.236246
    10 4.826790 -0.004591 0.000000 0.126418 -0.023454 0.181674
    11 5.792767 -0.005304 0.000000 0.000000 0.000000 0.287817
    12 6.662317 -0.001453 0.000000 0.000000 -0.000001 0.209228
    13 2.046985 -0.000002 0.000000 0.052303 -0.130384 0.043343
    14 -3.397189 0.661759 4.341911 1.008283 -1.207586 1.954191
    15 4.827230 0.000000 0.000001 -0.761518 0.315936 -0.966035
    16 11.139763 0.000000 0.000000 0.000000 0.000000 -0.756364
    17 10.314597 0.000001 0.000000 -1.799555 -0.598196 -0.222490
    18 2.975834 -0.386307 -0.044143 0.001097 -0.043611 -0.043588
    19 1.438886 0.000000 0.000000 0.000000 0.000000 1.334476
    20 1.485303 0.000000 0.000000 0.000000 0.000000 0.793705
    21 -3.131625 0.610576 -4.140396 -1.213000 1.046068 1.768576
    22 4.972048 0.000000 0.000001 0.774463 -0.225315 -1.099379
    23 11.585355 0.000000 0.000000 0.000000 0.000000 -0.702500
    24 10.127057 0.000000 0.000001 1.905398 0.566850 0.004083
    25 2.683750 -0.427338 0.044205 -0.005786 0.043239 -0.157091
    26 1.438885 -0.000001 0.000000 0.000000 0.000000 0.732658
    27 1.485305 0.000001 0.000000 0.000000 0.000000 1.168770
    28 1.038631 0.548043 -0.144017 -0.000001 0.000001 -1.849906
    29 -0.064003 -0.023521 0.026161 0.000000 0.000000 0.000000
    30 3.013925 3.984634 -0.088975 -0.000001 0.000001 -1.849906
    31 -0.084188 -0.025627 -0.001098 0.000000 0.000000 0.000000
    32 4.778187 3.972486 -0.079803 -0.000001 0.000001 -1.849906
    33 -0.058556 -0.021324 0.004244 0.000000 0.000000 0.000000
    34 1.640598 -1.968779 -0.099219 -0.000001 0.000001 -1.849906
    35 0.055573 -0.028908 0.000000 0.000000 0.000000 0.000000
    36 1.646738 0.449549 -1.702246 0.369699 -0.012752 0.801964
    37 0.928312 0.000000 -0.000002 0.000000 0.000000 0.000000
    38 0.928314 0.000000 0.000001 0.000000 0.000000 0.000000
    39 1.533672 0.109715 1.664491 -0.264755 -0.055959 0.783109
    40 0.928313 0.000000 0.000000 0.000000 0.000000 -0.453556
    41 0.928314 0.000000 0.000001 0.000000 0.000000 0.000000
  time 7
    0 0.235347 0.367732 3.528927 0.000000 0.000000 -1.570874
    1 0.000000 0.000000 0.000000 -1.570795 -1.570796 0.000000
    2 -0.000005 0.000007 3.713255 0.003204 3.158916 -0.091346
    3 18.045721 0.000000 0.000000 0.000000 0.000000 -0.243578
    4 17.597597 0.000000 0.000000 -0.001675 -0.017562 0.152262
    5 0.000005 -0.000003 -3.713255 0.355071 -3.167219 -0.017370
    6 18.045725 0.000000 0.000000 0.000000 0.000000 -0.267079
    7 17.597597 0.000000 0.000000 0.202642 0.018017 0.241891
    8 1.293670 0.684478 -0.000001 -0.000004 -0.000001 0.061735
    9 5.309685 -0.003834 0.000000 -0.255183 0.059120 0.221940
    10 4.826790 -0.004591 0.000000 0.102675 -0.019067 0.182181
    11 5.792767 -0.005304 0.000000 0.000000 0.000000 0.287817
    12 6.662317 -0.001453 0.000000 0.000000 -0.000001 0.209228
    13 2.046985 -0.000002 0.000000 0.071604 -0.145222 0.055344
    14 -3.397189 0.661759 4.341911 1.008283 -1.207586 1.954191
    15 4.827230 0.000000 0.000001 -0.678348 0.470820 -0.816479
    16 11.139763 0.000000 0.000000 0.000000 0.000000 -0.938011
    17 10.314597 0.000001 0.000000 -1.701495 -0.598196 -0.222490
    18 2.975834 -0.386307 -0.044143 0.001097 -0.043611 -0.043588
    19 1.438886 0.000000 0.000000 0.000000 0.000000 1.334476
    20 1.485303 0.000000 0.000000 0.000000 0.000000 0.793705
    21 -3.131625 0.610576 -4.140396 -1.213000 1.046068 1.768576
    22 4.972048 0.000000 0.000001 0.768274 -0.332140 -0.999450
    23 11.585355 0.000000 0.000000 0.000000 0.000000 -0.812822
    24 10.127057 0.000000 0.000001 1.873675 0.600310 -0.022276
    25 2.683750 -0.427338 0.044205 -0.005786 0.043239 -0.157091
    26 1.438885 -0.000001 0.000000 0.000000 0.000000 0.732658
    27 1.485305 0.000001 0.000000 0.000000 0.000000 1.168770
    28 1.038631 0.548043 -0.144017 -0.000001 0.000001 -1.849906
    29 -0.064003 -0.023521 0.026161 0.000000 0.000000 0.000000
    30 3.013925 3.984634 -0.088975 -0.000001 0.000001 -1.849906
    31 -0.084188 -0.025627 -0.001098 0.000000 0.000000 0.000000
    32 4.778187 3.972486 -0.079803 -0.000001 0.000001 -1.849906
    33 -0.058556 -0.021324 0.004244 0.000000 0.000000 0.000000
    34 1.640598 -1.968779 -0.099219 -0.000001 0.000001 -1.849906
    35 0.055573 -0.028908 0.000000 0.000000 0.000000 0.000000
    36 1.646738 0.449549 -1.702246 0.369699 -0.012752 0.801964
    37 0.928312 0.000000 -0.000002 0.000000 0.000000 0.000000
    38 0.928314 0.000000 0.000001 0.000000 0.000000 0.000000
    39 1.533672 0.109715 1.664491 -0.264755 -0.055959 0.783109
    40 0.928313 0.000000 0.000000 0.000000 0.000000 -0.453556
    41 0.928314 0.000000 0.000001 0.000000 0.000000 0.000000
  time 8
    0 0.235347 0.367732 3.528927 0.000000 0.000000 -1.570874
    1 0.000000 0.000000 0.000000 -1.570795 -1.570796 0.000000
    2 -0.000005 0.000007 3.713255 0.003204 3.158916 -0.091346
    3 18.045721 0.000000 0.000000 0.000000 0.000000 -0.243578
    4 17.597597 0.000000 0.000000 -0.001675 -0.017562 0.152262
    5 0.000005 -0.000003 -3.713255 0.355071 -3.167219 -0.017370
    6 18.045725 0.000000 0.000000 0.000000 0.000000 -0.267079
    7 17.597597 0.000000 0.000000 0.202642 0.018017 0.241891
    8 1.293670 0.684478 -0.000001 -0.000004 -0.000001 0.061735
    9 5.309685 -0.003834 0.000000 -0.256027 0.055225 0.207036
    10 4.826790 -0.004591 0.000000 0.077930 -0.014477 0.182600
    11 5.792767 -0.005304 0.000000 0.000000 0.000000 0.287817
    12 6.662317 -0.001453 0.000000 0.000000 -0.000001 0.209228
    13 2.046985 -0.000002 0.000000 0.091336 -0.161185 0.067615
    14 -3.397189 0.661759 4.341911 1.008283 -1.207586 1.954191
    15 4.827230 0.000000 0.000001 -0.542961 0.632851 -0.626317
    16 11.139763 0.000000 0.000000 0.000000 0.000000 -1.154347
    17 10.314597 0.000001 0.000000 -1.584740 -0.598196 -0.222490
    18 2.975834 -0.386307 -0.044143 0.001097 -0.043611 -0.043588
    19 1.438886 0.000000 0.000000 0.000000 0.000000 1.334476
    20 1.485303 0.000000 0.000000 0.000000 0.000000 0.793705
    21 -3.131625 0.610576 -4.140396 -1.213000 1.046068 1.768576
    22 4.972048 0.000000 0.000001 0.736868 -0.454008 -0.868693
    23 11.585355 0.000000 0.000000 0.000000 0.000000 -0.954555
    24 10.127057 0.000000 0.000001 1.833415 0.639157 -0.056128
    25 2.683750 -0.427338 0.044205 -0.005786 0.043239 -0.157091
    26 1.438885 -0.000001 0.000000 0.000000 0.000000 0.732658
    27 1.485305 0.000001 0.000000 0.000000 0.000000 1.168770
    28 1.038631 0.548043 -0.144017 -0.000001 0.000001 -1.849906
    29 -0.064003 -0.023521 0.026161 0.000000 0.000000 0.000000
    30 3.013925 3.984634 -0.088975 -0.000001 0.000001 -1.849906
    31 -0.084188 -0.025627 -0.001098 0.000000 0.000000 0.000000
    32 4.778187 3.972486 -0.079803 -0.000001 0.000001 -1.849906
    33 -0.058556 -0.021324 0.004244 0.000000 0.000000 0.000000
    34 1.640598 -1.968779 -0.099219 -0.000001 0.000001 -1.849906
    35 0.055573 -0.028908 0.000000 0.000000 0.000000 0.000000
    36 1.646738 0.449549 -1.702246 0.369699 -0.012752 0.801964
    37 0.928312 0.000000 -0.000002 0.000000 0.000000 0.000000
    38 0.928314 0.000000 0.000001 0.000000 0.000000 0.000000
    39 1.533672 0.109715 1.664491 -0.264755 -0.055959 0.783109
    40 0.928313 0.000000 0.000000 0.000000 0.000000 -0.453556
    41 0.928314 0.000000 0.000001 0.000000 0.000000 0.000000
  time 9
    0 0.235347 0.367732 3.528927 0.000000 0.000000 -1.570874
    1 0.000000 0.000000 0.000000 -1.570795 -1.570796 0.000000
    2 -0.000005 0.000007 3.713255 0.003204 3.158916 -0.091346
    3 18.045721 0.000000 0.000000 0.000000 0.000000 -0.243578
    4 17.597597 0.000000 0.000000 -0.001675 -0.017562 0.152262
    5 0.000005 -0.000003 -3.713255 0.355071 -3.167219 -0.017370
    6 18.045725 0.000000 0.000000 0.000000 0.000000 -0.267079
    7 17.597597 0.000000 0.000000 0.202642 0.018017 0.241891
    8 1.293670 0.684478 -0.000001 -0.000004 -0.000001 0.061735
    9 5.309685 -0.003834 0.000000 -0.256799 0.051462 0.192639
    10 4.826790 -0.004591 0.000000 0.054006 -0.010043 0.182887
    11 5.792767 -0.005304 0.000000 0.000000 0.000000 0.287817
    12 6.662317 -0.001453 0.000000 0.000000 -0.000001 0.209228
    13 2.046985 -0.000002 0.000000 0.109991 -0.177125 0.079301
    14 -3.397189 0.661759 4.341911 1.008283 -1.207586 1.954191
    15 4.827230 0.000000 0.000001 -0.331157 0.782799 -0.376560
    16 11.139763 0.000000 0.000000 0.000000 0.000000 -1.403691
    17 10.314597 0.000001 0.000000 -1.450279 -0.598196 -0.222490
    18 2.975834 -0.386307 -0.044143 0.001097 -0.043611 -0.043588
    19 1.438886 0.000000 0.000000 0.000000 0.000000 1.334476
    20 1.485303 0.000000 0.000000 0.000000 0.000000 0.793705
    21 -3.131625 0.610576 -4.140396 -1.213000 1.046068 1.768576
    22 4.972048 0.000000 0.000001 0.666089 -0.582070 -0.695185
    23 11.585355 0.000000 0.000000 0.000000 0.000000 -1.130566
    24 10.127057 0.000000 0.000001 1.783472 0.682472 -0.098883
    25 2.683750 -0.427338 0.044205 -0.005786 0.043239 -0.157091
    26 1.438885 -0.000001 0.000000 0.000000 0.000000 0.732658
    27 1.485305 0.000001 0.000000 0.000000 0.000000 1.168770
    28 1.038631 0.548043 -0.144017 -0.000001 0.000001 -1.849906
    29 -0.064003 -0.023521 0.026161 0.000000 0.000000 0.000000
    30 3.013925 3.984634 -0.088975 -0.000001 0.000001 -1.849906
    31 -0.084188 -0.025627 -0.001098 0.000000 0.000000 0.000000
    32 4.778187 3.972486 -0.079803 -0.000001 0.000001 -1.849906
    33 -0.058556 -0.021324 0.004244 0.000000 0.000000 0.000000
    34 1.640598 -1.968779 -0.099219 -0.000001 0.000001 -1.849906
    35 0.055573 -0.028908 0.000000 0.000000 0.000000 0.000000
    36 1.646738 0.449549 -1.702246 0.369699 -0.012752 0.801964
    37 0.928312 0.000000 -0.000002 0.000000 0.000000 0.000000
    38 0.928314 0.000000 0.000001 0.000000 0.000000 0.000000
    39 1.533672 0.109715 1.664491 -0.264755 -0.055959 0.783109
    40 0.928313 0.000000 0.000000 0.000000 0.000000 -0.453556
    41 0.928314 0.000000 0.000001 0.000000 0.000000 0.000000
  time 10
    0 0.235347 0.367732 3.528927 0.000000 0.000000 -1.570874
    1 0.000000 0.000000 0.000000 -1.570795 -1.570796 0.000000
    2 -0.000005 0.000007 3.713255 0.003204 3.158916 -0.091346
    3 18.045721 0.000000 0.000000 0.000000 0.000000 -0.243578
    4 17.597597 0.000000 0.000000 -0.001675 -0.017562 0.152262
    5 0.000005 -0.000003 -3.713255 0.355071 -3.167219 -0.017370
    6 18.045725 0.000000 0.000000 0.000000 0.000000 -0.267079
    7 17.597597 0.000000 0.000000 0.202642 0.018017 0.241891
    8 1.293670 0.684478 -0.000001 -0.000004 -0.000001 0.061735
    9 5.309685 -0.003834 0.000000 -0.257460 0.047986 0.179438
    10 4.826790 -0.004591 0.000000 0.032052 -0.005956 0.183063
    11 5.792767 -0.005304 0.000000 0.000000 0.000000 0.287817
    12 6.662317 -0.001453 0.000000 0.000000 -0.000001 0.209228
    13 2.046985 -0.000002 0.000000 0.126793 -0.192165 0.089864
    14 -3.397189 0.661759 4.341911 1.008283 -1.207586 1.954191
    15 4.827230 0.000000 0.000001 -0.099560 0.879644 -0.138092
    16 11.139763 0.000000 0.000000 0.000000 0.000000 -1.632922
    17 10.314597 0.000001 0.000000 -1.326514 -0.598196 -0.222490
    18 2.975834 -0.386307 -0.044143 0.001097 -0.043611 -0.043588
    19 1.438886 0.000000 0.000000 0.000000 0.000000 1.334476
    20 1.485303 0.000000 0.000000 0.000000 0.000000 0.793705
    21 -3.131625 0.610576 -4.140396 -1.213000 1.046068 1.768576
    22 4.972048 0.000000 0.000001 0.554311 -0.683909 -0.507778
    23 11.585355 0.000000 0.000000 0.000000 0.000000 -1.317911
    24 10.127057 0.000000 0.000001 1.733785 0.720724 -0.142070
    25 2.683750 -0.427338 0.044205 -0.005786 0.043239 -0.157091
    26 1.438885 -0.000001 0.000000 0.000000 0.000000 0.732658
    27 1.485305 0.000001 0.000000 0.000000 0.000000 1.168770
    28 1.038631 0.548043 -0.144017 -0.000001 0.000001 -1.849906
    29 -0.064003 -0.023521 0.026161 0.000000 0.000000 0.000000
    30 3.013925 3.984634 -0.088975 -0.000001 0.000001 -1.849906
    31 -0.084188 -0.025627 -0.001098 0.000000 0.000000 0.000000
    32 4.778187 3.972486 -0.079803 -0.000001 0.000001 -1.849906
    33 -0.058556 -0.021324 0.004244 0.000000 0.000000 0.000000
    34 1.640598 -1.968779 -0.099219 -0.000001 0.000001 -1.849906
    35 0.055573 -0.028908 0.000000 0.000000 0.000000 0.000000
    36 1.646738 0.449549 -1.702246 0.369699 -0.012752 0.801964
    37 0.928312 0.000000 -0.000002 0.000000 0.000000 0.000000
    38 0.928314 0.000000 0.000001 0.000000 0.000000 0.000000
    39 1.533672 0.109715 1.664491 -0.264755 -0.055959 0.783109
    40 0.928313 0.000000 0.000000 0.000000 0.000000 -0.453556
    41 0.928314 0.000000 0.000001 0.000000 0.000000 0.000000
  time 11
    0 0.235347 0.367732 3.528927 0.000000 0.000000 -1.570874
    1 0.000000 0.000000 0.000000 -1.570795 -1.570796 0.000000
    2 -0.000005 0.000007 3.713255 0.003204 3.158916 -0.091346
    3 18.045721 0.000000 0.000000 0.000000 0.000000 -0.243578
    4 17.597597 0.000000 0.000000 -0.001675 -0.017562 0.152262
    5 0.000005 -0.000003 -3.713255 0.355071 -3.167219 -0.017370
    6 18.045725 0.000000 0.000000 0.000000 0.000000 -0.267079
    7 17.597597 0.000000 0.000000 0.202642 0.018017 0.241891
    8 1.293670 0.684478 -0.000001 -0.000004 -0.000001 0.061735
    9 5.309685 -0.003834 0.000000 -0.257974 0.045026 0.168174
    10 4.826790 -0.004591 0.000000 0.013366 -0.002481 0.183130
    11 5.792767 -0.005304 0.000000 0.000000 0.000000 0.287817
    12 6.662317 -0.001453 0.000000 0.000000 -0.000001 0.209228
    13 2.046985 -0.000002 0.000000 0.140838 -0.205292 0.098718
    14 -3.397189 0.661759 4.341911 1.008283 -1.207586 1.954191
    15 4.827230 0.000000 0.000001 -0.106373 0.941767 -0.291674
    16 11.139763 0.000000 0.000000 0.000000 0.000000 -1.826413
    17 10.314597 0.000001 0.000000 -1.222072 -0.598196 -0.222490
    18 2.975834 -0.386307 -0.044143 0.001097 -0.043611 -0.043588
    19 1.438886 0.000000 0.000000 0.000000 0.000000 1.334476
    20 1.485303 0.000000 0.000000 0.000000 0.000000 0.793705
    21 -3.131625 0.610576 -4.140396 -1.213000 1.046068 1.768576
    22 4.972048 0.000000 0.000001 0.351410 -0.745446 -0.321424
    23 11.585355 0.000000 0.000000 0.000000 0.000000 -1.637684
    24 10.127057 0.000000 0.000001 1.688747 0.751639 -0.181649
    25 2.683750 -0.427338 0.044205 -0.005786 0.043239 -0.157091
    26 1.438885 -0.000001 0.000000 0.000000 0.000000 0.732658
    27 1.485305 0.000001 0.000000 0.000000 0.000000 1.168770
    28 1.038631 0.548043 -0.144017 -0.000001 0.000001 -1.849906
    29 -0.064003 -0.023521 0.026161 0.000000 0.000000 0.000000
    30 3.013925 3.984634 -0.088975 -0.000001 0.000001 -1.849906
    31 -0.084188 -0.025627 -0.001098 0.000000 0.000000 0.000000
    32 4.778187 3.972486 -0.079803 -0.000001 0.000001 -1.849906
    33 -0.058556 -0.021324 0.004244 0.000000 0.000000 0.000000
    34 1.640598 -1.968779 -0.099219 -0.000001 0.000001 -1.849906
    35 0.055573 -0.028908 0.000000 0.000000 0.000000 0.000000
    36 1.646738 0.449549 -1.702246 0.369699 -0.012752 0.801964
    37 0.928312 0.000000 -0.000002 0.000000 0.000000 0.000000
    38 0.928314 0.000000 0.000001 0.000000 0.000000 0.000000
    39 1.533672 0.109715 1.664491 -0.264755 -0.055959 0.783109
    40 0.928313 0.000000 0.000000 0.000000 0.000000 -0.453556
    41 0.928314 0.000000 0.000001 0.000000 0.000000 0.000000
  time 12
    0 0.235347 0.367732 3.528927 0.000000 0.000000 -1.570874
    1 0.000000 0.000000 0.000000 -1.570795 -1.570796 0.000000
    2 -0.000005 0.000007 3.713255 0.003204 3.158916 -0.091346
    3 18.045721 0.000000 0.000000 0.000000 0.000000 -0.243578
    4 17.597597 0.000000 0.000000 -0.001675 -0.017562 0.152262
    5 0.000005 -0.000003 -3.713255 0.355071 -3.167219 -0.017370
    6 18.045725 0.000000 0.000000 0.000000 0.000000 -0.267079
    7 17.597597 0.000000 0.000000 0.202642 0.018017 0.241891
    8 1.293670 0.684478 -0.000001 -0.000004 -0.000001 0.061735
    9 5.309685 -0.003834 0.000000 -0.258329 0.042905 0.160134
    10 4.826790 -0.004591 0.000000 0.000000 0.000000 0.183152
    11 5.792767 -0.005304 0.000000 0.000000 0.000000 0.287817
    12 6.662317 -0.001453 0.000000 0.000000 -0.000001 0.209228
    13 2.046985 -0.000002 0.000000 0.150747 -0.214838 0.104966
    14 -3.397189 0.661759 4.341911 1.008283 -1.207586 1.954191
    15 4.827230 0.000000 0.000001 -0.377911 0.911301 -0.791713
    16 11.139763 0.000000 0.000000 0.000000 0.000000 -1.914924
    17 10.314597 0.000001 0.000000 -1.174256 -0.598196 -0.222490
    18 2.975834 -0.386307 -0.044143 0.001097 -0.043611 -0.043588
    19 1.438886 0.000000 0.000000 0.000000 0.000000 1.334476
    20 1.485303 0.000000 0.000000 0.000000 0.000000 0.793705
    21 -3.131625 0.610576 -4.140396 -1.213000 1.046068 1.768576
    22 4.972048 0.000000 0.000001 0.156089 -0.753329 -0.225448
    23 11.585355 0.000000 0.000000 0.000000 0.000000 -1.961934
    24 10.127057 0.000000 0.000001 1.667216 0.765311 -0.200791
    25 2.683750 -0.427338 0.044205 -0.005786 0.043239 -0.157091
    26 1.438885 -0.000001 0.000000 0.000000 0.000000 0.732658
    27 1.485305 0.000001 0.000000 0.000000 0.000000 1.168770
    28 1.038631 0.548043 -0.144017 -0.000001 0.000001 -1.849906
    29 -0.064003 -0.023521 0.026161 0.000000 0.000000 0.000000
    30 3.013925 3.984634 -0.088975 -0.000001 0.000001 -1.849906
    31 -0.084188 -0.025627 -0.001098 0.000000 0.000000 0.000000
    32 4.778187 3.972486 -0.079803 -0.000001 0.000001 -1.849906
    33 -0.058556 -0.021324 0.004244 0.000000 0.000000 0.000000
    34 1.640598 -1.968779 -0.099219 -0.000001 0.000001 -1.849906
    35 0.055573 -0.028908 0.000000 0.000000 0.000000 0.000000
    36 1.646738 0.449549 -1.702246 0.369699 -0.012752 0.801964
    37 0.928312 0.000000 -0.000002 0.000000 0.000000 0.000000
    38 0.928314 0.000000 0.000001 0.000000 0.000000 0.000000
    39 1.533672 0.109715 1.664491 -0.264755 -0.055959 0.783109
    40 0.928313 0.000000 0.000000 0.000000 0.000000 -0.453556
    41 0.928314 0.000000 0.000001 0.000000 0.000000 0.000000
end
