version 1
nodes
  0 "Bip01" -1
  1 "Bip01 Pelvis" 0
  2 "Bip01 L Leg" 1
  3 "Bip01 L Leg1" 2
  4 "Bip01 L Foot" 3
  5 "Bip01 R Leg" 1
  6 "Bip01 R Leg1" 5
  7 "Bip01 R Foot" 6
  8 "Bip01 Spine" 1
  9 "Bip01 Spine1" 8
  10 "Bip01 Spine2" 9
  11 "Bip01 Spine3" 10
  12 "Bip01 Neck" 11
  13 "Bip01 Head" 12
  14 "Bip01 L Arm" 12
  15 "Bip01 L Arm1" 14
  16 "Bip01 L Arm2" 15
  17 "Bip01 L Hand" 16
  18 "Bip01 L Finger1" 17
  19 "Bip01 L Finger11" 18
  20 "Bip01 L Finger12" 19
  21 "Bip01 R Arm" 12
  22 "Bip01 R Arm1" 21
  23 "Bip01 R Arm2" 22
  24 "Bip01 R Hand" 23
  25 "Bip01 R Finger1" 24
  26 "Bip01 R Finger11" 25
  27 "Bip01 R Finger12" 26
  28 "Dummy08" 13
  29 "Bone02" 28
  30 "Dummy04" 13
  31 "Bone05" 30
  32 "Dummy03" 13
  33 "Bone07" 32
  34 "Dummy10" 13
  35 "Bone13" 34
  36 "Bip01 L Finger0" 17
  37 "Bip01 L Finger01" 36
  38 "Bip01 L Finger02" 37
  39 "Bip01 R Finger0" 24
  40 "Bip01 R Finger01" 39
  41 "Bip01 R Finger02" 40
end
skeleton
  time 0
    0 0.235347 0.367732 3.528927 0.000000 0.000000 -1.570874
    1 0.000000 0.000000 0.000000 -1.570795 -1.570796 0.000000
    2 -0.000005 0.000007 3.713255 0.003204 3.158916 -0.091346
    3 18.045721 0.000000 0.000000 0.000000 0.000000 -0.243578
    4 17.597597 0.000000 0.000000 -0.001675 -0.017562 0.152262
    5 0.000005 -0.000003 -3.713255 0.355071 -3.167219 -0.017370
    6 18.045725 0.000000 0.000000 0.000000 0.000000 -0.267079
    7 17.597597 0.000000 0.000000 0.202642 0.018017 0.241891
    8 1.293670 0.684478 -0.000001 -0.000004 -0.000001 -0.147611
    9 5.309685 -0.003834 0.000000 -0.261194 -0.017833 -0.067442
    10 4.826790 -0.004591 0.000000 0.000000 0.000000 -0.095944
    11 5.792767 -0.005304 0.000000 0.000000 0.000000 0.017444
    12 6.662317 -0.001453 0.000000 0.000000 -0.000001 0.209228
    13 2.046985 -0.000002 0.000000 0.257593 0.047191 -0.238929
    14 -3.397189 0.661759 4.341911 1.008283 -1.207586 1.954191
    15 4.827230 0.000000 0.000001 -0.599935 0.994700 -1.252284
    16 11.139763 0.000000 0.000000 0.000000 0.000000 -1.933004
    17 10.314597 0.000001 0.000000 -1.068107 -0.403254 -0.135284
    18 2.975834 -0.386307 -0.044143 0.001097 -0.043611 -0.043588
    19 1.438886 0.000000 0.000000 0.000000 0.000000 1.334476
    20 1.485303 0.000000 0.000000 0.000000 0.000000 0.793705
    21 -3.131625 0.610576 -4.140396 -1.213000 1.046068 1.768576
    22 4.972048 0.000000 0.000001 -0.265572 -1.071634 0.470561
    23 11.585355 0.000000 0.000000 0.000000 0.000000 -2.415464
    24 10.127057 0.000000 0.000001 1.510254 0.765311 -0.200791
    25 2.683750 -0.427338 0.044205 -0.005786 0.043239 -0.157091
    26 1.438885 -0.000001 0.000000 0.000000 0.000000 0.732658
    27 1.485305 0.000001 0.000000 0.000000 0.000000 1.168770
    28 1.038631 0.548043 -0.144017 -0.000001 0.000001 -1.849906
    29 -0.064003 -0.023521 0.026161 0.000000 0.000000 0.000000
    30 3.013925 3.984634 -0.088975 -0.000001 0.000001 -1.849906
    31 -0.084188 -0.025627 -0.001098 0.000000 0.000000 0.000000
    32 4.778187 3.972486 -0.079803 -0.000001 0.000001 -1.849906
    33 -0.058556 -0.021324 0.004244 0.000000 0.000000 0.000000
    34 1.640598 -1.968779 -0.099219 -0.000001 0.000001 -1.849906
    35 0.055573 -0.028908 0.000000 0.000000 0.000000 0.000000
    36 1.646738 0.449549 -1.702246 0.154002 0.442277 0.277235
    37 0.928312 0.000000 -0.000002 0.000000 0.000000 0.000000
    38 0.928314 0.000000 0.000001 0.000000 0.000000 0.000000
    39 1.533672 0.109715 1.664491 -0.264755 -0.055959 0.783109
    40 0.928313 0.000000 0.000000 0.000000 0.000000 -0.453556
    41 0.928314 0.000000 0.000001 0.000000 0.000000 0.000000
  time 1
    0 0.235347 0.367732 3.528927 0.000000 0.000000 -1.570874
    1 0.000000 0.000000 0.000000 -1.570795 -1.570796 0.000000
    2 -0.000005 0.000007 3.713255 0.003204 3.158916 -0.091346
    3 18.045721 0.000000 0.000000 0.000000 0.000000 -0.243578
    4 17.597597 0.000000 0.000000 -0.001675 -0.017562 0.152262
    5 0.000005 -0.000003 -3.713255 0.355071 -3.167219 -0.017370
    6 18.045725 0.000000 0.000000 0.000000 0.000000 -0.267079
    7 17.597597 0.000000 0.000000 0.202642 0.018017 0.241891
    8 1.293670 0.684478 -0.000001 -0.000004 -0.000001 -0.147611
    9 5.309685 -0.003834 0.000000 -0.261194 -0.017833 -0.067442
    10 4.826790 -0.004591 0.000000 0.000000 0.000000 -0.094489
    11 5.792767 -0.005304 0.000000 0.000000 0.000000 0.017444
    12 6.662317 -0.001453 0.000000 0.000000 -0.000001 0.209228
    13 2.046985 -0.000002 0.000000 0.257593 0.047191 -0.240367
    14 -3.397189 0.661759 4.341911 1.001764 -1.206009 1.961094
    15 4.827230 0.000000 0.000001 -0.594883 0.992402 -1.248346
    16 11.139763 0.000000 0.000000 0.000000 0.000000 -1.933004
    17 10.314597 0.000001 0.000000 -1.068107 -0.403254 -0.135284
    18 2.975834 -0.386307 -0.044143 0.001097 -0.043611 -0.043588
    19 1.438886 0.000000 0.000000 0.000000 0.000000 1.334476
    20 1.485303 0.000000 0.000000 0.000000 0.000000 0.793705
    21 -3.131625 0.610576 -4.140396 -1.208303 1.045051 1.774041
    22 4.972048 0.000000 0.000001 -0.259847 -1.068980 0.465291
    23 11.585355 0.000000 0.000000 0.000000 0.000000 -2.415464
    24 10.127057 0.000000 0.000001 1.510254 0.765311 -0.200791
    25 2.683750 -0.427338 0.044205 -0.005786 0.043239 -0.157091
    26 1.438885 -0.000001 0.000000 0.000000 0.000000 0.732658
    27 1.485305 0.000001 0.000000 0.000000 0.000000 1.168770
    28 1.038631 0.548043 -0.144017 -0.000001 0.000001 -1.849906
    29 -0.064003 -0.023521 0.026161 0.000000 0.000000 0.000000
    30 3.013925 3.984634 -0.088975 -0.000001 0.000001 -1.849906
    31 -0.084188 -0.025627 -0.001098 0.000000 0.000000 0.000000
    32 4.778187 3.972486 -0.079803 -0.000001 0.000001 -1.849906
    33 -0.058556 -0.021324 0.004244 0.000000 0.000000 0.000000
    34 1.640598 -1.968779 -0.099219 -0.000001 0.000001 -1.849906
    35 0.055573 -0.028908 0.000000 0.000000 0.000000 0.000000
    36 1.646738 0.449549 -1.702246 0.154002 0.442277 0.277235
    37 0.928312 0.000000 -0.000002 0.000000 0.000000 0.000000
    38 0.928314 0.000000 0.000001 0.000000 0.000000 0.000000
    39 1.533672 0.109715 1.664491 -0.264755 -0.055959 0.783109
    40 0.928313 0.000000 0.000000 0.000000 0.000000 -0.453556
    41 0.928314 0.000000 0.000001 0.000000 0.000000 0.000000
  time 2
    0 0.235347 0.367732 3.528927 0.000000 0.000000 -1.570874
    1 0.000000 0.000000 0.000000 -1.570795 -1.570796 0.000000
    2 -0.000005 0.000007 3.713255 0.003204 3.158916 -0.091346
    3 18.045721 0.000000 0.000000 0.000000 0.000000 -0.243578
    4 17.597597 0.000000 0.000000 -0.001675 -0.017562 0.152262
    5 0.000005 -0.000003 -3.713255 0.355071 -3.167219 -0.017370
    6 18.045725 0.000000 0.000000 0.000000 0.000000 -0.267079
    7 17.597597 0.000000 0.000000 0.202642 0.018017 0.241891
    8 1.293670 0.684478 -0.000001 -0.000004 -0.000001 -0.147611
    9 5.309685 -0.003834 0.000000 -0.261194 -0.017833 -0.067442
    10 4.826790 -0.004591 0.000000 0.000000 0.000000 -0.092504
    11 5.792767 -0.005304 0.000000 0.000000 0.000000 0.017444
    12 6.662317 -0.001453 0.000000 0.000000 -0.000001 0.209228
    13 2.046985 -0.000002 0.000000 0.257593 0.047191 -0.242390
    14 -3.397189 0.661759 4.341911 0.993040 -1.203855 1.970490
    15 4.827230 0.000000 0.000001 -0.588070 0.989168 -1.243008
    16 11.139763 0.000000 0.000000 0.000000 0.000000 -1.933004
    17 10.314597 0.000001 0.000000 -1.068107 -0.403254 -0.135284
    18 2.975834 -0.386307 -0.044143 0.001097 -0.043611 -0.043588
    19 1.438886 0.000000 0.000000 0.000000 0.000000 1.334476
    20 1.485303 0.000000 0.000000 0.000000 0.000000 0.793705
    21 -3.131625 0.610576 -4.140396 -1.201879 1.043638 1.781423
    22 4.972048 0.000000 0.000001 -0.252112 -1.065360 0.458177
    23 11.585355 0.000000 0.000000 0.000000 0.000000 -2.415464
    24 10.127057 0.000000 0.000001 1.510254 0.765311 -0.200791
    25 2.683750 -0.427338 0.044205 -0.005786 0.043239 -0.157091
    26 1.438885 -0.000001 0.000000 0.000000 0.000000 0.732658
    27 1.485305 0.000001 0.000000 0.000000 0.000000 1.168770
    28 1.038631 0.548043 -0.144017 -0.000001 0.000001 -1.849906
    29 -0.064003 -0.023521 0.026161 0.000000 0.000000 0.000000
    30 3.013925 3.984634 -0.088975 -0.000001 0.000001 -1.849906
    31 -0.084188 -0.025627 -0.001098 0.000000 0.000000 0.000000
    32 4.778187 3.972486 -0.079803 -0.000001 0.000001 -1.849906
    33 -0.058556 -0.021324 0.004244 0.000000 0.000000 0.000000
    34 1.640598 -1.968779 -0.099219 -0.000001 0.000001 -1.849906
    35 0.055573 -0.028908 0.000000 0.000000 0.000000 0.000000
    36 1.646738 0.449549 -1.702246 0.154002 0.442277 0.277235
    37 0.928312 0.000000 -0.000002 0.000000 0.000000 0.000000
    38 0.928314 0.000000 0.000001 0.000000 0.000000 0.000000
    39 1.533672 0.109715 1.664491 -0.264755 -0.055959 0.783109
    40 0.928313 0.000000 0.000000 0.000000 0.000000 -0.453556
    41 0.928314 0.000000 0.000001 0.000000 0.000000 0.000000
  time 3
    0 0.235347 0.367732 3.528927 0.000000 0.000000 -1.570874
    1 0.000000 0.000000 0.000000 -1.570795 -1.570796 0.000000
    2 -0.000005 0.000007 3.713255 0.003204 3.158916 -0.091346
    3 18.045721 0.000000 0.000000 0.000000 0.000000 -0.243578
    4 17.597597 0.000000 0.000000 -0.001675 -0.017562 0.152262
    5 0.000005 -0.000003 -3.713255 0.355071 -3.167219 -0.017370
    6 18.045725 0.000000 0.000000 0.000000 0.000000 -0.267079
    7 17.597597 0.000000 0.000000 0.202642 0.018017 0.241891
    8 1.293670 0.684478 -0.000001 -0.000004 -0.000001 -0.147611
    9 5.309685 -0.003834 0.000000 -0.261194 -0.017833 -0.067442
    10 4.826790 -0.004591 0.000000 0.000000 0.000000 -0.090101
    11 5.792767 -0.005304 0.000000 0.000000 0.000000 0.017444
    12 6.662317 -0.001453 0.000000 0.000000 -0.000001 0.209228
    13 2.046985 -0.000002 0.000000 0.257593 0.047191 -0.244772
    14 -3.397189 0.661759 4.341911 0.982589 -1.201200 1.981708
    15 4.827230 0.000000 0.000001 -0.579847 0.985254 -1.236620
    16 11.139763 0.000000 0.000000 0.000000 0.000000 -1.933004
    17 10.314597 0.000001 0.000000 -1.068107 -0.403254 -0.135284
    18 2.975834 -0.386307 -0.044143 0.001097 -0.043611 -0.043588
    19 1.438886 0.000000 0.000000 0.000000 0.000000 1.334476
    20 1.485303 0.000000 0.000000 0.000000 0.000000 0.793705
    21 -3.131625 0.610576 -4.140396 -1.194209 1.041885 1.790339
    22 4.972048 0.000000 0.000001 -0.242907 -1.060855 0.449679
    23 11.585355 0.000000 0.000000 0.000000 0.000000 -2.415464
    24 10.127057 0.000000 0.000001 1.510254 0.765311 -0.200791
    25 2.683750 -0.427338 0.044205 -0.005786 0.043239 -0.157091
    26 1.438885 -0.000001 0.000000 0.000000 0.000000 0.732658
    27 1.485305 0.000001 0.000000 0.000000 0.000000 1.168770
    28 1.038631 0.548043 -0.144017 -0.000001 0.000001 -1.849906
    29 -0.064003 -0.023521 0.026161 0.000000 0.000000 0.000000
    30 3.013925 3.984634 -0.088975 -0.000001 0.000001 -1.849906
    31 -0.084188 -0.025627 -0.001098 0.000000 0.000000 0.000000
    32 4.778187 3.972486 -0.079803 -0.000001 0.000001 -1.849906
    33 -0.058556 -0.021324 0.004244 0.000000 0.000000 0.000000
    34 1.640598 -1.968779 -0.099219 -0.000001 0.000001 -1.849906
    35 0.055573 -0.028908 0.000000 0.000000 0.000000 0.000000
    36 1.646738 0.449549 -1.702246 0.154002 0.442277 0.277235
    37 0.928312 0.000000 -0.000002 0.000000 0.000000 0.000000
    38 0.928314 0.000000 0.000001 0.000000 0.000000 0.000000
    39 1.533672 0.109715 1.664491 -0.264755 -0.055959 0.783109
    40 0.928313 0.000000 0.000000 0.000000 0.000000 -0.453556
    41 0.928314 0.000000 0.000001 0.000000 0.000000 0.000000
  time 4
    0 0.235347 0.367732 3.528927 0.000000 0.000000 -1.570874
    1 0.000000 0.000000 0.000000 -1.570795 -1.570796 0.000000
    2 -0.000005 0.000007 3.713255 0.003204 3.158916 -0.091346
    3 18.045721 0.000000 0.000000 0.000000 0.000000 -0.243578
    4 17.597597 0.000000 0.000000 -0.001675 -0.017562 0.152262
    5 0.000005 -0.000003 -3.713255 0.355071 -3.167219 -0.017370
    6 18.045725 0.000000 0.000000 0.000000 0.000000 -0.267079
    7 17.597597 0.000000 0.000000 0.202642 0.018017 0.241891
    8 1.293670 0.684478 -0.000001 -0.000004 -0.000001 -0.147611
    9 5.309685 -0.003834 0.000000 -0.261194 -0.017833 -0.067442
    10 4.826790 -0.004591 0.000000 0.000000 0.000000 -0.087345
    11 5.792767 -0.005304 0.000000 0.000000 0.000000 0.017444
    12 6.662317 -0.001453 0.000000 0.000000 -0.000001 0.209228
    13 2.046985 -0.000002 0.000000 0.257593 0.047191 -0.247559
    14 -3.397189 0.661759 4.341911 0.970893 -1.198123 1.994268
    15 4.827230 0.000000 0.000001 -0.570567 0.980743 -1.229444
    16 11.139763 0.000000 0.000000 0.000000 0.000000 -1.933004
    17 10.314597 0.000001 0.000000 -1.068107 -0.403254 -0.135284
    18 2.975834 -0.386307 -0.044143 0.001097 -0.043611 -0.043588
    19 1.438886 0.000000 0.000000 0.000000 0.000000 1.334476
    20 1.485303 0.000000 0.000000 0.000000 0.000000 0.793705
    21 -3.131625 0.610576 -4.140396 -1.185389 1.039822 1.800502
    22 4.972048 0.000000 0.000001 -0.232541 -1.055787 0.440127
    23 11.585355 0.000000 0.000000 0.000000 0.000000 -2.415464
    24 10.127057 0.000000 0.000001 1.510254 0.765311 -0.200791
    25 2.683750 -0.427338 0.044205 -0.005786 0.043239 -0.157091
    26 1.438885 -0.000001 0.000000 0.000000 0.000000 0.732658
    27 1.485305 0.000001 0.000000 0.000000 0.000000 1.168770
    28 1.038631 0.548043 -0.144017 -0.000001 0.000001 -1.849906
    29 -0.064003 -0.023521 0.026161 0.000000 0.000000 0.000000
    30 3.013925 3.984634 -0.088975 -0.000001 0.000001 -1.849906
    31 -0.084188 -0.025627 -0.001098 0.000000 0.000000 0.000000
    32 4.778187 3.972486 -0.079803 -0.000001 0.000001 -1.849906
    33 -0.058556 -0.021324 0.004244 0.000000 0.000000 0.000000
    34 1.640598 -1.968779 -0.099219 -0.000001 0.000001 -1.849906
    35 0.055573 -0.028908 0.000000 0.000000 0.000000 0.000000
    36 1.646738 0.449549 -1.702246 0.154002 0.442277 0.277235
    37 0.928312 0.000000 -0.000002 0.000000 0.000000 0.000000
    38 0.928314 0.000000 0.000001 0.000000 0.000000 0.000000
    39 1.533672 0.109715 1.664491 -0.264755 -0.055959 0.783109
    40 0.928313 0.000000 0.000000 0.000000 0.000000 -0.453556
    41 0.928314 0.000000 0.000001 0.000000 0.000000 0.000000
  time 5
    0 0.235347 0.367732 3.528927 0.000000 0.000000 -1.570874
    1 0.000000 0.000000 0.000000 -1.570795 -1.570796 0.000000
    2 -0.000005 0.000007 3.713255 0.003204 3.158916 -0.091346
    3 18.045721 0.000000 0.000000 0.000000 0.000000 -0.243578
    4 17.597597 0.000000 0.000000 -0.001675 -0.017562 0.152262
    5 0.000005 -0.000003 -3.713255 0.355071 -3.167219 -0.017370
    6 18.045725 0.000000 0.000000 0.000000 0.000000 -0.267079
    7 17.597597 0.000000 0.000000 0.202642 0.018017 0.241891
    8 1.293670 0.684478 -0.000001 -0.000004 -0.000001 -0.147611
    9 5.309685 -0.003834 0.000000 -0.261194 -0.017833 -0.067442
    10 4.826790 -0.004591 0.000000 0.000000 0.000000 -0.084324
    11 5.792767 -0.005304 0.000000 0.000000 0.000000 0.017444
    12 6.662317 -0.001453 0.000000 0.000000 -0.000001 0.209228
    13 2.046985 -0.000002 0.000000 0.257593 0.047191 -0.250570
    14 -3.397189 0.661759 4.341911 0.958238 -1.194700 2.007786
    15 4.827230 0.000000 0.000001 -0.560581 0.975722 -1.221830
    16 11.139763 0.000000 0.000000 0.000000 0.000000 -1.933004
    17 10.314597 0.000001 0.000000 -1.068107 -0.403254 -0.135284
    18 2.975834 -0.386307 -0.044143 0.001097 -0.043611 -0.043588
    19 1.438886 0.000000 0.000000 0.000000 0.000000 1.334476
    20 1.485303 0.000000 0.000000 0.000000 0.000000 0.793705
    21 -3.131625 0.610576 -4.140396 -1.175993 1.037533 1.811527
    22 4.972048 0.000000 0.000001 -0.221479 -1.050076 0.429917
    23 11.585355 0.000000 0.000000 0.000000 0.000000 -2.415464
    24 10.127057 0.000000 0.000001 1.510254 0.765311 -0.200791
    25 2.683750 -0.427338 0.044205 -0.005786 0.043239 -0.157091
    26 1.438885 -0.000001 0.000000 0.000000 0.000000 0.732658
    27 1.485305 0.000001 0.000000 0.000000 0.000000 1.168770
    28 1.038631 0.548043 -0.144017 -0.000001 0.000001 -1.849906
    29 -0.064003 -0.023521 0.026161 0.000000 0.000000 0.000000
    30 3.013925 3.984634 -0.088975 -0.000001 0.000001 -1.849906
    31 -0.084188 -0.025627 -0.001098 0.000000 0.000000 0.000000
    32 4.778187 3.972486 -0.079803 -0.000001 0.000001 -1.849906
    33 -0.058556 -0.021324 0.004244 0.000000 0.000000 0.000000
    34 1.640598 -1.968779 -0.099219 -0.000001 0.000001 -1.849906
    35 0.055573 -0.028908 0.000000 0.000000 0.000000 0.000000
    36 1.646738 0.449549 -1.702246 0.154002 0.442277 0.277235
    37 0.928312 0.000000 -0.000002 0.000000 0.000000 0.000000
    38 0.928314 0.000000 0.000001 0.000000 0.000000 0.000000
    39 1.533672 0.109715 1.664491 -0.264755 -0.055959 0.783109
    40 0.928313 0.000000 0.000000 0.000000 0.000000 -0.453556
    41 0.928314 0.000000 0.000001 0.000000 0.000000 0.000000
  time 6
    0 0.235347 0.367732 3.528927 0.000000 0.000000 -1.570874
    1 0.000000 0.000000 0.000000 -1.570795 -1.570796 0.000000
    2 -0.000005 0.000007 3.713255 0.003204 3.158916 -0.091346
    3 18.045721 0.000000 0.000000 0.000000 0.000000 -0.243578
    4 17.597597 0.000000 0.000000 -0.001675 -0.017562 0.152262
    5 0.000005 -0.000003 -3.713255 0.355071 -3.167219 -0.017370
    6 18.045725 0.000000 0.000000 0.000000 0.000000 -0.267079
    7 17.597597 0.000000 0.000000 0.202642 0.018017 0.241891
    8 1.293670 0.684478 -0.000001 -0.000004 -0.000001 -0.147611
    9 5.309685 -0.003834 0.000000 -0.261194 -0.017833 -0.067442
    10 4.826790 -0.004591 0.000000 0.000000 0.000000 -0.081171
    11 5.792767 -0.005304 0.000000 0.000000 0.000000 0.017444
    12 6.662317 -0.001453 0.000000 0.000000 -0.000001 0.209228
    13 2.046985 -0.000002 0.000000 0.257593 0.047191 -0.253716
    14 -3.397189 0.661759 4.341911 0.945295 -1.191007 2.021784
    15 4.827230 0.000000 0.000001 -0.550244 0.970446 -1.213954
    16 11.139763 0.000000 0.000000 0.000000 0.000000 -1.933004
    17 10.314597 0.000001 0.000000 -1.068107 -0.403254 -0.135284
    18 2.975834 -0.386307 -0.044143 0.001097 -0.043611 -0.043588
    19 1.438886 0.000000 0.000000 0.000000 0.000000 1.334476
    20 1.485303 0.000000 0.000000 0.000000 0.000000 0.793705
    21 -3.131625 0.610576 -4.140396 -1.166118 1.035074 1.822936
    22 4.972048 0.000000 0.000001 -0.210031 -1.044123 0.419378
    23 11.585355 0.000000 0.000000 0.000000 0.000000 -2.415464
    24 10.127057 0.000000 0.000001 1.510254 0.765311 -0.200791
    25 2.683750 -0.427338 0.044205 -0.005786 0.043239 -0.157091
    26 1.438885 -0.000001 0.000000 0.000000 0.000000 0.732658
    27 1.485305 0.000001 0.000000 0.000000 0.000000 1.168770
    28 1.038631 0.548043 -0.144017 -0.000001 0.000001 -1.849906
    29 -0.064003 -0.023521 0.026161 0.000000 0.000000 0.000000
    30 3.013925 3.984634 -0.088975 -0.000001 0.000001 -1.849906
    31 -0.084188 -0.025627 -0.001098 0.000000 0.000000 0.000000
    32 4.778187 3.972486 -0.079803 -0.000001 0.000001 -1.849906
    33 -0.058556 -0.021324 0.004244 0.000000 0.000000 0.000000
    34 1.640598 -1.968779 -0.099219 -0.000001 0.000001 -1.849906
    35 0.055573 -0.028908 0.000000 0.000000 0.000000 0.000000
    36 1.646738 0.449549 -1.702246 0.154002 0.442277 0.277235
    37 0.928312 0.000000 -0.000002 0.000000 0.000000 0.000000
    38 0.928314 0.000000 0.000001 0.000000 0.000000 0.000000
    39 1.533672 0.109715 1.664491 -0.264755 -0.055959 0.783109
    40 0.928313 0.000000 0.000000 0.000000 0.000000 -0.453556
    41 0.928314 0.000000 0.000001 0.000000 0.000000 0.000000
  time 7
    0 0.235347 0.367732 3.528927 0.000000 0.000000 -1.570874
    1 0.000000 0.000000 0.000000 -1.570795 -1.570796 0.000000
    2 -0.000005 0.000007 3.713255 0.003204 3.158916 -0.091346
    3 18.045721 0.000000 0.000000 0.000000 0.000000 -0.243578
    4 17.597597 0.000000 0.000000 -0.001675 -0.017562 0.152262
    5 0.000005 -0.000003 -3.713255 0.355071 -3.167219 -0.017370
    6 18.045725 0.000000 0.000000 0.000000 0.000000 -0.267079
    7 17.597597 0.000000 0.000000 0.202642 0.018017 0.241891
    8 1.293670 0.684478 -0.000001 -0.000004 -0.000001 -0.147611
    9 5.309685 -0.003834 0.000000 -0.261194 -0.017833 -0.067442
    10 4.826790 -0.004591 0.000000 0.000000 0.000000 -0.077930
    11 5.792767 -0.005304 0.000000 0.000000 0.000000 0.017444
    12 6.662317 -0.001453 0.000000 0.000000 -0.000001 0.209228
    13 2.046985 -0.000002 0.000000 0.257593 0.047191 -0.256953
    14 -3.397189 0.661759 4.341911 0.932352 -1.187199 2.035782
    15 4.827230 0.000000 0.000001 -0.539906 0.965000 -1.206166
    16 11.139763 0.000000 0.000000 0.000000 0.000000 -1.933004
    17 10.314597 0.000001 0.000000 -1.068107 -0.403254 -0.135284
    18 2.975834 -0.386307 -0.044143 0.001097 -0.043611 -0.043588
    19 1.438886 0.000000 0.000000 0.000000 0.000000 1.334476
    20 1.485303 0.000000 0.000000 0.000000 0.000000 0.793705
    21 -3.131625 0.610576 -4.140396 -1.156148 1.032502 1.834537
    22 4.972048 0.000000 0.000001 -0.198737 -1.037929 0.408970
    23 11.585355 0.000000 0.000000 0.000000 0.000000 -2.415464
    24 10.127057 0.000000 0.000001 1.510254 0.765311 -0.200791
    25 2.683750 -0.427338 0.044205 -0.005786 0.043239 -0.157091
    26 1.438885 -0.000001 0.000000 0.000000 0.000000 0.732658
    27 1.485305 0.000001 0.000000 0.000000 0.000000 1.168770
    28 1.038631 0.548043 -0.144017 -0.000001 0.000001 -1.849906
    29 -0.064003 -0.023521 0.026161 0.000000 0.000000 0.000000
    30 3.013925 3.984634 -0.088975 -0.000001 0.000001 -1.849906
    31 -0.084188 -0.025627 -0.001098 0.000000 0.000000 0.000000
    32 4.778187 3.972486 -0.079803 -0.000001 0.000001 -1.849906
    33 -0.058556 -0.021324 0.004244 0.000000 0.000000 0.000000
    34 1.640598 -1.968779 -0.099219 -0.000001 0.000001 -1.849906
    35 0.055573 -0.028908 0.000000 0.000000 0.000000 0.000000
    36 1.646738 0.449549 -1.702246 0.154002 0.442277 0.277235
    37 0.928312 0.000000 -0.000002 0.000000 0.000000 0.000000
    38 0.928314 0.000000 0.000001 0.000000 0.000000 0.000000
    39 1.533672 0.109715 1.664491 -0.264755 -0.055959 0.783109
    40 0.928313 0.000000 0.000000 0.000000 0.000000 -0.453556
    41 0.928314 0.000000 0.000001 0.000000 0.000000 0.000000
  time 8
    0 0.235347 0.367732 3.528927 0.000000 0.000000 -1.570874
    1 0.000000 0.000000 0.000000 -1.570795 -1.570796 0.000000
    2 -0.000005 0.000007 3.713255 0.003204 3.158916 -0.091346
    3 18.045721 0.000000 0.000000 0.000000 0.000000 -0.243578
    4 17.597597 0.000000 0.000000 -0.001675 -0.017562 0.152262
    5 0.000005 -0.000003 -3.713255 0.355071 -3.167219 -0.017370
    6 18.045725 0.000000 0.000000 0.000000 0.000000 -0.267079
    7 17.597597 0.000000 0.000000 0.202642 0.018017 0.241891
    8 1.293670 0.684478 -0.000001 -0.000004 -0.000001 -0.147611
    9 5.309685 -0.003834 0.000000 -0.261194 -0.017833 -0.067442
    10 4.826790 -0.004591 0.000000 0.000000 0.000000 -0.074733
    11 5.792767 -0.005304 0.000000 0.000000 0.000000 0.017444
    12 6.662317 -0.001453 0.000000 0.000000 -0.000001 0.209228
    13 2.046985 -0.000002 0.000000 0.257593 0.047191 -0.260144
    14 -3.397189 0.661759 4.341911 0.919793 -1.183352 2.049300
    15 4.827230 0.000000 0.000001 -0.529745 0.959638 -1.198552
    16 11.139763 0.000000 0.000000 0.000000 0.000000 -1.933004
    17 10.314597 0.000001 0.000000 -1.068107 -0.403254 -0.135284
    18 2.975834 -0.386307 -0.044143 0.001097 -0.043611 -0.043588
    19 1.438886 0.000000 0.000000 0.000000 0.000000 1.334476
    20 1.485303 0.000000 0.000000 0.000000 0.000000 0.793705
    21 -3.131625 0.610576 -4.140396 -1.146464 1.029901 1.845850
    22 4.972048 0.000000 0.000001 -0.187675 -1.031735 0.398825
    23 11.585355 0.000000 0.000000 0.000000 0.000000 -2.415464
    24 10.127057 0.000000 0.000001 1.510254 0.765311 -0.200791
    25 2.683750 -0.427338 0.044205 -0.005786 0.043239 -0.157091
    26 1.438885 -0.000001 0.000000 0.000000 0.000000 0.732658
    27 1.485305 0.000001 0.000000 0.000000 0.000000 1.168770
    28 1.038631 0.548043 -0.144017 -0.000001 0.000001 -1.849906
    29 -0.064003 -0.023521 0.026161 0.000000 0.000000 0.000000
    30 3.013925 3.984634 -0.088975 -0.000001 0.000001 -1.849906
    31 -0.084188 -0.025627 -0.001098 0.000000 0.000000 0.000000
    32 4.778187 3.972486 -0.079803 -0.000001 0.000001 -1.849906
    33 -0.058556 -0.021324 0.004244 0.000000 0.000000 0.000000
    34 1.640598 -1.968779 -0.099219 -0.000001 0.000001 -1.849906
    35 0.055573 -0.028908 0.000000 0.000000 0.000000 0.000000
    36 1.646738 0.449549 -1.702246 0.154002 0.442277 0.277235
    37 0.928312 0.000000 -0.000002 0.000000 0.000000 0.000000
    38 0.928314 0.000000 0.000001 0.000000 0.000000 0.000000
    39 1.533672 0.109715 1.664491 -0.264755 -0.055959 0.783109
    40 0.928313 0.000000 0.000000 0.000000 0.000000 -0.453556
    41 0.928314 0.000000 0.000001 0.000000 0.000000 0.000000
  time 9
    0 0.235347 0.367732 3.528927 0.000000 0.000000 -1.570874
    1 0.000000 0.000000 0.000000 -1.570795 -1.570796 0.000000
    2 -0.000005 0.000007 3.713255 0.003204 3.158916 -0.091346
    3 18.045721 0.000000 0.000000 0.000000 0.000000 -0.243578
    4 17.597597 0.000000 0.000000 -0.001675 -0.017562 0.152262
    5 0.000005 -0.000003 -3.713255 0.355071 -3.167219 -0.017370
    6 18.045725 0.000000 0.000000 0.000000 0.000000 -0.267079
    7 17.597597 0.000000 0.000000 0.202642 0.018017 0.241891
    8 1.293670 0.684478 -0.000001 -0.000004 -0.000001 -0.147611
    9 5.309685 -0.003834 0.000000 -0.261194 -0.017833 -0.067442
    10 4.826790 -0.004591 0.000000 0.000000 0.000000 -0.071668
    11 5.792767 -0.005304 0.000000 0.000000 0.000000 0.017444
    12 6.662317 -0.001453 0.000000 0.000000 -0.000001 0.209228
    13 2.046985 -0.000002 0.000000 0.257593 0.047191 -0.263200
    14 -3.397189 0.661759 4.341911 0.907904 -1.179621 2.062148
    15 4.827230 0.000000 0.000001 -0.520171 0.954362 -1.191377
    16 11.139763 0.000000 0.000000 0.000000 0.000000 -1.933004
    17 10.314597 0.000001 0.000000 -1.068107 -0.403254 -0.135284
    18 2.975834 -0.386307 -0.044143 0.001097 -0.043611 -0.043588
    19 1.438886 0.000000 0.000000 0.000000 0.000000 1.334476
    20 1.485303 0.000000 0.000000 0.000000 0.000000 0.793705
    21 -3.131625 0.610576 -4.140396 -1.137165 1.027358 1.856683
    22 4.972048 0.000000 0.000001 -0.177310 -1.025783 0.389274
    23 11.585355 0.000000 0.000000 0.000000 0.000000 -2.415464
    24 10.127057 0.000000 0.000001 1.510254 0.765311 -0.200791
    25 2.683750 -0.427338 0.044205 -0.005786 0.043239 -0.157091
    26 1.438885 -0.000001 0.000000 0.000000 0.000000 0.732658
    27 1.485305 0.000001 0.000000 0.000000 0.000000 1.168770
    28 1.038631 0.548043 -0.144017 -0.000001 0.000001 -1.849906
    29 -0.064003 -0.023521 0.026161 0.000000 0.000000 0.000000
    30 3.013925 3.984634 -0.088975 -0.000001 0.000001 -1.849906
    31 -0.084188 -0.025627 -0.001098 0.000000 0.000000 0.000000
    32 4.778187 3.972486 -0.079803 -0.000001 0.000001 -1.849906
    33 -0.058556 -0.021324 0.004244 0.000000 0.000000 0.000000
    34 1.640598 -1.968779 -0.099219 -0.000001 0.000001 -1.849906
    35 0.055573 -0.028908 0.000000 0.000000 0.000000 0.000000
    36 1.646738 0.449549 -1.702246 0.154002 0.442277 0.277235
    37 0.928312 0.000000 -0.000002 0.000000 0.000000 0.000000
    38 0.928314 0.000000 0.000001 0.000000 0.000000 0.000000
    39 1.533672 0.109715 1.664491 -0.264755 -0.055959 0.783109
    40 0.928313 0.000000 0.000000 0.000000 0.000000 -0.453556
    41 0.928314 0.000000 0.000001 0.000000 0.000000 0.000000
  time 10
    0 0.235347 0.367732 3.528927 0.000000 0.000000 -1.570874
    1 0.000000 0.000000 0.000000 -1.570795 -1.570796 0.000000
    2 -0.000005 0.000007 3.713255 0.003204 3.158916 -0.091346
    3 18.045721 0.000000 0.000000 0.000000 0.000000 -0.243578
    4 17.597597 0.000000 0.000000 -0.001675 -0.017562 0.152262
    5 0.000005 -0.000003 -3.713255 0.355071 -3.167219 -0.017370
    6 18.045725 0.000000 0.000000 0.000000 0.000000 -0.267079
    7 17.597597 0.000000 0.000000 0.202642 0.018017 0.241891
    8 1.293670 0.684478 -0.000001 -0.000004 -0.000001 -0.147611
    9 5.309685 -0.003834 0.000000 -0.261194 -0.017833 -0.067442
    10 4.826790 -0.004591 0.000000 0.000000 0.000000 -0.068824
    11 5.792767 -0.005304 0.000000 0.000000 0.000000 0.017444
    12 6.662317 -0.001453 0.000000 0.000000 -0.000001 0.209228
    13 2.046985 -0.000002 0.000000 0.257593 0.047191 -0.266077
    14 -3.397189 0.661759 4.341911 0.897071 -1.176082 2.073845
    15 4.827230 0.000000 0.000001 -0.511360 0.949511 -1.184901
    16 11.139763 0.000000 0.000000 0.000000 0.000000 -1.933004
    17 10.314597 0.000001 0.000000 -1.068107 -0.403254 -0.135284
    18 2.975834 -0.386307 -0.044143 0.001097 -0.043611 -0.043588
    19 1.438886 0.000000 0.000000 0.000000 0.000000 1.334476
    20 1.485303 0.000000 0.000000 0.000000 0.000000 0.793705
    21 -3.131625 0.610576 -4.140396 -1.128632 1.024927 1.866654
    22 4.972048 0.000000 0.000001 -0.167950 -1.020152 0.380645
    23 11.585355 0.000000 0.000000 0.000000 0.000000 -2.415464
    24 10.127057 0.000000 0.000001 1.510254 0.765311 -0.200791
    25 2.683750 -0.427338 0.044205 -0.005786 0.043239 -0.157091
    26 1.438885 -0.000001 0.000000 0.000000 0.000000 0.732658
    27 1.485305 0.000001 0.000000 0.000000 0.000000 1.168770
    28 1.038631 0.548043 -0.144017 -0.000001 0.000001 -1.849906
    29 -0.064003 -0.023521 0.026161 0.000000 0.000000 0.000000
    30 3.013925 3.984634 -0.088975 -0.000001 0.000001 -1.849906
    31 -0.084188 -0.025627 -0.001098 0.000000 0.000000 0.000000
    32 4.778187 3.972486 -0.079803 -0.000001 0.000001 -1.849906
    33 -0.058556 -0.021324 0.004244 0.000000 0.000000 0.000000
    34 1.640598 -1.968779 -0.099219 -0.000001 0.000001 -1.849906
    35 0.055573 -0.028908 0.000000 0.000000 0.000000 0.000000
    36 1.646738 0.449549 -1.702246 0.154002 0.442277 0.277235
    37 0.928312 0.000000 -0.000002 0.000000 0.000000 0.000000
    38 0.928314 0.000000 0.000001 0.000000 0.000000 0.000000
    39 1.533672 0.109715 1.664491 -0.264755 -0.055959 0.783109
    40 0.928313 0.000000 0.000000 0.000000 0.000000 -0.453556
    41 0.928314 0.000000 0.000001 0.000000 0.000000 0.000000
  time 11
    0 0.235347 0.367732 3.528927 0.000000 0.000000 -1.570874
    1 0.000000 0.000000 0.000000 -1.570795 -1.570796 0.000000
    2 -0.000005 0.000007 3.713255 0.003204 3.158916 -0.091346
    3 18.045721 0.000000 0.000000 0.000000 0.000000 -0.243578
    4 17.597597 0.000000 0.000000 -0.001675 -0.017562 0.152262
    5 0.000005 -0.000003 -3.713255 0.355071 -3.167219 -0.017370
    6 18.045725 0.000000 0.000000 0.000000 0.000000 -0.267079
    7 17.597597 0.000000 0.000000 0.202642 0.018017 0.241891
    8 1.293670 0.684478 -0.000001 -0.000004 -0.000001 -0.147611
    9 5.309685 -0.003834 0.000000 -0.261194 -0.017833 -0.067442
    10 4.826790 -0.004591 0.000000 0.000000 0.000000 -0.066266
    11 5.792767 -0.005304 0.000000 0.000000 0.000000 0.017444
    12 6.662317 -0.001453 0.000000 0.000000 -0.000001 0.209228
    13 2.046985 -0.000002 0.000000 0.257593 0.047191 -0.268594
    14 -3.397189 0.661759 4.341911 0.887675 -1.172890 2.084103
    15 4.827230 0.000000 0.000001 -0.503607 0.945086 -1.179212
    16 11.139763 0.000000 0.000000 0.000000 0.000000 -1.933004
    17 10.314597 0.000001 0.000000 -1.068107 -0.403254 -0.135284
    18 2.975834 -0.386307 -0.044143 0.001097 -0.043611 -0.043588
    19 1.438886 0.000000 0.000000 0.000000 0.000000 1.334476
    20 1.485303 0.000000 0.000000 0.000000 0.000000 0.793705
    21 -3.131625 0.610576 -4.140396 -1.121058 1.022722 1.875474
    22 4.972048 0.000000 0.000001 -0.159673 -1.015084 0.373003
    23 11.585355 0.000000 0.000000 0.000000 0.000000 -2.415464
    24 10.127057 0.000000 0.000001 1.510254 0.765311 -0.200791
    25 2.683750 -0.427338 0.044205 -0.005786 0.043239 -0.157091
    26 1.438885 -0.000001 0.000000 0.000000 0.000000 0.732658
    27 1.485305 0.000001 0.000000 0.000000 0.000000 1.168770
    28 1.038631 0.548043 -0.144017 -0.000001 0.000001 -1.849906
    29 -0.064003 -0.023521 0.026161 0.000000 0.000000 0.000000
    30 3.013925 3.984634 -0.088975 -0.000001 0.000001 -1.849906
    31 -0.084188 -0.025627 -0.001098 0.000000 0.000000 0.000000
    32 4.778187 3.972486 -0.079803 -0.000001 0.000001 -1.849906
    33 -0.058556 -0.021324 0.004244 0.000000 0.000000 0.000000
    34 1.640598 -1.968779 -0.099219 -0.000001 0.000001 -1.849906
    35 0.055573 -0.028908 0.000000 0.000000 0.000000 0.000000
    36 1.646738 0.449549 -1.702246 0.154002 0.442277 0.277235
    37 0.928312 0.000000 -0.000002 0.000000 0.000000 0.000000
    38 0.928314 0.000000 0.000001 0.000000 0.000000 0.000000
    39 1.533672 0.109715 1.664491 -0.264755 -0.055959 0.783109
    40 0.928313 0.000000 0.000000 0.000000 0.000000 -0.453556
    41 0.928314 0.000000 0.000001 0.000000 0.000000 0.000000
  time 12
    0 0.235347 0.367732 3.528927 0.000000 0.000000 -1.570874
    1 0.000000 0.000000 0.000000 -1.570795 -1.570796 0.000000
    2 -0.000005 0.000007 3.713255 0.003204 3.158916 -0.091346
    3 18.045721 0.000000 0.000000 0.000000 0.000000 -0.243578
    4 17.597597 0.000000 0.000000 -0.001675 -0.017562 0.152262
    5 0.000005 -0.000003 -3.713255 0.355071 -3.167219 -0.017370
    6 18.045725 0.000000 0.000000 0.000000 0.000000 -0.267079
    7 17.597597 0.000000 0.000000 0.202642 0.018017 0.241891
    8 1.293670 0.684478 -0.000001 -0.000004 -0.000001 -0.147611
    9 5.309685 -0.003834 0.000000 -0.261194 -0.017833 -0.067442
    10 4.826790 -0.004591 0.000000 0.000000 0.000000 -0.064127
    11 5.792767 -0.005304 0.000000 0.000000 0.000000 0.017444
    12 6.662317 -0.001453 0.000000 0.000000 -0.000001 0.209228
    13 2.046985 -0.000002 0.000000 0.257593 0.047191 -0.270752
    14 -3.397189 0.661759 4.341911 0.879813 -1.170158 2.092636
    15 4.827230 0.000000 0.000001 -0.497146 0.941427 -1.174574
    16 11.139763 0.000000 0.000000 0.000000 0.000000 -1.933004
    17 10.314597 0.000001 0.000000 -1.068107 -0.403254 -0.135284
    18 2.975834 -0.386307 -0.044143 0.001097 -0.043611 -0.043588
    19 1.438886 0.000000 0.000000 0.000000 0.000000 1.334476
    20 1.485303 0.000000 0.000000 0.000000 0.000000 0.793705
    21 -3.131625 0.610576 -4.140396 -1.114826 1.020857 1.882857
    22 4.972048 0.000000 0.000001 -0.152866 -1.010821 0.366746
    23 11.585355 0.000000 0.000000 0.000000 0.000000 -2.415464
    24 10.127057 0.000000 0.000001 1.510254 0.765311 -0.200791
    25 2.683750 -0.427338 0.044205 -0.005786 0.043239 -0.157091
    26 1.438885 -0.000001 0.000000 0.000000 0.000000 0.732658
    27 1.485305 0.000001 0.000000 0.000000 0.000000 1.168770
    28 1.038631 0.548043 -0.144017 -0.000001 0.000001 -1.849906
    29 -0.064003 -0.023521 0.026161 0.000000 0.000000 0.000000
    30 3.013925 3.984634 -0.088975 -0.000001 0.000001 -1.849906
    31 -0.084188 -0.025627 -0.001098 0.000000 0.000000 0.000000
    32 4.778187 3.972486 -0.079803 -0.000001 0.000001 -1.849906
    33 -0.058556 -0.021324 0.004244 0.000000 0.000000 0.000000
    34 1.640598 -1.968779 -0.099219 -0.000001 0.000001 -1.849906
    35 0.055573 -0.028908 0.000000 0.000000 0.000000 0.000000
    36 1.646738 0.449549 -1.702246 0.154002 0.442277 0.277235
    37 0.928312 0.000000 -0.000002 0.000000 0.000000 0.000000
    38 0.928314 0.000000 0.000001 0.000000 0.000000 0.000000
    39 1.533672 0.109715 1.664491 -0.264755 -0.055959 0.783109
    40 0.928313 0.000000 0.000000 0.000000 0.000000 -0.453556
    41 0.928314 0.000000 0.000001 0.000000 0.000000 0.000000
  time 13
    0 0.235347 0.367732 3.528927 0.000000 0.000000 -1.570874
    1 0.000000 0.000000 0.000000 -1.570795 -1.570796 0.000000
    2 -0.000005 0.000007 3.713255 0.003204 3.158916 -0.091346
    3 18.045721 0.000000 0.000000 0.000000 0.000000 -0.243578
    4 17.597597 0.000000 0.000000 -0.001675 -0.017562 0.152262
    5 0.000005 -0.000003 -3.713255 0.355071 -3.167219 -0.017370
    6 18.045725 0.000000 0.000000 0.000000 0.000000 -0.267079
    7 17.597597 0.000000 0.000000 0.202642 0.018017 0.241891
    8 1.293670 0.684478 -0.000001 -0.000004 -0.000001 -0.147611
    9 5.309685 -0.003834 0.000000 -0.261194 -0.017833 -0.067442
    10 4.826790 -0.004591 0.000000 0.000000 0.000000 -0.062496
    11 5.792767 -0.005304 0.000000 0.000000 0.000000 0.017444
    12 6.662317 -0.001453 0.000000 0.000000 -0.000001 0.209228
    13 2.046985 -0.000002 0.000000 0.257593 0.047191 -0.272370
    14 -3.397189 0.661759 4.341911 0.873869 -1.168081 2.099060
    15 4.827230 0.000000 0.000001 -0.492271 0.938533 -1.170986
    16 11.139763 0.000000 0.000000 0.000000 0.000000 -1.933004
    17 10.314597 0.000001 0.000000 -1.068107 -0.403254 -0.135284
    18 2.975834 -0.386307 -0.044143 0.001097 -0.043611 -0.043588
    19 1.438886 0.000000 0.000000 0.000000 0.000000 1.334476
    20 1.485303 0.000000 0.000000 0.000000 0.000000 0.793705
    21 -3.131625 0.610576 -4.140396 -1.110033 1.019415 1.888513
    22 4.972048 0.000000 0.000001 -0.147683 -1.007603 0.362003
    23 11.585355 0.000000 0.000000 0.000000 0.000000 -2.415464
    24 10.127057 0.000000 0.000001 1.510254 0.765311 -0.200791
    25 2.683750 -0.427338 0.044205 -0.005786 0.043239 -0.157091
    26 1.438885 -0.000001 0.000000 0.000000 0.000000 0.732658
    27 1.485305 0.000001 0.000000 0.000000 0.000000 1.168770
    28 1.038631 0.548043 -0.144017 -0.000001 0.000001 -1.849906
    29 -0.064003 -0.023521 0.026161 0.000000 0.000000 0.000000
    30 3.013925 3.984634 -0.088975 -0.000001 0.000001 -1.849906
    31 -0.084188 -0.025627 -0.001098 0.000000 0.000000 0.000000
    32 4.778187 3.972486 -0.079803 -0.000001 0.000001 -1.849906
    33 -0.058556 -0.021324 0.004244 0.000000 0.000000 0.000000
    34 1.640598 -1.968779 -0.099219 -0.000001 0.000001 -1.849906
    35 0.055573 -0.028908 0.000000 0.000000 0.000000 0.000000
    36 1.646738 0.449549 -1.702246 0.154002 0.442277 0.277235
    37 0.928312 0.000000 -0.000002 0.000000 0.000000 0.000000
    38 0.928314 0.000000 0.000001 0.000000 0.000000 0.000000
    39 1.533672 0.109715 1.664491 -0.264755 -0.055959 0.783109
    40 0.928313 0.000000 0.000000 0.000000 0.000000 -0.453556
    41 0.928314 0.000000 0.000001 0.000000 0.000000 0.000000
  time 14
    0 0.235347 0.367732 3.528927 0.000000 0.000000 -1.570874
    1 0.000000 0.000000 0.000000 -1.570795 -1.570796 0.000000
    2 -0.000005 0.000007 3.713255 0.003204 3.158916 -0.091346
    3 18.045721 0.000000 0.000000 0.000000 0.000000 -0.243578
    4 17.597597 0.000000 0.000000 -0.001675 -0.017562 0.152262
    5 0.000005 -0.000003 -3.713255 0.355071 -3.167219 -0.017370
    6 18.045725 0.000000 0.000000 0.000000 0.000000 -0.267079
    7 17.597597 0.000000 0.000000 0.202642 0.018017 0.241891
    8 1.293670 0.684478 -0.000001 -0.000004 -0.000001 -0.147611
    9 5.309685 -0.003834 0.000000 -0.261194 -0.017833 -0.067442
    10 4.826790 -0.004591 0.000000 0.000000 0.000000 -0.061437
    11 5.792767 -0.005304 0.000000 0.000000 0.000000 0.017444
    12 6.662317 -0.001453 0.000000 0.000000 -0.000001 0.209228
    13 2.046985 -0.000002 0.000000 0.257593 0.047191 -0.273448
    14 -3.397189 0.661759 4.341911 0.870034 -1.166696 2.103183
    15 4.827230 0.000000 0.000001 -0.489099 0.936661 -1.168711
    16 11.139763 0.000000 0.000000 0.000000 0.000000 -1.933004
    17 10.314597 0.000001 0.000000 -1.068107 -0.403254 -0.135284
    18 2.975834 -0.386307 -0.044143 0.001097 -0.043611 -0.043588
    19 1.438886 0.000000 0.000000 0.000000 0.000000 1.334476
    20 1.485303 0.000000 0.000000 0.000000 0.000000 0.793705
    21 -3.131625 0.610576 -4.140396 -1.106965 1.018454 1.892060
    22 4.972048 0.000000 0.000001 -0.144434 -1.005431 0.358973
    23 11.585355 0.000000 0.000000 0.000000 0.000000 -2.415464
    24 10.127057 0.000000 0.000001 1.510254 0.765311 -0.200791
    25 2.683750 -0.427338 0.044205 -0.005786 0.043239 -0.157091
    26 1.438885 -0.000001 0.000000 0.000000 0.000000 0.732658
    27 1.485305 0.000001 0.000000 0.000000 0.000000 1.168770
    28 1.038631 0.548043 -0.144017 -0.000001 0.000001 -1.849906
    29 -0.064003 -0.023521 0.026161 0.000000 0.000000 0.000000
    30 3.013925 3.984634 -0.088975 -0.000001 0.000001 -1.849906
    31 -0.084188 -0.025627 -0.001098 0.000000 0.000000 0.000000
    32 4.778187 3.972486 -0.079803 -0.000001 0.000001 -1.849906
    33 -0.058556 -0.021324 0.004244 0.000000 0.000000 0.000000
    34 1.640598 -1.968779 -0.099219 -0.000001 0.000001 -1.849906
    35 0.055573 -0.028908 0.000000 0.000000 0.000000 0.000000
    36 1.646738 0.449549 -1.702246 0.154002 0.442277 0.277235
    37 0.928312 0.000000 -0.000002 0.000000 0.000000 0.000000
    38 0.928314 0.000000 0.000001 0.000000 0.000000 0.000000
    39 1.533672 0.109715 1.664491 -0.264755 -0.055959 0.783109
    40 0.928313 0.000000 0.000000 0.000000 0.000000 -0.453556
    41 0.928314 0.000000 0.000001 0.000000 0.000000 0.000000
  time 15
    0 0.235347 0.367732 3.528927 0.000000 0.000000 -1.570874
    1 0.000000 0.000000 0.000000 -1.570795 -1.570796 0.000000
    2 -0.000005 0.000007 3.713255 0.003204 3.158916 -0.091346
    3 18.045721 0.000000 0.000000 0.000000 0.000000 -0.243578
    4 17.597597 0.000000 0.000000 -0.001675 -0.017562 0.152262
    5 0.000005 -0.000003 -3.713255 0.355071 -3.167219 -0.017370
    6 18.045725 0.000000 0.000000 0.000000 0.000000 -0.267079
    7 17.597597 0.000000 0.000000 0.202642 0.018017 0.241891
    8 1.293670 0.684478 -0.000001 -0.000004 -0.000001 -0.147611
    9 5.309685 -0.003834 0.000000 -0.261194 -0.017833 -0.067442
    10 4.826790 -0.004591 0.000000 0.000000 0.000000 -0.061063
    11 5.792767 -0.005304 0.000000 0.000000 0.000000 0.017444
    12 6.662317 -0.001453 0.000000 0.000000 -0.000001 0.209228
    13 2.046985 -0.000002 0.000000 0.257593 0.047191 -0.273808
    14 -3.397189 0.661759 4.341911 0.868692 -1.166235 2.104621
    15 4.827230 0.000000 0.000001 -0.487983 0.936065 -1.167924
    16 11.139763 0.000000 0.000000 0.000000 0.000000 -1.933004
    17 10.314597 0.000001 0.000000 -1.068107 -0.403254 -0.135284
    18 2.975834 -0.386307 -0.044143 0.001097 -0.043611 -0.043588
    19 1.438886 0.000000 0.000000 0.000000 0.000000 1.334476
    20 1.485303 0.000000 0.000000 0.000000 0.000000 0.793705
    21 -3.131625 0.610576 -4.140396 -1.105910 1.018143 1.893307
    22 4.972048 0.000000 0.000001 -0.143274 -1.004707 0.357919
    23 11.585355 0.000000 0.000000 0.000000 0.000000 -2.415464
    24 10.127057 0.000000 0.000001 1.510254 0.765311 -0.200791
    25 2.683750 -0.427338 0.044205 -0.005786 0.043239 -0.157091
    26 1.438885 -0.000001 0.000000 0.000000 0.000000 0.732658
    27 1.485305 0.000001 0.000000 0.000000 0.000000 1.168770
    28 1.038631 0.548043 -0.144017 -0.000001 0.000001 -1.849906
    29 -0.064003 -0.023521 0.026161 0.000000 0.000000 0.000000
    30 3.013925 3.984634 -0.088975 -0.000001 0.000001 -1.849906
    31 -0.084188 -0.025627 -0.001098 0.000000 0.000000 0.000000
    32 4.778187 3.972486 -0.079803 -0.000001 0.000001 -1.849906
    33 -0.058556 -0.021324 0.004244 0.000000 0.000000 0.000000
    34 1.640598 -1.968779 -0.099219 -0.000001 0.000001 -1.849906
    35 0.055573 -0.028908 0.000000 0.000000 0.000000 0.000000
    36 1.646738 0.449549 -1.702246 0.154002 0.442277 0.277235
    37 0.928312 0.000000 -0.000002 0.000000 0.000000 0.000000
    38 0.928314 0.000000 0.000001 0.000000 0.000000 0.000000
    39 1.533672 0.109715 1.664491 -0.264755 -0.055959 0.783109
    40 0.928313 0.000000 0.000000 0.000000 0.000000 -0.453556
    41 0.928314 0.000000 0.000001 0.000000 0.000000 0.000000
  time 16
    0 0.235347 0.367732 3.528927 0.000000 0.000000 -1.570874
    1 0.000000 0.000000 0.000000 -1.570795 -1.570796 0.000000
    2 -0.000005 0.000007 3.713255 0.003204 3.158916 -0.091346
    3 18.045721 0.000000 0.000000 0.000000 0.000000 -0.243578
    4 17.597597 0.000000 0.000000 -0.001675 -0.017562 0.152262
    5 0.000005 -0.000003 -3.713255 0.355071 -3.167219 -0.017370
    6 18.045725 0.000000 0.000000 0.000000 0.000000 -0.267079
    7 17.597597 0.000000 0.000000 0.202642 0.018017 0.241891
    8 1.293670 0.684478 -0.000001 -0.000004 -0.000001 -0.147611
    9 5.309685 -0.003834 0.000000 -0.261194 -0.017833 -0.067442
    10 4.826790 -0.004591 0.000000 0.000000 0.000000 -0.061437
    11 5.792767 -0.005304 0.000000 0.000000 0.000000 0.017444
    12 6.662317 -0.001453 0.000000 0.000000 -0.000001 0.209228
    13 2.046985 -0.000002 0.000000 0.257593 0.047191 -0.273448
    14 -3.397189 0.661759 4.341911 0.870034 -1.166696 2.103183
    15 4.827230 0.000000 0.000001 -0.489099 0.936661 -1.168711
    16 11.139763 0.000000 0.000000 0.000000 0.000000 -1.933004
    17 10.314597 0.000001 0.000000 -1.068107 -0.403254 -0.135284
    18 2.975834 -0.386307 -0.044143 0.001097 -0.043611 -0.043588
    19 1.438886 0.000000 0.000000 0.000000 0.000000 1.334476
    20 1.485303 0.000000 0.000000 0.000000 0.000000 0.793705
    21 -3.131625 0.610576 -4.140396 -1.106965 1.018454 1.892060
    22 4.972048 0.000000 0.000001 -0.144434 -1.005431 0.358973
    23 11.585355 0.000000 0.000000 0.000000 0.000000 -2.415464
    24 10.127057 0.000000 0.000001 1.510254 0.765311 -0.200791
    25 2.683750 -0.427338 0.044205 -0.005786 0.043239 -0.157091
    26 1.438885 -0.000001 0.000000 0.000000 0.000000 0.732658
    27 1.485305 0.000001 0.000000 0.000000 0.000000 1.168770
    28 1.038631 0.548043 -0.144017 -0.000001 0.000001 -1.849906
    29 -0.064003 -0.023521 0.026161 0.000000 0.000000 0.000000
    30 3.013925 3.984634 -0.088975 -0.000001 0.000001 -1.849906
    31 -0.084188 -0.025627 -0.001098 0.000000 0.000000 0.000000
    32 4.778187 3.972486 -0.079803 -0.000001 0.000001 -1.849906
    33 -0.058556 -0.021324 0.004244 0.000000 0.000000 0.000000
    34 1.640598 -1.968779 -0.099219 -0.000001 0.000001 -1.849906
    35 0.055573 -0.028908 0.000000 0.000000 0.000000 0.000000
    36 1.646738 0.449549 -1.702246 0.154002 0.442277 0.277235
    37 0.928312 0.000000 -0.000002 0.000000 0.000000 0.000000
    38 0.928314 0.000000 0.000001 0.000000 0.000000 0.000000
    39 1.533672 0.109715 1.664491 -0.264755 -0.055959 0.783109
    40 0.928313 0.000000 0.000000 0.000000 0.000000 -0.453556
    41 0.928314 0.000000 0.000001 0.000000 0.000000 0.000000
  time 17
    0 0.235347 0.367732 3.528927 0.000000 0.000000 -1.570874
    1 0.000000 0.000000 0.000000 -1.570795 -1.570796 0.000000
    2 -0.000005 0.000007 3.713255 0.003204 3.158916 -0.091346
    3 18.045721 0.000000 0.000000 0.000000 0.000000 -0.243578
    4 17.597597 0.000000 0.000000 -0.001675 -0.017562 0.152262
    5 0.000005 -0.000003 -3.713255 0.355071 -3.167219 -0.017370
    6 18.045725 0.000000 0.000000 0.000000 0.000000 -0.267079
    7 17.597597 0.000000 0.000000 0.202642 0.018017 0.241891
    8 1.293670 0.684478 -0.000001 -0.000004 -0.000001 -0.147611
    9 5.309685 -0.003834 0.000000 -0.261194 -0.017833 -0.067442
    10 4.826790 -0.004591 0.000000 0.000000 0.000000 -0.062496
    11 5.792767 -0.005304 0.000000 0.000000 0.000000 0.017444
    12 6.662317 -0.001453 0.000000 0.000000 -0.000001 0.209228
    13 2.046985 -0.000002 0.000000 0.257593 0.047191 -0.272370
    14 -3.397189 0.661759 4.341911 0.873869 -1.168081 2.099060
    15 4.827230 0.000000 0.000001 -0.492271 0.938533 -1.170986
    16 11.139763 0.000000 0.000000 0.000000 0.000000 -1.933004
    17 10.314597 0.000001 0.000000 -1.068107 -0.403254 -0.135284
    18 2.975834 -0.386307 -0.044143 0.001097 -0.043611 -0.043588
    19 1.438886 0.000000 0.000000 0.000000 0.000000 1.334476
    20 1.485303 0.000000 0.000000 0.000000 0.000000 0.793705
    21 -3.131625 0.610576 -4.140396 -1.110033 1.019415 1.888513
    22 4.972048 0.000000 0.000001 -0.147683 -1.007603 0.362003
    23 11.585355 0.000000 0.000000 0.000000 0.000000 -2.415464
    24 10.127057 0.000000 0.000001 1.510254 0.765311 -0.200791
    25 2.683750 -0.427338 0.044205 -0.005786 0.043239 -0.157091
    26 1.438885 -0.000001 0.000000 0.000000 0.000000 0.732658
    27 1.485305 0.000001 0.000000 0.000000 0.000000 1.168770
    28 1.038631 0.548043 -0.144017 -0.000001 0.000001 -1.849906
    29 -0.064003 -0.023521 0.026161 0.000000 0.000000 0.000000
    30 3.013925 3.984634 -0.088975 -0.000001 0.000001 -1.849906
    31 -0.084188 -0.025627 -0.001098 0.000000 0.000000 0.000000
    32 4.778187 3.972486 -0.079803 -0.000001 0.000001 -1.849906
    33 -0.058556 -0.021324 0.004244 0.000000 0.000000 0.000000
    34 1.640598 -1.968779 -0.099219 -0.000001 0.000001 -1.849906
    35 0.055573 -0.028908 0.000000 0.000000 0.000000 0.000000
    36 1.646738 0.449549 -1.702246 0.154002 0.442277 0.277235
    37 0.928312 0.000000 -0.000002 0.000000 0.000000 0.000000
    38 0.928314 0.000000 0.000001 0.000000 0.000000 0.000000
    39 1.533672 0.109715 1.664491 -0.264755 -0.055959 0.783109
    40 0.928313 0.000000 0.000000 0.000000 0.000000 -0.453556
    41 0.928314 0.000000 0.000001 0.000000 0.000000 0.000000
  time 18
    0 0.235347 0.367732 3.528927 0.000000 0.000000 -1.570874
    1 0.000000 0.000000 0.000000 -1.570795 -1.570796 0.000000
    2 -0.000005 0.000007 3.713255 0.003204 3.158916 -0.091346
    3 18.045721 0.000000 0.000000 0.000000 0.000000 -0.243578
    4 17.597597 0.000000 0.000000 -0.001675 -0.017562 0.152262
    5 0.000005 -0.000003 -3.713255 0.355071 -3.167219 -0.017370
    6 18.045725 0.000000 0.000000 0.000000 0.000000 -0.267079
    7 17.597597 0.000000 0.000000 0.202642 0.018017 0.241891
    8 1.293670 0.684478 -0.000001 -0.000004 -0.000001 -0.147611
    9 5.309685 -0.003834 0.000000 -0.261194 -0.017833 -0.067442
    10 4.826790 -0.004591 0.000000 0.000000 0.000000 -0.064127
    11 5.792767 -0.005304 0.000000 0.000000 0.000000 0.017444
    12 6.662317 -0.001453 0.000000 0.000000 -0.000001 0.209228
    13 2.046985 -0.000002 0.000000 0.257593 0.047191 -0.270752
    14 -3.397189 0.661759 4.341911 0.879813 -1.170158 2.092636
    15 4.827230 0.000000 0.000001 -0.497146 0.941427 -1.174574
    16 11.139763 0.000000 0.000000 0.000000 0.000000 -1.933004
    17 10.314597 0.000001 0.000000 -1.068107 -0.403254 -0.135284
    18 2.975834 -0.386307 -0.044143 0.001097 -0.043611 -0.043588
    19 1.438886 0.000000 0.000000 0.000000 0.000000 1.334476
    20 1.485303 0.000000 0.000000 0.000000 0.000000 0.793705
    21 -3.131625 0.610576 -4.140396 -1.114826 1.020857 1.882857
    22 4.972048 0.000000 0.000001 -0.152866 -1.010821 0.366746
    23 11.585355 0.000000 0.000000 0.000000 0.000000 -2.415464
    24 10.127057 0.000000 0.000001 1.510254 0.765311 -0.200791
    25 2.683750 -0.427338 0.044205 -0.005786 0.043239 -0.157091
    26 1.438885 -0.000001 0.000000 0.000000 0.000000 0.732658
    27 1.485305 0.000001 0.000000 0.000000 0.000000 1.168770
    28 1.038631 0.548043 -0.144017 -0.000001 0.000001 -1.849906
    29 -0.064003 -0.023521 0.026161 0.000000 0.000000 0.000000
    30 3.013925 3.984634 -0.088975 -0.000001 0.000001 -1.849906
    31 -0.084188 -0.025627 -0.001098 0.000000 0.000000 0.000000
    32 4.778187 3.972486 -0.079803 -0.000001 0.000001 -1.849906
    33 -0.058556 -0.021324 0.004244 0.000000 0.000000 0.000000
    34 1.640598 -1.968779 -0.099219 -0.000001 0.000001 -1.849906
    35 0.055573 -0.028908 0.000000 0.000000 0.000000 0.000000
    36 1.646738 0.449549 -1.702246 0.154002 0.442277 0.277235
    37 0.928312 0.000000 -0.000002 0.000000 0.000000 0.000000
    38 0.928314 0.000000 0.000001 0.000000 0.000000 0.000000
    39 1.533672 0.109715 1.664491 -0.264755 -0.055959 0.783109
    40 0.928313 0.000000 0.000000 0.000000 0.000000 -0.453556
    41 0.928314 0.000000 0.000001 0.000000 0.000000 0.000000
  time 19
    0 0.235347 0.367732 3.528927 0.000000 0.000000 -1.570874
    1 0.000000 0.000000 0.000000 -1.570795 -1.570796 0.000000
    2 -0.000005 0.000007 3.713255 0.003204 3.158916 -0.091346
    3 18.045721 0.000000 0.000000 0.000000 0.000000 -0.243578
    4 17.597597 0.000000 0.000000 -0.001675 -0.017562 0.152262
    5 0.000005 -0.000003 -3.713255 0.355071 -3.167219 -0.017370
    6 18.045725 0.000000 0.000000 0.000000 0.000000 -0.267079
    7 17.597597 0.000000 0.000000 0.202642 0.018017 0.241891
    8 1.293670 0.684478 -0.000001 -0.000004 -0.000001 -0.147611
    9 5.309685 -0.003834 0.000000 -0.261194 -0.017833 -0.067442
    10 4.826790 -0.004591 0.000000 0.000000 0.000000 -0.066266
    11 5.792767 -0.005304 0.000000 0.000000 0.000000 0.017444
    12 6.662317 -0.001453 0.000000 0.000000 -0.000001 0.209228
    13 2.046985 -0.000002 0.000000 0.257593 0.047191 -0.268594
    14 -3.397189 0.661759 4.341911 0.887675 -1.172890 2.084103
    15 4.827230 0.000000 0.000001 -0.503607 0.945086 -1.179212
    16 11.139763 0.000000 0.000000 0.000000 0.000000 -1.933004
    17 10.314597 0.000001 0.000000 -1.068107 -0.403254 -0.135284
    18 2.975834 -0.386307 -0.044143 0.001097 -0.043611 -0.043588
    19 1.438886 0.000000 0.000000 0.000000 0.000000 1.334476
    20 1.485303 0.000000 0.000000 0.000000 0.000000 0.793705
    21 -3.131625 0.610576 -4.140396 -1.121058 1.022722 1.875474
    22 4.972048 0.000000 0.000001 -0.159673 -1.015084 0.373003
    23 11.585355 0.000000 0.000000 0.000000 0.000000 -2.415464
    24 10.127057 0.000000 0.000001 1.510254 0.765311 -0.200791
    25 2.683750 -0.427338 0.044205 -0.005786 0.043239 -0.157091
    26 1.438885 -0.000001 0.000000 0.000000 0.000000 0.732658
    27 1.485305 0.000001 0.000000 0.000000 0.000000 1.168770
    28 1.038631 0.548043 -0.144017 -0.000001 0.000001 -1.849906
    29 -0.064003 -0.023521 0.026161 0.000000 0.000000 0.000000
    30 3.013925 3.984634 -0.088975 -0.000001 0.000001 -1.849906
    31 -0.084188 -0.025627 -0.001098 0.000000 0.000000 0.000000
    32 4.778187 3.972486 -0.079803 -0.000001 0.000001 -1.849906
    33 -0.058556 -0.021324 0.004244 0.000000 0.000000 0.000000
    34 1.640598 -1.968779 -0.099219 -0.000001 0.000001 -1.849906
    35 0.055573 -0.028908 0.000000 0.000000 0.000000 0.000000
    36 1.646738 0.449549 -1.702246 0.154002 0.442277 0.277235
    37 0.928312 0.000000 -0.000002 0.000000 0.000000 0.000000
    38 0.928314 0.000000 0.000001 0.000000 0.000000 0.000000
    39 1.533672 0.109715 1.664491 -0.264755 -0.055959 0.783109
    40 0.928313 0.000000 0.000000 0.000000 0.000000 -0.453556
    41 0.928314 0.000000 0.000001 0.000000 0.000000 0.000000
  time 20
    0 0.235347 0.367732 3.528927 0.000000 0.000000 -1.570874
    1 0.000000 0.000000 0.000000 -1.570795 -1.570796 0.000000
    2 -0.000005 0.000007 3.713255 0.003204 3.158916 -0.091346
    3 18.045721 0.000000 0.000000 0.000000 0.000000 -0.243578
    4 17.597597 0.000000 0.000000 -0.001675 -0.017562 0.152262
    5 0.000005 -0.000003 -3.713255 0.355071 -3.167219 -0.017370
    6 18.045725 0.000000 0.000000 0.000000 0.000000 -0.267079
    7 17.597597 0.000000 0.000000 0.202642 0.018017 0.241891
    8 1.293670 0.684478 -0.000001 -0.000004 -0.000001 -0.147611
    9 5.309685 -0.003834 0.000000 -0.261194 -0.017833 -0.067442
    10 4.826790 -0.004591 0.000000 0.000000 0.000000 -0.068824
    11 5.792767 -0.005304 0.000000 0.000000 0.000000 0.017444
    12 6.662317 -0.001453 0.000000 0.000000 -0.000001 0.209228
    13 2.046985 -0.000002 0.000000 0.257593 0.047191 -0.266077
    14 -3.397189 0.661759 4.341911 0.897071 -1.176082 2.073845
    15 4.827230 0.000000 0.000001 -0.511360 0.949511 -1.184901
    16 11.139763 0.000000 0.000000 0.000000 0.000000 -1.933004
    17 10.314597 0.000001 0.000000 -1.068107 -0.403254 -0.135284
    18 2.975834 -0.386307 -0.044143 0.001097 -0.043611 -0.043588
    19 1.438886 0.000000 0.000000 0.000000 0.000000 1.334476
    20 1.485303 0.000000 0.000000 0.000000 0.000000 0.793705
    21 -3.131625 0.610576 -4.140396 -1.128632 1.024927 1.866654
    22 4.972048 0.000000 0.000001 -0.167950 -1.020152 0.380645
    23 11.585355 0.000000 0.000000 0.000000 0.000000 -2.415464
    24 10.127057 0.000000 0.000001 1.510254 0.765311 -0.200791
    25 2.683750 -0.427338 0.044205 -0.005786 0.043239 -0.157091
    26 1.438885 -0.000001 0.000000 0.000000 0.000000 0.732658
    27 1.485305 0.000001 0.000000 0.000000 0.000000 1.168770
    28 1.038631 0.548043 -0.144017 -0.000001 0.000001 -1.849906
    29 -0.064003 -0.023521 0.026161 0.000000 0.000000 0.000000
    30 3.013925 3.984634 -0.088975 -0.000001 0.000001 -1.849906
    31 -0.084188 -0.025627 -0.001098 0.000000 0.000000 0.000000
    32 4.778187 3.972486 -0.079803 -0.000001 0.000001 -1.849906
    33 -0.058556 -0.021324 0.004244 0.000000 0.000000 0.000000
    34 1.640598 -1.968779 -0.099219 -0.000001 0.000001 -1.849906
    35 0.055573 -0.028908 0.000000 0.000000 0.000000 0.000000
    36 1.646738 0.449549 -1.702246 0.154002 0.442277 0.277235
    37 0.928312 0.000000 -0.000002 0.000000 0.000000 0.000000
    38 0.928314 0.000000 0.000001 0.000000 0.000000 0.000000
    39 1.533672 0.109715 1.664491 -0.264755 -0.055959 0.783109
    40 0.928313 0.000000 0.000000 0.000000 0.000000 -0.453556
    41 0.928314 0.000000 0.000001 0.000000 0.000000 0.000000
  time 21
    0 0.235347 0.367732 3.528927 0.000000 0.000000 -1.570874
    1 0.000000 0.000000 0.000000 -1.570795 -1.570796 0.000000
    2 -0.000005 0.000007 3.713255 0.003204 3.158916 -0.091346
    3 18.045721 0.000000 0.000000 0.000000 0.000000 -0.243578
    4 17.597597 0.000000 0.000000 -0.001675 -0.017562 0.152262
    5 0.000005 -0.000003 -3.713255 0.355071 -3.167219 -0.017370
    6 18.045725 0.000000 0.000000 0.000000 0.000000 -0.267079
    7 17.597597 0.000000 0.000000 0.202642 0.018017 0.241891
    8 1.293670 0.684478 -0.000001 -0.000004 -0.000001 -0.147611
    9 5.309685 -0.003834 0.000000 -0.261194 -0.017833 -0.067442
    10 4.826790 -0.004591 0.000000 0.000000 0.000000 -0.071668
    11 5.792767 -0.005304 0.000000 0.000000 0.000000 0.017444
    12 6.662317 -0.001453 0.000000 0.000000 -0.000001 0.209228
    13 2.046985 -0.000002 0.000000 0.257593 0.047191 -0.263200
    14 -3.397189 0.661759 4.341911 0.907904 -1.179621 2.062148
    15 4.827230 0.000000 0.000001 -0.520171 0.954362 -1.191377
    16 11.139763 0.000000 0.000000 0.000000 0.000000 -1.933004
    17 10.314597 0.000001 0.000000 -1.068107 -0.403254 -0.135284
    18 2.975834 -0.386307 -0.044143 0.001097 -0.043611 -0.043588
    19 1.438886 0.000000 0.000000 0.000000 0.000000 1.334476
    20 1.485303 0.000000 0.000000 0.000000 0.000000 0.793705
    21 -3.131625 0.610576 -4.140396 -1.137165 1.027358 1.856683
    22 4.972048 0.000000 0.000001 -0.177310 -1.025783 0.389274
    23 11.585355 0.000000 0.000000 0.000000 0.000000 -2.415464
    24 10.127057 0.000000 0.000001 1.510254 0.765311 -0.200791
    25 2.683750 -0.427338 0.044205 -0.005786 0.043239 -0.157091
    26 1.438885 -0.000001 0.000000 0.000000 0.000000 0.732658
    27 1.485305 0.000001 0.000000 0.000000 0.000000 1.168770
    28 1.038631 0.548043 -0.144017 -0.000001 0.000001 -1.849906
    29 -0.064003 -0.023521 0.026161 0.000000 0.000000 0.000000
    30 3.013925 3.984634 -0.088975 -0.000001 0.000001 -1.849906
    31 -0.084188 -0.025627 -0.001098 0.000000 0.000000 0.000000
    32 4.778187 3.972486 -0.079803 -0.000001 0.000001 -1.849906
    33 -0.058556 -0.021324 0.004244 0.000000 0.000000 0.000000
    34 1.640598 -1.968779 -0.099219 -0.000001 0.000001 -1.849906
    35 0.055573 -0.028908 0.000000 0.000000 0.000000 0.000000
    36 1.646738 0.449549 -1.702246 0.154002 0.442277 0.277235
    37 0.928312 0.000000 -0.000002 0.000000 0.000000 0.000000
    38 0.928314 0.000000 0.000001 0.000000 0.000000 0.000000
    39 1.533672 0.109715 1.664491 -0.264755 -0.055959 0.783109
    40 0.928313 0.000000 0.000000 0.000000 0.000000 -0.453556
    41 0.928314 0.000000 0.000001 0.000000 0.000000 0.000000
  time 22
    0 0.235347 0.367732 3.528927 0.000000 0.000000 -1.570874
    1 0.000000 0.000000 0.000000 -1.570795 -1.570796 0.000000
    2 -0.000005 0.000007 3.713255 0.003204 3.158916 -0.091346
    3 18.045721 0.000000 0.000000 0.000000 0.000000 -0.243578
    4 17.597597 0.000000 0.000000 -0.001675 -0.017562 0.152262
    5 0.000005 -0.000003 -3.713255 0.355071 -3.167219 -0.017370
    6 18.045725 0.000000 0.000000 0.000000 0.000000 -0.267079
    7 17.597597 0.000000 0.000000 0.202642 0.018017 0.241891
    8 1.293670 0.684478 -0.000001 -0.000004 -0.000001 -0.147611
    9 5.309685 -0.003834 0.000000 -0.261194 -0.017833 -0.067442
    10 4.826790 -0.004591 0.000000 0.000000 0.000000 -0.074733
    11 5.792767 -0.005304 0.000000 0.000000 0.000000 0.017444
    12 6.662317 -0.001453 0.000000 0.000000 -0.000001 0.209228
    13 2.046985 -0.000002 0.000000 0.257593 0.047191 -0.260144
    14 -3.397189 0.661759 4.341911 0.919793 -1.183352 2.049300
    15 4.827230 0.000000 0.000001 -0.529745 0.959638 -1.198552
    16 11.139763 0.000000 0.000000 0.000000 0.000000 -1.933004
    17 10.314597 0.000001 0.000000 -1.068107 -0.403254 -0.135284
    18 2.975834 -0.386307 -0.044143 0.001097 -0.043611 -0.043588
    19 1.438886 0.000000 0.000000 0.000000 0.000000 1.334476
    20 1.485303 0.000000 0.000000 0.000000 0.000000 0.793705
    21 -3.131625 0.610576 -4.140396 -1.146464 1.029901 1.845850
    22 4.972048 0.000000 0.000001 -0.187675 -1.031735 0.398825
    23 11.585355 0.000000 0.000000 0.000000 0.000000 -2.415464
    24 10.127057 0.000000 0.000001 1.510254 0.765311 -0.200791
    25 2.683750 -0.427338 0.044205 -0.005786 0.043239 -0.157091
    26 1.438885 -0.000001 0.000000 0.000000 0.000000 0.732658
    27 1.485305 0.000001 0.000000 0.000000 0.000000 1.168770
    28 1.038631 0.548043 -0.144017 -0.000001 0.000001 -1.849906
    29 -0.064003 -0.023521 0.026161 0.000000 0.000000 0.000000
    30 3.013925 3.984634 -0.088975 -0.000001 0.000001 -1.849906
    31 -0.084188 -0.025627 -0.001098 0.000000 0.000000 0.000000
    32 4.778187 3.972486 -0.079803 -0.000001 0.000001 -1.849906
    33 -0.058556 -0.021324 0.004244 0.000000 0.000000 0.000000
    34 1.640598 -1.968779 -0.099219 -0.000001 0.000001 -1.849906
    35 0.055573 -0.028908 0.000000 0.000000 0.000000 0.000000
    36 1.646738 0.449549 -1.702246 0.154002 0.442277 0.277235
    37 0.928312 0.000000 -0.000002 0.000000 0.000000 0.000000
    38 0.928314 0.000000 0.000001 0.000000 0.000000 0.000000
    39 1.533672 0.109715 1.664491 -0.264755 -0.055959 0.783109
    40 0.928313 0.000000 0.000000 0.000000 0.000000 -0.453556
    41 0.928314 0.000000 0.000001 0.000000 0.000000 0.000000
  time 23
    0 0.235347 0.367732 3.528927 0.000000 0.000000 -1.570874
    1 0.000000 0.000000 0.000000 -1.570795 -1.570796 0.000000
    2 -0.000005 0.000007 3.713255 0.003204 3.158916 -0.091346
    3 18.045721 0.000000 0.000000 0.000000 0.000000 -0.243578
    4 17.597597 0.000000 0.000000 -0.001675 -0.017562 0.152262
    5 0.000005 -0.000003 -3.713255 0.355071 -3.167219 -0.017370
    6 18.045725 0.000000 0.000000 0.000000 0.000000 -0.267079
    7 17.597597 0.000000 0.000000 0.202642 0.018017 0.241891
    8 1.293670 0.684478 -0.000001 -0.000004 -0.000001 -0.147611
    9 5.309685 -0.003834 0.000000 -0.261194 -0.017833 -0.067442
    10 4.826790 -0.004591 0.000000 0.000000 0.000000 -0.077930
    11 5.792767 -0.005304 0.000000 0.000000 0.000000 0.017444
    12 6.662317 -0.001453 0.000000 0.000000 -0.000001 0.209228
    13 2.046985 -0.000002 0.000000 0.257593 0.047191 -0.256953
    14 -3.397189 0.661759 4.341911 0.932352 -1.187199 2.035782
    15 4.827230 0.000000 0.000001 -0.539906 0.965000 -1.206166
    16 11.139763 0.000000 0.000000 0.000000 0.000000 -1.933004
    17 10.314597 0.000001 0.000000 -1.068107 -0.403254 -0.135284
    18 2.975834 -0.386307 -0.044143 0.001097 -0.043611 -0.043588
    19 1.438886 0.000000 0.000000 0.000000 0.000000 1.334476
    20 1.485303 0.000000 0.000000 0.000000 0.000000 0.793705
    21 -3.131625 0.610576 -4.140396 -1.156148 1.032502 1.834537
    22 4.972048 0.000000 0.000001 -0.198737 -1.037929 0.408970
    23 11.585355 0.000000 0.000000 0.000000 0.000000 -2.415464
    24 10.127057 0.000000 0.000001 1.510254 0.765311 -0.200791
    25 2.683750 -0.427338 0.044205 -0.005786 0.043239 -0.157091
    26 1.438885 -0.000001 0.000000 0.000000 0.000000 0.732658
    27 1.485305 0.000001 0.000000 0.000000 0.000000 1.168770
    28 1.038631 0.548043 -0.144017 -0.000001 0.000001 -1.849906
    29 -0.064003 -0.023521 0.026161 0.000000 0.000000 0.000000
    30 3.013925 3.984634 -0.088975 -0.000001 0.000001 -1.849906
    31 -0.084188 -0.025627 -0.001098 0.000000 0.000000 0.000000
    32 4.778187 3.972486 -0.079803 -0.000001 0.000001 -1.849906
    33 -0.058556 -0.021324 0.004244 0.000000 0.000000 0.000000
    34 1.640598 -1.968779 -0.099219 -0.000001 0.000001 -1.849906
    35 0.055573 -0.028908 0.000000 0.000000 0.000000 0.000000
    36 1.646738 0.449549 -1.702246 0.154002 0.442277 0.277235
    37 0.928312 0.000000 -0.000002 0.000000 0.000000 0.000000
    38 0.928314 0.000000 0.000001 0.000000 0.000000 0.000000
    39 1.533672 0.109715 1.664491 -0.264755 -0.055959 0.783109
    40 0.928313 0.000000 0.000000 0.000000 0.000000 -0.453556
    41 0.928314 0.000000 0.000001 0.000000 0.000000 0.000000
  time 24
    0 0.235347 0.367732 3.528927 0.000000 0.000000 -1.570874
    1 0.000000 0.000000 0.000000 -1.570795 -1.570796 0.000000
    2 -0.000005 0.000007 3.713255 0.003204 3.158916 -0.091346
    3 18.045721 0.000000 0.000000 0.000000 0.000000 -0.243578
    4 17.597597 0.000000 0.000000 -0.001675 -0.017562 0.152262
    5 0.000005 -0.000003 -3.713255 0.355071 -3.167219 -0.017370
    6 18.045725 0.000000 0.000000 0.000000 0.000000 -0.267079
    7 17.597597 0.000000 0.000000 0.202642 0.018017 0.241891
    8 1.293670 0.684478 -0.000001 -0.000004 -0.000001 -0.147611
    9 5.309685 -0.003834 0.000000 -0.261194 -0.017833 -0.067442
    10 4.826790 -0.004591 0.000000 0.000000 0.000000 -0.081171
    11 5.792767 -0.005304 0.000000 0.000000 0.000000 0.017444
    12 6.662317 -0.001453 0.000000 0.000000 -0.000001 0.209228
    13 2.046985 -0.000002 0.000000 0.257593 0.047191 -0.253716
    14 -3.397189 0.661759 4.341911 0.945295 -1.191007 2.021784
    15 4.827230 0.000000 0.000001 -0.550244 0.970446 -1.213954
    16 11.139763 0.000000 0.000000 0.000000 0.000000 -1.933004
    17 10.314597 0.000001 0.000000 -1.068107 -0.403254 -0.135284
    18 2.975834 -0.386307 -0.044143 0.001097 -0.043611 -0.043588
    19 1.438886 0.000000 0.000000 0.000000 0.000000 1.334476
    20 1.485303 0.000000 0.000000 0.000000 0.000000 0.793705
    21 -3.131625 0.610576 -4.140396 -1.166118 1.035074 1.822936
    22 4.972048 0.000000 0.000001 -0.210031 -1.044123 0.419378
    23 11.585355 0.000000 0.000000 0.000000 0.000000 -2.415464
    24 10.127057 0.000000 0.000001 1.510254 0.765311 -0.200791
    25 2.683750 -0.427338 0.044205 -0.005786 0.043239 -0.157091
    26 1.438885 -0.000001 0.000000 0.000000 0.000000 0.732658
    27 1.485305 0.000001 0.000000 0.000000 0.000000 1.168770
    28 1.038631 0.548043 -0.144017 -0.000001 0.000001 -1.849906
    29 -0.064003 -0.023521 0.026161 0.000000 0.000000 0.000000
    30 3.013925 3.984634 -0.088975 -0.000001 0.000001 -1.849906
    31 -0.084188 -0.025627 -0.001098 0.000000 0.000000 0.000000
    32 4.778187 3.972486 -0.079803 -0.000001 0.000001 -1.849906
    33 -0.058556 -0.021324 0.004244 0.000000 0.000000 0.000000
    34 1.640598 -1.968779 -0.099219 -0.000001 0.000001 -1.849906
    35 0.055573 -0.028908 0.000000 0.000000 0.000000 0.000000
    36 1.646738 0.449549 -1.702246 0.154002 0.442277 0.277235
    37 0.928312 0.000000 -0.000002 0.000000 0.000000 0.000000
    38 0.928314 0.000000 0.000001 0.000000 0.000000 0.000000
    39 1.533672 0.109715 1.664491 -0.264755 -0.055959 0.783109
    40 0.928313 0.000000 0.000000 0.000000 0.000000 -0.453556
    41 0.928314 0.000000 0.000001 0.000000 0.000000 0.000000
  time 25
    0 0.235347 0.367732 3.528927 0.000000 0.000000 -1.570874
    1 0.000000 0.000000 0.000000 -1.570795 -1.570796 0.000000
    2 -0.000005 0.000007 3.713255 0.003204 3.158916 -0.091346
    3 18.045721 0.000000 0.000000 0.000000 0.000000 -0.243578
    4 17.597597 0.000000 0.000000 -0.001675 -0.017562 0.152262
    5 0.000005 -0.000003 -3.713255 0.355071 -3.167219 -0.017370
    6 18.045725 0.000000 0.000000 0.000000 0.000000 -0.267079
    7 17.597597 0.000000 0.000000 0.202642 0.018017 0.241891
    8 1.293670 0.684478 -0.000001 -0.000004 -0.000001 -0.147611
    9 5.309685 -0.003834 0.000000 -0.261194 -0.017833 -0.067442
    10 4.826790 -0.004591 0.000000 0.000000 0.000000 -0.084324
    11 5.792767 -0.005304 0.000000 0.000000 0.000000 0.017444
    12 6.662317 -0.001453 0.000000 0.000000 -0.000001 0.209228
    13 2.046985 -0.000002 0.000000 0.257593 0.047191 -0.250570
    14 -3.397189 0.661759 4.341911 0.958238 -1.194700 2.007786
    15 4.827230 0.000000 0.000001 -0.560581 0.975722 -1.221830
    16 11.139763 0.000000 0.000000 0.000000 0.000000 -1.933004
    17 10.314597 0.000001 0.000000 -1.068107 -0.403254 -0.135284
    18 2.975834 -0.386307 -0.044143 0.001097 -0.043611 -0.043588
    19 1.438886 0.000000 0.000000 0.000000 0.000000 1.334476
    20 1.485303 0.000000 0.000000 0.000000 0.000000 0.793705
    21 -3.131625 0.610576 -4.140396 -1.175993 1.037533 1.811527
    22 4.972048 0.000000 0.000001 -0.221479 -1.050076 0.429917
    23 11.585355 0.000000 0.000000 0.000000 0.000000 -2.415464
    24 10.127057 0.000000 0.000001 1.510254 0.765311 -0.200791
    25 2.683750 -0.427338 0.044205 -0.005786 0.043239 -0.157091
    26 1.438885 -0.000001 0.000000 0.000000 0.000000 0.732658
    27 1.485305 0.000001 0.000000 0.000000 0.000000 1.168770
    28 1.038631 0.548043 -0.144017 -0.000001 0.000001 -1.849906
    29 -0.064003 -0.023521 0.026161 0.000000 0.000000 0.000000
    30 3.013925 3.984634 -0.088975 -0.000001 0.000001 -1.849906
    31 -0.084188 -0.025627 -0.001098 0.000000 0.000000 0.000000
    32 4.778187 3.972486 -0.079803 -0.000001 0.000001 -1.849906
    33 -0.058556 -0.021324 0.004244 0.000000 0.000000 0.000000
    34 1.640598 -1.968779 -0.099219 -0.000001 0.000001 -1.849906
    35 0.055573 -0.028908 0.000000 0.000000 0.000000 0.000000
    36 1.646738 0.449549 -1.702246 0.154002 0.442277 0.277235
    37 0.928312 0.000000 -0.000002 0.000000 0.000000 0.000000
    38 0.928314 0.000000 0.000001 0.000000 0.000000 0.000000
    39 1.533672 0.109715 1.664491 -0.264755 -0.055959 0.783109
    40 0.928313 0.000000 0.000000 0.000000 0.000000 -0.453556
    41 0.928314 0.000000 0.000001 0.000000 0.000000 0.000000
  time 26
    0 0.235347 0.367732 3.528927 0.000000 0.000000 -1.570874
    1 0.000000 0.000000 0.000000 -1.570795 -1.570796 0.000000
    2 -0.000005 0.000007 3.713255 0.003204 3.158916 -0.091346
    3 18.045721 0.000000 0.000000 0.000000 0.000000 -0.243578
    4 17.597597 0.000000 0.000000 -0.001675 -0.017562 0.152262
    5 0.000005 -0.000003 -3.713255 0.355071 -3.167219 -0.017370
    6 18.045725 0.000000 0.000000 0.000000 0.000000 -0.267079
    7 17.597597 0.000000 0.000000 0.202642 0.018017 0.241891
    8 1.293670 0.684478 -0.000001 -0.000004 -0.000001 -0.147611
    9 5.309685 -0.003834 0.000000 -0.261194 -0.017833 -0.067442
    10 4.826790 -0.004591 0.000000 0.000000 0.000000 -0.087345
    11 5.792767 -0.005304 0.000000 0.000000 0.000000 0.017444
    12 6.662317 -0.001453 0.000000 0.000000 -0.000001 0.209228
    13 2.046985 -0.000002 0.000000 0.257593 0.047191 -0.247559
    14 -3.397189 0.661759 4.341911 0.970893 -1.198123 1.994268
    15 4.827230 0.000000 0.000001 -0.570567 0.980743 -1.229444
    16 11.139763 0.000000 0.000000 0.000000 0.000000 -1.933004
    17 10.314597 0.000001 0.000000 -1.068107 -0.403254 -0.135284
    18 2.975834 -0.386307 -0.044143 0.001097 -0.043611 -0.043588
    19 1.438886 0.000000 0.000000 0.000000 0.000000 1.334476
    20 1.485303 0.000000 0.000000 0.000000 0.000000 0.793705
    21 -3.131625 0.610576 -4.140396 -1.185389 1.039822 1.800502
    22 4.972048 0.000000 0.000001 -0.232541 -1.055787 0.440127
    23 11.585355 0.000000 0.000000 0.000000 0.000000 -2.415464
    24 10.127057 0.000000 0.000001 1.510254 0.765311 -0.200791
    25 2.683750 -0.427338 0.044205 -0.005786 0.043239 -0.157091
    26 1.438885 -0.000001 0.000000 0.000000 0.000000 0.732658
    27 1.485305 0.000001 0.000000 0.000000 0.000000 1.168770
    28 1.038631 0.548043 -0.144017 -0.000001 0.000001 -1.849906
    29 -0.064003 -0.023521 0.026161 0.000000 0.000000 0.000000
    30 3.013925 3.984634 -0.088975 -0.000001 0.000001 -1.849906
    31 -0.084188 -0.025627 -0.001098 0.000000 0.000000 0.000000
    32 4.778187 3.972486 -0.079803 -0.000001 0.000001 -1.849906
    33 -0.058556 -0.021324 0.004244 0.000000 0.000000 0.000000
    34 1.640598 -1.968779 -0.099219 -0.000001 0.000001 -1.849906
    35 0.055573 -0.028908 0.000000 0.000000 0.000000 0.000000
    36 1.646738 0.449549 -1.702246 0.154002 0.442277 0.277235
    37 0.928312 0.000000 -0.000002 0.000000 0.000000 0.000000
    38 0.928314 0.000000 0.000001 0.000000 0.000000 0.000000
    39 1.533672 0.109715 1.664491 -0.264755 -0.055959 0.783109
    40 0.928313 0.000000 0.000000 0.000000 0.000000 -0.453556
    41 0.928314 0.000000 0.000001 0.000000 0.000000 0.000000
  time 27
    0 0.235347 0.367732 3.528927 0.000000 0.000000 -1.570874
    1 0.000000 0.000000 0.000000 -1.570795 -1.570796 0.000000
    2 -0.000005 0.000007 3.713255 0.003204 3.158916 -0.091346
    3 18.045721 0.000000 0.000000 0.000000 0.000000 -0.243578
    4 17.597597 0.000000 0.000000 -0.001675 -0.017562 0.152262
    5 0.000005 -0.000003 -3.713255 0.355071 -3.167219 -0.017370
    6 18.045725 0.000000 0.000000 0.000000 0.000000 -0.267079
    7 17.597597 0.000000 0.000000 0.202642 0.018017 0.241891
    8 1.293670 0.684478 -0.000001 -0.000004 -0.000001 -0.147611
    9 5.309685 -0.003834 0.000000 -0.261194 -0.017833 -0.067442
    10 4.826790 -0.004591 0.000000 0.000000 0.000000 -0.090101
    11 5.792767 -0.005304 0.000000 0.000000 0.000000 0.017444
    12 6.662317 -0.001453 0.000000 0.000000 -0.000001 0.209228
    13 2.046985 -0.000002 0.000000 0.257593 0.047191 -0.244772
    14 -3.397189 0.661759 4.341911 0.982589 -1.201200 1.981708
    15 4.827230 0.000000 0.000001 -0.579847 0.985254 -1.236620
    16 11.139763 0.000000 0.000000 0.000000 0.000000 -1.933004
    17 10.314597 0.000001 0.000000 -1.068107 -0.403254 -0.135284
    18 2.975834 -0.386307 -0.044143 0.001097 -0.043611 -0.043588
    19 1.438886 0.000000 0.000000 0.000000 0.000000 1.334476
    20 1.485303 0.000000 0.000000 0.000000 0.000000 0.793705
    21 -3.131625 0.610576 -4.140396 -1.194209 1.041885 1.790339
    22 4.972048 0.000000 0.000001 -0.242907 -1.060855 0.449679
    23 11.585355 0.000000 0.000000 0.000000 0.000000 -2.415464
    24 10.127057 0.000000 0.000001 1.510254 0.765311 -0.200791
    25 2.683750 -0.427338 0.044205 -0.005786 0.043239 -0.157091
    26 1.438885 -0.000001 0.000000 0.000000 0.000000 0.732658
    27 1.485305 0.000001 0.000000 0.000000 0.000000 1.168770
    28 1.038631 0.548043 -0.144017 -0.000001 0.000001 -1.849906
    29 -0.064003 -0.023521 0.026161 0.000000 0.000000 0.000000
    30 3.013925 3.984634 -0.088975 -0.000001 0.000001 -1.849906
    31 -0.084188 -0.025627 -0.001098 0.000000 0.000000 0.000000
    32 4.778187 3.972486 -0.079803 -0.000001 0.000001 -1.849906
    33 -0.058556 -0.021324 0.004244 0.000000 0.000000 0.000000
    34 1.640598 -1.968779 -0.099219 -0.000001 0.000001 -1.849906
    35 0.055573 -0.028908 0.000000 0.000000 0.000000 0.000000
    36 1.646738 0.449549 -1.702246 0.154002 0.442277 0.277235
    37 0.928312 0.000000 -0.000002 0.000000 0.000000 0.000000
    38 0.928314 0.000000 0.000001 0.000000 0.000000 0.000000
    39 1.533672 0.109715 1.664491 -0.264755 -0.055959 0.783109
    40 0.928313 0.000000 0.000000 0.000000 0.000000 -0.453556
    41 0.928314 0.000000 0.000001 0.000000 0.000000 0.000000
  time 28
    0 0.235347 0.367732 3.528927 0.000000 0.000000 -1.570874
    1 0.000000 0.000000 0.000000 -1.570795 -1.570796 0.000000
    2 -0.000005 0.000007 3.713255 0.003204 3.158916 -0.091346
    3 18.045721 0.000000 0.000000 0.000000 0.000000 -0.243578
    4 17.597597 0.000000 0.000000 -0.001675 -0.017562 0.152262
    5 0.000005 -0.000003 -3.713255 0.355071 -3.167219 -0.017370
    6 18.045725 0.000000 0.000000 0.000000 0.000000 -0.267079
    7 17.597597 0.000000 0.000000 0.202642 0.018017 0.241891
    8 1.293670 0.684478 -0.000001 -0.000004 -0.000001 -0.147611
    9 5.309685 -0.003834 0.000000 -0.261194 -0.017833 -0.067442
    10 4.826790 -0.004591 0.000000 0.000000 0.000000 -0.092504
    11 5.792767 -0.005304 0.000000 0.000000 0.000000 0.017444
    12 6.662317 -0.001453 0.000000 0.000000 -0.000001 0.209228
    13 2.046985 -0.000002 0.000000 0.257593 0.047191 -0.242390
    14 -3.397189 0.661759 4.341911 0.993040 -1.203855 1.970490
    15 4.827230 0.000000 0.000001 -0.588070 0.989168 -1.243008
    16 11.139763 0.000000 0.000000 0.000000 0.000000 -1.933004
    17 10.314597 0.000001 0.000000 -1.068107 -0.403254 -0.135284
    18 2.975834 -0.386307 -0.044143 0.001097 -0.043611 -0.043588
    19 1.438886 0.000000 0.000000 0.000000 0.000000 1.334476
    20 1.485303 0.000000 0.000000 0.000000 0.000000 0.793705
    21 -3.131625 0.610576 -4.140396 -1.201879 1.043638 1.781423
    22 4.972048 0.000000 0.000001 -0.252112 -1.065360 0.458177
    23 11.585355 0.000000 0.000000 0.000000 0.000000 -2.415464
    24 10.127057 0.000000 0.000001 1.510254 0.765311 -0.200791
    25 2.683750 -0.427338 0.044205 -0.005786 0.043239 -0.157091
    26 1.438885 -0.000001 0.000000 0.000000 0.000000 0.732658
    27 1.485305 0.000001 0.000000 0.000000 0.000000 1.168770
    28 1.038631 0.548043 -0.144017 -0.000001 0.000001 -1.849906
    29 -0.064003 -0.023521 0.026161 0.000000 0.000000 0.000000
    30 3.013925 3.984634 -0.088975 -0.000001 0.000001 -1.849906
    31 -0.084188 -0.025627 -0.001098 0.000000 0.000000 0.000000
    32 4.778187 3.972486 -0.079803 -0.000001 0.000001 -1.849906
    33 -0.058556 -0.021324 0.004244 0.000000 0.000000 0.000000
    34 1.640598 -1.968779 -0.099219 -0.000001 0.000001 -1.849906
    35 0.055573 -0.028908 0.000000 0.000000 0.000000 0.000000
    36 1.646738 0.449549 -1.702246 0.154002 0.442277 0.277235
    37 0.928312 0.000000 -0.000002 0.000000 0.000000 0.000000
    38 0.928314 0.000000 0.000001 0.000000 0.000000 0.000000
    39 1.533672 0.109715 1.664491 -0.264755 -0.055959 0.783109
    40 0.928313 0.000000 0.000000 0.000000 0.000000 -0.453556
    41 0.928314 0.000000 0.000001 0.000000 0.000000 0.000000
  time 29
    0 0.235347 0.367732 3.528927 0.000000 0.000000 -1.570874
    1 0.000000 0.000000 0.000000 -1.570795 -1.570796 0.000000
    2 -0.000005 0.000007 3.713255 0.003204 3.158916 -0.091346
    3 18.045721 0.000000 0.000000 0.000000 0.000000 -0.243578
    4 17.597597 0.000000 0.000000 -0.001675 -0.017562 0.152262
    5 0.000005 -0.000003 -3.713255 0.355071 -3.167219 -0.017370
    6 18.045725 0.000000 0.000000 0.000000 0.000000 -0.267079
    7 17.597597 0.000000 0.000000 0.202642 0.018017 0.241891
    8 1.293670 0.684478 -0.000001 -0.000004 -0.000001 -0.147611
    9 5.309685 -0.003834 0.000000 -0.261194 -0.017833 -0.067442
    10 4.826790 -0.004591 0.000000 0.000000 0.000000 -0.094489
    11 5.792767 -0.005304 0.000000 0.000000 0.000000 0.017444
    12 6.662317 -0.001453 0.000000 0.000000 -0.000001 0.209228
    13 2.046985 -0.000002 0.000000 0.257593 0.047191 -0.240367
    14 -3.397189 0.661759 4.341911 1.001764 -1.206009 1.961094
    15 4.827230 0.000000 0.000001 -0.594883 0.992402 -1.248346
    16 11.139763 0.000000 0.000000 0.000000 0.000000 -1.933004
    17 10.314597 0.000001 0.000000 -1.068107 -0.403254 -0.135284
    18 2.975834 -0.386307 -0.044143 0.001097 -0.043611 -0.043588
    19 1.438886 0.000000 0.000000 0.000000 0.000000 1.334476
    20 1.485303 0.000000 0.000000 0.000000 0.000000 0.793705
    21 -3.131625 0.610576 -4.140396 -1.208303 1.045051 1.774041
    22 4.972048 0.000000 0.000001 -0.259847 -1.068980 0.465291
    23 11.585355 0.000000 0.000000 0.000000 0.000000 -2.415464
    24 10.127057 0.000000 0.000001 1.510254 0.765311 -0.200791
    25 2.683750 -0.427338 0.044205 -0.005786 0.043239 -0.157091
    26 1.438885 -0.000001 0.000000 0.000000 0.000000 0.732658
    27 1.485305 0.000001 0.000000 0.000000 0.000000 1.168770
    28 1.038631 0.548043 -0.144017 -0.000001 0.000001 -1.849906
    29 -0.064003 -0.023521 0.026161 0.000000 0.000000 0.000000
    30 3.013925 3.984634 -0.088975 -0.000001 0.000001 -1.849906
    31 -0.084188 -0.025627 -0.001098 0.000000 0.000000 0.000000
    32 4.778187 3.972486 -0.079803 -0.000001 0.000001 -1.849906
    33 -0.058556 -0.021324 0.004244 0.000000 0.000000 0.000000
    34 1.640598 -1.968779 -0.099219 -0.000001 0.000001 -1.849906
    35 0.055573 -0.028908 0.000000 0.000000 0.000000 0.000000
    36 1.646738 0.449549 -1.702246 0.154002 0.442277 0.277235
    37 0.928312 0.000000 -0.000002 0.000000 0.000000 0.000000
    38 0.928314 0.000000 0.000001 0.000000 0.000000 0.000000
    39 1.533672 0.109715 1.664491 -0.264755 -0.055959 0.783109
    40 0.928313 0.000000 0.000000 0.000000 0.000000 -0.453556
    41 0.928314 0.000000 0.000001 0.000000 0.000000 0.000000
  time 30
    0 0.235347 0.367732 3.528927 0.000000 0.000000 -1.570874
    1 0.000000 0.000000 0.000000 -1.570795 -1.570796 0.000000
    2 -0.000005 0.000007 3.713255 0.003204 3.158916 -0.091346
    3 18.045721 0.000000 0.000000 0.000000 0.000000 -0.243578
    4 17.597597 0.000000 0.000000 -0.001675 -0.017562 0.152262
    5 0.000005 -0.000003 -3.713255 0.355071 -3.167219 -0.017370
    6 18.045725 0.000000 0.000000 0.000000 0.000000 -0.267079
    7 17.597597 0.000000 0.000000 0.202642 0.018017 0.241891
    8 1.293670 0.684478 -0.000001 -0.000004 -0.000001 -0.147611
    9 5.309685 -0.003834 0.000000 -0.261194 -0.017833 -0.067442
    10 4.826790 -0.004591 0.000000 0.000000 0.000000 -0.095944
    11 5.792767 -0.005304 0.000000 0.000000 0.000000 0.017444
    12 6.662317 -0.001453 0.000000 0.000000 -0.000001 0.209228
    13 2.046985 -0.000002 0.000000 0.257593 0.047191 -0.238929
    14 -3.397189 0.661759 4.341911 1.008283 -1.207586 1.954191
    15 4.827230 0.000000 0.000001 -0.599935 0.994700 -1.252284
    16 11.139763 0.000000 0.000000 0.000000 0.000000 -1.933004
    17 10.314597 0.000001 0.000000 -1.068107 -0.403254 -0.135284
    18 2.975834 -0.386307 -0.044143 0.001097 -0.043611 -0.043588
    19 1.438886 0.000000 0.000000 0.000000 0.000000 1.334476
    20 1.485303 0.000000 0.000000 0.000000 0.000000 0.793705
    21 -3.131625 0.610576 -4.140396 -1.213000 1.046068 1.768576
    22 4.972048 0.000000 0.000001 -0.265572 -1.071634 0.470561
    23 11.585355 0.000000 0.000000 0.000000 0.000000 -2.415464
    24 10.127057 0.000000 0.000001 1.510254 0.765311 -0.200791
    25 2.683750 -0.427338 0.044205 -0.005786 0.043239 -0.157091
    26 1.438885 -0.000001 0.000000 0.000000 0.000000 0.732658
    27 1.485305 0.000001 0.000000 0.000000 0.000000 1.168770
    28 1.038631 0.548043 -0.144017 -0.000001 0.000001 -1.849906
    29 -0.064003 -0.023521 0.026161 0.000000 0.000000 0.000000
    30 3.013925 3.984634 -0.088975 -0.000001 0.000001 -1.849906
    31 -0.084188 -0.025627 -0.001098 0.000000 0.000000 0.000000
    32 4.778187 3.972486 -0.079803 -0.000001 0.000001 -1.849906
    33 -0.058556 -0.021324 0.004244 0.000000 0.000000 0.000000
    34 1.640598 -1.968779 -0.099219 -0.000001 0.000001 -1.849906
    35 0.055573 -0.028908 0.000000 0.000000 0.000000 0.000000
    36 1.646738 0.449549 -1.702246 0.154002 0.442277 0.277235
    37 0.928312 0.000000 -0.000002 0.000000 0.000000 0.000000
    38 0.928314 0.000000 0.000001 0.000000 0.000000 0.000000
    39 1.533672 0.109715 1.664491 -0.264755 -0.055959 0.783109
    40 0.928313 0.000000 0.000000 0.000000 0.000000 -0.453556
    41 0.928314 0.000000 0.000001 0.000000 0.000000 0.000000
end
