version 1
nodes
  0 "Bip01" -1
  1 "Bip01 Pelvis" 0
  2 "Bip01 L Leg" 1
  3 "Bip01 L Leg1" 2
  4 "Bip01 L Foot" 3
  5 "Bip01 R Leg" 1
  6 "Bip01 R Leg1" 5
  7 "Bip01 R Foot" 6
  8 "Bip01 Spine" 1
  9 "Bip01 Spine1" 8
  10 "Bip01 Spine2" 9
  11 "Bip01 Spine3" 10
  12 "Bip01 Neck" 11
  13 "Bip01 Head" 12
  14 "Bip01 L Arm" 12
  15 "Bip01 L Arm1" 14
  16 "Bip01 L Arm2" 15
  17 "Bip01 L Hand" 16
  18 "Bip01 L Finger1" 17
  19 "Bip01 L Finger11" 18
  20 "Bip01 L Finger12" 19
  21 "Bip01 R Arm" 12
  22 "Bip01 R Arm1" 21
  23 "Bip01 R Arm2" 22
  24 "Bip01 R Hand" 23
  25 "Bip01 R Finger1" 24
  26 "Bip01 R Finger11" 25
  27 "Bip01 R Finger12" 26
  28 "Dummy08" 13
  29 "Bone02" 28
  30 "Dummy04" 13
  31 "Bone05" 30
  32 "Dummy03" 13
  33 "Bone07" 32
  34 "Dummy10" 13
  35 "Bone13" 34
  36 "Bip01 L Finger0" 17
  37 "Bip01 L Finger01" 36
  38 "Bip01 L Finger02" 37
  39 "Bip01 R Finger0" 24
  40 "Bip01 R Finger01" 39
  41 "Bip01 R Finger02" 40
end
skeleton
  time 0
    0 0.235347 0.367732 3.528927 0.000000 0.000000 -1.570874
    1 0.000000 0.000000 0.000000 -1.570795 -1.570796 0.000000
    2 -0.000005 0.000007 3.713255 0.002054 3.115505 -0.021473
    3 18.045721 0.000000 0.000000 0.000000 0.000000 -0.121501
    4 17.597597 0.000000 0.000000 -0.002613 0.026036 0.099967
    5 0.000005 -0.000003 -3.713255 -0.002524 -3.124238 -0.024449
    6 18.045725 0.000000 0.000000 0.000000 0.000000 -0.127551
    7 17.597597 0.000000 0.000000 0.002950 -0.017289 0.103055
    8 1.293670 0.684478 -0.000001 -0.000004 -0.000001 0.061853
    9 5.309685 -0.003834 0.000000 -0.221112 0.050743 0.221143
    10 4.826790 -0.004591 0.000000 -0.152378 0.037931 0.241317
    11 5.792767 -0.005304 0.000000 -0.206796 0.032658 0.153606
    12 6.662317 -0.001453 0.000000 0.000000 -0.000001 0.471000
    13 2.046985 -0.000002 0.000000 0.505707 -0.039199 -0.235243
    14 -3.112024 1.517254 4.341911 0.999080 -1.044298 1.738758
    15 4.827230 0.000000 0.000001 -0.353125 0.507583 -0.603389
    16 11.139763 0.000000 0.000000 0.000000 0.000000 -1.045513
    17 10.314597 0.000001 0.000000 -2.987507 -0.064640 0.326477
    18 2.975834 -0.386307 -0.044143 -0.023136 -0.036984 0.541211
    19 1.438886 0.000000 0.000000 0.000000 0.000000 0.784982
    20 1.485303 0.000000 0.000000 0.000000 0.000000 0.689056
    21 -2.869898 1.399663 -4.140396 -1.188073 0.734767 1.639722
    22 4.972048 0.000000 0.000001 0.527082 -0.428669 -1.004588
    23 11.585355 0.000000 0.000000 0.000000 0.000000 -0.911881
    24 10.127057 0.000000 0.000001 2.052614 0.054684 0.642320
    25 2.683750 -0.427338 0.044205 -0.005786 0.043239 -0.157091
    26 1.438885 -0.000001 0.000000 0.000000 0.000000 0.732658
    27 1.485305 0.000001 0.000000 0.000000 0.000000 1.168770
    28 1.038631 0.548043 -0.144017 -0.000001 0.000001 -1.849906
    29 -0.064003 -0.023521 0.026161 0.000000 0.000000 0.000000
    30 3.013925 3.984634 -0.088975 -0.000001 0.000001 -1.849906
    31 -0.084188 -0.025627 -0.001098 0.000000 0.000000 0.000000
    32 4.778187 3.972486 -0.079803 -0.000001 0.000001 -1.849906
    33 -0.058556 -0.021324 0.004244 0.000000 0.000000 0.000000
    34 1.640598 -1.968779 -0.099219 -0.000001 0.000001 -1.849906
    35 0.055573 -0.028908 0.000000 0.000000 0.000000 0.000000
    36 1.646738 0.449549 -1.702246 0.154002 0.442277 0.277235
    37 0.928312 0.000000 -0.000002 0.000000 0.000000 0.000000
    38 0.928314 0.000000 0.000001 0.000000 0.000000 0.000000
    39 1.533672 0.109715 1.664491 -0.264755 -0.055959 0.783109
    40 0.928313 0.000000 0.000000 0.000000 0.000000 -0.453556
    41 0.928314 0.000000 0.000001 0.000000 0.000000 0.000000
  time 1
    0 0.235347 0.367732 3.528927 0.000000 0.000000 -1.570874
    1 0.000000 0.000000 0.000000 -1.570795 -1.570796 0.000000
    2 -0.000005 0.000007 3.713255 0.002054 3.115505 -0.021473
    3 18.045721 0.000000 0.000000 0.000000 0.000000 -0.121501
    4 17.597597 0.000000 0.000000 -0.002613 0.026036 0.099967
    5 0.000005 -0.000003 -3.713255 -0.002524 -3.124238 -0.024449
    6 18.045725 0.000000 0.000000 0.000000 0.000000 -0.127551
    7 17.597597 0.000000 0.000000 0.002950 -0.017289 0.103055
    8 1.293670 0.684478 -0.000001 -0.000004 -0.000001 0.061853
    9 5.309685 -0.003834 0.000000 -0.291530 0.066455 0.217014
    10 4.826790 -0.004591 0.000000 -0.314181 0.077121 0.231990
    11 5.792767 -0.005304 0.000000 -0.327179 0.035379 0.153897
    12 6.662317 -0.001453 0.000000 0.000000 -0.000001 0.471000
    13 2.046985 -0.000002 0.000000 0.811467 -0.211641 -0.300102
    14 -3.112024 1.517254 4.341911 0.999080 -1.044298 1.738758
    15 4.827230 0.000000 0.000001 -0.301672 0.871048 -0.433442
    16 11.139763 0.000000 0.000000 0.000000 0.000000 -1.411820
    17 10.314597 0.000001 0.000000 -2.987507 -0.064640 0.326477
    18 2.975834 -0.386307 -0.044143 -0.023136 -0.036984 0.541211
    19 1.438886 0.000000 0.000000 0.000000 0.000000 0.784982
    20 1.485303 0.000000 0.000000 0.000000 0.000000 0.689056
    21 -2.869898 1.399663 -4.140396 -1.188073 0.734767 1.639722
    22 4.972048 0.000000 0.000001 0.022111 -0.532197 -0.538474
    23 11.585355 0.000000 0.000000 0.000000 0.000000 -1.555415
    24 10.127057 0.000000 0.000001 2.052614 0.054684 0.642320
    25 2.683750 -0.427338 0.044205 -0.005786 0.043239 -0.157091
    26 1.438885 -0.000001 0.000000 0.000000 0.000000 0.732658
    27 1.485305 0.000001 0.000000 0.000000 0.000000 1.168770
    28 1.038631 0.548043 -0.144017 -0.000001 0.000001 -1.849906
    29 -0.064003 -0.023521 0.026161 0.000000 0.000000 0.000000
    30 3.013925 3.984634 -0.088975 -0.000001 0.000001 -1.849906
    31 -0.084188 -0.025627 -0.001098 0.000000 0.000000 0.000000
    32 4.778187 3.972486 -0.079803 -0.000001 0.000001 -1.849906
    33 -0.058556 -0.021324 0.004244 0.000000 0.000000 0.000000
    34 1.640598 -1.968779 -0.099219 -0.000001 0.000001 -1.849906
    35 0.055573 -0.028908 0.000000 0.000000 0.000000 0.000000
    36 1.646738 0.449549 -1.702246 0.154002 0.442277 0.277235
    37 0.928312 0.000000 -0.000002 0.000000 0.000000 0.000000
    38 0.928314 0.000000 0.000001 0.000000 0.000000 0.000000
    39 1.533672 0.109715 1.664491 -0.264755 -0.055959 0.783109
    40 0.928313 0.000000 0.000000 0.000000 0.000000 -0.453556
    41 0.928314 0.000000 0.000001 0.000000 0.000000 0.000000
  time 2
    0 0.235347 0.367732 3.528927 0.000000 0.000000 -1.570874
    1 0.000000 0.000000 0.000000 -1.570795 -1.570796 0.000000
    2 -0.000005 0.000007 3.713255 0.002054 3.115505 -0.021473
    3 18.045721 0.000000 0.000000 0.000000 0.000000 -0.121501
    4 17.597597 0.000000 0.000000 -0.002613 0.026036 0.099967
    5 0.000005 -0.000003 -3.713255 -0.002524 -3.124238 -0.024449
    6 18.045725 0.000000 0.000000 0.000000 0.000000 -0.127551
    7 17.597597 0.000000 0.000000 0.002950 -0.017289 0.103055
    8 1.293670 0.684478 -0.000001 -0.000004 -0.000001 0.061853
    9 5.309685 -0.003834 0.000000 -0.332029 0.075335 0.214135
    10 4.826790 -0.004591 0.000000 -0.407513 0.098777 0.223788
    11 5.792767 -0.005304 0.000000 -0.396258 0.037260 0.154769
    12 6.662317 -0.001453 0.000000 0.000000 -0.000001 0.471000
    13 2.046985 -0.000002 0.000000 0.998490 -0.296004 -0.369322
    14 -3.112024 1.517254 4.341911 0.999080 -1.044298 1.738758
    15 4.827230 0.000000 0.000001 -0.236181 1.167284 -0.370784
    16 11.139763 0.000000 0.000000 0.000000 0.000000 -1.774624
    17 10.314597 0.000001 0.000000 -2.987507 -0.064640 0.326477
    18 2.975834 -0.386307 -0.044143 -0.023136 -0.036984 0.541211
    19 1.438886 0.000000 0.000000 0.000000 0.000000 0.784982
    20 1.485303 0.000000 0.000000 0.000000 0.000000 0.689056
    21 -2.869898 1.399663 -4.140396 -1.188073 0.734767 1.639722
    22 4.972048 0.000000 0.000001 -0.271373 -0.330129 -0.166953
    23 11.585355 0.000000 0.000000 0.000000 0.000000 -2.119477
    24 10.127057 0.000000 0.000001 2.052614 0.054684 0.642320
    25 2.683750 -0.427338 0.044205 -0.005786 0.043239 -0.157091
    26 1.438885 -0.000001 0.000000 0.000000 0.000000 0.732658
    27 1.485305 0.000001 0.000000 0.000000 0.000000 1.168770
    28 1.038631 0.548043 -0.144017 -0.000001 0.000001 -1.849906
    29 -0.064003 -0.023521 0.026161 0.000000 0.000000 0.000000
    30 3.013925 3.984634 -0.088975 -0.000001 0.000001 -1.849906
    31 -0.084188 -0.025627 -0.001098 0.000000 0.000000 0.000000
    32 4.778187 3.972486 -0.079803 -0.000001 0.000001 -1.849906
    33 -0.058556 -0.021324 0.004244 0.000000 0.000000 0.000000
    34 1.640598 -1.968779 -0.099219 -0.000001 0.000001 -1.849906
    35 0.055573 -0.028908 0.000000 0.000000 0.000000 0.000000
    36 1.646738 0.449549 -1.702246 0.154002 0.442277 0.277235
    37 0.928312 0.000000 -0.000002 0.000000 0.000000 0.000000
    38 0.928314 0.000000 0.000001 0.000000 0.000000 0.000000
    39 1.533672 0.109715 1.664491 -0.264755 -0.055959 0.783109
    40 0.928313 0.000000 0.000000 0.000000 0.000000 -0.453556
    41 0.928314 0.000000 0.000001 0.000000 0.000000 0.000000
  time 3
    0 0.235347 0.367732 3.528927 0.000000 0.000000 -1.570874
    1 0.000000 0.000000 0.000000 -1.570795 -1.570796 0.000000
    2 -0.000005 0.000007 3.713255 0.002054 3.115505 -0.021473
    3 18.045721 0.000000 0.000000 0.000000 0.000000 -0.121501
    4 17.597597 0.000000 0.000000 -0.002613 0.026036 0.099967
    5 0.000005 -0.000003 -3.713255 -0.002524 -3.124238 -0.024449
    6 18.045725 0.000000 0.000000 0.000000 0.000000 -0.127551
    7 17.597597 0.000000 0.000000 0.002950 -0.017289 0.103055
    8 1.293670 0.684478 -0.000001 -0.000004 -0.000001 0.061853
    9 5.309685 -0.003834 0.000000 -0.316750 0.072003 0.215257
    10 4.826790 -0.004591 0.000000 -0.372275 0.090699 0.227117
    11 5.792767 -0.005304 0.000000 -0.370214 0.036517 0.154375
    12 6.662317 -0.001453 0.000000 0.000000 -0.000001 0.471000
    13 2.046985 -0.000002 0.000000 0.926757 -0.265902 -0.340510
    14 -3.112024 1.517254 4.341911 0.999080 -1.044298 1.738758
    15 4.827230 0.000000 0.000001 -0.400525 0.901004 -0.371484
    16 11.139763 0.000000 0.000000 0.000000 0.000000 -1.848978
    17 10.314597 0.000001 0.000000 -2.987507 -0.064640 0.326477
    18 2.975834 -0.386307 -0.044143 -0.023136 -0.036984 0.541211
    19 1.438886 0.000000 0.000000 0.000000 0.000000 0.784982
    20 1.485303 0.000000 0.000000 0.000000 0.000000 0.689056
    21 -2.869898 1.399663 -4.140396 -1.188073 0.734767 1.639722
    22 4.972048 0.000000 0.000001 -0.033739 -0.368982 -0.477411
    23 11.585355 0.000000 0.000000 0.000000 0.000000 -1.890788
    24 10.127057 0.000000 0.000001 2.003054 0.226778 0.293842
    25 2.683750 -0.427338 0.044205 -0.005786 0.043239 -0.157091
    26 1.438885 -0.000001 0.000000 0.000000 0.000000 0.732658
    27 1.485305 0.000001 0.000000 0.000000 0.000000 1.168770
    28 1.038631 0.548043 -0.144017 -0.000001 0.000001 -1.849906
    29 -0.064003 -0.023521 0.026161 0.000000 0.000000 0.000000
    30 3.013925 3.984634 -0.088975 -0.000001 0.000001 -1.849906
    31 -0.084188 -0.025627 -0.001098 0.000000 0.000000 0.000000
    32 4.778187 3.972486 -0.079803 -0.000001 0.000001 -1.849906
    33 -0.058556 -0.021324 0.004244 0.000000 0.000000 0.000000
    34 1.640598 -1.968779 -0.099219 -0.000001 0.000001 -1.849906
    35 0.055573 -0.028908 0.000000 0.000000 0.000000 0.000000
    36 1.646738 0.449549 -1.702246 0.154002 0.442277 0.277235
    37 0.928312 0.000000 -0.000002 0.000000 0.000000 0.000000
    38 0.928314 0.000000 0.000001 0.000000 0.000000 0.000000
    39 1.533672 0.109715 1.664491 -0.264755 -0.055959 0.783109
    40 0.928313 0.000000 0.000000 0.000000 0.000000 -0.453556
    41 0.928314 0.000000 0.000001 0.000000 0.000000 0.000000
  time 4
    0 0.235347 0.367732 3.528927 0.000000 0.000000 -1.570874
    1 0.000000 0.000000 0.000000 -1.570795 -1.570796 0.000000
    2 -0.000005 0.000007 3.713255 0.002054 3.115505 -0.021473
    3 18.045721 0.000000 0.000000 0.000000 0.000000 -0.121501
    4 17.597597 0.000000 0.000000 -0.002613 0.026036 0.099967
    5 0.000005 -0.000003 -3.713255 -0.002524 -3.124238 -0.024449
    6 18.045725 0.000000 0.000000 0.000000 0.000000 -0.127551
    7 17.597597 0.000000 0.000000 0.002950 -0.017289 0.103055
    8 1.293670 0.684478 -0.000001 -0.000004 -0.000001 0.061853
    9 5.309685 -0.003834 0.000000 -0.289253 0.065951 0.217159
    10 4.826790 -0.004591 0.000000 -0.308943 0.075874 0.232387
    11 5.792767 -0.005304 0.000000 -0.323281 0.035283 0.153855
    12 6.662317 -0.001453 0.000000 0.000000 -0.000001 0.471000
    13 2.046985 -0.000002 0.000000 0.801256 -0.206507 -0.296911
    14 -3.112024 1.517254 4.341911 0.999080 -1.044298 1.738758
    15 4.827230 0.000000 0.000001 -0.536441 0.581280 -0.375160
    16 11.139763 0.000000 0.000000 0.000000 0.000000 -1.746942
    17 10.314597 0.000001 0.000000 -2.987507 -0.064640 0.326477
    18 2.975834 -0.386307 -0.044143 -0.023136 -0.036984 0.541211
    19 1.438886 0.000000 0.000000 0.000000 0.000000 0.784982
    20 1.485303 0.000000 0.000000 0.000000 0.000000 0.689056
    21 -2.869898 1.399663 -4.140396 -1.188073 0.734767 1.639722
    22 4.972048 0.000000 0.000001 0.263999 -0.350642 -0.865992
    23 11.585355 0.000000 0.000000 0.000000 0.000000 -1.483919
    24 10.127057 0.000000 0.000001 1.934255 0.328431 0.044486
    25 2.683750 -0.427338 0.044205 -0.005786 0.043239 -0.157091
    26 1.438885 -0.000001 0.000000 0.000000 0.000000 0.732658
    27 1.485305 0.000001 0.000000 0.000000 0.000000 1.168770
    28 1.038631 0.548043 -0.144017 -0.000001 0.000001 -1.849906
    29 -0.064003 -0.023521 0.026161 0.000000 0.000000 0.000000
    30 3.013925 3.984634 -0.088975 -0.000001 0.000001 -1.849906
    31 -0.084188 -0.025627 -0.001098 0.000000 0.000000 0.000000
    32 4.778187 3.972486 -0.079803 -0.000001 0.000001 -1.849906
    33 -0.058556 -0.021324 0.004244 0.000000 0.000000 0.000000
    34 1.640598 -1.968779 -0.099219 -0.000001 0.000001 -1.849906
    35 0.055573 -0.028908 0.000000 0.000000 0.000000 0.000000
    36 1.646738 0.449549 -1.702246 0.154002 0.442277 0.277235
    37 0.928312 0.000000 -0.000002 0.000000 0.000000 0.000000
    38 0.928314 0.000000 0.000001 0.000000 0.000000 0.000000
    39 1.533672 0.109715 1.664491 -0.264755 -0.055959 0.783109
    40 0.928313 0.000000 0.000000 0.000000 0.000000 -0.453556
    41 0.928314 0.000000 0.000001 0.000000 0.000000 0.000000
  time 5
    0 0.235347 0.367732 3.528927 0.000000 0.000000 -1.570874
    1 0.000000 0.000000 0.000000 -1.570795 -1.570796 0.000000
    2 -0.000005 0.000007 3.713255 0.002054 3.115505 -0.021473
    3 18.045721 0.000000 0.000000 0.000000 0.000000 -0.121501
    4 17.597597 0.000000 0.000000 -0.002613 0.026036 0.099967
    5 0.000005 -0.000003 -3.713255 -0.002524 -3.124238 -0.024449
    6 18.045725 0.000000 0.000000 0.000000 0.000000 -0.127551
    7 17.597597 0.000000 0.000000 0.002950 -0.017289 0.103055
    8 1.293670 0.684478 -0.000001 -0.000004 -0.000001 0.061853
    9 5.309685 -0.003834 0.000000 -0.261855 0.059875 0.218879
    10 4.826790 -0.004591 0.000000 -0.245939 0.060798 0.236686
    11 5.792767 -0.005304 0.000000 -0.276478 0.034156 0.153565
    12 6.662317 -0.001453 0.000000 0.000000 -0.000001 0.471000
    13 2.046985 -0.000002 0.000000 0.680279 -0.141957 -0.264099
    14 -3.112024 1.517254 4.341911 0.999080 -1.044298 1.738758
    15 4.827230 0.000000 0.000001 -0.491566 0.509966 -0.451732
    16 11.139763 0.000000 0.000000 0.000000 0.000000 -1.512525
    17 10.314597 0.000001 0.000000 -2.987507 -0.064640 0.326477
    18 2.975834 -0.386307 -0.044143 -0.023136 -0.036984 0.541211
    19 1.438886 0.000000 0.000000 0.000000 0.000000 0.784982
    20 1.485303 0.000000 0.000000 0.000000 0.000000 0.689056
    21 -2.869898 1.399663 -4.140396 -1.188073 0.734767 1.639722
    22 4.972048 0.000000 0.000001 0.385832 -0.363593 -0.946752
    23 11.585355 0.000000 0.000000 0.000000 0.000000 -1.247604
    24 10.127057 0.000000 0.000001 1.981459 0.265355 0.205427
    25 2.683750 -0.427338 0.044205 -0.005786 0.043239 -0.157091
    26 1.438885 -0.000001 0.000000 0.000000 0.000000 0.732658
    27 1.485305 0.000001 0.000000 0.000000 0.000000 1.168770
    28 1.038631 0.548043 -0.144017 -0.000001 0.000001 -1.849906
    29 -0.064003 -0.023521 0.026161 0.000000 0.000000 0.000000
    30 3.013925 3.984634 -0.088975 -0.000001 0.000001 -1.849906
    31 -0.084188 -0.025627 -0.001098 0.000000 0.000000 0.000000
    32 4.778187 3.972486 -0.079803 -0.000001 0.000001 -1.849906
    33 -0.058556 -0.021324 0.004244 0.000000 0.000000 0.000000
    34 1.640598 -1.968779 -0.099219 -0.000001 0.000001 -1.849906
    35 0.055573 -0.028908 0.000000 0.000000 0.000000 0.000000
    36 1.646738 0.449549 -1.702246 0.154002 0.442277 0.277235
    37 0.928312 0.000000 -0.000002 0.000000 0.000000 0.000000
    38 0.928314 0.000000 0.000001 0.000000 0.000000 0.000000
    39 1.533672 0.109715 1.664491 -0.264755 -0.055959 0.783109
    40 0.928313 0.000000 0.000000 0.000000 0.000000 -0.453556
    41 0.928314 0.000000 0.000001 0.000000 0.000000 0.000000
  time 6
    0 0.235347 0.367732 3.528927 0.000000 0.000000 -1.570874
    1 0.000000 0.000000 0.000000 -1.570795 -1.570796 0.000000
    2 -0.000005 0.000007 3.713255 0.002054 3.115505 -0.021473
    3 18.045721 0.000000 0.000000 0.000000 0.000000 -0.121501
    4 17.597597 0.000000 0.000000 -0.002613 0.026036 0.099967
    5 0.000005 -0.000003 -3.713255 -0.002524 -3.124238 -0.024449
    6 18.045725 0.000000 0.000000 0.000000 0.000000 -0.127551
    7 17.597597 0.000000 0.000000 0.002950 -0.017289 0.103055
    8 1.293670 0.684478 -0.000001 -0.000004 -0.000001 0.061853
    9 5.309685 -0.003834 0.000000 -0.238043 0.054554 0.220237
    10 4.826790 -0.004591 0.000000 -0.191244 0.047495 0.239663
    11 5.792767 -0.005304 0.000000 -0.235775 0.033257 0.153523
    12 6.662317 -0.001453 0.000000 0.000000 -0.000001 0.471000
    13 2.046985 -0.000002 0.000000 0.577699 -0.082652 -0.244367
    14 -3.112024 1.517254 4.341911 0.999080 -1.044298 1.738758
    15 4.827230 0.000000 0.000001 -0.412096 0.504434 -0.539593
    16 11.139763 0.000000 0.000000 0.000000 0.000000 -1.240335
    17 10.314597 0.000001 0.000000 -2.987507 -0.064640 0.326477
    18 2.975834 -0.386307 -0.044143 -0.023136 -0.036984 0.541211
    19 1.438886 0.000000 0.000000 0.000000 0.000000 0.784982
    20 1.485303 0.000000 0.000000 0.000000 0.000000 0.689056
    21 -2.869898 1.399663 -4.140396 -1.188073 0.734767 1.639722
    22 4.972048 0.000000 0.000001 0.467210 -0.404296 -0.979293
    23 11.585355 0.000000 0.000000 0.000000 0.000000 -1.049626
    24 10.127057 0.000000 0.000001 2.034268 0.147296 0.461295
    25 2.683750 -0.427338 0.044205 -0.005786 0.043239 -0.157091
    26 1.438885 -0.000001 0.000000 0.000000 0.000000 0.732658
    27 1.485305 0.000001 0.000000 0.000000 0.000000 1.168770
    28 1.038631 0.548043 -0.144017 -0.000001 0.000001 -1.849906
    29 -0.064003 -0.023521 0.026161 0.000000 0.000000 0.000000
    30 3.013925 3.984634 -0.088975 -0.000001 0.000001 -1.849906
    31 -0.084188 -0.025627 -0.001098 0.000000 0.000000 0.000000
    32 4.778187 3.972486 -0.079803 -0.000001 0.000001 -1.849906
    33 -0.058556 -0.021324 0.004244 0.000000 0.000000 0.000000
    34 1.640598 -1.968779 -0.099219 -0.000001 0.000001 -1.849906
    35 0.055573 -0.028908 0.000000 0.000000 0.000000 0.000000
    36 1.646738 0.449549 -1.702246 0.154002 0.442277 0.277235
    37 0.928312 0.000000 -0.000002 0.000000 0.000000 0.000000
    38 0.928314 0.000000 0.000001 0.000000 0.000000 0.000000
    39 1.533672 0.109715 1.664491 -0.264755 -0.055959 0.783109
    40 0.928313 0.000000 0.000000 0.000000 0.000000 -0.453556
    41 0.928314 0.000000 0.000001 0.000000 0.000000 0.000000
  time 7
    0 0.235347 0.367732 3.528927 0.000000 0.000000 -1.570874
    1 0.000000 0.000000 0.000000 -1.570795 -1.570796 0.000000
    2 -0.000005 0.000007 3.713255 0.002054 3.115505 -0.021473
    3 18.045721 0.000000 0.000000 0.000000 0.000000 -0.121501
    4 17.597597 0.000000 0.000000 -0.002613 0.026036 0.099967
    5 0.000005 -0.000003 -3.713255 -0.002524 -3.124238 -0.024449
    6 18.045725 0.000000 0.000000 0.000000 0.000000 -0.127551
    7 17.597597 0.000000 0.000000 0.002950 -0.017289 0.103055
    8 1.293670 0.684478 -0.000001 -0.000004 -0.000001 0.061853
    9 5.309685 -0.003834 0.000000 -0.221112 0.050743 0.221143
    10 4.826790 -0.004591 0.000000 -0.152378 0.037931 0.241317
    11 5.792767 -0.005304 0.000000 -0.206796 0.032658 0.153606
    12 6.662317 -0.001453 0.000000 0.000000 -0.000001 0.471000
    13 2.046985 -0.000002 0.000000 0.505707 -0.039199 -0.235243
    14 -3.112024 1.517254 4.341911 0.999080 -1.044298 1.738758
    15 4.827230 0.000000 0.000001 -0.353125 0.507583 -0.603389
    16 11.139763 0.000000 0.000000 0.000000 0.000000 -1.045513
    17 10.314597 0.000001 0.000000 -2.987507 -0.064640 0.326477
    18 2.975834 -0.386307 -0.044143 -0.023136 -0.036984 0.541211
    19 1.438886 0.000000 0.000000 0.000000 0.000000 0.784982
    20 1.485303 0.000000 0.000000 0.000000 0.000000 0.689056
    21 -2.869898 1.399663 -4.140396 -1.188073 0.734767 1.639722
    22 4.972048 0.000000 0.000001 0.527082 -0.428669 -1.004588
    23 11.585355 0.000000 0.000000 0.000000 0.000000 -0.911881
    24 10.127057 0.000000 0.000001 2.052614 0.054684 0.642320
    25 2.683750 -0.427338 0.044205 -0.005786 0.043239 -0.157091
    26 1.438885 -0.000001 0.000000 0.000000 0.000000 0.732658
    27 1.485305 0.000001 0.000000 0.000000 0.000000 1.168770
    28 1.038631 0.548043 -0.144017 -0.000001 0.000001 -1.849906
    29 -0.064003 -0.023521 0.026161 0.000000 0.000000 0.000000
    30 3.013925 3.984634 -0.088975 -0.000001 0.000001 -1.849906
    31 -0.084188 -0.025627 -0.001098 0.000000 0.000000 0.000000
    32 4.778187 3.972486 -0.079803 -0.000001 0.000001 -1.849906
    33 -0.058556 -0.021324 0.004244 0.000000 0.000000 0.000000
    34 1.640598 -1.968779 -0.099219 -0.000001 0.000001 -1.849906
    35 0.055573 -0.028908 0.000000 0.000000 0.000000 0.000000
    36 1.646738 0.449549 -1.702246 0.154002 0.442277 0.277235
    37 0.928312 0.000000 -0.000002 0.000000 0.000000 0.000000
    38 0.928314 0.000000 0.000001 0.000000 0.000000 0.000000
    39 1.533672 0.109715 1.664491 -0.264755 -0.055959 0.783109
    40 0.928313 0.000000 0.000000 0.000000 0.000000 -0.453556
    41 0.928314 0.000000 0.000001 0.000000 0.000000 0.000000
end
