version 1
nodes
  0 "Bip01" -1
  1 "Bip01 Pelvis" 0
  2 "Bip01 L Leg" 1
  3 "Bip01 L Leg1" 2
  4 "Bip01 L Foot" 3
  5 "Bip01 R Leg" 1
  6 "Bip01 R Leg1" 5
  7 "Bip01 R Foot" 6
  8 "Bip01 Spine" 1
  9 "Bip01 Spine1" 8
  10 "Bip01 Spine2" 9
  11 "Bip01 Spine3" 10
  12 "Bip01 Neck" 11
  13 "Bip01 Head" 12
  14 "Bip01 L Arm" 12
  15 "Bip01 L Arm1" 14
  16 "Bip01 L Arm2" 15
  17 "Bip01 L Hand" 16
  18 "Bip01 L Finger1" 17
  19 "Bip01 L Finger11" 18
  20 "Bip01 L Finger12" 19
  21 "Bip01 R Arm" 12
  22 "Bip01 R Arm1" 21
  23 "Bip01 R Arm2" 22
  24 "Bip01 R Hand" 23
  25 "Bip01 R Finger1" 24
  26 "Bip01 R Finger11" 25
  27 "Bip01 R Finger12" 26
  28 "Dummy08" 13
  29 "Bone02" 28
  30 "Dummy04" 13
  31 "Bone05" 30
  32 "Dummy03" 13
  33 "Bone07" 32
  34 "Dummy10" 13
  35 "Bone13" 34
  36 "Bip01 L Finger0" 17
  37 "Bip01 L Finger01" 36
  38 "Bip01 L Finger02" 37
  39 "Bip01 R Finger0" 24
  40 "Bip01 R Finger01" 39
  41 "Bip01 R Finger02" 40
end
skeleton
  time 0
    0 0.235347 0.367732 3.528927 0.000000 0.000000 -1.570874
    1 0.000000 0.000000 0.000000 -1.570795 -1.570796 0.000000
    2 -0.000005 0.000007 3.713255 0.002054 3.115505 -0.021473
    3 18.045721 0.000000 0.000000 0.000000 0.000000 -0.121501
    4 17.597597 0.000000 0.000000 -0.002613 0.026036 0.099967
    5 0.000005 -0.000003 -3.713255 -0.002524 -3.124238 -0.024449
    6 18.045725 0.000000 0.000000 0.000000 0.000000 -0.127551
    7 17.597597 0.000000 0.000000 0.002950 -0.017289 0.103055
    8 1.293670 0.684478 -0.000001 -0.000004 -0.000001 -0.042812
    9 5.309685 -0.003834 0.000000 -0.156018 -0.017557 -0.112008
    10 4.826790 -0.004591 0.000000 -0.060771 -0.005789 -0.095790
    11 5.792767 -0.005304 0.000000 -0.087197 0.001582 0.017382
    12 6.662317 -0.001453 0.000000 0.000000 -0.000001 0.296580
    13 2.046985 -0.000002 0.000000 0.301408 0.040167 -0.315160
    14 -3.326874 0.954737 4.341911 1.034649 -1.193007 1.842208
    15 4.827230 0.000000 0.000001 -1.008387 0.538985 -1.146396
    16 11.139763 0.000000 0.000000 0.000000 0.000000 -1.393039
    17 10.314597 0.000001 0.000000 0.072298 -0.510857 0.140988
    18 2.975834 -0.386307 -0.044143 -0.021506 -0.037954 0.497588
    19 1.438886 0.000000 0.000000 0.000000 0.000000 0.889650
    20 1.485303 0.000000 0.000000 0.000000 0.000000 1.116422
    21 -3.065217 0.884022 -4.140396 -0.000013 1.370795 2.844176
    22 4.972048 0.000000 0.000001 0.619134 -1.255522 -0.976461
    23 11.585355 0.000000 0.000000 0.000000 0.000000 -1.631178
    24 10.127057 0.000000 0.000001 1.569752 0.000000 -0.069778
    25 2.683750 -0.427338 0.044205 -0.005786 0.043239 -0.157091
    26 1.438885 -0.000001 0.000000 0.000000 0.000000 0.732658
    27 1.485305 0.000001 0.000000 0.000000 0.000000 1.168770
    28 1.038631 0.548043 -0.144017 -0.000001 0.000001 -1.849906
    29 -0.064003 -0.023521 0.026161 0.000000 0.000000 0.000000
    30 3.013925 3.984634 -0.088975 -0.000001 0.000001 -1.849906
    31 -0.084188 -0.025627 -0.001098 0.000000 0.000000 0.000000
    32 4.778187 3.972486 -0.079803 -0.000001 0.000001 -1.849906
    33 -0.058556 -0.021324 0.004244 0.000000 0.000000 0.000000
    34 1.640598 -1.968779 -0.099219 -0.000001 0.000001 -1.849906
    35 0.055573 -0.028908 0.000000 0.000000 0.000000 0.000000
    36 1.646738 0.449549 -1.702246 0.441914 0.155087 1.184542
    37 0.928312 0.000000 -0.000002 0.000000 0.000000 0.000000
    38 0.928314 0.000000 0.000001 0.000000 0.000000 0.000000
    39 1.533672 0.109715 1.664491 -0.264755 -0.055959 0.783109
    40 0.928313 0.000000 0.000000 0.000000 0.000000 -0.453556
    41 0.928314 0.000000 0.000001 0.000000 0.000000 0.000000
  time 1
    0 0.235347 0.367732 3.528927 0.000000 0.000000 -1.570874
    1 0.000000 0.000000 0.000000 -1.570795 -1.570796 0.000000
    2 -0.000005 0.000007 3.713255 0.002054 3.115505 -0.021473
    3 18.045721 0.000000 0.000000 0.000000 0.000000 -0.121501
    4 17.597597 0.000000 0.000000 -0.002613 0.026036 0.099967
    5 0.000005 -0.000003 -3.713255 -0.002524 -3.124238 -0.024449
    6 18.045725 0.000000 0.000000 0.000000 0.000000 -0.127551
    7 17.597597 0.000000 0.000000 0.002950 -0.017289 0.103055
    8 1.293670 0.684478 -0.000001 -0.000004 -0.000001 -0.042812
    9 5.309685 -0.003834 0.000000 -0.156018 -0.017557 -0.112008
    10 4.826790 -0.004591 0.000000 -0.060771 -0.005789 -0.095790
    11 5.792767 -0.005304 0.000000 -0.087197 0.001930 0.021347
    12 6.662317 -0.001453 0.000000 0.000000 -0.000001 0.296580
    13 2.046985 -0.000002 0.000000 0.301408 0.040167 -0.319160
    14 -3.326874 0.954737 4.341911 1.026020 -1.190930 1.851508
    15 4.827230 0.000000 0.000001 -1.004569 0.533454 -1.145258
    16 11.139763 0.000000 0.000000 0.000000 0.000000 -1.393039
    17 10.314597 0.000001 0.000000 0.072298 -0.510857 0.140988
    18 2.975834 -0.386307 -0.044143 -0.021506 -0.037954 0.497588
    19 1.438886 0.000000 0.000000 0.000000 0.000000 0.889650
    20 1.485303 0.000000 0.000000 0.000000 0.000000 1.116422
    21 -3.065217 0.884022 -4.140396 -0.000013 1.368619 2.844176
    22 4.972048 0.000000 0.000001 0.620372 -1.251098 -0.978437
    23 11.585355 0.000000 0.000000 0.000000 0.000000 -1.631178
    24 10.127057 0.000000 0.000001 1.569752 0.000000 -0.069778
    25 2.683750 -0.427338 0.044205 -0.005786 0.043239 -0.157091
    26 1.438885 -0.000001 0.000000 0.000000 0.000000 0.732658
    27 1.485305 0.000001 0.000000 0.000000 0.000000 1.168770
    28 1.038631 0.548043 -0.144017 -0.000001 0.000001 -1.849906
    29 -0.064003 -0.023521 0.026161 0.000000 0.000000 0.000000
    30 3.013925 3.984634 -0.088975 -0.000001 0.000001 -1.849906
    31 -0.084188 -0.025627 -0.001098 0.000000 0.000000 0.000000
    32 4.778187 3.972486 -0.079803 -0.000001 0.000001 -1.849906
    33 -0.058556 -0.021324 0.004244 0.000000 0.000000 0.000000
    34 1.640598 -1.968779 -0.099219 -0.000001 0.000001 -1.849906
    35 0.055573 -0.028908 0.000000 0.000000 0.000000 0.000000
    36 1.646738 0.449549 -1.702246 0.441914 0.155087 1.184542
    37 0.928312 0.000000 -0.000002 0.000000 0.000000 0.000000
    38 0.928314 0.000000 0.000001 0.000000 0.000000 0.000000
    39 1.533672 0.109715 1.664491 -0.264755 -0.055959 0.783109
    40 0.928313 0.000000 0.000000 0.000000 0.000000 -0.453556
    41 0.928314 0.000000 0.000001 0.000000 0.000000 0.000000
  time 2
    0 0.235347 0.367732 3.528927 0.000000 0.000000 -1.570874
    1 0.000000 0.000000 0.000000 -1.570795 -1.570796 0.000000
    2 -0.000005 0.000007 3.713255 0.002054 3.115505 -0.021473
    3 18.045721 0.000000 0.000000 0.000000 0.000000 -0.121501
    4 17.597597 0.000000 0.000000 -0.002613 0.026036 0.099967
    5 0.000005 -0.000003 -3.713255 -0.002524 -3.124238 -0.024449
    6 18.045725 0.000000 0.000000 0.000000 0.000000 -0.127551
    7 17.597597 0.000000 0.000000 0.002950 -0.017289 0.103055
    8 1.293670 0.684478 -0.000001 -0.000004 -0.000001 -0.042812
    9 5.309685 -0.003834 0.000000 -0.156018 -0.017557 -0.112008
    10 4.826790 -0.004591 0.000000 -0.060771 -0.005789 -0.095790
    11 5.792767 -0.005304 0.000000 -0.087180 0.002409 0.026787
    12 6.662317 -0.001453 0.000000 0.000000 -0.000001 0.296580
    13 2.046985 -0.000002 0.000000 0.301408 0.040167 -0.324644
    14 -3.326874 0.954737 4.341911 1.014419 -1.188084 1.863972
    15 4.827230 0.000000 0.000001 -0.999401 0.525880 -1.143683
    16 11.139763 0.000000 0.000000 0.000000 0.000000 -1.393039
    17 10.314597 0.000001 0.000000 0.072298 -0.510857 0.140988
    18 2.975834 -0.386307 -0.044143 -0.021506 -0.037954 0.497588
    19 1.438886 0.000000 0.000000 0.000000 0.000000 0.889650
    20 1.485303 0.000000 0.000000 0.000000 0.000000 1.116422
    21 -3.065217 0.884022 -4.140396 -0.000013 1.365651 2.844176
    22 4.972048 0.000000 0.000001 0.621919 -1.244984 -0.981006
    23 11.585355 0.000000 0.000000 0.000000 0.000000 -1.631178
    24 10.127057 0.000000 0.000001 1.569752 0.000000 -0.069778
    25 2.683750 -0.427338 0.044205 -0.005786 0.043239 -0.157091
    26 1.438885 -0.000001 0.000000 0.000000 0.000000 0.732658
    27 1.485305 0.000001 0.000000 0.000000 0.000000 1.168770
    28 1.038631 0.548043 -0.144017 -0.000001 0.000001 -1.849906
    29 -0.064003 -0.023521 0.026161 0.000000 0.000000 0.000000
    30 3.013925 3.984634 -0.088975 -0.000001 0.000001 -1.849906
    31 -0.084188 -0.025627 -0.001098 0.000000 0.000000 0.000000
    32 4.778187 3.972486 -0.079803 -0.000001 0.000001 -1.849906
    33 -0.058556 -0.021324 0.004244 0.000000 0.000000 0.000000
    34 1.640598 -1.968779 -0.099219 -0.000001 0.000001 -1.849906
    35 0.055573 -0.028908 0.000000 0.000000 0.000000 0.000000
    36 1.646738 0.449549 -1.702246 0.441914 0.155087 1.184542
    37 0.928312 0.000000 -0.000002 0.000000 0.000000 0.000000
    38 0.928314 0.000000 0.000001 0.000000 0.000000 0.000000
    39 1.533672 0.109715 1.664491 -0.264755 -0.055959 0.783109
    40 0.928313 0.000000 0.000000 0.000000 0.000000 -0.453556
    41 0.928314 0.000000 0.000001 0.000000 0.000000 0.000000
  time 3
    0 0.235347 0.367732 3.528927 0.000000 0.000000 -1.570874
    1 0.000000 0.000000 0.000000 -1.570795 -1.570796 0.000000
    2 -0.000005 0.000007 3.713255 0.002054 3.115505 -0.021473
    3 18.045721 0.000000 0.000000 0.000000 0.000000 -0.121501
    4 17.597597 0.000000 0.000000 -0.002613 0.026036 0.099967
    5 0.000005 -0.000003 -3.713255 -0.002524 -3.124238 -0.024449
    6 18.045725 0.000000 0.000000 0.000000 0.000000 -0.127551
    7 17.597597 0.000000 0.000000 0.002950 -0.017289 0.103055
    8 1.293670 0.684478 -0.000001 -0.000004 -0.000001 -0.042812
    9 5.309685 -0.003834 0.000000 -0.156018 -0.017557 -0.112008
    10 4.826790 -0.004591 0.000000 -0.060771 -0.005789 -0.095790
    11 5.792767 -0.005304 0.000000 -0.087164 0.002984 0.033431
    12 6.662317 -0.001453 0.000000 0.000000 -0.000001 0.296580
    13 2.046985 -0.000002 0.000000 0.301408 0.040167 -0.331251
    14 -3.326874 0.954737 4.341911 1.000518 -1.184545 1.879025
    15 4.827230 0.000000 0.000001 -0.993174 0.516604 -1.141933
    16 11.139763 0.000000 0.000000 0.000000 0.000000 -1.393039
    17 10.314597 0.000001 0.000000 0.072298 -0.510857 0.140988
    18 2.975834 -0.386307 -0.044143 -0.021506 -0.037954 0.497588
    19 1.438886 0.000000 0.000000 0.000000 0.000000 0.889650
    20 1.485303 0.000000 0.000000 0.000000 0.000000 1.116422
    21 -3.065217 0.884022 -4.140396 -0.000013 1.362005 2.844176
    22 4.972048 0.000000 0.000001 0.623776 -1.237503 -0.984168
    23 11.585355 0.000000 0.000000 0.000000 0.000000 -1.631178
    24 10.127057 0.000000 0.000001 1.569752 0.000000 -0.069778
    25 2.683750 -0.427338 0.044205 -0.005786 0.043239 -0.157091
    26 1.438885 -0.000001 0.000000 0.000000 0.000000 0.732658
    27 1.485305 0.000001 0.000000 0.000000 0.000000 1.168770
    28 1.038631 0.548043 -0.144017 -0.000001 0.000001 -1.849906
    29 -0.064003 -0.023521 0.026161 0.000000 0.000000 0.000000
    30 3.013925 3.984634 -0.088975 -0.000001 0.000001 -1.849906
    31 -0.084188 -0.025627 -0.001098 0.000000 0.000000 0.000000
    32 4.778187 3.972486 -0.079803 -0.000001 0.000001 -1.849906
    33 -0.058556 -0.021324 0.004244 0.000000 0.000000 0.000000
    34 1.640598 -1.968779 -0.099219 -0.000001 0.000001 -1.849906
    35 0.055573 -0.028908 0.000000 0.000000 0.000000 0.000000
    36 1.646738 0.449549 -1.702246 0.441914 0.155087 1.184542
    37 0.928312 0.000000 -0.000002 0.000000 0.000000 0.000000
    38 0.928314 0.000000 0.000001 0.000000 0.000000 0.000000
    39 1.533672 0.109715 1.664491 -0.264755 -0.055959 0.783109
    40 0.928313 0.000000 0.000000 0.000000 0.000000 -0.453556
    41 0.928314 0.000000 0.000001 0.000000 0.000000 0.000000
  time 4
    0 0.235347 0.367732 3.528927 0.000000 0.000000 -1.570874
    1 0.000000 0.000000 0.000000 -1.570795 -1.570796 0.000000
    2 -0.000005 0.000007 3.713255 0.002054 3.115505 -0.021473
    3 18.045721 0.000000 0.000000 0.000000 0.000000 -0.121501
    4 17.597597 0.000000 0.000000 -0.002613 0.026036 0.099967
    5 0.000005 -0.000003 -3.713255 -0.002524 -3.124238 -0.024449
    6 18.045725 0.000000 0.000000 0.000000 0.000000 -0.127551
    7 17.597597 0.000000 0.000000 0.002950 -0.017289 0.103055
    8 1.293670 0.684478 -0.000001 -0.000004 -0.000001 -0.042812
    9 5.309685 -0.003834 0.000000 -0.156018 -0.017557 -0.112008
    10 4.826790 -0.004591 0.000000 -0.060771 -0.005789 -0.095790
    11 5.792767 -0.005304 0.000000 -0.087131 0.003643 0.040989
    12 6.662317 -0.001453 0.000000 0.000000 -0.000001 0.296580
    13 2.046985 -0.000002 0.000000 0.301408 0.040167 -0.338847
    14 -3.326874 0.954737 4.341911 0.984986 -1.180390 1.895803
    15 4.827230 0.000000 0.000001 -0.986067 0.506051 -1.140007
    16 11.139763 0.000000 0.000000 0.000000 0.000000 -1.393039
    17 10.314597 0.000001 0.000000 0.072298 -0.510857 0.140988
    18 2.975834 -0.386307 -0.044143 -0.021506 -0.037954 0.497588
    19 1.438886 0.000000 0.000000 0.000000 0.000000 0.889650
    20 1.485303 0.000000 0.000000 0.000000 0.000000 1.116422
    21 -3.065217 0.884022 -4.140396 -0.000013 1.357878 2.844176
    22 4.972048 0.000000 0.000001 0.625709 -1.229057 -0.987593
    23 11.585355 0.000000 0.000000 0.000000 0.000000 -1.631178
    24 10.127057 0.000000 0.000001 1.569752 0.000000 -0.069778
    25 2.683750 -0.427338 0.044205 -0.005786 0.043239 -0.157091
    26 1.438885 -0.000001 0.000000 0.000000 0.000000 0.732658
    27 1.485305 0.000001 0.000000 0.000000 0.000000 1.168770
    28 1.038631 0.548043 -0.144017 -0.000001 0.000001 -1.849906
    29 -0.064003 -0.023521 0.026161 0.000000 0.000000 0.000000
    30 3.013925 3.984634 -0.088975 -0.000001 0.000001 -1.849906
    31 -0.084188 -0.025627 -0.001098 0.000000 0.000000 0.000000
    32 4.778187 3.972486 -0.079803 -0.000001 0.000001 -1.849906
    33 -0.058556 -0.021324 0.004244 0.000000 0.000000 0.000000
    34 1.640598 -1.968779 -0.099219 -0.000001 0.000001 -1.849906
    35 0.055573 -0.028908 0.000000 0.000000 0.000000 0.000000
    36 1.646738 0.449549 -1.702246 0.441914 0.155087 1.184542
    37 0.928312 0.000000 -0.000002 0.000000 0.000000 0.000000
    38 0.928314 0.000000 0.000001 0.000000 0.000000 0.000000
    39 1.533672 0.109715 1.664491 -0.264755 -0.055959 0.783109
    40 0.928313 0.000000 0.000000 0.000000 0.000000 -0.453556
    41 0.928314 0.000000 0.000001 0.000000 0.000000 0.000000
  time 5
    0 0.235347 0.367732 3.528927 0.000000 0.000000 -1.570874
    1 0.000000 0.000000 0.000000 -1.570795 -1.570796 0.000000
    2 -0.000005 0.000007 3.713255 0.002054 3.115505 -0.021473
    3 18.045721 0.000000 0.000000 0.000000 0.000000 -0.121501
    4 17.597597 0.000000 0.000000 -0.002613 0.026036 0.099967
    5 0.000005 -0.000003 -3.713255 -0.002524 -3.124238 -0.024449
    6 18.045725 0.000000 0.000000 0.000000 0.000000 -0.127551
    7 17.597597 0.000000 0.000000 0.002950 -0.017289 0.103055
    8 1.293670 0.684478 -0.000001 -0.000004 -0.000001 -0.042812
    9 5.309685 -0.003834 0.000000 -0.156018 -0.017557 -0.112008
    10 4.826790 -0.004591 0.000000 -0.060771 -0.005789 -0.095790
    11 5.792767 -0.005304 0.000000 -0.087099 0.004362 0.049232
    12 6.662317 -0.001453 0.000000 0.000000 -0.000001 0.296580
    13 2.046985 -0.000002 0.000000 0.301408 0.040167 -0.347118
    14 -3.326874 0.954737 4.341911 0.968496 -1.175736 1.913732
    15 4.827230 0.000000 0.000001 -0.978490 0.494563 -1.138170
    16 11.139763 0.000000 0.000000 0.000000 0.000000 -1.393039
    17 10.314597 0.000001 0.000000 0.072298 -0.510857 0.140988
    18 2.975834 -0.386307 -0.044143 -0.021506 -0.037954 0.497588
    19 1.438886 0.000000 0.000000 0.000000 0.000000 0.889650
    20 1.485303 0.000000 0.000000 0.000000 0.000000 1.116422
    21 -3.065217 0.884022 -4.140396 -0.000013 1.353356 2.844176
    22 4.972048 0.000000 0.000001 0.627721 -1.219806 -0.991216
    23 11.585355 0.000000 0.000000 0.000000 0.000000 -1.631178
    24 10.127057 0.000000 0.000001 1.569752 0.000000 -0.069778
    25 2.683750 -0.427338 0.044205 -0.005786 0.043239 -0.157091
    26 1.438885 -0.000001 0.000000 0.000000 0.000000 0.732658
    27 1.485305 0.000001 0.000000 0.000000 0.000000 1.168770
    28 1.038631 0.548043 -0.144017 -0.000001 0.000001 -1.849906
    29 -0.064003 -0.023521 0.026161 0.000000 0.000000 0.000000
    30 3.013925 3.984634 -0.088975 -0.000001 0.000001 -1.849906
    31 -0.084188 -0.025627 -0.001098 0.000000 0.000000 0.000000
    32 4.778187 3.972486 -0.079803 -0.000001 0.000001 -1.849906
    33 -0.058556 -0.021324 0.004244 0.000000 0.000000 0.000000
    34 1.640598 -1.968779 -0.099219 -0.000001 0.000001 -1.849906
    35 0.055573 -0.028908 0.000000 0.000000 0.000000 0.000000
    36 1.646738 0.449549 -1.702246 0.441914 0.155087 1.184542
    37 0.928312 0.000000 -0.000002 0.000000 0.000000 0.000000
    38 0.928314 0.000000 0.000001 0.000000 0.000000 0.000000
    39 1.533672 0.109715 1.664491 -0.264755 -0.055959 0.783109
    40 0.928313 0.000000 0.000000 0.000000 0.000000 -0.453556
    41 0.928314 0.000000 0.000001 0.000000 0.000000 0.000000
  time 6
    0 0.235347 0.367732 3.528927 0.000000 0.000000 -1.570874
    1 0.000000 0.000000 0.000000 -1.570795 -1.570796 0.000000
    2 -0.000005 0.000007 3.713255 0.002054 3.115505 -0.021473
    3 18.045721 0.000000 0.000000 0.000000 0.000000 -0.121501
    4 17.597597 0.000000 0.000000 -0.002613 0.026036 0.099967
    5 0.000005 -0.000003 -3.713255 -0.002524 -3.124238 -0.024449
    6 18.045725 0.000000 0.000000 0.000000 0.000000 -0.127551
    7 17.597597 0.000000 0.000000 0.002950 -0.017289 0.103055
    8 1.293670 0.684478 -0.000001 -0.000004 -0.000001 -0.042812
    9 5.309685 -0.003834 0.000000 -0.156018 -0.017557 -0.112008
    10 4.826790 -0.004591 0.000000 -0.060771 -0.005789 -0.095790
    11 5.792767 -0.005304 0.000000 -0.087066 0.005129 0.057890
    12 6.662317 -0.001453 0.000000 0.000000 -0.000001 0.296580
    13 2.046985 -0.000002 0.000000 0.301408 0.040167 -0.355838
    14 -3.326874 0.954737 4.341911 0.951527 -1.170774 1.932140
    15 4.827230 0.000000 0.000001 -0.970502 0.482478 -1.136332
    16 11.139763 0.000000 0.000000 0.000000 0.000000 -1.393039
    17 10.314597 0.000001 0.000000 0.072298 -0.510857 0.140988
    18 2.975834 -0.386307 -0.044143 -0.021506 -0.037954 0.497588
    19 1.438886 0.000000 0.000000 0.000000 0.000000 0.889650
    20 1.485303 0.000000 0.000000 0.000000 0.000000 1.116422
    21 -3.065217 0.884022 -4.140396 -0.000013 1.348608 2.844176
    22 4.972048 0.000000 0.000001 0.629577 -1.210154 -0.994839
    23 11.585355 0.000000 0.000000 0.000000 0.000000 -1.631178
    24 10.127057 0.000000 0.000001 1.569752 0.000000 -0.069778
    25 2.683750 -0.427338 0.044205 -0.005786 0.043239 -0.157091
    26 1.438885 -0.000001 0.000000 0.000000 0.000000 0.732658
    27 1.485305 0.000001 0.000000 0.000000 0.000000 1.168770
    28 1.038631 0.548043 -0.144017 -0.000001 0.000001 -1.849906
    29 -0.064003 -0.023521 0.026161 0.000000 0.000000 0.000000
    30 3.013925 3.984634 -0.088975 -0.000001 0.000001 -1.849906
    31 -0.084188 -0.025627 -0.001098 0.000000 0.000000 0.000000
    32 4.778187 3.972486 -0.079803 -0.000001 0.000001 -1.849906
    33 -0.058556 -0.021324 0.004244 0.000000 0.000000 0.000000
    34 1.640598 -1.968779 -0.099219 -0.000001 0.000001 -1.849906
    35 0.055573 -0.028908 0.000000 0.000000 0.000000 0.000000
    36 1.646738 0.449549 -1.702246 0.441914 0.155087 1.184542
    37 0.928312 0.000000 -0.000002 0.000000 0.000000 0.000000
    38 0.928314 0.000000 0.000001 0.000000 0.000000 0.000000
    39 1.533672 0.109715 1.664491 -0.264755 -0.055959 0.783109
    40 0.928313 0.000000 0.000000 0.000000 0.000000 -0.453556
    41 0.928314 0.000000 0.000001 0.000000 0.000000 0.000000
  time 7
    0 0.235347 0.367732 3.528927 0.000000 0.000000 -1.570874
    1 0.000000 0.000000 0.000000 -1.570795 -1.570796 0.000000
    2 -0.000005 0.000007 3.713255 0.002054 3.115505 -0.021473
    3 18.045721 0.000000 0.000000 0.000000 0.000000 -0.121501
    4 17.597597 0.000000 0.000000 -0.002613 0.026036 0.099967
    5 0.000005 -0.000003 -3.713255 -0.002524 -3.124238 -0.024449
    6 18.045725 0.000000 0.000000 0.000000 0.000000 -0.127551
    7 17.597597 0.000000 0.000000 0.002950 -0.017289 0.103055
    8 1.293670 0.684478 -0.000001 -0.000004 -0.000001 -0.042812
    9 5.309685 -0.003834 0.000000 -0.156018 -0.017557 -0.112008
    10 4.826790 -0.004591 0.000000 -0.060771 -0.005789 -0.095790
    11 5.792767 -0.005304 0.000000 -0.087017 0.005896 0.066735
    12 6.662317 -0.001453 0.000000 0.000000 -0.000001 0.296580
    13 2.046985 -0.000002 0.000000 0.301408 0.040167 -0.364692
    14 -3.326874 0.954737 4.341911 0.934653 -1.165543 1.950452
    15 4.827230 0.000000 0.000001 -0.962455 0.470139 -1.134669
    16 11.139763 0.000000 0.000000 0.000000 0.000000 -1.393039
    17 10.314597 0.000001 0.000000 0.072298 -0.510857 0.140988
    18 2.975834 -0.386307 -0.044143 -0.021506 -0.037954 0.497588
    19 1.438886 0.000000 0.000000 0.000000 0.000000 0.889650
    20 1.485303 0.000000 0.000000 0.000000 0.000000 1.116422
    21 -3.065217 0.884022 -4.140396 -0.000013 1.343775 2.844176
    22 4.972048 0.000000 0.000001 0.631356 -1.200259 -0.998462
    23 11.585355 0.000000 0.000000 0.000000 0.000000 -1.631178
    24 10.127057 0.000000 0.000001 1.569752 0.000000 -0.069778
    25 2.683750 -0.427338 0.044205 -0.005786 0.043239 -0.157091
    26 1.438885 -0.000001 0.000000 0.000000 0.000000 0.732658
    27 1.485305 0.000001 0.000000 0.000000 0.000000 1.168770
    28 1.038631 0.548043 -0.144017 -0.000001 0.000001 -1.849906
    29 -0.064003 -0.023521 0.026161 0.000000 0.000000 0.000000
    30 3.013925 3.984634 -0.088975 -0.000001 0.000001 -1.849906
    31 -0.084188 -0.025627 -0.001098 0.000000 0.000000 0.000000
    32 4.778187 3.972486 -0.079803 -0.000001 0.000001 -1.849906
    33 -0.058556 -0.021324 0.004244 0.000000 0.000000 0.000000
    34 1.640598 -1.968779 -0.099219 -0.000001 0.000001 -1.849906
    35 0.055573 -0.028908 0.000000 0.000000 0.000000 0.000000
    36 1.646738 0.449549 -1.702246 0.441914 0.155087 1.184542
    37 0.928312 0.000000 -0.000002 0.000000 0.000000 0.000000
    38 0.928314 0.000000 0.000001 0.000000 0.000000 0.000000
    39 1.533672 0.109715 1.664491 -0.264755 -0.055959 0.783109
    40 0.928313 0.000000 0.000000 0.000000 0.000000 -0.453556
    41 0.928314 0.000000 0.000001 0.000000 0.000000 0.000000
  time 8
    0 0.235347 0.367732 3.528927 0.000000 0.000000 -1.570874
    1 0.000000 0.000000 0.000000 -1.570795 -1.570796 0.000000
    2 -0.000005 0.000007 3.713255 0.002054 3.115505 -0.021473
    3 18.045721 0.000000 0.000000 0.000000 0.000000 -0.121501
    4 17.597597 0.000000 0.000000 -0.002613 0.026036 0.099967
    5 0.000005 -0.000003 -3.713255 -0.002524 -3.124238 -0.024449
    6 18.045725 0.000000 0.000000 0.000000 0.000000 -0.127551
    7 17.597597 0.000000 0.000000 0.002950 -0.017289 0.103055
    8 1.293670 0.684478 -0.000001 -0.000004 -0.000001 -0.042812
    9 5.309685 -0.003834 0.000000 -0.156018 -0.017557 -0.112008
    10 4.826790 -0.004591 0.000000 -0.060771 -0.005789 -0.095790
    11 5.792767 -0.005304 0.000000 -0.086952 0.006663 0.075476
    12 6.662317 -0.001453 0.000000 0.000000 -0.000001 0.296580
    13 2.046985 -0.000002 0.000000 0.301408 0.040167 -0.373502
    14 -3.326874 0.954737 4.341911 0.918354 -1.160273 1.968093
    15 4.827230 0.000000 0.000001 -0.954526 0.457969 -1.133269
    16 11.139763 0.000000 0.000000 0.000000 0.000000 -1.393039
    17 10.314597 0.000001 0.000000 0.072298 -0.510857 0.140988
    18 2.975834 -0.386307 -0.044143 -0.021506 -0.037954 0.497588
    19 1.438886 0.000000 0.000000 0.000000 0.000000 0.889650
    20 1.485303 0.000000 0.000000 0.000000 0.000000 1.116422
    21 -3.065217 0.884022 -4.140396 -0.000013 1.338998 2.844176
    22 4.972048 0.000000 0.000001 0.632981 -1.190445 -1.001953
    23 11.585355 0.000000 0.000000 0.000000 0.000000 -1.631178
    24 10.127057 0.000000 0.000001 1.569752 0.000000 -0.069778
    25 2.683750 -0.427338 0.044205 -0.005786 0.043239 -0.157091
    26 1.438885 -0.000001 0.000000 0.000000 0.000000 0.732658
    27 1.485305 0.000001 0.000000 0.000000 0.000000 1.168770
    28 1.038631 0.548043 -0.144017 -0.000001 0.000001 -1.849906
    29 -0.064003 -0.023521 0.026161 0.000000 0.000000 0.000000
    30 3.013925 3.984634 -0.088975 -0.000001 0.000001 -1.849906
    31 -0.084188 -0.025627 -0.001098 0.000000 0.000000 0.000000
    32 4.778187 3.972486 -0.079803 -0.000001 0.000001 -1.849906
    33 -0.058556 -0.021324 0.004244 0.000000 0.000000 0.000000
    34 1.640598 -1.968779 -0.099219 -0.000001 0.000001 -1.849906
    35 0.055573 -0.028908 0.000000 0.000000 0.000000 0.000000
    36 1.646738 0.449549 -1.702246 0.441914 0.155087 1.184542
    37 0.928312 0.000000 -0.000002 0.000000 0.000000 0.000000
    38 0.928314 0.000000 0.000001 0.000000 0.000000 0.000000
    39 1.533672 0.109715 1.664491 -0.264755 -0.055959 0.783109
    40 0.928313 0.000000 0.000000 0.000000 0.000000 -0.453556
    41 0.928314 0.000000 0.000001 0.000000 0.000000 0.000000
  time 9
    0 0.235347 0.367732 3.528927 0.000000 0.000000 -1.570874
    1 0.000000 0.000000 0.000000 -1.570795 -1.570796 0.000000
    2 -0.000005 0.000007 3.713255 0.002054 3.115505 -0.021473
    3 18.045721 0.000000 0.000000 0.000000 0.000000 -0.121501
    4 17.597597 0.000000 0.000000 -0.002613 0.026036 0.099967
    5 0.000005 -0.000003 -3.713255 -0.002524 -3.124238 -0.024449
    6 18.045725 0.000000 0.000000 0.000000 0.000000 -0.127551
    7 17.597597 0.000000 0.000000 0.002950 -0.017289 0.103055
    8 1.293670 0.684478 -0.000001 -0.000004 -0.000001 -0.042812
    9 5.309685 -0.003834 0.000000 -0.156018 -0.017557 -0.112008
    10 4.826790 -0.004591 0.000000 -0.060771 -0.005789 -0.095790
    11 5.792767 -0.005304 0.000000 -0.086903 0.007394 0.083885
    12 6.662317 -0.001453 0.000000 0.000000 -0.000001 0.296580
    13 2.046985 -0.000002 0.000000 0.301408 0.040167 -0.381952
    14 -3.326874 0.954737 4.341911 0.903207 -1.155118 1.984776
    15 4.827230 0.000000 0.000001 -0.947008 0.446226 -1.132044
    16 11.139763 0.000000 0.000000 0.000000 0.000000 -1.393039
    17 10.314597 0.000001 0.000000 0.072298 -0.510857 0.140988
    18 2.975834 -0.386307 -0.044143 -0.021506 -0.037954 0.497588
    19 1.438886 0.000000 0.000000 0.000000 0.000000 0.889650
    20 1.485303 0.000000 0.000000 0.000000 0.000000 1.116422
    21 -3.065217 0.884022 -4.140396 -0.000013 1.334391 2.844176
    22 4.972048 0.000000 0.000001 0.634373 -1.181034 -1.005247
    23 11.585355 0.000000 0.000000 0.000000 0.000000 -1.631178
    24 10.127057 0.000000 0.000001 1.569752 0.000000 -0.069778
    25 2.683750 -0.427338 0.044205 -0.005786 0.043239 -0.157091
    26 1.438885 -0.000001 0.000000 0.000000 0.000000 0.732658
    27 1.485305 0.000001 0.000000 0.000000 0.000000 1.168770
    28 1.038631 0.548043 -0.144017 -0.000001 0.000001 -1.849906
    29 -0.064003 -0.023521 0.026161 0.000000 0.000000 0.000000
    30 3.013925 3.984634 -0.088975 -0.000001 0.000001 -1.849906
    31 -0.084188 -0.025627 -0.001098 0.000000 0.000000 0.000000
    32 4.778187 3.972486 -0.079803 -0.000001 0.000001 -1.849906
    33 -0.058556 -0.021324 0.004244 0.000000 0.000000 0.000000
    34 1.640598 -1.968779 -0.099219 -0.000001 0.000001 -1.849906
    35 0.055573 -0.028908 0.000000 0.000000 0.000000 0.000000
    36 1.646738 0.449549 -1.702246 0.441914 0.155087 1.184542
    37 0.928312 0.000000 -0.000002 0.000000 0.000000 0.000000
    38 0.928314 0.000000 0.000001 0.000000 0.000000 0.000000
    39 1.533672 0.109715 1.664491 -0.264755 -0.055959 0.783109
    40 0.928313 0.000000 0.000000 0.000000 0.000000 -0.453556
    41 0.928314 0.000000 0.000001 0.000000 0.000000 0.000000
  time 10
    0 0.235347 0.367732 3.528927 0.000000 0.000000 -1.570874
    1 0.000000 0.000000 0.000000 -1.570795 -1.570796 0.000000
    2 -0.000005 0.000007 3.713255 0.002054 3.115505 -0.021473
    3 18.045721 0.000000 0.000000 0.000000 0.000000 -0.121501
    4 17.597597 0.000000 0.000000 -0.002613 0.026036 0.099967
    5 0.000005 -0.000003 -3.713255 -0.002524 -3.124238 -0.024449
    6 18.045725 0.000000 0.000000 0.000000 0.000000 -0.127551
    7 17.597597 0.000000 0.000000 0.002950 -0.017289 0.103055
    8 1.293670 0.684478 -0.000001 -0.000004 -0.000001 -0.042812
    9 5.309685 -0.003834 0.000000 -0.156018 -0.017557 -0.112008
    10 4.826790 -0.004591 0.000000 -0.060771 -0.005789 -0.095790
    11 5.792767 -0.005304 0.000000 -0.086838 0.008078 0.091712
    12 6.662317 -0.001453 0.000000 0.000000 -0.000001 0.296580
    13 2.046985 -0.000002 0.000000 0.301408 0.040167 -0.389773
    14 -3.326874 0.954737 4.341911 0.889401 -1.150195 1.999828
    15 4.827230 0.000000 0.000001 -0.940018 0.435333 -1.130994
    16 11.139763 0.000000 0.000000 0.000000 0.000000 -1.393039
    17 10.314597 0.000001 0.000000 0.072298 -0.510857 0.140988
    18 2.975834 -0.386307 -0.044143 -0.021506 -0.037954 0.497588
    19 1.438886 0.000000 0.000000 0.000000 0.000000 0.889650
    20 1.485303 0.000000 0.000000 0.000000 0.000000 1.116422
    21 -3.065217 0.884022 -4.140396 -0.000013 1.330095 2.844176
    22 4.972048 0.000000 0.000001 0.635611 -1.172346 -1.008211
    23 11.585355 0.000000 0.000000 0.000000 0.000000 -1.631178
    24 10.127057 0.000000 0.000001 1.569752 0.000000 -0.069778
    25 2.683750 -0.427338 0.044205 -0.005786 0.043239 -0.157091
    26 1.438885 -0.000001 0.000000 0.000000 0.000000 0.732658
    27 1.485305 0.000001 0.000000 0.000000 0.000000 1.168770
    28 1.038631 0.548043 -0.144017 -0.000001 0.000001 -1.849906
    29 -0.064003 -0.023521 0.026161 0.000000 0.000000 0.000000
    30 3.013925 3.984634 -0.088975 -0.000001 0.000001 -1.849906
    31 -0.084188 -0.025627 -0.001098 0.000000 0.000000 0.000000
    32 4.778187 3.972486 -0.079803 -0.000001 0.000001 -1.849906
    33 -0.058556 -0.021324 0.004244 0.000000 0.000000 0.000000
    34 1.640598 -1.968779 -0.099219 -0.000001 0.000001 -1.849906
    35 0.055573 -0.028908 0.000000 0.000000 0.000000 0.000000
    36 1.646738 0.449549 -1.702246 0.441914 0.155087 1.184542
    37 0.928312 0.000000 -0.000002 0.000000 0.000000 0.000000
    38 0.928314 0.000000 0.000001 0.000000 0.000000 0.000000
    39 1.533672 0.109715 1.664491 -0.264755 -0.055959 0.783109
    40 0.928313 0.000000 0.000000 0.000000 0.000000 -0.453556
    41 0.928314 0.000000 0.000001 0.000000 0.000000 0.000000
  time 11
    0 0.235347 0.367732 3.528927 0.000000 0.000000 -1.570874
    1 0.000000 0.000000 0.000000 -1.570795 -1.570796 0.000000
    2 -0.000005 0.000007 3.713255 0.002054 3.115505 -0.021473
    3 18.045721 0.000000 0.000000 0.000000 0.000000 -0.121501
    4 17.597597 0.000000 0.000000 -0.002613 0.026036 0.099967
    5 0.000005 -0.000003 -3.713255 -0.002524 -3.124238 -0.024449
    6 18.045725 0.000000 0.000000 0.000000 0.000000 -0.127551
    7 17.597597 0.000000 0.000000 0.002950 -0.017289 0.103055
    8 1.293670 0.684478 -0.000001 -0.000004 -0.000001 -0.042812
    9 5.309685 -0.003834 0.000000 -0.156018 -0.017557 -0.112008
    10 4.826790 -0.004591 0.000000 -0.060771 -0.005789 -0.095790
    11 5.792767 -0.005304 0.000000 -0.086789 0.008677 0.098668
    12 6.662317 -0.001453 0.000000 0.000000 -0.000001 0.296580
    13 2.046985 -0.000002 0.000000 0.301408 0.040167 -0.396785
    14 -3.326874 0.954737 4.341911 0.877321 -1.145771 2.013059
    15 4.827230 0.000000 0.000001 -0.933851 0.425631 -1.130294
    16 11.139763 0.000000 0.000000 0.000000 0.000000 -1.393039
    17 10.314597 0.000001 0.000000 0.072298 -0.510857 0.140988
    18 2.975834 -0.386307 -0.044143 -0.021506 -0.037954 0.497588
    19 1.438886 0.000000 0.000000 0.000000 0.000000 0.889650
    20 1.485303 0.000000 0.000000 0.000000 0.000000 1.116422
    21 -3.065217 0.884022 -4.140396 -0.000013 1.326279 2.844176
    22 4.972048 0.000000 0.000001 0.636539 -1.164543 -1.010780
    23 11.585355 0.000000 0.000000 0.000000 0.000000 -1.631178
    24 10.127057 0.000000 0.000001 1.569752 0.000000 -0.069778
    25 2.683750 -0.427338 0.044205 -0.005786 0.043239 -0.157091
    26 1.438885 -0.000001 0.000000 0.000000 0.000000 0.732658
    27 1.485305 0.000001 0.000000 0.000000 0.000000 1.168770
    28 1.038631 0.548043 -0.144017 -0.000001 0.000001 -1.849906
    29 -0.064003 -0.023521 0.026161 0.000000 0.000000 0.000000
    30 3.013925 3.984634 -0.088975 -0.000001 0.000001 -1.849906
    31 -0.084188 -0.025627 -0.001098 0.000000 0.000000 0.000000
    32 4.778187 3.972486 -0.079803 -0.000001 0.000001 -1.849906
    33 -0.058556 -0.021324 0.004244 0.000000 0.000000 0.000000
    34 1.640598 -1.968779 -0.099219 -0.000001 0.000001 -1.849906
    35 0.055573 -0.028908 0.000000 0.000000 0.000000 0.000000
    36 1.646738 0.449549 -1.702246 0.441914 0.155087 1.184542
    37 0.928312 0.000000 -0.000002 0.000000 0.000000 0.000000
    38 0.928314 0.000000 0.000001 0.000000 0.000000 0.000000
    39 1.533672 0.109715 1.664491 -0.264755 -0.055959 0.783109
    40 0.928313 0.000000 0.000000 0.000000 0.000000 -0.453556
    41 0.928314 0.000000 0.000001 0.000000 0.000000 0.000000
  time 12
    0 0.235347 0.367732 3.528927 0.000000 0.000000 -1.570874
    1 0.000000 0.000000 0.000000 -1.570795 -1.570796 0.000000
    2 -0.000005 0.000007 3.713255 0.002054 3.115505 -0.021473
    3 18.045721 0.000000 0.000000 0.000000 0.000000 -0.121501
    4 17.597597 0.000000 0.000000 -0.002613 0.026036 0.099967
    5 0.000005 -0.000003 -3.713255 -0.002524 -3.124238 -0.024449
    6 18.045725 0.000000 0.000000 0.000000 0.000000 -0.127551
    7 17.597597 0.000000 0.000000 0.002950 -0.017289 0.103055
    8 1.293670 0.684478 -0.000001 -0.000004 -0.000001 -0.042812
    9 5.309685 -0.003834 0.000000 -0.156018 -0.017557 -0.112008
    10 4.826790 -0.004591 0.000000 -0.060771 -0.005789 -0.095790
    11 5.792767 -0.005304 0.000000 -0.086724 0.009192 0.104544
    12 6.662317 -0.001453 0.000000 0.000000 -0.000001 0.296580
    13 2.046985 -0.000002 0.000000 0.301408 0.040167 -0.402673
    14 -3.326874 0.954737 4.341911 0.867446 -1.141963 2.023893
    15 4.827230 0.000000 0.000001 -0.928682 0.417461 -1.129769
    16 11.139763 0.000000 0.000000 0.000000 0.000000 -1.393039
    17 10.314597 0.000001 0.000000 0.072298 -0.510857 0.140988
    18 2.975834 -0.386307 -0.044143 -0.021506 -0.037954 0.497588
    19 1.438886 0.000000 0.000000 0.000000 0.000000 0.889650
    20 1.485303 0.000000 0.000000 0.000000 0.000000 1.116422
    21 -3.065217 0.884022 -4.140396 -0.000013 1.323085 2.844176
    22 4.972048 0.000000 0.000001 0.637313 -1.158028 -1.012888
    23 11.585355 0.000000 0.000000 0.000000 0.000000 -1.631178
    24 10.127057 0.000000 0.000001 1.569752 0.000000 -0.069778
    25 2.683750 -0.427338 0.044205 -0.005786 0.043239 -0.157091
    26 1.438885 -0.000001 0.000000 0.000000 0.000000 0.732658
    27 1.485305 0.000001 0.000000 0.000000 0.000000 1.168770
    28 1.038631 0.548043 -0.144017 -0.000001 0.000001 -1.849906
    29 -0.064003 -0.023521 0.026161 0.000000 0.000000 0.000000
    30 3.013925 3.984634 -0.088975 -0.000001 0.000001 -1.849906
    31 -0.084188 -0.025627 -0.001098 0.000000 0.000000 0.000000
    32 4.778187 3.972486 -0.079803 -0.000001 0.000001 -1.849906
    33 -0.058556 -0.021324 0.004244 0.000000 0.000000 0.000000
    34 1.640598 -1.968779 -0.099219 -0.000001 0.000001 -1.849906
    35 0.055573 -0.028908 0.000000 0.000000 0.000000 0.000000
    36 1.646738 0.449549 -1.702246 0.441914 0.155087 1.184542
    37 0.928312 0.000000 -0.000002 0.000000 0.000000 0.000000
    38 0.928314 0.000000 0.000001 0.000000 0.000000 0.000000
    39 1.533672 0.109715 1.664491 -0.264755 -0.055959 0.783109
    40 0.928313 0.000000 0.000000 0.000000 0.000000 -0.453556
    41 0.928314 0.000000 0.000001 0.000000 0.000000 0.000000
  time 13
    0 0.235347 0.367732 3.528927 0.000000 0.000000 -1.570874
    1 0.000000 0.000000 0.000000 -1.570795 -1.570796 0.000000
    2 -0.000005 0.000007 3.713255 0.002054 3.115505 -0.021473
    3 18.045721 0.000000 0.000000 0.000000 0.000000 -0.121501
    4 17.597597 0.000000 0.000000 -0.002613 0.026036 0.099967
    5 0.000005 -0.000003 -3.713255 -0.002524 -3.124238 -0.024449
    6 18.045725 0.000000 0.000000 0.000000 0.000000 -0.127551
    7 17.597597 0.000000 0.000000 0.002950 -0.017289 0.103055
    8 1.293670 0.684478 -0.000001 -0.000004 -0.000001 -0.042812
    9 5.309685 -0.003834 0.000000 -0.156018 -0.017557 -0.112008
    10 4.826790 -0.004591 0.000000 -0.060771 -0.005789 -0.095790
    11 5.792767 -0.005304 0.000000 -0.086691 0.009576 0.109049
    12 6.662317 -0.001453 0.000000 0.000000 -0.000001 0.296580
    13 2.046985 -0.000002 0.000000 0.301408 0.040167 -0.407168
    14 -3.326874 0.954737 4.341911 0.859968 -1.139039 2.032139
    15 4.827230 0.000000 0.000001 -0.924688 0.411249 -1.129331
    16 11.139763 0.000000 0.000000 0.000000 0.000000 -1.393039
    17 10.314597 0.000001 0.000000 0.072298 -0.510857 0.140988
    18 2.975834 -0.386307 -0.044143 -0.021506 -0.037954 0.497588
    19 1.438886 0.000000 0.000000 0.000000 0.000000 0.889650
    20 1.485303 0.000000 0.000000 0.000000 0.000000 1.116422
    21 -3.065217 0.884022 -4.140396 -0.000013 1.320626 2.844176
    22 4.972048 0.000000 0.000001 0.637854 -1.152960 -1.014535
    23 11.585355 0.000000 0.000000 0.000000 0.000000 -1.631178
    24 10.127057 0.000000 0.000001 1.569752 0.000000 -0.069778
    25 2.683750 -0.427338 0.044205 -0.005786 0.043239 -0.157091
    26 1.438885 -0.000001 0.000000 0.000000 0.000000 0.732658
    27 1.485305 0.000001 0.000000 0.000000 0.000000 1.168770
    28 1.038631 0.548043 -0.144017 -0.000001 0.000001 -1.849906
    29 -0.064003 -0.023521 0.026161 0.000000 0.000000 0.000000
    30 3.013925 3.984634 -0.088975 -0.000001 0.000001 -1.849906
    31 -0.084188 -0.025627 -0.001098 0.000000 0.000000 0.000000
    32 4.778187 3.972486 -0.079803 -0.000001 0.000001 -1.849906
    33 -0.058556 -0.021324 0.004244 0.000000 0.000000 0.000000
    34 1.640598 -1.968779 -0.099219 -0.000001 0.000001 -1.849906
    35 0.055573 -0.028908 0.000000 0.000000 0.000000 0.000000
    36 1.646738 0.449549 -1.702246 0.441914 0.155087 1.184542
    37 0.928312 0.000000 -0.000002 0.000000 0.000000 0.000000
    38 0.928314 0.000000 0.000001 0.000000 0.000000 0.000000
    39 1.533672 0.109715 1.664491 -0.264755 -0.055959 0.783109
    40 0.928313 0.000000 0.000000 0.000000 0.000000 -0.453556
    41 0.928314 0.000000 0.000001 0.000000 0.000000 0.000000
  time 14
    0 0.235347 0.367732 3.528927 0.000000 0.000000 -1.570874
    1 0.000000 0.000000 0.000000 -1.570795 -1.570796 0.000000
    2 -0.000005 0.000007 3.713255 0.002054 3.115505 -0.021473
    3 18.045721 0.000000 0.000000 0.000000 0.000000 -0.121501
    4 17.597597 0.000000 0.000000 -0.002613 0.026036 0.099967
    5 0.000005 -0.000003 -3.713255 -0.002524 -3.124238 -0.024449
    6 18.045725 0.000000 0.000000 0.000000 0.000000 -0.127551
    7 17.597597 0.000000 0.000000 0.002950 -0.017289 0.103055
    8 1.293670 0.684478 -0.000001 -0.000004 -0.000001 -0.042812
    9 5.309685 -0.003834 0.000000 -0.156018 -0.017557 -0.112008
    10 4.826790 -0.004591 0.000000 -0.060771 -0.005789 -0.095790
    11 5.792767 -0.005304 0.000000 -0.086658 0.009827 0.111935
    12 6.662317 -0.001453 0.000000 0.000000 -0.000001 0.296580
    13 2.046985 -0.000002 0.000000 0.301408 0.040167 -0.410089
    14 -3.326874 0.954737 4.341911 0.855270 -1.137155 2.037412
    15 4.827230 0.000000 0.000001 -0.922162 0.407249 -1.129156
    16 11.139763 0.000000 0.000000 0.000000 0.000000 -1.393039
    17 10.314597 0.000001 0.000000 0.072298 -0.510857 0.140988
    18 2.975834 -0.386307 -0.044143 -0.021506 -0.037954 0.497588
    19 1.438886 0.000000 0.000000 0.000000 0.000000 0.889650
    20 1.485303 0.000000 0.000000 0.000000 0.000000 1.116422
    21 -3.065217 0.884022 -4.140396 -0.000013 1.319043 2.844176
    22 4.972048 0.000000 0.000001 0.638241 -1.149742 -1.015589
    23 11.585355 0.000000 0.000000 0.000000 0.000000 -1.631178
    24 10.127057 0.000000 0.000001 1.569752 0.000000 -0.069778
    25 2.683750 -0.427338 0.044205 -0.005786 0.043239 -0.157091
    26 1.438885 -0.000001 0.000000 0.000000 0.000000 0.732658
    27 1.485305 0.000001 0.000000 0.000000 0.000000 1.168770
    28 1.038631 0.548043 -0.144017 -0.000001 0.000001 -1.849906
    29 -0.064003 -0.023521 0.026161 0.000000 0.000000 0.000000
    30 3.013925 3.984634 -0.088975 -0.000001 0.000001 -1.849906
    31 -0.084188 -0.025627 -0.001098 0.000000 0.000000 0.000000
    32 4.778187 3.972486 -0.079803 -0.000001 0.000001 -1.849906
    33 -0.058556 -0.021324 0.004244 0.000000 0.000000 0.000000
    34 1.640598 -1.968779 -0.099219 -0.000001 0.000001 -1.849906
    35 0.055573 -0.028908 0.000000 0.000000 0.000000 0.000000
    36 1.646738 0.449549 -1.702246 0.441914 0.155087 1.184542
    37 0.928312 0.000000 -0.000002 0.000000 0.000000 0.000000
    38 0.928314 0.000000 0.000001 0.000000 0.000000 0.000000
    39 1.533672 0.109715 1.664491 -0.264755 -0.055959 0.783109
    40 0.928313 0.000000 0.000000 0.000000 0.000000 -0.453556
    41 0.928314 0.000000 0.000001 0.000000 0.000000 0.000000
  time 15
    0 0.235347 0.367732 3.528927 0.000000 0.000000 -1.570874
    1 0.000000 0.000000 0.000000 -1.570795 -1.570796 0.000000
    2 -0.000005 0.000007 3.713255 0.002054 3.115505 -0.021473
    3 18.045721 0.000000 0.000000 0.000000 0.000000 -0.121501
    4 17.597597 0.000000 0.000000 -0.002613 0.026036 0.099967
    5 0.000005 -0.000003 -3.713255 -0.002524 -3.124238 -0.024449
    6 18.045725 0.000000 0.000000 0.000000 0.000000 -0.127551
    7 17.597597 0.000000 0.000000 0.002950 -0.017289 0.103055
    8 1.293670 0.684478 -0.000001 -0.000004 -0.000001 -0.042812
    9 5.309685 -0.003834 0.000000 -0.156018 -0.017557 -0.112008
    10 4.826790 -0.004591 0.000000 -0.060771 -0.005789 -0.095790
    11 5.792767 -0.005304 0.000000 -0.086642 0.009923 0.112953
    12 6.662317 -0.001453 0.000000 0.000000 -0.000001 0.296580
    13 2.046985 -0.000002 0.000000 0.301408 0.040167 -0.411078
    14 -3.326874 0.954737 4.341911 0.853544 -1.136462 2.039233
    15 4.827230 0.000000 0.000001 -0.921281 0.405803 -1.129069
    16 11.139763 0.000000 0.000000 0.000000 0.000000 -1.393039
    17 10.314597 0.000001 0.000000 0.072298 -0.510857 0.140988
    18 2.975834 -0.386307 -0.044143 -0.021506 -0.037954 0.497588
    19 1.438886 0.000000 0.000000 0.000000 0.000000 0.889650
    20 1.485303 0.000000 0.000000 0.000000 0.000000 1.116422
    21 -3.065217 0.884022 -4.140396 -0.000013 1.318478 2.844176
    22 4.972048 0.000000 0.000001 0.638318 -1.148616 -1.015918
    23 11.585355 0.000000 0.000000 0.000000 0.000000 -1.631178
    24 10.127057 0.000000 0.000001 1.569752 0.000000 -0.069778
    25 2.683750 -0.427338 0.044205 -0.005786 0.043239 -0.157091
    26 1.438885 -0.000001 0.000000 0.000000 0.000000 0.732658
    27 1.485305 0.000001 0.000000 0.000000 0.000000 1.168770
    28 1.038631 0.548043 -0.144017 -0.000001 0.000001 -1.849906
    29 -0.064003 -0.023521 0.026161 0.000000 0.000000 0.000000
    30 3.013925 3.984634 -0.088975 -0.000001 0.000001 -1.849906
    31 -0.084188 -0.025627 -0.001098 0.000000 0.000000 0.000000
    32 4.778187 3.972486 -0.079803 -0.000001 0.000001 -1.849906
    33 -0.058556 -0.021324 0.004244 0.000000 0.000000 0.000000
    34 1.640598 -1.968779 -0.099219 -0.000001 0.000001 -1.849906
    35 0.055573 -0.028908 0.000000 0.000000 0.000000 0.000000
    36 1.646738 0.449549 -1.702246 0.441914 0.155087 1.184542
    37 0.928312 0.000000 -0.000002 0.000000 0.000000 0.000000
    38 0.928314 0.000000 0.000001 0.000000 0.000000 0.000000
    39 1.533672 0.109715 1.664491 -0.264755 -0.055959 0.783109
    40 0.928313 0.000000 0.000000 0.000000 0.000000 -0.453556
    41 0.928314 0.000000 0.000001 0.000000 0.000000 0.000000
  time 16
    0 0.235347 0.367732 3.528927 0.000000 0.000000 -1.570874
    1 0.000000 0.000000 0.000000 -1.570795 -1.570796 0.000000
    2 -0.000005 0.000007 3.713255 0.002054 3.115505 -0.021473
    3 18.045721 0.000000 0.000000 0.000000 0.000000 -0.121501
    4 17.597597 0.000000 0.000000 -0.002613 0.026036 0.099967
    5 0.000005 -0.000003 -3.713255 -0.002524 -3.124238 -0.024449
    6 18.045725 0.000000 0.000000 0.000000 0.000000 -0.127551
    7 17.597597 0.000000 0.000000 0.002950 -0.017289 0.103055
    8 1.293670 0.684478 -0.000001 -0.000004 -0.000001 -0.042812
    9 5.309685 -0.003834 0.000000 -0.156018 -0.017557 -0.112008
    10 4.826790 -0.004591 0.000000 -0.060771 -0.005789 -0.095790
    11 5.792767 -0.005304 0.000000 -0.086658 0.009827 0.111935
    12 6.662317 -0.001453 0.000000 0.000000 -0.000001 0.296580
    13 2.046985 -0.000002 0.000000 0.301408 0.040167 -0.410089
    14 -3.326874 0.954737 4.341911 0.855270 -1.137155 2.037412
    15 4.827230 0.000000 0.000001 -0.922162 0.407249 -1.129156
    16 11.139763 0.000000 0.000000 0.000000 0.000000 -1.393039
    17 10.314597 0.000001 0.000000 0.072298 -0.510857 0.140988
    18 2.975834 -0.386307 -0.044143 -0.021506 -0.037954 0.497588
    19 1.438886 0.000000 0.000000 0.000000 0.000000 0.889650
    20 1.485303 0.000000 0.000000 0.000000 0.000000 1.116422
    21 -3.065217 0.884022 -4.140396 -0.000013 1.319043 2.844176
    22 4.972048 0.000000 0.000001 0.638241 -1.149742 -1.015589
    23 11.585355 0.000000 0.000000 0.000000 0.000000 -1.631178
    24 10.127057 0.000000 0.000001 1.569752 0.000000 -0.069778
    25 2.683750 -0.427338 0.044205 -0.005786 0.043239 -0.157091
    26 1.438885 -0.000001 0.000000 0.000000 0.000000 0.732658
    27 1.485305 0.000001 0.000000 0.000000 0.000000 1.168770
    28 1.038631 0.548043 -0.144017 -0.000001 0.000001 -1.849906
    29 -0.064003 -0.023521 0.026161 0.000000 0.000000 0.000000
    30 3.013925 3.984634 -0.088975 -0.000001 0.000001 -1.849906
    31 -0.084188 -0.025627 -0.001098 0.000000 0.000000 0.000000
    32 4.778187 3.972486 -0.079803 -0.000001 0.000001 -1.849906
    33 -0.058556 -0.021324 0.004244 0.000000 0.000000 0.000000
    34 1.640598 -1.968779 -0.099219 -0.000001 0.000001 -1.849906
    35 0.055573 -0.028908 0.000000 0.000000 0.000000 0.000000
    36 1.646738 0.449549 -1.702246 0.441914 0.155087 1.184542
    37 0.928312 0.000000 -0.000002 0.000000 0.000000 0.000000
    38 0.928314 0.000000 0.000001 0.000000 0.000000 0.000000
    39 1.533672 0.109715 1.664491 -0.264755 -0.055959 0.783109
    40 0.928313 0.000000 0.000000 0.000000 0.000000 -0.453556
    41 0.928314 0.000000 0.000001 0.000000 0.000000 0.000000
  time 17
    0 0.235347 0.367732 3.528927 0.000000 0.000000 -1.570874
    1 0.000000 0.000000 0.000000 -1.570795 -1.570796 0.000000
    2 -0.000005 0.000007 3.713255 0.002054 3.115505 -0.021473
    3 18.045721 0.000000 0.000000 0.000000 0.000000 -0.121501
    4 17.597597 0.000000 0.000000 -0.002613 0.026036 0.099967
    5 0.000005 -0.000003 -3.713255 -0.002524 -3.124238 -0.024449
    6 18.045725 0.000000 0.000000 0.000000 0.000000 -0.127551
    7 17.597597 0.000000 0.000000 0.002950 -0.017289 0.103055
    8 1.293670 0.684478 -0.000001 -0.000004 -0.000001 -0.042812
    9 5.309685 -0.003834 0.000000 -0.156018 -0.017557 -0.112008
    10 4.826790 -0.004591 0.000000 -0.060771 -0.005789 -0.095790
    11 5.792767 -0.005304 0.000000 -0.086691 0.009576 0.109049
    12 6.662317 -0.001453 0.000000 0.000000 -0.000001 0.296580
    13 2.046985 -0.000002 0.000000 0.301408 0.040167 -0.407168
    14 -3.326874 0.954737 4.341911 0.859968 -1.139039 2.032139
    15 4.827230 0.000000 0.000001 -0.924688 0.411249 -1.129331
    16 11.139763 0.000000 0.000000 0.000000 0.000000 -1.393039
    17 10.314597 0.000001 0.000000 0.072298 -0.510857 0.140988
    18 2.975834 -0.386307 -0.044143 -0.021506 -0.037954 0.497588
    19 1.438886 0.000000 0.000000 0.000000 0.000000 0.889650
    20 1.485303 0.000000 0.000000 0.000000 0.000000 1.116422
    21 -3.065217 0.884022 -4.140396 -0.000013 1.320626 2.844176
    22 4.972048 0.000000 0.000001 0.637854 -1.152960 -1.014535
    23 11.585355 0.000000 0.000000 0.000000 0.000000 -1.631178
    24 10.127057 0.000000 0.000001 1.569752 0.000000 -0.069778
    25 2.683750 -0.427338 0.044205 -0.005786 0.043239 -0.157091
    26 1.438885 -0.000001 0.000000 0.000000 0.000000 0.732658
    27 1.485305 0.000001 0.000000 0.000000 0.000000 1.168770
    28 1.038631 0.548043 -0.144017 -0.000001 0.000001 -1.849906
    29 -0.064003 -0.023521 0.026161 0.000000 0.000000 0.000000
    30 3.013925 3.984634 -0.088975 -0.000001 0.000001 -1.849906
    31 -0.084188 -0.025627 -0.001098 0.000000 0.000000 0.000000
    32 4.778187 3.972486 -0.079803 -0.000001 0.000001 -1.849906
    33 -0.058556 -0.021324 0.004244 0.000000 0.000000 0.000000
    34 1.640598 -1.968779 -0.099219 -0.000001 0.000001 -1.849906
    35 0.055573 -0.028908 0.000000 0.000000 0.000000 0.000000
    36 1.646738 0.449549 -1.702246 0.441914 0.155087 1.184542
    37 0.928312 0.000000 -0.000002 0.000000 0.000000 0.000000
    38 0.928314 0.000000 0.000001 0.000000 0.000000 0.000000
    39 1.533672 0.109715 1.664491 -0.264755 -0.055959 0.783109
    40 0.928313 0.000000 0.000000 0.000000 0.000000 -0.453556
    41 0.928314 0.000000 0.000001 0.000000 0.000000 0.000000
  time 18
    0 0.235347 0.367732 3.528927 0.000000 0.000000 -1.570874
    1 0.000000 0.000000 0.000000 -1.570795 -1.570796 0.000000
    2 -0.000005 0.000007 3.713255 0.002054 3.115505 -0.021473
    3 18.045721 0.000000 0.000000 0.000000 0.000000 -0.121501
    4 17.597597 0.000000 0.000000 -0.002613 0.026036 0.099967
    5 0.000005 -0.000003 -3.713255 -0.002524 -3.124238 -0.024449
    6 18.045725 0.000000 0.000000 0.000000 0.000000 -0.127551
    7 17.597597 0.000000 0.000000 0.002950 -0.017289 0.103055
    8 1.293670 0.684478 -0.000001 -0.000004 -0.000001 -0.042812
    9 5.309685 -0.003834 0.000000 -0.156018 -0.017557 -0.112008
    10 4.826790 -0.004591 0.000000 -0.060771 -0.005789 -0.095790
    11 5.792767 -0.005304 0.000000 -0.086724 0.009192 0.104544
    12 6.662317 -0.001453 0.000000 0.000000 -0.000001 0.296580
    13 2.046985 -0.000002 0.000000 0.301408 0.040167 -0.402673
    14 -3.326874 0.954737 4.341911 0.867446 -1.141963 2.023893
    15 4.827230 0.000000 0.000001 -0.928682 0.417461 -1.129769
    16 11.139763 0.000000 0.000000 0.000000 0.000000 -1.393039
    17 10.314597 0.000001 0.000000 0.072298 -0.510857 0.140988
    18 2.975834 -0.386307 -0.044143 -0.021506 -0.037954 0.497588
    19 1.438886 0.000000 0.000000 0.000000 0.000000 0.889650
    20 1.485303 0.000000 0.000000 0.000000 0.000000 1.116422
    21 -3.065217 0.884022 -4.140396 -0.000013 1.323085 2.844176
    22 4.972048 0.000000 0.000001 0.637313 -1.158028 -1.012888
    23 11.585355 0.000000 0.000000 0.000000 0.000000 -1.631178
    24 10.127057 0.000000 0.000001 1.569752 0.000000 -0.069778
    25 2.683750 -0.427338 0.044205 -0.005786 0.043239 -0.157091
    26 1.438885 -0.000001 0.000000 0.000000 0.000000 0.732658
    27 1.485305 0.000001 0.000000 0.000000 0.000000 1.168770
    28 1.038631 0.548043 -0.144017 -0.000001 0.000001 -1.849906
    29 -0.064003 -0.023521 0.026161 0.000000 0.000000 0.000000
    30 3.013925 3.984634 -0.088975 -0.000001 0.000001 -1.849906
    31 -0.084188 -0.025627 -0.001098 0.000000 0.000000 0.000000
    32 4.778187 3.972486 -0.079803 -0.000001 0.000001 -1.849906
    33 -0.058556 -0.021324 0.004244 0.000000 0.000000 0.000000
    34 1.640598 -1.968779 -0.099219 -0.000001 0.000001 -1.849906
    35 0.055573 -0.028908 0.000000 0.000000 0.000000 0.000000
    36 1.646738 0.449549 -1.702246 0.441914 0.155087 1.184542
    37 0.928312 0.000000 -0.000002 0.000000 0.000000 0.000000
    38 0.928314 0.000000 0.000001 0.000000 0.000000 0.000000
    39 1.533672 0.109715 1.664491 -0.264755 -0.055959 0.783109
    40 0.928313 0.000000 0.000000 0.000000 0.000000 -0.453556
    41 0.928314 0.000000 0.000001 0.000000 0.000000 0.000000
  time 19
    0 0.235347 0.367732 3.528927 0.000000 0.000000 -1.570874
    1 0.000000 0.000000 0.000000 -1.570795 -1.570796 0.000000
    2 -0.000005 0.000007 3.713255 0.002054 3.115505 -0.021473
    3 18.045721 0.000000 0.000000 0.000000 0.000000 -0.121501
    4 17.597597 0.000000 0.000000 -0.002613 0.026036 0.099967
    5 0.000005 -0.000003 -3.713255 -0.002524 -3.124238 -0.024449
    6 18.045725 0.000000 0.000000 0.000000 0.000000 -0.127551
    7 17.597597 0.000000 0.000000 0.002950 -0.017289 0.103055
    8 1.293670 0.684478 -0.000001 -0.000004 -0.000001 -0.042812
    9 5.309685 -0.003834 0.000000 -0.156018 -0.017557 -0.112008
    10 4.826790 -0.004591 0.000000 -0.060771 -0.005789 -0.095790
    11 5.792767 -0.005304 0.000000 -0.086789 0.008677 0.098668
    12 6.662317 -0.001453 0.000000 0.000000 -0.000001 0.296580
    13 2.046985 -0.000002 0.000000 0.301408 0.040167 -0.396785
    14 -3.326874 0.954737 4.341911 0.877321 -1.145771 2.013059
    15 4.827230 0.000000 0.000001 -0.933851 0.425631 -1.130294
    16 11.139763 0.000000 0.000000 0.000000 0.000000 -1.393039
    17 10.314597 0.000001 0.000000 0.072298 -0.510857 0.140988
    18 2.975834 -0.386307 -0.044143 -0.021506 -0.037954 0.497588
    19 1.438886 0.000000 0.000000 0.000000 0.000000 0.889650
    20 1.485303 0.000000 0.000000 0.000000 0.000000 1.116422
    21 -3.065217 0.884022 -4.140396 -0.000013 1.326279 2.844176
    22 4.972048 0.000000 0.000001 0.636539 -1.164543 -1.010780
    23 11.585355 0.000000 0.000000 0.000000 0.000000 -1.631178
    24 10.127057 0.000000 0.000001 1.569752 0.000000 -0.069778
    25 2.683750 -0.427338 0.044205 -0.005786 0.043239 -0.157091
    26 1.438885 -0.000001 0.000000 0.000000 0.000000 0.732658
    27 1.485305 0.000001 0.000000 0.000000 0.000000 1.168770
    28 1.038631 0.548043 -0.144017 -0.000001 0.000001 -1.849906
    29 -0.064003 -0.023521 0.026161 0.000000 0.000000 0.000000
    30 3.013925 3.984634 -0.088975 -0.000001 0.000001 -1.849906
    31 -0.084188 -0.025627 -0.001098 0.000000 0.000000 0.000000
    32 4.778187 3.972486 -0.079803 -0.000001 0.000001 -1.849906
    33 -0.058556 -0.021324 0.004244 0.000000 0.000000 0.000000
    34 1.640598 -1.968779 -0.099219 -0.000001 0.000001 -1.849906
    35 0.055573 -0.028908 0.000000 0.000000 0.000000 0.000000
    36 1.646738 0.449549 -1.702246 0.441914 0.155087 1.184542
    37 0.928312 0.000000 -0.000002 0.000000 0.000000 0.000000
    38 0.928314 0.000000 0.000001 0.000000 0.000000 0.000000
    39 1.533672 0.109715 1.664491 -0.264755 -0.055959 0.783109
    40 0.928313 0.000000 0.000000 0.000000 0.000000 -0.453556
    41 0.928314 0.000000 0.000001 0.000000 0.000000 0.000000
  time 20
    0 0.235347 0.367732 3.528927 0.000000 0.000000 -1.570874
    1 0.000000 0.000000 0.000000 -1.570795 -1.570796 0.000000
    2 -0.000005 0.000007 3.713255 0.002054 3.115505 -0.021473
    3 18.045721 0.000000 0.000000 0.000000 0.000000 -0.121501
    4 17.597597 0.000000 0.000000 -0.002613 0.026036 0.099967
    5 0.000005 -0.000003 -3.713255 -0.002524 -3.124238 -0.024449
    6 18.045725 0.000000 0.000000 0.000000 0.000000 -0.127551
    7 17.597597 0.000000 0.000000 0.002950 -0.017289 0.103055
    8 1.293670 0.684478 -0.000001 -0.000004 -0.000001 -0.042812
    9 5.309685 -0.003834 0.000000 -0.156018 -0.017557 -0.112008
    10 4.826790 -0.004591 0.000000 -0.060771 -0.005789 -0.095790
    11 5.792767 -0.005304 0.000000 -0.086838 0.008078 0.091712
    12 6.662317 -0.001453 0.000000 0.000000 -0.000001 0.296580
    13 2.046985 -0.000002 0.000000 0.301408 0.040167 -0.389773
    14 -3.326874 0.954737 4.341911 0.889401 -1.150195 1.999828
    15 4.827230 0.000000 0.000001 -0.940018 0.435333 -1.130994
    16 11.139763 0.000000 0.000000 0.000000 0.000000 -1.393039
    17 10.314597 0.000001 0.000000 0.072298 -0.510857 0.140988
    18 2.975834 -0.386307 -0.044143 -0.021506 -0.037954 0.497588
    19 1.438886 0.000000 0.000000 0.000000 0.000000 0.889650
    20 1.485303 0.000000 0.000000 0.000000 0.000000 1.116422
    21 -3.065217 0.884022 -4.140396 -0.000013 1.330095 2.844176
    22 4.972048 0.000000 0.000001 0.635611 -1.172346 -1.008211
    23 11.585355 0.000000 0.000000 0.000000 0.000000 -1.631178
    24 10.127057 0.000000 0.000001 1.569752 0.000000 -0.069778
    25 2.683750 -0.427338 0.044205 -0.005786 0.043239 -0.157091
    26 1.438885 -0.000001 0.000000 0.000000 0.000000 0.732658
    27 1.485305 0.000001 0.000000 0.000000 0.000000 1.168770
    28 1.038631 0.548043 -0.144017 -0.000001 0.000001 -1.849906
    29 -0.064003 -0.023521 0.026161 0.000000 0.000000 0.000000
    30 3.013925 3.984634 -0.088975 -0.000001 0.000001 -1.849906
    31 -0.084188 -0.025627 -0.001098 0.000000 0.000000 0.000000
    32 4.778187 3.972486 -0.079803 -0.000001 0.000001 -1.849906
    33 -0.058556 -0.021324 0.004244 0.000000 0.000000 0.000000
    34 1.640598 -1.968779 -0.099219 -0.000001 0.000001 -1.849906
    35 0.055573 -0.028908 0.000000 0.000000 0.000000 0.000000
    36 1.646738 0.449549 -1.702246 0.441914 0.155087 1.184542
    37 0.928312 0.000000 -0.000002 0.000000 0.000000 0.000000
    38 0.928314 0.000000 0.000001 0.000000 0.000000 0.000000
    39 1.533672 0.109715 1.664491 -0.264755 -0.055959 0.783109
    40 0.928313 0.000000 0.000000 0.000000 0.000000 -0.453556
    41 0.928314 0.000000 0.000001 0.000000 0.000000 0.000000
  time 21
    0 0.235347 0.367732 3.528927 0.000000 0.000000 -1.570874
    1 0.000000 0.000000 0.000000 -1.570795 -1.570796 0.000000
    2 -0.000005 0.000007 3.713255 0.002054 3.115505 -0.021473
    3 18.045721 0.000000 0.000000 0.000000 0.000000 -0.121501
    4 17.597597 0.000000 0.000000 -0.002613 0.026036 0.099967
    5 0.000005 -0.000003 -3.713255 -0.002524 -3.124238 -0.024449
    6 18.045725 0.000000 0.000000 0.000000 0.000000 -0.127551
    7 17.597597 0.000000 0.000000 0.002950 -0.017289 0.103055
    8 1.293670 0.684478 -0.000001 -0.000004 -0.000001 -0.042812
    9 5.309685 -0.003834 0.000000 -0.156018 -0.017557 -0.112008
    10 4.826790 -0.004591 0.000000 -0.060771 -0.005789 -0.095790
    11 5.792767 -0.005304 0.000000 -0.086903 0.007394 0.083885
    12 6.662317 -0.001453 0.000000 0.000000 -0.000001 0.296580
    13 2.046985 -0.000002 0.000000 0.301408 0.040167 -0.381952
    14 -3.326874 0.954737 4.341911 0.903207 -1.155118 1.984776
    15 4.827230 0.000000 0.000001 -0.947008 0.446226 -1.132044
    16 11.139763 0.000000 0.000000 0.000000 0.000000 -1.393039
    17 10.314597 0.000001 0.000000 0.072298 -0.510857 0.140988
    18 2.975834 -0.386307 -0.044143 -0.021506 -0.037954 0.497588
    19 1.438886 0.000000 0.000000 0.000000 0.000000 0.889650
    20 1.485303 0.000000 0.000000 0.000000 0.000000 1.116422
    21 -3.065217 0.884022 -4.140396 -0.000013 1.334391 2.844176
    22 4.972048 0.000000 0.000001 0.634373 -1.181034 -1.005247
    23 11.585355 0.000000 0.000000 0.000000 0.000000 -1.631178
    24 10.127057 0.000000 0.000001 1.569752 0.000000 -0.069778
    25 2.683750 -0.427338 0.044205 -0.005786 0.043239 -0.157091
    26 1.438885 -0.000001 0.000000 0.000000 0.000000 0.732658
    27 1.485305 0.000001 0.000000 0.000000 0.000000 1.168770
    28 1.038631 0.548043 -0.144017 -0.000001 0.000001 -1.849906
    29 -0.064003 -0.023521 0.026161 0.000000 0.000000 0.000000
    30 3.013925 3.984634 -0.088975 -0.000001 0.000001 -1.849906
    31 -0.084188 -0.025627 -0.001098 0.000000 0.000000 0.000000
    32 4.778187 3.972486 -0.079803 -0.000001 0.000001 -1.849906
    33 -0.058556 -0.021324 0.004244 0.000000 0.000000 0.000000
    34 1.640598 -1.968779 -0.099219 -0.000001 0.000001 -1.849906
    35 0.055573 -0.028908 0.000000 0.000000 0.000000 0.000000
    36 1.646738 0.449549 -1.702246 0.441914 0.155087 1.184542
    37 0.928312 0.000000 -0.000002 0.000000 0.000000 0.000000
    38 0.928314 0.000000 0.000001 0.000000 0.000000 0.000000
    39 1.533672 0.109715 1.664491 -0.264755 -0.055959 0.783109
    40 0.928313 0.000000 0.000000 0.000000 0.000000 -0.453556
    41 0.928314 0.000000 0.000001 0.000000 0.000000 0.000000
  time 22
    0 0.235347 0.367732 3.528927 0.000000 0.000000 -1.570874
    1 0.000000 0.000000 0.000000 -1.570795 -1.570796 0.000000
    2 -0.000005 0.000007 3.713255 0.002054 3.115505 -0.021473
    3 18.045721 0.000000 0.000000 0.000000 0.000000 -0.121501
    4 17.597597 0.000000 0.000000 -0.002613 0.026036 0.099967
    5 0.000005 -0.000003 -3.713255 -0.002524 -3.124238 -0.024449
    6 18.045725 0.000000 0.000000 0.000000 0.000000 -0.127551
    7 17.597597 0.000000 0.000000 0.002950 -0.017289 0.103055
    8 1.293670 0.684478 -0.000001 -0.000004 -0.000001 -0.042812
    9 5.309685 -0.003834 0.000000 -0.156018 -0.017557 -0.112008
    10 4.826790 -0.004591 0.000000 -0.060771 -0.005789 -0.095790
    11 5.792767 -0.005304 0.000000 -0.086952 0.006663 0.075476
    12 6.662317 -0.001453 0.000000 0.000000 -0.000001 0.296580
    13 2.046985 -0.000002 0.000000 0.301408 0.040167 -0.373502
    14 -3.326874 0.954737 4.341911 0.918354 -1.160273 1.968093
    15 4.827230 0.000000 0.000001 -0.954526 0.457969 -1.133269
    16 11.139763 0.000000 0.000000 0.000000 0.000000 -1.393039
    17 10.314597 0.000001 0.000000 0.072298 -0.510857 0.140988
    18 2.975834 -0.386307 -0.044143 -0.021506 -0.037954 0.497588
    19 1.438886 0.000000 0.000000 0.000000 0.000000 0.889650
    20 1.485303 0.000000 0.000000 0.000000 0.000000 1.116422
    21 -3.065217 0.884022 -4.140396 -0.000013 1.338998 2.844176
    22 4.972048 0.000000 0.000001 0.632981 -1.190445 -1.001953
    23 11.585355 0.000000 0.000000 0.000000 0.000000 -1.631178
    24 10.127057 0.000000 0.000001 1.569752 0.000000 -0.069778
    25 2.683750 -0.427338 0.044205 -0.005786 0.043239 -0.157091
    26 1.438885 -0.000001 0.000000 0.000000 0.000000 0.732658
    27 1.485305 0.000001 0.000000 0.000000 0.000000 1.168770
    28 1.038631 0.548043 -0.144017 -0.000001 0.000001 -1.849906
    29 -0.064003 -0.023521 0.026161 0.000000 0.000000 0.000000
    30 3.013925 3.984634 -0.088975 -0.000001 0.000001 -1.849906
    31 -0.084188 -0.025627 -0.001098 0.000000 0.000000 0.000000
    32 4.778187 3.972486 -0.079803 -0.000001 0.000001 -1.849906
    33 -0.058556 -0.021324 0.004244 0.000000 0.000000 0.000000
    34 1.640598 -1.968779 -0.099219 -0.000001 0.000001 -1.849906
    35 0.055573 -0.028908 0.000000 0.000000 0.000000 0.000000
    36 1.646738 0.449549 -1.702246 0.441914 0.155087 1.184542
    37 0.928312 0.000000 -0.000002 0.000000 0.000000 0.000000
    38 0.928314 0.000000 0.000001 0.000000 0.000000 0.000000
    39 1.533672 0.109715 1.664491 -0.264755 -0.055959 0.783109
    40 0.928313 0.000000 0.000000 0.000000 0.000000 -0.453556
    41 0.928314 0.000000 0.000001 0.000000 0.000000 0.000000
  time 23
    0 0.235347 0.367732 3.528927 0.000000 0.000000 -1.570874
    1 0.000000 0.000000 0.000000 -1.570795 -1.570796 0.000000
    2 -0.000005 0.000007 3.713255 0.002054 3.115505 -0.021473
    3 18.045721 0.000000 0.000000 0.000000 0.000000 -0.121501
    4 17.597597 0.000000 0.000000 -0.002613 0.026036 0.099967
    5 0.000005 -0.000003 -3.713255 -0.002524 -3.124238 -0.024449
    6 18.045725 0.000000 0.000000 0.000000 0.000000 -0.127551
    7 17.597597 0.000000 0.000000 0.002950 -0.017289 0.103055
    8 1.293670 0.684478 -0.000001 -0.000004 -0.000001 -0.042812
    9 5.309685 -0.003834 0.000000 -0.156018 -0.017557 -0.112008
    10 4.826790 -0.004591 0.000000 -0.060771 -0.005789 -0.095790
    11 5.792767 -0.005304 0.000000 -0.087017 0.005896 0.066735
    12 6.662317 -0.001453 0.000000 0.000000 -0.000001 0.296580
    13 2.046985 -0.000002 0.000000 0.301408 0.040167 -0.364692
    14 -3.326874 0.954737 4.341911 0.934653 -1.165543 1.950452
    15 4.827230 0.000000 0.000001 -0.962455 0.470139 -1.134669
    16 11.139763 0.000000 0.000000 0.000000 0.000000 -1.393039
    17 10.314597 0.000001 0.000000 0.072298 -0.510857 0.140988
    18 2.975834 -0.386307 -0.044143 -0.021506 -0.037954 0.497588
    19 1.438886 0.000000 0.000000 0.000000 0.000000 0.889650
    20 1.485303 0.000000 0.000000 0.000000 0.000000 1.116422
    21 -3.065217 0.884022 -4.140396 -0.000013 1.343775 2.844176
    22 4.972048 0.000000 0.000001 0.631356 -1.200259 -0.998462
    23 11.585355 0.000000 0.000000 0.000000 0.000000 -1.631178
    24 10.127057 0.000000 0.000001 1.569752 0.000000 -0.069778
    25 2.683750 -0.427338 0.044205 -0.005786 0.043239 -0.157091
    26 1.438885 -0.000001 0.000000 0.000000 0.000000 0.732658
    27 1.485305 0.000001 0.000000 0.000000 0.000000 1.168770
    28 1.038631 0.548043 -0.144017 -0.000001 0.000001 -1.849906
    29 -0.064003 -0.023521 0.026161 0.000000 0.000000 0.000000
    30 3.013925 3.984634 -0.088975 -0.000001 0.000001 -1.849906
    31 -0.084188 -0.025627 -0.001098 0.000000 0.000000 0.000000
    32 4.778187 3.972486 -0.079803 -0.000001 0.000001 -1.849906
    33 -0.058556 -0.021324 0.004244 0.000000 0.000000 0.000000
    34 1.640598 -1.968779 -0.099219 -0.000001 0.000001 -1.849906
    35 0.055573 -0.028908 0.000000 0.000000 0.000000 0.000000
    36 1.646738 0.449549 -1.702246 0.441914 0.155087 1.184542
    37 0.928312 0.000000 -0.000002 0.000000 0.000000 0.000000
    38 0.928314 0.000000 0.000001 0.000000 0.000000 0.000000
    39 1.533672 0.109715 1.664491 -0.264755 -0.055959 0.783109
    40 0.928313 0.000000 0.000000 0.000000 0.000000 -0.453556
    41 0.928314 0.000000 0.000001 0.000000 0.000000 0.000000
  time 24
    0 0.235347 0.367732 3.528927 0.000000 0.000000 -1.570874
    1 0.000000 0.000000 0.000000 -1.570795 -1.570796 0.000000
    2 -0.000005 0.000007 3.713255 0.002054 3.115505 -0.021473
    3 18.045721 0.000000 0.000000 0.000000 0.000000 -0.121501
    4 17.597597 0.000000 0.000000 -0.002613 0.026036 0.099967
    5 0.000005 -0.000003 -3.713255 -0.002524 -3.124238 -0.024449
    6 18.045725 0.000000 0.000000 0.000000 0.000000 -0.127551
    7 17.597597 0.000000 0.000000 0.002950 -0.017289 0.103055
    8 1.293670 0.684478 -0.000001 -0.000004 -0.000001 -0.042812
    9 5.309685 -0.003834 0.000000 -0.156018 -0.017557 -0.112008
    10 4.826790 -0.004591 0.000000 -0.060771 -0.005789 -0.095790
    11 5.792767 -0.005304 0.000000 -0.087066 0.005129 0.057890
    12 6.662317 -0.001453 0.000000 0.000000 -0.000001 0.296580
    13 2.046985 -0.000002 0.000000 0.301408 0.040167 -0.355838
    14 -3.326874 0.954737 4.341911 0.951527 -1.170774 1.932140
    15 4.827230 0.000000 0.000001 -0.970502 0.482478 -1.136332
    16 11.139763 0.000000 0.000000 0.000000 0.000000 -1.393039
    17 10.314597 0.000001 0.000000 0.072298 -0.510857 0.140988
    18 2.975834 -0.386307 -0.044143 -0.021506 -0.037954 0.497588
    19 1.438886 0.000000 0.000000 0.000000 0.000000 0.889650
    20 1.485303 0.000000 0.000000 0.000000 0.000000 1.116422
    21 -3.065217 0.884022 -4.140396 -0.000013 1.348608 2.844176
    22 4.972048 0.000000 0.000001 0.629577 -1.210154 -0.994839
    23 11.585355 0.000000 0.000000 0.000000 0.000000 -1.631178
    24 10.127057 0.000000 0.000001 1.569752 0.000000 -0.069778
    25 2.683750 -0.427338 0.044205 -0.005786 0.043239 -0.157091
    26 1.438885 -0.000001 0.000000 0.000000 0.000000 0.732658
    27 1.485305 0.000001 0.000000 0.000000 0.000000 1.168770
    28 1.038631 0.548043 -0.144017 -0.000001 0.000001 -1.849906
    29 -0.064003 -0.023521 0.026161 0.000000 0.000000 0.000000
    30 3.013925 3.984634 -0.088975 -0.000001 0.000001 -1.849906
    31 -0.084188 -0.025627 -0.001098 0.000000 0.000000 0.000000
    32 4.778187 3.972486 -0.079803 -0.000001 0.000001 -1.849906
    33 -0.058556 -0.021324 0.004244 0.000000 0.000000 0.000000
    34 1.640598 -1.968779 -0.099219 -0.000001 0.000001 -1.849906
    35 0.055573 -0.028908 0.000000 0.000000 0.000000 0.000000
    36 1.646738 0.449549 -1.702246 0.441914 0.155087 1.184542
    37 0.928312 0.000000 -0.000002 0.000000 0.000000 0.000000
    38 0.928314 0.000000 0.000001 0.000000 0.000000 0.000000
    39 1.533672 0.109715 1.664491 -0.264755 -0.055959 0.783109
    40 0.928313 0.000000 0.000000 0.000000 0.000000 -0.453556
    41 0.928314 0.000000 0.000001 0.000000 0.000000 0.000000
  time 25
    0 0.235347 0.367732 3.528927 0.000000 0.000000 -1.570874
    1 0.000000 0.000000 0.000000 -1.570795 -1.570796 0.000000
    2 -0.000005 0.000007 3.713255 0.002054 3.115505 -0.021473
    3 18.045721 0.000000 0.000000 0.000000 0.000000 -0.121501
    4 17.597597 0.000000 0.000000 -0.002613 0.026036 0.099967
    5 0.000005 -0.000003 -3.713255 -0.002524 -3.124238 -0.024449
    6 18.045725 0.000000 0.000000 0.000000 0.000000 -0.127551
    7 17.597597 0.000000 0.000000 0.002950 -0.017289 0.103055
    8 1.293670 0.684478 -0.000001 -0.000004 -0.000001 -0.042812
    9 5.309685 -0.003834 0.000000 -0.156018 -0.017557 -0.112008
    10 4.826790 -0.004591 0.000000 -0.060771 -0.005789 -0.095790
    11 5.792767 -0.005304 0.000000 -0.087099 0.004362 0.049232
    12 6.662317 -0.001453 0.000000 0.000000 -0.000001 0.296580
    13 2.046985 -0.000002 0.000000 0.301408 0.040167 -0.347118
    14 -3.326874 0.954737 4.341911 0.968496 -1.175736 1.913732
    15 4.827230 0.000000 0.000001 -0.978490 0.494563 -1.138170
    16 11.139763 0.000000 0.000000 0.000000 0.000000 -1.393039
    17 10.314597 0.000001 0.000000 0.072298 -0.510857 0.140988
    18 2.975834 -0.386307 -0.044143 -0.021506 -0.037954 0.497588
    19 1.438886 0.000000 0.000000 0.000000 0.000000 0.889650
    20 1.485303 0.000000 0.000000 0.000000 0.000000 1.116422
    21 -3.065217 0.884022 -4.140396 -0.000013 1.353356 2.844176
    22 4.972048 0.000000 0.000001 0.627721 -1.219806 -0.991216
    23 11.585355 0.000000 0.000000 0.000000 0.000000 -1.631178
    24 10.127057 0.000000 0.000001 1.569752 0.000000 -0.069778
    25 2.683750 -0.427338 0.044205 -0.005786 0.043239 -0.157091
    26 1.438885 -0.000001 0.000000 0.000000 0.000000 0.732658
    27 1.485305 0.000001 0.000000 0.000000 0.000000 1.168770
    28 1.038631 0.548043 -0.144017 -0.000001 0.000001 -1.849906
    29 -0.064003 -0.023521 0.026161 0.000000 0.000000 0.000000
    30 3.013925 3.984634 -0.088975 -0.000001 0.000001 -1.849906
    31 -0.084188 -0.025627 -0.001098 0.000000 0.000000 0.000000
    32 4.778187 3.972486 -0.079803 -0.000001 0.000001 -1.849906
    33 -0.058556 -0.021324 0.004244 0.000000 0.000000 0.000000
    34 1.640598 -1.968779 -0.099219 -0.000001 0.000001 -1.849906
    35 0.055573 -0.028908 0.000000 0.000000 0.000000 0.000000
    36 1.646738 0.449549 -1.702246 0.441914 0.155087 1.184542
    37 0.928312 0.000000 -0.000002 0.000000 0.000000 0.000000
    38 0.928314 0.000000 0.000001 0.000000 0.000000 0.000000
    39 1.533672 0.109715 1.664491 -0.264755 -0.055959 0.783109
    40 0.928313 0.000000 0.000000 0.000000 0.000000 -0.453556
    41 0.928314 0.000000 0.000001 0.000000 0.000000 0.000000
  time 26
    0 0.235347 0.367732 3.528927 0.000000 0.000000 -1.570874
    1 0.000000 0.000000 0.000000 -1.570795 -1.570796 0.000000
    2 -0.000005 0.000007 3.713255 0.002054 3.115505 -0.021473
    3 18.045721 0.000000 0.000000 0.000000 0.000000 -0.121501
    4 17.597597 0.000000 0.000000 -0.002613 0.026036 0.099967
    5 0.000005 -0.000003 -3.713255 -0.002524 -3.124238 -0.024449
    6 18.045725 0.000000 0.000000 0.000000 0.000000 -0.127551
    7 17.597597 0.000000 0.000000 0.002950 -0.017289 0.103055
    8 1.293670 0.684478 -0.000001 -0.000004 -0.000001 -0.042812
    9 5.309685 -0.003834 0.000000 -0.156018 -0.017557 -0.112008
    10 4.826790 -0.004591 0.000000 -0.060771 -0.005789 -0.095790
    11 5.792767 -0.005304 0.000000 -0.087131 0.003643 0.040989
    12 6.662317 -0.001453 0.000000 0.000000 -0.000001 0.296580
    13 2.046985 -0.000002 0.000000 0.301408 0.040167 -0.338847
    14 -3.326874 0.954737 4.341911 0.984986 -1.180390 1.895803
    15 4.827230 0.000000 0.000001 -0.986067 0.506051 -1.140007
    16 11.139763 0.000000 0.000000 0.000000 0.000000 -1.393039
    17 10.314597 0.000001 0.000000 0.072298 -0.510857 0.140988
    18 2.975834 -0.386307 -0.044143 -0.021506 -0.037954 0.497588
    19 1.438886 0.000000 0.000000 0.000000 0.000000 0.889650
    20 1.485303 0.000000 0.000000 0.000000 0.000000 1.116422
    21 -3.065217 0.884022 -4.140396 -0.000013 1.357878 2.844176
    22 4.972048 0.000000 0.000001 0.625709 -1.229057 -0.987593
    23 11.585355 0.000000 0.000000 0.000000 0.000000 -1.631178
    24 10.127057 0.000000 0.000001 1.569752 0.000000 -0.069778
    25 2.683750 -0.427338 0.044205 -0.005786 0.043239 -0.157091
    26 1.438885 -0.000001 0.000000 0.000000 0.000000 0.732658
    27 1.485305 0.000001 0.000000 0.000000 0.000000 1.168770
    28 1.038631 0.548043 -0.144017 -0.000001 0.000001 -1.849906
    29 -0.064003 -0.023521 0.026161 0.000000 0.000000 0.000000
    30 3.013925 3.984634 -0.088975 -0.000001 0.000001 -1.849906
    31 -0.084188 -0.025627 -0.001098 0.000000 0.000000 0.000000
    32 4.778187 3.972486 -0.079803 -0.000001 0.000001 -1.849906
    33 -0.058556 -0.021324 0.004244 0.000000 0.000000 0.000000
    34 1.640598 -1.968779 -0.099219 -0.000001 0.000001 -1.849906
    35 0.055573 -0.028908 0.000000 0.000000 0.000000 0.000000
    36 1.646738 0.449549 -1.702246 0.441914 0.155087 1.184542
    37 0.928312 0.000000 -0.000002 0.000000 0.000000 0.000000
    38 0.928314 0.000000 0.000001 0.000000 0.000000 0.000000
    39 1.533672 0.109715 1.664491 -0.264755 -0.055959 0.783109
    40 0.928313 0.000000 0.000000 0.000000 0.000000 -0.453556
    41 0.928314 0.000000 0.000001 0.000000 0.000000 0.000000
  time 27
    0 0.235347 0.367732 3.528927 0.000000 0.000000 -1.570874
    1 0.000000 0.000000 0.000000 -1.570795 -1.570796 0.000000
    2 -0.000005 0.000007 3.713255 0.002054 3.115505 -0.021473
    3 18.045721 0.000000 0.000000 0.000000 0.000000 -0.121501
    4 17.597597 0.000000 0.000000 -0.002613 0.026036 0.099967
    5 0.000005 -0.000003 -3.713255 -0.002524 -3.124238 -0.024449
    6 18.045725 0.000000 0.000000 0.000000 0.000000 -0.127551
    7 17.597597 0.000000 0.000000 0.002950 -0.017289 0.103055
    8 1.293670 0.684478 -0.000001 -0.000004 -0.000001 -0.042812
    9 5.309685 -0.003834 0.000000 -0.156018 -0.017557 -0.112008
    10 4.826790 -0.004591 0.000000 -0.060771 -0.005789 -0.095790
    11 5.792767 -0.005304 0.000000 -0.087164 0.002984 0.033431
    12 6.662317 -0.001453 0.000000 0.000000 -0.000001 0.296580
    13 2.046985 -0.000002 0.000000 0.301408 0.040167 -0.331251
    14 -3.326874 0.954737 4.341911 1.000518 -1.184545 1.879025
    15 4.827230 0.000000 0.000001 -0.993174 0.516604 -1.141933
    16 11.139763 0.000000 0.000000 0.000000 0.000000 -1.393039
    17 10.314597 0.000001 0.000000 0.072298 -0.510857 0.140988
    18 2.975834 -0.386307 -0.044143 -0.021506 -0.037954 0.497588
    19 1.438886 0.000000 0.000000 0.000000 0.000000 0.889650
    20 1.485303 0.000000 0.000000 0.000000 0.000000 1.116422
    21 -3.065217 0.884022 -4.140396 -0.000013 1.362005 2.844176
    22 4.972048 0.000000 0.000001 0.623776 -1.237503 -0.984168
    23 11.585355 0.000000 0.000000 0.000000 0.000000 -1.631178
    24 10.127057 0.000000 0.000001 1.569752 0.000000 -0.069778
    25 2.683750 -0.427338 0.044205 -0.005786 0.043239 -0.157091
    26 1.438885 -0.000001 0.000000 0.000000 0.000000 0.732658
    27 1.485305 0.000001 0.000000 0.000000 0.000000 1.168770
    28 1.038631 0.548043 -0.144017 -0.000001 0.000001 -1.849906
    29 -0.064003 -0.023521 0.026161 0.000000 0.000000 0.000000
    30 3.013925 3.984634 -0.088975 -0.000001 0.000001 -1.849906
    31 -0.084188 -0.025627 -0.001098 0.000000 0.000000 0.000000
    32 4.778187 3.972486 -0.079803 -0.000001 0.000001 -1.849906
    33 -0.058556 -0.021324 0.004244 0.000000 0.000000 0.000000
    34 1.640598 -1.968779 -0.099219 -0.000001 0.000001 -1.849906
    35 0.055573 -0.028908 0.000000 0.000000 0.000000 0.000000
    36 1.646738 0.449549 -1.702246 0.441914 0.155087 1.184542
    37 0.928312 0.000000 -0.000002 0.000000 0.000000 0.000000
    38 0.928314 0.000000 0.000001 0.000000 0.000000 0.000000
    39 1.533672 0.109715 1.664491 -0.264755 -0.055959 0.783109
    40 0.928313 0.000000 0.000000 0.000000 0.000000 -0.453556
    41 0.928314 0.000000 0.000001 0.000000 0.000000 0.000000
  time 28
    0 0.235347 0.367732 3.528927 0.000000 0.000000 -1.570874
    1 0.000000 0.000000 0.000000 -1.570795 -1.570796 0.000000
    2 -0.000005 0.000007 3.713255 0.002054 3.115505 -0.021473
    3 18.045721 0.000000 0.000000 0.000000 0.000000 -0.121501
    4 17.597597 0.000000 0.000000 -0.002613 0.026036 0.099967
    5 0.000005 -0.000003 -3.713255 -0.002524 -3.124238 -0.024449
    6 18.045725 0.000000 0.000000 0.000000 0.000000 -0.127551
    7 17.597597 0.000000 0.000000 0.002950 -0.017289 0.103055
    8 1.293670 0.684478 -0.000001 -0.000004 -0.000001 -0.042812
    9 5.309685 -0.003834 0.000000 -0.156018 -0.017557 -0.112008
    10 4.826790 -0.004591 0.000000 -0.060771 -0.005789 -0.095790
    11 5.792767 -0.005304 0.000000 -0.087180 0.002409 0.026787
    12 6.662317 -0.001453 0.000000 0.000000 -0.000001 0.296580
    13 2.046985 -0.000002 0.000000 0.301408 0.040167 -0.324644
    14 -3.326874 0.954737 4.341911 1.014419 -1.188084 1.863972
    15 4.827230 0.000000 0.000001 -0.999401 0.525880 -1.143683
    16 11.139763 0.000000 0.000000 0.000000 0.000000 -1.393039
    17 10.314597 0.000001 0.000000 0.072298 -0.510857 0.140988
    18 2.975834 -0.386307 -0.044143 -0.021506 -0.037954 0.497588
    19 1.438886 0.000000 0.000000 0.000000 0.000000 0.889650
    20 1.485303 0.000000 0.000000 0.000000 0.000000 1.116422
    21 -3.065217 0.884022 -4.140396 -0.000013 1.365651 2.844176
    22 4.972048 0.000000 0.000001 0.621919 -1.244984 -0.981006
    23 11.585355 0.000000 0.000000 0.000000 0.000000 -1.631178
    24 10.127057 0.000000 0.000001 1.569752 0.000000 -0.069778
    25 2.683750 -0.427338 0.044205 -0.005786 0.043239 -0.157091
    26 1.438885 -0.000001 0.000000 0.000000 0.000000 0.732658
    27 1.485305 0.000001 0.000000 0.000000 0.000000 1.168770
    28 1.038631 0.548043 -0.144017 -0.000001 0.000001 -1.849906
    29 -0.064003 -0.023521 0.026161 0.000000 0.000000 0.000000
    30 3.013925 3.984634 -0.088975 -0.000001 0.000001 -1.849906
    31 -0.084188 -0.025627 -0.001098 0.000000 0.000000 0.000000
    32 4.778187 3.972486 -0.079803 -0.000001 0.000001 -1.849906
    33 -0.058556 -0.021324 0.004244 0.000000 0.000000 0.000000
    34 1.640598 -1.968779 -0.099219 -0.000001 0.000001 -1.849906
    35 0.055573 -0.028908 0.000000 0.000000 0.000000 0.000000
    36 1.646738 0.449549 -1.702246 0.441914 0.155087 1.184542
    37 0.928312 0.000000 -0.000002 0.000000 0.000000 0.000000
    38 0.928314 0.000000 0.000001 0.000000 0.000000 0.000000
    39 1.533672 0.109715 1.664491 -0.264755 -0.055959 0.783109
    40 0.928313 0.000000 0.000000 0.000000 0.000000 -0.453556
    41 0.928314 0.000000 0.000001 0.000000 0.000000 0.000000
  time 29
    0 0.235347 0.367732 3.528927 0.000000 0.000000 -1.570874
    1 0.000000 0.000000 0.000000 -1.570795 -1.570796 0.000000
    2 -0.000005 0.000007 3.713255 0.002054 3.115505 -0.021473
    3 18.045721 0.000000 0.000000 0.000000 0.000000 -0.121501
    4 17.597597 0.000000 0.000000 -0.002613 0.026036 0.099967
    5 0.000005 -0.000003 -3.713255 -0.002524 -3.124238 -0.024449
    6 18.045725 0.000000 0.000000 0.000000 0.000000 -0.127551
    7 17.597597 0.000000 0.000000 0.002950 -0.017289 0.103055
    8 1.293670 0.684478 -0.000001 -0.000004 -0.000001 -0.042812
    9 5.309685 -0.003834 0.000000 -0.156018 -0.017557 -0.112008
    10 4.826790 -0.004591 0.000000 -0.060771 -0.005789 -0.095790
    11 5.792767 -0.005304 0.000000 -0.087197 0.001930 0.021347
    12 6.662317 -0.001453 0.000000 0.000000 -0.000001 0.296580
    13 2.046985 -0.000002 0.000000 0.301408 0.040167 -0.319160
    14 -3.326874 0.954737 4.341911 1.026020 -1.190930 1.851508
    15 4.827230 0.000000 0.000001 -1.004569 0.533454 -1.145258
    16 11.139763 0.000000 0.000000 0.000000 0.000000 -1.393039
    17 10.314597 0.000001 0.000000 0.072298 -0.510857 0.140988
    18 2.975834 -0.386307 -0.044143 -0.021506 -0.037954 0.497588
    19 1.438886 0.000000 0.000000 0.000000 0.000000 0.889650
    20 1.485303 0.000000 0.000000 0.000000 0.000000 1.116422
    21 -3.065217 0.884022 -4.140396 -0.000013 1.368619 2.844176
    22 4.972048 0.000000 0.000001 0.620372 -1.251098 -0.978437
    23 11.585355 0.000000 0.000000 0.000000 0.000000 -1.631178
    24 10.127057 0.000000 0.000001 1.569752 0.000000 -0.069778
    25 2.683750 -0.427338 0.044205 -0.005786 0.043239 -0.157091
    26 1.438885 -0.000001 0.000000 0.000000 0.000000 0.732658
    27 1.485305 0.000001 0.000000 0.000000 0.000000 1.168770
    28 1.038631 0.548043 -0.144017 -0.000001 0.000001 -1.849906
    29 -0.064003 -0.023521 0.026161 0.000000 0.000000 0.000000
    30 3.013925 3.984634 -0.088975 -0.000001 0.000001 -1.849906
    31 -0.084188 -0.025627 -0.001098 0.000000 0.000000 0.000000
    32 4.778187 3.972486 -0.079803 -0.000001 0.000001 -1.849906
    33 -0.058556 -0.021324 0.004244 0.000000 0.000000 0.000000
    34 1.640598 -1.968779 -0.099219 -0.000001 0.000001 -1.849906
    35 0.055573 -0.028908 0.000000 0.000000 0.000000 0.000000
    36 1.646738 0.449549 -1.702246 0.441914 0.155087 1.184542
    37 0.928312 0.000000 -0.000002 0.000000 0.000000 0.000000
    38 0.928314 0.000000 0.000001 0.000000 0.000000 0.000000
    39 1.533672 0.109715 1.664491 -0.264755 -0.055959 0.783109
    40 0.928313 0.000000 0.000000 0.000000 0.000000 -0.453556
    41 0.928314 0.000000 0.000001 0.000000 0.000000 0.000000
  time 30
    0 0.235347 0.367732 3.528927 0.000000 0.000000 -1.570874
    1 0.000000 0.000000 0.000000 -1.570795 -1.570796 0.000000
    2 -0.000005 0.000007 3.713255 0.002054 3.115505 -0.021473
    3 18.045721 0.000000 0.000000 0.000000 0.000000 -0.121501
    4 17.597597 0.000000 0.000000 -0.002613 0.026036 0.099967
    5 0.000005 -0.000003 -3.713255 -0.002524 -3.124238 -0.024449
    6 18.045725 0.000000 0.000000 0.000000 0.000000 -0.127551
    7 17.597597 0.000000 0.000000 0.002950 -0.017289 0.103055
    8 1.293670 0.684478 -0.000001 -0.000004 -0.000001 -0.042812
    9 5.309685 -0.003834 0.000000 -0.156018 -0.017557 -0.112008
    10 4.826790 -0.004591 0.000000 -0.060771 -0.005789 -0.095790
    11 5.792767 -0.005304 0.000000 -0.087197 0.001582 0.017382
    12 6.662317 -0.001453 0.000000 0.000000 -0.000001 0.296580
    13 2.046985 -0.000002 0.000000 0.301408 0.040167 -0.315160
    14 -3.326874 0.954737 4.341911 1.034649 -1.193007 1.842208
    15 4.827230 0.000000 0.000001 -1.008387 0.538985 -1.146396
    16 11.139763 0.000000 0.000000 0.000000 0.000000 -1.393039
    17 10.314597 0.000001 0.000000 0.072298 -0.510857 0.140988
    18 2.975834 -0.386307 -0.044143 -0.021506 -0.037954 0.497588
    19 1.438886 0.000000 0.000000 0.000000 0.000000 0.889650
    20 1.485303 0.000000 0.000000 0.000000 0.000000 1.116422
    21 -3.065217 0.884022 -4.140396 -0.000013 1.370795 2.844176
    22 4.972048 0.000000 0.000001 0.619134 -1.255522 -0.976461
    23 11.585355 0.000000 0.000000 0.000000 0.000000 -1.631178
    24 10.127057 0.000000 0.000001 1.569752 0.000000 -0.069778
    25 2.683750 -0.427338 0.044205 -0.005786 0.043239 -0.157091
    26 1.438885 -0.000001 0.000000 0.000000 0.000000 0.732658
    27 1.485305 0.000001 0.000000 0.000000 0.000000 1.168770
    28 1.038631 0.548043 -0.144017 -0.000001 0.000001 -1.849906
    29 -0.064003 -0.023521 0.026161 0.000000 0.000000 0.000000
    30 3.013925 3.984634 -0.088975 -0.000001 0.000001 -1.849906
    31 -0.084188 -0.025627 -0.001098 0.000000 0.000000 0.000000
    32 4.778187 3.972486 -0.079803 -0.000001 0.000001 -1.849906
    33 -0.058556 -0.021324 0.004244 0.000000 0.000000 0.000000
    34 1.640598 -1.968779 -0.099219 -0.000001 0.000001 -1.849906
    35 0.055573 -0.028908 0.000000 0.000000 0.000000 0.000000
    36 1.646738 0.449549 -1.702246 0.441914 0.155087 1.184542
    37 0.928312 0.000000 -0.000002 0.000000 0.000000 0.000000
    38 0.928314 0.000000 0.000001 0.000000 0.000000 0.000000
    39 1.533672 0.109715 1.664491 -0.264755 -0.055959 0.783109
    40 0.928313 0.000000 0.000000 0.000000 0.000000 -0.453556
    41 0.928314 0.000000 0.000001 0.000000 0.000000 0.000000
end
