version 1
nodes
  0 "Bip01" -1
  1 "Bip01 Pelvis" 0
  2 "Bip01 L Leg" 1
  3 "Bip01 L Leg1" 2
  4 "Bip01 L Foot" 3
  5 "Bip01 R Leg" 1
  6 "Bip01 R Leg1" 5
  7 "Bip01 R Foot" 6
  8 "Bip01 Spine" 1
  9 "Bip01 Spine1" 8
  10 "Bip01 Spine2" 9
  11 "Bip01 Spine3" 10
  12 "Bip01 Neck" 11
  13 "Bip01 Head" 12
  14 "Bip01 L Arm" 12
  15 "Bip01 L Arm1" 14
  16 "Bip01 L Arm2" 15
  17 "Bip01 L Hand" 16
  18 "Bip01 L Finger1" 17
  19 "Bip01 L Finger11" 18
  20 "Bip01 L Finger12" 19
  21 "Bip01 R Arm" 12
  22 "Bip01 R Arm1" 21
  23 "Bip01 R Arm2" 22
  24 "Bip01 R Hand" 23
  25 "Bip01 R Finger1" 24
  26 "Bip01 R Finger11" 25
  27 "Bip01 R Finger12" 26
  28 "Dummy08" 13
  29 "Bone02" 28
  30 "Dummy04" 13
  31 "Bone05" 30
  32 "Dummy03" 13
  33 "Bone07" 32
  34 "Dummy10" 13
  35 "Bone13" 34
  36 "Bip01 L Finger0" 17
  37 "Bip01 L Finger01" 36
  38 "Bip01 L Finger02" 37
  39 "Bip01 R Finger0" 24
  40 "Bip01 R Finger01" 39
  41 "Bip01 R Finger02" 40
end
skeleton
  time 0
    0 0.235347 0.367732 3.528927 0.000000 0.000000 -1.570874
    1 0.000000 0.000000 0.000000 -1.570795 -1.570796 0.000000
    2 -0.000005 0.000007 3.713255 0.002054 3.115505 -0.021473
    3 18.045721 0.000000 0.000000 0.000000 0.000000 -0.121501
    4 17.597597 0.000000 0.000000 -0.002613 0.026036 0.099967
    5 0.000005 -0.000003 -3.713255 -0.002524 -3.124238 -0.024449
    6 18.045725 0.000000 0.000000 0.000000 0.000000 -0.127551
    7 17.597597 0.000000 0.000000 0.002950 -0.017289 0.103055
    8 1.293670 0.684478 -0.000001 -0.000004 -0.000001 -0.007924
    9 5.309685 -0.003834 0.000000 -0.224662 -0.031100 -0.136039
    10 4.826790 -0.004591 0.000000 -0.120934 -0.016838 -0.138521
    11 5.792767 -0.005304 0.000000 -0.104189 -0.009923 -0.095422
    12 6.662317 -0.001453 0.000000 0.000000 -0.000001 0.471000
    13 2.046985 -0.000002 0.000000 0.589891 0.415266 -0.207735
    14 -3.112024 1.517254 4.341911 1.168008 -1.093534 1.546239
    15 4.827230 0.000000 0.000001 -0.792355 0.287598 -0.806240
    16 11.139763 0.000000 0.000000 0.000000 0.000000 -1.371455
    17 10.314597 0.000001 0.000000 -2.987507 -0.064640 0.326477
    18 2.975834 -0.386307 -0.044143 -0.015298 -0.040855 0.340466
    19 1.438886 0.000000 0.000000 0.000000 0.000000 0.662877
    20 1.485303 0.000000 0.000000 0.000000 0.000000 0.689056
    21 -2.869898 1.399663 -4.140396 -0.700750 1.311553 1.985728
    22 4.972048 0.000000 0.000001 1.265124 -0.186381 -2.041553
    23 11.585355 0.000000 0.000000 0.000000 0.000000 -0.621770
    24 10.127057 0.000000 0.000001 1.721745 0.262810 0.362604
    25 2.683750 -0.427338 0.044205 -0.005786 0.043239 -0.157091
    26 1.438885 -0.000001 0.000000 0.000000 0.000000 0.732658
    27 1.485305 0.000001 0.000000 0.000000 0.000000 1.168770
    28 1.038631 0.548043 -0.144017 -0.000001 0.000001 -1.849906
    29 -0.064003 -0.023521 0.026161 0.000000 0.000000 0.000000
    30 3.013925 3.984634 -0.088975 -0.000001 0.000001 -1.849906
    31 -0.084188 -0.025627 -0.001098 0.000000 0.000000 0.000000
    32 4.778187 3.972486 -0.079803 -0.000001 0.000001 -1.849906
    33 -0.058556 -0.021324 0.004244 0.000000 0.000000 0.000000
    34 1.640598 -1.968779 -0.099219 -0.000001 0.000001 -1.849906
    35 0.055573 -0.028908 0.000000 0.000000 0.000000 0.000000
    36 1.646738 0.449549 -1.702246 0.154002 0.442277 0.277235
    37 0.928312 0.000000 -0.000002 0.000000 0.000000 0.000000
    38 0.928314 0.000000 0.000001 0.000000 0.000000 0.000000
    39 1.533672 0.109715 1.664491 -0.264755 -0.055959 0.783109
    40 0.928313 0.000000 0.000000 0.000000 0.000000 -0.453556
    41 0.928314 0.000000 0.000001 0.000000 0.000000 0.000000
  time 1
    0 0.235347 0.367732 3.528927 0.000000 0.000000 -1.570874
    1 0.000000 0.000000 0.000000 -1.570795 -1.570796 0.000000
    2 -0.000005 0.000007 3.713255 0.002054 3.115505 -0.021473
    3 18.045721 0.000000 0.000000 0.000000 0.000000 -0.121501
    4 17.597597 0.000000 0.000000 -0.002613 0.026036 0.099967
    5 0.000005 -0.000003 -3.713255 -0.002524 -3.124238 -0.024449
    6 18.045725 0.000000 0.000000 0.000000 0.000000 -0.127551
    7 17.597597 0.000000 0.000000 0.002950 -0.017289 0.103055
    8 1.293670 0.684478 -0.000001 -0.000004 -0.000001 -0.007924
    9 5.309685 -0.003834 0.000000 -0.224662 -0.031100 -0.136039
    10 4.826790 -0.004591 0.000000 -0.120934 -0.016838 -0.138521
    11 5.792767 -0.005304 0.000000 -0.104189 -0.009923 -0.095422
    12 6.662317 -0.001453 0.000000 0.000000 -0.000001 0.471000
    13 2.046985 -0.000002 0.000000 0.589891 0.415266 -0.207735
    14 -3.112024 1.517254 4.341911 1.168008 -1.093534 1.546239
    15 4.827230 0.000000 0.000001 -0.758053 0.355593 -0.781124
    16 11.139763 0.000000 0.000000 0.000000 0.000000 -1.542730
    17 10.314597 0.000001 0.000000 -3.196839 -0.064640 0.326477
    18 2.975834 -0.386307 -0.044143 -0.015298 -0.040855 0.340466
    19 1.438886 0.000000 0.000000 0.000000 0.000000 0.662877
    20 1.485303 0.000000 0.000000 0.000000 0.000000 0.689056
    21 -2.869898 1.399663 -4.140396 -0.416103 1.352706 2.262514
    22 4.972048 0.000000 0.000001 1.079395 -0.317500 -1.951703
    23 11.585355 0.000000 0.000000 0.000000 0.000000 -0.993591
    24 10.127057 0.000000 0.000001 1.788441 0.210995 0.644830
    25 2.683750 -0.427338 0.044205 -0.005786 0.043239 -0.157091
    26 1.438885 -0.000001 0.000000 0.000000 0.000000 0.732658
    27 1.485305 0.000001 0.000000 0.000000 0.000000 1.168770
    28 1.038631 0.548043 -0.144017 -0.000001 0.000001 -1.849906
    29 -0.064003 -0.023521 0.026161 0.000000 0.000000 0.000000
    30 3.013925 3.984634 -0.088975 -0.000001 0.000001 -1.849906
    31 -0.084188 -0.025627 -0.001098 0.000000 0.000000 0.000000
    32 4.778187 3.972486 -0.079803 -0.000001 0.000001 -1.849906
    33 -0.058556 -0.021324 0.004244 0.000000 0.000000 0.000000
    34 1.640598 -1.968779 -0.099219 -0.000001 0.000001 -1.849906
    35 0.055573 -0.028908 0.000000 0.000000 0.000000 0.000000
    36 1.646738 0.449549 -1.702246 0.154002 0.442277 0.277235
    37 0.928312 0.000000 -0.000002 0.000000 0.000000 0.000000
    38 0.928314 0.000000 0.000001 0.000000 0.000000 0.000000
    39 1.533672 0.109715 1.664491 -0.264755 -0.055959 0.783109
    40 0.928313 0.000000 0.000000 0.000000 0.000000 -0.453556
    41 0.928314 0.000000 0.000001 0.000000 0.000000 0.000000
  time 2
    0 0.235347 0.367732 3.528927 0.000000 0.000000 -1.570874
    1 0.000000 0.000000 0.000000 -1.570795 -1.570796 0.000000
    2 -0.000005 0.000007 3.713255 0.002054 3.115505 -0.021473
    3 18.045721 0.000000 0.000000 0.000000 0.000000 -0.121501
    4 17.597597 0.000000 0.000000 -0.002613 0.026036 0.099967
    5 0.000005 -0.000003 -3.713255 -0.002524 -3.124238 -0.024449
    6 18.045725 0.000000 0.000000 0.000000 0.000000 -0.127551
    7 17.597597 0.000000 0.000000 0.002950 -0.017289 0.103055
    8 1.293670 0.684478 -0.000001 -0.000004 -0.000001 -0.007924
    9 5.309685 -0.003834 0.000000 -0.223719 -0.037404 -0.163691
    10 4.826790 -0.004591 0.000000 -0.196663 0.024628 -0.147208
    11 5.792767 -0.005304 0.000000 -0.104189 -0.009923 -0.095422
    12 6.662317 -0.001453 0.000000 0.000000 -0.000001 0.471000
    13 2.046985 -0.000002 0.000000 0.659556 0.351977 -0.156674
    14 -3.112024 1.517254 4.341911 1.168008 -1.093534 1.546239
    15 4.827230 0.000000 0.000001 -0.746482 0.477032 -0.678211
    16 11.139763 0.000000 0.000000 0.000000 0.000000 -1.655278
    17 10.314597 0.000001 0.000000 -3.171223 -0.064640 0.326477
    18 2.975834 -0.386307 -0.044143 -0.015298 -0.040855 0.340466
    19 1.438886 0.000000 0.000000 0.000000 0.000000 0.662877
    20 1.485303 0.000000 0.000000 0.000000 0.000000 0.689056
    21 -2.869898 1.399663 -4.140396 -0.789816 1.290440 1.899922
    22 4.972048 0.000000 0.000001 1.076223 -0.341552 -1.929043
    23 11.585355 0.000000 0.000000 0.000000 0.000000 -0.948609
    24 10.127057 0.000000 0.000001 1.781243 0.218223 0.611057
    25 2.683750 -0.427338 0.044205 -0.005786 0.043239 -0.157091
    26 1.438885 -0.000001 0.000000 0.000000 0.000000 0.732658
    27 1.485305 0.000001 0.000000 0.000000 0.000000 1.168770
    28 1.038631 0.548043 -0.144017 -0.000001 0.000001 -1.849906
    29 -0.064003 -0.023521 0.026161 0.000000 0.000000 0.000000
    30 3.013925 3.984634 -0.088975 -0.000001 0.000001 -1.849906
    31 -0.084188 -0.025627 -0.001098 0.000000 0.000000 0.000000
    32 4.778187 3.972486 -0.079803 -0.000001 0.000001 -1.849906
    33 -0.058556 -0.021324 0.004244 0.000000 0.000000 0.000000
    34 1.640598 -1.968779 -0.099219 -0.000001 0.000001 -1.849906
    35 0.055573 -0.028908 0.000000 0.000000 0.000000 0.000000
    36 1.646738 0.449549 -1.702246 0.154002 0.442277 0.277235
    37 0.928312 0.000000 -0.000002 0.000000 0.000000 0.000000
    38 0.928314 0.000000 0.000001 0.000000 0.000000 0.000000
    39 1.533672 0.109715 1.664491 -0.264755 -0.055959 0.783109
    40 0.928313 0.000000 0.000000 0.000000 0.000000 -0.453556
    41 0.928314 0.000000 0.000001 0.000000 0.000000 0.000000
  time 3
    0 0.235347 0.367732 3.528927 0.000000 0.000000 -1.570874
    1 0.000000 0.000000 0.000000 -1.570795 -1.570796 0.000000
    2 -0.000005 0.000007 3.713255 0.002054 3.115505 -0.021473
    3 18.045721 0.000000 0.000000 0.000000 0.000000 -0.121501
    4 17.597597 0.000000 0.000000 -0.002613 0.026036 0.099967
    5 0.000005 -0.000003 -3.713255 -0.002524 -3.124238 -0.024449
    6 18.045725 0.000000 0.000000 0.000000 0.000000 -0.127551
    7 17.597597 0.000000 0.000000 0.002950 -0.017289 0.103055
    8 1.293670 0.684478 -0.000001 -0.000004 -0.000001 -0.007924
    9 5.309685 -0.003834 0.000000 -0.223193 -0.040436 -0.177038
    10 4.826790 -0.004591 0.000000 -0.233362 0.044091 -0.153911
    11 5.792767 -0.005304 0.000000 -0.104189 -0.009923 -0.095422
    12 6.662317 -0.001453 0.000000 0.000000 -0.000001 0.471000
    13 2.046985 -0.000002 0.000000 0.690662 0.319532 -0.133212
    14 -3.112024 1.517254 4.341911 1.168008 -1.093534 1.546239
    15 4.827230 0.000000 0.000001 -0.764925 0.497797 -0.645219
    16 11.139763 0.000000 0.000000 0.000000 0.000000 -1.609726
    17 10.314597 0.000001 0.000000 -3.124844 -0.064640 0.326477
    18 2.975834 -0.386307 -0.044143 -0.015298 -0.040855 0.340466
    19 1.438886 0.000000 0.000000 0.000000 0.000000 0.662877
    20 1.485303 0.000000 0.000000 0.000000 0.000000 0.689056
    21 -2.869898 1.399663 -4.140396 -1.012146 1.205506 1.688714
    22 4.972048 0.000000 0.000001 1.101982 -0.330129 -1.886160
    23 11.585355 0.000000 0.000000 0.000000 0.000000 -0.874524
    24 10.127057 0.000000 0.000001 1.768885 0.229539 0.555240
    25 2.683750 -0.427338 0.044205 -0.005786 0.043239 -0.157091
    26 1.438885 -0.000001 0.000000 0.000000 0.000000 0.732658
    27 1.485305 0.000001 0.000000 0.000000 0.000000 1.168770
    28 1.038631 0.548043 -0.144017 -0.000001 0.000001 -1.849906
    29 -0.064003 -0.023521 0.026161 0.000000 0.000000 0.000000
    30 3.013925 3.984634 -0.088975 -0.000001 0.000001 -1.849906
    31 -0.084188 -0.025627 -0.001098 0.000000 0.000000 0.000000
    32 4.778187 3.972486 -0.079803 -0.000001 0.000001 -1.849906
    33 -0.058556 -0.021324 0.004244 0.000000 0.000000 0.000000
    34 1.640598 -1.968779 -0.099219 -0.000001 0.000001 -1.849906
    35 0.055573 -0.028908 0.000000 0.000000 0.000000 0.000000
    36 1.646738 0.449549 -1.702246 0.154002 0.442277 0.277235
    37 0.928312 0.000000 -0.000002 0.000000 0.000000 0.000000
    38 0.928314 0.000000 0.000001 0.000000 0.000000 0.000000
    39 1.533672 0.109715 1.664491 -0.264755 -0.055959 0.783109
    40 0.928313 0.000000 0.000000 0.000000 0.000000 -0.453556
    41 0.928314 0.000000 0.000001 0.000000 0.000000 0.000000
  time 4
    0 0.235347 0.367732 3.528927 0.000000 0.000000 -1.570874
    1 0.000000 0.000000 0.000000 -1.570795 -1.570796 0.000000
    2 -0.000005 0.000007 3.713255 0.002054 3.115505 -0.021473
    3 18.045721 0.000000 0.000000 0.000000 0.000000 -0.121501
    4 17.597597 0.000000 0.000000 -0.002613 0.026036 0.099967
    5 0.000005 -0.000003 -3.713255 -0.002524 -3.124238 -0.024449
    6 18.045725 0.000000 0.000000 0.000000 0.000000 -0.127551
    7 17.597597 0.000000 0.000000 0.002950 -0.017289 0.103055
    8 1.293670 0.684478 -0.000001 -0.000004 -0.000001 -0.007924
    9 5.309685 -0.003834 0.000000 -0.223487 -0.038746 -0.169613
    10 4.826790 -0.004591 0.000000 -0.212935 0.033317 -0.149964
    11 5.792767 -0.005304 0.000000 -0.104189 -0.009923 -0.095422
    12 6.662317 -0.001453 0.000000 0.000000 -0.000001 0.471000
    13 2.046985 -0.000002 0.000000 0.673558 0.337725 -0.146202
    14 -3.112024 1.517254 4.341911 1.168008 -1.093534 1.546239
    15 4.827230 0.000000 0.000001 -0.792003 0.423504 -0.687225
    16 11.139763 0.000000 0.000000 0.000000 0.000000 -1.489048
    17 10.314597 0.000001 0.000000 -3.080713 -0.064640 0.326477
    18 2.975834 -0.386307 -0.044143 -0.015298 -0.040855 0.340466
    19 1.438886 0.000000 0.000000 0.000000 0.000000 0.662877
    20 1.485303 0.000000 0.000000 0.000000 0.000000 0.689056
    21 -2.869898 1.399663 -4.140396 -1.132371 1.125293 1.578172
    22 4.972048 0.000000 0.000001 1.141897 -0.273579 -1.811856
    23 11.585355 0.000000 0.000000 0.000000 0.000000 -0.799391
    24 10.127057 0.000000 0.000001 1.755635 0.240341 0.498324
    25 2.683750 -0.427338 0.044205 -0.005786 0.043239 -0.157091
    26 1.438885 -0.000001 0.000000 0.000000 0.000000 0.732658
    27 1.485305 0.000001 0.000000 0.000000 0.000000 1.168770
    28 1.038631 0.548043 -0.144017 -0.000001 0.000001 -1.849906
    29 -0.064003 -0.023521 0.026161 0.000000 0.000000 0.000000
    30 3.013925 3.984634 -0.088975 -0.000001 0.000001 -1.849906
    31 -0.084188 -0.025627 -0.001098 0.000000 0.000000 0.000000
    32 4.778187 3.972486 -0.079803 -0.000001 0.000001 -1.849906
    33 -0.058556 -0.021324 0.004244 0.000000 0.000000 0.000000
    34 1.640598 -1.968779 -0.099219 -0.000001 0.000001 -1.849906
    35 0.055573 -0.028908 0.000000 0.000000 0.000000 0.000000
    36 1.646738 0.449549 -1.702246 0.154002 0.442277 0.277235
    37 0.928312 0.000000 -0.000002 0.000000 0.000000 0.000000
    38 0.928314 0.000000 0.000001 0.000000 0.000000 0.000000
    39 1.533672 0.109715 1.664491 -0.264755 -0.055959 0.783109
    40 0.928313 0.000000 0.000000 0.000000 0.000000 -0.453556
    41 0.928314 0.000000 0.000001 0.000000 0.000000 0.000000
  time 5
    0 0.235347 0.367732 3.528927 0.000000 0.000000 -1.570874
    1 0.000000 0.000000 0.000000 -1.570795 -1.570796 0.000000
    2 -0.000005 0.000007 3.713255 0.002054 3.115505 -0.021473
    3 18.045721 0.000000 0.000000 0.000000 0.000000 -0.121501
    4 17.597597 0.000000 0.000000 -0.002613 0.026036 0.099967
    5 0.000005 -0.000003 -3.713255 -0.002524 -3.124238 -0.024449
    6 18.045725 0.000000 0.000000 0.000000 0.000000 -0.127551
    7 17.597597 0.000000 0.000000 0.002950 -0.017289 0.103055
    8 1.293670 0.684478 -0.000001 -0.000004 -0.000001 -0.007924
    9 5.309685 -0.003834 0.000000 -0.223976 -0.035822 -0.156737
    10 4.826790 -0.004591 0.000000 -0.177599 0.014322 -0.144341
    11 5.792767 -0.005304 0.000000 -0.104189 -0.009923 -0.095422
    12 6.662317 -0.001453 0.000000 0.000000 -0.000001 0.471000
    13 2.046985 -0.000002 0.000000 0.642711 0.368412 -0.169170
    14 -3.112024 1.517254 4.341911 1.168008 -1.093534 1.546239
    15 4.827230 0.000000 0.000001 -0.803985 0.350062 -0.738506
    16 11.139763 0.000000 0.000000 0.000000 0.000000 -1.393109
    17 10.314597 0.000001 0.000000 -3.042873 -0.064640 0.326477
    18 2.975834 -0.386307 -0.044143 -0.015298 -0.040855 0.340466
    19 1.438886 0.000000 0.000000 0.000000 0.000000 0.662877
    20 1.485303 0.000000 0.000000 0.000000 0.000000 0.689056
    21 -2.869898 1.399663 -4.140396 -1.194401 1.066786 1.522949
    22 4.972048 0.000000 0.000001 1.186376 -0.208020 -1.752241
    23 11.585355 0.000000 0.000000 0.000000 0.000000 -0.721668
    24 10.127057 0.000000 0.000001 1.741238 0.250709 0.439132
    25 2.683750 -0.427338 0.044205 -0.005786 0.043239 -0.157091
    26 1.438885 -0.000001 0.000000 0.000000 0.000000 0.732658
    27 1.485305 0.000001 0.000000 0.000000 0.000000 1.168770
    28 1.038631 0.548043 -0.144017 -0.000001 0.000001 -1.849906
    29 -0.064003 -0.023521 0.026161 0.000000 0.000000 0.000000
    30 3.013925 3.984634 -0.088975 -0.000001 0.000001 -1.849906
    31 -0.084188 -0.025627 -0.001098 0.000000 0.000000 0.000000
    32 4.778187 3.972486 -0.079803 -0.000001 0.000001 -1.849906
    33 -0.058556 -0.021324 0.004244 0.000000 0.000000 0.000000
    34 1.640598 -1.968779 -0.099219 -0.000001 0.000001 -1.849906
    35 0.055573 -0.028908 0.000000 0.000000 0.000000 0.000000
    36 1.646738 0.449549 -1.702246 0.154002 0.442277 0.277235
    37 0.928312 0.000000 -0.000002 0.000000 0.000000 0.000000
    38 0.928314 0.000000 0.000001 0.000000 0.000000 0.000000
    39 1.533672 0.109715 1.664491 -0.264755 -0.055959 0.783109
    40 0.928313 0.000000 0.000000 0.000000 0.000000 -0.453556
    41 0.928314 0.000000 0.000001 0.000000 0.000000 0.000000
  time 6
    0 0.235347 0.367732 3.528927 0.000000 0.000000 -1.570874
    1 0.000000 0.000000 0.000000 -1.570795 -1.570796 0.000000
    2 -0.000005 0.000007 3.713255 0.002054 3.115505 -0.021473
    3 18.045721 0.000000 0.000000 0.000000 0.000000 -0.121501
    4 17.597597 0.000000 0.000000 -0.002613 0.026036 0.099967
    5 0.000005 -0.000003 -3.713255 -0.002524 -3.124238 -0.024449
    6 18.045725 0.000000 0.000000 0.000000 0.000000 -0.127551
    7 17.597597 0.000000 0.000000 0.002950 -0.017289 0.103055
    8 1.293670 0.684478 -0.000001 -0.000004 -0.000001 -0.007924
    9 5.309685 -0.003834 0.000000 -0.224393 -0.033042 -0.144550
    10 4.826790 -0.004591 0.000000 -0.144234 -0.003931 -0.140439
    11 5.792767 -0.005304 0.000000 -0.104189 -0.009923 -0.095422
    12 6.662317 -0.001453 0.000000 0.000000 -0.000001 0.471000
    13 2.046985 -0.000002 0.000000 0.612122 0.396354 -0.191644
    14 -3.112024 1.517254 4.341911 1.168008 -1.093534 1.546239
    15 4.827230 0.000000 0.000001 -0.799462 0.308703 -0.779286
    16 11.139763 0.000000 0.000000 0.000000 0.000000 -1.368721
    17 10.314597 0.000001 0.000000 -3.010067 -0.064640 0.326477
    18 2.975834 -0.386307 -0.044143 -0.015298 -0.040855 0.340466
    19 1.438886 0.000000 0.000000 0.000000 0.000000 0.662877
    20 1.485303 0.000000 0.000000 0.000000 0.000000 0.689056
    21 -2.869898 1.399663 -4.140396 -1.081271 1.163732 1.624670
    22 4.972048 0.000000 0.000001 1.228999 -0.181796 -1.857703
    23 11.585355 0.000000 0.000000 0.000000 0.000000 -0.658637
    24 10.127057 0.000000 0.000001 1.729071 0.258506 0.390885
    25 2.683750 -0.427338 0.044205 -0.005786 0.043239 -0.157091
    26 1.438885 -0.000001 0.000000 0.000000 0.000000 0.732658
    27 1.485305 0.000001 0.000000 0.000000 0.000000 1.168770
    28 1.038631 0.548043 -0.144017 -0.000001 0.000001 -1.849906
    29 -0.064003 -0.023521 0.026161 0.000000 0.000000 0.000000
    30 3.013925 3.984634 -0.088975 -0.000001 0.000001 -1.849906
    31 -0.084188 -0.025627 -0.001098 0.000000 0.000000 0.000000
    32 4.778187 3.972486 -0.079803 -0.000001 0.000001 -1.849906
    33 -0.058556 -0.021324 0.004244 0.000000 0.000000 0.000000
    34 1.640598 -1.968779 -0.099219 -0.000001 0.000001 -1.849906
    35 0.055573 -0.028908 0.000000 0.000000 0.000000 0.000000
    36 1.646738 0.449549 -1.702246 0.154002 0.442277 0.277235
    37 0.928312 0.000000 -0.000002 0.000000 0.000000 0.000000
    38 0.928314 0.000000 0.000001 0.000000 0.000000 0.000000
    39 1.533672 0.109715 1.664491 -0.264755 -0.055959 0.783109
    40 0.928313 0.000000 0.000000 0.000000 0.000000 -0.453556
    41 0.928314 0.000000 0.000001 0.000000 0.000000 0.000000
  time 7
    0 0.235347 0.367732 3.528927 0.000000 0.000000 -1.570874
    1 0.000000 0.000000 0.000000 -1.570795 -1.570796 0.000000
    2 -0.000005 0.000007 3.713255 0.002054 3.115505 -0.021473
    3 18.045721 0.000000 0.000000 0.000000 0.000000 -0.121501
    4 17.597597 0.000000 0.000000 -0.002613 0.026036 0.099967
    5 0.000005 -0.000003 -3.713255 -0.002524 -3.124238 -0.024449
    6 18.045725 0.000000 0.000000 0.000000 0.000000 -0.127551
    7 17.597597 0.000000 0.000000 0.002950 -0.017289 0.103055
    8 1.293670 0.684478 -0.000001 -0.000004 -0.000001 -0.007924
    9 5.309685 -0.003834 0.000000 -0.224662 -0.031100 -0.136039
    10 4.826790 -0.004591 0.000000 -0.120934 -0.016838 -0.138521
    11 5.792767 -0.005304 0.000000 -0.104189 -0.009923 -0.095422
    12 6.662317 -0.001453 0.000000 0.000000 -0.000001 0.471000
    13 2.046985 -0.000002 0.000000 0.589891 0.415266 -0.207735
    14 -3.112024 1.517254 4.341911 1.168008 -1.093534 1.546239
    15 4.827230 0.000000 0.000001 -0.792355 0.287598 -0.806240
    16 11.139763 0.000000 0.000000 0.000000 0.000000 -1.371455
    17 10.314597 0.000001 0.000000 -2.987507 -0.064640 0.326477
    18 2.975834 -0.386307 -0.044143 -0.015298 -0.040855 0.340466
    19 1.438886 0.000000 0.000000 0.000000 0.000000 0.662877
    20 1.485303 0.000000 0.000000 0.000000 0.000000 0.689056
    21 -2.869898 1.399663 -4.140396 -0.700750 1.311553 1.985728
    22 4.972048 0.000000 0.000001 1.265124 -0.186381 -2.041553
    23 11.585355 0.000000 0.000000 0.000000 0.000000 -0.621770
    24 10.127057 0.000000 0.000001 1.721745 0.262810 0.362604
    25 2.683750 -0.427338 0.044205 -0.005786 0.043239 -0.157091
    26 1.438885 -0.000001 0.000000 0.000000 0.000000 0.732658
    27 1.485305 0.000001 0.000000 0.000000 0.000000 1.168770
    28 1.038631 0.548043 -0.144017 -0.000001 0.000001 -1.849906
    29 -0.064003 -0.023521 0.026161 0.000000 0.000000 0.000000
    30 3.013925 3.984634 -0.088975 -0.000001 0.000001 -1.849906
    31 -0.084188 -0.025627 -0.001098 0.000000 0.000000 0.000000
    32 4.778187 3.972486 -0.079803 -0.000001 0.000001 -1.849906
    33 -0.058556 -0.021324 0.004244 0.000000 0.000000 0.000000
    34 1.640598 -1.968779 -0.099219 -0.000001 0.000001 -1.849906
    35 0.055573 -0.028908 0.000000 0.000000 0.000000 0.000000
    36 1.646738 0.449549 -1.702246 0.154002 0.442277 0.277235
    37 0.928312 0.000000 -0.000002 0.000000 0.000000 0.000000
    38 0.928314 0.000000 0.000001 0.000000 0.000000 0.000000
    39 1.533672 0.109715 1.664491 -0.264755 -0.055959 0.783109
    40 0.928313 0.000000 0.000000 0.000000 0.000000 -0.453556
    41 0.928314 0.000000 0.000001 0.000000 0.000000 0.000000
end
