version 1
nodes
  0 "Bip01" -1
  1 "Bip01 Pelvis" 0
  2 "Bip01 L Leg" 1
  3 "Bip01 L Leg1" 2
  4 "Bip01 L Foot" 3
  5 "Bip01 R Leg" 1
  6 "Bip01 R Leg1" 5
  7 "Bip01 R Foot" 6
  8 "Bip01 Spine" 1
  9 "Bip01 Spine1" 8
  10 "Bip01 Spine2" 9
  11 "Bip01 Spine3" 10
  12 "Bip01 Neck" 11
  13 "Bip01 Head" 12
  14 "Bip01 L Arm" 12
  15 "Bip01 L Arm1" 14
  16 "Bip01 L Arm2" 15
  17 "Bip01 L Hand" 16
  18 "Bip01 L Finger1" 17
  19 "Bip01 L Finger11" 18
  20 "Bip01 L Finger12" 19
  21 "Bip01 R Arm" 12
  22 "Bip01 R Arm1" 21
  23 "Bip01 R Arm2" 22
  24 "Bip01 R Hand" 23
  25 "Bip01 R Finger1" 24
  26 "Bip01 R Finger11" 25
  27 "Bip01 R Finger12" 26
  28 "Dummy08" 13
  29 "Bone02" 28
  30 "Dummy04" 13
  31 "Bone05" 30
  32 "Dummy03" 13
  33 "Bone07" 32
  34 "Dummy10" 13
  35 "Bone13" 34
  36 "Bip01 L Finger0" 17
  37 "Bip01 L Finger01" 36
  38 "Bip01 L Finger02" 37
  39 "Bip01 R Finger0" 24
  40 "Bip01 R Finger01" 39
  41 "Bip01 R Finger02" 40
end
skeleton
  time 0
    0 0.235347 0.367732 3.528927 0.000000 0.000000 -1.570874
    1 0.000000 0.000000 0.000000 -1.570795 -1.570796 0.000000
    2 -0.000005 0.000007 3.713255 0.002054 3.115505 -0.021473
    3 18.045721 0.000000 0.000000 0.000000 0.000000 -0.121501
    4 17.597597 0.000000 0.000000 -0.002613 0.026036 0.099967
    5 0.000005 -0.000003 -3.713255 -0.002524 -3.124238 -0.024449
    6 18.045725 0.000000 0.000000 0.000000 0.000000 -0.127551
    7 17.597597 0.000000 0.000000 0.002950 -0.017289 0.103055
    8 1.293670 0.684478 -0.000001 -0.000004 -0.000001 0.061853
    9 5.309685 -0.003834 0.000000 0.000000 0.000000 -0.104656
    10 4.826790 -0.004591 0.000000 -0.171031 -0.034456 -0.197656
    11 5.792767 -0.005304 0.000000 -0.139495 -0.003523 -0.025909
    12 6.662317 -0.001453 0.000000 0.000000 -0.000001 0.235516
    13 2.046985 -0.000002 0.000000 0.304510 0.070855 -0.318891
    14 -3.377657 0.751606 4.341911 2.083309 -1.208547 0.792845
    15 4.827230 0.000000 0.000001 -0.364755 0.228112 -1.069211
    16 11.139763 0.000000 0.000000 0.000000 0.000000 -1.203894
    17 10.314597 0.000001 0.000000 -3.878403 0.130323 -0.281151
    18 2.975834 -0.386307 -0.044143 -0.000797 -0.043611 0.000035
    19 1.438886 0.000000 0.000000 0.000000 0.000000 0.872212
    20 1.485303 0.000000 0.000000 0.000000 0.000000 0.907076
    21 -3.115999 0.692610 -4.140396 0.672729 1.317206 3.562266
    22 4.972048 0.000000 0.000001 -0.253814 -1.300408 -0.480045
    23 11.585355 0.000000 0.000000 0.000000 0.000000 -1.839859
    24 10.127057 0.000000 0.000001 1.550323 0.339530 -0.326744
    25 2.683750 -0.427338 0.044205 -0.005786 0.043239 -0.157091
    26 1.438885 -0.000001 0.000000 0.000000 0.000000 0.732658
    27 1.485305 0.000001 0.000000 0.000000 0.000000 1.168770
    28 1.038631 0.548043 -0.144017 -0.000001 0.000001 -1.849906
    29 -0.064003 -0.023521 0.026161 0.000000 0.000000 0.000000
    30 3.013925 3.984634 -0.088975 -0.000001 0.000001 -1.849906
    31 -0.084188 -0.025627 -0.001098 0.000000 0.000000 0.000000
    32 4.778187 3.972486 -0.079803 -0.000001 0.000001 -1.849906
    33 -0.058556 -0.021324 0.004244 0.000000 0.000000 0.000000
    34 1.640598 -1.968779 -0.099219 -0.000001 0.000001 -1.849906
    35 0.055573 -0.028908 0.000000 0.000000 0.000000 0.000000
    36 1.646738 0.449549 -1.702246 -0.161934 0.581206 -0.284024
    37 0.928312 0.000000 -0.000002 0.000000 0.000000 0.000000
    38 0.928314 0.000000 0.000001 0.000000 0.000000 0.000000
    39 1.533672 0.109715 1.664491 -0.264755 -0.055959 0.783109
    40 0.928313 0.000000 0.000000 0.000000 0.000000 -0.453556
    41 0.928314 0.000000 0.000001 0.000000 0.000000 0.000000
  time 1
    0 0.235347 0.367732 3.528927 0.000000 0.000000 -1.570874
    1 0.000000 0.000000 0.000000 -1.570795 -1.570796 0.000000
    2 -0.000005 0.000007 3.713255 0.002054 3.115505 -0.021473
    3 18.045721 0.000000 0.000000 0.000000 0.000000 -0.121501
    4 17.597597 0.000000 0.000000 -0.002613 0.026036 0.099967
    5 0.000005 -0.000003 -3.713255 -0.002524 -3.124238 -0.024449
    6 18.045725 0.000000 0.000000 0.000000 0.000000 -0.127551
    7 17.597597 0.000000 0.000000 0.002950 -0.017289 0.103055
    8 1.293670 0.684478 -0.000001 -0.000004 -0.000001 0.061853
    9 5.309685 -0.003834 0.000000 0.000000 0.000000 -0.104656
    10 4.826790 -0.004591 0.000000 -0.171064 -0.034264 -0.196575
    11 5.792767 -0.005304 0.000000 -0.139511 -0.003320 -0.024476
    12 6.662317 -0.001453 0.000000 0.000000 -0.000001 0.235516
    13 2.046985 -0.000002 0.000000 0.304510 0.070990 -0.321453
    14 -3.377657 0.751606 4.341911 2.076597 -1.209971 0.800036
    15 4.827230 0.000000 0.000001 -0.362464 0.224198 -1.068248
    16 11.139763 0.000000 0.000000 0.000000 0.000000 -1.203894
    17 10.314597 0.000001 0.000000 -3.878403 0.130323 -0.281151
    18 2.975834 -0.386307 -0.044143 -0.000797 -0.043611 0.000035
    19 1.438886 0.000000 0.000000 0.000000 0.000000 0.872212
    20 1.485303 0.000000 0.000000 0.000000 0.000000 0.907076
    21 -3.115999 0.692610 -4.140396 0.668415 1.315765 3.557760
    22 4.972048 0.000000 0.000001 -0.248012 -1.298156 -0.486172
    23 11.585355 0.000000 0.000000 0.000000 0.000000 -1.839859
    24 10.127057 0.000000 0.000001 1.550323 0.339530 -0.326744
    25 2.683750 -0.427338 0.044205 -0.005786 0.043239 -0.157091
    26 1.438885 -0.000001 0.000000 0.000000 0.000000 0.732658
    27 1.485305 0.000001 0.000000 0.000000 0.000000 1.168770
    28 1.038631 0.548043 -0.144017 -0.000001 0.000001 -1.849906
    29 -0.064003 -0.023521 0.026161 0.000000 0.000000 0.000000
    30 3.013925 3.984634 -0.088975 -0.000001 0.000001 -1.849906
    31 -0.084188 -0.025627 -0.001098 0.000000 0.000000 0.000000
    32 4.778187 3.972486 -0.079803 -0.000001 0.000001 -1.849906
    33 -0.058556 -0.021324 0.004244 0.000000 0.000000 0.000000
    34 1.640598 -1.968779 -0.099219 -0.000001 0.000001 -1.849906
    35 0.055573 -0.028908 0.000000 0.000000 0.000000 0.000000
    36 1.646738 0.449549 -1.702246 -0.161934 0.581206 -0.284024
    37 0.928312 0.000000 -0.000002 0.000000 0.000000 0.000000
    38 0.928314 0.000000 0.000001 0.000000 0.000000 0.000000
    39 1.533672 0.109715 1.664491 -0.264755 -0.055959 0.783109
    40 0.928313 0.000000 0.000000 0.000000 0.000000 -0.453556
    41 0.928314 0.000000 0.000001 0.000000 0.000000 0.000000
  time 2
    0 0.235347 0.367732 3.528927 0.000000 0.000000 -1.570874
    1 0.000000 0.000000 0.000000 -1.570795 -1.570796 0.000000
    2 -0.000005 0.000007 3.713255 0.002054 3.115505 -0.021473
    3 18.045721 0.000000 0.000000 0.000000 0.000000 -0.121501
    4 17.597597 0.000000 0.000000 -0.002613 0.026036 0.099967
    5 0.000005 -0.000003 -3.713255 -0.002524 -3.124238 -0.024449
    6 18.045725 0.000000 0.000000 0.000000 0.000000 -0.127551
    7 17.597597 0.000000 0.000000 0.002950 -0.017289 0.103055
    8 1.293670 0.684478 -0.000001 -0.000004 -0.000001 0.061853
    9 5.309685 -0.003834 0.000000 0.000000 0.000000 -0.104656
    10 4.826790 -0.004591 0.000000 -0.171113 -0.034012 -0.195098
    11 5.792767 -0.005304 0.000000 -0.139511 -0.003044 -0.022504
    12 6.662317 -0.001453 0.000000 0.000000 -0.000001 0.235516
    13 2.046985 -0.000002 0.000000 0.304467 0.071215 -0.324914
    14 -3.377657 0.751606 4.341911 2.067298 -1.211856 0.809911
    15 4.827230 0.000000 0.000001 -0.359292 0.218836 -1.067023
    16 11.139763 0.000000 0.000000 0.000000 0.000000 -1.203894
    17 10.314597 0.000001 0.000000 -3.878403 0.130323 -0.281151
    18 2.975834 -0.386307 -0.044143 -0.000797 -0.043611 0.000035
    19 1.438886 0.000000 0.000000 0.000000 0.000000 0.872212
    20 1.485303 0.000000 0.000000 0.000000 0.000000 0.907076
    21 -3.115999 0.692610 -4.140396 0.662566 1.313815 3.551720
    22 4.972048 0.000000 0.000001 -0.240199 -1.295019 -0.494340
    23 11.585355 0.000000 0.000000 0.000000 0.000000 -1.839859
    24 10.127057 0.000000 0.000001 1.550323 0.339530 -0.326744
    25 2.683750 -0.427338 0.044205 -0.005786 0.043239 -0.157091
    26 1.438885 -0.000001 0.000000 0.000000 0.000000 0.732658
    27 1.485305 0.000001 0.000000 0.000000 0.000000 1.168770
    28 1.038631 0.548043 -0.144017 -0.000001 0.000001 -1.849906
    29 -0.064003 -0.023521 0.026161 0.000000 0.000000 0.000000
    30 3.013925 3.984634 -0.088975 -0.000001 0.000001 -1.849906
    31 -0.084188 -0.025627 -0.001098 0.000000 0.000000 0.000000
    32 4.778187 3.972486 -0.079803 -0.000001 0.000001 -1.849906
    33 -0.058556 -0.021324 0.004244 0.000000 0.000000 0.000000
    34 1.640598 -1.968779 -0.099219 -0.000001 0.000001 -1.849906
    35 0.055573 -0.028908 0.000000 0.000000 0.000000 0.000000
    36 1.646738 0.449549 -1.702246 -0.161934 0.581206 -0.284024
    37 0.928312 0.000000 -0.000002 0.000000 0.000000 0.000000
    38 0.928314 0.000000 0.000001 0.000000 0.000000 0.000000
    39 1.533672 0.109715 1.664491 -0.264755 -0.055959 0.783109
    40 0.928313 0.000000 0.000000 0.000000 0.000000 -0.453556
    41 0.928314 0.000000 0.000001 0.000000 0.000000 0.000000
  time 3
    0 0.235347 0.367732 3.528927 0.000000 0.000000 -1.570874
    1 0.000000 0.000000 0.000000 -1.570795 -1.570796 0.000000
    2 -0.000005 0.000007 3.713255 0.002054 3.115505 -0.021473
    3 18.045721 0.000000 0.000000 0.000000 0.000000 -0.121501
    4 17.597597 0.000000 0.000000 -0.002613 0.026036 0.099967
    5 0.000005 -0.000003 -3.713255 -0.002524 -3.124238 -0.024449
    6 18.045725 0.000000 0.000000 0.000000 0.000000 -0.127551
    7 17.597597 0.000000 0.000000 0.002950 -0.017289 0.103055
    8 1.293670 0.684478 -0.000001 -0.000004 -0.000001 0.061853
    9 5.309685 -0.003834 0.000000 0.000000 0.000000 -0.104656
    10 4.826790 -0.004591 0.000000 -0.171179 -0.033701 -0.193312
    11 5.792767 -0.005304 0.000000 -0.139528 -0.002709 -0.020116
    12 6.662317 -0.001453 0.000000 0.000000 -0.000001 0.235516
    13 2.046985 -0.000002 0.000000 0.304467 0.071463 -0.329094
    14 -3.377657 0.751606 4.341911 2.055889 -1.214125 0.822087
    15 4.827230 0.000000 0.000001 -0.355533 0.212369 -1.065535
    16 11.139763 0.000000 0.000000 0.000000 0.000000 -1.203894
    17 10.314597 0.000001 0.000000 -3.878403 0.130323 -0.281151
    18 2.975834 -0.386307 -0.044143 -0.000797 -0.043611 0.000035
    19 1.438886 0.000000 0.000000 0.000000 0.000000 0.872212
    20 1.485303 0.000000 0.000000 0.000000 0.000000 0.907076
    21 -3.115999 0.692610 -4.140396 0.655472 1.311440 3.544434
    22 4.972048 0.000000 0.000001 -0.230994 -1.291238 -0.504023
    23 11.585355 0.000000 0.000000 0.000000 0.000000 -1.839859
    24 10.127057 0.000000 0.000001 1.550323 0.339530 -0.326744
    25 2.683750 -0.427338 0.044205 -0.005786 0.043239 -0.157091
    26 1.438885 -0.000001 0.000000 0.000000 0.000000 0.732658
    27 1.485305 0.000001 0.000000 0.000000 0.000000 1.168770
    28 1.038631 0.548043 -0.144017 -0.000001 0.000001 -1.849906
    29 -0.064003 -0.023521 0.026161 0.000000 0.000000 0.000000
    30 3.013925 3.984634 -0.088975 -0.000001 0.000001 -1.849906
    31 -0.084188 -0.025627 -0.001098 0.000000 0.000000 0.000000
    32 4.778187 3.972486 -0.079803 -0.000001 0.000001 -1.849906
    33 -0.058556 -0.021324 0.004244 0.000000 0.000000 0.000000
    34 1.640598 -1.968779 -0.099219 -0.000001 0.000001 -1.849906
    35 0.055573 -0.028908 0.000000 0.000000 0.000000 0.000000
    36 1.646738 0.449549 -1.702246 -0.161934 0.581206 -0.284024
    37 0.928312 0.000000 -0.000002 0.000000 0.000000 0.000000
    38 0.928314 0.000000 0.000001 0.000000 0.000000 0.000000
    39 1.533672 0.109715 1.664491 -0.264755 -0.055959 0.783109
    40 0.928313 0.000000 0.000000 0.000000 0.000000 -0.453556
    41 0.928314 0.000000 0.000001 0.000000 0.000000 0.000000
  time 4
    0 0.235347 0.367732 3.528927 0.000000 0.000000 -1.570874
    1 0.000000 0.000000 0.000000 -1.570795 -1.570796 0.000000
    2 -0.000005 0.000007 3.713255 0.002054 3.115505 -0.021473
    3 18.045721 0.000000 0.000000 0.000000 0.000000 -0.121501
    4 17.597597 0.000000 0.000000 -0.002613 0.026036 0.099967
    5 0.000005 -0.000003 -3.713255 -0.002524 -3.124238 -0.024449
    6 18.045725 0.000000 0.000000 0.000000 0.000000 -0.127551
    7 17.597597 0.000000 0.000000 0.002950 -0.017289 0.103055
    8 1.293670 0.684478 -0.000001 -0.000004 -0.000001 0.061853
    9 5.309685 -0.003834 0.000000 0.000000 0.000000 -0.104656
    10 4.826790 -0.004591 0.000000 -0.171245 -0.033353 -0.191262
    11 5.792767 -0.005304 0.000000 -0.139528 -0.002325 -0.017375
    12 6.662317 -0.001453 0.000000 0.000000 -0.000001 0.235516
    13 2.046985 -0.000002 0.000000 0.304424 0.071733 -0.333903
    14 -3.377657 0.751606 4.341911 2.042754 -1.216702 0.836181
    15 4.827230 0.000000 0.000001 -0.351186 0.204965 -1.063873
    16 11.139763 0.000000 0.000000 0.000000 0.000000 -1.203894
    17 10.314597 0.000001 0.000000 -3.878403 0.130323 -0.281151
    18 2.975834 -0.386307 -0.044143 -0.000797 -0.043611 0.000035
    19 1.438886 0.000000 0.000000 0.000000 0.000000 0.872212
    20 1.485303 0.000000 0.000000 0.000000 0.000000 0.907076
    21 -3.115999 0.692610 -4.140396 0.647706 1.308699 3.536284
    22 4.972048 0.000000 0.000001 -0.220706 -1.286894 -0.514826
    23 11.585355 0.000000 0.000000 0.000000 0.000000 -1.839859
    24 10.127057 0.000000 0.000001 1.550323 0.339530 -0.326744
    25 2.683750 -0.427338 0.044205 -0.005786 0.043239 -0.157091
    26 1.438885 -0.000001 0.000000 0.000000 0.000000 0.732658
    27 1.485305 0.000001 0.000000 0.000000 0.000000 1.168770
    28 1.038631 0.548043 -0.144017 -0.000001 0.000001 -1.849906
    29 -0.064003 -0.023521 0.026161 0.000000 0.000000 0.000000
    30 3.013925 3.984634 -0.088975 -0.000001 0.000001 -1.849906
    31 -0.084188 -0.025627 -0.001098 0.000000 0.000000 0.000000
    32 4.778187 3.972486 -0.079803 -0.000001 0.000001 -1.849906
    33 -0.058556 -0.021324 0.004244 0.000000 0.000000 0.000000
    34 1.640598 -1.968779 -0.099219 -0.000001 0.000001 -1.849906
    35 0.055573 -0.028908 0.000000 0.000000 0.000000 0.000000
    36 1.646738 0.449549 -1.702246 -0.161934 0.581206 -0.284024
    37 0.928312 0.000000 -0.000002 0.000000 0.000000 0.000000
    38 0.928314 0.000000 0.000001 0.000000 0.000000 0.000000
    39 1.533672 0.109715 1.664491 -0.264755 -0.055959 0.783109
    40 0.928313 0.000000 0.000000 0.000000 0.000000 -0.453556
    41 0.928314 0.000000 0.000001 0.000000 0.000000 0.000000
  time 5
    0 0.235347 0.367732 3.528927 0.000000 0.000000 -1.570874
    1 0.000000 0.000000 0.000000 -1.570795 -1.570796 0.000000
    2 -0.000005 0.000007 3.713255 0.002054 3.115505 -0.021473
    3 18.045721 0.000000 0.000000 0.000000 0.000000 -0.121501
    4 17.597597 0.000000 0.000000 -0.002613 0.026036 0.099967
    5 0.000005 -0.000003 -3.713255 -0.002524 -3.124238 -0.024449
    6 18.045725 0.000000 0.000000 0.000000 0.000000 -0.127551
    7 17.597597 0.000000 0.000000 0.002950 -0.017289 0.103055
    8 1.293670 0.684478 -0.000001 -0.000004 -0.000001 0.061853
    9 5.309685 -0.003834 0.000000 0.000000 0.000000 -0.104656
    10 4.826790 -0.004591 0.000000 -0.171327 -0.032970 -0.189057
    11 5.792767 -0.005304 0.000000 -0.139528 -0.001906 -0.014385
    12 6.662317 -0.001453 0.000000 0.000000 -0.000001 0.235516
    13 2.046985 -0.000002 0.000000 0.304381 0.072048 -0.339162
    14 -3.377657 0.751606 4.341911 2.028086 -1.219395 0.851713
    15 4.827230 0.000000 0.000001 -0.346488 0.196965 -1.062123
    16 11.139763 0.000000 0.000000 0.000000 0.000000 -1.203894
    17 10.314597 0.000001 0.000000 -3.878403 0.130323 -0.281151
    18 2.975834 -0.386307 -0.044143 -0.000797 -0.043611 0.000035
    19 1.438886 0.000000 0.000000 0.000000 0.000000 0.872212
    20 1.485303 0.000000 0.000000 0.000000 0.000000 0.907076
    21 -3.115999 0.692610 -4.140396 0.639269 1.305674 3.527656
    22 4.972048 0.000000 0.000001 -0.209954 -1.282148 -0.526222
    23 11.585355 0.000000 0.000000 0.000000 0.000000 -1.839859
    24 10.127057 0.000000 0.000001 1.550323 0.339530 -0.326744
    25 2.683750 -0.427338 0.044205 -0.005786 0.043239 -0.157091
    26 1.438885 -0.000001 0.000000 0.000000 0.000000 0.732658
    27 1.485305 0.000001 0.000000 0.000000 0.000000 1.168770
    28 1.038631 0.548043 -0.144017 -0.000001 0.000001 -1.849906
    29 -0.064003 -0.023521 0.026161 0.000000 0.000000 0.000000
    30 3.013925 3.984634 -0.088975 -0.000001 0.000001 -1.849906
    31 -0.084188 -0.025627 -0.001098 0.000000 0.000000 0.000000
    32 4.778187 3.972486 -0.079803 -0.000001 0.000001 -1.849906
    33 -0.058556 -0.021324 0.004244 0.000000 0.000000 0.000000
    34 1.640598 -1.968779 -0.099219 -0.000001 0.000001 -1.849906
    35 0.055573 -0.028908 0.000000 0.000000 0.000000 0.000000
    36 1.646738 0.449549 -1.702246 -0.161934 0.581206 -0.284024
    37 0.928312 0.000000 -0.000002 0.000000 0.000000 0.000000
    38 0.928314 0.000000 0.000001 0.000000 0.000000 0.000000
    39 1.533672 0.109715 1.664491 -0.264755 -0.055959 0.783109
    40 0.928313 0.000000 0.000000 0.000000 0.000000 -0.453556
    41 0.928314 0.000000 0.000001 0.000000 0.000000 0.000000
  time 6
    0 0.235347 0.367732 3.528927 0.000000 0.000000 -1.570874
    1 0.000000 0.000000 0.000000 -1.570795 -1.570796 0.000000
    2 -0.000005 0.000007 3.713255 0.002054 3.115505 -0.021473
    3 18.045721 0.000000 0.000000 0.000000 0.000000 -0.121501
    4 17.597597 0.000000 0.000000 -0.002613 0.026036 0.099967
    5 0.000005 -0.000003 -3.713255 -0.002524 -3.124238 -0.024449
    6 18.045725 0.000000 0.000000 0.000000 0.000000 -0.127551
    7 17.597597 0.000000 0.000000 0.002950 -0.017289 0.103055
    8 1.293670 0.684478 -0.000001 -0.000004 -0.000001 0.061853
    9 5.309685 -0.003834 0.000000 0.000000 0.000000 -0.104656
    10 4.826790 -0.004591 0.000000 -0.171392 -0.032562 -0.186697
    11 5.792767 -0.005304 0.000000 -0.139544 -0.001462 -0.011271
    12 6.662317 -0.001453 0.000000 0.000000 -0.000001 0.235516
    13 2.046985 -0.000002 0.000000 0.304338 0.072386 -0.344691
    14 -3.377657 0.751606 4.341911 2.012554 -1.222126 0.868299
    15 4.827230 0.000000 0.000001 -0.341612 0.188455 -1.060460
    16 11.139763 0.000000 0.000000 0.000000 0.000000 -1.203894
    17 10.314597 0.000001 0.000000 -3.878403 0.130323 -0.281151
    18 2.975834 -0.386307 -0.044143 -0.000797 -0.043611 0.000035
    19 1.438886 0.000000 0.000000 0.000000 0.000000 0.872212
    20 1.485303 0.000000 0.000000 0.000000 0.000000 0.907076
    21 -3.115999 0.692610 -4.140396 0.630737 1.302509 3.518740
    22 4.972048 0.000000 0.000001 -0.199047 -1.277080 -0.537881
    23 11.585355 0.000000 0.000000 0.000000 0.000000 -1.839859
    24 10.127057 0.000000 0.000001 1.550323 0.339530 -0.326744
    25 2.683750 -0.427338 0.044205 -0.005786 0.043239 -0.157091
    26 1.438885 -0.000001 0.000000 0.000000 0.000000 0.732658
    27 1.485305 0.000001 0.000000 0.000000 0.000000 1.168770
    28 1.038631 0.548043 -0.144017 -0.000001 0.000001 -1.849906
    29 -0.064003 -0.023521 0.026161 0.000000 0.000000 0.000000
    30 3.013925 3.984634 -0.088975 -0.000001 0.000001 -1.849906
    31 -0.084188 -0.025627 -0.001098 0.000000 0.000000 0.000000
    32 4.778187 3.972486 -0.079803 -0.000001 0.000001 -1.849906
    33 -0.058556 -0.021324 0.004244 0.000000 0.000000 0.000000
    34 1.640598 -1.968779 -0.099219 -0.000001 0.000001 -1.849906
    35 0.055573 -0.028908 0.000000 0.000000 0.000000 0.000000
    36 1.646738 0.449549 -1.702246 -0.161934 0.581206 -0.284024
    37 0.928312 0.000000 -0.000002 0.000000 0.000000 0.000000
    38 0.928314 0.000000 0.000001 0.000000 0.000000 0.000000
    39 1.533672 0.109715 1.664491 -0.264755 -0.055959 0.783109
    40 0.928313 0.000000 0.000000 0.000000 0.000000 -0.453556
    41 0.928314 0.000000 0.000001 0.000000 0.000000 0.000000
  time 7
    0 0.235347 0.367732 3.528927 0.000000 0.000000 -1.570874
    1 0.000000 0.000000 0.000000 -1.570795 -1.570796 0.000000
    2 -0.000005 0.000007 3.713255 0.002054 3.115505 -0.021473
    3 18.045721 0.000000 0.000000 0.000000 0.000000 -0.121501
    4 17.597597 0.000000 0.000000 -0.002613 0.026036 0.099967
    5 0.000005 -0.000003 -3.713255 -0.002524 -3.124238 -0.024449
    6 18.045725 0.000000 0.000000 0.000000 0.000000 -0.127551
    7 17.597597 0.000000 0.000000 0.002950 -0.017289 0.103055
    8 1.293670 0.684478 -0.000001 -0.000004 -0.000001 0.061853
    9 5.309685 -0.003834 0.000000 0.000000 0.000000 -0.104656
    10 4.826790 -0.004591 0.000000 -0.171475 -0.032143 -0.184316
    11 5.792767 -0.005304 0.000000 -0.139544 -0.001019 -0.008073
    12 6.662317 -0.001453 0.000000 0.000000 -0.000001 0.235516
    13 2.046985 -0.000002 0.000000 0.304295 0.072723 -0.350309
    14 -3.377657 0.751606 4.341911 1.996352 -1.224857 0.885557
    15 4.827230 0.000000 0.000001 -0.336679 0.179775 -1.058710
    16 11.139763 0.000000 0.000000 0.000000 0.000000 -1.203894
    17 10.314597 0.000001 0.000000 -3.878403 0.130323 -0.281151
    18 2.975834 -0.386307 -0.044143 -0.000797 -0.043611 0.000035
    19 1.438886 0.000000 0.000000 0.000000 0.000000 0.872212
    20 1.485303 0.000000 0.000000 0.000000 0.000000 0.907076
    21 -3.115999 0.692610 -4.140396 0.622204 1.299230 3.509919
    22 4.972048 0.000000 0.000001 -0.188294 -1.271852 -0.549343
    23 11.585355 0.000000 0.000000 0.000000 0.000000 -1.839859
    24 10.127057 0.000000 0.000001 1.550323 0.339530 -0.326744
    25 2.683750 -0.427338 0.044205 -0.005786 0.043239 -0.157091
    26 1.438885 -0.000001 0.000000 0.000000 0.000000 0.732658
    27 1.485305 0.000001 0.000000 0.000000 0.000000 1.168770
    28 1.038631 0.548043 -0.144017 -0.000001 0.000001 -1.849906
    29 -0.064003 -0.023521 0.026161 0.000000 0.000000 0.000000
    30 3.013925 3.984634 -0.088975 -0.000001 0.000001 -1.849906
    31 -0.084188 -0.025627 -0.001098 0.000000 0.000000 0.000000
    32 4.778187 3.972486 -0.079803 -0.000001 0.000001 -1.849906
    33 -0.058556 -0.021324 0.004244 0.000000 0.000000 0.000000
    34 1.640598 -1.968779 -0.099219 -0.000001 0.000001 -1.849906
    35 0.055573 -0.028908 0.000000 0.000000 0.000000 0.000000
    36 1.646738 0.449549 -1.702246 -0.161934 0.581206 -0.284024
    37 0.928312 0.000000 -0.000002 0.000000 0.000000 0.000000
    38 0.928314 0.000000 0.000001 0.000000 0.000000 0.000000
    39 1.533672 0.109715 1.664491 -0.264755 -0.055959 0.783109
    40 0.928313 0.000000 0.000000 0.000000 0.000000 -0.453556
    41 0.928314 0.000000 0.000001 0.000000 0.000000 0.000000
  time 8
    0 0.235347 0.367732 3.528927 0.000000 0.000000 -1.570874
    1 0.000000 0.000000 0.000000 -1.570795 -1.570796 0.000000
    2 -0.000005 0.000007 3.713255 0.002054 3.115505 -0.021473
    3 18.045721 0.000000 0.000000 0.000000 0.000000 -0.121501
    4 17.597597 0.000000 0.000000 -0.002613 0.026036 0.099967
    5 0.000005 -0.000003 -3.713255 -0.002524 -3.124238 -0.024449
    6 18.045725 0.000000 0.000000 0.000000 0.000000 -0.127551
    7 17.597597 0.000000 0.000000 0.002950 -0.017289 0.103055
    8 1.293670 0.684478 -0.000001 -0.000004 -0.000001 0.061853
    9 5.309685 -0.003834 0.000000 0.000000 0.000000 -0.104656
    10 4.826790 -0.004591 0.000000 -0.171557 -0.031735 -0.181957
    11 5.792767 -0.005304 0.000000 -0.139544 -0.000575 -0.004897
    12 6.662317 -0.001453 0.000000 0.000000 -0.000001 0.235516
    13 2.046985 -0.000002 0.000000 0.304252 0.073039 -0.355882
    14 -3.377657 0.751606 4.341911 1.980053 -1.227434 0.902815
    15 4.827230 0.000000 0.000001 -0.331745 0.171180 -1.057134
    16 11.139763 0.000000 0.000000 0.000000 0.000000 -1.203894
    17 10.314597 0.000001 0.000000 -3.878403 0.130323 -0.281151
    18 2.975834 -0.386307 -0.044143 -0.000797 -0.043611 0.000035
    19 1.438886 0.000000 0.000000 0.000000 0.000000 0.872212
    20 1.485303 0.000000 0.000000 0.000000 0.000000 0.907076
    21 -3.115999 0.692610 -4.140396 0.613959 1.295980 3.501291
    22 4.972048 0.000000 0.000001 -0.178083 -1.266784 -0.560344
    23 11.585355 0.000000 0.000000 0.000000 0.000000 -1.839859
    24 10.127057 0.000000 0.000001 1.550323 0.339530 -0.326744
    25 2.683750 -0.427338 0.044205 -0.005786 0.043239 -0.157091
    26 1.438885 -0.000001 0.000000 0.000000 0.000000 0.732658
    27 1.485305 0.000001 0.000000 0.000000 0.000000 1.168770
    28 1.038631 0.548043 -0.144017 -0.000001 0.000001 -1.849906
    29 -0.064003 -0.023521 0.026161 0.000000 0.000000 0.000000
    30 3.013925 3.984634 -0.088975 -0.000001 0.000001 -1.849906
    31 -0.084188 -0.025627 -0.001098 0.000000 0.000000 0.000000
    32 4.778187 3.972486 -0.079803 -0.000001 0.000001 -1.849906
    33 -0.058556 -0.021324 0.004244 0.000000 0.000000 0.000000
    34 1.640598 -1.968779 -0.099219 -0.000001 0.000001 -1.849906
    35 0.055573 -0.028908 0.000000 0.000000 0.000000 0.000000
    36 1.646738 0.449549 -1.702246 -0.161934 0.581206 -0.284024
    37 0.928312 0.000000 -0.000002 0.000000 0.000000 0.000000
    38 0.928314 0.000000 0.000001 0.000000 0.000000 0.000000
    39 1.533672 0.109715 1.664491 -0.264755 -0.055959 0.783109
    40 0.928313 0.000000 0.000000 0.000000 0.000000 -0.453556
    41 0.928314 0.000000 0.000001 0.000000 0.000000 0.000000
  time 9
    0 0.235347 0.367732 3.528927 0.000000 0.000000 -1.570874
    1 0.000000 0.000000 0.000000 -1.570795 -1.570796 0.000000
    2 -0.000005 0.000007 3.713255 0.002054 3.115505 -0.021473
    3 18.045721 0.000000 0.000000 0.000000 0.000000 -0.121501
    4 17.597597 0.000000 0.000000 -0.002613 0.026036 0.099967
    5 0.000005 -0.000003 -3.713255 -0.002524 -3.124238 -0.024449
    6 18.045725 0.000000 0.000000 0.000000 0.000000 -0.127551
    7 17.597597 0.000000 0.000000 0.002950 -0.017289 0.103055
    8 1.293670 0.684478 -0.000001 -0.000004 -0.000001 0.061853
    9 5.309685 -0.003834 0.000000 0.000000 0.000000 -0.104656
    10 4.826790 -0.004591 0.000000 -0.171622 -0.031340 -0.179686
    11 5.792767 -0.005304 0.000000 -0.139544 -0.000144 -0.001865
    12 6.662317 -0.001453 0.000000 0.000000 -0.000001 0.235516
    13 2.046985 -0.000002 0.000000 0.304208 0.073354 -0.361231
    14 -3.377657 0.751606 4.341911 1.964234 -1.229819 0.919689
    15 4.827230 0.000000 0.000001 -0.327046 0.162840 -1.055647
    16 11.139763 0.000000 0.000000 0.000000 0.000000 -1.203894
    17 10.314597 0.000001 0.000000 -3.878403 0.130323 -0.281151
    18 2.975834 -0.386307 -0.044143 -0.000797 -0.043611 0.000035
    19 1.438886 0.000000 0.000000 0.000000 0.000000 0.872212
    20 1.485303 0.000000 0.000000 0.000000 0.000000 0.907076
    21 -3.115999 0.692610 -4.140396 0.606193 1.292843 3.493237
    22 4.972048 0.000000 0.000001 -0.168569 -1.261797 -0.570554
    23 11.585355 0.000000 0.000000 0.000000 0.000000 -1.839859
    24 10.127057 0.000000 0.000001 1.550323 0.339530 -0.326744
    25 2.683750 -0.427338 0.044205 -0.005786 0.043239 -0.157091
    26 1.438885 -0.000001 0.000000 0.000000 0.000000 0.732658
    27 1.485305 0.000001 0.000000 0.000000 0.000000 1.168770
    28 1.038631 0.548043 -0.144017 -0.000001 0.000001 -1.849906
    29 -0.064003 -0.023521 0.026161 0.000000 0.000000 0.000000
    30 3.013925 3.984634 -0.088975 -0.000001 0.000001 -1.849906
    31 -0.084188 -0.025627 -0.001098 0.000000 0.000000 0.000000
    32 4.778187 3.972486 -0.079803 -0.000001 0.000001 -1.849906
    33 -0.058556 -0.021324 0.004244 0.000000 0.000000 0.000000
    34 1.640598 -1.968779 -0.099219 -0.000001 0.000001 -1.849906
    35 0.055573 -0.028908 0.000000 0.000000 0.000000 0.000000
    36 1.646738 0.449549 -1.702246 -0.161934 0.581206 -0.284024
    37 0.928312 0.000000 -0.000002 0.000000 0.000000 0.000000
    38 0.928314 0.000000 0.000001 0.000000 0.000000 0.000000
    39 1.533672 0.109715 1.664491 -0.264755 -0.055959 0.783109
    40 0.928313 0.000000 0.000000 0.000000 0.000000 -0.453556
    41 0.928314 0.000000 0.000001 0.000000 0.000000 0.000000
  time 10
    0 0.235347 0.367732 3.528927 0.000000 0.000000 -1.570874
    1 0.000000 0.000000 0.000000 -1.570795 -1.570796 0.000000
    2 -0.000005 0.000007 3.713255 0.002054 3.115505 -0.021473
    3 18.045721 0.000000 0.000000 0.000000 0.000000 -0.121501
    4 17.597597 0.000000 0.000000 -0.002613 0.026036 0.099967
    5 0.000005 -0.000003 -3.713255 -0.002524 -3.124238 -0.024449
    6 18.045725 0.000000 0.000000 0.000000 0.000000 -0.127551
    7 17.597597 0.000000 0.000000 0.002950 -0.017289 0.103055
    8 1.293670 0.684478 -0.000001 -0.000004 -0.000001 0.061853
    9 5.309685 -0.003834 0.000000 0.000000 0.000000 -0.104656
    10 4.826790 -0.004591 0.000000 -0.171688 -0.030980 -0.177591
    11 5.792767 -0.005304 0.000000 -0.139544 0.000240 0.000958
    12 6.662317 -0.001453 0.000000 0.000000 -0.000001 0.235516
    13 2.046985 -0.000002 0.000000 0.304165 0.073669 -0.366220
    14 -3.377657 0.751606 4.341911 1.949278 -1.231973 0.935508
    15 4.827230 0.000000 0.000001 -0.322758 0.155181 -1.054334
    16 11.139763 0.000000 0.000000 0.000000 0.000000 -1.203894
    17 10.314597 0.000001 0.000000 -3.878403 0.130323 -0.281151
    18 2.975834 -0.386307 -0.044143 -0.000797 -0.043611 0.000035
    19 1.438886 0.000000 0.000000 0.000000 0.000000 0.872212
    20 1.485303 0.000000 0.000000 0.000000 0.000000 0.907076
    21 -3.115999 0.692610 -4.140396 0.599098 1.289903 3.485951
    22 4.972048 0.000000 0.000001 -0.160060 -1.257131 -0.579842
    23 11.585355 0.000000 0.000000 0.000000 0.000000 -1.839859
    24 10.127057 0.000000 0.000001 1.550323 0.339530 -0.326744
    25 2.683750 -0.427338 0.044205 -0.005786 0.043239 -0.157091
    26 1.438885 -0.000001 0.000000 0.000000 0.000000 0.732658
    27 1.485305 0.000001 0.000000 0.000000 0.000000 1.168770
    28 1.038631 0.548043 -0.144017 -0.000001 0.000001 -1.849906
    29 -0.064003 -0.023521 0.026161 0.000000 0.000000 0.000000
    30 3.013925 3.984634 -0.088975 -0.000001 0.000001 -1.849906
    31 -0.084188 -0.025627 -0.001098 0.000000 0.000000 0.000000
    32 4.778187 3.972486 -0.079803 -0.000001 0.000001 -1.849906
    33 -0.058556 -0.021324 0.004244 0.000000 0.000000 0.000000
    34 1.640598 -1.968779 -0.099219 -0.000001 0.000001 -1.849906
    35 0.055573 -0.028908 0.000000 0.000000 0.000000 0.000000
    36 1.646738 0.449549 -1.702246 -0.161934 0.581206 -0.284024
    37 0.928312 0.000000 -0.000002 0.000000 0.000000 0.000000
    38 0.928314 0.000000 0.000001 0.000000 0.000000 0.000000
    39 1.533672 0.109715 1.664491 -0.264755 -0.055959 0.783109
    40 0.928313 0.000000 0.000000 0.000000 0.000000 -0.453556
    41 0.928314 0.000000 0.000001 0.000000 0.000000 0.000000
  time 11
    0 0.235347 0.367732 3.528927 0.000000 0.000000 -1.570874
    1 0.000000 0.000000 0.000000 -1.570795 -1.570796 0.000000
    2 -0.000005 0.000007 3.713255 0.002054 3.115505 -0.021473
    3 18.045721 0.000000 0.000000 0.000000 0.000000 -0.121501
    4 17.597597 0.000000 0.000000 -0.002613 0.026036 0.099967
    5 0.000005 -0.000003 -3.713255 -0.002524 -3.124238 -0.024449
    6 18.045725 0.000000 0.000000 0.000000 0.000000 -0.127551
    7 17.597597 0.000000 0.000000 0.002950 -0.017289 0.103055
    8 1.293670 0.684478 -0.000001 -0.000004 -0.000001 0.061853
    9 5.309685 -0.003834 0.000000 0.000000 0.000000 -0.104656
    10 4.826790 -0.004591 0.000000 -0.171754 -0.030657 -0.175695
    11 5.792767 -0.005304 0.000000 -0.139544 0.000587 0.003471
    12 6.662317 -0.001453 0.000000 0.000000 -0.000001 0.235516
    13 2.046985 -0.000002 0.000000 0.304165 0.073917 -0.370625
    14 -3.377657 0.751606 4.341911 1.935760 -1.233820 0.949794
    15 4.827230 0.000000 0.000001 -0.318881 0.148288 -1.053284
    16 11.139763 0.000000 0.000000 0.000000 0.000000 -1.203894
    17 10.314597 0.000001 0.000000 -3.878403 0.130323 -0.281151
    18 2.975834 -0.386307 -0.044143 -0.000797 -0.043611 0.000035
    19 1.438886 0.000000 0.000000 0.000000 0.000000 0.872212
    20 1.485303 0.000000 0.000000 0.000000 0.000000 0.907076
    21 -3.115999 0.692610 -4.140396 0.592963 1.287275 3.479527
    22 4.972048 0.000000 0.000001 -0.152634 -1.252948 -0.587813
    23 11.585355 0.000000 0.000000 0.000000 0.000000 -1.839859
    24 10.127057 0.000000 0.000001 1.550323 0.339530 -0.326744
    25 2.683750 -0.427338 0.044205 -0.005786 0.043239 -0.157091
    26 1.438885 -0.000001 0.000000 0.000000 0.000000 0.732658
    27 1.485305 0.000001 0.000000 0.000000 0.000000 1.168770
    28 1.038631 0.548043 -0.144017 -0.000001 0.000001 -1.849906
    29 -0.064003 -0.023521 0.026161 0.000000 0.000000 0.000000
    30 3.013925 3.984634 -0.088975 -0.000001 0.000001 -1.849906
    31 -0.084188 -0.025627 -0.001098 0.000000 0.000000 0.000000
    32 4.778187 3.972486 -0.079803 -0.000001 0.000001 -1.849906
    33 -0.058556 -0.021324 0.004244 0.000000 0.000000 0.000000
    34 1.640598 -1.968779 -0.099219 -0.000001 0.000001 -1.849906
    35 0.055573 -0.028908 0.000000 0.000000 0.000000 0.000000
    36 1.646738 0.449549 -1.702246 -0.161934 0.581206 -0.284024
    37 0.928312 0.000000 -0.000002 0.000000 0.000000 0.000000
    38 0.928314 0.000000 0.000001 0.000000 0.000000 0.000000
    39 1.533672 0.109715 1.664491 -0.264755 -0.055959 0.783109
    40 0.928313 0.000000 0.000000 0.000000 0.000000 -0.453556
    41 0.928314 0.000000 0.000001 0.000000 0.000000 0.000000
  time 12
    0 0.235347 0.367732 3.528927 0.000000 0.000000 -1.570874
    1 0.000000 0.000000 0.000000 -1.570795 -1.570796 0.000000
    2 -0.000005 0.000007 3.713255 0.002054 3.115505 -0.021473
    3 18.045721 0.000000 0.000000 0.000000 0.000000 -0.121501
    4 17.597597 0.000000 0.000000 -0.002613 0.026036 0.099967
    5 0.000005 -0.000003 -3.713255 -0.002524 -3.124238 -0.024449
    6 18.045725 0.000000 0.000000 0.000000 0.000000 -0.127551
    7 17.597597 0.000000 0.000000 0.002950 -0.017289 0.103055
    8 1.293670 0.684478 -0.000001 -0.000004 -0.000001 0.061853
    9 5.309685 -0.003834 0.000000 0.000000 0.000000 -0.104656
    10 4.826790 -0.004591 0.000000 -0.171803 -0.030381 -0.174130
    11 5.792767 -0.005304 0.000000 -0.139544 0.000887 0.005609
    12 6.662317 -0.001453 0.000000 0.000000 -0.000001 0.235516
    13 2.046985 -0.000002 0.000000 0.304122 0.074142 -0.374356
    14 -3.377657 0.751606 4.341911 1.924351 -1.235320 0.961970
    15 4.827230 0.000000 0.000001 -0.315651 0.142501 -1.052409
    16 11.139763 0.000000 0.000000 0.000000 0.000000 -1.203894
    17 10.314597 0.000001 0.000000 -3.878403 0.130323 -0.281151
    18 2.975834 -0.386307 -0.044143 -0.000797 -0.043611 0.000035
    19 1.438886 0.000000 0.000000 0.000000 0.000000 0.872212
    20 1.485303 0.000000 0.000000 0.000000 0.000000 0.907076
    21 -3.115999 0.692610 -4.140396 0.587881 1.285042 3.474254
    22 4.972048 0.000000 0.000001 -0.146600 -1.249409 -0.594466
    23 11.585355 0.000000 0.000000 0.000000 0.000000 -1.839859
    24 10.127057 0.000000 0.000001 1.550323 0.339530 -0.326744
    25 2.683750 -0.427338 0.044205 -0.005786 0.043239 -0.157091
    26 1.438885 -0.000001 0.000000 0.000000 0.000000 0.732658
    27 1.485305 0.000001 0.000000 0.000000 0.000000 1.168770
    28 1.038631 0.548043 -0.144017 -0.000001 0.000001 -1.849906
    29 -0.064003 -0.023521 0.026161 0.000000 0.000000 0.000000
    30 3.013925 3.984634 -0.088975 -0.000001 0.000001 -1.849906
    31 -0.084188 -0.025627 -0.001098 0.000000 0.000000 0.000000
    32 4.778187 3.972486 -0.079803 -0.000001 0.000001 -1.849906
    33 -0.058556 -0.021324 0.004244 0.000000 0.000000 0.000000
    34 1.640598 -1.968779 -0.099219 -0.000001 0.000001 -1.849906
    35 0.055573 -0.028908 0.000000 0.000000 0.000000 0.000000
    36 1.646738 0.449549 -1.702246 -0.161934 0.581206 -0.284024
    37 0.928312 0.000000 -0.000002 0.000000 0.000000 0.000000
    38 0.928314 0.000000 0.000001 0.000000 0.000000 0.000000
    39 1.533672 0.109715 1.664491 -0.264755 -0.055959 0.783109
    40 0.928313 0.000000 0.000000 0.000000 0.000000 -0.453556
    41 0.928314 0.000000 0.000001 0.000000 0.000000 0.000000
  time 13
    0 0.235347 0.367732 3.528927 0.000000 0.000000 -1.570874
    1 0.000000 0.000000 0.000000 -1.570795 -1.570796 0.000000
    2 -0.000005 0.000007 3.713255 0.002054 3.115505 -0.021473
    3 18.045721 0.000000 0.000000 0.000000 0.000000 -0.121501
    4 17.597597 0.000000 0.000000 -0.002613 0.026036 0.099967
    5 0.000005 -0.000003 -3.713255 -0.002524 -3.124238 -0.024449
    6 18.045725 0.000000 0.000000 0.000000 0.000000 -0.127551
    7 17.597597 0.000000 0.000000 0.002950 -0.017289 0.103055
    8 1.293670 0.684478 -0.000001 -0.000004 -0.000001 0.061853
    9 5.309685 -0.003834 0.000000 0.000000 0.000000 -0.104656
    10 4.826790 -0.004591 0.000000 -0.171836 -0.030165 -0.172895
    11 5.792767 -0.005304 0.000000 -0.139544 0.001115 0.007229
    12 6.662317 -0.001453 0.000000 0.000000 -0.000001 0.235516
    13 2.046985 -0.000002 0.000000 0.304079 0.074322 -0.377233
    14 -3.377657 0.751606 4.341911 1.915435 -1.236474 0.971366
    15 4.827230 0.000000 0.000001 -0.313184 0.137991 -1.051709
    16 11.139763 0.000000 0.000000 0.000000 0.000000 -1.203894
    17 10.314597 0.000001 0.000000 -3.878403 0.130323 -0.281151
    18 2.975834 -0.386307 -0.044143 -0.000797 -0.043611 0.000035
    19 1.438886 0.000000 0.000000 0.000000 0.000000 0.872212
    20 1.485303 0.000000 0.000000 0.000000 0.000000 0.907076
    21 -3.115999 0.692610 -4.140396 0.584046 1.283318 3.470228
    22 4.972048 0.000000 0.000001 -0.142036 -1.246674 -0.599406
    23 11.585355 0.000000 0.000000 0.000000 0.000000 -1.839859
    24 10.127057 0.000000 0.000001 1.550323 0.339530 -0.326744
    25 2.683750 -0.427338 0.044205 -0.005786 0.043239 -0.157091
    26 1.438885 -0.000001 0.000000 0.000000 0.000000 0.732658
    27 1.485305 0.000001 0.000000 0.000000 0.000000 1.168770
    28 1.038631 0.548043 -0.144017 -0.000001 0.000001 -1.849906
    29 -0.064003 -0.023521 0.026161 0.000000 0.000000 0.000000
    30 3.013925 3.984634 -0.088975 -0.000001 0.000001 -1.849906
    31 -0.084188 -0.025627 -0.001098 0.000000 0.000000 0.000000
    32 4.778187 3.972486 -0.079803 -0.000001 0.000001 -1.849906
    33 -0.058556 -0.021324 0.004244 0.000000 0.000000 0.000000
    34 1.640598 -1.968779 -0.099219 -0.000001 0.000001 -1.849906
    35 0.055573 -0.028908 0.000000 0.000000 0.000000 0.000000
    36 1.646738 0.449549 -1.702246 -0.161934 0.581206 -0.284024
    37 0.928312 0.000000 -0.000002 0.000000 0.000000 0.000000
    38 0.928314 0.000000 0.000001 0.000000 0.000000 0.000000
    39 1.533672 0.109715 1.664491 -0.264755 -0.055959 0.783109
    40 0.928313 0.000000 0.000000 0.000000 0.000000 -0.453556
    41 0.928314 0.000000 0.000001 0.000000 0.000000 0.000000
  time 14
    0 0.235347 0.367732 3.528927 0.000000 0.000000 -1.570874
    1 0.000000 0.000000 0.000000 -1.570795 -1.570796 0.000000
    2 -0.000005 0.000007 3.713255 0.002054 3.115505 -0.021473
    3 18.045721 0.000000 0.000000 0.000000 0.000000 -0.121501
    4 17.597597 0.000000 0.000000 -0.002613 0.026036 0.099967
    5 0.000005 -0.000003 -3.713255 -0.002524 -3.124238 -0.024449
    6 18.045725 0.000000 0.000000 0.000000 0.000000 -0.127551
    7 17.597597 0.000000 0.000000 0.002950 -0.017289 0.103055
    8 1.293670 0.684478 -0.000001 -0.000004 -0.000001 0.061853
    9 5.309685 -0.003834 0.000000 0.000000 0.000000 -0.104656
    10 4.826790 -0.004591 0.000000 -0.171852 -0.030033 -0.172123
    11 5.792767 -0.005304 0.000000 -0.139544 0.001270 0.008267
    12 6.662317 -0.001453 0.000000 0.000000 -0.000001 0.235516
    13 2.046985 -0.000002 0.000000 0.304079 0.074412 -0.379075
    14 -3.377657 0.751606 4.341911 1.909682 -1.237166 0.977406
    15 4.827230 0.000000 0.000001 -0.311598 0.135182 -1.051271
    16 11.139763 0.000000 0.000000 0.000000 0.000000 -1.203894
    17 10.314597 0.000001 0.000000 -3.878403 0.130323 -0.281151
    18 2.975834 -0.386307 -0.044143 -0.000797 -0.043611 0.000035
    19 1.438886 0.000000 0.000000 0.000000 0.000000 0.872212
    20 1.485303 0.000000 0.000000 0.000000 0.000000 0.907076
    21 -3.115999 0.692610 -4.140396 0.581554 1.282215 3.467639
    22 4.972048 0.000000 0.000001 -0.139174 -1.244984 -0.602568
    23 11.585355 0.000000 0.000000 0.000000 0.000000 -1.839859
    24 10.127057 0.000000 0.000001 1.550323 0.339530 -0.326744
    25 2.683750 -0.427338 0.044205 -0.005786 0.043239 -0.157091
    26 1.438885 -0.000001 0.000000 0.000000 0.000000 0.732658
    27 1.485305 0.000001 0.000000 0.000000 0.000000 1.168770
    28 1.038631 0.548043 -0.144017 -0.000001 0.000001 -1.849906
    29 -0.064003 -0.023521 0.026161 0.000000 0.000000 0.000000
    30 3.013925 3.984634 -0.088975 -0.000001 0.000001 -1.849906
    31 -0.084188 -0.025627 -0.001098 0.000000 0.000000 0.000000
    32 4.778187 3.972486 -0.079803 -0.000001 0.000001 -1.849906
    33 -0.058556 -0.021324 0.004244 0.000000 0.000000 0.000000
    34 1.640598 -1.968779 -0.099219 -0.000001 0.000001 -1.849906
    35 0.055573 -0.028908 0.000000 0.000000 0.000000 0.000000
    36 1.646738 0.449549 -1.702246 -0.161934 0.581206 -0.284024
    37 0.928312 0.000000 -0.000002 0.000000 0.000000 0.000000
    38 0.928314 0.000000 0.000001 0.000000 0.000000 0.000000
    39 1.533672 0.109715 1.664491 -0.264755 -0.055959 0.783109
    40 0.928313 0.000000 0.000000 0.000000 0.000000 -0.453556
    41 0.928314 0.000000 0.000001 0.000000 0.000000 0.000000
  time 15
    0 0.235347 0.367732 3.528927 0.000000 0.000000 -1.570874
    1 0.000000 0.000000 0.000000 -1.570795 -1.570796 0.000000
    2 -0.000005 0.000007 3.713255 0.002054 3.115505 -0.021473
    3 18.045721 0.000000 0.000000 0.000000 0.000000 -0.121501
    4 17.597597 0.000000 0.000000 -0.002613 0.026036 0.099967
    5 0.000005 -0.000003 -3.713255 -0.002524 -3.124238 -0.024449
    6 18.045725 0.000000 0.000000 0.000000 0.000000 -0.127551
    7 17.597597 0.000000 0.000000 0.002950 -0.017289 0.103055
    8 1.293670 0.684478 -0.000001 -0.000004 -0.000001 0.061853
    9 5.309685 -0.003834 0.000000 0.000000 0.000000 -0.104656
    10 4.826790 -0.004591 0.000000 -0.171869 -0.029985 -0.171859
    11 5.792767 -0.005304 0.000000 -0.139544 0.001318 0.008641
    12 6.662317 -0.001453 0.000000 0.000000 -0.000001 0.235516
    13 2.046985 -0.000002 0.000000 0.304079 0.074457 -0.379705
    14 -3.377657 0.751606 4.341911 1.907669 -1.237397 0.979516
    15 4.827230 0.000000 0.000001 -0.311070 0.134161 -1.051184
    16 11.139763 0.000000 0.000000 0.000000 0.000000 -1.203894
    17 10.314597 0.000001 0.000000 -3.878403 0.130323 -0.281151
    18 2.975834 -0.386307 -0.044143 -0.000797 -0.043611 0.000035
    19 1.438886 0.000000 0.000000 0.000000 0.000000 0.872212
    20 1.485303 0.000000 0.000000 0.000000 0.000000 0.907076
    21 -3.115999 0.692610 -4.140396 0.580691 1.281848 3.466776
    22 4.972048 0.000000 0.000001 -0.138168 -1.244341 -0.603688
    23 11.585355 0.000000 0.000000 0.000000 0.000000 -1.839859
    24 10.127057 0.000000 0.000001 1.550323 0.339530 -0.326744
    25 2.683750 -0.427338 0.044205 -0.005786 0.043239 -0.157091
    26 1.438885 -0.000001 0.000000 0.000000 0.000000 0.732658
    27 1.485305 0.000001 0.000000 0.000000 0.000000 1.168770
    28 1.038631 0.548043 -0.144017 -0.000001 0.000001 -1.849906
    29 -0.064003 -0.023521 0.026161 0.000000 0.000000 0.000000
    30 3.013925 3.984634 -0.088975 -0.000001 0.000001 -1.849906
    31 -0.084188 -0.025627 -0.001098 0.000000 0.000000 0.000000
    32 4.778187 3.972486 -0.079803 -0.000001 0.000001 -1.849906
    33 -0.058556 -0.021324 0.004244 0.000000 0.000000 0.000000
    34 1.640598 -1.968779 -0.099219 -0.000001 0.000001 -1.849906
    35 0.055573 -0.028908 0.000000 0.000000 0.000000 0.000000
    36 1.646738 0.449549 -1.702246 -0.161934 0.581206 -0.284024
    37 0.928312 0.000000 -0.000002 0.000000 0.000000 0.000000
    38 0.928314 0.000000 0.000001 0.000000 0.000000 0.000000
    39 1.533672 0.109715 1.664491 -0.264755 -0.055959 0.783109
    40 0.928313 0.000000 0.000000 0.000000 0.000000 -0.453556
    41 0.928314 0.000000 0.000001 0.000000 0.000000 0.000000
  time 16
    0 0.235347 0.367732 3.528927 0.000000 0.000000 -1.570874
    1 0.000000 0.000000 0.000000 -1.570795 -1.570796 0.000000
    2 -0.000005 0.000007 3.713255 0.002054 3.115505 -0.021473
    3 18.045721 0.000000 0.000000 0.000000 0.000000 -0.121501
    4 17.597597 0.000000 0.000000 -0.002613 0.026036 0.099967
    5 0.000005 -0.000003 -3.713255 -0.002524 -3.124238 -0.024449
    6 18.045725 0.000000 0.000000 0.000000 0.000000 -0.127551
    7 17.597597 0.000000 0.000000 0.002950 -0.017289 0.103055
    8 1.293670 0.684478 -0.000001 -0.000004 -0.000001 0.061853
    9 5.309685 -0.003834 0.000000 0.000000 0.000000 -0.104656
    10 4.826790 -0.004591 0.000000 -0.171852 -0.030033 -0.172123
    11 5.792767 -0.005304 0.000000 -0.139544 0.001270 0.008267
    12 6.662317 -0.001453 0.000000 0.000000 -0.000001 0.235516
    13 2.046985 -0.000002 0.000000 0.304079 0.074412 -0.379075
    14 -3.377657 0.751606 4.341911 1.909682 -1.237166 0.977406
    15 4.827230 0.000000 0.000001 -0.311598 0.135182 -1.051271
    16 11.139763 0.000000 0.000000 0.000000 0.000000 -1.203894
    17 10.314597 0.000001 0.000000 -3.878403 0.130323 -0.281151
    18 2.975834 -0.386307 -0.044143 -0.000797 -0.043611 0.000035
    19 1.438886 0.000000 0.000000 0.000000 0.000000 0.872212
    20 1.485303 0.000000 0.000000 0.000000 0.000000 0.907076
    21 -3.115999 0.692610 -4.140396 0.581554 1.282215 3.467639
    22 4.972048 0.000000 0.000001 -0.139174 -1.244984 -0.602568
    23 11.585355 0.000000 0.000000 0.000000 0.000000 -1.839859
    24 10.127057 0.000000 0.000001 1.550323 0.339530 -0.326744
    25 2.683750 -0.427338 0.044205 -0.005786 0.043239 -0.157091
    26 1.438885 -0.000001 0.000000 0.000000 0.000000 0.732658
    27 1.485305 0.000001 0.000000 0.000000 0.000000 1.168770
    28 1.038631 0.548043 -0.144017 -0.000001 0.000001 -1.849906
    29 -0.064003 -0.023521 0.026161 0.000000 0.000000 0.000000
    30 3.013925 3.984634 -0.088975 -0.000001 0.000001 -1.849906
    31 -0.084188 -0.025627 -0.001098 0.000000 0.000000 0.000000
    32 4.778187 3.972486 -0.079803 -0.000001 0.000001 -1.849906
    33 -0.058556 -0.021324 0.004244 0.000000 0.000000 0.000000
    34 1.640598 -1.968779 -0.099219 -0.000001 0.000001 -1.849906
    35 0.055573 -0.028908 0.000000 0.000000 0.000000 0.000000
    36 1.646738 0.449549 -1.702246 -0.161934 0.581206 -0.284024
    37 0.928312 0.000000 -0.000002 0.000000 0.000000 0.000000
    38 0.928314 0.000000 0.000001 0.000000 0.000000 0.000000
    39 1.533672 0.109715 1.664491 -0.264755 -0.055959 0.783109
    40 0.928313 0.000000 0.000000 0.000000 0.000000 -0.453556
    41 0.928314 0.000000 0.000001 0.000000 0.000000 0.000000
  time 17
    0 0.235347 0.367732 3.528927 0.000000 0.000000 -1.570874
    1 0.000000 0.000000 0.000000 -1.570795 -1.570796 0.000000
    2 -0.000005 0.000007 3.713255 0.002054 3.115505 -0.021473
    3 18.045721 0.000000 0.000000 0.000000 0.000000 -0.121501
    4 17.597597 0.000000 0.000000 -0.002613 0.026036 0.099967
    5 0.000005 -0.000003 -3.713255 -0.002524 -3.124238 -0.024449
    6 18.045725 0.000000 0.000000 0.000000 0.000000 -0.127551
    7 17.597597 0.000000 0.000000 0.002950 -0.017289 0.103055
    8 1.293670 0.684478 -0.000001 -0.000004 -0.000001 0.061853
    9 5.309685 -0.003834 0.000000 0.000000 0.000000 -0.104656
    10 4.826790 -0.004591 0.000000 -0.171836 -0.030165 -0.172895
    11 5.792767 -0.005304 0.000000 -0.139544 0.001115 0.007229
    12 6.662317 -0.001453 0.000000 0.000000 -0.000001 0.235516
    13 2.046985 -0.000002 0.000000 0.304079 0.074322 -0.377233
    14 -3.377657 0.751606 4.341911 1.915435 -1.236474 0.971366
    15 4.827230 0.000000 0.000001 -0.313184 0.137991 -1.051709
    16 11.139763 0.000000 0.000000 0.000000 0.000000 -1.203894
    17 10.314597 0.000001 0.000000 -3.878403 0.130323 -0.281151
    18 2.975834 -0.386307 -0.044143 -0.000797 -0.043611 0.000035
    19 1.438886 0.000000 0.000000 0.000000 0.000000 0.872212
    20 1.485303 0.000000 0.000000 0.000000 0.000000 0.907076
    21 -3.115999 0.692610 -4.140396 0.584046 1.283318 3.470228
    22 4.972048 0.000000 0.000001 -0.142036 -1.246674 -0.599406
    23 11.585355 0.000000 0.000000 0.000000 0.000000 -1.839859
    24 10.127057 0.000000 0.000001 1.550323 0.339530 -0.326744
    25 2.683750 -0.427338 0.044205 -0.005786 0.043239 -0.157091
    26 1.438885 -0.000001 0.000000 0.000000 0.000000 0.732658
    27 1.485305 0.000001 0.000000 0.000000 0.000000 1.168770
    28 1.038631 0.548043 -0.144017 -0.000001 0.000001 -1.849906
    29 -0.064003 -0.023521 0.026161 0.000000 0.000000 0.000000
    30 3.013925 3.984634 -0.088975 -0.000001 0.000001 -1.849906
    31 -0.084188 -0.025627 -0.001098 0.000000 0.000000 0.000000
    32 4.778187 3.972486 -0.079803 -0.000001 0.000001 -1.849906
    33 -0.058556 -0.021324 0.004244 0.000000 0.000000 0.000000
    34 1.640598 -1.968779 -0.099219 -0.000001 0.000001 -1.849906
    35 0.055573 -0.028908 0.000000 0.000000 0.000000 0.000000
    36 1.646738 0.449549 -1.702246 -0.161934 0.581206 -0.284024
    37 0.928312 0.000000 -0.000002 0.000000 0.000000 0.000000
    38 0.928314 0.000000 0.000001 0.000000 0.000000 0.000000
    39 1.533672 0.109715 1.664491 -0.264755 -0.055959 0.783109
    40 0.928313 0.000000 0.000000 0.000000 0.000000 -0.453556
    41 0.928314 0.000000 0.000001 0.000000 0.000000 0.000000
  time 18
    0 0.235347 0.367732 3.528927 0.000000 0.000000 -1.570874
    1 0.000000 0.000000 0.000000 -1.570795 -1.570796 0.000000
    2 -0.000005 0.000007 3.713255 0.002054 3.115505 -0.021473
    3 18.045721 0.000000 0.000000 0.000000 0.000000 -0.121501
    4 17.597597 0.000000 0.000000 -0.002613 0.026036 0.099967
    5 0.000005 -0.000003 -3.713255 -0.002524 -3.124238 -0.024449
    6 18.045725 0.000000 0.000000 0.000000 0.000000 -0.127551
    7 17.597597 0.000000 0.000000 0.002950 -0.017289 0.103055
    8 1.293670 0.684478 -0.000001 -0.000004 -0.000001 0.061853
    9 5.309685 -0.003834 0.000000 0.000000 0.000000 -0.104656
    10 4.826790 -0.004591 0.000000 -0.171803 -0.030381 -0.174130
    11 5.792767 -0.005304 0.000000 -0.139544 0.000887 0.005609
    12 6.662317 -0.001453 0.000000 0.000000 -0.000001 0.235516
    13 2.046985 -0.000002 0.000000 0.304122 0.074142 -0.374356
    14 -3.377657 0.751606 4.341911 1.924351 -1.235320 0.961970
    15 4.827230 0.000000 0.000001 -0.315651 0.142501 -1.052409
    16 11.139763 0.000000 0.000000 0.000000 0.000000 -1.203894
    17 10.314597 0.000001 0.000000 -3.878403 0.130323 -0.281151
    18 2.975834 -0.386307 -0.044143 -0.000797 -0.043611 0.000035
    19 1.438886 0.000000 0.000000 0.000000 0.000000 0.872212
    20 1.485303 0.000000 0.000000 0.000000 0.000000 0.907076
    21 -3.115999 0.692610 -4.140396 0.587881 1.285042 3.474254
    22 4.972048 0.000000 0.000001 -0.146600 -1.249409 -0.594466
    23 11.585355 0.000000 0.000000 0.000000 0.000000 -1.839859
    24 10.127057 0.000000 0.000001 1.550323 0.339530 -0.326744
    25 2.683750 -0.427338 0.044205 -0.005786 0.043239 -0.157091
    26 1.438885 -0.000001 0.000000 0.000000 0.000000 0.732658
    27 1.485305 0.000001 0.000000 0.000000 0.000000 1.168770
    28 1.038631 0.548043 -0.144017 -0.000001 0.000001 -1.849906
    29 -0.064003 -0.023521 0.026161 0.000000 0.000000 0.000000
    30 3.013925 3.984634 -0.088975 -0.000001 0.000001 -1.849906
    31 -0.084188 -0.025627 -0.001098 0.000000 0.000000 0.000000
    32 4.778187 3.972486 -0.079803 -0.000001 0.000001 -1.849906
    33 -0.058556 -0.021324 0.004244 0.000000 0.000000 0.000000
    34 1.640598 -1.968779 -0.099219 -0.000001 0.000001 -1.849906
    35 0.055573 -0.028908 0.000000 0.000000 0.000000 0.000000
    36 1.646738 0.449549 -1.702246 -0.161934 0.581206 -0.284024
    37 0.928312 0.000000 -0.000002 0.000000 0.000000 0.000000
    38 0.928314 0.000000 0.000001 0.000000 0.000000 0.000000
    39 1.533672 0.109715 1.664491 -0.264755 -0.055959 0.783109
    40 0.928313 0.000000 0.000000 0.000000 0.000000 -0.453556
    41 0.928314 0.000000 0.000001 0.000000 0.000000 0.000000
  time 19
    0 0.235347 0.367732 3.528927 0.000000 0.000000 -1.570874
    1 0.000000 0.000000 0.000000 -1.570795 -1.570796 0.000000
    2 -0.000005 0.000007 3.713255 0.002054 3.115505 -0.021473
    3 18.045721 0.000000 0.000000 0.000000 0.000000 -0.121501
    4 17.597597 0.000000 0.000000 -0.002613 0.026036 0.099967
    5 0.000005 -0.000003 -3.713255 -0.002524 -3.124238 -0.024449
    6 18.045725 0.000000 0.000000 0.000000 0.000000 -0.127551
    7 17.597597 0.000000 0.000000 0.002950 -0.017289 0.103055
    8 1.293670 0.684478 -0.000001 -0.000004 -0.000001 0.061853
    9 5.309685 -0.003834 0.000000 0.000000 0.000000 -0.104656
    10 4.826790 -0.004591 0.000000 -0.171754 -0.030657 -0.175695
    11 5.792767 -0.005304 0.000000 -0.139544 0.000587 0.003471
    12 6.662317 -0.001453 0.000000 0.000000 -0.000001 0.235516
    13 2.046985 -0.000002 0.000000 0.304165 0.073917 -0.370625
    14 -3.377657 0.751606 4.341911 1.935760 -1.233820 0.949794
    15 4.827230 0.000000 0.000001 -0.318881 0.148288 -1.053284
    16 11.139763 0.000000 0.000000 0.000000 0.000000 -1.203894
    17 10.314597 0.000001 0.000000 -3.878403 0.130323 -0.281151
    18 2.975834 -0.386307 -0.044143 -0.000797 -0.043611 0.000035
    19 1.438886 0.000000 0.000000 0.000000 0.000000 0.872212
    20 1.485303 0.000000 0.000000 0.000000 0.000000 0.907076
    21 -3.115999 0.692610 -4.140396 0.592963 1.287275 3.479527
    22 4.972048 0.000000 0.000001 -0.152634 -1.252948 -0.587813
    23 11.585355 0.000000 0.000000 0.000000 0.000000 -1.839859
    24 10.127057 0.000000 0.000001 1.550323 0.339530 -0.326744
    25 2.683750 -0.427338 0.044205 -0.005786 0.043239 -0.157091
    26 1.438885 -0.000001 0.000000 0.000000 0.000000 0.732658
    27 1.485305 0.000001 0.000000 0.000000 0.000000 1.168770
    28 1.038631 0.548043 -0.144017 -0.000001 0.000001 -1.849906
    29 -0.064003 -0.023521 0.026161 0.000000 0.000000 0.000000
    30 3.013925 3.984634 -0.088975 -0.000001 0.000001 -1.849906
    31 -0.084188 -0.025627 -0.001098 0.000000 0.000000 0.000000
    32 4.778187 3.972486 -0.079803 -0.000001 0.000001 -1.849906
    33 -0.058556 -0.021324 0.004244 0.000000 0.000000 0.000000
    34 1.640598 -1.968779 -0.099219 -0.000001 0.000001 -1.849906
    35 0.055573 -0.028908 0.000000 0.000000 0.000000 0.000000
    36 1.646738 0.449549 -1.702246 -0.161934 0.581206 -0.284024
    37 0.928312 0.000000 -0.000002 0.000000 0.000000 0.000000
    38 0.928314 0.000000 0.000001 0.000000 0.000000 0.000000
    39 1.533672 0.109715 1.664491 -0.264755 -0.055959 0.783109
    40 0.928313 0.000000 0.000000 0.000000 0.000000 -0.453556
    41 0.928314 0.000000 0.000001 0.000000 0.000000 0.000000
  time 20
    0 0.235347 0.367732 3.528927 0.000000 0.000000 -1.570874
    1 0.000000 0.000000 0.000000 -1.570795 -1.570796 0.000000
    2 -0.000005 0.000007 3.713255 0.002054 3.115505 -0.021473
    3 18.045721 0.000000 0.000000 0.000000 0.000000 -0.121501
    4 17.597597 0.000000 0.000000 -0.002613 0.026036 0.099967
    5 0.000005 -0.000003 -3.713255 -0.002524 -3.124238 -0.024449
    6 18.045725 0.000000 0.000000 0.000000 0.000000 -0.127551
    7 17.597597 0.000000 0.000000 0.002950 -0.017289 0.103055
    8 1.293670 0.684478 -0.000001 -0.000004 -0.000001 0.061853
    9 5.309685 -0.003834 0.000000 0.000000 0.000000 -0.104656
    10 4.826790 -0.004591 0.000000 -0.171688 -0.030980 -0.177591
    11 5.792767 -0.005304 0.000000 -0.139544 0.000240 0.000958
    12 6.662317 -0.001453 0.000000 0.000000 -0.000001 0.235516
    13 2.046985 -0.000002 0.000000 0.304165 0.073669 -0.366220
    14 -3.377657 0.751606 4.341911 1.949278 -1.231973 0.935508
    15 4.827230 0.000000 0.000001 -0.322758 0.155181 -1.054334
    16 11.139763 0.000000 0.000000 0.000000 0.000000 -1.203894
    17 10.314597 0.000001 0.000000 -3.878403 0.130323 -0.281151
    18 2.975834 -0.386307 -0.044143 -0.000797 -0.043611 0.000035
    19 1.438886 0.000000 0.000000 0.000000 0.000000 0.872212
    20 1.485303 0.000000 0.000000 0.000000 0.000000 0.907076
    21 -3.115999 0.692610 -4.140396 0.599098 1.289903 3.485951
    22 4.972048 0.000000 0.000001 -0.160060 -1.257131 -0.579842
    23 11.585355 0.000000 0.000000 0.000000 0.000000 -1.839859
    24 10.127057 0.000000 0.000001 1.550323 0.339530 -0.326744
    25 2.683750 -0.427338 0.044205 -0.005786 0.043239 -0.157091
    26 1.438885 -0.000001 0.000000 0.000000 0.000000 0.732658
    27 1.485305 0.000001 0.000000 0.000000 0.000000 1.168770
    28 1.038631 0.548043 -0.144017 -0.000001 0.000001 -1.849906
    29 -0.064003 -0.023521 0.026161 0.000000 0.000000 0.000000
    30 3.013925 3.984634 -0.088975 -0.000001 0.000001 -1.849906
    31 -0.084188 -0.025627 -0.001098 0.000000 0.000000 0.000000
    32 4.778187 3.972486 -0.079803 -0.000001 0.000001 -1.849906
    33 -0.058556 -0.021324 0.004244 0.000000 0.000000 0.000000
    34 1.640598 -1.968779 -0.099219 -0.000001 0.000001 -1.849906
    35 0.055573 -0.028908 0.000000 0.000000 0.000000 0.000000
    36 1.646738 0.449549 -1.702246 -0.161934 0.581206 -0.284024
    37 0.928312 0.000000 -0.000002 0.000000 0.000000 0.000000
    38 0.928314 0.000000 0.000001 0.000000 0.000000 0.000000
    39 1.533672 0.109715 1.664491 -0.264755 -0.055959 0.783109
    40 0.928313 0.000000 0.000000 0.000000 0.000000 -0.453556
    41 0.928314 0.000000 0.000001 0.000000 0.000000 0.000000
  time 21
    0 0.235347 0.367732 3.528927 0.000000 0.000000 -1.570874
    1 0.000000 0.000000 0.000000 -1.570795 -1.570796 0.000000
    2 -0.000005 0.000007 3.713255 0.002054 3.115505 -0.021473
    3 18.045721 0.000000 0.000000 0.000000 0.000000 -0.121501
    4 17.597597 0.000000 0.000000 -0.002613 0.026036 0.099967
    5 0.000005 -0.000003 -3.713255 -0.002524 -3.124238 -0.024449
    6 18.045725 0.000000 0.000000 0.000000 0.000000 -0.127551
    7 17.597597 0.000000 0.000000 0.002950 -0.017289 0.103055
    8 1.293670 0.684478 -0.000001 -0.000004 -0.000001 0.061853
    9 5.309685 -0.003834 0.000000 0.000000 0.000000 -0.104656
    10 4.826790 -0.004591 0.000000 -0.171622 -0.031340 -0.179686
    11 5.792767 -0.005304 0.000000 -0.139544 -0.000144 -0.001865
    12 6.662317 -0.001453 0.000000 0.000000 -0.000001 0.235516
    13 2.046985 -0.000002 0.000000 0.304208 0.073354 -0.361231
    14 -3.377657 0.751606 4.341911 1.964234 -1.229819 0.919689
    15 4.827230 0.000000 0.000001 -0.327046 0.162840 -1.055647
    16 11.139763 0.000000 0.000000 0.000000 0.000000 -1.203894
    17 10.314597 0.000001 0.000000 -3.878403 0.130323 -0.281151
    18 2.975834 -0.386307 -0.044143 -0.000797 -0.043611 0.000035
    19 1.438886 0.000000 0.000000 0.000000 0.000000 0.872212
    20 1.485303 0.000000 0.000000 0.000000 0.000000 0.907076
    21 -3.115999 0.692610 -4.140396 0.606193 1.292843 3.493237
    22 4.972048 0.000000 0.000001 -0.168569 -1.261797 -0.570554
    23 11.585355 0.000000 0.000000 0.000000 0.000000 -1.839859
    24 10.127057 0.000000 0.000001 1.550323 0.339530 -0.326744
    25 2.683750 -0.427338 0.044205 -0.005786 0.043239 -0.157091
    26 1.438885 -0.000001 0.000000 0.000000 0.000000 0.732658
    27 1.485305 0.000001 0.000000 0.000000 0.000000 1.168770
    28 1.038631 0.548043 -0.144017 -0.000001 0.000001 -1.849906
    29 -0.064003 -0.023521 0.026161 0.000000 0.000000 0.000000
    30 3.013925 3.984634 -0.088975 -0.000001 0.000001 -1.849906
    31 -0.084188 -0.025627 -0.001098 0.000000 0.000000 0.000000
    32 4.778187 3.972486 -0.079803 -0.000001 0.000001 -1.849906
    33 -0.058556 -0.021324 0.004244 0.000000 0.000000 0.000000
    34 1.640598 -1.968779 -0.099219 -0.000001 0.000001 -1.849906
    35 0.055573 -0.028908 0.000000 0.000000 0.000000 0.000000
    36 1.646738 0.449549 -1.702246 -0.161934 0.581206 -0.284024
    37 0.928312 0.000000 -0.000002 0.000000 0.000000 0.000000
    38 0.928314 0.000000 0.000001 0.000000 0.000000 0.000000
    39 1.533672 0.109715 1.664491 -0.264755 -0.055959 0.783109
    40 0.928313 0.000000 0.000000 0.000000 0.000000 -0.453556
    41 0.928314 0.000000 0.000001 0.000000 0.000000 0.000000
  time 22
    0 0.235347 0.367732 3.528927 0.000000 0.000000 -1.570874
    1 0.000000 0.000000 0.000000 -1.570795 -1.570796 0.000000
    2 -0.000005 0.000007 3.713255 0.002054 3.115505 -0.021473
    3 18.045721 0.000000 0.000000 0.000000 0.000000 -0.121501
    4 17.597597 0.000000 0.000000 -0.002613 0.026036 0.099967
    5 0.000005 -0.000003 -3.713255 -0.002524 -3.124238 -0.024449
    6 18.045725 0.000000 0.000000 0.000000 0.000000 -0.127551
    7 17.597597 0.000000 0.000000 0.002950 -0.017289 0.103055
    8 1.293670 0.684478 -0.000001 -0.000004 -0.000001 0.061853
    9 5.309685 -0.003834 0.000000 0.000000 0.000000 -0.104656
    10 4.826790 -0.004591 0.000000 -0.171557 -0.031735 -0.181957
    11 5.792767 -0.005304 0.000000 -0.139544 -0.000575 -0.004897
    12 6.662317 -0.001453 0.000000 0.000000 -0.000001 0.235516
    13 2.046985 -0.000002 0.000000 0.304252 0.073039 -0.355882
    14 -3.377657 0.751606 4.341911 1.980053 -1.227434 0.902815
    15 4.827230 0.000000 0.000001 -0.331745 0.171180 -1.057134
    16 11.139763 0.000000 0.000000 0.000000 0.000000 -1.203894
    17 10.314597 0.000001 0.000000 -3.878403 0.130323 -0.281151
    18 2.975834 -0.386307 -0.044143 -0.000797 -0.043611 0.000035
    19 1.438886 0.000000 0.000000 0.000000 0.000000 0.872212
    20 1.485303 0.000000 0.000000 0.000000 0.000000 0.907076
    21 -3.115999 0.692610 -4.140396 0.613959 1.295980 3.501291
    22 4.972048 0.000000 0.000001 -0.178083 -1.266784 -0.560344
    23 11.585355 0.000000 0.000000 0.000000 0.000000 -1.839859
    24 10.127057 0.000000 0.000001 1.550323 0.339530 -0.326744
    25 2.683750 -0.427338 0.044205 -0.005786 0.043239 -0.157091
    26 1.438885 -0.000001 0.000000 0.000000 0.000000 0.732658
    27 1.485305 0.000001 0.000000 0.000000 0.000000 1.168770
    28 1.038631 0.548043 -0.144017 -0.000001 0.000001 -1.849906
    29 -0.064003 -0.023521 0.026161 0.000000 0.000000 0.000000
    30 3.013925 3.984634 -0.088975 -0.000001 0.000001 -1.849906
    31 -0.084188 -0.025627 -0.001098 0.000000 0.000000 0.000000
    32 4.778187 3.972486 -0.079803 -0.000001 0.000001 -1.849906
    33 -0.058556 -0.021324 0.004244 0.000000 0.000000 0.000000
    34 1.640598 -1.968779 -0.099219 -0.000001 0.000001 -1.849906
    35 0.055573 -0.028908 0.000000 0.000000 0.000000 0.000000
    36 1.646738 0.449549 -1.702246 -0.161934 0.581206 -0.284024
    37 0.928312 0.000000 -0.000002 0.000000 0.000000 0.000000
    38 0.928314 0.000000 0.000001 0.000000 0.000000 0.000000
    39 1.533672 0.109715 1.664491 -0.264755 -0.055959 0.783109
    40 0.928313 0.000000 0.000000 0.000000 0.000000 -0.453556
    41 0.928314 0.000000 0.000001 0.000000 0.000000 0.000000
  time 23
    0 0.235347 0.367732 3.528927 0.000000 0.000000 -1.570874
    1 0.000000 0.000000 0.000000 -1.570795 -1.570796 0.000000
    2 -0.000005 0.000007 3.713255 0.002054 3.115505 -0.021473
    3 18.045721 0.000000 0.000000 0.000000 0.000000 -0.121501
    4 17.597597 0.000000 0.000000 -0.002613 0.026036 0.099967
    5 0.000005 -0.000003 -3.713255 -0.002524 -3.124238 -0.024449
    6 18.045725 0.000000 0.000000 0.000000 0.000000 -0.127551
    7 17.597597 0.000000 0.000000 0.002950 -0.017289 0.103055
    8 1.293670 0.684478 -0.000001 -0.000004 -0.000001 0.061853
    9 5.309685 -0.003834 0.000000 0.000000 0.000000 -0.104656
    10 4.826790 -0.004591 0.000000 -0.171475 -0.032143 -0.184316
    11 5.792767 -0.005304 0.000000 -0.139544 -0.001019 -0.008073
    12 6.662317 -0.001453 0.000000 0.000000 -0.000001 0.235516
    13 2.046985 -0.000002 0.000000 0.304295 0.072723 -0.350309
    14 -3.377657 0.751606 4.341911 1.996352 -1.224857 0.885557
    15 4.827230 0.000000 0.000001 -0.336679 0.179775 -1.058710
    16 11.139763 0.000000 0.000000 0.000000 0.000000 -1.203894
    17 10.314597 0.000001 0.000000 -3.878403 0.130323 -0.281151
    18 2.975834 -0.386307 -0.044143 -0.000797 -0.043611 0.000035
    19 1.438886 0.000000 0.000000 0.000000 0.000000 0.872212
    20 1.485303 0.000000 0.000000 0.000000 0.000000 0.907076
    21 -3.115999 0.692610 -4.140396 0.622204 1.299230 3.509919
    22 4.972048 0.000000 0.000001 -0.188294 -1.271852 -0.549343
    23 11.585355 0.000000 0.000000 0.000000 0.000000 -1.839859
    24 10.127057 0.000000 0.000001 1.550323 0.339530 -0.326744
    25 2.683750 -0.427338 0.044205 -0.005786 0.043239 -0.157091
    26 1.438885 -0.000001 0.000000 0.000000 0.000000 0.732658
    27 1.485305 0.000001 0.000000 0.000000 0.000000 1.168770
    28 1.038631 0.548043 -0.144017 -0.000001 0.000001 -1.849906
    29 -0.064003 -0.023521 0.026161 0.000000 0.000000 0.000000
    30 3.013925 3.984634 -0.088975 -0.000001 0.000001 -1.849906
    31 -0.084188 -0.025627 -0.001098 0.000000 0.000000 0.000000
    32 4.778187 3.972486 -0.079803 -0.000001 0.000001 -1.849906
    33 -0.058556 -0.021324 0.004244 0.000000 0.000000 0.000000
    34 1.640598 -1.968779 -0.099219 -0.000001 0.000001 -1.849906
    35 0.055573 -0.028908 0.000000 0.000000 0.000000 0.000000
    36 1.646738 0.449549 -1.702246 -0.161934 0.581206 -0.284024
    37 0.928312 0.000000 -0.000002 0.000000 0.000000 0.000000
    38 0.928314 0.000000 0.000001 0.000000 0.000000 0.000000
    39 1.533672 0.109715 1.664491 -0.264755 -0.055959 0.783109
    40 0.928313 0.000000 0.000000 0.000000 0.000000 -0.453556
    41 0.928314 0.000000 0.000001 0.000000 0.000000 0.000000
  time 24
    0 0.235347 0.367732 3.528927 0.000000 0.000000 -1.570874
    1 0.000000 0.000000 0.000000 -1.570795 -1.570796 0.000000
    2 -0.000005 0.000007 3.713255 0.002054 3.115505 -0.021473
    3 18.045721 0.000000 0.000000 0.000000 0.000000 -0.121501
    4 17.597597 0.000000 0.000000 -0.002613 0.026036 0.099967
    5 0.000005 -0.000003 -3.713255 -0.002524 -3.124238 -0.024449
    6 18.045725 0.000000 0.000000 0.000000 0.000000 -0.127551
    7 17.597597 0.000000 0.000000 0.002950 -0.017289 0.103055
    8 1.293670 0.684478 -0.000001 -0.000004 -0.000001 0.061853
    9 5.309685 -0.003834 0.000000 0.000000 0.000000 -0.104656
    10 4.826790 -0.004591 0.000000 -0.171392 -0.032562 -0.186697
    11 5.792767 -0.005304 0.000000 -0.139544 -0.001462 -0.011271
    12 6.662317 -0.001453 0.000000 0.000000 -0.000001 0.235516
    13 2.046985 -0.000002 0.000000 0.304338 0.072386 -0.344691
    14 -3.377657 0.751606 4.341911 2.012554 -1.222126 0.868299
    15 4.827230 0.000000 0.000001 -0.341612 0.188455 -1.060460
    16 11.139763 0.000000 0.000000 0.000000 0.000000 -1.203894
    17 10.314597 0.000001 0.000000 -3.878403 0.130323 -0.281151
    18 2.975834 -0.386307 -0.044143 -0.000797 -0.043611 0.000035
    19 1.438886 0.000000 0.000000 0.000000 0.000000 0.872212
    20 1.485303 0.000000 0.000000 0.000000 0.000000 0.907076
    21 -3.115999 0.692610 -4.140396 0.630737 1.302509 3.518740
    22 4.972048 0.000000 0.000001 -0.199047 -1.277080 -0.537881
    23 11.585355 0.000000 0.000000 0.000000 0.000000 -1.839859
    24 10.127057 0.000000 0.000001 1.550323 0.339530 -0.326744
    25 2.683750 -0.427338 0.044205 -0.005786 0.043239 -0.157091
    26 1.438885 -0.000001 0.000000 0.000000 0.000000 0.732658
    27 1.485305 0.000001 0.000000 0.000000 0.000000 1.168770
    28 1.038631 0.548043 -0.144017 -0.000001 0.000001 -1.849906
    29 -0.064003 -0.023521 0.026161 0.000000 0.000000 0.000000
    30 3.013925 3.984634 -0.088975 -0.000001 0.000001 -1.849906
    31 -0.084188 -0.025627 -0.001098 0.000000 0.000000 0.000000
    32 4.778187 3.972486 -0.079803 -0.000001 0.000001 -1.849906
    33 -0.058556 -0.021324 0.004244 0.000000 0.000000 0.000000
    34 1.640598 -1.968779 -0.099219 -0.000001 0.000001 -1.849906
    35 0.055573 -0.028908 0.000000 0.000000 0.000000 0.000000
    36 1.646738 0.449549 -1.702246 -0.161934 0.581206 -0.284024
    37 0.928312 0.000000 -0.000002 0.000000 0.000000 0.000000
    38 0.928314 0.000000 0.000001 0.000000 0.000000 0.000000
    39 1.533672 0.109715 1.664491 -0.264755 -0.055959 0.783109
    40 0.928313 0.000000 0.000000 0.000000 0.000000 -0.453556
    41 0.928314 0.000000 0.000001 0.000000 0.000000 0.000000
  time 25
    0 0.235347 0.367732 3.528927 0.000000 0.000000 -1.570874
    1 0.000000 0.000000 0.000000 -1.570795 -1.570796 0.000000
    2 -0.000005 0.000007 3.713255 0.002054 3.115505 -0.021473
    3 18.045721 0.000000 0.000000 0.000000 0.000000 -0.121501
    4 17.597597 0.000000 0.000000 -0.002613 0.026036 0.099967
    5 0.000005 -0.000003 -3.713255 -0.002524 -3.124238 -0.024449
    6 18.045725 0.000000 0.000000 0.000000 0.000000 -0.127551
    7 17.597597 0.000000 0.000000 0.002950 -0.017289 0.103055
    8 1.293670 0.684478 -0.000001 -0.000004 -0.000001 0.061853
    9 5.309685 -0.003834 0.000000 0.000000 0.000000 -0.104656
    10 4.826790 -0.004591 0.000000 -0.171327 -0.032970 -0.189057
    11 5.792767 -0.005304 0.000000 -0.139528 -0.001906 -0.014385
    12 6.662317 -0.001453 0.000000 0.000000 -0.000001 0.235516
    13 2.046985 -0.000002 0.000000 0.304381 0.072048 -0.339162
    14 -3.377657 0.751606 4.341911 2.028086 -1.219395 0.851713
    15 4.827230 0.000000 0.000001 -0.346488 0.196965 -1.062123
    16 11.139763 0.000000 0.000000 0.000000 0.000000 -1.203894
    17 10.314597 0.000001 0.000000 -3.878403 0.130323 -0.281151
    18 2.975834 -0.386307 -0.044143 -0.000797 -0.043611 0.000035
    19 1.438886 0.000000 0.000000 0.000000 0.000000 0.872212
    20 1.485303 0.000000 0.000000 0.000000 0.000000 0.907076
    21 -3.115999 0.692610 -4.140396 0.639269 1.305674 3.527656
    22 4.972048 0.000000 0.000001 -0.209954 -1.282148 -0.526222
    23 11.585355 0.000000 0.000000 0.000000 0.000000 -1.839859
    24 10.127057 0.000000 0.000001 1.550323 0.339530 -0.326744
    25 2.683750 -0.427338 0.044205 -0.005786 0.043239 -0.157091
    26 1.438885 -0.000001 0.000000 0.000000 0.000000 0.732658
    27 1.485305 0.000001 0.000000 0.000000 0.000000 1.168770
    28 1.038631 0.548043 -0.144017 -0.000001 0.000001 -1.849906
    29 -0.064003 -0.023521 0.026161 0.000000 0.000000 0.000000
    30 3.013925 3.984634 -0.088975 -0.000001 0.000001 -1.849906
    31 -0.084188 -0.025627 -0.001098 0.000000 0.000000 0.000000
    32 4.778187 3.972486 -0.079803 -0.000001 0.000001 -1.849906
    33 -0.058556 -0.021324 0.004244 0.000000 0.000000 0.000000
    34 1.640598 -1.968779 -0.099219 -0.000001 0.000001 -1.849906
    35 0.055573 -0.028908 0.000000 0.000000 0.000000 0.000000
    36 1.646738 0.449549 -1.702246 -0.161934 0.581206 -0.284024
    37 0.928312 0.000000 -0.000002 0.000000 0.000000 0.000000
    38 0.928314 0.000000 0.000001 0.000000 0.000000 0.000000
    39 1.533672 0.109715 1.664491 -0.264755 -0.055959 0.783109
    40 0.928313 0.000000 0.000000 0.000000 0.000000 -0.453556
    41 0.928314 0.000000 0.000001 0.000000 0.000000 0.000000
  time 26
    0 0.235347 0.367732 3.528927 0.000000 0.000000 -1.570874
    1 0.000000 0.000000 0.000000 -1.570795 -1.570796 0.000000
    2 -0.000005 0.000007 3.713255 0.002054 3.115505 -0.021473
    3 18.045721 0.000000 0.000000 0.000000 0.000000 -0.121501
    4 17.597597 0.000000 0.000000 -0.002613 0.026036 0.099967
    5 0.000005 -0.000003 -3.713255 -0.002524 -3.124238 -0.024449
    6 18.045725 0.000000 0.000000 0.000000 0.000000 -0.127551
    7 17.597597 0.000000 0.000000 0.002950 -0.017289 0.103055
    8 1.293670 0.684478 -0.000001 -0.000004 -0.000001 0.061853
    9 5.309685 -0.003834 0.000000 0.000000 0.000000 -0.104656
    10 4.826790 -0.004591 0.000000 -0.171245 -0.033353 -0.191262
    11 5.792767 -0.005304 0.000000 -0.139528 -0.002325 -0.017375
    12 6.662317 -0.001453 0.000000 0.000000 -0.000001 0.235516
    13 2.046985 -0.000002 0.000000 0.304424 0.071733 -0.333903
    14 -3.377657 0.751606 4.341911 2.042754 -1.216702 0.836181
    15 4.827230 0.000000 0.000001 -0.351186 0.204965 -1.063873
    16 11.139763 0.000000 0.000000 0.000000 0.000000 -1.203894
    17 10.314597 0.000001 0.000000 -3.878403 0.130323 -0.281151
    18 2.975834 -0.386307 -0.044143 -0.000797 -0.043611 0.000035
    19 1.438886 0.000000 0.000000 0.000000 0.000000 0.872212
    20 1.485303 0.000000 0.000000 0.000000 0.000000 0.907076
    21 -3.115999 0.692610 -4.140396 0.647706 1.308699 3.536284
    22 4.972048 0.000000 0.000001 -0.220706 -1.286894 -0.514826
    23 11.585355 0.000000 0.000000 0.000000 0.000000 -1.839859
    24 10.127057 0.000000 0.000001 1.550323 0.339530 -0.326744
    25 2.683750 -0.427338 0.044205 -0.005786 0.043239 -0.157091
    26 1.438885 -0.000001 0.000000 0.000000 0.000000 0.732658
    27 1.485305 0.000001 0.000000 0.000000 0.000000 1.168770
    28 1.038631 0.548043 -0.144017 -0.000001 0.000001 -1.849906
    29 -0.064003 -0.023521 0.026161 0.000000 0.000000 0.000000
    30 3.013925 3.984634 -0.088975 -0.000001 0.000001 -1.849906
    31 -0.084188 -0.025627 -0.001098 0.000000 0.000000 0.000000
    32 4.778187 3.972486 -0.079803 -0.000001 0.000001 -1.849906
    33 -0.058556 -0.021324 0.004244 0.000000 0.000000 0.000000
    34 1.640598 -1.968779 -0.099219 -0.000001 0.000001 -1.849906
    35 0.055573 -0.028908 0.000000 0.000000 0.000000 0.000000
    36 1.646738 0.449549 -1.702246 -0.161934 0.581206 -0.284024
    37 0.928312 0.000000 -0.000002 0.000000 0.000000 0.000000
    38 0.928314 0.000000 0.000001 0.000000 0.000000 0.000000
    39 1.533672 0.109715 1.664491 -0.264755 -0.055959 0.783109
    40 0.928313 0.000000 0.000000 0.000000 0.000000 -0.453556
    41 0.928314 0.000000 0.000001 0.000000 0.000000 0.000000
  time 27
    0 0.235347 0.367732 3.528927 0.000000 0.000000 -1.570874
    1 0.000000 0.000000 0.000000 -1.570795 -1.570796 0.000000
    2 -0.000005 0.000007 3.713255 0.002054 3.115505 -0.021473
    3 18.045721 0.000000 0.000000 0.000000 0.000000 -0.121501
    4 17.597597 0.000000 0.000000 -0.002613 0.026036 0.099967
    5 0.000005 -0.000003 -3.713255 -0.002524 -3.124238 -0.024449
    6 18.045725 0.000000 0.000000 0.000000 0.000000 -0.127551
    7 17.597597 0.000000 0.000000 0.002950 -0.017289 0.103055
    8 1.293670 0.684478 -0.000001 -0.000004 -0.000001 0.061853
    9 5.309685 -0.003834 0.000000 0.000000 0.000000 -0.104656
    10 4.826790 -0.004591 0.000000 -0.171179 -0.033701 -0.193312
    11 5.792767 -0.005304 0.000000 -0.139528 -0.002709 -0.020116
    12 6.662317 -0.001453 0.000000 0.000000 -0.000001 0.235516
    13 2.046985 -0.000002 0.000000 0.304467 0.071463 -0.329094
    14 -3.377657 0.751606 4.341911 2.055889 -1.214125 0.822087
    15 4.827230 0.000000 0.000001 -0.355533 0.212369 -1.065535
    16 11.139763 0.000000 0.000000 0.000000 0.000000 -1.203894
    17 10.314597 0.000001 0.000000 -3.878403 0.130323 -0.281151
    18 2.975834 -0.386307 -0.044143 -0.000797 -0.043611 0.000035
    19 1.438886 0.000000 0.000000 0.000000 0.000000 0.872212
    20 1.485303 0.000000 0.000000 0.000000 0.000000 0.907076
    21 -3.115999 0.692610 -4.140396 0.655472 1.311440 3.544434
    22 4.972048 0.000000 0.000001 -0.230994 -1.291238 -0.504023
    23 11.585355 0.000000 0.000000 0.000000 0.000000 -1.839859
    24 10.127057 0.000000 0.000001 1.550323 0.339530 -0.326744
    25 2.683750 -0.427338 0.044205 -0.005786 0.043239 -0.157091
    26 1.438885 -0.000001 0.000000 0.000000 0.000000 0.732658
    27 1.485305 0.000001 0.000000 0.000000 0.000000 1.168770
    28 1.038631 0.548043 -0.144017 -0.000001 0.000001 -1.849906
    29 -0.064003 -0.023521 0.026161 0.000000 0.000000 0.000000
    30 3.013925 3.984634 -0.088975 -0.000001 0.000001 -1.849906
    31 -0.084188 -0.025627 -0.001098 0.000000 0.000000 0.000000
    32 4.778187 3.972486 -0.079803 -0.000001 0.000001 -1.849906
    33 -0.058556 -0.021324 0.004244 0.000000 0.000000 0.000000
    34 1.640598 -1.968779 -0.099219 -0.000001 0.000001 -1.849906
    35 0.055573 -0.028908 0.000000 0.000000 0.000000 0.000000
    36 1.646738 0.449549 -1.702246 -0.161934 0.581206 -0.284024
    37 0.928312 0.000000 -0.000002 0.000000 0.000000 0.000000
    38 0.928314 0.000000 0.000001 0.000000 0.000000 0.000000
    39 1.533672 0.109715 1.664491 -0.264755 -0.055959 0.783109
    40 0.928313 0.000000 0.000000 0.000000 0.000000 -0.453556
    41 0.928314 0.000000 0.000001 0.000000 0.000000 0.000000
  time 28
    0 0.235347 0.367732 3.528927 0.000000 0.000000 -1.570874
    1 0.000000 0.000000 0.000000 -1.570795 -1.570796 0.000000
    2 -0.000005 0.000007 3.713255 0.002054 3.115505 -0.021473
    3 18.045721 0.000000 0.000000 0.000000 0.000000 -0.121501
    4 17.597597 0.000000 0.000000 -0.002613 0.026036 0.099967
    5 0.000005 -0.000003 -3.713255 -0.002524 -3.124238 -0.024449
    6 18.045725 0.000000 0.000000 0.000000 0.000000 -0.127551
    7 17.597597 0.000000 0.000000 0.002950 -0.017289 0.103055
    8 1.293670 0.684478 -0.000001 -0.000004 -0.000001 0.061853
    9 5.309685 -0.003834 0.000000 0.000000 0.000000 -0.104656
    10 4.826790 -0.004591 0.000000 -0.171113 -0.034012 -0.195098
    11 5.792767 -0.005304 0.000000 -0.139511 -0.003044 -0.022504
    12 6.662317 -0.001453 0.000000 0.000000 -0.000001 0.235516
    13 2.046985 -0.000002 0.000000 0.304467 0.071215 -0.324914
    14 -3.377657 0.751606 4.341911 2.067298 -1.211856 0.809911
    15 4.827230 0.000000 0.000001 -0.359292 0.218836 -1.067023
    16 11.139763 0.000000 0.000000 0.000000 0.000000 -1.203894
    17 10.314597 0.000001 0.000000 -3.878403 0.130323 -0.281151
    18 2.975834 -0.386307 -0.044143 -0.000797 -0.043611 0.000035
    19 1.438886 0.000000 0.000000 0.000000 0.000000 0.872212
    20 1.485303 0.000000 0.000000 0.000000 0.000000 0.907076
    21 -3.115999 0.692610 -4.140396 0.662566 1.313815 3.551720
    22 4.972048 0.000000 0.000001 -0.240199 -1.295019 -0.494340
    23 11.585355 0.000000 0.000000 0.000000 0.000000 -1.839859
    24 10.127057 0.000000 0.000001 1.550323 0.339530 -0.326744
    25 2.683750 -0.427338 0.044205 -0.005786 0.043239 -0.157091
    26 1.438885 -0.000001 0.000000 0.000000 0.000000 0.732658
    27 1.485305 0.000001 0.000000 0.000000 0.000000 1.168770
    28 1.038631 0.548043 -0.144017 -0.000001 0.000001 -1.849906
    29 -0.064003 -0.023521 0.026161 0.000000 0.000000 0.000000
    30 3.013925 3.984634 -0.088975 -0.000001 0.000001 -1.849906
    31 -0.084188 -0.025627 -0.001098 0.000000 0.000000 0.000000
    32 4.778187 3.972486 -0.079803 -0.000001 0.000001 -1.849906
    33 -0.058556 -0.021324 0.004244 0.000000 0.000000 0.000000
    34 1.640598 -1.968779 -0.099219 -0.000001 0.000001 -1.849906
    35 0.055573 -0.028908 0.000000 0.000000 0.000000 0.000000
    36 1.646738 0.449549 -1.702246 -0.161934 0.581206 -0.284024
    37 0.928312 0.000000 -0.000002 0.000000 0.000000 0.000000
    38 0.928314 0.000000 0.000001 0.000000 0.000000 0.000000
    39 1.533672 0.109715 1.664491 -0.264755 -0.055959 0.783109
    40 0.928313 0.000000 0.000000 0.000000 0.000000 -0.453556
    41 0.928314 0.000000 0.000001 0.000000 0.000000 0.000000
  time 29
    0 0.235347 0.367732 3.528927 0.000000 0.000000 -1.570874
    1 0.000000 0.000000 0.000000 -1.570795 -1.570796 0.000000
    2 -0.000005 0.000007 3.713255 0.002054 3.115505 -0.021473
    3 18.045721 0.000000 0.000000 0.000000 0.000000 -0.121501
    4 17.597597 0.000000 0.000000 -0.002613 0.026036 0.099967
    5 0.000005 -0.000003 -3.713255 -0.002524 -3.124238 -0.024449
    6 18.045725 0.000000 0.000000 0.000000 0.000000 -0.127551
    7 17.597597 0.000000 0.000000 0.002950 -0.017289 0.103055
    8 1.293670 0.684478 -0.000001 -0.000004 -0.000001 0.061853
    9 5.309685 -0.003834 0.000000 0.000000 0.000000 -0.104656
    10 4.826790 -0.004591 0.000000 -0.171064 -0.034264 -0.196575
    11 5.792767 -0.005304 0.000000 -0.139511 -0.003320 -0.024476
    12 6.662317 -0.001453 0.000000 0.000000 -0.000001 0.235516
    13 2.046985 -0.000002 0.000000 0.304510 0.070990 -0.321453
    14 -3.377657 0.751606 4.341911 2.076597 -1.209971 0.800036
    15 4.827230 0.000000 0.000001 -0.362464 0.224198 -1.068248
    16 11.139763 0.000000 0.000000 0.000000 0.000000 -1.203894
    17 10.314597 0.000001 0.000000 -3.878403 0.130323 -0.281151
    18 2.975834 -0.386307 -0.044143 -0.000797 -0.043611 0.000035
    19 1.438886 0.000000 0.000000 0.000000 0.000000 0.872212
    20 1.485303 0.000000 0.000000 0.000000 0.000000 0.907076
    21 -3.115999 0.692610 -4.140396 0.668415 1.315765 3.557760
    22 4.972048 0.000000 0.000001 -0.248012 -1.298156 -0.486172
    23 11.585355 0.000000 0.000000 0.000000 0.000000 -1.839859
    24 10.127057 0.000000 0.000001 1.550323 0.339530 -0.326744
    25 2.683750 -0.427338 0.044205 -0.005786 0.043239 -0.157091
    26 1.438885 -0.000001 0.000000 0.000000 0.000000 0.732658
    27 1.485305 0.000001 0.000000 0.000000 0.000000 1.168770
    28 1.038631 0.548043 -0.144017 -0.000001 0.000001 -1.849906
    29 -0.064003 -0.023521 0.026161 0.000000 0.000000 0.000000
    30 3.013925 3.984634 -0.088975 -0.000001 0.000001 -1.849906
    31 -0.084188 -0.025627 -0.001098 0.000000 0.000000 0.000000
    32 4.778187 3.972486 -0.079803 -0.000001 0.000001 -1.849906
    33 -0.058556 -0.021324 0.004244 0.000000 0.000000 0.000000
    34 1.640598 -1.968779 -0.099219 -0.000001 0.000001 -1.849906
    35 0.055573 -0.028908 0.000000 0.000000 0.000000 0.000000
    36 1.646738 0.449549 -1.702246 -0.161934 0.581206 -0.284024
    37 0.928312 0.000000 -0.000002 0.000000 0.000000 0.000000
    38 0.928314 0.000000 0.000001 0.000000 0.000000 0.000000
    39 1.533672 0.109715 1.664491 -0.264755 -0.055959 0.783109
    40 0.928313 0.000000 0.000000 0.000000 0.000000 -0.453556
    41 0.928314 0.000000 0.000001 0.000000 0.000000 0.000000
  time 30
    0 0.235347 0.367732 3.528927 0.000000 0.000000 -1.570874
    1 0.000000 0.000000 0.000000 -1.570795 -1.570796 0.000000
    2 -0.000005 0.000007 3.713255 0.002054 3.115505 -0.021473
    3 18.045721 0.000000 0.000000 0.000000 0.000000 -0.121501
    4 17.597597 0.000000 0.000000 -0.002613 0.026036 0.099967
    5 0.000005 -0.000003 -3.713255 -0.002524 -3.124238 -0.024449
    6 18.045725 0.000000 0.000000 0.000000 0.000000 -0.127551
    7 17.597597 0.000000 0.000000 0.002950 -0.017289 0.103055
    8 1.293670 0.684478 -0.000001 -0.000004 -0.000001 0.061853
    9 5.309685 -0.003834 0.000000 0.000000 0.000000 -0.104656
    10 4.826790 -0.004591 0.000000 -0.171031 -0.034456 -0.197656
    11 5.792767 -0.005304 0.000000 -0.139495 -0.003523 -0.025909
    12 6.662317 -0.001453 0.000000 0.000000 -0.000001 0.235516
    13 2.046985 -0.000002 0.000000 0.304510 0.070855 -0.318891
    14 -3.377657 0.751606 4.341911 2.083309 -1.208547 0.792845
    15 4.827230 0.000000 0.000001 -0.364755 0.228112 -1.069211
    16 11.139763 0.000000 0.000000 0.000000 0.000000 -1.203894
    17 10.314597 0.000001 0.000000 -3.878403 0.130323 -0.281151
    18 2.975834 -0.386307 -0.044143 -0.000797 -0.043611 0.000035
    19 1.438886 0.000000 0.000000 0.000000 0.000000 0.872212
    20 1.485303 0.000000 0.000000 0.000000 0.000000 0.907076
    21 -3.115999 0.692610 -4.140396 0.672729 1.317206 3.562266
    22 4.972048 0.000000 0.000001 -0.253814 -1.300408 -0.480045
    23 11.585355 0.000000 0.000000 0.000000 0.000000 -1.839859
    24 10.127057 0.000000 0.000001 1.550323 0.339530 -0.326744
    25 2.683750 -0.427338 0.044205 -0.005786 0.043239 -0.157091
    26 1.438885 -0.000001 0.000000 0.000000 0.000000 0.732658
    27 1.485305 0.000001 0.000000 0.000000 0.000000 1.168770
    28 1.038631 0.548043 -0.144017 -0.000001 0.000001 -1.849906
    29 -0.064003 -0.023521 0.026161 0.000000 0.000000 0.000000
    30 3.013925 3.984634 -0.088975 -0.000001 0.000001 -1.849906
    31 -0.084188 -0.025627 -0.001098 0.000000 0.000000 0.000000
    32 4.778187 3.972486 -0.079803 -0.000001 0.000001 -1.849906
    33 -0.058556 -0.021324 0.004244 0.000000 0.000000 0.000000
    34 1.640598 -1.968779 -0.099219 -0.000001 0.000001 -1.849906
    35 0.055573 -0.028908 0.000000 0.000000 0.000000 0.000000
    36 1.646738 0.449549 -1.702246 -0.161934 0.581206 -0.284024
    37 0.928312 0.000000 -0.000002 0.000000 0.000000 0.000000
    38 0.928314 0.000000 0.000001 0.000000 0.000000 0.000000
    39 1.533672 0.109715 1.664491 -0.264755 -0.055959 0.783109
    40 0.928313 0.000000 0.000000 0.000000 0.000000 -0.453556
    41 0.928314 0.000000 0.000001 0.000000 0.000000 0.000000
end
