version 1
nodes
  0 "Bip01" -1
  1 "Bip01 Pelvis" 0
  2 "Bip01 L Leg" 1
  3 "Bip01 L Leg1" 2
  4 "Bip01 L Foot" 3
  5 "Bip01 R Leg" 1
  6 "Bip01 R Leg1" 5
  7 "Bip01 R Foot" 6
  8 "Bip01 Spine" 1
  9 "Bip01 Spine1" 8
  10 "Bip01 Spine2" 9
  11 "Bip01 Spine3" 10
  12 "Bip01 Neck" 11
  13 "Bip01 Head" 12
  14 "Bip01 L Arm" 12
  15 "Bip01 L Arm1" 14
  16 "Bip01 L Arm2" 15
  17 "Bip01 L Hand" 16
  18 "Bip01 L Finger1" 17
  19 "Bip01 L Finger11" 18
  20 "Bip01 L Finger12" 19
  21 "Bip01 R Arm" 12
  22 "Bip01 R Arm1" 21
  23 "Bip01 R Arm2" 22
  24 "Bip01 R Hand" 23
  25 "Bip01 R Finger1" 24
  26 "Bip01 R Finger11" 25
  27 "Bip01 R Finger12" 26
  28 "Dummy08" 13
  29 "Bone02" 28
  30 "Dummy04" 13
  31 "Bone05" 30
  32 "Dummy03" 13
  33 "Bone07" 32
  34 "Dummy10" 13
  35 "Bone13" 34
  36 "Bip01 L Finger0" 17
  37 "Bip01 L Finger01" 36
  38 "Bip01 L Finger02" 37
  39 "Bip01 R Finger0" 24
  40 "Bip01 R Finger01" 39
  41 "Bip01 R Finger02" 40
end
skeleton
  time 0
    0 0.235347 0.367732 3.528927 0.000000 0.000000 -1.570874
    1 0.000000 0.000000 0.000000 -1.570795 -1.570796 0.000000
    2 -0.000005 0.000007 3.713255 0.003204 3.158916 -0.091346
    3 18.045721 0.000000 0.000000 0.000000 0.000000 -0.243578
    4 17.597597 0.000000 0.000000 -0.001675 -0.017562 0.152262
    5 0.000005 -0.000003 -3.713255 0.355071 -3.167219 -0.017370
    6 18.045725 0.000000 0.000000 0.000000 0.000000 -0.267079
    7 17.597597 0.000000 0.000000 0.202642 0.018017 0.241891
    8 1.293670 0.684478 -0.000001 -0.000004 -0.000001 -0.147611
    9 5.309685 -0.003834 0.000000 -0.261194 -0.017833 -0.067442
    10 4.826790 -0.004591 0.000000 -0.260652 -0.024580 -0.092725
    11 5.792767 -0.005304 0.000000 -0.261753 0.004710 0.016842
    12 6.662317 -0.001453 0.000000 0.000000 -0.000001 0.471000
    13 2.046985 -0.000002 0.000000 0.774760 0.131015 -0.528527
    14 -3.112024 1.517254 4.341911 1.427345 -1.394415 1.244709
    15 4.827230 0.000000 0.000001 -0.239822 1.048228 -0.536705
    16 11.139763 0.000000 0.000000 0.000000 0.000000 -1.508951
    17 10.314597 0.000001 0.000000 -1.570000 0.523598 -0.069778
    18 2.975834 -0.386307 -0.044143 -0.038165 -0.021116 1.047614
    19 1.438886 0.000000 0.000000 0.000000 0.000000 0.924863
    20 1.485303 0.000000 0.000000 0.000000 0.000000 1.326389
    21 -2.869898 1.399663 -4.140396 1.270978 1.204715 3.920831
    22 4.972048 0.000000 0.000001 1.072046 -0.875036 -1.548563
    23 11.585355 0.000000 0.000000 0.000000 0.000000 -1.683506
    24 10.127057 0.000000 0.000001 2.352714 0.275912 -0.245233
    25 2.683750 -0.427338 0.044205 0.016613 0.040339 0.366942
    26 1.438885 -0.000001 0.000000 0.000000 0.000000 0.994455
    27 1.485305 0.000001 0.000000 0.000000 0.000000 1.168770
    28 1.038631 0.548043 -0.144017 -0.000001 0.000001 -1.849906
    29 -0.064003 -0.023521 0.026161 0.000000 0.000000 0.000000
    30 3.013925 3.984634 -0.088975 -0.000001 0.000001 -1.849906
    31 -0.084188 -0.025627 -0.001098 0.000000 0.000000 0.000000
    32 4.778187 3.972486 -0.079803 -0.000001 0.000001 -1.849906
    33 -0.058556 -0.021324 0.004244 0.000000 0.000000 0.000000
    34 1.640598 -1.968779 -0.099219 -0.000001 0.000001 -1.849906
    35 0.055573 -0.028908 0.000000 0.000000 0.000000 0.000000
    36 1.646738 0.449549 -1.702246 0.154002 0.442277 0.277235
    37 0.928312 0.000000 -0.000002 0.000000 0.000000 0.000000
    38 0.928314 0.000000 0.000001 0.000000 0.000000 0.000000
    39 1.533672 0.109715 1.664491 -0.264755 -0.055959 0.783109
    40 0.928313 0.000000 0.000000 0.000000 0.000000 -0.453556
    41 0.928314 0.000000 0.000001 0.000000 0.000000 0.000000
  time 1
    0 0.235347 0.367732 3.528927 0.000000 0.000000 -1.570874
    1 0.000000 0.000000 0.000000 -1.570795 -1.570796 0.000000
    2 -0.000005 0.000007 3.713255 0.003204 3.158916 -0.091346
    3 18.045721 0.000000 0.000000 0.000000 0.000000 -0.243578
    4 17.597597 0.000000 0.000000 -0.001675 -0.017562 0.152262
    5 0.000005 -0.000003 -3.713255 0.355071 -3.167219 -0.017370
    6 18.045725 0.000000 0.000000 0.000000 0.000000 -0.267079
    7 17.597597 0.000000 0.000000 0.202642 0.018017 0.241891
    8 1.293670 0.684478 -0.000001 0.019716 0.002923 -0.147577
    9 5.309685 -0.003834 0.000000 -0.199846 -0.013710 -0.068420
    10 4.826790 -0.004591 0.000000 -0.150424 -0.003356 -0.022940
    11 5.792767 -0.005304 0.000000 -0.160401 0.002912 0.017216
    12 6.662317 -0.001453 0.000000 0.000000 -0.000001 0.471000
    13 2.046985 -0.000002 0.000000 0.481839 0.099426 -0.640536
    14 -3.112024 1.517254 4.341911 1.301559 -1.475271 1.369443
    15 4.827230 0.000000 0.000001 0.324693 1.046781 -0.080509
    16 11.139763 0.000000 0.000000 0.000000 0.000000 -1.641332
    17 10.314597 0.000001 0.000000 -1.570000 0.523598 -0.069778
    18 2.975834 -0.386307 -0.044143 -0.038165 -0.021116 1.047614
    19 1.438886 0.000000 0.000000 0.000000 0.000000 0.924863
    20 1.485303 0.000000 0.000000 0.000000 0.000000 1.326389
    21 -2.869898 1.399663 -4.140396 1.114033 1.319524 3.771078
    22 4.972048 0.000000 0.000001 1.523179 -0.123396 -1.160706
    23 11.585355 0.000000 0.000000 0.000000 0.000000 -1.679868
    24 10.127057 0.000000 0.000001 2.395267 0.288392 -0.650275
    25 2.683750 -0.427338 0.044205 0.016613 0.040339 0.366942
    26 1.438885 -0.000001 0.000000 0.000000 0.000000 0.994455
    27 1.485305 0.000001 0.000000 0.000000 0.000000 1.168770
    28 1.038631 0.548043 -0.144017 -0.000001 0.000001 -1.849906
    29 -0.064003 -0.023521 0.026161 0.000000 0.000000 0.000000
    30 3.013925 3.984634 -0.088975 -0.000001 0.000001 -1.849906
    31 -0.084188 -0.025627 -0.001098 0.000000 0.000000 0.000000
    32 4.778187 3.972486 -0.079803 -0.000001 0.000001 -1.849906
    33 -0.058556 -0.021324 0.004244 0.000000 0.000000 0.000000
    34 1.640598 -1.968779 -0.099219 -0.000001 0.000001 -1.849906
    35 0.055573 -0.028908 0.000000 0.000000 0.000000 0.000000
    36 1.646738 0.449549 -1.702246 0.154002 0.442277 0.277235
    37 0.928312 0.000000 -0.000002 0.000000 0.000000 0.000000
    38 0.928314 0.000000 0.000001 0.000000 0.000000 0.000000
    39 1.533672 0.109715 1.664491 -0.264755 -0.055959 0.783109
    40 0.928313 0.000000 0.000000 0.000000 0.000000 -0.453556
    41 0.928314 0.000000 0.000001 0.000000 0.000000 0.000000
  time 2
    0 0.235347 0.367732 3.528927 0.000000 0.000000 -1.570874
    1 0.000000 0.000000 0.000000 -1.570795 -1.570796 0.000000
    2 -0.000005 0.000007 3.713255 0.003204 3.158916 -0.091346
    3 18.045721 0.000000 0.000000 0.000000 0.000000 -0.243578
    4 17.597597 0.000000 0.000000 -0.001675 -0.017562 0.152262
    5 0.000005 -0.000003 -3.713255 0.355071 -3.167219 -0.017370
    6 18.045725 0.000000 0.000000 0.000000 0.000000 -0.267079
    7 17.597597 0.000000 0.000000 0.202642 0.018017 0.241891
    8 1.293670 0.684478 -0.000001 0.047430 0.007046 -0.147443
    9 5.309685 -0.003834 0.000000 -0.113623 -0.007826 -0.069343
    10 4.826790 -0.004591 0.000000 0.005993 -0.000479 0.078948
    11 5.792767 -0.005304 0.000000 -0.017955 0.000324 0.017444
    12 6.662317 -0.001453 0.000000 0.000000 -0.000001 0.471000
    13 2.046985 -0.000002 0.000000 0.077291 0.014702 -0.768907
    14 -3.112024 1.517254 4.341911 -0.776011 -1.535085 3.445543
    15 4.827230 0.000000 0.000001 0.753644 0.741270 0.236369
    16 11.139763 0.000000 0.000000 0.000000 0.000000 -1.837345
    17 10.314597 0.000001 0.000000 -1.570000 0.523598 -0.069778
    18 2.975834 -0.386307 -0.044143 -0.038165 -0.021116 1.047614
    19 1.438886 0.000000 0.000000 0.000000 0.000000 0.924863
    20 1.485303 0.000000 0.000000 0.000000 0.000000 1.326389
    21 -2.869898 1.399663 -4.140396 0.584622 1.435831 3.250199
    22 4.972048 0.000000 0.000001 2.080906 0.569925 -0.464500
    23 11.585355 0.000000 0.000000 0.000000 0.000000 -1.510362
    24 10.127057 0.000000 0.000001 2.366410 0.170469 -0.885980
    25 2.683750 -0.427338 0.044205 0.016613 0.040339 0.366942
    26 1.438885 -0.000001 0.000000 0.000000 0.000000 0.994455
    27 1.485305 0.000001 0.000000 0.000000 0.000000 1.168770
    28 1.038631 0.548043 -0.144017 -0.000001 0.000001 -1.849906
    29 -0.064003 -0.023521 0.026161 0.000000 0.000000 0.000000
    30 3.013925 3.984634 -0.088975 -0.000001 0.000001 -1.849906
    31 -0.084188 -0.025627 -0.001098 0.000000 0.000000 0.000000
    32 4.778187 3.972486 -0.079803 -0.000001 0.000001 -1.849906
    33 -0.058556 -0.021324 0.004244 0.000000 0.000000 0.000000
    34 1.640598 -1.968779 -0.099219 -0.000001 0.000001 -1.849906
    35 0.055573 -0.028908 0.000000 0.000000 0.000000 0.000000
    36 1.646738 0.449549 -1.702246 0.154002 0.442277 0.277235
    37 0.928312 0.000000 -0.000002 0.000000 0.000000 0.000000
    38 0.928314 0.000000 0.000001 0.000000 0.000000 0.000000
    39 1.533672 0.109715 1.664491 -0.264755 -0.055959 0.783109
    40 0.928313 0.000000 0.000000 0.000000 0.000000 -0.453556
    41 0.928314 0.000000 0.000001 0.000000 0.000000 0.000000
  time 3
    0 0.235347 0.367732 3.528927 0.000000 0.000000 -1.570874
    1 0.000000 0.000000 0.000000 -1.570795 -1.570796 0.000000
    2 -0.000005 0.000007 3.713255 0.003204 3.158916 -0.091346
    3 18.045721 0.000000 0.000000 0.000000 0.000000 -0.243578
    4 17.597597 0.000000 0.000000 -0.001675 -0.017562 0.152262
    5 0.000005 -0.000003 -3.713255 0.355071 -3.167219 -0.017370
    6 18.045725 0.000000 0.000000 0.000000 0.000000 -0.267079
    7 17.597597 0.000000 0.000000 0.202642 0.018017 0.241891
    8 1.293670 0.684478 -0.000001 0.078558 0.011660 -0.147142
    9 5.309685 -0.003834 0.000000 -0.016870 -0.001163 -0.069778
    10 4.826790 -0.004591 0.000000 0.178272 -0.034971 0.190869
    11 5.792767 -0.005304 0.000000 0.141908 -0.002577 0.017278
    12 6.662317 -0.001453 0.000000 0.000000 -0.000001 0.471000
    13 2.046985 -0.000002 0.000000 -0.366894 -0.115975 -0.863387
    14 -3.112024 1.517254 4.341911 -1.406281 -1.416456 4.074106
    15 4.827230 0.000000 0.000001 0.743130 0.315341 0.236019
    16 11.139763 0.000000 0.000000 0.000000 0.000000 -2.019763
    17 10.314597 0.000001 0.000000 -1.570000 0.523598 -0.069778
    18 2.975834 -0.386307 -0.044143 -0.038165 -0.021116 1.047614
    19 1.438886 0.000000 0.000000 0.000000 0.000000 0.924863
    20 1.485303 0.000000 0.000000 0.000000 0.000000 1.326389
    21 -2.869898 1.399663 -4.140396 -0.364523 1.450189 2.307766
    22 4.972048 0.000000 0.000001 2.114092 0.914373 -0.549146
    23 11.585355 0.000000 0.000000 0.000000 0.000000 -0.811493
    24 10.127057 0.000000 0.000001 1.910240 -0.242425 -0.129518
    25 2.683750 -0.427338 0.044205 0.016613 0.040339 0.366942
    26 1.438885 -0.000001 0.000000 0.000000 0.000000 0.994455
    27 1.485305 0.000001 0.000000 0.000000 0.000000 1.168770
    28 1.038631 0.548043 -0.144017 -0.000001 0.000001 -1.849906
    29 -0.064003 -0.023521 0.026161 0.000000 0.000000 0.000000
    30 3.013925 3.984634 -0.088975 -0.000001 0.000001 -1.849906
    31 -0.084188 -0.025627 -0.001098 0.000000 0.000000 0.000000
    32 4.778187 3.972486 -0.079803 -0.000001 0.000001 -1.849906
    33 -0.058556 -0.021324 0.004244 0.000000 0.000000 0.000000
    34 1.640598 -1.968779 -0.099219 -0.000001 0.000001 -1.849906
    35 0.055573 -0.028908 0.000000 0.000000 0.000000 0.000000
    36 1.646738 0.449549 -1.702246 0.154002 0.442277 0.277235
    37 0.928312 0.000000 -0.000002 0.000000 0.000000 0.000000
    38 0.928314 0.000000 0.000001 0.000000 0.000000 0.000000
    39 1.533672 0.109715 1.664491 -0.264755 -0.055959 0.783109
    40 0.928313 0.000000 0.000000 0.000000 0.000000 -0.453556
    41 0.928314 0.000000 0.000001 0.000000 0.000000 0.000000
  time 4
    0 0.235347 0.367732 3.528927 0.000000 0.000000 -1.570874
    1 0.000000 0.000000 0.000000 -1.570795 -1.570796 0.000000
    2 -0.000005 0.000007 3.713255 0.003204 3.158916 -0.091346
    3 18.045721 0.000000 0.000000 0.000000 0.000000 -0.243578
    4 17.597597 0.000000 0.000000 -0.001675 -0.017562 0.152262
    5 0.000005 -0.000003 -3.713255 0.355071 -3.167219 -0.017370
    6 18.045725 0.000000 0.000000 0.000000 0.000000 -0.267079
    7 17.597597 0.000000 0.000000 0.202642 0.018017 0.241891
    8 1.293670 0.684478 -0.000001 0.103527 0.015363 -0.146807
    9 5.309685 -0.003834 0.000000 0.060772 0.004195 -0.069651
    10 4.826790 -0.004591 0.000000 0.310093 -0.090352 0.273685
    11 5.792767 -0.005304 0.000000 0.270200 -0.004866 0.016800
    12 6.662317 -0.001453 0.000000 0.000000 -0.000001 0.471000
    13 2.046985 -0.000002 0.000000 -0.721854 -0.231544 -0.901143
    14 -3.112024 1.517254 4.341911 -1.466777 -1.330062 4.133549
    15 4.827230 0.000000 0.000001 0.561576 0.095100 0.166535
    16 11.139763 0.000000 0.000000 0.000000 0.000000 -2.029084
    17 10.314597 0.000001 0.000000 -1.570000 0.523598 -0.069778
    18 2.975834 -0.386307 -0.044143 -0.038165 -0.021116 1.047614
    19 1.438886 0.000000 0.000000 0.000000 0.000000 0.924863
    20 1.485303 0.000000 0.000000 0.000000 0.000000 1.326389
    21 -2.869898 1.399663 -4.140396 -0.894893 1.391739 1.782765
    22 4.972048 0.000000 0.000001 1.573150 0.761616 -1.098325
    23 11.585355 0.000000 0.000000 0.000000 0.000000 -0.183350
    24 10.127057 0.000000 0.000001 1.305006 -0.131134 0.776432
    25 2.683750 -0.427338 0.044205 0.016613 0.040339 0.366942
    26 1.438885 -0.000001 0.000000 0.000000 0.000000 0.994455
    27 1.485305 0.000001 0.000000 0.000000 0.000000 1.168770
    28 1.038631 0.548043 -0.144017 -0.000001 0.000001 -1.849906
    29 -0.064003 -0.023521 0.026161 0.000000 0.000000 0.000000
    30 3.013925 3.984634 -0.088975 -0.000001 0.000001 -1.849906
    31 -0.084188 -0.025627 -0.001098 0.000000 0.000000 0.000000
    32 4.778187 3.972486 -0.079803 -0.000001 0.000001 -1.849906
    33 -0.058556 -0.021324 0.004244 0.000000 0.000000 0.000000
    34 1.640598 -1.968779 -0.099219 -0.000001 0.000001 -1.849906
    35 0.055573 -0.028908 0.000000 0.000000 0.000000 0.000000
    36 1.646738 0.449549 -1.702246 0.154002 0.442277 0.277235
    37 0.928312 0.000000 -0.000002 0.000000 0.000000 0.000000
    38 0.928314 0.000000 0.000001 0.000000 0.000000 0.000000
    39 1.533672 0.109715 1.664491 -0.264755 -0.055959 0.783109
    40 0.928313 0.000000 0.000000 0.000000 0.000000 -0.453556
    41 0.928314 0.000000 0.000001 0.000000 0.000000 0.000000
  time 5
    0 0.235347 0.367732 3.528927 0.000000 0.000000 -1.570874
    1 0.000000 0.000000 0.000000 -1.570795 -1.570796 0.000000
    2 -0.000005 0.000007 3.713255 0.003204 3.158916 -0.091346
    3 18.045721 0.000000 0.000000 0.000000 0.000000 -0.243578
    4 17.597597 0.000000 0.000000 -0.001675 -0.017562 0.152262
    5 0.000005 -0.000003 -3.713255 0.355071 -3.167219 -0.017370
    6 18.045725 0.000000 0.000000 0.000000 0.000000 -0.267079
    7 17.597597 0.000000 0.000000 0.202642 0.018017 0.241891
    8 1.293670 0.684478 -0.000001 0.105362 0.015627 -0.146774
    9 5.309685 -0.003834 0.000000 0.066489 0.004590 -0.069633
    10 4.826790 -0.004591 0.000000 0.318582 -0.098489 0.288942
    11 5.792767 -0.005304 0.000000 0.276185 -0.044691 0.155558
    12 6.662317 -0.001453 0.000000 0.000000 -0.000001 0.471000
    13 2.046985 -0.000002 0.000000 -0.746972 -0.242576 -1.056842
    14 -3.112024 1.517254 4.341911 -1.398036 -1.423649 4.065957
    15 4.827230 0.000000 0.000001 0.305956 0.457374 -0.461446
    16 11.139763 0.000000 0.000000 0.000000 0.000000 -1.103049
    17 10.314597 0.000001 0.000000 -1.570000 0.523598 -0.069778
    18 2.975834 -0.386307 -0.044143 -0.038165 -0.021116 1.047614
    19 1.438886 0.000000 0.000000 0.000000 0.000000 0.924863
    20 1.485303 0.000000 0.000000 0.000000 0.000000 1.326389
    21 -2.869898 1.399663 -4.140396 -1.106677 1.323085 1.575679
    22 4.972048 0.000000 0.000001 1.289568 0.205286 -0.963418
    23 11.585355 0.000000 0.000000 0.000000 0.000000 -0.267998
    24 10.127057 0.000000 0.000001 1.204739 -0.118681 0.798908
    25 2.683750 -0.427338 0.044205 0.016613 0.040339 0.366942
    26 1.438885 -0.000001 0.000000 0.000000 0.000000 0.994455
    27 1.485305 0.000001 0.000000 0.000000 0.000000 1.168770
    28 1.038631 0.548043 -0.144017 -0.000001 0.000001 -1.849906
    29 -0.064003 -0.023521 0.026161 0.000000 0.000000 0.000000
    30 3.013925 3.984634 -0.088975 -0.000001 0.000001 -1.849906
    31 -0.084188 -0.025627 -0.001098 0.000000 0.000000 0.000000
    32 4.778187 3.972486 -0.079803 -0.000001 0.000001 -1.849906
    33 -0.058556 -0.021324 0.004244 0.000000 0.000000 0.000000
    34 1.640598 -1.968779 -0.099219 -0.000001 0.000001 -1.849906
    35 0.055573 -0.028908 0.000000 0.000000 0.000000 0.000000
    36 1.646738 0.449549 -1.702246 0.154002 0.442277 0.277235
    37 0.928312 0.000000 -0.000002 0.000000 0.000000 0.000000
    38 0.928314 0.000000 0.000001 0.000000 0.000000 0.000000
    39 1.533672 0.109715 1.664491 -0.264755 -0.055959 0.783109
    40 0.928313 0.000000 0.000000 0.000000 0.000000 -0.453556
    41 0.928314 0.000000 0.000001 0.000000 0.000000 0.000000
  time 6
    0 0.235347 0.367732 3.528927 0.000000 0.000000 -1.570874
    1 0.000000 0.000000 0.000000 -1.570795 -1.570796 0.000000
    2 -0.000005 0.000007 3.713255 0.003204 3.158916 -0.091346
    3 18.045721 0.000000 0.000000 0.000000 0.000000 -0.243578
    4 17.597597 0.000000 0.000000 -0.001675 -0.017562 0.152262
    5 0.000005 -0.000003 -3.713255 0.355071 -3.167219 -0.017370
    6 18.045725 0.000000 0.000000 0.000000 0.000000 -0.267079
    7 17.597597 0.000000 0.000000 0.202642 0.018017 0.241891
    8 1.293670 0.684478 -0.000001 0.084780 0.012583 -0.147075
    9 5.309685 -0.003834 0.000000 0.002473 0.000168 -0.069778
    10 4.826790 -0.004591 0.000000 0.210915 -0.050359 0.230160
    11 5.792767 -0.005304 0.000000 0.168049 -0.044906 0.257877
    12 6.662317 -0.001453 0.000000 0.000000 -0.000001 0.471000
    13 2.046985 -0.000002 0.000000 -0.453965 -0.147383 -1.138242
    14 -3.112024 1.517254 4.341911 0.299494 -1.544125 2.370485
    15 4.827230 0.000000 0.000001 -0.159354 0.607747 -1.207829
    16 11.139763 0.000000 0.000000 0.000000 0.000000 -0.352424
    17 10.314597 0.000001 0.000000 -1.570000 0.523598 -0.069778
    18 2.975834 -0.386307 -0.044143 -0.038165 -0.021116 1.047614
    19 1.438886 0.000000 0.000000 0.000000 0.000000 0.924863
    20 1.485303 0.000000 0.000000 0.000000 0.000000 1.326389
    21 -2.869898 1.399663 -4.140396 -1.153080 1.298637 1.530811
    22 4.972048 0.000000 0.000001 0.860790 -0.406307 -0.694263
    23 11.585355 0.000000 0.000000 0.000000 0.000000 -0.575459
    24 10.127057 0.000000 0.000001 1.297808 -0.201087 0.570145
    25 2.683750 -0.427338 0.044205 0.016613 0.040339 0.366942
    26 1.438885 -0.000001 0.000000 0.000000 0.000000 0.994455
    27 1.485305 0.000001 0.000000 0.000000 0.000000 1.168770
    28 1.038631 0.548043 -0.144017 -0.000001 0.000001 -1.849906
    29 -0.064003 -0.023521 0.026161 0.000000 0.000000 0.000000
    30 3.013925 3.984634 -0.088975 -0.000001 0.000001 -1.849906
    31 -0.084188 -0.025627 -0.001098 0.000000 0.000000 0.000000
    32 4.778187 3.972486 -0.079803 -0.000001 0.000001 -1.849906
    33 -0.058556 -0.021324 0.004244 0.000000 0.000000 0.000000
    34 1.640598 -1.968779 -0.099219 -0.000001 0.000001 -1.849906
    35 0.055573 -0.028908 0.000000 0.000000 0.000000 0.000000
    36 1.646738 0.449549 -1.702246 0.154002 0.442277 0.277235
    37 0.928312 0.000000 -0.000002 0.000000 0.000000 0.000000
    38 0.928314 0.000000 0.000001 0.000000 0.000000 0.000000
    39 1.533672 0.109715 1.664491 -0.264755 -0.055959 0.783109
    40 0.928313 0.000000 0.000000 0.000000 0.000000 -0.453556
    41 0.928314 0.000000 0.000001 0.000000 0.000000 0.000000
  time 7
    0 0.235347 0.367732 3.528927 0.000000 0.000000 -1.570874
    1 0.000000 0.000000 0.000000 -1.570795 -1.570796 0.000000
    2 -0.000005 0.000007 3.713255 0.003204 3.158916 -0.091346
    3 18.045721 0.000000 0.000000 0.000000 0.000000 -0.243578
    4 17.597597 0.000000 0.000000 -0.001675 -0.017562 0.152262
    5 0.000005 -0.000003 -3.713255 0.355071 -3.167219 -0.017370
    6 18.045725 0.000000 0.000000 0.000000 0.000000 -0.267079
    7 17.597597 0.000000 0.000000 0.202642 0.018017 0.241891
    8 1.293670 0.684478 -0.000001 0.068538 0.010174 -0.147259
    9 5.309685 -0.003834 0.000000 -0.048003 -0.003308 -0.069706
    10 4.826790 -0.004591 0.000000 0.123232 -0.021632 0.172105
    11 5.792767 -0.005304 0.000000 0.087963 -0.021105 0.234083
    12 6.662317 -0.001453 0.000000 0.000000 -0.000001 0.471000
    13 2.046985 -0.000002 0.000000 -0.224117 -0.072723 -1.073023
    14 -3.112024 1.517254 4.341911 1.130426 -1.511083 1.540103
    15 4.827230 0.000000 0.000001 -0.280233 0.669360 -1.233995
    16 11.139763 0.000000 0.000000 0.000000 0.000000 -0.443457
    17 10.314597 0.000001 0.000000 -1.570000 0.523598 -0.069778
    18 2.975834 -0.386307 -0.044143 -0.038165 -0.021116 1.047614
    19 1.438886 0.000000 0.000000 0.000000 0.000000 0.924863
    20 1.485303 0.000000 0.000000 0.000000 0.000000 1.326389
    21 -2.869898 1.399663 -4.140396 -0.952896 1.377776 1.725721
    22 4.972048 0.000000 0.000001 0.364869 -0.880828 -0.170181
    23 11.585355 0.000000 0.000000 0.000000 0.000000 -0.804847
    24 10.127057 0.000000 0.000001 1.503311 -0.193642 0.376842
    25 2.683750 -0.427338 0.044205 0.016613 0.040339 0.366942
    26 1.438885 -0.000001 0.000000 0.000000 0.000000 0.994455
    27 1.485305 0.000001 0.000000 0.000000 0.000000 1.168770
    28 1.038631 0.548043 -0.144017 -0.000001 0.000001 -1.849906
    29 -0.064003 -0.023521 0.026161 0.000000 0.000000 0.000000
    30 3.013925 3.984634 -0.088975 -0.000001 0.000001 -1.849906
    31 -0.084188 -0.025627 -0.001098 0.000000 0.000000 0.000000
    32 4.778187 3.972486 -0.079803 -0.000001 0.000001 -1.849906
    33 -0.058556 -0.021324 0.004244 0.000000 0.000000 0.000000
    34 1.640598 -1.968779 -0.099219 -0.000001 0.000001 -1.849906
    35 0.055573 -0.028908 0.000000 0.000000 0.000000 0.000000
    36 1.646738 0.449549 -1.702246 0.154002 0.442277 0.277235
    37 0.928312 0.000000 -0.000002 0.000000 0.000000 0.000000
    38 0.928314 0.000000 0.000001 0.000000 0.000000 0.000000
    39 1.533672 0.109715 1.664491 -0.264755 -0.055959 0.783109
    40 0.928313 0.000000 0.000000 0.000000 0.000000 -0.453556
    41 0.928314 0.000000 0.000001 0.000000 0.000000 0.000000
  time 8
    0 0.235347 0.367732 3.528927 0.000000 0.000000 -1.570874
    1 0.000000 0.000000 0.000000 -1.570795 -1.570796 0.000000
    2 -0.000005 0.000007 3.713255 0.003204 3.158916 -0.091346
    3 18.045721 0.000000 0.000000 0.000000 0.000000 -0.243578
    4 17.597597 0.000000 0.000000 -0.001675 -0.017562 0.152262
    5 0.000005 -0.000003 -3.713255 0.355071 -3.167219 -0.017370
    6 18.045725 0.000000 0.000000 0.000000 0.000000 -0.267079
    7 17.597597 0.000000 0.000000 0.202642 0.018017 0.241891
    8 1.293670 0.684478 -0.000001 0.050780 0.007537 -0.147410
    9 5.309685 -0.003834 0.000000 -0.103216 -0.007107 -0.069416
    10 4.826790 -0.004591 0.000000 0.024778 -0.002601 0.104084
    11 5.792767 -0.005304 0.000000 -0.000734 0.000132 0.185083
    12 6.662317 -0.001453 0.000000 0.000000 -0.000001 0.471000
    13 2.046985 -0.000002 0.000000 0.029081 0.002026 -0.962137
    14 -3.112024 1.517254 4.341911 1.294944 -1.477502 1.375963
    15 4.827230 0.000000 0.000001 -0.345489 0.764502 -1.137732
    16 11.139763 0.000000 0.000000 0.000000 0.000000 -0.677804
    17 10.314597 0.000001 0.000000 -1.570000 0.523598 -0.069778
    18 2.975834 -0.386307 -0.044143 -0.038165 -0.021116 1.047614
    19 1.438886 0.000000 0.000000 0.000000 0.000000 0.924863
    20 1.485303 0.000000 0.000000 0.000000 0.000000 1.326389
    21 -2.869898 1.399663 -4.140396 -0.227424 1.455079 2.443810
    22 4.972048 0.000000 0.000001 -0.027783 -0.941481 0.196992
    23 11.585355 0.000000 0.000000 0.000000 0.000000 -1.030178
    24 10.127057 0.000000 0.000001 1.749965 -0.127696 0.179892
    25 2.683750 -0.427338 0.044205 0.016613 0.040339 0.366942
    26 1.438885 -0.000001 0.000000 0.000000 0.000000 0.994455
    27 1.485305 0.000001 0.000000 0.000000 0.000000 1.168770
    28 1.038631 0.548043 -0.144017 -0.000001 0.000001 -1.849906
    29 -0.064003 -0.023521 0.026161 0.000000 0.000000 0.000000
    30 3.013925 3.984634 -0.088975 -0.000001 0.000001 -1.849906
    31 -0.084188 -0.025627 -0.001098 0.000000 0.000000 0.000000
    32 4.778187 3.972486 -0.079803 -0.000001 0.000001 -1.849906
    33 -0.058556 -0.021324 0.004244 0.000000 0.000000 0.000000
    34 1.640598 -1.968779 -0.099219 -0.000001 0.000001 -1.849906
    35 0.055573 -0.028908 0.000000 0.000000 0.000000 0.000000
    36 1.646738 0.449549 -1.702246 0.154002 0.442277 0.277235
    37 0.928312 0.000000 -0.000002 0.000000 0.000000 0.000000
    38 0.928314 0.000000 0.000001 0.000000 0.000000 0.000000
    39 1.533672 0.109715 1.664491 -0.264755 -0.055959 0.783109
    40 0.928313 0.000000 0.000000 0.000000 0.000000 -0.453556
    41 0.928314 0.000000 0.000001 0.000000 0.000000 0.000000
  time 9
    0 0.235347 0.367732 3.528927 0.000000 0.000000 -1.570874
    1 0.000000 0.000000 0.000000 -1.570795 -1.570796 0.000000
    2 -0.000005 0.000007 3.713255 0.003204 3.158916 -0.091346
    3 18.045721 0.000000 0.000000 0.000000 0.000000 -0.243578
    4 17.597597 0.000000 0.000000 -0.001675 -0.017562 0.152262
    5 0.000005 -0.000003 -3.713255 0.355071 -3.167219 -0.017370
    6 18.045725 0.000000 0.000000 0.000000 0.000000 -0.267079
    7 17.597597 0.000000 0.000000 0.202642 0.018017 0.241891
    8 1.293670 0.684478 -0.000001 0.034762 0.005164 -0.147510
    9 5.309685 -0.003834 0.000000 -0.153019 -0.010522 -0.068981
    10 4.826790 -0.004591 0.000000 -0.065417 0.002732 0.041046
    11 5.792767 -0.005304 0.000000 -0.082304 0.011122 0.133217
    12 6.662317 -0.001453 0.000000 0.000000 -0.000001 0.471000
    13 2.046985 -0.000002 0.000000 0.260781 0.059079 -0.840194
    14 -3.112024 1.517254 4.341911 1.358316 -1.450576 1.312972
    15 4.827230 0.000000 0.000001 -0.361172 0.860411 -0.995702
    16 11.139763 0.000000 0.000000 0.000000 0.000000 -0.930512
    17 10.314597 0.000001 0.000000 -1.570000 0.523598 -0.069778
    18 2.975834 -0.386307 -0.044143 -0.038165 -0.021116 1.047614
    19 1.438886 0.000000 0.000000 0.000000 0.000000 0.924863
    20 1.485303 0.000000 0.000000 0.000000 0.000000 1.326389
    21 -2.869898 1.399663 -4.140396 0.652308 1.429273 3.317214
    22 4.972048 0.000000 0.000001 0.134971 -0.925151 -0.140275
    23 11.585355 0.000000 0.000000 0.000000 0.000000 -1.229765
    24 10.127057 0.000000 0.000001 1.948079 -0.034949 0.025540
    25 2.683750 -0.427338 0.044205 0.016613 0.040339 0.366942
    26 1.438885 -0.000001 0.000000 0.000000 0.000000 0.994455
    27 1.485305 0.000001 0.000000 0.000000 0.000000 1.168770
    28 1.038631 0.548043 -0.144017 -0.000001 0.000001 -1.849906
    29 -0.064003 -0.023521 0.026161 0.000000 0.000000 0.000000
    30 3.013925 3.984634 -0.088975 -0.000001 0.000001 -1.849906
    31 -0.084188 -0.025627 -0.001098 0.000000 0.000000 0.000000
    32 4.778187 3.972486 -0.079803 -0.000001 0.000001 -1.849906
    33 -0.058556 -0.021324 0.004244 0.000000 0.000000 0.000000
    34 1.640598 -1.968779 -0.099219 -0.000001 0.000001 -1.849906
    35 0.055573 -0.028908 0.000000 0.000000 0.000000 0.000000
    36 1.646738 0.449549 -1.702246 0.154002 0.442277 0.277235
    37 0.928312 0.000000 -0.000002 0.000000 0.000000 0.000000
    38 0.928314 0.000000 0.000001 0.000000 0.000000 0.000000
    39 1.533672 0.109715 1.664491 -0.264755 -0.055959 0.783109
    40 0.928313 0.000000 0.000000 0.000000 0.000000 -0.453556
    41 0.928314 0.000000 0.000001 0.000000 0.000000 0.000000
  time 10
    0 0.235347 0.367732 3.528927 0.000000 0.000000 -1.570874
    1 0.000000 0.000000 0.000000 -1.570795 -1.570796 0.000000
    2 -0.000005 0.000007 3.713255 0.003204 3.158916 -0.091346
    3 18.045721 0.000000 0.000000 0.000000 0.000000 -0.243578
    4 17.597597 0.000000 0.000000 -0.001675 -0.017562 0.152262
    5 0.000005 -0.000003 -3.713255 0.355071 -3.167219 -0.017370
    6 18.045725 0.000000 0.000000 0.000000 0.000000 -0.267079
    7 17.597597 0.000000 0.000000 0.202642 0.018017 0.241891
    8 1.293670 0.684478 -0.000001 0.020929 0.003103 -0.147577
    9 5.309685 -0.003834 0.000000 -0.196064 -0.013459 -0.068456
    10 4.826790 -0.004591 0.000000 -0.143577 -0.001798 -0.013305
    11 5.792767 -0.005304 0.000000 -0.153585 0.013459 0.085940
    12 6.662317 -0.001453 0.000000 0.000000 -0.000001 0.471000
    13 2.046985 -0.000002 0.000000 0.463788 0.097422 -0.721712
    14 -3.112024 1.517254 4.341911 1.391776 -1.428611 1.279799
    15 4.827230 0.000000 0.000001 -0.336679 0.943895 -0.833893
    16 11.139763 0.000000 0.000000 0.000000 0.000000 -1.163598
    17 10.314597 0.000001 0.000000 -1.570000 0.523598 -0.069778
    18 2.975834 -0.386307 -0.044143 -0.038165 -0.021116 1.047614
    19 1.438886 0.000000 0.000000 0.000000 0.000000 0.924863
    20 1.485303 0.000000 0.000000 0.000000 0.000000 1.326389
    21 -2.869898 1.399663 -4.140396 1.049990 1.347081 3.708760
    22 4.972048 0.000000 0.000001 0.485775 -0.928851 -0.683460
    23 11.585355 0.000000 0.000000 0.000000 0.000000 -1.416690
    24 10.127057 0.000000 0.000001 2.122877 0.079238 -0.100217
    25 2.683750 -0.427338 0.044205 0.016613 0.040339 0.366942
    26 1.438885 -0.000001 0.000000 0.000000 0.000000 0.994455
    27 1.485305 0.000001 0.000000 0.000000 0.000000 1.168770
    28 1.038631 0.548043 -0.144017 -0.000001 0.000001 -1.849906
    29 -0.064003 -0.023521 0.026161 0.000000 0.000000 0.000000
    30 3.013925 3.984634 -0.088975 -0.000001 0.000001 -1.849906
    31 -0.084188 -0.025627 -0.001098 0.000000 0.000000 0.000000
    32 4.778187 3.972486 -0.079803 -0.000001 0.000001 -1.849906
    33 -0.058556 -0.021324 0.004244 0.000000 0.000000 0.000000
    34 1.640598 -1.968779 -0.099219 -0.000001 0.000001 -1.849906
    35 0.055573 -0.028908 0.000000 0.000000 0.000000 0.000000
    36 1.646738 0.449549 -1.702246 0.154002 0.442277 0.277235
    37 0.928312 0.000000 -0.000002 0.000000 0.000000 0.000000
    38 0.928314 0.000000 0.000001 0.000000 0.000000 0.000000
    39 1.533672 0.109715 1.664491 -0.264755 -0.055959 0.783109
    40 0.928313 0.000000 0.000000 0.000000 0.000000 -0.453556
    41 0.928314 0.000000 0.000001 0.000000 0.000000 0.000000
  time 11
    0 0.235347 0.367732 3.528927 0.000000 0.000000 -1.570874
    1 0.000000 0.000000 0.000000 -1.570795 -1.570796 0.000000
    2 -0.000005 0.000007 3.713255 0.003204 3.158916 -0.091346
    3 18.045721 0.000000 0.000000 0.000000 0.000000 -0.243578
    4 17.597597 0.000000 0.000000 -0.001675 -0.017562 0.152262
    5 0.000005 -0.000003 -3.713255 0.355071 -3.167219 -0.017370
    6 18.045725 0.000000 0.000000 0.000000 0.000000 -0.267079
    7 17.597597 0.000000 0.000000 0.202642 0.018017 0.241891
    8 1.293670 0.684478 -0.000001 0.009122 0.001353 -0.147594
    9 5.309685 -0.003834 0.000000 -0.232803 -0.015928 -0.067931
    10 4.826790 -0.004591 0.000000 -0.209914 -0.012356 -0.058769
    11 5.792767 -0.005304 0.000000 -0.214656 0.010139 0.045661
    12 6.662317 -0.001453 0.000000 0.000000 -0.000001 0.471000
    13 2.046985 -0.000002 0.000000 0.638833 0.120320 -0.613568
    14 -3.112024 1.517254 4.341911 1.412964 -1.410032 1.258802
    15 4.827230 0.000000 0.000001 -0.285460 1.009082 -0.667534
    16 11.139763 0.000000 0.000000 0.000000 0.000000 -1.364797
    17 10.314597 0.000001 0.000000 -1.570000 0.523598 -0.069778
    18 2.975834 -0.386307 -0.044143 -0.038165 -0.021116 1.047614
    19 1.438886 0.000000 0.000000 0.000000 0.000000 0.924863
    20 1.485303 0.000000 0.000000 0.000000 0.000000 1.326389
    21 -2.869898 1.399663 -4.140396 1.202524 1.266105 3.856213
    22 4.972048 0.000000 0.000001 0.829539 -0.905926 -1.194367
    23 11.585355 0.000000 0.000000 0.000000 0.000000 -1.571085
    24 10.127057 0.000000 0.000001 2.258499 0.189175 -0.189141
    25 2.683750 -0.427338 0.044205 0.016613 0.040339 0.366942
    26 1.438885 -0.000001 0.000000 0.000000 0.000000 0.994455
    27 1.485305 0.000001 0.000000 0.000000 0.000000 1.168770
    28 1.038631 0.548043 -0.144017 -0.000001 0.000001 -1.849906
    29 -0.064003 -0.023521 0.026161 0.000000 0.000000 0.000000
    30 3.013925 3.984634 -0.088975 -0.000001 0.000001 -1.849906
    31 -0.084188 -0.025627 -0.001098 0.000000 0.000000 0.000000
    32 4.778187 3.972486 -0.079803 -0.000001 0.000001 -1.849906
    33 -0.058556 -0.021324 0.004244 0.000000 0.000000 0.000000
    34 1.640598 -1.968779 -0.099219 -0.000001 0.000001 -1.849906
    35 0.055573 -0.028908 0.000000 0.000000 0.000000 0.000000
    36 1.646738 0.449549 -1.702246 0.154002 0.442277 0.277235
    37 0.928312 0.000000 -0.000002 0.000000 0.000000 0.000000
    38 0.928314 0.000000 0.000001 0.000000 0.000000 0.000000
    39 1.533672 0.109715 1.664491 -0.264755 -0.055959 0.783109
    40 0.928313 0.000000 0.000000 0.000000 0.000000 -0.453556
    41 0.928314 0.000000 0.000001 0.000000 0.000000 0.000000
  time 12
    0 0.235347 0.367732 3.528927 0.000000 0.000000 -1.570874
    1 0.000000 0.000000 0.000000 -1.570795 -1.570796 0.000000
    2 -0.000005 0.000007 3.713255 0.003204 3.158916 -0.091346
    3 18.045721 0.000000 0.000000 0.000000 0.000000 -0.243578
    4 17.597597 0.000000 0.000000 -0.001675 -0.017562 0.152262
    5 0.000005 -0.000003 -3.713255 0.355071 -3.167219 -0.017370
    6 18.045725 0.000000 0.000000 0.000000 0.000000 -0.267079
    7 17.597597 0.000000 0.000000 0.202642 0.018017 0.241891
    8 1.293670 0.684478 -0.000001 -0.000004 -0.000001 -0.147611
    9 5.309685 -0.003834 0.000000 -0.261194 -0.017833 -0.067442
    10 4.826790 -0.004591 0.000000 -0.260652 -0.024580 -0.092725
    11 5.792767 -0.005304 0.000000 -0.261753 0.004710 0.016842
    12 6.662317 -0.001453 0.000000 0.000000 -0.000001 0.471000
    13 2.046985 -0.000002 0.000000 0.774760 0.131015 -0.528527
    14 -3.112024 1.517254 4.341911 1.427345 -1.394415 1.244709
    15 4.827230 0.000000 0.000001 -0.239822 1.048228 -0.536705
    16 11.139763 0.000000 0.000000 0.000000 0.000000 -1.508951
    17 10.314597 0.000001 0.000000 -1.570000 0.523598 -0.069778
    18 2.975834 -0.386307 -0.044143 -0.038165 -0.021116 1.047614
    19 1.438886 0.000000 0.000000 0.000000 0.000000 0.924863
    20 1.485303 0.000000 0.000000 0.000000 0.000000 1.326389
    21 -2.869898 1.399663 -4.140396 1.270978 1.204715 3.920831
    22 4.972048 0.000000 0.000001 1.072046 -0.875036 -1.548563
    23 11.585355 0.000000 0.000000 0.000000 0.000000 -1.683506
    24 10.127057 0.000000 0.000001 2.352714 0.275912 -0.245233
    25 2.683750 -0.427338 0.044205 0.016613 0.040339 0.366942
    26 1.438885 -0.000001 0.000000 0.000000 0.000000 0.994455
    27 1.485305 0.000001 0.000000 0.000000 0.000000 1.168770
    28 1.038631 0.548043 -0.144017 -0.000001 0.000001 -1.849906
    29 -0.064003 -0.023521 0.026161 0.000000 0.000000 0.000000
    30 3.013925 3.984634 -0.088975 -0.000001 0.000001 -1.849906
    31 -0.084188 -0.025627 -0.001098 0.000000 0.000000 0.000000
    32 4.778187 3.972486 -0.079803 -0.000001 0.000001 -1.849906
    33 -0.058556 -0.021324 0.004244 0.000000 0.000000 0.000000
    34 1.640598 -1.968779 -0.099219 -0.000001 0.000001 -1.849906
    35 0.055573 -0.028908 0.000000 0.000000 0.000000 0.000000
    36 1.646738 0.449549 -1.702246 0.154002 0.442277 0.277235
    37 0.928312 0.000000 -0.000002 0.000000 0.000000 0.000000
    38 0.928314 0.000000 0.000001 0.000000 0.000000 0.000000
    39 1.533672 0.109715 1.664491 -0.264755 -0.055959 0.783109
    40 0.928313 0.000000 0.000000 0.000000 0.000000 -0.453556
    41 0.928314 0.000000 0.000001 0.000000 0.000000 0.000000
end
