version 1
nodes
  0 "Bip01" -1
  1 "Bip01 Pelvis" 0
  2 "Bip01 L Leg" 1
  3 "Bip01 L Leg1" 2
  4 "Bip01 L Foot" 3
  5 "Bip01 R Leg" 1
  6 "Bip01 R Leg1" 5
  7 "Bip01 R Foot" 6
  8 "Bip01 Spine" 1
  9 "Bip01 Spine1" 8
  10 "Bip01 Spine2" 9
  11 "Bip01 Spine3" 10
  12 "Bip01 Neck" 11
  13 "Bip01 Head" 12
  14 "Bip01 L Arm" 12
  15 "Bip01 L Arm1" 14
  16 "Bip01 L Arm2" 15
  17 "Bip01 L Hand" 16
  18 "Bip01 L Finger1" 17
  19 "Bip01 L Finger11" 18
  20 "Bip01 L Finger12" 19
  21 "Bip01 R Arm" 12
  22 "Bip01 R Arm1" 21
  23 "Bip01 R Arm2" 22
  24 "Bip01 R Hand" 23
  25 "Bip01 R Finger1" 24
  26 "Bip01 R Finger11" 25
  27 "Bip01 R Finger12" 26
  28 "Dummy08" 13
  29 "Bone02" 28
  30 "Dummy04" 13
  31 "Bone05" 30
  32 "Dummy03" 13
  33 "Bone07" 32
  34 "Dummy10" 13
  35 "Bone13" 34
  36 "Bip01 L Finger0" 17
  37 "Bip01 L Finger01" 36
  38 "Bip01 L Finger02" 37
  39 "Bip01 R Finger0" 24
  40 "Bip01 R Finger01" 39
  41 "Bip01 R Finger02" 40
end
skeleton
  time 0
    0 0.235347 0.367732 3.528927 0.000000 0.000000 -1.570874
    1 0.000000 0.000000 0.000000 -1.570795 -1.570796 0.000000
    2 -0.000005 0.000007 3.713255 0.002054 3.115505 -0.021473
    3 18.045721 0.000000 0.000000 0.000000 0.000000 -0.121501
    4 17.597597 0.000000 0.000000 -0.002613 0.026036 0.099967
    5 0.000005 -0.000003 -3.713255 -0.002524 -3.124238 -0.024449
    6 18.045725 0.000000 0.000000 0.000000 0.000000 -0.127551
    7 17.597597 0.000000 0.000000 0.002950 -0.017289 0.103055
    8 1.293670 0.684478 -0.000001 -0.000004 -0.000001 0.306070
    9 5.309685 -0.003834 0.000000 0.000000 0.000000 -0.000004
    10 4.826790 -0.004591 0.000000 -0.173330 0.019775 0.111669
    11 5.792767 -0.005304 0.000000 -0.138190 0.019451 0.138200
    12 6.662317 -0.001453 0.000000 0.000000 -0.000001 0.471000
    13 2.046985 -0.000002 0.000000 0.254749 -0.184713 -0.060846
    14 -3.112024 1.517254 4.341911 1.021706 -1.200316 1.679890
    15 4.827230 0.000000 0.000001 0.094505 0.640851 -0.848420
    16 11.139763 0.000000 0.000000 0.000000 0.000000 -1.001223
    17 10.314597 0.000001 0.000000 -4.171774 0.083251 -0.332952
    18 2.975834 -0.386307 -0.044143 -0.000797 -0.043611 0.000035
    19 1.438886 0.000000 0.000000 0.000000 0.000000 0.872212
    20 1.485303 0.000000 0.000000 0.000000 0.000000 0.907076
    21 -2.869898 1.399663 -4.140396 0.672729 1.317206 3.326706
    22 4.972048 0.000000 0.000001 -1.089399 -1.024254 0.318132
    23 11.585355 0.000000 0.000000 0.000000 0.000000 -1.839859
    24 10.127057 0.000000 0.000001 1.597717 0.255825 0.214802
    25 2.683750 -0.427338 0.044205 -0.005786 0.043239 -0.157091
    26 1.438885 -0.000001 0.000000 0.000000 0.000000 0.732658
    27 1.485305 0.000001 0.000000 0.000000 0.000000 1.168770
    28 1.038631 0.548043 -0.144017 -0.000001 0.000001 -1.849906
    29 -0.064003 -0.023521 0.026161 0.000000 0.000000 0.000000
    30 3.013925 3.984634 -0.088975 -0.000001 0.000001 -1.849906
    31 -0.084188 -0.025627 -0.001098 0.000000 0.000000 0.000000
    32 4.778187 3.972486 -0.079803 -0.000001 0.000001 -1.849906
    33 -0.058556 -0.021324 0.004244 0.000000 0.000000 0.000000
    34 1.640598 -1.968779 -0.099219 -0.000001 0.000001 -1.849906
    35 0.055573 -0.028908 0.000000 0.000000 0.000000 0.000000
    36 1.646738 0.449549 -1.702246 -0.161934 0.581206 -0.284024
    37 0.928312 0.000000 -0.000002 0.000000 0.000000 0.000000
    38 0.928314 0.000000 0.000001 0.000000 0.000000 0.000000
    39 1.533672 0.109715 1.664491 -0.264755 -0.055959 0.783109
    40 0.928313 0.000000 0.000000 0.000000 0.000000 -0.453556
    41 0.928314 0.000000 0.000001 0.000000 0.000000 0.000000
  time 1
    0 0.235347 0.367732 3.528927 0.000000 0.000000 -1.570874
    1 0.000000 0.000000 0.000000 -1.570795 -1.570796 0.000000
    2 -0.000005 0.000007 3.713255 0.002054 3.115505 -0.021473
    3 18.045721 0.000000 0.000000 0.000000 0.000000 -0.121501
    4 17.597597 0.000000 0.000000 -0.002613 0.026036 0.099967
    5 0.000005 -0.000003 -3.713255 -0.002524 -3.124238 -0.024449
    6 18.045725 0.000000 0.000000 0.000000 0.000000 -0.127551
    7 17.597597 0.000000 0.000000 0.002950 -0.017289 0.103055
    8 1.293670 0.684478 -0.000001 -0.000004 -0.000001 0.271182
    9 5.309685 -0.003834 0.000000 0.000000 0.000000 -0.000004
    10 4.826790 -0.004591 0.000000 -0.244133 0.006508 0.025347
    11 5.792767 -0.005304 0.000000 -0.139006 0.012224 0.086356
    12 6.662317 -0.001453 0.000000 0.000000 -0.000001 0.471000
    13 2.046985 -0.000002 0.000000 0.296109 -0.247755 0.101146
    14 -3.112024 1.517254 4.341911 0.964565 -1.228973 1.733389
    15 4.827230 0.000000 0.000001 0.316646 0.873091 -0.599276
    16 11.139763 0.000000 0.000000 0.000000 0.000000 -1.269629
    17 10.314597 0.000001 0.000000 -4.171774 0.083251 -0.332952
    18 2.975834 -0.386307 -0.044143 -0.000797 -0.043611 0.000035
    19 1.438886 0.000000 0.000000 0.000000 0.000000 0.872212
    20 1.485303 0.000000 0.000000 0.000000 0.000000 0.907076
    21 -2.869898 1.399663 -4.140396 1.167818 1.093722 3.793128
    22 4.972048 0.000000 0.000001 -1.566523 -0.575474 0.389472
    23 11.585355 0.000000 0.000000 0.000000 0.000000 -2.133818
    24 10.127057 0.000000 0.000001 1.598482 0.343023 0.217391
    25 2.683750 -0.427338 0.044205 -0.005786 0.043239 -0.157091
    26 1.438885 -0.000001 0.000000 0.000000 0.000000 0.732658
    27 1.485305 0.000001 0.000000 0.000000 0.000000 1.168770
    28 1.038631 0.548043 -0.144017 -0.000001 0.000001 -1.849906
    29 -0.064003 -0.023521 0.026161 0.000000 0.000000 0.000000
    30 3.013925 3.984634 -0.088975 -0.000001 0.000001 -1.849906
    31 -0.084188 -0.025627 -0.001098 0.000000 0.000000 0.000000
    32 4.778187 3.972486 -0.079803 -0.000001 0.000001 -1.849906
    33 -0.058556 -0.021324 0.004244 0.000000 0.000000 0.000000
    34 1.640598 -1.968779 -0.099219 -0.000001 0.000001 -1.849906
    35 0.055573 -0.028908 0.000000 0.000000 0.000000 0.000000
    36 1.646738 0.449549 -1.702246 -0.161934 0.581206 -0.284024
    37 0.928312 0.000000 -0.000002 0.000000 0.000000 0.000000
    38 0.928314 0.000000 0.000001 0.000000 0.000000 0.000000
    39 1.533672 0.109715 1.664491 -0.264755 -0.055959 0.783109
    40 0.928313 0.000000 0.000000 0.000000 0.000000 -0.453556
    41 0.928314 0.000000 0.000001 0.000000 0.000000 0.000000
  time 2
    0 0.235347 0.367732 3.528927 0.000000 0.000000 -1.570874
    1 0.000000 0.000000 0.000000 -1.570795 -1.570796 0.000000
    2 -0.000005 0.000007 3.713255 0.002054 3.115505 -0.021473
    3 18.045721 0.000000 0.000000 0.000000 0.000000 -0.121501
    4 17.597597 0.000000 0.000000 -0.002613 0.026036 0.099967
    5 0.000005 -0.000003 -3.713255 -0.002524 -3.124238 -0.024449
    6 18.045725 0.000000 0.000000 0.000000 0.000000 -0.127551
    7 17.597597 0.000000 0.000000 0.002950 -0.017289 0.103055
    8 1.293670 0.684478 -0.000001 -0.000004 -0.000001 0.263799
    9 5.309685 -0.003834 0.000000 0.000000 0.000000 -0.000004
    10 4.826790 -0.004591 0.000000 -0.161573 0.006568 0.039503
    11 5.792767 -0.005304 0.000000 -0.082076 0.009528 0.114552
    12 6.662317 -0.001453 0.000000 0.000000 -0.000001 0.471000
    13 2.046985 -0.000002 0.000000 0.185601 -0.159744 0.089324
    14 -3.112024 1.517254 4.341911 0.995916 -1.213933 1.703955
    15 4.827230 0.000000 0.000001 0.257792 0.818797 -0.777449
    16 11.139763 0.000000 0.000000 0.000000 0.000000 -1.161285
    17 10.314597 0.000001 0.000000 -4.171774 0.083251 -0.332952
    18 2.975834 -0.386307 -0.044143 -0.000797 -0.043611 0.000035
    19 1.438886 0.000000 0.000000 0.000000 0.000000 0.872212
    20 1.485303 0.000000 0.000000 0.000000 0.000000 0.907076
    21 -2.869898 1.399663 -4.140396 1.119402 1.135722 3.749698
    22 4.972048 0.000000 0.000001 -1.491257 -0.679484 0.519701
    23 11.585355 0.000000 0.000000 0.000000 0.000000 -2.084219
    24 10.127057 0.000000 0.000001 1.598354 0.328323 0.216921
    25 2.683750 -0.427338 0.044205 -0.005786 0.043239 -0.157091
    26 1.438885 -0.000001 0.000000 0.000000 0.000000 0.732658
    27 1.485305 0.000001 0.000000 0.000000 0.000000 1.168770
    28 1.038631 0.548043 -0.144017 -0.000001 0.000001 -1.849906
    29 -0.064003 -0.023521 0.026161 0.000000 0.000000 0.000000
    30 3.013925 3.984634 -0.088975 -0.000001 0.000001 -1.849906
    31 -0.084188 -0.025627 -0.001098 0.000000 0.000000 0.000000
    32 4.778187 3.972486 -0.079803 -0.000001 0.000001 -1.849906
    33 -0.058556 -0.021324 0.004244 0.000000 0.000000 0.000000
    34 1.640598 -1.968779 -0.099219 -0.000001 0.000001 -1.849906
    35 0.055573 -0.028908 0.000000 0.000000 0.000000 0.000000
    36 1.646738 0.449549 -1.702246 -0.161934 0.581206 -0.284024
    37 0.928312 0.000000 -0.000002 0.000000 0.000000 0.000000
    38 0.928314 0.000000 0.000001 0.000000 0.000000 0.000000
    39 1.533672 0.109715 1.664491 -0.264755 -0.055959 0.783109
    40 0.928313 0.000000 0.000000 0.000000 0.000000 -0.453556
    41 0.928314 0.000000 0.000001 0.000000 0.000000 0.000000
  time 3
    0 0.235347 0.367732 3.528927 0.000000 0.000000 -1.570874
    1 0.000000 0.000000 0.000000 -1.570795 -1.570796 0.000000
    2 -0.000005 0.000007 3.713255 0.002054 3.115505 -0.021473
    3 18.045721 0.000000 0.000000 0.000000 0.000000 -0.121501
    4 17.597597 0.000000 0.000000 -0.002613 0.026036 0.099967
    5 0.000005 -0.000003 -3.713255 -0.002524 -3.124238 -0.024449
    6 18.045725 0.000000 0.000000 0.000000 0.000000 -0.127551
    7 17.597597 0.000000 0.000000 0.002950 -0.017289 0.103055
    8 1.293670 0.684478 -0.000001 -0.000004 -0.000001 0.266428
    9 5.309685 -0.003834 0.000000 0.000000 0.000000 -0.000004
    10 4.826790 -0.004591 0.000000 -0.104448 0.006747 0.063492
    11 5.792767 -0.005304 0.000000 -0.051809 0.007311 0.139363
    12 6.662317 -0.001453 0.000000 0.000000 -0.000001 0.471000
    13 2.046985 -0.000002 0.000000 0.119684 -0.101723 0.047208
    14 -3.112024 1.517254 4.341911 1.021706 -1.200316 1.679890
    15 4.827230 0.000000 0.000001 0.196060 0.744844 -0.910991
    16 11.139763 0.000000 0.000000 0.000000 0.000000 -1.053152
    17 10.314597 0.000001 0.000000 -4.171774 0.083251 -0.332952
    18 2.975834 -0.386307 -0.044143 -0.000797 -0.043611 0.000035
    19 1.438886 0.000000 0.000000 0.000000 0.000000 0.872212
    20 1.485303 0.000000 0.000000 0.000000 0.000000 0.907076
    21 -2.869898 1.399663 -4.140396 1.024008 1.199034 3.661878
    22 4.972048 0.000000 0.000001 -1.383425 -0.824037 0.588011
    23 11.585355 0.000000 0.000000 0.000000 0.000000 -2.006776
    24 10.127057 0.000000 0.000001 1.598163 0.305366 0.216254
    25 2.683750 -0.427338 0.044205 -0.005786 0.043239 -0.157091
    26 1.438885 -0.000001 0.000000 0.000000 0.000000 0.732658
    27 1.485305 0.000001 0.000000 0.000000 0.000000 1.168770
    28 1.038631 0.548043 -0.144017 -0.000001 0.000001 -1.849906
    29 -0.064003 -0.023521 0.026161 0.000000 0.000000 0.000000
    30 3.013925 3.984634 -0.088975 -0.000001 0.000001 -1.849906
    31 -0.084188 -0.025627 -0.001098 0.000000 0.000000 0.000000
    32 4.778187 3.972486 -0.079803 -0.000001 0.000001 -1.849906
    33 -0.058556 -0.021324 0.004244 0.000000 0.000000 0.000000
    34 1.640598 -1.968779 -0.099219 -0.000001 0.000001 -1.849906
    35 0.055573 -0.028908 0.000000 0.000000 0.000000 0.000000
    36 1.646738 0.449549 -1.702246 -0.161934 0.581206 -0.284024
    37 0.928312 0.000000 -0.000002 0.000000 0.000000 0.000000
    38 0.928314 0.000000 0.000001 0.000000 0.000000 0.000000
    39 1.533672 0.109715 1.664491 -0.264755 -0.055959 0.783109
    40 0.928313 0.000000 0.000000 0.000000 0.000000 -0.453556
    41 0.928314 0.000000 0.000001 0.000000 0.000000 0.000000
  time 4
    0 0.235347 0.367732 3.528927 0.000000 0.000000 -1.570874
    1 0.000000 0.000000 0.000000 -1.570795 -1.570796 0.000000
    2 -0.000005 0.000007 3.713255 0.002054 3.115505 -0.021473
    3 18.045721 0.000000 0.000000 0.000000 0.000000 -0.121501
    4 17.597597 0.000000 0.000000 -0.002613 0.026036 0.099967
    5 0.000005 -0.000003 -3.713255 -0.002524 -3.124238 -0.024449
    6 18.045725 0.000000 0.000000 0.000000 0.000000 -0.127551
    7 17.597597 0.000000 0.000000 0.002950 -0.017289 0.103055
    8 1.293670 0.684478 -0.000001 -0.000004 -0.000001 0.279218
    9 5.309685 -0.003834 0.000000 0.000000 0.000000 -0.000004
    10 4.826790 -0.004591 0.000000 -0.117091 0.009815 0.082454
    11 5.792767 -0.005304 0.000000 -0.074069 0.010451 0.139155
    12 6.662317 -0.001453 0.000000 0.000000 -0.000001 0.471000
    13 2.046985 -0.000002 0.000000 0.149713 -0.120883 0.012059
    14 -3.112024 1.517254 4.341911 1.021706 -1.200316 1.679890
    15 4.827230 0.000000 0.000001 0.157940 0.704166 -0.912566
    16 11.139763 0.000000 0.000000 0.000000 0.000000 -1.020004
    17 10.314597 0.000001 0.000000 -4.171774 0.083251 -0.332952
    18 2.975834 -0.386307 -0.044143 -0.000797 -0.043611 0.000035
    19 1.438886 0.000000 0.000000 0.000000 0.000000 0.872212
    20 1.485303 0.000000 0.000000 0.000000 0.000000 0.907076
    21 -2.869898 1.399663 -4.140396 0.911645 1.251181 3.556034
    22 4.972048 0.000000 0.000001 -1.285880 -0.914935 0.529714
    23 11.585355 0.000000 0.000000 0.000000 0.000000 -1.938848
    24 10.127057 0.000000 0.000001 1.597972 0.285198 0.215665
    25 2.683750 -0.427338 0.044205 -0.005786 0.043239 -0.157091
    26 1.438885 -0.000001 0.000000 0.000000 0.000000 0.732658
    27 1.485305 0.000001 0.000000 0.000000 0.000000 1.168770
    28 1.038631 0.548043 -0.144017 -0.000001 0.000001 -1.849906
    29 -0.064003 -0.023521 0.026161 0.000000 0.000000 0.000000
    30 3.013925 3.984634 -0.088975 -0.000001 0.000001 -1.849906
    31 -0.084188 -0.025627 -0.001098 0.000000 0.000000 0.000000
    32 4.778187 3.972486 -0.079803 -0.000001 0.000001 -1.849906
    33 -0.058556 -0.021324 0.004244 0.000000 0.000000 0.000000
    34 1.640598 -1.968779 -0.099219 -0.000001 0.000001 -1.849906
    35 0.055573 -0.028908 0.000000 0.000000 0.000000 0.000000
    36 1.646738 0.449549 -1.702246 -0.161934 0.581206 -0.284024
    37 0.928312 0.000000 -0.000002 0.000000 0.000000 0.000000
    38 0.928314 0.000000 0.000001 0.000000 0.000000 0.000000
    39 1.533672 0.109715 1.664491 -0.264755 -0.055959 0.783109
    40 0.928313 0.000000 0.000000 0.000000 0.000000 -0.453556
    41 0.928314 0.000000 0.000001 0.000000 0.000000 0.000000
  time 5
    0 0.235347 0.367732 3.528927 0.000000 0.000000 -1.570874
    1 0.000000 0.000000 0.000000 -1.570795 -1.570796 0.000000
    2 -0.000005 0.000007 3.713255 0.002054 3.115505 -0.021473
    3 18.045721 0.000000 0.000000 0.000000 0.000000 -0.121501
    4 17.597597 0.000000 0.000000 -0.002613 0.026036 0.099967
    5 0.000005 -0.000003 -3.713255 -0.002524 -3.124238 -0.024449
    6 18.045725 0.000000 0.000000 0.000000 0.000000 -0.127551
    7 17.597597 0.000000 0.000000 0.002950 -0.017289 0.103055
    8 1.293670 0.684478 -0.000001 -0.000004 -0.000001 0.294837
    9 5.309685 -0.003834 0.000000 0.000000 0.000000 -0.000004
    10 4.826790 -0.004591 0.000000 -0.149373 0.015172 0.099718
    11 5.792767 -0.005304 0.000000 -0.111087 0.015652 0.138678
    12 6.662317 -0.001453 0.000000 0.000000 -0.000001 0.471000
    13 2.046985 -0.000002 0.000000 0.209254 -0.158798 -0.029517
    14 -3.112024 1.517254 4.341911 1.021706 -1.200316 1.679890
    15 4.827230 0.000000 0.000001 0.120584 0.666722 -0.876861
    16 11.139763 0.000000 0.000000 0.000000 0.000000 -1.008231
    17 10.314597 0.000001 0.000000 -4.171774 0.083251 -0.332952
    18 2.975834 -0.386307 -0.044143 -0.000797 -0.043611 0.000035
    19 1.438886 0.000000 0.000000 0.000000 0.000000 0.872212
    20 1.485303 0.000000 0.000000 0.000000 0.000000 0.907076
    21 -2.869898 1.399663 -4.140396 0.788640 1.290751 3.438494
    22 4.972048 0.000000 0.000001 -1.180987 -0.980736 0.416150
    23 11.585355 0.000000 0.000000 0.000000 0.000000 -1.882323
    24 10.127057 0.000000 0.000001 1.597845 0.268441 0.215155
    25 2.683750 -0.427338 0.044205 -0.005786 0.043239 -0.157091
    26 1.438885 -0.000001 0.000000 0.000000 0.000000 0.732658
    27 1.485305 0.000001 0.000000 0.000000 0.000000 1.168770
    28 1.038631 0.548043 -0.144017 -0.000001 0.000001 -1.849906
    29 -0.064003 -0.023521 0.026161 0.000000 0.000000 0.000000
    30 3.013925 3.984634 -0.088975 -0.000001 0.000001 -1.849906
    31 -0.084188 -0.025627 -0.001098 0.000000 0.000000 0.000000
    32 4.778187 3.972486 -0.079803 -0.000001 0.000001 -1.849906
    33 -0.058556 -0.021324 0.004244 0.000000 0.000000 0.000000
    34 1.640598 -1.968779 -0.099219 -0.000001 0.000001 -1.849906
    35 0.055573 -0.028908 0.000000 0.000000 0.000000 0.000000
    36 1.646738 0.449549 -1.702246 -0.161934 0.581206 -0.284024
    37 0.928312 0.000000 -0.000002 0.000000 0.000000 0.000000
    38 0.928314 0.000000 0.000001 0.000000 0.000000 0.000000
    39 1.533672 0.109715 1.664491 -0.264755 -0.055959 0.783109
    40 0.928313 0.000000 0.000000 0.000000 0.000000 -0.453556
    41 0.928314 0.000000 0.000001 0.000000 0.000000 0.000000
  time 6
    0 0.235347 0.367732 3.528927 0.000000 0.000000 -1.570874
    1 0.000000 0.000000 0.000000 -1.570795 -1.570796 0.000000
    2 -0.000005 0.000007 3.713255 0.002054 3.115505 -0.021473
    3 18.045721 0.000000 0.000000 0.000000 0.000000 -0.121501
    4 17.597597 0.000000 0.000000 -0.002613 0.026036 0.099967
    5 0.000005 -0.000003 -3.713255 -0.002524 -3.124238 -0.024449
    6 18.045725 0.000000 0.000000 0.000000 0.000000 -0.127551
    7 17.597597 0.000000 0.000000 0.002950 -0.017289 0.103055
    8 1.293670 0.684478 -0.000001 -0.000004 -0.000001 0.306070
    9 5.309685 -0.003834 0.000000 0.000000 0.000000 -0.000004
    10 4.826790 -0.004591 0.000000 -0.173330 0.019775 0.111669
    11 5.792767 -0.005304 0.000000 -0.138190 0.019451 0.138200
    12 6.662317 -0.001453 0.000000 0.000000 -0.000001 0.471000
    13 2.046985 -0.000002 0.000000 0.254749 -0.184713 -0.060846
    14 -3.112024 1.517254 4.341911 1.021706 -1.200316 1.679890
    15 4.827230 0.000000 0.000001 0.094505 0.640851 -0.848420
    16 11.139763 0.000000 0.000000 0.000000 0.000000 -1.001223
    17 10.314597 0.000001 0.000000 -4.171774 0.083251 -0.332952
    18 2.975834 -0.386307 -0.044143 -0.000797 -0.043611 0.000035
    19 1.438886 0.000000 0.000000 0.000000 0.000000 0.872212
    20 1.485303 0.000000 0.000000 0.000000 0.000000 0.907076
    21 -2.869898 1.399663 -4.140396 0.672729 1.317206 3.326706
    22 4.972048 0.000000 0.000001 -1.089399 -1.024254 0.318132
    23 11.585355 0.000000 0.000000 0.000000 0.000000 -1.839859
    24 10.127057 0.000000 0.000001 1.597717 0.255825 0.214802
    25 2.683750 -0.427338 0.044205 -0.005786 0.043239 -0.157091
    26 1.438885 -0.000001 0.000000 0.000000 0.000000 0.732658
    27 1.485305 0.000001 0.000000 0.000000 0.000000 1.168770
    28 1.038631 0.548043 -0.144017 -0.000001 0.000001 -1.849906
    29 -0.064003 -0.023521 0.026161 0.000000 0.000000 0.000000
    30 3.013925 3.984634 -0.088975 -0.000001 0.000001 -1.849906
    31 -0.084188 -0.025627 -0.001098 0.000000 0.000000 0.000000
    32 4.778187 3.972486 -0.079803 -0.000001 0.000001 -1.849906
    33 -0.058556 -0.021324 0.004244 0.000000 0.000000 0.000000
    34 1.640598 -1.968779 -0.099219 -0.000001 0.000001 -1.849906
    35 0.055573 -0.028908 0.000000 0.000000 0.000000 0.000000
    36 1.646738 0.449549 -1.702246 -0.161934 0.581206 -0.284024
    37 0.928312 0.000000 -0.000002 0.000000 0.000000 0.000000
    38 0.928314 0.000000 0.000001 0.000000 0.000000 0.000000
    39 1.533672 0.109715 1.664491 -0.264755 -0.055959 0.783109
    40 0.928313 0.000000 0.000000 0.000000 0.000000 -0.453556
    41 0.928314 0.000000 0.000001 0.000000 0.000000 0.000000
end
